RunID,Tick,AllAgents,Active,Inactive
run-2020-2-29-9-27-23.386535644,0,16,16,0
run-2020-2-29-9-27-23.386535644,1,20,18,2
run-2020-2-29-9-27-23.386535644,2,22,17,5
run-2020-2-29-9-27-23.386535644,3,27,18,9
run-2020-2-29-9-27-23.386535644,4,29,17,12
run-2020-2-29-9-27-23.386535644,5,38,22,16
run-2020-2-29-9-27-23.386535644,6,42,24,18
run-2020-2-29-9-27-23.386535644,7,44,25,19
run-2020-2-29-9-27-23.386535644,8,47,26,21
run-2020-2-29-9-27-23.386535644,9,53,27,26
run-2020-2-29-9-27-23.386535644,10,58,29,29
run-2020-2-29-9-27-23.386535644,11,61,30,31
run-2020-2-29-9-27-23.386535644,12,64,29,35
run-2020-2-29-9-27-23.386535644,13,69,32,37
run-2020-2-29-9-27-23.386535644,14,74,30,44
run-2020-2-29-9-27-23.386535644,15,78,32,46
run-2020-2-29-9-27-23.386535644,16,80,31,49
run-2020-2-29-9-27-23.386535644,17,89,38,51
run-2020-2-29-9-27-23.386535644,18,90,38,52
run-2020-2-29-9-27-23.386535644,19,95,40,55
run-2020-2-29-9-27-23.386535644,20,100,42,58
run-2020-2-29-9-27-23.386535644,21,103,43,60
run-2020-2-29-9-27-23.386535644,22,106,39,67
run-2020-2-29-9-27-23.386535644,23,108,39,69
run-2020-2-29-9-27-23.386535644,24,111,37,74
run-2020-2-29-9-27-23.386535644,25,113,35,78
run-2020-2-29-9-27-23.386535644,26,120,41,79
run-2020-2-29-9-27-23.386535644,27,123,42,81
run-2020-2-29-9-27-23.386535644,28,128,40,88
run-2020-2-29-9-27-23.386535644,29,130,42,88
run-2020-2-29-9-27-23.386535644,30,134,45,89
run-2020-2-29-9-27-23.386535644,31,139,46,93
run-2020-2-29-9-27-23.386535644,32,140,46,94
run-2020-2-29-9-27-23.386535644,33,146,49,97
run-2020-2-29-9-27-23.386535644,34,148,50,98
run-2020-2-29-9-27-23.386535644,35,152,50,102
run-2020-2-29-9-27-23.386535644,36,156,53,103
run-2020-2-29-9-27-23.386535644,37,160,54,106
run-2020-2-29-9-27-23.386535644,38,161,52,109
run-2020-2-29-9-27-23.386535644,39,166,56,110
run-2020-2-29-9-27-23.386535644,40,168,58,110
run-2020-2-29-9-27-23.386535644,41,172,57,115
run-2020-2-29-9-27-23.386535644,42,173,56,117
run-2020-2-29-9-27-23.386535644,43,177,57,120
run-2020-2-29-9-27-23.386535644,44,181,56,125
run-2020-2-29-9-27-23.386535644,45,182,56,126
run-2020-2-29-9-27-23.386535644,46,189,59,130
run-2020-2-29-9-27-23.386535644,47,193,58,135
run-2020-2-29-9-27-23.386535644,48,200,60,140
run-2020-2-29-9-27-23.386535644,49,200,56,144
run-2020-2-29-9-27-23.386535644,50,203,53,150
run-2020-2-29-9-27-23.386535644,51,205,53,152
run-2020-2-29-9-27-23.386535644,52,207,51,156
run-2020-2-29-9-27-23.386535644,53,214,56,158
run-2020-2-29-9-27-23.386535644,54,215,52,163
run-2020-2-29-9-27-23.386535644,55,217,50,167
run-2020-2-29-9-27-23.386535644,56,222,54,168
run-2020-2-29-9-27-23.386535644,57,229,56,173
run-2020-2-29-9-27-23.386535644,58,230,53,177
run-2020-2-29-9-27-23.386535644,59,234,54,180
run-2020-2-29-9-27-23.386535644,60,238,55,183
run-2020-2-29-9-27-23.386535644,61,238,49,189
run-2020-2-29-9-27-23.386535644,62,241,50,191
run-2020-2-29-9-27-23.386535644,63,246,54,192
run-2020-2-29-9-27-23.386535644,64,246,50,196
run-2020-2-29-9-27-23.386535644,65,250,51,199
run-2020-2-29-9-27-23.386535644,66,252,49,203
run-2020-2-29-9-27-23.386535644,67,255,49,206
run-2020-2-29-9-27-23.386535644,68,258,50,208
run-2020-2-29-9-27-23.386535644,69,264,49,215
run-2020-2-29-9-27-23.386535644,70,269,50,219
run-2020-2-29-9-27-23.386535644,71,273,50,223
run-2020-2-29-9-27-23.386535644,72,276,53,223
run-2020-2-29-9-27-23.386535644,73,279,52,227
run-2020-2-29-9-27-23.386535644,74,284,52,232
run-2020-2-29-9-27-23.386535644,75,286,52,234
run-2020-2-29-9-27-23.386535644,76,286,48,238
run-2020-2-29-9-27-23.386535644,77,290,49,241
run-2020-2-29-9-27-23.386535644,78,294,51,243
run-2020-2-29-9-27-23.386535644,79,294,45,249
run-2020-2-29-9-27-23.386535644,80,301,48,253
run-2020-2-29-9-27-23.386535644,81,305,52,253
run-2020-2-29-9-27-23.386535644,82,307,52,255
run-2020-2-29-9-27-23.386535644,83,313,52,261
run-2020-2-29-9-27-23.386535644,84,316,51,265
run-2020-2-29-9-27-23.386535644,85,321,52,269
run-2020-2-29-9-27-23.386535644,86,326,53,273
run-2020-2-29-9-27-23.386535644,87,327,49,278
run-2020-2-29-9-27-23.386535644,88,330,50,280
run-2020-2-29-9-27-23.386535644,89,334,48,286
run-2020-2-29-9-27-23.386535644,90,336,48,288
run-2020-2-29-9-27-23.386535644,91,338,48,290
run-2020-2-29-9-27-23.386535644,92,340,48,292
run-2020-2-29-9-27-23.386535644,93,342,44,298
run-2020-2-29-9-27-23.386535644,94,342,43,299
run-2020-2-29-9-27-23.386535644,95,342,41,301
run-2020-2-29-9-27-23.386535644,96,342,39,303
run-2020-2-29-9-27-23.386535644,97,343,40,303
run-2020-2-29-9-27-23.386535644,98,344,39,305
run-2020-2-29-9-27-23.386535644,99,346,38,308
