run-2020-7-14-14-3-37.300131082,0,11
run-2020-7-14-14-3-37.300131082,1,12
run-2020-7-14-14-3-37.300131082,2,4
run-2020-7-14-14-3-37.300131082,3,6
run-2020-7-14-14-3-37.300131082,4,3
run-2020-7-14-14-3-37.300131082,5,4
run-2020-7-14-14-3-37.300131082,6,3
run-2020-7-14-14-3-37.300131082,7,5
run-2020-7-14-14-3-37.300131082,8,5
run-2020-7-14-14-3-37.300131082,9,5
run-2020-7-14-14-3-37.300131082,10,3
run-2020-7-14-14-3-37.300131082,11,4
run-2020-7-14-14-3-37.300131082,12,2
run-2020-7-14-14-3-37.300131082,13,4
run-2020-7-14-14-3-37.300131082,14,5
run-2020-7-14-14-3-37.300131082,15,3
run-2020-7-14-14-3-37.300131082,16,0
run-2020-7-14-14-3-37.300131082,17,4
run-2020-7-14-14-3-37.300131082,18,4
run-2020-7-14-14-3-37.300131082,19,5
run-2020-7-14-14-3-37.300131082,20,5
run-2020-7-14-14-3-37.300131082,21,8
run-2020-7-14-14-3-37.300131082,22,5
run-2020-7-14-14-3-37.300131082,23,8
run-2020-7-14-14-3-37.300131082,24,2
run-2020-7-14-14-3-37.300131082,25,4
run-2020-7-14-14-3-37.300131082,26,4
run-2020-7-14-14-3-37.300131082,27,8
run-2020-7-14-14-3-37.300131082,28,4
run-2020-7-14-14-3-37.300131082,29,4
run-2020-7-14-14-3-37.300131082,30,2
run-2020-7-14-14-3-37.300131082,31,5
run-2020-7-14-14-3-37.300131082,32,10
run-2020-7-14-14-3-37.300131082,33,5
run-2020-7-14-14-3-37.300131082,34,3
run-2020-7-14-14-3-37.300131082,35,0
run-2020-7-14-14-3-37.300131082,36,0
run-2020-7-14-14-3-37.300131082,37,0
run-2020-7-14-14-3-37.300131082,38,0
run-2020-7-14-14-3-37.300131082,39,0
run-2020-7-14-14-3-37.300131082,40,0
run-2020-7-14-14-3-37.300131082,41,0
run-2020-7-14-14-3-37.300131082,42,0
run-2020-7-14-14-3-37.300131082,43,1
run-2020-7-14-14-3-37.300131082,44,0
run-2020-7-14-14-3-37.300131082,45,0
run-2020-7-14-14-3-37.300131082,46,0
run-2020-7-14-14-3-37.300131082,47,0
run-2020-7-14-14-3-37.300131082,48,0
run-2020-7-14-14-3-37.300131082,49,0
run-2020-7-14-14-3-37.300131082,50,0
run-2020-7-14-14-3-37.300131082,51,0
run-2020-7-14-14-3-37.300131082,52,0
run-2020-7-14-14-3-37.300131082,53,0
run-2020-7-14-14-3-37.300131082,54,0
run-2020-7-14-14-3-37.300131082,55,0
run-2020-7-14-14-3-37.300131082,56,0
run-2020-7-14-14-3-37.300131082,57,0
run-2020-7-14-14-3-37.300131082,58,0
run-2020-7-14-14-3-37.300131082,59,0
run-2020-7-14-14-3-37.300131082,60,0
run-2020-7-14-14-3-37.300131082,61,0
run-2020-7-14-14-3-37.300131082,62,0
run-2020-7-14-14-3-37.300131082,63,0
run-2020-7-14-14-3-37.300131082,64,0
run-2020-7-14-14-3-37.300131082,65,0
run-2020-7-14-14-3-37.300131082,66,0
run-2020-7-14-14-3-37.300131082,67,0
run-2020-7-14-14-3-37.300131082,68,0
run-2020-7-14-14-3-37.300131082,69,0
run-2020-7-14-14-3-37.300131082,70,0
run-2020-7-14-14-3-37.300131082,71,0
run-2020-7-14-14-3-37.300131082,72,0
run-2020-7-14-14-3-37.300131082,73,0
run-2020-7-14-14-3-37.300131082,74,0
run-2020-7-14-14-3-37.300131082,75,0
run-2020-7-14-14-3-37.300131082,76,0
run-2020-7-14-14-3-37.300131082,77,0
run-2020-7-14-14-3-37.300131082,78,0
run-2020-7-14-14-3-37.300131082,79,0
run-2020-7-14-14-3-37.300131082,80,0
run-2020-7-14-14-3-37.300131082,81,0
run-2020-7-14-14-3-37.300131082,82,0
run-2020-7-14-14-3-37.300131082,83,0
run-2020-7-14-14-3-37.300131082,84,0
run-2020-7-14-14-3-37.300131082,85,0
run-2020-7-14-14-3-37.300131082,86,0
run-2020-7-14-14-3-37.300131082,87,0
run-2020-7-14-14-3-37.300131082,88,0
run-2020-7-14-14-3-37.300131082,89,0
run-2020-7-14-14-3-37.300131082,90,0
run-2020-7-14-14-3-37.300131082,91,0
run-2020-7-14-14-3-37.300131082,92,0
run-2020-7-14-14-3-37.300131082,93,0
run-2020-7-14-14-3-37.300131082,94,0
run-2020-7-14-14-3-37.300131082,95,0
run-2020-7-14-14-3-37.300131082,96,0
run-2020-7-14-14-3-37.300131082,97,0
run-2020-7-14-14-3-37.300131082,98,0
run-2020-7-14-14-3-37.300131082,99,0
run-2020-7-14-14-3-37.300131082,100,0
run-2020-7-14-14-3-37.300131082,101,0
