Source,Target
LAWd01f3648-c5da-11ea-98f8-8fdcece85d1f,LAWd01f9840-c5da-11ea-baad-3f63d040d3d9
LAWd01ee26a-c5da-11ea-83a8-6340b9486939,LAWd01f98a4-c5da-11ea-b72d-6beaa0e5d0b4
LAWd01f3648-c5da-11ea-98f8-8fdcece85d1f,LAWd01f9cdc-c5da-11ea-b22b-43d6f26ac060
LAWd01ee4b8-c5da-11ea-ad7e-cbfca5de260d,LAWd01f9de0-c5da-11ea-94da-ff93e25647d8
LAWd01f3774-c5da-11ea-8a09-9f21f71533ad,LAWd01f9d22-c5da-11ea-bdc6-bb19ffb005f1
LAWd01f3706-c5da-11ea-aeec-1f60c8e6f020,LAWd01f9dae-c5da-11ea-9e67-0f1dac1a10f0
LAWd01f25a4-c5da-11ea-8bec-6b6d9e9066e0,LAWd01f9e58-c5da-11ea-9f53-0324c1926ad1
LAWd01ee26a-c5da-11ea-83a8-6340b9486939,LAWd01f9e94-c5da-11ea-afc9-4b27aefcf2e9
LAWd01f3aee-c5da-11ea-aec0-17cc7861c934,LAWd01fd62a-c5da-11ea-8881-3bb50929f979
LAWd01f2748-c5da-11ea-bc5a-fb3f588bc604,LAWd01fd846-c5da-11ea-b13c-3b49e4166d95
LAWd01f3774-c5da-11ea-8a09-9f21f71533ad,LAWd01fdd1e-c5da-11ea-850f-9f3fa1a19b66
LAWd01f9dae-c5da-11ea-9e67-0f1dac1a10f0,LAWd01fdf30-c5da-11ea-82c1-5bcfb09f2993
LAWd01f25a4-c5da-11ea-8bec-6b6d9e9066e0,LAWd01fdfda-c5da-11ea-bb87-cbce8ea79f5d
LAWd01f9dae-c5da-11ea-9e67-0f1dac1a10f0,LAWd01fdf8a-c5da-11ea-a5fb-a3f6e482bc08
LAWd01ee68e-c5da-11ea-a2a0-07e5977aab34,LAWd01fe200-c5da-11ea-8e75-3ba68e2231e0
LAWd01fd62a-c5da-11ea-8881-3bb50929f979,LAWd01fe250-c5da-11ea-a499-fff9d0054793
LAWd01f9d22-c5da-11ea-bdc6-bb19ffb005f1,LAWd01fe250-c5da-11ea-9bd7-47b4292f6b69
LAWd01f3aee-c5da-11ea-aec0-17cc7861c934,LAWd01fe2e6-c5da-11ea-9473-975b1e7d86a8
LAWd01f36ca-c5da-11ea-a327-eba2cb8c2554,LAWd01fe4f8-c5da-11ea-8afd-3b0fc0c0b072
LAWd01fdfda-c5da-11ea-bb87-cbce8ea79f5d,LAWd01fe9a8-c5da-11ea-9a8a-7b4c11687c4f
LAWd01ee2ec-c5da-11ea-8aff-3bd2dbc8695a,LAWd01fe9e4-c5da-11ea-a8c5-4bde98f8cb54
LAWd01f36ca-c5da-11ea-a327-eba2cb8c2554,LAWd01feb60-c5da-11ea-844c-a3bdbb1d1b56
LAWd01f3aee-c5da-11ea-aec0-17cc7861c934,LAWd01feba6-c5da-11ea-9751-3fe14fde23f5
LAWd01fe4f8-c5da-11ea-8afd-3b0fc0c0b072,LAWd01fec46-c5da-11ea-b90d-f37e2f0ac96c
LAWd01fdf8a-c5da-11ea-a5fb-a3f6e482bc08,LAWd01fedf4-c5da-11ea-9b3c-eb052bc62f37
LAWd01fdf8a-c5da-11ea-a5fb-a3f6e482bc08,LAWd01fef48-c5da-11ea-890b-ffae0fe6b1c5
LAWd01ee74c-c5da-11ea-87e0-1b8832d79ab4,LAWd01fefb6-c5da-11ea-94ca-fbc161729e48
LAWd01fdfda-c5da-11ea-bb87-cbce8ea79f5d,LAWd01ff4ca-c5da-11ea-bd50-ffbebabe101c
LAWd01fdfda-c5da-11ea-bb87-cbce8ea79f5d,LAWd01ff4ca-c5da-11ea-8087-27898772eb68
LAWd01f9d22-c5da-11ea-bdc6-bb19ffb005f1,LAWd01ff538-c5da-11ea-b9d3-af8055496ae8
LAWd01f25a4-c5da-11ea-8bec-6b6d9e9066e0,LAWd01ff54c-c5da-11ea-9448-f3f21aa87966
LAWd01f3706-c5da-11ea-961a-9320f96c9846,LAWd01ff628-c5da-11ea-b16d-27873801bd60
LAWd01fe250-c5da-11ea-9bd7-47b4292f6b69,LAWd01ff786-c5da-11ea-9fd1-f3cd58d003e1
LAWd01feba6-c5da-11ea-9751-3fe14fde23f5,LAWd01ffa24-c5da-11ea-b047-bb230a1b34f8
LAWd01f3648-c5da-11ea-98f8-8fdcece85d1f,LAWd01ffa4c-c5da-11ea-866b-cfd71ebca746
LAWd01f98a4-c5da-11ea-b72d-6beaa0e5d0b4,LAWd01ffe84-c5da-11ea-b6f1-d72e0ced0447
LAWd01f9e94-c5da-11ea-afc9-4b27aefcf2e9,LAWd0200118-c5da-11ea-95c7-bbb5386cada7
LAWd01ee3a0-c5da-11ea-a275-07f4c8659550,LAWd0200136-c5da-11ea-96ad-e79e747347fa
LAWd01fdfda-c5da-11ea-bb87-cbce8ea79f5d,LAWd02003c0-c5da-11ea-8ea8-bfb4ce09aa97
LAWd01f9de0-c5da-11ea-94da-ff93e25647d8,LAWd02002c6-c5da-11ea-a227-d3d93495d244
