RunID,Tick,ActiveAgentsPerTick
run-2020-2-17-18-2-45.098154067,0,12
run-2020-2-17-18-2-45.098154067,1,18
run-2020-2-17-18-2-45.098154067,2,20
run-2020-2-17-18-2-45.098154067,3,19
run-2020-2-17-18-2-45.098154067,4,20
run-2020-2-17-18-2-45.098154067,5,23
run-2020-2-17-18-2-45.098154067,6,25
run-2020-2-17-18-2-45.098154067,7,27
run-2020-2-17-18-2-45.098154067,8,28
run-2020-2-17-18-2-45.098154067,9,28
run-2020-2-17-18-2-45.098154067,10,28
run-2020-2-17-18-2-45.098154067,11,31
run-2020-2-17-18-2-45.098154067,12,34
run-2020-2-17-18-2-45.098154067,13,35
run-2020-2-17-18-2-45.098154067,14,31
run-2020-2-17-18-2-45.098154067,15,34
run-2020-2-17-18-2-45.098154067,16,34
run-2020-2-17-18-2-45.098154067,17,32
run-2020-2-17-18-2-45.098154067,18,29
run-2020-2-17-18-2-45.098154067,19,29
run-2020-2-17-18-2-45.098154067,20,34
run-2020-2-17-18-2-45.098154067,21,37
run-2020-2-17-18-2-45.098154067,22,39
run-2020-2-17-18-2-45.098154067,23,40
run-2020-2-17-18-2-45.098154067,24,42
run-2020-2-17-18-2-45.098154067,25,45
run-2020-2-17-18-2-45.098154067,26,49
run-2020-2-17-18-2-45.098154067,27,49
run-2020-2-17-18-2-45.098154067,28,46
run-2020-2-17-18-2-45.098154067,29,44
run-2020-2-17-18-2-45.098154067,30,40
run-2020-2-17-18-2-45.098154067,31,36
run-2020-2-17-18-2-45.098154067,32,42
run-2020-2-17-18-2-45.098154067,33,42
run-2020-2-17-18-2-45.098154067,34,44
run-2020-2-17-18-2-45.098154067,35,47
run-2020-2-17-18-2-45.098154067,36,49
run-2020-2-17-18-2-45.098154067,37,49
run-2020-2-17-18-2-45.098154067,38,51
run-2020-2-17-18-2-45.098154067,39,54
run-2020-2-17-18-2-45.098154067,40,56
run-2020-2-17-18-2-45.098154067,41,59
run-2020-2-17-18-2-45.098154067,42,62
run-2020-2-17-18-2-45.098154067,43,66
run-2020-2-17-18-2-45.098154067,44,66
run-2020-2-17-18-2-45.098154067,45,68
run-2020-2-17-18-2-45.098154067,46,64
run-2020-2-17-18-2-45.098154067,47,71
run-2020-2-17-18-2-45.098154067,48,71
run-2020-2-17-18-2-45.098154067,49,69
run-2020-2-17-18-2-45.098154067,50,67
run-2020-2-17-18-2-45.098154067,51,63
run-2020-2-17-18-2-45.098154067,52,58
run-2020-2-17-18-2-45.098154067,53,55
run-2020-2-17-18-2-45.098154067,54,55
run-2020-2-17-18-2-45.098154067,55,54
run-2020-2-17-18-2-45.098154067,56,58
run-2020-2-17-18-2-45.098154067,57,58
run-2020-2-17-18-2-45.098154067,58,58
run-2020-2-17-18-2-45.098154067,59,56
run-2020-2-17-18-2-45.098154067,60,57
run-2020-2-17-18-2-45.098154067,61,58
run-2020-2-17-18-2-45.098154067,62,56
run-2020-2-17-18-2-45.098154067,63,55
run-2020-2-17-18-2-45.098154067,64,58
run-2020-2-17-18-2-45.098154067,65,59
run-2020-2-17-18-2-45.098154067,66,58
run-2020-2-17-18-2-45.098154067,67,56
run-2020-2-17-18-2-45.098154067,68,52
run-2020-2-17-18-2-45.098154067,69,53
run-2020-2-17-18-2-45.098154067,70,59
run-2020-2-17-18-2-45.098154067,71,58
run-2020-2-17-18-2-45.098154067,72,56
run-2020-2-17-18-2-45.098154067,73,61
run-2020-2-17-18-2-45.098154067,74,59
run-2020-2-17-18-2-45.098154067,75,59
run-2020-2-17-18-2-45.098154067,76,58
run-2020-2-17-18-2-45.098154067,77,55
run-2020-2-17-18-2-45.098154067,78,55
run-2020-2-17-18-2-45.098154067,79,59
run-2020-2-17-18-2-45.098154067,80,59
run-2020-2-17-18-2-45.098154067,81,57
run-2020-2-17-18-2-45.098154067,82,62
run-2020-2-17-18-2-45.098154067,83,63
run-2020-2-17-18-2-45.098154067,84,57
run-2020-2-17-18-2-45.098154067,85,56
run-2020-2-17-18-2-45.098154067,86,59
run-2020-2-17-18-2-45.098154067,87,55
run-2020-2-17-18-2-45.098154067,88,54
run-2020-2-17-18-2-45.098154067,89,56
run-2020-2-17-18-2-45.098154067,90,55
run-2020-2-17-18-2-45.098154067,91,51
run-2020-2-17-18-2-45.098154067,92,48
run-2020-2-17-18-2-45.098154067,93,47
run-2020-2-17-18-2-45.098154067,94,50
run-2020-2-17-18-2-45.098154067,95,56
run-2020-2-17-18-2-45.098154067,96,62
run-2020-2-17-18-2-45.098154067,97,61
run-2020-2-17-18-2-45.098154067,98,56
run-2020-2-17-18-2-45.098154067,99,60
run-2020-2-17-18-2-45.098154067,100,59
