run-2020-6-11-13-20-25.793205976,0,2
run-2020-6-11-13-20-25.793205976,1,0
run-2020-6-11-13-20-25.793205976,2,2
run-2020-6-11-13-20-25.793205976,3,1
run-2020-6-11-13-20-25.793205976,4,1
run-2020-6-11-13-20-25.793205976,5,3
run-2020-6-11-13-20-25.793205976,6,1
run-2020-6-11-13-20-25.793205976,7,0
run-2020-6-11-13-20-25.793205976,8,1
run-2020-6-11-13-20-25.793205976,9,0
run-2020-6-11-13-20-25.793205976,10,0
run-2020-6-11-13-20-25.793205976,11,2
run-2020-6-11-13-20-25.793205976,12,1
run-2020-6-11-13-20-25.793205976,13,0
run-2020-6-11-13-20-25.793205976,14,3
run-2020-6-11-13-20-25.793205976,15,2
run-2020-6-11-13-20-25.793205976,16,3
run-2020-6-11-13-20-25.793205976,17,3
run-2020-6-11-13-20-25.793205976,18,0
run-2020-6-11-13-20-25.793205976,19,0
run-2020-6-11-13-20-25.793205976,20,3
run-2020-6-11-13-20-25.793205976,21,3
run-2020-6-11-13-20-25.793205976,22,2
run-2020-6-11-13-20-25.793205976,23,4
run-2020-6-11-13-20-25.793205976,24,0
run-2020-6-11-13-20-25.793205976,25,2
run-2020-6-11-13-20-25.793205976,26,3
run-2020-6-11-13-20-25.793205976,27,3
run-2020-6-11-13-20-25.793205976,28,2
run-2020-6-11-13-20-25.793205976,29,6
run-2020-6-11-13-20-25.793205976,30,1
run-2020-6-11-13-20-25.793205976,31,2
run-2020-6-11-13-20-25.793205976,32,4
run-2020-6-11-13-20-25.793205976,33,0
run-2020-6-11-13-20-25.793205976,34,1
run-2020-6-11-13-20-25.793205976,35,1
run-2020-6-11-13-20-25.793205976,36,1
run-2020-6-11-13-20-25.793205976,37,2
run-2020-6-11-13-20-25.793205976,38,3
run-2020-6-11-13-20-25.793205976,39,1
run-2020-6-11-13-20-25.793205976,40,4
run-2020-6-11-13-20-25.793205976,41,3
run-2020-6-11-13-20-25.793205976,42,1
run-2020-6-11-13-20-25.793205976,43,0
run-2020-6-11-13-20-25.793205976,44,2
run-2020-6-11-13-20-25.793205976,45,1
run-2020-6-11-13-20-25.793205976,46,1
run-2020-6-11-13-20-25.793205976,47,1
run-2020-6-11-13-20-25.793205976,48,2
run-2020-6-11-13-20-25.793205976,49,1
run-2020-6-11-13-20-25.793205976,50,1
run-2020-6-11-13-20-25.793205976,51,1
run-2020-6-11-13-20-25.793205976,52,3
run-2020-6-11-13-20-25.793205976,53,0
run-2020-6-11-13-20-25.793205976,54,1
run-2020-6-11-13-20-25.793205976,55,0
run-2020-6-11-13-20-25.793205976,56,0
run-2020-6-11-13-20-25.793205976,57,0
run-2020-6-11-13-20-25.793205976,58,1
run-2020-6-11-13-20-25.793205976,59,1
run-2020-6-11-13-20-25.793205976,60,1
run-2020-6-11-13-20-25.793205976,61,3
run-2020-6-11-13-20-25.793205976,62,0
run-2020-6-11-13-20-25.793205976,63,0
run-2020-6-11-13-20-25.793205976,64,0
run-2020-6-11-13-20-25.793205976,65,0
run-2020-6-11-13-20-25.793205976,66,0
run-2020-6-11-13-20-25.793205976,67,3
run-2020-6-11-13-20-25.793205976,68,2
run-2020-6-11-13-20-25.793205976,69,1
run-2020-6-11-13-20-25.793205976,70,1
run-2020-6-11-13-20-25.793205976,71,2
run-2020-6-11-13-20-25.793205976,72,0
run-2020-6-11-13-20-25.793205976,73,1
run-2020-6-11-13-20-25.793205976,74,1
run-2020-6-11-13-20-25.793205976,75,0
run-2020-6-11-13-20-25.793205976,76,0
run-2020-6-11-13-20-25.793205976,77,0
run-2020-6-11-13-20-25.793205976,78,2
run-2020-6-11-13-20-25.793205976,79,0
run-2020-6-11-13-20-25.793205976,80,1
run-2020-6-11-13-20-25.793205976,81,0
run-2020-6-11-13-20-25.793205976,82,1
run-2020-6-11-13-20-25.793205976,83,2
run-2020-6-11-13-20-25.793205976,84,0
run-2020-6-11-13-20-25.793205976,85,1
run-2020-6-11-13-20-25.793205976,86,0
run-2020-6-11-13-20-25.793205976,87,1
run-2020-6-11-13-20-25.793205976,88,2
run-2020-6-11-13-20-25.793205976,89,1
run-2020-6-11-13-20-25.793205976,90,0
run-2020-6-11-13-20-25.793205976,91,1
run-2020-6-11-13-20-25.793205976,92,1
run-2020-6-11-13-20-25.793205976,93,1
run-2020-6-11-13-20-25.793205976,94,1
run-2020-6-11-13-20-25.793205976,95,1
run-2020-6-11-13-20-25.793205976,96,0
run-2020-6-11-13-20-25.793205976,97,1
run-2020-6-11-13-20-25.793205976,98,2
run-2020-6-11-13-20-25.793205976,99,1
run-2020-6-11-13-20-25.793205976,100,0
run-2020-6-11-13-20-25.793205976,101,7
