RunID,Tick,ActiveAgentsPerTick
run-2020-2-17-18-28-9.303477048,0,14
run-2020-2-17-18-28-9.303477048,1,17
run-2020-2-17-18-28-9.303477048,2,17
run-2020-2-17-18-28-9.303477048,3,17
run-2020-2-17-18-28-9.303477048,4,18
run-2020-2-17-18-28-9.303477048,5,18
run-2020-2-17-18-28-9.303477048,6,18
run-2020-2-17-18-28-9.303477048,7,17
run-2020-2-17-18-28-9.303477048,8,21
run-2020-2-17-18-28-9.303477048,9,24
run-2020-2-17-18-28-9.303477048,10,25
run-2020-2-17-18-28-9.303477048,11,27
run-2020-2-17-18-28-9.303477048,12,27
run-2020-2-17-18-28-9.303477048,13,33
run-2020-2-17-18-28-9.303477048,14,31
run-2020-2-17-18-28-9.303477048,15,28
run-2020-2-17-18-28-9.303477048,16,32
run-2020-2-17-18-28-9.303477048,17,35
run-2020-2-17-18-28-9.303477048,18,36
run-2020-2-17-18-28-9.303477048,19,35
run-2020-2-17-18-28-9.303477048,20,33
run-2020-2-17-18-28-9.303477048,21,39
run-2020-2-17-18-28-9.303477048,22,41
run-2020-2-17-18-28-9.303477048,23,40
run-2020-2-17-18-28-9.303477048,24,39
run-2020-2-17-18-28-9.303477048,25,36
run-2020-2-17-18-28-9.303477048,26,37
run-2020-2-17-18-28-9.303477048,27,41
run-2020-2-17-18-28-9.303477048,28,42
run-2020-2-17-18-28-9.303477048,29,49
run-2020-2-17-18-28-9.303477048,30,54
run-2020-2-17-18-28-9.303477048,31,51
run-2020-2-17-18-28-9.303477048,32,48
run-2020-2-17-18-28-9.303477048,33,50
run-2020-2-17-18-28-9.303477048,34,51
run-2020-2-17-18-28-9.303477048,35,50
run-2020-2-17-18-28-9.303477048,36,52
run-2020-2-17-18-28-9.303477048,37,47
run-2020-2-17-18-28-9.303477048,38,49
run-2020-2-17-18-28-9.303477048,39,53
run-2020-2-17-18-28-9.303477048,40,54
run-2020-2-17-18-28-9.303477048,41,59
run-2020-2-17-18-28-9.303477048,42,59
run-2020-2-17-18-28-9.303477048,43,60
run-2020-2-17-18-28-9.303477048,44,56
run-2020-2-17-18-28-9.303477048,45,56
run-2020-2-17-18-28-9.303477048,46,55
run-2020-2-17-18-28-9.303477048,47,53
run-2020-2-17-18-28-9.303477048,48,54
run-2020-2-17-18-28-9.303477048,49,54
run-2020-2-17-18-28-9.303477048,50,58
run-2020-2-17-18-28-9.303477048,51,58
run-2020-2-17-18-28-9.303477048,52,65
run-2020-2-17-18-28-9.303477048,53,64
run-2020-2-17-18-28-9.303477048,54,57
run-2020-2-17-18-28-9.303477048,55,56
run-2020-2-17-18-28-9.303477048,56,55
run-2020-2-17-18-28-9.303477048,57,54
run-2020-2-17-18-28-9.303477048,58,51
run-2020-2-17-18-28-9.303477048,59,55
run-2020-2-17-18-28-9.303477048,60,58
run-2020-2-17-18-28-9.303477048,61,63
run-2020-2-17-18-28-9.303477048,62,67
run-2020-2-17-18-28-9.303477048,63,61
run-2020-2-17-18-28-9.303477048,64,63
run-2020-2-17-18-28-9.303477048,65,63
run-2020-2-17-18-28-9.303477048,66,64
run-2020-2-17-18-28-9.303477048,67,59
run-2020-2-17-18-28-9.303477048,68,62
run-2020-2-17-18-28-9.303477048,69,62
run-2020-2-17-18-28-9.303477048,70,63
run-2020-2-17-18-28-9.303477048,71,69
run-2020-2-17-18-28-9.303477048,72,69
run-2020-2-17-18-28-9.303477048,73,64
run-2020-2-17-18-28-9.303477048,74,56
run-2020-2-17-18-28-9.303477048,75,51
run-2020-2-17-18-28-9.303477048,76,52
run-2020-2-17-18-28-9.303477048,77,53
run-2020-2-17-18-28-9.303477048,78,56
run-2020-2-17-18-28-9.303477048,79,59
run-2020-2-17-18-28-9.303477048,80,60
run-2020-2-17-18-28-9.303477048,81,61
run-2020-2-17-18-28-9.303477048,82,58
run-2020-2-17-18-28-9.303477048,83,59
run-2020-2-17-18-28-9.303477048,84,60
run-2020-2-17-18-28-9.303477048,85,59
run-2020-2-17-18-28-9.303477048,86,55
run-2020-2-17-18-28-9.303477048,87,59
run-2020-2-17-18-28-9.303477048,88,59
run-2020-2-17-18-28-9.303477048,89,60
run-2020-2-17-18-28-9.303477048,90,59
run-2020-2-17-18-28-9.303477048,91,62
run-2020-2-17-18-28-9.303477048,92,65
run-2020-2-17-18-28-9.303477048,93,65
run-2020-2-17-18-28-9.303477048,94,67
run-2020-2-17-18-28-9.303477048,95,65
run-2020-2-17-18-28-9.303477048,96,61
run-2020-2-17-18-28-9.303477048,97,56
run-2020-2-17-18-28-9.303477048,98,58
run-2020-2-17-18-28-9.303477048,99,60
run-2020-2-17-18-28-9.303477048,100,56
