RunID,Tick,AllAgents,Active,Inactive
run-2020-2-17-18-28-9.303477048,0,14,14,0
run-2020-2-17-18-28-9.303477048,1,17,15,2
run-2020-2-17-18-28-9.303477048,2,19,15,4
run-2020-2-17-18-28-9.303477048,3,21,14,7
run-2020-2-17-18-28-9.303477048,4,25,16,9
run-2020-2-17-18-28-9.303477048,5,27,12,15
run-2020-2-17-18-28-9.303477048,6,33,14,19
run-2020-2-17-18-28-9.303477048,7,36,16,20
run-2020-2-17-18-28-9.303477048,8,41,19,22
run-2020-2-17-18-28-9.303477048,9,46,20,26
run-2020-2-17-18-28-9.303477048,10,51,20,31
run-2020-2-17-18-28-9.303477048,11,58,24,34
run-2020-2-17-18-28-9.303477048,12,61,26,35
run-2020-2-17-18-28-9.303477048,13,68,29,39
run-2020-2-17-18-28-9.303477048,14,70,24,46
run-2020-2-17-18-28-9.303477048,15,74,28,46
run-2020-2-17-18-28-9.303477048,16,78,29,49
run-2020-2-17-18-28-9.303477048,17,84,33,51
run-2020-2-17-18-28-9.303477048,18,87,31,56
run-2020-2-17-18-28-9.303477048,19,91,32,59
run-2020-2-17-18-28-9.303477048,20,92,32,60
run-2020-2-17-18-28-9.303477048,21,99,38,61
run-2020-2-17-18-28-9.303477048,22,102,35,67
run-2020-2-17-18-28-9.303477048,23,107,37,70
run-2020-2-17-18-28-9.303477048,24,109,36,73
run-2020-2-17-18-28-9.303477048,25,109,32,77
run-2020-2-17-18-28-9.303477048,26,114,37,77
run-2020-2-17-18-28-9.303477048,27,118,38,80
run-2020-2-17-18-28-9.303477048,28,122,42,80
run-2020-2-17-18-28-9.303477048,29,129,48,81
run-2020-2-17-18-28-9.303477048,30,135,49,86
run-2020-2-17-18-28-9.303477048,31,137,47,90
run-2020-2-17-18-28-9.303477048,32,138,47,91
run-2020-2-17-18-28-9.303477048,33,141,48,93
run-2020-2-17-18-28-9.303477048,34,144,49,95
run-2020-2-17-18-28-9.303477048,35,145,48,97
run-2020-2-17-18-28-9.303477048,36,149,45,104
run-2020-2-17-18-28-9.303477048,37,151,44,107
run-2020-2-17-18-28-9.303477048,38,156,48,108
run-2020-2-17-18-28-9.303477048,39,161,53,108
run-2020-2-17-18-28-9.303477048,40,162,51,111
run-2020-2-17-18-28-9.303477048,41,170,56,114
run-2020-2-17-18-28-9.303477048,42,173,57,116
run-2020-2-17-18-28-9.303477048,43,176,52,124
run-2020-2-17-18-28-9.303477048,44,180,54,126
run-2020-2-17-18-28-9.303477048,45,182,53,129
run-2020-2-17-18-28-9.303477048,46,184,52,132
run-2020-2-17-18-28-9.303477048,47,185,50,135
run-2020-2-17-18-28-9.303477048,48,189,50,139
run-2020-2-17-18-28-9.303477048,49,193,53,140
run-2020-2-17-18-28-9.303477048,50,198,55,143
run-2020-2-17-18-28-9.303477048,51,201,58,143
run-2020-2-17-18-28-9.303477048,52,208,60,148
run-2020-2-17-18-28-9.303477048,53,212,57,155
run-2020-2-17-18-28-9.303477048,54,212,53,159
run-2020-2-17-18-28-9.303477048,55,215,52,163
run-2020-2-17-18-28-9.303477048,56,218,51,167
run-2020-2-17-18-28-9.303477048,57,221,47,174
run-2020-2-17-18-28-9.303477048,58,225,47,178
run-2020-2-17-18-28-9.303477048,59,233,53,180
run-2020-2-17-18-28-9.303477048,60,238,57,181
run-2020-2-17-18-28-9.303477048,61,244,62,182
run-2020-2-17-18-28-9.303477048,62,249,56,193
run-2020-2-17-18-28-9.303477048,63,254,58,196
run-2020-2-17-18-28-9.303477048,64,259,60,199
run-2020-2-17-18-28-9.303477048,65,262,59,203
run-2020-2-17-18-28-9.303477048,66,267,55,212
run-2020-2-17-18-28-9.303477048,67,271,54,217
run-2020-2-17-18-28-9.303477048,68,279,59,220
run-2020-2-17-18-28-9.303477048,69,282,57,225
run-2020-2-17-18-28-9.303477048,70,288,61,227
run-2020-2-17-18-28-9.303477048,71,296,65,231
run-2020-2-17-18-28-9.303477048,72,300,61,239
run-2020-2-17-18-28-9.303477048,73,303,55,248
run-2020-2-17-18-28-9.303477048,74,304,50,254
run-2020-2-17-18-28-9.303477048,75,305,44,261
run-2020-2-17-18-28-9.303477048,76,313,49,264
run-2020-2-17-18-28-9.303477048,77,317,52,265
run-2020-2-17-18-28-9.303477048,78,321,56,265
run-2020-2-17-18-28-9.303477048,79,324,55,269
run-2020-2-17-18-28-9.303477048,80,329,55,274
run-2020-2-17-18-28-9.303477048,81,335,56,279
run-2020-2-17-18-28-9.303477048,82,337,54,283
run-2020-2-17-18-28-9.303477048,83,342,54,288
run-2020-2-17-18-28-9.303477048,84,348,57,291
run-2020-2-17-18-28-9.303477048,85,350,51,299
run-2020-2-17-18-28-9.303477048,86,354,53,301
run-2020-2-17-18-28-9.303477048,87,360,55,305
run-2020-2-17-18-28-9.303477048,88,364,57,307
run-2020-2-17-18-28-9.303477048,89,367,55,312
run-2020-2-17-18-28-9.303477048,90,371,55,316
run-2020-2-17-18-28-9.303477048,91,378,60,318
run-2020-2-17-18-28-9.303477048,92,383,62,321
run-2020-2-17-18-28-9.303477048,93,386,61,325
run-2020-2-17-18-28-9.303477048,94,392,63,329
run-2020-2-17-18-28-9.303477048,95,394,60,334
run-2020-2-17-18-28-9.303477048,96,395,53,342
run-2020-2-17-18-28-9.303477048,97,398,53,345
run-2020-2-17-18-28-9.303477048,98,403,54,349
run-2020-2-17-18-28-9.303477048,99,409,56,353
