RunID,Agent,Age,Created,Inactive,Resources,Reputation,Ability,Que
run-2020-2-18-16-41-30.792759895,AGENT#84f6fc36-526d-11ea-ab4a-0b3256e4d053,0,0,0,10,1.0,1.0,0
run-2020-2-18-16-41-30.792759895,AGENT#84f70e60-526d-11ea-9854-d39a0f56aa81,0,0,0,10,1.0,1.0,0
run-2020-2-18-16-41-30.792759895,AGENT#84f6f510-526d-11ea-a7d2-73b664af83a2,1,0,1,10,1.0,1.0,0
run-2020-2-18-16-41-30.792759895,AGENT#84f70b7c-526d-11ea-bad4-e333cd965933,1,0,1,10,1.0,1.0,0
run-2020-2-18-16-41-30.792759895,AGENT#84f6f8da-526d-11ea-8ca7-4f1e6bfd5d5e,2,0,2,10,1.0,1.0,0
run-2020-2-18-16-41-30.792759895,AGENT#84f6ff92-526d-11ea-9b64-e70dec147597,3,0,3,10,1.0,1.0,0
run-2020-2-18-16-41-30.792759895,AGENT#850b35a2-526d-11ea-945a-63ae8b19dddc,2,1,3,10,1.0,1.0,0
run-2020-2-18-16-41-30.792759895,AGENT#850ef2fa-526d-11ea-9c15-8b037727fb59,1,2,3,10,1.0,1.0,0
run-2020-2-18-16-41-30.792759895,AGENT#84f70898-526d-11ea-88d1-1b87536f2c20,4,0,4,10,1.0,1.0,0
run-2020-2-18-16-41-30.792759895,AGENT#84f70596-526d-11ea-ad41-ff9e72afbd47,5,0,5,10,1.0,1.0,0
run-2020-2-18-16-41-30.792759895,AGENT#850f595c-526d-11ea-b7b8-279fb88bddd8,2,3,5,10,1.0,1.0,0
run-2020-2-18-16-41-30.792759895,AGENT#850fb96a-526d-11ea-93fb-f7110a1f639b,1,4,5,10,1.0,1.0,0
run-2020-2-18-16-41-30.792759895,AGENT#850eeff8-526d-11ea-a7d0-5f0de9c75142,4,2,6,10,1.0,1.0,0
run-2020-2-18-16-41-30.792759895,AGENT#850fb19a-526d-11ea-a175-3b3f01fccb62,2,4,6,10,1.0,1.0,0
run-2020-2-18-16-41-30.792759895,AGENT#851016b2-526d-11ea-b5d8-cfd9e4fd03aa,1,5,6,10,1.0,1.0,0
run-2020-2-18-16-41-30.792759895,AGENT#85101982-526d-11ea-9d6d-ef4aff24d2d3,1,5,6,10,1.0,1.0,0
run-2020-2-18-16-41-30.792759895,AGENT#850f51e6-526d-11ea-91c9-af566de04c71,4,3,7,10,1.0,1.0,0
run-2020-2-18-16-41-30.792759895,AGENT#850f5466-526d-11ea-ad3c-afec2f8015d8,4,3,7,10,1.0,1.0,0
run-2020-2-18-16-41-30.792759895,AGENT#850f56d2-526d-11ea-93ac-2391482f0d0b,4,3,7,10,1.0,1.0,0
run-2020-2-18-16-41-30.792759895,AGENT#850f49c6-526d-11ea-b40f-93f60c4bc8b3,5,3,8,10,1.0,1.0,0
run-2020-2-18-16-41-30.792759895,AGENT#8510a744-526d-11ea-8dca-8f49ce820928,3,6,9,10,1.0,1.0,0
run-2020-2-18-16-41-30.792759895,AGENT#851178ea-526d-11ea-a619-6b28f437f75b,1,8,9,10,1.0,1.0,0
run-2020-2-18-16-41-30.792759895,AGENT#85117b60-526d-11ea-b7b9-6b9f44a347cd,1,8,9,10,1.0,1.0,0
run-2020-2-18-16-41-30.792759895,AGENT#85109cb8-526d-11ea-9c11-ab0e4dc1f7ca,4,6,10,10,1.0,1.0,0
run-2020-2-18-16-41-30.792759895,AGENT#85109f88-526d-11ea-b098-9393f765c8c5,4,6,10,10,1.0,1.0,0
run-2020-2-18-16-41-30.792759895,AGENT#8510a4ba-526d-11ea-bdb5-2f79d9334c8f,4,6,10,10,1.0,1.0,0
run-2020-2-18-16-41-30.792759895,AGENT#85117372-526d-11ea-89ae-47c25c6244f0,2,8,10,10,1.0,1.0,0
run-2020-2-18-16-41-30.792759895,AGENT#85117642-526d-11ea-9d8c-7bf304b6fbf2,2,8,10,10,1.0,1.0,0
run-2020-2-18-16-41-30.792759895,AGENT#8511e23a-526d-11ea-8d9b-db3fa75f4dd2,1,9,10,10,1.0,1.0,0
run-2020-2-18-16-41-30.792759895,AGENT#8511e4f6-526d-11ea-9908-7f96702258ac,1,9,10,10,1.0,1.0,0
run-2020-2-18-16-41-30.792759895,AGENT#8511e9ce-526d-11ea-995c-336a8c3b9df6,1,9,10,10,1.0,1.0,0
run-2020-2-18-16-41-30.792759895,AGENT#8510a21c-526d-11ea-8777-bb065bf684df,5,6,11,10,1.0,1.0,0
run-2020-2-18-16-41-30.792759895,AGENT#8512ca92-526d-11ea-b2c6-df2eefa0d2ec,2,11,13,10,1.0,1.0,0
run-2020-2-18-16-41-30.792759895,AGENT#8511ec76-526d-11ea-a9b8-cf6aae9b1564,5,9,14,10,1.0,1.0,0
run-2020-2-18-16-41-30.792759895,AGENT#85125e40-526d-11ea-a5ce-f714fa0ede52,4,10,14,10,1.0,1.0,0
run-2020-2-18-16-41-30.792759895,AGENT#85134ba2-526d-11ea-8533-077bce2ae146,2,12,14,10,1.0,1.0,0
run-2020-2-18-16-41-30.792759895,AGENT#851348b4-526d-11ea-acdc-ab3ca810141d,3,12,15,10,1.0,1.0,0
run-2020-2-18-16-41-30.792759895,AGENT#8513b9f2-526d-11ea-bc49-a74929472366,2,13,15,10,1.0,1.0,0
run-2020-2-18-16-41-30.792759895,AGENT#851352e6-526d-11ea-b094-a3c1cf6170df,4,12,16,10,1.0,1.0,0
run-2020-2-18-16-41-30.792759895,AGENT#8513bc5e-526d-11ea-bf65-27f02572f9cb,3,13,16,10,1.0,1.0,0
run-2020-2-18-16-41-30.792759895,AGENT#85142f68-526d-11ea-be89-23dc2f010d8b,2,14,16,10,1.0,1.0,0
run-2020-2-18-16-41-30.792759895,AGENT#85143792-526d-11ea-9269-4bf6a1d98d35,3,14,17,10,1.0,1.0,0
run-2020-2-18-16-41-30.792759895,AGENT#85143eea-526d-11ea-8013-6ff54b1874e7,3,14,17,10,1.0,1.0,0
run-2020-2-18-16-41-30.792759895,AGENT#8514c810-526d-11ea-b81c-6fc7c76d62f9,2,15,17,10,1.0,1.0,0
run-2020-2-18-16-41-30.792759895,AGENT#851543bc-526d-11ea-878b-fbf12f76fd6d,1,16,17,10,1.0,1.0,0
run-2020-2-18-16-41-30.792759895,AGENT#8514bfc8-526d-11ea-83c8-13db55f3f919,3,15,18,10,1.0,1.0,0
run-2020-2-18-16-41-30.792759895,AGENT#851540ce-526d-11ea-85ee-038a5bf7617d,2,16,18,10,1.0,1.0,0
run-2020-2-18-16-41-30.792759895,AGENT#8515bae0-526d-11ea-a69b-ef781df18932,1,17,18,10,1.0,1.0,0
run-2020-2-18-16-41-30.792759895,AGENT#8515bdce-526d-11ea-82f4-3fa02f756522,1,17,18,10,1.0,1.0,0
run-2020-2-18-16-41-30.792759895,AGENT#85163948-526d-11ea-ae63-d7a883eace29,1,18,19,10,1.0,1.0,0
run-2020-2-18-16-41-30.792759895,AGENT#85163bf0-526d-11ea-b935-87603b9d81ff,1,18,19,10,1.0,1.0,0
run-2020-2-18-16-41-30.792759895,AGENT#85163e5c-526d-11ea-bf46-cb5645cd0e0d,1,18,19,10,1.0,1.0,0
run-2020-2-18-16-41-30.792759895,AGENT#8516e672-526d-11ea-a3fc-e74bb2d20a9c,1,19,20,10,1.0,1.0,0
run-2020-2-18-16-41-30.792759895,AGENT#8516e186-526d-11ea-a7f2-fbbd8e1354b6,2,19,21,10,1.0,1.0,0
run-2020-2-18-16-41-30.792759895,AGENT#85177060-526d-11ea-a99c-bfd9378f2516,1,20,21,10,1.0,1.0,0
run-2020-2-18-16-41-30.792759895,AGENT#850f4ca0-526d-11ea-bc92-13b67c036972,19,3,22,10,1.0,1.0,0
run-2020-2-18-16-41-30.792759895,AGENT#8515c2ba-526d-11ea-83d6-a76df3f5b182,5,17,22,10,1.0,1.0,0
run-2020-2-18-16-41-30.792759895,AGENT#851775d8-526d-11ea-ac21-5360737763c7,2,20,22,10,1.0,1.0,0
run-2020-2-18-16-41-30.792759895,AGENT#85180b06-526d-11ea-9260-6f02b3ad0414,1,21,22,10,1.0,1.0,0
run-2020-2-18-16-41-30.792759895,AGENT#8518156a-526d-11ea-8816-831a43840da1,1,21,22,10,1.0,1.0,0
run-2020-2-18-16-41-30.792759895,AGENT#8514c572-526d-11ea-8558-0350222177a1,8,15,23,10,1.0,1.0,0
run-2020-2-18-16-41-30.792759895,AGENT#8516dc9a-526d-11ea-ad37-bb856edbb471,4,19,23,10,1.0,1.0,0
run-2020-2-18-16-41-30.792759895,AGENT#85177ac4-526d-11ea-b4dd-7f37775d09ae,3,20,23,10,1.0,1.0,0
run-2020-2-18-16-41-30.792759895,AGENT#85180df4-526d-11ea-ac2b-4b75431a70e0,2,21,23,10,1.0,1.0,0
run-2020-2-18-16-41-30.792759895,AGENT#85181aa6-526d-11ea-992a-5faa621ac9fb,2,21,23,10,1.0,1.0,0
run-2020-2-18-16-41-30.792759895,AGENT#85177358-526d-11ea-9570-4fe4e6a938d5,5,20,25,10,1.0,1.0,0
run-2020-2-18-16-41-30.792759895,AGENT#85181308-526d-11ea-a208-9f6c7e5e596f,4,21,25,10,1.0,1.0,0
run-2020-2-18-16-41-30.792759895,AGENT#8518ac50-526d-11ea-8959-33c9b9a5a22c,4,22,26,10,1.0,1.0,0
run-2020-2-18-16-41-30.792759895,AGENT#8519bdca-526d-11ea-9e13-abd4a46dce2d,2,24,26,10,1.0,1.0,0
run-2020-2-18-16-41-30.792759895,AGENT#851a722e-526d-11ea-8b4a-83bc2979ee2c,1,25,26,10,1.0,1.0,0
run-2020-2-18-16-41-30.792759895,AGENT#8511e76c-526d-11ea-a22c-7711f6318d28,18,9,27,10,1.0,1.0,0
run-2020-2-18-16-41-30.792759895,AGENT#8519c054-526d-11ea-89bf-db9df0f856f3,3,24,27,10,1.0,1.0,0
run-2020-2-18-16-41-30.792759895,AGENT#851a7530-526d-11ea-941c-53d53638bf90,2,25,27,10,1.0,1.0,0
run-2020-2-18-16-41-30.792759895,AGENT#8519bae6-526d-11ea-9c9d-0fecc5042089,4,24,28,10,1.0,1.0,0
run-2020-2-18-16-41-30.792759895,AGENT#8519c7ca-526d-11ea-bfd3-b778125f74e4,4,24,28,10,1.0,1.0,0
run-2020-2-18-16-41-30.792759895,AGENT#851a7cec-526d-11ea-ac57-930245e62de0,3,25,28,10,1.0,1.0,0
run-2020-2-18-16-41-30.792759895,AGENT#851b2f02-526d-11ea-9630-234d37c0878b,2,26,28,10,1.0,1.0,0
run-2020-2-18-16-41-30.792759895,AGENT#8519c554-526d-11ea-9b0e-cb2331bdcebd,5,24,29,10,1.0,1.0,0
run-2020-2-18-16-41-30.792759895,AGENT#851a7f76-526d-11ea-a84f-ebaf9f0a5579,4,25,29,10,1.0,1.0,0
run-2020-2-18-16-41-30.792759895,AGENT#851b2c1e-526d-11ea-91da-f3b9990a2d05,3,26,29,10,1.0,1.0,0
run-2020-2-18-16-41-30.792759895,AGENT#851b3470-526d-11ea-94ac-3fe41d280816,3,26,29,10,1.0,1.0,0
run-2020-2-18-16-41-30.792759895,AGENT#851c8000-526d-11ea-9a34-13deabeb3800,1,28,29,10,1.0,1.0,0
run-2020-2-18-16-41-30.792759895,AGENT#851a77ce-526d-11ea-bea6-633df93d2974,5,25,30,10,1.0,1.0,0
run-2020-2-18-16-41-30.792759895,AGENT#851a81ec-526d-11ea-a1a3-b39fec1ed49c,5,25,30,10,1.0,1.0,0
run-2020-2-18-16-41-30.792759895,AGENT#851d2b4a-526d-11ea-8425-77ad9736d1de,1,29,30,10,1.0,1.0,0
run-2020-2-18-16-41-30.792759895,AGENT#851d2348-526d-11ea-a49b-2f550e29fe26,2,29,31,10,1.0,1.0,0
run-2020-2-18-16-41-30.792759895,AGENT#851d2622-526d-11ea-898e-0b5afc9d1870,2,29,31,10,1.0,1.0,0
run-2020-2-18-16-41-30.792759895,AGENT#851dd842-526d-11ea-8016-bf00fe58c60a,1,30,31,10,1.0,1.0,0
run-2020-2-18-16-41-30.792759895,AGENT#851c72c2-526d-11ea-95fd-3b5f2e7a1575,4,28,32,10,1.0,1.0,0
run-2020-2-18-16-41-30.792759895,AGENT#851ea380-526d-11ea-bd67-a3f4e487143d,1,31,32,10,1.0,1.0,0
run-2020-2-18-16-41-30.792759895,AGENT#850fb460-526d-11ea-9a55-676fd0603e41,29,4,33,10,1.0,1.0,0
run-2020-2-18-16-41-30.792759895,AGENT#851e9e4e-526d-11ea-84cf-4b19283fa33b,2,31,33,10,1.0,1.0,0
run-2020-2-18-16-41-30.792759895,AGENT#851ea0d8-526d-11ea-a08e-4ba9df8b58aa,2,31,33,10,1.0,1.0,0
run-2020-2-18-16-41-30.792759895,AGENT#8513508e-526d-11ea-8865-a719c42d0856,22,12,34,10,1.0,1.0,0
run-2020-2-18-16-41-30.792759895,AGENT#851a7a6c-526d-11ea-8769-8b73839627ad,9,25,34,10,1.0,1.0,0
run-2020-2-18-16-41-30.792759895,AGENT#851dd298-526d-11ea-b8cb-1f52fae6ebd2,4,30,34,10,1.0,1.0,0
run-2020-2-18-16-41-30.792759895,AGENT#851f4c9a-526d-11ea-bd4b-cb534194e7d5,2,32,34,10,1.0,1.0,0
run-2020-2-18-16-41-30.792759895,AGENT#851f51ae-526d-11ea-a245-cf6f0a199df6,3,32,35,10,1.0,1.0,0
run-2020-2-18-16-41-30.792759895,AGENT#851f5438-526d-11ea-a5a4-f3f02acd8f13,3,32,35,10,1.0,1.0,0
run-2020-2-18-16-41-30.792759895,AGENT#85200216-526d-11ea-a428-c3f9bef6d754,2,33,35,10,1.0,1.0,0
run-2020-2-18-16-41-30.792759895,AGENT#8520bbb6-526d-11ea-807e-d396f1eed996,1,34,35,10,1.0,1.0,0
run-2020-2-18-16-41-30.792759895,AGENT#851e9b92-526d-11ea-83f3-275c7a22f3eb,5,31,36,10,1.0,1.0,0
run-2020-2-18-16-41-30.792759895,AGENT#851f49d4-526d-11ea-98d4-a749a3be48a8,4,32,36,10,1.0,1.0,0
run-2020-2-18-16-41-30.792759895,AGENT#851ffc9e-526d-11ea-aae4-3f05b46401eb,3,33,36,10,1.0,1.0,0
run-2020-2-18-16-41-30.792759895,AGENT#852004a0-526d-11ea-af7b-5720b5adc053,3,33,36,10,1.0,1.0,0
run-2020-2-18-16-41-30.792759895,AGENT#8520b922-526d-11ea-998c-07e692229cc0,2,34,36,10,1.0,1.0,0
run-2020-2-18-16-41-30.792759895,AGENT#85216eda-526d-11ea-9b72-033bca1aaf35,1,35,36,10,1.0,1.0,0
run-2020-2-18-16-41-30.792759895,AGENT#851f4f24-526d-11ea-a05a-d34b2735f093,5,32,37,10,1.0,1.0,0
run-2020-2-18-16-41-30.792759895,AGENT#851fff5a-526d-11ea-9a44-ab482cf18c04,4,33,37,10,1.0,1.0,0
run-2020-2-18-16-41-30.792759895,AGENT#8520be40-526d-11ea-8776-b701522c5f3d,3,34,37,10,1.0,1.0,0
run-2020-2-18-16-41-30.792759895,AGENT#85217420-526d-11ea-bb83-af7381a90bbc,2,35,37,10,1.0,1.0,0
run-2020-2-18-16-41-30.792759895,AGENT#852176b4-526d-11ea-8e2b-ab9bd563e7e3,2,35,37,10,1.0,1.0,0
run-2020-2-18-16-41-30.792759895,AGENT#852236a8-526d-11ea-8da5-3b04b2654c5c,1,36,37,10,1.0,1.0,0
run-2020-2-18-16-41-30.792759895,AGENT#85224472-526d-11ea-9851-e35165d7f8ab,1,36,37,10,1.0,1.0,0
run-2020-2-18-16-41-30.792759895,AGENT#8515c7a6-526d-11ea-bc88-9377f6bddf10,21,17,38,10,1.0,1.0,0
run-2020-2-18-16-41-30.792759895,AGENT#85223bc6-526d-11ea-8091-f3742144da28,2,36,38,10,1.0,1.0,0
run-2020-2-18-16-41-30.792759895,AGENT#8520b67a-526d-11ea-897a-d7559c22ce17,5,34,39,10,1.0,1.0,0
run-2020-2-18-16-41-30.792759895,AGENT#852171aa-526d-11ea-a55c-57edc78d7498,4,35,39,10,1.0,1.0,0
run-2020-2-18-16-41-30.792759895,AGENT#85223928-526d-11ea-a84e-1b65e497e1bb,3,36,39,10,1.0,1.0,0
run-2020-2-18-16-41-30.792759895,AGENT#852233ec-526d-11ea-acad-47e5a7bb61de,4,36,40,10,1.0,1.0,0
run-2020-2-18-16-41-30.792759895,AGENT#85223e32-526d-11ea-86ac-6725c68eb6d7,5,36,41,10,1.0,1.0,0
run-2020-2-18-16-41-30.792759895,AGENT#8522fed0-526d-11ea-8695-27d62786aae9,4,37,41,10,1.0,1.0,0
run-2020-2-18-16-41-30.792759895,AGENT#8523b1fe-526d-11ea-8ad6-870a9de2c1f2,4,38,42,10,1.0,1.0,0
run-2020-2-18-16-41-30.792759895,AGENT#8524747c-526d-11ea-acde-b7324383c3b4,3,39,42,10,1.0,1.0,0
run-2020-2-18-16-41-30.792759895,AGENT#8525d998-526d-11ea-923d-5356a6b4113b,1,41,42,10,1.0,1.0,0
run-2020-2-18-16-41-30.792759895,AGENT#8523ac4a-526d-11ea-8d20-373f09f0c51b,5,38,43,10,1.0,1.0,0
run-2020-2-18-16-41-30.792759895,AGENT#8523af1a-526d-11ea-87ed-ff773e014cd4,5,38,43,10,1.0,1.0,0
run-2020-2-18-16-41-30.792759895,AGENT#8525d6aa-526d-11ea-a689-1b803434d431,2,41,43,10,1.0,1.0,0
run-2020-2-18-16-41-30.792759895,AGENT#852693a6-526d-11ea-8e69-dbee50b1ad65,1,42,43,10,1.0,1.0,0
run-2020-2-18-16-41-30.792759895,AGENT#8526963a-526d-11ea-be70-731d9d1d190c,1,42,43,10,1.0,1.0,0
run-2020-2-18-16-41-30.792759895,AGENT#852690fe-526d-11ea-9172-23812efcb6f7,2,42,44,10,1.0,1.0,0
run-2020-2-18-16-41-30.792759895,AGENT#84f71144-526d-11ea-a80b-a7a64da1c72e,45,0,45,10,1.0,1.0,0
run-2020-2-18-16-41-30.792759895,AGENT#851c788a-526d-11ea-8cd7-e3d3a9da338b,17,28,45,10,1.0,1.0,0
run-2020-2-18-16-41-30.792759895,AGENT#85252be2-526d-11ea-aa24-9764c1dbd77f,5,40,45,10,1.0,1.0,0
run-2020-2-18-16-41-30.792759895,AGENT#85283030-526d-11ea-998f-03e46e2946e4,1,44,45,10,1.0,1.0,0
run-2020-2-18-16-41-30.792759895,AGENT#85283300-526d-11ea-a3ac-77d490ef4d5c,1,44,45,10,1.0,1.0,0
run-2020-2-18-16-41-30.792759895,AGENT#84f75438-526d-11ea-9728-8f2a5f930375,46,0,46,10,1.0,1.0,0
run-2020-2-18-16-41-30.792759895,AGENT#85275ffc-526d-11ea-81d2-7f551ff8c452,3,43,46,10,1.0,1.0,0
run-2020-2-18-16-41-30.792759895,AGENT#85282a7c-526d-11ea-8ef2-a74232203eb4,2,44,46,10,1.0,1.0,0
run-2020-2-18-16-41-30.792759895,AGENT#85290e7e-526d-11ea-aa11-6ff9ffed01c4,1,45,46,10,1.0,1.0,0
run-2020-2-18-16-41-30.792759895,AGENT#85269b30-526d-11ea-9b4f-0738b1affff5,5,42,47,10,1.0,1.0,0
run-2020-2-18-16-41-30.792759895,AGENT#85290adc-526d-11ea-b282-9b4e1f407bc3,2,45,47,10,1.0,1.0,0
run-2020-2-18-16-41-30.792759895,AGENT#852a0d9c-526d-11ea-9b35-cf62430267b8,1,46,47,10,1.0,1.0,0
run-2020-2-18-16-41-30.792759895,AGENT#852a10bc-526d-11ea-8af8-5f7d88611100,1,46,47,10,1.0,1.0,0
run-2020-2-18-16-41-30.792759895,AGENT#850f4f66-526d-11ea-a7d2-7bda238cbf0b,45,3,48,10,1.0,1.0,0
run-2020-2-18-16-41-30.792759895,AGENT#85276588-526d-11ea-a051-a3f5bc1e78a8,5,43,48,10,1.0,1.0,0
run-2020-2-18-16-41-30.792759895,AGENT#852a09c8-526d-11ea-bf89-2f9f45661543,2,46,48,10,1.0,1.0,0
run-2020-2-18-16-41-30.792759895,AGENT#851c7d94-526d-11ea-82a2-a35266cc4813,22,28,50,10,1.0,1.0,0
run-2020-2-18-16-41-30.792759895,AGENT#852a13fa-526d-11ea-b483-97fce22d3a71,4,46,50,10,1.0,1.0,0
run-2020-2-18-16-41-30.792759895,AGENT#852b1aca-526d-11ea-8f27-6fa365e81bc3,3,47,50,10,1.0,1.0,0
run-2020-2-18-16-41-30.792759895,AGENT#852bfb84-526d-11ea-ab5e-83d75e0705ab,2,48,50,10,1.0,1.0,0
run-2020-2-18-16-41-30.792759895,AGENT#852cd91e-526d-11ea-a26e-ab5a5ca22f08,1,49,50,10,1.0,1.0,0
run-2020-2-18-16-41-30.792759895,AGENT#850fb6cc-526d-11ea-a9dc-5711f2edd480,47,4,51,10,1.0,1.0,0
run-2020-2-18-16-41-30.792759895,AGENT#85101c2a-526d-11ea-b425-979853890033,46,5,51,10,1.0,1.0,0
run-2020-2-18-16-41-30.792759895,AGENT#85109984-526d-11ea-b750-6f8919b77398,45,6,51,10,1.0,1.0,0
run-2020-2-18-16-41-30.792759895,AGENT#852b1750-526d-11ea-a244-2f4c78ce07ed,4,47,51,10,1.0,1.0,0
run-2020-2-18-16-41-30.792759895,AGENT#852bf1e8-526d-11ea-b62b-078ea1272a4a,3,48,51,10,1.0,1.0,0
run-2020-2-18-16-41-30.792759895,AGENT#852bf56c-526d-11ea-9119-ffaf17743ca7,3,48,51,10,1.0,1.0,0
run-2020-2-18-16-41-30.792759895,AGENT#852bf8a0-526d-11ea-820e-2b8c64166681,3,48,51,10,1.0,1.0,0
run-2020-2-18-16-41-30.792759895,AGENT#852cd2a2-526d-11ea-8ff5-13cfb433565d,2,49,51,10,1.0,1.0,0
run-2020-2-18-16-41-30.792759895,AGENT#852e968c-526d-11ea-b55b-2fef70520064,1,51,52,10,1.0,1.0,0
run-2020-2-18-16-41-30.792759895,AGENT#852e9ccc-526d-11ea-9756-8f2ba59912be,1,51,52,10,1.0,1.0,0
run-2020-2-18-16-41-30.792759895,AGENT#852e9fb0-526d-11ea-a734-df139f02187e,1,51,52,10,1.0,1.0,0
run-2020-2-18-16-41-30.792759895,AGENT#84f702a8-526d-11ea-8764-d7a6b0587e52,53,0,53,10,1.0,1.0,0
run-2020-2-18-16-41-30.792759895,AGENT#85117066-526d-11ea-b9a9-0bd1287fb6de,45,8,53,10,1.0,1.0,0
run-2020-2-18-16-41-30.792759895,AGENT#8510a9d8-526d-11ea-8aee-efa4df803b0f,48,6,54,10,1.0,1.0,0
run-2020-2-18-16-41-30.792759895,AGENT#852cd612-526d-11ea-91e6-3f6e5926e5ce,5,49,54,10,1.0,1.0,0
run-2020-2-18-16-41-30.792759895,AGENT#852e99de-526d-11ea-afcd-af94839fd99f,3,51,54,10,1.0,1.0,0
run-2020-2-18-16-41-30.792759895,AGENT#852fae3c-526d-11ea-82fc-2f9e36c1dd77,2,52,54,10,1.0,1.0,0
run-2020-2-18-16-41-30.792759895,AGENT#8530a7e2-526d-11ea-ae09-d79ba75beb46,1,53,54,10,1.0,1.0,0
run-2020-2-18-16-41-30.792759895,AGENT#8530ae2c-526d-11ea-ab9f-e711fb21d183,1,53,54,10,1.0,1.0,0
run-2020-2-18-16-41-30.792759895,AGENT#85247166-526d-11ea-b283-0fee183a8754,16,39,55,10,1.0,1.0,0
run-2020-2-18-16-41-30.792759895,AGENT#8530b0e8-526d-11ea-bb6d-ef1a4de2570a,2,53,55,10,1.0,1.0,0
run-2020-2-18-16-41-30.792759895,AGENT#853199ae-526d-11ea-b564-ff1637e8bfd5,1,54,55,10,1.0,1.0,0
run-2020-2-18-16-41-30.792759895,AGENT#85117dd6-526d-11ea-a4c6-8b2515168ed9,48,8,56,10,1.0,1.0,0
run-2020-2-18-16-41-30.792759895,AGENT#8512c7a4-526d-11ea-a1fb-5f07328546f5,45,11,56,10,1.0,1.0,0
run-2020-2-18-16-41-30.792759895,AGENT#8531967a-526d-11ea-ac65-3b57359b0472,2,54,56,10,1.0,1.0,0
run-2020-2-18-16-41-30.792759895,AGENT#85319ca6-526d-11ea-8a7e-3720debcf7f9,2,54,56,10,1.0,1.0,0
run-2020-2-18-16-41-30.792759895,AGENT#85326e38-526d-11ea-b65e-e30c92fe65bb,1,55,56,10,1.0,1.0,0
run-2020-2-18-16-41-30.792759895,AGENT#85134e22-526d-11ea-aa1f-47631bf39b7b,45,12,57,10,1.0,1.0,0
run-2020-2-18-16-41-30.792759895,AGENT#852fa612-526d-11ea-a683-d3cf44e21649,5,52,57,10,1.0,1.0,0
run-2020-2-18-16-41-30.792759895,AGENT#8530ab48-526d-11ea-b7c4-cf8703f82916,5,53,58,10,1.0,1.0,0
run-2020-2-18-16-41-30.792759895,AGENT#853353d4-526d-11ea-b784-136189841c9c,2,56,58,10,1.0,1.0,0
run-2020-2-18-16-41-30.792759895,AGENT#85143b52-526d-11ea-8e37-97b37c805822,45,14,59,10,1.0,1.0,0
run-2020-2-18-16-41-30.792759895,AGENT#85335794-526d-11ea-b948-1fae0139b06a,3,56,59,10,1.0,1.0,0
run-2020-2-18-16-41-30.792759895,AGENT#8513b754-526d-11ea-aa5e-539afdee8146,47,13,60,10,1.0,1.0,0
run-2020-2-18-16-41-30.792759895,AGENT#85345040-526d-11ea-8d9f-a3614498a77e,3,57,60,10,1.0,1.0,0
run-2020-2-18-16-41-30.792759895,AGENT#851433b4-526d-11ea-a3a9-b331234db0c6,47,14,61,10,1.0,1.0,0
run-2020-2-18-16-41-30.792759895,AGENT#8514bcf8-526d-11ea-9012-379df040e61b,46,15,61,10,1.0,1.0,0
run-2020-2-18-16-41-30.792759895,AGENT#853529a2-526d-11ea-b644-eb20c0084eea,3,58,61,10,1.0,1.0,0
run-2020-2-18-16-41-30.792759895,AGENT#851c7b28-526d-11ea-80cc-1b46d19dec5c,34,28,62,10,1.0,1.0,0
run-2020-2-18-16-41-30.792759895,AGENT#85352fce-526d-11ea-9796-afcb6870cb55,4,58,62,10,1.0,1.0,0
run-2020-2-18-16-41-30.792759895,AGENT#8514c252-526d-11ea-aa4f-63053485ea71,48,15,63,10,1.0,1.0,0
run-2020-2-18-16-41-30.792759895,AGENT#8515c530-526d-11ea-8283-0b12bdbf8a97,46,17,63,10,1.0,1.0,0
run-2020-2-18-16-41-30.792759895,AGENT#8515c058-526d-11ea-91d0-1322be1fb28c,47,17,64,10,1.0,1.0,0
run-2020-2-18-16-41-30.792759895,AGENT#8516da24-526d-11ea-a200-9f99366b1cb3,45,19,64,10,1.0,1.0,0
run-2020-2-18-16-41-30.792759895,AGENT#8516df06-526d-11ea-a352-e3f56d87d018,45,19,64,10,1.0,1.0,0
run-2020-2-18-16-41-30.792759895,AGENT#85387b3e-526d-11ea-ba2c-7ffb3477b966,2,62,64,10,1.0,1.0,0
run-2020-2-18-16-41-30.792759895,AGENT#853951bc-526d-11ea-929a-ffeddef6c9ab,1,63,64,10,1.0,1.0,0
run-2020-2-18-16-41-30.792759895,AGENT#853957de-526d-11ea-81d9-576ad3bd763a,1,63,64,10,1.0,1.0,0
run-2020-2-18-16-41-30.792759895,AGENT#8516d736-526d-11ea-a8ba-bf03631c1d6b,46,19,65,10,1.0,1.0,0
run-2020-2-18-16-41-30.792759895,AGENT#8516e410-526d-11ea-ae09-6fb432c630d7,46,19,65,10,1.0,1.0,0
run-2020-2-18-16-41-30.792759895,AGENT#85387df0-526d-11ea-9f55-6333e07ab931,3,62,65,10,1.0,1.0,0
run-2020-2-18-16-41-30.792759895,AGENT#853a3974-526d-11ea-a3b5-4fa4d835010b,1,64,65,10,1.0,1.0,0
run-2020-2-18-16-41-30.792759895,AGENT#853a3c08-526d-11ea-9de9-bbeff260cf67,1,64,65,10,1.0,1.0,0
run-2020-2-18-16-41-30.792759895,AGENT#8517784e-526d-11ea-a4ff-071543f3d36e,46,20,66,10,1.0,1.0,0
run-2020-2-18-16-41-30.792759895,AGENT#853a2e5c-526d-11ea-b36b-cb4a7d4a787d,2,64,66,10,1.0,1.0,0
run-2020-2-18-16-41-30.792759895,AGENT#853a3eba-526d-11ea-9963-9f8593bfa569,2,64,66,10,1.0,1.0,0
run-2020-2-18-16-41-30.792759895,AGENT#853b33f6-526d-11ea-b1fa-a35200d58291,1,65,66,10,1.0,1.0,0
run-2020-2-18-16-41-30.792759895,AGENT#85181074-526d-11ea-b4f3-fb33a99b5dcb,46,21,67,10,1.0,1.0,0
run-2020-2-18-16-41-30.792759895,AGENT#85181812-526d-11ea-a9e1-8f9ef14ff41c,46,21,67,10,1.0,1.0,0
run-2020-2-18-16-41-30.792759895,AGENT#8518a98a-526d-11ea-86c8-bf60fe3d1cd4,45,22,67,10,1.0,1.0,0
run-2020-2-18-16-41-30.792759895,AGENT#851dcd52-526d-11ea-bbc5-5f348d5680bd,37,30,67,10,1.0,1.0,0
run-2020-2-18-16-41-30.792759895,AGENT#85387602-526d-11ea-a232-e77779be93e2,5,62,67,10,1.0,1.0,0
run-2020-2-18-16-41-30.792759895,AGENT#853b3144-526d-11ea-8f3e-e764a4918622,2,65,67,10,1.0,1.0,0
run-2020-2-18-16-41-30.792759895,AGENT#853c1cb2-526d-11ea-8708-5fbd0b0b329d,1,66,67,10,1.0,1.0,0
run-2020-2-18-16-41-30.792759895,AGENT#853c2040-526d-11ea-9f9b-cfb8878f5798,1,66,67,10,1.0,1.0,0
run-2020-2-18-16-41-30.792759895,AGENT#851933d2-526d-11ea-94ae-47bb4451a573,45,23,68,10,1.0,1.0,0
run-2020-2-18-16-41-30.792759895,AGENT#85193698-526d-11ea-a4b1-8390bb647b17,45,23,68,10,1.0,1.0,0
run-2020-2-18-16-41-30.792759895,AGENT#851e9886-526d-11ea-89d6-73ec572cf9c4,37,31,68,10,1.0,1.0,0
run-2020-2-18-16-41-30.792759895,AGENT#853c25ae-526d-11ea-a0db-93469c46698a,2,66,68,10,1.0,1.0,0
run-2020-2-18-16-41-30.792759895,AGENT#853d2d14-526d-11ea-ac32-2f8fd8bc33b1,1,67,68,10,1.0,1.0,0
run-2020-2-18-16-41-30.792759895,AGENT#853d2f9e-526d-11ea-917b-1356ae27ac5b,1,67,68,10,1.0,1.0,0
run-2020-2-18-16-41-30.792759895,AGENT#853d321e-526d-11ea-a034-3f6ff087d6b5,1,67,68,10,1.0,1.0,0
run-2020-2-18-16-41-30.792759895,AGENT#8519c2de-526d-11ea-ae2d-e351dea3648d,45,24,69,10,1.0,1.0,0
run-2020-2-18-16-41-30.792759895,AGENT#853e1382-526d-11ea-a880-f378d8b517d6,1,68,69,10,1.0,1.0,0
run-2020-2-18-16-41-30.792759895,AGENT#85193954-526d-11ea-8196-db8be4b1f72f,47,23,70,10,1.0,1.0,0
run-2020-2-18-16-41-30.792759895,AGENT#853b28ac-526d-11ea-807b-a3a149fad642,5,65,70,10,1.0,1.0,0
run-2020-2-18-16-41-30.792759895,AGENT#853b2e92-526d-11ea-bd2e-b3cf71c10a0b,5,65,70,10,1.0,1.0,0
run-2020-2-18-16-41-30.792759895,AGENT#853d272e-526d-11ea-88e6-3b1672b0db7c,3,67,70,10,1.0,1.0,0
run-2020-2-18-16-41-30.792759895,AGENT#85344cda-526d-11ea-bd92-430a91b76b96,15,57,72,10,1.0,1.0,0
run-2020-2-18-16-41-30.792759895,AGENT#853fb796-526d-11ea-a422-ebcd862f3b50,2,70,72,10,1.0,1.0,0
run-2020-2-18-16-41-30.792759895,AGENT#853fbfa2-526d-11ea-909d-cbb153080171,2,70,72,10,1.0,1.0,0
run-2020-2-18-16-41-30.792759895,AGENT#853fc722-526d-11ea-a45a-afb7b4c43d2e,2,70,72,10,1.0,1.0,0
run-2020-2-18-16-41-30.792759895,AGENT#851c75c4-526d-11ea-a852-af58603fd351,45,28,73,10,1.0,1.0,0
run-2020-2-18-16-41-30.792759895,AGENT#853e109e-526d-11ea-822d-bf238ae93233,5,68,73,10,1.0,1.0,0
run-2020-2-18-16-41-30.792759895,AGENT#853ee654-526d-11ea-95cd-cf5b13abda2c,4,69,73,10,1.0,1.0,0
run-2020-2-18-16-41-30.792759895,AGENT#853fc218-526d-11ea-a2b1-df64106d5f91,3,70,73,10,1.0,1.0,0
run-2020-2-18-16-41-30.792759895,AGENT#8540a534-526d-11ea-98ed-8b6e7ec850b5,2,71,73,10,1.0,1.0,0
run-2020-2-18-16-41-30.792759895,AGENT#8540a7be-526d-11ea-b3fb-570b92f6c823,2,71,73,10,1.0,1.0,0
run-2020-2-18-16-41-30.792759895,AGENT#853ee906-526d-11ea-bda3-277ea2a9efb0,5,69,74,10,1.0,1.0,0
run-2020-2-18-16-41-30.792759895,AGENT#853fba66-526d-11ea-8b04-e7a450351e82,4,70,74,10,1.0,1.0,0
run-2020-2-18-16-41-30.792759895,AGENT#853fbd04-526d-11ea-84b7-33909ec26778,4,70,74,10,1.0,1.0,0
run-2020-2-18-16-41-30.792759895,AGENT#853fc48e-526d-11ea-b1a4-8349873c51d4,4,70,74,10,1.0,1.0,0
run-2020-2-18-16-41-30.792759895,AGENT#8541b6c2-526d-11ea-92a2-9783dd5230f0,2,72,74,10,1.0,1.0,0
run-2020-2-18-16-41-30.792759895,AGENT#8541be38-526d-11ea-b1eb-df49b5c55722,2,72,74,10,1.0,1.0,0
run-2020-2-18-16-41-30.792759895,AGENT#8542c490-526d-11ea-acb5-d3aee43e102a,1,73,74,10,1.0,1.0,0
run-2020-2-18-16-41-30.792759895,AGENT#8541b942-526d-11ea-9dbd-c7c3a6c935d5,3,72,75,10,1.0,1.0,0
run-2020-2-18-16-41-30.792759895,AGENT#851b31d2-526d-11ea-8880-0bde24810ea7,50,26,76,10,1.0,1.0,0
run-2020-2-18-16-41-30.792759895,AGENT#851dd55e-526d-11ea-890a-5b4ac9f897fd,46,30,76,10,1.0,1.0,0
run-2020-2-18-16-41-30.792759895,AGENT#8540a20a-526d-11ea-a4d9-0bba63268f78,5,71,76,10,1.0,1.0,0
run-2020-2-18-16-41-30.792759895,AGENT#8540aa34-526d-11ea-b47c-036afb1c5931,5,71,76,10,1.0,1.0,0
run-2020-2-18-16-41-30.792759895,AGENT#8541bbae-526d-11ea-a928-b33b9c75ce71,4,72,76,10,1.0,1.0,0
run-2020-2-18-16-41-30.792759895,AGENT#8543b562-526d-11ea-8814-478998b1f285,2,74,76,10,1.0,1.0,0
run-2020-2-18-16-41-30.792759895,AGENT#851d28b6-526d-11ea-994c-2f2eb7e8ade3,48,29,77,10,1.0,1.0,0
run-2020-2-18-16-41-30.792759895,AGENT#853eeb90-526d-11ea-ae61-7f730535e53f,8,69,77,10,1.0,1.0,0
run-2020-2-18-16-41-30.792759895,AGENT#8541c55e-526d-11ea-8d7b-ef93d76769cf,5,72,77,10,1.0,1.0,0
run-2020-2-18-16-41-30.792759895,AGENT#8542c1ac-526d-11ea-b6e5-772c44ae301d,4,73,77,10,1.0,1.0,0
run-2020-2-18-16-41-30.792759895,AGENT#85449fae-526d-11ea-bd0b-0367f54799ae,2,75,77,10,1.0,1.0,0
run-2020-2-18-16-41-30.792759895,AGENT#8544a260-526d-11ea-bb29-cfc75e0a67ef,2,75,77,10,1.0,1.0,0
run-2020-2-18-16-41-30.792759895,AGENT#8544a4f4-526d-11ea-a5cd-7334d2997957,2,75,77,10,1.0,1.0,0
run-2020-2-18-16-41-30.792759895,AGENT#854594f4-526d-11ea-b54e-6bb75291d8ca,1,76,77,10,1.0,1.0,0
run-2020-2-18-16-41-30.792759895,AGENT#854597ce-526d-11ea-ad33-9b2fe65bcd81,1,76,77,10,1.0,1.0,0
run-2020-2-18-16-41-30.792759895,AGENT#85459a62-526d-11ea-bf3d-c341945545dd,1,76,77,10,1.0,1.0,0
run-2020-2-18-16-41-30.792759895,AGENT#85459d0a-526d-11ea-b8b8-9f17d110324e,2,76,78,10,1.0,1.0,0
run-2020-2-18-16-41-30.792759895,AGENT#8520b3a0-526d-11ea-b2dd-0f1b2cf6a8ca,45,34,79,10,1.0,1.0,0
run-2020-2-18-16-41-30.792759895,AGENT#85459fb2-526d-11ea-b1dd-0b15bf15195c,3,76,79,10,1.0,1.0,0
run-2020-2-18-16-41-30.792759895,AGENT#8546b168-526d-11ea-81c7-c35341ef1f15,2,77,79,10,1.0,1.0,0
run-2020-2-18-16-41-30.792759895,AGENT#8531930a-526d-11ea-89b9-a790ed509be5,26,54,80,10,1.0,1.0,0
run-2020-2-18-16-41-30.792759895,AGENT#85449cc0-526d-11ea-abf9-871e76277766,5,75,80,10,1.0,1.0,0
run-2020-2-18-16-41-30.792759895,AGENT#8547a80c-526d-11ea-9a3e-bb8a62e22959,2,78,80,10,1.0,1.0,0
run-2020-2-18-16-41-30.792759895,AGENT#8547ab4a-526d-11ea-9b0d-a3483646f337,2,78,80,10,1.0,1.0,0
run-2020-2-18-16-41-30.792759895,AGENT#8541b3b6-526d-11ea-a98f-f3bea99d2487,9,72,81,10,1.0,1.0,0
run-2020-2-18-16-41-30.792759895,AGENT#8547a406-526d-11ea-9297-5399b62151da,4,78,82,10,1.0,1.0,0
run-2020-2-18-16-41-30.792759895,AGENT#8547ae42-526d-11ea-987d-0fd747ff356a,4,78,82,10,1.0,1.0,0
run-2020-2-18-16-41-30.792759895,AGENT#854a242e-526d-11ea-9efe-8fde6f0d5296,2,80,82,10,1.0,1.0,0
run-2020-2-18-16-41-30.792759895,AGENT#854a276c-526d-11ea-a60d-6b65bccad619,2,80,82,10,1.0,1.0,0
run-2020-2-18-16-41-30.792759895,AGENT#854b5510-526d-11ea-8f64-bf927d8919fb,1,81,82,10,1.0,1.0,0
run-2020-2-18-16-41-30.792759895,AGENT#8522fba6-526d-11ea-88fd-f76d57a413fc,46,37,83,10,1.0,1.0,0
run-2020-2-18-16-41-30.792759895,AGENT#853b2564-526d-11ea-af36-4bcff33cddf6,18,65,83,10,1.0,1.0,0
run-2020-2-18-16-41-30.792759895,AGENT#854b6636-526d-11ea-8b1e-17a14dd6c446,2,81,83,10,1.0,1.0,0
run-2020-2-18-16-41-30.792759895,AGENT#8548eb5e-526d-11ea-b1ee-bb0caff5fc83,5,79,84,10,1.0,1.0,0
run-2020-2-18-16-41-30.792759895,AGENT#8548efc8-526d-11ea-87e5-ab4076201db8,5,79,84,10,1.0,1.0,0
run-2020-2-18-16-41-30.792759895,AGENT#854a2082-526d-11ea-b085-5b2470c04f94,4,80,84,10,1.0,1.0,0
run-2020-2-18-16-41-30.792759895,AGENT#854a2e06-526d-11ea-b4e3-776d03aca99e,4,80,84,10,1.0,1.0,0
run-2020-2-18-16-41-30.792759895,AGENT#854b5894-526d-11ea-907b-4f25ab2c3fd1,3,81,84,10,1.0,1.0,0
run-2020-2-18-16-41-30.792759895,AGENT#854dea8c-526d-11ea-b1c8-07249580e55f,1,83,84,10,1.0,1.0,0
run-2020-2-18-16-41-30.792759895,AGENT#854df16c-526d-11ea-860d-bf3540768d2b,1,83,84,10,1.0,1.0,0
run-2020-2-18-16-41-30.792759895,AGENT#8521792a-526d-11ea-a1d7-b7f6e2288cbb,50,35,85,10,1.0,1.0,0
run-2020-2-18-16-41-30.792759895,AGENT#854cb2ca-526d-11ea-9629-37efb94de494,3,82,85,10,1.0,1.0,0
run-2020-2-18-16-41-30.792759895,AGENT#854f2cda-526d-11ea-8775-a772a72c261f,1,84,85,10,1.0,1.0,0
run-2020-2-18-16-41-30.792759895,AGENT#854f309a-526d-11ea-813c-ebb56c84852b,1,84,85,10,1.0,1.0,0
run-2020-2-18-16-41-30.792759895,AGENT#853d2a6c-526d-11ea-8dcc-dfbf5d93bd14,19,67,86,10,1.0,1.0,0
run-2020-2-18-16-41-30.792759895,AGENT#854f3cf2-526d-11ea-aa9f-13e0debae3af,2,84,86,10,1.0,1.0,0
run-2020-2-18-16-41-30.792759895,AGENT#8550722a-526d-11ea-aede-d715e5edec9c,1,85,86,10,1.0,1.0,0
run-2020-2-18-16-41-30.792759895,AGENT#85507856-526d-11ea-8418-2fca0bf3ccdd,1,85,86,10,1.0,1.0,0
run-2020-2-18-16-41-30.792759895,AGENT#854f33e2-526d-11ea-b294-0f558324307f,3,84,87,10,1.0,1.0,0
run-2020-2-18-16-41-30.792759895,AGENT#8551aeba-526d-11ea-aae0-07dc39279b4d,1,86,87,10,1.0,1.0,0
run-2020-2-18-16-41-30.792759895,AGENT#85507540-526d-11ea-ada5-ff46e418100e,3,85,88,10,1.0,1.0,0
run-2020-2-18-16-41-30.792759895,AGENT#85326b36-526d-11ea-832f-b7e36248e707,34,55,89,10,1.0,1.0,0
run-2020-2-18-16-41-30.792759895,AGENT#854f36da-526d-11ea-9623-3baa0d863055,5,84,89,10,1.0,1.0,0
run-2020-2-18-16-41-30.792759895,AGENT#8553d154-526d-11ea-93ad-dfa366326179,1,88,89,10,1.0,1.0,0
run-2020-2-18-16-41-30.792759895,AGENT#8553d474-526d-11ea-be32-3792e49521d1,1,88,89,10,1.0,1.0,0
run-2020-2-18-16-41-30.792759895,AGENT#8553d76c-526d-11ea-ae90-abf4958229af,1,88,89,10,1.0,1.0,0
run-2020-2-18-16-41-30.792759895,AGENT#852698c4-526d-11ea-b35c-2f9c10496151,48,42,90,10,1.0,1.0,0
run-2020-2-18-16-41-30.792759895,AGENT#852762ea-526d-11ea-96bd-6f06b11cb6f0,47,43,90,10,1.0,1.0,0
run-2020-2-18-16-41-30.792759895,AGENT#8552cda4-526d-11ea-8832-7779d92d454f,3,87,90,10,1.0,1.0,0
run-2020-2-18-16-41-30.792759895,AGENT#8553dcee-526d-11ea-8b27-ab88762fab44,2,88,90,10,1.0,1.0,0
run-2020-2-18-16-41-30.792759895,AGENT#852a16fc-526d-11ea-a213-0b559f103d40,45,46,91,10,1.0,1.0,0
run-2020-2-18-16-41-30.792759895,AGENT#855557f4-526d-11ea-b2bb-c724885dc1b9,2,89,91,10,1.0,1.0,0
run-2020-2-18-16-41-30.792759895,AGENT#85282d9c-526d-11ea-99f0-936df518c379,48,44,92,10,1.0,1.0,0
run-2020-2-18-16-41-30.792759895,AGENT#85555b1e-526d-11ea-a934-531a173607e8,3,89,92,10,1.0,1.0,0
run-2020-2-18-16-41-30.792759895,AGENT#85579c12-526d-11ea-afed-bb9cbf00fc24,1,91,92,10,1.0,1.0,0
run-2020-2-18-16-41-30.792759895,AGENT#852bfe7c-526d-11ea-9ccb-c33f1895c010,45,48,93,10,1.0,1.0,0
run-2020-2-18-16-41-30.792759895,AGENT#8552ca48-526d-11ea-b0fa-cbf1d9c9db07,6,87,93,10,1.0,1.0,0
run-2020-2-18-16-41-30.792759895,AGENT#855792f8-526d-11ea-b0ae-07a805aedf54,2,91,93,10,1.0,1.0,0
run-2020-2-18-16-41-30.792759895,AGENT#8559e3c8-526d-11ea-baeb-6b0e4e7716ca,1,93,94,10,1.0,1.0,0
run-2020-2-18-16-41-30.792759895,AGENT#852cdc2a-526d-11ea-9592-33ab4752de9c,46,49,95,10,1.0,1.0,0
run-2020-2-18-16-41-30.792759895,AGENT#8548f32e-526d-11ea-8216-47fdcb9a753a,16,79,95,10,1.0,1.0,0
run-2020-2-18-16-41-30.792759895,AGENT#8558b62e-526d-11ea-a5c4-8f5d8b4f8a21,3,92,95,10,1.0,1.0,0
run-2020-2-18-16-41-30.792759895,AGENT#855b0780-526d-11ea-a09a-9fe220298002,1,94,95,10,1.0,1.0,0
run-2020-2-18-16-41-30.792759895,AGENT#855b0a1e-526d-11ea-868a-bbba2a5322a5,1,94,95,10,1.0,1.0,0
run-2020-2-18-16-41-30.792759895,AGENT#852dbae6-526d-11ea-909f-9725bda654dc,46,50,96,10,1.0,1.0,0
run-2020-2-18-16-41-30.792759895,AGENT#85579654-526d-11ea-9b7a-bf3cd449a8c3,5,91,96,10,1.0,1.0,0
run-2020-2-18-16-41-30.792759895,AGENT#855c2c8c-526d-11ea-a10a-5bf5f7ff9e39,2,95,97,10,1.0,1.0,0
run-2020-2-18-16-41-30.792759895,AGENT#855c2f3e-526d-11ea-9348-8fb8c046b005,2,95,97,10,1.0,1.0,0
run-2020-2-18-16-41-30.792759895,AGENT#855d6750-526d-11ea-b993-3ba31f38c268,1,96,97,10,1.0,1.0,0
run-2020-2-18-16-41-30.792759895,AGENT#855d6c5a-526d-11ea-9461-b7af0de01d47,1,96,97,10,1.0,1.0,0
run-2020-2-18-16-41-30.792759895,AGENT#855d742a-526d-11ea-8537-ef39a9b97466,1,96,97,10,1.0,1.0,0
run-2020-2-18-16-41-30.792759895,AGENT#852fb31e-526d-11ea-b43a-7702e84b700d,46,52,98,10,1.0,1.0,0
run-2020-2-18-16-41-30.792759895,AGENT#855c3768-526d-11ea-a3b4-d767adc6d628,3,95,98,10,1.0,1.0,0
run-2020-2-18-16-41-30.792759895,AGENT#855b046a-526d-11ea-b2df-53cf9ede64a8,5,94,99,10,1.0,1.0,0
run-2020-2-18-16-41-30.792759895,AGENT#855d6ee4-526d-11ea-849a-d709762e1a00,3,96,99,10,1.0,1.0,0
run-2020-2-18-16-41-30.792759895,AGENT#855ea6a6-526d-11ea-800a-bbd5a63610fb,2,97,99,10,1.0,1.0,0
