RunID,Tick,AllAgents,Active,Inactive
run-2020-2-18-16-41-30.792759895,0,11,9,2
run-2020-2-18-16-41-30.792759895,1,12,8,4
run-2020-2-18-16-41-30.792759895,2,14,9,5
run-2020-2-18-16-41-30.792759895,3,21,13,8
run-2020-2-18-16-41-30.792759895,4,25,16,9
run-2020-2-18-16-41-30.792759895,5,28,16,12
run-2020-2-18-16-41-30.792759895,6,35,19,16
run-2020-2-18-16-41-30.792759895,7,35,16,19
run-2020-2-18-16-41-30.792759895,8,41,21,20
run-2020-2-18-16-41-30.792759895,9,46,23,23
run-2020-2-18-16-41-30.792759895,10,47,16,31
run-2020-2-18-16-41-30.792759895,11,49,17,32
run-2020-2-18-16-41-30.792759895,12,54,22,32
run-2020-2-18-16-41-30.792759895,13,57,24,33
run-2020-2-18-16-41-30.792759895,14,62,26,36
run-2020-2-18-16-41-30.792759895,15,67,29,38
run-2020-2-18-16-41-30.792759895,16,69,28,41
run-2020-2-18-16-41-30.792759895,17,75,30,45
run-2020-2-18-16-41-30.792759895,18,78,29,49
run-2020-2-18-16-41-30.792759895,19,85,33,52
run-2020-2-18-16-41-30.792759895,20,90,37,53
run-2020-2-18-16-41-30.792759895,21,97,42,55
run-2020-2-18-16-41-30.792759895,22,99,39,60
run-2020-2-18-16-41-30.792759895,23,102,37,65
run-2020-2-18-16-41-30.792759895,24,108,43,65
run-2020-2-18-16-41-30.792759895,25,115,48,67
run-2020-2-18-16-41-30.792759895,26,119,49,70
run-2020-2-18-16-41-30.792759895,27,119,46,73
run-2020-2-18-16-41-30.792759895,28,125,48,77
run-2020-2-18-16-41-30.792759895,29,129,47,82
run-2020-2-18-16-41-30.792759895,30,133,48,85
run-2020-2-18-16-41-30.792759895,31,138,50,88
run-2020-2-18-16-41-30.792759895,32,143,53,90
run-2020-2-18-16-41-30.792759895,33,147,54,93
run-2020-2-18-16-41-30.792759895,34,152,55,97
run-2020-2-18-16-41-30.792759895,35,157,56,101
run-2020-2-18-16-41-30.792759895,36,163,56,107
run-2020-2-18-16-41-30.792759895,37,165,51,114
run-2020-2-18-16-41-30.792759895,38,168,52,116
run-2020-2-18-16-41-30.792759895,39,170,51,119
run-2020-2-18-16-41-30.792759895,40,171,51,120
run-2020-2-18-16-41-30.792759895,41,173,51,122
run-2020-2-18-16-41-30.792759895,42,178,53,125
run-2020-2-18-16-41-30.792759895,43,181,51,130
run-2020-2-18-16-41-30.792759895,44,185,54,131
run-2020-2-18-16-41-30.792759895,45,187,51,136
run-2020-2-18-16-41-30.792759895,46,192,52,140
run-2020-2-18-16-41-30.792759895,47,194,50,144
run-2020-2-18-16-41-30.792759895,48,199,52,147
run-2020-2-18-16-41-30.792759895,49,203,56,147
run-2020-2-18-16-41-30.792759895,50,204,52,152
run-2020-2-18-16-41-30.792759895,51,208,48,160
run-2020-2-18-16-41-30.792759895,52,212,49,163
run-2020-2-18-16-41-30.792759895,53,216,51,165
run-2020-2-18-16-41-30.792759895,54,220,49,171
run-2020-2-18-16-41-30.792759895,55,222,48,174
run-2020-2-18-16-41-30.792759895,56,227,48,179
run-2020-2-18-16-41-30.792759895,57,229,48,181
run-2020-2-18-16-41-30.792759895,58,233,50,183
run-2020-2-18-16-41-30.792759895,59,234,49,185
run-2020-2-18-16-41-30.792759895,60,234,47,187
run-2020-2-18-16-41-30.792759895,61,234,44,190
run-2020-2-18-16-41-30.792759895,62,239,47,192
run-2020-2-18-16-41-30.792759895,63,242,48,194
run-2020-2-18-16-41-30.792759895,64,249,49,200
run-2020-2-18-16-41-30.792759895,65,255,50,205
run-2020-2-18-16-41-30.792759895,66,259,50,209
run-2020-2-18-16-41-30.792759895,67,264,47,217
run-2020-2-18-16-41-30.792759895,68,266,42,224
run-2020-2-18-16-41-30.792759895,69,270,44,226
run-2020-2-18-16-41-30.792759895,70,277,47,230
run-2020-2-18-16-41-30.792759895,71,282,52,230
run-2020-2-18-16-41-30.792759895,72,290,56,234
run-2020-2-18-16-41-30.792759895,73,292,52,240
run-2020-2-18-16-41-30.792759895,74,294,47,247
run-2020-2-18-16-41-30.792759895,75,298,50,248
run-2020-2-18-16-41-30.792759895,76,303,49,254
run-2020-2-18-16-41-30.792759895,77,304,40,264
run-2020-2-18-16-41-30.792759895,78,310,45,265
run-2020-2-18-16-41-30.792759895,79,315,47,268
run-2020-2-18-16-41-30.792759895,80,320,48,272
run-2020-2-18-16-41-30.792759895,81,325,52,273
run-2020-2-18-16-41-30.792759895,82,328,50,278
run-2020-2-18-16-41-30.792759895,83,331,50,281
run-2020-2-18-16-41-30.792759895,84,336,48,288
run-2020-2-18-16-41-30.792759895,85,341,49,292
run-2020-2-18-16-41-30.792759895,86,342,46,296
run-2020-2-18-16-41-30.792759895,87,344,46,298
run-2020-2-18-16-41-30.792759895,88,349,50,299
run-2020-2-18-16-41-30.792759895,89,353,49,304
run-2020-2-18-16-41-30.792759895,90,355,47,308
run-2020-2-18-16-41-30.792759895,91,360,50,310
run-2020-2-18-16-41-30.792759895,92,362,49,313
run-2020-2-18-16-41-30.792759895,93,365,49,316
run-2020-2-18-16-41-30.792759895,94,368,51,317
run-2020-2-18-16-41-30.792759895,95,374,52,322
run-2020-2-18-16-41-30.792759895,96,383,59,324
run-2020-2-18-16-41-30.792759895,97,385,56,329
run-2020-2-18-16-41-30.792759895,98,389,58,331
run-2020-2-18-16-41-30.792759895,99,392,58,334
