Source,Target
LAWfb1d01e2-baac-11ea-ab7c-a795971ed1ef,LAWfb1e2bb2-baac-11ea-a9ae-53987419dec4
LAWfb1d6966-baac-11ea-8eb0-7720e91742ca,LAWfb1e2c20-baac-11ea-beea-a3a656d4a336
LAWfb1d74c4-baac-11ea-8c08-a76b045b18eb,LAWfb1e2e46-baac-11ea-81ed-5b668f709036
LAWfb1d0462-baac-11ea-b3de-ab707a4fe050,LAWfb1e3044-baac-11ea-8d7d-771698ad28f2
LAWfb1d05f2-baac-11ea-8484-9f1a7f11ff83,LAWfb1e3058-baac-11ea-be4d-9fd66d5e7d12
LAWfb1e2c20-baac-11ea-beea-a3a656d4a336,LAWfb1e2fb8-baac-11ea-9d52-274d10534111
LAWfb1cfe18-baac-11ea-be1a-2beddef1bde0,LAWfb1e7a4a-baac-11ea-b9df-e78ffef7526a
LAWfb1d4cf6-baac-11ea-9b51-7381d3152b31,LAWfb1e7b08-baac-11ea-ae39-7f9be64eb652
LAWfb1d4dc8-baac-11ea-9aad-cbf55c5c4f4b,LAWfb1e7bda-baac-11ea-9fd4-cf2ad6fda781
LAWfb1d61a0-baac-11ea-9e6f-8f669be4294a,LAWfb1e7d60-baac-11ea-965e-132f83c5b7a5
LAWfb1d00f2-baac-11ea-a42d-a3154504f9ba,LAWfb1e8238-baac-11ea-b082-b30cef39d2d4
LAWfb1e2bb2-baac-11ea-a9ae-53987419dec4,LAWfb1e83fa-baac-11ea-83be-37eecda8381c
LAWfb1d01e2-baac-11ea-ab7c-a795971ed1ef,LAWfb1e8846-baac-11ea-9c33-0f030f23858e
LAWfb1d74c4-baac-11ea-8c08-a76b045b18eb,LAWfb1e8bc0-baac-11ea-96ff-8310e52309b7
LAWfb1d74c4-baac-11ea-8c08-a76b045b18eb,LAWfb1e8c06-baac-11ea-910a-7bf049104ce0
LAWfb1d4cf6-baac-11ea-9b51-7381d3152b31,LAWfb1e8f1c-baac-11ea-8378-d78ec5e70bd6
LAWfb1d4cf6-baac-11ea-9b51-7381d3152b31,LAWfb1e941c-baac-11ea-9d45-e38b3a7b6172
LAWfb1cfe18-baac-11ea-be1a-2beddef1bde0,LAWfb1e976e-baac-11ea-b67d-2f747d695d70
LAWfb1e2bb2-baac-11ea-a9ae-53987419dec4,LAWfb1e9822-baac-11ea-bdce-7b00c0d01ecb
LAWfb1e7bda-baac-11ea-9fd4-cf2ad6fda781,LAWfb1e5cd6-baac-11ea-8357-d7fe83d48f9f
LAWfb1e8846-baac-11ea-9c33-0f030f23858e,LAWfb1e9af2-baac-11ea-85ee-bf55bc18045f
LAWfb1e7bda-baac-11ea-9fd4-cf2ad6fda781,LAWfb1e9f02-baac-11ea-b8ba-733fdf4b2c4b
LAWfb1d65b0-baac-11ea-a80a-8b7971a9d785,LAWfb1ea4d4-baac-11ea-8644-db39c3e79710
LAWfb1e7a4a-baac-11ea-b9df-e78ffef7526a,LAWfb1ea588-baac-11ea-a8b8-c7deae51bbf7
LAWfb1e9af2-baac-11ea-85ee-bf55bc18045f,LAWfb1ea63c-baac-11ea-9a39-c31e3bccb290
LAWfb1e8238-baac-11ea-b082-b30cef39d2d4,LAWfb1ea66e-baac-11ea-9510-cb36e164181e
LAWfb1d7bf4-baac-11ea-be32-c78d25787b4d,LAWfb1eabaa-baac-11ea-b260-efa51efb2dd6
LAWfb1e2fb8-baac-11ea-9d52-274d10534111,LAWfb1eac04-baac-11ea-b08e-8317000430ad
LAWfb1e2c20-baac-11ea-beea-a3a656d4a336,LAWfb1eb1cc-baac-11ea-98e7-ebe9f6eceb0b
LAWfb1e7a4a-baac-11ea-b9df-e78ffef7526a,LAWfb1e7874-baac-11ea-80b6-a7a9cb595c92
LAWfb1e7a4a-baac-11ea-b9df-e78ffef7526a,LAWfb1eb41a-baac-11ea-9a50-8b6601d4ecc9
LAWfb1e8f1c-baac-11ea-8378-d78ec5e70bd6,LAWfb1eb5dc-baac-11ea-a63f-7f34248a6767
LAWfb1ea63c-baac-11ea-9a39-c31e3bccb290,LAWfb1eb622-baac-11ea-ba2b-53d44250ca7e
LAWfb1e2e46-baac-11ea-81ed-5b668f709036,LAWfb1eb758-baac-11ea-a046-5ff099cf89f1
LAWfb1e83fa-baac-11ea-83be-37eecda8381c,LAWfb1ebce4-baac-11ea-952d-c7d382dc8e57
LAWfb1ea63c-baac-11ea-9a39-c31e3bccb290,LAWfb1ebef6-baac-11ea-90ee-c76ed9cb22db
LAWfb1d7582-baac-11ea-9339-532c8d9a45fd,LAWfb1ec270-baac-11ea-a474-d7f00c4be91e
LAWfb1e83fa-baac-11ea-83be-37eecda8381c,LAWfb1ec270-baac-11ea-b3d2-b74531113701
LAWfb1e2c20-baac-11ea-beea-a3a656d4a336,LAWfb1ec31a-baac-11ea-b9ce-3fb20ed91881
LAWfb1e2e46-baac-11ea-81ed-5b668f709036,LAWfb1ec6bc-baac-11ea-a534-0fd175c8f474
