RunID,Agent,Age,Created,Inactive,Resources,Reputation,Ability,Que
run-2020-2-18-18-4-45.14372611,AGENT#2549ce2e-5279-11ea-8515-1f9091544e4d,0,0,0,10,1.0,1.0,0
run-2020-2-18-18-4-45.14372611,AGENT#2549d612-5279-11ea-803e-774effdcba7f,0,0,0,10,1.0,1.0,0
run-2020-2-18-18-4-45.14372611,AGENT#2549c352-5279-11ea-bc67-1b2fe9b5b44b,1,0,1,10,1.0,1.0,0
run-2020-2-18-18-4-45.14372611,AGENT#2549c636-5279-11ea-a9a2-733fef09728e,2,0,2,10,1.0,1.0,0
run-2020-2-18-18-4-45.14372611,AGENT#255d2d7a-5279-11ea-bb0f-4fdfcbc34aae,1,1,2,10,1.0,1.0,0
run-2020-2-18-18-4-45.14372611,AGENT#2549c078-5279-11ea-8d3d-b3288d8d1e63,3,0,3,10,1.0,1.0,0
run-2020-2-18-18-4-45.14372611,AGENT#2549cb90-5279-11ea-947c-4344772960bd,3,0,3,10,1.0,1.0,0
run-2020-2-18-18-4-45.14372611,AGENT#254a17bc-5279-11ea-9bd5-6f4386b71009,3,0,3,10,1.0,1.0,0
run-2020-2-18-18-4-45.14372611,AGENT#254a1a6e-5279-11ea-a3de-af40d4147d72,3,0,3,10,1.0,1.0,0
run-2020-2-18-18-4-45.14372611,AGENT#254a1d20-5279-11ea-920e-3fb0145069b6,3,0,3,10,1.0,1.0,0
run-2020-2-18-18-4-45.14372611,AGENT#2560babc-5279-11ea-8011-6b304946432b,1,2,3,10,1.0,1.0,0
run-2020-2-18-18-4-45.14372611,AGENT#2549bce0-5279-11ea-8110-a77bd34ae681,4,0,4,10,1.0,1.0,0
run-2020-2-18-18-4-45.14372611,AGENT#2549d0e0-5279-11ea-96dc-af1979f4c7e4,4,0,4,10,1.0,1.0,0
run-2020-2-18-18-4-45.14372611,AGENT#2560b24c-5279-11ea-8fcb-3fc7f2fd4da7,2,2,4,10,1.0,1.0,0
run-2020-2-18-18-4-45.14372611,AGENT#25612434-5279-11ea-9d2f-07caaf8946f0,1,3,4,10,1.0,1.0,0
run-2020-2-18-18-4-45.14372611,AGENT#25612704-5279-11ea-85dc-c3bc692abda7,3,3,6,10,1.0,1.0,0
run-2020-2-18-18-4-45.14372611,AGENT#2561db9a-5279-11ea-8dd6-430e92f91f66,1,5,6,10,1.0,1.0,0
run-2020-2-18-18-4-45.14372611,AGENT#2561e086-5279-11ea-9d31-2f65343681c1,1,5,6,10,1.0,1.0,0
run-2020-2-18-18-4-45.14372611,AGENT#25617fd8-5279-11ea-9ec8-f3f3ced24fd4,3,4,7,10,1.0,1.0,0
run-2020-2-18-18-4-45.14372611,AGENT#2561824e-5279-11ea-8557-3b95cbc378a4,4,4,8,10,1.0,1.0,0
run-2020-2-18-18-4-45.14372611,AGENT#2561d8d4-5279-11ea-9d1c-5b3f881b2781,4,5,9,10,1.0,1.0,0
run-2020-2-18-18-4-45.14372611,AGENT#256236b2-5279-11ea-886a-533773b19a44,3,6,9,10,1.0,1.0,0
run-2020-2-18-18-4-45.14372611,AGENT#256372fc-5279-11ea-af5f-936c670f59ef,1,9,10,10,1.0,1.0,0
run-2020-2-18-18-4-45.14372611,AGENT#2562b1d2-5279-11ea-9617-9bfd87b07a5c,4,7,11,10,1.0,1.0,0
run-2020-2-18-18-4-45.14372611,AGENT#25640ad2-5279-11ea-9676-3f25927d90b1,1,10,11,10,1.0,1.0,0
run-2020-2-18-18-4-45.14372611,AGENT#2564120c-5279-11ea-8486-7b6b05af3a45,1,10,11,10,1.0,1.0,0
run-2020-2-18-18-4-45.14372611,AGENT#25640e10-5279-11ea-a69d-b3543a5db587,2,10,12,10,1.0,1.0,0
run-2020-2-18-18-4-45.14372611,AGENT#256414e6-5279-11ea-a288-ffba29a73a06,2,10,12,10,1.0,1.0,0
run-2020-2-18-18-4-45.14372611,AGENT#25648dea-5279-11ea-a35c-eb577e0d8c5b,1,11,12,10,1.0,1.0,0
run-2020-2-18-18-4-45.14372611,AGENT#256313f2-5279-11ea-afa8-ef98cabfb66c,5,8,13,10,1.0,1.0,0
run-2020-2-18-18-4-45.14372611,AGENT#25631b2c-5279-11ea-aa70-53895da124cb,5,8,13,10,1.0,1.0,0
run-2020-2-18-18-4-45.14372611,AGENT#2564fd8e-5279-11ea-b3ab-3bdfa3f6752f,1,12,13,10,1.0,1.0,0
run-2020-2-18-18-4-45.14372611,AGENT#256507ac-5279-11ea-a0fc-af78f57c907c,1,12,13,10,1.0,1.0,0
run-2020-2-18-18-4-45.14372611,AGENT#2565007c-5279-11ea-9aa1-7f3c2a148c5a,2,12,14,10,1.0,1.0,0
run-2020-2-18-18-4-45.14372611,AGENT#256583b2-5279-11ea-8b97-d3393afb8713,1,13,14,10,1.0,1.0,0
run-2020-2-18-18-4-45.14372611,AGENT#256579da-5279-11ea-bbf0-6b51c042a77c,2,13,15,10,1.0,1.0,0
run-2020-2-18-18-4-45.14372611,AGENT#25657c78-5279-11ea-b06d-47decd129fbc,2,13,15,10,1.0,1.0,0
run-2020-2-18-18-4-45.14372611,AGENT#2565eb36-5279-11ea-8c58-e39cfdcc9793,1,14,15,10,1.0,1.0,0
run-2020-2-18-18-4-45.14372611,AGENT#2565edac-5279-11ea-bcfc-17d2ce6e0fc0,1,14,15,10,1.0,1.0,0
run-2020-2-18-18-4-45.14372611,AGENT#256502e8-5279-11ea-86d2-d7e02ca6ed4e,4,12,16,10,1.0,1.0,0
run-2020-2-18-18-4-45.14372611,AGENT#25650540-5279-11ea-a744-b305735e616c,4,12,16,10,1.0,1.0,0
run-2020-2-18-18-4-45.14372611,AGENT#25658150-5279-11ea-abc8-1bd5adf4078f,3,13,16,10,1.0,1.0,0
run-2020-2-18-18-4-45.14372611,AGENT#256662dc-5279-11ea-b63f-6ba795334c86,1,15,16,10,1.0,1.0,0
run-2020-2-18-18-4-45.14372611,AGENT#2565e51e-5279-11ea-a3bc-cb9b1bb9dc80,3,14,17,10,1.0,1.0,0
run-2020-2-18-18-4-45.14372611,AGENT#2566ced4-5279-11ea-b199-6b7c5d4ffad5,2,16,18,10,1.0,1.0,0
run-2020-2-18-18-4-45.14372611,AGENT#256733ce-5279-11ea-8fbe-574a6d576ffe,1,17,18,10,1.0,1.0,0
run-2020-2-18-18-4-45.14372611,AGENT#2565e7f8-5279-11ea-ab2c-9b03cc06f585,5,14,19,10,1.0,1.0,0
run-2020-2-18-18-4-45.14372611,AGENT#25631118-5279-11ea-aa2c-af31ff350c4a,12,8,20,10,1.0,1.0,0
run-2020-2-18-18-4-45.14372611,AGENT#25679a4e-5279-11ea-9a95-8f28989fc81f,2,18,20,10,1.0,1.0,0
run-2020-2-18-18-4-45.14372611,AGENT#256667e6-5279-11ea-932f-273aee8b7992,6,15,21,10,1.0,1.0,0
run-2020-2-18-18-4-45.14372611,AGENT#2566d168-5279-11ea-813a-0b9a87a183ff,5,16,21,10,1.0,1.0,0
run-2020-2-18-18-4-45.14372611,AGENT#2567313a-5279-11ea-a6c1-63ebaefd31ce,4,17,21,10,1.0,1.0,0
run-2020-2-18-18-4-45.14372611,AGENT#25679cc4-5279-11ea-aa0b-970a4d700c0a,3,18,21,10,1.0,1.0,0
run-2020-2-18-18-4-45.14372611,AGENT#25682ba8-5279-11ea-82e6-f7c187bfb143,2,19,21,10,1.0,1.0,0
run-2020-2-18-18-4-45.14372611,AGENT#25689660-5279-11ea-a2cf-7352d42ab99c,1,20,21,10,1.0,1.0,0
run-2020-2-18-18-4-45.14372611,AGENT#25689b24-5279-11ea-8108-2b6532c35b4f,1,20,21,10,1.0,1.0,0
run-2020-2-18-18-4-45.14372611,AGENT#25691d88-5279-11ea-bcd5-0bf43ed945b6,1,21,22,10,1.0,1.0,0
run-2020-2-18-18-4-45.14372611,AGENT#255d3036-5279-11ea-a9dc-53dd509df485,22,1,23,10,1.0,1.0,0
run-2020-2-18-18-4-45.14372611,AGENT#2568264e-5279-11ea-b7aa-473b45efb299,4,19,23,10,1.0,1.0,0
run-2020-2-18-18-4-45.14372611,AGENT#256924ea-5279-11ea-a82c-cf856c8bd929,2,21,23,10,1.0,1.0,0
run-2020-2-18-18-4-45.14372611,AGENT#25691946-5279-11ea-a10e-ff25b33caf96,3,21,24,10,1.0,1.0,0
run-2020-2-18-18-4-45.14372611,AGENT#25692148-5279-11ea-bebd-07890c30a888,3,21,24,10,1.0,1.0,0
run-2020-2-18-18-4-45.14372611,AGENT#25692828-5279-11ea-a767-8f7b59db7156,3,21,24,10,1.0,1.0,0
run-2020-2-18-18-4-45.14372611,AGENT#2569b356-5279-11ea-89bb-7b74b9e60479,2,22,24,10,1.0,1.0,0
run-2020-2-18-18-4-45.14372611,AGENT#256a3902-5279-11ea-93a7-d74d2c0cdd4e,1,23,24,10,1.0,1.0,0
run-2020-2-18-18-4-45.14372611,AGENT#256a2cb4-5279-11ea-8bd2-eb9d5bcff319,3,23,26,10,1.0,1.0,0
run-2020-2-18-18-4-45.14372611,AGENT#256aacb6-5279-11ea-ae2e-8b4fc09f765e,2,24,26,10,1.0,1.0,0
run-2020-2-18-18-4-45.14372611,AGENT#256ab17a-5279-11ea-8496-fb854c7a02d1,2,24,26,10,1.0,1.0,0
run-2020-2-18-18-4-45.14372611,AGENT#256ab3be-5279-11ea-ad1a-fb03afae8696,2,24,26,10,1.0,1.0,0
run-2020-2-18-18-4-45.14372611,AGENT#256ab5ee-5279-11ea-94ae-ff6c06a6dc79,2,24,26,10,1.0,1.0,0
run-2020-2-18-18-4-45.14372611,AGENT#256b464e-5279-11ea-ad17-1bea57f8b535,1,25,26,10,1.0,1.0,0
run-2020-2-18-18-4-45.14372611,AGENT#2549c8e8-5279-11ea-b9ba-fbd1fce2a8aa,27,0,27,10,1.0,1.0,0
run-2020-2-18-18-4-45.14372611,AGENT#256a3204-5279-11ea-a765-bb3380b11eae,4,23,27,10,1.0,1.0,0
run-2020-2-18-18-4-45.14372611,AGENT#256a2f84-5279-11ea-aeae-0be7df215c06,5,23,28,10,1.0,1.0,0
run-2020-2-18-18-4-45.14372611,AGENT#256aaa40-5279-11ea-bc6a-4ffe6454e0a4,4,24,28,10,1.0,1.0,0
run-2020-2-18-18-4-45.14372611,AGENT#256ababc-5279-11ea-b394-533c7075bc7e,4,24,28,10,1.0,1.0,0
run-2020-2-18-18-4-45.14372611,AGENT#256bd474-5279-11ea-8de3-2ba70bf573a3,2,26,28,10,1.0,1.0,0
run-2020-2-18-18-4-45.14372611,AGENT#256c599e-5279-11ea-b9fe-eb2a3b9fb22a,1,27,28,10,1.0,1.0,0
run-2020-2-18-18-4-45.14372611,AGENT#254a150a-5279-11ea-9c95-a76f2dda86e6,29,0,29,10,1.0,1.0,0
run-2020-2-18-18-4-45.14372611,AGENT#256aaf2c-5279-11ea-b159-43c3f96dfc6d,5,24,29,10,1.0,1.0,0
run-2020-2-18-18-4-45.14372611,AGENT#256ab81e-5279-11ea-bb44-fb670c10e0e8,5,24,29,10,1.0,1.0,0
run-2020-2-18-18-4-45.14372611,AGENT#256bd780-5279-11ea-af81-7711b3cd6ca6,3,26,29,10,1.0,1.0,0
run-2020-2-18-18-4-45.14372611,AGENT#256bda00-5279-11ea-a47c-cbfd69e37d37,3,26,29,10,1.0,1.0,0
run-2020-2-18-18-4-45.14372611,AGENT#256cea76-5279-11ea-b5b0-af8623cfb86d,2,28,30,10,1.0,1.0,0
run-2020-2-18-18-4-45.14372611,AGENT#256cf28c-5279-11ea-93d5-0fff8a56b1d5,2,28,30,10,1.0,1.0,0
run-2020-2-18-18-4-45.14372611,AGENT#256d75cc-5279-11ea-8306-0fc558168246,3,29,32,10,1.0,1.0,0
run-2020-2-18-18-4-45.14372611,AGENT#256df6aa-5279-11ea-9493-9ba0cba482a5,2,30,32,10,1.0,1.0,0
run-2020-2-18-18-4-45.14372611,AGENT#256dfcc2-5279-11ea-8f77-8f1c7cfcbcee,2,30,32,10,1.0,1.0,0
run-2020-2-18-18-4-45.14372611,AGENT#256dff88-5279-11ea-b748-ef47fac0de8e,2,30,32,10,1.0,1.0,0
run-2020-2-18-18-4-45.14372611,AGENT#256e01ea-5279-11ea-aac1-1302933c0650,2,30,32,10,1.0,1.0,0
run-2020-2-18-18-4-45.14372611,AGENT#256f35d8-5279-11ea-b0a2-df685a541a31,1,32,33,10,1.0,1.0,0
run-2020-2-18-18-4-45.14372611,AGENT#256f3952-5279-11ea-b442-df472abbe183,1,32,33,10,1.0,1.0,0
run-2020-2-18-18-4-45.14372611,AGENT#256f4384-5279-11ea-ab2d-df50003e6e37,2,32,34,10,1.0,1.0,0
run-2020-2-18-18-4-45.14372611,AGENT#256fcb7e-5279-11ea-97a3-af497986f4a8,1,33,34,10,1.0,1.0,0
run-2020-2-18-18-4-45.14372611,AGENT#256df9b6-5279-11ea-bbe0-1f5832d900d4,5,30,35,10,1.0,1.0,0
run-2020-2-18-18-4-45.14372611,AGENT#256e95e2-5279-11ea-9e6b-63c71b72fbfc,4,31,35,10,1.0,1.0,0
run-2020-2-18-18-4-45.14372611,AGENT#256fd074-5279-11ea-a1ab-67316122881f,2,33,35,10,1.0,1.0,0
run-2020-2-18-18-4-45.14372611,AGENT#25705986-5279-11ea-b409-5366dbbb89a0,1,34,35,10,1.0,1.0,0
run-2020-2-18-18-4-45.14372611,AGENT#2561de06-5279-11ea-8fc0-17366c639fbf,31,5,36,10,1.0,1.0,0
run-2020-2-18-18-4-45.14372611,AGENT#256f412c-5279-11ea-a662-3bb84afb5780,4,32,36,10,1.0,1.0,0
run-2020-2-18-18-4-45.14372611,AGENT#256f4604-5279-11ea-a2c0-c39dc66aa165,5,32,37,10,1.0,1.0,0
run-2020-2-18-18-4-45.14372611,AGENT#2570e4a0-5279-11ea-9df6-4b650d746bfe,3,35,38,10,1.0,1.0,0
run-2020-2-18-18-4-45.14372611,AGENT#257175d2-5279-11ea-8e6f-8317434352ae,2,36,38,10,1.0,1.0,0
run-2020-2-18-18-4-45.14372611,AGENT#25716b32-5279-11ea-a19d-23b898bb4542,3,36,39,10,1.0,1.0,0
run-2020-2-18-18-4-45.14372611,AGENT#257172e4-5279-11ea-8160-576bdfc24559,3,36,39,10,1.0,1.0,0
run-2020-2-18-18-4-45.14372611,AGENT#2572b758-5279-11ea-a1cd-ffdd0dc4f364,1,38,39,10,1.0,1.0,0
run-2020-2-18-18-4-45.14372611,AGENT#256f3ec0-5279-11ea-9fc0-1bcfd51a8139,8,32,40,10,1.0,1.0,0
run-2020-2-18-18-4-45.14372611,AGENT#2570e6ee-5279-11ea-b71a-5342a38112f3,5,35,40,10,1.0,1.0,0
run-2020-2-18-18-4-45.14372611,AGENT#25716812-5279-11ea-8eff-2b9622543f3c,4,36,40,10,1.0,1.0,0
run-2020-2-18-18-4-45.14372611,AGENT#25733f66-5279-11ea-9c29-53b99fd714ac,1,39,40,10,1.0,1.0,0
run-2020-2-18-18-4-45.14372611,AGENT#2573484e-5279-11ea-b1e1-bf82aec6a90e,1,39,40,10,1.0,1.0,0
run-2020-2-18-18-4-45.14372611,AGENT#25721e10-5279-11ea-bcea-672c96fe703c,4,37,41,10,1.0,1.0,0
run-2020-2-18-18-4-45.14372611,AGENT#2573e236-5279-11ea-b516-1b5afe71830d,1,40,41,10,1.0,1.0,0
run-2020-2-18-18-4-45.14372611,AGENT#2573e4f2-5279-11ea-9ab5-f795dd10ba26,1,40,41,10,1.0,1.0,0
run-2020-2-18-18-4-45.14372611,AGENT#25721b4a-5279-11ea-a549-ffe149cb49f7,5,37,42,10,1.0,1.0,0
run-2020-2-18-18-4-45.14372611,AGENT#2572209a-5279-11ea-af26-2743742e1fa3,5,37,42,10,1.0,1.0,0
run-2020-2-18-18-4-45.14372611,AGENT#25733d04-5279-11ea-8adf-67a91ca8845f,3,39,42,10,1.0,1.0,0
run-2020-2-18-18-4-45.14372611,AGENT#2573e754-5279-11ea-a962-abf5c75b1313,2,40,42,10,1.0,1.0,0
run-2020-2-18-18-4-45.14372611,AGENT#25748a56-5279-11ea-9fad-4f2975625304,1,41,42,10,1.0,1.0,0
run-2020-2-18-18-4-45.14372611,AGENT#2573e9ac-5279-11ea-b1da-8f57fe7ebc97,3,40,43,10,1.0,1.0,0
run-2020-2-18-18-4-45.14372611,AGENT#2573461e-5279-11ea-a516-8b127d5b10fc,5,39,44,10,1.0,1.0,0
run-2020-2-18-18-4-45.14372611,AGENT#25748f10-5279-11ea-8117-732ff02d5ab1,3,41,44,10,1.0,1.0,0
run-2020-2-18-18-4-45.14372611,AGENT#2549d37e-5279-11ea-9c5f-bb3d7437414a,45,0,45,10,1.0,1.0,0
run-2020-2-18-18-4-45.14372611,AGENT#25748ca4-5279-11ea-9917-3f1377694721,4,41,45,10,1.0,1.0,0
run-2020-2-18-18-4-45.14372611,AGENT#2575e6a8-5279-11ea-bf1e-ef6ded13cdfc,2,43,45,10,1.0,1.0,0
run-2020-2-18-18-4-45.14372611,AGENT#2575e96e-5279-11ea-8c34-df36b2fa0cfd,2,43,45,10,1.0,1.0,0
run-2020-2-18-18-4-45.14372611,AGENT#25767d66-5279-11ea-b4f0-831017d4cfe8,1,44,45,10,1.0,1.0,0
run-2020-2-18-18-4-45.14372611,AGENT#257487f4-5279-11ea-bcf2-cb3fd6bebc3b,5,41,46,10,1.0,1.0,0
run-2020-2-18-18-4-45.14372611,AGENT#257714ba-5279-11ea-ab72-67dc1fe6f3d9,1,45,46,10,1.0,1.0,0
run-2020-2-18-18-4-45.14372611,AGENT#2577174e-5279-11ea-bcdf-4b3922e461d8,1,45,46,10,1.0,1.0,0
run-2020-2-18-18-4-45.14372611,AGENT#257719b0-5279-11ea-aed9-bb06b8c37134,1,45,46,10,1.0,1.0,0
run-2020-2-18-18-4-45.14372611,AGENT#2560b508-5279-11ea-a48a-cb3f0490c0d0,45,2,47,10,1.0,1.0,0
run-2020-2-18-18-4-45.14372611,AGENT#2560b800-5279-11ea-848e-bfccd5eb63b6,45,2,47,10,1.0,1.0,0
run-2020-2-18-18-4-45.14372611,AGENT#25767a50-5279-11ea-affe-63a89e9c6b48,3,44,47,10,1.0,1.0,0
run-2020-2-18-18-4-45.14372611,AGENT#2577b55a-5279-11ea-bf79-e76c6c65b1ef,1,46,47,10,1.0,1.0,0
run-2020-2-18-18-4-45.14372611,AGENT#256129a2-5279-11ea-81fd-63c2bb9da2fb,45,3,48,10,1.0,1.0,0
run-2020-2-18-18-4-45.14372611,AGENT#254a1230-5279-11ea-951e-775fd41ebce5,49,0,49,10,1.0,1.0,0
run-2020-2-18-18-4-45.14372611,AGENT#25617cfe-5279-11ea-bf1d-5324bbe74c90,45,4,49,10,1.0,1.0,0
run-2020-2-18-18-4-45.14372611,AGENT#256abce2-5279-11ea-bd35-7ff55112c430,25,24,49,10,1.0,1.0,0
run-2020-2-18-18-4-45.14372611,AGENT#2577bfaa-5279-11ea-b16f-234a02c5ab80,3,46,49,10,1.0,1.0,0
run-2020-2-18-18-4-45.14372611,AGENT#25785776-5279-11ea-8d1f-c7881c028b3c,2,47,49,10,1.0,1.0,0
run-2020-2-18-18-4-45.14372611,AGENT#2578fca8-5279-11ea-a560-5b387857c406,1,48,49,10,1.0,1.0,0
run-2020-2-18-18-4-45.14372611,AGENT#25790446-5279-11ea-83dd-97b4affd55dc,1,48,49,10,1.0,1.0,0
run-2020-2-18-18-4-45.14372611,AGENT#2577bd2a-5279-11ea-8827-5b5b135c180e,5,46,51,10,1.0,1.0,0
run-2020-2-18-18-4-45.14372611,AGENT#2579ae6e-5279-11ea-b180-d3db98908a73,2,49,51,10,1.0,1.0,0
run-2020-2-18-18-4-45.14372611,AGENT#25717014-5279-11ea-b579-634dad5ef146,16,36,52,10,1.0,1.0,0
run-2020-2-18-18-4-45.14372611,AGENT#257a3712-5279-11ea-8212-0b93fc0b1658,2,50,52,10,1.0,1.0,0
run-2020-2-18-18-4-45.14372611,AGENT#2563165e-5279-11ea-838f-6f9c43d1befd,45,8,53,10,1.0,1.0,0
run-2020-2-18-18-4-45.14372611,AGENT#256318d4-5279-11ea-9274-a376f244491b,45,8,53,10,1.0,1.0,0
run-2020-2-18-18-4-45.14372611,AGENT#2562aeee-5279-11ea-b376-5bc603ac1680,47,7,54,10,1.0,1.0,0
run-2020-2-18-18-4-45.14372611,AGENT#256375c2-5279-11ea-8bde-ab9949b83ce0,45,9,54,10,1.0,1.0,0
run-2020-2-18-18-4-45.14372611,AGENT#256a345c-5279-11ea-8022-27db9abeb99b,31,23,54,10,1.0,1.0,0
run-2020-2-18-18-4-45.14372611,AGENT#257b6a74-5279-11ea-811f-277077917aa9,2,52,54,10,1.0,1.0,0
run-2020-2-18-18-4-45.14372611,AGENT#257c2036-5279-11ea-b10d-afb19d542c50,1,53,54,10,1.0,1.0,0
run-2020-2-18-18-4-45.14372611,AGENT#257cc9aa-5279-11ea-9d79-53c436c92380,1,54,55,10,1.0,1.0,0
run-2020-2-18-18-4-45.14372611,AGENT#257c1afa-5279-11ea-a280-3bd678b3cf5c,3,53,56,10,1.0,1.0,0
run-2020-2-18-18-4-45.14372611,AGENT#257cc446-5279-11ea-8dcb-ab5fb35d5065,2,54,56,10,1.0,1.0,0
run-2020-2-18-18-4-45.14372611,AGENT#257d6ce8-5279-11ea-93c6-f3b24cf660fd,1,55,56,10,1.0,1.0,0
run-2020-2-18-18-4-45.14372611,AGENT#25648af2-5279-11ea-ac1b-3b5484d5a47f,46,11,57,10,1.0,1.0,0
run-2020-2-18-18-4-45.14372611,AGENT#257cc70c-5279-11ea-a0e3-636b858afeb2,3,54,57,10,1.0,1.0,0
run-2020-2-18-18-4-45.14372611,AGENT#257d67ac-5279-11ea-bd4e-e7c7c3318f2e,2,55,57,10,1.0,1.0,0
run-2020-2-18-18-4-45.14372611,AGENT#257e30ba-5279-11ea-848e-0390cd76dcdc,1,56,57,10,1.0,1.0,0
run-2020-2-18-18-4-45.14372611,AGENT#25657eee-5279-11ea-b750-d3d56d06632c,45,13,58,10,1.0,1.0,0
run-2020-2-18-18-4-45.14372611,AGENT#257d6f36-5279-11ea-8b4d-032fab1cf3e1,3,55,58,10,1.0,1.0,0
run-2020-2-18-18-4-45.14372611,AGENT#257ef162-5279-11ea-b6da-b7de666f0bc6,1,57,58,10,1.0,1.0,0
run-2020-2-18-18-4-45.14372611,AGENT#257d768e-5279-11ea-abb5-4bdc30a4e5f0,4,55,59,10,1.0,1.0,0
run-2020-2-18-18-4-45.14372611,AGENT#257d78d2-5279-11ea-ac67-3b996bffede3,4,55,59,10,1.0,1.0,0
run-2020-2-18-18-4-45.14372611,AGENT#257e366e-5279-11ea-b57a-03f6d37f1848,4,56,60,10,1.0,1.0,0
run-2020-2-18-18-4-45.14372611,AGENT#257eecbc-5279-11ea-8b64-c7e2b8309819,3,57,60,10,1.0,1.0,0
run-2020-2-18-18-4-45.14372611,AGENT#25666a52-5279-11ea-8a13-838dacd19a77,46,15,61,10,1.0,1.0,0
run-2020-2-18-18-4-45.14372611,AGENT#257fb520-5279-11ea-879d-8ba44a1784f5,3,58,61,10,1.0,1.0,0
run-2020-2-18-18-4-45.14372611,AGENT#257ee762-5279-11ea-98e4-5b13ddc3963a,5,57,62,10,1.0,1.0,0
run-2020-2-18-18-4-45.14372611,AGENT#25806a1a-5279-11ea-b794-17f0a8f39785,3,59,62,10,1.0,1.0,0
run-2020-2-18-18-4-45.14372611,AGENT#2580742e-5279-11ea-b5da-a7b515b6e259,3,59,62,10,1.0,1.0,0
run-2020-2-18-18-4-45.14372611,AGENT#25812f90-5279-11ea-b7dd-cb6057623382,2,60,62,10,1.0,1.0,0
run-2020-2-18-18-4-45.14372611,AGENT#2566657a-5279-11ea-a3b8-93c50e83eab4,48,15,63,10,1.0,1.0,0
run-2020-2-18-18-4-45.14372611,AGENT#25679792-5279-11ea-9ea9-93e323213d28,45,18,63,10,1.0,1.0,0
run-2020-2-18-18-4-45.14372611,AGENT#25806768-5279-11ea-a840-c39ff6a6e2a2,5,59,64,10,1.0,1.0,0
run-2020-2-18-18-4-45.14372611,AGENT#258071fe-5279-11ea-bc3b-0f869b69744e,5,59,64,10,1.0,1.0,0
run-2020-2-18-18-4-45.14372611,AGENT#25682932-5279-11ea-be9a-a7bc43a94e7e,46,19,65,10,1.0,1.0,0
run-2020-2-18-18-4-45.14372611,AGENT#25820078-5279-11ea-8dc4-ef3ba9caac84,4,61,65,10,1.0,1.0,0
run-2020-2-18-18-4-45.14372611,AGENT#256898cc-5279-11ea-8628-d7a0092953e8,46,20,66,10,1.0,1.0,0
run-2020-2-18-18-4-45.14372611,AGENT#25838d76-5279-11ea-8a37-5734e2580e5a,3,63,66,10,1.0,1.0,0
run-2020-2-18-18-4-45.14372611,AGENT#2584ee78-5279-11ea-ad89-5f1c6511dea3,1,65,66,10,1.0,1.0,0
run-2020-2-18-18-4-45.14372611,AGENT#25679f44-5279-11ea-bd66-47be49856fa5,49,18,67,10,1.0,1.0,0
run-2020-2-18-18-4-45.14372611,AGENT#2584e8c4-5279-11ea-afed-f35009dacfba,2,65,67,10,1.0,1.0,0
run-2020-2-18-18-4-45.14372611,AGENT#2584eb1c-5279-11ea-9311-9b4bf34731d4,2,65,67,10,1.0,1.0,0
run-2020-2-18-18-4-45.14372611,AGENT#2584f1ca-5279-11ea-8a90-fb51850598d9,2,65,67,10,1.0,1.0,0
run-2020-2-18-18-4-45.14372611,AGENT#25692aa8-5279-11ea-8110-936eb13f6f77,47,21,68,10,1.0,1.0,0
run-2020-2-18-18-4-45.14372611,AGENT#2584e608-5279-11ea-a314-d38598f1edf8,4,65,69,10,1.0,1.0,0
run-2020-2-18-18-4-45.14372611,AGENT#2587ffd2-5279-11ea-ab77-afbb178b506f,1,69,70,10,1.0,1.0,0
run-2020-2-18-18-4-45.14372611,AGENT#25880248-5279-11ea-9cb2-8363e3507b16,1,69,70,10,1.0,1.0,0
run-2020-2-18-18-4-45.14372611,AGENT#2588090a-5279-11ea-8bfe-e73f62d35b3c,1,69,70,10,1.0,1.0,0
run-2020-2-18-18-4-45.14372611,AGENT#256b491e-5279-11ea-8d34-d3ee479bc7ba,46,25,71,10,1.0,1.0,0
run-2020-2-18-18-4-45.14372611,AGENT#2585aba6-5279-11ea-a676-c3a4fe836db8,5,66,71,10,1.0,1.0,0
run-2020-2-18-18-4-45.14372611,AGENT#2585ade0-5279-11ea-a936-d70ce00b8f5b,5,66,71,10,1.0,1.0,0
run-2020-2-18-18-4-45.14372611,AGENT#2587fd48-5279-11ea-b79a-83a0637142f9,2,69,71,10,1.0,1.0,0
run-2020-2-18-18-4-45.14372611,AGENT#258806b2-5279-11ea-82bb-9724d70eb038,2,69,71,10,1.0,1.0,0
run-2020-2-18-18-4-45.14372611,AGENT#256c5ce6-5279-11ea-bccf-1f2c84900fc6,45,27,72,10,1.0,1.0,0
run-2020-2-18-18-4-45.14372611,AGENT#256e9a74-5279-11ea-84c0-477bb6defab4,41,31,72,10,1.0,1.0,0
run-2020-2-18-18-4-45.14372611,AGENT#2588cb56-5279-11ea-8324-3f198913effd,2,70,72,10,1.0,1.0,0
run-2020-2-18-18-4-45.14372611,AGENT#258981e0-5279-11ea-acf2-274e84760b13,1,71,72,10,1.0,1.0,0
run-2020-2-18-18-4-45.14372611,AGENT#256c5f5c-5279-11ea-836d-2b19724f8d01,46,27,73,10,1.0,1.0,0
run-2020-2-18-18-4-45.14372611,AGENT#25880482-5279-11ea-b2e8-63d8d52c4588,4,69,73,10,1.0,1.0,0
run-2020-2-18-18-4-45.14372611,AGENT#257eef1e-5279-11ea-a00d-d7d12e1a5483,17,57,74,10,1.0,1.0,0
run-2020-2-18-18-4-45.14372611,AGENT#25867dec-5279-11ea-9a58-87578b7dc800,7,67,74,10,1.0,1.0,0
run-2020-2-18-18-4-45.14372611,AGENT#258b1dac-5279-11ea-8649-fb2512bf1a2f,1,73,74,10,1.0,1.0,0
run-2020-2-18-18-4-45.14372611,AGENT#256a36aa-5279-11ea-bbef-9747d14d3f8c,52,23,75,10,1.0,1.0,0
run-2020-2-18-18-4-45.14372611,AGENT#256ced5a-5279-11ea-bc91-2b1ef0440b7b,47,28,75,10,1.0,1.0,0
run-2020-2-18-18-4-45.14372611,AGENT#2582c0f8-5279-11ea-858f-231535a21485,13,62,75,10,1.0,1.0,0
run-2020-2-18-18-4-45.14372611,AGENT#258b2072-5279-11ea-b16d-83898ee64f90,3,73,76,10,1.0,1.0,0
run-2020-2-18-18-4-45.14372611,AGENT#258bf9f2-5279-11ea-9932-67eacb70afb4,2,74,76,10,1.0,1.0,0
run-2020-2-18-18-4-45.14372611,AGENT#258bfdda-5279-11ea-bf82-679d60ba004d,2,74,76,10,1.0,1.0,0
run-2020-2-18-18-4-45.14372611,AGENT#256b4be4-5279-11ea-8684-5b99e7927215,52,25,77,10,1.0,1.0,0
run-2020-2-18-18-4-45.14372611,AGENT#256bdc62-5279-11ea-a41e-77180fc8de71,51,26,77,10,1.0,1.0,0
run-2020-2-18-18-4-45.14372611,AGENT#257343e4-5279-11ea-b9a6-1b0c930b0737,38,39,77,10,1.0,1.0,0
run-2020-2-18-18-4-45.14372611,AGENT#258b252c-5279-11ea-868d-8fe92a2de668,5,73,78,10,1.0,1.0,0
run-2020-2-18-18-4-45.14372611,AGENT#258cf1c2-5279-11ea-b043-13a7421063c1,3,75,78,10,1.0,1.0,0
run-2020-2-18-18-4-45.14372611,AGENT#258e853c-5279-11ea-9bd9-bf5e21842610,1,77,78,10,1.0,1.0,0
run-2020-2-18-18-4-45.14372611,AGENT#256fce12-5279-11ea-bd7d-4b2981e6c937,46,33,79,10,1.0,1.0,0
run-2020-2-18-18-4-45.14372611,AGENT#258bf1f0-5279-11ea-9dde-5f796f0cf089,5,74,79,10,1.0,1.0,0
run-2020-2-18-18-4-45.14372611,AGENT#258cef1a-5279-11ea-8f1b-0308965aeb46,4,75,79,10,1.0,1.0,0
run-2020-2-18-18-4-45.14372611,AGENT#258cf406-5279-11ea-96b1-77354c5b88b6,4,75,79,10,1.0,1.0,0
run-2020-2-18-18-4-45.14372611,AGENT#256cf00c-5279-11ea-9449-07616180986d,52,28,80,10,1.0,1.0,0
run-2020-2-18-18-4-45.14372611,AGENT#258e8cd0-5279-11ea-88dc-fb5f5f833819,3,77,80,10,1.0,1.0,0
run-2020-2-18-18-4-45.14372611,AGENT#256f3bdc-5279-11ea-b2c2-ffcdce870f78,49,32,81,10,1.0,1.0,0
run-2020-2-18-18-4-45.14372611,AGENT#25716db2-5279-11ea-bc40-c745efae9eb6,45,36,81,10,1.0,1.0,0
run-2020-2-18-18-4-45.14372611,AGENT#25909c0a-5279-11ea-ad4f-a3ab36f6298b,2,79,81,10,1.0,1.0,0
run-2020-2-18-18-4-45.14372611,AGENT#2579014e-5279-11ea-bf71-9391515e23c4,34,48,82,10,1.0,1.0,0
run-2020-2-18-18-4-45.14372611,AGENT#25916e6e-5279-11ea-beb1-4f3d8695d940,2,80,82,10,1.0,1.0,0
run-2020-2-18-18-4-45.14372611,AGENT#2572b4c4-5279-11ea-a4f5-e7372f754d60,45,38,83,10,1.0,1.0,0
run-2020-2-18-18-4-45.14372611,AGENT#2570e22a-5279-11ea-8e5c-9fe689776dc3,49,35,84,10,1.0,1.0,0
run-2020-2-18-18-4-45.14372611,AGENT#25916c16-5279-11ea-8a23-a3d5d0bed2eb,4,80,84,10,1.0,1.0,0
run-2020-2-18-18-4-45.14372611,AGENT#259236e6-5279-11ea-888f-a33509c37698,3,81,84,10,1.0,1.0,0
run-2020-2-18-18-4-45.14372611,AGENT#2593fb16-5279-11ea-a30a-7f461dd5134d,1,83,84,10,1.0,1.0,0
run-2020-2-18-18-4-45.14372611,AGENT#2593fd96-5279-11ea-b6ca-3306ed708265,1,83,84,10,1.0,1.0,0
run-2020-2-18-18-4-45.14372611,AGENT#25923484-5279-11ea-b6ec-e7f21c11a397,4,81,85,10,1.0,1.0,0
run-2020-2-18-18-4-45.14372611,AGENT#25930422-5279-11ea-a4b4-abd6db4bf4c8,3,82,85,10,1.0,1.0,0
run-2020-2-18-18-4-45.14372611,AGENT#25930940-5279-11ea-a5c4-eb987b3eae2c,3,82,85,10,1.0,1.0,0
run-2020-2-18-18-4-45.14372611,AGENT#2593f256-5279-11ea-8e14-2795bf857d2d,2,83,85,10,1.0,1.0,0
run-2020-2-18-18-4-45.14372611,AGENT#25940246-5279-11ea-9254-7b1cb156c45c,2,83,85,10,1.0,1.0,0
run-2020-2-18-18-4-45.14372611,AGENT#257341be-5279-11ea-926f-2360ab25df66,47,39,86,10,1.0,1.0,0
run-2020-2-18-18-4-45.14372611,AGENT#25930df0-5279-11ea-9c46-db85cc043923,4,82,86,10,1.0,1.0,0
run-2020-2-18-18-4-45.14372611,AGENT#25909e94-5279-11ea-ae00-8383ddb8ab46,8,79,87,10,1.0,1.0,0
run-2020-2-18-18-4-45.14372611,AGENT#2593f5a8-5279-11ea-b25a-d7e93cfbc161,4,83,87,10,1.0,1.0,0
run-2020-2-18-18-4-45.14372611,AGENT#2594ed8c-5279-11ea-aeb6-bb03e08e2778,3,84,87,10,1.0,1.0,0
run-2020-2-18-18-4-45.14372611,AGENT#2596b0cc-5279-11ea-8f22-33676b680c75,1,86,87,10,1.0,1.0,0
run-2020-2-18-18-4-45.14372611,AGENT#2596b374-5279-11ea-b99b-476647bf83f3,2,86,88,10,1.0,1.0,0
run-2020-2-18-18-4-45.14372611,AGENT#25978844-5279-11ea-a771-d375260eba79,1,87,88,10,1.0,1.0,0
run-2020-2-18-18-4-45.14372611,AGENT#25748560-5279-11ea-9333-3369a8d32477,48,41,89,10,1.0,1.0,0
run-2020-2-18-18-4-45.14372611,AGENT#2595d512-5279-11ea-a072-1f4e7d04e259,4,85,89,10,1.0,1.0,0
run-2020-2-18-18-4-45.14372611,AGENT#25979000-5279-11ea-aa81-2b520fb01d25,2,87,89,10,1.0,1.0,0
run-2020-2-18-18-4-45.14372611,AGENT#2599ba56-5279-11ea-96e5-13690f37652e,1,89,90,10,1.0,1.0,0
run-2020-2-18-18-4-45.14372611,AGENT#2577bad2-5279-11ea-bd7b-e79f48fbffa5,45,46,91,10,1.0,1.0,0
run-2020-2-18-18-4-45.14372611,AGENT#25978b00-5279-11ea-aa41-0b85e990e5cd,4,87,91,10,1.0,1.0,0
run-2020-2-18-18-4-45.14372611,AGENT#259ae12e-5279-11ea-aa3a-53c6abd4a688,1,90,91,10,1.0,1.0,0
run-2020-2-18-18-4-45.14372611,AGENT#259ae8d6-5279-11ea-bc3c-e75911aa199a,1,90,91,10,1.0,1.0,0
run-2020-2-18-18-4-45.14372611,AGENT#2577b85c-5279-11ea-a85e-b3fd71898283,46,46,92,10,1.0,1.0,0
run-2020-2-18-18-4-45.14372611,AGENT#25806ca4-5279-11ea-89be-ab809773a718,33,59,92,10,1.0,1.0,0
run-2020-2-18-18-4-45.14372611,AGENT#2597924e-5279-11ea-839a-23340baf0c11,5,87,92,10,1.0,1.0,0
run-2020-2-18-18-4-45.14372611,AGENT#259794ce-5279-11ea-8918-0fa2be5fee13,5,87,92,10,1.0,1.0,0
run-2020-2-18-18-4-45.14372611,AGENT#259ae660-5279-11ea-ae3d-ff4af4c4264c,2,90,92,10,1.0,1.0,0
run-2020-2-18-18-4-45.14372611,AGENT#259beb1e-5279-11ea-afc1-3f6bd1e141b0,1,91,92,10,1.0,1.0,0
run-2020-2-18-18-4-45.14372611,AGENT#25989b62-5279-11ea-b7fa-6793ca9132dc,5,88,93,10,1.0,1.0,0
run-2020-2-18-18-4-45.14372611,AGENT#2599b68c-5279-11ea-9157-e71ebd1e5a89,4,89,93,10,1.0,1.0,0
run-2020-2-18-18-4-45.14372611,AGENT#259ade2c-5279-11ea-8fd9-0b0527d985e9,3,90,93,10,1.0,1.0,0
run-2020-2-18-18-4-45.14372611,AGENT#257d6a54-5279-11ea-81ed-bb55d82567e8,39,55,94,10,1.0,1.0,0
run-2020-2-18-18-4-45.14372611,AGENT#259dfac6-5279-11ea-a949-2ba31ef9f19d,1,93,94,10,1.0,1.0,0
run-2020-2-18-18-4-45.14372611,AGENT#259dff80-5279-11ea-aa18-f3581f2d87d2,1,93,94,10,1.0,1.0,0
run-2020-2-18-18-4-45.14372611,AGENT#2579ab76-5279-11ea-8ca2-f3ee6d5194a9,46,49,95,10,1.0,1.0,0
run-2020-2-18-18-4-45.14372611,AGENT#2593ffe4-5279-11ea-bc25-5748d5022066,12,83,95,10,1.0,1.0,0
run-2020-2-18-18-4-45.14372611,AGENT#259cfa7c-5279-11ea-a870-fbf4dce617f6,3,92,95,10,1.0,1.0,0
run-2020-2-18-18-4-45.14372611,AGENT#259dfd1e-5279-11ea-9f2d-732629609e4b,2,93,95,10,1.0,1.0,0
run-2020-2-18-18-4-45.14372611,AGENT#257ac8bc-5279-11ea-b26e-eb4fc917c5b4,45,51,96,10,1.0,1.0,0
run-2020-2-18-18-4-45.14372611,AGENT#257acb96-5279-11ea-9b3e-2f5bfdac089e,45,51,96,10,1.0,1.0,0
run-2020-2-18-18-4-45.14372611,AGENT#257ace16-5279-11ea-b6c2-4f0f70257db9,45,51,96,10,1.0,1.0,0
run-2020-2-18-18-4-45.14372611,AGENT#25923948-5279-11ea-8cef-ebb3bebf5592,15,81,96,10,1.0,1.0,0
run-2020-2-18-18-4-45.14372611,AGENT#259f01b4-5279-11ea-b269-7703884149bd,2,94,96,10,1.0,1.0,0
run-2020-2-18-18-4-45.14372611,AGENT#25a022ce-5279-11ea-95a1-4b2f6451f87c,1,95,96,10,1.0,1.0,0
run-2020-2-18-18-4-45.14372611,AGENT#257a349c-5279-11ea-ba17-27055ca329c2,47,50,97,10,1.0,1.0,0
run-2020-2-18-18-4-45.14372611,AGENT#2593f814-5279-11ea-9918-d7478ff10f66,14,83,97,10,1.0,1.0,0
run-2020-2-18-18-4-45.14372611,AGENT#259d01b6-5279-11ea-8a5c-439f259340e5,5,92,97,10,1.0,1.0,0
run-2020-2-18-18-4-45.14372611,AGENT#25a01ae0-5279-11ea-95f7-6faf2b253a84,2,95,97,10,1.0,1.0,0
run-2020-2-18-18-4-45.14372611,AGENT#25a01d9c-5279-11ea-a3da-bfef3e8161a3,2,95,97,10,1.0,1.0,0
run-2020-2-18-18-4-45.14372611,AGENT#25a13f88-5279-11ea-aa62-a3140e23478b,1,96,97,10,1.0,1.0,0
run-2020-2-18-18-4-45.14372611,AGENT#257c1dca-5279-11ea-bff4-434cd383fa3e,45,53,98,10,1.0,1.0,0
run-2020-2-18-18-4-45.14372611,AGENT#257eea64-5279-11ea-8209-e7ec15c904ba,41,57,98,10,1.0,1.0,0
run-2020-2-18-18-4-45.14372611,AGENT#259df80a-5279-11ea-8b74-7f5c0abcf475,5,93,98,10,1.0,1.0,0
run-2020-2-18-18-4-45.14372611,AGENT#259e0412-5279-11ea-af6f-7b0817f9591f,5,93,98,10,1.0,1.0,0
run-2020-2-18-18-4-45.14372611,AGENT#25a25544-5279-11ea-bd06-e3b267606dbe,1,97,98,10,1.0,1.0,0
run-2020-2-18-18-4-45.14372611,AGENT#25a01fea-5279-11ea-96e6-1fc94e6b6189,4,95,99,10,1.0,1.0,0
run-2020-2-18-18-4-45.14372611,AGENT#25a25864-5279-11ea-89ba-1715618eb694,2,97,99,10,1.0,1.0,0
run-2020-2-18-18-4-45.14372611,AGENT#25a34ea4-5279-11ea-a291-57cf87eccb1b,1,98,99,10,1.0,1.0,0
