RunID,Agent,Age,Created,Inactive,Resources,Reputation,Ability,Que
run-2020-2-18-13-46-51.940737962,AGENT#1e3f4092-5255-11ea-9111-23d1c3c85639,0,0,0,10,1.0,1.0,0
run-2020-2-18-13-46-51.940737962,AGENT#1e3f262a-5255-11ea-a816-bb4a5f09c1b8,1,0,1,10,1.0,1.0,0
run-2020-2-18-13-46-51.940737962,AGENT#1e3f382c-5255-11ea-a236-572a1587c1aa,1,0,1,10,1.0,1.0,0
run-2020-2-18-13-46-51.940737962,AGENT#1e3f8eee-5255-11ea-bc3d-e364dead1a10,1,0,1,10,1.0,1.0,0
run-2020-2-18-13-46-51.940737962,AGENT#1e3f88cc-5255-11ea-9d82-5fcb70358ac2,2,0,2,10,1.0,1.0,0
run-2020-2-18-13-46-51.940737962,AGENT#1e400b94-5255-11ea-87c1-a7ab6a0513c7,1,1,2,10,1.0,1.0,0
run-2020-2-18-13-46-51.940737962,AGENT#1e400888-5255-11ea-a3ca-43ac001af35e,2,1,3,10,1.0,1.0,0
run-2020-2-18-13-46-51.940737962,AGENT#1e3f3160-5255-11ea-bde1-27742762ca31,4,0,4,10,1.0,1.0,0
run-2020-2-18-13-46-51.940737962,AGENT#1e40d40c-5255-11ea-b646-7bc4139cd237,1,3,4,10,1.0,1.0,0
run-2020-2-18-13-46-51.940737962,AGENT#1e400eb4-5255-11ea-a318-37813864faae,4,1,5,10,1.0,1.0,0
run-2020-2-18-13-46-51.940737962,AGENT#1e4011de-5255-11ea-8516-cf5217f11d72,4,1,5,10,1.0,1.0,0
run-2020-2-18-13-46-51.940737962,AGENT#1e40c688-5255-11ea-b19f-573c0afb1a02,2,3,5,10,1.0,1.0,0
run-2020-2-18-13-46-51.940737962,AGENT#1e40d77c-5255-11ea-9558-9bba6c447b62,4,3,7,10,1.0,1.0,0
run-2020-2-18-13-46-51.940737962,AGENT#1e412d26-5255-11ea-be21-d34bb27a5ebd,3,4,7,10,1.0,1.0,0
run-2020-2-18-13-46-51.940737962,AGENT#1e4177a4-5255-11ea-a0f8-bf3bbff8a605,2,5,7,10,1.0,1.0,0
run-2020-2-18-13-46-51.940737962,AGENT#1e40cf5c-5255-11ea-9f00-cf7bfdafcd6c,5,3,8,10,1.0,1.0,0
run-2020-2-18-13-46-51.940737962,AGENT#1e412a2e-5255-11ea-ab5a-436e44d32cbf,4,4,8,10,1.0,1.0,0
run-2020-2-18-13-46-51.940737962,AGENT#1e41fa9e-5255-11ea-8998-6f2de9dab370,2,7,9,10,1.0,1.0,0
run-2020-2-18-13-46-51.940737962,AGENT#1e423f72-5255-11ea-a0a4-d354d63f0dea,2,8,10,10,1.0,1.0,0
run-2020-2-18-13-46-51.940737962,AGENT#1e41f756-5255-11ea-8fd6-d38cb86bb38c,4,7,11,10,1.0,1.0,0
run-2020-2-18-13-46-51.940737962,AGENT#1e424b8e-5255-11ea-b2eb-0baf47c2c5b0,4,8,12,10,1.0,1.0,0
run-2020-2-18-13-46-51.940737962,AGENT#1e4245a8-5255-11ea-831a-874c500d97b7,5,8,13,10,1.0,1.0,0
run-2020-2-18-13-46-51.940737962,AGENT#1e438292-5255-11ea-9337-eb00c0b1ad84,1,12,13,10,1.0,1.0,0
run-2020-2-18-13-46-51.940737962,AGENT#1e413032-5255-11ea-8760-479c1c100e4f,10,4,14,10,1.0,1.0,0
run-2020-2-18-13-46-51.940737962,AGENT#1e42d888-5255-11ea-9132-7b80bee14560,4,10,14,10,1.0,1.0,0
run-2020-2-18-13-46-51.940737962,AGENT#1e437dba-5255-11ea-ab81-abf800461371,2,12,14,10,1.0,1.0,0
run-2020-2-18-13-46-51.940737962,AGENT#1e43f6c8-5255-11ea-a0cb-3bc662e51c37,1,13,14,10,1.0,1.0,0
run-2020-2-18-13-46-51.940737962,AGENT#1e40ca84-5255-11ea-9578-eb3e11a7c849,12,3,15,10,1.0,1.0,0
run-2020-2-18-13-46-51.940737962,AGENT#1e42e13e-5255-11ea-9923-8349e5163b8c,5,10,15,10,1.0,1.0,0
run-2020-2-18-13-46-51.940737962,AGENT#1e438706-5255-11ea-924c-c7486b6ebdcb,3,12,15,10,1.0,1.0,0
run-2020-2-18-13-46-51.940737962,AGENT#1e438b34-5255-11ea-90c5-e774f5df00da,4,12,16,10,1.0,1.0,0
run-2020-2-18-13-46-51.940737962,AGENT#1e44be5a-5255-11ea-9a26-bb65896f50c5,1,15,16,10,1.0,1.0,0
run-2020-2-18-13-46-51.940737962,AGENT#1e44c404-5255-11ea-ac9e-036cbeda8aa7,1,15,16,10,1.0,1.0,0
run-2020-2-18-13-46-51.940737962,AGENT#1e3f3af2-5255-11ea-8fd2-6f8491f14e9a,17,0,17,10,1.0,1.0,0
run-2020-2-18-13-46-51.940737962,AGENT#1e446888-5255-11ea-8fec-ff94e9adf5d3,3,14,17,10,1.0,1.0,0
run-2020-2-18-13-46-51.940737962,AGENT#1e451e90-5255-11ea-8eb4-dbf74ec22e8a,1,16,17,10,1.0,1.0,0
run-2020-2-18-13-46-51.940737962,AGENT#1e4521b0-5255-11ea-8db8-c7ac3bee5fde,1,16,17,10,1.0,1.0,0
run-2020-2-18-13-46-51.940737962,AGENT#1e43f042-5255-11ea-ab08-1b1440099df7,5,13,18,10,1.0,1.0,0
run-2020-2-18-13-46-51.940737962,AGENT#1e44c148-5255-11ea-b35d-5b67efd1d427,3,15,18,10,1.0,1.0,0
run-2020-2-18-13-46-51.940737962,AGENT#1e45246c-5255-11ea-acd5-9b68e96373d1,2,16,18,10,1.0,1.0,0
run-2020-2-18-13-46-51.940737962,AGENT#1e45c34a-5255-11ea-a134-533c66e550a2,1,18,19,10,1.0,1.0,0
run-2020-2-18-13-46-51.940737962,AGENT#1e45c958-5255-11ea-8f55-733e161039fd,1,18,19,10,1.0,1.0,0
run-2020-2-18-13-46-51.940737962,AGENT#1e417484-5255-11ea-ba7e-f3402359bebd,15,5,20,10,1.0,1.0,0
run-2020-2-18-13-46-51.940737962,AGENT#1e45cc0a-5255-11ea-bf5e-f71267cd2127,3,18,21,10,1.0,1.0,0
run-2020-2-18-13-46-51.940737962,AGENT#1e461926-5255-11ea-af24-a700a9d5b76f,2,19,21,10,1.0,1.0,0
run-2020-2-18-13-46-51.940737962,AGENT#1e461c64-5255-11ea-938a-b709098cb83d,2,19,21,10,1.0,1.0,0
run-2020-2-18-13-46-51.940737962,AGENT#1e46cace-5255-11ea-9d16-0324ce70eac0,1,21,22,10,1.0,1.0,0
run-2020-2-18-13-46-51.940737962,AGENT#1e438e4a-5255-11ea-9e7c-7fc0f3af1260,11,12,23,10,1.0,1.0,0
run-2020-2-18-13-46-51.940737962,AGENT#1e46cd80-5255-11ea-b5fa-a385abe038d2,3,21,24,10,1.0,1.0,0
run-2020-2-18-13-46-51.940737962,AGENT#1e46d2e4-5255-11ea-9024-c3f90d74a483,3,21,24,10,1.0,1.0,0
run-2020-2-18-13-46-51.940737962,AGENT#1e47870c-5255-11ea-a3fd-07c8dbe84efd,1,23,24,10,1.0,1.0,0
run-2020-2-18-13-46-51.940737962,AGENT#1e466d0e-5255-11ea-b28e-bb88a4698552,5,20,25,10,1.0,1.0,0
run-2020-2-18-13-46-51.940737962,AGENT#1e467038-5255-11ea-b22d-cfc864863c3f,5,20,25,10,1.0,1.0,0
run-2020-2-18-13-46-51.940737962,AGENT#1e47814e-5255-11ea-abd3-b3d784c08e0f,2,23,25,10,1.0,1.0,0
run-2020-2-18-13-46-51.940737962,AGENT#1e47845a-5255-11ea-aca5-13b1f4ed90ee,2,23,25,10,1.0,1.0,0
run-2020-2-18-13-46-51.940737962,AGENT#1e46c7ea-5255-11ea-bc8e-5fe4cf6bab9e,5,21,26,10,1.0,1.0,0
run-2020-2-18-13-46-51.940737962,AGENT#1e484854-5255-11ea-8de7-7fa4c1d7100f,2,25,27,10,1.0,1.0,0
run-2020-2-18-13-46-51.940737962,AGENT#1e47e486-5255-11ea-a19a-3f26c0c2a6a8,4,24,28,10,1.0,1.0,0
run-2020-2-18-13-46-51.940737962,AGENT#1e483fee-5255-11ea-b10b-d3439539be9a,3,25,28,10,1.0,1.0,0
run-2020-2-18-13-46-51.940737962,AGENT#1e4242a6-5255-11ea-b9c9-37a56cd5b892,21,8,29,10,1.0,1.0,0
run-2020-2-18-13-46-51.940737962,AGENT#1e42de46-5255-11ea-96cf-cb70b57ac297,19,10,29,10,1.0,1.0,0
run-2020-2-18-13-46-51.940737962,AGENT#1e432c3e-5255-11ea-b16a-bf693355b071,18,11,29,10,1.0,1.0,0
run-2020-2-18-13-46-51.940737962,AGENT#1e4845c0-5255-11ea-9fce-f7e583226029,4,25,29,10,1.0,1.0,0
run-2020-2-18-13-46-51.940737962,AGENT#1e49cc1a-5255-11ea-98b4-1b4aa8360bc4,1,29,30,10,1.0,1.0,0
run-2020-2-18-13-46-51.940737962,AGENT#1e49bebe-5255-11ea-bc79-932b05b393f0,2,29,31,10,1.0,1.0,0
run-2020-2-18-13-46-51.940737962,AGENT#1e49c6f2-5255-11ea-a220-db1b3bd7fb8b,2,29,31,10,1.0,1.0,0
run-2020-2-18-13-46-51.940737962,AGENT#1e49c990-5255-11ea-8e0a-7f0b955e1b9d,2,29,31,10,1.0,1.0,0
run-2020-2-18-13-46-51.940737962,AGENT#1e4a2eda-5255-11ea-b9f0-0b5b0d5daa09,1,30,31,10,1.0,1.0,0
run-2020-2-18-13-46-51.940737962,AGENT#1e3f2a08-5255-11ea-917d-f7b816dc6739,32,0,32,10,1.0,1.0,0
run-2020-2-18-13-46-51.940737962,AGENT#1e4126b4-5255-11ea-8482-97af0cc17945,28,4,32,10,1.0,1.0,0
run-2020-2-18-13-46-51.940737962,AGENT#1e48faa6-5255-11ea-82e4-5708a589fe54,5,27,32,10,1.0,1.0,0
run-2020-2-18-13-46-51.940737962,AGENT#1e4a9bb8-5255-11ea-ac2a-9f20c8ad7c84,1,31,32,10,1.0,1.0,0
run-2020-2-18-13-46-51.940737962,AGENT#1e41b8b8-5255-11ea-aee7-bfc6eabd321e,28,6,34,10,1.0,1.0,0
run-2020-2-18-13-46-51.940737962,AGENT#1e466a0c-5255-11ea-918b-cbe25b6e4d89,14,20,34,10,1.0,1.0,0
run-2020-2-18-13-46-51.940737962,AGENT#1e4a98ca-5255-11ea-bb77-a7d799bded1b,3,31,34,10,1.0,1.0,0
run-2020-2-18-13-46-51.940737962,AGENT#1e4b00b2-5255-11ea-a0cc-a3f17a187d2a,2,32,34,10,1.0,1.0,0
run-2020-2-18-13-46-51.940737962,AGENT#1e4b03f0-5255-11ea-a425-c715dae629c4,2,32,34,10,1.0,1.0,0
run-2020-2-18-13-46-51.940737962,AGENT#1e4b7d8a-5255-11ea-855b-ffa5d467e362,1,33,34,10,1.0,1.0,0
run-2020-2-18-13-46-51.940737962,AGENT#1e428aa4-5255-11ea-8a1c-f3295d7f9310,26,9,35,10,1.0,1.0,0
run-2020-2-18-13-46-51.940737962,AGENT#1e4bee82-5255-11ea-ac21-27d9ad7ed530,1,34,35,10,1.0,1.0,0
run-2020-2-18-13-46-51.940737962,AGENT#1e4b6e26-5255-11ea-a1b2-778002a611e0,3,33,36,10,1.0,1.0,0
run-2020-2-18-13-46-51.940737962,AGENT#1e4be66c-5255-11ea-a1e5-0b0f2b633c47,2,34,36,10,1.0,1.0,0
run-2020-2-18-13-46-51.940737962,AGENT#1e4be946-5255-11ea-a394-271fa1b221e2,2,34,36,10,1.0,1.0,0
run-2020-2-18-13-46-51.940737962,AGENT#1e4bf10c-5255-11ea-a5fc-4b90886f44d2,2,34,36,10,1.0,1.0,0
run-2020-2-18-13-46-51.940737962,AGENT#1e4b7114-5255-11ea-ad7e-7fe71ce0a42b,4,33,37,10,1.0,1.0,0
run-2020-2-18-13-46-51.940737962,AGENT#1e4b73a8-5255-11ea-89cf-57ac2ce340e2,4,33,37,10,1.0,1.0,0
run-2020-2-18-13-46-51.940737962,AGENT#1e4b7b1e-5255-11ea-9211-ebdc77972c09,4,33,37,10,1.0,1.0,0
run-2020-2-18-13-46-51.940737962,AGENT#1e4b7894-5255-11ea-9983-37288f82697f,5,33,38,10,1.0,1.0,0
run-2020-2-18-13-46-51.940737962,AGENT#1e4c5b1a-5255-11ea-ad79-b351bd17158e,3,35,38,10,1.0,1.0,0
run-2020-2-18-13-46-51.940737962,AGENT#1e4cda4a-5255-11ea-9ae2-17ae3a688b14,2,36,38,10,1.0,1.0,0
run-2020-2-18-13-46-51.940737962,AGENT#1e4d5894-5255-11ea-a7ca-1bda3e94b024,1,37,38,10,1.0,1.0,0
run-2020-2-18-13-46-51.940737962,AGENT#1e4d5b00-5255-11ea-a640-7f823236cf5b,1,37,38,10,1.0,1.0,0
run-2020-2-18-13-46-51.940737962,AGENT#1e4c5dcc-5255-11ea-a13d-43c31917aa19,4,35,39,10,1.0,1.0,0
run-2020-2-18-13-46-51.940737962,AGENT#1e4d561e-5255-11ea-8015-af24296866cf,2,37,39,10,1.0,1.0,0
run-2020-2-18-13-46-51.940737962,AGENT#1e4d5d80-5255-11ea-beed-4ba656d2e627,3,37,40,10,1.0,1.0,0
run-2020-2-18-13-46-51.940737962,AGENT#1e4cd586-5255-11ea-949c-ef80c8e3bec6,5,36,41,10,1.0,1.0,0
run-2020-2-18-13-46-51.940737962,AGENT#1e4d531c-5255-11ea-a9ea-03580c962e2a,4,37,41,10,1.0,1.0,0
run-2020-2-18-13-46-51.940737962,AGENT#1e4ec030-5255-11ea-a85b-d7e8c1498635,1,40,41,10,1.0,1.0,0
run-2020-2-18-13-46-51.940737962,AGENT#1e4ebb58-5255-11ea-965f-df3ac1fcbd39,2,40,42,10,1.0,1.0,0
run-2020-2-18-13-46-51.940737962,AGENT#1e4f428a-5255-11ea-93cf-0b06dcf4c977,1,41,42,10,1.0,1.0,0
run-2020-2-18-13-46-51.940737962,AGENT#1e4248be-5255-11ea-84f5-3fe24242c59e,35,8,43,10,1.0,1.0,0
run-2020-2-18-13-46-51.940737962,AGENT#1e4eb63a-5255-11ea-9f52-13ca8e4115d7,3,40,43,10,1.0,1.0,0
run-2020-2-18-13-46-51.940737962,AGENT#1e4e4286-5255-11ea-901c-27504728abaa,5,39,44,10,1.0,1.0,0
run-2020-2-18-13-46-51.940737962,AGENT#1e504b76-5255-11ea-99cc-cba0d9755124,1,43,44,10,1.0,1.0,0
run-2020-2-18-13-46-51.940737962,AGENT#1e3f3534-5255-11ea-8c95-63e828060dfa,45,0,45,10,1.0,1.0,0
run-2020-2-18-13-46-51.940737962,AGENT#1e3f3db8-5255-11ea-af5f-a3118f6943e9,45,0,45,10,1.0,1.0,0
run-2020-2-18-13-46-51.940737962,AGENT#1e3f8be2-5255-11ea-851b-7389de3ce2b9,45,0,45,10,1.0,1.0,0
run-2020-2-18-13-46-51.940737962,AGENT#1e4963d8-5255-11ea-8b84-33796823925f,17,28,45,10,1.0,1.0,0
run-2020-2-18-13-46-51.940737962,AGENT#1e4eb8f6-5255-11ea-8a81-0f108a6538c1,5,40,45,10,1.0,1.0,0
run-2020-2-18-13-46-51.940737962,AGENT#1e50d262-5255-11ea-9e04-8f817a50cf93,1,44,45,10,1.0,1.0,0
run-2020-2-18-13-46-51.940737962,AGENT#1e4fc7dc-5255-11ea-a77e-8362ce9da1ed,4,42,46,10,1.0,1.0,0
run-2020-2-18-13-46-51.940737962,AGENT#1e4fcd86-5255-11ea-890e-8fae41c33bf1,4,42,46,10,1.0,1.0,0
run-2020-2-18-13-46-51.940737962,AGENT#1e50d4c4-5255-11ea-ac55-7bc6bc2fec88,2,44,46,10,1.0,1.0,0
run-2020-2-18-13-46-51.940737962,AGENT#1e50d988-5255-11ea-8ae3-7bf631e899d4,2,44,46,10,1.0,1.0,0
run-2020-2-18-13-46-51.940737962,AGENT#1e516646-5255-11ea-974e-a74ca3c83265,1,45,46,10,1.0,1.0,0
run-2020-2-18-13-46-51.940737962,AGENT#1e3f85b6-5255-11ea-b469-4bbd4be8ca4e,47,0,47,10,1.0,1.0,0
run-2020-2-18-13-46-51.940737962,AGENT#1e4062c4-5255-11ea-9b8d-fff096c4a726,45,2,47,10,1.0,1.0,0
run-2020-2-18-13-46-51.940737962,AGENT#1e4065f8-5255-11ea-b834-8f37fba904ef,45,2,47,10,1.0,1.0,0
run-2020-2-18-13-46-51.940737962,AGENT#1e428db0-5255-11ea-ab84-838f97c0c9d4,38,9,47,10,1.0,1.0,0
run-2020-2-18-13-46-51.940737962,AGENT#1e50d73a-5255-11ea-8b57-efde5728b996,3,44,47,10,1.0,1.0,0
run-2020-2-18-13-46-51.940737962,AGENT#1e50dbfe-5255-11ea-9696-7bf35eabbd2f,3,44,47,10,1.0,1.0,0
run-2020-2-18-13-46-51.940737962,AGENT#1e51ebf2-5255-11ea-b942-efd1439628ca,1,46,47,10,1.0,1.0,0
run-2020-2-18-13-46-51.940737962,AGENT#1e3f2cf6-5255-11ea-a39b-37519fa9b57b,48,0,48,10,1.0,1.0,0
run-2020-2-18-13-46-51.940737962,AGENT#1e3f4358-5255-11ea-a277-e75e0802af75,48,0,48,10,1.0,1.0,0
run-2020-2-18-13-46-51.940737962,AGENT#1e526a5a-5255-11ea-98e6-732a7b5ba66a,1,47,48,10,1.0,1.0,0
run-2020-2-18-13-46-51.940737962,AGENT#1e51dfd6-5255-11ea-bf4d-c7b478216ceb,3,46,49,10,1.0,1.0,0
run-2020-2-18-13-46-51.940737962,AGENT#1e51e9a4-5255-11ea-83a9-bbca407e645a,3,46,49,10,1.0,1.0,0
run-2020-2-18-13-46-51.940737962,AGENT#1e526ce4-5255-11ea-a462-53c27cda64eb,2,47,49,10,1.0,1.0,0
run-2020-2-18-13-46-51.940737962,AGENT#1e4bebe4-5255-11ea-aa7c-2b20bbcf8352,16,34,50,10,1.0,1.0,0
run-2020-2-18-13-46-51.940737962,AGENT#1e5378c8-5255-11ea-bbbd-c77e50ba0da7,1,49,50,10,1.0,1.0,0
run-2020-2-18-13-46-51.940737962,AGENT#1e43f3d0-5255-11ea-9bb7-cf133eea2e7f,38,13,51,10,1.0,1.0,0
run-2020-2-18-13-46-51.940737962,AGENT#1e47e18e-5255-11ea-a094-236964579d4d,27,24,51,10,1.0,1.0,0
run-2020-2-18-13-46-51.940737962,AGENT#1e526f50-5255-11ea-8dcc-5fbb99ea5ff8,4,47,51,10,1.0,1.0,0
run-2020-2-18-13-46-51.940737962,AGENT#1e4cd7e8-5255-11ea-af4c-d3a30cc49d1f,17,36,53,10,1.0,1.0,0
run-2020-2-18-13-46-51.940737962,AGENT#1e52f2ea-5255-11ea-845d-6f3862465e82,5,48,53,10,1.0,1.0,0
run-2020-2-18-13-46-51.940737962,AGENT#1e53f2a8-5255-11ea-a0a0-334e659d5a4e,3,50,53,10,1.0,1.0,0
run-2020-2-18-13-46-51.940737962,AGENT#1e547372-5255-11ea-84d1-97b0bcae0262,2,51,53,10,1.0,1.0,0
run-2020-2-18-13-46-51.940737962,AGENT#1e547f3e-5255-11ea-8588-8b14e2bd12e2,2,51,53,10,1.0,1.0,0
run-2020-2-18-13-46-51.940737962,AGENT#1e5508be-5255-11ea-b795-4b782ae71443,1,52,53,10,1.0,1.0,0
run-2020-2-18-13-46-51.940737962,AGENT#1e550df0-5255-11ea-9e30-db0b601f0093,1,52,53,10,1.0,1.0,0
run-2020-2-18-13-46-51.940737962,AGENT#1e41b55c-5255-11ea-b8af-fb308558127d,48,6,54,10,1.0,1.0,0
run-2020-2-18-13-46-51.940737962,AGENT#1e4b761e-5255-11ea-bd7d-03f415227a15,21,33,54,10,1.0,1.0,0
run-2020-2-18-13-46-51.940737962,AGENT#1e4d5fe2-5255-11ea-a6c2-e7fa147e2282,17,37,54,10,1.0,1.0,0
run-2020-2-18-13-46-51.940737962,AGENT#1e53f514-5255-11ea-97a3-b3a25e4e6a89,4,50,54,10,1.0,1.0,0
run-2020-2-18-13-46-51.940737962,AGENT#1e551070-5255-11ea-b594-5f2837b710a5,2,52,54,10,1.0,1.0,0
run-2020-2-18-13-46-51.940737962,AGENT#1e5512be-5255-11ea-8a9f-a798921e282f,2,52,54,10,1.0,1.0,0
run-2020-2-18-13-46-51.940737962,AGENT#1e55b58e-5255-11ea-be75-9343bf93b3f3,1,53,54,10,1.0,1.0,0
run-2020-2-18-13-46-51.940737962,AGENT#1e55b80e-5255-11ea-987c-2f7f2c092f30,1,53,54,10,1.0,1.0,0
run-2020-2-18-13-46-51.940737962,AGENT#1e42d4e6-5255-11ea-afc7-5b83958b8ea7,45,10,55,10,1.0,1.0,0
run-2020-2-18-13-46-51.940737962,AGENT#1e547cd2-5255-11ea-99e8-d7ba9cf81106,4,51,55,10,1.0,1.0,0
run-2020-2-18-13-46-51.940737962,AGENT#1e55b318-5255-11ea-8fb3-87ecd654a4ff,2,53,55,10,1.0,1.0,0
run-2020-2-18-13-46-51.940737962,AGENT#1e565ec6-5255-11ea-8642-73cad54446ec,1,54,55,10,1.0,1.0,0
run-2020-2-18-13-46-51.940737962,AGENT#1e42db80-5255-11ea-9947-c74d19336056,46,10,56,10,1.0,1.0,0
run-2020-2-18-13-46-51.940737962,AGENT#1e44c9ae-5255-11ea-862c-23d5e50bf1fb,41,15,56,10,1.0,1.0,0
run-2020-2-18-13-46-51.940737962,AGENT#1e55b070-5255-11ea-9948-4ff1adcec3eb,3,53,56,10,1.0,1.0,0
run-2020-2-18-13-46-51.940737962,AGENT#1e56fec6-5255-11ea-a50a-8714ba3b2866,1,55,56,10,1.0,1.0,0
run-2020-2-18-13-46-51.940737962,AGENT#1e570164-5255-11ea-b5dd-97ec2e097830,1,55,56,10,1.0,1.0,0
run-2020-2-18-13-46-51.940737962,AGENT#1e41fe0e-5255-11ea-b90b-4ffbd29ce3e0,50,7,57,10,1.0,1.0,0
run-2020-2-18-13-46-51.940737962,AGENT#1e55baa2-5255-11ea-8021-d304f849eb4e,4,53,57,10,1.0,1.0,0
run-2020-2-18-13-46-51.940737962,AGENT#1e55bd04-5255-11ea-a8d1-fb27344bff65,4,53,57,10,1.0,1.0,0
run-2020-2-18-13-46-51.940737962,AGENT#1e57a2f4-5255-11ea-b81b-cf54e867878e,1,56,57,10,1.0,1.0,0
run-2020-2-18-13-46-51.940737962,AGENT#1e57a56a-5255-11ea-9f1e-270157a29844,1,56,57,10,1.0,1.0,0
run-2020-2-18-13-46-51.940737962,AGENT#1e56688a-5255-11ea-97bc-8325a5ceb724,4,54,58,10,1.0,1.0,0
run-2020-2-18-13-46-51.940737962,AGENT#1e57a02e-5255-11ea-a429-3f792e7d57ea,2,56,58,10,1.0,1.0,0
run-2020-2-18-13-46-51.940737962,AGENT#1e566628-5255-11ea-92a9-b3ef0006cec7,5,54,59,10,1.0,1.0,0
run-2020-2-18-13-46-51.940737962,AGENT#1e583a52-5255-11ea-a3da-773f9e0288db,2,57,59,10,1.0,1.0,0
run-2020-2-18-13-46-51.940737962,AGENT#1e583f70-5255-11ea-9e4a-63819362f7ca,2,57,59,10,1.0,1.0,0
run-2020-2-18-13-46-51.940737962,AGENT#1e58dcd2-5255-11ea-ae0d-7341a23a117f,1,58,59,10,1.0,1.0,0
run-2020-2-18-13-46-51.940737962,AGENT#1e44c6d4-5255-11ea-a649-f36e850ec77f,45,15,60,10,1.0,1.0,0
run-2020-2-18-13-46-51.940737962,AGENT#1e51e756-5255-11ea-8048-2306b94516c3,14,46,60,10,1.0,1.0,0
run-2020-2-18-13-46-51.940737962,AGENT#1e527432-5255-11ea-90da-a37802bf2513,13,47,60,10,1.0,1.0,0
run-2020-2-18-13-46-51.940737962,AGENT#1e451bc0-5255-11ea-b968-dba31d39d201,45,16,61,10,1.0,1.0,0
run-2020-2-18-13-46-51.940737962,AGENT#1e57a7b8-5255-11ea-8a18-9fd4894644d9,5,56,61,10,1.0,1.0,0
run-2020-2-18-13-46-51.940737962,AGENT#1e58df2a-5255-11ea-96fc-efcee4741158,3,58,61,10,1.0,1.0,0
run-2020-2-18-13-46-51.940737962,AGENT#1e5981d2-5255-11ea-97db-cfe8799cb406,2,59,61,10,1.0,1.0,0
run-2020-2-18-13-46-51.940737962,AGENT#1e5984ac-5255-11ea-a2a3-b362a94d0983,2,59,61,10,1.0,1.0,0
run-2020-2-18-13-46-51.940737962,AGENT#1e598704-5255-11ea-896a-232ee0191ab5,2,59,61,10,1.0,1.0,0
run-2020-2-18-13-46-51.940737962,AGENT#1e598bbe-5255-11ea-a078-43aa63043aa0,2,59,61,10,1.0,1.0,0
run-2020-2-18-13-46-51.940737962,AGENT#1e5a26d2-5255-11ea-8754-93e41e9079e9,1,60,61,10,1.0,1.0,0
run-2020-2-18-13-46-51.940737962,AGENT#1e44bafe-5255-11ea-bdc6-63b3a52ed885,47,15,62,10,1.0,1.0,0
run-2020-2-18-13-46-51.940737962,AGENT#1e4518c8-5255-11ea-9679-a3ab5e9fa705,46,16,62,10,1.0,1.0,0
run-2020-2-18-13-46-51.940737962,AGENT#1e58da02-5255-11ea-a914-b390a24e87c2,4,58,62,10,1.0,1.0,0
run-2020-2-18-13-46-51.940737962,AGENT#1e59895c-5255-11ea-92db-5b363ad20d12,3,59,62,10,1.0,1.0,0
run-2020-2-18-13-46-51.940737962,AGENT#1e5a21f0-5255-11ea-b38e-b70a5b4a0bf4,2,60,62,10,1.0,1.0,0
run-2020-2-18-13-46-51.940737962,AGENT#1e5a247a-5255-11ea-b0b6-c3cad6f94f48,3,60,63,10,1.0,1.0,0
run-2020-2-18-13-46-51.940737962,AGENT#1e61182a-5255-11ea-958f-eb9d05ba92ae,1,62,63,10,1.0,1.0,0
run-2020-2-18-13-46-51.940737962,AGENT#1e49c184-5255-11ea-9d09-07ef886093c3,35,29,64,10,1.0,1.0,0
run-2020-2-18-13-46-51.940737962,AGENT#1e5a2b5a-5255-11ea-8776-f334662742d5,4,60,64,10,1.0,1.0,0
run-2020-2-18-13-46-51.940737962,AGENT#1e61d396-5255-11ea-af2f-e377d035b7c1,2,63,65,10,1.0,1.0,0
run-2020-2-18-13-46-51.940737962,AGENT#1e605b6a-5255-11ea-925a-837615be29c5,5,61,66,10,1.0,1.0,0
run-2020-2-18-13-46-51.940737962,AGENT#1e635ae0-5255-11ea-a1f4-b3f8b9c79aed,1,65,66,10,1.0,1.0,0
run-2020-2-18-13-46-51.940737962,AGENT#1e45c660-5255-11ea-90c7-277c9738c8c1,49,18,67,10,1.0,1.0,0
run-2020-2-18-13-46-51.940737962,AGENT#1e61c1e4-5255-11ea-9583-4f84fec70184,4,63,67,10,1.0,1.0,0
run-2020-2-18-13-46-51.940737962,AGENT#1e61ccde-5255-11ea-911e-03df48eb0d05,4,63,67,10,1.0,1.0,0
run-2020-2-18-13-46-51.940737962,AGENT#1e6418cc-5255-11ea-88df-a7bb45bdaedb,1,66,67,10,1.0,1.0,0
run-2020-2-18-13-46-51.940737962,AGENT#1e641f8e-5255-11ea-8124-e79ffb95c177,1,66,67,10,1.0,1.0,0
run-2020-2-18-13-46-51.940737962,AGENT#1e46d046-5255-11ea-b1c4-cf0637b9c7bb,47,21,68,10,1.0,1.0,0
run-2020-2-18-13-46-51.940737962,AGENT#1e4789be-5255-11ea-8221-5f33bcf1d837,45,23,68,10,1.0,1.0,0
run-2020-2-18-13-46-51.940737962,AGENT#1e49c468-5255-11ea-bb83-eb653b5e52d3,39,29,68,10,1.0,1.0,0
run-2020-2-18-13-46-51.940737962,AGENT#1e61c5ae-5255-11ea-977e-bf9ce8e41fd6,5,63,68,10,1.0,1.0,0
run-2020-2-18-13-46-51.940737962,AGENT#1e61ca7c-5255-11ea-9698-7b7cc2dd027e,5,63,68,10,1.0,1.0,0
run-2020-2-18-13-46-51.940737962,AGENT#1e635dba-5255-11ea-b25a-33d5185bf532,3,65,68,10,1.0,1.0,0
run-2020-2-18-13-46-51.940737962,AGENT#1e64d424-5255-11ea-a1c8-4754b242eb9a,1,67,68,10,1.0,1.0,0
run-2020-2-18-13-46-51.940737962,AGENT#1e659350-5255-11ea-b58f-93a0ece98608,1,68,69,10,1.0,1.0,0
run-2020-2-18-13-46-51.940737962,AGENT#1e472820-5255-11ea-a228-d3eecc4868b9,48,22,70,10,1.0,1.0,0
run-2020-2-18-13-46-51.940737962,AGENT#1e47e724-5255-11ea-a8aa-d3e133cb1ea6,46,24,70,10,1.0,1.0,0
run-2020-2-18-13-46-51.940737962,AGENT#1e65910c-5255-11ea-addb-b76d0c683a03,3,68,71,10,1.0,1.0,0
run-2020-2-18-13-46-51.940737962,AGENT#1e6597e2-5255-11ea-ac95-0f6d0f08ab26,3,68,71,10,1.0,1.0,0
run-2020-2-18-13-46-51.940737962,AGENT#1e5841be-5255-11ea-acfc-bbecf597c9b5,15,57,72,10,1.0,1.0,0
run-2020-2-18-13-46-51.940737962,AGENT#1e658eaa-5255-11ea-92d9-4ff805d32c46,4,68,72,10,1.0,1.0,0
run-2020-2-18-13-46-51.940737962,AGENT#1e4c584a-5255-11ea-8575-07f7f42da09b,38,35,73,10,1.0,1.0,0
run-2020-2-18-13-46-51.940737962,AGENT#1e4e4524-5255-11ea-bf3a-5b7ea936127f,34,39,73,10,1.0,1.0,0
run-2020-2-18-13-46-51.940737962,AGENT#1e659594-5255-11ea-9218-6b97e23abb54,5,68,73,10,1.0,1.0,0
run-2020-2-18-13-46-51.940737962,AGENT#1e67cf08-5255-11ea-b356-63261a849513,2,71,73,10,1.0,1.0,0
run-2020-2-18-13-46-51.940737962,AGENT#1e68856a-5255-11ea-a7ef-7b626d7836b6,1,72,73,10,1.0,1.0,0
run-2020-2-18-13-46-51.940737962,AGENT#1e4960f4-5255-11ea-865c-33bc5ac520a2,46,28,74,10,1.0,1.0,0
run-2020-2-18-13-46-51.940737962,AGENT#1e69585a-5255-11ea-a685-7793251f612f,1,73,74,10,1.0,1.0,0
run-2020-2-18-13-46-51.940737962,AGENT#1e484304-5255-11ea-aa2a-5fe03a8c694b,50,25,75,10,1.0,1.0,0
run-2020-2-18-13-46-51.940737962,AGENT#1e48fd76-5255-11ea-a457-0fed9874081c,48,27,75,10,1.0,1.0,0
run-2020-2-18-13-46-51.940737962,AGENT#1e4a2958-5255-11ea-83a1-df7cd333e0d9,45,30,75,10,1.0,1.0,0
run-2020-2-18-13-46-51.940737962,AGENT#1e67d1ce-5255-11ea-bff3-47c8482b7749,4,71,75,10,1.0,1.0,0
run-2020-2-18-13-46-51.940737962,AGENT#1e694ed2-5255-11ea-999f-13031520e491,2,73,75,10,1.0,1.0,0
run-2020-2-18-13-46-51.940737962,AGENT#1e6a1358-5255-11ea-bc85-8bf66ebcf268,2,74,76,10,1.0,1.0,0
run-2020-2-18-13-46-51.940737962,AGENT#1e4a2c0a-5255-11ea-b6ba-ff496c0865d2,47,30,77,10,1.0,1.0,0
run-2020-2-18-13-46-51.940737962,AGENT#1e6949aa-5255-11ea-ade8-cb0ad51a604c,4,73,77,10,1.0,1.0,0
run-2020-2-18-13-46-51.940737962,AGENT#1e6b948a-5255-11ea-8a6d-2f8f341352e4,1,76,77,10,1.0,1.0,0
run-2020-2-18-13-46-51.940737962,AGENT#1e4ebdba-5255-11ea-962d-c301e2de6365,38,40,78,10,1.0,1.0,0
run-2020-2-18-13-46-51.940737962,AGENT#1e550b84-5255-11ea-a440-7b680059d20b,26,52,78,10,1.0,1.0,0
run-2020-2-18-13-46-51.940737962,AGENT#1e60607e-5255-11ea-a116-8b2047b9c84b,17,61,78,10,1.0,1.0,0
run-2020-2-18-13-46-51.940737962,AGENT#1e6421c8-5255-11ea-9e65-bf3d3d732c4a,12,66,78,10,1.0,1.0,0
run-2020-2-18-13-46-51.940737962,AGENT#1e694c70-5255-11ea-86c2-03122db2e5bf,5,73,78,10,1.0,1.0,0
run-2020-2-18-13-46-51.940737962,AGENT#1e6951ac-5255-11ea-954e-c39043ef8c9f,5,73,78,10,1.0,1.0,0
run-2020-2-18-13-46-51.940737962,AGENT#1e6a0e26-5255-11ea-84ea-2fbbd20cf832,5,74,79,10,1.0,1.0,0
run-2020-2-18-13-46-51.940737962,AGENT#1e6a10ce-5255-11ea-b151-fbeb8dcd64b6,5,74,79,10,1.0,1.0,0
run-2020-2-18-13-46-51.940737962,AGENT#1e6b8a30-5255-11ea-883c-534c2f05ed5c,3,76,79,10,1.0,1.0,0
run-2020-2-18-13-46-51.940737962,AGENT#1e6d4ce4-5255-11ea-a3f3-93303ca6b827,1,78,79,10,1.0,1.0,0
run-2020-2-18-13-46-51.940737962,AGENT#1e6b8cec-5255-11ea-94b3-abca4f04170f,4,76,80,10,1.0,1.0,0
run-2020-2-18-13-46-51.940737962,AGENT#1e6b98d6-5255-11ea-a9a7-23302704191f,4,76,80,10,1.0,1.0,0
run-2020-2-18-13-46-51.940737962,AGENT#1e6d3eb6-5255-11ea-a38e-938561a902d3,2,78,80,10,1.0,1.0,0
run-2020-2-18-13-46-51.940737962,AGENT#1e6d460e-5255-11ea-8ccf-37d3b8dc1143,3,78,81,10,1.0,1.0,0
run-2020-2-18-13-46-51.940737962,AGENT#1e6c6b62-5255-11ea-bf0b-7b4114a8bb31,5,77,82,10,1.0,1.0,0
run-2020-2-18-13-46-51.940737962,AGENT#1e6d43ca-5255-11ea-94d5-6b3b9ae1647e,4,78,82,10,1.0,1.0,0
run-2020-2-18-13-46-51.940737962,AGENT#1e6f65c4-5255-11ea-8678-ef434a3f9175,2,80,82,10,1.0,1.0,0
run-2020-2-18-13-46-51.940737962,AGENT#1e7045a2-5255-11ea-933d-6f2e64fa0a37,1,81,82,10,1.0,1.0,0
run-2020-2-18-13-46-51.940737962,AGENT#1e4cd036-5255-11ea-92c1-d758184193f1,47,36,83,10,1.0,1.0,0
run-2020-2-18-13-46-51.940737962,AGENT#1e4cd2f2-5255-11ea-9d5d-d70ce7cddffe,47,36,83,10,1.0,1.0,0
run-2020-2-18-13-46-51.940737962,AGENT#1e4dd1a2-5255-11ea-a914-334bf4c74c4e,45,38,83,10,1.0,1.0,0
run-2020-2-18-13-46-51.940737962,AGENT#1e4dd454-5255-11ea-9f14-770b8ee1d567,45,38,83,10,1.0,1.0,0
run-2020-2-18-13-46-51.940737962,AGENT#1e62a1f4-5255-11ea-9a37-9b8896d57369,19,64,83,10,1.0,1.0,0
run-2020-2-18-13-46-51.940737962,AGENT#1e6c66b2-5255-11ea-96c6-0bce3e4cb348,6,77,83,10,1.0,1.0,0
run-2020-2-18-13-46-51.940737962,AGENT#1e6d417c-5255-11ea-8886-cfec1b862f8f,5,78,83,10,1.0,1.0,0
run-2020-2-18-13-46-51.940737962,AGENT#1e704a66-5255-11ea-964d-37946e4bbd78,2,81,83,10,1.0,1.0,0
run-2020-2-18-13-46-51.940737962,AGENT#1e711518-5255-11ea-ac60-bff4f6c26666,1,82,83,10,1.0,1.0,0
run-2020-2-18-13-46-51.940737962,AGENT#1e71175c-5255-11ea-9065-cf7186d2e6ba,1,82,83,10,1.0,1.0,0
run-2020-2-18-13-46-51.940737962,AGENT#1e4e479a-5255-11ea-9bff-cb5a178cb9b4,45,39,84,10,1.0,1.0,0
run-2020-2-18-13-46-51.940737962,AGENT#1e6d4848-5255-11ea-afce-938a0beb3df0,6,78,84,10,1.0,1.0,0
run-2020-2-18-13-46-51.940737962,AGENT#1e7112de-5255-11ea-aea7-fb06e95d6550,2,82,84,10,1.0,1.0,0
run-2020-2-18-13-46-51.940737962,AGENT#1e7205a4-5255-11ea-a123-2bf9d3bb4207,1,83,84,10,1.0,1.0,0
run-2020-2-18-13-46-51.940737962,AGENT#1e4dd6de-5255-11ea-abb9-6746365a6260,47,38,85,10,1.0,1.0,0
run-2020-2-18-13-46-51.940737962,AGENT#1e704282-5255-11ea-bdc2-d72fea1b3a0e,4,81,85,10,1.0,1.0,0
run-2020-2-18-13-46-51.940737962,AGENT#1e71105e-5255-11ea-91f2-df51f0109759,3,82,85,10,1.0,1.0,0
run-2020-2-18-13-46-51.940737962,AGENT#1e72087e-5255-11ea-aa02-d39e6cf832d6,2,83,85,10,1.0,1.0,0
run-2020-2-18-13-46-51.940737962,AGENT#1e71198c-5255-11ea-a4d3-1bbd47e6c25f,4,82,86,10,1.0,1.0,0
run-2020-2-18-13-46-51.940737962,AGENT#1e711c34-5255-11ea-9c12-27d36d86888e,4,82,86,10,1.0,1.0,0
run-2020-2-18-13-46-51.940737962,AGENT#1e72ceb2-5255-11ea-a382-df8e684fb4c9,2,84,86,10,1.0,1.0,0
run-2020-2-18-13-46-51.940737962,AGENT#1e4f47bc-5255-11ea-ac02-c3bfde90fbba,46,41,87,10,1.0,1.0,0
run-2020-2-18-13-46-51.940737962,AGENT#1e50cf60-5255-11ea-a0ab-9bd4e9cea045,43,44,87,10,1.0,1.0,0
run-2020-2-18-13-46-51.940737962,AGENT#1e72c9b2-5255-11ea-a21b-83cf54223335,3,84,87,10,1.0,1.0,0
run-2020-2-18-13-46-51.940737962,AGENT#1e73968a-5255-11ea-b8c6-fb4fa50853cc,2,85,87,10,1.0,1.0,0
run-2020-2-18-13-46-51.940737962,AGENT#1e745d9a-5255-11ea-b579-332fc2b64d82,1,86,87,10,1.0,1.0,0
run-2020-2-18-13-46-51.940737962,AGENT#1e72cc50-5255-11ea-bdb5-cf615a2128b9,4,84,88,10,1.0,1.0,0
run-2020-2-18-13-46-51.940737962,AGENT#1e7524be-5255-11ea-969d-5f4b1a50fa7f,1,87,88,10,1.0,1.0,0
run-2020-2-18-13-46-51.940737962,AGENT#1e4f4546-5255-11ea-b89a-971e27a757ab,48,41,89,10,1.0,1.0,0
run-2020-2-18-13-46-51.940737962,AGENT#1e4fcade-5255-11ea-9430-e7fe67500631,47,42,89,10,1.0,1.0,0
run-2020-2-18-13-46-51.940737962,AGENT#1e752928-5255-11ea-b685-57ab2dd5e6e0,2,87,89,10,1.0,1.0,0
run-2020-2-18-13-46-51.940737962,AGENT#1e75f380-5255-11ea-9b07-9b22d4aaf126,1,88,89,10,1.0,1.0,0
run-2020-2-18-13-46-51.940737962,AGENT#1e6c6446-5255-11ea-a254-77e823e63581,13,77,90,10,1.0,1.0,0
run-2020-2-18-13-46-51.940737962,AGENT#1e745912-5255-11ea-a12b-d3df886442b8,4,86,90,10,1.0,1.0,0
run-2020-2-18-13-46-51.940737962,AGENT#1e745b4c-5255-11ea-a9ec-9720b80f1f88,4,86,90,10,1.0,1.0,0
run-2020-2-18-13-46-51.940737962,AGENT#1e5048ec-5255-11ea-9e81-935b89a6fb39,48,43,91,10,1.0,1.0,0
run-2020-2-18-13-46-51.940737962,AGENT#1e51e260-5255-11ea-868d-675090667fcf,45,46,91,10,1.0,1.0,0
run-2020-2-18-13-46-51.940737962,AGENT#1e75efc0-5255-11ea-95ca-2b65f80a44d9,3,88,91,10,1.0,1.0,0
run-2020-2-18-13-46-51.940737962,AGENT#1e782d30-5255-11ea-92d3-3b02fac63d33,1,90,91,10,1.0,1.0,0
run-2020-2-18-13-46-51.940737962,AGENT#1e51e4fe-5255-11ea-af5a-73d191718f4d,46,46,92,10,1.0,1.0,0
run-2020-2-18-13-46-51.940737962,AGENT#1e75f718-5255-11ea-bf80-afed91844071,4,88,92,10,1.0,1.0,0
run-2020-2-18-13-46-51.940737962,AGENT#1e75faf6-5255-11ea-b060-a367848cb695,4,88,92,10,1.0,1.0,0
run-2020-2-18-13-46-51.940737962,AGENT#1e7838ca-5255-11ea-a053-2b3e2c9b3821,2,90,92,10,1.0,1.0,0
run-2020-2-18-13-46-51.940737962,AGENT#1e795db8-5255-11ea-b9cd-9f6d35c2c159,1,91,92,10,1.0,1.0,0
run-2020-2-18-13-46-51.940737962,AGENT#1e79604c-5255-11ea-a9e2-07619e4697ab,1,91,92,10,1.0,1.0,0
run-2020-2-18-13-46-51.940737962,AGENT#1e7962f4-5255-11ea-85e3-eb26abfa1946,1,91,92,10,1.0,1.0,0
run-2020-2-18-13-46-51.940737962,AGENT#1e50464e-5255-11ea-9b99-57e696ecdcb2,50,43,93,10,1.0,1.0,0
run-2020-2-18-13-46-51.940737962,AGENT#1e7a65aa-5255-11ea-8bfc-8b535e5cff45,1,92,93,10,1.0,1.0,0
run-2020-2-18-13-46-51.940737962,AGENT#1e7a68b6-5255-11ea-8812-c3c2d182d9ce,1,92,93,10,1.0,1.0,0
run-2020-2-18-13-46-51.940737962,AGENT#1e7a7004-5255-11ea-80da-b7e9c39f4522,1,92,93,10,1.0,1.0,0
run-2020-2-18-13-46-51.940737962,AGENT#1e5271bc-5255-11ea-8f61-db119a8b0887,47,47,94,10,1.0,1.0,0
run-2020-2-18-13-46-51.940737962,AGENT#1e537634-5255-11ea-b10c-8f0d42e21ca1,45,49,94,10,1.0,1.0,0
run-2020-2-18-13-46-51.940737962,AGENT#1e52f5b0-5255-11ea-8ece-dfe171281fb2,47,48,95,10,1.0,1.0,0
run-2020-2-18-13-46-51.940737962,AGENT#1e53f032-5255-11ea-8e35-575311276d58,45,50,95,10,1.0,1.0,0
run-2020-2-18-13-46-51.940737962,AGENT#1e771d0a-5255-11ea-a738-772ccaf0a1a1,6,89,95,10,1.0,1.0,0
run-2020-2-18-13-46-51.940737962,AGENT#1e7a6d8e-5255-11ea-8c9f-0b458ad1b2fe,3,92,95,10,1.0,1.0,0
run-2020-2-18-13-46-51.940737962,AGENT#1e7b553c-5255-11ea-90ad-63e2c97b379c,2,93,95,10,1.0,1.0,0
run-2020-2-18-13-46-51.940737962,AGENT#1e547a8e-5255-11ea-97fa-ff18ec0410ad,45,51,96,10,1.0,1.0,0
run-2020-2-18-13-46-51.940737962,AGENT#1e7c2912-5255-11ea-83e4-d7cb9a54aacc,2,94,96,10,1.0,1.0,0
run-2020-2-18-13-46-51.940737962,AGENT#1e53f758-5255-11ea-bb6c-2fac36564f9b,47,50,97,10,1.0,1.0,0
run-2020-2-18-13-46-51.940737962,AGENT#1e5475e8-5255-11ea-a3d5-efe4f535199b,46,51,97,10,1.0,1.0,0
run-2020-2-18-13-46-51.940737962,AGENT#1e55152a-5255-11ea-bfb4-07c6d8723d6b,45,52,97,10,1.0,1.0,0
run-2020-2-18-13-46-51.940737962,AGENT#1e54784a-5255-11ea-a599-bb7e3d36433e,47,51,98,10,1.0,1.0,0
run-2020-2-18-13-46-51.940737962,AGENT#1e551778-5255-11ea-a90b-ef8cbad33253,46,52,98,10,1.0,1.0,0
run-2020-2-18-13-46-51.940737962,AGENT#1e5659b2-5255-11ea-b094-abdf3dd80242,45,54,99,10,1.0,1.0,0
run-2020-2-18-13-46-51.940737962,AGENT#1e641b06-5255-11ea-a911-bf8e0558c2ae,33,66,99,10,1.0,1.0,0
run-2020-2-18-13-46-51.940737962,AGENT#1e7dc5b0-5255-11ea-8429-07804e43f4f6,3,96,99,10,1.0,1.0,0
run-2020-2-18-13-46-51.940737962,AGENT#1e7e8e96-5255-11ea-84f0-d7aaaab282e7,2,97,99,10,1.0,1.0,0
run-2020-2-18-13-46-51.940737962,AGENT#1e7f9458-5255-11ea-aad3-3f893b385851,1,98,99,10,1.0,1.0,0
run-2020-2-18-13-46-51.940737962,AGENT#1e7fa326-5255-11ea-a51a-83e58676fac3,1,98,99,10,1.0,1.0,0
