RunID,Tick,ActiveAgentsPerTick
run-2020-2-18-13-46-51.940737962,0,14
run-2020-2-18-13-46-51.940737962,1,17
run-2020-2-18-13-46-51.940737962,2,16
run-2020-2-18-13-46-51.940737962,3,19
run-2020-2-18-13-46-51.940737962,4,22
run-2020-2-18-13-46-51.940737962,5,22
run-2020-2-18-13-46-51.940737962,6,21
run-2020-2-18-13-46-51.940737962,7,24
run-2020-2-18-13-46-51.940737962,8,26
run-2020-2-18-13-46-51.940737962,9,26
run-2020-2-18-13-46-51.940737962,10,30
run-2020-2-18-13-46-51.940737962,11,30
run-2020-2-18-13-46-51.940737962,12,34
run-2020-2-18-13-46-51.940737962,13,36
run-2020-2-18-13-46-51.940737962,14,35
run-2020-2-18-13-46-51.940737962,15,37
run-2020-2-18-13-46-51.940737962,16,39
run-2020-2-18-13-46-51.940737962,17,36
run-2020-2-18-13-46-51.940737962,18,36
run-2020-2-18-13-46-51.940737962,19,35
run-2020-2-18-13-46-51.940737962,20,36
run-2020-2-18-13-46-51.940737962,21,40
run-2020-2-18-13-46-51.940737962,22,38
run-2020-2-18-13-46-51.940737962,23,41
run-2020-2-18-13-46-51.940737962,24,43
run-2020-2-18-13-46-51.940737962,25,44
run-2020-2-18-13-46-51.940737962,26,40
run-2020-2-18-13-46-51.940737962,27,41
run-2020-2-18-13-46-51.940737962,28,42
run-2020-2-18-13-46-51.940737962,29,46
run-2020-2-18-13-46-51.940737962,30,45
run-2020-2-18-13-46-51.940737962,31,46
run-2020-2-18-13-46-51.940737962,32,44
run-2020-2-18-13-46-51.940737962,33,47
run-2020-2-18-13-46-51.940737962,34,52
run-2020-2-18-13-46-51.940737962,35,49
run-2020-2-18-13-46-51.940737962,36,52
run-2020-2-18-13-46-51.940737962,37,54
run-2020-2-18-13-46-51.940737962,38,54
run-2020-2-18-13-46-51.940737962,39,52
run-2020-2-18-13-46-51.940737962,40,55
run-2020-2-18-13-46-51.940737962,41,57
run-2020-2-18-13-46-51.940737962,42,57
run-2020-2-18-13-46-51.940737962,43,58
run-2020-2-18-13-46-51.940737962,44,62
run-2020-2-18-13-46-51.940737962,45,61
run-2020-2-18-13-46-51.940737962,46,61
run-2020-2-18-13-46-51.940737962,47,61
run-2020-2-18-13-46-51.940737962,48,56
run-2020-2-18-13-46-51.940737962,49,55
run-2020-2-18-13-46-51.940737962,50,56
run-2020-2-18-13-46-51.940737962,51,60
run-2020-2-18-13-46-51.940737962,52,64
run-2020-2-18-13-46-51.940737962,53,70
run-2020-2-18-13-46-51.940737962,54,70
run-2020-2-18-13-46-51.940737962,55,64
run-2020-2-18-13-46-51.940737962,56,64
run-2020-2-18-13-46-51.940737962,57,65
run-2020-2-18-13-46-51.940737962,58,63
run-2020-2-18-13-46-51.940737962,59,66
run-2020-2-18-13-46-51.940737962,60,67
run-2020-2-18-13-46-51.940737962,61,68
run-2020-2-18-13-46-51.940737962,62,64
run-2020-2-18-13-46-51.940737962,63,67
run-2020-2-18-13-46-51.940737962,64,68
run-2020-2-18-13-46-51.940737962,65,70
run-2020-2-18-13-46-51.940737962,66,75
run-2020-2-18-13-46-51.940737962,67,74
run-2020-2-18-13-46-51.940737962,68,75
run-2020-2-18-13-46-51.940737962,69,69
run-2020-2-18-13-46-51.940737962,70,68
run-2020-2-18-13-46-51.940737962,71,68
run-2020-2-18-13-46-51.940737962,72,69
run-2020-2-18-13-46-51.940737962,73,72
run-2020-2-18-13-46-51.940737962,74,70
run-2020-2-18-13-46-51.940737962,75,68
run-2020-2-18-13-46-51.940737962,76,68
run-2020-2-18-13-46-51.940737962,77,73
run-2020-2-18-13-46-51.940737962,78,77
run-2020-2-18-13-46-51.940737962,79,71
run-2020-2-18-13-46-51.940737962,80,70
run-2020-2-18-13-46-51.940737962,81,71
run-2020-2-18-13-46-51.940737962,82,76
run-2020-2-18-13-46-51.940737962,83,74
run-2020-2-18-13-46-51.940737962,84,68
run-2020-2-18-13-46-51.940737962,85,65
run-2020-2-18-13-46-51.940737962,86,65
run-2020-2-18-13-46-51.940737962,87,66
run-2020-2-18-13-46-51.940737962,88,66
run-2020-2-18-13-46-51.940737962,89,67
run-2020-2-18-13-46-51.940737962,90,68
run-2020-2-18-13-46-51.940737962,91,72
run-2020-2-18-13-46-51.940737962,92,73
run-2020-2-18-13-46-51.940737962,93,68
run-2020-2-18-13-46-51.940737962,94,66
run-2020-2-18-13-46-51.940737962,95,64
run-2020-2-18-13-46-51.940737962,96,60
run-2020-2-18-13-46-51.940737962,97,64
run-2020-2-18-13-46-51.940737962,98,67
run-2020-2-18-13-46-51.940737962,99,68
run-2020-2-18-13-46-51.940737962,100,62
