RunID,Agent,Age,Created,Inactive,Resources,Reputation,Ability,Que
run-2020-2-28-10-27-41.456190109,AGENT#f33fd7a4-5a14-11ea-b7d3-1b902adf5326,1,0,1,10,1.0,1.0,0
run-2020-2-28-10-27-41.456190109,AGENT#f33fc0ca-5a14-11ea-9610-1f0f6c65331b,2,0,2,10,1.0,1.0,0
run-2020-2-28-10-27-41.456190109,AGENT#f33fc46c-5a14-11ea-9e9d-5767afa0910b,2,0,2,10,1.0,1.0,0
run-2020-2-28-10-27-41.456190109,AGENT#f33fcaca-5a14-11ea-ac27-4f73d3ecec27,2,0,2,10,1.0,1.0,0
run-2020-2-28-10-27-41.456190109,AGENT#f33fdd76-5a14-11ea-a352-8fd36c12603e,2,0,2,10,1.0,1.0,0
run-2020-2-28-10-27-41.456190109,AGENT#f3401c50-5a14-11ea-a525-db60be786517,2,0,2,10,1.0,1.0,0
run-2020-2-28-10-27-41.456190109,AGENT#f34019e4-5a14-11ea-b2a2-5be482ead884,3,0,3,10,1.0,1.0,0
run-2020-2-28-10-27-41.456190109,AGENT#f33fdaf6-5a14-11ea-b001-cfcc32d4977e,4,0,4,10,1.0,1.0,0
run-2020-2-28-10-27-41.456190109,AGENT#f33fd132-5a14-11ea-94df-1fec067fd696,5,0,5,10,1.0,1.0,0
run-2020-2-28-10-27-41.456190109,AGENT#f3466c22-5a14-11ea-b9f8-2f013d834386,4,1,5,10,1.0,1.0,0
run-2020-2-28-10-27-41.456190109,AGENT#f34c860c-5a14-11ea-a150-434363a99e94,3,2,5,10,1.0,1.0,0
run-2020-2-28-10-27-41.456190109,AGENT#f34c88c8-5a14-11ea-bdd5-4f190823cdba,3,2,5,10,1.0,1.0,0
run-2020-2-28-10-27-41.456190109,AGENT#f35254a6-5a14-11ea-8347-7300628444bd,2,3,5,10,1.0,1.0,0
run-2020-2-28-10-27-41.456190109,AGENT#f3588470-5a14-11ea-b338-ab56890a3472,1,4,5,10,1.0,1.0,0
run-2020-2-28-10-27-41.456190109,AGENT#f3588bf0-5a14-11ea-b363-077f5b27629c,1,4,5,10,1.0,1.0,0
run-2020-2-28-10-27-41.456190109,AGENT#f3633e88-5a14-11ea-a311-0fd6b37d9bce,1,5,6,10,1.0,1.0,0
run-2020-2-28-10-27-41.456190109,AGENT#f3588894-5a14-11ea-8c14-7fca150fee36,3,4,7,10,1.0,1.0,0
run-2020-2-28-10-27-41.456190109,AGENT#f36c7c96-5a14-11ea-83b8-13522be2dda0,1,6,7,10,1.0,1.0,0
run-2020-2-28-10-27-41.456190109,AGENT#f3587caa-5a14-11ea-b8ca-9314f5379ea5,4,4,8,10,1.0,1.0,0
run-2020-2-28-10-27-41.456190109,AGENT#f33fcdfe-5a14-11ea-bda8-1f2e2103794e,9,0,9,10,1.0,1.0,0
run-2020-2-28-10-27-41.456190109,AGENT#f3634252-5a14-11ea-87e1-1bef3deb69f3,4,5,9,10,1.0,1.0,0
run-2020-2-28-10-27-41.456190109,AGENT#f36c7868-5a14-11ea-8c6c-3787ef2bb268,5,6,11,10,1.0,1.0,0
run-2020-2-28-10-27-41.456190109,AGENT#f3786f24-5a14-11ea-82a3-07a66acd8c03,3,8,11,10,1.0,1.0,0
run-2020-2-28-10-27-41.456190109,AGENT#f38a63fa-5a14-11ea-af55-9bbec1228200,1,10,11,10,1.0,1.0,0
run-2020-2-28-10-27-41.456190109,AGENT#f37242fc-5a14-11ea-a8cf-93aa1b8c69b5,5,7,12,10,1.0,1.0,0
run-2020-2-28-10-27-41.456190109,AGENT#f3918b44-5a14-11ea-bdbd-a7a142e4d985,1,11,12,10,1.0,1.0,0
run-2020-2-28-10-27-41.456190109,AGENT#f3918dd8-5a14-11ea-9002-db63cd4cb05d,1,11,12,10,1.0,1.0,0
run-2020-2-28-10-27-41.456190109,AGENT#f3822302-5a14-11ea-b3d9-ebc791092b24,4,9,13,10,1.0,1.0,0
run-2020-2-28-10-27-41.456190109,AGENT#f38a6a76-5a14-11ea-9c59-f3f7faef99bb,3,10,13,10,1.0,1.0,0
run-2020-2-28-10-27-41.456190109,AGENT#f39185fe-5a14-11ea-8cd7-2faa8a4b35ff,2,11,13,10,1.0,1.0,0
run-2020-2-28-10-27-41.456190109,AGENT#f3983a70-5a14-11ea-ac32-1f5c91fb0f89,1,12,13,10,1.0,1.0,0
run-2020-2-28-10-27-41.456190109,AGENT#f3821fba-5a14-11ea-a438-d7127d6027a4,5,9,14,10,1.0,1.0,0
run-2020-2-28-10-27-41.456190109,AGENT#f3a1b9ce-5a14-11ea-a34e-43fc061d36c4,1,13,14,10,1.0,1.0,0
run-2020-2-28-10-27-41.456190109,AGENT#f3a1bd52-5a14-11ea-8434-4b7bf2ef1d7c,1,13,14,10,1.0,1.0,0
run-2020-2-28-10-27-41.456190109,AGENT#f3aa20d2-5a14-11ea-93e8-eb3d278b8a43,1,14,15,10,1.0,1.0,0
run-2020-2-28-10-27-41.456190109,AGENT#f3aa2884-5a14-11ea-bfe0-b3362863da23,1,14,15,10,1.0,1.0,0
run-2020-2-28-10-27-41.456190109,AGENT#f3786bdc-5a14-11ea-b491-370e59944ad0,8,8,16,10,1.0,1.0,0
run-2020-2-28-10-27-41.456190109,AGENT#f39182de-5a14-11ea-aa64-4b8e724c8b59,5,11,16,10,1.0,1.0,0
run-2020-2-28-10-27-41.456190109,AGENT#f39188ba-5a14-11ea-a08f-0363b2b8c058,5,11,16,10,1.0,1.0,0
run-2020-2-28-10-27-41.456190109,AGENT#f3aa1c7c-5a14-11ea-9131-271fef87820e,2,14,16,10,1.0,1.0,0
run-2020-2-28-10-27-41.456190109,AGENT#f3b05510-5a14-11ea-b571-0b6d9aa5afbb,1,15,16,10,1.0,1.0,0
run-2020-2-28-10-27-41.456190109,AGENT#f3a1c036-5a14-11ea-9f06-97ed2abd9890,4,13,17,10,1.0,1.0,0
run-2020-2-28-10-27-41.456190109,AGENT#f3b773a4-5a14-11ea-ac28-a33182b6d346,1,16,17,10,1.0,1.0,0
run-2020-2-28-10-27-41.456190109,AGENT#f3c0e8f8-5a14-11ea-afe3-bf835818ab35,1,17,18,10,1.0,1.0,0
run-2020-2-28-10-27-41.456190109,AGENT#f3b05060-5a14-11ea-aa74-ff6e7d2d27d4,4,15,19,10,1.0,1.0,0
run-2020-2-28-10-27-41.456190109,AGENT#f3b77d0e-5a14-11ea-8c54-d3f073ff0584,3,16,19,10,1.0,1.0,0
run-2020-2-28-10-27-41.456190109,AGENT#f3c0f2bc-5a14-11ea-866b-0b9330a25750,2,17,19,10,1.0,1.0,0
run-2020-2-28-10-27-41.456190109,AGENT#f3c96802-5a14-11ea-b420-f7e136aac92b,1,18,19,10,1.0,1.0,0
run-2020-2-28-10-27-41.456190109,AGENT#f35880c4-5a14-11ea-8020-c3321eb09df6,16,4,20,10,1.0,1.0,0
run-2020-2-28-10-27-41.456190109,AGENT#f3d01bca-5a14-11ea-8462-eb2d752a8adb,1,19,20,10,1.0,1.0,0
run-2020-2-28-10-27-41.456190109,AGENT#f3b7816e-5a14-11ea-9f02-33766c9ef3d3,5,16,21,10,1.0,1.0,0
run-2020-2-28-10-27-41.456190109,AGENT#f3c96000-5a14-11ea-a5c7-7358e7141eb2,3,18,21,10,1.0,1.0,0
run-2020-2-28-10-27-41.456190109,AGENT#f3c964c4-5a14-11ea-beb9-435f7145e1b9,3,18,21,10,1.0,1.0,0
run-2020-2-28-10-27-41.456190109,AGENT#f3c96ac8-5a14-11ea-a35a-7717bd9b9918,3,18,21,10,1.0,1.0,0
run-2020-2-28-10-27-41.456190109,AGENT#f3e0aac6-5a14-11ea-8748-7719f45f85ee,1,21,22,10,1.0,1.0,0
run-2020-2-28-10-27-41.456190109,AGENT#f3e0b35e-5a14-11ea-83ec-577d6eaba5a5,1,21,22,10,1.0,1.0,0
run-2020-2-28-10-27-41.456190109,AGENT#f3d6fdf0-5a14-11ea-8a93-5b99135d7811,3,20,23,10,1.0,1.0,0
run-2020-2-28-10-27-41.456190109,AGENT#f3d70ba6-5a14-11ea-a8fd-1bf8889cdf83,3,20,23,10,1.0,1.0,0
run-2020-2-28-10-27-41.456190109,AGENT#f3d7070a-5a14-11ea-b519-531a0ac3b9c9,4,20,24,10,1.0,1.0,0
run-2020-2-28-10-27-41.456190109,AGENT#f3e90036-5a14-11ea-baf5-77552efe24cb,2,22,24,10,1.0,1.0,0
run-2020-2-28-10-27-41.456190109,AGENT#f3e90310-5a14-11ea-999e-170ba955906f,2,22,24,10,1.0,1.0,0
run-2020-2-28-10-27-41.456190109,AGENT#f3e905fe-5a14-11ea-a13a-2796a1fff1de,2,22,24,10,1.0,1.0,0
run-2020-2-28-10-27-41.456190109,AGENT#f3e0aecc-5a14-11ea-80a9-6f49395a3ff3,4,21,25,10,1.0,1.0,0
run-2020-2-28-10-27-41.456190109,AGENT#f3ef2cd6-5a14-11ea-9458-175871fba63a,2,23,25,10,1.0,1.0,0
run-2020-2-28-10-27-41.456190109,AGENT#f3f5ca6e-5a14-11ea-bce8-93c95140ed31,1,24,25,10,1.0,1.0,0
run-2020-2-28-10-27-41.456190109,AGENT#f3f5d19e-5a14-11ea-a2ba-5b537c1a4d64,1,24,25,10,1.0,1.0,0
run-2020-2-28-10-27-41.456190109,AGENT#f3f5c26c-5a14-11ea-9678-cf7d6258798a,2,24,26,10,1.0,1.0,0
run-2020-2-28-10-27-41.456190109,AGENT#f3821b5a-5a14-11ea-a462-ffac48dac579,18,9,27,10,1.0,1.0,0
run-2020-2-28-10-27-41.456190109,AGENT#f3ef2704-5a14-11ea-90fc-1bc34570eddb,4,23,27,10,1.0,1.0,0
run-2020-2-28-10-27-41.456190109,AGENT#f3ef2a10-5a14-11ea-95e3-d316da38bf16,4,23,27,10,1.0,1.0,0
run-2020-2-28-10-27-41.456190109,AGENT#f3f5c6a4-5a14-11ea-b986-db8ff485f15e,3,24,27,10,1.0,1.0,0
run-2020-2-28-10-27-41.456190109,AGENT#f4090ae8-5a14-11ea-b1fe-c359fb607464,1,26,27,10,1.0,1.0,0
run-2020-2-28-10-27-41.456190109,AGENT#f3aa2c6c-5a14-11ea-889e-d76a71330df3,14,14,28,10,1.0,1.0,0
run-2020-2-28-10-27-41.456190109,AGENT#f4090da4-5a14-11ea-86ea-0bc19a464aaf,2,26,28,10,1.0,1.0,0
run-2020-2-28-10-27-41.456190109,AGENT#f40917cc-5a14-11ea-83ef-274e1102c7c3,2,26,28,10,1.0,1.0,0
run-2020-2-28-10-27-41.456190109,AGENT#f40fefe8-5a14-11ea-a625-1b44bb172207,1,27,28,10,1.0,1.0,0
run-2020-2-28-10-27-41.456190109,AGENT#f3ffe454-5a14-11ea-acbd-d764d62ae112,4,25,29,10,1.0,1.0,0
run-2020-2-28-10-27-41.456190109,AGENT#f40ff2d6-5a14-11ea-ab85-0f7041d83b2c,2,27,29,10,1.0,1.0,0
run-2020-2-28-10-27-41.456190109,AGENT#f416ff68-5a14-11ea-9cec-dfb61c0ec3b8,1,28,29,10,1.0,1.0,0
run-2020-2-28-10-27-41.456190109,AGENT#f40907dc-5a14-11ea-9612-f3d1e46d9a3b,4,26,30,10,1.0,1.0,0
run-2020-2-28-10-27-41.456190109,AGENT#f41e29fa-5a14-11ea-b5c6-5b2d03cdcf3f,1,29,30,10,1.0,1.0,0
run-2020-2-28-10-27-41.456190109,AGENT#f40912d6-5a14-11ea-b186-23487acbada3,5,26,31,10,1.0,1.0,0
run-2020-2-28-10-27-41.456190109,AGENT#f4091542-5a14-11ea-9559-abf0814016a5,5,26,31,10,1.0,1.0,0
run-2020-2-28-10-27-41.456190109,AGENT#f41702b0-5a14-11ea-b881-9b2c4d2c82c4,3,28,31,10,1.0,1.0,0
run-2020-2-28-10-27-41.456190109,AGENT#f417054e-5a14-11ea-b779-4b1ee79f1dc0,3,28,31,10,1.0,1.0,0
run-2020-2-28-10-27-41.456190109,AGENT#f41707e2-5a14-11ea-996e-27243983575e,3,28,31,10,1.0,1.0,0
run-2020-2-28-10-27-41.456190109,AGENT#f4170a62-5a14-11ea-be5e-ef776fb292c7,3,28,31,10,1.0,1.0,0
run-2020-2-28-10-27-41.456190109,AGENT#f3724572-5a14-11ea-92c4-3f1c07959c69,25,7,32,10,1.0,1.0,0
run-2020-2-28-10-27-41.456190109,AGENT#f3d01814-5a14-11ea-926b-b7823c9cdd17,13,19,32,10,1.0,1.0,0
run-2020-2-28-10-27-41.456190109,AGENT#f42ab418-5a14-11ea-9964-638ec9edfad3,2,30,32,10,1.0,1.0,0
run-2020-2-28-10-27-41.456190109,AGENT#f42ab6d4-5a14-11ea-8554-cb7c556cc64b,2,30,32,10,1.0,1.0,0
run-2020-2-28-10-27-41.456190109,AGENT#f4342584-5a14-11ea-9d7c-eb6011d1c072,1,31,32,10,1.0,1.0,0
run-2020-2-28-10-27-41.456190109,AGENT#f4342980-5a14-11ea-8626-5ba52326e4e5,1,31,32,10,1.0,1.0,0
run-2020-2-28-10-27-41.456190109,AGENT#f41e2d10-5a14-11ea-821c-4bc9f3bc0a7e,4,29,33,10,1.0,1.0,0
run-2020-2-28-10-27-41.456190109,AGENT#f42aa02c-5a14-11ea-834c-931549687e47,3,30,33,10,1.0,1.0,0
run-2020-2-28-10-27-41.456190109,AGENT#f43bf43a-5a14-11ea-ab52-476ce774af99,1,32,33,10,1.0,1.0,0
run-2020-2-28-10-27-41.456190109,AGENT#f41e268a-5a14-11ea-84d8-373c6501f79f,5,29,34,10,1.0,1.0,0
run-2020-2-28-10-27-41.456190109,AGENT#f41e3b70-5a14-11ea-9794-2fde572fb426,5,29,34,10,1.0,1.0,0
run-2020-2-28-10-27-41.456190109,AGENT#f42aac16-5a14-11ea-aba1-63590b8b0624,4,30,34,10,1.0,1.0,0
run-2020-2-28-10-27-41.456190109,AGENT#f42aaec8-5a14-11ea-bc0b-0f6a3db4437a,4,30,34,10,1.0,1.0,0
run-2020-2-28-10-27-41.456190109,AGENT#f42aa978-5a14-11ea-9264-a307f1565f57,5,30,35,10,1.0,1.0,0
run-2020-2-28-10-27-41.456190109,AGENT#f4342d0e-5a14-11ea-8b40-9b1d944699f5,4,31,35,10,1.0,1.0,0
run-2020-2-28-10-27-41.456190109,AGENT#f43bf16a-5a14-11ea-8a4c-f75dff280229,3,32,35,10,1.0,1.0,0
run-2020-2-28-10-27-41.456190109,AGENT#f44cc42c-5a14-11ea-8a06-47c0207922fd,1,34,35,10,1.0,1.0,0
run-2020-2-28-10-27-41.456190109,AGENT#f44cd66a-5a14-11ea-b905-c31a99f7dd33,1,34,35,10,1.0,1.0,0
run-2020-2-28-10-27-41.456190109,AGENT#f44ce786-5a14-11ea-ba82-1b953b2257e6,1,34,35,10,1.0,1.0,0
run-2020-2-28-10-27-41.456190109,AGENT#f3aa2492-5a14-11ea-bb6e-5b3c654e6c15,22,14,36,10,1.0,1.0,0
run-2020-2-28-10-27-41.456190109,AGENT#f43bf6d8-5a14-11ea-b8d8-97a190f7b318,4,32,36,10,1.0,1.0,0
run-2020-2-28-10-27-41.456190109,AGENT#f4427bc0-5a14-11ea-8e85-73f80538ccb2,3,33,36,10,1.0,1.0,0
run-2020-2-28-10-27-41.456190109,AGENT#f44ccb7a-5a14-11ea-895a-6bb5c09a9725,2,34,36,10,1.0,1.0,0
run-2020-2-28-10-27-41.456190109,AGENT#f44cd174-5a14-11ea-ae3b-7b6323a9162c,3,34,37,10,1.0,1.0,0
run-2020-2-28-10-27-41.456190109,AGENT#f44cdc5a-5a14-11ea-8f7e-cfa28d25f311,3,34,37,10,1.0,1.0,0
run-2020-2-28-10-27-41.456190109,AGENT#f36c7336-5a14-11ea-81b4-a7b151fb27c2,32,6,38,10,1.0,1.0,0
run-2020-2-28-10-27-41.456190109,AGENT#f38214e8-5a14-11ea-a011-2b9537068595,29,9,38,10,1.0,1.0,0
run-2020-2-28-10-27-41.456190109,AGENT#f45566c2-5a14-11ea-bba0-dfae6003a79c,4,35,39,10,1.0,1.0,0
run-2020-2-28-10-27-41.456190109,AGENT#f46cb6ce-5a14-11ea-876d-a37ef9a4e93f,1,38,39,10,1.0,1.0,0
run-2020-2-28-10-27-41.456190109,AGENT#f46cbe6c-5a14-11ea-a748-83362ab6286c,1,38,39,10,1.0,1.0,0
run-2020-2-28-10-27-41.456190109,AGENT#f46485da-5a14-11ea-af33-236683476eae,3,37,40,10,1.0,1.0,0
run-2020-2-28-10-27-41.456190109,AGENT#f46caf1c-5a14-11ea-9a99-6bd4db6fba71,2,38,40,10,1.0,1.0,0
run-2020-2-28-10-27-41.456190109,AGENT#f4648242-5a14-11ea-bcf1-f720858e60fa,4,37,41,10,1.0,1.0,0
run-2020-2-28-10-27-41.456190109,AGENT#f46cbb60-5a14-11ea-b5ce-e3669317bf02,3,38,41,10,1.0,1.0,0
run-2020-2-28-10-27-41.456190109,AGENT#f4789d36-5a14-11ea-a7c0-07495fb43d81,2,39,41,10,1.0,1.0,0
run-2020-2-28-10-27-41.456190109,AGENT#f47895fc-5a14-11ea-a66c-af5c5b0adc00,3,39,42,10,1.0,1.0,0
run-2020-2-28-10-27-41.456190109,AGENT#f482330a-5a14-11ea-8fbd-27bc18886f55,2,40,42,10,1.0,1.0,0
run-2020-2-28-10-27-41.456190109,AGENT#f4938182-5a14-11ea-a49a-07edb3a9b33d,1,42,43,10,1.0,1.0,0
run-2020-2-28-10-27-41.456190109,AGENT#f493898e-5a14-11ea-bed4-334f63eeaf11,1,42,43,10,1.0,1.0,0
run-2020-2-28-10-27-41.456190109,AGENT#f48be4ea-5a14-11ea-878c-9b3636460709,3,41,44,10,1.0,1.0,0
run-2020-2-28-10-27-41.456190109,AGENT#f4938c22-5a14-11ea-b5fb-77e86e7bed39,2,42,44,10,1.0,1.0,0
run-2020-2-28-10-27-41.456190109,AGENT#f33fd448-5a14-11ea-92eb-f7d366b76040,45,0,45,10,1.0,1.0,0
run-2020-2-28-10-27-41.456190109,AGENT#f45560c8-5a14-11ea-841a-f33d99795429,10,35,45,10,1.0,1.0,0
run-2020-2-28-10-27-41.456190109,AGENT#f4822ce8-5a14-11ea-96ad-a32ccdc4fb3d,5,40,45,10,1.0,1.0,0
run-2020-2-28-10-27-41.456190109,AGENT#f482385a-5a14-11ea-8f48-8bc912bf1df2,5,40,45,10,1.0,1.0,0
run-2020-2-28-10-27-41.456190109,AGENT#f49b46e2-5a14-11ea-8d96-9fd9cb1b1057,2,43,45,10,1.0,1.0,0
run-2020-2-28-10-27-41.456190109,AGENT#f49386f0-5a14-11ea-aafa-6795093e37cc,4,42,46,10,1.0,1.0,0
run-2020-2-28-10-27-41.456190109,AGENT#f4b1bd50-5a14-11ea-920d-1b400aa2e286,2,45,47,10,1.0,1.0,0
run-2020-2-28-10-27-41.456190109,AGENT#f455694c-5a14-11ea-83f2-97686f81d978,13,35,48,10,1.0,1.0,0
run-2020-2-28-10-27-41.456190109,AGENT#f4a8006c-5a14-11ea-be4f-0b2eb910ca2b,4,44,48,10,1.0,1.0,0
run-2020-2-28-10-27-41.456190109,AGENT#f352579e-5a14-11ea-94c9-dffd7a7d9a45,46,3,49,10,1.0,1.0,0
run-2020-2-28-10-27-41.456190109,AGENT#f41e36fc-5a14-11ea-a0bc-4769acc59a16,20,29,49,10,1.0,1.0,0
run-2020-2-28-10-27-41.456190109,AGENT#f4a7f57c-5a14-11ea-ac9d-630ef137f4f2,5,44,49,10,1.0,1.0,0
run-2020-2-28-10-27-41.456190109,AGENT#f33fc78c-5a14-11ea-aa21-8378fa9329f5,50,0,50,10,1.0,1.0,0
run-2020-2-28-10-27-41.456190109,AGENT#f3633af0-5a14-11ea-9fc1-43a9fe87fbc6,45,5,50,10,1.0,1.0,0
run-2020-2-28-10-27-41.456190109,AGENT#f398401a-5a14-11ea-bdf6-0b15ce4c44e9,38,12,50,10,1.0,1.0,0
run-2020-2-28-10-27-41.456190109,AGENT#f4c1ca88-5a14-11ea-b4d5-43b7a9e9717e,3,47,50,10,1.0,1.0,0
run-2020-2-28-10-27-41.456190109,AGENT#f4d4cd54-5a14-11ea-8021-0bc17e3c6e5d,1,49,50,10,1.0,1.0,0
run-2020-2-28-10-27-41.456190109,AGENT#f4938434-5a14-11ea-9b29-f76ca97549b1,9,42,51,10,1.0,1.0,0
run-2020-2-28-10-27-41.456190109,AGENT#f4ba0154-5a14-11ea-b08e-dfbd1d9c1ebd,5,46,51,10,1.0,1.0,0
run-2020-2-28-10-27-41.456190109,AGENT#f4ddf5c8-5a14-11ea-bf60-6f7bc14a8ea7,1,50,51,10,1.0,1.0,0
run-2020-2-28-10-27-41.456190109,AGENT#f3724054-5a14-11ea-a2e9-7369829cfe66,45,7,52,10,1.0,1.0,0
run-2020-2-28-10-27-41.456190109,AGENT#f4c1db18-5a14-11ea-9e3d-13b985943297,5,47,52,10,1.0,1.0,0
run-2020-2-28-10-27-41.456190109,AGENT#f4c99f56-5a14-11ea-ae89-334b4d86bc79,4,48,52,10,1.0,1.0,0
run-2020-2-28-10-27-41.456190109,AGENT#f4c9a60e-5a14-11ea-a845-33cdfebbd180,4,48,52,10,1.0,1.0,0
run-2020-2-28-10-27-41.456190109,AGENT#f4c9abd6-5a14-11ea-b01f-ebd63215b003,4,48,52,10,1.0,1.0,0
run-2020-2-28-10-27-41.456190109,AGENT#f4e5ba10-5a14-11ea-952c-6717f6a522a2,1,51,52,10,1.0,1.0,0
run-2020-2-28-10-27-41.456190109,AGENT#f4e5bd94-5a14-11ea-b4ba-9f807912ffdd,1,51,52,10,1.0,1.0,0
run-2020-2-28-10-27-41.456190109,AGENT#f4ddee2a-5a14-11ea-804e-4b3e7a1644a8,3,50,53,10,1.0,1.0,0
run-2020-2-28-10-27-41.456190109,AGENT#f3821880-5a14-11ea-b2c7-2f217b412704,45,9,54,10,1.0,1.0,0
run-2020-2-28-10-27-41.456190109,AGENT#f3b777a0-5a14-11ea-b62e-03a30e01c61d,38,16,54,10,1.0,1.0,0
run-2020-2-28-10-27-41.456190109,AGENT#f46cb282-5a14-11ea-bfa0-7333c0f1efee,16,38,54,10,1.0,1.0,0
run-2020-2-28-10-27-41.456190109,AGENT#f4ddf258-5a14-11ea-9878-3f2613923ea4,5,50,55,10,1.0,1.0,0
run-2020-2-28-10-27-41.456190109,AGENT#f4e5c064-5a14-11ea-9c8e-bfa496d8fc65,4,51,55,10,1.0,1.0,0
run-2020-2-28-10-27-41.456190109,AGENT#f4ed057c-5a14-11ea-9cb8-f7adf51ce3de,3,52,55,10,1.0,1.0,0
run-2020-2-28-10-27-41.456190109,AGENT#f500c378-5a14-11ea-83cf-37fb1b2f3fe5,1,54,55,10,1.0,1.0,0
run-2020-2-28-10-27-41.456190109,AGENT#f4f470f0-5a14-11ea-a649-0f3b0ca824a1,3,53,56,10,1.0,1.0,0
run-2020-2-28-10-27-41.456190109,AGENT#f50a046a-5a14-11ea-86f6-5fc9301678ee,1,55,56,10,1.0,1.0,0
run-2020-2-28-10-27-41.456190109,AGENT#f50a12e8-5a14-11ea-869a-17f773d4d054,1,55,56,10,1.0,1.0,0
run-2020-2-28-10-27-41.456190109,AGENT#f500c062-5a14-11ea-8383-237191b321e8,3,54,57,10,1.0,1.0,0
run-2020-2-28-10-27-41.456190109,AGENT#f509fe7a-5a14-11ea-9422-5bac28f7650b,2,55,57,10,1.0,1.0,0
run-2020-2-28-10-27-41.456190109,AGENT#f3723d48-5a14-11ea-80e9-db415e928464,51,7,58,10,1.0,1.0,0
run-2020-2-28-10-27-41.456190109,AGENT#f3b05c72-5a14-11ea-a7e8-17112a7032ba,43,15,58,10,1.0,1.0,0
run-2020-2-28-10-27-41.456190109,AGENT#f41e322e-5a14-11ea-8deb-9b73ed9bbf66,29,29,58,10,1.0,1.0,0
run-2020-2-28-10-27-41.456190109,AGENT#f500c99a-5a14-11ea-9072-4f3c5eeb0d87,4,54,58,10,1.0,1.0,0
run-2020-2-28-10-27-41.456190109,AGENT#f5124972-5a14-11ea-99d3-83332020b5b7,2,56,58,10,1.0,1.0,0
run-2020-2-28-10-27-41.456190109,AGENT#f5124c56-5a14-11ea-a659-87a10a899f59,2,56,58,10,1.0,1.0,0
run-2020-2-28-10-27-41.456190109,AGENT#f3aa300e-5a14-11ea-a146-ab2a938e75af,45,14,59,10,1.0,1.0,0
run-2020-2-28-10-27-41.456190109,AGENT#f500b8ec-5a14-11ea-840a-4b68bca830a5,5,54,59,10,1.0,1.0,0
run-2020-2-28-10-27-41.456190109,AGENT#f50a0870-5a14-11ea-8590-afe35a4953c1,4,55,59,10,1.0,1.0,0
run-2020-2-28-10-27-41.456190109,AGENT#f51245a8-5a14-11ea-9b58-8ba99bc3fc3a,3,56,59,10,1.0,1.0,0
run-2020-2-28-10-27-41.456190109,AGENT#f51acf3e-5a14-11ea-b048-8bbcc38ad9bc,2,57,59,10,1.0,1.0,0
run-2020-2-28-10-27-41.456190109,AGENT#f3b05902-5a14-11ea-ab66-2f1bcfe4f8f7,45,15,60,10,1.0,1.0,0
run-2020-2-28-10-27-41.456190109,AGENT#f3c0efc4-5a14-11ea-8064-8fc71a3ed32b,43,17,60,10,1.0,1.0,0
run-2020-2-28-10-27-41.456190109,AGENT#f50a0bd6-5a14-11ea-aa21-2f5f120a422d,5,55,60,10,1.0,1.0,0
run-2020-2-28-10-27-41.456190109,AGENT#f51ac624-5a14-11ea-9824-032938423b47,3,57,60,10,1.0,1.0,0
run-2020-2-28-10-27-41.456190109,AGENT#f523aa8c-5a14-11ea-9e7b-13c7752d5d74,2,58,60,10,1.0,1.0,0
run-2020-2-28-10-27-41.456190109,AGENT#f51ab9e0-5a14-11ea-8e52-5b80ec6178c7,4,57,61,10,1.0,1.0,0
run-2020-2-28-10-27-41.456190109,AGENT#f51ac1ce-5a14-11ea-a992-2fd93d969abb,4,57,61,10,1.0,1.0,0
run-2020-2-28-10-27-41.456190109,AGENT#f52f7c22-5a14-11ea-acea-cb8a3916ab51,2,59,61,10,1.0,1.0,0
run-2020-2-28-10-27-41.456190109,AGENT#f538f75c-5a14-11ea-9659-db3539d447d6,1,60,61,10,1.0,1.0,0
run-2020-2-28-10-27-41.456190109,AGENT#f5239f88-5a14-11ea-b530-1fc5ff9a2b49,4,58,62,10,1.0,1.0,0
run-2020-2-28-10-27-41.456190109,AGENT#f538fa7c-5a14-11ea-8ba8-331bab1cd975,2,60,62,10,1.0,1.0,0
run-2020-2-28-10-27-41.456190109,AGENT#f538fdb0-5a14-11ea-a5f0-7f0042769ae1,2,60,62,10,1.0,1.0,0
run-2020-2-28-10-27-41.456190109,AGENT#f5413ff2-5a14-11ea-bc50-1f281807c7e0,1,61,62,10,1.0,1.0,0
run-2020-2-28-10-27-41.456190109,AGENT#f43bee04-5a14-11ea-bc2e-3b6119109702,31,32,63,10,1.0,1.0,0
run-2020-2-28-10-27-41.456190109,AGENT#f538f3ec-5a14-11ea-8df6-732568fde3dc,3,60,63,10,1.0,1.0,0
run-2020-2-28-10-27-41.456190109,AGENT#f547f04a-5a14-11ea-b454-67a28abaa017,1,62,63,10,1.0,1.0,0
run-2020-2-28-10-27-41.456190109,AGENT#f547f3ba-5a14-11ea-af98-3f80f35b24fe,1,62,63,10,1.0,1.0,0
run-2020-2-28-10-27-41.456190109,AGENT#f3b05f88-5a14-11ea-91e7-5f86413da4b7,49,15,64,10,1.0,1.0,0
run-2020-2-28-10-27-41.456190109,AGENT#f54fb03c-5a14-11ea-b8c7-5bc0d29c6863,1,63,64,10,1.0,1.0,0
run-2020-2-28-10-27-41.456190109,AGENT#f3c0ec86-5a14-11ea-9dbf-c3f098dc06de,48,17,65,10,1.0,1.0,0
run-2020-2-28-10-27-41.456190109,AGENT#f500bcf2-5a14-11ea-aebc-e766f6c913dd,11,54,65,10,1.0,1.0,0
run-2020-2-28-10-27-41.456190109,AGENT#f538f004-5a14-11ea-84cf-63fe53b007fc,5,60,65,10,1.0,1.0,0
run-2020-2-28-10-27-41.456190109,AGENT#f5413cb4-5a14-11ea-a0c0-9b0afb1031ac,4,61,65,10,1.0,1.0,0
run-2020-2-28-10-27-41.456190109,AGENT#f3d702d2-5a14-11ea-9b1e-3bf84b7d92ae,46,20,66,10,1.0,1.0,0
run-2020-2-28-10-27-41.456190109,AGENT#f54fd422-5a14-11ea-af78-578a7433b2d1,3,63,66,10,1.0,1.0,0
run-2020-2-28-10-27-41.456190109,AGENT#f56f6f62-5a14-11ea-ba2c-4b9e6c69475e,1,66,67,10,1.0,1.0,0
run-2020-2-28-10-27-41.456190109,AGENT#f56f77be-5a14-11ea-b7dd-b38faa5b4566,1,66,67,10,1.0,1.0,0
run-2020-2-28-10-27-41.456190109,AGENT#f40fec8c-5a14-11ea-b5e1-b3b5edf06a0e,41,27,68,10,1.0,1.0,0
run-2020-2-28-10-27-41.456190109,AGENT#f40ff574-5a14-11ea-bda8-4728adff3a92,41,27,68,10,1.0,1.0,0
run-2020-2-28-10-27-41.456190109,AGENT#f523a762-5a14-11ea-a847-2fd0b90982f5,10,58,68,10,1.0,1.0,0
run-2020-2-28-10-27-41.456190109,AGENT#f54fb6c2-5a14-11ea-b83d-07e96cc34518,5,63,68,10,1.0,1.0,0
run-2020-2-28-10-27-41.456190109,AGENT#f55d6c9a-5a14-11ea-98a1-b766c72dcbb5,4,64,68,10,1.0,1.0,0
run-2020-2-28-10-27-41.456190109,AGENT#f567756e-5a14-11ea-85b7-d7b8267289be,3,65,68,10,1.0,1.0,0
run-2020-2-28-10-27-41.456190109,AGENT#f56f7a66-5a14-11ea-ac58-2710c98686b6,3,66,69,10,1.0,1.0,0
run-2020-2-28-10-27-41.456190109,AGENT#f576e616-5a14-11ea-b68f-af48b10837ea,2,67,69,10,1.0,1.0,0
run-2020-2-28-10-27-41.456190109,AGENT#f3e8fca8-5a14-11ea-ab9c-1b475d40c6b1,48,22,70,10,1.0,1.0,0
run-2020-2-28-10-27-41.456190109,AGENT#f5677186-5a14-11ea-b0e6-5f9a15373b76,5,65,70,10,1.0,1.0,0
run-2020-2-28-10-27-41.456190109,AGENT#f56f6c06-5a14-11ea-964c-2bc3aa5d2b56,4,66,70,10,1.0,1.0,0
run-2020-2-28-10-27-41.456190109,AGENT#f56f7246-5a14-11ea-a621-574d774a59f8,4,66,70,10,1.0,1.0,0
run-2020-2-28-10-27-41.456190109,AGENT#f57eb152-5a14-11ea-9b49-9f1a84fb0d3d,2,68,70,10,1.0,1.0,0
run-2020-2-28-10-27-41.456190109,AGENT#f587d192-5a14-11ea-b8af-d30686f09395,1,69,70,10,1.0,1.0,0
run-2020-2-28-10-27-41.456190109,AGENT#f4091042-5a14-11ea-9ec0-c7289969b84b,45,26,71,10,1.0,1.0,0
run-2020-2-28-10-27-41.456190109,AGENT#f42ab17a-5a14-11ea-8f92-8b2ed10aee45,41,30,71,10,1.0,1.0,0
run-2020-2-28-10-27-41.456190109,AGENT#f54fce8c-5a14-11ea-b405-1bb7be8f6eba,8,63,71,10,1.0,1.0,0
run-2020-2-28-10-27-41.456190109,AGENT#f5973588-5a14-11ea-a9fa-87020249f172,1,70,71,10,1.0,1.0,0
run-2020-2-28-10-27-41.456190109,AGENT#f3c96d70-5a14-11ea-b6fa-7b3c59a87c97,54,18,72,10,1.0,1.0,0
run-2020-2-28-10-27-41.456190109,AGENT#f57ea8a6-5a14-11ea-821a-bfa119886cbb,5,68,73,10,1.0,1.0,0
run-2020-2-28-10-27-41.456190109,AGENT#f587cabc-5a14-11ea-a710-7f5ee13e0120,4,69,73,10,1.0,1.0,0
run-2020-2-28-10-27-41.456190109,AGENT#f587d480-5a14-11ea-b3c8-07aabe239c87,4,69,73,10,1.0,1.0,0
run-2020-2-28-10-27-41.456190109,AGENT#f5973934-5a14-11ea-84b4-039f006be92c,3,70,73,10,1.0,1.0,0
run-2020-2-28-10-27-41.456190109,AGENT#f5ac4e32-5a14-11ea-b0af-5f34d066f842,1,72,73,10,1.0,1.0,0
run-2020-2-28-10-27-41.456190109,AGENT#f54fc900-5a14-11ea-9be5-1b4881f57c8d,11,63,74,10,1.0,1.0,0
run-2020-2-28-10-27-41.456190109,AGENT#f5ac4608-5a14-11ea-ace5-970fb10b5b0d,2,72,74,10,1.0,1.0,0
run-2020-2-28-10-27-41.456190109,AGENT#f5b44dee-5a14-11ea-8ef0-977870fda38b,1,73,74,10,1.0,1.0,0
run-2020-2-28-10-27-41.456190109,AGENT#f42aa3a6-5a14-11ea-8d29-9b6d87aad7a8,45,30,75,10,1.0,1.0,0
run-2020-2-28-10-27-41.456190109,AGENT#f42aa6a8-5a14-11ea-9f64-5f0bd78f19e5,46,30,76,10,1.0,1.0,0
run-2020-2-28-10-27-41.456190109,AGENT#f5b44ace-5a14-11ea-9e47-0751032c49a2,3,73,76,10,1.0,1.0,0
run-2020-2-28-10-27-41.456190109,AGENT#f5bb0d32-5a14-11ea-842a-d7bf3d7dfdec,2,74,76,10,1.0,1.0,0
run-2020-2-28-10-27-41.456190109,AGENT#f5ac4ab8-5a14-11ea-bc26-5ffc87485be4,5,72,77,10,1.0,1.0,0
run-2020-2-28-10-27-41.456190109,AGENT#f5bb100c-5a14-11ea-b5b7-af18d54691fe,3,74,77,10,1.0,1.0,0
run-2020-2-28-10-27-41.456190109,AGENT#f5dca348-5a14-11ea-a78b-f378eb4cfa77,1,77,78,10,1.0,1.0,0
run-2020-2-28-10-27-41.456190109,AGENT#f5dcb19e-5a14-11ea-8604-ab09601ae0a9,1,77,78,10,1.0,1.0,0
run-2020-2-28-10-27-41.456190109,AGENT#f434302e-5a14-11ea-8d46-eb4e84053460,48,31,79,10,1.0,1.0,0
run-2020-2-28-10-27-41.456190109,AGENT#f44cdfde-5a14-11ea-b82f-2ffa11f40a31,45,34,79,10,1.0,1.0,0
run-2020-2-28-10-27-41.456190109,AGENT#f5c2ba00-5a14-11ea-9887-73e6c4b8beeb,4,75,79,10,1.0,1.0,0
run-2020-2-28-10-27-41.456190109,AGENT#f5d16ff0-5a14-11ea-ace2-9b0b27f6eb92,3,76,79,10,1.0,1.0,0
run-2020-2-28-10-27-41.456190109,AGENT#f5dc9f38-5a14-11ea-a8c5-3b2943559cfe,2,77,79,10,1.0,1.0,0
run-2020-2-28-10-27-41.456190109,AGENT#f5dca712-5a14-11ea-967d-4b8536baa3cf,2,77,79,10,1.0,1.0,0
run-2020-2-28-10-27-41.456190109,AGENT#f5e63232-5a14-11ea-a48e-53491fe0154d,1,78,79,10,1.0,1.0,0
run-2020-2-28-10-27-41.456190109,AGENT#f5e639da-5a14-11ea-93ec-8bfeac7304a9,1,78,79,10,1.0,1.0,0
run-2020-2-28-10-27-41.456190109,AGENT#f44ce376-5a14-11ea-8c78-2b43eaf78910,46,34,80,10,1.0,1.0,0
run-2020-2-28-10-27-41.456190109,AGENT#f5c2b578-5a14-11ea-90e2-63060eb5d824,5,75,80,10,1.0,1.0,0
run-2020-2-28-10-27-41.456190109,AGENT#f5e644ca-5a14-11ea-b097-731e923e9956,2,78,80,10,1.0,1.0,0
run-2020-2-28-10-27-41.456190109,AGENT#f5ef204a-5a14-11ea-95c6-276dd284374a,1,79,80,10,1.0,1.0,0
run-2020-2-28-10-27-41.456190109,AGENT#f4556be0-5a14-11ea-99f5-e3a271e422dc,46,35,81,10,1.0,1.0,0
run-2020-2-28-10-27-41.456190109,AGENT#f5d16c30-5a14-11ea-8b0b-ef4b98bcdd9f,5,76,81,10,1.0,1.0,0
run-2020-2-28-10-27-41.456190109,AGENT#f5f7603e-5a14-11ea-a528-df18a122c2bb,1,80,81,10,1.0,1.0,0
run-2020-2-28-10-27-41.456190109,AGENT#f455641a-5a14-11ea-92c1-2b5b06db6874,47,35,82,10,1.0,1.0,0
run-2020-2-28-10-27-41.456190109,AGENT#f45cec4e-5a14-11ea-9ff8-f3d8a064dbb1,46,36,82,10,1.0,1.0,0
run-2020-2-28-10-27-41.456190109,AGENT#f45ceffa-5a14-11ea-bf1f-2f3d543a5f28,46,36,82,10,1.0,1.0,0
run-2020-2-28-10-27-41.456190109,AGENT#f51abd82-5a14-11ea-8b46-cfc42c02f450,25,57,82,10,1.0,1.0,0
run-2020-2-28-10-27-41.456190109,AGENT#f5e63688-5a14-11ea-8731-0f6bc3ffae9a,4,78,82,10,1.0,1.0,0
run-2020-2-28-10-27-41.456190109,AGENT#f5e641a0-5a14-11ea-ad1d-ff6fea0c204f,4,78,82,10,1.0,1.0,0
run-2020-2-28-10-27-41.456190109,AGENT#f5ef2482-5a14-11ea-ae24-c7e30fb5fab6,3,79,82,10,1.0,1.0,0
run-2020-2-28-10-27-41.456190109,AGENT#f6001792-5a14-11ea-8adf-0bc4c703d337,1,81,82,10,1.0,1.0,0
run-2020-2-28-10-27-41.456190109,AGENT#f6001c42-5a14-11ea-abd2-0b265b02f417,1,81,82,10,1.0,1.0,0
run-2020-2-28-10-27-41.456190109,AGENT#f4937e62-5a14-11ea-8c3a-cb63923610f7,41,42,83,10,1.0,1.0,0
run-2020-2-28-10-27-41.456190109,AGENT#f5ef149c-5a14-11ea-88e7-ebcc738b1db8,4,79,83,10,1.0,1.0,0
run-2020-2-28-10-27-41.456190109,AGENT#f6000b76-5a14-11ea-9ae0-f7691bbe5f12,2,81,83,10,1.0,1.0,0
run-2020-2-28-10-27-41.456190109,AGENT#f5ef1834-5a14-11ea-bb3c-870d1a6f81c9,5,79,84,10,1.0,1.0,0
run-2020-2-28-10-27-41.456190109,AGENT#f5ef1d02-5a14-11ea-9eec-d7c8db7fb9c7,5,79,84,10,1.0,1.0,0
run-2020-2-28-10-27-41.456190109,AGENT#f5f75cce-5a14-11ea-9629-ef57442bea9d,4,80,84,10,1.0,1.0,0
run-2020-2-28-10-27-41.456190109,AGENT#f61b9e5e-5a14-11ea-a11a-2bf3fb022b67,1,83,84,10,1.0,1.0,0
run-2020-2-28-10-27-41.456190109,AGENT#f60fa64e-5a14-11ea-9db8-478adda771b9,3,82,85,10,1.0,1.0,0
run-2020-2-28-10-27-41.456190109,AGENT#f47899da-5a14-11ea-a556-b7baad16d1ec,47,39,86,10,1.0,1.0,0
run-2020-2-28-10-27-41.456190109,AGENT#f4823f08-5a14-11ea-a5fa-0fe1d2d3a8be,46,40,86,10,1.0,1.0,0
run-2020-2-28-10-27-41.456190109,AGENT#f4937b24-5a14-11ea-9d1b-77e422ddb72d,45,42,87,10,1.0,1.0,0
run-2020-2-28-10-27-41.456190109,AGENT#f61b97f6-5a14-11ea-b584-976c13e77713,4,83,87,10,1.0,1.0,0
run-2020-2-28-10-27-41.456190109,AGENT#f63580ee-5a14-11ea-82af-e7da856193ae,1,86,87,10,1.0,1.0,0
run-2020-2-28-10-27-41.456190109,AGENT#f6250bb0-5a14-11ea-a83b-d3e0ba191be2,4,84,88,10,1.0,1.0,0
run-2020-2-28-10-27-41.456190109,AGENT#f63d65fc-5a14-11ea-82df-27bb4920b228,1,87,88,10,1.0,1.0,0
run-2020-2-28-10-27-41.456190109,AGENT#f4a80526-5a14-11ea-b941-5367984935d4,45,44,89,10,1.0,1.0,0
run-2020-2-28-10-27-41.456190109,AGENT#f4a80a30-5a14-11ea-80b1-17564c1cb3db,45,44,89,10,1.0,1.0,0
run-2020-2-28-10-27-41.456190109,AGENT#f6357928-5a14-11ea-ab5d-439426ea8e3a,3,86,89,10,1.0,1.0,0
run-2020-2-28-10-27-41.456190109,AGENT#f63d5f1c-5a14-11ea-9532-8b0ffdc55791,2,87,89,10,1.0,1.0,0
run-2020-2-28-10-27-41.456190109,AGENT#f64c7f24-5a14-11ea-858d-bb08e5b40c90,1,88,89,10,1.0,1.0,0
run-2020-2-28-10-27-41.456190109,AGENT#f64c8be0-5a14-11ea-a163-c375dde4a2fe,1,88,89,10,1.0,1.0,0
run-2020-2-28-10-27-41.456190109,AGENT#f4a7f022-5a14-11ea-b66f-27d7045cb3e3,46,44,90,10,1.0,1.0,0
run-2020-2-28-10-27-41.456190109,AGENT#f61b9b5c-5a14-11ea-bdaa-3bbef0dfdc3a,7,83,90,10,1.0,1.0,0
run-2020-2-28-10-27-41.456190109,AGENT#f64c860e-5a14-11ea-9f26-8b515f7a7268,2,88,90,10,1.0,1.0,0
run-2020-2-28-10-27-41.456190109,AGENT#f6582932-5a14-11ea-9780-9f8721ca47f3,1,89,90,10,1.0,1.0,0
run-2020-2-28-10-27-41.456190109,AGENT#f6582ce8-5a14-11ea-91b9-5b79e4877e93,1,89,90,10,1.0,1.0,0
run-2020-2-28-10-27-41.456190109,AGENT#f5dcae06-5a14-11ea-89b8-efa95f46529d,14,77,91,10,1.0,1.0,0
run-2020-2-28-10-27-41.456190109,AGENT#f63572d4-5a14-11ea-8df2-d3ce4d24b4f6,5,86,91,10,1.0,1.0,0
run-2020-2-28-10-27-41.456190109,AGENT#f63d581e-5a14-11ea-8f29-c7586f334c08,4,87,91,10,1.0,1.0,0
run-2020-2-28-10-27-41.456190109,AGENT#f63d62fa-5a14-11ea-aa2f-370b2af1de83,4,87,91,10,1.0,1.0,0
run-2020-2-28-10-27-41.456190109,AGENT#f6583030-5a14-11ea-9d76-1fcf042f7c72,2,89,91,10,1.0,1.0,0
run-2020-2-28-10-27-41.456190109,AGENT#f661dd4c-5a14-11ea-b77e-8bd3f98b91cb,1,90,91,10,1.0,1.0,0
run-2020-2-28-10-27-41.456190109,AGENT#f661eb52-5a14-11ea-8786-5f8895350c05,1,90,91,10,1.0,1.0,0
run-2020-2-28-10-27-41.456190109,AGENT#f66a6962-5a14-11ea-988b-3ba2d7f7d178,1,91,92,10,1.0,1.0,0
run-2020-2-28-10-27-41.456190109,AGENT#f4c1d208-5a14-11ea-ac52-f3bfffeab197,46,47,93,10,1.0,1.0,0
run-2020-2-28-10-27-41.456190109,AGENT#f4c9a29e-5a14-11ea-8216-c771be2b0a50,45,48,93,10,1.0,1.0,0
run-2020-2-28-10-27-41.456190109,AGENT#f4c9a8d4-5a14-11ea-ab3f-1374b486438b,46,48,94,10,1.0,1.0,0
run-2020-2-28-10-27-41.456190109,AGENT#f6583c4c-5a14-11ea-a0a5-230e96ce0dc7,5,89,94,10,1.0,1.0,0
run-2020-2-28-10-27-41.456190109,AGENT#f661e148-5a14-11ea-9a22-8792d45ebb1b,4,90,94,10,1.0,1.0,0
run-2020-2-28-10-27-41.456190109,AGENT#f661e7ec-5a14-11ea-8265-b351c90e9185,4,90,94,10,1.0,1.0,0
run-2020-2-28-10-27-41.456190109,AGENT#f66a666a-5a14-11ea-8738-d3ec32659c2e,3,91,94,10,1.0,1.0,0
run-2020-2-28-10-27-41.456190109,AGENT#f66a6c6e-5a14-11ea-8a8e-fb778734aeb9,3,91,94,10,1.0,1.0,0
run-2020-2-28-10-27-41.456190109,AGENT#f6732e30-5a14-11ea-bc63-9f1565eaba66,2,92,94,10,1.0,1.0,0
run-2020-2-28-10-27-41.456190109,AGENT#f4c1d690-5a14-11ea-bb3d-234ee4ead181,48,47,95,10,1.0,1.0,0
run-2020-2-28-10-27-41.456190109,AGENT#f4c99a92-5a14-11ea-8b9f-6b79e89c3f67,47,48,95,10,1.0,1.0,0
run-2020-2-28-10-27-41.456190109,AGENT#f67b658c-5a14-11ea-bd1c-cfd8836e0a98,2,93,95,10,1.0,1.0,0
run-2020-2-28-10-27-41.456190109,AGENT#f67327fa-5a14-11ea-ad8d-0b047ba663a2,4,92,96,10,1.0,1.0,0
run-2020-2-28-10-27-41.456190109,AGENT#f67b55b0-5a14-11ea-b3b9-1fd6e13ad335,3,93,96,10,1.0,1.0,0
run-2020-2-28-10-27-41.456190109,AGENT#f67b6302-5a14-11ea-ab90-3b08401ff7db,3,93,96,10,1.0,1.0,0
run-2020-2-28-10-27-41.456190109,AGENT#f68d3ca8-5a14-11ea-8f38-cfeefac7ebe4,1,95,96,10,1.0,1.0,0
run-2020-2-28-10-27-41.456190109,AGENT#f4ed00ea-5a14-11ea-85ef-835a715d5862,45,52,97,10,1.0,1.0,0
run-2020-2-28-10-27-41.456190109,AGENT#f5b44718-5a14-11ea-9c43-2b15d834b74f,24,73,97,10,1.0,1.0,0
run-2020-2-28-10-27-41.456190109,AGENT#f6967c6e-5a14-11ea-9a9b-c311fc41333c,1,96,97,10,1.0,1.0,0
run-2020-2-28-10-27-41.456190109,AGENT#f6967f48-5a14-11ea-860a-eff3a3375bf4,1,96,97,10,1.0,1.0,0
run-2020-2-28-10-27-41.456190109,AGENT#f69681fa-5a14-11ea-a1cf-d75e43de352b,1,96,97,10,1.0,1.0,0
run-2020-2-28-10-27-41.456190109,AGENT#f4f474d8-5a14-11ea-a00f-d39c588d4263,45,53,98,10,1.0,1.0,0
run-2020-2-28-10-27-41.456190109,AGENT#f67b5dd0-5a14-11ea-8693-8f44bc9181f9,5,93,98,10,1.0,1.0,0
run-2020-2-28-10-27-41.456190109,AGENT#f6a0ee7e-5a14-11ea-96db-53e603bbac15,1,97,98,10,1.0,1.0,0
run-2020-2-28-10-27-41.456190109,AGENT#f6a0f4f0-5a14-11ea-83b3-0b3c0ab1d129,1,97,98,10,1.0,1.0,0
run-2020-2-28-10-27-41.456190109,AGENT#f6a0fa54-5a14-11ea-a588-5330c3a3c49d,1,97,98,10,1.0,1.0,0
run-2020-2-28-10-27-41.456190109,AGENT#f500c698-5a14-11ea-bb4d-331c3b951b8e,45,54,99,10,1.0,1.0,0
run-2020-2-28-10-27-41.456190109,AGENT#f696799e-5a14-11ea-b29f-5b28ba35a577,3,96,99,10,1.0,1.0,0
run-2020-2-28-10-27-41.456190109,AGENT#f6a0f202-5a14-11ea-a328-0f19ea418a90,2,97,99,10,1.0,1.0,0
run-2020-2-28-10-27-41.456190109,AGENT#f6aa725a-5a14-11ea-b48a-2f2b596f75c4,1,98,99,10,1.0,1.0,0
run-2020-2-28-10-27-41.456190109,AGENT#f6aa7868-5a14-11ea-b1ce-cbe7e2641e44,1,98,99,10,1.0,1.0,0
