Source,Target
f33c0da4-5a14-11ea-8c82-c7836070f872,f33c2dac-5a14-11ea-a85b-d3af0bc1499d
f33bf210-5a14-11ea-a131-b33c507c0ef4,f33c2aa0-5a14-11ea-8f27-bbaa1190e9c5
f33be7c0-5a14-11ea-8399-273b533039df,f33c47a6-5a14-11ea-91d4-eb4f83bfb1a7
f33bebe4-5a14-11ea-85ed-8331c9c82eed,f33c4cec-5a14-11ea-a7a1-db3e19ce98df
f33c2aa0-5a14-11ea-8f27-bbaa1190e9c5,f33c5b42-5a14-11ea-97ad-c364d81484f9
f33bf210-5a14-11ea-a131-b33c507c0ef4,f33c5dcc-5a14-11ea-9980-9b7a556bef14
f33c5dcc-5a14-11ea-9980-9b7a556bef14,f33c6196-5a14-11ea-9dc1-378132c0af54
f33c0da4-5a14-11ea-8c82-c7836070f872,f33c66c8-5a14-11ea-b644-b7c7af804638
f33c1a56-5a14-11ea-849d-ffad1d6db926,f33c6b64-5a14-11ea-b600-6337cf972d80
f33bef86-5a14-11ea-abaa-0f7e9240b403,f33c6e66-5a14-11ea-be07-4f5fcbbb8e8d
f33bef86-5a14-11ea-abaa-0f7e9240b403,f33c854a-5a14-11ea-a7e0-c39479aaa4c1
f33c6196-5a14-11ea-9dc1-378132c0af54,f33c9170-5a14-11ea-8618-a3a0f7ea180a
f33c08ea-5a14-11ea-8689-47ac3b40397d,f33c8928-5a14-11ea-bd21-7b832920d2b3
f33c5b42-5a14-11ea-97ad-c364d81484f9,f33c96de-5a14-11ea-92a6-175ed3a9f736
f33c5b42-5a14-11ea-97ad-c364d81484f9,f33c9d28-5a14-11ea-82e3-2fc2299cd807
f33c5b42-5a14-11ea-97ad-c364d81484f9,f33ca610-5a14-11ea-85da-e707629f8d99
f33bf210-5a14-11ea-a131-b33c507c0ef4,f33ca76e-5a14-11ea-8b09-8f1c3ade99c0
f33c47a6-5a14-11ea-91d4-eb4f83bfb1a7,f33ca0a2-5a14-11ea-a29d-438547f3f425
f33c2744-5a14-11ea-a8ed-9fac6c2af206,f33cc44c-5a14-11ea-9d84-0f9fe2d7aa3e
f33c08ea-5a14-11ea-8689-47ac3b40397d,f33cc942-5a14-11ea-9f2a-e3b07e8b98ee
f33ca610-5a14-11ea-85da-e707629f8d99,f33ccbae-5a14-11ea-a01e-8f6e63b5cece
f33ca0a2-5a14-11ea-a29d-438547f3f425,f33cd0c2-5a14-11ea-b4ea-13a583f4e015
f33cd0c2-5a14-11ea-b4ea-13a583f4e015,f33cd5e0-5a14-11ea-b578-c7f835bb2a2d
f33c2dac-5a14-11ea-a85b-d3af0bc1499d,f33cde14-5a14-11ea-938c-6f1178892caf
f33cd0c2-5a14-11ea-b4ea-13a583f4e015,f33ce094-5a14-11ea-b71a-73326addf784
f33c2744-5a14-11ea-a8ed-9fac6c2af206,f33ce3d2-5a14-11ea-baa3-ebdafa64dfe6
f33c9d28-5a14-11ea-82e3-2fc2299cd807,f33cf96c-5a14-11ea-8625-1770082b4745
f33c47a6-5a14-11ea-91d4-eb4f83bfb1a7,f33d01dc-5a14-11ea-9157-5bab5ce5ef45
f33cc44c-5a14-11ea-9d84-0f9fe2d7aa3e,f33d05a6-5a14-11ea-8bea-1b287fe9364d
f33c226c-5a14-11ea-8637-13e03b2df824,f33d0b82-5a14-11ea-aefb-87fdb6ee2c1f
f33c9170-5a14-11ea-8618-a3a0f7ea180a,f33d0ce0-5a14-11ea-bbff-3fcb0f3810f3
f33cde14-5a14-11ea-938c-6f1178892caf,f33d15a0-5a14-11ea-bf2a-7353bbfbacd1
f33d0ce0-5a14-11ea-bbff-3fcb0f3810f3,f33d18fc-5a14-11ea-88a2-8be407b5d12d
f33c1916-5a14-11ea-8e51-03059272de33,f33d1a6e-5a14-11ea-8797-337cb515270a
f33c854a-5a14-11ea-a7e0-c39479aaa4c1,f33d2fae-5a14-11ea-8860-a78c88f0785b
f33d05a6-5a14-11ea-8bea-1b287fe9364d,f33d3832-5a14-11ea-a2ec-efb21e7ae250
f33bf210-5a14-11ea-a131-b33c507c0ef4,f33d3e0e-5a14-11ea-a860-2322f141d37f
f33d2fae-5a14-11ea-8860-a78c88f0785b,f33d420a-5a14-11ea-a0ac-77346965fb7e
f33c2744-5a14-11ea-a8ed-9fac6c2af206,f33d4520-5a14-11ea-b20b-cfd41f790b97
f33c226c-5a14-11ea-8637-13e03b2df824,f33d4c96-5a14-11ea-8157-37127c7fda42
f33d2fae-5a14-11ea-8860-a78c88f0785b,f33d4f5c-5a14-11ea-b2c6-9b089cdfdb46
f33c5b42-5a14-11ea-97ad-c364d81484f9,f33d51f0-5a14-11ea-8333-3b9c173d1d9a
f33d4520-5a14-11ea-b20b-cfd41f790b97,f33d6762-5a14-11ea-bd77-cf405ef5c0fa
f33d4c96-5a14-11ea-8157-37127c7fda42,f33d6dac-5a14-11ea-8467-df0a7da5a28a
f33cd0c2-5a14-11ea-b4ea-13a583f4e015,f33d7e50-5a14-11ea-a17c-dbb60e5a66d0
f33d4f5c-5a14-11ea-b2c6-9b089cdfdb46,f33d817a-5a14-11ea-ac43-b79fa0a7361b
f33c6196-5a14-11ea-9dc1-378132c0af54,f33d87ec-5a14-11ea-85c3-cfd4f1d0e1a9
f33d7e50-5a14-11ea-a17c-dbb60e5a66d0,f33d8b7a-5a14-11ea-a713-6314b4178ffe
f33c4cec-5a14-11ea-a7a1-db3e19ce98df,f33d9430-5a14-11ea-9d75-3fd458435303
f33c96de-5a14-11ea-92a6-175ed3a9f736,f33d9714-5a14-11ea-a844-3b7666043707
f33d9714-5a14-11ea-a844-3b7666043707,f33da0b0-5a14-11ea-bc0d-471e1d3db3e8
f33cd0c2-5a14-11ea-b4ea-13a583f4e015,f33da560-5a14-11ea-b79b-838936b7ff49
f33ce094-5a14-11ea-b71a-73326addf784,f33db528-5a14-11ea-82b7-079bd8808569
f33c5dcc-5a14-11ea-9980-9b7a556bef14,f33db7bc-5a14-11ea-a5ac-37f8b59bdc02
f33d6dac-5a14-11ea-8467-df0a7da5a28a,f33dc19e-5a14-11ea-8fb1-9fa8671761ac
f33ce3d2-5a14-11ea-baa3-ebdafa64dfe6,f33dc4b4-5a14-11ea-ac66-479fa4e501c5
f33d6762-5a14-11ea-bd77-cf405ef5c0fa,f33dcb80-5a14-11ea-8ee4-7baf6e854be0
f33d0ce0-5a14-11ea-bbff-3fcb0f3810f3,f33dcfa4-5a14-11ea-8475-4729e65353a2
f33d7e50-5a14-11ea-a17c-dbb60e5a66d0,f33dd918-5a14-11ea-bade-63762a55f44f
f33c96de-5a14-11ea-92a6-175ed3a9f736,f33dde54-5a14-11ea-997f-df3c34411bd3
f33c47a6-5a14-11ea-91d4-eb4f83bfb1a7,f33dedfe-5a14-11ea-a074-d36794bde35f
f33c1916-5a14-11ea-8e51-03059272de33,f33df326-5a14-11ea-a71f-5381c1d34212
f33dedfe-5a14-11ea-a074-d36794bde35f,f33dfa10-5a14-11ea-9f5d-8f8f29ca36b5
f33dfa10-5a14-11ea-9f5d-8f8f29ca36b5,f33dfcb8-5a14-11ea-b3c8-43ff0245a43e
f33d0b82-5a14-11ea-aefb-87fdb6ee2c1f,f33e06ae-5a14-11ea-93e1-0f7a64f2ba88
f33d05a6-5a14-11ea-8bea-1b287fe9364d,f33e080c-5a14-11ea-819d-eb0f69eaaf88
f33d4f5c-5a14-11ea-b2c6-9b089cdfdb46,f33e10f4-5a14-11ea-b88b-e34912774ed7
f33d0ce0-5a14-11ea-bbff-3fcb0f3810f3,f33e170c-5a14-11ea-a3c1-67e6fd8e3b74
f33d9714-5a14-11ea-a844-3b7666043707,f33e242c-5a14-11ea-a1f5-7f3cc9f4862f
f33d05a6-5a14-11ea-8bea-1b287fe9364d,f33e28e6-5a14-11ea-b440-7f6c68460db9
f33dc19e-5a14-11ea-8fb1-9fa8671761ac,f33e30ca-5a14-11ea-a1bb-ffd9d4bfe02d
f33e242c-5a14-11ea-a1f5-7f3cc9f4862f,f33e344e-5a14-11ea-ac69-af51cdbb303d
f33c9170-5a14-11ea-8618-a3a0f7ea180a,f33e4150-5a14-11ea-974d-932e71faa273
f33d0ce0-5a14-11ea-bbff-3fcb0f3810f3,f33e4916-5a14-11ea-9f8f-331ee80339b4
f33ca76e-5a14-11ea-8b09-8f1c3ade99c0,f33e4664-5a14-11ea-b117-03bde14bf282
f33e4916-5a14-11ea-9f8f-331ee80339b4,f33e4e0c-5a14-11ea-9395-8f45e9c084a4
f33c2aa0-5a14-11ea-8f27-bbaa1190e9c5,f33e5e7e-5a14-11ea-a3e4-6bdfdd278ed1
f33cc942-5a14-11ea-9f2a-e3b07e8b98ee,f33e6180-5a14-11ea-8db7-23337abe301c
f33c854a-5a14-11ea-a7e0-c39479aaa4c1,f33e69e6-5a14-11ea-b2ff-2398d41b2132
f33e4664-5a14-11ea-b117-03bde14bf282,f33e7364-5a14-11ea-b2f0-8724dd7260da
f33d9714-5a14-11ea-a844-3b7666043707,f33e786e-5a14-11ea-a3d0-93eb735250c8
f33d15a0-5a14-11ea-bf2a-7353bbfbacd1,f33e81e2-5a14-11ea-814f-5f2daa96d6b4
f33df326-5a14-11ea-a71f-5381c1d34212,f33e884a-5a14-11ea-af12-1b97e7cb4a02
f33bef86-5a14-11ea-abaa-0f7e9240b403,f33e8700-5a14-11ea-a0ea-23b5d447f350
f33da0b0-5a14-11ea-bc0d-471e1d3db3e8,f33e9fb0-5a14-11ea-87ad-2f41d95f73c3
f33e69e6-5a14-11ea-b2ff-2398d41b2132,f33e9c2c-5a14-11ea-ae8c-1f24f83154d2
f33dfcb8-5a14-11ea-b3c8-43ff0245a43e,f33ea636-5a14-11ea-976c-e30f81d0a0c5
f33ce094-5a14-11ea-b71a-73326addf784,f33eab5e-5a14-11ea-b92e-cb39d80192bd
f33e4664-5a14-11ea-b117-03bde14bf282,f33eb0cc-5a14-11ea-969a-4fbb439b292a
f33e242c-5a14-11ea-a1f5-7f3cc9f4862f,f33eb9f0-5a14-11ea-a901-0b7790a53dc0
f33d15a0-5a14-11ea-bf2a-7353bbfbacd1,f33ebdf6-5a14-11ea-9237-27909817065a
f33eab5e-5a14-11ea-b92e-cb39d80192bd,f33ec71a-5a14-11ea-89a2-fffda54b1098
f33c08ea-5a14-11ea-8689-47ac3b40397d,f33ede12-5a14-11ea-97a6-8b9ee434ae78
f33cf96c-5a14-11ea-8625-1770082b4745,f33edfac-5a14-11ea-bee7-ff720422f6e7
f33eb9f0-5a14-11ea-a901-0b7790a53dc0,f33ed8e0-5a14-11ea-b2f0-3bce0cf7fc82
