RunID,Agent,Age,Created,Inactive,Resources,Reputation,Ability,Que
run-2020-2-28-10-32-47.983141899,AGENT#a9f7ee82-5a15-11ea-9460-1378cec2bd68,2,0,2,10,1.0,1.0,0
run-2020-2-28-10-32-47.983141899,AGENT#a9f7f760-5a15-11ea-af7a-f378c2e53120,2,0,2,10,1.0,1.0,0
run-2020-2-28-10-32-47.983141899,AGENT#a9f802d2-5a15-11ea-9ea7-7f947f7b0654,2,0,2,10,1.0,1.0,0
run-2020-2-28-10-32-47.983141899,AGENT#a9f84c4c-5a15-11ea-a542-1ff11ec6bf17,2,0,2,10,1.0,1.0,0
run-2020-2-28-10-32-47.983141899,AGENT#a9febae6-5a15-11ea-be0c-47ba0acc916c,1,1,2,10,1.0,1.0,0
run-2020-2-28-10-32-47.983141899,AGENT#a9f7fbac-5a15-11ea-ac16-cb589ac80009,3,0,3,10,1.0,1.0,0
run-2020-2-28-10-32-47.983141899,AGENT#a9fec14e-5a15-11ea-bb8d-6f41c5da6043,2,1,3,10,1.0,1.0,0
run-2020-2-28-10-32-47.983141899,AGENT#a9f7e392-5a15-11ea-ae05-b3fef5f9a605,4,0,4,10,1.0,1.0,0
run-2020-2-28-10-32-47.983141899,AGENT#a9f7f2ec-5a15-11ea-91c8-732ba85ff576,4,0,4,10,1.0,1.0,0
run-2020-2-28-10-32-47.983141899,AGENT#aa055072-5a15-11ea-aafc-3ffdd0fc9d9f,2,2,4,10,1.0,1.0,0
run-2020-2-28-10-32-47.983141899,AGENT#a9f8058e-5a15-11ea-9904-0382cacc320c,5,0,5,10,1.0,1.0,0
run-2020-2-28-10-32-47.983141899,AGENT#aa13139c-5a15-11ea-ada7-c7b220e234ad,1,4,5,10,1.0,1.0,0
run-2020-2-28-10-32-47.983141899,AGENT#aa197a84-5a15-11ea-940b-1f57cd170e5e,1,5,6,10,1.0,1.0,0
run-2020-2-28-10-32-47.983141899,AGENT#aa24461c-5a15-11ea-9e51-7bfd40d9be47,1,6,7,10,1.0,1.0,0
run-2020-2-28-10-32-47.983141899,AGENT#aa13104a-5a15-11ea-97ba-1ba89ed5f2e3,4,4,8,10,1.0,1.0,0
run-2020-2-28-10-32-47.983141899,AGENT#aa1976a6-5a15-11ea-9c41-3f29ce3993f6,3,5,8,10,1.0,1.0,0
run-2020-2-28-10-32-47.983141899,AGENT#aa244c3e-5a15-11ea-b4f7-2b01d15ff646,2,6,8,10,1.0,1.0,0
run-2020-2-28-10-32-47.983141899,AGENT#aa2c1d60-5a15-11ea-a5d5-1b054f4158d0,1,7,8,10,1.0,1.0,0
run-2020-2-28-10-32-47.983141899,AGENT#aa19810a-5a15-11ea-9289-471a8c68669b,4,5,9,10,1.0,1.0,0
run-2020-2-28-10-32-47.983141899,AGENT#aa33727c-5a15-11ea-9932-930172efc5c6,1,8,9,10,1.0,1.0,0
run-2020-2-28-10-32-47.983141899,AGENT#aa197dae-5a15-11ea-8ca3-2b9d891739a4,5,5,10,10,1.0,1.0,0
run-2020-2-28-10-32-47.983141899,AGENT#aa24493c-5a15-11ea-b65f-c701834a647f,4,6,10,10,1.0,1.0,0
run-2020-2-28-10-32-47.983141899,AGENT#aa391c90-5a15-11ea-b850-8b48f7a77669,1,9,10,10,1.0,1.0,0
run-2020-2-28-10-32-47.983141899,AGENT#aa391060-5a15-11ea-960e-5ff954c4a7e9,3,9,12,10,1.0,1.0,0
run-2020-2-28-10-32-47.983141899,AGENT#aa3f362a-5a15-11ea-891b-e3d3647bb95c,2,10,12,10,1.0,1.0,0
run-2020-2-28-10-32-47.983141899,AGENT#aa4942b4-5a15-11ea-8d3f-77ada061cf07,1,11,12,10,1.0,1.0,0
run-2020-2-28-10-32-47.983141899,AGENT#aa336958-5a15-11ea-b860-f3264000c88e,5,8,13,10,1.0,1.0,0
run-2020-2-28-10-32-47.983141899,AGENT#aa3f3eae-5a15-11ea-a502-a3c5bd0dd804,3,10,13,10,1.0,1.0,0
run-2020-2-28-10-32-47.983141899,AGENT#aa5281ee-5a15-11ea-b924-0b3b17d2a81f,1,12,13,10,1.0,1.0,0
run-2020-2-28-10-32-47.983141899,AGENT#aa3916d2-5a15-11ea-b744-87f274854b4a,5,9,14,10,1.0,1.0,0
run-2020-2-28-10-32-47.983141899,AGENT#aa494a0c-5a15-11ea-9e2c-d787c5eeb7d9,3,11,14,10,1.0,1.0,0
run-2020-2-28-10-32-47.983141899,AGENT#aa494d2c-5a15-11ea-8f08-e37e5585942e,3,11,14,10,1.0,1.0,0
run-2020-2-28-10-32-47.983141899,AGENT#aa4954c0-5a15-11ea-83a0-4f738519dafe,3,11,14,10,1.0,1.0,0
run-2020-2-28-10-32-47.983141899,AGENT#aa4957ae-5a15-11ea-91ca-c792c15d88d6,3,11,14,10,1.0,1.0,0
run-2020-2-28-10-32-47.983141899,AGENT#aa4946b0-5a15-11ea-b3fe-a7470a28e3c2,4,11,15,10,1.0,1.0,0
run-2020-2-28-10-32-47.983141899,AGENT#aa52889c-5a15-11ea-b1e3-d7c9be077bc4,3,12,15,10,1.0,1.0,0
run-2020-2-28-10-32-47.983141899,AGENT#aa5a55f4-5a15-11ea-bc20-dfa51941cb85,2,13,15,10,1.0,1.0,0
run-2020-2-28-10-32-47.983141899,AGENT#aa611cf4-5a15-11ea-9dfd-6b89e850876b,1,14,15,10,1.0,1.0,0
run-2020-2-28-10-32-47.983141899,AGENT#aa527dfc-5a15-11ea-9ccf-8f23d08ebfb2,4,12,16,10,1.0,1.0,0
run-2020-2-28-10-32-47.983141899,AGENT#aa528554-5a15-11ea-bca7-1fefe0a6eba5,4,12,16,10,1.0,1.0,0
run-2020-2-28-10-32-47.983141899,AGENT#aa5a525c-5a15-11ea-b405-4b3d153e6fca,3,13,16,10,1.0,1.0,0
run-2020-2-28-10-32-47.983141899,AGENT#aa61154c-5a15-11ea-9b7e-3721fb3991ca,3,14,17,10,1.0,1.0,0
run-2020-2-28-10-32-47.983141899,AGENT#aa61249c-5a15-11ea-9aff-43e6da0cbef4,4,14,18,10,1.0,1.0,0
run-2020-2-28-10-32-47.983141899,AGENT#aa71673a-5a15-11ea-9709-536f300a3f0a,2,16,18,10,1.0,1.0,0
run-2020-2-28-10-32-47.983141899,AGENT#aa69d9a2-5a15-11ea-80b3-6b728555f561,4,15,19,10,1.0,1.0,0
run-2020-2-28-10-32-47.983141899,AGENT#aa774f88-5a15-11ea-9587-472edf013ce4,2,17,19,10,1.0,1.0,0
run-2020-2-28-10-32-47.983141899,AGENT#aa7dcf98-5a15-11ea-9b32-375e7e63c4a9,1,18,19,10,1.0,1.0,0
run-2020-2-28-10-32-47.983141899,AGENT#aa775640-5a15-11ea-88ba-8b487c9aed9a,3,17,20,10,1.0,1.0,0
run-2020-2-28-10-32-47.983141899,AGENT#aa77594c-5a15-11ea-8138-53dad832c97d,3,17,20,10,1.0,1.0,0
run-2020-2-28-10-32-47.983141899,AGENT#aa86519a-5a15-11ea-aa1d-2b9fda25e9a8,1,19,20,10,1.0,1.0,0
run-2020-2-28-10-32-47.983141899,AGENT#aa8e0ea8-5a15-11ea-85b9-9f9ce598c7a8,1,20,21,10,1.0,1.0,0
run-2020-2-28-10-32-47.983141899,AGENT#aa86459c-5a15-11ea-8b45-53c6845855d0,3,19,22,10,1.0,1.0,0
run-2020-2-28-10-32-47.983141899,AGENT#aa8e0b42-5a15-11ea-9ce2-67ff2fa886fa,3,20,23,10,1.0,1.0,0
run-2020-2-28-10-32-47.983141899,AGENT#aa94533a-5a15-11ea-b216-0be526d058da,2,21,23,10,1.0,1.0,0
run-2020-2-28-10-32-47.983141899,AGENT#aa9b29c6-5a15-11ea-8cb8-e76ca7bfd759,2,22,24,10,1.0,1.0,0
run-2020-2-28-10-32-47.983141899,AGENT#aaa3c0d6-5a15-11ea-bfba-dfa93b661a5f,1,23,24,10,1.0,1.0,0
run-2020-2-28-10-32-47.983141899,AGENT#aaa3c3f6-5a15-11ea-a8d2-f3a658be0245,1,23,24,10,1.0,1.0,0
run-2020-2-28-10-32-47.983141899,AGENT#aaa3c716-5a15-11ea-b7b3-833003ccbaac,2,23,25,10,1.0,1.0,0
run-2020-2-28-10-32-47.983141899,AGENT#aa9b22c8-5a15-11ea-8f2b-bf07a138aa60,4,22,26,10,1.0,1.0,0
run-2020-2-28-10-32-47.983141899,AGENT#aab1dd1a-5a15-11ea-81f1-bb153da99761,1,25,26,10,1.0,1.0,0
run-2020-2-28-10-32-47.983141899,AGENT#aab1e0d0-5a15-11ea-84a9-5f633c63e788,1,25,26,10,1.0,1.0,0
run-2020-2-28-10-32-47.983141899,AGENT#aaaba260-5a15-11ea-99bd-a7bc452d7336,3,24,27,10,1.0,1.0,0
run-2020-2-28-10-32-47.983141899,AGENT#aab1e990-5a15-11ea-aef2-7b0d4eb72397,2,25,27,10,1.0,1.0,0
run-2020-2-28-10-32-47.983141899,AGENT#aaa3ba0a-5a15-11ea-af95-23c31b9180a8,5,23,28,10,1.0,1.0,0
run-2020-2-28-10-32-47.983141899,AGENT#aab89650-5a15-11ea-accd-1385c719c1c7,4,26,30,10,1.0,1.0,0
run-2020-2-28-10-32-47.983141899,AGENT#aacc4362-5a15-11ea-96eb-e39435cb3861,2,28,30,10,1.0,1.0,0
run-2020-2-28-10-32-47.983141899,AGENT#aacc465a-5a15-11ea-afba-fb1e0b073228,2,28,30,10,1.0,1.0,0
run-2020-2-28-10-32-47.983141899,AGENT#aad58986-5a15-11ea-a8ee-8f5ff5c1c1d1,1,29,30,10,1.0,1.0,0
run-2020-2-28-10-32-47.983141899,AGENT#aad58d46-5a15-11ea-b55d-9b00972b723c,1,29,30,10,1.0,1.0,0
run-2020-2-28-10-32-47.983141899,AGENT#aad5970a-5a15-11ea-98ac-ab232b43b6a4,1,29,30,10,1.0,1.0,0
run-2020-2-28-10-32-47.983141899,AGENT#aabfd5f0-5a15-11ea-a2f3-2b701d5d8f6d,4,27,31,10,1.0,1.0,0
run-2020-2-28-10-32-47.983141899,AGENT#aacc4088-5a15-11ea-9195-7bd8c8eadcc8,3,28,31,10,1.0,1.0,0
run-2020-2-28-10-32-47.983141899,AGENT#aad590ca-5a15-11ea-add3-737eab038821,2,29,31,10,1.0,1.0,0
run-2020-2-28-10-32-47.983141899,AGENT#aadc109e-5a15-11ea-b568-db126ac85f4d,1,30,31,10,1.0,1.0,0
run-2020-2-28-10-32-47.983141899,AGENT#aad593f4-5a15-11ea-9fbb-ab59b305e58c,3,29,32,10,1.0,1.0,0
run-2020-2-28-10-32-47.983141899,AGENT#aadc1382-5a15-11ea-9b25-bf8e954d9dc9,2,30,32,10,1.0,1.0,0
run-2020-2-28-10-32-47.983141899,AGENT#aae167f6-5a15-11ea-a131-df49d494db91,1,31,32,10,1.0,1.0,0
run-2020-2-28-10-32-47.983141899,AGENT#aae15ed2-5a15-11ea-9b40-eb8b295c80aa,2,31,33,10,1.0,1.0,0
run-2020-2-28-10-32-47.983141899,AGENT#aad59a16-5a15-11ea-8614-a7ae6efbc6bd,5,29,34,10,1.0,1.0,0
run-2020-2-28-10-32-47.983141899,AGENT#aae1621a-5a15-11ea-8bca-9b0e630beccc,3,31,34,10,1.0,1.0,0
run-2020-2-28-10-32-47.983141899,AGENT#aae16d82-5a15-11ea-88b9-b725c94d19a5,3,31,34,10,1.0,1.0,0
run-2020-2-28-10-32-47.983141899,AGENT#aaf24788-5a15-11ea-a161-27f5b5cb28b2,1,33,34,10,1.0,1.0,0
run-2020-2-28-10-32-47.983141899,AGENT#aaf250b6-5a15-11ea-b9a4-17627d904195,1,33,34,10,1.0,1.0,0
run-2020-2-28-10-32-47.983141899,AGENT#aae164f4-5a15-11ea-b191-a784b9043b1a,4,31,35,10,1.0,1.0,0
run-2020-2-28-10-32-47.983141899,AGENT#aafa0f54-5a15-11ea-8772-3729cd0d36c5,1,34,35,10,1.0,1.0,0
run-2020-2-28-10-32-47.983141899,AGENT#aafa1698-5a15-11ea-bea3-fffd4063c565,2,34,36,10,1.0,1.0,0
run-2020-2-28-10-32-47.983141899,AGENT#aafa1cec-5a15-11ea-9f8d-f76bbe81ca39,3,34,37,10,1.0,1.0,0
run-2020-2-28-10-32-47.983141899,AGENT#aa0556d0-5a15-11ea-88ad-ffaf92859dc1,36,2,38,10,1.0,1.0,0
run-2020-2-28-10-32-47.983141899,AGENT#aafa19d6-5a15-11ea-8ca1-2f96570f61e5,4,34,38,10,1.0,1.0,0
run-2020-2-28-10-32-47.983141899,AGENT#ab0f682c-5a15-11ea-b17f-27a5ced21f5b,1,37,38,10,1.0,1.0,0
run-2020-2-28-10-32-47.983141899,AGENT#aafa135a-5a15-11ea-8eb3-ebbfcc4f16ed,5,34,39,10,1.0,1.0,0
run-2020-2-28-10-32-47.983141899,AGENT#ab16083a-5a15-11ea-bade-f7ea57f88950,1,38,39,10,1.0,1.0,0
run-2020-2-28-10-32-47.983141899,AGENT#ab160b8c-5a15-11ea-913b-9f0ebe307d14,1,38,39,10,1.0,1.0,0
run-2020-2-28-10-32-47.983141899,AGENT#aa2c247c-5a15-11ea-b6d3-574da93ea910,34,7,41,10,1.0,1.0,0
run-2020-2-28-10-32-47.983141899,AGENT#ab0720f4-5a15-11ea-9205-0b7c57b5ad63,5,36,41,10,1.0,1.0,0
run-2020-2-28-10-32-47.983141899,AGENT#ab1bbb7c-5a15-11ea-b3ca-4b4f2fd47e83,3,39,42,10,1.0,1.0,0
run-2020-2-28-10-32-47.983141899,AGENT#aa864bfa-5a15-11ea-b4cf-0b32fa6f2519,24,19,43,10,1.0,1.0,0
run-2020-2-28-10-32-47.983141899,AGENT#ab22a5ea-5a15-11ea-b1cc-471011a0b81e,3,40,43,10,1.0,1.0,0
run-2020-2-28-10-32-47.983141899,AGENT#aa611998-5a15-11ea-a058-f3b3d3fc16e1,30,14,44,10,1.0,1.0,0
run-2020-2-28-10-32-47.983141899,AGENT#ab1bb21c-5a15-11ea-9be5-f3d69b925051,5,39,44,10,1.0,1.0,0
run-2020-2-28-10-32-47.983141899,AGENT#a9f7e914-5a15-11ea-90a1-df07265b09f9,45,0,45,10,1.0,1.0,0
run-2020-2-28-10-32-47.983141899,AGENT#a9fec6f8-5a15-11ea-99f7-a37bd008b6f4,44,1,45,10,1.0,1.0,0
run-2020-2-28-10-32-47.983141899,AGENT#aa0553e2-5a15-11ea-bc52-9fe60aa4909c,43,2,45,10,1.0,1.0,0
run-2020-2-28-10-32-47.983141899,AGENT#ab33c0f0-5a15-11ea-ac8a-3325bd447cee,3,42,45,10,1.0,1.0,0
run-2020-2-28-10-32-47.983141899,AGENT#ab33c492-5a15-11ea-8bd2-67830349f40d,3,42,45,10,1.0,1.0,0
run-2020-2-28-10-32-47.983141899,AGENT#ab3c5170-5a15-11ea-adc3-cf8a3e5fdfab,2,43,45,10,1.0,1.0,0
run-2020-2-28-10-32-47.983141899,AGENT#ab28e608-5a15-11ea-b11a-77285adcf6fc,5,41,46,10,1.0,1.0,0
run-2020-2-28-10-32-47.983141899,AGENT#ab28e9aa-5a15-11ea-b2fa-dbe20be056d7,5,41,46,10,1.0,1.0,0
run-2020-2-28-10-32-47.983141899,AGENT#ab3c553a-5a15-11ea-8c15-3305e3f2186f,3,43,46,10,1.0,1.0,0
run-2020-2-28-10-32-47.983141899,AGENT#ab431e06-5a15-11ea-b4be-776c9d5060ba,2,44,46,10,1.0,1.0,0
run-2020-2-28-10-32-47.983141899,AGENT#ab4892dc-5a15-11ea-9b96-fbd297a085ba,1,45,46,10,1.0,1.0,0
run-2020-2-28-10-32-47.983141899,AGENT#a9f7ffee-5a15-11ea-a295-ebbf20b87abb,47,0,47,10,1.0,1.0,0
run-2020-2-28-10-32-47.983141899,AGENT#ab488a9e-5a15-11ea-ac22-dfb989692466,2,45,47,10,1.0,1.0,0
run-2020-2-28-10-32-47.983141899,AGENT#ab4e3fb6-5a15-11ea-93e9-73d3b7d0e7b6,1,46,47,10,1.0,1.0,0
run-2020-2-28-10-32-47.983141899,AGENT#ab4e454c-5a15-11ea-94ff-43c5602c6107,1,46,47,10,1.0,1.0,0
run-2020-2-28-10-32-47.983141899,AGENT#a9febe60-5a15-11ea-b3bc-63763fb6f1ff,47,1,48,10,1.0,1.0,0
run-2020-2-28-10-32-47.983141899,AGENT#aa0cd568-5a15-11ea-b748-bf920b5265ac,45,3,48,10,1.0,1.0,0
run-2020-2-28-10-32-47.983141899,AGENT#ab488d6e-5a15-11ea-aede-c78932ce5aa8,3,45,48,10,1.0,1.0,0
run-2020-2-28-10-32-47.983141899,AGENT#a9f7ded8-5a15-11ea-bcd2-c75bf87945ae,49,0,49,10,1.0,1.0,0
run-2020-2-28-10-32-47.983141899,AGENT#aa0cd8ec-5a15-11ea-a3ff-234016e4cc11,46,3,49,10,1.0,1.0,0
run-2020-2-28-10-32-47.983141899,AGENT#ab6022e4-5a15-11ea-8f6a-ab5218b8d55b,1,48,49,10,1.0,1.0,0
run-2020-2-28-10-32-47.983141899,AGENT#aa69d59c-5a15-11ea-8941-53eb0738a30f,35,15,50,10,1.0,1.0,0
run-2020-2-28-10-32-47.983141899,AGENT#ab602a3c-5a15-11ea-a943-9bdaa3600763,2,48,50,10,1.0,1.0,0
run-2020-2-28-10-32-47.983141899,AGENT#ab602d52-5a15-11ea-b05d-438ae5e7ada0,2,48,50,10,1.0,1.0,0
run-2020-2-28-10-32-47.983141899,AGENT#aa243ef6-5a15-11ea-8f03-2392f50a9e31,45,6,51,10,1.0,1.0,0
run-2020-2-28-10-32-47.983141899,AGENT#ab602686-5a15-11ea-839c-6ff16e8ff705,3,48,51,10,1.0,1.0,0
run-2020-2-28-10-32-47.983141899,AGENT#ab60334c-5a15-11ea-9e65-73b0968f26d4,3,48,51,10,1.0,1.0,0
run-2020-2-28-10-32-47.983141899,AGENT#ab67bf04-5a15-11ea-b9a5-d3407b8f5460,2,49,51,10,1.0,1.0,0
run-2020-2-28-10-32-47.983141899,AGENT#ab67c26a-5a15-11ea-bef3-2f28c47a9a86,2,49,51,10,1.0,1.0,0
run-2020-2-28-10-32-47.983141899,AGENT#ab6d93fc-5a15-11ea-a456-c3c7e6c8610f,1,50,51,10,1.0,1.0,0
run-2020-2-28-10-32-47.983141899,AGENT#a9fec43c-5a15-11ea-a51e-f7d622a21fd6,51,1,52,10,1.0,1.0,0
run-2020-2-28-10-32-47.983141899,AGENT#ab60304a-5a15-11ea-a148-5ff0f6e99be0,4,48,52,10,1.0,1.0,0
run-2020-2-28-10-32-47.983141899,AGENT#aa2c2134-5a15-11ea-9daf-fb9b59a976a4,46,7,53,10,1.0,1.0,0
run-2020-2-28-10-32-47.983141899,AGENT#aa2c2792-5a15-11ea-aadc-1b460a5de4be,46,7,53,10,1.0,1.0,0
run-2020-2-28-10-32-47.983141899,AGENT#aa336fca-5a15-11ea-8aec-cfa673662c20,45,8,53,10,1.0,1.0,0
run-2020-2-28-10-32-47.983141899,AGENT#ab737d80-5a15-11ea-9a9e-f7cd4b196a76,2,51,53,10,1.0,1.0,0
run-2020-2-28-10-32-47.983141899,AGENT#ab7cf888-5a15-11ea-93d3-b3d9c5155da1,1,52,53,10,1.0,1.0,0
run-2020-2-28-10-32-47.983141899,AGENT#aa2442fc-5a15-11ea-8ed2-932e7d76e155,48,6,54,10,1.0,1.0,0
run-2020-2-28-10-32-47.983141899,AGENT#aa336cb4-5a15-11ea-960f-9f47608330d1,46,8,54,10,1.0,1.0,0
run-2020-2-28-10-32-47.983141899,AGENT#aa3913da-5a15-11ea-864a-2b7a43c60e13,45,9,54,10,1.0,1.0,0
run-2020-2-28-10-32-47.983141899,AGENT#aa3919a2-5a15-11ea-b9b1-5f850d362ede,45,9,54,10,1.0,1.0,0
run-2020-2-28-10-32-47.983141899,AGENT#ab6d8e70-5a15-11ea-9adf-ffc4800aafe6,4,50,54,10,1.0,1.0,0
run-2020-2-28-10-32-47.983141899,AGENT#ab73774a-5a15-11ea-ad0f-bb77f39dd7e5,3,51,54,10,1.0,1.0,0
run-2020-2-28-10-32-47.983141899,AGENT#ab73815e-5a15-11ea-8d9c-f37d6f4de87b,3,51,54,10,1.0,1.0,0
run-2020-2-28-10-32-47.983141899,AGENT#ab7cfeb4-5a15-11ea-aff4-cf57f070d8d2,2,52,54,10,1.0,1.0,0
run-2020-2-28-10-32-47.983141899,AGENT#aa3f3a4e-5a15-11ea-9f55-5fde03ccfa3e,45,10,55,10,1.0,1.0,0
run-2020-2-28-10-32-47.983141899,AGENT#aaa3bd70-5a15-11ea-ab83-5fdba8cc8f55,32,23,55,10,1.0,1.0,0
run-2020-2-28-10-32-47.983141899,AGENT#ab7cf568-5a15-11ea-b1bb-8775affdc761,3,52,55,10,1.0,1.0,0
run-2020-2-28-10-32-47.983141899,AGENT#ab8ff92e-5a15-11ea-860e-abfc21d525a0,1,55,56,10,1.0,1.0,0
run-2020-2-28-10-32-47.983141899,AGENT#ab8ffcc6-5a15-11ea-9af3-3353236cf734,1,55,56,10,1.0,1.0,0
run-2020-2-28-10-32-47.983141899,AGENT#aa495132-5a15-11ea-b887-5b2d532db067,46,11,57,10,1.0,1.0,0
run-2020-2-28-10-32-47.983141899,AGENT#aa495ac4-5a15-11ea-a7e7-ef93480c214d,46,11,57,10,1.0,1.0,0
run-2020-2-28-10-32-47.983141899,AGENT#aa528bf8-5a15-11ea-a0dc-472377d602f3,45,12,57,10,1.0,1.0,0
run-2020-2-28-10-32-47.983141899,AGENT#aa8648bc-5a15-11ea-8e74-2fe57f7ddec0,38,19,57,10,1.0,1.0,0
run-2020-2-28-10-32-47.983141899,AGENT#ab7cfbc6-5a15-11ea-93a9-dfdef81d7ffd,5,52,57,10,1.0,1.0,0
run-2020-2-28-10-32-47.983141899,AGENT#ab849c32-5a15-11ea-8b6d-83dda17d5a91,4,53,57,10,1.0,1.0,0
run-2020-2-28-10-32-47.983141899,AGENT#ab8ab72a-5a15-11ea-92f3-f38eb2a0b52f,3,54,57,10,1.0,1.0,0
run-2020-2-28-10-32-47.983141899,AGENT#ab0f6bd8-5a15-11ea-b45c-0f0dbbb62b3c,21,37,58,10,1.0,1.0,0
run-2020-2-28-10-32-47.983141899,AGENT#aa69e08c-5a15-11ea-bcbd-ef3fe780480f,44,15,59,10,1.0,1.0,0
run-2020-2-28-10-32-47.983141899,AGENT#aa61206e-5a15-11ea-bd7e-4be0f72922aa,46,14,60,10,1.0,1.0,0
run-2020-2-28-10-32-47.983141899,AGENT#aa69dd12-5a15-11ea-a8ac-9feb2731ff74,45,15,60,10,1.0,1.0,0
run-2020-2-28-10-32-47.983141899,AGENT#ab95af9a-5a15-11ea-a65d-0779176afd84,4,56,60,10,1.0,1.0,0
run-2020-2-28-10-32-47.983141899,AGENT#ab9f979e-5a15-11ea-adde-f38dee705f58,3,57,60,10,1.0,1.0,0
run-2020-2-28-10-32-47.983141899,AGENT#abad9d4e-5a15-11ea-b540-47fbabe851ec,1,59,60,10,1.0,1.0,0
run-2020-2-28-10-32-47.983141899,AGENT#abada85c-5a15-11ea-9373-fb7f1f0649b5,1,59,60,10,1.0,1.0,0
run-2020-2-28-10-32-47.983141899,AGENT#aa863e80-5a15-11ea-884f-c7df3e4d2d9f,42,19,61,10,1.0,1.0,0
run-2020-2-28-10-32-47.983141899,AGENT#abb35cf2-5a15-11ea-ac11-43a12df28310,1,60,61,10,1.0,1.0,0
run-2020-2-28-10-32-47.983141899,AGENT#ab73709c-5a15-11ea-8f6c-7b3a792952f4,11,51,62,10,1.0,1.0,0
run-2020-2-28-10-32-47.983141899,AGENT#aa77533e-5a15-11ea-92b9-9f213bfde23f,46,17,63,10,1.0,1.0,0
run-2020-2-28-10-32-47.983141899,AGENT#aa775c12-5a15-11ea-8806-071036c30154,46,17,63,10,1.0,1.0,0
run-2020-2-28-10-32-47.983141899,AGENT#aa7dcb88-5a15-11ea-964f-935b33d043f0,45,18,63,10,1.0,1.0,0
run-2020-2-28-10-32-47.983141899,AGENT#aa86424a-5a15-11ea-8ada-1bb01fedcf80,45,19,64,10,1.0,1.0,0
run-2020-2-28-10-32-47.983141899,AGENT#abad9a10-5a15-11ea-9f49-0764cbb18a5b,5,59,64,10,1.0,1.0,0
run-2020-2-28-10-32-47.983141899,AGENT#abb3631e-5a15-11ea-9f52-dba398df5ad0,4,60,64,10,1.0,1.0,0
run-2020-2-28-10-32-47.983141899,AGENT#abcbb4c8-5a15-11ea-9f5c-cf8e0a089abd,1,63,64,10,1.0,1.0,0
run-2020-2-28-10-32-47.983141899,AGENT#abc3fe86-5a15-11ea-86a9-3b322ff342bc,3,62,65,10,1.0,1.0,0
run-2020-2-28-10-32-47.983141899,AGENT#abcbb84c-5a15-11ea-8137-33d0b330a7d7,2,63,65,10,1.0,1.0,0
run-2020-2-28-10-32-47.983141899,AGENT#abcbbb76-5a15-11ea-8bec-1f7c36dd00a3,2,63,65,10,1.0,1.0,0
run-2020-2-28-10-32-47.983141899,AGENT#aa944c8c-5a15-11ea-9673-ff31fdb07edf,45,21,66,10,1.0,1.0,0
run-2020-2-28-10-32-47.983141899,AGENT#aa94502e-5a15-11ea-8080-ef21535afbc4,45,21,66,10,1.0,1.0,0
run-2020-2-28-10-32-47.983141899,AGENT#abd21534-5a15-11ea-9900-eb6b35bf405a,2,64,66,10,1.0,1.0,0
run-2020-2-28-10-32-47.983141899,AGENT#abc3f7ec-5a15-11ea-9ca3-f357dd1d0aa6,5,62,67,10,1.0,1.0,0
run-2020-2-28-10-32-47.983141899,AGENT#abdd70f0-5a15-11ea-8d11-a7ec1265583d,1,66,67,10,1.0,1.0,0
run-2020-2-28-10-32-47.983141899,AGENT#aa9b2688-5a15-11ea-805c-6f9d349d3e6a,46,22,68,10,1.0,1.0,0
run-2020-2-28-10-32-47.983141899,AGENT#aaa3b5d2-5a15-11ea-b7f9-cb7303981692,45,23,68,10,1.0,1.0,0
run-2020-2-28-10-32-47.983141899,AGENT#ab6d9154-5a15-11ea-96f1-979bc8d5ad05,18,50,68,10,1.0,1.0,0
run-2020-2-28-10-32-47.983141899,AGENT#abd211ce-5a15-11ea-a16a-2b180349a418,4,64,68,10,1.0,1.0,0
run-2020-2-28-10-32-47.983141899,AGENT#abe4346c-5a15-11ea-ab20-5310c65f144f,2,67,69,10,1.0,1.0,0
run-2020-2-28-10-32-47.983141899,AGENT#abe43a8e-5a15-11ea-9de0-67f91f44bc97,2,67,69,10,1.0,1.0,0
run-2020-2-28-10-32-47.983141899,AGENT#aab1e6ac-5a15-11ea-853e-8bbc06dd3cfe,45,25,70,10,1.0,1.0,0
run-2020-2-28-10-32-47.983141899,AGENT#abe43124-5a15-11ea-983e-dbe80b047eab,3,67,70,10,1.0,1.0,0
run-2020-2-28-10-32-47.983141899,AGENT#ab7d018e-5a15-11ea-a043-1f635adcf3cc,19,52,71,10,1.0,1.0,0
run-2020-2-28-10-32-47.983141899,AGENT#abe4375a-5a15-11ea-81dd-872779da5b67,4,67,71,10,1.0,1.0,0
run-2020-2-28-10-32-47.983141899,AGENT#ac05d914-5a15-11ea-baab-1f1904d711a9,2,70,72,10,1.0,1.0,0
run-2020-2-28-10-32-47.983141899,AGENT#ab95ab94-5a15-11ea-a1ed-0765d0617bc1,17,56,73,10,1.0,1.0,0
run-2020-2-28-10-32-47.983141899,AGENT#abf14e22-5a15-11ea-9253-3b5f68b47be6,5,68,73,10,1.0,1.0,0
run-2020-2-28-10-32-47.983141899,AGENT#ac136106-5a15-11ea-9b2b-0ffdfa119a70,1,72,73,10,1.0,1.0,0
run-2020-2-28-10-32-47.983141899,AGENT#aab1e3c8-5a15-11ea-a95a-7f9fe8f9005b,49,25,74,10,1.0,1.0,0
run-2020-2-28-10-32-47.983141899,AGENT#aacc3d22-5a15-11ea-8522-cfe996f05487,46,28,74,10,1.0,1.0,0
run-2020-2-28-10-32-47.983141899,AGENT#ac05de78-5a15-11ea-8a4c-0f0851c274dc,4,70,74,10,1.0,1.0,0
run-2020-2-28-10-32-47.983141899,AGENT#ac19995e-5a15-11ea-8754-afb32320b08f,1,73,74,10,1.0,1.0,0
run-2020-2-28-10-32-47.983141899,AGENT#aab892ae-5a15-11ea-90ae-938d402a1c8e,49,26,75,10,1.0,1.0,0
run-2020-2-28-10-32-47.983141899,AGENT#aad59d40-5a15-11ea-971e-375d02f10b19,46,29,75,10,1.0,1.0,0
run-2020-2-28-10-32-47.983141899,AGENT#aadc0d56-5a15-11ea-903d-4b00251ba183,45,30,75,10,1.0,1.0,0
run-2020-2-28-10-32-47.983141899,AGENT#aae75832-5a15-11ea-b889-9bc3fd81e219,43,32,75,10,1.0,1.0,0
run-2020-2-28-10-32-47.983141899,AGENT#ac199076-5a15-11ea-bbd7-371e411f9833,2,73,75,10,1.0,1.0,0
run-2020-2-28-10-32-47.983141899,AGENT#aae16ad0-5a15-11ea-8a3b-a3460b8dbf60,45,31,76,10,1.0,1.0,0
run-2020-2-28-10-32-47.983141899,AGENT#ac0d9c12-5a15-11ea-8547-e35f9b637bb4,5,71,76,10,1.0,1.0,0
run-2020-2-28-10-32-47.983141899,AGENT#ac3007c0-5a15-11ea-af58-af61b070de7b,2,75,77,10,1.0,1.0,0
run-2020-2-28-10-32-47.983141899,AGENT#aae754cc-5a15-11ea-a6c1-0bf0f5c77c21,46,32,78,10,1.0,1.0,0
run-2020-2-28-10-32-47.983141899,AGENT#aaf240d0-5a15-11ea-b9ab-7b1b7351d1bd,45,33,78,10,1.0,1.0,0
run-2020-2-28-10-32-47.983141899,AGENT#aaf24de6-5a15-11ea-8483-7ba6bf02f748,45,33,78,10,1.0,1.0,0
run-2020-2-28-10-32-47.983141899,AGENT#ac300b94-5a15-11ea-bc6b-bf1d972ca0ad,3,75,78,10,1.0,1.0,0
run-2020-2-28-10-32-47.983141899,AGENT#ac382748-5a15-11ea-910c-9b7002431dff,2,76,78,10,1.0,1.0,0
run-2020-2-28-10-32-47.983141899,AGENT#ac300eb4-5a15-11ea-9e0f-cfa4953ce96f,4,75,79,10,1.0,1.0,0
run-2020-2-28-10-32-47.983141899,AGENT#aaf24ac6-5a15-11ea-b39e-bfba4d329f87,47,33,80,10,1.0,1.0,0
run-2020-2-28-10-32-47.983141899,AGENT#ab00e752-5a15-11ea-992c-bffabacd19c5,45,35,80,10,1.0,1.0,0
run-2020-2-28-10-32-47.983141899,AGENT#ac381f28-5a15-11ea-8b55-97b821489b9b,4,76,80,10,1.0,1.0,0
run-2020-2-28-10-32-47.983141899,AGENT#ac382fcc-5a15-11ea-aa64-07b19616036d,4,76,80,10,1.0,1.0,0
run-2020-2-28-10-32-47.983141899,AGENT#ac4c2fc2-5a15-11ea-9dfa-97a82e50b491,1,79,80,10,1.0,1.0,0
run-2020-2-28-10-32-47.983141899,AGENT#aaf24472-5a15-11ea-a8ca-0f61213cf665,48,33,81,10,1.0,1.0,0
run-2020-2-28-10-32-47.983141899,AGENT#ac45a72e-5a15-11ea-9681-bfab4f1766e7,3,78,81,10,1.0,1.0,0
run-2020-2-28-10-32-47.983141899,AGENT#ac45b2be-5a15-11ea-ab6c-73b751037a69,3,78,81,10,1.0,1.0,0
run-2020-2-28-10-32-47.983141899,AGENT#ac45b7e6-5a15-11ea-b6eb-4fa7dbad30ef,3,78,81,10,1.0,1.0,0
run-2020-2-28-10-32-47.983141899,AGENT#ac591f20-5a15-11ea-ade3-1772e0dbfd28,1,80,81,10,1.0,1.0,0
run-2020-2-28-10-32-47.983141899,AGENT#ac45aa8a-5a15-11ea-9dea-0310c1372a80,4,78,82,10,1.0,1.0,0
run-2020-2-28-10-32-47.983141899,AGENT#ac45ad50-5a15-11ea-91dd-a3be6d1126bf,4,78,82,10,1.0,1.0,0
run-2020-2-28-10-32-47.983141899,AGENT#ac45b55c-5a15-11ea-baa3-abf7f2742fea,4,78,82,10,1.0,1.0,0
run-2020-2-28-10-32-47.983141899,AGENT#ac4c3616-5a15-11ea-a22d-57b7e6e28a2d,3,79,82,10,1.0,1.0,0
run-2020-2-28-10-32-47.983141899,AGENT#ac4c3bb6-5a15-11ea-86c2-6be783fe8a7c,3,79,82,10,1.0,1.0,0
run-2020-2-28-10-32-47.983141899,AGENT#ac62cf8e-5a15-11ea-a028-0f0946dbcdad,1,81,82,10,1.0,1.0,0
run-2020-2-28-10-32-47.983141899,AGENT#ac4c330a-5a15-11ea-b554-bf23dc42179d,4,79,83,10,1.0,1.0,0
run-2020-2-28-10-32-47.983141899,AGENT#ac4c38dc-5a15-11ea-9086-ff3a15c57a3e,4,79,83,10,1.0,1.0,0
run-2020-2-28-10-32-47.983141899,AGENT#ac6c54e6-5a15-11ea-8349-fbec7f62b37a,1,82,83,10,1.0,1.0,0
run-2020-2-28-10-32-47.983141899,AGENT#aae75dfa-5a15-11ea-af29-4b7b396ef912,52,32,84,10,1.0,1.0,0
run-2020-2-28-10-32-47.983141899,AGENT#ac6c518a-5a15-11ea-9110-fb04f5766155,2,82,84,10,1.0,1.0,0
run-2020-2-28-10-32-47.983141899,AGENT#ac6c5f04-5a15-11ea-925c-e7b2fff0752f,2,82,84,10,1.0,1.0,0
run-2020-2-28-10-32-47.983141899,AGENT#abada5be-5a15-11ea-b13e-0feb98e87aa2,26,59,85,10,1.0,1.0,0
run-2020-2-28-10-32-47.983141899,AGENT#abfb1858-5a15-11ea-b618-fb4084db7a6d,16,69,85,10,1.0,1.0,0
run-2020-2-28-10-32-47.983141899,AGENT#ac62d57e-5a15-11ea-a103-97822508ba44,4,81,85,10,1.0,1.0,0
run-2020-2-28-10-32-47.983141899,AGENT#ac6c5b94-5a15-11ea-a601-5bcf6026a600,3,82,85,10,1.0,1.0,0
run-2020-2-28-10-32-47.983141899,AGENT#ac7b5630-5a15-11ea-af9a-b7e7f0f34b80,1,84,85,10,1.0,1.0,0
run-2020-2-28-10-32-47.983141899,AGENT#aae750ee-5a15-11ea-b823-d78a5f97716a,54,32,86,10,1.0,1.0,0
run-2020-2-28-10-32-47.983141899,AGENT#ac6c4e06-5a15-11ea-9905-079ddc734225,4,82,86,10,1.0,1.0,0
run-2020-2-28-10-32-47.983141899,AGENT#ac725dfa-5a15-11ea-8275-2fc8b399971b,3,83,86,10,1.0,1.0,0
run-2020-2-28-10-32-47.983141899,AGENT#ac7b4e88-5a15-11ea-a34f-47d1fc076566,2,84,86,10,1.0,1.0,0
run-2020-2-28-10-32-47.983141899,AGENT#aae75b02-5a15-11ea-b534-7f8fb5c45f38,55,32,87,10,1.0,1.0,0
run-2020-2-28-10-32-47.983141899,AGENT#ac84b478-5a15-11ea-a586-4f8ccaeaa034,2,85,87,10,1.0,1.0,0
run-2020-2-28-10-32-47.983141899,AGENT#ac959f90-5a15-11ea-8031-db2e3deafabd,1,86,87,10,1.0,1.0,0
run-2020-2-28-10-32-47.983141899,AGENT#ac95a738-5a15-11ea-98cb-67dbe0d3e765,1,86,87,10,1.0,1.0,0
run-2020-2-28-10-32-47.983141899,AGENT#ac95ad8c-5a15-11ea-869f-1fa5fa05e8de,1,86,87,10,1.0,1.0,0
run-2020-2-28-10-32-47.983141899,AGENT#ac95b5fc-5a15-11ea-895e-9715505b0d12,1,86,87,10,1.0,1.0,0
run-2020-2-28-10-32-47.983141899,AGENT#ab3c5878-5a15-11ea-a383-d7c09dac7154,45,43,88,10,1.0,1.0,0
run-2020-2-28-10-32-47.983141899,AGENT#ac45afee-5a15-11ea-9e1b-af7af5d11307,10,78,88,10,1.0,1.0,0
run-2020-2-28-10-32-47.983141899,AGENT#ac84ba86-5a15-11ea-86bb-4f04fea5357a,3,85,88,10,1.0,1.0,0
run-2020-2-28-10-32-47.983141899,AGENT#aca3fd60-5a15-11ea-8189-d786c48ceb10,1,87,88,10,1.0,1.0,0
run-2020-2-28-10-32-47.983141899,AGENT#ac3fa41e-5a15-11ea-83e4-3b5638d785bf,12,77,89,10,1.0,1.0,0
run-2020-2-28-10-32-47.983141899,AGENT#ac84b0b8-5a15-11ea-878c-0bdafc4dc6b3,4,85,89,10,1.0,1.0,0
run-2020-2-28-10-32-47.983141899,AGENT#acad8bd2-5a15-11ea-a29d-2f502ca94996,1,88,89,10,1.0,1.0,0
run-2020-2-28-10-32-47.983141899,AGENT#acad95e6-5a15-11ea-a487-637bc7ddffc9,1,88,89,10,1.0,1.0,0
run-2020-2-28-10-32-47.983141899,AGENT#ab3c5bca-5a15-11ea-af4b-2306c5a1afb8,47,43,90,10,1.0,1.0,0
run-2020-2-28-10-32-47.983141899,AGENT#ab4895a2-5a15-11ea-8ad3-8fb1223d685e,45,45,90,10,1.0,1.0,0
run-2020-2-28-10-32-47.983141899,AGENT#abb36030-5a15-11ea-8dc5-3b80aa80fba1,30,60,90,10,1.0,1.0,0
run-2020-2-28-10-32-47.983141899,AGENT#ac84b798-5a15-11ea-827f-e3a2d0fb1a27,5,85,90,10,1.0,1.0,0
run-2020-2-28-10-32-47.983141899,AGENT#ac95b1d8-5a15-11ea-9013-c7254ef5d982,4,86,90,10,1.0,1.0,0
run-2020-2-28-10-32-47.983141899,AGENT#aca410e8-5a15-11ea-91f2-bf0c19941c87,3,87,90,10,1.0,1.0,0
run-2020-2-28-10-32-47.983141899,AGENT#acad92bc-5a15-11ea-92a1-476ff4e64285,2,88,90,10,1.0,1.0,0
run-2020-2-28-10-32-47.983141899,AGENT#ab1bb79e-5a15-11ea-b8d3-03881b3754e7,52,39,91,10,1.0,1.0,0
run-2020-2-28-10-32-47.983141899,AGENT#ab489034-5a15-11ea-b70b-cf59ff1772c2,46,45,91,10,1.0,1.0,0
run-2020-2-28-10-32-47.983141899,AGENT#acb50506-5a15-11ea-8a3b-bf29855d691e,2,89,91,10,1.0,1.0,0
run-2020-2-28-10-32-47.983141899,AGENT#acbb030c-5a15-11ea-942d-6341ff06bacc,1,90,91,10,1.0,1.0,0
run-2020-2-28-10-32-47.983141899,AGENT#ab4e4bb4-5a15-11ea-9961-6b3f43b18097,46,46,92,10,1.0,1.0,0
run-2020-2-28-10-32-47.983141899,AGENT#ab583e26-5a15-11ea-9016-eb63a0880fb1,45,47,92,10,1.0,1.0,0
run-2020-2-28-10-32-47.983141899,AGENT#aca413fe-5a15-11ea-b981-cf160cc7eb19,5,87,92,10,1.0,1.0,0
run-2020-2-28-10-32-47.983141899,AGENT#acb4f8c2-5a15-11ea-bb72-6bf3c4b3dd76,3,89,92,10,1.0,1.0,0
run-2020-2-28-10-32-47.983141899,AGENT#acbb05b4-5a15-11ea-9c9b-abd292463ba0,2,90,92,10,1.0,1.0,0
run-2020-2-28-10-32-47.983141899,AGENT#acc1b468-5a15-11ea-a9dc-0f18db168030,1,91,92,10,1.0,1.0,0
run-2020-2-28-10-32-47.983141899,AGENT#acc1bd5a-5a15-11ea-8716-875fe35ba569,1,91,92,10,1.0,1.0,0
run-2020-2-28-10-32-47.983141899,AGENT#acbafcd6-5a15-11ea-9c75-ef2d122ef86f,3,90,93,10,1.0,1.0,0
run-2020-2-28-10-32-47.983141899,AGENT#acc1c5e8-5a15-11ea-93c4-5fc9e086d884,2,91,93,10,1.0,1.0,0
run-2020-2-28-10-32-47.983141899,AGENT#accf2878-5a15-11ea-af22-c7bddc2fee7e,1,92,93,10,1.0,1.0,0
run-2020-2-28-10-32-47.983141899,AGENT#ab48872e-5a15-11ea-96bc-db2c292c0b4a,49,45,94,10,1.0,1.0,0
run-2020-2-28-10-32-47.983141899,AGENT#acad87a4-5a15-11ea-837c-2782b36dc5e0,6,88,94,10,1.0,1.0,0
run-2020-2-28-10-32-47.983141899,AGENT#acb5011e-5a15-11ea-82ae-a323104e86c5,5,89,94,10,1.0,1.0,0
run-2020-2-28-10-32-47.983141899,AGENT#acc1ba6c-5a15-11ea-9aeb-277b42a4e50e,3,91,94,10,1.0,1.0,0
run-2020-2-28-10-32-47.983141899,AGENT#accf2e4a-5a15-11ea-a7a4-27675a5d09b7,2,92,94,10,1.0,1.0,0
run-2020-2-28-10-32-47.983141899,AGENT#acd9c080-5a15-11ea-bb08-fbb37b6dd057,1,93,94,10,1.0,1.0,0
run-2020-2-28-10-32-47.983141899,AGENT#acd9ca8a-5a15-11ea-a8c4-ab21c255b801,1,93,94,10,1.0,1.0,0
run-2020-2-28-10-32-47.983141899,AGENT#acd9cd78-5a15-11ea-8284-afe5ed29163f,1,93,94,10,1.0,1.0,0
run-2020-2-28-10-32-47.983141899,AGENT#ab6d8b1e-5a15-11ea-aae4-9ba00a0e9cf4,45,50,95,10,1.0,1.0,0
run-2020-2-28-10-32-47.983141899,AGENT#ac05ccee-5a15-11ea-afe7-df4c3c066b97,25,70,95,10,1.0,1.0,0
run-2020-2-28-10-32-47.983141899,AGENT#ace15af2-5a15-11ea-8c1d-f7d9b1a23d57,1,94,95,10,1.0,1.0,0
run-2020-2-28-10-32-47.983141899,AGENT#ace16222-5a15-11ea-a4a8-7b749bf32ad6,1,94,95,10,1.0,1.0,0
run-2020-2-28-10-32-47.983141899,AGENT#ab737466-5a15-11ea-b089-4fd108663879,45,51,96,10,1.0,1.0,0
run-2020-2-28-10-32-47.983141899,AGENT#ab737a06-5a15-11ea-981a-53ddb36ea4c9,45,51,96,10,1.0,1.0,0
run-2020-2-28-10-32-47.983141899,AGENT#ace15ee4-5a15-11ea-8d60-43a2aa1f80b8,2,94,96,10,1.0,1.0,0
run-2020-2-28-10-32-47.983141899,AGENT#ace16862-5a15-11ea-a5cd-bbddc1ab4302,2,94,96,10,1.0,1.0,0
run-2020-2-28-10-32-47.983141899,AGENT#ab4e48c6-5a15-11ea-8140-ff00089a41ee,51,46,97,10,1.0,1.0,0
run-2020-2-28-10-32-47.983141899,AGENT#ac7260f2-5a15-11ea-86da-5f205a00f04e,14,83,97,10,1.0,1.0,0
run-2020-2-28-10-32-47.983141899,AGENT#acb4fe4e-5a15-11ea-a857-ab6c1c83b167,8,89,97,10,1.0,1.0,0
run-2020-2-28-10-32-47.983141899,AGENT#acd9c7a6-5a15-11ea-a3cb-b7e997966ecb,4,93,97,10,1.0,1.0,0
run-2020-2-28-10-32-47.983141899,AGENT#ace1654c-5a15-11ea-b99d-67d47fe7e241,3,94,97,10,1.0,1.0,0
run-2020-2-28-10-32-47.983141899,AGENT#acee066c-5a15-11ea-b278-cf05ddd1e31b,1,96,97,10,1.0,1.0,0
run-2020-2-28-10-32-47.983141899,AGENT#ab7cf1bc-5a15-11ea-a5cf-bfe0d168e413,46,52,98,10,1.0,1.0,0
run-2020-2-28-10-32-47.983141899,AGENT#acee004a-5a15-11ea-867f-ef598fa1913a,2,96,98,10,1.0,1.0,0
run-2020-2-28-10-32-47.983141899,AGENT#acf4702e-5a15-11ea-8ad2-438efd048f3c,1,97,98,10,1.0,1.0,0
run-2020-2-28-10-32-47.983141899,AGENT#acf476f0-5a15-11ea-8989-0f7dd2c5c927,1,97,98,10,1.0,1.0,0
run-2020-2-28-10-32-47.983141899,AGENT#acf47a06-5a15-11ea-a96a-337ff4781d04,1,97,98,10,1.0,1.0,0
run-2020-2-28-10-32-47.983141899,AGENT#abada2f8-5a15-11ea-89c8-6777c2318cc0,40,59,99,10,1.0,1.0,0
