Source,Target
d785a236-5254-11ea-8667-8fb1588dd709,d78668ec-5254-11ea-9d2a-371d67c21eae
d7863d4a-5254-11ea-9684-d7f580e1d4a7,d7867bca-5254-11ea-a7fb-c324a53f4b5f
d7867bca-5254-11ea-a7fb-c324a53f4b5f,d78683e0-5254-11ea-966e-5b6f4017f782
d785a236-5254-11ea-8667-8fb1588dd709,d7868d4a-5254-11ea-8bf6-37018f139053
d78668ec-5254-11ea-9d2a-371d67c21eae,d7869100-5254-11ea-b3f1-e735fb2d3ea6
d785de68-5254-11ea-86ca-37524ea96f5f,d78693f8-5254-11ea-8469-3f56a0e827af
d785c9dc-5254-11ea-b342-237836d88ce3,d7869dc6-5254-11ea-a09b-8b6353d09547
d78621ac-5254-11ea-a076-f38023c1c1f4,d786a7e4-5254-11ea-9174-2fb442a1bc2e
d7857e32-5254-11ea-9d8a-c32d4c0a0adc,d786b6c6-5254-11ea-90a7-f3f257759f5d
d785cc84-5254-11ea-bf92-b7ad4893fdb0,d786b9b4-5254-11ea-b74d-fb65b65c2fbe
d7853134-5254-11ea-8586-639f49a05d45,d786c0f8-5254-11ea-b32c-cfb7f05d9deb
d785919c-5254-11ea-bf55-8376dac2a7ea,d786caa8-5254-11ea-8920-8bcd5aa2e551
d7869dc6-5254-11ea-a09b-8b6353d09547,d786d23c-5254-11ea-8753-230e99fe0ea7
d784a28c-5254-11ea-a015-eb75e6e951a2,d786d584-5254-11ea-9e98-4fb06edb1887
d786a7e4-5254-11ea-9174-2fb442a1bc2e,d786db1a-5254-11ea-8aac-83f50b46473c
d786119e-5254-11ea-b74c-2fb699a2b11a,d786e966-5254-11ea-8ec3-a76c4f888d9c
d7864074-5254-11ea-bd9b-d7e8c2f76cb7,d786f71c-5254-11ea-ba94-9fee80611083
d78624c2-5254-11ea-8823-134bd4cdb72b,d786fe38-5254-11ea-a637-b3f12ada0d5f
d78653de-5254-11ea-832b-27f0c8363c8b,d787011c-5254-11ea-bbc6-b768250c1c3e
d78566a4-5254-11ea-bcae-536722abe877,d7870a40-5254-11ea-a951-b3ad8e774fba
d78683e0-5254-11ea-966e-5b6f4017f782,d78716e8-5254-11ea-a235-4bacb622d70f
d7864d9e-5254-11ea-a7b9-1bbd05d0d937,d7872200-5254-11ea-9fdf-174a030be980
d784f7d2-5254-11ea-9bcd-a361183e48c4,d787296c-5254-11ea-871e-53b086ca74c3
d7867bca-5254-11ea-a7fb-c324a53f4b5f,d78733d0-5254-11ea-a795-67194584eb88
d78683e0-5254-11ea-966e-5b6f4017f782,d7873b14-5254-11ea-869d-67a3bb22ec66
d78537c4-5254-11ea-b14a-6bb7e1df3fe4,d7874320-5254-11ea-b574-875408ceeca0
d7853134-5254-11ea-8586-639f49a05d45,d787483e-5254-11ea-89ea-8b252310e1ac
d7872200-5254-11ea-9fdf-174a030be980,d7874bf4-5254-11ea-a07c-e7ec23aaecf4
d78502e0-5254-11ea-8ba8-bf97fd5d2984,d7875856-5254-11ea-9f18-bf7ba8cd5c75
d786b9b4-5254-11ea-b74d-fb65b65c2fbe,d7876080-5254-11ea-848b-bf381adfc9b4
d78653de-5254-11ea-832b-27f0c8363c8b,d7876ba2-5254-11ea-9576-73d39b9974d7
d78502e0-5254-11ea-8ba8-bf97fd5d2984,d7877502-5254-11ea-b2b9-3fb963d6cbd4
d7873b14-5254-11ea-869d-67a3bb22ec66,d7877bf6-5254-11ea-b85b-cb51df2ef829
d7854818-5254-11ea-995a-a3393a355652,d78781d2-5254-11ea-b78c-f7d59022f9d5
d787296c-5254-11ea-871e-53b086ca74c3,d7879172-5254-11ea-a3f9-27e447ed73f2
d78668ec-5254-11ea-9d2a-371d67c21eae,d78794a6-5254-11ea-9a19-7bdee2c77f5f
d7869100-5254-11ea-b3f1-e735fb2d3ea6,d78797ee-5254-11ea-82e1-af456c74b421
d7865708-5254-11ea-8ade-c70394d7aad5,d7879f82-5254-11ea-80e0-07f18705fc64
d786db1a-5254-11ea-8aac-83f50b46473c,d787b134-5254-11ea-a9c9-df555c378195
d7879f82-5254-11ea-80e0-07f18705fc64,d787b8dc-5254-11ea-aadc-4338980d93ee
d786f71c-5254-11ea-ba94-9fee80611083,d787d074-5254-11ea-be2b-3f3bf568887a
d7869dc6-5254-11ea-a09b-8b6353d09547,d787d5ce-5254-11ea-8e1c-b7bf9cdee1b9
d78607d0-5254-11ea-a184-c368c6ccb78d,d787dace-5254-11ea-887c-c33adc14d775
d7850af6-5254-11ea-8d9d-4b14180016b6,d787dfce-5254-11ea-a4b8-cb471d60f970
d787d074-5254-11ea-be2b-3f3bf568887a,d787f2b6-5254-11ea-b01b-239e21e92cca
d7853134-5254-11ea-8586-639f49a05d45,d787f720-5254-11ea-90cc-cf23bca10a8b
d7863782-5254-11ea-aabd-135a7009457f,d7880e36-5254-11ea-a57b-638fcd221d1a
d7863782-5254-11ea-aabd-135a7009457f,d7881336-5254-11ea-b8cd-a74dc0691777
d7853cba-5254-11ea-a040-77a27d3e1485,d78817a0-5254-11ea-a4b0-cf3131e7eae1
d784b3b2-5254-11ea-920b-97153d8ff5a9,d7881b92-5254-11ea-9ebf-cb0cead465df
d7875856-5254-11ea-9f18-bf7ba8cd5c75,d7881ee4-5254-11ea-9b37-d7f69725bc99
d78668ec-5254-11ea-9d2a-371d67c21eae,d78821f0-5254-11ea-8cc4-935dd5c52dcb
d7865708-5254-11ea-8ade-c70394d7aad5,d7882c22-5254-11ea-856d-63389c1c4c67
d7853134-5254-11ea-8586-639f49a05d45,d78834e2-5254-11ea-b5c7-cfd7506039d9
d787dfce-5254-11ea-a4b8-cb471d60f970,d7884e46-5254-11ea-940c-bbff0d2518d9
d785adc6-5254-11ea-b226-9bd887bac0ff,d7885f6c-5254-11ea-a80c-2b738d3b5a3d
d7850af6-5254-11ea-8d9d-4b14180016b6,d78863fe-5254-11ea-881b-8b9b21816ed8
d784a28c-5254-11ea-a015-eb75e6e951a2,d7887696-5254-11ea-95b7-af5fa20743ee
d787d5ce-5254-11ea-8e1c-b7bf9cdee1b9,d7888370-5254-11ea-be1b-677b1a9f62f9
d7858102-5254-11ea-9b6a-dbbdde2ec61f,d788982e-5254-11ea-8c39-476155fcd26d
d784ec7e-5254-11ea-80a0-9f5f129db2eb,d7889ad6-5254-11ea-9c30-2391bad4ade2
d7847226-5254-11ea-986e-3f8289bdccfb,d7889f86-5254-11ea-9d06-ffb6e2a32123
d78607d0-5254-11ea-a184-c368c6ccb78d,d788aab2-5254-11ea-9d00-8b77fd385c36
d786d23c-5254-11ea-8753-230e99fe0ea7,d788b8b8-5254-11ea-837c-4fae4e5ce147
d786b6c6-5254-11ea-90a7-f3f257759f5d,d788c3e4-5254-11ea-b775-13800fda68cc
d7889ad6-5254-11ea-9c30-2391bad4ade2,d788e07c-5254-11ea-a0c8-33afbe58012d
d7850af6-5254-11ea-8d9d-4b14180016b6,d788ee64-5254-11ea-8a01-a7dc8ef31846
d786119e-5254-11ea-b74c-2fb699a2b11a,d788ebbc-5254-11ea-8d2e-af5ea5db84c1
d7880e36-5254-11ea-a57b-638fcd221d1a,d788e838-5254-11ea-9cd7-c7af9d150e99
d787f2b6-5254-11ea-b01b-239e21e92cca,d788f21a-5254-11ea-9b38-7b39c70eae8d
d787296c-5254-11ea-871e-53b086ca74c3,d788e4c8-5254-11ea-9334-0b2fa984a0e7
d7879172-5254-11ea-a3f9-27e447ed73f2,d788fb66-5254-11ea-aa83-8fdcfe246205
d7875856-5254-11ea-9f18-bf7ba8cd5c75,d788fee0-5254-11ea-a880-874f0c361ffb
d7857afe-5254-11ea-890b-d3dfc44a32f9,d7892e56-5254-11ea-9ef1-432c822c3aef
d788ee64-5254-11ea-8a01-a7dc8ef31846,d7893202-5254-11ea-a6ec-fbefae0a7af9
d7884e46-5254-11ea-940c-bbff0d2518d9,d78938d8-5254-11ea-861a-9f00a28f0784
d7881b92-5254-11ea-9ebf-cb0cead465df,d7893e50-5254-11ea-8b7d-03af56c1a1c1
d78566a4-5254-11ea-bcae-536722abe877,d789431e-5254-11ea-8d64-7f47585d19d3
d7853134-5254-11ea-8586-639f49a05d45,d78946a2-5254-11ea-ab57-234a6f146e47
d787dfce-5254-11ea-a4b8-cb471d60f970,d7896542-5254-11ea-8725-b71c6a22559f
d787296c-5254-11ea-871e-53b086ca74c3,d7896e3e-5254-11ea-bf93-4fd4dcb2893d
d7879172-5254-11ea-a3f9-27e447ed73f2,d78977c6-5254-11ea-a0a5-e788072c55bf
d785a236-5254-11ea-8667-8fb1588dd709,d7897d70-5254-11ea-b1b4-9729763dfb15
d7852df6-5254-11ea-b7f0-4bd66dedbc8a,d7897a96-5254-11ea-a32f-77fe1744c30f
d7857e32-5254-11ea-9d8a-c32d4c0a0adc,d7898806-5254-11ea-ac5e-3f8c4bd54da5
d7857afe-5254-11ea-890b-d3dfc44a32f9,d7898b76-5254-11ea-9a4c-4330ceb36f41
d7854d7c-5254-11ea-baa0-23f7e9105fc4,d789a368-5254-11ea-8b02-4ba2cacedd5d
d784b3b2-5254-11ea-920b-97153d8ff5a9,d789b740-5254-11ea-aa3b-cf37e45ca272
d786e966-5254-11ea-8ec3-a76c4f888d9c,d789c4ce-5254-11ea-bd41-77b582f134ee
d7858102-5254-11ea-9b6a-dbbdde2ec61f,d789cd34-5254-11ea-bba9-f3aa2f0ba149
d789c4ce-5254-11ea-bd41-77b582f134ee,d789c87a-5254-11ea-a0ec-0f10e96e8147
d788ee64-5254-11ea-8a01-a7dc8ef31846,d789d16c-5254-11ea-833c-633631e994ab
d789cd34-5254-11ea-bba9-f3aa2f0ba149,d789d4be-5254-11ea-ad91-d3153ae521ac
d784b3b2-5254-11ea-920b-97153d8ff5a9,d789e3be-5254-11ea-9a0d-a3f716251e9a
