RunID,Tick,AllAgents,Active,Inactive
run-2020-2-18-13-44-53.88895893,0,12,11,1
run-2020-2-18-13-44-53.88895893,1,15,14,1
run-2020-2-18-13-44-53.88895893,2,18,15,3
run-2020-2-18-13-44-53.88895893,3,22,17,5
run-2020-2-18-13-44-53.88895893,4,22,14,8
run-2020-2-18-13-44-53.88895893,5,23,11,12
run-2020-2-18-13-44-53.88895893,6,25,12,13
run-2020-2-18-13-44-53.88895893,7,27,14,13
run-2020-2-18-13-44-53.88895893,8,28,12,16
run-2020-2-18-13-44-53.88895893,9,32,16,16
run-2020-2-18-13-44-53.88895893,10,39,22,17
run-2020-2-18-13-44-53.88895893,11,39,19,20
run-2020-2-18-13-44-53.88895893,12,44,23,21
run-2020-2-18-13-44-53.88895893,13,49,22,27
run-2020-2-18-13-44-53.88895893,14,54,25,29
run-2020-2-18-13-44-53.88895893,15,58,27,31
run-2020-2-18-13-44-53.88895893,16,64,31,33
run-2020-2-18-13-44-53.88895893,17,66,29,37
run-2020-2-18-13-44-53.88895893,18,66,23,43
run-2020-2-18-13-44-53.88895893,19,71,27,44
run-2020-2-18-13-44-53.88895893,20,73,26,47
run-2020-2-18-13-44-53.88895893,21,80,31,49
run-2020-2-18-13-44-53.88895893,22,83,31,52
run-2020-2-18-13-44-53.88895893,23,87,34,53
run-2020-2-18-13-44-53.88895893,24,88,33,55
run-2020-2-18-13-44-53.88895893,25,95,37,58
run-2020-2-18-13-44-53.88895893,26,96,33,63
run-2020-2-18-13-44-53.88895893,27,101,36,65
run-2020-2-18-13-44-53.88895893,28,107,39,68
run-2020-2-18-13-44-53.88895893,29,110,39,71
run-2020-2-18-13-44-53.88895893,30,117,43,74
run-2020-2-18-13-44-53.88895893,31,120,43,77
run-2020-2-18-13-44-53.88895893,32,121,38,83
run-2020-2-18-13-44-53.88895893,33,123,37,86
run-2020-2-18-13-44-53.88895893,34,127,39,88
run-2020-2-18-13-44-53.88895893,35,130,42,88
run-2020-2-18-13-44-53.88895893,36,136,46,90
run-2020-2-18-13-44-53.88895893,37,141,48,93
run-2020-2-18-13-44-53.88895893,38,142,44,98
run-2020-2-18-13-44-53.88895893,39,146,44,102
run-2020-2-18-13-44-53.88895893,40,148,45,103
run-2020-2-18-13-44-53.88895893,41,151,45,106
run-2020-2-18-13-44-53.88895893,42,156,48,108
run-2020-2-18-13-44-53.88895893,43,163,51,112
run-2020-2-18-13-44-53.88895893,44,169,52,117
run-2020-2-18-13-44-53.88895893,45,172,48,124
run-2020-2-18-13-44-53.88895893,46,177,50,127
run-2020-2-18-13-44-53.88895893,47,179,51,128
run-2020-2-18-13-44-53.88895893,48,181,44,137
run-2020-2-18-13-44-53.88895893,49,182,43,139
run-2020-2-18-13-44-53.88895893,50,184,40,144
run-2020-2-18-13-44-53.88895893,51,189,39,150
run-2020-2-18-13-44-53.88895893,52,192,40,152
run-2020-2-18-13-44-53.88895893,53,196,41,155
run-2020-2-18-13-44-53.88895893,54,199,41,158
run-2020-2-18-13-44-53.88895893,55,199,38,161
run-2020-2-18-13-44-53.88895893,56,204,36,168
run-2020-2-18-13-44-53.88895893,57,210,39,171
run-2020-2-18-13-44-53.88895893,58,214,40,174
run-2020-2-18-13-44-53.88895893,59,218,42,176
run-2020-2-18-13-44-53.88895893,60,219,38,181
run-2020-2-18-13-44-53.88895893,61,223,38,185
run-2020-2-18-13-44-53.88895893,62,226,38,188
run-2020-2-18-13-44-53.88895893,63,228,37,191
run-2020-2-18-13-44-53.88895893,64,229,34,195
run-2020-2-18-13-44-53.88895893,65,232,35,197
run-2020-2-18-13-44-53.88895893,66,240,41,199
run-2020-2-18-13-44-53.88895893,67,241,37,204
run-2020-2-18-13-44-53.88895893,68,244,39,205
run-2020-2-18-13-44-53.88895893,69,251,42,209
run-2020-2-18-13-44-53.88895893,70,252,37,215
run-2020-2-18-13-44-53.88895893,71,258,40,218
run-2020-2-18-13-44-53.88895893,72,261,39,222
run-2020-2-18-13-44-53.88895893,73,264,40,224
run-2020-2-18-13-44-53.88895893,74,268,39,229
run-2020-2-18-13-44-53.88895893,75,275,46,229
run-2020-2-18-13-44-53.88895893,76,278,44,234
run-2020-2-18-13-44-53.88895893,77,280,41,239
run-2020-2-18-13-44-53.88895893,78,284,41,243
run-2020-2-18-13-44-53.88895893,79,288,42,246
run-2020-2-18-13-44-53.88895893,80,292,40,252
run-2020-2-18-13-44-53.88895893,81,296,41,255
run-2020-2-18-13-44-53.88895893,82,297,39,258
run-2020-2-18-13-44-53.88895893,83,303,44,259
run-2020-2-18-13-44-53.88895893,84,307,42,265
run-2020-2-18-13-44-53.88895893,85,307,37,270
run-2020-2-18-13-44-53.88895893,86,311,40,271
run-2020-2-18-13-44-53.88895893,87,313,40,273
run-2020-2-18-13-44-53.88895893,88,317,42,275
run-2020-2-18-13-44-53.88895893,89,321,46,275
run-2020-2-18-13-44-53.88895893,90,326,49,277
run-2020-2-18-13-44-53.88895893,91,330,51,279
run-2020-2-18-13-44-53.88895893,92,338,54,284
run-2020-2-18-13-44-53.88895893,93,341,48,293
run-2020-2-18-13-44-53.88895893,94,345,47,298
run-2020-2-18-13-44-53.88895893,95,347,48,299
run-2020-2-18-13-44-53.88895893,96,348,46,302
run-2020-2-18-13-44-53.88895893,97,349,46,303
run-2020-2-18-13-44-53.88895893,98,350,45,305
run-2020-2-18-13-44-53.88895893,99,352,46,306
