RunID,Tick,ActiveAgentsPerTick
run-2020-2-18-13-46-45.083302974,0,15
run-2020-2-18-13-46-45.083302974,1,18
run-2020-2-18-13-46-45.083302974,2,16
run-2020-2-18-13-46-45.083302974,3,16
run-2020-2-18-13-46-45.083302974,4,21
run-2020-2-18-13-46-45.083302974,5,24
run-2020-2-18-13-46-45.083302974,6,28
run-2020-2-18-13-46-45.083302974,7,27
run-2020-2-18-13-46-45.083302974,8,26
run-2020-2-18-13-46-45.083302974,9,23
run-2020-2-18-13-46-45.083302974,10,26
run-2020-2-18-13-46-45.083302974,11,28
run-2020-2-18-13-46-45.083302974,12,28
run-2020-2-18-13-46-45.083302974,13,31
run-2020-2-18-13-46-45.083302974,14,34
run-2020-2-18-13-46-45.083302974,15,38
run-2020-2-18-13-46-45.083302974,16,41
run-2020-2-18-13-46-45.083302974,17,41
run-2020-2-18-13-46-45.083302974,18,38
run-2020-2-18-13-46-45.083302974,19,40
run-2020-2-18-13-46-45.083302974,20,38
run-2020-2-18-13-46-45.083302974,21,41
run-2020-2-18-13-46-45.083302974,22,45
run-2020-2-18-13-46-45.083302974,23,47
run-2020-2-18-13-46-45.083302974,24,45
run-2020-2-18-13-46-45.083302974,25,43
run-2020-2-18-13-46-45.083302974,26,45
run-2020-2-18-13-46-45.083302974,27,43
run-2020-2-18-13-46-45.083302974,28,45
run-2020-2-18-13-46-45.083302974,29,46
run-2020-2-18-13-46-45.083302974,30,52
run-2020-2-18-13-46-45.083302974,31,53
run-2020-2-18-13-46-45.083302974,32,54
run-2020-2-18-13-46-45.083302974,33,59
run-2020-2-18-13-46-45.083302974,34,62
run-2020-2-18-13-46-45.083302974,35,63
run-2020-2-18-13-46-45.083302974,36,62
run-2020-2-18-13-46-45.083302974,37,59
run-2020-2-18-13-46-45.083302974,38,59
run-2020-2-18-13-46-45.083302974,39,60
run-2020-2-18-13-46-45.083302974,40,59
run-2020-2-18-13-46-45.083302974,41,61
run-2020-2-18-13-46-45.083302974,42,65
run-2020-2-18-13-46-45.083302974,43,65
run-2020-2-18-13-46-45.083302974,44,71
run-2020-2-18-13-46-45.083302974,45,70
run-2020-2-18-13-46-45.083302974,46,67
run-2020-2-18-13-46-45.083302974,47,63
run-2020-2-18-13-46-45.083302974,48,60
run-2020-2-18-13-46-45.083302974,49,61
run-2020-2-18-13-46-45.083302974,50,60
run-2020-2-18-13-46-45.083302974,51,60
run-2020-2-18-13-46-45.083302974,52,59
run-2020-2-18-13-46-45.083302974,53,56
run-2020-2-18-13-46-45.083302974,54,61
run-2020-2-18-13-46-45.083302974,55,62
run-2020-2-18-13-46-45.083302974,56,65
run-2020-2-18-13-46-45.083302974,57,64
run-2020-2-18-13-46-45.083302974,58,64
run-2020-2-18-13-46-45.083302974,59,57
run-2020-2-18-13-46-45.083302974,60,56
run-2020-2-18-13-46-45.083302974,61,57
run-2020-2-18-13-46-45.083302974,62,56
run-2020-2-18-13-46-45.083302974,63,54
run-2020-2-18-13-46-45.083302974,64,55
run-2020-2-18-13-46-45.083302974,65,51
run-2020-2-18-13-46-45.083302974,66,54
run-2020-2-18-13-46-45.083302974,67,54
run-2020-2-18-13-46-45.083302974,68,52
run-2020-2-18-13-46-45.083302974,69,59
run-2020-2-18-13-46-45.083302974,70,56
run-2020-2-18-13-46-45.083302974,71,55
run-2020-2-18-13-46-45.083302974,72,50
run-2020-2-18-13-46-45.083302974,73,52
run-2020-2-18-13-46-45.083302974,74,52
run-2020-2-18-13-46-45.083302974,75,50
run-2020-2-18-13-46-45.083302974,76,50
run-2020-2-18-13-46-45.083302974,77,53
run-2020-2-18-13-46-45.083302974,78,55
run-2020-2-18-13-46-45.083302974,79,56
run-2020-2-18-13-46-45.083302974,80,62
run-2020-2-18-13-46-45.083302974,81,58
run-2020-2-18-13-46-45.083302974,82,55
run-2020-2-18-13-46-45.083302974,83,53
run-2020-2-18-13-46-45.083302974,84,49
run-2020-2-18-13-46-45.083302974,85,53
run-2020-2-18-13-46-45.083302974,86,54
run-2020-2-18-13-46-45.083302974,87,54
run-2020-2-18-13-46-45.083302974,88,52
run-2020-2-18-13-46-45.083302974,89,48
run-2020-2-18-13-46-45.083302974,90,50
run-2020-2-18-13-46-45.083302974,91,51
run-2020-2-18-13-46-45.083302974,92,53
run-2020-2-18-13-46-45.083302974,93,51
run-2020-2-18-13-46-45.083302974,94,50
run-2020-2-18-13-46-45.083302974,95,51
run-2020-2-18-13-46-45.083302974,96,53
run-2020-2-18-13-46-45.083302974,97,51
run-2020-2-18-13-46-45.083302974,98,50
run-2020-2-18-13-46-45.083302974,99,55
run-2020-2-18-13-46-45.083302974,100,48
