Source,Target
534c088c-5256-11ea-9aa0-bb850ef82940,534ccd8a-5256-11ea-991f-5b7a643ffb6a
534b9a50-5256-11ea-bc33-f7d8eaa1a9c2,534cef0e-5256-11ea-8f31-ff4ff57f2043
534b1af8-5256-11ea-b7d2-abf3f158ff54,534cfa6c-5256-11ea-9990-0b9987b1a634
534b6c92-5256-11ea-82be-97d1c7edb9dd,534d0624-5256-11ea-b098-73bacba02cb7
534aa2e4-5256-11ea-9549-d793b310c04b,534d11be-5256-11ea-b228-f7ce5a1d4807
534c013e-5256-11ea-9e01-77d26a9c28ea,534d184e-5256-11ea-920a-237be7e27299
534bbd82-5256-11ea-908f-d32a960b743c,534d1fce-5256-11ea-ba5c-07d6131ad6e0
534c5aee-5256-11ea-b1b7-6fdda5f9bcab,534d2604-5256-11ea-93b9-377bc1586705
534b9438-5256-11ea-96d6-235f48eafc70,534d2cd0-5256-11ea-becf-03f2f2f173ca
534d2604-5256-11ea-93b9-377bc1586705,534d3702-5256-11ea-b031-472c8b057f13
534c60ca-5256-11ea-9c33-6faa95d7fbf7,534d48be-5256-11ea-b3bb-5b76598c5c4a
534b0de2-5256-11ea-8971-dbb6719b4464,534d5746-5256-11ea-923a-7f07dd3cbd51
534c013e-5256-11ea-9e01-77d26a9c28ea,534d62d6-5256-11ea-8180-5f4728bd6c8a
534a9204-5256-11ea-92df-ffed56267640,534d6cea-5256-11ea-87c0-eb17fee1b425
534d3702-5256-11ea-b031-472c8b057f13,534d75fa-5256-11ea-8892-23242f3e2053
534ad016-5256-11ea-a438-2b7bce763e08,534d7e38-5256-11ea-9a03-8b909385ac53
534b0de2-5256-11ea-8971-dbb6719b4464,534d84e6-5256-11ea-97ad-2b12b20bb714
534b80ce-5256-11ea-a6d5-5f4930139aa1,534d8b12-5256-11ea-979a-7febff9a21c0
534b2ba6-5256-11ea-91e2-c740dcb2cb6a,534d990e-5256-11ea-aa35-d3d6aa0b54b7
534a9204-5256-11ea-92df-ffed56267640,534da2dc-5256-11ea-91ef-2bb34f59d43d
534b9438-5256-11ea-96d6-235f48eafc70,534db4b6-5256-11ea-8cdf-5b3f73e95554
534c9716-5256-11ea-9035-1f35edfe39f4,534dbccc-5256-11ea-ade9-fb40ad7f8189
534c43e2-5256-11ea-8b50-e7c06472e99e,534dc58c-5256-11ea-a7d1-abe6e1b50608
534d5746-5256-11ea-923a-7f07dd3cbd51,534dcbc2-5256-11ea-b0b6-9359357323d2
534c52d8-5256-11ea-91a8-ffc0a6e402a4,534dd61c-5256-11ea-9e91-dbb9e7e2fdf2
534cc178-5256-11ea-bbf8-e79c704e2fba,534ddf86-5256-11ea-9919-fb0a2437ad26
534c182c-5256-11ea-a617-dfd9df917b35,534de92c-5256-11ea-8744-4389b8feaeb0
534db4b6-5256-11ea-8cdf-5b3f73e95554,534df750-5256-11ea-ba1e-e7fca3e8c605
534c43e2-5256-11ea-8b50-e7c06472e99e,534e0114-5256-11ea-bd06-43991251bed1
534c39c4-5256-11ea-a3df-5f1c926cefca,534e0fc4-5256-11ea-88d6-57eef3afd682
534d75fa-5256-11ea-8892-23242f3e2053,534e164a-5256-11ea-b475-2f50b38bc4f1
534dcbc2-5256-11ea-b0b6-9359357323d2,534e20a4-5256-11ea-b103-bbb86128c07b
534bbd82-5256-11ea-908f-d32a960b743c,534e281a-5256-11ea-a130-43133d094e17
534c60ca-5256-11ea-9c33-6faa95d7fbf7,534e3bc0-5256-11ea-8bea-fbae60a1e48b
534e0fc4-5256-11ea-88d6-57eef3afd682,534e4200-5256-11ea-8cc4-2bfac7d14ac4
534c39c4-5256-11ea-a3df-5f1c926cefca,534e4d0e-5256-11ea-908f-d374255a90ed
534b2ba6-5256-11ea-91e2-c740dcb2cb6a,534e5902-5256-11ea-af8b-2f50f95c9dbb
534e4200-5256-11ea-8cc4-2bfac7d14ac4,534e6370-5256-11ea-b0db-e39f0f61ad8d
534b0de2-5256-11ea-8971-dbb6719b4464,534e69a6-5256-11ea-9af6-53a0e3166bf6
534db4b6-5256-11ea-8cdf-5b3f73e95554,534e77de-5256-11ea-bc8d-ab5ddb47ea7b
534cfa6c-5256-11ea-9990-0b9987b1a634,534e7f18-5256-11ea-8dfd-0fa1f666c4b8
534c60ca-5256-11ea-9c33-6faa95d7fbf7,534e8e9a-5256-11ea-82a0-a3a761bcc8be
534a8b06-5256-11ea-9094-b32076a02e54,534e94e4-5256-11ea-8e74-5b79f4a0b6d3
534e94e4-5256-11ea-8e74-5b79f4a0b6d3,534ea38a-5256-11ea-90ac-27876a039eb1
534bf3ba-5256-11ea-a348-effdebf81366,534ec7ca-5256-11ea-a56f-f38cae38db69
534ba02c-5256-11ea-9b03-734534991c2c,534ecf68-5256-11ea-a367-2b706f211177
534b24ee-5256-11ea-8018-27eebbf86961,534ed562-5256-11ea-ae79-d3797b476745
534aac08-5256-11ea-ac7d-47ad43a20056,534edcf6-5256-11ea-bc56-3fd0aa34e3f9
534b3542-5256-11ea-b194-7b4466cc26d3,534ee3c2-5256-11ea-9748-13ccec803ada
534edcf6-5256-11ea-bc56-3fd0aa34e3f9,534eeb38-5256-11ea-bf3d-f3881c0b26c9
534eeb38-5256-11ea-bf3d-f3881c0b26c9,534ef1dc-5256-11ea-b17b-6fac8f8b209e
534a9808-5256-11ea-bb1a-5bd5401f9d11,534ef808-5256-11ea-83ba-dbd3e4560ede
534ea38a-5256-11ea-90ac-27876a039eb1,534f096a-5256-11ea-aea5-9730b8e5b9b1
534b6c92-5256-11ea-82be-97d1c7edb9dd,534f2576-5256-11ea-b08d-4fa0044be7ec
534e8e9a-5256-11ea-82a0-a3a761bcc8be,534f2e18-5256-11ea-a268-cf247d1a8e82
534c088c-5256-11ea-9aa0-bb850ef82940,534f3494-5256-11ea-8d6a-473facb0e12e
534c088c-5256-11ea-9aa0-bb850ef82940,534f3bd8-5256-11ea-b93d-73aa7fef8348
534c182c-5256-11ea-a617-dfd9df917b35,534f429a-5256-11ea-bcdf-ff0af7edb256
534cc178-5256-11ea-bbf8-e79c704e2fba,534f5320-5256-11ea-9d31-bf4d41ff5634
534aac08-5256-11ea-ac7d-47ad43a20056,534f5b36-5256-11ea-aea1-53d175e96085
534aac08-5256-11ea-ac7d-47ad43a20056,534f6266-5256-11ea-8c62-dbc3a1237d94
534e4d0e-5256-11ea-908f-d374255a90ed,534f7abc-5256-11ea-bd10-03b17bec4fb8
534c671e-5256-11ea-ac42-3b0ea9661720,534f8322-5256-11ea-94e0-435b48de82a7
534ec7ca-5256-11ea-a56f-f38cae38db69,534f8a2a-5256-11ea-bb27-0f10ab7f4c18
534abeaa-5256-11ea-ba61-7378b8625174,534f9092-5256-11ea-b39f-6b3dcd56f8e8
534d7e38-5256-11ea-9a03-8b909385ac53,534f9fba-5256-11ea-9495-ff7b29416b2e
534f9092-5256-11ea-b39f-6b3dcd56f8e8,534fae38-5256-11ea-afb6-bf6d89ce6ed6
534ad016-5256-11ea-a438-2b7bce763e08,534fb4be-5256-11ea-8f00-67f3a232a41b
534bbd82-5256-11ea-908f-d32a960b743c,534fbb6c-5256-11ea-8492-077f4543c737
534e3bc0-5256-11ea-8bea-fbae60a1e48b,534fd048-5256-11ea-a4aa-938b4ad9211c
534ca13e-5256-11ea-b24f-c721f1e8c624,534fd872-5256-11ea-a3ed-af3549fc786b
534d2cd0-5256-11ea-becf-03f2f2f173ca,534fe088-5256-11ea-a0aa-73340e48f0d9
534c088c-5256-11ea-9aa0-bb850ef82940,534fe7a4-5256-11ea-8e24-fbc393e74d2e
534ba02c-5256-11ea-9b03-734534991c2c,534ff2f8-5256-11ea-9dcb-a74aa7b36b8d
534f9092-5256-11ea-b39f-6b3dcd56f8e8,53500586-5256-11ea-bb18-b317c39dad51
534f2e18-5256-11ea-a268-cf247d1a8e82,53500db0-5256-11ea-94ac-07e94a6464eb
534aa2e4-5256-11ea-9549-d793b310c04b,5350180a-5256-11ea-82d5-6741349cd020
534d8b12-5256-11ea-979a-7febff9a21c0,53502c28-5256-11ea-ab55-53807d0bb8bc
534b8844-5256-11ea-9092-3f3c1d778cad,535039e8-5256-11ea-88bf-939be85ab202
534c9716-5256-11ea-9035-1f35edfe39f4,535040fa-5256-11ea-ba5c-3f9a626f13ca
534fbb6c-5256-11ea-8492-077f4543c737,5350491a-5256-11ea-920d-47697c529f0a
534e69a6-5256-11ea-9af6-53a0e3166bf6,5350541e-5256-11ea-9259-e3c760eadfda
534c9716-5256-11ea-9035-1f35edfe39f4,535061d4-5256-11ea-9af7-1fdc7d592d69
535040fa-5256-11ea-ba5c-3f9a626f13ca,53506c6a-5256-11ea-8b1a-97ea439b9c12
534ef808-5256-11ea-83ba-dbd3e4560ede,535072be-5256-11ea-a201-a3d24d2ed9d7
534e77de-5256-11ea-bc8d-ab5ddb47ea7b,5350848e-5256-11ea-b8c6-37c4235612b0
534fbb6c-5256-11ea-8492-077f4543c737,53508fe2-5256-11ea-89aa-b70856446d6e
534c1296-5256-11ea-82e5-cfdc91b56ccc,53509636-5256-11ea-97ba-c3681a161599
534bbd82-5256-11ea-908f-d32a960b743c,5350a112-5256-11ea-9dec-a7068963ef36
534aa2e4-5256-11ea-9549-d793b310c04b,5350aa40-5256-11ea-97f5-87c29fdcefe9
534b9438-5256-11ea-96d6-235f48eafc70,5350b49a-5256-11ea-9327-ff7014ca01cf
53506c6a-5256-11ea-8b1a-97ea439b9c12,5350cdea-5256-11ea-921f-af9ebc9e531f
534be136-5256-11ea-bb54-1f587e6c1190,5350c6f6-5256-11ea-9946-cf9abf41e90b
53506c6a-5256-11ea-8b1a-97ea439b9c12,5350e1ea-5256-11ea-ac20-e3a57eebac05
534b8844-5256-11ea-9092-3f3c1d778cad,5350ecbc-5256-11ea-93ac-af0ea5a7ad1d
534c088c-5256-11ea-9aa0-bb850ef82940,5350f39c-5256-11ea-861b-53648eb0ef65
5350e1ea-5256-11ea-ac20-e3a57eebac05,5350f9b4-5256-11ea-ba86-c32a61318254
534d5746-5256-11ea-923a-7f07dd3cbd51,5351004e-5256-11ea-b552-2b35648e594d
534f8322-5256-11ea-94e0-435b48de82a7,535107d8-5256-11ea-93fd-b35672fb6e37
534bfa72-5256-11ea-a7df-ab8e3b717cd4,535119d0-5256-11ea-9c5a-570c6f6e632a
5350f39c-5256-11ea-861b-53648eb0ef65,5351215a-5256-11ea-84f8-af3b2085794c
534b1af8-5256-11ea-b7d2-abf3f158ff54,53513c9e-5256-11ea-930b-fbf5d9e62cbf
534f8322-5256-11ea-94e0-435b48de82a7,535142ca-5256-11ea-b8a0-33d8fffd2ab7
534ddf86-5256-11ea-9919-fb0a2437ad26,53514d74-5256-11ea-aeda-af6390e6cd89
535142ca-5256-11ea-b8a0-33d8fffd2ab7,535154b8-5256-11ea-b325-f31b88871d42
534ad016-5256-11ea-a438-2b7bce763e08,535161f6-5256-11ea-9c7e-ab90684d83dd
5350a112-5256-11ea-9dec-a7068963ef36,53515b52-5256-11ea-b58d-67ac3920506f
534c1296-5256-11ea-82e5-cfdc91b56ccc,53516f3e-5256-11ea-8275-f378b394737d
534ddf86-5256-11ea-9919-fb0a2437ad26,535176fa-5256-11ea-9651-5f6c1bfad115
534e7f18-5256-11ea-8dfd-0fa1f666c4b8,5351a602-5256-11ea-b4c5-bfc7bc0cdae9
534ade76-5256-11ea-ac59-2bfffb5e034b,5351ad32-5256-11ea-8ed4-b3cdd0fa4227
534ecf68-5256-11ea-a367-2b706f211177,5351b3ea-5256-11ea-b0b1-0bf131e699c4
534ccd8a-5256-11ea-991f-5b7a643ffb6a,5351bafc-5256-11ea-8106-2bba5effdbfa
534d1fce-5256-11ea-ba5c-07d6131ad6e0,5351c4a2-5256-11ea-8ee7-47ee811d40ae
5350180a-5256-11ea-82d5-6741349cd020,5351cbdc-5256-11ea-ae63-9f68e3890d00
534e8e9a-5256-11ea-82a0-a3a761bcc8be,5351d3a2-5256-11ea-8a01-532e269319cf
534bf3ba-5256-11ea-a348-effdebf81366,5351da96-5256-11ea-a6ee-2f67988a6a58
534c43e2-5256-11ea-8b50-e7c06472e99e,53521182-5256-11ea-aeab-1b4169047fd9
534fbb6c-5256-11ea-8492-077f4543c737,535207d2-5256-11ea-88b4-57932a67c758
53500586-5256-11ea-bb18-b317c39dad51,53521790-5256-11ea-9d13-b31daa9aa32e
534dcbc2-5256-11ea-b0b6-9359357323d2,53522000-5256-11ea-ba95-1bcb74b34d67
534d990e-5256-11ea-aa35-d3d6aa0b54b7,535226f4-5256-11ea-80bc-17185d9bb949
534bc3ae-5256-11ea-8c14-4be046243514,53522e56-5256-11ea-8dac-37a00e6e9f3d
534c43e2-5256-11ea-8b50-e7c06472e99e,5352340a-5256-11ea-8ad2-67c449a243f2
534fae38-5256-11ea-afb6-bf6d89ce6ed6,53523a68-5256-11ea-a477-e34bd41b65ed
534d2604-5256-11ea-93b9-377bc1586705,53525566-5256-11ea-96c5-c3f1f2894888
534fbb6c-5256-11ea-8492-077f4543c737,53525cb4-5256-11ea-a0b6-23e3e5d9caa8
534ad016-5256-11ea-a438-2b7bce763e08,53526a24-5256-11ea-b505-d30e39c90ccb
5351cbdc-5256-11ea-ae63-9f68e3890d00,5352744c-5256-11ea-b52b-e7f93a036417
534e7f18-5256-11ea-8dfd-0fa1f666c4b8,53527fb4-5256-11ea-9ac6-9fa25e396ba4
534dcbc2-5256-11ea-b0b6-9359357323d2,53528946-5256-11ea-9a10-9bed37131eb2
534f429a-5256-11ea-bcdf-ff0af7edb256,535290a8-5256-11ea-9a8d-77fccd3bbc08
534d1fce-5256-11ea-ba5c-07d6131ad6e0,53529788-5256-11ea-8507-cfa172dab8a8
535061d4-5256-11ea-9af7-1fdc7d592d69,5352a57a-5256-11ea-8278-d78ef7450929
534d11be-5256-11ea-b228-f7ce5a1d4807,5352b132-5256-11ea-92a4-0f7c755962dc
534be9b0-5256-11ea-858a-f3fa21192bfc,5352c848-5256-11ea-a478-8b8a4848ae53
534e281a-5256-11ea-a130-43133d094e17,5352ceb0-5256-11ea-af5a-97a40b3de9cb
5351da96-5256-11ea-a6ee-2f67988a6a58,5352d946-5256-11ea-89bf-6357612a8ee8
534d990e-5256-11ea-aa35-d3d6aa0b54b7,5352e77e-5256-11ea-9e5f-7b9a89f237ec
534f9fba-5256-11ea-9495-ff7b29416b2e,5352eddc-5256-11ea-849d-0fa940c9f34e
534ac94a-5256-11ea-98c3-a3c7da1eeeb0,5352f48a-5256-11ea-9863-0710597dc099
534cc754-5256-11ea-a2ee-ab539220c6e7,5352fee4-5256-11ea-adc1-3fb1577250a3
5350c6f6-5256-11ea-9946-cf9abf41e90b,53531c12-5256-11ea-bfca-0f0e9bd12046
534e0114-5256-11ea-bd06-43991251bed1,535322fc-5256-11ea-8ddf-0b0b3bbbadd3
5352a57a-5256-11ea-8278-d78ef7450929,53532cac-5256-11ea-b484-23209e4cde1c
5350848e-5256-11ea-b8c6-37c4235612b0,53533a4e-5256-11ea-a9bb-f3a72a8fe343
53516f3e-5256-11ea-8275-f378b394737d,53534750-5256-11ea-96b4-27dd8e296cb7
534e0fc4-5256-11ea-88d6-57eef3afd682,53534e62-5256-11ea-8783-5bc17a58d502
534d1fce-5256-11ea-ba5c-07d6131ad6e0,535354de-5256-11ea-a328-dbbefc85abbd
5351bafc-5256-11ea-8106-2bba5effdbfa,53535ba0-5256-11ea-ad85-930bee5c3bb1
534f8a2a-5256-11ea-bb27-0f10ab7f4c18,53537784-5256-11ea-b939-cbd8bdf81e1a
534b1af8-5256-11ea-b7d2-abf3f158ff54,53537f22-5256-11ea-a7ce-6f913012f168
534fe7a4-5256-11ea-8e24-fbc393e74d2e,53538c88-5256-11ea-9b25-eb1ced00516f
534db4b6-5256-11ea-8cdf-5b3f73e95554,5353969c-5256-11ea-b2b1-47e9b716c6fb
534c60ca-5256-11ea-9c33-6faa95d7fbf7,5353a218-5256-11ea-b50c-4f9ae1c4f10a
535154b8-5256-11ea-b325-f31b88871d42,5353aaec-5256-11ea-9245-af5d07f241a6
534d1fce-5256-11ea-ba5c-07d6131ad6e0,5353b208-5256-11ea-a2a0-c784d77852d0
53500db0-5256-11ea-94ac-07e94a6464eb,5353bba4-5256-11ea-8273-5712b7eadaae
535039e8-5256-11ea-88bf-939be85ab202,5353ce1e-5256-11ea-abd8-5bd977d2c676
534b2ba6-5256-11ea-91e2-c740dcb2cb6a,5353d59e-5256-11ea-8c6c-b317e4c54bf8
535290a8-5256-11ea-9a8d-77fccd3bbc08,5353e0fc-5256-11ea-b440-474c09cab5d7
534de92c-5256-11ea-8744-4389b8feaeb0,5353eda4-5256-11ea-bf39-af944d5dc602
534c182c-5256-11ea-a617-dfd9df917b35,5353fbf0-5256-11ea-bb77-3bfc812cc8dc
534e7f18-5256-11ea-8dfd-0fa1f666c4b8,535408ac-5256-11ea-b16c-e30d41ee7826
53514d74-5256-11ea-aeda-af6390e6cd89,53540f78-5256-11ea-825f-c78853c1d9bf
534ca13e-5256-11ea-b24f-c721f1e8c624,535415ea-5256-11ea-9f14-f3437250fc1e
5352e77e-5256-11ea-9e5f-7b9a89f237ec,535423c8-5256-11ea-aaf4-abe2046b9506
534b24ee-5256-11ea-8018-27eebbf86961,53542db4-5256-11ea-bfc0-ef3e4c95bcf9
5353aaec-5256-11ea-9245-af5d07f241a6,535437f0-5256-11ea-831b-d7be4df93e22
534ade76-5256-11ea-ac59-2bfffb5e034b,53544204-5256-11ea-a97f-fbd6cc47cb7a
534fbb6c-5256-11ea-8492-077f4543c737,535461a8-5256-11ea-ae19-fb91857c7e7c
534cc754-5256-11ea-a2ee-ab539220c6e7,53546df6-5256-11ea-bb4c-2fc7d4362450
534be9b0-5256-11ea-858a-f3fa21192bfc,535475b2-5256-11ea-8856-afa4fdb53a9c
534ccd8a-5256-11ea-991f-5b7a643ffb6a,53547c56-5256-11ea-abaa-ef583f933d2f
535354de-5256-11ea-a328-dbbefc85abbd,535481ba-5256-11ea-a158-ef2fbebcef31
5351ad32-5256-11ea-8ed4-b3cdd0fa4227,535487f0-5256-11ea-a96e-4b31de20b37d
53502c28-5256-11ea-ab55-53807d0bb8bc,535494de-5256-11ea-8053-cffc5d794d23
534da2dc-5256-11ea-91ef-2bb34f59d43d,53549ef2-5256-11ea-8fb7-5bb802ac0a30
534fd872-5256-11ea-a3ed-af3549fc786b,5354c850-5256-11ea-8d27-a3ed84afccaf
534d1fce-5256-11ea-ba5c-07d6131ad6e0,5354cfe4-5256-11ea-922d-0749b0eacf92
534ee3c2-5256-11ea-9748-13ccec803ada,5354d840-5256-11ea-b832-0becd401b291
53521790-5256-11ea-9d13-b31daa9aa32e,5354e1c8-5256-11ea-bc61-5ff416371d0f
5353a218-5256-11ea-b50c-4f9ae1c4f10a,5354e9e8-5256-11ea-acf3-07099545976d
5352e77e-5256-11ea-9e5f-7b9a89f237ec,5354eff6-5256-11ea-9682-0b831f7c6abf
53500586-5256-11ea-bb18-b317c39dad51,5354f73a-5256-11ea-a35b-3b8e98d141a6
534ec7ca-5256-11ea-a56f-f38cae38db69,5354fe2e-5256-11ea-8627-6f6910c9040c
5350491a-5256-11ea-920d-47697c529f0a,53551aa8-5256-11ea-a4be-0737d1ec84e1
535322fc-5256-11ea-8ddf-0b0b3bbbadd3,53552a8e-5256-11ea-8445-a7d601f3eb9d
535161f6-5256-11ea-9c7e-ab90684d83dd,53553236-5256-11ea-b038-1b41c296a31c
534d990e-5256-11ea-aa35-d3d6aa0b54b7,53553b6e-5256-11ea-b63b-539b6ca753ab
5350e1ea-5256-11ea-ac20-e3a57eebac05,53554352-5256-11ea-9211-fb2829cace8b
5352744c-5256-11ea-b52b-e7f93a036417,53554d34-5256-11ea-88e9-6ff9e3698e97
534f9092-5256-11ea-b39f-6b3dcd56f8e8,535554e6-5256-11ea-9c25-f3abdb15c686
5352c848-5256-11ea-a478-8b8a4848ae53,53555c2a-5256-11ea-8de7-fb3b31782cc6
53540f78-5256-11ea-825f-c78853c1d9bf,53557a84-5256-11ea-8b0a-8b68030b8b20
535290a8-5256-11ea-9a8d-77fccd3bbc08,53558510-5256-11ea-a573-cbcd2edb24df
5353969c-5256-11ea-b2b1-47e9b716c6fb,53558c90-5256-11ea-bca7-dbcd7e7393b6
534b8844-5256-11ea-9092-3f3c1d778cad,535599f6-5256-11ea-97b3-a750bf4469ad
534b8844-5256-11ea-9092-3f3c1d778cad,5355a3ce-5256-11ea-8771-4374ac71d6e1
53547c56-5256-11ea-abaa-ef583f933d2f,5355ab44-5256-11ea-995c-eb3cab481662
534c1296-5256-11ea-82e5-cfdc91b56ccc,5355b24c-5256-11ea-940d-b33bbc570458
534c39c4-5256-11ea-a3df-5f1c926cefca,5355bcd8-5256-11ea-94fa-df358a206818
534b24ee-5256-11ea-8018-27eebbf86961,5355d07e-5256-11ea-9d57-2b1d05fc26d2
534b24ee-5256-11ea-8018-27eebbf86961,5355e30c-5256-11ea-926d-1b752405c1bc
534e77de-5256-11ea-bc8d-ab5ddb47ea7b,5355e92e-5256-11ea-a23e-13a26e442716
53509636-5256-11ea-97ba-c3681a161599,5355fce8-5256-11ea-9588-b76ef11eb470
5353fbf0-5256-11ea-bb77-3bfc812cc8dc,5356038c-5256-11ea-bf55-03a8f1d7ba59
534bfa72-5256-11ea-a7df-ab8e3b717cd4,53560a6c-5256-11ea-a346-2bc2949ddc49
535072be-5256-11ea-a201-a3d24d2ed9d7,5356152a-5256-11ea-9dd5-eb5907ab1045
5353eda4-5256-11ea-bf39-af944d5dc602,53561eb2-5256-11ea-a41f-ff3462be9b98
534b6c92-5256-11ea-82be-97d1c7edb9dd,535629ca-5256-11ea-81fb-9f95e16d1b38
5350e1ea-5256-11ea-ac20-e3a57eebac05,53565530-5256-11ea-9559-7b658431d795
53513c9e-5256-11ea-930b-fbf5d9e62cbf,53565e4a-5256-11ea-af52-772dc6ce780b
53558510-5256-11ea-a573-cbcd2edb24df,5356676e-5256-11ea-b4b5-5bc790ac4aa0
5351004e-5256-11ea-b552-2b35648e594d,53566d68-5256-11ea-b544-bf387e068da5
535423c8-5256-11ea-aaf4-abe2046b9506,53567506-5256-11ea-8dbd-2f4dcabd88ac
534cac1a-5256-11ea-ac53-639c3a1e5fd4,53567da8-5256-11ea-99ab-83cbaa9b2fa5
535415ea-5256-11ea-9f14-f3437250fc1e,53568488-5256-11ea-8fb6-8b8b39d2d2af
535154b8-5256-11ea-b325-f31b88871d42,53568b2c-5256-11ea-b9ce-1b3a80e18422
5353e0fc-5256-11ea-b440-474c09cab5d7,5356baa2-5256-11ea-8f25-ff77344b5ec8
534c088c-5256-11ea-9aa0-bb850ef82940,5356c254-5256-11ea-8ca1-33c55c27836e
534e281a-5256-11ea-a130-43133d094e17,5356c984-5256-11ea-8573-c7a246ed598d
534e3bc0-5256-11ea-8bea-fbae60a1e48b,5356d0e6-5256-11ea-b27c-bf19cb74cabc
534ef1dc-5256-11ea-b17b-6fac8f8b209e,5356d74e-5256-11ea-b35e-27ed7b3ab12b
534d5746-5256-11ea-923a-7f07dd3cbd51,5356e02c-5256-11ea-905a-b70cbbb3c724
534d75fa-5256-11ea-8892-23242f3e2053,5356e72a-5256-11ea-b483-53aa6120b811
534f2e18-5256-11ea-a268-cf247d1a8e82,5356ed74-5256-11ea-870e-7b88672b3cfd
534e281a-5256-11ea-a130-43133d094e17,5357099e-5256-11ea-968d-cb4e2a31438a
5352ceb0-5256-11ea-af5a-97a40b3de9cb,53571b5a-5256-11ea-894f-4785f8664063
535154b8-5256-11ea-b325-f31b88871d42,53572e74-5256-11ea-985a-3fa8cc8b0959
5355bcd8-5256-11ea-94fa-df358a206818,53573d74-5256-11ea-8597-f7a02926ff21
53525566-5256-11ea-96c5-c3f1f2894888,535745a8-5256-11ea-9cb0-6feca19c1b94
53538c88-5256-11ea-9b25-eb1ced00516f,53574c1a-5256-11ea-9a38-dba0ced1e8f8
53513c9e-5256-11ea-930b-fbf5d9e62cbf,53575390-5256-11ea-8c28-9f4e772beef5
5354e9e8-5256-11ea-acf3-07099545976d,53575ad4-5256-11ea-a6ce-737de49462ad
53574c1a-5256-11ea-9a38-dba0ced1e8f8,535767ea-5256-11ea-837b-3f2362375689
5354eff6-5256-11ea-9682-0b831f7c6abf,535777f8-5256-11ea-bc3b-63c6f403473b
5352744c-5256-11ea-b52b-e7f93a036417,535790e4-5256-11ea-b7f1-7f28cfe7ea3d
534d8b12-5256-11ea-979a-7febff9a21c0,5357a35e-5256-11ea-bcf9-bb4aa2a9ccef
534be9b0-5256-11ea-858a-f3fa21192bfc,5357a930-5256-11ea-83e1-4fe6c93dcf87
534cef0e-5256-11ea-8f31-ff4ff57f2043,5357b150-5256-11ea-80a2-f34d39a19e9f
5355bcd8-5256-11ea-94fa-df358a206818,5357b920-5256-11ea-9c03-c72bf4b20d89
534d990e-5256-11ea-aa35-d3d6aa0b54b7,5357c064-5256-11ea-ba12-b7924675dbc6
534ec7ca-5256-11ea-a56f-f38cae38db69,5357c7a8-5256-11ea-aeb1-93242828b840
5351d3a2-5256-11ea-8a01-532e269319cf,5357d504-5256-11ea-97d5-d7e2c31d8a02
53561eb2-5256-11ea-a41f-ff3462be9b98,535804fc-5256-11ea-8e23-d76acf1227cf
5350cdea-5256-11ea-921f-af9ebc9e531f,53580d1c-5256-11ea-b165-9bd6790a7225
534d2604-5256-11ea-93b9-377bc1586705,535813c0-5256-11ea-b455-27bcfb467fcc
534c39c4-5256-11ea-a3df-5f1c926cefca,53581e7e-5256-11ea-a92f-c722d944f6b3
53502c28-5256-11ea-ab55-53807d0bb8bc,53582694-5256-11ea-962a-772663c19b85
535072be-5256-11ea-a201-a3d24d2ed9d7,53582d60-5256-11ea-9290-7b81cf8c35e1
5351ad32-5256-11ea-8ed4-b3cdd0fa4227,5358349a-5256-11ea-8ad6-2bd50ba791b7
53553236-5256-11ea-b038-1b41c296a31c,53583c2e-5256-11ea-b9a2-2b96da7a3237
53525566-5256-11ea-96c5-c3f1f2894888,53585826-5256-11ea-9654-d35f2c730d81
5351da96-5256-11ea-a6ee-2f67988a6a58,53585f06-5256-11ea-9956-731c15558a2b
5355d07e-5256-11ea-9d57-2b1d05fc26d2,53587748-5256-11ea-aeeb-a7c7d346e022
535207d2-5256-11ea-88b4-57932a67c758,535881f2-5256-11ea-9dd0-d714cb5d28ad
535161f6-5256-11ea-9c7e-ab90684d83dd,535889c2-5256-11ea-86c4-ebc8b6a7e473
534b9438-5256-11ea-96d6-235f48eafc70,53589584-5256-11ea-86cc-f34f767fbbc3
534c1296-5256-11ea-82e5-cfdc91b56ccc,53589ce6-5256-11ea-ae28-a7d06c36c3e7
5354cfe4-5256-11ea-922d-0749b0eacf92,5358a402-5256-11ea-984d-97adf1357106
534c088c-5256-11ea-9aa0-bb850ef82940,5358b46a-5256-11ea-ab46-f332b735ea5f
5350cdea-5256-11ea-921f-af9ebc9e531f,5358bee2-5256-11ea-aa6a-0388c4827e15
534e77de-5256-11ea-bc8d-ab5ddb47ea7b,5358d166-5256-11ea-aa8b-33ef64dde5e7
534be136-5256-11ea-bb54-1f587e6c1190,5358e084-5256-11ea-8f20-87deedd1b744
535423c8-5256-11ea-aaf4-abe2046b9506,5358e7dc-5256-11ea-9235-bfa935650c02
5355d07e-5256-11ea-9d57-2b1d05fc26d2,5358f2ae-5256-11ea-941e-9b4b031447b1
534dbccc-5256-11ea-ade9-fb40ad7f8189,53590064-5256-11ea-a583-e3fc837ecbab
5355bcd8-5256-11ea-94fa-df358a206818,53591572-5256-11ea-af49-6b3ab9ddfc10
5354c850-5256-11ea-8d27-a3ed84afccaf,53591cfc-5256-11ea-91f8-7f1af65901ca
53554d34-5256-11ea-88e9-6ff9e3698e97,53592382-5256-11ea-a47b-f79549f81654
534c182c-5256-11ea-a617-dfd9df917b35,53592f76-5256-11ea-a9d3-9bc1f863eabb
5351cbdc-5256-11ea-ae63-9f68e3890d00,535939ee-5256-11ea-9ac9-a3740f2205e8
534e281a-5256-11ea-a130-43133d094e17,53594dbc-5256-11ea-9eb0-d306b94c1830
5356152a-5256-11ea-9dd5-eb5907ab1045,535956c2-5256-11ea-8bdc-53aa8a5c0b2f
5351bafc-5256-11ea-8106-2bba5effdbfa,53595e60-5256-11ea-b684-b78dc2f7893e
534c6f16-5256-11ea-b752-af3839ab5175,53597300-5256-11ea-805c-93d5c35f13cf
53532cac-5256-11ea-b484-23209e4cde1c,535979c2-5256-11ea-8a73-53f5484ba6ca
5358bee2-5256-11ea-aa6a-0388c4827e15,53598552-5256-11ea-b9ec-a39aec9ff720
534e77de-5256-11ea-bc8d-ab5ddb47ea7b,53599330-5256-11ea-bacd-9bfd2fe20cb3
5354d840-5256-11ea-b832-0becd401b291,5359a1d6-5256-11ea-93e9-e73f0642e09c
5358e7dc-5256-11ea-9235-bfa935650c02,5359aa8c-5256-11ea-90ab-7fe1e16085ca
5356c254-5256-11ea-8ca1-33c55c27836e,5359b608-5256-11ea-8378-33d70c1ed3ca
534f2e18-5256-11ea-a268-cf247d1a8e82,5359c2ba-5256-11ea-a20f-5f8231b2cf3b
53521790-5256-11ea-9d13-b31daa9aa32e,5359d1a6-5256-11ea-a6d8-63efc3d533bf
5358e084-5256-11ea-8f20-87deedd1b744,5359e2ea-5256-11ea-8e21-2b59886cfea3
534e4200-5256-11ea-8cc4-2bfac7d14ac4,5359ee52-5256-11ea-a2a5-c32e248a9c03
534b0de2-5256-11ea-8971-dbb6719b4464,5359f528-5256-11ea-b910-37b23347d82a
53582d60-5256-11ea-9290-7b81cf8c35e1,535a2804-5256-11ea-9cac-ff9ee6b51b88
5356c984-5256-11ea-8573-c7a246ed598d,535a3600-5256-11ea-b420-9ff19259fd1c
53592f76-5256-11ea-a9d3-9bc1f863eabb,535a40d2-5256-11ea-8776-d30180c9cd7b
5356c984-5256-11ea-8573-c7a246ed598d,535a5108-5256-11ea-ad61-1f43f2f3a22a
5357d504-5256-11ea-97d5-d7e2c31d8a02,535a613e-5256-11ea-908e-6f98a38feb16
5358f2ae-5256-11ea-941e-9b4b031447b1,535a587e-5256-11ea-96c9-07eb8dc01c96
534d6cea-5256-11ea-87c0-eb17fee1b425,535a8ae2-5256-11ea-af91-ebf314270f9a
534be9b0-5256-11ea-858a-f3fa21192bfc,535a999c-5256-11ea-9371-17a6c9041ef4
5350cdea-5256-11ea-921f-af9ebc9e531f,535aad38-5256-11ea-9075-37b1110534d8
5355d07e-5256-11ea-9d57-2b1d05fc26d2,535ab698-5256-11ea-8fe5-7f7e19a73bbe
534ac94a-5256-11ea-98c3-a3c7da1eeeb0,535ac2a0-5256-11ea-8ef1-3b2f1a5dd7db
5359b608-5256-11ea-8378-33d70c1ed3ca,535ac98a-5256-11ea-8fe1-abb5189beacb
5359c2ba-5256-11ea-a20f-5f8231b2cf3b,535ad02e-5256-11ea-94aa-0f603b3aca53
5357a930-5256-11ea-83e1-4fe6c93dcf87,535add30-5256-11ea-bbc6-ff912ca943a8
53566d68-5256-11ea-b544-bf387e068da5,535ae8f2-5256-11ea-ad16-13c8c10742af
534b05f4-5256-11ea-bfa9-1372da49780a,535afaa4-5256-11ea-b77a-4b6788828b9f
535354de-5256-11ea-a328-dbbefc85abbd,535b0c06-5256-11ea-b626-070c9b5f9f5d
534d0624-5256-11ea-b098-73bacba02cb7,535b164c-5256-11ea-884e-97a8a5694d57
534e164a-5256-11ea-b475-2f50b38bc4f1,535b2628-5256-11ea-93c0-37a23ccf66ec
53575390-5256-11ea-8c28-9f4e772beef5,535b2db2-5256-11ea-be50-37b39b1c5438
53502c28-5256-11ea-ab55-53807d0bb8bc,535b388e-5256-11ea-a1b6-93b2b2835713
5359e2ea-5256-11ea-8e21-2b59886cfea3,535b409a-5256-11ea-baee-8f82d0669149
53534e62-5256-11ea-8783-5bc17a58d502,535b59f4-5256-11ea-89ba-ef3f6b6ff586
53513c9e-5256-11ea-930b-fbf5d9e62cbf,535b6098-5256-11ea-ac52-1fda4a68c7ef
534b24ee-5256-11ea-8018-27eebbf86961,535b6f98-5256-11ea-bcdd-0bc8178ab40a
534e281a-5256-11ea-a130-43133d094e17,535b76b4-5256-11ea-8dd9-5f87de569b61
5353d59e-5256-11ea-8c6c-b317e4c54bf8,535b8e7e-5256-11ea-9735-8bdfb7b8b7d8
534e7f18-5256-11ea-8dfd-0fa1f666c4b8,535b99d2-5256-11ea-bca6-e706418d5b1b
535956c2-5256-11ea-8bdc-53aa8a5c0b2f,535ba59e-5256-11ea-b306-0f05b8e50e50
53523a68-5256-11ea-a477-e34bd41b65ed,535bbd18-5256-11ea-9e0d-93a85f5173ef
53544204-5256-11ea-a97f-fbd6cc47cb7a,535bc790-5256-11ea-964e-d35734c907a8
534b80ce-5256-11ea-a6d5-5f4930139aa1,535bd2f8-5256-11ea-8ac5-bb90882a507b
5358f2ae-5256-11ea-941e-9b4b031447b1,535bda82-5256-11ea-8326-c7d635c41c97
53526a24-5256-11ea-b505-d30e39c90ccb,535bee8c-5256-11ea-813b-c3822769b6d4
534ed562-5256-11ea-ae79-d3797b476745,535bf5b2-5256-11ea-b66f-1b1cab17aa16
534f8a2a-5256-11ea-bb27-0f10ab7f4c18,535bfd1e-5256-11ea-8a27-7b19519a6aa5
534e281a-5256-11ea-a130-43133d094e17,535c20fa-5256-11ea-9462-6f582ca8c2d7
535ac98a-5256-11ea-8fe1-abb5189beacb,535c27f8-5256-11ea-8e3b-7fa8f6247518
53585826-5256-11ea-9654-d35f2c730d81,535c3928-5256-11ea-adfb-2fa74bd20f82
53552a8e-5256-11ea-8445-a7d601f3eb9d,535c4058-5256-11ea-b315-6794bddcc66b
534ddf86-5256-11ea-9919-fb0a2437ad26,535c514c-5256-11ea-9f6b-eb4856b4af7d
5354fe2e-5256-11ea-8627-6f6910c9040c,535c59f8-5256-11ea-8063-7ba73124e811
5359aa8c-5256-11ea-90ab-7fe1e16085ca,535c60ec-5256-11ea-8668-df69f53c3e25
53500db0-5256-11ea-94ac-07e94a6464eb,535c78c0-5256-11ea-a1a9-8b30691b7d8f
534bf3ba-5256-11ea-a348-effdebf81366,535c8540-5256-11ea-b273-6f7650faca04
534a9204-5256-11ea-92df-ffed56267640,535c922e-5256-11ea-ab9b-cf07a5a21d05
534d7e38-5256-11ea-9a03-8b909385ac53,535c9df0-5256-11ea-a6d7-f7a1bc22970c
535ac2a0-5256-11ea-8ef1-3b2f1a5dd7db,535ca99e-5256-11ea-a92e-83bc03f08f8c
534dd61c-5256-11ea-9e91-dbb9e7e2fdf2,535cc1ea-5256-11ea-a5bc-bfa891ef6738
534cbaca-5256-11ea-a20b-d7fa423e252b,535cb722-5256-11ea-8bf4-8f210dcd29d2
534ea38a-5256-11ea-90ac-27876a039eb1,535cf5f2-5256-11ea-b0e7-6b6e9164fe8a
53595e60-5256-11ea-b684-b78dc2f7893e,535d0042-5256-11ea-94e3-5b8ac9557ffe
5352e77e-5256-11ea-9e5f-7b9a89f237ec,535d07d6-5256-11ea-bdfe-77d3a2783f71
5359c2ba-5256-11ea-a20f-5f8231b2cf3b,535d0ec0-5256-11ea-a3c6-bf07c71611df
53595e60-5256-11ea-b684-b78dc2f7893e,535d1622-5256-11ea-a122-87f3ff41b880
534e69a6-5256-11ea-9af6-53a0e3166bf6,535d286a-5256-11ea-983a-fb4f1a8bd8a1
535487f0-5256-11ea-a96e-4b31de20b37d,535d301c-5256-11ea-bcae-db3cc64f43b2
5352744c-5256-11ea-b52b-e7f93a036417,535d5808-5256-11ea-a395-7b14a1ff8bc9
53597300-5256-11ea-805c-93d5c35f13cf,535d63ac-5256-11ea-a9b0-535ff6c87a59
5357a35e-5256-11ea-bcf9-bb4aa2a9ccef,535d6f96-5256-11ea-a23a-33c810992d1a
53549ef2-5256-11ea-8fb7-5bb802ac0a30,535d761c-5256-11ea-a64d-53794b418dbc
534cac1a-5256-11ea-ac53-639c3a1e5fd4,535d7dce-5256-11ea-aea3-133c79cfce87
535176fa-5256-11ea-9651-5f6c1bfad115,535d84fe-5256-11ea-b2a6-438ca1b88de5
535161f6-5256-11ea-9c7e-ab90684d83dd,535d8f08-5256-11ea-b2a5-8316c65c1268
535437f0-5256-11ea-831b-d7be4df93e22,535db73a-5256-11ea-ae04-6bef94b29c76
534f3494-5256-11ea-8d6a-473facb0e12e,535dc202-5256-11ea-b83f-9b5b910f107c
535494de-5256-11ea-8053-cffc5d794d23,535dc888-5256-11ea-b1db-1b300c438d68
535d7dce-5256-11ea-aea3-133c79cfce87,535ddabc-5256-11ea-9389-cf1151769eb7
535d286a-5256-11ea-983a-fb4f1a8bd8a1,535de34a-5256-11ea-af74-7b1a397ea344
5351b3ea-5256-11ea-b0b1-0bf131e699c4,535dead4-5256-11ea-8cbe-73decfaa2e9d
534e7f18-5256-11ea-8dfd-0fa1f666c4b8,535df0f6-5256-11ea-838f-1f1466792fb8
534f8322-5256-11ea-94e0-435b48de82a7,535df7f4-5256-11ea-ba86-c71cc3220f98
5355e92e-5256-11ea-a23e-13a26e442716,535e15f4-5256-11ea-9191-533ee9081a10
535354de-5256-11ea-a328-dbbefc85abbd,535e1fe0-5256-11ea-8251-ef99c28e0530
535dc202-5256-11ea-b83f-9b5b910f107c,535e26d4-5256-11ea-9cc6-bbea5d8c4ef6
534f9092-5256-11ea-b39f-6b3dcd56f8e8,535e3ca0-5256-11ea-959b-0725ec055379
53527fb4-5256-11ea-9ac6-9fa25e396ba4,535e47f4-5256-11ea-9862-c75a9ce2d06d
53557a84-5256-11ea-8b0a-8b68030b8b20,535e5456-5256-11ea-83e2-6faddc530308
534c52d8-5256-11ea-91a8-ffc0a6e402a4,535e4e0c-5256-11ea-ab86-1fa827a353e0
5350180a-5256-11ea-82d5-6741349cd020,535e5c30-5256-11ea-9f8d-9f38aae0e521
5351da96-5256-11ea-a6ee-2f67988a6a58,535e7904-5256-11ea-916f-0b2f899fa81f
535d8f08-5256-11ea-b2a5-8316c65c1268,535e8458-5256-11ea-8ee0-b37c481f0f17
534ef808-5256-11ea-83ba-dbd3e4560ede,535e8b4c-5256-11ea-8c3c-8b3e6f1044c6
5352ceb0-5256-11ea-af5a-97a40b3de9cb,535e9d12-5256-11ea-a43e-53750cc5479d
534f5320-5256-11ea-9d31-bf4d41ff5634,535eac76-5256-11ea-9109-c3126bdf53c0
534de92c-5256-11ea-8744-4389b8feaeb0,535eb32e-5256-11ea-805d-53ce8b1b8a5d
534eeb38-5256-11ea-bf3d-f3881c0b26c9,535ebab8-5256-11ea-9659-e33e703c1969
5358e084-5256-11ea-8f20-87deedd1b744,535ec1a2-5256-11ea-ac58-b3a9dba639fd
53575ad4-5256-11ea-a6ce-737de49462ad,535ed732-5256-11ea-8eac-df4cdecd102f
53558510-5256-11ea-a573-cbcd2edb24df,535ee614-5256-11ea-b1d4-737c8c9a0c10
535df7f4-5256-11ea-ba86-c71cc3220f98,535eec9a-5256-11ea-8470-af25e130167e
534d48be-5256-11ea-b3bb-5b76598c5c4a,535ef794-5256-11ea-ab45-ffc8fe4a3708
53546df6-5256-11ea-bb4c-2fc7d4362450,535f0bf8-5256-11ea-9e8b-f749ccef3e77
534bfa72-5256-11ea-a7df-ab8e3b717cd4,535f18c8-5256-11ea-8a5a-63fe30995828
53574c1a-5256-11ea-9a38-dba0ced1e8f8,535f219c-5256-11ea-a71c-8f36035888b1
5358f2ae-5256-11ea-941e-9b4b031447b1,535f2930-5256-11ea-a7ab-7b94aa9d03d2
534f5320-5256-11ea-9d31-bf4d41ff5634,535f342a-5256-11ea-b454-abaeb403724b
534f2e18-5256-11ea-a268-cf247d1a8e82,535f451e-5256-11ea-8d51-c7755188d58a
53526a24-5256-11ea-b505-d30e39c90ccb,535f5130-5256-11ea-8855-3fd57a9614fa
5350848e-5256-11ea-b8c6-37c4235612b0,535f58ce-5256-11ea-aeb6-33b16d477c2f
535939ee-5256-11ea-9ac9-a3740f2205e8,535f6b3e-5256-11ea-bd0d-9f218ed1ad0c
534d11be-5256-11ea-b228-f7ce5a1d4807,535f75a2-5256-11ea-b263-33b036a240f8
535107d8-5256-11ea-93fd-b35672fb6e37,535f7f34-5256-11ea-a877-8bf53d0da4b4
534b7872-5256-11ea-97e7-8b63e90ddd30,535f8916-5256-11ea-b203-23222df95144
53516f3e-5256-11ea-8275-f378b394737d,535f9046-5256-11ea-89a5-834e0c5318aa
53555c2a-5256-11ea-8de7-fb3b31782cc6,535fa5c2-5256-11ea-9936-0f4b7c8703f9
53560a6c-5256-11ea-a346-2bc2949ddc49,535fbca6-5256-11ea-903c-f30af9b37a40
534d3702-5256-11ea-b031-472c8b057f13,535fc6d8-5256-11ea-92ae-7b5957221214
535eb32e-5256-11ea-805d-53ce8b1b8a5d,535fcf0c-5256-11ea-8326-9f30f568e2f2
535d6f96-5256-11ea-a23a-33c810992d1a,535fdbaa-5256-11ea-b35f-3f61839378ea
535c922e-5256-11ea-ab9b-cf07a5a21d05,535fe726-5256-11ea-b205-0f340c687d87
535408ac-5256-11ea-b16c-e30d41ee7826,535ff5e0-5256-11ea-86e7-4bacfc8e0331
53509636-5256-11ea-97ba-c3681a161599,535feec4-5256-11ea-94cb-a356e8e9ce1e
5358b46a-5256-11ea-ab46-f332b735ea5f,53600c4c-5256-11ea-ae89-af1813f83200
534e8e9a-5256-11ea-82a0-a3a761bcc8be,53601e26-5256-11ea-abdb-47d78557ab11
534e69a6-5256-11ea-9af6-53a0e3166bf6,53602600-5256-11ea-91bf-cb3c969a8a77
5359d1a6-5256-11ea-a6d8-63efc3d533bf,536038ac-5256-11ea-913f-8790c557f5e2
534fae38-5256-11ea-afb6-bf6d89ce6ed6,53603ffa-5256-11ea-925d-ab7abecd7d48
534dbccc-5256-11ea-ade9-fb40ad7f8189,53604f4a-5256-11ea-9b2b-43b9567ca340
53529788-5256-11ea-8507-cfa172dab8a8,53605968-5256-11ea-84cd-2bb0986dceeb
53558c90-5256-11ea-bca7-dbcd7e7393b6,53606764-5256-11ea-a416-a338fff511c3
5351215a-5256-11ea-84f8-af3b2085794c,53607416-5256-11ea-b2d1-13a993a7fb98
534e4200-5256-11ea-8cc4-2bfac7d14ac4,53607f60-5256-11ea-a6b8-277da0c9a371
5355a3ce-5256-11ea-8771-4374ac71d6e1,536085f0-5256-11ea-8441-8bfc0fde288e
5359c2ba-5256-11ea-a20f-5f8231b2cf3b,536094f0-5256-11ea-bfa3-1f2751d89f5a
534dd61c-5256-11ea-9e91-dbb9e7e2fdf2,5360a7b0-5256-11ea-9f3d-470f3bcaea05
53607416-5256-11ea-b2d1-13a993a7fb98,5360b4bc-5256-11ea-af42-8fc22dbbaafc
53592382-5256-11ea-a47b-f79549f81654,5360bfe8-5256-11ea-9a10-e3712f9b6056
535c78c0-5256-11ea-a1a9-8b30691b7d8f,5360cbdc-5256-11ea-a5cd-1355dfbe29db
534dbccc-5256-11ea-ade9-fb40ad7f8189,5360d762-5256-11ea-a5a2-27dc1dd77ccf
534dd61c-5256-11ea-9e91-dbb9e7e2fdf2,5360e266-5256-11ea-9530-1be341fe9111
535fe726-5256-11ea-b205-0f340c687d87,5360ed74-5256-11ea-bce6-7b075ec36f82
5356676e-5256-11ea-b4b5-5bc790ac4aa0,5360fa3a-5256-11ea-90a3-2b8a48db02f8
53554d34-5256-11ea-88e9-6ff9e3698e97,53610e80-5256-11ea-8de6-f3c31333c97d
534be136-5256-11ea-bb54-1f587e6c1190,53611e66-5256-11ea-9162-238b6d00ae90
535a587e-5256-11ea-96c9-07eb8dc01c96,53612686-5256-11ea-86c5-fb8a19197a23
535c8540-5256-11ea-b273-6f7650faca04,536130b8-5256-11ea-9a1f-f38a40f6abb0
534cbaca-5256-11ea-a20b-d7fa423e252b,53613c52-5256-11ea-ab2b-8b714d07f66d
534c6f16-5256-11ea-b752-af3839ab5175,536146d4-5256-11ea-8411-7b5f99626bf6
535c8540-5256-11ea-b273-6f7650faca04,53615110-5256-11ea-a837-ff3204772fb1
535c20fa-5256-11ea-9462-6f582ca8c2d7,53615d40-5256-11ea-900c-7720d8294275
53566d68-5256-11ea-b544-bf387e068da5,53617c30-5256-11ea-aa4e-3baeb66bfd59
534c013e-5256-11ea-9e01-77d26a9c28ea,536183b0-5256-11ea-8fe2-7baccca98422
535eb32e-5256-11ea-805d-53ce8b1b8a5d,5361906c-5256-11ea-a2cb-f7c0e895d12c
536183b0-5256-11ea-8fe2-7baccca98422,5361981e-5256-11ea-9e22-8fca07a195fd
535fdbaa-5256-11ea-b35f-3f61839378ea,5361a174-5256-11ea-8c59-e7ee7193e451
534ddf86-5256-11ea-9919-fb0a2437ad26,5361abd8-5256-11ea-834b-ff33b25598eb
5358e7dc-5256-11ea-9235-bfa935650c02,5361b984-5256-11ea-8dc3-efad10fa0941
535b8e7e-5256-11ea-9735-8bdfb7b8b7d8,5361c17c-5256-11ea-9eed-5b1f6a584fe5
535889c2-5256-11ea-86c4-ebc8b6a7e473,5361de14-5256-11ea-aba3-bbb80c8e9afd
53522e56-5256-11ea-8dac-37a00e6e9f3d,5361e8a0-5256-11ea-8412-4f5910fdeaf7
535154b8-5256-11ea-b325-f31b88871d42,5361f340-5256-11ea-a12b-c364a2913b69
535ee614-5256-11ea-b1d4-737c8c9a0c10,5362015a-5256-11ea-b231-8f6239dd5cdf
53605968-5256-11ea-84cd-2bb0986dceeb,53620be6-5256-11ea-8d3b-3f9413d1b0a8
535956c2-5256-11ea-8bdc-53aa8a5c0b2f,5362138e-5256-11ea-977c-9f88d88eb1d9
53575390-5256-11ea-8c28-9f4e772beef5,53621d52-5256-11ea-9943-bb854d0b9f61
535ac98a-5256-11ea-8fe1-abb5189beacb,53622482-5256-11ea-af58-2f63a1758750
535ed732-5256-11ea-8eac-df4cdecd102f,536247c8-5256-11ea-a16b-bb8697fb1060
534fae38-5256-11ea-afb6-bf6d89ce6ed6,53624f70-5256-11ea-a3ee-6fc9a193eebe
53537784-5256-11ea-b939-cbd8bdf81e1a,536256f0-5256-11ea-b0f5-5bd7cb550bca
535d84fe-5256-11ea-b2a6-438ca1b88de5,536261c2-5256-11ea-976f-937b01dfd415
53509636-5256-11ea-97ba-c3681a161599,53627022-5256-11ea-8759-87331075d694
534f6266-5256-11ea-8c62-dbc3a1237d94,5362773e-5256-11ea-a815-5bc880b5f982
534d184e-5256-11ea-920a-237be7e27299,53629f16-5256-11ea-8c17-07f497b2560d
534be136-5256-11ea-bb54-1f587e6c1190,5362a9ac-5256-11ea-b1f1-576774f42086
53575ad4-5256-11ea-a6ce-737de49462ad,5362b046-5256-11ea-9162-7bb0b5e6616a
5357d504-5256-11ea-97d5-d7e2c31d8a02,5362b83e-5256-11ea-87b2-07511a44d289
53583c2e-5256-11ea-b9a2-2b96da7a3237,5362c612-5256-11ea-a42c-6b5934ff99b7
534ea38a-5256-11ea-90ac-27876a039eb1,5362bf3c-5256-11ea-a6d2-db54a0b3d5b8
53587748-5256-11ea-aeeb-a7c7d346e022,5362d1e8-5256-11ea-8b6b-1701261318b7
534c60ca-5256-11ea-9c33-6faa95d7fbf7,5362d972-5256-11ea-ae36-13fa59420c2f
5352eddc-5256-11ea-849d-0fa940c9f34e,53630c26-5256-11ea-9649-bf5d4097834d
535a40d2-5256-11ea-8776-d30180c9cd7b,53631810-5256-11ea-b296-53bd22eba5ad
534eeb38-5256-11ea-bf3d-f3881c0b26c9,5363206c-5256-11ea-a9a5-fb7d71e032e3
5362c612-5256-11ea-a42c-6b5934ff99b7,536327ba-5256-11ea-ac6a-e78593bab436
534ea38a-5256-11ea-90ac-27876a039eb1,536337a0-5256-11ea-89b4-0f91d8591735
536247c8-5256-11ea-a16b-bb8697fb1060,5363300c-5256-11ea-818f-07144bd3edeb
53534750-5256-11ea-96b4-27dd8e296cb7,53634a1a-5256-11ea-bc67-73e1d7ed3ab1
5360b4bc-5256-11ea-af42-8fc22dbbaafc,53633f02-5256-11ea-bf39-3713f0f26f4c
53527fb4-5256-11ea-9ac6-9fa25e396ba4,536370f8-5256-11ea-8eea-03bc412f09b1
534f429a-5256-11ea-bcdf-ff0af7edb256,53637b02-5256-11ea-beee-e378393405c6
534b05f4-5256-11ea-bfa9-1372da49780a,536382f0-5256-11ea-aded-9be86be63f4b
535d761c-5256-11ea-a64d-53794b418dbc,53638e6c-5256-11ea-a246-d735fd747812
535f6b3e-5256-11ea-bd0d-9f218ed1ad0c,53639ae2-5256-11ea-a6ee-037e5337be4b
534f3494-5256-11ea-8d6a-473facb0e12e,5363a21c-5256-11ea-8524-6b504382017c
535889c2-5256-11ea-86c4-ebc8b6a7e473,5363b996-5256-11ea-8a91-7ff879108130
534e4d0e-5256-11ea-908f-d374255a90ed,5363c0e4-5256-11ea-ba0b-c3e04677fab1
53553236-5256-11ea-b038-1b41c296a31c,5363dc46-5256-11ea-a389-ffa19be0448f
535481ba-5256-11ea-a158-ef2fbebcef31,5363f4a6-5256-11ea-8e6a-8fce1d3b7d4a
535ca99e-5256-11ea-a92e-83bc03f08f8c,53640554-5256-11ea-9811-0ff20ba767a3
534ef808-5256-11ea-83ba-dbd3e4560ede,5364154e-5256-11ea-9bdd-bb83c110122d
535804fc-5256-11ea-8e23-d76acf1227cf,5364149a-5256-11ea-81f2-bfd47ce32f08
535add30-5256-11ea-bbc6-ff912ca943a8,53641d96-5256-11ea-a059-47cbd40c9137
535e26d4-5256-11ea-9cc6-bbea5d8c4ef6,536424f8-5256-11ea-bd19-af339cadafef
534ed562-5256-11ea-ae79-d3797b476745,53643038-5256-11ea-a0f0-17419e59eb76
535a2804-5256-11ea-9cac-ff9ee6b51b88,53643fa6-5256-11ea-b5d0-3776b168f538
5362c612-5256-11ea-a42c-6b5934ff99b7,53645a4a-5256-11ea-84bf-cb45e814b7df
5360cbdc-5256-11ea-a5cd-1355dfbe29db,536469d6-5256-11ea-aaa0-97e1556cd34b
5353a218-5256-11ea-b50c-4f9ae1c4f10a,53647d68-5256-11ea-b2a8-ef2a45bcb377
534c39c4-5256-11ea-a3df-5f1c926cefca,53648722-5256-11ea-b6d7-bb950c4ae924
53547c56-5256-11ea-abaa-ef583f933d2f,53648d30-5256-11ea-afe2-1fda08888b3e
534f9fba-5256-11ea-9495-ff7b29416b2e,5364946a-5256-11ea-9014-474e353451c0
534f5320-5256-11ea-9d31-bf4d41ff5634,53649bf4-5256-11ea-81fe-c355f31a7d2c
535494de-5256-11ea-8053-cffc5d794d23,5364a720-5256-11ea-aa79-876c5d8af36d
53630c26-5256-11ea-9649-bf5d4097834d,5364c67e-5256-11ea-b257-eb5baeb4e8bf
5358a402-5256-11ea-984d-97adf1357106,5364d268-5256-11ea-bb94-b767afdc0c54
534bfa72-5256-11ea-a7df-ab8e3b717cd4,5364e1ea-5256-11ea-a93b-2335eba41cd3
535629ca-5256-11ea-81fb-9f95e16d1b38,5364ef32-5256-11ea-a8b0-67a5b60c26d2
53516f3e-5256-11ea-8275-f378b394737d,5364ffcc-5256-11ea-a7cc-7f773ca8b01f
535039e8-5256-11ea-88bf-939be85ab202,536512be-5256-11ea-becd-176fb0e56f50
535d5808-5256-11ea-a395-7b14a1ff8bc9,53650bac-5256-11ea-aa75-1b6bed244aa0
535c4058-5256-11ea-b315-6794bddcc66b,536519e4-5256-11ea-9e3a-df9f5636bcb0
53617c30-5256-11ea-aa4e-3baeb66bfd59,53653a00-5256-11ea-addf-bbd18bfc7898
53516f3e-5256-11ea-8275-f378b394737d,53652dda-5256-11ea-ab2a-67eea9740271
535290a8-5256-11ea-9a8d-77fccd3bbc08,536545c2-5256-11ea-aa87-ef9532a646c2
53527fb4-5256-11ea-9ac6-9fa25e396ba4,53656c3c-5256-11ea-ba4e-8b2307b39b31
5363f4a6-5256-11ea-8e6a-8fce1d3b7d4a,536578bc-5256-11ea-895b-c7dd4bea03f2
536183b0-5256-11ea-8fe2-7baccca98422,53657fa6-5256-11ea-9b64-df9a1fe9f5d3
5352f48a-5256-11ea-9863-0710597dc099,536586cc-5256-11ea-ba5d-9b29f8750f16
534ef1dc-5256-11ea-b17b-6fac8f8b209e,53658e9c-5256-11ea-8fe5-97c816593d98
5364e1ea-5256-11ea-a93b-2335eba41cd3,53659e14-5256-11ea-9047-ab6f39b3844e
535e1fe0-5256-11ea-8251-ef99c28e0530,5365aab2-5256-11ea-9ee5-03cd18b2ee9b
53546df6-5256-11ea-bb4c-2fc7d4362450,5365b30e-5256-11ea-939f-eb6d41ba448e
535c8540-5256-11ea-b273-6f7650faca04,5365ce2a-5256-11ea-b20c-f7390baa8529
53521790-5256-11ea-9d13-b31daa9aa32e,5365d988-5256-11ea-a489-df54d1b147a6
535f219c-5256-11ea-a71c-8f36035888b1,5365e900-5256-11ea-89d9-0b5650bd6e47
535cf5f2-5256-11ea-b0e7-6b6e9164fe8a,5365f044-5256-11ea-9619-8fa3621af152
535ac2a0-5256-11ea-8ef1-3b2f1a5dd7db,5365fcba-5256-11ea-b0c5-cb92b20408e4
535f8916-5256-11ea-b203-23222df95144,53660656-5256-11ea-8533-4fd5d4e70a01
53595e60-5256-11ea-b684-b78dc2f7893e,53661362-5256-11ea-b048-8fe3961ba57c
5358d166-5256-11ea-aa8b-33ef64dde5e7,536620c8-5256-11ea-8897-5f582ab5d9db
536247c8-5256-11ea-a16b-bb8697fb1060,53665368-5256-11ea-a062-6bea15e7e75d
53607416-5256-11ea-b2d1-13a993a7fb98,53665f0c-5256-11ea-8f46-17a0a2aa86a1
536620c8-5256-11ea-8897-5f582ab5d9db,53663cac-5256-11ea-95fe-67de2196cd8e
534b0de2-5256-11ea-8971-dbb6719b4464,536666e6-5256-11ea-8cf6-43fda30e2d2a
534e8e9a-5256-11ea-82a0-a3a761bcc8be,53664486-5256-11ea-a9ba-cb5601d2875a
534ec7ca-5256-11ea-a56f-f38cae38db69,53667848-5256-11ea-b04f-eb4c4b76b90e
534c671e-5256-11ea-ac42-3b0ea9661720,53668b4e-5256-11ea-bd93-d7ae3b668f2d
534a8b06-5256-11ea-9094-b32076a02e54,53668446-5256-11ea-9958-f36ea9303b7e
534ac94a-5256-11ea-98c3-a3c7da1eeeb0,5366c8ca-5256-11ea-8056-c3d07792133b
5358b46a-5256-11ea-ab46-f332b735ea5f,5366d0ea-5256-11ea-b300-07851aa2cd65
5359b608-5256-11ea-8378-33d70c1ed3ca,5366dafe-5256-11ea-a1b3-2bbb4eaa6997
5360d762-5256-11ea-a5a2-27dc1dd77ccf,5366e2ec-5256-11ea-b892-2b4698dbbcd5
534c182c-5256-11ea-a617-dfd9df917b35,5366eb66-5256-11ea-bc0c-432f1ad3c464
5354e9e8-5256-11ea-acf3-07099545976d,5366f264-5256-11ea-a9cf-6711f099bd69
5353fbf0-5256-11ea-bb77-3bfc812cc8dc,5366f872-5256-11ea-827d-2bc134081f36
5356d0e6-5256-11ea-b27c-bf19cb74cabc,53670024-5256-11ea-9f05-6bd036007ece
53667848-5256-11ea-b04f-eb4c4b76b90e,53671668-5256-11ea-b381-032fb6310546
535d1622-5256-11ea-a122-87f3ff41b880,53672e78-5256-11ea-8e54-67f595d8c266
535154b8-5256-11ea-b325-f31b88871d42,536743b8-5256-11ea-be70-c3f65a152309
5365d988-5256-11ea-a489-df54d1b147a6,53674c32-5256-11ea-b4c6-ebcdbd6d95a4
53604f4a-5256-11ea-9b2b-43b9567ca340,5367536c-5256-11ea-aacd-a39cb6a51efd
53665368-5256-11ea-a062-6bea15e7e75d,53675baa-5256-11ea-9978-6f86dbfe9049
5359c2ba-5256-11ea-a20f-5f8231b2cf3b,536762f8-5256-11ea-b4ca-eb4d51c6acd1
53611e66-5256-11ea-9162-238b6d00ae90,53676ffa-5256-11ea-85f7-a33e133fec34
535ba59e-5256-11ea-b306-0f05b8e50e50,53677dba-5256-11ea-9a06-5f3d4966819f
5365d988-5256-11ea-a489-df54d1b147a6,53679480-5256-11ea-af9f-5b8fb05c4f45
535408ac-5256-11ea-b16c-e30d41ee7826,5367a75e-5256-11ea-9d70-dbd548be791d
535475b2-5256-11ea-8856-afa4fdb53a9c,5367b97e-5256-11ea-9523-e7fd0bfa060b
534e8e9a-5256-11ea-82a0-a3a761bcc8be,5367c054-5256-11ea-85ae-f7ab0b68d373
535461a8-5256-11ea-ae19-fb91857c7e7c,5367c810-5256-11ea-a19f-e3254a1b0fa1
53679480-5256-11ea-af9f-5b8fb05c4f45,5367cf9a-5256-11ea-a0ab-8f1603609e07
534be9b0-5256-11ea-858a-f3fa21192bfc,5367db7a-5256-11ea-8ba2-d3ee9eb6edfa
535790e4-5256-11ea-b7f1-7f28cfe7ea3d,5367e692-5256-11ea-9089-933733c61d95
534cac1a-5256-11ea-ac53-639c3a1e5fd4,5367f9a2-5256-11ea-b5b1-4ba64f55963a
534ca13e-5256-11ea-b24f-c721f1e8c624,536804f6-5256-11ea-8ab6-67010dbedd57
5353a218-5256-11ea-b50c-4f9ae1c4f10a,53682102-5256-11ea-a92b-6bd3d747fcc0
535f451e-5256-11ea-8d51-c7755188d58a,5368326e-5256-11ea-bd97-37d6fbee5715
53521790-5256-11ea-9d13-b31daa9aa32e,53682936-5256-11ea-90e1-9332d5e233be
535c60ec-5256-11ea-8668-df69f53c3e25,536849c0-5256-11ea-a384-67e6902682ca
5357d504-5256-11ea-97d5-d7e2c31d8a02,53685154-5256-11ea-9d80-53441969584b
536370f8-5256-11ea-8eea-03bc412f09b1,536859e2-5256-11ea-9486-07b2dcfe2b78
534e77de-5256-11ea-bc8d-ab5ddb47ea7b,536860fe-5256-11ea-9af5-0b3b730bc94d
5363c0e4-5256-11ea-ba0b-c3e04677fab1,53686860-5256-11ea-a250-73bd26f35375
5362c612-5256-11ea-a42c-6b5934ff99b7,53688eb2-5256-11ea-92ca-2fd17b2071ff
535072be-5256-11ea-a201-a3d24d2ed9d7,53689826-5256-11ea-97bd-c779e6ff48e0
535c20fa-5256-11ea-9462-6f582ca8c2d7,53689fe2-5256-11ea-a518-83397c3dfbf7
536849c0-5256-11ea-a384-67e6902682ca,5368aff0-5256-11ea-a980-67f4a9361fd0
534cc178-5256-11ea-bbf8-e79c704e2fba,5368b810-5256-11ea-a02f-7f99994d2cb0
5363f4a6-5256-11ea-8e6a-8fce1d3b7d4a,5368c5b2-5256-11ea-85c5-230c4721e93f
534fd872-5256-11ea-a3ed-af3549fc786b,5368cfee-5256-11ea-b99c-a7fd80e569d4
5357b920-5256-11ea-9c03-c72bf4b20d89,5368d7b4-5256-11ea-a9c3-1f3a1f115ac3
536859e2-5256-11ea-9486-07b2dcfe2b78,5368f7f8-5256-11ea-80c9-6f3599641b76
535eac76-5256-11ea-9109-c3126bdf53c0,53690036-5256-11ea-a99d-e3f65cfe789e
53502c28-5256-11ea-ab55-53807d0bb8bc,536907b6-5256-11ea-84ab-371dcc82fd98
534b8e2a-5256-11ea-83c8-9f8e67b3ad84,536914ea-5256-11ea-bc84-23da31985834
5364154e-5256-11ea-9bdd-bb83c110122d,53692098-5256-11ea-b134-17fe807b07b8
535e9d12-5256-11ea-a43e-53750cc5479d,53693236-5256-11ea-a338-7f8fb24633df
53604f4a-5256-11ea-9b2b-43b9567ca340,53693dd0-5256-11ea-b4d7-fb57a5499cf9
534c1296-5256-11ea-82e5-cfdc91b56ccc,536944b0-5256-11ea-b1b7-13a7955e2152
5365aab2-5256-11ea-9ee5-03cd18b2ee9b,536968a0-5256-11ea-bf1d-8305e609b577
535eec9a-5256-11ea-8470-af25e130167e,53696f76-5256-11ea-91ba-032c015941c7
536469d6-5256-11ea-aaa0-97e1556cd34b,536976ce-5256-11ea-ac3e-d39941f5bbf0
53540f78-5256-11ea-825f-c78853c1d9bf,536981b4-5256-11ea-95fb-fb18dd771a31
53693236-5256-11ea-a338-7f8fb24633df,53698d6c-5256-11ea-a319-5b3a2cf537b9
534e4d0e-5256-11ea-908f-d374255a90ed,53699a0a-5256-11ea-834d-bff834a3d834
5368cfee-5256-11ea-b99c-a7fd80e569d4,5369aa72-5256-11ea-9b28-c3eec75fce95
535415ea-5256-11ea-9f14-f3437250fc1e,5369b2a6-5256-11ea-89cb-df4b60588842
5354f73a-5256-11ea-a35b-3b8e98d141a6,5369e424-5256-11ea-a7a6-4bbd4fe8cd40
5364ef32-5256-11ea-a8b0-67a5b60c26d2,5369dd3a-5256-11ea-93e6-b7717ba7c2a3
53531c12-5256-11ea-bfca-0f0e9bd12046,5369f298-5256-11ea-a28c-1ff8e442d809
534ba02c-5256-11ea-9b03-734534991c2c,5369fca2-5256-11ea-b522-63aadd1df439
53693dd0-5256-11ea-b4d7-fb57a5499cf9,536a049a-5256-11ea-9c67-6b7d4c37a4ec
536907b6-5256-11ea-84ab-371dcc82fd98,536a1124-5256-11ea-865b-97b24c250e5c
53659e14-5256-11ea-9047-ab6f39b3844e,536a1b56-5256-11ea-861f-2bdc73abc49d
5357c064-5256-11ea-ba12-b7924675dbc6,536a231c-5256-11ea-b88a-f37a1bb6b310
5362c612-5256-11ea-a42c-6b5934ff99b7,536a4b8a-5256-11ea-a7f2-dbf2d77f031f
534f096a-5256-11ea-aea5-9730b8e5b9b1,536a53c8-5256-11ea-93cc-bbb47a627d39
534b8e2a-5256-11ea-83c8-9f8e67b3ad84,536a5f58-5256-11ea-9a9f-438597ab658a
535777f8-5256-11ea-bc3b-63c6f403473b,536a7236-5256-11ea-ad69-dff0224f4eb7
534cc754-5256-11ea-a2ee-ab539220c6e7,536a7e0c-5256-11ea-89c6-cf4054eba876
53617c30-5256-11ea-aa4e-3baeb66bfd59,536a8668-5256-11ea-b845-034143b1a4ab
536586cc-5256-11ea-ba5d-9b29f8750f16,536a8e92-5256-11ea-a190-2752cd8338bd
53500586-5256-11ea-bb18-b317c39dad51,536a990a-5256-11ea-aed1-6b71b9d07986
5359f528-5256-11ea-b910-37b23347d82a,536ab958-5256-11ea-a157-439618751514
534bc3ae-5256-11ea-8c14-4be046243514,536ab296-5256-11ea-90c3-4fb3869e6b43
534cc754-5256-11ea-a2ee-ab539220c6e7,536ac510-5256-11ea-a8fb-5bc284b6c6b8
534f6266-5256-11ea-8c62-dbc3a1237d94,536ad9b0-5256-11ea-9532-0f0c89cfe6f8
53554352-5256-11ea-9211-fb2829cace8b,536aeeaa-5256-11ea-82b9-e3d56e0805fa
5360fa3a-5256-11ea-90a3-2b8a48db02f8,536af5f8-5256-11ea-b65b-bba8e3740684
53542db4-5256-11ea-bfc0-ef3e4c95bcf9,536afdb4-5256-11ea-a1e1-2b21b85350a5
5359b608-5256-11ea-8378-33d70c1ed3ca,536b27c6-5256-11ea-8b9c-fb71865c4c48
535354de-5256-11ea-a328-dbbefc85abbd,536b3540-5256-11ea-9d3e-47ad44566431
535c59f8-5256-11ea-8063-7ba73124e811,536b3ef0-5256-11ea-948d-d390cbc6b4fe
53620be6-5256-11ea-8d3b-3f9413d1b0a8,536b4ce2-5256-11ea-bc8f-078c9ba90421
536762f8-5256-11ea-b4ca-eb4d51c6acd1,536b6920-5256-11ea-a562-e3e39c90f177
53516f3e-5256-11ea-8275-f378b394737d,536b609c-5256-11ea-ae88-47c4f8f9dd64
535aad38-5256-11ea-9075-37b1110534d8,536b85fe-5256-11ea-b47f-230a0eed3779
5351215a-5256-11ea-84f8-af3b2085794c,536b9738-5256-11ea-b204-8363077b12d3
534cc754-5256-11ea-a2ee-ab539220c6e7,536ba016-5256-11ea-b78c-1b561216fc98
536519e4-5256-11ea-9e3a-df9f5636bcb0,536ba782-5256-11ea-b9d3-b397c4827a8f
535b409a-5256-11ea-baee-8f82d0669149,536baf20-5256-11ea-926c-fbf29a4b086d
5357099e-5256-11ea-968d-cb4e2a31438a,536bb678-5256-11ea-a0d5-0351f2c5994b
534fb4be-5256-11ea-8f00-67f3a232a41b,536bc15e-5256-11ea-814c-eb16e2e2de67
535745a8-5256-11ea-9cb0-6feca19c1b94,536bc8de-5256-11ea-a2be-0368cd09c622
53648722-5256-11ea-b6d7-bb950c4ae924,536bf3a4-5256-11ea-a86f-4be0771d0e9a
534b9438-5256-11ea-96d6-235f48eafc70,536bff0c-5256-11ea-aecc-ff888e074acc
536512be-5256-11ea-becd-176fb0e56f50,536c0678-5256-11ea-b0b9-fb0c05ed92d9
534dcbc2-5256-11ea-b0b6-9359357323d2,536c12b2-5256-11ea-a1fb-cf6462f62cc1
5368326e-5256-11ea-bd97-37d6fbee5715,536c1d0c-5256-11ea-a9f1-6f722f096429
536382f0-5256-11ea-aded-9be86be63f4b,536c24be-5256-11ea-8d70-dfb4a907e77a
536327ba-5256-11ea-ac6a-e78593bab436,536c2ca2-5256-11ea-b2da-57779a5ea5ab
534c4c5c-5256-11ea-a734-d71f7841e48a,536c3396-5256-11ea-9726-33023c80c121
53627022-5256-11ea-8759-87331075d694,536c5a88-5256-11ea-ae35-d7b745b1debc
536c3396-5256-11ea-9726-33023c80c121,536c69c4-5256-11ea-acb7-23cae3dee2f4
5357a35e-5256-11ea-bcf9-bb4aa2a9ccef,536c786a-5256-11ea-ac88-1bb47abf1db4
5358d166-5256-11ea-aa8b-33ef64dde5e7,536c8012-5256-11ea-ab1c-23106fe1f4fe
534d6cea-5256-11ea-87c0-eb17fee1b425,536c8990-5256-11ea-b8a5-97d9decc439a
535f6b3e-5256-11ea-bd0d-9f218ed1ad0c,536c925a-5256-11ea-900c-1b533ec497ba
53698d6c-5256-11ea-a319-5b3a2cf537b9,536c9a0c-5256-11ea-8955-67187eab77fe
535881f2-5256-11ea-9dd0-d714cb5d28ad,536ca178-5256-11ea-af9b-87bd22904d0f
534d75fa-5256-11ea-8892-23242f3e2053,536cc478-5256-11ea-8b2c-97d621ecd5ca
535f5130-5256-11ea-8855-3fd57a9614fa,536cd27e-5256-11ea-b5a5-f3176dc0b391
5361f340-5256-11ea-a12b-c364a2913b69,536cdd50-5256-11ea-a16f-972318d68e77
535c9df0-5256-11ea-a6d7-f7a1bc22970c,536cecfa-5256-11ea-b114-bf47296b0bc6
534fe7a4-5256-11ea-8e24-fbc393e74d2e,536cf7cc-5256-11ea-96fb-83db5fbdf48b
535db73a-5256-11ea-ae04-6bef94b29c76,536d038e-5256-11ea-9f9c-a7a7b66d9b27
5358d166-5256-11ea-aa8b-33ef64dde5e7,536d0a96-5256-11ea-ad93-3b2f9ed5c4b3
535226f4-5256-11ea-80bc-17185d9bb949,536d1e78-5256-11ea-9198-afd791813e43
534bf3ba-5256-11ea-a348-effdebf81366,536d2a58-5256-11ea-b310-4f3c3d9cbd53
534f6266-5256-11ea-8c62-dbc3a1237d94,536d3a48-5256-11ea-80b0-0bc9ba6b969e
534d3702-5256-11ea-b031-472c8b057f13,536d48d0-5256-11ea-8afb-e785190f12f0
53624f70-5256-11ea-a3ee-6fc9a193eebe,536d54ce-5256-11ea-8aad-7bbc664737b3
53617c30-5256-11ea-aa4e-3baeb66bfd59,536d678e-5256-11ea-82d8-07d7b34b6719
5353bba4-5256-11ea-8273-5712b7eadaae,536d790e-5256-11ea-b7a4-5f5edd6c4b8d
535e5c30-5256-11ea-9f8d-9f38aae0e521,536d8048-5256-11ea-a69f-53ee919ff466
535ec1a2-5256-11ea-ac58-b3a9dba639fd,536d876e-5256-11ea-a1d4-7f79f66ccb1b
5363300c-5256-11ea-818f-07144bd3edeb,536d9934-5256-11ea-ab6a-470d3c09e246
5354f73a-5256-11ea-a35b-3b8e98d141a6,536da71c-5256-11ea-a659-2bdcd9cb97ea
536a990a-5256-11ea-aed1-6b71b9d07986,536daf82-5256-11ea-85d2-9b0247d36e41
5363c0e4-5256-11ea-ba0b-c3e04677fab1,536dcd5a-5256-11ea-8f91-d3eaef0ba2dd
53668446-5256-11ea-9958-f36ea9303b7e,536ddafc-5256-11ea-a349-938d4b5eee94
535b0c06-5256-11ea-b626-070c9b5f9f5d,536deab0-5256-11ea-8abc-5b541363f19b
535b164c-5256-11ea-884e-97a8a5694d57,536e0090-5256-11ea-bd73-2306c7dfe465
5367f9a2-5256-11ea-b5b1-4ba64f55963a,536e09a0-5256-11ea-a4af-eb953d3113a2
534ea38a-5256-11ea-90ac-27876a039eb1,536e10f8-5256-11ea-bc97-afe3b720045a
536c3396-5256-11ea-9726-33023c80c121,536e18fa-5256-11ea-a6f3-03962bc0bc72
53573d74-5256-11ea-8597-f7a02926ff21,536e1fee-5256-11ea-bb9c-b3f3274b788e
534c5aee-5256-11ea-b1b7-6fdda5f9bcab,536e38f8-5256-11ea-8133-f355cd234fe7
534e8e9a-5256-11ea-82a0-a3a761bcc8be,536e4046-5256-11ea-8907-4f3f2423d5e2
534bc3ae-5256-11ea-8c14-4be046243514,536e4f6e-5256-11ea-83e5-2350648034ec
535dc888-5256-11ea-b1db-1b300c438d68,536e679c-5256-11ea-b847-67c65eabdfa8
536c0678-5256-11ea-b0b9-fb0c05ed92d9,536e7962-5256-11ea-9cad-53b5bfe4ef7c
536ddafc-5256-11ea-a349-938d4b5eee94,536e84b6-5256-11ea-a647-179bfc6df727
5356d74e-5256-11ea-b35e-27ed7b3ab12b,536e95aa-5256-11ea-9dcf-777661c3b280
535ac98a-5256-11ea-8fe1-abb5189beacb,536ea824-5256-11ea-aefc-afbfa8716a3f
5361e8a0-5256-11ea-8412-4f5910fdeaf7,536eb06c-5256-11ea-a02a-ebca9d342887
534c182c-5256-11ea-a617-dfd9df917b35,536edd30-5256-11ea-b4fe-0fb559b2fa2e
536261c2-5256-11ea-976f-937b01dfd415,536ef130-5256-11ea-b02c-bf1205872f79
5364946a-5256-11ea-9014-474e353451c0,536efa86-5256-11ea-b939-93986f8ee3dd
5365f044-5256-11ea-9619-8fa3621af152,536ee6ae-5256-11ea-8b37-43e0e3aee0f8
53525cb4-5256-11ea-a0b6-23e3e5d9caa8,536f029c-5256-11ea-a1a1-37e3307fab78
535fdbaa-5256-11ea-b35f-3f61839378ea,536f1b2e-5256-11ea-94e9-8f382c30bca0
536424f8-5256-11ea-bd19-af339cadafef,536f238a-5256-11ea-8b72-cf374cacb1e4
5352b132-5256-11ea-92a4-0f7c755962dc,536f6034-5256-11ea-b4db-17da0bb13432
534a9204-5256-11ea-92df-ffed56267640,536f68ea-5256-11ea-8076-53a8ae494e90
534ddf86-5256-11ea-9919-fb0a2437ad26,536f7092-5256-11ea-84cc-ab4e6b5fa68a
535b388e-5256-11ea-a1b6-93b2b2835713,536f7934-5256-11ea-8e21-cfeb5cfd0b35
5352fee4-5256-11ea-adc1-3fb1577250a3,536f8be0-5256-11ea-8c95-6bf972c228ee
53590064-5256-11ea-a583-e3fc837ecbab,536f9342-5256-11ea-9bec-8397a3959b28
536a231c-5256-11ea-b88a-f37a1bb6b310,536fb7be-5256-11ea-b59e-a3b00f357657
53699a0a-5256-11ea-834d-bff834a3d834,536fbfd4-5256-11ea-81db-eba39f6ff6ce
5363300c-5256-11ea-818f-07144bd3edeb,536fcd30-5256-11ea-81a6-eb8a6bddd462
53668b4e-5256-11ea-bd93-d7ae3b668f2d,536fd4c4-5256-11ea-90f5-d33d3b1c98bd
535c9df0-5256-11ea-a6d7-f7a1bc22970c,536fdc30-5256-11ea-9fc8-7f4c774a4537
5364e1ea-5256-11ea-a93b-2335eba41cd3,536fe84c-5256-11ea-b1df-f3b084317297
536094f0-5256-11ea-bfa3-1f2751d89f5a,536ff382-5256-11ea-b84d-4f80339714ae
5351004e-5256-11ea-b552-2b35648e594d,536ffe72-5256-11ea-8ded-c343d00c11f0
5353d59e-5256-11ea-8c6c-b317e4c54bf8,53701bfa-5256-11ea-b29d-db3b24512f26
535e1fe0-5256-11ea-8251-ef99c28e0530,537023de-5256-11ea-8570-7f4b5f65fa1b
535290a8-5256-11ea-9a8d-77fccd3bbc08,537036e4-5256-11ea-9199-4f2238a17714
5356e72a-5256-11ea-b483-53aa6120b811,537042c4-5256-11ea-a41f-23ddf71c37f6
535554e6-5256-11ea-9c25-f3abdb15c686,53704d50-5256-11ea-bb95-07eb9a62fd6e
535415ea-5256-11ea-9f14-f3437250fc1e,53705c96-5256-11ea-8028-278e26d17655
5350180a-5256-11ea-82d5-6741349cd020,537064ac-5256-11ea-9bad-17512d1e1fe2
536fd4c4-5256-11ea-90f5-d33d3b1c98bd,53706cae-5256-11ea-957c-7b544f0344f9
534bc3ae-5256-11ea-8c14-4be046243514,53708ea0-5256-11ea-b3df-5f4b5987f54f
534f2e18-5256-11ea-a268-cf247d1a8e82,5370aea8-5256-11ea-bade-f3d6c791762d
536c3396-5256-11ea-9726-33023c80c121,5370c050-5256-11ea-ae06-8705f8e0f4db
534d8b12-5256-11ea-979a-7febff9a21c0,5370d1f8-5256-11ea-9d01-2f636305d340
536da71c-5256-11ea-a659-2bdcd9cb97ea,5370dc5c-5256-11ea-8c40-f738723c54b0
53633f02-5256-11ea-bf39-3713f0f26f4c,5370e3f0-5256-11ea-9fdc-6b9b0eefca99
53585f06-5256-11ea-9956-731c15558a2b,5370eb3e-5256-11ea-a0d4-c3294475017f
536094f0-5256-11ea-bfa3-1f2751d89f5a,5370f2dc-5256-11ea-b31d-175c8f20c70e
536a7e0c-5256-11ea-89c6-cf4054eba876,5370ff2a-5256-11ea-ba21-abfb9d59fb0e
5369aa72-5256-11ea-9b28-c3eec75fce95,537115dc-5256-11ea-8cf6-b3858b5701ee
535c922e-5256-11ea-ab9b-cf07a5a21d05,537127f2-5256-11ea-8cd5-e310c12df145
534cbaca-5256-11ea-a20b-d7fa423e252b,537138d2-5256-11ea-8f81-738845930f65
53613c52-5256-11ea-ab2b-8b714d07f66d,53714ae8-5256-11ea-9577-1b9f72e8bca1
535154b8-5256-11ea-b325-f31b88871d42,53715f60-5256-11ea-8104-5f3acd938891
534e7f18-5256-11ea-8dfd-0fa1f666c4b8,537165a0-5256-11ea-9baa-5b2e02c150d8
5354fe2e-5256-11ea-8627-6f6910c9040c,53716d02-5256-11ea-960e-43ebe904522c
534f3494-5256-11ea-8d6a-473facb0e12e,537183c8-5256-11ea-a6f1-6f843419afbc
53591572-5256-11ea-af49-6b3ab9ddfc10,5371973c-5256-11ea-995b-03c21aec530c
534cfa6c-5256-11ea-9990-0b9987b1a634,5371a146-5256-11ea-b1d4-479761397abe
535a613e-5256-11ea-908e-6f98a38feb16,5371a8f8-5256-11ea-99dc-77a0b9f64d31
534c5aee-5256-11ea-b1b7-6fdda5f9bcab,5371bd48-5256-11ea-8d79-53da72475ed9
534b1af8-5256-11ea-b7d2-abf3f158ff54,5371cc02-5256-11ea-a937-63ec5311b179
534ecf68-5256-11ea-a367-2b706f211177,5371d544-5256-11ea-9039-eb687a24fe5e
534ecf68-5256-11ea-a367-2b706f211177,5371e0b6-5256-11ea-bd98-efc22aed2094
5364e1ea-5256-11ea-a93b-2335eba41cd3,5371eb7e-5256-11ea-8ecd-5789fed4e529
53534750-5256-11ea-96b4-27dd8e296cb7,537207bc-5256-11ea-9d5f-8b114e84f306
534cef0e-5256-11ea-8f31-ff4ff57f2043,53720eba-5256-11ea-adec-6341f373e79b
5361f340-5256-11ea-a12b-c364a2913b69,53721950-5256-11ea-b7c7-733c93d7b94f
535fa5c2-5256-11ea-9936-0f4b7c8703f9,537227e2-5256-11ea-955c-7b0b5bb9fba0
5360d762-5256-11ea-a5a2-27dc1dd77ccf,53724042-5256-11ea-abb0-17dac3143da1
535c8540-5256-11ea-b273-6f7650faca04,53724a42-5256-11ea-8ba8-dfa41ffcd26c
53547c56-5256-11ea-abaa-ef583f933d2f,537258c0-5256-11ea-8cf8-cba7f901d04a
535107d8-5256-11ea-93fd-b35672fb6e37,53726090-5256-11ea-a1be-e795eb7b3918
534d990e-5256-11ea-aa35-d3d6aa0b54b7,537275c6-5256-11ea-9846-070a9f3c8550
5355ab44-5256-11ea-995c-eb3cab481662,53727d00-5256-11ea-a3b4-5f07dee78904
534e3bc0-5256-11ea-8bea-fbae60a1e48b,5372841c-5256-11ea-83b2-9ff838b23a87
53660656-5256-11ea-8533-4fd5d4e70a01,53728f84-5256-11ea-8fbf-1f1f7661e9a8
535f58ce-5256-11ea-aeb6-33b16d477c2f,5372ace4-5256-11ea-8eb1-d79a3c8b29eb
5360a7b0-5256-11ea-9f3d-470f3bcaea05,5372b770-5256-11ea-81e2-6bece90df6b8
5363c0e4-5256-11ea-ba0b-c3e04677fab1,5372cd64-5256-11ea-a5e6-27c1f5f83852
53615d40-5256-11ea-900c-7720d8294275,5372df5c-5256-11ea-af25-67a91d52871d
53598552-5256-11ea-b9ec-a39aec9ff720,5372e6f0-5256-11ea-af53-b749c73ca63e
534d990e-5256-11ea-aa35-d3d6aa0b54b7,5372edf8-5256-11ea-a2cf-37bd163a9454
534f9fba-5256-11ea-9495-ff7b29416b2e,5372f9d8-5256-11ea-b24c-9fd5c31f7c5a
53677dba-5256-11ea-9a06-5f3d4966819f,53730496-5256-11ea-af2a-93c476aabe12
53589ce6-5256-11ea-ae28-a7d06c36c3e7,537334de-5256-11ea-a49d-cf72a222da8b
534e7f18-5256-11ea-8dfd-0fa1f666c4b8,53733ca4-5256-11ea-8764-ff323e26d5a9
535f7f34-5256-11ea-a877-8bf53d0da4b4,53734460-5256-11ea-a87d-7f5a869b7200
536a049a-5256-11ea-9c67-6b7d4c37a4ec,53734ed8-5256-11ea-bdfb-fb2c17948c89
535f5130-5256-11ea-8855-3fd57a9614fa,53735748-5256-11ea-8c5e-7bfd21aa01d5
5363c0e4-5256-11ea-ba0b-c3e04677fab1,53736d96-5256-11ea-b12f-87442d26748a
5361981e-5256-11ea-9e22-8fca07a195fd,537361ca-5256-11ea-b6ba-abeb7bd86d7f
534c182c-5256-11ea-a617-dfd9df917b35,537375c0-5256-11ea-8b71-a331a0d49e19
536a1124-5256-11ea-865b-97b24c250e5c,5373aa90-5256-11ea-8954-47687dd984e9
5351da96-5256-11ea-a6ee-2f67988a6a58,5373b29c-5256-11ea-80f3-b31f9ae18064
535c60ec-5256-11ea-8668-df69f53c3e25,5373b9d6-5256-11ea-a389-ef6264cb032e
536e7962-5256-11ea-9cad-53b5bfe4ef7c,5373c0f2-5256-11ea-8a6a-c70848cf3a37
53698d6c-5256-11ea-a319-5b3a2cf537b9,5373cdea-5256-11ea-a234-f780a7ab2b72
5358d166-5256-11ea-aa8b-33ef64dde5e7,5373d9c0-5256-11ea-95f0-c3a754ac9685
53528946-5256-11ea-9a10-9bed37131eb2,5373ea28-5256-11ea-a793-3ba9df2d07a8
535a3600-5256-11ea-b420-9ff19259fd1c,53740080-5256-11ea-8fde-f705bb958fc0
53676ffa-5256-11ea-85f7-a33e133fec34,53741ade-5256-11ea-85a3-6f19fbc27d37
53715f60-5256-11ea-8104-5f3acd938891,537422d6-5256-11ea-91c1-573947c8fdc8
536e0090-5256-11ea-bd73-2306c7dfe465,53742b14-5256-11ea-9dad-13545c9b96b6
5353eda4-5256-11ea-bf39-af944d5dc602,53743370-5256-11ea-a96e-13476d2ba06d
5368d7b4-5256-11ea-a9c3-1f3a1f115ac3,53743aaa-5256-11ea-8e10-07eb8c454975
53515b52-5256-11ea-b58d-67ac3920506f,53744c7a-5256-11ea-bbb2-2b39057e3b18
535eec9a-5256-11ea-8470-af25e130167e,53745382-5256-11ea-919c-23b9bf92a039
53638e6c-5256-11ea-a246-d735fd747812,53746afc-5256-11ea-b354-3f59330e05f9
53682102-5256-11ea-a92b-6bd3d747fcc0,53748f32-5256-11ea-ac7c-f7ada456b85c
536da71c-5256-11ea-a659-2bdcd9cb97ea,537498ba-5256-11ea-8bc0-af8c49ad1d05
534bbd82-5256-11ea-908f-d32a960b743c,5374a2e2-5256-11ea-9f72-5718d336dd3a
53664486-5256-11ea-a9ba-cb5601d2875a,5374aa26-5256-11ea-93ad-c31e6f3e2448
53661362-5256-11ea-b048-8fe3961ba57c,5374b1f6-5256-11ea-b9d0-3339270d2784
535322fc-5256-11ea-8ddf-0b0b3bbbadd3,5374b9bc-5256-11ea-95a7-3f1639429f1e
53585826-5256-11ea-9654-d35f2c730d81,5374c57e-5256-11ea-9676-371876b1fbc4
5367b97e-5256-11ea-9523-e7fd0bfa060b,5374d280-5256-11ea-9cc4-abe6088e34e9
535f7f34-5256-11ea-a877-8bf53d0da4b4,5374fe36-5256-11ea-a5ed-cb719d24e792
536d876e-5256-11ea-a1d4-7f79f66ccb1b,53750624-5256-11ea-839d-bb49c6bd5e64
5360a7b0-5256-11ea-9f3d-470f3bcaea05,5375104c-5256-11ea-b11f-b34694dedc05
536e84b6-5256-11ea-a647-179bfc6df727,5375183a-5256-11ea-8092-fb3b82aeadee
536f7934-5256-11ea-8e21-cfeb5cfd0b35,53752528-5256-11ea-b38f-874da8e77ac9
535ed732-5256-11ea-8eac-df4cdecd102f,53753180-5256-11ea-b7b4-e732f3e48858
536c925a-5256-11ea-900c-1b533ec497ba,53753e1e-5256-11ea-8081-634306814b81
53744c7a-5256-11ea-bbb2-2b39057e3b18,537546fc-5256-11ea-9bbf-a3d59aa83f5b
537275c6-5256-11ea-9846-070a9f3c8550,53756aec-5256-11ea-97f0-9751fe271254
5362bf3c-5256-11ea-a6d2-db54a0b3d5b8,537577d0-5256-11ea-9ced-8f9b9404832d
5375183a-5256-11ea-8092-fb3b82aeadee,537592ba-5256-11ea-b4f4-4b139f39dee2
53620be6-5256-11ea-8d3b-3f9413d1b0a8,53759f9e-5256-11ea-856e-03b396454528
534f3494-5256-11ea-8d6a-473facb0e12e,5375a7e6-5256-11ea-8190-fbe807e26c00
5351cbdc-5256-11ea-ae63-9f68e3890d00,5375b29a-5256-11ea-a4c4-7f8e572ca4cc
5363dc46-5256-11ea-a389-ffa19be0448f,5375d4dc-5256-11ea-af57-77ec4927bb66
53742b14-5256-11ea-9dad-13545c9b96b6,5375e5b2-5256-11ea-b1a1-dfa961977726
53595e60-5256-11ea-b684-b78dc2f7893e,5375f386-5256-11ea-af46-9327f80732d4
5352ceb0-5256-11ea-af5a-97a40b3de9cb,5375fdc2-5256-11ea-9bd4-fbe8085c7bf1
534d6cea-5256-11ea-87c0-eb17fee1b425,53760cae-5256-11ea-b116-a337a66f2981
5365e900-5256-11ea-89d9-0b5650bd6e47,53761492-5256-11ea-b342-cbe1ab14a913
53752528-5256-11ea-b38f-874da8e77ac9,53761ffa-5256-11ea-a805-5bd3bbbb7c2e
53656c3c-5256-11ea-ba4e-8b2307b39b31,53764016-5256-11ea-adde-5bc7fee03630
535881f2-5256-11ea-9dd0-d714cb5d28ad,537646f6-5256-11ea-bce3-63c93f5866e1
534bf3ba-5256-11ea-a348-effdebf81366,5376566e-5256-11ea-8f86-1735de67d3e1
534e4200-5256-11ea-8cc4-2bfac7d14ac4,5376722a-5256-11ea-90eb-eff71e159786
5360a7b0-5256-11ea-9f3d-470f3bcaea05,537683be-5256-11ea-b753-7b1893214ade
535c27f8-5256-11ea-8e3b-7fa8f6247518,53768d0a-5256-11ea-aeac-434769b67b9a
5375e5b2-5256-11ea-b1a1-dfa961977726,53769502-5256-11ea-b1e1-0f958320fe4a
53740080-5256-11ea-8fde-f705bb958fc0,53769b56-5256-11ea-af4d-47357da1a139
535ad02e-5256-11ea-94aa-0f603b3aca53,5376b744-5256-11ea-8988-133dc337fb55
5371a8f8-5256-11ea-99dc-77a0b9f64d31,5376a6fa-5256-11ea-929a-5bb75819fec1
536944b0-5256-11ea-b1b7-13a7955e2152,5376bf0a-5256-11ea-8b44-df1a3e804508
53715f60-5256-11ea-8104-5f3acd938891,5376d1e8-5256-11ea-8588-5b05fbc6c627
5360a7b0-5256-11ea-9f3d-470f3bcaea05,5376f916-5256-11ea-bf30-2f3e50b48f22
534fe7a4-5256-11ea-8e24-fbc393e74d2e,5376f1c8-5256-11ea-a0e2-ab69b4c27fac
535fe726-5256-11ea-b205-0f340c687d87,53770460-5256-11ea-b486-b7eff843b980
536e4f6e-5256-11ea-83e5-2350648034ec,53770b40-5256-11ea-9e5f-17c84e2ede9d
534d11be-5256-11ea-b228-f7ce5a1d4807,53772076-5256-11ea-963a-9b7ef5cfe0f7
535ed732-5256-11ea-8eac-df4cdecd102f,537727e2-5256-11ea-a579-4b58d1c5eb77
536130b8-5256-11ea-9a1f-f38a40f6abb0,53772f58-5256-11ea-a038-f300e961adcb
536fcd30-5256-11ea-81a6-eb8a6bddd462,53773afc-5256-11ea-9ba4-9fe1805a5b5f
536a8668-5256-11ea-b845-034143b1a4ab,53775ac8-5256-11ea-b059-b35b283c7dd3
5361e8a0-5256-11ea-8412-4f5910fdeaf7,5377634c-5256-11ea-b081-8b1da5e6c0e8
536fb7be-5256-11ea-b59e-a3b00f357657,53776d42-5256-11ea-af19-67ed9caa0e52
53610e80-5256-11ea-8de6-f3c31333c97d,53777832-5256-11ea-8912-47da9ec5b481
536469d6-5256-11ea-aaa0-97e1556cd34b,53778688-5256-11ea-b60e-13101ad975ca
53692098-5256-11ea-b134-17fe807b07b8,537793da-5256-11ea-a54a-eb2bcf265bf0
534f8a2a-5256-11ea-bb27-0f10ab7f4c18,53779f74-5256-11ea-9ba2-df3173971f7d
536b3ef0-5256-11ea-948d-d390cbc6b4fe,5377ad0c-5256-11ea-9091-3756eb1a07c1
53724042-5256-11ea-abb0-17dac3143da1,5377c940-5256-11ea-8f20-b739378d4b2e
53699a0a-5256-11ea-834d-bff834a3d834,5377d7be-5256-11ea-a22b-f748f222f619
536f238a-5256-11ea-8b72-cf374cacb1e4,5377e2c2-5256-11ea-bbcd-63b480fb2bf7
5363f4a6-5256-11ea-8e6a-8fce1d3b7d4a,5377ee16-5256-11ea-87bf-dfd4c5ed4a19
536a8e92-5256-11ea-a190-2752cd8338bd,5377f9ba-5256-11ea-af99-0705341c0927
5367a75e-5256-11ea-9d70-dbd548be791d,53780496-5256-11ea-8263-ef1b3cacfe74
535d1622-5256-11ea-a122-87f3ff41b880,537812c4-5256-11ea-b344-03d9c68fa65d
5370c050-5256-11ea-ae06-8705f8e0f4db,537821ce-5256-11ea-ba20-1b18708e675a
536e95aa-5256-11ea-9dcf-777661c3b280,537837f4-5256-11ea-8d51-eb6d045174a5
534e8e9a-5256-11ea-82a0-a3a761bcc8be,53784e24-5256-11ea-9824-9f8a7dcdeb2c
53629f16-5256-11ea-8c17-07f497b2560d,53785680-5256-11ea-8c17-8fd194e66b38
536c1d0c-5256-11ea-a9f1-6f722f096429,53785ebe-5256-11ea-ab42-53cb6d0b4f4c
534ed562-5256-11ea-ae79-d3797b476745,53786a08-5256-11ea-b84d-fb3249a0d9f1
535b2db2-5256-11ea-be50-37b39b1c5438,537871e2-5256-11ea-bed0-af952e4569a8
53506c6a-5256-11ea-8b1a-97ea439b9c12,53788a6a-5256-11ea-a665-836d4f5af202
534d2604-5256-11ea-93b9-377bc1586705,5378947e-5256-11ea-b8db-63093a3c90b7
5374aa26-5256-11ea-93ad-c31e6f3e2448,5378af0e-5256-11ea-b1d4-bbd3a1538bfa
53532cac-5256-11ea-b484-23209e4cde1c,5378bb3e-5256-11ea-8449-0b211d95162a
53638e6c-5256-11ea-a246-d735fd747812,5378c28c-5256-11ea-b10a-4b825b9fdf42
53785ebe-5256-11ea-ab42-53cb6d0b4f4c,5378d04c-5256-11ea-8ef8-bb938ac73347
5377634c-5256-11ea-b081-8b1da5e6c0e8,5378d7c2-5256-11ea-bdd5-939009b019bd
536e0090-5256-11ea-bd73-2306c7dfe465,5378f96e-5256-11ea-8ad3-5f1d31c6427f
53590064-5256-11ea-a583-e3fc837ecbab,5379017a-5256-11ea-a9bf-a79229c6bbb7
53720eba-5256-11ea-adec-6341f373e79b,537908aa-5256-11ea-be66-a358616f755b
534c182c-5256-11ea-a617-dfd9df917b35,53791c46-5256-11ea-9156-87b26fb67136
535ff5e0-5256-11ea-86e7-4bacfc8e0331,53792a9c-5256-11ea-a705-a706d95ec2c9
5351b3ea-5256-11ea-b0b1-0bf131e699c4,537952ce-5256-11ea-9a10-0f7266c63160
536bff0c-5256-11ea-aecc-ff888e074acc,53795ca6-5256-11ea-b9d7-23ac6cdfa084
5371eb7e-5256-11ea-8ecd-5789fed4e529,5379648a-5256-11ea-a10f-471436f02f46
5375b29a-5256-11ea-a4c4-7f8e572ca4cc,53797092-5256-11ea-84ed-536190a9024b
53748f32-5256-11ea-ac7c-f7ada456b85c,537978bc-5256-11ea-b809-bbddd1b85553
534cbaca-5256-11ea-a20b-d7fa423e252b,53798654-5256-11ea-b526-9bb9f51419d8
536b609c-5256-11ea-ae88-47c4f8f9dd64,537991da-5256-11ea-b32c-53bddfd4bc5c
535437f0-5256-11ea-831b-d7be4df93e22,53799a2c-5256-11ea-adda-5ff3771b9cbd
535d6f96-5256-11ea-a23a-33c810992d1a,5379c7b8-5256-11ea-b001-17af2cb6166f
534e0114-5256-11ea-bd06-43991251bed1,5379c02e-5256-11ea-a90d-d3c863954fad
5350ecbc-5256-11ea-93ac-af0ea5a7ad1d,5379d7b2-5256-11ea-9a21-fbbe1f2b4286
534fe088-5256-11ea-a0aa-73340e48f0d9,5379e39c-5256-11ea-90dd-afce34f999e1
5362015a-5256-11ea-b231-8f6239dd5cdf,5379eb58-5256-11ea-97d3-b30e4397e3e7
5367c054-5256-11ea-85ae-f7ab0b68d373,5379f5da-5256-11ea-8add-e7476cdb59df
53656c3c-5256-11ea-ba4e-8b2307b39b31,537a0192-5256-11ea-9b2b-67481d5adfce
536c3396-5256-11ea-9726-33023c80c121,537a08fe-5256-11ea-b051-6b7c31975f5e
5359aa8c-5256-11ea-90ab-7fe1e16085ca,537a35f4-5256-11ea-a96b-2f73aae8364f
536a7e0c-5256-11ea-89c6-cf4054eba876,537a4116-5256-11ea-9791-efc9b89be452
536b3540-5256-11ea-9d3e-47ad44566431,537a4cc4-5256-11ea-8d08-8b3c8f49c524
5367f9a2-5256-11ea-b5b1-4ba64f55963a,537a57c8-5256-11ea-a2b4-33707dd69130
5357b150-5256-11ea-80a2-f34d39a19e9f,537a5fb6-5256-11ea-af49-6fee80430890
535119d0-5256-11ea-9c5a-570c6f6e632a,537a66d2-5256-11ea-bef0-c307f36c2a3d
535881f2-5256-11ea-9dd0-d714cb5d28ad,537a7190-5256-11ea-af59-8bdb5d6e7d57
536666e6-5256-11ea-8cf6-43fda30e2d2a,537a7c4e-5256-11ea-b699-a3b428d6c32c
535ee614-5256-11ea-b1d4-737c8c9a0c10,537aa49e-5256-11ea-a2cb-8f32e02ae3a3
53772f58-5256-11ea-a038-f300e961adcb,537ab0ec-5256-11ea-88fb-3f85facf43c8
537952ce-5256-11ea-9a10-0f7266c63160,537abc90-5256-11ea-afe5-a7a7913d7cd7
53617c30-5256-11ea-aa4e-3baeb66bfd59,537ac514-5256-11ea-870c-4b30bcfe91d1
535226f4-5256-11ea-80bc-17185d9bb949,537ad324-5256-11ea-9eca-6f88c5f3c9ce
5364ffcc-5256-11ea-a7cc-7f773ca8b01f,537adb08-5256-11ea-8315-4b7fa7099fd5
536146d4-5256-11ea-8411-7b5f99626bf6,537ae1f2-5256-11ea-ab1f-b74fbc18e41e
5374d280-5256-11ea-9cc4-abe6088e34e9,537af03e-5256-11ea-9d08-1b995baecdce
53682102-5256-11ea-a92b-6bd3d747fcc0,537b13d4-5256-11ea-bb61-57d58df3fe5f
534e8e9a-5256-11ea-82a0-a3a761bcc8be,537b200e-5256-11ea-bb5e-ef208abdf890
536ab296-5256-11ea-90c3-4fb3869e6b43,537b2d06-5256-11ea-b6c9-e34e04a847a5
534e20a4-5256-11ea-b103-bbb86128c07b,537b3f80-5256-11ea-8d30-473efd382bd2
53602600-5256-11ea-91bf-cb3c969a8a77,537b4ab6-5256-11ea-a1e0-f7b2bb3f97d2
5363300c-5256-11ea-818f-07144bd3edeb,537b5330-5256-11ea-b72d-e3ab4b2e67a3
5355b24c-5256-11ea-940d-b33bbc570458,537b5a6a-5256-11ea-b71f-67bce1ec22de
53591572-5256-11ea-af49-6b3ab9ddfc10,537b6b04-5256-11ea-97c2-17bec5bec8ef
535bfd1e-5256-11ea-8a27-7b19519a6aa5,537b8ad0-5256-11ea-8f40-4b2290ac0f19
53615d40-5256-11ea-900c-7720d8294275,537b95c0-5256-11ea-9937-c34d2262c9cc
53641d96-5256-11ea-a059-47cbd40c9137,537b9f34-5256-11ea-9ad9-13207017b40d
5377ee16-5256-11ea-87bf-dfd4c5ed4a19,537baf7e-5256-11ea-b657-5f7c6cfc7dd1
53535ba0-5256-11ea-ad85-930bee5c3bb1,537bbee2-5256-11ea-890a-970a97b9e44f
53627022-5256-11ea-8759-87331075d694,537bd3b4-5256-11ea-8565-ff1402158663
536f8be0-5256-11ea-8c95-6bf972c228ee,537bdb5c-5256-11ea-bffb-7f2916c31c8c
53647d68-5256-11ea-b2a8-ef2a45bcb377,537bcb94-5256-11ea-98d7-dfedc2cd799f
536b27c6-5256-11ea-8b9c-fb71865c4c48,537bf844-5256-11ea-8476-4f5f424af272
5350180a-5256-11ea-82d5-6741349cd020,537c069a-5256-11ea-b2b9-97b104c6788e
535d0ec0-5256-11ea-a3c6-bf07c71611df,537c307a-5256-11ea-9da4-c3c84b7709d2
535881f2-5256-11ea-9dd0-d714cb5d28ad,537c37dc-5256-11ea-af38-37965a6b66ff
5370ff2a-5256-11ea-ba21-abfb9d59fb0e,537c3fc0-5256-11ea-8131-078dfdde01ef
5362d1e8-5256-11ea-8b6b-1701261318b7,537c4c4a-5256-11ea-9cdb-fbe437ca69d4
536a7e0c-5256-11ea-89c6-cf4054eba876,537c5bc2-5256-11ea-9422-e31c6887669d
534f5320-5256-11ea-9d31-bf4d41ff5634,537c7468-5256-11ea-b240-1353f7357f75
53740080-5256-11ea-8fde-f705bb958fc0,537c7bb6-5256-11ea-80fe-97df2ee1223b
53637b02-5256-11ea-beee-e378393405c6,537c8340-5256-11ea-abb5-a371d80f94bd
537c7468-5256-11ea-b240-1353f7357f75,537ca942-5256-11ea-90d7-17d61c227e23
535061d4-5256-11ea-9af7-1fdc7d592d69,537cb1bc-5256-11ea-8232-0bde274a79bb
53773afc-5256-11ea-9ba4-9fe1805a5b5f,537cbcd4-5256-11ea-8287-570a3e5a3508
534fd048-5256-11ea-a4aa-938b4ad9211c,537cc49a-5256-11ea-8c28-0be0c00beb3e
535dc888-5256-11ea-b1db-1b300c438d68,537cdc5a-5256-11ea-a880-179b15d1f1bb
53582694-5256-11ea-962a-772663c19b85,537ce844-5256-11ea-8f18-fbb71cb9add4
534b8e2a-5256-11ea-83c8-9f8e67b3ad84,537cf3e8-5256-11ea-b218-970a75b2e60b
5360e266-5256-11ea-9530-1be341fe9111,537cfb9a-5256-11ea-80cd-cb59aa8fc811
53575ad4-5256-11ea-a6ce-737de49462ad,537d2390-5256-11ea-887c-2bda701f36de
53506c6a-5256-11ea-8b1a-97ea439b9c12,537d2b60-5256-11ea-99e6-0baf8acbd974
53663cac-5256-11ea-95fe-67de2196cd8e,537d329a-5256-11ea-b602-332e4b86331c
5352d946-5256-11ea-89bf-6357612a8ee8,537d3e70-5256-11ea-9de7-ff212c760463
536f1b2e-5256-11ea-94e9-8f382c30bca0,537d522a-5256-11ea-b9a0-4fb6f7d6565c
534d48be-5256-11ea-b3bb-5b76598c5c4a,537d6940-5256-11ea-8992-33e6d3cc5a5b
5379d7b2-5256-11ea-9a21-fbbe1f2b4286,537d71f6-5256-11ea-ae05-abf5c763a6a6
536afdb4-5256-11ea-a1e1-2b21b85350a5,537d79d0-5256-11ea-a89f-5709960b1dc0
536b27c6-5256-11ea-8b9c-fb71865c4c48,537d9a5a-5256-11ea-b945-c700a2bdf014
5356baa2-5256-11ea-8f25-ff77344b5ec8,537da702-5256-11ea-a6d9-97393a847585
5350aa40-5256-11ea-97f5-87c29fdcefe9,537daee6-5256-11ea-80fb-8377c9382fd8
534be9b0-5256-11ea-858a-f3fa21192bfc,537dc322-5256-11ea-a572-dbfda8ff45ba
5360d762-5256-11ea-a5a2-27dc1dd77ccf,537dcade-5256-11ea-ada4-37f35314720a
537422d6-5256-11ea-91c1-573947c8fdc8,537dd97a-5256-11ea-8a0e-83c0f7b35ae4
535bfd1e-5256-11ea-8a27-7b19519a6aa5,537de5a0-5256-11ea-a595-ebdbf1855ebd
5374c57e-5256-11ea-9676-371876b1fbc4,537df19e-5256-11ea-8c18-97927e285c01
534d48be-5256-11ea-b3bb-5b76598c5c4a,537e17d2-5256-11ea-b2ae-a776de1ab30f
5365aab2-5256-11ea-9ee5-03cd18b2ee9b,537e1eda-5256-11ea-bdfb-b33659748f16
5375b29a-5256-11ea-a4c4-7f8e572ca4cc,537e2678-5256-11ea-a68e-e74aad4f39fd
536cf7cc-5256-11ea-96fb-83db5fbdf48b,537e328a-5256-11ea-a450-931b31ecea45
5365b30e-5256-11ea-939f-eb6d41ba448e,537e4306-5256-11ea-8a67-e784b82f0094
53664486-5256-11ea-a9ba-cb5601d2875a,537e5260-5256-11ea-b698-ab0d35b92fd5
535b99d2-5256-11ea-bca6-e706418d5b1b,537e5940-5256-11ea-8cfe-a70dfa382d5d
5358a402-5256-11ea-984d-97adf1357106,537e6142-5256-11ea-9a31-eb937dca4aba
535e5456-5256-11ea-83e2-6faddc530308,537e8fa0-5256-11ea-ab2e-17841645aed3
535fdbaa-5256-11ea-b35f-3f61839378ea,537ea29c-5256-11ea-911c-9b7e124b6d3f
536e7962-5256-11ea-9cad-53b5bfe4ef7c,537e9c52-5256-11ea-b4ad-f3f8c68c2abd
53633f02-5256-11ea-bf39-3713f0f26f4c,537ea9cc-5256-11ea-b214-2f98616a9baf
537c3fc0-5256-11ea-8131-078dfdde01ef,537eb8f4-5256-11ea-bc0e-6b76985ee4fa
53688eb2-5256-11ea-92ca-2fd17b2071ff,537ecd76-5256-11ea-9372-eb1677f0412b
53664486-5256-11ea-a9ba-cb5601d2875a,537ec31c-5256-11ea-a2b7-2bdb5c23b488
53528946-5256-11ea-9a10-9bed37131eb2,537ed50a-5256-11ea-9ece-af0c3715b3f6
53776d42-5256-11ea-af19-67ed9caa0e52,537f1128-5256-11ea-9582-976955635457
53785ebe-5256-11ea-ab42-53cb6d0b4f4c,537f1948-5256-11ea-949d-df07bf8a42ef
535dead4-5256-11ea-8cbe-73decfaa2e9d,537f24ce-5256-11ea-8a36-4bd89de025ac
535e8458-5256-11ea-8ee0-b37c481f0f17,537f2c9e-5256-11ea-a8c4-67d515830901
53777832-5256-11ea-8912-47da9ec5b481,537f38e2-5256-11ea-8195-a77ffea0fe08
534de92c-5256-11ea-8744-4389b8feaeb0,537f451c-5256-11ea-a37b-d7ce545ea105
53607f60-5256-11ea-a6b8-277da0c9a371,537f503e-5256-11ea-a575-571cb366dc05
5377f9ba-5256-11ea-af99-0705341c0927,537f5ac0-5256-11ea-af61-2fa974b7b0ff
534c39c4-5256-11ea-a3df-5f1c926cefca,537f86c6-5256-11ea-ab76-cf61056a96d0
53776d42-5256-11ea-af19-67ed9caa0e52,537f9152-5256-11ea-8214-efbac47500d5
534fae38-5256-11ea-afb6-bf6d89ce6ed6,537f9b48-5256-11ea-9566-f3bfc036ddd7
536ac510-5256-11ea-a8fb-5bc284b6c6b8,537fa6ce-5256-11ea-b9e0-b757d8dd7035
5358e084-5256-11ea-8f20-87deedd1b744,537fb88a-5256-11ea-a059-8f8dbdd68fe6
535de34a-5256-11ea-af74-7b1a397ea344,537fc014-5256-11ea-ac4a-e34eae776795
536f7934-5256-11ea-8e21-cfeb5cfd0b35,537fce2e-5256-11ea-b52d-07382e476511
5377c940-5256-11ea-8f20-b739378d4b2e,537fd5d6-5256-11ea-b912-ff355c7fdf54
53788a6a-5256-11ea-a665-836d4f5af202,537ff32c-5256-11ea-b3c0-774a796c0e97
5362a9ac-5256-11ea-b1f1-576774f42086,538002ea-5256-11ea-b588-37077da78665
535fdbaa-5256-11ea-b35f-3f61839378ea,53801014-5256-11ea-996f-b7ea03d0890e
5353969c-5256-11ea-b2b1-47e9b716c6fb,53801bc2-5256-11ea-9dae-df112c023414
535176fa-5256-11ea-9651-5f6c1bfad115,5380275c-5256-11ea-bae9-63df5f00fdd1
53621d52-5256-11ea-9943-bb854d0b9f61,53803d96-5256-11ea-92fe-73d3ab78c073
53597300-5256-11ea-805c-93d5c35f13cf,538048cc-5256-11ea-903c-33b2111e945e
536a8e92-5256-11ea-a190-2752cd8338bd,5380626c-5256-11ea-a2f5-b7c8c1d87df4
537361ca-5256-11ea-b6ba-abeb7bd86d7f,53806aa0-5256-11ea-a234-a704dc2d082d
53668446-5256-11ea-9958-f36ea9303b7e,53807752-5256-11ea-999f-039fb729b7b9
5379f5da-5256-11ea-8add-e7476cdb59df,538084ea-5256-11ea-8e01-6343f7b38d6e
5358b46a-5256-11ea-ab46-f332b735ea5f,53808cf6-5256-11ea-abaa-a3f6399e68bd
536a4b8a-5256-11ea-a7f2-dbf2d77f031f,53809c78-5256-11ea-a59c-ef0e86cda15e
534f8322-5256-11ea-94e0-435b48de82a7,5380bf28-5256-11ea-ad7a-e32377153e46
5379c7b8-5256-11ea-b001-17af2cb6166f,5380c68a-5256-11ea-9d97-4b78bbb06bda
53675baa-5256-11ea-9978-6f86dbfe9049,5380da12-5256-11ea-b1df-e3236e300897
53617c30-5256-11ea-aa4e-3baeb66bfd59,5380e3b8-5256-11ea-8840-7ba7b8c3ae3c
5350e1ea-5256-11ea-ac20-e3a57eebac05,5380ef66-5256-11ea-98be-8b8402217956
536968a0-5256-11ea-bf1d-8305e609b577,5380fec0-5256-11ea-bb5b-1b2039d61596
535dead4-5256-11ea-8cbe-73decfaa2e9d,538105fa-5256-11ea-a513-778155829a99
53589584-5256-11ea-86cc-f34f767fbbc3,538121ca-5256-11ea-bdf7-47fe82d8c631
535154b8-5256-11ea-b325-f31b88871d42,53813048-5256-11ea-abbd-e3aeb5f6110b
535b388e-5256-11ea-a1b6-93b2b2835713,53813f5c-5256-11ea-9ce2-db7a1b43a141
