RunID,Tick,AllAgents,Active,Inactive
run-2020-2-18-13-55-30.296757936,0,14,13,1
run-2020-2-18-13-55-30.296757936,1,19,18,1
run-2020-2-18-13-55-30.296757936,2,20,15,5
run-2020-2-18-13-55-30.296757936,3,26,16,10
run-2020-2-18-13-55-30.296757936,4,31,18,13
run-2020-2-18-13-55-30.296757936,5,31,15,16
run-2020-2-18-13-55-30.296757936,6,31,12,19
run-2020-2-18-13-55-30.296757936,7,33,13,20
run-2020-2-18-13-55-30.296757936,8,34,12,22
run-2020-2-18-13-55-30.296757936,9,38,16,22
run-2020-2-18-13-55-30.296757936,10,41,17,24
run-2020-2-18-13-55-30.296757936,11,41,17,24
run-2020-2-18-13-55-30.296757936,12,44,18,26
run-2020-2-18-13-55-30.296757936,13,49,20,29
run-2020-2-18-13-55-30.296757936,14,54,24,30
run-2020-2-18-13-55-30.296757936,15,55,20,35
run-2020-2-18-13-55-30.296757936,16,61,24,37
run-2020-2-18-13-55-30.296757936,17,65,24,41
run-2020-2-18-13-55-30.296757936,18,69,25,44
run-2020-2-18-13-55-30.296757936,19,71,25,46
run-2020-2-18-13-55-30.296757936,20,77,30,47
run-2020-2-18-13-55-30.296757936,21,80,29,51
run-2020-2-18-13-55-30.296757936,22,82,26,56
run-2020-2-18-13-55-30.296757936,23,90,32,58
run-2020-2-18-13-55-30.296757936,24,94,36,58
run-2020-2-18-13-55-30.296757936,25,98,39,59
run-2020-2-18-13-55-30.296757936,26,102,41,61
run-2020-2-18-13-55-30.296757936,27,106,42,64
run-2020-2-18-13-55-30.296757936,28,112,43,69
run-2020-2-18-13-55-30.296757936,29,115,43,72
run-2020-2-18-13-55-30.296757936,30,119,45,74
run-2020-2-18-13-55-30.296757936,31,121,44,77
run-2020-2-18-13-55-30.296757936,32,125,44,81
run-2020-2-18-13-55-30.296757936,33,130,47,83
run-2020-2-18-13-55-30.296757936,34,135,48,87
run-2020-2-18-13-55-30.296757936,35,140,50,90
run-2020-2-18-13-55-30.296757936,36,142,49,93
run-2020-2-18-13-55-30.296757936,37,149,56,93
run-2020-2-18-13-55-30.296757936,38,152,58,94
run-2020-2-18-13-55-30.296757936,39,159,60,99
run-2020-2-18-13-55-30.296757936,40,166,60,106
run-2020-2-18-13-55-30.296757936,41,167,58,109
run-2020-2-18-13-55-30.296757936,42,171,59,112
run-2020-2-18-13-55-30.296757936,43,175,62,113
run-2020-2-18-13-55-30.296757936,44,178,59,119
run-2020-2-18-13-55-30.296757936,45,185,60,125
run-2020-2-18-13-55-30.296757936,46,192,65,127
run-2020-2-18-13-55-30.296757936,47,195,60,135
run-2020-2-18-13-55-30.296757936,48,198,57,141
run-2020-2-18-13-55-30.296757936,49,203,56,147
run-2020-2-18-13-55-30.296757936,50,209,59,150
run-2020-2-18-13-55-30.296757936,51,211,59,152
run-2020-2-18-13-55-30.296757936,52,216,61,155
run-2020-2-18-13-55-30.296757936,53,221,60,161
run-2020-2-18-13-55-30.296757936,54,225,58,167
run-2020-2-18-13-55-30.296757936,55,230,61,169
run-2020-2-18-13-55-30.296757936,56,232,60,172
run-2020-2-18-13-55-30.296757936,57,236,60,176
run-2020-2-18-13-55-30.296757936,58,238,58,180
run-2020-2-18-13-55-30.296757936,59,242,60,182
run-2020-2-18-13-55-30.296757936,60,245,59,186
run-2020-2-18-13-55-30.296757936,61,251,60,191
run-2020-2-18-13-55-30.296757936,62,253,57,196
run-2020-2-18-13-55-30.296757936,63,258,57,201
run-2020-2-18-13-55-30.296757936,64,261,58,203
run-2020-2-18-13-55-30.296757936,65,262,54,208
run-2020-2-18-13-55-30.296757936,66,270,58,212
run-2020-2-18-13-55-30.296757936,67,272,56,216
run-2020-2-18-13-55-30.296757936,68,276,56,220
run-2020-2-18-13-55-30.296757936,69,278,54,224
run-2020-2-18-13-55-30.296757936,70,283,51,232
run-2020-2-18-13-55-30.296757936,71,285,51,234
run-2020-2-18-13-55-30.296757936,72,287,50,237
run-2020-2-18-13-55-30.296757936,73,290,47,243
run-2020-2-18-13-55-30.296757936,74,295,51,244
run-2020-2-18-13-55-30.296757936,75,297,52,245
run-2020-2-18-13-55-30.296757936,76,301,56,245
run-2020-2-18-13-55-30.296757936,77,302,50,252
run-2020-2-18-13-55-30.296757936,78,307,53,254
run-2020-2-18-13-55-30.296757936,79,312,53,259
run-2020-2-18-13-55-30.296757936,80,314,48,266
run-2020-2-18-13-55-30.296757936,81,317,48,269
run-2020-2-18-13-55-30.296757936,82,324,54,270
run-2020-2-18-13-55-30.296757936,83,324,48,276
run-2020-2-18-13-55-30.296757936,84,327,49,278
run-2020-2-18-13-55-30.296757936,85,331,49,282
run-2020-2-18-13-55-30.296757936,86,337,49,288
run-2020-2-18-13-55-30.296757936,87,340,48,292
run-2020-2-18-13-55-30.296757936,88,341,42,299
run-2020-2-18-13-55-30.296757936,89,345,45,300
run-2020-2-18-13-55-30.296757936,90,347,41,306
run-2020-2-18-13-55-30.296757936,91,348,40,308
run-2020-2-18-13-55-30.296757936,92,353,43,310
run-2020-2-18-13-55-30.296757936,93,355,42,313
run-2020-2-18-13-55-30.296757936,94,358,39,319
run-2020-2-18-13-55-30.296757936,95,361,39,322
run-2020-2-18-13-55-30.296757936,96,362,39,323
run-2020-2-18-13-55-30.296757936,97,364,37,327
run-2020-2-18-13-55-30.296757936,98,365,37,328
run-2020-2-18-13-55-30.296757936,99,371,40,331
