RunID,Tick,AllAgents,Active,Inactive
run-2020-2-18-13-55-53.756814956,0,13,10,3
run-2020-2-18-13-55-53.756814956,1,16,11,5
run-2020-2-18-13-55-53.756814956,2,17,10,7
run-2020-2-18-13-55-53.756814956,3,23,13,10
run-2020-2-18-13-55-53.756814956,4,27,13,14
run-2020-2-18-13-55-53.756814956,5,31,16,15
run-2020-2-18-13-55-53.756814956,6,33,17,16
run-2020-2-18-13-55-53.756814956,7,38,21,17
run-2020-2-18-13-55-53.756814956,8,42,20,22
run-2020-2-18-13-55-53.756814956,9,47,21,26
run-2020-2-18-13-55-53.756814956,10,48,19,29
run-2020-2-18-13-55-53.756814956,11,55,23,32
run-2020-2-18-13-55-53.756814956,12,58,24,34
run-2020-2-18-13-55-53.756814956,13,64,27,37
run-2020-2-18-13-55-53.756814956,14,67,28,39
run-2020-2-18-13-55-53.756814956,15,69,27,42
run-2020-2-18-13-55-53.756814956,16,74,29,45
run-2020-2-18-13-55-53.756814956,17,79,32,47
run-2020-2-18-13-55-53.756814956,18,87,38,49
run-2020-2-18-13-55-53.756814956,19,90,38,52
run-2020-2-18-13-55-53.756814956,20,94,40,54
run-2020-2-18-13-55-53.756814956,21,95,34,61
run-2020-2-18-13-55-53.756814956,22,102,40,62
run-2020-2-18-13-55-53.756814956,23,106,43,63
run-2020-2-18-13-55-53.756814956,24,108,44,64
run-2020-2-18-13-55-53.756814956,25,110,40,70
run-2020-2-18-13-55-53.756814956,26,118,48,70
run-2020-2-18-13-55-53.756814956,27,124,50,74
run-2020-2-18-13-55-53.756814956,28,126,47,79
run-2020-2-18-13-55-53.756814956,29,131,50,81
run-2020-2-18-13-55-53.756814956,30,135,50,85
run-2020-2-18-13-55-53.756814956,31,140,53,87
run-2020-2-18-13-55-53.756814956,32,143,55,88
run-2020-2-18-13-55-53.756814956,33,148,53,95
run-2020-2-18-13-55-53.756814956,34,150,50,100
run-2020-2-18-13-55-53.756814956,35,152,51,101
run-2020-2-18-13-55-53.756814956,36,153,48,105
run-2020-2-18-13-55-53.756814956,37,158,51,107
run-2020-2-18-13-55-53.756814956,38,164,56,108
run-2020-2-18-13-55-53.756814956,39,167,55,112
run-2020-2-18-13-55-53.756814956,40,170,54,116
run-2020-2-18-13-55-53.756814956,41,174,57,117
run-2020-2-18-13-55-53.756814956,42,178,58,120
run-2020-2-18-13-55-53.756814956,43,181,59,122
run-2020-2-18-13-55-53.756814956,44,188,62,126
run-2020-2-18-13-55-53.756814956,45,192,63,129
run-2020-2-18-13-55-53.756814956,46,196,58,138
run-2020-2-18-13-55-53.756814956,47,198,55,143
run-2020-2-18-13-55-53.756814956,48,199,55,144
run-2020-2-18-13-55-53.756814956,49,205,57,148
run-2020-2-18-13-55-53.756814956,50,209,56,153
run-2020-2-18-13-55-53.756814956,51,213,58,155
run-2020-2-18-13-55-53.756814956,52,218,62,156
run-2020-2-18-13-55-53.756814956,53,218,57,161
run-2020-2-18-13-55-53.756814956,54,220,56,164
run-2020-2-18-13-55-53.756814956,55,222,54,168
run-2020-2-18-13-55-53.756814956,56,224,51,173
run-2020-2-18-13-55-53.756814956,57,232,58,174
run-2020-2-18-13-55-53.756814956,58,235,56,179
run-2020-2-18-13-55-53.756814956,59,238,55,183
run-2020-2-18-13-55-53.756814956,60,242,53,189
run-2020-2-18-13-55-53.756814956,61,246,52,194
run-2020-2-18-13-55-53.756814956,62,255,57,198
run-2020-2-18-13-55-53.756814956,63,260,58,202
run-2020-2-18-13-55-53.756814956,64,261,54,207
run-2020-2-18-13-55-53.756814956,65,266,57,209
run-2020-2-18-13-55-53.756814956,66,270,54,216
run-2020-2-18-13-55-53.756814956,67,273,53,220
run-2020-2-18-13-55-53.756814956,68,274,48,226
run-2020-2-18-13-55-53.756814956,69,275,46,229
run-2020-2-18-13-55-53.756814956,70,282,51,231
run-2020-2-18-13-55-53.756814956,71,282,47,235
run-2020-2-18-13-55-53.756814956,72,286,51,235
run-2020-2-18-13-55-53.756814956,73,291,56,235
run-2020-2-18-13-55-53.756814956,74,294,53,241
run-2020-2-18-13-55-53.756814956,75,295,45,250
run-2020-2-18-13-55-53.756814956,76,297,46,251
run-2020-2-18-13-55-53.756814956,77,300,45,255
run-2020-2-18-13-55-53.756814956,78,301,44,257
run-2020-2-18-13-55-53.756814956,79,306,48,258
run-2020-2-18-13-55-53.756814956,80,312,49,263
run-2020-2-18-13-55-53.756814956,81,318,52,266
run-2020-2-18-13-55-53.756814956,82,319,50,269
run-2020-2-18-13-55-53.756814956,83,326,55,271
run-2020-2-18-13-55-53.756814956,84,330,53,277
run-2020-2-18-13-55-53.756814956,85,332,47,285
run-2020-2-18-13-55-53.756814956,86,338,51,287
run-2020-2-18-13-55-53.756814956,87,340,51,289
run-2020-2-18-13-55-53.756814956,88,345,50,295
run-2020-2-18-13-55-53.756814956,89,351,54,297
run-2020-2-18-13-55-53.756814956,90,355,53,302
run-2020-2-18-13-55-53.756814956,91,356,47,309
run-2020-2-18-13-55-53.756814956,92,358,46,312
run-2020-2-18-13-55-53.756814956,93,362,46,316
run-2020-2-18-13-55-53.756814956,94,363,41,322
run-2020-2-18-13-55-53.756814956,95,365,39,326
run-2020-2-18-13-55-53.756814956,96,367,39,328
run-2020-2-18-13-55-53.756814956,97,372,42,330
run-2020-2-18-13-55-53.756814956,98,373,40,333
run-2020-2-18-13-55-53.756814956,99,378,40,338
