Source,Target
01229c84-5255-11ea-9248-7b03aefcec93,0123e616-5255-11ea-b26c-2b6f9a16ef36
01231a56-5255-11ea-969f-1b4ff121888d,0123ef30-5255-11ea-9cc9-e7f6ac99fb39
0122c768-5255-11ea-a43c-2f93fb772092,0123f76e-5255-11ea-ab81-5370b63730d4
01234878-5255-11ea-b1be-bb11e573d683,0124006a-5255-11ea-80e6-834d2d91acff
01239d6e-5255-11ea-a951-b348fe5ac11e,0124092a-5255-11ea-a3d7-23c915dcc7e4
01212b9c-5255-11ea-ad3e-4b7105996435,01241c4e-5255-11ea-88d2-67f28ce35162
01228fb4-5255-11ea-b4d8-b7a490620da0,0124248c-5255-11ea-959d-538e3bec712f
01211e2c-5255-11ea-8333-c759facf36f7,01243b2a-5255-11ea-9fcd-d7b6b67c9a7b
01215536-5255-11ea-aa5a-a3958333e23e,01244822-5255-11ea-8777-db8b8d8b1f3b
012111f2-5255-11ea-9d31-03f8ceb61879,01245574-5255-11ea-88f5-077c7416ebe2
01231a56-5255-11ea-969f-1b4ff121888d,01245fe2-5255-11ea-b32e-cf5ff58949db
01221192-5255-11ea-8754-13261165533d,01246852-5255-11ea-ba7f-ef2abb326b6f
01232460-5255-11ea-944a-6bed66e8973a,012472b6-5255-11ea-a830-8377fe2b7c37
012133ee-5255-11ea-aacf-7bc9e31c7fbb,0124835a-5255-11ea-b96f-13df6c85eae7
01228fb4-5255-11ea-b4d8-b7a490620da0,0124853a-5255-11ea-a803-176bdec754c3
0121ef1e-5255-11ea-9b93-db1be5f6d673,012496c4-5255-11ea-bcc0-1386d13b4d99
01218efc-5255-11ea-ba3e-e787e23869ff,0124a920-5255-11ea-baf0-7f4617cba4d4
0122afee-5255-11ea-b75c-ff0fcf0b5c9c,0124b56e-5255-11ea-ac3f-7343a0ed11af
0121e35c-5255-11ea-a2a4-6f073663ab77,0124c202-5255-11ea-b909-57e01fce7cc7
012283ac-5255-11ea-90a0-53d3f4505a5b,0124d1a2-5255-11ea-837e-fbaa7c0d87c4
0124c202-5255-11ea-b909-57e01fce7cc7,0124de54-5255-11ea-b086-0783b2b104ab
0122b98a-5255-11ea-88b0-03b66c58dfe6,0124e67e-5255-11ea-81fe-97fa8bfc0b15
0123cd16-5255-11ea-9b9c-030515189924,0124ef02-5255-11ea-b2e3-cb51cc88ae7a
01238522-5255-11ea-9ee9-4be79ea51f2e,0124f98e-5255-11ea-a5e2-a7f56026b9f9
0124835a-5255-11ea-b96f-13df6c85eae7,012501ea-5255-11ea-a776-ef0c80c13a7c
01244822-5255-11ea-8777-db8b8d8b1f3b,01250c8a-5255-11ea-82ba-a72a8e1d9bb8
01213d08-5255-11ea-923e-771f9fbee255,01251522-5255-11ea-bc59-9fdb459a9dba
0123ef30-5255-11ea-9cc9-e7f6ac99fb39,01252094-5255-11ea-9f79-03b9652b99f5
0123598a-5255-11ea-b88a-2b2ca01e63c9,012535ac-5255-11ea-9759-4b11b1d81f34
01246852-5255-11ea-ba7f-ef2abb326b6f,012541be-5255-11ea-aaee-b3f02810aa7c
01215e0a-5255-11ea-a773-b7cbfcae8293,01254b46-5255-11ea-b63b-a738f7cae2e6
01218574-5255-11ea-8f9b-0b08e61039cb,012556cc-5255-11ea-a2b3-dbc2dccb582a
01215e0a-5255-11ea-a773-b7cbfcae8293,0125623e-5255-11ea-b1f1-876454ff6675
01212b9c-5255-11ea-ad3e-4b7105996435,01256a86-5255-11ea-9164-3b568da8016e
01244822-5255-11ea-8777-db8b8d8b1f3b,0125735a-5255-11ea-91c2-0bb8aa58535e
01223028-5255-11ea-ba0c-431d58f8ca84,012585d4-5255-11ea-a3d1-4bedac0a0527
012585d4-5255-11ea-a3d1-4bedac0a0527,0125909c-5255-11ea-b6d8-7bf44055517e
01239d6e-5255-11ea-a951-b348fe5ac11e,01259916-5255-11ea-8f18-23ac1b4edc24
012339a0-5255-11ea-9612-7766c5956295,0125a6cc-5255-11ea-86e8-1f3b373edc05
0121e35c-5255-11ea-a2a4-6f073663ab77,0125b8a6-5255-11ea-b7a5-d3f589df63af
0122a67a-5255-11ea-b04f-ef432b0df0f3,0125c116-5255-11ea-94a4-9be9baff381d
0125735a-5255-11ea-91c2-0bb8aa58535e,0125c878-5255-11ea-93bd-abbed454195a
0124853a-5255-11ea-a803-176bdec754c3,0125d35e-5255-11ea-9080-97fdf9cc87b4
0122df78-5255-11ea-bced-63a4bf89dc1e,0125dbe2-5255-11ea-b7f8-23d730e79441
0124006a-5255-11ea-80e6-834d2d91acff,0125e8b2-5255-11ea-a18d-8bdeb7b8a29e
012111f2-5255-11ea-9d31-03f8ceb61879,0125f0d2-5255-11ea-8c83-5ff561716977
0125909c-5255-11ea-b6d8-7bf44055517e,0126104e-5255-11ea-a9e1-5fd72dd2d40e
01226bc4-5255-11ea-8556-2b8356ac22fc,012604f0-5255-11ea-87f8-f78e8c26c847
0125f0d2-5255-11ea-8c83-5ff561716977,0126185a-5255-11ea-8415-3762b48f6092
0122e95a-5255-11ea-96e9-a782f90c991b,01262552-5255-11ea-9568-bbd2e1552f6e
01243b2a-5255-11ea-9fcd-d7b6b67c9a7b,01263164-5255-11ea-b93d-bbb8834deb54
0124a920-5255-11ea-baf0-7f4617cba4d4,01263d30-5255-11ea-b458-83c680ee4ca5
0123f76e-5255-11ea-ab81-5370b63730d4,0126453c-5255-11ea-af1e-5ffc74243634
0122437e-5255-11ea-a2f5-cf12f4472ed8,01264e24-5255-11ea-8040-d70a7a7e25c0
0125623e-5255-11ea-b1f1-876454ff6675,01265b08-5255-11ea-9674-2b5ca35a93cf
01238522-5255-11ea-9ee9-4be79ea51f2e,0126762e-5255-11ea-837f-a73f30dd780e
012496c4-5255-11ea-bcc0-1386d13b4d99,01267ea8-5255-11ea-b616-37ae5f6da60d
0126762e-5255-11ea-837f-a73f30dd780e,012686f0-5255-11ea-96db-e32d4a4dfb6e
01225c6a-5255-11ea-b523-bb2b292fe7f1,012691a4-5255-11ea-8a76-3745b95f62ca
01211e2c-5255-11ea-8333-c759facf36f7,012699ba-5255-11ea-b9b7-7ff9e9677efd
012535ac-5255-11ea-9759-4b11b1d81f34,0126a356-5255-11ea-aaf0-530516d841fd
01244822-5255-11ea-8777-db8b8d8b1f3b,0126ac34-5255-11ea-b034-93ede6635ec0
0125e8b2-5255-11ea-a18d-8bdeb7b8a29e,0126b42c-5255-11ea-a97b-33052bd8353c
012691a4-5255-11ea-8a76-3745b95f62ca,0126c49e-5255-11ea-acda-07ebce83b8d0
0124e67e-5255-11ea-81fe-97fa8bfc0b15,0126e12c-5255-11ea-afbe-fb1834e0157b
0124c202-5255-11ea-b909-57e01fce7cc7,0126d5f6-5255-11ea-8d5a-3b6d320ae7df
012148f2-5255-11ea-9b00-77c60b71f1cb,0126ec8a-5255-11ea-874d-7f6bb7d36ebd
0123ef30-5255-11ea-9cc9-e7f6ac99fb39,0126fe00-5255-11ea-b279-533d00c4ab4b
0124e67e-5255-11ea-81fe-97fa8bfc0b15,01270666-5255-11ea-92e3-47c3884bb19b
01225c6a-5255-11ea-b523-bb2b292fe7f1,01270ee0-5255-11ea-bd4e-bff646a0064d
01238522-5255-11ea-9ee9-4be79ea51f2e,012717f0-5255-11ea-9355-3f767e73a994
01215536-5255-11ea-aa5a-a3958333e23e,01272254-5255-11ea-9ae6-730b9e4863cf
012585d4-5255-11ea-a3d1-4bedac0a0527,01272b82-5255-11ea-a2db-dbf81e93898e
01243b2a-5255-11ea-9fcd-d7b6b67c9a7b,01273302-5255-11ea-b329-2f414618b6d7
01219f1e-5255-11ea-867c-9f73870fe2f8,012742fc-5255-11ea-b839-33402b7ac88d
012585d4-5255-11ea-a3d1-4bedac0a0527,0127533c-5255-11ea-8059-33afe25141e5
0126a356-5255-11ea-aaf0-530516d841fd,012761f6-5255-11ea-87a9-8b0d634007e1
0121d16e-5255-11ea-978e-23fca3095a7b,01276c3c-5255-11ea-a6d8-1f4c8e59372c
01223b4a-5255-11ea-8429-eb762cef9f51,01277524-5255-11ea-a264-83836b6b4cbb
0122a67a-5255-11ea-b04f-ef432b0df0f3,012785d2-5255-11ea-8dd7-57f9a86a017f
0127533c-5255-11ea-8059-33afe25141e5,01277dbc-5255-11ea-bd43-93cc231e443e
0121c386-5255-11ea-9db2-ff23f8cc7514,01278e06-5255-11ea-a38a-77a2c2e010f6
01225c6a-5255-11ea-b523-bb2b292fe7f1,01279aea-5255-11ea-af34-0bf2fcf45ba2
0122f684-5255-11ea-88a7-d394aa4b934f,0127a5e4-5255-11ea-b561-8bc94e190716
012350a2-5255-11ea-8112-db226de4b7a1,0127b3a4-5255-11ea-aff7-7745bf0d8519
01218574-5255-11ea-8f9b-0b08e61039cb,0127c0f6-5255-11ea-b7ed-97e3d72f610f
0126453c-5255-11ea-af1e-5ffc74243634,0127cd30-5255-11ea-9960-6b5d0b9afe29
012350a2-5255-11ea-8112-db226de4b7a1,0127d8de-5255-11ea-9eb4-afea1f57927e
0125e8b2-5255-11ea-a18d-8bdeb7b8a29e,0127e090-5255-11ea-b7bd-372d6649a8aa
0123e616-5255-11ea-b26c-2b6f9a16ef36,0127ee96-5255-11ea-a8d1-831b27d7c7c4
01211e2c-5255-11ea-8333-c759facf36f7,0127f72e-5255-11ea-a960-9348d666db22
01221192-5255-11ea-8754-13261165533d,0128016a-5255-11ea-944a-172c3ed4ef29
0124c202-5255-11ea-b909-57e01fce7cc7,01280ba6-5255-11ea-a384-7f33f4d097a4
0124835a-5255-11ea-b96f-13df6c85eae7,01281a7e-5255-11ea-9958-0378dd116c42
