Source,Target
aecdafa0-51af-11ea-ba20-bf214e2e372b,aecf2eac-51af-11ea-bbce-9b45e246e7c7
aecdc594-51af-11ea-bef4-5360514f4a2c,aecf210a-51af-11ea-adc4-4774161bb905
aececfc0-51af-11ea-b605-23a4c46912ad,aecf2844-51af-11ea-a3e3-1bcd875c2ad0
aecdc058-51af-11ea-b992-57c84eaf9514,aecf373a-51af-11ea-b82e-8f45ec936412
aecee79e-51af-11ea-a902-4fa1f074517c,aecf7376-51af-11ea-8652-e7ee957aa762
aece3c86-51af-11ea-8799-0bb0c4bc24d1,aecf9e00-51af-11ea-a939-f3f20bb354d1
aecebe40-51af-11ea-9fbf-97384da97c4b,aecfabde-51af-11ea-bb63-03f4eee651a5
aeceee60-51af-11ea-9d39-eff0f0a984c8,aecfd794-51af-11ea-a16c-0354c9c032b5
aecebe40-51af-11ea-9fbf-97384da97c4b,aecff076-51af-11ea-9889-739a78cda21c
aecdc058-51af-11ea-b992-57c84eaf9514,aed03504-51af-11ea-806e-43f8fcb2d5db
aecdc058-51af-11ea-b992-57c84eaf9514,aed03842-51af-11ea-82af-1fbe376163d8
aecf2eac-51af-11ea-bbce-9b45e246e7c7,aed065ba-51af-11ea-b4ce-8b0aac0e4904
aecdc594-51af-11ea-bef4-5360514f4a2c,aed0b524-51af-11ea-a2a2-4f28f882dc51
aecf2eac-51af-11ea-bbce-9b45e246e7c7,aed0bf38-51af-11ea-974c-97ec2ccd348c
aed03842-51af-11ea-82af-1fbe376163d8,aed0d4d2-51af-11ea-bced-3b38a7ad9ecd
aecee79e-51af-11ea-a902-4fa1f074517c,aed102c2-51af-11ea-a587-2f13a6d72825
aecdc058-51af-11ea-b992-57c84eaf9514,aed10ad8-51af-11ea-a992-d78c81901e36
aecf2844-51af-11ea-a3e3-1bcd875c2ad0,aed11c4e-51af-11ea-83dd-0f6862489e59
aeceee60-51af-11ea-9d39-eff0f0a984c8,aed147aa-51af-11ea-a7f4-130df72ef29e
aecdafa0-51af-11ea-ba20-bf214e2e372b,aed17842-51af-11ea-9474-cbce80aee995
aecfd794-51af-11ea-a16c-0354c9c032b5,aed18ab2-51af-11ea-b73c-d3f7d5e6b46e
aed18ab2-51af-11ea-b73c-d3f7d5e6b46e,aed1db20-51af-11ea-9f27-fb8efdfc7c8b
aecf210a-51af-11ea-adc4-4774161bb905,aed1e6e2-51af-11ea-a16c-8ff2149873ca
aecee79e-51af-11ea-a902-4fa1f074517c,aed1f8a8-51af-11ea-ba21-17b1fac62194
aed0bf38-51af-11ea-974c-97ec2ccd348c,aed204c4-51af-11ea-8271-2f81852c1fce
aeceee60-51af-11ea-9d39-eff0f0a984c8,aed261ee-51af-11ea-8906-d7cd2618537d
aed102c2-51af-11ea-a587-2f13a6d72825,aed26dce-51af-11ea-8876-cb798b2d24a1
aecdafa0-51af-11ea-ba20-bf214e2e372b,aed2760c-51af-11ea-9697-2f78969b9078
aecf7376-51af-11ea-8652-e7ee957aa762,aed2bc20-51af-11ea-b481-8f0f4f48a8f4
aececfc0-51af-11ea-b605-23a4c46912ad,aed2c472-51af-11ea-84b3-e723b9ab9741
aecfd794-51af-11ea-a16c-0354c9c032b5,aed2ef7e-51af-11ea-9c51-d382c3e568e9
aeceee60-51af-11ea-9d39-eff0f0a984c8,aed31b7a-51af-11ea-a95f-b733d6dc6b83
aed102c2-51af-11ea-a587-2f13a6d72825,aed32ce6-51af-11ea-82e9-a3872a6903b9
aed2ef7e-51af-11ea-9c51-d382c3e568e9,aed33f92-51af-11ea-9260-cfba5306a093
aecebe40-51af-11ea-9fbf-97384da97c4b,aed369f4-51af-11ea-8598-6799d5aa5046
aed10ad8-51af-11ea-a992-d78c81901e36,aed3c1e2-51af-11ea-a7a9-7fd05f1e927a
aed147aa-51af-11ea-a7f4-130df72ef29e,aed3cc6e-51af-11ea-b7bd-c3a918773d1f
aececfc0-51af-11ea-b605-23a4c46912ad,aed3d704-51af-11ea-9503-abd65abc4eb1
aecfabde-51af-11ea-bb63-03f4eee651a5,aed41bec-51af-11ea-a26b-53bb5f81c6f5
aecf2844-51af-11ea-a3e3-1bcd875c2ad0,aed42420-51af-11ea-9178-87b67a7034d2
aecdc058-51af-11ea-b992-57c84eaf9514,aed46d18-51af-11ea-896f-a3e7cf0439c2
aed2c472-51af-11ea-84b3-e723b9ab9741,aed48050-51af-11ea-a4b6-4b96ea7d7ec7
aecee79e-51af-11ea-a902-4fa1f074517c,aed49a4a-51af-11ea-80d6-c7e94893f31a
aed46d18-51af-11ea-896f-a3e7cf0439c2,aed4ecc0-51af-11ea-8a35-4f7fb2dea116
aecee79e-51af-11ea-a902-4fa1f074517c,aed4e022-51af-11ea-ac54-27a6c1489537
aed46d18-51af-11ea-896f-a3e7cf0439c2,aed52f78-51af-11ea-af43-0ffe10be286e
aed4e022-51af-11ea-ac54-27a6c1489537,aed552e6-51af-11ea-afda-cf7b5831bc0f
aed102c2-51af-11ea-a587-2f13a6d72825,aed5765e-51af-11ea-9585-d7a7046a44ff
aecf373a-51af-11ea-b82e-8f45ec936412,aed58216-51af-11ea-afc3-4b756369235e
aecf210a-51af-11ea-adc4-4774161bb905,aed5e3b4-51af-11ea-a2cd-9bac0b664222
aed2c472-51af-11ea-84b3-e723b9ab9741,aed6097a-51af-11ea-aae7-63ea5b4b4f4c
aed0bf38-51af-11ea-974c-97ec2ccd348c,aed5eeae-51af-11ea-a30e-bf17bb8b33ab
aecdb838-51af-11ea-a938-0bb8225e55bc,aed6542a-51af-11ea-bb4e-379a54d3da20
aed3cc6e-51af-11ea-b7bd-c3a918773d1f,aed67e3c-51af-11ea-aaf2-3394a6979723
aecf9e00-51af-11ea-a939-f3f20bb354d1,aed68918-51af-11ea-a6c1-7fe977b8f1dd
aecfd794-51af-11ea-a16c-0354c9c032b5,aed6ab82-51af-11ea-a577-67728c19c523
aed3d704-51af-11ea-9503-abd65abc4eb1,aed72ae4-51af-11ea-8e47-1b54fc521481
aed5e3b4-51af-11ea-a2cd-9bac0b664222,aed74042-51af-11ea-af1e-b7e881779058
aed0d4d2-51af-11ea-bced-3b38a7ad9ecd,aed722ba-51af-11ea-b537-1711924b07b5
aecdafa0-51af-11ea-ba20-bf214e2e372b,aed7376e-51af-11ea-9079-4fd8ee978a3a
aed722ba-51af-11ea-b537-1711924b07b5,aed7ad16-51af-11ea-9058-b3a7eb8d4fe0
aed26dce-51af-11ea-8876-cb798b2d24a1,aed7d75a-51af-11ea-9cb4-7fa34a62fa7c
aecf2eac-51af-11ea-bbce-9b45e246e7c7,aed7f08c-51af-11ea-8eb0-e73667b66a66
aecf2eac-51af-11ea-bbce-9b45e246e7c7,aed80fea-51af-11ea-897a-3f48b1746c9c
aed2ef7e-51af-11ea-9c51-d382c3e568e9,aed836c8-51af-11ea-a53f-9b3bc69473dd
aed42420-51af-11ea-9178-87b67a7034d2,aed851ee-51af-11ea-b270-b32111cd06d9
aed33f92-51af-11ea-9260-cfba5306a093,aed8ac48-51af-11ea-a5b6-9362dc3ec7c4
aecebe40-51af-11ea-9fbf-97384da97c4b,aed8b7c4-51af-11ea-8085-9734d622c1dc
aed1f8a8-51af-11ea-ba21-17b1fac62194,aed8c106-51af-11ea-abb1-9b45bc360764
aecfabde-51af-11ea-bb63-03f4eee651a5,aed8ecc6-51af-11ea-9186-bf73a4d0fa79
aed7d75a-51af-11ea-9cb4-7fa34a62fa7c,aed91a02-51af-11ea-8950-4b74bacd57e4
aed49a4a-51af-11ea-80d6-c7e94893f31a,aed926b4-51af-11ea-937b-53a3a03a04e8
aed2760c-51af-11ea-9697-2f78969b9078,aed93348-51af-11ea-9718-277910c8485d
aed3cc6e-51af-11ea-b7bd-c3a918773d1f,aed95eae-51af-11ea-9434-3b41c254fd51
aed0bf38-51af-11ea-974c-97ec2ccd348c,aed98942-51af-11ea-b01a-0f9e523c5503
aed18ab2-51af-11ea-b73c-d3f7d5e6b46e,aed9aa62-51af-11ea-a8a2-4305a8febcc3
aed6097a-51af-11ea-aae7-63ea5b4b4f4c,aed9bca0-51af-11ea-8cbb-3f4da7bd6dfd
aed1db20-51af-11ea-9f27-fb8efdfc7c8b,aed9e93c-51af-11ea-adfa-33e4cc89f53c
aed8b7c4-51af-11ea-8085-9734d622c1dc,aeda09a8-51af-11ea-8cee-434f4e08856f
aed46d18-51af-11ea-896f-a3e7cf0439c2,aeda1a60-51af-11ea-ba72-2b4f176b1e39
aecf7376-51af-11ea-8652-e7ee957aa762,aeda410c-51af-11ea-88db-23eff7eaea69
aecfd794-51af-11ea-a16c-0354c9c032b5,aeda8be4-51af-11ea-a3a1-8ff0c368f400
aed3c1e2-51af-11ea-a7a9-7fd05f1e927a,aedaa3ae-51af-11ea-9056-eb045fd4c8e9
aed1db20-51af-11ea-9f27-fb8efdfc7c8b,aedaabc4-51af-11ea-ac6b-33739fcf82d4
aed4e022-51af-11ea-ac54-27a6c1489537,aedab498-51af-11ea-89bc-135e916ef24c
aed8b7c4-51af-11ea-8085-9734d622c1dc,aedae3be-51af-11ea-a5c6-ab7d5a9dc696
aedaa3ae-51af-11ea-9056-eb045fd4c8e9,aedb158c-51af-11ea-b6d4-abcffceeb873
aed6ab82-51af-11ea-a577-67728c19c523,aedb2842-51af-11ea-b565-3bc71be9f6a4
aed8b7c4-51af-11ea-8085-9734d622c1dc,aedb1e1a-51af-11ea-ac0a-1f9ea32a75f9
aed74042-51af-11ea-af1e-b7e881779058,aedb3832-51af-11ea-b084-ab9f49213d72
aed52f78-51af-11ea-af43-0ffe10be286e,aedb982c-51af-11ea-92da-7774f4e203f4
aed9bca0-51af-11ea-8cbb-3f4da7bd6dfd,aedba40c-51af-11ea-85f7-6317a38c6e1f
aecf373a-51af-11ea-b82e-8f45ec936412,aedbf088-51af-11ea-855f-2b682bfe1b5e
aeceee60-51af-11ea-9d39-eff0f0a984c8,aedbfac4-51af-11ea-88be-abf52a8906ee
aed7376e-51af-11ea-9079-4fd8ee978a3a,aedc0528-51af-11ea-9e94-2f479c78d005
aedaa3ae-51af-11ea-9056-eb045fd4c8e9,aedc0dde-51af-11ea-9a1c-13261fba051d
aed52f78-51af-11ea-af43-0ffe10be286e,aedc5a3c-51af-11ea-8265-1f1b3a778a70
aecdc058-51af-11ea-b992-57c84eaf9514,aedc76fc-51af-11ea-96cc-3fb04ec7e20c
aecdafa0-51af-11ea-ba20-bf214e2e372b,aedc7f26-51af-11ea-92cf-0f0b447f5143
aed6097a-51af-11ea-aae7-63ea5b4b4f4c,aedca1ae-51af-11ea-9d53-1fbafcc65bc0
aecdc594-51af-11ea-bef4-5360514f4a2c,aedcd2d2-51af-11ea-a653-8ff85c0e1eb5
aed8ac48-51af-11ea-a5b6-9362dc3ec7c4,aedce182-51af-11ea-946b-5bcd9138d027
aedb2842-51af-11ea-b565-3bc71be9f6a4,aedd02a2-51af-11ea-bb41-bb6b777dcbc1
aed8ecc6-51af-11ea-9186-bf73a4d0fa79,aedd0ee6-51af-11ea-8a91-3761c11c34cd
aecdc058-51af-11ea-b992-57c84eaf9514,aedd79c6-51af-11ea-bcf8-4740f78099fd
aed204c4-51af-11ea-8271-2f81852c1fce,aedd8f60-51af-11ea-a7bf-33da47d9167d
aed32ce6-51af-11ea-82e9-a3872a6903b9,aedd98de-51af-11ea-bad1-17f055797776
aed58216-51af-11ea-afc3-4b756369235e,aedda702-51af-11ea-acae-7bd5a5b84172
aecff076-51af-11ea-9889-739a78cda21c,aedde7da-51af-11ea-9813-973f4157cec2
aecf1926-51af-11ea-8bff-174e0245834f,aeddf50e-51af-11ea-a98d-d3f8126bc6ad
aed7376e-51af-11ea-9079-4fd8ee978a3a,aede38de-51af-11ea-996d-13442feb3712
aed5765e-51af-11ea-9585-d7a7046a44ff,aede4b12-51af-11ea-af0d-0b5acf5ad185
aedd8f60-51af-11ea-a7bf-33da47d9167d,aede92f2-51af-11ea-99db-ff9a03d1dc24
aedd8f60-51af-11ea-a7bf-33da47d9167d,aedeb958-51af-11ea-bc72-ef08e2736b46
aed58216-51af-11ea-afc3-4b756369235e,aeded032-51af-11ea-b8a1-3b15845c0604
aedd8f60-51af-11ea-a7bf-33da47d9167d,aedee676-51af-11ea-b4fb-77784ced6a99
aed10ad8-51af-11ea-a992-d78c81901e36,aedf6cae-51af-11ea-9e39-e75dfe3413fb
aedb982c-51af-11ea-92da-7774f4e203f4,aedf84dc-51af-11ea-8d5f-5f57c89c7158
aeda09a8-51af-11ea-8cee-434f4e08856f,aedf7a1e-51af-11ea-8068-1be507dc1941
aed7ad16-51af-11ea-9058-b3a7eb8d4fe0,aedf8e3c-51af-11ea-8ec4-7f7c54f003a1
aeda09a8-51af-11ea-8cee-434f4e08856f,aedfd19e-51af-11ea-b514-174df3ae677e
aed11c4e-51af-11ea-83dd-0f6862489e59,aedff110-51af-11ea-83a2-c7bca85f6bf8
aeded032-51af-11ea-b8a1-3b15845c0604,aee00ad8-51af-11ea-9a86-133c46ded6b3
aed6542a-51af-11ea-bb4e-379a54d3da20,aee0182a-51af-11ea-bd46-0bc659f635d4
aed204c4-51af-11ea-8271-2f81852c1fce,aee02eb4-51af-11ea-a468-63bdc8f7c0d4
aedd79c6-51af-11ea-bcf8-4740f78099fd,aee069b0-51af-11ea-acc3-678d4144d3fe
aed5765e-51af-11ea-9585-d7a7046a44ff,aee075a4-51af-11ea-b836-abcffebef5a2
aedd79c6-51af-11ea-bcf8-4740f78099fd,aee07e6e-51af-11ea-8b59-5732490e917a
aed4e022-51af-11ea-ac54-27a6c1489537,aee0a42a-51af-11ea-9536-9ba44171dc8a
aecf373a-51af-11ea-b82e-8f45ec936412,aee0da12-51af-11ea-b085-ff5b8ea82d5d
aede38de-51af-11ea-996d-13442feb3712,aee0e3cc-51af-11ea-ace5-07381d96a41c
aecfabde-51af-11ea-bb63-03f4eee651a5,aee13c0a-51af-11ea-bbe2-0f6442ee317a
aecdb838-51af-11ea-a938-0bb8225e55bc,aee1583e-51af-11ea-90d5-2711b47e854d
aedd0ee6-51af-11ea-8a91-3761c11c34cd,aee1659a-51af-11ea-83db-dfe9bbce4e65
aecdb838-51af-11ea-a938-0bb8225e55bc,aee1834a-51af-11ea-b589-af2f3f475168
aee1834a-51af-11ea-b589-af2f3f475168,aee1dd5e-51af-11ea-b025-e714d760a5db
aed95eae-51af-11ea-9434-3b41c254fd51,aee1f6a4-51af-11ea-8b65-470362834253
aed41bec-51af-11ea-a26b-53bb5f81c6f5,aee1ff6e-51af-11ea-a610-b7487cc0e7be
aed2ef7e-51af-11ea-9c51-d382c3e568e9,aee207d4-51af-11ea-a6eb-f78a5c4fc6ec
aed261ee-51af-11ea-8906-d7cd2618537d,aee24a1e-51af-11ea-bbab-d7776b883402
aedc0dde-51af-11ea-9a1c-13261fba051d,aee25892-51af-11ea-b1ff-fff4640e7ea1
aeded032-51af-11ea-b8a1-3b15845c0604,aee26b34-51af-11ea-9b60-e70642123c6a
aee0a42a-51af-11ea-9536-9ba44171dc8a,aee2b120-51af-11ea-9503-efa4c4cf6aa1
aed8ecc6-51af-11ea-9186-bf73a4d0fa79,aee2a824-51af-11ea-9743-b3b7125fe2c9
aecf9e00-51af-11ea-a939-f3f20bb354d1,aee2ca7a-51af-11ea-a181-77ff16a9b9d4
aedab498-51af-11ea-89bc-135e916ef24c,aee3216e-51af-11ea-aacf-1f2b25aaea44
aed9aa62-51af-11ea-a8a2-4305a8febcc3,aee32808-51af-11ea-b6be-0fd0fd2af906
aede92f2-51af-11ea-99db-ff9a03d1dc24,aee3314a-51af-11ea-9784-dba0ee3c98e8
aed72ae4-51af-11ea-8e47-1b54fc521481,aee33a00-51af-11ea-8a10-cba854fc8f6c
aecf9e00-51af-11ea-a939-f3f20bb354d1,aee38960-51af-11ea-bdf2-67101cdcf845
aed1f8a8-51af-11ea-ba21-17b1fac62194,aee3c2e0-51af-11ea-b73e-03924e15c8ea
aece3c86-51af-11ea-8799-0bb0c4bc24d1,aee3d302-51af-11ea-bc72-ef9d2674e148
aee13c0a-51af-11ea-bbe2-0f6442ee317a,aee402aa-51af-11ea-8288-4f44e6001cdd
aed72ae4-51af-11ea-8e47-1b54fc521481,aee41236-51af-11ea-9fb9-eb86aa0025af
aee2b120-51af-11ea-9503-efa4c4cf6aa1,aee45de0-51af-11ea-9920-eb7d4c4947eb
aed722ba-51af-11ea-b537-1711924b07b5,aee47474-51af-11ea-8b6c-f38d823ced39
aeda09a8-51af-11ea-8cee-434f4e08856f,aee47c58-51af-11ea-9016-e7a9e26eab53
aee00ad8-51af-11ea-9a86-133c46ded6b3,aee484b4-51af-11ea-9e1c-4778d980872e
aee484b4-51af-11ea-9e1c-4778d980872e,aee4b614-51af-11ea-a5de-ef8c78851ca2
aed2bc20-51af-11ea-b481-8f0f4f48a8f4,aee4dffe-51af-11ea-9de6-5371268c98e7
aee47c58-51af-11ea-9016-e7a9e26eab53,aee4efa8-51af-11ea-90a3-c378b8ef0bab
aedd79c6-51af-11ea-bcf8-4740f78099fd,aee51014-51af-11ea-814f-f7e5b6ca424d
aed3d704-51af-11ea-9503-abd65abc4eb1,aee54ffc-51af-11ea-a86f-4f683e59cd9b
aee32808-51af-11ea-b6be-0fd0fd2af906,aee5752c-51af-11ea-8e0e-6f242ae425ee
aed9e93c-51af-11ea-adfa-33e4cc89f53c,aee57db0-51af-11ea-9522-cb31467471b9
aee207d4-51af-11ea-a6eb-f78a5c4fc6ec,aee5907a-51af-11ea-be78-e7628235a4e2
aedc0dde-51af-11ea-9a1c-13261fba051d,aee5c608-51af-11ea-8e30-0f4d5d34a75f
aedab498-51af-11ea-89bc-135e916ef24c,aee60c30-51af-11ea-ae31-5fc17bccc8bc
aeda8be4-51af-11ea-a3a1-8ff0c368f400,aee61c2a-51af-11ea-9ef5-f3f19949fdbf
aed41bec-51af-11ea-a26b-53bb5f81c6f5,aee62490-51af-11ea-b342-1bb4364a68b9
aede4b12-51af-11ea-af0d-0b5acf5ad185,aee62cce-51af-11ea-b2c8-4fe0f2fdce95
aee484b4-51af-11ea-9e1c-4778d980872e,aee692a4-51af-11ea-9707-d32ee48cea47
aee38960-51af-11ea-bdf2-67101cdcf845,aee686a6-51af-11ea-9527-03deb64ccf0d
aedda702-51af-11ea-acae-7bd5a5b84172,aee699f2-51af-11ea-a9bb-eb40bd20192b
aee2b120-51af-11ea-9503-efa4c4cf6aa1,aee6a1fe-51af-11ea-a99e-d72969f941b1
aed98942-51af-11ea-b01a-0f9e523c5503,aee7023e-51af-11ea-b803-5f0e6f1dee3d
aed5e3b4-51af-11ea-a2cd-9bac0b664222,aee73d58-51af-11ea-910e-eb9cac66b04f
aecebe40-51af-11ea-9fbf-97384da97c4b,aee78060-51af-11ea-bb9c-ff1bcb703293
aed03504-51af-11ea-806e-43f8fcb2d5db,aee789c0-51af-11ea-a707-27dc7b336a62
aee26b34-51af-11ea-9b60-e70642123c6a,aee799b0-51af-11ea-9ab6-ff4279fbb6c1
aecf9e00-51af-11ea-a939-f3f20bb354d1,aee7b49a-51af-11ea-8d0c-3753b355505e
aed3c1e2-51af-11ea-a7a9-7fd05f1e927a,aee80ada-51af-11ea-bab0-8b814446d107
aed552e6-51af-11ea-afda-cf7b5831bc0f,aee81b7e-51af-11ea-b82a-7b81fcc374ff
aed42420-51af-11ea-9178-87b67a7034d2,aee823c6-51af-11ea-8eeb-b7db6c55fbdf
aee2b120-51af-11ea-9503-efa4c4cf6aa1,aee82b96-51af-11ea-89be-b76d26831b23
aedeb958-51af-11ea-bc72-ef08e2736b46,aee88d16-51af-11ea-8c71-7b69bb84a83c
aee1f6a4-51af-11ea-8b65-470362834253,aee8bc3c-51af-11ea-b657-4721e5ce08d0
aede92f2-51af-11ea-99db-ff9a03d1dc24,aee8cbdc-51af-11ea-9cb0-d7fa2d32b04f
aed369f4-51af-11ea-8598-6799d5aa5046,aee8dc4e-51af-11ea-a3bb-5bc0017d00ab
aed80fea-51af-11ea-897a-3f48b1746c9c,aee92f46-51af-11ea-88c2-5301a5df5482
aed8b7c4-51af-11ea-8085-9734d622c1dc,aee943dc-51af-11ea-b3d3-67d5ca6c9ede
aee5752c-51af-11ea-8e0e-6f242ae425ee,aee93bd0-51af-11ea-b259-df36675048b4
aed72ae4-51af-11ea-8e47-1b54fc521481,aee96966-51af-11ea-bfb9-8b20b1dbead0
aed32ce6-51af-11ea-82e9-a3872a6903b9,aee98d9c-51af-11ea-8a96-77dee7d78aef
aedc76fc-51af-11ea-96cc-3fb04ec7e20c,aee9e080-51af-11ea-8db0-db61d4b548c6
aed3d704-51af-11ea-9503-abd65abc4eb1,aee9e7ec-51af-11ea-a90d-138f760531c8
aecdafa0-51af-11ea-ba20-bf214e2e372b,aee9f1f6-51af-11ea-bfac-2f1509fde044
aeda8be4-51af-11ea-a3a1-8ff0c368f400,aeea63d4-51af-11ea-ab89-03ecde6e42de
aee32808-51af-11ea-b6be-0fd0fd2af906,aeea6f00-51af-11ea-b360-eb7fc6340244
aed369f4-51af-11ea-8598-6799d5aa5046,aeea798c-51af-11ea-a25c-2765778e2113
aee5c608-51af-11ea-8e30-0f4d5d34a75f,aeea8ba2-51af-11ea-a682-bb421666362a
aed147aa-51af-11ea-a7f4-130df72ef29e,aeeac9fa-51af-11ea-b72e-a3947186511f
aee00ad8-51af-11ea-9a86-133c46ded6b3,aeeafe66-51af-11ea-bb93-0fa5ad0452e9
aed147aa-51af-11ea-a7f4-130df72ef29e,aeeb078a-51af-11ea-a1bf-d34026df0c61
aeda410c-51af-11ea-88db-23eff7eaea69,aeeb260c-51af-11ea-b959-07c098bfcd08
aedbf088-51af-11ea-855f-2b682bfe1b5e,aeeb4182-51af-11ea-bbac-431fcfaa95a4
aedcd2d2-51af-11ea-a653-8ff85c0e1eb5,aeeb6bda-51af-11ea-be7c-5308060c8172
aed0b524-51af-11ea-a2a2-4f28f882dc51,aeeba6cc-51af-11ea-9e43-b3cafd2fafbb
aeceee60-51af-11ea-9d39-eff0f0a984c8,aeebb072-51af-11ea-823f-fbb671c1ae0c
aed4e022-51af-11ea-ac54-27a6c1489537,aeebe1b4-51af-11ea-bf3a-8358c8e663ed
aed93348-51af-11ea-9718-277910c8485d,aeebf06e-51af-11ea-9b59-bf0c249b727a
aed80fea-51af-11ea-897a-3f48b1746c9c,aeec608a-51af-11ea-a2f5-3b54b29ed195
aed1e6e2-51af-11ea-a16c-8ff2149873ca,aeeca946-51af-11ea-b890-535848c3b55f
aed1e6e2-51af-11ea-a16c-8ff2149873ca,aeecde0c-51af-11ea-bc01-eb51a199a590
aee1dd5e-51af-11ea-b025-e714d760a5db,aeeccf02-51af-11ea-b4a9-1b72e9de0770
aedff110-51af-11ea-83a2-c7bca85f6bf8,aeeced48-51af-11ea-953d-f7256b193e3d
aee9e080-51af-11ea-8db0-db61d4b548c6,aeed7fc4-51af-11ea-a4dc-affd9f832590
aee5752c-51af-11ea-8e0e-6f242ae425ee,aeed931a-51af-11ea-ba22-1f26136e548e
aee484b4-51af-11ea-9e1c-4778d980872e,aeeda53a-51af-11ea-8c2c-13183cb5eec3
aeebe1b4-51af-11ea-bf3a-8358c8e663ed,aeedb692-51af-11ea-949d-87a86327600e
aecdc058-51af-11ea-b992-57c84eaf9514,aeedf83c-51af-11ea-bdaf-eb329e4d09c6
aedbf088-51af-11ea-855f-2b682bfe1b5e,aeee0a98-51af-11ea-b1a9-332d067c0cf8
aeda8be4-51af-11ea-a3a1-8ff0c368f400,aeee40e4-51af-11ea-a43f-b746b36cbcfd
aed8c106-51af-11ea-abb1-9b45bc360764,aeee5598-51af-11ea-9cca-6bcfb413367d
aee1ff6e-51af-11ea-a610-b7487cc0e7be,aeeea750-51af-11ea-889d-77fcf6b3fb5f
aecdc594-51af-11ea-bef4-5360514f4a2c,aeeeb114-51af-11ea-ad2d-fb40eb1727dc
aed1e6e2-51af-11ea-a16c-8ff2149873ca,aeee912a-51af-11ea-bf6a-fbe472fcd747
aedb2842-51af-11ea-b565-3bc71be9f6a4,aeef241e-51af-11ea-8776-274dc0eeb7ae
aed93348-51af-11ea-9718-277910c8485d,aeef4caa-51af-11ea-ab0c-539a04039e18
aee47474-51af-11ea-8b6c-f38d823ced39,aeef65b4-51af-11ea-a94c-630d505621c6
aed95eae-51af-11ea-9434-3b41c254fd51,aeef71d0-51af-11ea-9f8a-d7e5c0ea43ac
aed0d4d2-51af-11ea-bced-3b38a7ad9ecd,aeefabb4-51af-11ea-998e-6f913d509c15
aee1f6a4-51af-11ea-8b65-470362834253,aeeffe84-51af-11ea-91cc-87978b13818d
aee62cce-51af-11ea-b2c8-4fe0f2fdce95,aef01194-51af-11ea-b765-23c8ddac7d48
aedce182-51af-11ea-946b-5bcd9138d027,aef02b8e-51af-11ea-957e-7bec11aaf9f8
aed1db20-51af-11ea-9f27-fb8efdfc7c8b,aef07620-51af-11ea-8afc-bf11871fb6bb
aeee0a98-51af-11ea-b1a9-332d067c0cf8,aef09196-51af-11ea-a73b-ff021da24b94
aedfd19e-51af-11ea-b514-174df3ae677e,aef0c490-51af-11ea-b352-7f08d0de7c7f
aed369f4-51af-11ea-8598-6799d5aa5046,aef107fc-51af-11ea-81da-27f1aff10175
aedff110-51af-11ea-83a2-c7bca85f6bf8,aef119ea-51af-11ea-aeaf-a35e3e73d137
aed0d4d2-51af-11ea-bced-3b38a7ad9ecd,aef15d74-51af-11ea-a030-f3be415b7ae9
aeeffe84-51af-11ea-91cc-87978b13818d,aef189f2-51af-11ea-8680-cb3efeedc77b
aecf2844-51af-11ea-a3e3-1bcd875c2ad0,aef19f28-51af-11ea-acb6-17d2bf6f3fb2
aedab498-51af-11ea-89bc-135e916ef24c,aef1bec2-51af-11ea-86e9-5bab4e7b1180
aee943dc-51af-11ea-b3d3-67d5ca6c9ede,aef1dae2-51af-11ea-97e5-3f06c6a2825c
aed3c1e2-51af-11ea-a7a9-7fd05f1e927a,aef226e6-51af-11ea-8fd1-bb31bd369181
aed722ba-51af-11ea-b537-1711924b07b5,aef2153e-51af-11ea-bc3a-dbd4cf76a3b2
aed851ee-51af-11ea-b270-b32111cd06d9,aef26eda-51af-11ea-86f5-2bd1821ce774
aed6097a-51af-11ea-aae7-63ea5b4b4f4c,aef29ce8-51af-11ea-b9f8-23ef96ab1789
aef119ea-51af-11ea-aeaf-a35e3e73d137,aef2e4b4-51af-11ea-ac40-13600f571b18
aedb982c-51af-11ea-92da-7774f4e203f4,aef3115a-51af-11ea-99c0-031338bcda41
aedd98de-51af-11ea-bad1-17f055797776,aef30066-51af-11ea-af92-9f49eccf1636
aeed931a-51af-11ea-ba22-1f26136e548e,aef30aca-51af-11ea-b0bd-ab75a2dc15a8
aef19f28-51af-11ea-acb6-17d2bf6f3fb2,aef37d20-51af-11ea-b996-8b74d9d4ace6
aed10ad8-51af-11ea-a992-d78c81901e36,aef38f36-51af-11ea-b538-a70d00461b49
aee33a00-51af-11ea-8a10-cba854fc8f6c,aef39da0-51af-11ea-8495-032a03b9d175
aeee912a-51af-11ea-bf6a-fbe472fcd747,aef3a9a8-51af-11ea-a498-df1165148583
aedeb958-51af-11ea-bc72-ef08e2736b46,aef3fcf0-51af-11ea-abc4-dfdc4603bc42
aee26b34-51af-11ea-9b60-e70642123c6a,aef42ffe-51af-11ea-b7f7-5bedd429cf4b
aee692a4-51af-11ea-9707-d32ee48cea47,aef45556-51af-11ea-b19b-0b59ee0c0495
aee789c0-51af-11ea-a707-27dc7b336a62,aef4a4de-51af-11ea-9119-1352e7e58fa8
aee0182a-51af-11ea-bd46-0bc659f635d4,aef4b73a-51af-11ea-b9be-13e76ca0536c
aedd98de-51af-11ea-bad1-17f055797776,aef4c4a0-51af-11ea-a98f-e76272f7862d
aedab498-51af-11ea-89bc-135e916ef24c,aef4e5de-51af-11ea-b458-4367555b57ee
aedf7a1e-51af-11ea-8068-1be507dc1941,aef51e32-51af-11ea-bf6c-afebcb9af674
aef07620-51af-11ea-8afc-bf11871fb6bb,aef54218-51af-11ea-9bbd-efd9d2f62b29
aed1db20-51af-11ea-9f27-fb8efdfc7c8b,aef56e82-51af-11ea-a9d6-ab2bded0cdc1
aef4c4a0-51af-11ea-a98f-e76272f7862d,aef59cea-51af-11ea-bdfc-1bffc572698d
aed58216-51af-11ea-afc3-4b756369235e,aef5a7a8-51af-11ea-bdf9-4356af9363d9
aee98d9c-51af-11ea-8a96-77dee7d78aef,aef5d55c-51af-11ea-9223-9f092d931afb
aee25892-51af-11ea-b1ff-fff4640e7ea1,aef6118e-51af-11ea-9b48-4b6ad2e11048
aeea63d4-51af-11ea-ab89-03ecde6e42de,aef63542-51af-11ea-add8-e704f1827452
aed33f92-51af-11ea-9260-cfba5306a093,aef64d84-51af-11ea-baae-db1f269046d6
aede92f2-51af-11ea-99db-ff9a03d1dc24,aef660da-51af-11ea-81cc-8b5d7bf9b8e9
aee0182a-51af-11ea-bd46-0bc659f635d4,aef6bbfc-51af-11ea-af62-23f01c4f0124
aed7d75a-51af-11ea-9cb4-7fa34a62fa7c,aef6e9f6-51af-11ea-a39b-7f3493232f5c
aeea6f00-51af-11ea-b360-eb7fc6340244,aef6f39c-51af-11ea-adfd-d34e8b0c4ecc
aed6097a-51af-11ea-aae7-63ea5b4b4f4c,aef72b96-51af-11ea-843d-6f284bed690e
aef63542-51af-11ea-add8-e704f1827452,aef7531e-51af-11ea-bf32-87e58a7a15ce
aed3d704-51af-11ea-9503-abd65abc4eb1,aef7709c-51af-11ea-a319-bfdff4aca4c2
aed6097a-51af-11ea-aae7-63ea5b4b4f4c,aef7797a-51af-11ea-a89f-4fdb1b714663
aedf7a1e-51af-11ea-8068-1be507dc1941,aef7e6da-51af-11ea-a0f8-b7fdebf84265
aeecde0c-51af-11ea-bc01-eb51a199a590,aef7fa3a-51af-11ea-95d5-575185551f09
aed6097a-51af-11ea-aae7-63ea5b4b4f4c,aef8251e-51af-11ea-a4d7-739f7f65dbb8
aed2760c-51af-11ea-9697-2f78969b9078,aef833c4-51af-11ea-a91c-53c1f73e83a4
aee1834a-51af-11ea-b589-af2f3f475168,aef8681c-51af-11ea-af3a-43fa12fe8072
aee81b7e-51af-11ea-b82a-7b81fcc374ff,aef8980a-51af-11ea-a34d-3b5598bcd2c9
aef119ea-51af-11ea-aeaf-a35e3e73d137,aef8a1c4-51af-11ea-a439-cfbbace70b95
aedaabc4-51af-11ea-ac6b-33739fcf82d4,aef8b718-51af-11ea-a711-df3422dc567a
aef189f2-51af-11ea-8680-cb3efeedc77b,aef8eb20-51af-11ea-94b5-5b5683ad400b
aedb982c-51af-11ea-92da-7774f4e203f4,aef92086-51af-11ea-9e5d-7b7ed82c8f17
aeeda53a-51af-11ea-8c2c-13183cb5eec3,aef92e3c-51af-11ea-bc28-fbb6bc490957
aecfd794-51af-11ea-a16c-0354c9c032b5,aef97496-51af-11ea-9584-ebd5cb1dd3da
aee9e7ec-51af-11ea-a90d-138f760531c8,aef996f6-51af-11ea-a9a5-238bfa9fc76b
aee96966-51af-11ea-bfb9-8b20b1dbead0,aef9c7d4-51af-11ea-bb62-5723a8717a5e
aedaabc4-51af-11ea-ac6b-33739fcf82d4,aef9d2e2-51af-11ea-97ad-1b996f0a3474
aef833c4-51af-11ea-a91c-53c1f73e83a4,aefa3980-51af-11ea-9163-bfabdb6bef4e
aed33f92-51af-11ea-9260-cfba5306a093,aefa6798-51af-11ea-b0d4-73145930feb4
aee96966-51af-11ea-bfb9-8b20b1dbead0,aefa7166-51af-11ea-bfeb-17b160fa9be7
aef2e4b4-51af-11ea-ac40-13600f571b18,aefa7c56-51af-11ea-a549-835656eded89
aee4dffe-51af-11ea-9de6-5371268c98e7,aefaa74e-51af-11ea-8c14-ef291edce744
aefa7c56-51af-11ea-a549-835656eded89,aefb09a0-51af-11ea-a8ac-0766dd72360f
aee1583e-51af-11ea-90d5-2711b47e854d,aefaf302-51af-11ea-840d-a36dee3b035e
aef3115a-51af-11ea-99c0-031338bcda41,aefb67e2-51af-11ea-851a-6b68e3598a45
aeef241e-51af-11ea-8776-274dc0eeb7ae,aefb71d8-51af-11ea-b351-3362b1d28764
aee93bd0-51af-11ea-b259-df36675048b4,aefb95dc-51af-11ea-8476-bb2947a9047b
aefb09a0-51af-11ea-a8ac-0766dd72360f,aefb9cc6-51af-11ea-8877-47567ec12ce6
aef1dae2-51af-11ea-97e5-3f06c6a2825c,aefc0aee-51af-11ea-ad60-0ff31c7bc67c
aedb982c-51af-11ea-92da-7774f4e203f4,aefc1a5c-51af-11ea-80c8-1bdcf2809526
aeebb072-51af-11ea-823f-fbb671c1ae0c,aefc2be6-51af-11ea-a5a8-fbe605486150
aed9bca0-51af-11ea-8cbb-3f4da7bd6dfd,aefc3f8c-51af-11ea-9b73-3b8a463ce86c
aef2153e-51af-11ea-bc3a-dbd4cf76a3b2,aefc990a-51af-11ea-b68c-8393e69c65a7
aececfc0-51af-11ea-b605-23a4c46912ad,aefcc4c0-51af-11ea-8626-0399e57a6caa
aecf9e00-51af-11ea-a939-f3f20bb354d1,aefcd01e-51af-11ea-b062-3723ea2c72c1
aeeba6cc-51af-11ea-9e43-b3cafd2fafbb,aefce978-51af-11ea-a916-cb3a75bc8bf9
aee13c0a-51af-11ea-bbe2-0f6442ee317a,aefd0ee4-51af-11ea-8f1f-dfd00a3212a6
aed2ef7e-51af-11ea-9c51-d382c3e568e9,aefd3cfc-51af-11ea-8a64-cbe4e4175554
aee069b0-51af-11ea-acc3-678d4144d3fe,aefd5e58-51af-11ea-89a8-1b54809868d3
aed03504-51af-11ea-806e-43f8fcb2d5db,aefd94d6-51af-11ea-a8ab-33a1080456ae
aedd8f60-51af-11ea-a7bf-33da47d9167d,aefdd34c-51af-11ea-89ad-9f36a74ccf60
aedb1e1a-51af-11ea-ac0a-1f9ea32a75f9,aefe0326-51af-11ea-b981-af54c415701e
aedb1e1a-51af-11ea-ac0a-1f9ea32a75f9,aefe2e82-51af-11ea-86b1-e740d717df4a
aee1659a-51af-11ea-83db-dfe9bbce4e65,aefe455c-51af-11ea-ade8-fbd909f33fbf
aee799b0-51af-11ea-9ab6-ff4279fbb6c1,aefe6f3c-51af-11ea-b70c-a3aa1d97cc09
aee943dc-51af-11ea-b3d3-67d5ca6c9ede,aefe7900-51af-11ea-9951-7f7d4f52a726
aeeffe84-51af-11ea-91cc-87978b13818d,aefeb410-51af-11ea-bc93-7bace2141ae9
aef7e6da-51af-11ea-a0f8-b7fdebf84265,aefee444-51af-11ea-a69b-a3e42cbe18d6
aed2760c-51af-11ea-9697-2f78969b9078,aeff0e7e-51af-11ea-839b-df682cb7a3ca
aed10ad8-51af-11ea-a992-d78c81901e36,aeff2a08-51af-11ea-8dc8-332184f21441
aeddf50e-51af-11ea-a98d-d3f8126bc6ad,aeff668a-51af-11ea-8848-378b7325030a
aee0182a-51af-11ea-bd46-0bc659f635d4,aeff8110-51af-11ea-8212-47b8bbbc17be
aeceee60-51af-11ea-9d39-eff0f0a984c8,aeffbcfc-51af-11ea-8fb6-9fed2f70f378
aed147aa-51af-11ea-a7f4-130df72ef29e,aeffc724-51af-11ea-a946-1b4ce0d33110
aeeafe66-51af-11ea-bb93-0fa5ad0452e9,af0007b6-51af-11ea-9282-a79314d9cdfe
aee62490-51af-11ea-b342-1bb4364a68b9,af002f34-51af-11ea-9034-f3f3cff25d38
aeda09a8-51af-11ea-8cee-434f4e08856f,af0044ce-51af-11ea-863f-53cee5511873
aef9d2e2-51af-11ea-97ad-1b996f0a3474,af00550e-51af-11ea-9be1-b33bb0b5a23b
aefaa74e-51af-11ea-8c14-ef291edce744,af00a3ba-51af-11ea-ad0a-5b3acea68c1c
aef30066-51af-11ea-af92-9f49eccf1636,af00b486-51af-11ea-86d2-bb71927fc903
aef1bec2-51af-11ea-86e9-5bab4e7b1180,af00bd00-51af-11ea-aecc-138c272e59b4
aeeccf02-51af-11ea-b4a9-1b72e9de0770,af011ae8-51af-11ea-9180-83dee2ea43fb
aecf2844-51af-11ea-a3e3-1bcd875c2ad0,af01095e-51af-11ea-a470-f33bc948a730
aef7fa3a-51af-11ea-95d5-575185551f09,af0167a0-51af-11ea-b3ec-3f767a4ca195
aed0d4d2-51af-11ea-bced-3b38a7ad9ecd,af019338-51af-11ea-b608-db6f8cb30b7d
aed11c4e-51af-11ea-83dd-0f6862489e59,af019d9c-51af-11ea-b0dd-efbec1877041
aef97496-51af-11ea-9584-ebd5cb1dd3da,af01b71e-51af-11ea-8b99-2f800b80fe0f
aefb9cc6-51af-11ea-8877-47567ec12ce6,af01e216-51af-11ea-a26a-7fc2ac3b71ac
aee60c30-51af-11ea-ae31-5fc17bccc8bc,af023a18-51af-11ea-bbc0-bbdb212278cd
aefe0326-51af-11ea-b981-af54c415701e,af02525a-51af-11ea-9f91-5314d579eb57
aeedf83c-51af-11ea-bdaf-eb329e4d09c6,af025b92-51af-11ea-8b46-e337dd822334
aeea6f00-51af-11ea-b360-eb7fc6340244,af028ec8-51af-11ea-b0c8-e76d040d1eb6
aefcd01e-51af-11ea-b062-3723ea2c72c1,af02acb4-51af-11ea-8cd4-3bb398176034
aedd8f60-51af-11ea-a7bf-33da47d9167d,af02f548-51af-11ea-9b50-db3f10a4a668
aed722ba-51af-11ea-b537-1711924b07b5,af02fb92-51af-11ea-a971-d7dd123b3e4c
aecebe40-51af-11ea-9fbf-97384da97c4b,af030eca-51af-11ea-abaf-77c447568e92
aee207d4-51af-11ea-a6eb-f78a5c4fc6ec,af03290a-51af-11ea-b08a-cfeb5a835082
aee0a42a-51af-11ea-9536-9ba44171dc8a,af0390ac-51af-11ea-8a5e-2b83499f48cf
aeefabb4-51af-11ea-998e-6f913d509c15,af03a2e0-51af-11ea-b427-47ced064931b
aeea6f00-51af-11ea-b360-eb7fc6340244,af03a40c-51af-11ea-870c-f331707b8171
aefa7166-51af-11ea-bfeb-17b160fa9be7,af03b992-51af-11ea-b40f-2b233b43709b
af03b992-51af-11ea-b40f-2b233b43709b,af03fbf0-51af-11ea-90e6-0f5e11c11367
aed851ee-51af-11ea-b270-b32111cd06d9,af041aae-51af-11ea-98f1-73986c0f4e3a
aed6542a-51af-11ea-bb4e-379a54d3da20,af042ac6-51af-11ea-8719-e389b4df13c0
aed7f08c-51af-11ea-8eb0-e73667b66a66,af044722-51af-11ea-a882-174ab75296de
aeef4caa-51af-11ea-ab0c-539a04039e18,af049308-51af-11ea-8230-6b212c444711
aef226e6-51af-11ea-8fd1-bb31bd369181,af04b0d6-51af-11ea-9545-5fab18ef29b2
aefc3f8c-51af-11ea-9b73-3b8a463ce86c,af04baae-51af-11ea-90c8-b3a8c7b41f8d
aee2b120-51af-11ea-9503-efa4c4cf6aa1,af04d688-51af-11ea-bfc9-0f7f3974773e
aedf7a1e-51af-11ea-8068-1be507dc1941,af0510bc-51af-11ea-a3b2-6bd1b306edcc
aedc0528-51af-11ea-9e94-2f479c78d005,af052674-51af-11ea-b21c-037a0f0dbd10
aeee912a-51af-11ea-bf6a-fbe472fcd747,af053af6-51af-11ea-adb6-0ff0f63ec931
aeff8110-51af-11ea-8212-47b8bbbc17be,af0553ec-51af-11ea-9e1f-4779b24dfeff
aed0b524-51af-11ea-a2a2-4f28f882dc51,af058d1c-51af-11ea-ac55-5baca43845be
aed7376e-51af-11ea-9079-4fd8ee978a3a,af05af86-51af-11ea-a4e8-53188a1c81b1
aed46d18-51af-11ea-896f-a3e7cf0439c2,af05b850-51af-11ea-959a-574fd2b1656e
aeded032-51af-11ea-b8a1-3b15845c0604,af05c282-51af-11ea-a9bb-ab79c906c097
aee62490-51af-11ea-b342-1bb4364a68b9,af061598-51af-11ea-accf-c7a7b77fa421
aedbf088-51af-11ea-855f-2b682bfe1b5e,af06227c-51af-11ea-a433-9bdaa08f3279
af04baae-51af-11ea-90c8-b3a8c7b41f8d,af066df4-51af-11ea-96f3-8fb173e61b5f
aef9c7d4-51af-11ea-bb62-5723a8717a5e,af06768c-51af-11ea-aa00-e73304410fae
aee82b96-51af-11ea-89be-b76d26831b23,af06b5a2-51af-11ea-8ec8-e76f02303539
af044722-51af-11ea-a882-174ab75296de,af06c0c4-51af-11ea-adab-9bfd77a9f56c
aee9e7ec-51af-11ea-a90d-138f760531c8,af06db0e-51af-11ea-b50d-37d555884dab
aee8dc4e-51af-11ea-a3bb-5bc0017d00ab,af070d54-51af-11ea-aa58-3b6afd73b29a
aed80fea-51af-11ea-897a-3f48b1746c9c,af071d26-51af-11ea-a927-dba6acac21d9
aeee0a98-51af-11ea-b1a9-332d067c0cf8,af07744c-51af-11ea-a2b1-67670ae4b097
aed147aa-51af-11ea-a7f4-130df72ef29e,af077d84-51af-11ea-aed1-cb656a8ca236
aedf6cae-51af-11ea-9e39-e75dfe3413fb,af07a3c2-51af-11ea-b590-836d777ee8e4
af019338-51af-11ea-b608-db6f8cb30b7d,af08029a-51af-11ea-95e1-9f27d890494b
aedc5a3c-51af-11ea-8265-1f1b3a778a70,af080e2a-51af-11ea-b562-c3ff3ccc6298
af00550e-51af-11ea-9be1-b33bb0b5a23b,af0818c0-51af-11ea-a622-5f5ef185b684
aeed931a-51af-11ea-ba22-1f26136e548e,af084840-51af-11ea-87d9-072e2b375a28
aee0da12-51af-11ea-b085-ff5b8ea82d5d,af087978-51af-11ea-b355-c32afc28bb66
aedab498-51af-11ea-89bc-135e916ef24c,af0880ee-51af-11ea-bd3f-d3013a92ce8b
aed1db20-51af-11ea-9f27-fb8efdfc7c8b,af088b8e-51af-11ea-9d7c-4b4924e1edd5
aefdd34c-51af-11ea-89ad-9f36a74ccf60,af0908d4-51af-11ea-8a14-fb71437b5cc0
aef51e32-51af-11ea-bf6c-afebcb9af674,af09132e-51af-11ea-ac50-c7f47e239ca5
aee8cbdc-51af-11ea-9cb0-d7fa2d32b04f,af09201c-51af-11ea-b75d-53440f9becde
aee07e6e-51af-11ea-8b59-5732490e917a,af0952f8-51af-11ea-a30b-c705e01ef796
aefd5e58-51af-11ea-89a8-1b54809868d3,af09c706-51af-11ea-8946-2bd7ce6d80ab
af06b5a2-51af-11ea-8ec8-e76f02303539,af09d7e6-51af-11ea-ab91-3b30c10550a1
aee88d16-51af-11ea-8c71-7b69bb84a83c,af09e772-51af-11ea-9522-033530f46c4f
aed58216-51af-11ea-afc3-4b756369235e,af0a1724-51af-11ea-98c9-af93af4cb312
aee069b0-51af-11ea-acc3-678d4144d3fe,af0a6756-51af-11ea-b4c5-ab7813d751b4
aefeb410-51af-11ea-bc93-7bace2141ae9,af0aaf68-51af-11ea-85f2-17166860c527
af03b992-51af-11ea-b40f-2b233b43709b,af0abe22-51af-11ea-95fd-2f3159f1b485
aefb95dc-51af-11ea-8476-bb2947a9047b,af0ad2d6-51af-11ea-b212-cb89faecfdd5
aedf84dc-51af-11ea-8d5f-5f57c89c7158,af0ae3b6-51af-11ea-adaa-f7ff072c2ddf
aeec608a-51af-11ea-a2f5-3b54b29ed195,af0b1890-51af-11ea-867c-7378fd1fc942
aecee79e-51af-11ea-a902-4fa1f074517c,af0b37a8-51af-11ea-b5a7-978306a6aef6
aedab498-51af-11ea-89bc-135e916ef24c,af0b4b4e-51af-11ea-9a6c-9f69f3ea3dbd
aee25892-51af-11ea-b1ff-fff4640e7ea1,af0b7268-51af-11ea-88ac-570300c94fe0
aee075a4-51af-11ea-b836-abcffebef5a2,af0bb714-51af-11ea-a149-339c39bda03f
aefb71d8-51af-11ea-b351-3362b1d28764,af0bd604-51af-11ea-ab38-07a7034742d4
af088b8e-51af-11ea-9d7c-4b4924e1edd5,af0bffee-51af-11ea-afdf-2313a26d30ec
aefb09a0-51af-11ea-a8ac-0766dd72360f,af0c104c-51af-11ea-a0b5-1b6e5f6215de
aedff110-51af-11ea-83a2-c7bca85f6bf8,af0c1a10-51af-11ea-b890-abf9cfdddc32
aed552e6-51af-11ea-afda-cf7b5831bc0f,af0c39a0-51af-11ea-9ec7-1fa1988d456d
aed8b7c4-51af-11ea-8085-9734d622c1dc,af0c695c-51af-11ea-9852-9f87bbf68f25
aedbfac4-51af-11ea-88be-abf52a8906ee,af0c834c-51af-11ea-97fc-e739d47d5589
aefc1a5c-51af-11ea-80c8-1bdcf2809526,af0c8d06-51af-11ea-abc9-43284bb7949b
aed065ba-51af-11ea-b4ce-8b0aac0e4904,af0c9904-51af-11ea-b200-3369841337df
aef30066-51af-11ea-af92-9f49eccf1636,af0cf368-51af-11ea-8794-9bab5e469f0b
aed52f78-51af-11ea-af43-0ffe10be286e,af0cfcfa-51af-11ea-b2f3-efa157231f42
aee24a1e-51af-11ea-bbab-d7776b883402,af0d06b4-51af-11ea-8d52-b3884146d970
aedf8e3c-51af-11ea-8ec4-7f7c54f003a1,af0d25ae-51af-11ea-86ee-9f45ea6d2d59
aecdc594-51af-11ea-bef4-5360514f4a2c,af0d6fdc-51af-11ea-91f1-0be2566bfeda
aef226e6-51af-11ea-8fd1-bb31bd369181,af0d845e-51af-11ea-a529-279d51af999a
aed58216-51af-11ea-afc3-4b756369235e,af0d8da0-51af-11ea-8eb9-e708e0e25e0d
aefd5e58-51af-11ea-89a8-1b54809868d3,af0da718-51af-11ea-a8fd-33eefd3c21db
aef2e4b4-51af-11ea-ac40-13600f571b18,af0df9ca-51af-11ea-b25e-778a068685dc
aed8ecc6-51af-11ea-9186-bf73a4d0fa79,af0e0636-51af-11ea-9391-376c9a9ac4fc
aecf1926-51af-11ea-8bff-174e0245834f,af0e30e8-51af-11ea-92a5-438166062511
aefb95dc-51af-11ea-8476-bb2947a9047b,af0e5780-51af-11ea-a1a4-033da5b0bac5
af0d8da0-51af-11ea-8eb9-e708e0e25e0d,af0e61bc-51af-11ea-bdda-e76b98059d6d
aed9bca0-51af-11ea-8cbb-3f4da7bd6dfd,af0ec792-51af-11ea-b5c6-7782a7360620
af0c39a0-51af-11ea-9ec7-1fa1988d456d,af0f0180-51af-11ea-bdd8-b336e0cfcae2
af049308-51af-11ea-8230-6b212c444711,af0f09b4-51af-11ea-a374-cfa9ebbeab87
aed32ce6-51af-11ea-82e9-a3872a6903b9,af0f142c-51af-11ea-a4e2-a73c4e1ebc4d
aed2c472-51af-11ea-84b3-e723b9ab9741,af0f5ba8-51af-11ea-89d3-ef15886959ca
aee075a4-51af-11ea-b836-abcffebef5a2,af0f79d0-51af-11ea-9f22-2f7ebdd16c87
aeeafe66-51af-11ea-bb93-0fa5ad0452e9,af0fa6c6-51af-11ea-b944-bf2e4d91327f
aed49a4a-51af-11ea-80d6-c7e94893f31a,af0fc796-51af-11ea-bf1d-4772e21ea701
aeeced48-51af-11ea-953d-f7256b193e3d,af0fd1e6-51af-11ea-926e-07d4135b4a41
aed6ab82-51af-11ea-a577-67728c19c523,af0fe442-51af-11ea-b847-bb1c5bd6eaa2
aeeb260c-51af-11ea-b959-07c098bfcd08,af100fbc-51af-11ea-806d-dfbe2bd0ea5b
aed2760c-51af-11ea-9697-2f78969b9078,af103f50-51af-11ea-9171-c3ca548e31f1
aee45de0-51af-11ea-9920-eb7d4c4947eb,af1050c6-51af-11ea-ab80-b338f2c173f8
aed926b4-51af-11ea-937b-53a3a03a04e8,af10a738-51af-11ea-81fd-2b5dafabe89d
aed3d704-51af-11ea-9503-abd65abc4eb1,af10b296-51af-11ea-a2db-ef3d47ee1aa9
af0ae3b6-51af-11ea-adaa-f7ff072c2ddf,af10bd22-51af-11ea-849b-13e76dbb53f8
aeea63d4-51af-11ea-ab89-03ecde6e42de,af10e554-51af-11ea-bf69-fb99009acfda
aed2bc20-51af-11ea-b481-8f0f4f48a8f4,af11616e-51af-11ea-8219-73e3803738e9
aee207d4-51af-11ea-a6eb-f78a5c4fc6ec,af116a56-51af-11ea-af27-93fe2bdeb805
aece3c86-51af-11ea-8799-0bb0c4bc24d1,af118428-51af-11ea-823c-dfaf641c58ae
aedca1ae-51af-11ea-9d53-1fbafcc65bc0,af11b0c4-51af-11ea-8c7e-43eb4bc8444e
af04baae-51af-11ea-90c8-b3a8c7b41f8d,af11f084-51af-11ea-90d6-27c7d713ae5e
aef72b96-51af-11ea-843d-6f284bed690e,af11ff20-51af-11ea-bdbd-ef7db8e7cce1
aee47c58-51af-11ea-9016-e7a9e26eab53,af12180c-51af-11ea-a3af-4fc270925325
aed2c472-51af-11ea-84b3-e723b9ab9741,af124e76-51af-11ea-ad1a-931a0753acc9
aee62490-51af-11ea-b342-1bb4364a68b9,af127784-51af-11ea-a1d6-0b54c2f6e61c
aeea63d4-51af-11ea-ab89-03ecde6e42de,af12930e-51af-11ea-a1de-3f88c9beb88b
af0a6756-51af-11ea-b4c5-ab7813d751b4,af12ad8a-51af-11ea-81fb-d34087313e94
aeeced48-51af-11ea-953d-f7256b193e3d,af12f72c-51af-11ea-bb31-bb834b300537
aed48050-51af-11ea-a4b6-4b96ea7d7ec7,af1305c8-51af-11ea-9f4c-47e9cdbaf695
aeeced48-51af-11ea-953d-f7256b193e3d,af1339ee-51af-11ea-af9b-0f9d146edd1a
aee8bc3c-51af-11ea-b657-4721e5ce08d0,af13709e-51af-11ea-91c2-5fef67c4e901
aedde7da-51af-11ea-9813-973f4157cec2,af137c7e-51af-11ea-a76d-27f1c688f6ef
aecf373a-51af-11ea-b82e-8f45ec936412,af13f316-51af-11ea-b3d0-93e7d658703b
af10a738-51af-11ea-81fd-2b5dafabe89d,af13e7f4-51af-11ea-b699-978b96a49431
af118428-51af-11ea-823c-dfaf641c58ae,af1455f4-51af-11ea-ba30-97d797697ed2
aeff0e7e-51af-11ea-839b-df682cb7a3ca,af14c64c-51af-11ea-9174-5f5692d5722b
aecdc058-51af-11ea-b992-57c84eaf9514,af14d722-51af-11ea-ab4e-b33ce8a0050c
aeee912a-51af-11ea-bf6a-fbe472fcd747,af14e398-51af-11ea-98ed-53563e50c432
af0a6756-51af-11ea-b4c5-ab7813d751b4,af14ef96-51af-11ea-bb0a-b7bb50de3027
aefb71d8-51af-11ea-b351-3362b1d28764,af15623c-51af-11ea-90cd-7be9fba0c753
aeff8110-51af-11ea-8212-47b8bbbc17be,af1556f2-51af-11ea-a87f-736eadb1f238
aefaf302-51af-11ea-840d-a36dee3b035e,af15b3fe-51af-11ea-a60e-37070bcbecfb
af14d722-51af-11ea-ab4e-b33ce8a0050c,af15c01a-51af-11ea-8cae-67b912b49f11
aed11c4e-51af-11ea-83dd-0f6862489e59,af15da46-51af-11ea-aac1-afa0d2d1618b
aefcc4c0-51af-11ea-8626-0399e57a6caa,af15e59a-51af-11ea-b143-f78f5856d8f3
aef02b8e-51af-11ea-957e-7bec11aaf9f8,af1629d8-51af-11ea-8381-dfe8f4609d10
af084840-51af-11ea-87d9-072e2b375a28,af163ef0-51af-11ea-929f-0722cf0c0aaa
aeee912a-51af-11ea-bf6a-fbe472fcd747,af166470-51af-11ea-a67b-8784451b4132
aed4ecc0-51af-11ea-8a35-4f7fb2dea116,af168612-51af-11ea-be1a-d722a69a87e8
af0d25ae-51af-11ea-86ee-9f45ea6d2d59,af16bd80-51af-11ea-b892-f3e6758b2ed8
aeebb072-51af-11ea-823f-fbb671c1ae0c,af170d26-51af-11ea-8640-a31c317077a9
aeded032-51af-11ea-b8a1-3b15845c0604,af1760be-51af-11ea-9093-0bc071288c49
aee5c608-51af-11ea-8e30-0f4d5d34a75f,af1784c2-51af-11ea-b5b1-33534dfb1138
aee3c2e0-51af-11ea-b73e-03924e15c8ea,af1791ec-51af-11ea-b951-63b40e19a638
aed1db20-51af-11ea-9f27-fb8efdfc7c8b,af17b762-51af-11ea-86fe-871b029a1bfa
aee96966-51af-11ea-bfb9-8b20b1dbead0,af18056e-51af-11ea-bb64-6b75e37a472f
aeffc724-51af-11ea-a946-1b4ce0d33110,af184be6-51af-11ea-83f7-57debb601786
aefa6798-51af-11ea-b0d4-73145930feb4,af185258-51af-11ea-8fae-a348e828d40e
aeff668a-51af-11ea-8848-378b7325030a,af18740e-51af-11ea-81c6-379224796f90
aef19f28-51af-11ea-acb6-17d2bf6f3fb2,af189cae-51af-11ea-aa86-ab79d24e1718
aecf7376-51af-11ea-8652-e7ee957aa762,af18bd9c-51af-11ea-8226-5796a0098fc7
af163ef0-51af-11ea-929f-0722cf0c0aaa,af18c4f4-51af-11ea-b3e6-035fc9d38a16
af087978-51af-11ea-b355-c32afc28bb66,af18ffa0-51af-11ea-9665-ff1c2bea5a46
af087978-51af-11ea-b355-c32afc28bb66,af1925ac-51af-11ea-b4ae-73f94a26e9bd
af0f5ba8-51af-11ea-89d3-ef15886959ca,af19596e-51af-11ea-9492-dfd463f23d36
aecf373a-51af-11ea-b82e-8f45ec936412,af1986aa-51af-11ea-aabf-0326ee6cf988
aee4dffe-51af-11ea-9de6-5371268c98e7,af19bb3e-51af-11ea-a81e-3fc330f82ba2
aed0b524-51af-11ea-a2a2-4f28f882dc51,af19c408-51af-11ea-aada-73218cdb2e22
aedaabc4-51af-11ea-ac6b-33739fcf82d4,af19cd04-51af-11ea-8d0c-eba15a2c3646
af127784-51af-11ea-a1d6-0b54c2f6e61c,af1a2d58-51af-11ea-9c5a-23f790230da1
aee38960-51af-11ea-bdf2-67101cdcf845,af1a6af2-51af-11ea-a6ab-5336b4e12bdc
aee60c30-51af-11ea-ae31-5fc17bccc8bc,af1a810e-51af-11ea-94c9-5bd7face9a4b
af0b1890-51af-11ea-867c-7378fd1fc942,af1a9e78-51af-11ea-993c-7303ee1adf10
af15e59a-51af-11ea-b143-f78f5856d8f3,af1aa8d2-51af-11ea-86ef-fb91223a387f
af0b7268-51af-11ea-88ac-570300c94fe0,af1b151a-51af-11ea-a838-d36e487bbb72
aeeeb114-51af-11ea-ad2d-fb40eb1727dc,af1b45a8-51af-11ea-b0d7-5b815e8a1359
aefe6f3c-51af-11ea-b70c-a3aa1d97cc09,af1b6e0c-51af-11ea-9ecd-cb17653b47d2
aed48050-51af-11ea-a4b6-4b96ea7d7ec7,af1b7dac-51af-11ea-b215-7f3dff3a7dcd
aed4ecc0-51af-11ea-8a35-4f7fb2dea116,af1ba44e-51af-11ea-9491-57f5d2b76791
aee943dc-51af-11ea-b3d3-67d5ca6c9ede,af1bb4e8-51af-11ea-95da-7733941f9c99
aef07620-51af-11ea-8afc-bf11871fb6bb,af1c3bfc-51af-11ea-8505-af96713c0eea
af100fbc-51af-11ea-806d-dfbe2bd0ea5b,af1c4750-51af-11ea-b5a1-d3a823aa3a05
aee62490-51af-11ea-b342-1bb4364a68b9,af1c5b3c-51af-11ea-82ab-c7d5c7b58b81
aeea8ba2-51af-11ea-a682-bb421666362a,af1c4e8a-51af-11ea-ab43-832e755726b0
aedba40c-51af-11ea-85f7-6317a38c6e1f,af1ce4a8-51af-11ea-aa3a-87b067bd3236
aecf7376-51af-11ea-8652-e7ee957aa762,af1ced04-51af-11ea-b799-677a10a4d875
aedb3832-51af-11ea-b084-ab9f49213d72,af1cf560-51af-11ea-9a79-d3cd04658c7c
aee81b7e-51af-11ea-b82a-7b81fcc374ff,af1cfca4-51af-11ea-a104-f36906af47cf
aee62490-51af-11ea-b342-1bb4364a68b9,af1d5334-51af-11ea-b9ce-07e69d120269
aeee5598-51af-11ea-9cca-6bcfb413367d,af1d837c-51af-11ea-9d71-e7894a091210
aee62490-51af-11ea-b342-1bb4364a68b9,af1dc274-51af-11ea-b30c-374b82bb0d5a
af03a40c-51af-11ea-870c-f331707b8171,af1dccce-51af-11ea-80ba-7772d3185f1c
aed03842-51af-11ea-82af-1fbe376163d8,af1dd408-51af-11ea-9c18-0ffd1ed2d7e9
aef09196-51af-11ea-a73b-ff021da24b94,af1e0c84-51af-11ea-a42c-f353519ef106
af1a2d58-51af-11ea-9c5a-23f790230da1,af1e6de6-51af-11ea-b880-4f818ec22e21
af044722-51af-11ea-a882-174ab75296de,af1e8f88-51af-11ea-a047-777582aeabf7
aef996f6-51af-11ea-a9a5-238bfa9fc76b,af1eaf90-51af-11ea-a263-675553796a83
af019338-51af-11ea-b608-db6f8cb30b7d,af1ec098-51af-11ea-8768-3b22a6d75692
aed6097a-51af-11ea-aae7-63ea5b4b4f4c,af1f4f36-51af-11ea-8277-a707eb196fe9
af02f548-51af-11ea-9b50-db3f10a4a668,af1f6304-51af-11ea-800e-9f13ae4890fb
aed74042-51af-11ea-af1e-b7e881779058,af1f6e8a-51af-11ea-82fd-9ff660f383b3
aed926b4-51af-11ea-937b-53a3a03a04e8,af1f925c-51af-11ea-a148-b73a2a7bcd7e
af116a56-51af-11ea-af27-93fe2bdeb805,af1feed2-51af-11ea-a80c-13861e7d8e31
af0c1a10-51af-11ea-b890-abf9cfdddc32,af2015f6-51af-11ea-be1e-134c2408caf1
aef6118e-51af-11ea-9b48-4b6ad2e11048,af201eb6-51af-11ea-9b84-337ddcdeec6d
aee51014-51af-11ea-814f-f7e5b6ca424d,af205d9a-51af-11ea-b242-6f4f490fdde9
aede92f2-51af-11ea-99db-ff9a03d1dc24,af207d52-51af-11ea-8a8d-d7be74d47561
aeeced48-51af-11ea-953d-f7256b193e3d,af20bfa6-51af-11ea-84f7-bb615bd76881
aef26eda-51af-11ea-86f5-2bd1821ce774,af20c8fc-51af-11ea-94f8-9b5537470c4a
aed46d18-51af-11ea-896f-a3e7cf0439c2,af210952-51af-11ea-a556-ab5b64cf07fc
af0d6fdc-51af-11ea-91f1-0be2566bfeda,af211244-51af-11ea-b04c-0fa03b528ed8
aeea8ba2-51af-11ea-a682-bb421666362a,af212ea0-51af-11ea-bf8e-9b82f9b59d58
aee2ca7a-51af-11ea-a181-77ff16a9b9d4,af217b8a-51af-11ea-bb56-7bcba7f7fb66
aefaf302-51af-11ea-840d-a36dee3b035e,af21883c-51af-11ea-970d-af4b56e34f05
aed10ad8-51af-11ea-a992-d78c81901e36,af219fca-51af-11ea-9041-b7d22141552b
aed6097a-51af-11ea-aae7-63ea5b4b4f4c,af21c248-51af-11ea-b573-13da41e02958
af1925ac-51af-11ea-b4ae-73f94a26e9bd,af2202e4-51af-11ea-adf1-7fa414bc0d03
aee8cbdc-51af-11ea-9cb0-d7fa2d32b04f,af22429a-51af-11ea-8f09-5b56ae996c87
af1dccce-51af-11ea-80ba-7772d3185f1c,af224c72-51af-11ea-8631-83c1bd0cd755
aef8b718-51af-11ea-a711-df3422dc567a,af2296fa-51af-11ea-b897-3b35cf5ed760
af1cfca4-51af-11ea-a104-f36906af47cf,af22dd18-51af-11ea-b2a6-f32996d628b1
af127784-51af-11ea-a1d6-0b54c2f6e61c,af22fb86-51af-11ea-882f-cf61b1e158b9
aeefabb4-51af-11ea-998e-6f913d509c15,af22f276-51af-11ea-96fd-5b2d42e39595
af207d52-51af-11ea-8a8d-d7be74d47561,af233b00-51af-11ea-a285-afe5650eb9ac
aeeb6bda-51af-11ea-be7c-5308060c8172,af239834-51af-11ea-94d9-83f54dbe7927
af0553ec-51af-11ea-9e1f-4779b24dfeff,af23a630-51af-11ea-9e7f-67712b4a5765
aee699f2-51af-11ea-a9bb-eb40bd20192b,af23ab76-51af-11ea-ba20-1f04c44b906c
aef8681c-51af-11ea-af3a-43fa12fe8072,af23c9b2-51af-11ea-887d-b3bdaa161388
af185258-51af-11ea-8fae-a348e828d40e,af240364-51af-11ea-a80d-077115d5e009
aed1f8a8-51af-11ea-ba21-17b1fac62194,af243b68-51af-11ea-b09a-1fc5747d99ef
aefb71d8-51af-11ea-b351-3362b1d28764,af244ce8-51af-11ea-a546-3398fe73dba3
aeeba6cc-51af-11ea-9e43-b3cafd2fafbb,af245e04-51af-11ea-9048-dfef3acb0af5
aeda09a8-51af-11ea-8cee-434f4e08856f,af249946-51af-11ea-b1f9-c37f929d908d
af1f925c-51af-11ea-a148-b73a2a7bcd7e,af24a300-51af-11ea-9d19-ebcc435f4ef3
af1b7dac-51af-11ea-b215-7f3dff3a7dcd,af24eca2-51af-11ea-a9cd-dfb31f0ff06f
af023a18-51af-11ea-bbc0-bbdb212278cd,af250624-51af-11ea-a57a-535820a1b21b
af04d688-51af-11ea-bfc9-0f7f3974773e,af25104c-51af-11ea-a864-b3a16de6c8a4
aed11c4e-51af-11ea-83dd-0f6862489e59,af252ab4-51af-11ea-8db4-b788da6d90cb
aefa6798-51af-11ea-b0d4-73145930feb4,af256fec-51af-11ea-9d38-4fbe8e27fddc
af09201c-51af-11ea-b75d-53440f9becde,af258d1a-51af-11ea-80b9-0b59d26c5850
af13709e-51af-11ea-91c2-5fef67c4e901,af25a368-51af-11ea-b55a-9f741a43f84a
af1b7dac-51af-11ea-b215-7f3dff3a7dcd,af25c87a-51af-11ea-8a28-ff2312da0818
aececfc0-51af-11ea-b605-23a4c46912ad,af25d554-51af-11ea-b4fb-3729d6a2c874
aee81b7e-51af-11ea-b82a-7b81fcc374ff,af263648-51af-11ea-a279-b3cc74e0efc2
af1d837c-51af-11ea-9d71-e7894a091210,af26554c-51af-11ea-bc1a-7718b831bf31
af0952f8-51af-11ea-a30b-c705e01ef796,af267892-51af-11ea-b356-53075409c757
aee54ffc-51af-11ea-a86f-4f683e59cd9b,af26822e-51af-11ea-b212-0724f9d75d11
af09132e-51af-11ea-ac50-c7f47e239ca5,af26e66a-51af-11ea-9ffc-c71a4c073750
af011ae8-51af-11ea-9180-83dee2ea43fb,af26f056-51af-11ea-8020-47ef9182a0bd
aed17842-51af-11ea-9474-cbce80aee995,af26f95c-51af-11ea-9558-178b420562d5
af088b8e-51af-11ea-9d7c-4b4924e1edd5,af2721b6-51af-11ea-8adc-4f03c58bad46
aefe0326-51af-11ea-b981-af54c415701e,af275618-51af-11ea-9c5a-e3bbe90db42f
af0cfcfa-51af-11ea-b2f3-efa157231f42,af2789ee-51af-11ea-bc84-6f0ade819bd8
af05c282-51af-11ea-a9bb-ab79c906c097,af27c09e-51af-11ea-a120-1b4dd5a5b37b
af0d6fdc-51af-11ea-91f1-0be2566bfeda,af27d12e-51af-11ea-8251-e3880ef3ceed
aef9c7d4-51af-11ea-bb62-5723a8717a5e,af27db06-51af-11ea-982b-9fa011873d21
af0d25ae-51af-11ea-86ee-9f45ea6d2d59,af2828fe-51af-11ea-b12e-3fe117d862e7
aedb158c-51af-11ea-b6d4-abcffceeb873,af285ad6-51af-11ea-86ab-637c589c44cc
af0510bc-51af-11ea-a3b2-6bd1b306edcc,af287dcc-51af-11ea-af2b-1f86ebb8436f
af24a300-51af-11ea-9d19-ebcc435f4ef3,af288902-51af-11ea-a793-f7b1188713a7
af0bffee-51af-11ea-afdf-2313a26d30ec,af28cd86-51af-11ea-ba49-7369fd75f880
aeee40e4-51af-11ea-a43f-b746b36cbcfd,af28fc16-51af-11ea-b8ab-9f96e2b110ce
aee24a1e-51af-11ea-bbab-d7776b883402,af2915f2-51af-11ea-90c1-0392947f45bb
af0b4b4e-51af-11ea-9a6c-9f69f3ea3dbd,af293a5a-51af-11ea-a3dd-b7f275a3d235
aed2c472-51af-11ea-84b3-e723b9ab9741,af295788-51af-11ea-b679-8bc87c67e18f
aee1ff6e-51af-11ea-a610-b7487cc0e7be,af29a238-51af-11ea-a67d-5fd6a5ab4205
aee3314a-51af-11ea-9784-dba0ee3c98e8,af29b106-51af-11ea-9128-f3204dbe1fe2
aef51e32-51af-11ea-bf6c-afebcb9af674,af29c6e6-51af-11ea-9e33-5f5337757f23
af0c834c-51af-11ea-97fc-e739d47d5589,af29d4ec-51af-11ea-b9c9-37e237e85dd0
aeeb6bda-51af-11ea-be7c-5308060c8172,af2a1380-51af-11ea-b95d-5b06aabd84dd
af258d1a-51af-11ea-80b9-0b59d26c5850,af2a3054-51af-11ea-9cb4-1beec7159fe1
af0e30e8-51af-11ea-92a5-438166062511,af2a6a1a-51af-11ea-8479-8b3e21e90650
af1bb4e8-51af-11ea-95da-7733941f9c99,af2a7370-51af-11ea-9cfb-f73bc9b9f44d
aedf8e3c-51af-11ea-8ec4-7f7c54f003a1,af2abb0a-51af-11ea-91fe-13bdb46d1695
aef9d2e2-51af-11ea-97ad-1b996f0a3474,af2add10-51af-11ea-9e70-a32343a43486
af1a2d58-51af-11ea-9c5a-23f790230da1,af2afa52-51af-11ea-869f-578ddb4f8b7c
aed851ee-51af-11ea-b270-b32111cd06d9,af2b1460-51af-11ea-a330-bb5535408448
aefc3f8c-51af-11ea-9b73-3b8a463ce86c,af2b38a0-51af-11ea-bcf8-87e02ae2c078
af17b762-51af-11ea-86fe-871b029a1bfa,af2baf38-51af-11ea-ae2e-a3f26dea3051
af06c0c4-51af-11ea-adab-9bfd77a9f56c,af2bba82-51af-11ea-a761-4faeb58694ef
af03b992-51af-11ea-b40f-2b233b43709b,af2ba402-51af-11ea-82b9-736c9abcfb61
aee51014-51af-11ea-814f-f7e5b6ca424d,af2bc9e6-51af-11ea-b1af-8f375d98e744
aefd0ee4-51af-11ea-8f1f-dfd00a3212a6,af2c4510-51af-11ea-9f1e-af14830c0eb4
aece3c86-51af-11ea-8799-0bb0c4bc24d1,af2c670c-51af-11ea-b0e9-3f19579bd3c5
aed9e93c-51af-11ea-adfa-33e4cc89f53c,af2c7260-51af-11ea-828d-bfa6fcaa0d84
af18ffa0-51af-11ea-9665-ff1c2bea5a46,af2ca5aa-51af-11ea-aa6a-5bb6e2d705ef
aed32ce6-51af-11ea-82e9-a3872a6903b9,af2cfc94-51af-11ea-a4e0-df844b6c1fdd
af19bb3e-51af-11ea-a81e-3fc330f82ba2,af2d3efc-51af-11ea-8ea8-bfc155316cc0
af27c09e-51af-11ea-a120-1b4dd5a5b37b,af2d47da-51af-11ea-aa52-eb51c37fa1e5
af0d25ae-51af-11ea-86ee-9f45ea6d2d59,af2d54a0-51af-11ea-9225-0b93ad092b69
af0b37a8-51af-11ea-b5a7-978306a6aef6,af2d8b3c-51af-11ea-8932-af0902eeb6ff
aef1dae2-51af-11ea-97e5-3f06c6a2825c,af2dde66-51af-11ea-8654-37b631c473ec
af2afa52-51af-11ea-869f-578ddb4f8b7c,af2de64a-51af-11ea-a7ec-9b7d8139e4f6
aee8dc4e-51af-11ea-a3bb-5bc0017d00ab,af2df946-51af-11ea-a017-c30ea7062e1c
aee3314a-51af-11ea-9784-dba0ee3c98e8,af2e18f4-51af-11ea-91d7-8fe31683d274
af00b486-51af-11ea-86d2-bb71927fc903,af2e5850-51af-11ea-b5cb-93aadbb4c3da
aedeb958-51af-11ea-bc72-ef08e2736b46,af2e770e-51af-11ea-adfa-036ebd27aebf
aee0da12-51af-11ea-b085-ff5b8ea82d5d,af2eaa6c-51af-11ea-b47b-e3fe3f8d6dfe
aef2153e-51af-11ea-bc3a-dbd4cf76a3b2,af2eb2f0-51af-11ea-aa49-b74f750dc361
aefd94d6-51af-11ea-a8ab-33a1080456ae,af2eec16-51af-11ea-8df6-3b17d2cf351f
af210952-51af-11ea-a556-ab5b64cf07fc,af2f244c-51af-11ea-8cba-3fc8e80360b2
af1d837c-51af-11ea-9d71-e7894a091210,af2f3022-51af-11ea-9db3-c7f5842d5a40
aef6e9f6-51af-11ea-a39b-7f3493232f5c,af2f3af4-51af-11ea-bb79-47070259c183
aefc0aee-51af-11ea-ad60-0ff31c7bc67c,af2f8cca-51af-11ea-a64a-2762f6f53dd0
aee1834a-51af-11ea-b589-af2f3f475168,af2fbb50-51af-11ea-a63b-7f6d54b5232e
af23ab76-51af-11ea-ba20-1f04c44b906c,af2fc712-51af-11ea-bc16-d3436b118ea7
af239834-51af-11ea-94d9-83f54dbe7927,af2fcda2-51af-11ea-84ba-0390d4b17f48
af17b762-51af-11ea-86fe-871b029a1bfa,af300ede-51af-11ea-8fcf-77232669247d
aefe455c-51af-11ea-ade8-fbd909f33fbf,af303576-51af-11ea-ba40-c769d1d9cc23
af137c7e-51af-11ea-a76d-27f1c688f6ef,af304ce6-51af-11ea-9e78-130b02f26115
aefcd01e-51af-11ea-b062-3723ea2c72c1,af309728-51af-11ea-bfb9-dfe55f75fd03
af2fcda2-51af-11ea-84ba-0390d4b17f48,af30b28a-51af-11ea-877f-13c6f8539685
aefaf302-51af-11ea-840d-a36dee3b035e,af30dce2-51af-11ea-a5e6-bb5317a102b0
af13f316-51af-11ea-b3d0-93e7d658703b,af3105aa-51af-11ea-8359-e315ca47d610
af11616e-51af-11ea-8219-73e3803738e9,af31231e-51af-11ea-a99a-075749d17145
aee88d16-51af-11ea-8c71-7b69bb84a83c,af317472-51af-11ea-99b9-9b72f95db092
af066df4-51af-11ea-96f3-8fb173e61b5f,af317cf6-51af-11ea-8e1f-7f450a2c384b
af0a6756-51af-11ea-b4c5-ab7813d751b4,af319ad8-51af-11ea-b9e0-d3f32f8f60af
af06227c-51af-11ea-a433-9bdaa08f3279,af31bf36-51af-11ea-85f6-8b54c778f032
af07744c-51af-11ea-a2b1-67670ae4b097,af321fd0-51af-11ea-abf1-a7967758919f
af0c39a0-51af-11ea-9ec7-1fa1988d456d,af322908-51af-11ea-9cec-0b1b8d5afe6c
aee207d4-51af-11ea-a6eb-f78a5c4fc6ec,af3232f4-51af-11ea-90e1-f7c0e2d31077
aed5eeae-51af-11ea-a30e-bf17bb8b33ab,af32432a-51af-11ea-93a3-4be8a659f5d6
aefb9cc6-51af-11ea-8877-47567ec12ce6,af329654-51af-11ea-a74b-6714825eaa41
aefa6798-51af-11ea-b0d4-73145930feb4,af32acde-51af-11ea-8fce-fb1c6937eafe
af0167a0-51af-11ea-b3ec-3f767a4ca195,af32b56c-51af-11ea-bed9-4f7a36f15d73
aed2c472-51af-11ea-84b3-e723b9ab9741,af32dede-51af-11ea-844a-63df64994638
aee7b49a-51af-11ea-8d0c-3753b355505e,af332a7e-51af-11ea-bd67-3f5e9476492e
af26822e-51af-11ea-b212-0724f9d75d11,af333532-51af-11ea-b9ec-bf803d2fc4b5
aed74042-51af-11ea-af1e-b7e881779058,af3355d0-51af-11ea-8b63-83a1ba6b7d23
aecfabde-51af-11ea-bb63-03f4eee651a5,af33cbe6-51af-11ea-9e35-af463a087664
aee26b34-51af-11ea-9b60-e70642123c6a,af33e568-51af-11ea-847b-173598640095
aef6118e-51af-11ea-9b48-4b6ad2e11048,af33ee8c-51af-11ea-9069-0732a479873a
af267892-51af-11ea-b356-53075409c757,af3401c4-51af-11ea-ae59-4b213c2de116
aed5eeae-51af-11ea-a30e-bf17bb8b33ab,af3460b0-51af-11ea-87af-6fe9578dafae
aecdc594-51af-11ea-bef4-5360514f4a2c,af346b5a-51af-11ea-8868-0bec237156a5
af2f244c-51af-11ea-8cba-3fc8e80360b2,af34903a-51af-11ea-82ea-f72960cb9398
aee81b7e-51af-11ea-b82a-7b81fcc374ff,af34bf7e-51af-11ea-8187-a314ef8e2d10
aee9e080-51af-11ea-8db0-db61d4b548c6,af34cdca-51af-11ea-b297-9f732f2a61c7
aed52f78-51af-11ea-af43-0ffe10be286e,af34d770-51af-11ea-a1b0-6301da70311f
af29b106-51af-11ea-9128-f3204dbe1fe2,af35390e-51af-11ea-a280-9bf7f41137b8
aee5c608-51af-11ea-8e30-0f4d5d34a75f,af354c3c-51af-11ea-85e4-0f28e5274eb1
aef45556-51af-11ea-b19b-0b59ee0c0495,af355c0e-51af-11ea-9099-ffabdbbdfc0d
aef8eb20-51af-11ea-94b5-5b5683ad400b,af359d40-51af-11ea-9cc2-6f02bf673ed2
af184be6-51af-11ea-83f7-57debb601786,af35b9c4-51af-11ea-be14-97f674277d61
af2fbb50-51af-11ea-a63b-7f6d54b5232e,af35cee6-51af-11ea-8629-5332e35173ee
aed4ecc0-51af-11ea-8a35-4f7fb2dea116,af35df94-51af-11ea-a888-cb5fd8c25ade
aef29ce8-51af-11ea-b9f8-23ef96ab1789,af361aea-51af-11ea-acb1-27744daee077
af1dccce-51af-11ea-80ba-7772d3185f1c,af36290e-51af-11ea-a3ac-134e254f595d
aef5d55c-51af-11ea-9223-9f092d931afb,af366428-51af-11ea-bb27-aba3f99d6708
af34cdca-51af-11ea-b297-9f732f2a61c7,af368386-51af-11ea-87b2-63b55fa40c1c
af24eca2-51af-11ea-a9cd-dfb31f0ff06f,af36c0ee-51af-11ea-adeb-5fea2ecc632f
af34bf7e-51af-11ea-8187-a314ef8e2d10,af36f226-51af-11ea-9481-c77e633b4499
af1784c2-51af-11ea-b5b1-33534dfb1138,af36fee2-51af-11ea-9377-5b82b7cce834
af1556f2-51af-11ea-a87f-736eadb1f238,af375536-51af-11ea-a1d1-d7599973b836
aed5eeae-51af-11ea-a30e-bf17bb8b33ab,af375fae-51af-11ea-b04c-e3ba8b038e88
aef42ffe-51af-11ea-b7f7-5bedd429cf4b,af379f00-51af-11ea-8c86-c3e9ce89820e
aef8a1c4-51af-11ea-a439-cfbbace70b95,af37f69e-51af-11ea-8f8b-eb946482207c
aeeffe84-51af-11ea-91cc-87978b13818d,af380a44-51af-11ea-951f-3fb1f2a34f5a
aedd79c6-51af-11ea-bcf8-4740f78099fd,af382bbe-51af-11ea-bd2d-cb3be1747386
af066df4-51af-11ea-96f3-8fb173e61b5f,af388190-51af-11ea-97a2-433de0f7e210
aee96966-51af-11ea-bfb9-8b20b1dbead0,af38dfe6-51af-11ea-bc19-cf5e579f2e1a
af293a5a-51af-11ea-a3dd-b7f275a3d235,af391830-51af-11ea-b727-c7fef40327f5
af03a2e0-51af-11ea-b427-47ced064931b,af392690-51af-11ea-bb11-c3a1a4e329d6
af0510bc-51af-11ea-a3b2-6bd1b306edcc,af3970fa-51af-11ea-a639-3710718967bc
aed3cc6e-51af-11ea-b7bd-c3a918773d1f,af39d126-51af-11ea-a16c-a3e38a65a4f0
aeea63d4-51af-11ea-ab89-03ecde6e42de,af3a20f4-51af-11ea-a524-ff97f6f8453f
af0c695c-51af-11ea-9852-9f87bbf68f25,af3a368e-51af-11ea-a86b-b364ddc685ea
aef30066-51af-11ea-af92-9f49eccf1636,af3ac784-51af-11ea-8a45-87353d712318
aef39da0-51af-11ea-8495-032a03b9d175,af3b14c8-51af-11ea-8bea-d7cc3fcd59fc
af0553ec-51af-11ea-9e1f-4779b24dfeff,af3b1fd6-51af-11ea-a9b5-83c736c7b350
aefb67e2-51af-11ea-851a-6b68e3598a45,af3b814c-51af-11ea-9d57-432c5cf0715f
aefaf302-51af-11ea-840d-a36dee3b035e,af3babae-51af-11ea-aade-ffc7e1b5734d
aed49a4a-51af-11ea-80d6-c7e94893f31a,af3c38bc-51af-11ea-995b-33cbc952f40d
af1ced04-51af-11ea-b799-677a10a4d875,af3c946a-51af-11ea-9bd2-dfe528026596
af052674-51af-11ea-b21c-037a0f0dbd10,af3c7ee4-51af-11ea-b941-8b5f97e65701
aee61c2a-51af-11ea-9ef5-f3f19949fdbf,af3c88bc-51af-11ea-b74c-ab5b2a1e6f53
af2eaa6c-51af-11ea-b47b-e3fe3f8d6dfe,af3caffe-51af-11ea-beb1-0b835145f819
af267892-51af-11ea-b356-53075409c757,af3d495a-51af-11ea-82e3-9f8da82bfa07
aedf84dc-51af-11ea-8d5f-5f57c89c7158,af3d545e-51af-11ea-b246-877518d9228c
aef07620-51af-11ea-8afc-bf11871fb6bb,af3d73da-51af-11ea-9919-7b9f6101141f
aeff0e7e-51af-11ea-839b-df682cb7a3ca,af3db9da-51af-11ea-8a83-e304fd177dcd
af0fa6c6-51af-11ea-b944-bf2e4d91327f,af3df8e6-51af-11ea-a4e8-f7c07c04e1b6
af0007b6-51af-11ea-9282-a79314d9cdfe,af3e06c4-51af-11ea-9537-8b9ee677e56f
aeeccf02-51af-11ea-b4a9-1b72e9de0770,af3e26e0-51af-11ea-9a27-3b6a7bdd8c6c
aedeb958-51af-11ea-bc72-ef08e2736b46,af3e9134-51af-11ea-90da-434cc53555f5
aee0da12-51af-11ea-b085-ff5b8ea82d5d,af3e9bf2-51af-11ea-899f-5bdad0f075cf
af2b38a0-51af-11ea-bcf8-87e02ae2c078,af3eb01a-51af-11ea-952e-f3a9bb9a3c49
af04baae-51af-11ea-90c8-b3a8c7b41f8d,af3edc48-51af-11ea-b8ae-e74230d163ba
aecee79e-51af-11ea-a902-4fa1f074517c,af3f2306-51af-11ea-9bd1-eb2c0e8a9dcc
af05af86-51af-11ea-a4e8-53188a1c81b1,af3f3a62-51af-11ea-bdee-272de4fc4a37
af13709e-51af-11ea-91c2-5fef67c4e901,af3f5740-51af-11ea-8e9c-9f2f04adc7e7
aefd3cfc-51af-11ea-8a64-cbe4e4175554,af3f77ca-51af-11ea-9e14-b31c8ae969de
af256fec-51af-11ea-9d38-4fbe8e27fddc,af3fb30c-51af-11ea-ab94-7fdbd071abc6
aee692a4-51af-11ea-9707-d32ee48cea47,af3fe5ca-51af-11ea-96a9-a33a32c3174f
af03fbf0-51af-11ea-90e6-0f5e11c11367,af3fdc38-51af-11ea-a3d2-9ba729e2b933
aeeb6bda-51af-11ea-be7c-5308060c8172,af4006a4-51af-11ea-a7f4-8f6542694cdb
aeeda53a-51af-11ea-8c2c-13183cb5eec3,af404eac-51af-11ea-880f-231437c4b0e6
aefa7c56-51af-11ea-a549-835656eded89,af409308-51af-11ea-834e-5f38808f0dc1
af267892-51af-11ea-b356-53075409c757,af409c2c-51af-11ea-a767-d37e4d9a587c
af224c72-51af-11ea-8631-83c1bd0cd755,af40a730-51af-11ea-bbee-93f168eb873e
aee26b34-51af-11ea-9b60-e70642123c6a,af40cfc6-51af-11ea-bae1-23f583b801a3
af0df9ca-51af-11ea-b25e-778a068685dc,af411ea4-51af-11ea-8ef0-d78dfa23a861
af28fc16-51af-11ea-b8ab-9f96e2b110ce,af417160-51af-11ea-8233-d754bc375977
aee00ad8-51af-11ea-9a86-133c46ded6b3,af418f1a-51af-11ea-a43e-6f83be51d26f
af019338-51af-11ea-b608-db6f8cb30b7d,af41a89c-51af-11ea-976f-83b896e3ed1d
aee45de0-51af-11ea-9920-eb7d4c4947eb,af4200ee-51af-11ea-80b5-d7ec4f3a9259
aed80fea-51af-11ea-897a-3f48b1746c9c,af42141c-51af-11ea-857b-cfc239ff3589
af2ca5aa-51af-11ea-aa6a-5bb6e2d705ef,af423780-51af-11ea-904d-3fd5f9c25427
aeea798c-51af-11ea-a25c-2765778e2113,af426dae-51af-11ea-a38b-cf3f697c2b61
af2add10-51af-11ea-9e70-a32343a43486,af428e2e-51af-11ea-9ae5-f3ba0e75b536
aee8bc3c-51af-11ea-b657-4721e5ce08d0,af42c038-51af-11ea-b8cf-33044bf2fff1
aeebf06e-51af-11ea-9b59-bf0c249b727a,af42e892-51af-11ea-85ac-f368909e401c
aedd02a2-51af-11ea-bb41-bb6b777dcbc1,af432a6e-51af-11ea-a441-27bdbd010190
af18056e-51af-11ea-bb64-6b75e37a472f,af43120e-51af-11ea-9c54-530efdad526f
af2296fa-51af-11ea-b897-3b35cf5ed760,af435958-51af-11ea-bf1e-5f2d8e4e7fd8
af25c87a-51af-11ea-8a28-ff2312da0818,af437c62-51af-11ea-bcb6-4f6f38e7c043
af12ad8a-51af-11ea-81fb-d34087313e94,af43bd12-51af-11ea-a294-cb4d40fd35f6
af09e772-51af-11ea-9522-033530f46c4f,af43cdac-51af-11ea-a5eb-e792214d447f
af3f3a62-51af-11ea-bdee-272de4fc4a37,af43ed32-51af-11ea-b698-9f84abbcd425
aefd3cfc-51af-11ea-8a64-cbe4e4175554,af440f74-51af-11ea-9b64-1f8a365d1d39
aeec608a-51af-11ea-a2f5-3b54b29ed195,af446334-51af-11ea-bf0e-bbc89418c398
aede92f2-51af-11ea-99db-ff9a03d1dc24,af446cb2-51af-11ea-81b2-4303512ee8b5
aeea798c-51af-11ea-a25c-2765778e2113,af448e54-51af-11ea-9c54-2b4df06516a3
aedc5a3c-51af-11ea-8265-1f1b3a778a70,af44ab5a-51af-11ea-9045-3b220ffa078a
af1b45a8-51af-11ea-b0d7-5b815e8a1359,af44eca0-51af-11ea-9af2-5f3dba7f92b1
af00550e-51af-11ea-9be1-b33bb0b5a23b,af44f312-51af-11ea-a925-b3c8dfaa1c35
af1556f2-51af-11ea-a87f-736eadb1f238,af4514fa-51af-11ea-b2c9-5f6045cb4e05
af1f6304-51af-11ea-800e-9f13ae4890fb,af452ec2-51af-11ea-8066-9fb56a3caffb
af26e66a-51af-11ea-9ffc-c71a4c073750,af458cbe-51af-11ea-8854-9bc99ab2ec3d
af052674-51af-11ea-b21c-037a0f0dbd10,af45cecc-51af-11ea-b96f-a7ed6e99e0dc
af100fbc-51af-11ea-806d-dfbe2bd0ea5b,af45d91c-51af-11ea-88d7-3fe11f4f78ef
af20bfa6-51af-11ea-84f7-bb615bd76881,af45e25e-51af-11ea-b1fb-67a89606b795
af023a18-51af-11ea-bbc0-bbdb212278cd,af4633a8-51af-11ea-9564-d7215140fda2
aee1834a-51af-11ea-b589-af2f3f475168,af464a78-51af-11ea-ab92-cb014a9b0b25
aef6bbfc-51af-11ea-af62-23f01c4f0124,af4659aa-51af-11ea-bb47-fb052cda5638
af019d9c-51af-11ea-b0dd-efbec1877041,af4661de-51af-11ea-abc3-fb22eff258ad
aed0bf38-51af-11ea-974c-97ec2ccd348c,af46eac8-51af-11ea-bb72-47d53c865078
af355c0e-51af-11ea-9099-ffabdbbdfc0d,af46fa4a-51af-11ea-b681-532263bccce1
aedb982c-51af-11ea-92da-7774f4e203f4,af4728f8-51af-11ea-b2a7-af148e3c1a75
aee25892-51af-11ea-b1ff-fff4640e7ea1,af473a3c-51af-11ea-b4a6-af09ddac0281
af3f2306-51af-11ea-9bd1-eb2c0e8a9dcc,af47b6ec-51af-11ea-bb21-e38b4ce644c0
af0df9ca-51af-11ea-b25e-778a068685dc,af47cbe6-51af-11ea-8dc7-976a83ee1253
af435958-51af-11ea-bf1e-5f2d8e4e7fd8,af47c20e-51af-11ea-835a-5f8f75ea0396
aefb95dc-51af-11ea-8476-bb2947a9047b,af482f82-51af-11ea-b6a8-3fad131b0fb5
aececfc0-51af-11ea-b605-23a4c46912ad,af48431e-51af-11ea-a33f-732ba9aad5b4
aed9e93c-51af-11ea-adfa-33e4cc89f53c,af485e44-51af-11ea-a46d-ef9454dd9631
aed926b4-51af-11ea-937b-53a3a03a04e8,af48908a-51af-11ea-a494-13d0a65d844a
aee4efa8-51af-11ea-90a3-c378b8ef0bab,af4913c0-51af-11ea-9f0e-23cbb67ed5fd
aed6ab82-51af-11ea-a577-67728c19c523,af491e88-51af-11ea-926a-df2c94ac7ab2
af0167a0-51af-11ea-b3ec-3f767a4ca195,af49388c-51af-11ea-a09d-037284ec4bcd
af263648-51af-11ea-a279-b3cc74e0efc2,af49926e-51af-11ea-abd3-df287978118f
af3a20f4-51af-11ea-a524-ff97f6f8453f,af49c022-51af-11ea-981e-1bcb40e82d3a
aef7fa3a-51af-11ea-95d5-575185551f09,af49cc98-51af-11ea-a5f4-6f50195dc4c5
aee1659a-51af-11ea-83db-dfe9bbce4e65,af49f272-51af-11ea-bf53-2325b3ab39d8
af482f82-51af-11ea-b6a8-3fad131b0fb5,af4a5bcc-51af-11ea-bc6e-db6b5f812f8f
aee9e7ec-51af-11ea-a90d-138f760531c8,af4a9236-51af-11ea-bd91-9f5a1832370b
aeeca946-51af-11ea-b890-535848c3b55f,af4ad0c0-51af-11ea-82ae-87c980a20ffd
aefe455c-51af-11ea-ade8-fbd909f33fbf,af4adfca-51af-11ea-be16-3fe8ba5560c2
aedb3832-51af-11ea-b084-ab9f49213d72,af4aff0a-51af-11ea-bbba-ef77c1daad1f
af4ad0c0-51af-11ea-82ae-87c980a20ffd,af4b46c2-51af-11ea-ae29-ab20c0bafcfe
aecf210a-51af-11ea-adc4-4774161bb905,af4b748a-51af-11ea-ab82-9b302e8fb900
af02acb4-51af-11ea-8cd4-3bb398176034,af4b87cc-51af-11ea-a7aa-8fec99a5dfe2
aee1834a-51af-11ea-b589-af2f3f475168,af4be104-51af-11ea-9ce1-07ae3c46adea
aed204c4-51af-11ea-8271-2f81852c1fce,af4bd56a-51af-11ea-92b9-f3c0e48be680
aee3c2e0-51af-11ea-b73e-03924e15c8ea,af4c0e0e-51af-11ea-88c6-739d88adf39e
aee47474-51af-11ea-8b6c-f38d823ced39,af4c350a-51af-11ea-a855-938e9eb1f281
af293a5a-51af-11ea-a3dd-b7f275a3d235,af4c6886-51af-11ea-bb9b-8ff0c8ae7a22
af332a7e-51af-11ea-bd67-3f5e9476492e,af4c858c-51af-11ea-aea4-1f1a36734735
af2b1460-51af-11ea-a330-bb5535408448,af4cd24e-51af-11ea-9dac-bb569e8502c8
af20bfa6-51af-11ea-84f7-bb615bd76881,af4d2744-51af-11ea-beee-1315622e1926
af12ad8a-51af-11ea-81fb-d34087313e94,af4d3298-51af-11ea-9a7e-4b8dbea8c218
af127784-51af-11ea-a1d6-0b54c2f6e61c,af4d7dfc-51af-11ea-8a1e-6bc707ed258b
aef15d74-51af-11ea-a030-f3be415b7ae9,af4dc4c4-51af-11ea-a717-6bbfa05097ed
af0007b6-51af-11ea-9282-a79314d9cdfe,af4deb52-51af-11ea-8c1a-c7a1409c8069
aef2e4b4-51af-11ea-ac40-13600f571b18,af4e0b46-51af-11ea-93a8-f7ea1101356a
af4633a8-51af-11ea-9564-d7215140fda2,af4e1456-51af-11ea-9492-57e98b64abdc
af15623c-51af-11ea-90cd-7be9fba0c753,af4e7022-51af-11ea-b53a-23d5b6032da5
af3d545e-51af-11ea-b246-877518d9228c,af4e8d6e-51af-11ea-aa33-df310629c301
af440f74-51af-11ea-9b64-1f8a365d1d39,af4ec270-51af-11ea-8b3a-37ffc10a135c
aee62490-51af-11ea-b342-1bb4364a68b9,af4f154a-51af-11ea-a051-3b021872ae04
af211244-51af-11ea-b04c-0fa03b528ed8,af4f21ac-51af-11ea-a89c-1fb299315994
af0bd604-51af-11ea-ab38-07a7034742d4,af4f3070-51af-11ea-9bf2-c766af871950
aee57db0-51af-11ea-9522-cb31467471b9,af4fad66-51af-11ea-9282-0b2b584ecb54
af43bd12-51af-11ea-a294-cb4d40fd35f6,af4fc13e-51af-11ea-b575-7b99f4b52768
aef07620-51af-11ea-8afc-bf11871fb6bb,af4fe9f2-51af-11ea-91c1-1fe540cee88a
af0f142c-51af-11ea-a4e2-a73c4e1ebc4d,af5035ba-51af-11ea-9585-5fea01751ec2
aee07e6e-51af-11ea-8b59-5732490e917a,af505842-51af-11ea-8d63-3fedb429ff60
af2c7260-51af-11ea-828d-bfa6fcaa0d84,af507232-51af-11ea-b9fc-6bfc953a7938
aedbf088-51af-11ea-855f-2b682bfe1b5e,af508a6a-51af-11ea-93ce-cfc1de6442fd
af030eca-51af-11ea-abaf-77c447568e92,af50c3d6-51af-11ea-94b7-f37fd497f2fd
af0f142c-51af-11ea-a4e2-a73c4e1ebc4d,af50f5ea-51af-11ea-801e-7ba3bd2340f2
af3db9da-51af-11ea-8a83-e304fd177dcd,af512560-51af-11ea-b5b6-63bb74151aff
af42141c-51af-11ea-857b-cfc239ff3589,af5143f6-51af-11ea-ab4f-179a2ca72e4b
af3e06c4-51af-11ea-9537-8b9ee677e56f,af5174de-51af-11ea-94eb-537c1f28a556
af5035ba-51af-11ea-9585-5fea01751ec2,af51a9fe-51af-11ea-95a3-9b206b36fbdf
af3401c4-51af-11ea-ae59-4b213c2de116,af51b89a-51af-11ea-acd3-6b050f88e714
af00a3ba-51af-11ea-ad0a-5b3acea68c1c,af51d1ae-51af-11ea-b2c1-2bc4062bbbe2
af435958-51af-11ea-bf1e-5f2d8e4e7fd8,af5233ec-51af-11ea-8586-af917e505352
aed926b4-51af-11ea-937b-53a3a03a04e8,af525282-51af-11ea-ae2e-d7e08dc9a45b
af3db9da-51af-11ea-8a83-e304fd177dcd,af525ef8-51af-11ea-9ded-d35085164972
af18ffa0-51af-11ea-9665-ff1c2bea5a46,af529d6e-51af-11ea-ba2e-ef3df092bea4
aeda09a8-51af-11ea-8cee-434f4e08856f,af52cd3e-51af-11ea-8b1d-0f77bf57bb28
af2fcda2-51af-11ea-84ba-0390d4b17f48,af531fd2-51af-11ea-a8ef-9791b2817739
aed5eeae-51af-11ea-a30e-bf17bb8b33ab,af5334ae-51af-11ea-87da-cf0e5ebfd0e3
af2d8b3c-51af-11ea-8932-af0902eeb6ff,af533dbe-51af-11ea-87e2-7b40f1de61ba
aee98d9c-51af-11ea-8a96-77dee7d78aef,af536db6-51af-11ea-94fd-8f7f3c68f1e7
aecfd794-51af-11ea-a16c-0354c9c032b5,af53bda2-51af-11ea-99d5-878dcf941d4b
af2d8b3c-51af-11ea-8932-af0902eeb6ff,af53cf72-51af-11ea-9120-17413c3f03b7
af088b8e-51af-11ea-9d7c-4b4924e1edd5,af53efa2-51af-11ea-9e80-1b8e84a0d5d6
aed552e6-51af-11ea-afda-cf7b5831bc0f,af54320a-51af-11ea-8697-7fa3f7b18178
af3e9134-51af-11ea-90da-434cc53555f5,af542b5c-51af-11ea-91e3-b71251b4a2f2
aee3d302-51af-11ea-bc72-ef9d2674e148,af5474a4-51af-11ea-a24d-cf5390475609
aefc3f8c-51af-11ea-9b73-3b8a463ce86c,af547e9a-51af-11ea-a070-e76a183b2320
aeeeb114-51af-11ea-ad2d-fb40eb1727dc,af54ca62-51af-11ea-882c-6fc321f4fd8a
aed52f78-51af-11ea-af43-0ffe10be286e,af54fd2a-51af-11ea-8fdd-fb25680369dd
af5174de-51af-11ea-94eb-537c1f28a556,af552098-51af-11ea-b4d7-73d205e63fdb
af053af6-51af-11ea-adb6-0ff0f63ec931,af553c90-51af-11ea-b785-f3ea84c35830
af49f272-51af-11ea-bf53-2325b3ab39d8,af5584d4-51af-11ea-b429-7f5365763777
af168612-51af-11ea-be1a-d722a69a87e8,af55bd28-51af-11ea-be8d-434c515c18f2
af317cf6-51af-11ea-8e1f-7f450a2c384b,af55c76e-51af-11ea-8f4b-df68cb09657f
aef6e9f6-51af-11ea-a39b-7f3493232f5c,af561ef8-51af-11ea-830b-e76938d1f0fa
af435958-51af-11ea-bf1e-5f2d8e4e7fd8,af560c4c-51af-11ea-907a-13015b6f8268
af30dce2-51af-11ea-a5e6-bb5317a102b0,af5666f6-51af-11ea-ba8b-5f089bb6793b
aee8cbdc-51af-11ea-9cb0-d7fa2d32b04f,af56bbec-51af-11ea-930c-5791f4b48bf8
af01e216-51af-11ea-a26a-7fc2ac3b71ac,af56cf1a-51af-11ea-88f7-1f6b77ae3334
aeda09a8-51af-11ea-8cee-434f4e08856f,af56f2ce-51af-11ea-9eb9-cf136d787171
af10bd22-51af-11ea-849b-13e76dbb53f8,af57062e-51af-11ea-8e23-73a844a48601
aee51014-51af-11ea-814f-f7e5b6ca424d,af5743fa-51af-11ea-b930-b36940282007
af42e892-51af-11ea-85ac-f368909e401c,af576df8-51af-11ea-95ab-c76e626fd854
aefe2e82-51af-11ea-86b1-e740d717df4a,af57769a-51af-11ea-84af-03d7a209f4e5
af38dfe6-51af-11ea-bc19-cf5e579f2e1a,af57e828-51af-11ea-954d-ab60f6a1ad6e
af525ef8-51af-11ea-9ded-d35085164972,af57dcd4-51af-11ea-9f3e-033545d51fa2
af4e7022-51af-11ea-b53a-23d5b6032da5,af583b7a-51af-11ea-b65e-9b5a5111717f
aeeced48-51af-11ea-953d-f7256b193e3d,af585b96-51af-11ea-ad2e-03db928251cd
af0e5780-51af-11ea-a1a4-033da5b0bac5,af58b668-51af-11ea-a974-d7aa0175233a
af0007b6-51af-11ea-9282-a79314d9cdfe,af589bce-51af-11ea-948b-53780630ba7d
af293a5a-51af-11ea-a3dd-b7f275a3d235,af5900b4-51af-11ea-9e7c-bfe26853cb98
af2df946-51af-11ea-a017-c30ea7062e1c,af591dd8-51af-11ea-8afb-63a093df0465
af0da718-51af-11ea-a8fd-33eefd3c21db,af591522-51af-11ea-94b5-aff3acebf88b
af48431e-51af-11ea-a33f-732ba9aad5b4,af595d7a-51af-11ea-a659-a73311ae6291
aece3c86-51af-11ea-8799-0bb0c4bc24d1,af59a6fe-51af-11ea-a8df-7fbf1b3f3796
af4913c0-51af-11ea-9f0e-23cbb67ed5fd,af59b1c6-51af-11ea-8d33-d3ed04e34318
aefd94d6-51af-11ea-a8ab-33a1080456ae,af5a0edc-51af-11ea-bb6d-473df1fadf18
aedd0ee6-51af-11ea-8a91-3761c11c34cd,af5a67c4-51af-11ea-bbf7-f3af85abc870
aee686a6-51af-11ea-9527-03deb64ccf0d,af5a6fc6-51af-11ea-9b3d-33dd424f5d85
aeeeb114-51af-11ea-ad2d-fb40eb1727dc,af5a79f8-51af-11ea-bbb5-efc5303ffded
af2eec16-51af-11ea-8df6-3b17d2cf351f,af5af11c-51af-11ea-94be-3763b69d0258
aef2e4b4-51af-11ea-ac40-13600f571b18,af5b072e-51af-11ea-aada-ab101dbebe53
aee943dc-51af-11ea-b3d3-67d5ca6c9ede,af5b2efc-51af-11ea-b5aa-8bcb14820360
aee78060-51af-11ea-bb9c-ff1bcb703293,af5b553a-51af-11ea-a4c9-9f1559e408bd
af5334ae-51af-11ea-87da-cf0e5ebfd0e3,af5b95d6-51af-11ea-9ed3-c342d752cd8e
aefe2e82-51af-11ea-86b1-e740d717df4a,af5bb52a-51af-11ea-8ba6-4f275f4130ea
af04baae-51af-11ea-90c8-b3a8c7b41f8d,af5c1f9c-51af-11ea-bcc8-83a40a3432d8
af2915f2-51af-11ea-90c1-0392947f45bb,af5c2758-51af-11ea-96e4-837245b561e3
aef59cea-51af-11ea-bdfc-1bffc572698d,af5c3b62-51af-11ea-885a-5748261bfc69
aed80fea-51af-11ea-897a-3f48b1746c9c,af5c4292-51af-11ea-ba74-57eb4b366f1b
af3401c4-51af-11ea-ae59-4b213c2de116,af5cc140-51af-11ea-a850-938d98577022
af432a6e-51af-11ea-a441-27bdbd010190,af5cd8a6-51af-11ea-b965-27d7a5ce8122
af533dbe-51af-11ea-87e2-7b40f1de61ba,af5ce8c8-51af-11ea-ab8b-932b743b0af1
aed03842-51af-11ea-82af-1fbe376163d8,af5d0d76-51af-11ea-87b2-dbb745e71ae7
aee402aa-51af-11ea-8288-4f44e6001cdd,af5d7194-51af-11ea-b2de-aba1b40aace7
aef107fc-51af-11ea-81da-27f1aff10175,af5d9dcc-51af-11ea-a839-9ba1dcb2cb12
aed5765e-51af-11ea-9585-d7a7046a44ff,af5d86f2-51af-11ea-8645-3bccf4b4925e
aed7f08c-51af-11ea-8eb0-e73667b66a66,af5d9296-51af-11ea-86e9-4f342c354467
aeeb078a-51af-11ea-a1bf-d34026df0c61,af5e1cf2-51af-11ea-a091-17e3f9f08cc3
aee82b96-51af-11ea-89be-b76d26831b23,af5e25da-51af-11ea-bfd3-7fd57c9b3d3e
aefc990a-51af-11ea-b68c-8393e69c65a7,af5e489e-51af-11ea-b447-afc75f44373f
af0d6fdc-51af-11ea-91f1-0be2566bfeda,af5e823c-51af-11ea-8ae5-b357c411bde3
af3e06c4-51af-11ea-9537-8b9ee677e56f,af5eadb6-51af-11ea-86a9-c3bb2bb4073d
af4ad0c0-51af-11ea-82ae-87c980a20ffd,af5eb70c-51af-11ea-8477-bf9b41d510d8
aeeb4182-51af-11ea-bbac-431fcfaa95a4,af5ef924-51af-11ea-a52a-8b3d6b9ce246
aef09196-51af-11ea-a73b-ff021da24b94,af5f1be8-51af-11ea-83fb-778e86f9df3d
af303576-51af-11ea-ba40-c769d1d9cc23,af5f68a0-51af-11ea-be59-7f92abf15f9d
af3caffe-51af-11ea-beb1-0b835145f819,af5f61fc-51af-11ea-9b3a-9f2d3c4145b0
af19596e-51af-11ea-9492-dfd463f23d36,af5f985c-51af-11ea-b4c1-4715a677648b
aef09196-51af-11ea-a73b-ff021da24b94,af5fbaa8-51af-11ea-bce6-c7f6b420edca
aef660da-51af-11ea-81cc-8b5d7bf9b8e9,af603762-51af-11ea-8203-1bfe9be2938b
af070d54-51af-11ea-aa58-3b6afd73b29a,af604b6c-51af-11ea-a883-7ba0ca4569af
af03a40c-51af-11ea-870c-f331707b8171,af606930-51af-11ea-9803-6b78319af01b
af5fbaa8-51af-11ea-bce6-c7f6b420edca,af608a82-51af-11ea-9258-df7ff2db1b8d
af4661de-51af-11ea-abc3-fb22eff258ad,af60be08-51af-11ea-b058-5387e9fffbb9
af4e8d6e-51af-11ea-aa33-df310629c301,af60c952-51af-11ea-9410-67a60273b073
af40cfc6-51af-11ea-bae1-23f583b801a3,af611600-51af-11ea-901f-6759850efae3
af41a89c-51af-11ea-976f-83b896e3ed1d,af615a7a-51af-11ea-b442-cbfcb489ead0
af3fe5ca-51af-11ea-96a9-a33a32c3174f,af61710e-51af-11ea-9103-afbb13072d78
af1050c6-51af-11ea-ab80-b338f2c173f8,af6192b0-51af-11ea-9c71-bf6eda60fe86
aefe0326-51af-11ea-b981-af54c415701e,af61e198-51af-11ea-94eb-7bdcd14fd4b2
af561ef8-51af-11ea-830b-e76938d1f0fa,af61f41c-51af-11ea-9bae-6f8fbb07accc
aede4b12-51af-11ea-af0d-0b5acf5ad185,af623b02-51af-11ea-92a5-7b748c12922e
af09132e-51af-11ea-ac50-c7f47e239ca5,af628490-51af-11ea-a499-8b1e30b0b646
af533dbe-51af-11ea-87e2-7b40f1de61ba,af62a268-51af-11ea-ba19-3ffab260cf4c
af06768c-51af-11ea-aa00-e73304410fae,af62a952-51af-11ea-8b04-2f9e3dee2f6d
af11f084-51af-11ea-90d6-27c7d713ae5e,af62cefa-51af-11ea-b0f1-5f80ee185065
af09201c-51af-11ea-b75d-53440f9becde,af631658-51af-11ea-8170-53f9390d3c4a
af00b486-51af-11ea-86d2-bb71927fc903,af633048-51af-11ea-9e2f-73dd840c6a74
af5cd8a6-51af-11ea-b965-27d7a5ce8122,af63399e-51af-11ea-9caa-47658a958f0e
af09c706-51af-11ea-8946-2bd7ce6d80ab,af63479a-51af-11ea-8f30-271c9b5a80b4
aef7e6da-51af-11ea-a0f8-b7fdebf84265,af63d28c-51af-11ea-bb7e-6b6a09ae944b
aed42420-51af-11ea-9178-87b67a7034d2,af63d9c6-51af-11ea-9236-9fc3b6bb72ce
af0df9ca-51af-11ea-b25e-778a068685dc,af64066c-51af-11ea-baea-af6e2ca35053
af18c4f4-51af-11ea-b3e6-035fc9d38a16,af641ab2-51af-11ea-b90a-0384f445ab6b
aee4b614-51af-11ea-a5de-ef8c78851ca2,af6475e8-51af-11ea-bacd-4fcad74a3c4f
aee075a4-51af-11ea-b836-abcffebef5a2,af64b4b8-51af-11ea-a88b-2b099b3fb44a
aefb09a0-51af-11ea-a8ac-0766dd72360f,af64ddb2-51af-11ea-bb8b-bb025b3b6340
aeeac9fa-51af-11ea-b72e-a3947186511f,af64edc0-51af-11ea-9be7-a3a59a318c8b
af5b2efc-51af-11ea-b5aa-8bcb14820360,af653bb8-51af-11ea-a1cd-dfa4ea33f75f
aee54ffc-51af-11ea-a86f-4f683e59cd9b,af6577f4-51af-11ea-b1ea-674fdf2b8d21
af4659aa-51af-11ea-bb47-fb052cda5638,af656e6c-51af-11ea-8411-df0152adaee9
af0abe22-51af-11ea-95fd-2f3159f1b485,af65a5d0-51af-11ea-8162-c790496527ae
af3babae-51af-11ea-aade-ffc7e1b5734d,af65dfdc-51af-11ea-8f77-ffde1e14d96d
af5c4292-51af-11ea-ba74-57eb4b366f1b,af65eaf4-51af-11ea-9030-13daaca98210
aef6bbfc-51af-11ea-af62-23f01c4f0124,af66305e-51af-11ea-b658-ffdd62a84de7
aecebe40-51af-11ea-9fbf-97384da97c4b,af668694-51af-11ea-a6e3-2bf22f1fa346
af62cefa-51af-11ea-b0f1-5f80ee185065,af66936e-51af-11ea-ae9b-fbae6c8783e0
af201eb6-51af-11ea-9b84-337ddcdeec6d,af66d7c0-51af-11ea-9ca8-9393e41c132c
aefa3980-51af-11ea-9163-bfabdb6bef4e,af6715a0-51af-11ea-96a3-27aa2478c0ac
af418f1a-51af-11ea-a43e-6f83be51d26f,af6725ae-51af-11ea-b0e5-d35d573ba668
af0bd604-51af-11ea-ab38-07a7034742d4,af6734a4-51af-11ea-b98f-4b471ac7b911
af168612-51af-11ea-be1a-d722a69a87e8,af676014-51af-11ea-b4bf-77fa4cf358ee
af1b6e0c-51af-11ea-9ecd-cb17653b47d2,af67d0a8-51af-11ea-901c-a386b394c53c
aefaa74e-51af-11ea-8c14-ef291edce744,af67c7a2-51af-11ea-ba65-3bb1a106de46
aee92f46-51af-11ea-88c2-5301a5df5482,af67e16a-51af-11ea-9d2c-9bd7b71b0202
aef107fc-51af-11ea-81da-27f1aff10175,af682eb8-51af-11ea-9db3-978e0cb7e2e1
af4a9236-51af-11ea-bd91-9f5a1832370b,af68686a-51af-11ea-a725-17138eb47c86
aee0182a-51af-11ea-bd46-0bc659f635d4,af687166-51af-11ea-ac35-3b2d4ffdbbe7
aef2e4b4-51af-11ea-ac40-13600f571b18,af687ab2-51af-11ea-ae2a-23ef8fb59cb9
af0d25ae-51af-11ea-86ee-9f45ea6d2d59,af68b59a-51af-11ea-a6d0-cfdbd2daa766
af54ca62-51af-11ea-882c-6fc321f4fd8a,af68e84e-51af-11ea-bdb5-e330aee5c142
af0fa6c6-51af-11ea-b944-bf2e4d91327f,af690aea-51af-11ea-8242-6b2f90ba1c57
af525ef8-51af-11ea-9ded-d35085164972,af690162-51af-11ea-aaae-5b2821b64543
aee47c58-51af-11ea-9016-e7a9e26eab53,af69a482-51af-11ea-94cf-8faf6331689b
af1f4f36-51af-11ea-8277-a707eb196fe9,af69be2c-51af-11ea-b7b6-6303878e0c6d
aee92f46-51af-11ea-88c2-5301a5df5482,af69cd2c-51af-11ea-b8c1-4f6ba319621e
aef92086-51af-11ea-9e5d-7b7ed82c8f17,af69f450-51af-11ea-9b21-ffabc8710c32
af62cefa-51af-11ea-b0f1-5f80ee185065,af6a60de-51af-11ea-8a97-2b457f1ec6a8
af26822e-51af-11ea-b212-0724f9d75d11,af6a80b4-51af-11ea-8915-c7a81dfad856
af2fbb50-51af-11ea-a63b-7f6d54b5232e,af6a8a1e-51af-11ea-92be-fbb0d57493d0
af1c5b3c-51af-11ea-82ab-c7d5c7b58b81,af6a9d60-51af-11ea-80bf-9fbeecfe70d6
af18bd9c-51af-11ea-8226-5796a0098fc7,af6b136c-51af-11ea-9cbc-8b92af9186ee
aed42420-51af-11ea-9178-87b67a7034d2,af6b2dac-51af-11ea-917e-3bca1512c8f3
aefc2be6-51af-11ea-a5a8-fbe605486150,af6b3c48-51af-11ea-a165-d33046177616
af27d12e-51af-11ea-8251-e3880ef3ceed,af6b773a-51af-11ea-9599-7748069acb16
af2a6a1a-51af-11ea-8479-8b3e21e90650,af6bb5b0-51af-11ea-906c-cfde88559e6d
af06768c-51af-11ea-aa00-e73304410fae,af6bd112-51af-11ea-a7b6-c7f25fe71080
af2f3022-51af-11ea-9db3-c7f5842d5a40,af6c13f2-51af-11ea-8a37-6fd7b1287801
af219fca-51af-11ea-9041-b7d22141552b,af6c4cfa-51af-11ea-a44b-2b0b935ffa1e
af2a6a1a-51af-11ea-8479-8b3e21e90650,af6c728e-51af-11ea-8906-8b989d4d5511
af54fd2a-51af-11ea-8fdd-fb25680369dd,af6c6802-51af-11ea-8ebd-73f6c385f1e4
aed68918-51af-11ea-a6c1-7fe977b8f1dd,af6cd5a8-51af-11ea-b742-77e1119ef531
aecf373a-51af-11ea-b82e-8f45ec936412,af6d259e-51af-11ea-a0bc-1b71bda57953
af58b668-51af-11ea-a974-d7aa0175233a,af6d447a-51af-11ea-bf80-23326b272c4a
af64ddb2-51af-11ea-bb8b-bb025b3b6340,af6d5a3c-51af-11ea-a08d-4f850f8bd730
af3fb30c-51af-11ea-ab94-7fdbd071abc6,af6d76de-51af-11ea-aa8d-0f9bbfff404e
af6b773a-51af-11ea-9599-7748069acb16,af6dc6b6-51af-11ea-b06a-0f30e412983b
af18c4f4-51af-11ea-b3e6-035fc9d38a16,af6dd20a-51af-11ea-b603-0717fa964cb8
aefee444-51af-11ea-a69b-a3e42cbe18d6,af6de9f2-51af-11ea-96af-033a2184fd8e
af5b553a-51af-11ea-a4c9-9f1559e408bd,af6de114-51af-11ea-9da6-2b10adfef392
af36fee2-51af-11ea-9377-5b82b7cce834,af6e4208-51af-11ea-9efe-eb6277f15ded
af4b748a-51af-11ea-ab82-9b302e8fb900,af6e7d04-51af-11ea-904a-63b7991f49bd
af0bb714-51af-11ea-a149-339c39bda03f,af6e8e5c-51af-11ea-8038-876c98e89fea
