RunID,Agent,Age,Created,Inactive,Resources,Reputation,Ability,Que
run-2020-2-28-10-27-47.539143085,AGENT#f6e88cc0-5a14-11ea-abde-b3617f1c5ece,0,0,0,10,1.0,1.0,0
run-2020-2-28-10-27-47.539143085,AGENT#f6e89a94-5a14-11ea-8bbe-f75ac722adaf,0,0,0,10,1.0,1.0,0
run-2020-2-28-10-27-47.539143085,AGENT#f6e89fa8-5a14-11ea-a1bf-43bdca84a503,0,0,0,10,1.0,1.0,0
run-2020-2-28-10-27-47.539143085,AGENT#f6e8a4a8-5a14-11ea-8621-33277bb6d8ec,0,0,0,10,1.0,1.0,0
run-2020-2-28-10-27-47.539143085,AGENT#f6e89d14-5a14-11ea-9893-9fa62a87170a,1,0,1,10,1.0,1.0,0
run-2020-2-28-10-27-47.539143085,AGENT#f6e8ec88-5a14-11ea-ad86-8f33be6e32d2,1,0,1,10,1.0,1.0,0
run-2020-2-28-10-27-47.539143085,AGENT#f6e8f818-5a14-11ea-8cfa-23d73bf0b5db,1,0,1,10,1.0,1.0,0
run-2020-2-28-10-27-47.539143085,AGENT#f6e8fad4-5a14-11ea-ab8d-ab04004713ec,2,0,2,10,1.0,1.0,0
run-2020-2-28-10-27-47.539143085,AGENT#f6e8e9c2-5a14-11ea-962f-bbdcb17fd47b,3,0,3,10,1.0,1.0,0
run-2020-2-28-10-27-47.539143085,AGENT#f718b774-5a14-11ea-aae0-47f328d64ea2,1,2,3,10,1.0,1.0,0
run-2020-2-28-10-27-47.539143085,AGENT#f6e88fe0-5a14-11ea-ad48-234778652a46,4,0,4,10,1.0,1.0,0
run-2020-2-28-10-27-47.539143085,AGENT#f6e89544-5a14-11ea-aaa7-4b5eb0177b38,4,0,4,10,1.0,1.0,0
run-2020-2-28-10-27-47.539143085,AGENT#f70251aa-5a14-11ea-9528-ef81f2ac50a6,3,1,4,10,1.0,1.0,0
run-2020-2-28-10-27-47.539143085,AGENT#f6e897ec-5a14-11ea-8e88-eb28f0fdaf6f,5,0,5,10,1.0,1.0,0
run-2020-2-28-10-27-47.539143085,AGENT#f6e8f296-5a14-11ea-bc0b-a71009462e77,5,0,5,10,1.0,1.0,0
run-2020-2-28-10-27-47.539143085,AGENT#f72d364a-5a14-11ea-a213-7b9e22e328f2,2,3,5,10,1.0,1.0,0
run-2020-2-28-10-27-47.539143085,AGENT#f72d32f8-5a14-11ea-8ea8-5bff55467a70,3,3,6,10,1.0,1.0,0
run-2020-2-28-10-27-47.539143085,AGENT#f75d05fa-5a14-11ea-a68d-a37384fdee54,1,5,6,10,1.0,1.0,0
run-2020-2-28-10-27-47.539143085,AGENT#f777a8f6-5a14-11ea-89cf-b7d7dda65ec2,2,6,8,10,1.0,1.0,0
run-2020-2-28-10-27-47.539143085,AGENT#f7917664-5a14-11ea-a2c5-97132dff2f44,1,7,8,10,1.0,1.0,0
run-2020-2-28-10-27-47.539143085,AGENT#f73f5e1a-5a14-11ea-a9b1-431cca76c631,5,4,9,10,1.0,1.0,0
run-2020-2-28-10-27-47.539143085,AGENT#f75cfbd2-5a14-11ea-8396-53ed592b18a4,4,5,9,10,1.0,1.0,0
run-2020-2-28-10-27-47.539143085,AGENT#f75cf588-5a14-11ea-ac12-cf57f05d043b,5,5,10,10,1.0,1.0,0
run-2020-2-28-10-27-47.539143085,AGENT#f75cf8da-5a14-11ea-bd01-53d54d20d599,5,5,10,10,1.0,1.0,0
run-2020-2-28-10-27-47.539143085,AGENT#f7bc2c38-5a14-11ea-a693-33c00f020396,2,9,11,10,1.0,1.0,0
run-2020-2-28-10-27-47.539143085,AGENT#f7916e62-5a14-11ea-8f4e-f7fb738386d7,5,7,12,10,1.0,1.0,0
run-2020-2-28-10-27-47.539143085,AGENT#f7bc2fd0-5a14-11ea-8e28-4332b0932a84,3,9,12,10,1.0,1.0,0
run-2020-2-28-10-27-47.539143085,AGENT#f7bc32be-5a14-11ea-9c9c-1f191587e885,3,9,12,10,1.0,1.0,0
run-2020-2-28-10-27-47.539143085,AGENT#f7d8922e-5a14-11ea-a2ec-af96d54b6b60,2,10,12,10,1.0,1.0,0
run-2020-2-28-10-27-47.539143085,AGENT#f7f39132-5a14-11ea-8a2f-6baaf07e75aa,1,11,12,10,1.0,1.0,0
run-2020-2-28-10-27-47.539143085,AGENT#f7bc387c-5a14-11ea-90a1-7f681f5c02ac,4,9,13,10,1.0,1.0,0
run-2020-2-28-10-27-47.539143085,AGENT#f7f394ca-5a14-11ea-96b1-6fe476c8fdff,4,11,15,10,1.0,1.0,0
run-2020-2-28-10-27-47.539143085,AGENT#f80b68ac-5a14-11ea-bd84-af9113ad5eb8,3,12,15,10,1.0,1.0,0
run-2020-2-28-10-27-47.539143085,AGENT#f8344718-5a14-11ea-b185-6f580d2809ee,1,14,15,10,1.0,1.0,0
run-2020-2-28-10-27-47.539143085,AGENT#f8344af6-5a14-11ea-bfd2-1f54b2858287,2,14,16,10,1.0,1.0,0
run-2020-2-28-10-27-47.539143085,AGENT#f8211634-5a14-11ea-a2a1-9b6850204886,4,13,17,10,1.0,1.0,0
run-2020-2-28-10-27-47.539143085,AGENT#f850c74e-5a14-11ea-b242-cf0c2bf072ab,2,15,17,10,1.0,1.0,0
run-2020-2-28-10-27-47.539143085,AGENT#f883acc2-5a14-11ea-adf6-33a08c7d8941,1,17,18,10,1.0,1.0,0
run-2020-2-28-10-27-47.539143085,AGENT#f850c3ac-5a14-11ea-b038-27481c175020,4,15,19,10,1.0,1.0,0
run-2020-2-28-10-27-47.539143085,AGENT#f86b77f6-5a14-11ea-a62d-ffc1623ecc3c,3,16,19,10,1.0,1.0,0
run-2020-2-28-10-27-47.539143085,AGENT#f86b7b7a-5a14-11ea-9644-4f5ac55a912b,4,16,20,10,1.0,1.0,0
run-2020-2-28-10-27-47.539143085,AGENT#f8ad9f0a-5a14-11ea-b30b-6769de59a25d,1,19,20,10,1.0,1.0,0
run-2020-2-28-10-27-47.539143085,AGENT#f883a9e8-5a14-11ea-814e-3b7c6711f705,4,17,21,10,1.0,1.0,0
run-2020-2-28-10-27-47.539143085,AGENT#f899d042-5a14-11ea-b58d-6f2ad2e0f165,3,18,21,10,1.0,1.0,0
run-2020-2-28-10-27-47.539143085,AGENT#f8ad926c-5a14-11ea-95df-8f9b5bd21230,2,19,21,10,1.0,1.0,0
run-2020-2-28-10-27-47.539143085,AGENT#f8ada90a-5a14-11ea-a2e9-ffef1fd65c3d,2,19,21,10,1.0,1.0,0
run-2020-2-28-10-27-47.539143085,AGENT#f8ca030c-5a14-11ea-859e-5321cf4b1f77,1,20,21,10,1.0,1.0,0
run-2020-2-28-10-27-47.539143085,AGENT#f7d8953a-5a14-11ea-8503-e7edc41d3645,12,10,22,10,1.0,1.0,0
run-2020-2-28-10-27-47.539143085,AGENT#f883af88-5a14-11ea-94b1-0b4549afc9a1,5,17,22,10,1.0,1.0,0
run-2020-2-28-10-27-47.539143085,AGENT#f8ad99ec-5a14-11ea-b26c-9b0281fbdc28,3,19,22,10,1.0,1.0,0
run-2020-2-28-10-27-47.539143085,AGENT#f8e50742-5a14-11ea-a57e-43776d8041ba,1,21,22,10,1.0,1.0,0
run-2020-2-28-10-27-47.539143085,AGENT#f8ada2fc-5a14-11ea-8b93-dfea18be5239,4,19,23,10,1.0,1.0,0
run-2020-2-28-10-27-47.539143085,AGENT#f8e4fc02-5a14-11ea-b7cf-a39a631c1f81,2,21,23,10,1.0,1.0,0
run-2020-2-28-10-27-47.539143085,AGENT#f8fced08-5a14-11ea-86d1-1f06d4a84573,1,22,23,10,1.0,1.0,0
run-2020-2-28-10-27-47.539143085,AGENT#f8ada612-5a14-11ea-b38f-2b9b91867765,5,19,24,10,1.0,1.0,0
run-2020-2-28-10-27-47.539143085,AGENT#f8e5044a-5a14-11ea-a0be-5761704a0a61,3,21,24,10,1.0,1.0,0
run-2020-2-28-10-27-47.539143085,AGENT#f8e509e0-5a14-11ea-9fd4-1704712a5872,3,21,24,10,1.0,1.0,0
run-2020-2-28-10-27-47.539143085,AGENT#f8e4f59a-5a14-11ea-bac0-93799feb9b01,4,21,25,10,1.0,1.0,0
run-2020-2-28-10-27-47.539143085,AGENT#f8e4fec8-5a14-11ea-99ed-736b46ac6618,4,21,25,10,1.0,1.0,0
run-2020-2-28-10-27-47.539143085,AGENT#f8fcefe2-5a14-11ea-b809-a774c3801bdb,3,22,25,10,1.0,1.0,0
run-2020-2-28-10-27-47.539143085,AGENT#f9122a74-5a14-11ea-8b5a-cb9efcd03ceb,2,23,25,10,1.0,1.0,0
run-2020-2-28-10-27-47.539143085,AGENT#f92590b4-5a14-11ea-b3d8-2b7f029d831d,1,24,25,10,1.0,1.0,0
run-2020-2-28-10-27-47.539143085,AGENT#f9449900-5a14-11ea-bcd2-2f0e742ba8f1,1,25,26,10,1.0,1.0,0
run-2020-2-28-10-27-47.539143085,AGENT#f8344e20-5a14-11ea-b9fa-9bf5368ed1dd,13,14,27,10,1.0,1.0,0
run-2020-2-28-10-27-47.539143085,AGENT#f9259e60-5a14-11ea-9141-1bbc5396eefe,3,24,27,10,1.0,1.0,0
run-2020-2-28-10-27-47.539143085,AGENT#f91226e6-5a14-11ea-9726-938caca7ff32,5,23,28,10,1.0,1.0,0
run-2020-2-28-10-27-47.539143085,AGENT#f92597ee-5a14-11ea-8f6f-cfce08f72396,4,24,28,10,1.0,1.0,0
run-2020-2-28-10-27-47.539143085,AGENT#f9449108-5a14-11ea-a143-3b429d8da5d1,3,25,28,10,1.0,1.0,0
run-2020-2-28-10-27-47.539143085,AGENT#f94487e4-5a14-11ea-b1d3-ef0aa51ca522,4,25,29,10,1.0,1.0,0
run-2020-2-28-10-27-47.539143085,AGENT#f9448b2c-5a14-11ea-889b-3f6934b4db14,4,25,29,10,1.0,1.0,0
run-2020-2-28-10-27-47.539143085,AGENT#f944964e-5a14-11ea-a978-5f4ba7aeb280,4,25,29,10,1.0,1.0,0
run-2020-2-28-10-27-47.539143085,AGENT#f98d4e5c-5a14-11ea-8db5-838f151731c4,1,28,29,10,1.0,1.0,0
run-2020-2-28-10-27-47.539143085,AGENT#f98d51cc-5a14-11ea-9156-1b81afe70ef1,1,28,29,10,1.0,1.0,0
run-2020-2-28-10-27-47.539143085,AGENT#f9a0bd66-5a14-11ea-bc00-039d5c74a82f,1,29,30,10,1.0,1.0,0
run-2020-2-28-10-27-47.539143085,AGENT#f9770192-5a14-11ea-b059-ab5a2eeec990,5,27,32,10,1.0,1.0,0
run-2020-2-28-10-27-47.539143085,AGENT#f98d54c4-5a14-11ea-b9c3-f32f693fb873,4,28,32,10,1.0,1.0,0
run-2020-2-28-10-27-47.539143085,AGENT#f9a0c1e4-5a14-11ea-994c-172cadc37a2d,3,29,32,10,1.0,1.0,0
run-2020-2-28-10-27-47.539143085,AGENT#f9d6309a-5a14-11ea-a48e-539a736b9ff2,1,31,32,10,1.0,1.0,0
run-2020-2-28-10-27-47.539143085,AGENT#f9bc074c-5a14-11ea-a909-eb11155e8ee8,3,30,33,10,1.0,1.0,0
run-2020-2-28-10-27-47.539143085,AGENT#f9d6346e-5a14-11ea-bad1-7b50940ddb5d,2,31,33,10,1.0,1.0,0
run-2020-2-28-10-27-47.539143085,AGENT#f6e8f552-5a14-11ea-9f9a-73631e690679,34,0,34,10,1.0,1.0,0
run-2020-2-28-10-27-47.539143085,AGENT#f8e4f928-5a14-11ea-a7eb-f36407054dd3,13,21,34,10,1.0,1.0,0
run-2020-2-28-10-27-47.539143085,AGENT#f9a0c572-5a14-11ea-a37a-034773496432,5,29,34,10,1.0,1.0,0
run-2020-2-28-10-27-47.539143085,AGENT#f9bc0472-5a14-11ea-baf7-27a207ec5997,4,30,34,10,1.0,1.0,0
run-2020-2-28-10-27-47.539143085,AGENT#f94493b0-5a14-11ea-af40-4fe0e0d66339,10,25,35,10,1.0,1.0,0
run-2020-2-28-10-27-47.539143085,AGENT#fa2611a0-5a14-11ea-9bf8-f3eb73b956cc,1,35,36,10,1.0,1.0,0
run-2020-2-28-10-27-47.539143085,AGENT#fa2614a2-5a14-11ea-86ce-575edd1b6da4,1,35,36,10,1.0,1.0,0
run-2020-2-28-10-27-47.539143085,AGENT#f9ede640-5a14-11ea-a83a-274205454e31,5,32,37,10,1.0,1.0,0
run-2020-2-28-10-27-47.539143085,AGENT#f9ede9b0-5a14-11ea-b615-3311848db536,5,32,37,10,1.0,1.0,0
run-2020-2-28-10-27-47.539143085,AGENT#fa02ac56-5a14-11ea-a164-8bc712cf9365,4,33,37,10,1.0,1.0,0
run-2020-2-28-10-27-47.539143085,AGENT#fa260d0e-5a14-11ea-9da5-ab280575db7b,2,35,37,10,1.0,1.0,0
run-2020-2-28-10-27-47.539143085,AGENT#fa5a9d6c-5a14-11ea-8545-0b6c04fad154,1,37,38,10,1.0,1.0,0
run-2020-2-28-10-27-47.539143085,AGENT#f925947e-5a14-11ea-949e-0be344895ebb,15,24,39,10,1.0,1.0,0
run-2020-2-28-10-27-47.539143085,AGENT#fa2601ec-5a14-11ea-aa70-eb480776b7b4,4,35,39,10,1.0,1.0,0
run-2020-2-28-10-27-47.539143085,AGENT#fa408f44-5a14-11ea-adef-3fe85d78b962,3,36,39,10,1.0,1.0,0
run-2020-2-28-10-27-47.539143085,AGENT#f6e8a228-5a14-11ea-aa98-ebe654af9125,40,0,40,10,1.0,1.0,0
run-2020-2-28-10-27-47.539143085,AGENT#fa25fc60-5a14-11ea-a625-efc0427c8514,5,35,40,10,1.0,1.0,0
run-2020-2-28-10-27-47.539143085,AGENT#fa408bd4-5a14-11ea-bebf-438a376487fb,4,36,40,10,1.0,1.0,0
run-2020-2-28-10-27-47.539143085,AGENT#fa409264-5a14-11ea-a6cc-cb68ff18cc31,4,36,40,10,1.0,1.0,0
run-2020-2-28-10-27-47.539143085,AGENT#fa5aa154-5a14-11ea-829e-9322644dcbdc,3,37,40,10,1.0,1.0,0
run-2020-2-28-10-27-47.539143085,AGENT#fa71db80-5a14-11ea-aceb-7b0c690d7f86,2,38,40,10,1.0,1.0,0
run-2020-2-28-10-27-47.539143085,AGENT#f8e501a2-5a14-11ea-86a7-93e10c5df5ff,20,21,41,10,1.0,1.0,0
run-2020-2-28-10-27-47.539143085,AGENT#fa9a200e-5a14-11ea-81b5-8bd82b37ce82,1,40,41,10,1.0,1.0,0
run-2020-2-28-10-27-47.539143085,AGENT#fa9a2eaa-5a14-11ea-ba63-9bdbe72bff1d,1,40,41,10,1.0,1.0,0
run-2020-2-28-10-27-47.539143085,AGENT#f75d000a-5a14-11ea-a916-a33378eb1d50,37,5,42,10,1.0,1.0,0
run-2020-2-28-10-27-47.539143085,AGENT#fa5aa488-5a14-11ea-af9a-8b81a3ecaa04,5,37,42,10,1.0,1.0,0
run-2020-2-28-10-27-47.539143085,AGENT#fa876158-5a14-11ea-8d9f-4bade9678183,3,39,42,10,1.0,1.0,0
run-2020-2-28-10-27-47.539143085,AGENT#fa87682e-5a14-11ea-b178-4f80088ac546,3,39,42,10,1.0,1.0,0
run-2020-2-28-10-27-47.539143085,AGENT#faaaf834-5a14-11ea-8c90-bb08652a4be0,1,41,42,10,1.0,1.0,0
run-2020-2-28-10-27-47.539143085,AGENT#faab037e-5a14-11ea-b40b-df23c114fd2b,1,41,42,10,1.0,1.0,0
run-2020-2-28-10-27-47.539143085,AGENT#fac58d5c-5a14-11ea-baac-2bb769671677,1,42,43,10,1.0,1.0,0
run-2020-2-28-10-27-47.539143085,AGENT#fac5862c-5a14-11ea-8d9a-3fcc33e59fe9,2,42,44,10,1.0,1.0,0
run-2020-2-28-10-27-47.539143085,AGENT#fac58a64-5a14-11ea-ad5d-af42b964e88a,2,42,44,10,1.0,1.0,0
run-2020-2-28-10-27-47.539143085,AGENT#fadf695c-5a14-11ea-8535-3318999ae759,1,43,44,10,1.0,1.0,0
run-2020-2-28-10-27-47.539143085,AGENT#fadf6e70-5a14-11ea-92b6-a38626f63e23,1,43,44,10,1.0,1.0,0
run-2020-2-28-10-27-47.539143085,AGENT#f6e8ef76-5a14-11ea-8088-1f2a3a960c9a,45,0,45,10,1.0,1.0,0
run-2020-2-28-10-27-47.539143085,AGENT#fa9a2748-5a14-11ea-97f7-9328a9a24fbb,5,40,45,10,1.0,1.0,0
run-2020-2-28-10-27-47.539143085,AGENT#fa9a2ab8-5a14-11ea-8a74-830035ace6f1,5,40,45,10,1.0,1.0,0
run-2020-2-28-10-27-47.539143085,AGENT#faaafe38-5a14-11ea-8b8d-dfc269206af7,4,41,45,10,1.0,1.0,0
run-2020-2-28-10-27-47.539143085,AGENT#f9448e56-5a14-11ea-807c-ffb78a304e77,21,25,46,10,1.0,1.0,0
run-2020-2-28-10-27-47.539143085,AGENT#faf97c84-5a14-11ea-a7d2-0338e650147e,2,44,46,10,1.0,1.0,0
run-2020-2-28-10-27-47.539143085,AGENT#f6e89292-5a14-11ea-92dd-b74716a4bf22,47,0,47,10,1.0,1.0,0
run-2020-2-28-10-27-47.539143085,AGENT#f718b3be-5a14-11ea-87ee-7b31861789c9,45,2,47,10,1.0,1.0,0
run-2020-2-28-10-27-47.539143085,AGENT#fadf74a6-5a14-11ea-aade-bf86dba83d03,4,43,47,10,1.0,1.0,0
run-2020-2-28-10-27-47.539143085,AGENT#fb11e9a4-5a14-11ea-9dca-e764730e03b6,2,45,47,10,1.0,1.0,0
run-2020-2-28-10-27-47.539143085,AGENT#fb11ef3a-5a14-11ea-a954-8f524bddeaa2,2,45,47,10,1.0,1.0,0
run-2020-2-28-10-27-47.539143085,AGENT#fb11f408-5a14-11ea-824a-a76c2c1c427b,2,45,47,10,1.0,1.0,0
run-2020-2-28-10-27-47.539143085,AGENT#fb269818-5a14-11ea-bcf7-878cd2c389e0,2,46,48,10,1.0,1.0,0
run-2020-2-28-10-27-47.539143085,AGENT#fb367b2a-5a14-11ea-b8ed-2f4adf1e164c,1,47,48,10,1.0,1.0,0
run-2020-2-28-10-27-47.539143085,AGENT#f73f5a96-5a14-11ea-8fe5-3faa9f297fed,45,4,49,10,1.0,1.0,0
run-2020-2-28-10-27-47.539143085,AGENT#fb367e36-5a14-11ea-a5e6-c7ce5fae783f,2,47,49,10,1.0,1.0,0
run-2020-2-28-10-27-47.539143085,AGENT#fb50a5d6-5a14-11ea-af0b-373de4178386,1,48,49,10,1.0,1.0,0
run-2020-2-28-10-27-47.539143085,AGENT#fb269052-5a14-11ea-97ee-1f54a0c901ab,5,46,51,10,1.0,1.0,0
run-2020-2-28-10-27-47.539143085,AGENT#fb368156-5a14-11ea-8288-6f5f180c064c,4,47,51,10,1.0,1.0,0
run-2020-2-28-10-27-47.539143085,AGENT#fb36843a-5a14-11ea-927f-9fb715d1b93a,4,47,51,10,1.0,1.0,0
run-2020-2-28-10-27-47.539143085,AGENT#f777a4fa-5a14-11ea-895c-27dbd8bf612f,46,6,52,10,1.0,1.0,0
run-2020-2-28-10-27-47.539143085,AGENT#f791722c-5a14-11ea-9713-dbad698dd93c,45,7,52,10,1.0,1.0,0
run-2020-2-28-10-27-47.539143085,AGENT#f95ec442-5a14-11ea-9c7f-877427db9a40,26,26,52,10,1.0,1.0,0
run-2020-2-28-10-27-47.539143085,AGENT#fb50a928-5a14-11ea-9fb5-6ff49f2ae0f3,4,48,52,10,1.0,1.0,0
run-2020-2-28-10-27-47.539143085,AGENT#fb697840-5a14-11ea-a606-93fa9667c930,3,49,52,10,1.0,1.0,0
run-2020-2-28-10-27-47.539143085,AGENT#f7a80d7a-5a14-11ea-88d0-0bf1c6f49af1,45,8,53,10,1.0,1.0,0
run-2020-2-28-10-27-47.539143085,AGENT#f883b280-5a14-11ea-b39b-87e8690cf54f,36,17,53,10,1.0,1.0,0
run-2020-2-28-10-27-47.539143085,AGENT#f9edef5a-5a14-11ea-a189-cb073181e7b9,21,32,53,10,1.0,1.0,0
run-2020-2-28-10-27-47.539143085,AGENT#fb50ac34-5a14-11ea-a17c-83fdf593abd8,5,48,53,10,1.0,1.0,0
run-2020-2-28-10-27-47.539143085,AGENT#fb95107c-5a14-11ea-8888-5338d4c1b2c4,2,51,53,10,1.0,1.0,0
run-2020-2-28-10-27-47.539143085,AGENT#fb951c66-5a14-11ea-acd3-830d324b1b39,2,51,53,10,1.0,1.0,0
run-2020-2-28-10-27-47.539143085,AGENT#fba749d6-5a14-11ea-81eb-9f9fd9f104a4,1,52,53,10,1.0,1.0,0
run-2020-2-28-10-27-47.539143085,AGENT#f7bc35b6-5a14-11ea-84ce-3735e3dfb4b4,45,9,54,10,1.0,1.0,0
run-2020-2-28-10-27-47.539143085,AGENT#faab070c-5a14-11ea-a242-43ba5f2e3fea,13,41,54,10,1.0,1.0,0
run-2020-2-28-10-27-47.539143085,AGENT#fb697b1a-5a14-11ea-a403-c7ad0ceef1f4,5,49,54,10,1.0,1.0,0
run-2020-2-28-10-27-47.539143085,AGENT#fbb6fb10-5a14-11ea-81cf-2707906b1146,1,53,54,10,1.0,1.0,0
run-2020-2-28-10-27-47.539143085,AGENT#f7a81144-5a14-11ea-a3a6-37b6adb88dae,47,8,55,10,1.0,1.0,0
run-2020-2-28-10-27-47.539143085,AGENT#fbb6f250-5a14-11ea-9be6-b3fb0fb14bfc,2,53,55,10,1.0,1.0,0
run-2020-2-28-10-27-47.539143085,AGENT#f7d88ef0-5a14-11ea-8c81-4f10b9dbcca7,46,10,56,10,1.0,1.0,0
run-2020-2-28-10-27-47.539143085,AGENT#f899d786-5a14-11ea-bfc7-cb9a2251ac6c,38,18,56,10,1.0,1.0,0
run-2020-2-28-10-27-47.539143085,AGENT#fb9502a8-5a14-11ea-890d-3fb8805a103d,5,51,56,10,1.0,1.0,0
run-2020-2-28-10-27-47.539143085,AGENT#f80b6564-5a14-11ea-843a-23a6a7a043d8,45,12,57,10,1.0,1.0,0
run-2020-2-28-10-27-47.539143085,AGENT#fbc3df74-5a14-11ea-b0ad-176fd94b4b3c,3,54,57,10,1.0,1.0,0
run-2020-2-28-10-27-47.539143085,AGENT#fbf7db08-5a14-11ea-b9d1-8ff1d04c4eef,1,56,57,10,1.0,1.0,0
run-2020-2-28-10-27-47.539143085,AGENT#fa876b26-5a14-11ea-a708-070e19b46919,19,39,58,10,1.0,1.0,0
run-2020-2-28-10-27-47.539143085,AGENT#fbb6f836-5a14-11ea-9ebc-ff745756676d,5,53,58,10,1.0,1.0,0
run-2020-2-28-10-27-47.539143085,AGENT#fbc3ea78-5a14-11ea-9674-13e1cd7ee0b9,4,54,58,10,1.0,1.0,0
run-2020-2-28-10-27-47.539143085,AGENT#fbdf1410-5a14-11ea-a664-bf5f0e5cd6d3,3,55,58,10,1.0,1.0,0
run-2020-2-28-10-27-47.539143085,AGENT#fbdf1a3c-5a14-11ea-8fa3-d7d5f6b9bf4a,3,55,58,10,1.0,1.0,0
run-2020-2-28-10-27-47.539143085,AGENT#fc21ec72-5a14-11ea-8884-cb8f1eee019f,1,58,59,10,1.0,1.0,0
run-2020-2-28-10-27-47.539143085,AGENT#f8fce93e-5a14-11ea-918e-73ef62f9e217,38,22,60,10,1.0,1.0,0
run-2020-2-28-10-27-47.539143085,AGENT#fb9509f6-5a14-11ea-96b2-2f483f5873d3,9,51,60,10,1.0,1.0,0
run-2020-2-28-10-27-47.539143085,AGENT#fbdf0d1c-5a14-11ea-b142-8f15d3bca954,5,55,60,10,1.0,1.0,0
run-2020-2-28-10-27-47.539143085,AGENT#fc21fbd6-5a14-11ea-865b-2f7ebbb5914d,2,58,60,10,1.0,1.0,0
run-2020-2-28-10-27-47.539143085,AGENT#fc21feb0-5a14-11ea-a64b-e74b96cedc19,2,58,60,10,1.0,1.0,0
run-2020-2-28-10-27-47.539143085,AGENT#f86b7f6c-5a14-11ea-a6c0-4b582780420c,45,16,61,10,1.0,1.0,0
run-2020-2-28-10-27-47.539143085,AGENT#fa260958-5a14-11ea-8cd1-77cd4fc2596d,26,35,61,10,1.0,1.0,0
run-2020-2-28-10-27-47.539143085,AGENT#fbf7d784-5a14-11ea-90a0-5b298b7738b6,5,56,61,10,1.0,1.0,0
run-2020-2-28-10-27-47.539143085,AGENT#fbf7df36-5a14-11ea-a757-9b4ce69f4c44,5,56,61,10,1.0,1.0,0
run-2020-2-28-10-27-47.539143085,AGENT#fc338176-5a14-11ea-ba1d-5ba485519c8b,2,59,61,10,1.0,1.0,0
run-2020-2-28-10-27-47.539143085,AGENT#f7d88b08-5a14-11ea-8e03-43a4d7fd0643,52,10,62,10,1.0,1.0,0
run-2020-2-28-10-27-47.539143085,AGENT#f883a632-5a14-11ea-9853-4b65666e5358,46,17,63,10,1.0,1.0,0
run-2020-2-28-10-27-47.539143085,AGENT#f9259b68-5a14-11ea-84c0-5b2846a9f3ad,39,24,63,10,1.0,1.0,0
run-2020-2-28-10-27-47.539143085,AGENT#fc33850e-5a14-11ea-a707-673c8f2ed7fd,4,59,63,10,1.0,1.0,0
run-2020-2-28-10-27-47.539143085,AGENT#fc56b6e6-5a14-11ea-adbe-17bbb6237918,2,61,63,10,1.0,1.0,0
run-2020-2-28-10-27-47.539143085,AGENT#fbb6f552-5a14-11ea-886d-739e0783301d,11,53,64,10,1.0,1.0,0
run-2020-2-28-10-27-47.539143085,AGENT#fc47edf0-5a14-11ea-9645-3f4e284355f0,4,60,64,10,1.0,1.0,0
run-2020-2-28-10-27-47.539143085,AGENT#fc47fbb0-5a14-11ea-8fcf-9b0213bc086d,4,60,64,10,1.0,1.0,0
run-2020-2-28-10-27-47.539143085,AGENT#fc869064-5a14-11ea-baa4-37c2d757253e,1,63,64,10,1.0,1.0,0
run-2020-2-28-10-27-47.539143085,AGENT#f8ca0686-5a14-11ea-a6b0-df461b9510fa,45,20,65,10,1.0,1.0,0
run-2020-2-28-10-27-47.539143085,AGENT#fc868740-5a14-11ea-910d-0780781c7ebb,2,63,65,10,1.0,1.0,0
run-2020-2-28-10-27-47.539143085,AGENT#fc9a775a-5a14-11ea-ae06-6b33e515771c,1,64,65,10,1.0,1.0,0
run-2020-2-28-10-27-47.539143085,AGENT#fc9a7dfe-5a14-11ea-bc21-a7b9dfa6f390,1,64,65,10,1.0,1.0,0
run-2020-2-28-10-27-47.539143085,AGENT#fcac2a5e-5a14-11ea-acef-0bf25de2b74d,1,65,66,10,1.0,1.0,0
run-2020-2-28-10-27-47.539143085,AGENT#fc8695be-5a14-11ea-b15d-5f713f899fed,4,63,67,10,1.0,1.0,0
run-2020-2-28-10-27-47.539143085,AGENT#fcac3044-5a14-11ea-b954-2307c92b9651,2,65,67,10,1.0,1.0,0
run-2020-2-28-10-27-47.539143085,AGENT#fcac2d60-5a14-11ea-82d3-d7d14426f2c7,3,65,68,10,1.0,1.0,0
run-2020-2-28-10-27-47.539143085,AGENT#fcbc3f5c-5a14-11ea-a545-5b2c2502c4e8,2,66,68,10,1.0,1.0,0
run-2020-2-28-10-27-47.539143085,AGENT#fcbc4c5e-5a14-11ea-8acf-37d3cb80f050,2,66,68,10,1.0,1.0,0
run-2020-2-28-10-27-47.539143085,AGENT#fcc96236-5a14-11ea-823d-bfee609153e8,1,67,68,10,1.0,1.0,0
run-2020-2-28-10-27-47.539143085,AGENT#fcac2662-5a14-11ea-a1b5-2344d3b627ea,4,65,69,10,1.0,1.0,0
run-2020-2-28-10-27-47.539143085,AGENT#fcbc452e-5a14-11ea-a4c3-67876afa86ff,3,66,69,10,1.0,1.0,0
run-2020-2-28-10-27-47.539143085,AGENT#fcc947c4-5a14-11ea-aa16-d739c6af2921,2,67,69,10,1.0,1.0,0
run-2020-2-28-10-27-47.539143085,AGENT#fcc94dc8-5a14-11ea-b75a-e3889884f8c7,2,67,69,10,1.0,1.0,0
run-2020-2-28-10-27-47.539143085,AGENT#fcd3f03e-5a14-11ea-ab04-87bb0c889c27,2,68,70,10,1.0,1.0,0
run-2020-2-28-10-27-47.539143085,AGENT#f9449bc6-5a14-11ea-b719-ef24f584cf04,46,25,71,10,1.0,1.0,0
run-2020-2-28-10-27-47.539143085,AGENT#f95ec0a0-5a14-11ea-8a50-f3f1a21368a7,45,26,71,10,1.0,1.0,0
run-2020-2-28-10-27-47.539143085,AGENT#fce81014-5a14-11ea-a009-efd47272598f,2,69,71,10,1.0,1.0,0
run-2020-2-28-10-27-47.539143085,AGENT#fd0991d0-5a14-11ea-8d88-8bfc65db4c00,1,71,72,10,1.0,1.0,0
run-2020-2-28-10-27-47.539143085,AGENT#fd099522-5a14-11ea-ad3f-970cc5665a1b,1,71,72,10,1.0,1.0,0
run-2020-2-28-10-27-47.539143085,AGENT#f976fe2c-5a14-11ea-ad67-0b5efe00531d,46,27,73,10,1.0,1.0,0
run-2020-2-28-10-27-47.539143085,AGENT#f98d57b2-5a14-11ea-b93f-ebfd12a61813,45,28,73,10,1.0,1.0,0
run-2020-2-28-10-27-47.539143085,AGENT#fcf9fa7c-5a14-11ea-92fe-8b9a8cecb385,3,70,73,10,1.0,1.0,0
run-2020-2-28-10-27-47.539143085,AGENT#fd098e56-5a14-11ea-872f-5f6c9dffdc98,2,71,73,10,1.0,1.0,0
run-2020-2-28-10-27-47.539143085,AGENT#fd099856-5a14-11ea-a4b7-8f8b7f1aee19,2,71,73,10,1.0,1.0,0
run-2020-2-28-10-27-47.539143085,AGENT#fd17ea32-5a14-11ea-9ec8-cfbd1701dcd6,2,72,74,10,1.0,1.0,0
run-2020-2-28-10-27-47.539143085,AGENT#fd17f568-5a14-11ea-abc5-bb521c4a0c6e,2,72,74,10,1.0,1.0,0
run-2020-2-28-10-27-47.539143085,AGENT#fd238784-5a14-11ea-9f7c-4b85b44ea19a,1,73,74,10,1.0,1.0,0
run-2020-2-28-10-27-47.539143085,AGENT#fc8692f8-5a14-11ea-9037-1be79139d1f0,12,63,75,10,1.0,1.0,0
run-2020-2-28-10-27-47.539143085,AGENT#fd17f20c-5a14-11ea-bcb6-e753a3dbc98e,3,72,75,10,1.0,1.0,0
run-2020-2-28-10-27-47.539143085,AGENT#fd238bb2-5a14-11ea-a14b-bf3eee7c7df9,2,73,75,10,1.0,1.0,0
run-2020-2-28-10-27-47.539143085,AGENT#f9bbfe1e-5a14-11ea-9ad9-7f2074577a37,46,30,76,10,1.0,1.0,0
run-2020-2-28-10-27-47.539143085,AGENT#f9bc0184-5a14-11ea-a6f6-2bbf8d8125f8,46,30,76,10,1.0,1.0,0
run-2020-2-28-10-27-47.539143085,AGENT#f9d637ac-5a14-11ea-8c95-d30577cbe3ad,45,31,76,10,1.0,1.0,0
run-2020-2-28-10-27-47.539143085,AGENT#fd098a50-5a14-11ea-9d00-ab6649d15b28,5,71,76,10,1.0,1.0,0
run-2020-2-28-10-27-47.539143085,AGENT#fd36a4ea-5a14-11ea-b7bb-6bf266211966,1,75,76,10,1.0,1.0,0
run-2020-2-28-10-27-47.539143085,AGENT#f9edec94-5a14-11ea-b354-0f99840b9cb7,45,32,77,10,1.0,1.0,0
run-2020-2-28-10-27-47.539143085,AGENT#fa8764dc-5a14-11ea-b77d-97e12aa52caf,38,39,77,10,1.0,1.0,0
run-2020-2-28-10-27-47.539143085,AGENT#fbb6ed78-5a14-11ea-b730-f7ddfab57cfc,24,53,77,10,1.0,1.0,0
run-2020-2-28-10-27-47.539143085,AGENT#fd17ee7e-5a14-11ea-8496-f75be7962465,5,72,77,10,1.0,1.0,0
run-2020-2-28-10-27-47.539143085,AGENT#fd2d4076-5a14-11ea-8902-4bd13c450661,3,74,77,10,1.0,1.0,0
run-2020-2-28-10-27-47.539143085,AGENT#fd36b3ea-5a14-11ea-84e6-433573118420,2,75,77,10,1.0,1.0,0
run-2020-2-28-10-27-47.539143085,AGENT#fd492958-5a14-11ea-8544-5b77ee90d47f,1,76,77,10,1.0,1.0,0
run-2020-2-28-10-27-47.539143085,AGENT#f9a0c86a-5a14-11ea-b8d3-bf7141923590,49,29,78,10,1.0,1.0,0
run-2020-2-28-10-27-47.539143085,AGENT#fd23828e-5a14-11ea-83c6-0749bf176e74,5,73,78,10,1.0,1.0,0
run-2020-2-28-10-27-47.539143085,AGENT#fd492318-5a14-11ea-859f-67e8c7c8cc03,2,76,78,10,1.0,1.0,0
run-2020-2-28-10-27-47.539143085,AGENT#fd492c46-5a14-11ea-bc85-e3d6322dd55f,2,76,78,10,1.0,1.0,0
run-2020-2-28-10-27-47.539143085,AGENT#fa158e02-5a14-11ea-98a8-874c0ebd176e,45,34,79,10,1.0,1.0,0
run-2020-2-28-10-27-47.539143085,AGENT#fd4935a6-5a14-11ea-8326-17d143c5d4b6,3,76,79,10,1.0,1.0,0
run-2020-2-28-10-27-47.539143085,AGENT#fd68e63a-5a14-11ea-94d6-735aba1dc1d1,1,78,79,10,1.0,1.0,0
run-2020-2-28-10-27-47.539143085,AGENT#fc21f5d2-5a14-11ea-971c-d36ffb7f6b20,22,58,80,10,1.0,1.0,0
run-2020-2-28-10-27-47.539143085,AGENT#fd492eee-5a14-11ea-a5ce-0bf6bc0e8af5,4,76,80,10,1.0,1.0,0
run-2020-2-28-10-27-47.539143085,AGENT#fd75e100-5a14-11ea-82b3-ffca4e710c72,1,79,80,10,1.0,1.0,0
run-2020-2-28-10-27-47.539143085,AGENT#fd75e51a-5a14-11ea-9a96-872ad38afa2c,1,79,80,10,1.0,1.0,0
run-2020-2-28-10-27-47.539143085,AGENT#fd68dfa0-5a14-11ea-bcaf-d720e2e30304,3,78,81,10,1.0,1.0,0
run-2020-2-28-10-27-47.539143085,AGENT#fd68e310-5a14-11ea-bd97-bf3b7a1dafc5,3,78,81,10,1.0,1.0,0
run-2020-2-28-10-27-47.539143085,AGENT#fd75db56-5a14-11ea-830d-bb0e02bd3a2f,2,79,81,10,1.0,1.0,0
run-2020-2-28-10-27-47.539143085,AGENT#fd75e948-5a14-11ea-bcb0-874e612cafa7,2,79,81,10,1.0,1.0,0
run-2020-2-28-10-27-47.539143085,AGENT#fd68e914-5a14-11ea-ac94-678f0c3cd8c4,4,78,82,10,1.0,1.0,0
run-2020-2-28-10-27-47.539143085,AGENT#fd7e18c0-5a14-11ea-9889-d3bd04dc92ee,2,80,82,10,1.0,1.0,0
run-2020-2-28-10-27-47.539143085,AGENT#fd867704-5a14-11ea-ae79-57dee8c2c6d0,1,81,82,10,1.0,1.0,0
run-2020-2-28-10-27-47.539143085,AGENT#fd867a38-5a14-11ea-9bce-8bb2f55e95a2,1,81,82,10,1.0,1.0,0
run-2020-2-28-10-27-47.539143085,AGENT#fb2694c6-5a14-11ea-8735-1b6f62a4ce65,37,46,83,10,1.0,1.0,0
run-2020-2-28-10-27-47.539143085,AGENT#fd868212-5a14-11ea-9ed1-3feb81f50d8b,2,81,83,10,1.0,1.0,0
run-2020-2-28-10-27-47.539143085,AGENT#fa260570-5a14-11ea-8734-e7e2f3bb0642,49,35,84,10,1.0,1.0,0
run-2020-2-28-10-27-47.539143085,AGENT#fcd3f4c6-5a14-11ea-8a8e-6b4596470c0e,16,68,84,10,1.0,1.0,0
run-2020-2-28-10-27-47.539143085,AGENT#fd4932d6-5a14-11ea-ad40-3752cae441a4,8,76,84,10,1.0,1.0,0
run-2020-2-28-10-27-47.539143085,AGENT#fd868690-5a14-11ea-98ed-ffad8aca9232,3,81,84,10,1.0,1.0,0
run-2020-2-28-10-27-47.539143085,AGENT#fda3b2f6-5a14-11ea-b1fd-c73ad6eca44a,1,83,84,10,1.0,1.0,0
run-2020-2-28-10-27-47.539143085,AGENT#fa9a23b0-5a14-11ea-b5a5-17be0d0cfcf1,45,40,85,10,1.0,1.0,0
run-2020-2-28-10-27-47.539143085,AGENT#fd7e10dc-5a14-11ea-b146-93348be97243,5,80,85,10,1.0,1.0,0
run-2020-2-28-10-27-47.539143085,AGENT#fd867d4e-5a14-11ea-92a2-6f794b9dd3ab,4,81,85,10,1.0,1.0,0
run-2020-2-28-10-27-47.539143085,AGENT#fda3aea0-5a14-11ea-bcf8-9beb4e9510f5,2,83,85,10,1.0,1.0,0
run-2020-2-28-10-27-47.539143085,AGENT#fdb3736c-5a14-11ea-9af4-177e78a90718,2,84,86,10,1.0,1.0,0
run-2020-2-28-10-27-47.539143085,AGENT#fd8ff52c-5a14-11ea-bb12-dbb04fbb9d91,5,82,87,10,1.0,1.0,0
run-2020-2-28-10-27-47.539143085,AGENT#fadf7820-5a14-11ea-9548-6b4b11a885b9,46,43,89,10,1.0,1.0,0
run-2020-2-28-10-27-47.539143085,AGENT#fbb6fdf4-5a14-11ea-8a4c-bf2d85eefc88,36,53,89,10,1.0,1.0,0
run-2020-2-28-10-27-47.539143085,AGENT#fdc1a5ea-5a14-11ea-96fd-5f7faf716514,4,85,89,10,1.0,1.0,0
run-2020-2-28-10-27-47.539143085,AGENT#fde07060-5a14-11ea-9947-934e39e5b9c0,1,88,89,10,1.0,1.0,0
run-2020-2-28-10-27-47.539143085,AGENT#fde0784e-5a14-11ea-9149-47da8121ee51,1,88,89,10,1.0,1.0,0
run-2020-2-28-10-27-47.539143085,AGENT#fdd76d58-5a14-11ea-96eb-b71d70a3746f,4,87,91,10,1.0,1.0,0
run-2020-2-28-10-27-47.539143085,AGENT#fdf55994-5a14-11ea-86be-1b86521ff267,1,90,91,10,1.0,1.0,0
run-2020-2-28-10-27-47.539143085,AGENT#fdf55d4a-5a14-11ea-b374-7f024d4c94a3,1,90,91,10,1.0,1.0,0
run-2020-2-28-10-27-47.539143085,AGENT#fc21f276-5a14-11ea-8c3c-cbc9e7cf36d3,34,58,92,10,1.0,1.0,0
run-2020-2-28-10-27-47.539143085,AGENT#fdead9d8-5a14-11ea-8e20-1fabaddd181e,3,89,92,10,1.0,1.0,0
run-2020-2-28-10-27-47.539143085,AGENT#fdf56128-5a14-11ea-a232-431734451351,2,90,92,10,1.0,1.0,0
run-2020-2-28-10-27-47.539143085,AGENT#fe0b47e0-5a14-11ea-9d30-4f286c81e077,1,91,92,10,1.0,1.0,0
run-2020-2-28-10-27-47.539143085,AGENT#fd68db22-5a14-11ea-89aa-2f1d29344821,15,78,93,10,1.0,1.0,0
run-2020-2-28-10-27-47.539143085,AGENT#fe0b40d8-5a14-11ea-b71f-6f4c6450e1bf,2,91,93,10,1.0,1.0,0
run-2020-2-28-10-27-47.539143085,AGENT#fe1ef27c-5a14-11ea-9291-0fb5a1277382,1,92,93,10,1.0,1.0,0
run-2020-2-28-10-27-47.539143085,AGENT#fb50a220-5a14-11ea-8f3f-f799a20b0087,46,48,94,10,1.0,1.0,0
run-2020-2-28-10-27-47.539143085,AGENT#fb6974d0-5a14-11ea-bc30-1b3e2c205fea,45,49,94,10,1.0,1.0,0
run-2020-2-28-10-27-47.539143085,AGENT#fe1ee714-5a14-11ea-a7db-bf218bcb277c,2,92,94,10,1.0,1.0,0
run-2020-2-28-10-27-47.539143085,AGENT#fe1ee9f8-5a14-11ea-94df-3b42c7d09b19,2,92,94,10,1.0,1.0,0
run-2020-2-28-10-27-47.539143085,AGENT#fe1eefe8-5a14-11ea-9a66-c3daa121ac49,2,92,94,10,1.0,1.0,0
run-2020-2-28-10-27-47.539143085,AGENT#fd868988-5a14-11ea-8232-ab167a8a60a9,14,81,95,10,1.0,1.0,0
run-2020-2-28-10-27-47.539143085,AGENT#fdf55444-5a14-11ea-b522-4be4b9eb9909,5,90,95,10,1.0,1.0,0
run-2020-2-28-10-27-47.539143085,AGENT#fe0b44b6-5a14-11ea-8608-7b14e425be6f,4,91,95,10,1.0,1.0,0
run-2020-2-28-10-27-47.539143085,AGENT#fe1ee322-5a14-11ea-b9c9-23d64d75b7af,3,92,95,10,1.0,1.0,0
run-2020-2-28-10-27-47.539143085,AGENT#fe3d1518-5a14-11ea-9c88-2bd38c841585,1,94,95,10,1.0,1.0,0
run-2020-2-28-10-27-47.539143085,AGENT#fe3d186a-5a14-11ea-8fcc-5b480d399c72,1,94,95,10,1.0,1.0,0
run-2020-2-28-10-27-47.539143085,AGENT#fe3d1be4-5a14-11ea-8b6e-6f19468c7ea3,1,94,95,10,1.0,1.0,0
run-2020-2-28-10-27-47.539143085,AGENT#fb36772e-5a14-11ea-a013-db923de031ad,49,47,96,10,1.0,1.0,0
run-2020-2-28-10-27-47.539143085,AGENT#fb9515e0-5a14-11ea-9135-47dcf681670f,45,51,96,10,1.0,1.0,0
run-2020-2-28-10-27-47.539143085,AGENT#fd7e155a-5a14-11ea-b524-0b8200032c3b,16,80,96,10,1.0,1.0,0
run-2020-2-28-10-27-47.539143085,AGENT#fb801dd4-5a14-11ea-88a9-b33fb384b28f,47,50,97,10,1.0,1.0,0
run-2020-2-28-10-27-47.539143085,AGENT#fbc3e712-5a14-11ea-bf29-fb71ac4b9964,43,54,97,10,1.0,1.0,0
run-2020-2-28-10-27-47.539143085,AGENT#fe2f7412-5a14-11ea-a0f9-3b18e5d5f4cc,4,93,97,10,1.0,1.0,0
run-2020-2-28-10-27-47.539143085,AGENT#fe48322c-5a14-11ea-bef4-af5e5d0a297c,2,95,97,10,1.0,1.0,0
run-2020-2-28-10-27-47.539143085,AGENT#fe51c512-5a14-11ea-9916-c3c3207e8834,1,96,97,10,1.0,1.0,0
run-2020-2-28-10-27-47.539143085,AGENT#fb801a32-5a14-11ea-958d-db63b9f115ae,48,50,98,10,1.0,1.0,0
run-2020-2-28-10-27-47.539143085,AGENT#fba74652-5a14-11ea-89d5-e3d2ff7b350c,46,52,98,10,1.0,1.0,0
run-2020-2-28-10-27-47.539143085,AGENT#fd238ffe-5a14-11ea-966a-dbc5411bc879,25,73,98,10,1.0,1.0,0
run-2020-2-28-10-27-47.539143085,AGENT#fd8ff8ec-5a14-11ea-a255-473c5da03d4d,16,82,98,10,1.0,1.0,0
run-2020-2-28-10-27-47.539143085,AGENT#fe2f6ca6-5a14-11ea-a5db-735b86315923,5,93,98,10,1.0,1.0,0
run-2020-2-28-10-27-47.539143085,AGENT#fe48293a-5a14-11ea-a141-db7293829cff,3,95,98,10,1.0,1.0,0
run-2020-2-28-10-27-47.539143085,AGENT#fe482d5e-5a14-11ea-97db-cfbb71c8af1a,3,95,98,10,1.0,1.0,0
run-2020-2-28-10-27-47.539143085,AGENT#fe51bc70-5a14-11ea-8c98-2fb3c9e34dd9,2,96,98,10,1.0,1.0,0
run-2020-2-28-10-27-47.539143085,AGENT#fbc3e35c-5a14-11ea-90d8-577ee83675a7,45,54,99,10,1.0,1.0,0
run-2020-2-28-10-27-47.539143085,AGENT#fe482322-5a14-11ea-b44b-f78225beabba,4,95,99,10,1.0,1.0,0
run-2020-2-28-10-27-47.539143085,AGENT#fe51b626-5a14-11ea-8984-a752b217220d,3,96,99,10,1.0,1.0,0
run-2020-2-28-10-27-47.539143085,AGENT#fe51bf36-5a14-11ea-8591-533e0cdb6b6f,3,96,99,10,1.0,1.0,0
run-2020-2-28-10-27-47.539143085,AGENT#fe73a0a6-5a14-11ea-a278-b3dc35bc106f,1,98,99,10,1.0,1.0,0
