Source,Target
LAW5590c58a-abe6-11ea-9af8-20c9d0446113,LAW5591370e-abe6-11ea-bcc7-20c9d0446113
LAW5590c67a-abe6-11ea-a3b8-20c9d0446113,LAW55913830-abe6-11ea-84ed-20c9d0446113
LAW5590fd66-abe6-11ea-8df4-20c9d0446113,LAW55913952-abe6-11ea-9045-20c9d0446113
LAW5590c67a-abe6-11ea-a3b8-20c9d0446113,LAW55913af6-abe6-11ea-af4e-20c9d0446113
LAW55913952-abe6-11ea-9045-20c9d0446113,LAW55913cb8-abe6-11ea-92cd-20c9d0446113
LAW55913830-abe6-11ea-84ed-20c9d0446113,LAW55916fda-abe6-11ea-8782-20c9d0446113
LAW5590c58a-abe6-11ea-9af8-20c9d0446113,LAW559170c0-abe6-11ea-bad3-20c9d0446113
LAW55913830-abe6-11ea-84ed-20c9d0446113,LAW55917246-abe6-11ea-ac0d-20c9d0446113
LAW5590c508-abe6-11ea-8bc0-20c9d0446113,LAW559138b2-abe6-11ea-b6f9-20c9d0446113
LAW55913830-abe6-11ea-84ed-20c9d0446113,LAW559174b2-abe6-11ea-a855-20c9d0446113
LAW55913830-abe6-11ea-84ed-20c9d0446113,LAW559172b4-abe6-11ea-866c-20c9d0446113
LAW5590c77e-abe6-11ea-b5d3-20c9d0446113,LAW559176ba-abe6-11ea-9b24-20c9d0446113
LAW5590c508-abe6-11ea-8bc0-20c9d0446113,LAW55917912-abe6-11ea-b522-20c9d0446113
LAW5590c77e-abe6-11ea-b5d3-20c9d0446113,LAW55916cec-abe6-11ea-b091-20c9d0446113
LAW55913cb8-abe6-11ea-92cd-20c9d0446113,LAW559179da-abe6-11ea-94de-20c9d0446113
