RunID,Tick,ActiveAgentsPerTick
run-2020-2-17-18-3-0.447537899,0,10
run-2020-2-17-18-3-0.447537899,1,14
run-2020-2-17-18-3-0.447537899,2,15
run-2020-2-17-18-3-0.447537899,3,14
run-2020-2-17-18-3-0.447537899,4,13
run-2020-2-17-18-3-0.447537899,5,17
run-2020-2-17-18-3-0.447537899,6,19
run-2020-2-17-18-3-0.447537899,7,24
run-2020-2-17-18-3-0.447537899,8,23
run-2020-2-17-18-3-0.447537899,9,25
run-2020-2-17-18-3-0.447537899,10,26
run-2020-2-17-18-3-0.447537899,11,23
run-2020-2-17-18-3-0.447537899,12,23
run-2020-2-17-18-3-0.447537899,13,20
run-2020-2-17-18-3-0.447537899,14,20
run-2020-2-17-18-3-0.447537899,15,28
run-2020-2-17-18-3-0.447537899,16,25
run-2020-2-17-18-3-0.447537899,17,27
run-2020-2-17-18-3-0.447537899,18,33
run-2020-2-17-18-3-0.447537899,19,35
run-2020-2-17-18-3-0.447537899,20,37
run-2020-2-17-18-3-0.447537899,21,34
run-2020-2-17-18-3-0.447537899,22,34
run-2020-2-17-18-3-0.447537899,23,34
run-2020-2-17-18-3-0.447537899,24,37
run-2020-2-17-18-3-0.447537899,25,37
run-2020-2-17-18-3-0.447537899,26,38
run-2020-2-17-18-3-0.447537899,27,40
run-2020-2-17-18-3-0.447537899,28,45
run-2020-2-17-18-3-0.447537899,29,41
run-2020-2-17-18-3-0.447537899,30,36
run-2020-2-17-18-3-0.447537899,31,35
run-2020-2-17-18-3-0.447537899,32,39
run-2020-2-17-18-3-0.447537899,33,42
run-2020-2-17-18-3-0.447537899,34,43
run-2020-2-17-18-3-0.447537899,35,44
run-2020-2-17-18-3-0.447537899,36,44
run-2020-2-17-18-3-0.447537899,37,46
run-2020-2-17-18-3-0.447537899,38,48
run-2020-2-17-18-3-0.447537899,39,49
run-2020-2-17-18-3-0.447537899,40,51
run-2020-2-17-18-3-0.447537899,41,54
run-2020-2-17-18-3-0.447537899,42,57
run-2020-2-17-18-3-0.447537899,43,57
run-2020-2-17-18-3-0.447537899,44,52
run-2020-2-17-18-3-0.447537899,45,51
run-2020-2-17-18-3-0.447537899,46,49
run-2020-2-17-18-3-0.447537899,47,54
run-2020-2-17-18-3-0.447537899,48,56
run-2020-2-17-18-3-0.447537899,49,56
run-2020-2-17-18-3-0.447537899,50,53
run-2020-2-17-18-3-0.447537899,51,56
run-2020-2-17-18-3-0.447537899,52,62
run-2020-2-17-18-3-0.447537899,53,63
run-2020-2-17-18-3-0.447537899,54,61
run-2020-2-17-18-3-0.447537899,55,64
run-2020-2-17-18-3-0.447537899,56,61
run-2020-2-17-18-3-0.447537899,57,61
run-2020-2-17-18-3-0.447537899,58,62
run-2020-2-17-18-3-0.447537899,59,66
run-2020-2-17-18-3-0.447537899,60,63
run-2020-2-17-18-3-0.447537899,61,61
run-2020-2-17-18-3-0.447537899,62,61
run-2020-2-17-18-3-0.447537899,63,59
run-2020-2-17-18-3-0.447537899,64,58
run-2020-2-17-18-3-0.447537899,65,57
run-2020-2-17-18-3-0.447537899,66,58
run-2020-2-17-18-3-0.447537899,67,59
run-2020-2-17-18-3-0.447537899,68,60
run-2020-2-17-18-3-0.447537899,69,61
run-2020-2-17-18-3-0.447537899,70,62
run-2020-2-17-18-3-0.447537899,71,59
run-2020-2-17-18-3-0.447537899,72,62
run-2020-2-17-18-3-0.447537899,73,61
run-2020-2-17-18-3-0.447537899,74,62
run-2020-2-17-18-3-0.447537899,75,62
run-2020-2-17-18-3-0.447537899,76,61
run-2020-2-17-18-3-0.447537899,77,60
run-2020-2-17-18-3-0.447537899,78,58
run-2020-2-17-18-3-0.447537899,79,58
run-2020-2-17-18-3-0.447537899,80,56
run-2020-2-17-18-3-0.447537899,81,55
run-2020-2-17-18-3-0.447537899,82,57
run-2020-2-17-18-3-0.447537899,83,58
run-2020-2-17-18-3-0.447537899,84,53
run-2020-2-17-18-3-0.447537899,85,55
run-2020-2-17-18-3-0.447537899,86,56
run-2020-2-17-18-3-0.447537899,87,55
run-2020-2-17-18-3-0.447537899,88,54
run-2020-2-17-18-3-0.447537899,89,54
run-2020-2-17-18-3-0.447537899,90,57
run-2020-2-17-18-3-0.447537899,91,62
run-2020-2-17-18-3-0.447537899,92,57
run-2020-2-17-18-3-0.447537899,93,59
run-2020-2-17-18-3-0.447537899,94,60
run-2020-2-17-18-3-0.447537899,95,60
run-2020-2-17-18-3-0.447537899,96,60
run-2020-2-17-18-3-0.447537899,97,59
run-2020-2-17-18-3-0.447537899,98,58
run-2020-2-17-18-3-0.447537899,99,59
run-2020-2-17-18-3-0.447537899,100,56
