RunID,Tick,ActiveAgentsPerTick
run-2020-2-18-13-57-52.233912944,0,15
run-2020-2-18-13-57-52.233912944,1,19
run-2020-2-18-13-57-52.233912944,2,18
run-2020-2-18-13-57-52.233912944,3,21
run-2020-2-18-13-57-52.233912944,4,24
run-2020-2-18-13-57-52.233912944,5,25
run-2020-2-18-13-57-52.233912944,6,19
run-2020-2-18-13-57-52.233912944,7,18
run-2020-2-18-13-57-52.233912944,8,22
run-2020-2-18-13-57-52.233912944,9,25
run-2020-2-18-13-57-52.233912944,10,23
run-2020-2-18-13-57-52.233912944,11,22
run-2020-2-18-13-57-52.233912944,12,21
run-2020-2-18-13-57-52.233912944,13,24
run-2020-2-18-13-57-52.233912944,14,23
run-2020-2-18-13-57-52.233912944,15,25
run-2020-2-18-13-57-52.233912944,16,28
run-2020-2-18-13-57-52.233912944,17,30
run-2020-2-18-13-57-52.233912944,18,34
run-2020-2-18-13-57-52.233912944,19,38
run-2020-2-18-13-57-52.233912944,20,36
run-2020-2-18-13-57-52.233912944,21,39
run-2020-2-18-13-57-52.233912944,22,43
run-2020-2-18-13-57-52.233912944,23,44
run-2020-2-18-13-57-52.233912944,24,38
run-2020-2-18-13-57-52.233912944,25,40
run-2020-2-18-13-57-52.233912944,26,42
run-2020-2-18-13-57-52.233912944,27,46
run-2020-2-18-13-57-52.233912944,28,49
run-2020-2-18-13-57-52.233912944,29,51
run-2020-2-18-13-57-52.233912944,30,48
run-2020-2-18-13-57-52.233912944,31,47
run-2020-2-18-13-57-52.233912944,32,54
run-2020-2-18-13-57-52.233912944,33,49
run-2020-2-18-13-57-52.233912944,34,54
run-2020-2-18-13-57-52.233912944,35,54
run-2020-2-18-13-57-52.233912944,36,56
run-2020-2-18-13-57-52.233912944,37,57
run-2020-2-18-13-57-52.233912944,38,56
run-2020-2-18-13-57-52.233912944,39,55
run-2020-2-18-13-57-52.233912944,40,55
run-2020-2-18-13-57-52.233912944,41,58
run-2020-2-18-13-57-52.233912944,42,59
run-2020-2-18-13-57-52.233912944,43,55
run-2020-2-18-13-57-52.233912944,44,58
run-2020-2-18-13-57-52.233912944,45,58
run-2020-2-18-13-57-52.233912944,46,54
run-2020-2-18-13-57-52.233912944,47,58
run-2020-2-18-13-57-52.233912944,48,58
run-2020-2-18-13-57-52.233912944,49,54
run-2020-2-18-13-57-52.233912944,50,56
run-2020-2-18-13-57-52.233912944,51,51
run-2020-2-18-13-57-52.233912944,52,51
run-2020-2-18-13-57-52.233912944,53,53
run-2020-2-18-13-57-52.233912944,54,51
run-2020-2-18-13-57-52.233912944,55,45
run-2020-2-18-13-57-52.233912944,56,46
run-2020-2-18-13-57-52.233912944,57,46
run-2020-2-18-13-57-52.233912944,58,45
run-2020-2-18-13-57-52.233912944,59,51
run-2020-2-18-13-57-52.233912944,60,49
run-2020-2-18-13-57-52.233912944,61,50
run-2020-2-18-13-57-52.233912944,62,48
run-2020-2-18-13-57-52.233912944,63,47
run-2020-2-18-13-57-52.233912944,64,48
run-2020-2-18-13-57-52.233912944,65,47
run-2020-2-18-13-57-52.233912944,66,46
run-2020-2-18-13-57-52.233912944,67,46
run-2020-2-18-13-57-52.233912944,68,48
run-2020-2-18-13-57-52.233912944,69,44
run-2020-2-18-13-57-52.233912944,70,47
run-2020-2-18-13-57-52.233912944,71,47
run-2020-2-18-13-57-52.233912944,72,47
run-2020-2-18-13-57-52.233912944,73,50
run-2020-2-18-13-57-52.233912944,74,51
run-2020-2-18-13-57-52.233912944,75,49
run-2020-2-18-13-57-52.233912944,76,45
run-2020-2-18-13-57-52.233912944,77,47
run-2020-2-18-13-57-52.233912944,78,49
run-2020-2-18-13-57-52.233912944,79,47
run-2020-2-18-13-57-52.233912944,80,45
run-2020-2-18-13-57-52.233912944,81,45
run-2020-2-18-13-57-52.233912944,82,46
run-2020-2-18-13-57-52.233912944,83,47
run-2020-2-18-13-57-52.233912944,84,46
run-2020-2-18-13-57-52.233912944,85,45
run-2020-2-18-13-57-52.233912944,86,43
run-2020-2-18-13-57-52.233912944,87,45
run-2020-2-18-13-57-52.233912944,88,47
run-2020-2-18-13-57-52.233912944,89,47
run-2020-2-18-13-57-52.233912944,90,47
run-2020-2-18-13-57-52.233912944,91,48
run-2020-2-18-13-57-52.233912944,92,49
run-2020-2-18-13-57-52.233912944,93,50
run-2020-2-18-13-57-52.233912944,94,52
run-2020-2-18-13-57-52.233912944,95,51
run-2020-2-18-13-57-52.233912944,96,48
run-2020-2-18-13-57-52.233912944,97,48
run-2020-2-18-13-57-52.233912944,98,48
run-2020-2-18-13-57-52.233912944,99,51
run-2020-2-18-13-57-52.233912944,100,48
