Source,Target
LAW815fad32-5fc6-11ea-b6a9-9badfeb984a5,LAW815fc18c-5fc6-11ea-a28f-6b179617fcce
LAW815fb5f2-5fc6-11ea-bb3f-1f2211422ce0,LAW815fc4d4-5fc6-11ea-be52-f34ec106625a
LAW815f9978-5fc6-11ea-a926-cb9cee99fb55,LAW815fc77c-5fc6-11ea-834f-f37e0de4f0ce
