RunID,Agent,Age,Created,Inactive,Resources,Reputation,Ability,Que
run-2020-2-18-13-44-23.337707996,AGENT#c5a2b3ce-5254-11ea-a7fe-1b08778eb522,1,0,1,10,1.0,1.0,0
run-2020-2-18-13-44-23.337707996,AGENT#c5a2bb94-5254-11ea-873e-e35f1a505ec8,1,0,1,10,1.0,1.0,0
run-2020-2-18-13-44-23.337707996,AGENT#c5a2b680-5254-11ea-85d5-cbf3182bdd29,2,0,2,10,1.0,1.0,0
run-2020-2-18-13-44-23.337707996,AGENT#c5a2c346-5254-11ea-91bb-3fecca8610a5,2,0,2,10,1.0,1.0,0
run-2020-2-18-13-44-23.337707996,AGENT#c5a2fcbc-5254-11ea-b6e7-c389aebc0356,2,0,2,10,1.0,1.0,0
run-2020-2-18-13-44-23.337707996,AGENT#c5a2ffbe-5254-11ea-8f81-33e247f2a3e9,2,0,2,10,1.0,1.0,0
run-2020-2-18-13-44-23.337707996,AGENT#c5a3050e-5254-11ea-8364-23a691d88079,2,0,2,10,1.0,1.0,0
run-2020-2-18-13-44-23.337707996,AGENT#c5a3b2a6-5254-11ea-9bae-777e308e5df2,1,2,3,10,1.0,1.0,0
run-2020-2-18-13-44-23.337707996,AGENT#c5a2ab86-5254-11ea-adbb-6f633a7a8c5f,4,0,4,10,1.0,1.0,0
run-2020-2-18-13-44-23.337707996,AGENT#c5a36e72-5254-11ea-993a-6f99354c6d4e,3,1,4,10,1.0,1.0,0
run-2020-2-18-13-44-23.337707996,AGENT#c5a2be1e-5254-11ea-af80-4bcf81c8abb4,5,0,5,10,1.0,1.0,0
run-2020-2-18-13-44-23.337707996,AGENT#c5a42e5c-5254-11ea-9b76-1317bf7fca0e,1,4,5,10,1.0,1.0,0
run-2020-2-18-13-44-23.337707996,AGENT#c5a3b558-5254-11ea-92ce-1b897fd32781,4,2,6,10,1.0,1.0,0
run-2020-2-18-13-44-23.337707996,AGENT#c5a3b800-5254-11ea-94f1-9bea3c828d94,4,2,6,10,1.0,1.0,0
run-2020-2-18-13-44-23.337707996,AGENT#c5a42b6e-5254-11ea-9531-9714ada863e7,2,4,6,10,1.0,1.0,0
run-2020-2-18-13-44-23.337707996,AGENT#c5a46d4a-5254-11ea-b551-37f3ff9b203a,1,5,6,10,1.0,1.0,0
run-2020-2-18-13-44-23.337707996,AGENT#c5a3f022-5254-11ea-ba61-a70823abfbec,4,3,7,10,1.0,1.0,0
run-2020-2-18-13-44-23.337707996,AGENT#c5a46a98-5254-11ea-86cc-0327d0208c56,2,5,7,10,1.0,1.0,0
run-2020-2-18-13-44-23.337707996,AGENT#c5a464f8-5254-11ea-b2d4-0bb934039e3b,3,5,8,10,1.0,1.0,0
run-2020-2-18-13-44-23.337707996,AGENT#c5a467dc-5254-11ea-a9db-2bf47ceea06f,3,5,8,10,1.0,1.0,0
run-2020-2-18-13-44-23.337707996,AGENT#c5a477fe-5254-11ea-98a9-273bdd75543b,3,5,8,10,1.0,1.0,0
run-2020-2-18-13-44-23.337707996,AGENT#c5a4af80-5254-11ea-910b-471b42e26246,2,6,8,10,1.0,1.0,0
run-2020-2-18-13-44-23.337707996,AGENT#c5a4f06c-5254-11ea-af01-87395542a812,1,7,8,10,1.0,1.0,0
run-2020-2-18-13-44-23.337707996,AGENT#c5a47556-5254-11ea-a21e-5b3d55137dec,4,5,9,10,1.0,1.0,0
run-2020-2-18-13-44-23.337707996,AGENT#c5a4b55c-5254-11ea-af55-47f091d925fd,3,6,9,10,1.0,1.0,0
run-2020-2-18-13-44-23.337707996,AGENT#c5a56376-5254-11ea-ac19-6f617bfcefe4,1,9,10,10,1.0,1.0,0
run-2020-2-18-13-44-23.337707996,AGENT#c5a56b6e-5254-11ea-8e9f-a38e99132149,1,9,10,10,1.0,1.0,0
run-2020-2-18-13-44-23.337707996,AGENT#c5a5a3c2-5254-11ea-b9b1-e749fbc68047,1,10,11,10,1.0,1.0,0
run-2020-2-18-13-44-23.337707996,AGENT#c5a5661e-5254-11ea-a10a-af7280510ddf,4,9,13,10,1.0,1.0,0
run-2020-2-18-13-44-23.337707996,AGENT#c5a5a6e2-5254-11ea-a80d-77da086a040d,3,10,13,10,1.0,1.0,0
run-2020-2-18-13-44-23.337707996,AGENT#c5a5e896-5254-11ea-abea-a7e497b3e9f9,2,11,13,10,1.0,1.0,0
run-2020-2-18-13-44-23.337707996,AGENT#c5a62b12-5254-11ea-a1cf-0383cf0fbd3f,1,12,13,10,1.0,1.0,0
run-2020-2-18-13-44-23.337707996,AGENT#c5a62860-5254-11ea-86ed-7b4f2c4c15ae,2,12,14,10,1.0,1.0,0
run-2020-2-18-13-44-23.337707996,AGENT#c5a3afb8-5254-11ea-afc1-3bde6d47dbea,13,2,15,10,1.0,1.0,0
run-2020-2-18-13-44-23.337707996,AGENT#c5a67b30-5254-11ea-b464-47e33868136f,2,13,15,10,1.0,1.0,0
run-2020-2-18-13-44-23.337707996,AGENT#c5a6c770-5254-11ea-bc7c-d3322667ca31,1,14,15,10,1.0,1.0,0
run-2020-2-18-13-44-23.337707996,AGENT#c5a6c20c-5254-11ea-9efe-2363ee6d1115,2,14,16,10,1.0,1.0,0
run-2020-2-18-13-44-23.337707996,AGENT#c5a7150e-5254-11ea-a7a2-bf6202aa29ea,1,15,16,10,1.0,1.0,0
run-2020-2-18-13-44-23.337707996,AGENT#c5a7229c-5254-11ea-a1ef-e3f6ac2f1e0d,2,15,17,10,1.0,1.0,0
run-2020-2-18-13-44-23.337707996,AGENT#c5a7cddc-5254-11ea-ab21-7f47897e66d7,1,17,18,10,1.0,1.0,0
run-2020-2-18-13-44-23.337707996,AGENT#c5a7d066-5254-11ea-abc0-27fa5f1248ba,1,17,18,10,1.0,1.0,0
run-2020-2-18-13-44-23.337707996,AGENT#c5a30266-5254-11ea-b6bd-ab8c084c93d3,19,0,19,10,1.0,1.0,0
run-2020-2-18-13-44-23.337707996,AGENT#c5a776b6-5254-11ea-ba62-1364379ba1f6,3,16,19,10,1.0,1.0,0
run-2020-2-18-13-44-23.337707996,AGENT#c5a7c85a-5254-11ea-a939-4f4e8bbf2cc1,2,17,19,10,1.0,1.0,0
run-2020-2-18-13-44-23.337707996,AGENT#c5a7d2f0-5254-11ea-bcac-9ffbc8bd1919,2,17,19,10,1.0,1.0,0
run-2020-2-18-13-44-23.337707996,AGENT#c5a823a4-5254-11ea-bf9e-2f037bb00650,1,18,19,10,1.0,1.0,0
run-2020-2-18-13-44-23.337707996,AGENT#c5a72012-5254-11ea-95a6-7b0b700a4fb4,5,15,20,10,1.0,1.0,0
run-2020-2-18-13-44-23.337707996,AGENT#c5a779ae-5254-11ea-ab82-3767f48e1afb,4,16,20,10,1.0,1.0,0
run-2020-2-18-13-44-23.337707996,AGENT#c5a87bce-5254-11ea-9538-1b48a088cefb,1,19,20,10,1.0,1.0,0
run-2020-2-18-13-44-23.337707996,AGENT#c5a71810-5254-11ea-9238-c79a7d0eb9a4,6,15,21,10,1.0,1.0,0
run-2020-2-18-13-44-23.337707996,AGENT#c5a8cf2a-5254-11ea-8ee9-4b0f92dfb798,1,20,21,10,1.0,1.0,0
run-2020-2-18-13-44-23.337707996,AGENT#c5a55dd6-5254-11ea-a2d2-6fa6f8e45ee3,13,9,22,10,1.0,1.0,0
run-2020-2-18-13-44-23.337707996,AGENT#c5a67dce-5254-11ea-bc31-7b1b3f1c4876,9,13,22,10,1.0,1.0,0
run-2020-2-18-13-44-23.337707996,AGENT#c5a7cb48-5254-11ea-bf48-c3ee3d3e5227,5,17,22,10,1.0,1.0,0
run-2020-2-18-13-44-23.337707996,AGENT#c5a8d48e-5254-11ea-8e3d-53a944bb2eb3,2,20,22,10,1.0,1.0,0
run-2020-2-18-13-44-23.337707996,AGENT#c5a938d4-5254-11ea-a9e0-136104a01de8,1,21,22,10,1.0,1.0,0
run-2020-2-18-13-44-23.337707996,AGENT#c5a8d1f0-5254-11ea-b994-474c6ce37121,3,20,23,10,1.0,1.0,0
run-2020-2-18-13-44-23.337707996,AGENT#c5a93370-5254-11ea-93e4-dfec279dc3f5,3,21,24,10,1.0,1.0,0
run-2020-2-18-13-44-23.337707996,AGENT#c5a9a3dc-5254-11ea-b642-fb9c8fa70b60,2,22,24,10,1.0,1.0,0
run-2020-2-18-13-44-23.337707996,AGENT#c5a9ff8a-5254-11ea-b9c3-cff78c1b074d,1,23,24,10,1.0,1.0,0
run-2020-2-18-13-44-23.337707996,AGENT#c5a46ff2-5254-11ea-a686-5b9a18e8beb0,20,5,25,10,1.0,1.0,0
run-2020-2-18-13-44-23.337707996,AGENT#c5a9a152-5254-11ea-8c0a-af11c1520bec,4,22,26,10,1.0,1.0,0
run-2020-2-18-13-44-23.337707996,AGENT#c5a9a670-5254-11ea-8be7-53fb58be7935,4,22,26,10,1.0,1.0,0
run-2020-2-18-13-44-23.337707996,AGENT#c5aab060-5254-11ea-8833-3b6dc4d1476d,1,25,26,10,1.0,1.0,0
run-2020-2-18-13-44-23.337707996,AGENT#c5aaba2e-5254-11ea-83d5-33ed8d34703a,1,25,26,10,1.0,1.0,0
run-2020-2-18-13-44-23.337707996,AGENT#c5aa56f6-5254-11ea-87a8-3b31d51e96d3,3,24,27,10,1.0,1.0,0
run-2020-2-18-13-44-23.337707996,AGENT#c5aaadcc-5254-11ea-9a29-1342ef5b5195,2,25,27,10,1.0,1.0,0
run-2020-2-18-13-44-23.337707996,AGENT#c5aab2ea-5254-11ea-8e61-eb98461c6a3d,3,25,28,10,1.0,1.0,0
run-2020-2-18-13-44-23.337707996,AGENT#c5aab556-5254-11ea-8435-0b5c1603bc48,3,25,28,10,1.0,1.0,0
run-2020-2-18-13-44-23.337707996,AGENT#c5ab9232-5254-11ea-be6f-5751439d510f,1,27,28,10,1.0,1.0,0
run-2020-2-18-13-44-23.337707996,AGENT#c5a4b28c-5254-11ea-84d9-1b061414eb5d,23,6,29,10,1.0,1.0,0
run-2020-2-18-13-44-23.337707996,AGENT#c5aab7b8-5254-11ea-97d6-039605e8c742,4,25,29,10,1.0,1.0,0
run-2020-2-18-13-44-23.337707996,AGENT#c5aaab24-5254-11ea-92ae-37aa1f4b8a32,5,25,30,10,1.0,1.0,0
run-2020-2-18-13-44-23.337707996,AGENT#c5ab9714-5254-11ea-84f4-5b9654558fa4,3,27,30,10,1.0,1.0,0
run-2020-2-18-13-44-23.337707996,AGENT#c5a42876-5254-11ea-a3df-7766dc377ed8,27,4,31,10,1.0,1.0,0
run-2020-2-18-13-44-23.337707996,AGENT#c5ab232e-5254-11ea-ab42-ff52e85f2e93,5,26,31,10,1.0,1.0,0
run-2020-2-18-13-44-23.337707996,AGENT#c5ab8cb0-5254-11ea-b4a3-7f1eb36882b0,4,27,31,10,1.0,1.0,0
run-2020-2-18-13-44-23.337707996,AGENT#c5ac01b8-5254-11ea-8527-8f779892e76d,3,28,31,10,1.0,1.0,0
run-2020-2-18-13-44-23.337707996,AGENT#c5ac6a2c-5254-11ea-8d3a-0f23b22634a1,3,29,32,10,1.0,1.0,0
run-2020-2-18-13-44-23.337707996,AGENT#c5ac6cd4-5254-11ea-9f00-4bdce06520d5,3,29,32,10,1.0,1.0,0
run-2020-2-18-13-44-23.337707996,AGENT#c5acd854-5254-11ea-ae1e-9797f79ed1e7,2,30,32,10,1.0,1.0,0
run-2020-2-18-13-44-23.337707996,AGENT#c5ad4e9c-5254-11ea-99a3-0b3ad3ee3584,1,31,32,10,1.0,1.0,0
run-2020-2-18-13-44-23.337707996,AGENT#c5a77c74-5254-11ea-a451-eb3b2ddfda01,17,16,33,10,1.0,1.0,0
run-2020-2-18-13-44-23.337707996,AGENT#c5adc02a-5254-11ea-aa7d-db6e5d4b898a,1,32,33,10,1.0,1.0,0
run-2020-2-18-13-44-23.337707996,AGENT#c5adbaa8-5254-11ea-be42-97978ebcf211,2,32,34,10,1.0,1.0,0
run-2020-2-18-13-44-23.337707996,AGENT#c5adc296-5254-11ea-aeaf-cb04eb769efd,2,32,34,10,1.0,1.0,0
run-2020-2-18-13-44-23.337707996,AGENT#c5ae27c2-5254-11ea-bfc6-f77c7ff05126,1,33,34,10,1.0,1.0,0
run-2020-2-18-13-44-23.337707996,AGENT#c5ae2a60-5254-11ea-930e-4732f13820c4,1,33,34,10,1.0,1.0,0
run-2020-2-18-13-44-23.337707996,AGENT#c5acdd36-5254-11ea-8549-5b84a45aba99,5,30,35,10,1.0,1.0,0
run-2020-2-18-13-44-23.337707996,AGENT#c5ae940a-5254-11ea-b39d-9b3260ee1daf,1,34,35,10,1.0,1.0,0
run-2020-2-18-13-44-23.337707996,AGENT#c5af06c4-5254-11ea-b69d-7b664b8dd754,1,35,36,10,1.0,1.0,0
run-2020-2-18-13-44-23.337707996,AGENT#c5a5ec06-5254-11ea-8566-6b1fcb77f0d7,26,11,37,10,1.0,1.0,0
run-2020-2-18-13-44-23.337707996,AGENT#c5ae970c-5254-11ea-b6fb-b33697128e10,3,34,37,10,1.0,1.0,0
run-2020-2-18-13-44-23.337707996,AGENT#c5af6a1a-5254-11ea-b8ee-6b7327f99f14,1,36,37,10,1.0,1.0,0
run-2020-2-18-13-44-23.337707996,AGENT#c5a87908-5254-11ea-bb98-67aa90d5bf5f,20,19,39,10,1.0,1.0,0
run-2020-2-18-13-44-23.337707996,AGENT#c5af0458-5254-11ea-8da8-eb6445dde429,4,35,39,10,1.0,1.0,0
run-2020-2-18-13-44-23.337707996,AGENT#c5af6f06-5254-11ea-b065-1f09129f6a13,3,36,39,10,1.0,1.0,0
run-2020-2-18-13-44-23.337707996,AGENT#c5adbd96-5254-11ea-b0dd-b72d098b4cf4,8,32,40,10,1.0,1.0,0
run-2020-2-18-13-44-23.337707996,AGENT#c5af6c9a-5254-11ea-9d22-6f3c3d9bb3b7,5,36,41,10,1.0,1.0,0
run-2020-2-18-13-44-23.337707996,AGENT#c5af7190-5254-11ea-b4e8-a3c9847377fd,5,36,41,10,1.0,1.0,0
run-2020-2-18-13-44-23.337707996,AGENT#c5afdb1c-5254-11ea-a67d-1bfb1ce0f180,4,37,41,10,1.0,1.0,0
run-2020-2-18-13-44-23.337707996,AGENT#c5b05876-5254-11ea-984d-f7b3a4235000,3,38,41,10,1.0,1.0,0
run-2020-2-18-13-44-23.337707996,AGENT#c5ab94a8-5254-11ea-ae8c-4b4f1a2e158f,15,27,42,10,1.0,1.0,0
run-2020-2-18-13-44-23.337707996,AGENT#c5b13cc8-5254-11ea-b76c-4b151a01fb36,2,40,42,10,1.0,1.0,0
run-2020-2-18-13-44-23.337707996,AGENT#c5b1a6d6-5254-11ea-a099-439b5da0d8e9,1,41,42,10,1.0,1.0,0
run-2020-2-18-13-44-23.337707996,AGENT#c5b1a9c4-5254-11ea-a635-df5e5964cb6c,1,41,42,10,1.0,1.0,0
run-2020-2-18-13-44-23.337707996,AGENT#c5b13a70-5254-11ea-b024-1fb46bca0772,3,40,43,10,1.0,1.0,0
run-2020-2-18-13-44-23.337707996,AGENT#c5b1ae60-5254-11ea-a9bc-d76fd48535b7,2,41,43,10,1.0,1.0,0
run-2020-2-18-13-44-23.337707996,AGENT#c5b21de6-5254-11ea-9043-7b3680555b03,1,42,43,10,1.0,1.0,0
run-2020-2-18-13-44-23.337707996,AGENT#c5b2207a-5254-11ea-aecd-67cfdccca449,1,42,43,10,1.0,1.0,0
run-2020-2-18-13-44-23.337707996,AGENT#c5b222dc-5254-11ea-a345-cf19ed82654c,1,42,43,10,1.0,1.0,0
run-2020-2-18-13-44-23.337707996,AGENT#c5a2ae92-5254-11ea-93fc-cf8e26b88456,45,0,45,10,1.0,1.0,0
run-2020-2-18-13-44-23.337707996,AGENT#c5a2b90a-5254-11ea-9a15-5393ccd64385,45,0,45,10,1.0,1.0,0
run-2020-2-18-13-44-23.337707996,AGENT#c5b2250c-5254-11ea-bba7-7fd06d5ab2f4,3,42,45,10,1.0,1.0,0
run-2020-2-18-13-44-23.337707996,AGENT#c5b2275a-5254-11ea-863d-93b165e2073a,3,42,45,10,1.0,1.0,0
run-2020-2-18-13-44-23.337707996,AGENT#c5a2b13a-5254-11ea-9801-c7f11590764a,46,0,46,10,1.0,1.0,0
run-2020-2-18-13-44-23.337707996,AGENT#c5a2c0b2-5254-11ea-b93c-7b86f77ce1e7,46,0,46,10,1.0,1.0,0
run-2020-2-18-13-44-23.337707996,AGENT#c5b1b09a-5254-11ea-889b-5f60a4f581e8,5,41,46,10,1.0,1.0,0
run-2020-2-18-13-44-23.337707996,AGENT#c5b324ca-5254-11ea-9e9f-9713a39d4b69,3,44,47,10,1.0,1.0,0
run-2020-2-18-13-44-23.337707996,AGENT#c5b3274a-5254-11ea-bb04-7b35bea4d06d,3,44,47,10,1.0,1.0,0
run-2020-2-18-13-44-23.337707996,AGENT#c5b43298-5254-11ea-a6e6-33248e8fddfb,1,46,47,10,1.0,1.0,0
run-2020-2-18-13-44-23.337707996,AGENT#c5b2a75c-5254-11ea-b294-df557fba7a54,5,43,48,10,1.0,1.0,0
run-2020-2-18-13-44-23.337707996,AGENT#c5b32c2c-5254-11ea-a772-97678e2e3b9f,4,44,48,10,1.0,1.0,0
run-2020-2-18-13-44-23.337707996,AGENT#c5b3aaf8-5254-11ea-b826-0bd0ad473d62,3,45,48,10,1.0,1.0,0
run-2020-2-18-13-44-23.337707996,AGENT#c5b4aba6-5254-11ea-a750-9fc7d35bb0cf,2,47,49,10,1.0,1.0,0
run-2020-2-18-13-44-23.337707996,AGENT#c5b4b290-5254-11ea-9aa3-4b67254a9345,2,47,49,10,1.0,1.0,0
run-2020-2-18-13-44-23.337707996,AGENT#c5b53f76-5254-11ea-9e94-a7f78be2f76f,1,48,49,10,1.0,1.0,0
run-2020-2-18-13-44-23.337707996,AGENT#c5a4247a-5254-11ea-a6a0-73d2f9e3fd24,46,4,50,10,1.0,1.0,0
run-2020-2-18-13-44-23.337707996,AGENT#c5a472b8-5254-11ea-bb7f-bf89a6db4c03,45,5,50,10,1.0,1.0,0
run-2020-2-18-13-44-23.337707996,AGENT#c5b43004-5254-11ea-8d95-136fd2571c86,4,46,50,10,1.0,1.0,0
run-2020-2-18-13-44-23.337707996,AGENT#c5a461ec-5254-11ea-b252-4baae3d0dfe3,46,5,51,10,1.0,1.0,0
run-2020-2-18-13-44-23.337707996,AGENT#c5b5478c-5254-11ea-a35e-67b2958db017,3,48,51,10,1.0,1.0,0
run-2020-2-18-13-44-23.337707996,AGENT#c5b5e30e-5254-11ea-a825-ff40e7094e6d,2,49,51,10,1.0,1.0,0
run-2020-2-18-13-44-23.337707996,AGENT#c5b5e7d2-5254-11ea-b578-531c2c41345b,2,49,51,10,1.0,1.0,0
run-2020-2-18-13-44-23.337707996,AGENT#c5b67bca-5254-11ea-91dc-37d9d179c6bc,1,50,51,10,1.0,1.0,0
run-2020-2-18-13-44-23.337707996,AGENT#c5a4eac2-5254-11ea-b856-8fb1c329d895,45,7,52,10,1.0,1.0,0
run-2020-2-18-13-44-23.337707996,AGENT#c5b4b4c0-5254-11ea-bacb-cf9b46406a61,5,47,52,10,1.0,1.0,0
run-2020-2-18-13-44-23.337707996,AGENT#c5b70c0c-5254-11ea-812d-7f4f0cc6ba9f,1,51,52,10,1.0,1.0,0
run-2020-2-18-13-44-23.337707996,AGENT#c5b712c4-5254-11ea-a46a-87b439d0ba7e,1,51,52,10,1.0,1.0,0
run-2020-2-18-13-44-23.337707996,AGENT#c5a4ed9c-5254-11ea-b88f-17bdd63fdb52,46,7,53,10,1.0,1.0,0
run-2020-2-18-13-44-23.337707996,AGENT#c5a62dc4-5254-11ea-8c3c-077120635c70,41,12,53,10,1.0,1.0,0
run-2020-2-18-13-44-23.337707996,AGENT#c5a672b6-5254-11ea-9ca6-3bb9165f27c2,40,13,53,10,1.0,1.0,0
run-2020-2-18-13-44-23.337707996,AGENT#c5b674a4-5254-11ea-a709-673ad0d702de,3,50,53,10,1.0,1.0,0
run-2020-2-18-13-44-23.337707996,AGENT#c5a52ca8-5254-11ea-be4a-1ba4dfa60e7e,46,8,54,10,1.0,1.0,0
run-2020-2-18-13-44-23.337707996,AGENT#c5a560b0-5254-11ea-b7b6-d7d1b3f53315,45,9,54,10,1.0,1.0,0
run-2020-2-18-13-44-23.337707996,AGENT#c5b67742-5254-11ea-aee9-5bb18d67e798,4,50,54,10,1.0,1.0,0
run-2020-2-18-13-44-23.337707996,AGENT#c5b70e50-5254-11ea-8017-3fedd817417f,3,51,54,10,1.0,1.0,0
run-2020-2-18-13-44-23.337707996,AGENT#c5b71080-5254-11ea-b9c7-879224b407b1,3,51,54,10,1.0,1.0,0
run-2020-2-18-13-44-23.337707996,AGENT#c5b79f6e-5254-11ea-be4f-67e760f38b53,2,52,54,10,1.0,1.0,0
run-2020-2-18-13-44-23.337707996,AGENT#c5b83fdc-5254-11ea-8b7b-eba2908d9412,1,53,54,10,1.0,1.0,0
run-2020-2-18-13-44-23.337707996,AGENT#c5b84680-5254-11ea-bbdb-0f5c6c052eb7,1,53,54,10,1.0,1.0,0
run-2020-2-18-13-44-23.337707996,AGENT#c5b7a3f6-5254-11ea-b87e-bb5f7980e64b,3,52,55,10,1.0,1.0,0
run-2020-2-18-13-44-23.337707996,AGENT#c5b7a84c-5254-11ea-bfd6-4385dd98876e,3,52,55,10,1.0,1.0,0
run-2020-2-18-13-44-23.337707996,AGENT#c5b8dfc8-5254-11ea-b677-334c2864b3bd,1,54,55,10,1.0,1.0,0
run-2020-2-18-13-44-23.337707996,AGENT#c5b8e248-5254-11ea-9a95-4f2d7dffef4a,1,54,55,10,1.0,1.0,0
run-2020-2-18-13-44-23.337707996,AGENT#c5b7a1bc-5254-11ea-8f84-f70fa265a670,4,52,56,10,1.0,1.0,0
run-2020-2-18-13-44-23.337707996,AGENT#c5b7a61c-5254-11ea-8a1d-1b91ae231363,4,52,56,10,1.0,1.0,0
run-2020-2-18-13-44-23.337707996,AGENT#c5b8e482-5254-11ea-b923-7f15cd8eab2a,2,54,56,10,1.0,1.0,0
run-2020-2-18-13-44-23.337707996,AGENT#c5b98e50-5254-11ea-8864-dba582ada37b,1,55,56,10,1.0,1.0,0
run-2020-2-18-13-44-23.337707996,AGENT#c5a6254a-5254-11ea-9702-9b9fc9538359,45,12,57,10,1.0,1.0,0
run-2020-2-18-13-44-23.337707996,AGENT#c5b79cf8-5254-11ea-9a54-eb33873c5dd1,5,52,57,10,1.0,1.0,0
run-2020-2-18-13-44-23.337707996,AGENT#c5b83b04-5254-11ea-81e2-93b2f30ca792,4,53,57,10,1.0,1.0,0
run-2020-2-18-13-44-23.337707996,AGENT#c5b8e6b2-5254-11ea-93ef-dbbdd54cf217,3,54,57,10,1.0,1.0,0
run-2020-2-18-13-44-23.337707996,AGENT#c5b8e8d8-5254-11ea-9197-abc9d2f69908,3,54,57,10,1.0,1.0,0
run-2020-2-18-13-44-23.337707996,AGENT#c5b98c02-5254-11ea-9d87-0b2ba337ca4f,2,55,57,10,1.0,1.0,0
run-2020-2-18-13-44-23.337707996,AGENT#c5b9909e-5254-11ea-8200-13573232fcf3,2,55,57,10,1.0,1.0,0
run-2020-2-18-13-44-23.337707996,AGENT#c5a568bc-5254-11ea-ad81-534352b72150,49,9,58,10,1.0,1.0,0
run-2020-2-18-13-44-23.337707996,AGENT#c5a67874-5254-11ea-a1c9-4b167d865794,45,13,58,10,1.0,1.0,0
run-2020-2-18-13-44-23.337707996,AGENT#c5a71ae0-5254-11ea-9f5c-1b2b146182db,43,15,58,10,1.0,1.0,0
run-2020-2-18-13-44-23.337707996,AGENT#c5b98950-5254-11ea-a39d-0333e06415f0,3,55,58,10,1.0,1.0,0
run-2020-2-18-13-44-23.337707996,AGENT#c5b9953a-5254-11ea-a6eb-1b6f66afd527,3,55,58,10,1.0,1.0,0
run-2020-2-18-13-44-23.337707996,AGENT#c5ba6442-5254-11ea-a408-eb0c1c64c714,2,56,58,10,1.0,1.0,0
run-2020-2-18-13-44-23.337707996,AGENT#c5bb29d6-5254-11ea-bdeb-735cbd079edb,1,57,58,10,1.0,1.0,0
run-2020-2-18-13-44-23.337707996,AGENT#c5a6bf32-5254-11ea-aa06-73d54bb482af,45,14,59,10,1.0,1.0,0
run-2020-2-18-13-44-23.337707996,AGENT#c5a6c4c8-5254-11ea-9f41-e3bd5bd77804,45,14,59,10,1.0,1.0,0
run-2020-2-18-13-44-23.337707996,AGENT#c5ba6b22-5254-11ea-835d-2f58cd81ba5e,3,56,59,10,1.0,1.0,0
run-2020-2-18-13-44-23.337707996,AGENT#c5bb2fda-5254-11ea-931c-a3b5ad582b26,2,57,59,10,1.0,1.0,0
run-2020-2-18-13-44-23.337707996,AGENT#c5bbd926-5254-11ea-b971-d77352719455,1,58,59,10,1.0,1.0,0
run-2020-2-18-13-44-23.337707996,AGENT#c5bbdbd8-5254-11ea-9c4d-879a324e086d,1,58,59,10,1.0,1.0,0
run-2020-2-18-13-44-23.337707996,AGENT#c5a71d7e-5254-11ea-8a58-ab1490118c57,45,15,60,10,1.0,1.0,0
run-2020-2-18-13-44-23.337707996,AGENT#c5a87e76-5254-11ea-a884-43c900a05cab,41,19,60,10,1.0,1.0,0
run-2020-2-18-13-44-23.337707996,AGENT#c5a99932-5254-11ea-b531-1b705159c32c,38,22,60,10,1.0,1.0,0
run-2020-2-18-13-44-23.337707996,AGENT#c5ba6e2e-5254-11ea-b6c9-0fef6950187b,4,56,60,10,1.0,1.0,0
run-2020-2-18-13-44-23.337707996,AGENT#c5a675a4-5254-11ea-964e-030553aeb59d,48,13,61,10,1.0,1.0,0
run-2020-2-18-13-44-23.337707996,AGENT#c5bb2d28-5254-11ea-8440-af0087022a33,4,57,61,10,1.0,1.0,0
run-2020-2-18-13-44-23.337707996,AGENT#c5bc9b68-5254-11ea-91f9-030f697eba0a,2,59,61,10,1.0,1.0,0
run-2020-2-18-13-44-23.337707996,AGENT#c5bc9654-5254-11ea-92fe-0b53a1adc2d1,3,59,62,10,1.0,1.0,0
run-2020-2-18-13-44-23.337707996,AGENT#c5bd28ee-5254-11ea-8245-070f1f595f73,2,60,62,10,1.0,1.0,0
run-2020-2-18-13-44-23.337707996,AGENT#c5b2a4d2-5254-11ea-bb5c-5faf7cd04b81,20,43,63,10,1.0,1.0,0
run-2020-2-18-13-44-23.337707996,AGENT#c5bdcd8a-5254-11ea-9edf-9bc1c08f72be,2,61,63,10,1.0,1.0,0
run-2020-2-18-13-44-23.337707996,AGENT#c5be6a2e-5254-11ea-88ad-6f64c95d9e69,1,62,63,10,1.0,1.0,0
run-2020-2-18-13-44-23.337707996,AGENT#c5b13566-5254-11ea-bf8e-0728d25c43e8,24,40,64,10,1.0,1.0,0
run-2020-2-18-13-44-23.337707996,AGENT#c5bc991a-5254-11ea-826e-7351ced7ee2b,5,59,64,10,1.0,1.0,0
run-2020-2-18-13-44-23.337707996,AGENT#c5bdcace-5254-11ea-b6a6-8f2056984c96,3,61,64,10,1.0,1.0,0
run-2020-2-18-13-44-23.337707996,AGENT#c5be6768-5254-11ea-9585-a7beb483aee8,2,62,64,10,1.0,1.0,0
run-2020-2-18-13-44-23.337707996,AGENT#c5be6ce0-5254-11ea-9559-7f1cb2c79b11,2,62,64,10,1.0,1.0,0
run-2020-2-18-13-44-23.337707996,AGENT#c5a8266a-5254-11ea-a8ee-03ca24064b95,47,18,65,10,1.0,1.0,0
run-2020-2-18-13-44-23.337707996,AGENT#c5b8491e-5254-11ea-b1f0-b36f301c7b34,12,53,65,10,1.0,1.0,0
run-2020-2-18-13-44-23.337707996,AGENT#c5bf0cae-5254-11ea-b5c9-731bc3b8f9af,2,63,65,10,1.0,1.0,0
run-2020-2-18-13-44-23.337707996,AGENT#c5bfaea2-5254-11ea-a3e4-bfa0ba82cf2a,1,64,65,10,1.0,1.0,0
run-2020-2-18-13-44-23.337707996,AGENT#c5b5e066-5254-11ea-a5ad-176d3b91193a,17,49,66,10,1.0,1.0,0
run-2020-2-18-13-44-23.337707996,AGENT#c5b99774-5254-11ea-a6ff-97f6f915670e,11,55,66,10,1.0,1.0,0
run-2020-2-18-13-44-23.337707996,AGENT#c5be744c-5254-11ea-87a0-97755664d699,4,62,66,10,1.0,1.0,0
run-2020-2-18-13-44-23.337707996,AGENT#c5a8d9de-5254-11ea-8d3a-53b4de6403ee,47,20,67,10,1.0,1.0,0
run-2020-2-18-13-44-23.337707996,AGENT#c5a93636-5254-11ea-83c3-5b42b9e0ace0,46,21,67,10,1.0,1.0,0
run-2020-2-18-13-44-23.337707996,AGENT#c5be71fe-5254-11ea-891b-e3f66cf54c76,5,62,67,10,1.0,1.0,0
run-2020-2-18-13-44-23.337707996,AGENT#c5c0f802-5254-11ea-b603-af06ee121524,1,66,67,10,1.0,1.0,0
run-2020-2-18-13-44-23.337707996,AGENT#c5a99c02-5254-11ea-b2be-43dcdd8612fa,46,22,68,10,1.0,1.0,0
run-2020-2-18-13-44-23.337707996,AGENT#c5a99e96-5254-11ea-989b-1778bdbe8f93,46,22,68,10,1.0,1.0,0
run-2020-2-18-13-44-23.337707996,AGENT#c5bf0a2e-5254-11ea-9ee8-6f8b9ad7cd6b,5,63,68,10,1.0,1.0,0
run-2020-2-18-13-44-23.337707996,AGENT#c5a9fc92-5254-11ea-b097-975f14d58c14,46,23,69,10,1.0,1.0,0
run-2020-2-18-13-44-23.337707996,AGENT#c5c18d26-5254-11ea-b392-17004f005629,2,67,69,10,1.0,1.0,0
run-2020-2-18-13-44-23.337707996,AGENT#c5c227e0-5254-11ea-81a8-f7ffb99c85ff,1,68,69,10,1.0,1.0,0
run-2020-2-18-13-44-23.337707996,AGENT#c5ab25e0-5254-11ea-b938-fb185ab0e53d,45,26,71,10,1.0,1.0,0
run-2020-2-18-13-44-23.337707996,AGENT#c5b3a846-5254-11ea-b991-2784af2df6ab,26,45,71,10,1.0,1.0,0
run-2020-2-18-13-44-23.337707996,AGENT#c5b714f4-5254-11ea-bdb8-5b262ba7f9ae,20,51,71,10,1.0,1.0,0
run-2020-2-18-13-44-23.337707996,AGENT#c5c0f2ee-5254-11ea-9b69-0f0914bd7bcd,5,66,71,10,1.0,1.0,0
run-2020-2-18-13-44-23.337707996,AGENT#c5c339c8-5254-11ea-97c8-a74da2fca1a6,1,70,71,10,1.0,1.0,0
run-2020-2-18-13-44-23.337707996,AGENT#c5a8d754-5254-11ea-a81d-ebcb4d1b0c50,52,20,72,10,1.0,1.0,0
run-2020-2-18-13-44-23.337707996,AGENT#c5ab8f76-5254-11ea-ad4d-2f6c3789818b,45,27,72,10,1.0,1.0,0
run-2020-2-18-13-44-23.337707996,AGENT#c5c18a7e-5254-11ea-ad6b-abdb727af3da,5,67,72,10,1.0,1.0,0
run-2020-2-18-13-44-23.337707996,AGENT#c5c3e45e-5254-11ea-8cef-5b975608c71b,1,71,72,10,1.0,1.0,0
run-2020-2-18-13-44-23.337707996,AGENT#c5c3e756-5254-11ea-82bb-275bfbfb601a,1,71,72,10,1.0,1.0,0
run-2020-2-18-13-44-23.337707996,AGENT#c5ac047e-5254-11ea-bda7-93128a4a9381,45,28,73,10,1.0,1.0,0
run-2020-2-18-13-44-23.337707996,AGENT#c5c2aef4-5254-11ea-ab8e-dfbed6e940f9,4,69,73,10,1.0,1.0,0
run-2020-2-18-13-44-23.337707996,AGENT#c5c4928c-5254-11ea-9077-37d646871889,1,72,73,10,1.0,1.0,0
run-2020-2-18-13-44-23.337707996,AGENT#c5ac678e-5254-11ea-bbf8-af7722b43eff,45,29,74,10,1.0,1.0,0
run-2020-2-18-13-44-23.337707996,AGENT#c5c33c20-5254-11ea-879c-738b65cfabd1,4,70,74,10,1.0,1.0,0
run-2020-2-18-13-44-23.337707996,AGENT#c5c52210-5254-11ea-9916-93e11e217480,1,73,74,10,1.0,1.0,0
run-2020-2-18-13-44-23.337707996,AGENT#c5c5244a-5254-11ea-967a-b3e45f5d0c08,1,73,74,10,1.0,1.0,0
run-2020-2-18-13-44-23.337707996,AGENT#c5aabc9a-5254-11ea-a6f3-bb748c987eb0,50,25,75,10,1.0,1.0,0
run-2020-2-18-13-44-23.337707996,AGENT#c5ab9980-5254-11ea-bd1c-a73e183f5433,48,27,75,10,1.0,1.0,0
run-2020-2-18-13-44-23.337707996,AGENT#c5acd5b6-5254-11ea-b3d3-b3341fe9fac0,45,30,75,10,1.0,1.0,0
run-2020-2-18-13-44-23.337707996,AGENT#c5c5cd46-5254-11ea-9aa9-bb85db4ae718,1,74,75,10,1.0,1.0,0
run-2020-2-18-13-44-23.337707996,AGENT#c5acdac0-5254-11ea-8a2f-9f40eebe3e51,46,30,76,10,1.0,1.0,0
run-2020-2-18-13-44-23.337707996,AGENT#c5c65d06-5254-11ea-85a5-836b612aace3,1,75,76,10,1.0,1.0,0
run-2020-2-18-13-44-23.337707996,AGENT#c5c51f90-5254-11ea-a58c-2b1410aa5a29,5,73,78,10,1.0,1.0,0
run-2020-2-18-13-44-23.337707996,AGENT#c5c6f39c-5254-11ea-9b26-4ba172b7baa6,2,76,78,10,1.0,1.0,0
run-2020-2-18-13-44-23.337707996,AGENT#c5b321aa-5254-11ea-a2da-77139ee92858,35,44,79,10,1.0,1.0,0
run-2020-2-18-13-44-23.337707996,AGENT#c5c8328e-5254-11ea-b3ce-4379631d9921,1,78,79,10,1.0,1.0,0
run-2020-2-18-13-44-23.337707996,AGENT#c5af0188-5254-11ea-afa6-27a90c31be0d,45,35,80,10,1.0,1.0,0
run-2020-2-18-13-44-23.337707996,AGENT#c5c82b7c-5254-11ea-ae6e-c77767152742,3,78,81,10,1.0,1.0,0
run-2020-2-18-13-44-23.337707996,AGENT#c5c82e1a-5254-11ea-bcb6-cbda304e2b63,3,78,81,10,1.0,1.0,0
run-2020-2-18-13-44-23.337707996,AGENT#c5c8305e-5254-11ea-88d4-e7493e77913e,3,78,81,10,1.0,1.0,0
run-2020-2-18-13-44-23.337707996,AGENT#c5c834be-5254-11ea-bf63-eba79277ddb2,3,78,81,10,1.0,1.0,0
run-2020-2-18-13-44-23.337707996,AGENT#c5afd892-5254-11ea-ad94-0f5f03c30070,45,37,82,10,1.0,1.0,0
run-2020-2-18-13-44-23.337707996,AGENT#c5c661fc-5254-11ea-9164-eb15cfe139ce,7,75,82,10,1.0,1.0,0
run-2020-2-18-13-44-23.337707996,AGENT#c5c795ae-5254-11ea-ab99-9bf2f7464675,5,77,82,10,1.0,1.0,0
run-2020-2-18-13-44-23.337707996,AGENT#c5b055a6-5254-11ea-a72c-b3081fdebae3,45,38,83,10,1.0,1.0,0
run-2020-2-18-13-44-23.337707996,AGENT#c5be6f9c-5254-11ea-a1f0-e3c10e867bba,21,62,83,10,1.0,1.0,0
run-2020-2-18-13-44-23.337707996,AGENT#c5c8ccee-5254-11ea-b0a8-67a682977de0,5,79,84,10,1.0,1.0,0
run-2020-2-18-13-44-23.337707996,AGENT#c5ca0e60-5254-11ea-98e9-2787f03c30fd,3,81,84,10,1.0,1.0,0
run-2020-2-18-13-44-23.337707996,AGENT#c5cb5252-5254-11ea-9b31-5ff4c18424ee,1,83,84,10,1.0,1.0,0
run-2020-2-18-13-44-23.337707996,AGENT#c5cb5eb4-5254-11ea-b6d4-dfa7fc9657c8,1,83,84,10,1.0,1.0,0
run-2020-2-18-13-44-23.337707996,AGENT#c5b0cfc2-5254-11ea-87bf-cf5d28cf3419,46,39,85,10,1.0,1.0,0
run-2020-2-18-13-44-23.337707996,AGENT#c5ca0be0-5254-11ea-ba89-4328e4c82c63,4,81,85,10,1.0,1.0,0
run-2020-2-18-13-44-23.337707996,AGENT#c5cb5504-5254-11ea-a2b9-b74c6219fcdc,2,83,85,10,1.0,1.0,0
run-2020-2-18-13-44-23.337707996,AGENT#c5b13822-5254-11ea-962e-f3666acbfae5,46,40,86,10,1.0,1.0,0
run-2020-2-18-13-44-23.337707996,AGENT#c5b1ac1c-5254-11ea-805c-f7f7b2c50841,45,41,86,10,1.0,1.0,0
run-2020-2-18-13-44-23.337707996,AGENT#c5cb59f0-5254-11ea-ae53-7f195a72f274,3,83,86,10,1.0,1.0,0
run-2020-2-18-13-44-23.337707996,AGENT#c5cb5c48-5254-11ea-b328-e75cdb1592fe,3,83,86,10,1.0,1.0,0
run-2020-2-18-13-44-23.337707996,AGENT#c5cb6116-5254-11ea-9c2c-8b7ae3e659e5,3,83,86,10,1.0,1.0,0
run-2020-2-18-13-44-23.337707996,AGENT#c5b70982-5254-11ea-8d3a-7fbefe396f78,36,51,87,10,1.0,1.0,0
run-2020-2-18-13-44-23.337707996,AGENT#c5c5ca80-5254-11ea-b49a-c7974b494cd4,13,74,87,10,1.0,1.0,0
run-2020-2-18-13-44-23.337707996,AGENT#c5cb578e-5254-11ea-a185-e70ebc1ca3bf,4,83,87,10,1.0,1.0,0
run-2020-2-18-13-44-23.337707996,AGENT#c5cd6c18-5254-11ea-8ef4-8b4d64857038,1,86,87,10,1.0,1.0,0
run-2020-2-18-13-44-23.337707996,AGENT#c5cd70d2-5254-11ea-bc6b-535f90be28ff,1,86,87,10,1.0,1.0,0
run-2020-2-18-13-44-23.337707996,AGENT#c5b2a220-5254-11ea-9ac5-573a7100ad2c,45,43,88,10,1.0,1.0,0
run-2020-2-18-13-44-23.337707996,AGENT#c5b2a9dc-5254-11ea-bb50-a3b45544f747,45,43,88,10,1.0,1.0,0
run-2020-2-18-13-44-23.337707996,AGENT#c5b2ac3e-5254-11ea-a1e1-8744140481c5,45,43,88,10,1.0,1.0,0
run-2020-2-18-13-44-23.337707996,AGENT#c5c0fa64-5254-11ea-8319-ab46e09f719f,22,66,88,10,1.0,1.0,0
run-2020-2-18-13-44-23.337707996,AGENT#c5ccb660-5254-11ea-9c26-cf0a40b4116e,3,85,88,10,1.0,1.0,0
run-2020-2-18-13-44-23.337707996,AGENT#c5cd6718-5254-11ea-b02b-dbc276888993,2,86,88,10,1.0,1.0,0
run-2020-2-18-13-44-23.337707996,AGENT#c5ce20ae-5254-11ea-9b07-4b36d21aff1f,1,87,88,10,1.0,1.0,0
run-2020-2-18-13-44-23.337707996,AGENT#c5ce22fc-5254-11ea-9e54-376aa30d22fe,1,87,88,10,1.0,1.0,0
run-2020-2-18-13-44-23.337707996,AGENT#c5b329f2-5254-11ea-ad84-630529fd92b7,45,44,89,10,1.0,1.0,0
run-2020-2-18-13-44-23.337707996,AGENT#c5ce1e74-5254-11ea-8391-1bc50b93bcad,2,87,89,10,1.0,1.0,0
run-2020-2-18-13-44-23.337707996,AGENT#c5cefdbc-5254-11ea-99d0-c70525f48032,1,88,89,10,1.0,1.0,0
run-2020-2-18-13-44-23.337707996,AGENT#c5ccb89a-5254-11ea-87b1-176d57fb2d34,5,85,90,10,1.0,1.0,0
run-2020-2-18-13-44-23.337707996,AGENT#c5cd69b6-5254-11ea-b3f7-2fd041eb0e6d,4,86,90,10,1.0,1.0,0
run-2020-2-18-13-44-23.337707996,AGENT#c5cfb202-5254-11ea-9c41-cbf22f6976d9,2,89,91,10,1.0,1.0,0
run-2020-2-18-13-44-23.337707996,AGENT#c5b4a930-5254-11ea-a683-ef1b33aaa6e3,45,47,92,10,1.0,1.0,0
run-2020-2-18-13-44-23.337707996,AGENT#c5b4b02e-5254-11ea-a9b6-97d02587920b,45,47,92,10,1.0,1.0,0
run-2020-2-18-13-44-23.337707996,AGENT#c5cd6e70-5254-11ea-8ec9-db7444191ee2,6,86,92,10,1.0,1.0,0
run-2020-2-18-13-44-23.337707996,AGENT#c5ce173a-5254-11ea-b2ad-37c67c0de4fe,5,87,92,10,1.0,1.0,0
run-2020-2-18-13-44-23.337707996,AGENT#c5d0ee4c-5254-11ea-946d-ffaab85c2fb7,1,91,92,10,1.0,1.0,0
run-2020-2-18-13-44-23.337707996,AGENT#c5d1fcb0-5254-11ea-adc8-0f7e3c5b05a1,1,92,93,10,1.0,1.0,0
run-2020-2-18-13-44-23.337707996,AGENT#c5d20160-5254-11ea-ba56-1fa750d0be96,1,92,93,10,1.0,1.0,0
run-2020-2-18-13-44-23.337707996,AGENT#c5d1f7f6-5254-11ea-bbe5-070985110342,2,92,94,10,1.0,1.0,0
run-2020-2-18-13-44-23.337707996,AGENT#c5d2e300-5254-11ea-98c2-4f40d4789bb4,1,93,94,10,1.0,1.0,0
run-2020-2-18-13-44-23.337707996,AGENT#c5d2e5b2-5254-11ea-b424-8742eeacd31a,1,93,94,10,1.0,1.0,0
run-2020-2-18-13-44-23.337707996,AGENT#c5b67990-5254-11ea-b945-4f0a2227b9c7,45,50,95,10,1.0,1.0,0
run-2020-2-18-13-44-23.337707996,AGENT#c5d0f626-5254-11ea-b956-436f1b25e196,4,91,95,10,1.0,1.0,0
run-2020-2-18-13-44-23.337707996,AGENT#c5d1fa58-5254-11ea-94f8-9bcb6f2bad8d,3,92,95,10,1.0,1.0,0
run-2020-2-18-13-44-23.337707996,AGENT#c5d3ecaa-5254-11ea-9cc1-ebcc47197c75,1,94,95,10,1.0,1.0,0
run-2020-2-18-13-44-23.337707996,AGENT#c5d3efa2-5254-11ea-9e50-f30816799b08,1,94,95,10,1.0,1.0,0
run-2020-2-18-13-44-23.337707996,AGENT#c5d3f6e6-5254-11ea-bc46-0bfff7c58e94,1,94,95,10,1.0,1.0,0
run-2020-2-18-13-44-23.337707996,AGENT#c5b54390-5254-11ea-8737-73cd673002f2,48,48,96,10,1.0,1.0,0
run-2020-2-18-13-44-23.337707996,AGENT#c5d1ff12-5254-11ea-8b90-0fa14fecb449,4,92,96,10,1.0,1.0,0
run-2020-2-18-13-44-23.337707996,AGENT#c5d2e81e-5254-11ea-a6fa-7765cdc86d93,3,93,96,10,1.0,1.0,0
run-2020-2-18-13-44-23.337707996,AGENT#c5d4c0f8-5254-11ea-bbbc-ab8c742dd549,1,95,96,10,1.0,1.0,0
run-2020-2-18-13-44-23.337707996,AGENT#c5b5e57a-5254-11ea-907e-3357820b273a,48,49,97,10,1.0,1.0,0
run-2020-2-18-13-44-23.337707996,AGENT#c5b84450-5254-11ea-8b1d-43be411dabf8,44,53,97,10,1.0,1.0,0
run-2020-2-18-13-44-23.337707996,AGENT#c5d4bdd8-5254-11ea-b739-ef5879fce193,2,95,97,10,1.0,1.0,0
run-2020-2-18-13-44-23.337707996,AGENT#c5b4adf4-5254-11ea-ba8e-2b26b9a0367a,51,47,98,10,1.0,1.0,0
run-2020-2-18-13-44-23.337707996,AGENT#c5b83d84-5254-11ea-a633-43b87398cb40,45,53,98,10,1.0,1.0,0
run-2020-2-18-13-44-23.337707996,AGENT#c5d3f204-5254-11ea-a330-57152de6a3fb,4,94,98,10,1.0,1.0,0
run-2020-2-18-13-44-23.337707996,AGENT#c5d665a2-5254-11ea-bdd2-fb6db7ec84a9,1,97,98,10,1.0,1.0,0
run-2020-2-18-13-44-23.337707996,AGENT#c5d67fd8-5254-11ea-ae2d-37f882c6b1b1,1,97,98,10,1.0,1.0,0
run-2020-2-18-13-44-23.337707996,AGENT#c5d3f498-5254-11ea-8d14-e7f3764e7147,5,94,99,10,1.0,1.0,0
run-2020-2-18-13-44-23.337707996,AGENT#c5d4c382-5254-11ea-9d78-f7faf5a9c343,4,95,99,10,1.0,1.0,0
run-2020-2-18-13-44-23.337707996,AGENT#c5d66f52-5254-11ea-8d59-d7d1faba1bd2,2,97,99,10,1.0,1.0,0
run-2020-2-18-13-44-23.337707996,AGENT#c5d672b8-5254-11ea-acef-cff694aeee21,2,97,99,10,1.0,1.0,0
