RunID,Tick,ActiveAgentsPerTick
run-2020-2-18-13-44-23.337707996,0,14
run-2020-2-18-13-44-23.337707996,1,15
run-2020-2-18-13-44-23.337707996,2,17
run-2020-2-18-13-44-23.337707996,3,13
run-2020-2-18-13-44-23.337707996,4,16
run-2020-2-18-13-44-23.337707996,5,23
run-2020-2-18-13-44-23.337707996,6,24
run-2020-2-18-13-44-23.337707996,7,23
run-2020-2-18-13-44-23.337707996,8,22
run-2020-2-18-13-44-23.337707996,9,23
run-2020-2-18-13-44-23.337707996,10,23
run-2020-2-18-13-44-23.337707996,11,23
run-2020-2-18-13-44-23.337707996,12,26
run-2020-2-18-13-44-23.337707996,13,31
run-2020-2-18-13-44-23.337707996,14,31
run-2020-2-18-13-44-23.337707996,15,36
run-2020-2-18-13-44-23.337707996,16,36
run-2020-2-18-13-44-23.337707996,17,39
run-2020-2-18-13-44-23.337707996,18,40
run-2020-2-18-13-44-23.337707996,19,41
run-2020-2-18-13-44-23.337707996,20,41
run-2020-2-18-13-44-23.337707996,21,41
run-2020-2-18-13-44-23.337707996,22,45
run-2020-2-18-13-44-23.337707996,23,42
run-2020-2-18-13-44-23.337707996,24,42
run-2020-2-18-13-44-23.337707996,25,47
run-2020-2-18-13-44-23.337707996,26,48
run-2020-2-18-13-44-23.337707996,27,50
run-2020-2-18-13-44-23.337707996,28,50
run-2020-2-18-13-44-23.337707996,29,50
run-2020-2-18-13-44-23.337707996,30,52
run-2020-2-18-13-44-23.337707996,31,51
run-2020-2-18-13-44-23.337707996,32,51
run-2020-2-18-13-44-23.337707996,33,49
run-2020-2-18-13-44-23.337707996,34,49
run-2020-2-18-13-44-23.337707996,35,48
run-2020-2-18-13-44-23.337707996,36,50
run-2020-2-18-13-44-23.337707996,37,51
run-2020-2-18-13-44-23.337707996,38,50
run-2020-2-18-13-44-23.337707996,39,51
run-2020-2-18-13-44-23.337707996,40,52
run-2020-2-18-13-44-23.337707996,41,56
run-2020-2-18-13-44-23.337707996,42,57
run-2020-2-18-13-44-23.337707996,43,58
run-2020-2-18-13-44-23.337707996,44,58
run-2020-2-18-13-44-23.337707996,45,60
run-2020-2-18-13-44-23.337707996,46,58
run-2020-2-18-13-44-23.337707996,47,61
run-2020-2-18-13-44-23.337707996,48,61
run-2020-2-18-13-44-23.337707996,49,62
run-2020-2-18-13-44-23.337707996,50,63
run-2020-2-18-13-44-23.337707996,51,66
run-2020-2-18-13-44-23.337707996,52,67
run-2020-2-18-13-44-23.337707996,53,70
run-2020-2-18-13-44-23.337707996,54,71
run-2020-2-18-13-44-23.337707996,55,70
run-2020-2-18-13-44-23.337707996,56,70
run-2020-2-18-13-44-23.337707996,57,70
run-2020-2-18-13-44-23.337707996,58,66
run-2020-2-18-13-44-23.337707996,59,62
run-2020-2-18-13-44-23.337707996,60,57
run-2020-2-18-13-44-23.337707996,61,55
run-2020-2-18-13-44-23.337707996,62,58
run-2020-2-18-13-44-23.337707996,63,59
run-2020-2-18-13-44-23.337707996,64,57
run-2020-2-18-13-44-23.337707996,65,54
run-2020-2-18-13-44-23.337707996,66,54
run-2020-2-18-13-44-23.337707996,67,53
run-2020-2-18-13-44-23.337707996,68,50
run-2020-2-18-13-44-23.337707996,69,49
run-2020-2-18-13-44-23.337707996,70,49
run-2020-2-18-13-44-23.337707996,71,51
run-2020-2-18-13-44-23.337707996,72,50
run-2020-2-18-13-44-23.337707996,73,49
run-2020-2-18-13-44-23.337707996,74,48
run-2020-2-18-13-44-23.337707996,75,48
run-2020-2-18-13-44-23.337707996,76,47
run-2020-2-18-13-44-23.337707996,77,47
run-2020-2-18-13-44-23.337707996,78,52
run-2020-2-18-13-44-23.337707996,79,51
run-2020-2-18-13-44-23.337707996,80,49
run-2020-2-18-13-44-23.337707996,81,50
run-2020-2-18-13-44-23.337707996,82,48
run-2020-2-18-13-44-23.337707996,83,52
run-2020-2-18-13-44-23.337707996,84,51
run-2020-2-18-13-44-23.337707996,85,50
run-2020-2-18-13-44-23.337707996,86,52
run-2020-2-18-13-44-23.337707996,87,53
run-2020-2-18-13-44-23.337707996,88,51
run-2020-2-18-13-44-23.337707996,89,44
run-2020-2-18-13-44-23.337707996,90,42
run-2020-2-18-13-44-23.337707996,91,45
run-2020-2-18-13-44-23.337707996,92,51
run-2020-2-18-13-44-23.337707996,93,49
run-2020-2-18-13-44-23.337707996,94,53
run-2020-2-18-13-44-23.337707996,95,54
run-2020-2-18-13-44-23.337707996,96,49
run-2020-2-18-13-44-23.337707996,97,54
run-2020-2-18-13-44-23.337707996,98,54
run-2020-2-18-13-44-23.337707996,99,56
run-2020-2-18-13-44-23.337707996,100,52
