Source,Target
a2899e0a-5256-11ea-aeee-0f76b62bd7b9,a28ad1f8-5256-11ea-b1bf-2be35febe073
a28a5c0a-5256-11ea-ae5e-334c7809d620,a28ad568-5256-11ea-a6d6-2bfce6d6fd19
a28a714a-5256-11ea-a09c-db9f4be7d46a,a28add2e-5256-11ea-9be9-535d7e2b3e27
a288e302-5256-11ea-8970-cff7e34d25f1,a28ae148-5256-11ea-803f-c76cbf645ae6
a289234e-5256-11ea-81fb-73ba62695472,a28b006a-5256-11ea-aee6-a3e6ae0161cd
a289056c-5256-11ea-89c8-274a26c8e00a,a28b1794-5256-11ea-8bf0-33a45877d4d8
a28934a6-5256-11ea-affd-d7ca6e457af8,a28b1bcc-5256-11ea-9210-b330ee46d72e
a28a1bd2-5256-11ea-bda1-3f5ce777737b,a28b26e4-5256-11ea-b924-db9b7e348939
a289ae90-5256-11ea-bd37-63ef049e2ba3,a28b2b1c-5256-11ea-bc48-275e60dd2b73
a28997ca-5256-11ea-9bce-2b1141ad8dc5,a28b3f30-5256-11ea-beee-fb139c011b9d
a28b006a-5256-11ea-aee6-a3e6ae0161cd,a28b46c4-5256-11ea-900d-4faa6d79f671
a2886b66-5256-11ea-8956-9771112f2a99,a28b5b14-5256-11ea-91e7-1f1035e796a4
a28a3e28-5256-11ea-8ad4-8b5230e0cc87,a28b6320-5256-11ea-bcc7-43ad31314708
a28b006a-5256-11ea-aee6-a3e6ae0161cd,a28b6b68-5256-11ea-8f32-033e38026fe0
a289dc1c-5256-11ea-82b3-a7f8d9cf4d52,a28b72d4-5256-11ea-b912-0b40a25ead2d
a2886fe4-5256-11ea-8027-dbbe4d9edc1c,a28b82b0-5256-11ea-91ab-d7d319f3f320
a28a8a04-5256-11ea-95b1-bfe4654e012a,a28b9aac-5256-11ea-a08f-a37fae933438
a28a1bd2-5256-11ea-bda1-3f5ce777737b,a28ba650-5256-11ea-9c7e-bb4de6848034
a2894982-5256-11ea-9a40-cbf5b09a56d7,a28baa24-5256-11ea-9308-bbfbf7b795b9
a28b1794-5256-11ea-8bf0-33a45877d4d8,a28bb550-5256-11ea-984e-efb586b97ff4
a289e464-5256-11ea-81bf-ebda097bd69a,a28bca2c-5256-11ea-964a-d7b97c681255
a288e7a8-5256-11ea-94ca-f7ecef0a720c,a28be2aa-5256-11ea-9938-1327f334690c
a2883c40-5256-11ea-8c20-e77da3cc6ae0,a28be7aa-5256-11ea-af15-3b43056f53d5
a28a85cc-5256-11ea-9204-5f22b793a415,a28beffc-5256-11ea-82b3-3f5e3f4ded4a
a288cb88-5256-11ea-befc-63e979db6e56,a28bfcc2-5256-11ea-9555-7fe118fb33f5
a28888f8-5256-11ea-a8e7-8f7ad56af59b,a28c09f6-5256-11ea-8b15-370605176d83
a289dc1c-5256-11ea-82b3-a7f8d9cf4d52,a28c1202-5256-11ea-bc5c-132e3d3108b2
a2899216-5256-11ea-a630-a36ab72029e2,a28c366a-5256-11ea-83ea-bbd4f8097f7c
a2898f1e-5256-11ea-a39f-9f6215e8bc50,a28c2f12-5256-11ea-b6a1-c3f7a4a45562
a28ad568-5256-11ea-a6d6-2bfce6d6fd19,a28c4c0e-5256-11ea-b46f-b7144c9264d4
a288f91e-5256-11ea-a37d-1b04fe62cb30,a28c57bc-5256-11ea-9105-5720bb4a3852
a289fd96-5256-11ea-82ab-af6e9f99f74e,a28c5d20-5256-11ea-a22e-5ba33fc639ad
a28bca2c-5256-11ea-964a-d7b97c681255,a28c52d0-5256-11ea-93dd-0b0110e6d361
a28be7aa-5256-11ea-af15-3b43056f53d5,a28c7be8-5256-11ea-accb-9f5a845fdb00
a28a1bd2-5256-11ea-bda1-3f5ce777737b,a28c80b6-5256-11ea-8f6d-c7c338634411
a289234e-5256-11ea-81fb-73ba62695472,a28ca15e-5256-11ea-bbfe-c75e4eff1212
a289459a-5256-11ea-a7a3-ff5dbdb8e0f2,a28ca6d6-5256-11ea-96ba-831b4ae7b19a
a28a26b8-5256-11ea-ae3b-dfc34865ab86,a28caa78-5256-11ea-bc34-4f0333864f2d
a28b5b14-5256-11ea-91e7-1f1035e796a4,a28cafbe-5256-11ea-8f9c-d30b7b765f27
a28b72d4-5256-11ea-b912-0b40a25ead2d,a28cb4dc-5256-11ea-af17-9be5d5efdabf
a28a69ca-5256-11ea-9b46-57e58eccd26f,a28cbf36-5256-11ea-9d98-b34627bf8583
a2899e0a-5256-11ea-aeee-0f76b62bd7b9,a28cc3e6-5256-11ea-890e-3b1a60eacb48
a28c09f6-5256-11ea-8b15-370605176d83,a28cc7c4-5256-11ea-bd9c-07328b1257fb
a28b1bcc-5256-11ea-9210-b330ee46d72e,a28ceaf6-5256-11ea-a071-2bb5f4e6fe34
a2898f1e-5256-11ea-a39f-9f6215e8bc50,a28cf096-5256-11ea-97bd-c744af280b78
a288f91e-5256-11ea-a37d-1b04fe62cb30,a28cf51e-5256-11ea-b364-e74ba98b6a56
a28a2e2e-5256-11ea-869c-3750eb8d91f0,a28cf938-5256-11ea-80e3-775f5872b8c7
a28cf938-5256-11ea-80e3-775f5872b8c7,a28d05e0-5256-11ea-99ef-b762315dc6e1
a28c57bc-5256-11ea-9105-5720bb4a3852,a28d0bd0-5256-11ea-aa93-2f0cd7c52704
a28b1bcc-5256-11ea-9210-b330ee46d72e,a28d0fa4-5256-11ea-97dc-b7da372c2fb4
a28b46c4-5256-11ea-900d-4faa6d79f671,a28d1472-5256-11ea-8bdb-5325e7f894fb
a28ad568-5256-11ea-a6d6-2bfce6d6fd19,a28d34ac-5256-11ea-bb73-67e851ace1d4
a28c4c0e-5256-11ea-b46f-b7144c9264d4,a28d39a2-5256-11ea-acf7-5b79adbee760
a289056c-5256-11ea-89c8-274a26c8e00a,a28d310a-5256-11ea-a5eb-43330e17fb51
a28b72d4-5256-11ea-b912-0b40a25ead2d,a28d3d8a-5256-11ea-8028-d7a9cdd6270f
a28d3d8a-5256-11ea-8028-d7a9cdd6270f,a28d488e-5256-11ea-8614-1315322247fe
a28c57bc-5256-11ea-9105-5720bb4a3852,a28d51bc-5256-11ea-aaf3-8be3f2e49276
a2886b66-5256-11ea-8956-9771112f2a99,a28d5694-5256-11ea-8bd8-3b12553eddde
a28be2aa-5256-11ea-9938-1327f334690c,a28d5a68-5256-11ea-9e5a-cb51c2fc5187
a289fd96-5256-11ea-82ab-af6e9f99f74e,a28d83ee-5256-11ea-a8ae-cb41a8e6219e
a288f91e-5256-11ea-a37d-1b04fe62cb30,a28d7ea8-5256-11ea-bb0b-9bb6eee774cf
a288cb88-5256-11ea-befc-63e979db6e56,a28d87ae-5256-11ea-8fc8-1f64a5e66d85
a289b2fa-5256-11ea-8194-0b61b4112e72,a28d9366-5256-11ea-a2a1-ef86d2461635
a28b1794-5256-11ea-8bf0-33a45877d4d8,a28d9988-5256-11ea-b351-8b9061fb057d
a2887444-5256-11ea-9612-b71555a7d764,a28da2d4-5256-11ea-a1b0-6f690bcec129
a2898f1e-5256-11ea-a39f-9f6215e8bc50,a28d9f3c-5256-11ea-8c87-ef1fea0057e0
a2887926-5256-11ea-b591-6f3dceb9f9c5,a28dc0fc-5256-11ea-903f-7fb86872d292
a289e464-5256-11ea-81bf-ebda097bd69a,a28dc8e0-5256-11ea-bf87-cf22a4ab8626
a289dc1c-5256-11ea-82b3-a7f8d9cf4d52,a28dce4e-5256-11ea-b459-3b8909b0d9ed
a28be2aa-5256-11ea-9938-1327f334690c,a28dd632-5256-11ea-af7e-cb550c8d6fc2
a28d05e0-5256-11ea-99ef-b762315dc6e1,a28de168-5256-11ea-8ddf-4fb699057449
a28ad568-5256-11ea-a6d6-2bfce6d6fd19,a28de6a4-5256-11ea-ab5f-17ac54d5afd7
a28d9366-5256-11ea-a2a1-ef86d2461635,a28dea6e-5256-11ea-883b-0bb73b18e966
a2883c40-5256-11ea-8c20-e77da3cc6ae0,a28e085a-5256-11ea-8afd-cb59ab20349e
a28b72d4-5256-11ea-b912-0b40a25ead2d,a28e0c42-5256-11ea-8ce5-abc2b60b6adf
a288cb88-5256-11ea-befc-63e979db6e56,a28e1c8c-5256-11ea-97d8-1304b7a00a17
a28a5c0a-5256-11ea-ae5e-334c7809d620,a28e2650-5256-11ea-9e03-f743d35628da
a28d0fa4-5256-11ea-97dc-b7da372c2fb4,a28e3136-5256-11ea-9c11-8b13ddc537a2
a2886b66-5256-11ea-8956-9771112f2a99,a28e3596-5256-11ea-b798-e34ea114fe9b
a28de6a4-5256-11ea-ab5f-17ac54d5afd7,a28e3e9c-5256-11ea-a48b-f7b9d38482ef
a28b5b14-5256-11ea-91e7-1f1035e796a4,a28e4ae0-5256-11ea-8aa3-7f1b7f1a8733
a28ad1f8-5256-11ea-b1bf-2be35febe073,a28e57b0-5256-11ea-8890-db84a62ace2b
a28a3e28-5256-11ea-8ad4-8b5230e0cc87,a28e6930-5256-11ea-bb9c-97eac35245a7
a28a341e-5256-11ea-bd43-9b6172e00f5a,a28e82a8-5256-11ea-93ff-5b39da9780df
a289056c-5256-11ea-89c8-274a26c8e00a,a28e6d40-5256-11ea-8d03-83f4aa866e94
a28d7ea8-5256-11ea-bb0b-9bb6eee774cf,a28e7eac-5256-11ea-aa62-57fcf6c9b7f5
a28d488e-5256-11ea-8614-1315322247fe,a28e8ba4-5256-11ea-b785-cf288142192e
a2886fe4-5256-11ea-8027-dbbe4d9edc1c,a28e9ec8-5256-11ea-b872-f36a28facd37
a2883c40-5256-11ea-8c20-e77da3cc6ae0,a28e9342-5256-11ea-8e04-2fc6cd95f80e
a28ad568-5256-11ea-a6d6-2bfce6d6fd19,a28ec6f0-5256-11ea-9703-5381af752e6f
a28928f8-5256-11ea-bb29-ffa8617b3d5c,a28ecb1e-5256-11ea-bd21-e3dde8bf1c0e
a28b82b0-5256-11ea-91ab-d7d319f3f320,a28ed514-5256-11ea-86ec-c779a25e251c
a288cb88-5256-11ea-befc-63e979db6e56,a28edcee-5256-11ea-99e6-e3e4d128e2cf
a28e6d40-5256-11ea-8d03-83f4aa866e94,a28ee0ae-5256-11ea-a4a2-0741117b3a2c
a288c6e2-5256-11ea-ae23-d7fbc2325323,a28ed910-5256-11ea-9a0e-bba699dea5f5
a28e4ae0-5256-11ea-8aa3-7f1b7f1a8733,a28ef396-5256-11ea-af39-b3141bb15f69
a28d9f3c-5256-11ea-8c87-ef1fea0057e0,a28ef922-5256-11ea-add1-e7ccdfdf9809
a288b5ee-5256-11ea-88c8-fbd52213c442,a28f1a38-5256-11ea-993f-3b86e489eab7
a289234e-5256-11ea-81fb-73ba62695472,a28f299c-5256-11ea-9b0f-0fecce4c19d4
a28dce4e-5256-11ea-b459-3b8909b0d9ed,a28f31c6-5256-11ea-8f79-5b7326e6cb82
a28e6930-5256-11ea-bb9c-97eac35245a7,a28f348c-5256-11ea-84e7-fb1be0962296
a28a69ca-5256-11ea-9b46-57e58eccd26f,a28f3e96-5256-11ea-9a24-df1ae45c3fc9
a288c6e2-5256-11ea-ae23-d7fbc2325323,a28f3a90-5256-11ea-af53-df75485cf41d
a288b5ee-5256-11ea-88c8-fbd52213c442,a28f41de-5256-11ea-828b-238a0545c739
a288c6e2-5256-11ea-ae23-d7fbc2325323,a28f4b02-5256-11ea-b48e-470ea79ad01f
a288db0a-5256-11ea-ad9b-e707a7b8ecf2,a28f633a-5256-11ea-b55b-9f0042e28b9b
a28e1c8c-5256-11ea-97d8-1304b7a00a17,a28f6a56-5256-11ea-82af-f3206b7a0ee8
a28bfcc2-5256-11ea-9555-7fe118fb33f5,a28f7b4a-5256-11ea-9bd4-0baab9172869
a28cbf36-5256-11ea-9d98-b34627bf8583,a28f813a-5256-11ea-9637-df6ecab14a2c
a28c5d20-5256-11ea-a22e-5ba33fc639ad,a28f84fa-5256-11ea-87ff-73cd4bd1d297
a28d0bd0-5256-11ea-aa93-2f0cd7c52704,a28f89a0-5256-11ea-89cc-23f73598e026
a28cc3e6-5256-11ea-890e-3b1a60eacb48,a28f8e64-5256-11ea-94dd-cf38f52cc3aa
a28f41de-5256-11ea-828b-238a0545c739,a28fac28-5256-11ea-bbc2-a7d63eac90db
a288e7a8-5256-11ea-94ca-f7ecef0a720c,a28fb358-5256-11ea-9fa8-c3ed2cf558c6
a28ab36c-5256-11ea-a702-fb7a7a85680d,a28f9dc8-5256-11ea-be27-77673222439e
a289056c-5256-11ea-89c8-274a26c8e00a,a28fc17c-5256-11ea-8e2b-77ba487aa262
a28cbf36-5256-11ea-9d98-b34627bf8583,a28fc79e-5256-11ea-a876-67521f9e9600
a28d0bd0-5256-11ea-aa93-2f0cd7c52704,a28fcd70-5256-11ea-a39b-473282bafbfc
a2899e0a-5256-11ea-aeee-0f76b62bd7b9,a28fd75c-5256-11ea-b73a-1f08090fc6ee
a288f91e-5256-11ea-a37d-1b04fe62cb30,a28fdb26-5256-11ea-8fbe-637920223dff
a28bca2c-5256-11ea-964a-d7b97c681255,a28ffb7e-5256-11ea-9f70-8b6d09643893
a28f41de-5256-11ea-828b-238a0545c739,a2900128-5256-11ea-98ee-539ab1464ed8
a28b72d4-5256-11ea-b912-0b40a25ead2d,a2900772-5256-11ea-ad4e-0fea8955d34c
a28e6930-5256-11ea-bb9c-97eac35245a7,a2900eb6-5256-11ea-aed8-c368fb8b684e
a288b5ee-5256-11ea-88c8-fbd52213c442,a2901528-5256-11ea-ad26-67194295f334
a28f299c-5256-11ea-9b0f-0fecce4c19d4,a2901d70-5256-11ea-a826-1fe4f925279c
a28a5fac-5256-11ea-a782-e3414efbfe2a,a2902342-5256-11ea-a554-f31b2a334302
a28939e2-5256-11ea-8d35-8305ce2fe551,a290270c-5256-11ea-9a79-4fddf3fc2965
a28a69ca-5256-11ea-9b46-57e58eccd26f,a2904476-5256-11ea-bfcd-5b1f62724e15
a28ffb7e-5256-11ea-9f70-8b6d09643893,a2904ae8-5256-11ea-ba6e-dfc00dcbea4d
a290270c-5256-11ea-9a79-4fddf3fc2965,a2904ed0-5256-11ea-b02b-73e1df563ef4
a28a3e28-5256-11ea-8ad4-8b5230e0cc87,a2905ae2-5256-11ea-9402-578c35214945
a28c7be8-5256-11ea-accb-9f5a845fdb00,a29065a0-5256-11ea-9961-7f88427f9a4d
a28b1bcc-5256-11ea-9210-b330ee46d72e,a2906a50-5256-11ea-a3f9-0ff09b996c82
a28934a6-5256-11ea-affd-d7ca6e457af8,a2906ece-5256-11ea-8995-c7242480ab99
a28b6b68-5256-11ea-8f32-033e38026fe0,a29077de-5256-11ea-a0fc-9f0a7e91d6c8
a28f7b4a-5256-11ea-9bd4-0baab9172869,a2908f76-5256-11ea-a96d-07053d7e5670
a28b82b0-5256-11ea-91ab-d7d319f3f320,a2909638-5256-11ea-85a6-3b43ec779f1f
a28cf938-5256-11ea-80e3-775f5872b8c7,a2909e30-5256-11ea-9f47-635a1e63394d
a28f348c-5256-11ea-84e7-fb1be0962296,a290a4b6-5256-11ea-9cfa-8b1347c95ae5
a28f4b02-5256-11ea-b48e-470ea79ad01f,a290b0a0-5256-11ea-9916-2bd39ba748ca
a288c6e2-5256-11ea-ae23-d7fbc2325323,a290b73a-5256-11ea-b773-27dea1f9dd9a
a28bfcc2-5256-11ea-9555-7fe118fb33f5,a290c090-5256-11ea-9e98-3b0770b7b894
a28b5b14-5256-11ea-91e7-1f1035e796a4,a290c8e2-5256-11ea-a9e4-2762036012ca
a290c090-5256-11ea-9e98-3b0770b7b894,a290eda4-5256-11ea-9db3-3302347416df
a28f8e64-5256-11ea-94dd-cf38f52cc3aa,a290f38a-5256-11ea-9fae-2fff6250ae3c
a28b72d4-5256-11ea-b912-0b40a25ead2d,a290fb1e-5256-11ea-be9f-3f98cd6cbc80
a28e3596-5256-11ea-b798-e34ea114fe9b,a2910168-5256-11ea-a9cc-930c356e04f2
a2909638-5256-11ea-85a6-3b43ec779f1f,a2910762-5256-11ea-bec1-5bda630d2b9d
a28dc0fc-5256-11ea-903f-7fb86872d292,a2910bc2-5256-11ea-8250-f714231752ce
a2906ece-5256-11ea-8995-c7242480ab99,a29127ec-5256-11ea-9d49-1725138c13ed
a28b82b0-5256-11ea-91ab-d7d319f3f320,a2912cba-5256-11ea-90a9-03eee71acdc9
a28a341e-5256-11ea-bd43-9b6172e00f5a,a2913c00-5256-11ea-9dbf-ab2266f33b76
a28de6a4-5256-11ea-ab5f-17ac54d5afd7,a2914952-5256-11ea-a1e4-4f494cd663b8
a290c8e2-5256-11ea-a9e4-2762036012ca,a2914e84-5256-11ea-a966-9fe436f2f808
a28dc8e0-5256-11ea-bf87-cf22a4ab8626,a291569a-5256-11ea-aaf4-cfbdcf75c914
a28add2e-5256-11ea-9be9-535d7e2b3e27,a2915dca-5256-11ea-a61e-337e260ea13b
a290b73a-5256-11ea-b773-27dea1f9dd9a,a2916446-5256-11ea-9eb6-dbb2adce2e95
a28cf938-5256-11ea-80e3-775f5872b8c7,a2917ac6-5256-11ea-9c77-87394764ffb1
a28cf51e-5256-11ea-b364-e74ba98b6a56,a29181a6-5256-11ea-b566-c788aa4b4c31
a28f89a0-5256-11ea-89cc-23f73598e026,a291885e-5256-11ea-a487-f795acd5b90a
a28f633a-5256-11ea-b55b-9f0042e28b9b,a291a0fa-5256-11ea-b7f8-47d845d36f1a
a288f91e-5256-11ea-a37d-1b04fe62cb30,a291a762-5256-11ea-a9ac-076e739542e3
a28fb358-5256-11ea-9fa8-c3ed2cf558c6,a291ac9e-5256-11ea-92fa-af41958c6339
a28de6a4-5256-11ea-ab5f-17ac54d5afd7,a291b22a-5256-11ea-b481-33f1f20f998c
a2910bc2-5256-11ea-8250-f714231752ce,a291b6ee-5256-11ea-b04a-87cac2778158
a28ed910-5256-11ea-9a0e-bba699dea5f5,a291c6fc-5256-11ea-a3c4-e779c114701c
a2913c00-5256-11ea-9dbf-ab2266f33b76,a291dd90-5256-11ea-a5b2-230e5337fbe9
a28d3d8a-5256-11ea-8028-d7a9cdd6270f,a291d516-5256-11ea-b6df-4bcc833ff0b4
a28ad1f8-5256-11ea-b1bf-2be35febe073,a292059a-5256-11ea-929a-8f9129cb49b2
a28baa24-5256-11ea-9308-bbfbf7b795b9,a2920b26-5256-11ea-aa8b-2f98c7bdfad9
a28a341e-5256-11ea-bd43-9b6172e00f5a,a292104e-5256-11ea-a8d9-0b4fa5d14afb
a2910762-5256-11ea-bec1-5bda630d2b9d,a29216ac-5256-11ea-b5a7-330f1eef71f3
a292059a-5256-11ea-929a-8f9129cb49b2,a2921b70-5256-11ea-8392-3fe50fc911cb
a290a4b6-5256-11ea-9cfa-8b1347c95ae5,a2921fda-5256-11ea-aa58-a3e6f7818021
a28fac28-5256-11ea-bbc2-a7d63eac90db,a2922e08-5256-11ea-bedd-7b377dd3d693
a289dc1c-5256-11ea-82b3-a7f8d9cf4d52,a29233ee-5256-11ea-b52a-87d17805ca8b
a291885e-5256-11ea-a487-f795acd5b90a,a2924fa0-5256-11ea-ba60-478b1949df59
a291569a-5256-11ea-aaf4-cfbdcf75c914,a29260d0-5256-11ea-a699-7ba918253c6f
a28cc7c4-5256-11ea-bd9c-07328b1257fb,a2926a76-5256-11ea-b6ff-0b33b188cc8b
a290a4b6-5256-11ea-9cfa-8b1347c95ae5,a2926f58-5256-11ea-b697-0b1dc4537fb0
a28ec6f0-5256-11ea-9703-5381af752e6f,a292793a-5256-11ea-a19c-439ad615541d
a28ba650-5256-11ea-9c7e-bb4de6848034,a292749e-5256-11ea-aae1-4f6fb1c390be
a2913c00-5256-11ea-9dbf-ab2266f33b76,a2926580-5256-11ea-86bb-57d2b249bd63
a28be2aa-5256-11ea-9938-1327f334690c,a2928290-5256-11ea-b5cb-3f54b9c4729c
a28be2aa-5256-11ea-9938-1327f334690c,a292b260-5256-11ea-bcd0-d773379e20c1
a28add2e-5256-11ea-9be9-535d7e2b3e27,a292b7ba-5256-11ea-981a-8faed8de5c5f
a28b72d4-5256-11ea-b912-0b40a25ead2d,a292c372-5256-11ea-a813-bb7b0ca2936a
a28b72d4-5256-11ea-b912-0b40a25ead2d,a292d0ba-5256-11ea-a468-a3c29e3d2403
a2887926-5256-11ea-b591-6f3dceb9f9c5,a292c746-5256-11ea-b410-17ef10d0b075
a28f299c-5256-11ea-9b0f-0fecce4c19d4,a292cc50-5256-11ea-a0fe-13faf0ef8304
a290b73a-5256-11ea-b773-27dea1f9dd9a,a292bd8c-5256-11ea-8c61-f71736857171
a2898f1e-5256-11ea-a39f-9f6215e8bc50,a292d8d0-5256-11ea-91bf-67ee858e43ee
a28f84fa-5256-11ea-87ff-73cd4bd1d297,a2930094-5256-11ea-944f-2b9039fb2085
a28f31c6-5256-11ea-8f79-5b7326e6cb82,a293051c-5256-11ea-9ef4-3b208cb36703
a28f633a-5256-11ea-b55b-9f0042e28b9b,a2931782-5256-11ea-af3b-aff8d69d3363
a2915dca-5256-11ea-a61e-337e260ea13b,a2931caa-5256-11ea-8292-ab2a9a9b9a86
a28f7b4a-5256-11ea-9bd4-0baab9172869,a29322d6-5256-11ea-aa76-2bb936fbf3a7
a28c2f12-5256-11ea-b6a1-c3f7a4a45562,a2932786-5256-11ea-be68-8325e07248a7
a2917ac6-5256-11ea-9c77-87394764ffb1,a2932be6-5256-11ea-8a50-03469b78fe64
a28e8ba4-5256-11ea-b785-cf288142192e,a2933564-5256-11ea-8552-2307c4cafee4
a28de168-5256-11ea-8ddf-4fb699057449,a2934edc-5256-11ea-a84f-37dc78c2a650
a28a8dd8-5256-11ea-9e64-ffd99f0f280e,a29352d8-5256-11ea-a72a-07f54b80c3b2
a2900128-5256-11ea-98ee-539ab1464ed8,a2936458-5256-11ea-9529-b7fba2a93dff
a28dea6e-5256-11ea-883b-0bb73b18e966,a2936cb4-5256-11ea-bb4b-a78af9e10bfb
a28c4c0e-5256-11ea-b46f-b7144c9264d4,a293718c-5256-11ea-a88a-7ffaa43ac797
a289fd96-5256-11ea-82ab-af6e9f99f74e,a2937a6a-5256-11ea-8bbc-1be93bb0384c
a2921b70-5256-11ea-8392-3fe50fc911cb,a29383f2-5256-11ea-9e07-5bbd34b25302
a28c57bc-5256-11ea-9105-5720bb4a3852,a2938ee2-5256-11ea-9ce4-1bc073aae834
a28b6b68-5256-11ea-8f32-033e38026fe0,a2939f40-5256-11ea-b76a-8ffe63e3dfb6
a28f7b4a-5256-11ea-9bd4-0baab9172869,a293bb6a-5256-11ea-a70c-c301f1866d3b
a28934a6-5256-11ea-affd-d7ca6e457af8,a293c0d8-5256-11ea-8eeb-d329b17112f2
a29260d0-5256-11ea-a699-7ba918253c6f,a293c678-5256-11ea-9cf0-cb54ba8d3716
a28997ca-5256-11ea-9bce-2b1141ad8dc5,a293cb32-5256-11ea-b9ed-8f98d884d8ff
a2936458-5256-11ea-9529-b7fba2a93dff,a293d1cc-5256-11ea-b592-cf662155adf2
a28e82a8-5256-11ea-93ff-5b39da9780df,a293d988-5256-11ea-86e6-e3a4551ffd97
a28fcd70-5256-11ea-a39b-473282bafbfc,a293e3ce-5256-11ea-9160-4b12335b0e04
a28de6a4-5256-11ea-ab5f-17ac54d5afd7,a293ec70-5256-11ea-ac37-a3910413a630
a28d87ae-5256-11ea-8fc8-1f64a5e66d85,a2940944-5256-11ea-98cf-87818922e590
a28ecb1e-5256-11ea-bd21-e3dde8bf1c0e,a2941092-5256-11ea-82f3-439b718b6d0a
a28d39a2-5256-11ea-acf7-5b79adbee760,a294177c-5256-11ea-a3fa-bb033b261107
a2910bc2-5256-11ea-8250-f714231752ce,a2942424-5256-11ea-ad51-1f8ead11058a
a289ae90-5256-11ea-bd37-63ef049e2ba3,a2942906-5256-11ea-b959-6f8360bbf8c7
a28e9ec8-5256-11ea-b872-f36a28facd37,a294313a-5256-11ea-a1aa-a7a39ee38359
a29233ee-5256-11ea-b52a-87d17805ca8b,a29439b4-5256-11ea-9421-ef0aee93cb44
a29439b4-5256-11ea-9421-ef0aee93cb44,a2944e7c-5256-11ea-99f0-53eed9351795
a290a4b6-5256-11ea-9cfa-8b1347c95ae5,a29463c6-5256-11ea-be72-3374b2e7a2ad
a292104e-5256-11ea-a8d9-0b4fa5d14afb,a2946920-5256-11ea-b9e8-7724d1626db8
a288c6e2-5256-11ea-ae23-d7fbc2325323,a294726c-5256-11ea-8c7b-234c00d27317
a293e3ce-5256-11ea-9160-4b12335b0e04,a2947956-5256-11ea-86fb-a75aced07362
a28ca6d6-5256-11ea-96ba-831b4ae7b19a,a2947dc0-5256-11ea-ae54-37cc00ac74a1
a28d3d8a-5256-11ea-8028-d7a9cdd6270f,a294935a-5256-11ea-b946-d380714d7b13
a28d9988-5256-11ea-b351-8b9061fb057d,a29498c8-5256-11ea-ac5a-df933586162e
a293c678-5256-11ea-9cf0-cb54ba8d3716,a294a96c-5256-11ea-9393-a3daed4bcba0
a28e57b0-5256-11ea-8890-db84a62ace2b,a294b1e6-5256-11ea-8260-9bd7b7dfd5fd
a28b72d4-5256-11ea-b912-0b40a25ead2d,a294ce1a-5256-11ea-b388-7fd4a7e0905b
a289dc1c-5256-11ea-82b3-a7f8d9cf4d52,a294d2a2-5256-11ea-9dbb-cb73945866aa
a28997ca-5256-11ea-9bce-2b1141ad8dc5,a294dfe0-5256-11ea-b40c-e72310c4f3e8
a293ec70-5256-11ea-ac37-a3910413a630,a294e5b2-5256-11ea-a2ac-0f54e3f43a62
a28fac28-5256-11ea-bbc2-a7d63eac90db,a294ea6c-5256-11ea-94c6-d3dc5d3e056f
a290eda4-5256-11ea-9db3-3302347416df,a294ee86-5256-11ea-8099-0ba9260134fd
a28f1a38-5256-11ea-993f-3b86e489eab7,a2950f1a-5256-11ea-b92a-7b7966a57b31
a29077de-5256-11ea-a0fc-9f0a7e91d6c8,a2951a6e-5256-11ea-a087-e753633fa97f
a28a1bd2-5256-11ea-bda1-3f5ce777737b,a2952144-5256-11ea-bb36-c70cecfdde3f
a28fdb26-5256-11ea-8fbe-637920223dff,a2952658-5256-11ea-91ae-33d0e3e8f0d6
a28a3e28-5256-11ea-8ad4-8b5230e0cc87,a29535ee-5256-11ea-be59-73281c08e8ff
a2899216-5256-11ea-a630-a36ab72029e2,a2953c6a-5256-11ea-81e5-cf546a74b25b
a28dc0fc-5256-11ea-903f-7fb86872d292,a295412e-5256-11ea-a826-f76663a32c69
a28fac28-5256-11ea-bbc2-a7d63eac90db,a2954534-5256-11ea-8349-a3c7f7dbd405
a28ad568-5256-11ea-a6d6-2bfce6d6fd19,a2955f6a-5256-11ea-8226-3ff73f402804
a28cc7c4-5256-11ea-bd9c-07328b1257fb,a2956848-5256-11ea-a7b5-1778c42bf0ac
a28c7be8-5256-11ea-accb-9f5a845fdb00,a2957efa-5256-11ea-8050-a3155f59cbf4
a2910168-5256-11ea-a9cc-930c356e04f2,a295858a-5256-11ea-a7ca-2b3d5fe3da1d
a28e9342-5256-11ea-8e04-2fc6cd95f80e,a29589f4-5256-11ea-aa65-930e753c9998
a28e2650-5256-11ea-9e03-f743d35628da,a2958e9a-5256-11ea-a4af-93222d7ab531
a28e6930-5256-11ea-bb9c-97eac35245a7,a29596a6-5256-11ea-98fc-ff4ae9a56ae2
a289056c-5256-11ea-89c8-274a26c8e00a,a2959c00-5256-11ea-acfa-d7947d1e9f14
a28d51bc-5256-11ea-aaf3-8be3f2e49276,a295ac7c-5256-11ea-b281-6b23c2677a5d
a2904476-5256-11ea-bfcd-5b1f62724e15,a295b762-5256-11ea-b11a-2ff7d33ce72d
a28a8a04-5256-11ea-95b1-bfe4654e012a,a295cb58-5256-11ea-8824-e329bb9befca
a291a762-5256-11ea-a9ac-076e739542e3,a295d616-5256-11ea-bd2e-df2eccccf43e
a28fdb26-5256-11ea-8fbe-637920223dff,a295e372-5256-11ea-9812-77d105f265af
a2947956-5256-11ea-86fb-a75aced07362,a295f236-5256-11ea-bfad-cb8bc4c1678f
a28baa24-5256-11ea-9308-bbfbf7b795b9,a295e94e-5256-11ea-b55b-0bc3dea46bf8
a28d3d8a-5256-11ea-8028-d7a9cdd6270f,a295edea-5256-11ea-99c6-a7ebead61df3
a28d9f3c-5256-11ea-8c87-ef1fea0057e0,a295fc72-5256-11ea-967e-c3a210080458
a2883c40-5256-11ea-8c20-e77da3cc6ae0,a2961068-5256-11ea-9eb1-879260c15732
a2916446-5256-11ea-9eb6-dbb2adce2e95,a2961770-5256-11ea-8b37-df1719dafc31
a28fac28-5256-11ea-bbc2-a7d63eac90db,a29637b4-5256-11ea-858b-73fa1f2f7276
a2958e9a-5256-11ea-a4af-93222d7ab531,a296427c-5256-11ea-8462-db56825202cf
a2936cb4-5256-11ea-bb4b-a78af9e10bfb,a29646f0-5256-11ea-8da8-37f9e7484655
a28c80b6-5256-11ea-8f6d-c7c338634411,a2964c0e-5256-11ea-80be-a70cd0b50338
a2905ae2-5256-11ea-9402-578c35214945,a2964fe2-5256-11ea-92b6-bf4d227ae3b9
a2957efa-5256-11ea-8050-a3155f59cbf4,a29654b0-5256-11ea-a9b5-130a59e5009f
a288b5ee-5256-11ea-88c8-fbd52213c442,a2965e10-5256-11ea-8e5e-dfaebec19337
a28fac28-5256-11ea-bbc2-a7d63eac90db,a2966536-5256-11ea-9e68-c334893f0318
a2932786-5256-11ea-be68-8325e07248a7,a2968ad4-5256-11ea-b7c7-772b9182ef66
a29233ee-5256-11ea-b52a-87d17805ca8b,a2969484-5256-11ea-959c-9f85a5c64f3a
a294ce1a-5256-11ea-b388-7fd4a7e0905b,a2969934-5256-11ea-af72-c3b78f08eac4
a293cb32-5256-11ea-b9ed-8f98d884d8ff,a296a3ca-5256-11ea-8348-130828a5882f
a2920b26-5256-11ea-aa8b-2f98c7bdfad9,a296abb8-5256-11ea-b2fb-ebeb754d7f77
a28837e0-5256-11ea-9557-ff5062b655e0,a296b022-5256-11ea-8fec-739d21b64389
a28ed514-5256-11ea-86ec-c779a25e251c,a296b52c-5256-11ea-8472-8f5a20d283df
a28e3136-5256-11ea-9c11-8b13ddc537a2,a296ba36-5256-11ea-8198-23b62b98471c
a28913cc-5256-11ea-b606-dfbd3111bec1,a296d6f6-5256-11ea-80e1-5ff8eebc5beb
a28bca2c-5256-11ea-964a-d7b97c681255,a296e402-5256-11ea-b892-af69e1475a90
a289581e-5256-11ea-9a0f-e3bfa5f4507a,a296e894-5256-11ea-8a30-e365c1053f9f
a28dd632-5256-11ea-af7e-cb550c8d6fc2,a296fac8-5256-11ea-b9b6-ef1242b963f1
a295412e-5256-11ea-a826-f76663a32c69,a29703b0-5256-11ea-aa47-1759868a1bc7
a29216ac-5256-11ea-b5a7-330f1eef71f3,a2970c0c-5256-11ea-8a78-4793985e6e67
a292b7ba-5256-11ea-981a-8faed8de5c5f,a297106c-5256-11ea-9eb7-235b90bb16a1
a29498c8-5256-11ea-ac5a-df933586162e,a29714ea-5256-11ea-b137-471b23bbaa2d
a288db0a-5256-11ea-ad9b-e707a7b8ecf2,a29722dc-5256-11ea-a31b-3fc08767acd1
a28c1202-5256-11ea-bc5c-132e3d3108b2,a2973a42-5256-11ea-81b1-63fa219360c3
a29596a6-5256-11ea-98fc-ff4ae9a56ae2,a29744f6-5256-11ea-ab90-57a670071a11
a28cafbe-5256-11ea-8f9c-d30b7b765f27,a2975036-5256-11ea-b922-a3e6936943e4
a2959c00-5256-11ea-acfa-d7947d1e9f14,a2975d38-5256-11ea-8542-3b0b99a727eb
a2964c0e-5256-11ea-80be-a70cd0b50338,a297654e-5256-11ea-b624-4f8e33efb28a
a294e5b2-5256-11ea-a2ac-0f54e3f43a62,a2975874-5256-11ea-859c-3ff488c34687
a28be7aa-5256-11ea-af15-3b43056f53d5,a2976d82-5256-11ea-ba15-a3ad706652d8
a293c678-5256-11ea-9cf0-cb54ba8d3716,a2977854-5256-11ea-a8f9-bf9b15c2ac58
a29233ee-5256-11ea-b52a-87d17805ca8b,a2978c4a-5256-11ea-8829-9be0207bf9eb
a29498c8-5256-11ea-ac5a-df933586162e,a297aab8-5256-11ea-9385-bb45b8034f0c
a290a4b6-5256-11ea-9cfa-8b1347c95ae5,a297b044-5256-11ea-8bdd-cfe44b978487
a2914952-5256-11ea-a1e4-4f494cd663b8,a297bfb2-5256-11ea-b9e1-cfe8ebdaf247
a28a8dd8-5256-11ea-9e64-ffd99f0f280e,a297c890-5256-11ea-b6ae-3ba2ff3cc1bc
a28ab36c-5256-11ea-a702-fb7a7a85680d,a297cfd4-5256-11ea-be68-c713bb564743
a28a0fca-5256-11ea-a2dd-832c25247907,a297e870-5256-11ea-94c7-4bf7929c1972
a295412e-5256-11ea-a826-f76663a32c69,a297f4f0-5256-11ea-9d1d-c316d4a01fa8
a2899216-5256-11ea-a630-a36ab72029e2,a297fa7c-5256-11ea-8950-ef650c7d9ef0
a28e1c8c-5256-11ea-97d8-1304b7a00a17,a297ff4a-5256-11ea-88be-fb8cf64a7869
a296b52c-5256-11ea-8472-8f5a20d283df,a2980418-5256-11ea-9289-b7bd55c495cd
a2931782-5256-11ea-af3b-aff8d69d3363,a29812dc-5256-11ea-9d62-8bd486e9e47d
a297ff4a-5256-11ea-88be-fb8cf64a7869,a298173c-5256-11ea-bffb-5bb16187951f
a29127ec-5256-11ea-9d49-1725138c13ed,a29829c0-5256-11ea-b58e-13afb9c7cbfe
a294b1e6-5256-11ea-8260-9bd7b7dfd5fd,a2983a3c-5256-11ea-b84b-4fae66539fb6
a28ef396-5256-11ea-af39-b3141bb15f69,a29848a6-5256-11ea-9874-afa7e7ed1f28
a28d87ae-5256-11ea-8fc8-1f64a5e66d85,a298531e-5256-11ea-b4b0-cf492af6f1a3
a294313a-5256-11ea-a1aa-a7a39ee38359,a298580a-5256-11ea-800b-d75c63dfba55
a289d366-5256-11ea-8db0-6f29b8c1c8c3,a2985c60-5256-11ea-a718-e35fbb6c0210
a288cb88-5256-11ea-befc-63e979db6e56,a29863cc-5256-11ea-988a-ef951a6f2c1f
a2952658-5256-11ea-91ae-33d0e3e8f0d6,a2986f70-5256-11ea-a627-ff185197c8f9
a295ac7c-5256-11ea-b281-6b23c2677a5d,a2987ff6-5256-11ea-81a1-87af90154411
a28913cc-5256-11ea-b606-dfbd3111bec1,a2989a4a-5256-11ea-a7f1-c7a2720ffd2f
a2930094-5256-11ea-944f-2b9039fb2085,a2989554-5256-11ea-8243-0f92acd94b53
a28e3e9c-5256-11ea-a48b-f7b9d38482ef,a298adc8-5256-11ea-a8fe-833b00ad8af0
a2956848-5256-11ea-a7b5-1778c42bf0ac,a298a904-5256-11ea-a5ea-8fbf22e68455
a289e464-5256-11ea-81bf-ebda097bd69a,a298ce98-5256-11ea-bdac-ffe96764427e
a291dd90-5256-11ea-a5b2-230e5337fbe9,a298d4ec-5256-11ea-a956-1bb4c90b8cf6
a28ad568-5256-11ea-a6d6-2bfce6d6fd19,a298d942-5256-11ea-90c7-1b584f3e8004
a291dd90-5256-11ea-a5b2-230e5337fbe9,a298ddb6-5256-11ea-814e-87b2631b3eb5
a2934edc-5256-11ea-a84f-37dc78c2a650,a298ea90-5256-11ea-b9f1-7be85aba0265
a296fac8-5256-11ea-b9b6-ef1242b963f1,a298f292-5256-11ea-aa12-e374d1ca42cd
a292c372-5256-11ea-a813-bb7b0ca2936a,a298fbb6-5256-11ea-9282-47144dd04073
a292b7ba-5256-11ea-981a-8faed8de5c5f,a299099e-5256-11ea-a549-370eaab6c996
a28bfcc2-5256-11ea-9555-7fe118fb33f5,a2991b46-5256-11ea-a103-f35103b42955
a28c80b6-5256-11ea-8f6d-c7c338634411,a29931bc-5256-11ea-a098-7bce1eb65227
a2912cba-5256-11ea-90a9-03eee71acdc9,a2992c44-5256-11ea-8a09-03eacfb6cec8
a298ddb6-5256-11ea-814e-87b2631b3eb5,a2993a0e-5256-11ea-816c-5fe887cb9700
a28b1794-5256-11ea-8bf0-33a45877d4d8,a29942b0-5256-11ea-9be4-f7d9b9a6d6e3
a2966536-5256-11ea-9e68-c334893f0318,a2994792-5256-11ea-9a3a-e3b8fb2b37a3
a293e3ce-5256-11ea-9160-4b12335b0e04,a2994fbc-5256-11ea-b58c-03acf615c22f
a29383f2-5256-11ea-9e07-5bbd34b25302,a2995fb6-5256-11ea-b569-ff8e0c2109e0
a28e8ba4-5256-11ea-b785-cf288142192e,a2998266-5256-11ea-95f2-032d40222d09
a298a904-5256-11ea-a5ea-8fbf22e68455,a2998770-5256-11ea-9a28-17cf00814dd1
a2994fbc-5256-11ea-b58c-03acf615c22f,a2998bd0-5256-11ea-b139-639a6a822552
a2975874-5256-11ea-859c-3ff488c34687,a29999f4-5256-11ea-b9f6-db69b229321f
a2983a3c-5256-11ea-b84b-4fae66539fb6,a299a1f6-5256-11ea-b304-b70dca49db71
a2964fe2-5256-11ea-92b6-bf4d227ae3b9,a299a750-5256-11ea-89b3-6b6c46d17cb9
a289e464-5256-11ea-81bf-ebda097bd69a,a299abd8-5256-11ea-aa17-0333f9efb91c
a28b46c4-5256-11ea-900d-4faa6d79f671,a299b1dc-5256-11ea-98fc-9b2e5047dcad
a299099e-5256-11ea-a549-370eaab6c996,a299d7ac-5256-11ea-96ae-c38efa1290e4
a297e870-5256-11ea-94c7-4bf7929c1972,a299e008-5256-11ea-9668-d38fec8f99e3
a2961068-5256-11ea-9eb1-879260c15732,a299e6e8-5256-11ea-be56-bbc155606fd4
a29535ee-5256-11ea-be59-73281c08e8ff,a299faac-5256-11ea-b14e-33c999a65528
a28ed514-5256-11ea-86ec-c779a25e251c,a299ff70-5256-11ea-82cf-c7aa48026583
a297ff4a-5256-11ea-88be-fb8cf64a7869,a29a0876-5256-11ea-b880-171d4b109828
a28cc3e6-5256-11ea-890e-3b1a60eacb48,a29a052e-5256-11ea-9588-331fa20bd96c
a2998266-5256-11ea-95f2-032d40222d09,a299f1ba-5256-11ea-beba-dfe4d5122b28
a28dc0fc-5256-11ea-903f-7fb86872d292,a29a363e-5256-11ea-abd8-8b44d2f1cf3b
a28e57b0-5256-11ea-8890-db84a62ace2b,a29a3bb6-5256-11ea-ab4b-ab3b0b319efd
a2909e30-5256-11ea-9f47-635a1e63394d,a29a5574-5256-11ea-8a53-974de4ce6ea2
a28fc79e-5256-11ea-a876-67521f9e9600,a29a5aba-5256-11ea-963b-83840abd774c
a28c1202-5256-11ea-bc5c-132e3d3108b2,a29a644c-5256-11ea-be5a-b317ae171778
a29722dc-5256-11ea-a31b-3fc08767acd1,a29a416a-5256-11ea-bf6a-cfe78614d199
a298f292-5256-11ea-aa12-e374d1ca42cd,a29a5f9c-5256-11ea-9991-7337f89ec1e2
a28f348c-5256-11ea-84e7-fb1be0962296,a29a4d9a-5256-11ea-82bd-47956ae156f3
a28dc0fc-5256-11ea-903f-7fb86872d292,a29a900c-5256-11ea-b8f4-23feee40c5ca
a297aab8-5256-11ea-9385-bb45b8034f0c,a29a9b24-5256-11ea-a608-1395049a3216
a2912cba-5256-11ea-90a9-03eee71acdc9,a29aaefc-5256-11ea-8fb7-b75c7ed641ea
a28cf51e-5256-11ea-b364-e74ba98b6a56,a29ab7f8-5256-11ea-9f23-3f26c4e8a404
a2886fe4-5256-11ea-8027-dbbe4d9edc1c,a29abd02-5256-11ea-8816-8f50f5eb8c9e
a2910bc2-5256-11ea-8250-f714231752ce,a29ac234-5256-11ea-b6aa-0746866b6c63
a297f4f0-5256-11ea-9d1d-c316d4a01fa8,a29ac630-5256-11ea-b75b-27eb7217b3e7
a28b9aac-5256-11ea-a08f-a37fae933438,a29acaa4-5256-11ea-bbea-336c96c9053b
a2916446-5256-11ea-9eb6-dbb2adce2e95,a29ae19c-5256-11ea-8ba3-6711800a50d7
a29065a0-5256-11ea-9961-7f88427f9a4d,a29aedfe-5256-11ea-9865-437d8091c6ab
a28d87ae-5256-11ea-8fc8-1f64a5e66d85,a29b132e-5256-11ea-bc3d-cfa45b657203
a296e894-5256-11ea-8a30-e365c1053f9f,a29b1892-5256-11ea-96ea-171aab64eaa3
a28e6930-5256-11ea-bb9c-97eac35245a7,a29b0c1c-5256-11ea-9ca2-2f22f54c25ba
a28f6a56-5256-11ea-82af-f3206b7a0ee8,a29b2210-5256-11ea-99a6-1379d781f1a9
a29931bc-5256-11ea-a098-7bce1eb65227,a29b1dc4-5256-11ea-8d72-1b1743f383ec
a295f236-5256-11ea-bfad-cb8bc4c1678f,a29b265c-5256-11ea-b066-9701c9950545
a2940944-5256-11ea-98cf-87818922e590,a29b4f4c-5256-11ea-a719-d35f84e1361d
a293d1cc-5256-11ea-b592-cf662155adf2,a29b5442-5256-11ea-9003-9f088d8915a1
a28cf096-5256-11ea-97bd-c744af280b78,a29b6676-5256-11ea-bd65-2fc6f17c4a0c
a297b044-5256-11ea-8bdd-cfe44b978487,a29b7058-5256-11ea-a097-074f3cf59ac5
a28cf096-5256-11ea-97bd-c744af280b78,a29b75bc-5256-11ea-9f33-b73861a0d793
a29a5f9c-5256-11ea-9991-7337f89ec1e2,a29b7ed6-5256-11ea-a4b3-fb5d49b6a00b
a2942424-5256-11ea-ad51-1f8ead11058a,a29b83a4-5256-11ea-a591-13ce963983ca
a293c0d8-5256-11ea-8eeb-d329b17112f2,a29b7a8a-5256-11ea-83b5-6f69c99de583
a28ee0ae-5256-11ea-a4a2-0741117b3a2c,a29ba87a-5256-11ea-a9af-d73248eb0d60
a29b1dc4-5256-11ea-8d72-1b1743f383ec,a29bad16-5256-11ea-87de-f7cc531689dd
a28fac28-5256-11ea-bbc2-a7d63eac90db,a29bbfe0-5256-11ea-9189-fb4d6d5f74d5
a28f7b4a-5256-11ea-9bd4-0baab9172869,a29bca62-5256-11ea-9807-a75ecdd8a5b1
a28dc0fc-5256-11ea-903f-7fb86872d292,a29bd6d8-5256-11ea-bef0-4bc95de992a4
a29ba87a-5256-11ea-a9af-d73248eb0d60,a29bdb92-5256-11ea-adf5-c7126298399c
a28e9ec8-5256-11ea-b872-f36a28facd37,a29be010-5256-11ea-9e20-f7433d030255
a28dea6e-5256-11ea-883b-0bb73b18e966,a29be4a2-5256-11ea-95cb-a7a233ba4e2b
a2976d82-5256-11ea-ba15-a3ad706652d8,a29bffdc-5256-11ea-978d-a3851b2318a3
a2998bd0-5256-11ea-b139-639a6a822552,a29c0522-5256-11ea-a898-6f71fd30ae98
a2910168-5256-11ea-a9cc-930c356e04f2,a29c12ec-5256-11ea-80e2-bff42c51d958
a28e82a8-5256-11ea-93ff-5b39da9780df,a29c2322-5256-11ea-85a1-07800b35593d
a28a3e28-5256-11ea-8ad4-8b5230e0cc87,a29c3178-5256-11ea-a704-173efc041138
a29b0c1c-5256-11ea-9ca2-2f22f54c25ba,a29c3948-5256-11ea-ae73-3f39d5f5bddc
a28a341e-5256-11ea-bd43-9b6172e00f5a,a29c3e7a-5256-11ea-bb75-e7e0d9a0ee04
a289d366-5256-11ea-8db0-6f29b8c1c8c3,a29c4334-5256-11ea-800a-93f1a7de0910
a294ce1a-5256-11ea-b388-7fd4a7e0905b,a29c55ae-5256-11ea-9c12-97964e552ad7
a28ed514-5256-11ea-86ec-c779a25e251c,a29c6134-5256-11ea-9857-d399fcca80d4
a28ca6d6-5256-11ea-96ba-831b4ae7b19a,a29c6c60-5256-11ea-8771-770051a64712
a28f41de-5256-11ea-828b-238a0545c739,a29c7aac-5256-11ea-a30d-73faf3bf6dbb
a2930094-5256-11ea-944f-2b9039fb2085,a29c8420-5256-11ea-b22b-ff231e366bfc
a28fdb26-5256-11ea-8fbe-637920223dff,a29c903c-5256-11ea-b2f9-47896bd1c4a1
a29829c0-5256-11ea-b58e-13afb9c7cbfe,a29c9992-5256-11ea-b499-c3ba519b7426
a288cb88-5256-11ea-befc-63e979db6e56,a29c9e7e-5256-11ea-a148-2f8850f99643
a28e7eac-5256-11ea-aa62-57fcf6c9b7f5,a29cc2aa-5256-11ea-b2ff-13e3d4aa40df
a29596a6-5256-11ea-98fc-ff4ae9a56ae2,a29cc818-5256-11ea-b255-73d62aeb77e2
a28ca6d6-5256-11ea-96ba-831b4ae7b19a,a29cd312-5256-11ea-b6fa-2fa6af6aa76b
a292d0ba-5256-11ea-a468-a3c29e3d2403,a29cd7ae-5256-11ea-afc7-5386932b71e6
a299faac-5256-11ea-b14e-33c999a65528,a29cef3c-5256-11ea-b39e-539a04530d72
a28a85cc-5256-11ea-9204-5f22b793a415,a29cf64e-5256-11ea-b66a-73bfe541d270
a28cf938-5256-11ea-80e3-775f5872b8c7,a29d004e-5256-11ea-b87f-179775d5d375
a29216ac-5256-11ea-b5a7-330f1eef71f3,a29cfb44-5256-11ea-b02c-6b2731d44c27
a28b3f30-5256-11ea-beee-fb139c011b9d,a29d20ec-5256-11ea-bc43-c39cff3eba0e
a299abd8-5256-11ea-aa17-0333f9efb91c,a29d2d94-5256-11ea-93b4-5b82fda14e2f
a29a363e-5256-11ea-abd8-8b44d2f1cf3b,a29d333e-5256-11ea-b33c-b7a3302722d6
a29be010-5256-11ea-9e20-f7433d030255,a29d25ce-5256-11ea-885d-6333d7cde5a3
a28e9ec8-5256-11ea-b872-f36a28facd37,a29d5a58-5256-11ea-aaee-531f51cc8f75
a28d1472-5256-11ea-8bdb-5325e7f894fb,a29d61ce-5256-11ea-867c-179c67653f37
a2922e08-5256-11ea-bedd-7b377dd3d693,a29d6638-5256-11ea-b759-a7807377acc0
a291a0fa-5256-11ea-b7f8-47d845d36f1a,a29d6ad4-5256-11ea-bd66-dba6d9ef58b3
a290fb1e-5256-11ea-be9f-3f98cd6cbc80,a29d76e6-5256-11ea-9085-b741a735bd47
a299faac-5256-11ea-b14e-33c999a65528,a29d87b2-5256-11ea-8719-8b3f497f4287
a28add2e-5256-11ea-9be9-535d7e2b3e27,a29d8d84-5256-11ea-a727-0f71aaa98f57
a294dfe0-5256-11ea-b40c-e72310c4f3e8,a29d9626-5256-11ea-b8f4-b7596a74cafd
a2969484-5256-11ea-959c-9f85a5c64f3a,a29db3e0-5256-11ea-b9f3-d32ee1ce07a1
a2964c0e-5256-11ea-80be-a70cd0b50338,a29db962-5256-11ea-940f-9b6c611eabff
a2944e7c-5256-11ea-99f0-53eed9351795,a29dda0a-5256-11ea-a8fc-87e1823a7e96
a296b022-5256-11ea-8fec-739d21b64389,a29ddf6e-5256-11ea-af22-b70551e8ba78
a28d9988-5256-11ea-b351-8b9061fb057d,a29de5cc-5256-11ea-b261-47c26271048d
a28a26b8-5256-11ea-ae3b-dfc34865ab86,a29dea9a-5256-11ea-9f93-5302dd90a128
a29b1dc4-5256-11ea-8d72-1b1743f383ec,a29deed2-5256-11ea-84df-43c75d4a72f5
a2914e84-5256-11ea-a966-9fe436f2f808,a29df382-5256-11ea-b0ad-57ba310953c1
a29b2210-5256-11ea-99a6-1379d781f1a9,a29e120e-5256-11ea-b9a1-93cf62e37c68
a28a8a04-5256-11ea-95b1-bfe4654e012a,a29e16b4-5256-11ea-b72b-dbe288070012
a290fb1e-5256-11ea-be9f-3f98cd6cbc80,a29e2c58-5256-11ea-b1d5-17240c43cc08
a298ea90-5256-11ea-b9f1-7be85aba0265,a29e3b44-5256-11ea-971a-df763074d7a8
a28d3d8a-5256-11ea-8028-d7a9cdd6270f,a29e3fb8-5256-11ea-90b7-8f281af2821a
a291a0fa-5256-11ea-b7f8-47d845d36f1a,a29e48be-5256-11ea-abe2-9f417a425b8e
a28d9366-5256-11ea-a2a1-ef86d2461635,a29e5098-5256-11ea-987b-efda54728aad
a2980418-5256-11ea-9289-b7bd55c495cd,a29e5584-5256-11ea-a4fa-bbd9828be85a
a2924fa0-5256-11ea-ba60-478b1949df59,a29e7168-5256-11ea-ba37-fb934adcaac0
a2942906-5256-11ea-b959-6f8360bbf8c7,a29e7636-5256-11ea-b30a-47ae5f099c95
a28ca6d6-5256-11ea-96ba-831b4ae7b19a,a29e8676-5256-11ea-b3d7-4fbd699e4a48
a29d5a58-5256-11ea-aaee-531f51cc8f75,a29e8e78-5256-11ea-b2cb-f3f9a72e8eed
a29bad16-5256-11ea-87de-f7cc531689dd,a29ea052-5256-11ea-8a5e-3b7bcb4ff5b7
a28888f8-5256-11ea-a8e7-8f7ad56af59b,a29ea50c-5256-11ea-ab72-1718e12790f7
a29065a0-5256-11ea-9961-7f88427f9a4d,a29eae08-5256-11ea-b850-ff909ba8a07e
a299a1f6-5256-11ea-b304-b70dca49db71,a29ebc2c-5256-11ea-9938-2be8130e89dd
a2906a50-5256-11ea-a3f9-0ff09b996c82,a29ecd98-5256-11ea-9577-abecbd140dcf
a2932be6-5256-11ea-8a50-03469b78fe64,a29ed22a-5256-11ea-be0b-e302f0c6e45b
a292d8d0-5256-11ea-91bf-67ee858e43ee,a29ee38c-5256-11ea-bcd3-578b36eebafd
a29a9b24-5256-11ea-a608-1395049a3216,a29ee81e-5256-11ea-a605-0b6a4f4b1724
a29654b0-5256-11ea-a9b5-130a59e5009f,a29efdc2-5256-11ea-b1b3-375d351f4055
a29e3fb8-5256-11ea-90b7-8f281af2821a,a29f03a8-5256-11ea-acd8-8b291954e096
a29b5442-5256-11ea-9003-9f088d8915a1,a29f0c2c-5256-11ea-855f-e3ecde0d7e85
a28c2f12-5256-11ea-b6a1-c3f7a4a45562,a29f1bcc-5256-11ea-b61a-6b4a5f86bbca
a29b7058-5256-11ea-a097-074f3cf59ac5,a29f29e6-5256-11ea-9492-03bd787afb0a
a29d76e6-5256-11ea-9085-b741a735bd47,a29f2eb4-5256-11ea-afeb-8b16887ffaca
a29cd7ae-5256-11ea-afc7-5386932b71e6,a29f3c06-5256-11ea-a8ab-07087572522b
a2994fbc-5256-11ea-b58c-03acf615c22f,a29f4caa-5256-11ea-a5d8-bf4637f56615
a29f2eb4-5256-11ea-afeb-8b16887ffaca,a29f617c-5256-11ea-97e3-8723d373d952
a2904476-5256-11ea-bfcd-5b1f62724e15,a29f66f4-5256-11ea-9920-63f122de9e68
a28f3a90-5256-11ea-af53-df75485cf41d,a29f7004-5256-11ea-82e4-334347d72911
a2998770-5256-11ea-9a28-17cf00814dd1,a29f7496-5256-11ea-a48b-83bf3bbb6e64
a28928f8-5256-11ea-bb29-ffa8617b3d5c,a29f8760-5256-11ea-b6c0-778b3c47052b
a29b265c-5256-11ea-b066-9701c9950545,a29f8f94-5256-11ea-891d-53aca28daba8
a29b1dc4-5256-11ea-8d72-1b1743f383ec,a29f9b38-5256-11ea-b559-9f58b817924b
a28ffb7e-5256-11ea-9f70-8b6d09643893,a29fa4f2-5256-11ea-b876-036c567e2529
a2928290-5256-11ea-b5cb-3f54b9c4729c,a29fbcd0-5256-11ea-95a6-7b40e43337a6
a2975036-5256-11ea-b922-a3e6936943e4,a29fc64e-5256-11ea-95e1-a31d3e40a4c8
a2983a3c-5256-11ea-b84b-4fae66539fb6,a29fcb44-5256-11ea-ba3b-8f6c4c576175
a298531e-5256-11ea-b4b0-cf492af6f1a3,a29fd09e-5256-11ea-9824-0b8a173a6478
a2904ed0-5256-11ea-b02b-73e1df563ef4,a29feb2e-5256-11ea-aad0-e382b1e91eee
a295d616-5256-11ea-bd2e-df2eccccf43e,a29ff236-5256-11ea-a2bd-7f320f797cdf
a298adc8-5256-11ea-a8fe-833b00ad8af0,a29ff6a0-5256-11ea-ac82-8f674a8ccffd
a29535ee-5256-11ea-be59-73281c08e8ff,a2a00348-5256-11ea-b4fc-97239e1c152f
a29a3bb6-5256-11ea-ab4b-ab3b0b319efd,a2a026c0-5256-11ea-bdaa-33578ffe1ce0
a2952144-5256-11ea-bb36-c70cecfdde3f,a2a02e90-5256-11ea-8939-c7ca00c79b96
a2959c00-5256-11ea-acfa-d7947d1e9f14,a2a03d86-5256-11ea-9d3f-23603b677e5d
a2937a6a-5256-11ea-8bbc-1be93bb0384c,a2a037dc-5256-11ea-b88e-1bec410508e6
a28c4c0e-5256-11ea-b46f-b7144c9264d4,a2a060d6-5256-11ea-a7d8-a7d344a4d6cc
a29fc64e-5256-11ea-95e1-a31d3e40a4c8,a2a0661c-5256-11ea-b8e4-838e341ca44d
a2928290-5256-11ea-b5cb-3f54b9c4729c,a2a06b8a-5256-11ea-80d6-2b937e8387e3
a29dea9a-5256-11ea-9f93-5302dd90a128,a2a07080-5256-11ea-8348-4b6491deafb0
a29dda0a-5256-11ea-a8fc-87e1823a7e96,a2a083a4-5256-11ea-82f8-c77f64a10c9c
a299faac-5256-11ea-b14e-33c999a65528,a2a092d6-5256-11ea-b934-f70db1dde1d7
a29ebc2c-5256-11ea-9938-2be8130e89dd,a2a097cc-5256-11ea-b505-57d45f881147
a2900eb6-5256-11ea-aed8-c368fb8b684e,a2a09cc2-5256-11ea-85a1-ef9b8ece31fa
a296a3ca-5256-11ea-8348-130828a5882f,a2a0b8e2-5256-11ea-be44-1fc1c58a1e3a
a296427c-5256-11ea-8462-db56825202cf,a2a0c1fc-5256-11ea-b895-038cb8dcaaf9
a295412e-5256-11ea-a826-f76663a32c69,a2a0c648-5256-11ea-9ad5-1729de2e84b1
a28c366a-5256-11ea-83ea-bbd4f8097f7c,a2a0cb48-5256-11ea-844b-eb92a3dde2ca
a2995fb6-5256-11ea-b569-ff8e0c2109e0,a2a0df84-5256-11ea-9844-ab6659047c1b
a292104e-5256-11ea-a8d9-0b4fa5d14afb,a2a0e876-5256-11ea-848f-0f31922c1e1c
a289d366-5256-11ea-8db0-6f29b8c1c8c3,a2a0efce-5256-11ea-a5bb-b31e341ad6d1
a28e0c42-5256-11ea-8ce5-abc2b60b6adf,a2a0f456-5256-11ea-9c88-e3cfa175a1f2
a29181a6-5256-11ea-b566-c788aa4b4c31,a2a11710-5256-11ea-8c32-c3e357c7f678
a2993a0e-5256-11ea-816c-5fe887cb9700,a2a11c92-5256-11ea-bd7b-1b1c97cbb732
a2936458-5256-11ea-9529-b7fba2a93dff,a2a123c2-5256-11ea-92c1-57a729d76393
a28d0bd0-5256-11ea-aa93-2f0cd7c52704,a2a12872-5256-11ea-ab4a-53d978b67386
a293cb32-5256-11ea-b9ed-8f98d884d8ff,a2a13f74-5256-11ea-a346-17a415f9b850
a29e2c58-5256-11ea-b1d5-17240c43cc08,a2a14370-5256-11ea-9e70-9fb75c205711
a293d988-5256-11ea-86e6-e3a4551ffd97,a2a14a46-5256-11ea-a058-cfd70ae80ed6
a290eda4-5256-11ea-9db3-3302347416df,a2a15266-5256-11ea-9888-27bd44e7a2db
a297e870-5256-11ea-94c7-4bf7929c1972,a2a17246-5256-11ea-a202-23b956eb0513
a29f4caa-5256-11ea-a5d8-bf4637f56615,a2a17afc-5256-11ea-8497-07d9a1cbbef8
a29ea052-5256-11ea-8a5e-3b7bcb4ff5b7,a2a184b6-5256-11ea-a4ec-83e5ccee3124
a29e7168-5256-11ea-ba37-fb934adcaac0,a2a17ff2-5256-11ea-8069-b7e99b3de5b1
a2926f58-5256-11ea-b697-0b1dc4537fb0,a2a19b72-5256-11ea-9053-bf8220d45f5b
a29463c6-5256-11ea-be72-3374b2e7a2ad,a2a1a43c-5256-11ea-b22e-efb5ffa76d1a
a28f4b02-5256-11ea-b48e-470ea79ad01f,a2a1a8e2-5256-11ea-bf6a-eb621cb76e06
a28ee0ae-5256-11ea-a4a2-0741117b3a2c,a2a1b1b6-5256-11ea-8110-577eda7f770d
a2a03d86-5256-11ea-9d3f-23603b677e5d,a2a1d1f0-5256-11ea-ba87-3756edfc7255
a2985c60-5256-11ea-a718-e35fbb6c0210,a2a1dc22-5256-11ea-8792-bfae08666047
a28fdb26-5256-11ea-8fbe-637920223dff,a2a1e99c-5256-11ea-84e2-afea629e9b34
a294e5b2-5256-11ea-a2ac-0f54e3f43a62,a2a1f6d0-5256-11ea-a202-77eda6891bf9
a29352d8-5256-11ea-a72a-07f54b80c3b2,a2a1fca2-5256-11ea-afdb-6733070c75b2
a2950f1a-5256-11ea-b92a-7b7966a57b31,a2a201ca-5256-11ea-a2d1-b7475e477f01
a28c1202-5256-11ea-bc5c-132e3d3108b2,a2a20684-5256-11ea-90ab-87a3a27ec298
a298fbb6-5256-11ea-9282-47144dd04073,a2a20b48-5256-11ea-b7c3-5f3898df4e31
a288e302-5256-11ea-8970-cff7e34d25f1,a2a2284e-5256-11ea-acba-4b64d642820c
a28d39a2-5256-11ea-acf7-5b79adbee760,a2a23014-5256-11ea-863a-9b99d9d82529
a28c5d20-5256-11ea-a22e-5ba33fc639ad,a2a23cee-5256-11ea-9fc4-a78f462ff1c9
a29a4d9a-5256-11ea-82bd-47956ae156f3,a2a24fa4-5256-11ea-a788-b398d1e51c25
a29b1892-5256-11ea-96ea-171aab64eaa3,a2a258c8-5256-11ea-abe6-af7ce437117f
a28d9988-5256-11ea-b351-8b9061fb057d,a2a26336-5256-11ea-b9d9-576aa3d61f7e
a29f7496-5256-11ea-a48b-83bf3bbb6e64,a2a269e4-5256-11ea-bce8-7fa4318e3b94
a28de168-5256-11ea-8ddf-4fb699057449,a2a26f3e-5256-11ea-83a2-17bf1e11466f
a2993a0e-5256-11ea-816c-5fe887cb9700,a2a283c0-5256-11ea-bd9d-0fefd068f5ee
a29c3e7a-5256-11ea-bb75-e7e0d9a0ee04,a2a28a50-5256-11ea-84c6-874c864b5f70
a291d516-5256-11ea-b6df-4bcc833ff0b4,a2a29cca-5256-11ea-95c8-aba4d14d94df
a29e8676-5256-11ea-b3d7-4fbd699e4a48,a2a2afe4-5256-11ea-bc62-f72ec2821a04
a2a20684-5256-11ea-90ab-87a3a27ec298,a2a2a846-5256-11ea-9eb3-9f072bc48e5d
a297ff4a-5256-11ea-88be-fb8cf64a7869,a2a2d7c6-5256-11ea-b3e9-afef3930bae2
a2904476-5256-11ea-bfcd-5b1f62724e15,a2a2c060-5256-11ea-a5e3-e368134c55d7
a29c12ec-5256-11ea-80e2-bff42c51d958,a2a2cdc6-5256-11ea-be68-7b2555de262b
a29b75bc-5256-11ea-9f33-b73861a0d793,a2a2c560-5256-11ea-9ac2-27cc9e3608ad
a2a0c1fc-5256-11ea-b895-038cb8dcaaf9,a2a2e4a0-5256-11ea-b37b-2f59d13a2133
a28f633a-5256-11ea-b55b-9f0042e28b9b,a2a31e66-5256-11ea-a7fe-df43b9bc2325
a29ea50c-5256-11ea-ab72-1718e12790f7,a2a32500-5256-11ea-82b8-cb3b8ca50722
a2906ece-5256-11ea-8995-c7242480ab99,a2a3307c-5256-11ea-ac18-97b88f28ac2f
a28cb4dc-5256-11ea-af17-9be5d5efdabf,a2a3366c-5256-11ea-b461-2b04d50d8b27
a28b1bcc-5256-11ea-9210-b330ee46d72e,a2a33c84-5256-11ea-b5a5-0b635140c814
a2887444-5256-11ea-9612-b71555a7d764,a2a34288-5256-11ea-94ac-63f283a750c7
a297bfb2-5256-11ea-b9e1-cfe8ebdaf247,a2a34652-5256-11ea-93cf-ef18f57ea74b
a298ce98-5256-11ea-bdac-ffe96764427e,a2a34bb6-5256-11ea-ac64-53c6127aa836
a2936cb4-5256-11ea-bb4b-a78af9e10bfb,a2a377bc-5256-11ea-b298-03f9ad392f25
a298fbb6-5256-11ea-9282-47144dd04073,a2a384dc-5256-11ea-9ec1-5b093cc65a52
a28fb358-5256-11ea-9fa8-c3ed2cf558c6,a2a38a40-5256-11ea-baff-1f2975148a38
a28e0c42-5256-11ea-8ce5-abc2b60b6adf,a2a3929c-5256-11ea-88c3-a7234403cd43
a28ed910-5256-11ea-9a0e-bba699dea5f5,a2a3995e-5256-11ea-8c67-f714d2e85d8c
a296e402-5256-11ea-b892-af69e1475a90,a2a39ed6-5256-11ea-9533-6b1c5610b49e
a29c8420-5256-11ea-b22b-ff231e366bfc,a2a3a41c-5256-11ea-87b3-b36395ef2cbd
a29812dc-5256-11ea-9d62-8bd486e9e47d,a2a3abd8-5256-11ea-9be3-67dc359fe60e
a298ce98-5256-11ea-bdac-ffe96764427e,a2a3d072-5256-11ea-98a4-1fa23547dc49
a29535ee-5256-11ea-be59-73281c08e8ff,a2a3db6c-5256-11ea-a330-4759f1634dc9
a294ce1a-5256-11ea-b388-7fd4a7e0905b,a2a3e382-5256-11ea-bf74-efcd1875210a
a29a5aba-5256-11ea-963b-83840abd774c,a2a3eb7a-5256-11ea-8c35-f74b530918f8
a29c0522-5256-11ea-a898-6f71fd30ae98,a2a3fc8c-5256-11ea-aa96-cb2ef5cf6932
a299b1dc-5256-11ea-98fc-9b2e5047dcad,a2a400e2-5256-11ea-9c14-537c23e89afc
a28e6d40-5256-11ea-8d03-83f4aa866e94,a2a4090c-5256-11ea-b3d1-075ee2e78631
a29b0c1c-5256-11ea-9ca2-2f22f54c25ba,a2a40e34-5256-11ea-a16c-07c814bfa0d8
a29f8760-5256-11ea-b6c0-778b3c47052b,a2a42f7c-5256-11ea-8eb0-7785f872bea2
a29b2210-5256-11ea-99a6-1379d781f1a9,a2a43c42-5256-11ea-a4d3-efc60885f331
a28e6d40-5256-11ea-8d03-83f4aa866e94,a2a4443a-5256-11ea-a126-97e4d05440f7
a2a201ca-5256-11ea-a2d1-b7475e477f01,a2a451a0-5256-11ea-8947-fb43e352386a
a2a4443a-5256-11ea-a126-97e4d05440f7,a2a45ee8-5256-11ea-8cae-9ba261bd69d7
a2969934-5256-11ea-af72-c3b78f08eac4,a2a464ba-5256-11ea-a5f6-cfac9c2ee522
a2a20b48-5256-11ea-b7c3-5f3898df4e31,a2a46b40-5256-11ea-9a3f-ffeda2117d06
a29d6638-5256-11ea-b759-a7807377acc0,a2a4704a-5256-11ea-ba37-e39a370a5e64
a29b75bc-5256-11ea-9f33-b73861a0d793,a2a48abc-5256-11ea-bf52-1f975488920e
a288db0a-5256-11ea-ad9b-e707a7b8ecf2,a2a496c4-5256-11ea-9ab0-7bab28960019
a29ae19c-5256-11ea-8ba3-6711800a50d7,a2a49dd6-5256-11ea-b1ce-3fd4e9a0d754
a29863cc-5256-11ea-988a-ef951a6f2c1f,a2a4a9e8-5256-11ea-b88f-0f6da990c805
a28fc17c-5256-11ea-8e2b-77ba487aa262,a2a4bdc0-5256-11ea-b314-17b1888b6d8b
a29e8676-5256-11ea-b3d7-4fbd699e4a48,a2a4c342-5256-11ea-bae1-b77e6487143e
a28b1794-5256-11ea-8bf0-33a45877d4d8,a2a4cd1a-5256-11ea-9939-47ee552849ad
a2905ae2-5256-11ea-9402-578c35214945,a2a4ece6-5256-11ea-948b-639823a8159f
a29e16b4-5256-11ea-b72b-dbe288070012,a2a4f40c-5256-11ea-b246-572309dd6563
a2a496c4-5256-11ea-9ab0-7bab28960019,a2a4f9d4-5256-11ea-9e1b-9f714201d852
a29260d0-5256-11ea-a699-7ba918253c6f,a2a4ff92-5256-11ea-abb9-9f00ce0f29bd
a2a400e2-5256-11ea-9c14-537c23e89afc,a2a50456-5256-11ea-b64d-cb7c31c1279e
a28b006a-5256-11ea-aee6-a3e6ae0161cd,a2a51068-5256-11ea-beb6-2f87562304b9
a28fcd70-5256-11ea-a39b-473282bafbfc,a2a51ee6-5256-11ea-bc7f-9b954168e3ad
a2a46b40-5256-11ea-9a3f-ffeda2117d06,a2a52cc4-5256-11ea-85ba-275e337b3178
a2a23cee-5256-11ea-9fc4-a78f462ff1c9,a2a54b00-5256-11ea-8437-cbda6d0c08f9
a29df382-5256-11ea-b0ad-57ba310953c1,a2a5596a-5256-11ea-b7a4-23d64a2e301d
a2a0df84-5256-11ea-9844-ab6659047c1b,a2a5538e-5256-11ea-8416-6b4803afa15b
a29216ac-5256-11ea-b5a7-330f1eef71f3,a2a55dde-5256-11ea-8760-df80a7b39924
a28f89a0-5256-11ea-89cc-23f73598e026,a2a56338-5256-11ea-b0d0-ef52a68d0ea6
a2a1a8e2-5256-11ea-bf6a-eb621cb76e06,a2a58412-5256-11ea-953d-bf1235902bae
a28b6320-5256-11ea-bcc7-43ad31314708,a2a58a02-5256-11ea-bca4-538e0b9fb03c
a29b265c-5256-11ea-b066-9701c9950545,a2a59024-5256-11ea-8547-9fc799e1dcf1
a2900128-5256-11ea-98ee-539ab1464ed8,a2a5a906-5256-11ea-a066-d72d64ad06c0
a294dfe0-5256-11ea-b40c-e72310c4f3e8,a2a5b0c2-5256-11ea-b7b8-97623caca8d2
a2958e9a-5256-11ea-a4af-93222d7ab531,a2a5b87e-5256-11ea-b063-5711586ab920
a29e7168-5256-11ea-ba37-fb934adcaac0,a2a5dae8-5256-11ea-9732-633d2db77815
a29bd6d8-5256-11ea-bef0-4bc95de992a4,a2a5e498-5256-11ea-b736-7ba383003b9b
a297c890-5256-11ea-b6ae-3ba2ff3cc1bc,a2a5e93e-5256-11ea-8358-eb5b456e5e77
a2933564-5256-11ea-8552-2307c4cafee4,a2a5ee98-5256-11ea-bc11-3f5e88a64372
a28e7eac-5256-11ea-aa62-57fcf6c9b7f5,a2a6005e-5256-11ea-b2fd-cb6d189ab914
a2a384dc-5256-11ea-9ec1-5b093cc65a52,a2a60d7e-5256-11ea-ac35-affcd9433075
a28d9988-5256-11ea-b351-8b9061fb057d,a2a61198-5256-11ea-8b1d-d735f678ae8c
a2926580-5256-11ea-86bb-57d2b249bd63,a2a616ca-5256-11ea-ab35-cf4244fd29c3
a2904ae8-5256-11ea-ba6e-dfc00dcbea4d,a2a63b6e-5256-11ea-87e7-eba5c5c31807
a29fbcd0-5256-11ea-95a6-7b40e43337a6,a2a644ba-5256-11ea-a4a7-6fb92b5e4927
a292059a-5256-11ea-929a-8f9129cb49b2,a2a6499c-5256-11ea-bf02-7b1d4e72b77a
a2904ed0-5256-11ea-b02b-73e1df563ef4,a2a64eba-5256-11ea-be77-9be08f030d36
a297e870-5256-11ea-94c7-4bf7929c1972,a2a65ba8-5256-11ea-b4b3-2706be1252d8
a29ac234-5256-11ea-b6aa-0746866b6c63,a2a66cce-5256-11ea-9a87-b7c00157ba4e
a29065a0-5256-11ea-9961-7f88427f9a4d,a2a6748a-5256-11ea-af20-9390999c4a94
a29383f2-5256-11ea-9e07-5bbd34b25302,a2a67a20-5256-11ea-946b-57860becc343
a295e372-5256-11ea-9812-77d105f265af,a2a69672-5256-11ea-af50-e7afb9208cb9
a28be2aa-5256-11ea-9938-1327f334690c,a2a6a54a-5256-11ea-991d-5bf4dc1c9725
a293051c-5256-11ea-9ef4-3b208cb36703,a2a6aa86-5256-11ea-bb07-2f7231f12c42
a2887444-5256-11ea-9612-b71555a7d764,a2a6b3b4-5256-11ea-8393-27f3b5b25ad6
a295858a-5256-11ea-a7ca-2b3d5fe3da1d,a2a6bf8a-5256-11ea-901a-b7159a4479a0
a28fdb26-5256-11ea-8fbe-637920223dff,a2a6c764-5256-11ea-ad5b-c3ed21778af9
a29c9e7e-5256-11ea-a148-2f8850f99643,a2a6d9b6-5256-11ea-9837-576eca85f76e
a294ee86-5256-11ea-8099-0ba9260134fd,a2a6de84-5256-11ea-91ae-6f92caaf6650
a2a46b40-5256-11ea-9a3f-ffeda2117d06,a2a6f6e4-5256-11ea-976b-33869d379156
a28d5694-5256-11ea-8bd8-3b12553eddde,a2a706b6-5256-11ea-97dc-e3c363c40352
a293cb32-5256-11ea-b9ed-8f98d884d8ff,a2a70b34-5256-11ea-92b7-c7fd0b24902c
a2a3db6c-5256-11ea-a330-4759f1634dc9,a2a71066-5256-11ea-b6b0-0bc7ffd5c6db
a29feb2e-5256-11ea-aad0-e382b1e91eee,a2a7338e-5256-11ea-aeb3-2b06c6d040da
a29aaefc-5256-11ea-8fb7-b75c7ed641ea,a2a738d4-5256-11ea-b9ef-df96e0cbe2be
a28e9ec8-5256-11ea-b872-f36a28facd37,a2a742f2-5256-11ea-8c3e-33bfe4566f1e
a2a06b8a-5256-11ea-80d6-2b937e8387e3,a2a73e2e-5256-11ea-b197-93999991e867
a293cb32-5256-11ea-b9ed-8f98d884d8ff,a2a759f4-5256-11ea-be11-63cc67306965
a2978c4a-5256-11ea-8829-9be0207bf9eb,a2a76782-5256-11ea-a6cb-8339bc1079b6
a2a5ee98-5256-11ea-bc11-3f5e88a64372,a2a76d9a-5256-11ea-847f-27413bd0d40c
a293bb6a-5256-11ea-a70c-c301f1866d3b,a2a77268-5256-11ea-a022-e30d9b3d2ab4
a2a09cc2-5256-11ea-85a1-ef9b8ece31fa,a2a7936a-5256-11ea-adc5-6fe28cf42cca
a288db0a-5256-11ea-ad9b-e707a7b8ecf2,a2a79c16-5256-11ea-81f1-7f73636ee4de
a2886b66-5256-11ea-8956-9771112f2a99,a2a7a224-5256-11ea-8247-63b03cb27d83
a29b7ed6-5256-11ea-a4b3-fb5d49b6a00b,a2a7a724-5256-11ea-8590-d3a9a291105b
a295cb58-5256-11ea-8824-e329bb9befca,a2a7b5e8-5256-11ea-bbb2-2fe2a7056673
a28fc79e-5256-11ea-a876-67521f9e9600,a2a7c97a-5256-11ea-9a65-27fb53ae87a8
a299a1f6-5256-11ea-b304-b70dca49db71,a2a7cf74-5256-11ea-b56f-6fe7bca58ebd
a29646f0-5256-11ea-8da8-37f9e7484655,a2a7d460-5256-11ea-ae2f-4fac4ff3e757
a29aaefc-5256-11ea-8fb7-b75c7ed641ea,a2a7fbac-5256-11ea-840c-77be0cfd743c
a2a13f74-5256-11ea-a346-17a415f9b850,a2a7f706-5256-11ea-a050-6fda20010f8e
a295858a-5256-11ea-a7ca-2b3d5fe3da1d,a2a80d22-5256-11ea-a547-3bff48e98d73
a29d8d84-5256-11ea-a727-0f71aaa98f57,a2a83afe-5256-11ea-bcd7-3fc5be3e665c
a28c80b6-5256-11ea-8f6d-c7c338634411,a2a84170-5256-11ea-9168-93a791898bd1
a2a4f9d4-5256-11ea-9e1b-9f714201d852,a2a8488c-5256-11ea-b699-a3ebb4f6e088
a29b132e-5256-11ea-bc3d-cfa45b657203,a2a853b8-5256-11ea-a686-737e3f8b0f9d
a296b022-5256-11ea-8fec-739d21b64389,a2a85fb6-5256-11ea-a746-2fa453c3e420
a2930094-5256-11ea-944f-2b9039fb2085,a2a865a6-5256-11ea-a85e-4feeb8516b4f
a2a5538e-5256-11ea-8416-6b4803afa15b,a2a86ea2-5256-11ea-af17-6b125ce8e8fd
a28f1a38-5256-11ea-993f-3b86e489eab7,a2a89792-5256-11ea-a8c8-732b8be5f370
a295f236-5256-11ea-bfad-cb8bc4c1678f,a2a8c078-5256-11ea-b7b0-9beff1014d31
a29fcb44-5256-11ea-ba3b-8f6c4c576175,a2a8bc36-5256-11ea-9d27-d3147b2a2f61
a28a714a-5256-11ea-a09c-db9f4be7d46a,a2a8c6ea-5256-11ea-84fc-3f5d2970699a
a295ac7c-5256-11ea-b281-6b23c2677a5d,a2a8d1e4-5256-11ea-8b97-f3209e6fddc9
a29322d6-5256-11ea-aa76-2bb936fbf3a7,a2a8cd5c-5256-11ea-b21a-7f80c30754cf
a2a33c84-5256-11ea-b5a5-0b635140c814,a2a8d7fc-5256-11ea-980d-3f04720b0d4c
a2a86ea2-5256-11ea-af17-6b125ce8e8fd,a2a8fa16-5256-11ea-835e-3fd6f1f3deae
a2964c0e-5256-11ea-80be-a70cd0b50338,a2a91276-5256-11ea-999c-3f1e24896dd8
a2887444-5256-11ea-9612-b71555a7d764,a2a9173a-5256-11ea-a944-8ff59481b175
a293e3ce-5256-11ea-9160-4b12335b0e04,a2a9218a-5256-11ea-b941-5f6707153fb2
a289b2fa-5256-11ea-8194-0b61b4112e72,a2a92b58-5256-11ea-832c-c75539083e89
a2957efa-5256-11ea-8050-a3155f59cbf4,a2a92f4a-5256-11ea-9632-0b77afac3168
a28e1c8c-5256-11ea-97d8-1304b7a00a17,a2a936ca-5256-11ea-a0fb-db891f164fb4
a2a4c342-5256-11ea-bae1-b77e6487143e,a2a96794-5256-11ea-8209-bf9088013116
a2a5e498-5256-11ea-b736-7ba383003b9b,a2a97496-5256-11ea-8f85-872455fe2073
a2a77268-5256-11ea-a022-e30d9b3d2ab4,a2a97c02-5256-11ea-aebc-1f9033cea885
a293c0d8-5256-11ea-8eeb-d329b17112f2,a2a982c4-5256-11ea-84b5-d33de08bbd87
a28b46c4-5256-11ea-900d-4faa6d79f671,a2a98f30-5256-11ea-9360-5ffd196a7221
a28fc79e-5256-11ea-a876-67521f9e9600,a2a9993a-5256-11ea-be05-db741033275a
a2a3995e-5256-11ea-8c67-f714d2e85d8c,a2a994c6-5256-11ea-9d6c-734cd78ef932
a294726c-5256-11ea-8c7b-234c00d27317,a2a988d2-5256-11ea-8068-e387d3e93bbd
a29db3e0-5256-11ea-b9f3-d32ee1ce07a1,a2a9c414-5256-11ea-8250-37e55fd11bdd
a28dc0fc-5256-11ea-903f-7fb86872d292,a2a9d47c-5256-11ea-b8c9-eb3048b82854
a29ebc2c-5256-11ea-9938-2be8130e89dd,a2a9d9b8-5256-11ea-9be3-2fd20b84ee60
a2a71066-5256-11ea-b6b0-0bc7ffd5c6db,a2a9ea34-5256-11ea-910c-73e87e85c110
a2920b26-5256-11ea-aa8b-2f98c7bdfad9,a2a9f4ca-5256-11ea-9371-57269d97eb87
a2a89792-5256-11ea-a8c8-732b8be5f370,a2a9f9ac-5256-11ea-8398-ef3cda6b427b
a28c57bc-5256-11ea-9105-5720bb4a3852,a2a9fe3e-5256-11ea-bdba-53cc3980312a
a28b1bcc-5256-11ea-9210-b330ee46d72e,a2aa02c6-5256-11ea-bfbd-c7dc5978abcf
a29cd312-5256-11ea-b6fa-2fa6af6aa76b,a2aa24ea-5256-11ea-bf3c-6bbfb2843702
a29ea052-5256-11ea-8a5e-3b7bcb4ff5b7,a2aa3034-5256-11ea-b7ae-779f9a45bacf
a28cf096-5256-11ea-97bd-c744af280b78,a2aa3dd6-5256-11ea-a40a-a38992b9c839
a289056c-5256-11ea-89c8-274a26c8e00a,a2aa4ccc-5256-11ea-9c48-b3ad05fabeb2
a29f617c-5256-11ea-97e3-8723d373d952,a2aa5802-5256-11ea-86d5-2f48f8916521
a28dc8e0-5256-11ea-bf87-cf22a4ab8626,a2aa5d66-5256-11ea-9e3a-6fcf113a4728
a2951a6e-5256-11ea-a087-e753633fa97f,a2aa6216-5256-11ea-953b-2b2a7e761950
a2928290-5256-11ea-b5cb-3f54b9c4729c,a2aa666c-5256-11ea-9b2f-6fa27a4f2b9a
a2a6f6e4-5256-11ea-976b-33869d379156,a2aa7cce-5256-11ea-be85-c7748f12dd42
a2a28a50-5256-11ea-84c6-874c864b5f70,a2aa918c-5256-11ea-bfec-fb03c991b97c
a29feb2e-5256-11ea-aad0-e382b1e91eee,a2aa98b2-5256-11ea-b58f-2304613e3080
a28c09f6-5256-11ea-8b15-370605176d83,a2aaab90-5256-11ea-9304-c31dcea4b8ae
a28a26b8-5256-11ea-ae3b-dfc34865ab86,a2aab798-5256-11ea-9847-ab8082fda80b
a2975036-5256-11ea-b922-a3e6936943e4,a2aabf72-5256-11ea-8aae-6b999ef5ebc0
a29df382-5256-11ea-b0ad-57ba310953c1,a2aac4a4-5256-11ea-9bb8-b3ccaf1edb4a
a293718c-5256-11ea-a88a-7ffaa43ac797,a2aac918-5256-11ea-97b2-d786440b8106
a2a17246-5256-11ea-a202-23b956eb0513,a2aad6ba-5256-11ea-95b7-8b8b28b5082e
a29ba87a-5256-11ea-a9af-d73248eb0d60,a2aaee34-5256-11ea-a331-5f7b80bef7e5
a29d20ec-5256-11ea-bc43-c39cff3eba0e,a2aaf618-5256-11ea-9a9d-2b38c19cbf2f
a2a91276-5256-11ea-999c-3f1e24896dd8,a2ab1f44-5256-11ea-99f3-bf6f58c06cf5
a29aedfe-5256-11ea-9865-437d8091c6ab,a2ab2818-5256-11ea-b8f9-b37e46a8bc67
a2a7338e-5256-11ea-aeb3-2b06c6d040da,a2ab2fc0-5256-11ea-a69c-63d67d1f1610
a28dc8e0-5256-11ea-bf87-cf22a4ab8626,a2ab3830-5256-11ea-b417-03559660aae3
a2a89792-5256-11ea-a8c8-732b8be5f370,a2ab47f8-5256-11ea-9188-4b23115c4779
a2900128-5256-11ea-98ee-539ab1464ed8,a2ab3fec-5256-11ea-8525-5f686005f3ef
a2a2c560-5256-11ea-9ac2-27cc9e3608ad,a2ab613e-5256-11ea-b74a-8bff5463bd97
a29c4334-5256-11ea-800a-93f1a7de0910,a2ab93b6-5256-11ea-a405-079106b7357d
a2a123c2-5256-11ea-92c1-57a729d76393,a2ab9a82-5256-11ea-b5db-73613217b008
a2a92f4a-5256-11ea-9632-0b77afac3168,a2abaacc-5256-11ea-a6cf-9b5a2bf0e162
a2969934-5256-11ea-af72-c3b78f08eac4,a2abb3e6-5256-11ea-aece-f7651febe8ed
a2a7936a-5256-11ea-adc5-6fe28cf42cca,a2abc408-5256-11ea-96c8-7b2fd1782305
a2916446-5256-11ea-9eb6-dbb2adce2e95,a2abcc78-5256-11ea-a8a8-9330620a5758
a29b7ed6-5256-11ea-a4b3-fb5d49b6a00b,a2abdc86-5256-11ea-8c84-57707309a162
a2937a6a-5256-11ea-8bbc-1be93bb0384c,a2abe92e-5256-11ea-8ce4-a7b28ddb1ee5
a2a63b6e-5256-11ea-87e7-eba5c5c31807,a2ac0d14-5256-11ea-aecc-c35f12815430
a2a34288-5256-11ea-94ac-63f283a750c7,a2ac1660-5256-11ea-b2d2-473e42a5e137
a2a52cc4-5256-11ea-85ba-275e337b3178,a2ac2fe2-5256-11ea-a28c-7b81181d59b0
a297e870-5256-11ea-94c7-4bf7929c1972,a2ac47ca-5256-11ea-b248-535183df6dbf
a2977854-5256-11ea-a8f9-bf9b15c2ac58,a2ac4dce-5256-11ea-827a-2bae9c803382
a2a4c342-5256-11ea-bae1-b77e6487143e,a2ac54ea-5256-11ea-bf3e-e7a278e3f269
a28b82b0-5256-11ea-91ab-d7d319f3f320,a2ac6340-5256-11ea-8be2-bfeb18935a99
a28b82b0-5256-11ea-91ab-d7d319f3f320,a2ac68b8-5256-11ea-9288-a7c4ddf526f1
a28a85cc-5256-11ea-9204-5f22b793a415,a2ac7416-5256-11ea-a2ad-333026b40087
a29b75bc-5256-11ea-9f33-b73861a0d793,a2ac7dee-5256-11ea-9745-874b96637258
a28be2aa-5256-11ea-9938-1327f334690c,a2aca0d0-5256-11ea-8f01-cf3100aa2373
a29322d6-5256-11ea-aa76-2bb936fbf3a7,a2acb7c8-5256-11ea-8255-53ab7c549a37
a2926f58-5256-11ea-b697-0b1dc4537fb0,a2acc1f0-5256-11ea-86fb-abae10ee87ae
a288c318-5256-11ea-aed3-27d2e73e71da,a2accbb4-5256-11ea-a8c6-2bb37f592ac4
a2a97496-5256-11ea-8f85-872455fe2073,a2acd0b4-5256-11ea-8b72-7bff68de3ea0
a288f91e-5256-11ea-a37d-1b04fe62cb30,a2acd82a-5256-11ea-90fc-0b6a720e6180
a29db3e0-5256-11ea-b9f3-d32ee1ce07a1,a2acc740-5256-11ea-b89a-a34d70fe3dd1
a28cb4dc-5256-11ea-af17-9be5d5efdabf,a2ace73e-5256-11ea-9f31-e7c8441fe353
a29dea9a-5256-11ea-9f93-5302dd90a128,a2ad0430-5256-11ea-884e-ab14eb956c01
a28f348c-5256-11ea-84e7-fb1be0962296,a2ad1970-5256-11ea-a277-8f14b617488c
a28f6a56-5256-11ea-82af-f3206b7a0ee8,a2ad23e8-5256-11ea-8ec9-5be2fa2e8d4c
a29744f6-5256-11ea-ab90-57a670071a11,a2ad309a-5256-11ea-bc52-a3624d9fafba
a28a714a-5256-11ea-a09c-db9f4be7d46a,a2ad3432-5256-11ea-aee9-c7d8ff469e37
a28fc17c-5256-11ea-8e2b-77ba487aa262,a2ad3ea0-5256-11ea-b4aa-73a2c3a65cd1
a2a55dde-5256-11ea-8760-df80a7b39924,a2ad45f8-5256-11ea-97f0-6f2528083821
a29c6134-5256-11ea-9857-d399fcca80d4,a2ad5fac-5256-11ea-b004-b3a9db817a15
a28a69ca-5256-11ea-9b46-57e58eccd26f,a2ad6466-5256-11ea-8ba1-9ba2b023bebf
a2922e08-5256-11ea-bedd-7b377dd3d693,a2ad7a64-5256-11ea-b8fc-57363cff94df
a2a48abc-5256-11ea-bf52-1f975488920e,a2ad8888-5256-11ea-9be4-cb77ccd0cb41
a28c52d0-5256-11ea-93dd-0b0110e6d361,a2ad8ff4-5256-11ea-89f6-af9f5227b672
a29e7636-5256-11ea-b30a-47ae5f099c95,a2ad980a-5256-11ea-bf38-0f27277f1000
a2a3366c-5256-11ea-b461-2b04d50d8b27,a2ada2f0-5256-11ea-9aaf-db77f4565ab8
a2a29cca-5256-11ea-95c8-aba4d14d94df,a2adaa7a-5256-11ea-a45b-5be98def24b6
a295f236-5256-11ea-bfad-cb8bc4c1678f,a2adc4c4-5256-11ea-9755-dfd4cd2801b5
a29942b0-5256-11ea-9be4-f7d9b9a6d6e3,a2adcbd6-5256-11ea-9de5-2f4c86bac135
a2ac4dce-5256-11ea-827a-2bae9c803382,a2add464-5256-11ea-a530-cfde8ef48d2e
a2ad3432-5256-11ea-aee9-c7d8ff469e37,a2adeaee-5256-11ea-9358-6f17bac521f7
a2a0cb48-5256-11ea-844b-eb92a3dde2ca,a2adf502-5256-11ea-ba88-dfe748702fd6
a28f9dc8-5256-11ea-be27-77673222439e,a2adfe26-5256-11ea-bccb-c7cf70d00823
a2989554-5256-11ea-8243-0f92acd94b53,a2ae0380-5256-11ea-a59b-fb1333fce59e
a2ac1660-5256-11ea-b2d2-473e42a5e137,a2ae0dd0-5256-11ea-b859-0fa0aa09b010
a28e9ec8-5256-11ea-b872-f36a28facd37,a2ae28a6-5256-11ea-818f-3ba953f19d23
a2a92b58-5256-11ea-832c-c75539083e89,a2ae2dd8-5256-11ea-ac8e-4f5062b22f70
a2a4bdc0-5256-11ea-b314-17b1888b6d8b,a2ae356c-5256-11ea-ae05-3b2c0fa9ca76
a2a738d4-5256-11ea-b9ef-df96e0cbe2be,a2ae59d4-5256-11ea-b1d3-1fa8833143c4
a29ff236-5256-11ea-a2bd-7f320f797cdf,a2ae5e70-5256-11ea-a81e-eb93f08edd63
a28c4c0e-5256-11ea-b46f-b7144c9264d4,a2ae637a-5256-11ea-ab9e-7bf76a615ff6
a2a982c4-5256-11ea-84b5-d33de08bbd87,a2ae6cb2-5256-11ea-b5e4-3b4ca9c8267e
a28da2d4-5256-11ea-a1b0-6f690bcec129,a2ae8206-5256-11ea-91db-17988a772c44
a29a4d9a-5256-11ea-82bd-47956ae156f3,a2ae8ad0-5256-11ea-b621-277aa623e4e4
a2a56338-5256-11ea-b0d0-ef52a68d0ea6,a2ae9908-5256-11ea-b4e8-8381faa2d283
a298f292-5256-11ea-aa12-e374d1ca42cd,a2ae9dea-5256-11ea-b0ff-433da96d9b82
a2a2e4a0-5256-11ea-b37b-2f59d13a2133,a2aec0d6-5256-11ea-bbbe-2b368c86d84c
a2900eb6-5256-11ea-aed8-c368fb8b684e,a2aec842-5256-11ea-a95c-a7d787938de7
a28e0c42-5256-11ea-8ce5-abc2b60b6adf,a2aed076-5256-11ea-8196-df6af20242a3
a2a02e90-5256-11ea-8939-c7ca00c79b96,a2aed5e4-5256-11ea-a877-5bcf99367348
a2906ece-5256-11ea-8995-c7242480ab99,a2aee098-5256-11ea-8bc0-8f5ac081a385
a2933564-5256-11ea-8552-2307c4cafee4,a2aeee44-5256-11ea-ae5f-3716af5278bd
a2976d82-5256-11ea-ba15-a3ad706652d8,a2aefd6c-5256-11ea-93b5-c3a33681f53a
a28fcd70-5256-11ea-a39b-473282bafbfc,a2af058c-5256-11ea-a9c6-cf3011b63815
a296d6f6-5256-11ea-80e1-5ff8eebc5beb,a2af2198-5256-11ea-90dd-6332d46603ab
a2a0c648-5256-11ea-9ad5-1729de2e84b1,a2af35d4-5256-11ea-9f77-9f65c00591cb
a294ea6c-5256-11ea-94c6-d3dc5d3e056f,a2af4236-5256-11ea-b359-f361d5f57e45
a29e16b4-5256-11ea-b72b-dbe288070012,a2af4bc8-5256-11ea-bdae-9f5b9bf6cfa7
a29e8676-5256-11ea-b3d7-4fbd699e4a48,a2af5550-5256-11ea-9cf4-935214199bef
a2910762-5256-11ea-bec1-5bda630d2b9d,a2af65cc-5256-11ea-a194-4b75ab45e7dd
a28ee0ae-5256-11ea-a4a2-0741117b3a2c,a2af6a72-5256-11ea-a423-fbbc10d6d9c3
a2ad309a-5256-11ea-bc52-a3624d9fafba,a2af87a0-5256-11ea-bbd4-47d37c594e7e
a2a1f6d0-5256-11ea-a202-77eda6891bf9,a2af8c50-5256-11ea-a6a0-33e52243f148
a28f31c6-5256-11ea-8f79-5b7326e6cb82,a2af940c-5256-11ea-b9b5-af624f3c70b1
a29e7636-5256-11ea-b30a-47ae5f099c95,a2afa334-5256-11ea-8cfc-d387e8aa39cb
a2957efa-5256-11ea-8050-a3155f59cbf4,a2afaca8-5256-11ea-b9c0-072705cf480b
a2a07080-5256-11ea-8348-4b6491deafb0,a2afbebe-5256-11ea-8340-63cc49485482
a29b75bc-5256-11ea-9f33-b73861a0d793,a2afc3f0-5256-11ea-bd64-5307c2be8ccb
a2a3db6c-5256-11ea-a330-4759f1634dc9,a2afcb2a-5256-11ea-9b91-7bfaca693fd9
a29bca62-5256-11ea-9807-a75ecdd8a5b1,a2afedc6-5256-11ea-9b2f-5ba42b601472
a2926a76-5256-11ea-b6ff-0b33b188cc8b,a2aff35c-5256-11ea-9480-ebd9fc6d2548
a294dfe0-5256-11ea-b40c-e72310c4f3e8,a2affb90-5256-11ea-aaef-27c4a15f55ec
a28f3e96-5256-11ea-9a24-df1ae45c3fc9,a2b0108a-5256-11ea-be48-8355b1ba9396
a2a46b40-5256-11ea-9a3f-ffeda2117d06,a2b00b80-5256-11ea-b45d-eb907cd3a54e
a289d366-5256-11ea-8db0-6f29b8c1c8c3,a2b021f6-5256-11ea-9544-8fcfdc5842bf
a2994fbc-5256-11ea-b58c-03acf615c22f,a2b02796-5256-11ea-9ddc-b7ae4fbf1f65
a28ad568-5256-11ea-a6d6-2bfce6d6fd19,a2b05374-5256-11ea-9511-8f42c8a97539
a29bffdc-5256-11ea-978d-a3851b2318a3,a2b05a72-5256-11ea-afd2-0b1e38a6cd39
a2aa6216-5256-11ea-953b-2b2a7e761950,a2b06030-5256-11ea-9136-b34640bb1caa
a2a2afe4-5256-11ea-bc62-f72ec2821a04,a2b06594-5256-11ea-96da-8f7f3d8c730e
a2ae0dd0-5256-11ea-b859-0fa0aa09b010,a2b06a62-5256-11ea-ae92-c7789f1cbd38
a29fbcd0-5256-11ea-95a6-7b40e43337a6,a2b07656-5256-11ea-a6de-1b9b9e01cd48
a29c9992-5256-11ea-b499-c3ba519b7426,a2b08254-5256-11ea-ad15-6b57b43fe480
a2992c44-5256-11ea-8a09-03eacfb6cec8,a2b08a7e-5256-11ea-b7fb-833aa539f0bd
a2975874-5256-11ea-859c-3ff488c34687,a2b0b404-5256-11ea-b283-87d9523ee9b3
a29fbcd0-5256-11ea-95a6-7b40e43337a6,a2b0b968-5256-11ea-823b-b330cd024a8e
a29722dc-5256-11ea-a31b-3fc08767acd1,a2b0c980-5256-11ea-b604-3f1e477b371b
a2a02e90-5256-11ea-8939-c7ca00c79b96,a2b0cd90-5256-11ea-a608-fff9d0276fea
a2af5550-5256-11ea-9cf4-935214199bef,a2b0d57e-5256-11ea-801c-b304506f5c4e
a2a6aa86-5256-11ea-bb07-2f7231f12c42,a2b0e528-5256-11ea-8527-073496f9b02b
a2a20b48-5256-11ea-b7c3-5f3898df4e31,a2b0ec6c-5256-11ea-bd6c-67f5af7510e3
a290b0a0-5256-11ea-9916-2bd39ba748ca,a2b0f446-5256-11ea-8a2d-573942afb7dc
a29f29e6-5256-11ea-9492-03bd787afb0a,a2b110c0-5256-11ea-9bbf-0bb459eccbdf
a2a283c0-5256-11ea-bd9d-0fefd068f5ee,a2b12880-5256-11ea-be7d-a31bc87da732
a299ff70-5256-11ea-82cf-c7aa48026583,a2b1333e-5256-11ea-acc8-33efa2a873b2
a295e372-5256-11ea-9812-77d105f265af,a2b13b04-5256-11ea-9bce-cfcfe2cfbb5e
a295edea-5256-11ea-99c6-a7ebead61df3,a2b13ffa-5256-11ea-a96b-ef621d165246
a2a9f4ca-5256-11ea-9371-57269d97eb87,a2b14cde-5256-11ea-b45e-4f7821f82bf2
a28939e2-5256-11ea-8d35-8305ce2fe551,a2b1586e-5256-11ea-81df-8fae90c1ec8b
a2a9f9ac-5256-11ea-8398-ef3cda6b427b,a2b15e72-5256-11ea-83ff-73c475e6c9bf
a2994792-5256-11ea-9a3a-e3b8fb2b37a3,a2b19162-5256-11ea-9362-73841d249db6
a28928f8-5256-11ea-bb29-ffa8617b3d5c,a2b19f2c-5256-11ea-a975-0f70309e8fcd
a2ab47f8-5256-11ea-9188-4b23115c4779,a2b1a404-5256-11ea-8162-a39bed5efad4
a2ac4dce-5256-11ea-827a-2bae9c803382,a2b1b188-5256-11ea-b633-0f9bc114c157
a28e085a-5256-11ea-8afd-cb59ab20349e,a2b1c3ee-5256-11ea-94bc-d39e426f4835
a2ae9dea-5256-11ea-b0ff-433da96d9b82,a2b1bc8c-5256-11ea-bae1-6beca883f966
a29c0522-5256-11ea-a898-6f71fd30ae98,a2b1c902-5256-11ea-a7e5-bfb56bbc6377
a2a76782-5256-11ea-a6cb-8339bc1079b6,a2b1b5de-5256-11ea-b1be-0318faa2c906
a2a58a02-5256-11ea-bca4-538e0b9fb03c,a2b1f616-5256-11ea-b70e-8faa4c72f3df
a2a6aa86-5256-11ea-bb07-2f7231f12c42,a2b208d6-5256-11ea-893a-bf313e4eafd7
a2a6499c-5256-11ea-bf02-7b1d4e72b77a,a2b21308-5256-11ea-b9a5-13c5f86943ed
a288f91e-5256-11ea-a37d-1b04fe62cb30,a2b21c4a-5256-11ea-988b-cb14ebe661fb
a295edea-5256-11ea-99c6-a7ebead61df3,a2b22208-5256-11ea-a7ec-d395242cc938
a28ae148-5256-11ea-803f-c76cbf645ae6,a2b22802-5256-11ea-93da-0bef9855307b
a2ac4dce-5256-11ea-827a-2bae9c803382,a2b23090-5256-11ea-8d99-5327dac5b241
a2a2e4a0-5256-11ea-b37b-2f59d13a2133,a2b241ca-5256-11ea-97cd-0b91e2b26a16
a29b2210-5256-11ea-99a6-1379d781f1a9,a2b25962-5256-11ea-9941-0b89e48be32d
a2ad0430-5256-11ea-884e-ab14eb956c01,a2b26b5a-5256-11ea-b1f3-dbfab1debd9f
a288c318-5256-11ea-aed3-27d2e73e71da,a2b27d98-5256-11ea-83e9-3b4f8e8dc949
a2a17246-5256-11ea-a202-23b956eb0513,a2b28324-5256-11ea-936a-b7ba5fcbd821
a29c6134-5256-11ea-9857-d399fcca80d4,a2b28ce8-5256-11ea-8f94-7703c46bf92f
a29bbfe0-5256-11ea-9189-fb4d6d5f74d5,a2b29468-5256-11ea-a3a5-7338865b3b5f
a2a742f2-5256-11ea-8c3e-33bfe4566f1e,a2b29a44-5256-11ea-9ab4-dfa95a71c2ea
a2a7a224-5256-11ea-8247-63b03cb27d83,a2b2aca0-5256-11ea-84f5-ff54c36e9231
a29e8e78-5256-11ea-b2cb-f3f9a72e8eed,a2b2c294-5256-11ea-b92f-2f51277c573e
a297106c-5256-11ea-9eb7-235b90bb16a1,a2b2ca8c-5256-11ea-85bb-cf0d78056e9d
a28caa78-5256-11ea-bc34-4f0333864f2d,a2b2ddc4-5256-11ea-89f7-6330d647bd23
a28a69ca-5256-11ea-9b46-57e58eccd26f,a2b2e850-5256-11ea-a1be-37d3be8693b8
a2b29468-5256-11ea-a3a5-7338865b3b5f,a2b2f070-5256-11ea-a188-978a20e53f8b
a292b7ba-5256-11ea-981a-8faed8de5c5f,a2b3006a-5256-11ea-9697-87b9ca27fa48
a291dd90-5256-11ea-a5b2-230e5337fbe9,a2b30696-5256-11ea-b221-a3901eb63304
a28dce4e-5256-11ea-b459-3b8909b0d9ed,a2b311cc-5256-11ea-9e9d-972e7e24b810
a298d942-5256-11ea-90c7-1b584f3e8004,a2b3289c-5256-11ea-80eb-537b99afab1a
a29812dc-5256-11ea-9d62-8bd486e9e47d,a2b32eb4-5256-11ea-bf51-3f255a90fdd1
a2a4bdc0-5256-11ea-b314-17b1888b6d8b,a2b3446c-5256-11ea-8c5b-c30d76b27567
a2a083a4-5256-11ea-82f8-c77f64a10c9c,a2b34d2c-5256-11ea-817b-6bf4b4391698
a299a1f6-5256-11ea-b304-b70dca49db71,a2b3588a-5256-11ea-888f-3bad0f665d95
a29ecd98-5256-11ea-9577-abecbd140dcf,a2b376da-5256-11ea-9cb5-a336837928fb
a28a1bd2-5256-11ea-bda1-3f5ce777737b,a2b37d7e-5256-11ea-9979-e3f6ed212e40
a2a2e4a0-5256-11ea-b37b-2f59d13a2133,a2b38788-5256-11ea-af82-9fbf2bef5ba9
a2941092-5256-11ea-82f3-439b718b6d0a,a2b391e2-5256-11ea-8228-4fbd1f4aff26
a2acc1f0-5256-11ea-86fb-abae10ee87ae,a2b39d72-5256-11ea-8833-8718bbd084e6
a29d8d84-5256-11ea-a727-0f71aaa98f57,a2b3b5be-5256-11ea-9782-afd7a4e0e9b0
a2a58412-5256-11ea-953d-bf1235902bae,a2b3be1a-5256-11ea-bd13-0f5ec447d198
a2ad3432-5256-11ea-aee9-c7d8ff469e37,a2b3c34c-5256-11ea-8815-c35a9cbe1e33
a28e0c42-5256-11ea-8ce5-abc2b60b6adf,a2b3e052-5256-11ea-a522-b330d5cd8148
a2a8d7fc-5256-11ea-980d-3f04720b0d4c,a2b3f9ac-5256-11ea-afe7-a757264594d2
a292059a-5256-11ea-929a-8f9129cb49b2,a2b415b8-5256-11ea-9942-0b48203136d0
a2a7b5e8-5256-11ea-bbb2-2fe2a7056673,a2b42a6c-5256-11ea-9eeb-d32ab50f4954
a2b0d57e-5256-11ea-801c-b304506f5c4e,a2b43066-5256-11ea-abaf-f7b486fffd30
a2964c0e-5256-11ea-80be-a70cd0b50338,a2b43660-5256-11ea-9024-abeb24acce0d
a28f813a-5256-11ea-9637-df6ecab14a2c,a2b43bce-5256-11ea-84e3-03148e113d1c
a2ac6340-5256-11ea-8be2-bfeb18935a99,a2b441a0-5256-11ea-8969-f739a8d48733
a2a1f6d0-5256-11ea-a202-77eda6891bf9,a2b450a0-5256-11ea-9cec-a71ff605d395
a2a0c648-5256-11ea-9ad5-1729de2e84b1,a2b456ae-5256-11ea-b8a3-bfe9ce08b4fe
a2939f40-5256-11ea-b76a-8ffe63e3dfb6,a2b4792c-5256-11ea-a398-c3806fe112f9
a2a092d6-5256-11ea-b934-f70db1dde1d7,a2b4a500-5256-11ea-885b-2bcf2b6d3784
a290b0a0-5256-11ea-9916-2bd39ba748ca,a2b4a988-5256-11ea-bdd3-03efc0f2896e
a29e7636-5256-11ea-b30a-47ae5f099c95,a2b4b018-5256-11ea-9c22-9f57f1094374
a2b28324-5256-11ea-936a-b7ba5fcbd821,a2b4b662-5256-11ea-8f24-037746ea6c12
a2acc740-5256-11ea-b89a-a34d70fe3dd1,a2b4c12a-5256-11ea-b2c8-dff46dd4d4e9
a2b0cd90-5256-11ea-a608-fff9d0276fea,a2b4bbd0-5256-11ea-b49f-874534bd9371
a29498c8-5256-11ea-ac5a-df933586162e,a2b4c6f2-5256-11ea-aafa-837c9390ade8
a29d333e-5256-11ea-b33c-b7a3302722d6,a2b4e1dc-5256-11ea-b387-3b64b0e29501
a28a7ac8-5256-11ea-88ed-a3392b8b7841,a2b51878-5256-11ea-8622-bfb3c012f9e8
a299e6e8-5256-11ea-be56-bbc155606fd4,a2b51e5e-5256-11ea-9b19-b3f9acfdc050
a2a76782-5256-11ea-a6cb-8339bc1079b6,a2b5244e-5256-11ea-bc13-2f297021e978
a2ae0dd0-5256-11ea-b859-0fa0aa09b010,a2b52bf6-5256-11ea-887e-0b4bf8c8a116
a2a76782-5256-11ea-a6cb-8339bc1079b6,a2b53178-5256-11ea-bcf0-e7b5ded5ee3f
a2b06594-5256-11ea-96da-8f7f3d8c730e,a2b537a4-5256-11ea-9be3-a321fd450abd
a291b22a-5256-11ea-b481-33f1f20f998c,a2b53c7c-5256-11ea-be1b-73e689646928
a29ac234-5256-11ea-b6aa-0746866b6c63,a2b54758-5256-11ea-a6f0-473b548b9333
a2b1c3ee-5256-11ea-94bc-d39e426f4835,a2b57fd4-5256-11ea-a04a-d3467745f1b9
a2b4b662-5256-11ea-8f24-037746ea6c12,a2b589c0-5256-11ea-9eb6-d38d4655c02d
a295f236-5256-11ea-bfad-cb8bc4c1678f,a2b591b8-5256-11ea-b35d-0b03c7666381
a2b0c980-5256-11ea-b604-3f1e477b371b,a2b59730-5256-11ea-930f-df2daf865f42
a2a5e498-5256-11ea-b736-7ba383003b9b,a2b59c76-5256-11ea-ab00-674277dd872d
a2b38788-5256-11ea-af82-9fbf2bef5ba9,a2b5a388-5256-11ea-a8f6-3b0125347471
a29c6c60-5256-11ea-8771-770051a64712,a2b5a914-5256-11ea-ab92-f789566fa78c
a2a85fb6-5256-11ea-a746-2fa453c3e420,a2b5b15c-5256-11ea-86c7-5b1d97724b7a
a2a5ee98-5256-11ea-bc11-3f5e88a64372,a2b5eadc-5256-11ea-9f25-6fa3f31e1904
a290f38a-5256-11ea-9fae-2fff6250ae3c,a2b5f7fc-5256-11ea-975a-632088f12cef
a2975874-5256-11ea-859c-3ff488c34687,a2b5fdd8-5256-11ea-b4f5-bf092340a198
a2975874-5256-11ea-859c-3ff488c34687,a2b60436-5256-11ea-a740-2f09e3ba8e07
a2ad45f8-5256-11ea-97f0-6f2528083821,a2b60972-5256-11ea-b2b6-6b989f780a6c
a29d5a58-5256-11ea-aaee-531f51cc8f75,a2b60e40-5256-11ea-bd28-ef569375fb43
a2b3b5be-5256-11ea-9782-afd7a4e0e9b0,a2b61430-5256-11ea-8436-0ffadf1cdcce
a2b391e2-5256-11ea-8228-4fbd1f4aff26,a2b61912-5256-11ea-970f-ab3be100d253
a29fc64e-5256-11ea-95e1-a31d3e40a4c8,a2b650d0-5256-11ea-94f8-cf84c2239718
a2940944-5256-11ea-98cf-87818922e590,a2b65cc4-5256-11ea-9b04-77abb202ab4c
a2a7a224-5256-11ea-8247-63b03cb27d83,a2b66610-5256-11ea-a6cd-873abbffbe2a
a29d2d94-5256-11ea-93b4-5b82fda14e2f,a2b66f7a-5256-11ea-9751-17a874e86c3a
a2ad309a-5256-11ea-bc52-a3624d9fafba,a2b676f0-5256-11ea-9fbe-ef94a9ab275b
a2a26f3e-5256-11ea-83a2-17bf1e11466f,a2b68140-5256-11ea-9c49-1f0e8a49ad69
a2a71066-5256-11ea-b6b0-0bc7ffd5c6db,a2b68668-5256-11ea-9596-177aa7c0a6c6
a2961770-5256-11ea-8b37-df1719dafc31,a2b68b9a-5256-11ea-92bb-3f38174eb217
a2a083a4-5256-11ea-82f8-c77f64a10c9c,a2b6cdd0-5256-11ea-b093-83b0f460ba3f
a2ad23e8-5256-11ea-8ec9-5be2fa2e8d4c,a2b6d578-5256-11ea-a405-53963d72892d
a292d0ba-5256-11ea-a468-a3c29e3d2403,a2b6dee2-5256-11ea-9b98-f7feedfac493
a2a988d2-5256-11ea-8068-e387d3e93bbd,a2b6e932-5256-11ea-8b73-27f0e0b088b2
a2a8c6ea-5256-11ea-84fc-3f5d2970699a,a2b6f576-5256-11ea-9f3e-17c8e0e186b5
a2b65cc4-5256-11ea-9b04-77abb202ab4c,a2b6ef7c-5256-11ea-95cb-6b15439b08d4
a298ea90-5256-11ea-b9f1-7be85aba0265,a2b6fa4e-5256-11ea-8fa2-2b34dedac4da
a2ac0d14-5256-11ea-aecc-c35f12815430,a2b6ff8a-5256-11ea-bd10-b39994d48d44
a28bfcc2-5256-11ea-9555-7fe118fb33f5,a2b74486-5256-11ea-8b0d-9f27fc4f926b
a2ac6340-5256-11ea-8be2-bfeb18935a99,a2b74d28-5256-11ea-95b6-074069d30272
a2894982-5256-11ea-9a40-cbf5b09a56d7,a2b76376-5256-11ea-8831-8fcfa4b983e5
a29bbfe0-5256-11ea-9189-fb4d6d5f74d5,a2b76894-5256-11ea-a004-af58ab459c20
a29b7ed6-5256-11ea-a4b3-fb5d49b6a00b,a2b76d8a-5256-11ea-88d0-679b1999ba78
a28a5fac-5256-11ea-a782-e3414efbfe2a,a2b7733e-5256-11ea-869c-0f4b8b5a8417
a28ed910-5256-11ea-9a0e-bba699dea5f5,a2b77938-5256-11ea-801f-2b86886d3d3e
a288c318-5256-11ea-aed3-27d2e73e71da,a2b77e6a-5256-11ea-853b-63c00e420cf4
a29c3e7a-5256-11ea-bb75-e7e0d9a0ee04,a2b7affc-5256-11ea-af22-a3276c99871e
a2afc3f0-5256-11ea-bd64-5307c2be8ccb,a2b7b4e8-5256-11ea-8283-7ba9037e6f10
a2b07656-5256-11ea-a6de-1b9b9e01cd48,a2b7ca3c-5256-11ea-9f13-ab1078a5dc76
a2b1c902-5256-11ea-a7e5-bfb56bbc6377,a2b7d2de-5256-11ea-8f8a-3bb1addb5400
a29ab7f8-5256-11ea-9f23-3f26c4e8a404,a2b7d978-5256-11ea-a09e-775cdf28a533
a2a65ba8-5256-11ea-b4b3-2706be1252d8,a2b7e03a-5256-11ea-9887-13107e855cb8
a2ad8ff4-5256-11ea-89f6-af9f5227b672,a2b7e4e0-5256-11ea-86b4-8fb9e60bf60e
a28a8dd8-5256-11ea-9e64-ffd99f0f280e,a2b7e9e0-5256-11ea-965c-7b02eb796b4a
a2ad1970-5256-11ea-a277-8f14b617488c,a2b8132a-5256-11ea-9211-1b6f854302fc
a29d25ce-5256-11ea-885d-6333d7cde5a3,a2b81960-5256-11ea-8858-7b6edbcc8566
a2b456ae-5256-11ea-b8a3-bfe9ce08b4fe,a2b8336e-5256-11ea-ace4-4f07d4fec803
a28d1472-5256-11ea-8bdb-5325e7f894fb,a2b83cb0-5256-11ea-8bcd-2f8a01a2259f
a28a8a04-5256-11ea-95b1-bfe4654e012a,a2b8464c-5256-11ea-8d73-7bbe30525b86
a2b66610-5256-11ea-a6cd-873abbffbe2a,a2b85b32-5256-11ea-b6f2-e7cffb65c47f
a2adfe26-5256-11ea-bccb-c7cf70d00823,a2b84dae-5256-11ea-8301-7fe80f49da69
a2920b26-5256-11ea-aa8b-2f98c7bdfad9,a2b860dc-5256-11ea-b606-7fca7bc8a9f3
a2ab3fec-5256-11ea-8525-5f686005f3ef,a2b880d0-5256-11ea-90ed-2baaf27af589
a2b68b9a-5256-11ea-92bb-3f38174eb217,a2b8787e-5256-11ea-ab6d-3fad287348d9
a2975036-5256-11ea-b922-a3e6936943e4,a2b8cc5c-5256-11ea-9cff-e3cf57cdd112
a2952658-5256-11ea-91ae-33d0e3e8f0d6,a2b8d242-5256-11ea-95d2-931a3cace9cc
a2a9c414-5256-11ea-8250-37e55fd11bdd,a2b8d81e-5256-11ea-b94f-9fdd44981c3a
a29f8760-5256-11ea-b6c0-778b3c47052b,a2b8dd0a-5256-11ea-aa26-733420951295
a2964c0e-5256-11ea-80be-a70cd0b50338,a2b8c770-5256-11ea-a1bf-9fd77adb8670
a2901528-5256-11ea-ad26-67194295f334,a2b8e73c-5256-11ea-b0d1-2fc1d7f4b62d
a2a9f9ac-5256-11ea-8398-ef3cda6b427b,a2b8f588-5256-11ea-b937-d7fc92fc08f4
a290270c-5256-11ea-9a79-4fddf3fc2965,a2b94182-5256-11ea-be9e-bbc3b7c84cbc
a2b26b5a-5256-11ea-b1f3-dbfab1debd9f,a2b94d80-5256-11ea-9361-d71bb3bff299
a29be010-5256-11ea-9e20-f7433d030255,a2b95398-5256-11ea-9454-1bf2cc194474
a28b2b1c-5256-11ea-bc48-275e60dd2b73,a2b96720-5256-11ea-b317-fbed520c3747
a2a6bf8a-5256-11ea-901a-b7159a4479a0,a2b9618a-5256-11ea-b25d-83e83f4d48b4
a297cfd4-5256-11ea-be68-c713bb564743,a2b97f80-5256-11ea-857b-f76193d9fd99
a2a0e876-5256-11ea-848f-0f31922c1e1c,a2b958ca-5256-11ea-a28a-cb63d110c580
a297cfd4-5256-11ea-be68-c713bb564743,a2b9cb34-5256-11ea-94db-4b7f152bba14
a2a45ee8-5256-11ea-8cae-9ba261bd69d7,a2b9bdb0-5256-11ea-92fb-378e6ce350c0
a2a3a41c-5256-11ea-87b3-b36395ef2cbd,a2b9ea60-5256-11ea-8d40-f3bfc84631e5
a2a3d072-5256-11ea-98a4-1fa23547dc49,a2b9e402-5256-11ea-812c-5bb0966e1973
a29d20ec-5256-11ea-bc43-c39cff3eba0e,a2b9da5c-5256-11ea-98f8-d7363a568373
a294313a-5256-11ea-a1aa-a7a39ee38359,a2ba2d22-5256-11ea-8441-330c81503169
a2a2c060-5256-11ea-a5e3-e368134c55d7,a2ba33bc-5256-11ea-9c22-4b30842908ff
a297c890-5256-11ea-b6ae-3ba2ff3cc1bc,a2ba5310-5256-11ea-a568-cba9fee690fb
a28c7be8-5256-11ea-accb-9f5a845fdb00,a2ba595a-5256-11ea-97bd-cb500b78581c
a2abdc86-5256-11ea-8c84-57707309a162,a2ba7390-5256-11ea-84a7-9f9ebf0741b9
a2b311cc-5256-11ea-9e9d-972e7e24b810,a2ba7872-5256-11ea-85ba-43002001d059
a28be7aa-5256-11ea-af15-3b43056f53d5,a2bac2fa-5256-11ea-83a6-3775d8053650
a2b9cb34-5256-11ea-94db-4b7f152bba14,a2bad57e-5256-11ea-8f52-9f8d039c26a7
a2aec0d6-5256-11ea-bbbe-2b368c86d84c,a2badcea-5256-11ea-832f-2370020acc75
a28cc7c4-5256-11ea-bd9c-07328b1257fb,a2bae46a-5256-11ea-8354-3bea6e0b7247
a29c9992-5256-11ea-b499-c3ba519b7426,a2baea6e-5256-11ea-9baa-b3f2ad6e326a
a2883c40-5256-11ea-8c20-e77da3cc6ae0,a2baef82-5256-11ea-aa2e-0755bdd2884c
a29deed2-5256-11ea-84df-43c75d4a72f5,a2bb30be-5256-11ea-a4ae-4b6a3f27372c
a2931782-5256-11ea-af3b-aff8d69d3363,a2bb4054-5256-11ea-907a-e707dd831a0c
a29feb2e-5256-11ea-aad0-e382b1e91eee,a2bb48ce-5256-11ea-b4a1-73618541eb98
a2a037dc-5256-11ea-b88e-1bec410508e6,a2bb53fa-5256-11ea-93dc-635168566c8a
