RunID,Tick,ActiveAgentsPerTick
run-2020-2-17-18-27-50.208228111,0,13
run-2020-2-17-18-27-50.208228111,1,17
run-2020-2-17-18-27-50.208228111,2,20
run-2020-2-17-18-27-50.208228111,3,16
run-2020-2-17-18-27-50.208228111,4,14
run-2020-2-17-18-27-50.208228111,5,11
run-2020-2-17-18-27-50.208228111,6,15
run-2020-2-17-18-27-50.208228111,7,14
run-2020-2-17-18-27-50.208228111,8,20
run-2020-2-17-18-27-50.208228111,9,18
run-2020-2-17-18-27-50.208228111,10,17
run-2020-2-17-18-27-50.208228111,11,20
run-2020-2-17-18-27-50.208228111,12,26
run-2020-2-17-18-27-50.208228111,13,30
run-2020-2-17-18-27-50.208228111,14,28
run-2020-2-17-18-27-50.208228111,15,33
run-2020-2-17-18-27-50.208228111,16,35
run-2020-2-17-18-27-50.208228111,17,39
run-2020-2-17-18-27-50.208228111,18,35
run-2020-2-17-18-27-50.208228111,19,36
run-2020-2-17-18-27-50.208228111,20,33
run-2020-2-17-18-27-50.208228111,21,33
run-2020-2-17-18-27-50.208228111,22,32
run-2020-2-17-18-27-50.208228111,23,31
run-2020-2-17-18-27-50.208228111,24,35
run-2020-2-17-18-27-50.208228111,25,34
run-2020-2-17-18-27-50.208228111,26,36
run-2020-2-17-18-27-50.208228111,27,38
run-2020-2-17-18-27-50.208228111,28,36
run-2020-2-17-18-27-50.208228111,29,37
run-2020-2-17-18-27-50.208228111,30,36
run-2020-2-17-18-27-50.208228111,31,41
run-2020-2-17-18-27-50.208228111,32,45
run-2020-2-17-18-27-50.208228111,33,44
run-2020-2-17-18-27-50.208228111,34,44
run-2020-2-17-18-27-50.208228111,35,42
run-2020-2-17-18-27-50.208228111,36,45
run-2020-2-17-18-27-50.208228111,37,48
run-2020-2-17-18-27-50.208228111,38,50
run-2020-2-17-18-27-50.208228111,39,47
run-2020-2-17-18-27-50.208228111,40,49
run-2020-2-17-18-27-50.208228111,41,52
run-2020-2-17-18-27-50.208228111,42,53
run-2020-2-17-18-27-50.208228111,43,54
run-2020-2-17-18-27-50.208228111,44,56
run-2020-2-17-18-27-50.208228111,45,52
run-2020-2-17-18-27-50.208228111,46,52
run-2020-2-17-18-27-50.208228111,47,56
run-2020-2-17-18-27-50.208228111,48,54
run-2020-2-17-18-27-50.208228111,49,58
run-2020-2-17-18-27-50.208228111,50,56
run-2020-2-17-18-27-50.208228111,51,55
run-2020-2-17-18-27-50.208228111,52,53
run-2020-2-17-18-27-50.208228111,53,51
run-2020-2-17-18-27-50.208228111,54,51
run-2020-2-17-18-27-50.208228111,55,53
run-2020-2-17-18-27-50.208228111,56,54
run-2020-2-17-18-27-50.208228111,57,53
run-2020-2-17-18-27-50.208228111,58,54
run-2020-2-17-18-27-50.208228111,59,48
run-2020-2-17-18-27-50.208228111,60,51
run-2020-2-17-18-27-50.208228111,61,46
run-2020-2-17-18-27-50.208228111,62,45
run-2020-2-17-18-27-50.208228111,63,44
run-2020-2-17-18-27-50.208228111,64,46
run-2020-2-17-18-27-50.208228111,65,49
run-2020-2-17-18-27-50.208228111,66,50
run-2020-2-17-18-27-50.208228111,67,54
run-2020-2-17-18-27-50.208228111,68,52
run-2020-2-17-18-27-50.208228111,69,51
run-2020-2-17-18-27-50.208228111,70,53
run-2020-2-17-18-27-50.208228111,71,53
run-2020-2-17-18-27-50.208228111,72,53
run-2020-2-17-18-27-50.208228111,73,56
run-2020-2-17-18-27-50.208228111,74,58
run-2020-2-17-18-27-50.208228111,75,53
run-2020-2-17-18-27-50.208228111,76,56
run-2020-2-17-18-27-50.208228111,77,55
run-2020-2-17-18-27-50.208228111,78,57
run-2020-2-17-18-27-50.208228111,79,58
run-2020-2-17-18-27-50.208228111,80,54
run-2020-2-17-18-27-50.208228111,81,51
run-2020-2-17-18-27-50.208228111,82,51
run-2020-2-17-18-27-50.208228111,83,49
run-2020-2-17-18-27-50.208228111,84,47
run-2020-2-17-18-27-50.208228111,85,47
run-2020-2-17-18-27-50.208228111,86,46
run-2020-2-17-18-27-50.208228111,87,48
run-2020-2-17-18-27-50.208228111,88,52
run-2020-2-17-18-27-50.208228111,89,48
run-2020-2-17-18-27-50.208228111,90,46
run-2020-2-17-18-27-50.208228111,91,45
run-2020-2-17-18-27-50.208228111,92,43
run-2020-2-17-18-27-50.208228111,93,46
run-2020-2-17-18-27-50.208228111,94,49
run-2020-2-17-18-27-50.208228111,95,50
run-2020-2-17-18-27-50.208228111,96,48
run-2020-2-17-18-27-50.208228111,97,43
run-2020-2-17-18-27-50.208228111,98,42
run-2020-2-17-18-27-50.208228111,99,47
run-2020-2-17-18-27-50.208228111,100,45
