RunID,Tick,ActiveAgentsPerTick
run-2020-2-18-13-46-53.78887391,0,11
run-2020-2-18-13-46-53.78887391,1,16
run-2020-2-18-13-46-53.78887391,2,18
run-2020-2-18-13-46-53.78887391,3,17
run-2020-2-18-13-46-53.78887391,4,24
run-2020-2-18-13-46-53.78887391,5,20
run-2020-2-18-13-46-53.78887391,6,20
run-2020-2-18-13-46-53.78887391,7,20
run-2020-2-18-13-46-53.78887391,8,23
run-2020-2-18-13-46-53.78887391,9,26
run-2020-2-18-13-46-53.78887391,10,27
run-2020-2-18-13-46-53.78887391,11,24
run-2020-2-18-13-46-53.78887391,12,22
run-2020-2-18-13-46-53.78887391,13,24
run-2020-2-18-13-46-53.78887391,14,26
run-2020-2-18-13-46-53.78887391,15,30
run-2020-2-18-13-46-53.78887391,16,37
run-2020-2-18-13-46-53.78887391,17,39
run-2020-2-18-13-46-53.78887391,18,40
run-2020-2-18-13-46-53.78887391,19,45
run-2020-2-18-13-46-53.78887391,20,44
run-2020-2-18-13-46-53.78887391,21,44
run-2020-2-18-13-46-53.78887391,22,43
run-2020-2-18-13-46-53.78887391,23,43
run-2020-2-18-13-46-53.78887391,24,41
run-2020-2-18-13-46-53.78887391,25,36
run-2020-2-18-13-46-53.78887391,26,35
run-2020-2-18-13-46-53.78887391,27,36
run-2020-2-18-13-46-53.78887391,28,42
run-2020-2-18-13-46-53.78887391,29,46
run-2020-2-18-13-46-53.78887391,30,50
run-2020-2-18-13-46-53.78887391,31,51
run-2020-2-18-13-46-53.78887391,32,48
run-2020-2-18-13-46-53.78887391,33,53
run-2020-2-18-13-46-53.78887391,34,51
run-2020-2-18-13-46-53.78887391,35,51
run-2020-2-18-13-46-53.78887391,36,56
run-2020-2-18-13-46-53.78887391,37,55
run-2020-2-18-13-46-53.78887391,38,58
run-2020-2-18-13-46-53.78887391,39,59
run-2020-2-18-13-46-53.78887391,40,62
run-2020-2-18-13-46-53.78887391,41,60
run-2020-2-18-13-46-53.78887391,42,57
run-2020-2-18-13-46-53.78887391,43,60
run-2020-2-18-13-46-53.78887391,44,60
run-2020-2-18-13-46-53.78887391,45,57
run-2020-2-18-13-46-53.78887391,46,56
run-2020-2-18-13-46-53.78887391,47,57
run-2020-2-18-13-46-53.78887391,48,53
run-2020-2-18-13-46-53.78887391,49,53
run-2020-2-18-13-46-53.78887391,50,49
run-2020-2-18-13-46-53.78887391,51,47
run-2020-2-18-13-46-53.78887391,52,52
run-2020-2-18-13-46-53.78887391,53,54
run-2020-2-18-13-46-53.78887391,54,58
run-2020-2-18-13-46-53.78887391,55,59
run-2020-2-18-13-46-53.78887391,56,65
run-2020-2-18-13-46-53.78887391,57,58
run-2020-2-18-13-46-53.78887391,58,55
run-2020-2-18-13-46-53.78887391,59,55
run-2020-2-18-13-46-53.78887391,60,54
run-2020-2-18-13-46-53.78887391,61,54
run-2020-2-18-13-46-53.78887391,62,55
run-2020-2-18-13-46-53.78887391,63,54
run-2020-2-18-13-46-53.78887391,64,56
run-2020-2-18-13-46-53.78887391,65,58
run-2020-2-18-13-46-53.78887391,66,58
run-2020-2-18-13-46-53.78887391,67,55
run-2020-2-18-13-46-53.78887391,68,59
run-2020-2-18-13-46-53.78887391,69,54
run-2020-2-18-13-46-53.78887391,70,56
run-2020-2-18-13-46-53.78887391,71,57
run-2020-2-18-13-46-53.78887391,72,62
run-2020-2-18-13-46-53.78887391,73,62
run-2020-2-18-13-46-53.78887391,74,59
run-2020-2-18-13-46-53.78887391,75,63
run-2020-2-18-13-46-53.78887391,76,56
run-2020-2-18-13-46-53.78887391,77,53
run-2020-2-18-13-46-53.78887391,78,49
run-2020-2-18-13-46-53.78887391,79,49
run-2020-2-18-13-46-53.78887391,80,49
run-2020-2-18-13-46-53.78887391,81,52
run-2020-2-18-13-46-53.78887391,82,53
run-2020-2-18-13-46-53.78887391,83,53
run-2020-2-18-13-46-53.78887391,84,52
run-2020-2-18-13-46-53.78887391,85,55
run-2020-2-18-13-46-53.78887391,86,54
run-2020-2-18-13-46-53.78887391,87,53
run-2020-2-18-13-46-53.78887391,88,56
run-2020-2-18-13-46-53.78887391,89,58
run-2020-2-18-13-46-53.78887391,90,56
run-2020-2-18-13-46-53.78887391,91,57
run-2020-2-18-13-46-53.78887391,92,54
run-2020-2-18-13-46-53.78887391,93,54
run-2020-2-18-13-46-53.78887391,94,58
run-2020-2-18-13-46-53.78887391,95,61
run-2020-2-18-13-46-53.78887391,96,62
run-2020-2-18-13-46-53.78887391,97,65
run-2020-2-18-13-46-53.78887391,98,62
run-2020-2-18-13-46-53.78887391,99,62
run-2020-2-18-13-46-53.78887391,100,58
