RunID,Tick,AllAgents,Active,Inactive
run-2020-2-18-13-44-56.506978034,0,13,13,0
run-2020-2-18-13-44-56.506978034,1,14,11,3
run-2020-2-18-13-44-56.506978034,2,21,17,4
run-2020-2-18-13-44-56.506978034,3,24,17,7
run-2020-2-18-13-44-56.506978034,4,24,13,11
run-2020-2-18-13-44-56.506978034,5,28,16,12
run-2020-2-18-13-44-56.506978034,6,30,18,12
run-2020-2-18-13-44-56.506978034,7,33,18,15
run-2020-2-18-13-44-56.506978034,8,38,22,16
run-2020-2-18-13-44-56.506978034,9,40,21,19
run-2020-2-18-13-44-56.506978034,10,45,24,21
run-2020-2-18-13-44-56.506978034,11,49,25,24
run-2020-2-18-13-44-56.506978034,12,51,26,25
run-2020-2-18-13-44-56.506978034,13,57,29,28
run-2020-2-18-13-44-56.506978034,14,63,30,33
run-2020-2-18-13-44-56.506978034,15,64,29,35
run-2020-2-18-13-44-56.506978034,16,70,31,39
run-2020-2-18-13-44-56.506978034,17,75,35,40
run-2020-2-18-13-44-56.506978034,18,81,38,43
run-2020-2-18-13-44-56.506978034,19,84,38,46
run-2020-2-18-13-44-56.506978034,20,90,36,54
run-2020-2-18-13-44-56.506978034,21,96,41,55
run-2020-2-18-13-44-56.506978034,22,98,39,59
run-2020-2-18-13-44-56.506978034,23,102,39,63
run-2020-2-18-13-44-56.506978034,24,105,36,69
