Source,Target
4f86e840-5231-11ea-9523-8f840312acb9,4f8de47e-5231-11ea-b9ab-0309ae08d44d
4f88fa7c-5231-11ea-98bf-e7f0dd402ade,4f8e0d00-5231-11ea-9a65-4b416f23f130
4f88b8be-5231-11ea-91e1-ef10b6a8acba,4f8e3550-5231-11ea-89ae-db9e62a5a056
4f8bf380-5231-11ea-b078-3fae3fc3ca55,4f8e6426-5231-11ea-956a-f710c77eaad8
4f8cb518-5231-11ea-a049-87328648d201,4f8e7b50-5231-11ea-89f4-577956ea0180
4f8a2fc8-5231-11ea-bfff-cf79d6225e2f,4f8eaa12-5231-11ea-ab52-835e695eb406
4f8ba57e-5231-11ea-a54d-33609335b3cf,4f8ee540-5231-11ea-b1e8-0bf2bc6a93cb
4f8dd1d2-5231-11ea-890b-53c6c36b35ad,4f8f0a34-5231-11ea-88cb-03948aaa33ab
4f8861e8-5231-11ea-ba31-4f940e930b95,4f8f28b6-5231-11ea-b598-636e9013fce2
4f8a89c8-5231-11ea-8cfc-c7e6bef69ee6,4f8f42c4-5231-11ea-88ff-bb0c6afd653c
4f8a1cfe-5231-11ea-a5cc-a70345f89600,4f8f61be-5231-11ea-a29e-efa6e29f79bb
4f86f7cc-5231-11ea-886a-dba8e1e9684a,4f8f7b40-5231-11ea-b0ec-2f182b3d6efa
4f8861e8-5231-11ea-ba31-4f940e930b95,4f8f9abc-5231-11ea-b76e-efe4aa8bb1fb
4f8c60f4-5231-11ea-a293-cf2bc811118f,4f8fb826-5231-11ea-9f63-476ca97c351a
4f872e40-5231-11ea-9977-a32a1b902684,4f8fcece-5231-11ea-9370-f3df2032aee5
4f8da81a-5231-11ea-af0e-af4b541956ae,4f8fe12a-5231-11ea-8dd0-cfc6a9aa6d15
4f8a65d8-5231-11ea-be95-433ca5f99c81,4f8ff368-5231-11ea-b95c-63e11d15b120
4f8f28b6-5231-11ea-b598-636e9013fce2,4f901370-5231-11ea-8ec6-23ccaac96431
4f89284e-5231-11ea-8cdf-8b017ba2cda9,4f9036ca-5231-11ea-b789-c76104e4ff26
4f872242-5231-11ea-9339-7bc23cfb8bee,4f907446-5231-11ea-859b-eb3ab3a9ccc2
4f86f7cc-5231-11ea-886a-dba8e1e9684a,4f90912e-5231-11ea-9a5e-9f7a65cea42c
4f8f0a34-5231-11ea-88cb-03948aaa33ab,4f90a60a-5231-11ea-a352-1b1b6bf38ed9
4f8eaa12-5231-11ea-ab52-835e695eb406,4f90dd3c-5231-11ea-b271-c795ee354373
4f8e6426-5231-11ea-956a-f710c77eaad8,4f90efd4-5231-11ea-b121-e7bcf85eeb41
4f871446-5231-11ea-9ce9-837d607fcfad,4f9102c6-5231-11ea-9c95-8ff285395a6c
4f8b74d2-5231-11ea-ba42-8bb0958557b2,4f9114dc-5231-11ea-a14c-bbb5c1012042
4f89774a-5231-11ea-82d8-53a164409921,4f914448-5231-11ea-9cb0-23557bea0d39
4f88766a-5231-11ea-8d86-17064cfb5001,4f9173a0-5231-11ea-9cc9-7b1939500f66
4f8b74d2-5231-11ea-ba42-8bb0958557b2,4f918bce-5231-11ea-b1dc-f7b91e4c0442
4f8e3550-5231-11ea-89ae-db9e62a5a056,4f919e02-5231-11ea-8db2-4f3ece55d205
4f89af3a-5231-11ea-afdd-076c78c6e620,4f91ade8-5231-11ea-927f-3fd271d96d37
4f8f0a34-5231-11ea-88cb-03948aaa33ab,4f91c0e4-5231-11ea-a927-5bf6912e7062
4f8b5ad8-5231-11ea-98af-8fcb5d2bd410,4f91d6f6-5231-11ea-9531-a30086e56493
4f86e840-5231-11ea-9523-8f840312acb9,4f91f38e-5231-11ea-93a3-cbb55979b101
4f8e0d00-5231-11ea-9a65-4b416f23f130,4f9209b4-5231-11ea-b280-436f10b1395b
4f8f0a34-5231-11ea-88cb-03948aaa33ab,4f922c46-5231-11ea-b2de-3ff62f27bbaa
4f8c9308-5231-11ea-88e2-b7c0843314e6,4f92438e-5231-11ea-93b9-4740a83ad9c7
4f87b5d6-5231-11ea-a10c-23acbe7d3b72,4f925b4e-5231-11ea-8a16-976faa8a76ee
4f871446-5231-11ea-9ce9-837d607fcfad,4f9294ec-5231-11ea-ae78-1788d2923af8
4f8b9192-5231-11ea-b3cb-5323fe3234f2,4f92b706-5231-11ea-a3cc-db3af1c7a0fb
4f88766a-5231-11ea-8d86-17064cfb5001,4f92cdea-5231-11ea-81c9-5777c61fae70
4f8da81a-5231-11ea-af0e-af4b541956ae,4f92de84-5231-11ea-822f-1be2a94743f9
4f8de47e-5231-11ea-b9ab-0309ae08d44d,4f92f1d0-5231-11ea-9eb1-03ff22ea96e6
4f8cb518-5231-11ea-a049-87328648d201,4f930472-5231-11ea-8e4d-e3d20efaf84e
4f9173a0-5231-11ea-9cc9-7b1939500f66,4f931764-5231-11ea-bc99-5bbf44ba9e5e
4f8e7b50-5231-11ea-89f4-577956ea0180,4f9329fc-5231-11ea-bdb2-df935dbdae5f
4f8740f6-5231-11ea-9d93-d3fd09a41d35,4f9345ae-5231-11ea-9346-578c8cf91779
4f86dabc-5231-11ea-9f62-575e5d84ef09,4f937290-5231-11ea-ab0c-e723887fa3c2
4f8b74d2-5231-11ea-ba42-8bb0958557b2,4f938f6e-5231-11ea-8025-ef6880ae71c9
4f888d58-5231-11ea-8aaf-af01ae9a4fb8,4f93a49a-5231-11ea-b3ba-9760461c7bde
4f931764-5231-11ea-bc99-5bbf44ba9e5e,4f93b7d2-5231-11ea-a4e4-bb6e10175661
4f87a4f6-5231-11ea-847d-33da658b5e7f,4f93ca10-5231-11ea-be57-d39391bd57f7
4f907446-5231-11ea-859b-eb3ab3a9ccc2,4f93dbcc-5231-11ea-8660-97f47b20479b
4f9036ca-5231-11ea-b789-c76104e4ff26,4f93eda6-5231-11ea-af4d-57b7e9546024
4f8fb826-5231-11ea-9f63-476ca97c351a,4f94043a-5231-11ea-9fd9-075b076218f5
4f8a2fc8-5231-11ea-bfff-cf79d6225e2f,4f94292e-5231-11ea-95b9-93b672ba0bc2
4f8cd016-5231-11ea-8f63-27b08ae72633,4f9443f0-5231-11ea-b8fd-ff048b6c358e
4f86f7cc-5231-11ea-886a-dba8e1e9684a,4f945548-5231-11ea-96a6-a3811533a471
4f92b706-5231-11ea-a3cc-db3af1c7a0fb,4f9472b2-5231-11ea-9dd7-cf0e745836fd
4f8f9abc-5231-11ea-b76e-efe4aa8bb1fb,4f948a90-5231-11ea-b3b7-c3d63aefd52f
4f8cd016-5231-11ea-8f63-27b08ae72633,4f949d6e-5231-11ea-ae78-43d2c61418d9
4f93a49a-5231-11ea-b3ba-9760461c7bde,4f94ad72-5231-11ea-a47c-cf103743cff1
4f8b43c2-5231-11ea-a048-2b55a51c163e,4f94c2a8-5231-11ea-9576-c72c8dd7c034
4f901370-5231-11ea-8ec6-23ccaac96431,4f94ea9e-5231-11ea-af26-3f9351f40205
4f8f0a34-5231-11ea-88cb-03948aaa33ab,4f94ffde-5231-11ea-922e-ff5d6c0ec95b
4f8f9abc-5231-11ea-b76e-efe4aa8bb1fb,4f952752-5231-11ea-9322-63978646de6d
4f8c4092-5231-11ea-8b6b-3387e8f46547,4f95408e-5231-11ea-9bda-83ad64b47f1d
4f9209b4-5231-11ea-b280-436f10b1395b,4f9552cc-5231-11ea-a031-ab9a50f03289
4f91d6f6-5231-11ea-9531-a30086e56493,4f956514-5231-11ea-8737-37eccb37d838
4f8a9b34-5231-11ea-a909-532ee6686735,4f957f86-5231-11ea-a010-c7d9054ec3d4
4f901370-5231-11ea-8ec6-23ccaac96431,4f958f76-5231-11ea-b577-6bfdb110b5be
4f907446-5231-11ea-859b-eb3ab3a9ccc2,4f95a600-5231-11ea-b189-f766f9acef0c
4f8ad842-5231-11ea-bb21-6f9b307f5282,4f95c5ea-5231-11ea-8280-37e1c03b7c60
4f90a60a-5231-11ea-a352-1b1b6bf38ed9,4f95e0d4-5231-11ea-bf2f-a35551ecd74b
4f931764-5231-11ea-bc99-5bbf44ba9e5e,4f9601c2-5231-11ea-9a3c-d74756788e41
4f92f1d0-5231-11ea-9eb1-03ff22ea96e6,4f96134c-5231-11ea-aa5d-037fca768484
4f914448-5231-11ea-9cb0-23557bea0d39,4f962418-5231-11ea-bcb3-2bd198c26354
4f918bce-5231-11ea-b1dc-f7b91e4c0442,4f963c0a-5231-11ea-9052-fb040e5c9e2c
4f8f28b6-5231-11ea-b598-636e9013fce2,4f967ba2-5231-11ea-a02d-7f2626c0d913
4f8b9192-5231-11ea-b3cb-5323fe3234f2,4f9692ea-5231-11ea-8621-4788b035cb99
4f9552cc-5231-11ea-a031-ab9a50f03289,4f96b928-5231-11ea-826e-d70c23c33f97
4f87a4f6-5231-11ea-847d-33da658b5e7f,4f96d264-5231-11ea-a236-4b1c083747ac
4f95408e-5231-11ea-9bda-83ad64b47f1d,4f96e93e-5231-11ea-ace4-ab3f9f4b44dc
4f962418-5231-11ea-bcb3-2bd198c26354,4f970ebe-5231-11ea-9155-2b779783a0a7
4f8a7596-5231-11ea-ada5-7faccb861584,4f972084-5231-11ea-9581-dbf5787ec826
4f94ffde-5231-11ea-922e-ff5d6c0ec95b,4f9735ec-5231-11ea-9b25-7f5d5b9e1582
4f894db0-5231-11ea-b0fa-1bfdd78bc367,4f9748ca-5231-11ea-8df9-e3e83f1f193d
4f87b5d6-5231-11ea-a10c-23acbe7d3b72,4f975cac-5231-11ea-8090-0339e60972d5
4f930472-5231-11ea-8e4d-e3d20efaf84e,4f976a76-5231-11ea-9df3-63e14f8741f2
4f89774a-5231-11ea-82d8-53a164409921,4f977b42-5231-11ea-b98a-ef6fe5ef3981
4f8a2fc8-5231-11ea-bfff-cf79d6225e2f,4f978cb8-5231-11ea-b85a-93545a3945c5
4f94ffde-5231-11ea-922e-ff5d6c0ec95b,4f97b1d4-5231-11ea-b07d-9b2b3313473e
4f8b5ad8-5231-11ea-98af-8fcb5d2bd410,4f97d38a-5231-11ea-817f-d7b6b156746e
4f8cb518-5231-11ea-a049-87328648d201,4f97f022-5231-11ea-bff6-17a21ebb1497
4f89774a-5231-11ea-82d8-53a164409921,4f980922-5231-11ea-8917-bb35a70cdd21
4f975cac-5231-11ea-8090-0339e60972d5,4f984554-5231-11ea-86ce-b39c190a9087
4f91f38e-5231-11ea-93a3-cbb55979b101,4f98571a-5231-11ea-80d0-7f0d45f1bd36
4f8c4092-5231-11ea-8b6b-3387e8f46547,4f9871aa-5231-11ea-aba4-e38395abac8a
4f9735ec-5231-11ea-9b25-7f5d5b9e1582,4f987fb0-5231-11ea-b6cb-175871a5361a
4f97b1d4-5231-11ea-b07d-9b2b3313473e,4f98916c-5231-11ea-9183-33727ee0bda8
4f88766a-5231-11ea-8d86-17064cfb5001,4f98d3fc-5231-11ea-bd59-67fc7bdffc7b
4f93eda6-5231-11ea-af4d-57b7e9546024,4f98f382-5231-11ea-bc9e-57239d8e40af
4f957f86-5231-11ea-a010-c7d9054ec3d4,4f990872-5231-11ea-b28a-8b643f825f94
4f9735ec-5231-11ea-9b25-7f5d5b9e1582,4f99223a-5231-11ea-a4ee-4b77ce58fede
4f9552cc-5231-11ea-a031-ab9a50f03289,4f9934be-5231-11ea-8c5b-6b440be6e058
4f967ba2-5231-11ea-a02d-7f2626c0d913,4f9945da-5231-11ea-97ae-1fac5401b1e9
4f8c4092-5231-11ea-8b6b-3387e8f46547,4f9969e8-5231-11ea-9beb-cbfad1145efa
4f9102c6-5231-11ea-9c95-8ff285395a6c,4f997e56-5231-11ea-a698-ef3b8f110063
4f8b5ad8-5231-11ea-98af-8fcb5d2bd410,4f999012-5231-11ea-afce-23a29ae6940a
4f92b706-5231-11ea-a3cc-db3af1c7a0fb,4f99a142-5231-11ea-9fa9-270b8e8cf0c5
4f997e56-5231-11ea-a698-ef3b8f110063,4f99e1ca-5231-11ea-b881-bf96246902aa
4f91c0e4-5231-11ea-a927-5bf6912e7062,4f99f976-5231-11ea-aa50-c37c1605b1af
4f8e6426-5231-11ea-956a-f710c77eaad8,4f9a0e02-5231-11ea-8643-7f9bc2893ced
4f8a1cfe-5231-11ea-a5cc-a70345f89600,4f9a28ba-5231-11ea-8527-fbdc82e9d566
4f9036ca-5231-11ea-b789-c76104e4ff26,4f9a3b02-5231-11ea-a136-cb4e5d24f040
4f98571a-5231-11ea-80d0-7f0d45f1bd36,4f9a4db8-5231-11ea-8270-63c437fd0f79
4f8861e8-5231-11ea-ba31-4f940e930b95,4f9a5f4c-5231-11ea-99a8-875203e7078e
4f925b4e-5231-11ea-8a16-976faa8a76ee,4f9a71ee-5231-11ea-9d4c-7bb12bf48b74
4f99e1ca-5231-11ea-b881-bf96246902aa,4f9a82ce-5231-11ea-8c5c-4740031414b0
4f987fb0-5231-11ea-b6cb-175871a5361a,4f9a9764-5231-11ea-857d-370f9ab49c28
4f86e840-5231-11ea-9523-8f840312acb9,4f9aa8c6-5231-11ea-93de-cb0077e97dd8
4f8dbf08-5231-11ea-8c49-db5acb77b965,4f9adb48-5231-11ea-89a8-533ea705e72f
4f901370-5231-11ea-8ec6-23ccaac96431,4f9b062c-5231-11ea-8e31-0bd65b4fafb0
4f9aa8c6-5231-11ea-93de-cb0077e97dd8,4f9b1d60-5231-11ea-b699-775f3212b081
4f945548-5231-11ea-96a6-a3811533a471,4f9b2e4a-5231-11ea-ab1b-cf9667e9d7da
4f9601c2-5231-11ea-9a3c-d74756788e41,4f9b440c-5231-11ea-803b-e3da52468434
4f88fa7c-5231-11ea-98bf-e7f0dd402ade,4f9b8ef8-5231-11ea-89ef-77654ec70a17
4f9294ec-5231-11ea-ae78-1788d2923af8,4f9ba08c-5231-11ea-a8fd-57bfb89c1a54
4f94043a-5231-11ea-9fd9-075b076218f5,4f9bb3ec-5231-11ea-bf38-db69885ac5b3
4f8ba57e-5231-11ea-a54d-33609335b3cf,4f9bc38c-5231-11ea-b414-f708de5b4812
4f8fe12a-5231-11ea-8dd0-cfc6a9aa6d15,4f9bd34a-5231-11ea-ae31-d7147176b036
4f8a1cfe-5231-11ea-a5cc-a70345f89600,4f9be4f2-5231-11ea-bffb-ffcadc6afb7c
4f86f7cc-5231-11ea-886a-dba8e1e9684a,4f9c142c-5231-11ea-9cdb-47345d30ac70
4f872242-5231-11ea-9339-7bc23cfb8bee,4f9c3592-5231-11ea-bf8c-eb342391261c
4f8f42c4-5231-11ea-88ff-bb0c6afd653c,4f9c5568-5231-11ea-ad4e-6fecb8f0bb78
4f8713a6-5231-11ea-8439-c73ab8d05c1d,4f9c62ba-5231-11ea-821b-63224ca425ac
4f94c2a8-5231-11ea-9576-c72c8dd7c034,4f9c86d2-5231-11ea-9e44-5f858bbae2fd
4f914448-5231-11ea-9cb0-23557bea0d39,4f9c9ce4-5231-11ea-999b-77fc49e442de
4f8ff368-5231-11ea-b95c-63e11d15b120,4f9cc08e-5231-11ea-8221-8345f8e5db4e
4f970ebe-5231-11ea-9155-2b779783a0a7,4f9cfb8a-5231-11ea-8ac1-933dfabc10cb
4f8da81a-5231-11ea-af0e-af4b541956ae,4f9d13f4-5231-11ea-afa1-870133deef7c
4f888d58-5231-11ea-8aaf-af01ae9a4fb8,4f9d4572-5231-11ea-94b7-5f65a1aefdda
4f91ade8-5231-11ea-927f-3fd271d96d37,4f9d5ee0-5231-11ea-9ccd-2b77f8ffaee7
4f9735ec-5231-11ea-9b25-7f5d5b9e1582,4f9d80d2-5231-11ea-ad8a-8f021c0d2d20
4f9bd34a-5231-11ea-ae31-d7147176b036,4f9d9aa4-5231-11ea-bc61-33470893f45d
4f9345ae-5231-11ea-9346-578c8cf91779,4f9dad78-5231-11ea-8013-437be7a688ee
4f925b4e-5231-11ea-8a16-976faa8a76ee,4f9e05de-5231-11ea-b05d-cb32068efe9c
4f86dabc-5231-11ea-9f62-575e5d84ef09,4f9e2cda-5231-11ea-a273-3706de7d42f8
4f901370-5231-11ea-8ec6-23ccaac96431,4f9e41a2-5231-11ea-badd-f30fb5a3daa8
4f8de47e-5231-11ea-b9ab-0309ae08d44d,4f9e557a-5231-11ea-89cc-13e1965fa8de
4f884b0e-5231-11ea-90f4-532bc8929bbc,4f9e688a-5231-11ea-ba0c-6b2ccf83bcab
4f9b062c-5231-11ea-8e31-0bd65b4fafb0,4f9eb682-5231-11ea-bcb3-2fad934242d0
4f8f61be-5231-11ea-a29e-efa6e29f79bb,4f9ecad2-5231-11ea-83c6-0fadd7af2282
4f914448-5231-11ea-9cb0-23557bea0d39,4f9ee44a-5231-11ea-bfb1-6794af1c9226
4f92de84-5231-11ea-822f-1be2a94743f9,4f9f2248-5231-11ea-af52-1b3d24d668d9
4f8fcece-5231-11ea-9370-f3df2032aee5,4f9f2248-5231-11ea-a88c-676d97aff6f6
4f8b74d2-5231-11ea-ba42-8bb0958557b2,4f9f8198-5231-11ea-9942-a3718e6a4e97
4f92de84-5231-11ea-822f-1be2a94743f9,4f9faf74-5231-11ea-bfbf-eb51031cdb5f
4f96134c-5231-11ea-aa5d-037fca768484,4f9fc70c-5231-11ea-930f-074e9127ef17
4f98916c-5231-11ea-9183-33727ee0bda8,4f9fdf08-5231-11ea-a633-5f6a68352206
4f9c5568-5231-11ea-ad4e-6fecb8f0bb78,4fa00dd4-5231-11ea-baff-439ba708b133
4f87f1c2-5231-11ea-95f5-1bd4f10c859f,4fa0102c-5231-11ea-a6db-cb856bf2d7dc
4f91ade8-5231-11ea-927f-3fd271d96d37,4fa029cc-5231-11ea-89b7-077de1418d95
4f8eaa12-5231-11ea-ab52-835e695eb406,4fa04eb6-5231-11ea-afcd-43a2fad21e77
4f99f976-5231-11ea-aa50-c37c1605b1af,4fa06aae-5231-11ea-a721-bb5c1b98e92b
4f8e0d00-5231-11ea-9a65-4b416f23f130,4fa08066-5231-11ea-9cb9-2f97d137814e
4f8fcece-5231-11ea-9370-f3df2032aee5,4fa09394-5231-11ea-aef8-6301a86b7e1e
4f9b440c-5231-11ea-803b-e3da52468434,4fa0c774-5231-11ea-9f7c-9f94514beb40
4f9cc08e-5231-11ea-8221-8345f8e5db4e,4fa0f56e-5231-11ea-800f-2fb67be57422
4f9b062c-5231-11ea-8e31-0bd65b4fafb0,4fa12386-5231-11ea-80fc-dbe143a475c5
4f8e6426-5231-11ea-956a-f710c77eaad8,4fa10cde-5231-11ea-86c4-3befea64b0c1
4f99f976-5231-11ea-aa50-c37c1605b1af,4fa13664-5231-11ea-9c92-7ff04f16acce
4f93b7d2-5231-11ea-a4e4-bb6e10175661,4fa16990-5231-11ea-936c-bf1f561a5d47
4f9735ec-5231-11ea-9b25-7f5d5b9e1582,4fa18678-5231-11ea-8c20-63c29f2a3ea5
4f8cd016-5231-11ea-8f63-27b08ae72633,4fa1a63a-5231-11ea-b4d5-bf42720a4362
4f88766a-5231-11ea-8d86-17064cfb5001,4fa1c41c-5231-11ea-9b5b-f3365064aa05
4f8c60f4-5231-11ea-a293-cf2bc811118f,4fa1db64-5231-11ea-ab99-537e5e20d6f4
4f8e6426-5231-11ea-956a-f710c77eaad8,4fa1f8c4-5231-11ea-98e3-ff44f739ea5d
4f9e2cda-5231-11ea-a273-3706de7d42f8,4fa20b48-5231-11ea-99e3-0761c6b2f541
4f9faf74-5231-11ea-bfbf-eb51031cdb5f,4fa22362-5231-11ea-a6a8-63626deb4425
4f9a3b02-5231-11ea-a136-cb4e5d24f040,4fa23550-5231-11ea-995c-27266f5b65cf
4f8b74d2-5231-11ea-ba42-8bb0958557b2,4fa24b62-5231-11ea-bd1d-278d2ee5c152
4f9d9aa4-5231-11ea-bc61-33470893f45d,4fa25d00-5231-11ea-9c63-e7533eb1eb62
4f8c60f4-5231-11ea-a293-cf2bc811118f,4fa2739e-5231-11ea-84b9-cb35875d8a1b
4f89774a-5231-11ea-82d8-53a164409921,4fa2aa12-5231-11ea-ad77-839a408af6a2
4f9114dc-5231-11ea-a14c-bbb5c1012042,4fa2c6dc-5231-11ea-8560-1732bac52618
4f8c4092-5231-11ea-8b6b-3387e8f46547,4fa2e9e6-5231-11ea-a4bc-e38d78fc160e
4f9f8198-5231-11ea-9942-a3718e6a4e97,4fa316b4-5231-11ea-872d-ab9ef98e6d0b
4f9102c6-5231-11ea-9c95-8ff285395a6c,4fa32e42-5231-11ea-882c-6795983dca33
4f9a0e02-5231-11ea-8643-7f9bc2893ced,4fa343f0-5231-11ea-a4ad-07162c864f3e
4f8740f6-5231-11ea-9d93-d3fd09a41d35,4fa35bec-5231-11ea-9473-27b65d36cd7c
4f8740f6-5231-11ea-9d93-d3fd09a41d35,4fa371a4-5231-11ea-b92b-271b0c9c6466
4f99e1ca-5231-11ea-b881-bf96246902aa,4fa381f8-5231-11ea-90ca-67f06ee4db53
4f99223a-5231-11ea-a4ee-4b77ce58fede,4fa3942c-5231-11ea-bd58-7b3200b45b5f
4f9871aa-5231-11ea-aba4-e38395abac8a,4fa3bd76-5231-11ea-b280-3f0e2f25b2b0
4f872e40-5231-11ea-9977-a32a1b902684,4fa3eef4-5231-11ea-8301-3b5d46fae043
4f8b74d2-5231-11ea-ba42-8bb0958557b2,4fa41bea-5231-11ea-89c5-5303325ac255
4f96134c-5231-11ea-aa5d-037fca768484,4fa43206-5231-11ea-acb8-e30d26ff5655
4f8fb826-5231-11ea-9f63-476ca97c351a,4fa44b10-5231-11ea-a167-cf4e15b6e6bd
4f9173a0-5231-11ea-9cc9-7b1939500f66,4fa46ce4-5231-11ea-a101-1745801badb3
4f9ee44a-5231-11ea-bfb1-6794af1c9226,4fa45e84-5231-11ea-a2f6-c315da4d9508
4f9b440c-5231-11ea-803b-e3da52468434,4fa48f44-5231-11ea-aa70-eb37cc2ddce9
4f9a71ee-5231-11ea-9d4c-7bb12bf48b74,4fa49124-5231-11ea-9cda-cb75e6c022c3
4f894db0-5231-11ea-b0fa-1bfdd78bc367,4fa4d2f6-5231-11ea-b193-03697c888f01
4f88b8be-5231-11ea-91e1-ef10b6a8acba,4fa4fb32-5231-11ea-a21f-dbd78f19ae6c
4f9b440c-5231-11ea-803b-e3da52468434,4fa53e80-5231-11ea-b14f-a7c35c1a0797
4f9552cc-5231-11ea-a031-ab9a50f03289,4fa5654a-5231-11ea-a35d-275cde4c38e9
4f9cfb8a-5231-11ea-8ac1-933dfabc10cb,4fa5779c-5231-11ea-8577-135d047339f5
4fa18678-5231-11ea-8c20-63c29f2a3ea5,4fa58bb0-5231-11ea-b463-5fbbd7992deb
4f86e840-5231-11ea-9523-8f840312acb9,4fa59eca-5231-11ea-8829-63a1887c801c
4f8a1cfe-5231-11ea-a5cc-a70345f89600,4fa5b130-5231-11ea-9202-4f8938c3bceb
4f9b062c-5231-11ea-8e31-0bd65b4fafb0,4fa5cc7e-5231-11ea-abe7-6f7a75a43a50
4f9fc70c-5231-11ea-930f-074e9127ef17,4fa5e6a0-5231-11ea-95aa-63a4b3fdce5b
4f8cd016-5231-11ea-8f63-27b08ae72633,4fa5f2a8-5231-11ea-a0b4-7f25e3a511fc
4fa2739e-5231-11ea-84b9-cb35875d8a1b,4fa63556-5231-11ea-bcdd-e7292bc9c5f1
4f9b440c-5231-11ea-803b-e3da52468434,4fa65d56-5231-11ea-a371-b7ebb519bad3
4fa04eb6-5231-11ea-afcd-43a2fad21e77,4fa690f0-5231-11ea-a7e2-5302b88e2743
4f8a2fc8-5231-11ea-bfff-cf79d6225e2f,4fa6a374-5231-11ea-b666-4fbcfd9dd26b
4f8d73f4-5231-11ea-ba78-bb62664e8478,4fa6b742-5231-11ea-9917-cbd96fa869f9
4f901370-5231-11ea-8ec6-23ccaac96431,4fa6cb1a-5231-11ea-8801-4305f6830da1
4f8a2fc8-5231-11ea-bfff-cf79d6225e2f,4fa6de0c-5231-11ea-84ab-b35ba12a461b
4f937290-5231-11ea-ab0c-e723887fa3c2,4fa6f4e6-5231-11ea-ae94-ef4cfd2ac249
4f9a28ba-5231-11ea-8527-fbdc82e9d566,4fa706c0-5231-11ea-bc93-7f0e52d071e6
4f8fcece-5231-11ea-9370-f3df2032aee5,4fa7490a-5231-11ea-b4fa-e75c8a96d8aa
4f90a60a-5231-11ea-a352-1b1b6bf38ed9,4fa7620a-5231-11ea-99d6-9b1647088add
4fa706c0-5231-11ea-bc93-7f0e52d071e6,4fa78014-5231-11ea-a6da-5f8c376e1c6d
4f9329fc-5231-11ea-bdb2-df935dbdae5f,4fa79432-5231-11ea-9b81-5b0fcf94868f
4fa10cde-5231-11ea-86c4-3befea64b0c1,4fa7b96c-5231-11ea-98b2-8b65de9f6f26
4fa2739e-5231-11ea-84b9-cb35875d8a1b,4fa7d46a-5231-11ea-b3b4-ab7ad4027778
4fa41bea-5231-11ea-89c5-5303325ac255,4fa7e982-5231-11ea-8cb5-371c4ac1d4c9
4f8dbf08-5231-11ea-8c49-db5acb77b965,4fa806ec-5231-11ea-a812-f3ab43805bca
4f8f42c4-5231-11ea-88ff-bb0c6afd653c,4fa82f96-5231-11ea-8e66-332f7fb25356
4f99f976-5231-11ea-aa50-c37c1605b1af,4fa84c92-5231-11ea-97c7-57c81bff2378
4f9ba08c-5231-11ea-a8fd-57bfb89c1a54,4fa87294-5231-11ea-b060-8397efa24c6c
4fa78014-5231-11ea-a6da-5f8c376e1c6d,4fa85fa2-5231-11ea-a3fc-af5ac50c598c
4f980922-5231-11ea-8917-bb35a70cdd21,4fa88b76-5231-11ea-8104-4fe00a3c9dc9
4f89df5a-5231-11ea-9c45-efe09bc7dadd,4fa89ff8-5231-11ea-b973-0765443fab90
4f8dbf08-5231-11ea-8c49-db5acb77b965,4fa8d7a2-5231-11ea-bcbd-2f68cfb9a386
4f9aa8c6-5231-11ea-93de-cb0077e97dd8,4fa8ef08-5231-11ea-a97e-833229d199ba
4f8c4092-5231-11ea-8b6b-3387e8f46547,4fa9027c-5231-11ea-84d0-0315865f8540
4f914448-5231-11ea-9cb0-23557bea0d39,4fa916f4-5231-11ea-a1f5-6fe422c49635
4f8ba57e-5231-11ea-a54d-33609335b3cf,4fa973e2-5231-11ea-9c62-17f4cf12c554
4fa25d00-5231-11ea-9c63-e7533eb1eb62,4fa988e6-5231-11ea-a327-f7fd5909fb5f
4f8eaa12-5231-11ea-ab52-835e695eb406,4fa99aa2-5231-11ea-a1ff-d7db3e974756
4f8ff368-5231-11ea-b95c-63e11d15b120,4fa9afba-5231-11ea-824a-7bbaca118846
4f9bb3ec-5231-11ea-bf38-db69885ac5b3,4fa9c40a-5231-11ea-87c1-abffe0a523aa
4f8a1cfe-5231-11ea-a5cc-a70345f89600,4fa9d7ec-5231-11ea-9834-07f35d9a0665
4fa690f0-5231-11ea-a7e2-5302b88e2743,4faa2328-5231-11ea-94aa-d37a3b42ef88
4f92cdea-5231-11ea-81c9-5777c61fae70,4faa3674-5231-11ea-9ff2-3b71515fabf3
4f938f6e-5231-11ea-8025-ef6880ae71c9,4faa69fa-5231-11ea-90c7-e39f8cfd6d2b
4fa53e80-5231-11ea-b14f-a7c35c1a0797,4faa862e-5231-11ea-8f9c-fb59bce966f1
4f8de47e-5231-11ea-b9ab-0309ae08d44d,4faaa172-5231-11ea-99cd-e70a5d2b0113
4fa84c92-5231-11ea-97c7-57c81bff2378,4faab91e-5231-11ea-b665-c31101cf3100
4f9345ae-5231-11ea-9346-578c8cf91779,4faaceae-5231-11ea-894f-937000d067cb
4f89af3a-5231-11ea-afdd-076c78c6e620,4faaea38-5231-11ea-89d2-ab549002d926
4fa32e42-5231-11ea-882c-6795983dca33,4faafde8-5231-11ea-b10c-cb78d262b0ea
4f9a28ba-5231-11ea-8527-fbdc82e9d566,4fab113e-5231-11ea-b52b-c7547e13022a
4f9345ae-5231-11ea-9346-578c8cf91779,4fab60f8-5231-11ea-94b6-e3243f2e9a01
4faab91e-5231-11ea-b665-c31101cf3100,4fab7d90-5231-11ea-a167-ab6b812b2d43
4fa13664-5231-11ea-9c92-7ff04f16acce,4fab98d4-5231-11ea-a619-2f0fabe3e0ce
4f9735ec-5231-11ea-9b25-7f5d5b9e1582,4fabacfc-5231-11ea-89ce-cf356c3e0e77
4fa85fa2-5231-11ea-a3fc-af5ac50c598c,4fabc548-5231-11ea-be16-b7bae5e845f8
4fa87294-5231-11ea-b060-8397efa24c6c,4fabd92a-5231-11ea-b48e-cb78e23bb1c5
4f95a600-5231-11ea-b189-f766f9acef0c,4fabec94-5231-11ea-8c40-c76a5a3f807b
4f990872-5231-11ea-b28a-8b643f825f94,4fac1732-5231-11ea-8ce6-5f301361c568
4f884b0e-5231-11ea-90f4-532bc8929bbc,4fac3e2e-5231-11ea-824c-f3602642e1ce
4f8a1cfe-5231-11ea-a5cc-a70345f89600,4fac5616-5231-11ea-9bf8-cf767619b3ce
4f8de47e-5231-11ea-b9ab-0309ae08d44d,4fac70f6-5231-11ea-8377-e72e5e50cd9a
4f8e6426-5231-11ea-956a-f710c77eaad8,4faca8e6-5231-11ea-b25e-6b7e137b5696
4f93b7d2-5231-11ea-a4e4-bb6e10175661,4facbf7a-5231-11ea-a54b-0b8de7f63ffd
4f872e40-5231-11ea-9977-a32a1b902684,4facd6e0-5231-11ea-ac1b-c3c23cfa15c9
4f94292e-5231-11ea-95b9-93b672ba0bc2,4facea0e-5231-11ea-ac87-1bfd17d6b632
4fa82f96-5231-11ea-8e66-332f7fb25356,4fad36c6-5231-11ea-a91e-f7d187aa57cf
4f9fc70c-5231-11ea-930f-074e9127ef17,4fad6664-5231-11ea-bcca-4fc75df51e7a
4fa79432-5231-11ea-9b81-5b0fcf94868f,4fad7c30-5231-11ea-93ca-17ba3428fb0f
4fa35bec-5231-11ea-9473-27b65d36cd7c,4fad9120-5231-11ea-915d-779c984fd621
4f86e840-5231-11ea-9523-8f840312acb9,4fada264-5231-11ea-9499-d7755d6db642
4f907446-5231-11ea-859b-eb3ab3a9ccc2,4fadb510-5231-11ea-974b-a7c72e3aa9e3
4fa3eef4-5231-11ea-8301-3b5d46fae043,4fadc8a2-5231-11ea-b973-6fc24d8dc15c
4f86f7cc-5231-11ea-886a-dba8e1e9684a,4fadde50-5231-11ea-8336-e3d4a3bbebd9
4f970ebe-5231-11ea-9155-2b779783a0a7,4fadfac0-5231-11ea-a011-eb30b56d7d8a
4fa5654a-5231-11ea-a35d-275cde4c38e9,4fae1b72-5231-11ea-b45c-1f2150b8d643
4f8ba57e-5231-11ea-a54d-33609335b3cf,4fae3468-5231-11ea-8400-4b67ce9cfae0
4f89774a-5231-11ea-82d8-53a164409921,4fae4bf6-5231-11ea-a78f-17c421e952fe
4fa49124-5231-11ea-9cda-cb75e6c022c3,4fae7da6-5231-11ea-bbd6-83eb725c7d33
4f95e0d4-5231-11ea-bf2f-a35551ecd74b,4fae9548-5231-11ea-a71b-475d50ae3f2f
4f9ba08c-5231-11ea-a8fd-57bfb89c1a54,4faeb8ac-5231-11ea-9a2d-efb518984b23
4f94043a-5231-11ea-9fd9-075b076218f5,4faecd92-5231-11ea-91de-7b56097cfee0
4f8a9b34-5231-11ea-a909-532ee6686735,4faeedcc-5231-11ea-ae47-1bb8b2bc3eeb
4f99a142-5231-11ea-9fa9-270b8e8cf0c5,4faf024e-5231-11ea-9cb4-07322b4f773f
4fad7c30-5231-11ea-93ca-17ba3428fb0f,4faf19c8-5231-11ea-aceb-97386ae21a0d
4f93eda6-5231-11ea-af4d-57b7e9546024,4faf6932-5231-11ea-86b5-5f998b1065aa
4f8f7b40-5231-11ea-b0ec-2f182b3d6efa,4faf81b0-5231-11ea-b0f5-3fea096a911b
4f8f28b6-5231-11ea-b598-636e9013fce2,4faf9632-5231-11ea-92a0-73d35576a3f0
4f8c9308-5231-11ea-88e2-b7c0843314e6,4fafa73a-5231-11ea-833a-7fdca0c2c4a4
4f92438e-5231-11ea-93b9-4740a83ad9c7,4fafb982-5231-11ea-9da9-5720699cce01
4f922c46-5231-11ea-b2de-3ff62f27bbaa,4fafcc74-5231-11ea-b4b8-ef5504ff2b76
4f9c86d2-5231-11ea-9e44-5f858bbae2fd,4fafe5ba-5231-11ea-a4f6-d75d4f076af9
4fa84c92-5231-11ea-97c7-57c81bff2378,4fb02b60-5231-11ea-9100-4b114819dabf
4fa5f2a8-5231-11ea-a0b4-7f25e3a511fc,4fb0491a-5231-11ea-90c5-47988b2bad9a
4fad9120-5231-11ea-915d-779c984fd621,4fb05d2e-5231-11ea-9d92-6ffa6f0a6edf
4f88b788-5231-11ea-b1bd-f39cbe94f8a6,4fb07282-5231-11ea-b1f7-0788024b99c0
4fa58bb0-5231-11ea-b463-5fbbd7992deb,4fb08286-5231-11ea-aa60-7f6cd93181fa
4f972084-5231-11ea-9581-dbf5787ec826,4fb0946a-5231-11ea-ab76-6b291541d6da
4f8b5ad8-5231-11ea-98af-8fcb5d2bd410,4fb0ae0a-5231-11ea-8376-6755c9b3ecde
4facd6e0-5231-11ea-ac1b-c3c23cfa15c9,4fb11368-5231-11ea-ac94-a3f4f1a3ee84
4faecd92-5231-11ea-91de-7b56097cfee0,4fb12d6c-5231-11ea-bfaf-77659f276f13
4f9bc38c-5231-11ea-b414-f708de5b4812,4fb13ed8-5231-11ea-978f-1b7a3fdf8913
4facbf7a-5231-11ea-a54b-0b8de7f63ffd,4fb1662e-5231-11ea-a65c-4772b69eb8a1
4f9ecad2-5231-11ea-83c6-0fadd7af2282,4fb1544a-5231-11ea-91d4-73fb8b8ee88a
4faf024e-5231-11ea-9cb4-07322b4f773f,4fb17a2e-5231-11ea-b1e5-2bab7e2cf486
4fa9afba-5231-11ea-824a-7bbaca118846,4fb18f00-5231-11ea-8d27-9b823aaf33d4
4f89df5a-5231-11ea-9c45-efe09bc7dadd,4fb1a5a8-5231-11ea-8870-175c683672d9
4fa7d46a-5231-11ea-b3b4-ab7ad4027778,4fb1f8be-5231-11ea-b5d4-9bdfe5a3f3cd
4f9552cc-5231-11ea-a031-ab9a50f03289,4fb20caa-5231-11ea-b563-0fed28dca81d
4fa35bec-5231-11ea-9473-27b65d36cd7c,4fb2219a-5231-11ea-ab36-231f15850539
4fa2739e-5231-11ea-84b9-cb35875d8a1b,4fb23cf2-5231-11ea-a427-3fb33a8775cb
4f94c2a8-5231-11ea-9576-c72c8dd7c034,4fb25d5e-5231-11ea-9e0b-e3a27803cb7b
4fb11368-5231-11ea-ac94-a3f4f1a3ee84,4fb2953a-5231-11ea-80b8-3728424d23a3
4fa20b48-5231-11ea-99e3-0761c6b2f541,4fb2acaa-5231-11ea-8af7-13d9e8d1b9ef
4fae1b72-5231-11ea-b45c-1f2150b8d643,4fb2c078-5231-11ea-a501-c3ab7ad431eb
4f8cb518-5231-11ea-a049-87328648d201,4fb2df36-5231-11ea-ba66-eff95f5c4d2a
4fa6cb1a-5231-11ea-8801-4305f6830da1,4fb2f368-5231-11ea-bf20-577330709a2b
4f9748ca-5231-11ea-8df9-e3e83f1f193d,4fb30e70-5231-11ea-8b9f-eb46a3deecdf
4f9e2cda-5231-11ea-a273-3706de7d42f8,4fb32cc0-5231-11ea-ac60-3709c01556ff
4f872e40-5231-11ea-9977-a32a1b902684,4fb34a0c-5231-11ea-96a5-875a6cd08f28
4fa5654a-5231-11ea-a35d-275cde4c38e9,4fb36140-5231-11ea-944e-9323296e1e8d
4f8dbf08-5231-11ea-8c49-db5acb77b965,4fb38a08-5231-11ea-8e7b-6f7cb6fc8041
4f9cc08e-5231-11ea-8221-8345f8e5db4e,4fb3a5c4-5231-11ea-9bf2-4f71c69f1eb3
4f9d13f4-5231-11ea-afa1-870133deef7c,4fb3c2fc-5231-11ea-b413-eba9072e8242
4f9173a0-5231-11ea-9cc9-7b1939500f66,4fb3e048-5231-11ea-85c4-b3cab60f4463
4f914448-5231-11ea-9cb0-23557bea0d39,4fb3f506-5231-11ea-b256-ff9d4a55b0de
4f9329fc-5231-11ea-bdb2-df935dbdae5f,4fb407f8-5231-11ea-9460-834d6f7a27e8
4f99e1ca-5231-11ea-b881-bf96246902aa,4fb41aea-5231-11ea-97e1-6bc853a24643
4f952752-5231-11ea-9322-63978646de6d,4fb44452-5231-11ea-b9b8-2f795e515621
4fa029cc-5231-11ea-89b7-077de1418d95,4fb4722e-5231-11ea-b313-0f8818f9d802
4f9d13f4-5231-11ea-afa1-870133deef7c,4fb485c0-5231-11ea-b117-63c92c82bd63
4f9dad78-5231-11ea-8013-437be7a688ee,4fb49ec0-5231-11ea-897c-1323d7504c3a
4f8cb518-5231-11ea-a049-87328648d201,4fb4b388-5231-11ea-8c02-73142f59be76
4fad9120-5231-11ea-915d-779c984fd621,4fb4c918-5231-11ea-941e-77e147325251
4fa35bec-5231-11ea-9473-27b65d36cd7c,4fb4e33a-5231-11ea-8993-b70f02b43612
4f91f38e-5231-11ea-93a3-cbb55979b101,4fb4fb54-5231-11ea-86a2-e792fc857a2e
4fb1544a-5231-11ea-91d4-73fb8b8ee88a,4fb5167a-5231-11ea-ac56-f729f102a351
4f907446-5231-11ea-859b-eb3ab3a9ccc2,4fb52976-5231-11ea-98a5-4fcc035471f4
4f9102c6-5231-11ea-9c95-8ff285395a6c,4fb56026-5231-11ea-b2d8-bf10c0895ff2
4fa8ef08-5231-11ea-a97e-833229d199ba,4fb585e2-5231-11ea-93cd-332f3ff99e6d
4fad36c6-5231-11ea-a91e-f7d187aa57cf,4fb5f6c6-5231-11ea-b4d3-4f00cba49fe7
4fb4c918-5231-11ea-941e-77e147325251,4fb617f0-5231-11ea-b804-1b35533b43c5
4facd6e0-5231-11ea-ac1b-c3c23cfa15c9,4fb6279a-5231-11ea-90d6-3fa0d0028114
4f980922-5231-11ea-8917-bb35a70cdd21,4fb63bcc-5231-11ea-a1c9-c74325721a25
4fa59eca-5231-11ea-8829-63a1887c801c,4fb65030-5231-11ea-895e-a30992edf389
4fac70f6-5231-11ea-8377-e72e5e50cd9a,4fb662d2-5231-11ea-9de2-6f1f14270c00
4f8da81a-5231-11ea-af0e-af4b541956ae,4fb67614-5231-11ea-8633-7bdab86bb853
4fa43206-5231-11ea-acb8-e30d26ff5655,4fb68a0a-5231-11ea-a17e-6fc5e812bbe8
4fa9c40a-5231-11ea-87c1-abffe0a523aa,4fb6c236-5231-11ea-bcef-0bbde58335e9
4f94292e-5231-11ea-95b9-93b672ba0bc2,4fb6f53a-5231-11ea-bfe7-533172909472
4f8e7b50-5231-11ea-89f4-577956ea0180,4fb71894-5231-11ea-bf45-4760500b51aa
4fb2f368-5231-11ea-bf20-577330709a2b,4fb7332e-5231-11ea-a12b-f3cd3f3a6051
4fb4b388-5231-11ea-8c02-73142f59be76,4fb747e2-5231-11ea-9f0b-4fd5f5f17b56
4fa1a63a-5231-11ea-b4d5-bf42720a4362,4fb75ca0-5231-11ea-95c8-975211583cc5
4fb585e2-5231-11ea-93cd-332f3ff99e6d,4fb76fba-5231-11ea-897e-97f5621ec565
4f972084-5231-11ea-9581-dbf5787ec826,4fb78cde-5231-11ea-8738-d35bdf29f3fc
4faafde8-5231-11ea-b10c-cb78d262b0ea,4fb7ac0a-5231-11ea-bdcc-cb933d789bd7
4f98f382-5231-11ea-bc9e-57239d8e40af,4fb7c000-5231-11ea-8665-4f33a4375f5f
4fa8d7a2-5231-11ea-bcbd-2f68cfb9a386,4fb7d25c-5231-11ea-a930-8fda551c9fa1
4f871446-5231-11ea-9ce9-837d607fcfad,4fb8034e-5231-11ea-b595-9fbe221ee60d
4fb5167a-5231-11ea-ac56-f729f102a351,4fb81776-5231-11ea-9da9-e3d22753f594
4f9f8198-5231-11ea-9942-a3718e6a4e97,4fb845ac-5231-11ea-ab09-efc7d528748e
4fa09394-5231-11ea-aef8-6301a86b7e1e,4fb86366-5231-11ea-ab61-4bb1e0b73aac
4fb08286-5231-11ea-aa60-7f6cd93181fa,4fb880e4-5231-11ea-813b-27fa21c0d31f
4f94292e-5231-11ea-95b9-93b672ba0bc2,4fb8a074-5231-11ea-8d57-abb05dfc603b
4f9fc70c-5231-11ea-930f-074e9127ef17,4fb8b71c-5231-11ea-b559-4b969fc4a87c
4f8b5ad8-5231-11ea-98af-8fcb5d2bd410,4fb8cea0-5231-11ea-8b3b-f3b5a1b41273
4fb52976-5231-11ea-98a5-4fcc035471f4,4fb8e5e8-5231-11ea-be01-1fcf3bb1f264
4f90a60a-5231-11ea-a352-1b1b6bf38ed9,4fb90398-5231-11ea-9e51-3bb7d41e288f
4f9c5568-5231-11ea-ad4e-6fecb8f0bb78,4fb93aca-5231-11ea-8d03-b35707a1f518
4fa7e982-5231-11ea-8cb5-371c4ac1d4c9,4fb95d84-5231-11ea-9782-1bcf1123d3e5
4fb0ae0a-5231-11ea-8376-6755c9b3ecde,4fb97440-5231-11ea-9a7c-4baf73786d9c
4f8e3550-5231-11ea-89ae-db9e62a5a056,4fb9be64-5231-11ea-99db-cfacde9b40e9
4fa4fb32-5231-11ea-a21f-dbd78f19ae6c,4fb9cd50-5231-11ea-a137-ff500bd6ba77
4f8e6426-5231-11ea-956a-f710c77eaad8,4fb9e1c8-5231-11ea-ba57-0f840c8eb544
4fb36140-5231-11ea-944e-9323296e1e8d,4fb9f244-5231-11ea-a7d3-a78cfc61d8f5
4fa6a374-5231-11ea-b666-4fbcfd9dd26b,4fba0874-5231-11ea-ace2-8f18bb54e7a6
4fa5654a-5231-11ea-a35d-275cde4c38e9,4fba1ada-5231-11ea-8349-5f6f40d38999
4fb4c918-5231-11ea-941e-77e147325251,4fba2d0e-5231-11ea-b2a8-773325ced933
4f8a89c8-5231-11ea-8cfc-c7e6bef69ee6,4fba96ae-5231-11ea-ba74-77d2751fa6d6
4fa04eb6-5231-11ea-afcd-43a2fad21e77,4fbaa2d4-5231-11ea-94a6-57da6fced754
4f8740f6-5231-11ea-9d93-d3fd09a41d35,4fbab7f6-5231-11ea-b1b8-5fd569eba630
4f9dad78-5231-11ea-8013-437be7a688ee,4fbacc6e-5231-11ea-9bc3-d38e1db1067e
4fb9be64-5231-11ea-99db-cfacde9b40e9,4fbae014-5231-11ea-9172-0f137b1b0439
4f937290-5231-11ea-ab0c-e723887fa3c2,4fbaf3ba-5231-11ea-bb6c-9fd98f6a8a8d
4fab98d4-5231-11ea-a619-2f0fabe3e0ce,4fbb063e-5231-11ea-be34-27b8474dd27c
4facd6e0-5231-11ea-ac1b-c3c23cfa15c9,4fbb1818-5231-11ea-8b39-87a2ae227acf
4fb9e1c8-5231-11ea-ba57-0f840c8eb544,4fbb4018-5231-11ea-968d-37ceefae3cfa
4fa6de0c-5231-11ea-84ab-b35ba12a461b,4fbb8046-5231-11ea-a2d4-1b7679f6a792
4fb0ae0a-5231-11ea-8376-6755c9b3ecde,4fbb9ae0-5231-11ea-97c0-6ba953d600c8
4fa13664-5231-11ea-9c92-7ff04f16acce,4fbbb3cc-5231-11ea-b878-bbfe31d0cac7
4fb2df36-5231-11ea-ba66-eff95f5c4d2a,4fbbcc7c-5231-11ea-ad3c-b3a9e8258158
4fad36c6-5231-11ea-a91e-f7d187aa57cf,4fbc22e4-5231-11ea-8914-bb2f2be03524
4f94292e-5231-11ea-95b9-93b672ba0bc2,4fbc4af8-5231-11ea-b7a9-2b691d443da6
4fb7332e-5231-11ea-a12b-f3cd3f3a6051,4fbc3766-5231-11ea-88d5-175534c93794
4fbae014-5231-11ea-9172-0f137b1b0439,4fbc5ea8-5231-11ea-8d47-3bb1c2c644cb
4f9bd34a-5231-11ea-ae31-d7147176b036,4fbc70b4-5231-11ea-9253-771cebb82f1b
4fba1ada-5231-11ea-8349-5f6f40d38999,4fbc8536-5231-11ea-8e01-77a5325aa700
4fb662d2-5231-11ea-9de2-6f1f14270c00,4fbc9ec2-5231-11ea-acdc-fb7fd82fd683
4f9443f0-5231-11ea-b8fd-ff048b6c358e,4fbcc758-5231-11ea-9259-73065093fe23
4fa5f2a8-5231-11ea-a0b4-7f25e3a511fc,4fbcfc64-5231-11ea-b58e-dbe4bb7b522e
4f9e2cda-5231-11ea-a273-3706de7d42f8,4fbd17f8-5231-11ea-90ff-ff7bddd858bc
4fabd92a-5231-11ea-b48e-cb78e23bb1c5,4fbd2dce-5231-11ea-960d-03ef98b818ab
4fa00dd4-5231-11ea-baff-439ba708b133,4fbd42f0-5231-11ea-92f0-1b32cade29b4
4f8de47e-5231-11ea-b9ab-0309ae08d44d,4fbd53a8-5231-11ea-bd09-93718b350767
4fb52976-5231-11ea-98a5-4fcc035471f4,4fbd688e-5231-11ea-988c-ab8b14aa7a3f
4f9e2cda-5231-11ea-a273-3706de7d42f8,4fbd806c-5231-11ea-95d3-63022caf6a6f
4fa3eef4-5231-11ea-8301-3b5d46fae043,4fbd94da-5231-11ea-a6de-cbc699c575b8
4fb9f244-5231-11ea-a7d3-a78cfc61d8f5,4fbda77c-5231-11ea-9c71-a70777dbfd21
4f978cb8-5231-11ea-b85a-93545a3945c5,4fbde994-5231-11ea-88c8-f35e24e6b79c
4fb3f506-5231-11ea-b256-ff9d4a55b0de,4fbe047e-5231-11ea-8bad-6f4797aaac00
4f894db0-5231-11ea-b0fa-1bfdd78bc367,4fbe1b3a-5231-11ea-9872-2b03b318cc8d
4fabec94-5231-11ea-8c40-c76a5a3f807b,4fbe311a-5231-11ea-aa29-17ee33410f1d
4fb6f53a-5231-11ea-bfe7-533172909472,4fbe439e-5231-11ea-b283-67feada1f85f
4fae4bf6-5231-11ea-a78f-17c421e952fe,4fbe5a50-5231-11ea-8df9-2bb2a8ee8d3a
4f9345ae-5231-11ea-9346-578c8cf91779,4fbe6ca2-5231-11ea-a560-b30e24b41fff
4f8ba57e-5231-11ea-a54d-33609335b3cf,4fbea726-5231-11ea-850f-8f145b86dcf5
4fab60f8-5231-11ea-94b6-e3243f2e9a01,4fbec33c-5231-11ea-8d8e-83ac81f04651
4fa7e982-5231-11ea-8cb5-371c4ac1d4c9,4fbefe1a-5231-11ea-ae3c-6772f89ff333
4fb2219a-5231-11ea-ab36-231f15850539,4fbf124c-5231-11ea-9ae2-5b7608037d70
4fbc4af8-5231-11ea-b7a9-2b691d443da6,4fbf485c-5231-11ea-beac-9b632d797065
4fb7ac0a-5231-11ea-bdcc-cb933d789bd7,4fbf5ff4-5231-11ea-aa1f-c74ae88a6d1c
4f8c4092-5231-11ea-8b6b-3387e8f46547,4fbf7822-5231-11ea-abd9-9bec2c19042d
4fa18678-5231-11ea-8c20-63c29f2a3ea5,4fbf875e-5231-11ea-801f-bf4f372512cb
4fabec94-5231-11ea-8c40-c76a5a3f807b,4fbf9a50-5231-11ea-b385-970b52bb1d91
4f9b440c-5231-11ea-803b-e3da52468434,4fbfad92-5231-11ea-95da-fb617cc036fd
4fbefe1a-5231-11ea-ae3c-6772f89ff333,4fbfdfe2-5231-11ea-baf3-df40a9885888
4fb8b71c-5231-11ea-b559-4b969fc4a87c,4fbffad6-5231-11ea-a3dc-770f956a3aae
4fb67614-5231-11ea-8633-7bdab86bb853,4fc03190-5231-11ea-90a0-9b14a53aadef
4fa4d2f6-5231-11ea-b193-03697c888f01,4fc058aa-5231-11ea-944e-a3b52d8edef9
4f95c5ea-5231-11ea-8280-37e1c03b7c60,4fc045fe-5231-11ea-81f6-af7148062737
4fa9d7ec-5231-11ea-9834-07f35d9a0665,4fc06ca0-5231-11ea-a3b2-3fa20cef29a1
4f9b2e4a-5231-11ea-ab1b-cf9667e9d7da,4fc080e6-5231-11ea-80c0-579d7a9bd2b8
4fb4fb54-5231-11ea-86a2-e792fc857a2e,4fc09400-5231-11ea-858b-37807be411ef
4f931764-5231-11ea-bc99-5bbf44ba9e5e,4fc0a724-5231-11ea-9899-132ca8f137e0
4f93ca10-5231-11ea-be57-d39391bd57f7,4fc0d9d8-5231-11ea-b81b-53521a064755
4f92de84-5231-11ea-822f-1be2a94743f9,4fc0fc56-5231-11ea-8030-97375bcd56b1
4f9faf74-5231-11ea-bfbf-eb51031cdb5f,4fc11ed4-5231-11ea-b835-07d4a167fbf1
4f9f8198-5231-11ea-9942-a3718e6a4e97,4fc1373e-5231-11ea-8973-ff99113afe89
4fa35bec-5231-11ea-9473-27b65d36cd7c,4fc14ce2-5231-11ea-9c3d-c331c202b08a
4f97b1d4-5231-11ea-b07d-9b2b3313473e,4fc1601a-5231-11ea-872b-575f42d03dde
4f95e0d4-5231-11ea-bf2f-a35551ecd74b,4fc17712-5231-11ea-987e-17e1e058ec1c
4fbbb3cc-5231-11ea-b878-bbfe31d0cac7,4fc19102-5231-11ea-a87e-637be314fe06
4fa2e9e6-5231-11ea-a4bc-e38d78fc160e,4fc1d09a-5231-11ea-8e88-33f16f3e42ce
4fa4d2f6-5231-11ea-b193-03697c888f01,4fc21000-5231-11ea-b263-8b0572da6f4a
4fad6664-5231-11ea-bcca-4fc75df51e7a,4fc2264e-5231-11ea-86c5-ef88f3bb1a59
4f93a49a-5231-11ea-b3ba-9760461c7bde,4fc23896-5231-11ea-8f8a-1fc1d504d7f4
4fab7d90-5231-11ea-a167-ab6b812b2d43,4fc24d2c-5231-11ea-8d75-b7f0363b89f5
4fb407f8-5231-11ea-9460-834d6f7a27e8,4fc2614a-5231-11ea-846f-6f6d1ad64994
4f8e7b50-5231-11ea-89f4-577956ea0180,4fc270fe-5231-11ea-9b71-67dea67151d7
4fc09400-5231-11ea-858b-37807be411ef,4fc2838c-5231-11ea-87f8-9b2bc2adfa43
4fa58bb0-5231-11ea-b463-5fbbd7992deb,4fc2955c-5231-11ea-b6f4-9fb21a1e37a3
4fb8cea0-5231-11ea-8b3b-f3b5a1b41273,4fc2b05a-5231-11ea-bc9f-ef603a44c186
4fc17712-5231-11ea-987e-17e1e058ec1c,4fc2e66a-5231-11ea-9647-57ceb1e967cd
4f97b1d4-5231-11ea-b07d-9b2b3313473e,4fc2f7e0-5231-11ea-acc5-335909b956c6
4fbb4018-5231-11ea-968d-37ceefae3cfa,4fc30b2c-5231-11ea-a0f8-833280ef8ece
4faf9632-5231-11ea-92a0-73d35576a3f0,4fc32670-5231-11ea-ae86-8b986589e027
4fa04eb6-5231-11ea-afcd-43a2fad21e77,4fc33958-5231-11ea-bb69-9b70ef0eba17
4fbbb3cc-5231-11ea-b878-bbfe31d0cac7,4fc37698-5231-11ea-ad29-c3bf9b3986b5
4f9faf74-5231-11ea-bfbf-eb51031cdb5f,4fc3945c-5231-11ea-88b7-b3c6e9cf4b1b
4f93b7d2-5231-11ea-a4e4-bb6e10175661,4fc3aeb0-5231-11ea-98a2-3b9d89fc318b
4fb9e1c8-5231-11ea-ba57-0f840c8eb544,4fc3c17a-5231-11ea-8d49-8f874676abe9
4f8fcece-5231-11ea-9370-f3df2032aee5,4fc41a76-5231-11ea-a8bb-8b6530bb15e2
4fbfad92-5231-11ea-95da-fb617cc036fd,4fc42f2a-5231-11ea-910e-7335e231ddfd
4fbae014-5231-11ea-9172-0f137b1b0439,4fc4428a-5231-11ea-ab9f-2bc4fbd82f89
4fb1544a-5231-11ea-91d4-73fb8b8ee88a,4fc458b0-5231-11ea-9c7d-3bbabaefaa59
4f918bce-5231-11ea-b1dc-f7b91e4c0442,4fc46b98-5231-11ea-9b69-270de8702910
4f9b2e4a-5231-11ea-ab1b-cf9667e9d7da,4fc47dcc-5231-11ea-b97d-3bd1a7268bd6
4f9adb48-5231-11ea-89a8-533ea705e72f,4fc493de-5231-11ea-9628-cfe70d3baf76
4f8c60f4-5231-11ea-a293-cf2bc811118f,4fc4b116-5231-11ea-a93f-cf3ad95780cc
4fb6279a-5231-11ea-90d6-3fa0d0028114,4fc4c6e2-5231-11ea-891d-33d2591a7c15
4fb81776-5231-11ea-9da9-e3d22753f594,4fc4e0c8-5231-11ea-88df-db38e454865c
4f956514-5231-11ea-8737-37eccb37d838,4fc4f888-5231-11ea-9a10-236a4e5a5aa9
4fb78cde-5231-11ea-8738-d35bdf29f3fc,4fc5475c-5231-11ea-9332-630d569ee711
4fb56026-5231-11ea-b2d8-bf10c0895ff2,4fc56d9a-5231-11ea-a01b-8f5ced61eb85
4f9b440c-5231-11ea-803b-e3da52468434,4fc584ec-5231-11ea-842f-f7b94ef3c5b4
4fa78014-5231-11ea-a6da-5f8c376e1c6d,4fc598b0-5231-11ea-ac70-93139b2fd484
4fc458b0-5231-11ea-9c7d-3bbabaefaa59,4fc5ac42-5231-11ea-be41-1ba1de4282dd
4fbda77c-5231-11ea-9c71-a70777dbfd21,4fc5c4fc-5231-11ea-bc0c-534cbe7d3d71
4f86dabc-5231-11ea-9f62-575e5d84ef09,4fc5d7f8-5231-11ea-bd81-5b7d01eabfdf
4f967ba2-5231-11ea-a02d-7f2626c0d913,4fc5ead6-5231-11ea-9d58-4fdbbd7a31d3
4fbc4af8-5231-11ea-b7a9-2b691d443da6,4fc64120-5231-11ea-ad82-f7e07831e1e9
4f99f976-5231-11ea-aa50-c37c1605b1af,4fc6686c-5231-11ea-aea5-eb1401d8f41c
4fc5ac42-5231-11ea-be41-1ba1de4282dd,4fc67d66-5231-11ea-8cd8-e345295517d7
4f9294ec-5231-11ea-ae78-1788d2923af8,4fc6940e-5231-11ea-9299-9f284dfa36a0
4fc2264e-5231-11ea-86c5-ef88f3bb1a59,4fc6ac0a-5231-11ea-99cb-a741716f95c3
4f87f1c2-5231-11ea-95f5-1bd4f10c859f,4fc6d068-5231-11ea-9c2a-9b13ae19b4bc
4fbe5a50-5231-11ea-8df9-2bb2a8ee8d3a,4fc6e35a-5231-11ea-8065-db8993b8d64b
4fafcc74-5231-11ea-b4b8-ef5504ff2b76,4fc70cae-5231-11ea-a7a8-2366e2f11a8b
4fb17a2e-5231-11ea-b1e5-2bab7e2cf486,4fc7216c-5231-11ea-9106-43f2c631d181
4f97f022-5231-11ea-bff6-17a21ebb1497,4fc73486-5231-11ea-aaa5-4b5cdd64e85e
4f8740f6-5231-11ea-9d93-d3fd09a41d35,4fc74d9a-5231-11ea-9a7d-db3fa50ca3d3
4fc2838c-5231-11ea-87f8-9b2bc2adfa43,4fc7601e-5231-11ea-aab6-fbadd7dde50e
4f92b706-5231-11ea-a3cc-db3af1c7a0fb,4fc7a65a-5231-11ea-877e-439a82aa098a
4fc2614a-5231-11ea-846f-6f6d1ad64994,4fc7bbb8-5231-11ea-a99c-6b9a5cb2adbb
4fb32cc0-5231-11ea-ac60-3709c01556ff,4fc7d5d0-5231-11ea-ad8d-5396504f3bbe
4f86dabc-5231-11ea-9f62-575e5d84ef09,4fc80294-5231-11ea-99aa-d31971110899
4fa690f0-5231-11ea-a7e2-5302b88e2743,4fc819a0-5231-11ea-8f95-3bbcae9fc0e1
4f9b2e4a-5231-11ea-ab1b-cf9667e9d7da,4fc83fde-5231-11ea-8367-8fa8b73b925f
4fb18f00-5231-11ea-8d27-9b823aaf33d4,4fc860ea-5231-11ea-b5e3-a75625c72a6d
4fbd53a8-5231-11ea-bd09-93718b350767,4fc8727e-5231-11ea-9af5-7b63a93c9c9b
4fbd42f0-5231-11ea-92f0-1b32cade29b4,4fc89e7a-5231-11ea-8da0-9fc7f19e038d
4f9a82ce-5231-11ea-8c5c-4740031414b0,4fc8861a-5231-11ea-ae67-c764434b025b
4f8ba57e-5231-11ea-a54d-33609335b3cf,4fc9045a-5231-11ea-9ef4-cfdd410cc2fd
4fb9be64-5231-11ea-99db-cfacde9b40e9,4fc91846-5231-11ea-9cb5-a7980217341b
4fbe1b3a-5231-11ea-9872-2b03b318cc8d,4fc928a4-5231-11ea-ad85-2bdbbdcefdb2
4fb2c078-5231-11ea-a501-c3ab7ad431eb,4fc94276-5231-11ea-89d2-e7828ff1ffa8
4f975cac-5231-11ea-8090-0339e60972d5,4fc9559a-5231-11ea-bee5-733817e532f2
4fa12386-5231-11ea-80fc-dbe143a475c5,4fc97fb6-5231-11ea-80e2-5f04c70993c8
4f978cb8-5231-11ea-b85a-93545a3945c5,4fc99834-5231-11ea-b7ef-372be101bbd9
4fb4e33a-5231-11ea-8993-b70f02b43612,4fc9ac16-5231-11ea-a370-43d5a3c119b6
4fc24d2c-5231-11ea-8d75-b7f0363b89f5,4fc9defc-5231-11ea-896e-db0b163efa90
4f9945da-5231-11ea-97ae-1fac5401b1e9,4fca31c2-5231-11ea-9656-6357847306bb
4faf19c8-5231-11ea-aceb-97386ae21a0d,4fca4630-5231-11ea-b244-bb017ff2d86c
4f907446-5231-11ea-859b-eb3ab3a9ccc2,4fca5b02-5231-11ea-9f77-8f9a2c19cb96
4f94ffde-5231-11ea-922e-ff5d6c0ec95b,4fca6fac-5231-11ea-a5af-87d57843b674
4f9b440c-5231-11ea-803b-e3da52468434,4fca8618-5231-11ea-9a68-03293723b9cd
4f89284e-5231-11ea-8cdf-8b017ba2cda9,4fca99c8-5231-11ea-be89-431399d88389
4f8cd016-5231-11ea-8f63-27b08ae72633,4fcaad46-5231-11ea-b659-c75ef2ca82ee
4f9d4572-5231-11ea-94b7-5f65a1aefdda,4fcac592-5231-11ea-8b93-67fbc728d0a7
4f89af3a-5231-11ea-afdd-076c78c6e620,4fcadc9e-5231-11ea-beb4-5be1e0a538b1
4f94043a-5231-11ea-9fd9-075b076218f5,4fcb1ede-5231-11ea-98fe-63b5015cfdb7
4f952752-5231-11ea-9322-63978646de6d,4fcb53fe-5231-11ea-b2f0-afaebb083403
4fc32670-5231-11ea-ae86-8b986589e027,4fcb69d4-5231-11ea-99e3-6ff68c4667f9
4f9d13f4-5231-11ea-afa1-870133deef7c,4fcb7aaa-5231-11ea-86f7-5b155bb82846
4fb485c0-5231-11ea-b117-63c92c82bd63,4fcba1ba-5231-11ea-9451-2373dc9868cb
4faf6932-5231-11ea-86b5-5f998b1065aa,4fcbb65a-5231-11ea-97a7-13ed8f89e77a
4fa32e42-5231-11ea-882c-6795983dca33,4fcbc91a-5231-11ea-885c-2b8c471729e8
4f97d38a-5231-11ea-817f-d7b6b156746e,4fcbefe4-5231-11ea-acd1-979642af0f4e
4fc8861a-5231-11ea-ae67-c764434b025b,4fcc0b46-5231-11ea-be4f-bf2de52f3138
4f8de47e-5231-11ea-b9ab-0309ae08d44d,4fcc2338-5231-11ea-9975-37a74974d1fd
4fbf485c-5231-11ea-beac-9b632d797065,4fcc392c-5231-11ea-bd5a-77262f110b7e
4f8f9abc-5231-11ea-b76e-efe4aa8bb1fb,4fcc4a8e-5231-11ea-9c97-4bb7aeff9623
4fc0a724-5231-11ea-9899-132ca8f137e0,4fcc6244-5231-11ea-845c-3be92f9064da
4fa23550-5231-11ea-995c-27266f5b65cf,4fcc77ca-5231-11ea-bd2b-f7962e5967af
4fa13664-5231-11ea-9c92-7ff04f16acce,4fcc8e18-5231-11ea-a0ac-e7cce7662ce4
4fa87294-5231-11ea-b060-8397efa24c6c,4fccbc8a-5231-11ea-be0b-47e28634ece0
4f8fcece-5231-11ea-9370-f3df2032aee5,4fccd508-5231-11ea-9be0-031530a3f688
4fbaa2d4-5231-11ea-94a6-57da6fced754,4fcceb42-5231-11ea-8266-9b5d1a2646aa
4fb4c918-5231-11ea-941e-77e147325251,4fcd401a-5231-11ea-90cb-1f14d4c62dfb
4fc6e35a-5231-11ea-8065-db8993b8d64b,4fcd57d0-5231-11ea-b081-efebbe23746e
4fa2c6dc-5231-11ea-8560-1732bac52618,4fcd858e-5231-11ea-8d7a-8f7cfb8c0591
4f938f6e-5231-11ea-8025-ef6880ae71c9,4fcd6e3c-5231-11ea-ace3-f71a040ebb5f
4fc9defc-5231-11ea-896e-db0b163efa90,4fcdca94-5231-11ea-81d2-67934e3bb2d1
4fc47dcc-5231-11ea-b97d-3bd1a7268bd6,4fcde9f2-5231-11ea-a917-1be0c3aa2d2a
4fb0ae0a-5231-11ea-8376-6755c9b3ecde,4fce0158-5231-11ea-80df-0f8eef66b4de
4faab91e-5231-11ea-b665-c31101cf3100,4fce1d50-5231-11ea-83da-f7480771c5b3
4fbda77c-5231-11ea-9c71-a70777dbfd21,4fce324a-5231-11ea-956c-a378cf9823cf
4f938f6e-5231-11ea-8025-ef6880ae71c9,4fce4a14-5231-11ea-affb-0fe431c93512
4fa89ff8-5231-11ea-b973-0765443fab90,4fce5ca2-5231-11ea-969a-a3f8d7abc3f3
4fbbcc7c-5231-11ea-ad3c-b3a9e8258158,4fce91e0-5231-11ea-8bd4-374dac5b13e2
4fb6279a-5231-11ea-90d6-3fa0d0028114,4fceacde-5231-11ea-acad-2795e25dbd08
4fadc8a2-5231-11ea-b973-6fc24d8dc15c,4fcec598-5231-11ea-9704-1b70476c231e
4f9692ea-5231-11ea-8621-4788b035cb99,4fcee1a4-5231-11ea-811a-2f27e401adb7
4fba96ae-5231-11ea-ba74-77d2751fa6d6,4fcef95a-5231-11ea-98d2-eb697cf6cd24
4fa8ef08-5231-11ea-a97e-833229d199ba,4fcf11e2-5231-11ea-981d-57efb7707aad
4f94ad72-5231-11ea-a47c-cf103743cff1,4fcf2560-5231-11ea-9a9d-37b152c60281
4fa2e9e6-5231-11ea-a4bc-e38d78fc160e,4fcf865e-5231-11ea-b53a-c755d85cee9c
4f8f42c4-5231-11ea-88ff-bb0c6afd653c,4fcf9fea-5231-11ea-b3cb-57ea91b6fd62
4fc7601e-5231-11ea-aab6-fbadd7dde50e,4fcfbb7e-5231-11ea-8001-1b5e1bbc4ccf
4fbb1818-5231-11ea-8b39-87a2ae227acf,4fcfd19a-5231-11ea-85c0-3383f09c2b13
4fa99aa2-5231-11ea-a1ff-d7db3e974756,4fcfe464-5231-11ea-9632-d72724b8e032
4fc584ec-5231-11ea-842f-f7b94ef3c5b4,4fcff792-5231-11ea-8d23-a7c2060ef65c
4fbd806c-5231-11ea-95d3-63022caf6a6f,4fd0099e-5231-11ea-ac3e-c744d9388388
4fbacc6e-5231-11ea-9bc3-d38e1db1067e,4fd01cae-5231-11ea-ac83-d798e108cae0
4fa2739e-5231-11ea-84b9-cb35875d8a1b,4fd045ee-5231-11ea-9cc7-63fe401d13e1
4fbfdfe2-5231-11ea-baf3-df40a9885888,4fd08ce8-5231-11ea-bb68-4b9bd780ec1c
4fa23550-5231-11ea-995c-27266f5b65cf,4fd0a23c-5231-11ea-b007-578dce3b3867
4f9f8198-5231-11ea-9942-a3718e6a4e97,4fd0b678-5231-11ea-84e0-dff448de91b2
4fb25d5e-5231-11ea-9e0b-e3a27803cb7b,4fd0cca8-5231-11ea-9355-3362bd23989a
4fb38a08-5231-11ea-8e7b-6f7cb6fc8041,4fd0e03a-5231-11ea-a832-dbadcd6200f1
4f999012-5231-11ea-afce-23a29ae6940a,4fd0f2c8-5231-11ea-81ae-438bd8ac3d01
4fbfad92-5231-11ea-95da-fb617cc036fd,4fd10876-5231-11ea-95c4-973727dc2dd7
4f96134c-5231-11ea-aa5d-037fca768484,4fd12a04-5231-11ea-a53a-dbaded975bef
4f9871aa-5231-11ea-aba4-e38395abac8a,4fd13ddc-5231-11ea-8000-1fe72e193b4c
4fcb53fe-5231-11ea-b2f0-afaebb083403,4fd17e96-5231-11ea-9118-2b4f339518db
4fb585e2-5231-11ea-93cd-332f3ff99e6d,4fd1925a-5231-11ea-9c80-8b59f841707b
4f9a28ba-5231-11ea-8527-fbdc82e9d566,4fd1af6a-5231-11ea-9f5c-0b4b78dfd837
4fba1ada-5231-11ea-8349-5f6f40d38999,4fd1c2c0-5231-11ea-915f-3bb221bc38d5
4fabec94-5231-11ea-8c40-c76a5a3f807b,4fd1dc74-5231-11ea-b880-93d5f7bec839
4fbe439e-5231-11ea-b283-67feada1f85f,4fd1f448-5231-11ea-a582-b795a67fa63b
4fb71894-5231-11ea-bf45-4760500b51aa,4fd20d5c-5231-11ea-9f91-2b6f4b90e665
4fc5d7f8-5231-11ea-bd81-5b7d01eabfdf,4fd230ca-5231-11ea-b2ff-b33aa19ea29f
4fca5b02-5231-11ea-9f77-8f9a2c19cb96,4fd25672-5231-11ea-b700-7b24219cb078
4fbb1818-5231-11ea-8b39-87a2ae227acf,4fd2712a-5231-11ea-ac7d-9749eace81cc
4fbd17f8-5231-11ea-90ff-ff7bddd858bc,4fd28638-5231-11ea-ac9e-034d47155c56
4fbffad6-5231-11ea-a3dc-770f956a3aae,4fd29aa6-5231-11ea-945c-2f28d6b5ed8f
4fc3c17a-5231-11ea-8d49-8f874676abe9,4fd2ad7a-5231-11ea-b646-33f311c7c7f9
4f8b9192-5231-11ea-b3cb-5323fe3234f2,4fd2bf9a-5231-11ea-a545-970ab6446c8e
4fb52976-5231-11ea-98a5-4fcc035471f4,4fd30d10-5231-11ea-9b04-57cdc4d678a3
4fa18678-5231-11ea-8c20-63c29f2a3ea5,4fd320de-5231-11ea-9655-57eea3d2de86
4faca8e6-5231-11ea-b25e-6b7e137b5696,4fd33556-5231-11ea-a1d3-0b2239effbd5
4fb71894-5231-11ea-bf45-4760500b51aa,4fd34c94-5231-11ea-a7f1-df5360f54d9c
4fbd688e-5231-11ea-988c-ab8b14aa7a3f,4fd395dc-5231-11ea-bcf2-2327ed2dfea3
4f9eb682-5231-11ea-bcb3-2fad934242d0,4fd3a978-5231-11ea-a6f1-ff5bd8d1b745
4f93dbcc-5231-11ea-8660-97f47b20479b,4fd3c020-5231-11ea-89a3-8798abbe5a6f
4fa04eb6-5231-11ea-afcd-43a2fad21e77,4fd3d5c4-5231-11ea-b7d3-3b61c79941e4
4fa2aa12-5231-11ea-ad77-839a408af6a2,4fd3e712-5231-11ea-a9e6-0785f22930f4
4fd34c94-5231-11ea-a7f1-df5360f54d9c,4fd3f8e2-5231-11ea-8dbd-cbc9a70fc010
4fa5b130-5231-11ea-9202-4f8938c3bceb,4fd40af8-5231-11ea-97bc-1b8fd2a50c0a
4fc06ca0-5231-11ea-a3b2-3fa20cef29a1,4fd41dd6-5231-11ea-a6b6-9f499e994d4a
4fd0f2c8-5231-11ea-81ae-438bd8ac3d01,4fd475b0-5231-11ea-91bc-87dee7f89cce
4f990872-5231-11ea-b28a-8b643f825f94,4fd4887a-5231-11ea-aeaf-43a8f8af308c
4fcc392c-5231-11ea-bd5a-77262f110b7e,4fd4c11e-5231-11ea-8880-231cd90dafb9
4fc0fc56-5231-11ea-8030-97375bcd56b1,4fd4d442-5231-11ea-97e0-3f5e0a57f216
4fa08066-5231-11ea-9cb9-2f97d137814e,4fd4fe68-5231-11ea-aa9d-cff2eea13746
4f99f976-5231-11ea-aa50-c37c1605b1af,4fd5131c-5231-11ea-9c73-9b9e421bc43f
4fab98d4-5231-11ea-a619-2f0fabe3e0ce,4fd539aa-5231-11ea-9520-777171fe75c0
4fb880e4-5231-11ea-813b-27fa21c0d31f,4fd5265e-5231-11ea-ad86-73f26cc299f2
4fc1373e-5231-11ea-8973-ff99113afe89,4fd54ecc-5231-11ea-8190-571bf73e6f29
4fa316b4-5231-11ea-872d-ab9ef98e6d0b,4fd5610a-5231-11ea-a5b8-3b9e3a66f946
4f95e0d4-5231-11ea-bf2f-a35551ecd74b,4fd5ca14-5231-11ea-a69b-ffa9b54e64d0
4fb11368-5231-11ea-ac94-a3f4f1a3ee84,4fd5dd24-5231-11ea-95bd-cba5dbb1cb1e
4fad36c6-5231-11ea-a91e-f7d187aa57cf,4fd5f534-5231-11ea-92e6-275c718f27a7
4fb6c236-5231-11ea-bcef-0bbde58335e9,4fd60a06-5231-11ea-838f-9b789b60cb57
4f8ad842-5231-11ea-bb21-6f9b307f5282,4fd61c4e-5231-11ea-927c-17d89b234841
4fb7332e-5231-11ea-a12b-f3cd3f3a6051,4fd62b58-5231-11ea-9911-bb3c0cc16ee2
4f93eda6-5231-11ea-af4d-57b7e9546024,4fd64034-5231-11ea-9e67-a7585df5f545
4fa6cb1a-5231-11ea-8801-4305f6830da1,4fd659b6-5231-11ea-bb85-ebca7b0b6bf4
4fbd17f8-5231-11ea-90ff-ff7bddd858bc,4fd69ade-5231-11ea-82a6-0b2a5022b56d
4f8a1cfe-5231-11ea-a5cc-a70345f89600,4fd6b6cc-5231-11ea-9272-6bad1ca7886d
4fa85fa2-5231-11ea-a3fc-af5ac50c598c,4fd6d058-5231-11ea-ac48-234f4bc4400e
4f87f1c2-5231-11ea-95f5-1bd4f10c859f,4fd714a0-5231-11ea-9e31-1bd8d3e6e551
4fa48f44-5231-11ea-aa70-eb37cc2ddce9,4fd72de6-5231-11ea-88d7-e372da6b6433
4fb41aea-5231-11ea-97e1-6bc853a24643,4fd75668-5231-11ea-a8bb-63c0d7d4ed3a
4fa46ce4-5231-11ea-a101-1745801badb3,4fd76f86-5231-11ea-9289-e73a40d4b633
4fab7d90-5231-11ea-a167-ab6b812b2d43,4fd79a74-5231-11ea-a7cf-8b31d41ad207
4fce0158-5231-11ea-80df-0f8eef66b4de,4fd7af0a-5231-11ea-ad7a-abd62be3277d
4f937290-5231-11ea-ab0c-e723887fa3c2,4fd7c2b0-5231-11ea-b87b-4b73e03c969c
4fc8727e-5231-11ea-9af5-7b63a93c9c9b,4fd7eb32-5231-11ea-847a-83100228c94c
4f99e1ca-5231-11ea-b881-bf96246902aa,4fd7d4ee-5231-11ea-ae49-bf7f7d34bc7f
4fce1d50-5231-11ea-83da-f7480771c5b3,4fd8004a-5231-11ea-a1d5-cf516b81a2fd
4fcb1ede-5231-11ea-98fe-63b5015cfdb7,4fd84924-5231-11ea-baab-6704a04c5e1c
4f89f616-5231-11ea-ba4c-4fc2ca53def6,4fd86350-5231-11ea-9c28-d3b2d58c8d4a
4faa862e-5231-11ea-8f9c-fb59bce966f1,4fd87746-5231-11ea-8fad-270ceea026cc
4fcb69d4-5231-11ea-99e3-6ff68c4667f9,4fd896a4-5231-11ea-b336-83d08a955e97
4faf9632-5231-11ea-92a0-73d35576a3f0,4fd8afc2-5231-11ea-9fb8-3b7715e85e8a
4fb2df36-5231-11ea-ba66-eff95f5c4d2a,4fd8c43a-5231-11ea-9109-0f4d8b6a63eb
4fce0158-5231-11ea-80df-0f8eef66b4de,4fd8d70e-5231-11ea-85ac-232ec0a10917
4f95c5ea-5231-11ea-8280-37e1c03b7c60,4fd8ead2-5231-11ea-9119-67c4bbb757a3
4faa2328-5231-11ea-94aa-d37a3b42ef88,4fd8fdb0-5231-11ea-b3f9-53ea3a719834
4fc06ca0-5231-11ea-a3b2-3fa20cef29a1,4fd93cee-5231-11ea-b582-4723678d6340
4f977b42-5231-11ea-b98a-ef6fe5ef3981,4fd9620a-5231-11ea-9071-37ea19e2dbc0
4fb8e5e8-5231-11ea-be01-1fcf3bb1f264,4fd97a88-5231-11ea-b0f7-177273d31b4a
4fce324a-5231-11ea-956c-a378cf9823cf,4fd9bdfe-5231-11ea-9a22-c34437ede17a
4fc6940e-5231-11ea-9299-9f284dfa36a0,4fd9d78a-5231-11ea-8d42-bfbc8447b2f4
4f9fdf08-5231-11ea-a633-5f6a68352206,4fd9ebb2-5231-11ea-b90e-33d7b6012d8f
4fb3c2fc-5231-11ea-b413-eba9072e8242,4fd9ffb2-5231-11ea-adaa-3be6413747b3
4fd41dd6-5231-11ea-a6b6-9f499e994d4a,4fda12a4-5231-11ea-b74d-5fcb4d33b519
4fb8b71c-5231-11ea-b559-4b969fc4a87c,4fda271c-5231-11ea-870b-bb61563f66bf
4f967ba2-5231-11ea-a02d-7f2626c0d913,4fda3b12-5231-11ea-9d7c-f78ee6516ecd
4fd30d10-5231-11ea-9b04-57cdc4d678a3,4fda4e90-5231-11ea-8855-4ba8dc2689d4
4fba96ae-5231-11ea-ba74-77d2751fa6d6,4fda6d94-5231-11ea-a378-5bf1bf529ded
4f901370-5231-11ea-8ec6-23ccaac96431,4fdaabce-5231-11ea-8ffb-433b596a4ebb
4f88766a-5231-11ea-8d86-17064cfb5001,4fdac06e-5231-11ea-951b-b3a44c832693
4f89f616-5231-11ea-ba4c-4fc2ca53def6,4fdae026-5231-11ea-99a7-870a2ca25ed3
4fd8ead2-5231-11ea-9119-67c4bbb757a3,4fdb0e7a-5231-11ea-af96-c382c16eff4f
4f9472b2-5231-11ea-9dd7-cf0e745836fd,4fdb2310-5231-11ea-bb7c-a787088a848f
4fb8a074-5231-11ea-8d57-abb05dfc603b,4fdb3d82-5231-11ea-b2ec-fb72eb70a3a3
4f87f1c2-5231-11ea-95f5-1bd4f10c859f,4fdb5808-5231-11ea-8428-ab72bf161d49
4fa5cc7e-5231-11ea-abe7-6f7a75a43a50,4fdb6fe6-5231-11ea-8331-cf42fc9f1f31
4f92de84-5231-11ea-822f-1be2a94743f9,4fdb9278-5231-11ea-8f0a-c3d15d84561c
4f8a2fc8-5231-11ea-bfff-cf79d6225e2f,4fdbca7c-5231-11ea-8142-2320a61a64b9
4fd4c11e-5231-11ea-8880-231cd90dafb9,4fdc0c6c-5231-11ea-a1c3-1bf39d36eb33
4f8e0d00-5231-11ea-9a65-4b416f23f130,4fdc213e-5231-11ea-8bd4-93e40afca148
4f9c5568-5231-11ea-ad4e-6fecb8f0bb78,4fdc42b8-5231-11ea-9183-4fc833d1ade7
4fc3c17a-5231-11ea-8d49-8f874676abe9,4fdc5992-5231-11ea-9c6f-ef3d62167691
4fc19102-5231-11ea-a87e-637be314fe06,4fdc77b0-5231-11ea-9fbd-7f14711aedfd
4fabacfc-5231-11ea-89ce-cf356c3e0e77,4fdc6a54-5231-11ea-aebe-3b97a673a8ec
4fb2df36-5231-11ea-ba66-eff95f5c4d2a,4fdc8b88-5231-11ea-9b5e-0fa57499d5a6
4fa08066-5231-11ea-9cb9-2f97d137814e,4fdca28a-5231-11ea-bda9-3f15d4b1fc86
4fc21000-5231-11ea-b263-8b0572da6f4a,4fdcf05a-5231-11ea-90cc-131caf70f4e5
4fce324a-5231-11ea-956c-a378cf9823cf,4fdd1ada-5231-11ea-b78a-c3b2ac2c65b0
4fb38a08-5231-11ea-8e7b-6f7cb6fc8041,4fdd2eb2-5231-11ea-b676-e3b79f423bef
4fd8fdb0-5231-11ea-b3f9-53ea3a719834,4fdd4866-5231-11ea-83fe-fbed038f6d22
4f9945da-5231-11ea-97ae-1fac5401b1e9,4fdd601c-5231-11ea-8092-5bd9696c0f9c
4f9adb48-5231-11ea-89a8-533ea705e72f,4fdd725a-5231-11ea-990c-4b08d43be604
4f8713a6-5231-11ea-8439-c73ab8d05c1d,4fdd851a-5231-11ea-b814-ab78bbd0dd4c
4fc2e66a-5231-11ea-9647-57ceb1e967cd,4fdd9ac8-5231-11ea-bc3f-77adb0ac611f
4f9bc38c-5231-11ea-b414-f708de5b4812,4fddc35e-5231-11ea-a773-0bfeed7418b4
4fa3eef4-5231-11ea-8301-3b5d46fae043,4fddf32e-5231-11ea-b1f2-535cb11c38be
4faafde8-5231-11ea-b10c-cb78d262b0ea,4fde0bd4-5231-11ea-8366-337817d528b1
4fd3f8e2-5231-11ea-8dbd-cbc9a70fc010,4fde1fd4-5231-11ea-bad1-f7df11e137e8
4fb1a5a8-5231-11ea-8870-175c683672d9,4fde4aa4-5231-11ea-a294-a38b6f2827a9
4fc045fe-5231-11ea-81f6-af7148062737,4fde6fe8-5231-11ea-9488-fb50042382fb
4fc5c4fc-5231-11ea-bc0c-534cbe7d3d71,4fde6fca-5231-11ea-b0a2-77e202d39ba8
4fa5b130-5231-11ea-9202-4f8938c3bceb,4fde9234-5231-11ea-938a-4b255bd1b8d7
4fa78014-5231-11ea-a6da-5f8c376e1c6d,4fdea5a8-5231-11ea-b116-5348bd765da1
4fd3a978-5231-11ea-a6f1-ff5bd8d1b745,4fdeb886-5231-11ea-88be-6f3c2561c282
4fbc9ec2-5231-11ea-acdc-fb7fd82fd683,4fdf058e-5231-11ea-940d-533d9d6165a3
4fb75ca0-5231-11ea-95c8-975211583cc5,4fdf1ede-5231-11ea-85ec-e3e143fd68b7
4fda12a4-5231-11ea-b74d-5fcb4d33b519,4fdf3978-5231-11ea-ab85-3fe7aefdfc3b
4fb9cd50-5231-11ea-a137-ff500bd6ba77,4fdf569c-5231-11ea-a7d2-1bda6a491551
4fab113e-5231-11ea-b52b-c7547e13022a,4fdf6cf4-5231-11ea-aad7-5ff52fc07f2a
4fb6f53a-5231-11ea-bfe7-533172909472,4fdf7f1e-5231-11ea-909a-0fad03f4a541
4fc9045a-5231-11ea-9ef4-cfdd410cc2fd,4fdf9152-5231-11ea-8f74-e7ab2eab20e1
4fd230ca-5231-11ea-b2ff-b33aa19ea29f,4fdfa4bc-5231-11ea-9a6a-130e98bcee73
4fd0e03a-5231-11ea-a832-dbadcd6200f1,4fdfe54e-5231-11ea-ad99-83c3290d3c1f
4f88b8be-5231-11ea-91e1-ef10b6a8acba,4fdff8cc-5231-11ea-a40e-7f1e876698a4
4fc23896-5231-11ea-8f8a-1fc1d504d7f4,4fe0614a-5231-11ea-b8f6-5fbd5e49a477
4fc17712-5231-11ea-987e-17e1e058ec1c,4fe076f8-5231-11ea-865b-dbc3617dc3d9
4fd0b678-5231-11ea-84e0-dff448de91b2,4fe08a30-5231-11ea-b043-b331bbc563c8
4f93eda6-5231-11ea-af4d-57b7e9546024,4fe0a006-5231-11ea-ba05-e3b1372b5544
4fb36140-5231-11ea-944e-9323296e1e8d,4fe0b9b0-5231-11ea-93d4-87144428f708
4f9036ca-5231-11ea-b789-c76104e4ff26,4fe0d04e-5231-11ea-92db-139f03f1f297
4fc83fde-5231-11ea-8367-8fa8b73b925f,4fe0e610-5231-11ea-a034-ff222e5f7270
4fa381f8-5231-11ea-90ca-67f06ee4db53,4fe0face-5231-11ea-ac3c-a349d82adc85
4fc6686c-5231-11ea-aea5-eb1401d8f41c,4fe13ef8-5231-11ea-9583-5b6a1483faef
4f88fa7c-5231-11ea-98bf-e7f0dd402ade,4fe17378-5231-11ea-9ca6-1f808eb5df77
4fb2219a-5231-11ea-ab36-231f15850539,4fe1974a-5231-11ea-b9da-dbbd1c330ae3
4fc0fc56-5231-11ea-8030-97375bcd56b1,4fe1ac94-5231-11ea-9c51-cf8315a6b16d
4f999012-5231-11ea-afce-23a29ae6940a,4fe1c6de-5231-11ea-bb01-e3e877bf5985
4fd9d78a-5231-11ea-8d42-bfbc8447b2f4,4fe1d94e-5231-11ea-82fe-1b06c84eecc5
4fc09400-5231-11ea-858b-37807be411ef,4fe1ed4e-5231-11ea-87be-f7d4835ed0fa
4fdf7f1e-5231-11ea-909a-0fad03f4a541,4fe20658-5231-11ea-90ec-af8b1077c14d
4fae9548-5231-11ea-a71b-475d50ae3f2f,4fe22084-5231-11ea-afc5-ab296c4e07f7
4fa4fb32-5231-11ea-a21f-dbd78f19ae6c,4fe28f6a-5231-11ea-9029-73c71080b751
4fb78cde-5231-11ea-8738-d35bdf29f3fc,4fe2a9f0-5231-11ea-994e-d7d359c8c9d6
4fd10876-5231-11ea-95c4-973727dc2dd7,4fe2d0d8-5231-11ea-9023-4f2acc42b0b9
4f96d264-5231-11ea-a236-4b1c083747ac,4fe2be36-5231-11ea-a584-97b80e644070
4fd3f8e2-5231-11ea-8dbd-cbc9a70fc010,4fe2e24e-5231-11ea-8c8d-ef7289666b27
4fcd6e3c-5231-11ea-ace3-f71a040ebb5f,4fe2f5e0-5231-11ea-bbc7-b36b3dbcf3c3
4fb9e1c8-5231-11ea-ba57-0f840c8eb544,4fe308a0-5231-11ea-8d4f-8f778e4f0c92
4fb662d2-5231-11ea-9de2-6f1f14270c00,4fe31b24-5231-11ea-8a46-835710c9188b
4fc9045a-5231-11ea-9ef4-cfdd410cc2fd,4fe3628c-5231-11ea-ad16-eff2396ff6bd
4f978cb8-5231-11ea-b85a-93545a3945c5,4fe39586-5231-11ea-a8f7-0bd5bebb12fb
4fac3e2e-5231-11ea-824c-f3602642e1ce,4fe3ad0a-5231-11ea-88c5-d7fc1141b28a
4fd5131c-5231-11ea-9c73-9b9e421bc43f,4fe3e28e-5231-11ea-8449-334810b90a7c
4fc56d9a-5231-11ea-a01b-8f5ced61eb85,4fe40020-5231-11ea-8cbd-27eb1f2489be
4fcfbb7e-5231-11ea-8001-1b5e1bbc4ccf,4fe41466-5231-11ea-917e-239e16077dab
4fb32cc0-5231-11ea-ac60-3709c01556ff,4fe42ac8-5231-11ea-aa49-9b7640ab02ee
4fb52976-5231-11ea-98a5-4fcc035471f4,4fe43e32-5231-11ea-b34a-bb916cebf656
4faeb8ac-5231-11ea-9a2d-efb518984b23,4fe45732-5231-11ea-b4ee-670a48c340ff
4fb1544a-5231-11ea-91d4-73fb8b8ee88a,4fe46f74-5231-11ea-aefe-67fa1e8b0f66
4fd79a74-5231-11ea-a7cf-8b31d41ad207,4fe483b0-5231-11ea-a85e-37ba5b0f5c33
4fa8ef08-5231-11ea-a97e-833229d199ba,4fe496f2-5231-11ea-a5ff-37d5808cf8f2
4fa16990-5231-11ea-936c-bf1f561a5d47,4fe50010-5231-11ea-99e0-33e9d3cef493
4fa6b742-5231-11ea-9917-cbd96fa869f9,4fe511fe-5231-11ea-b4b2-6357f832b2c5
4f8de47e-5231-11ea-b9ab-0309ae08d44d,4fe52644-5231-11ea-a4ff-0b61c6903fb1
4fc14ce2-5231-11ea-9c3d-c331c202b08a,4fe53cd8-5231-11ea-8e98-7752a67aee9d
4fba1ada-5231-11ea-8349-5f6f40d38999,4fe55f2e-5231-11ea-943a-f75523d2cf68
4fdeb886-5231-11ea-88be-6f3c2561c282,4fe54ef8-5231-11ea-ba62-f7c3af5d4fa8
4f88b788-5231-11ea-b1bd-f39cbe94f8a6,4fe5737e-5231-11ea-81b1-2f24576ebca4
4fa6cb1a-5231-11ea-8801-4305f6830da1,4fe585d0-5231-11ea-add1-4799922996ff
4fccbc8a-5231-11ea-be0b-47e28634ece0,4fe5d012-5231-11ea-afc5-1fad852731a1
4fa10cde-5231-11ea-86c4-3befea64b0c1,4fe5e854-5231-11ea-8b39-a77e6f29dfe2
4fcc6244-5231-11ea-845c-3be92f9064da,4fe5fe66-5231-11ea-859f-cbd2dc2c692b
4fa8ef08-5231-11ea-a97e-833229d199ba,4fe62170-5231-11ea-8028-7b5d00f6c672
4f9bb3ec-5231-11ea-bf38-db69885ac5b3,4fe64d9e-5231-11ea-b3ec-4bb834434197
4fa45e84-5231-11ea-a2f6-c315da4d9508,4fe65f50-5231-11ea-94e7-472509f441a6
4fe1ed4e-5231-11ea-87be-f7d4835ed0fa,4fe6733c-5231-11ea-93d3-e3516b4bbd57
4fa1c41c-5231-11ea-9b5b-f3365064aa05,4fe68732-5231-11ea-8fd5-b72e61552b4c
4fdb9278-5231-11ea-8f0a-c3d15d84561c,4fe699ca-5231-11ea-bb79-4b1a96855f65
4f9102c6-5231-11ea-9c95-8ff285395a6c,4fe6ac1c-5231-11ea-a4c5-2b8d688178d9
4fa316b4-5231-11ea-872d-ab9ef98e6d0b,4fe6d28c-5231-11ea-90dd-3fa7693f2d22
4fd97a88-5231-11ea-b0f7-177273d31b4a,4fe6fd7a-5231-11ea-90fd-2fe7767f092b
4f90a60a-5231-11ea-a352-1b1b6bf38ed9,4fe74d16-5231-11ea-8a79-cb038be11f2d
4fc2838c-5231-11ea-87f8-9b2bc2adfa43,4fe76526-5231-11ea-bc59-83331d55b9b3
4fcbefe4-5231-11ea-acd1-979642af0f4e,4fe77f48-5231-11ea-9896-8785090e9038
4fa7d46a-5231-11ea-b3b4-ab7ad4027778,4fe79492-5231-11ea-bab3-9765d1cdb36e
4fd30d10-5231-11ea-9b04-57cdc4d678a3,4fe7a8ba-5231-11ea-a2d1-2b058d769bb9
4f88fa7c-5231-11ea-98bf-e7f0dd402ade,4fe7bc06-5231-11ea-b317-c703c6bf1ae9
4f8bf380-5231-11ea-b078-3fae3fc3ca55,4fe7e078-5231-11ea-8364-fb8803c65c67
4f98571a-5231-11ea-80d0-7f0d45f1bd36,4fe7f342-5231-11ea-a1c6-3727e5aa2e56
4f9d4572-5231-11ea-94b7-5f65a1aefdda,4fe82222-5231-11ea-974b-fb8dfe096518
4fbd42f0-5231-11ea-92f0-1b32cade29b4,4fe84fc2-5231-11ea-add0-fb5d5d595cce
4fcb69d4-5231-11ea-99e3-6ff68c4667f9,4fe86926-5231-11ea-8d57-bbba7160dd0d
4fa49124-5231-11ea-9cda-cb75e6c022c3,4fe87cc2-5231-11ea-8516-ab12ac71a534
4fe68732-5231-11ea-8fd5-b72e61552b4c,4fe89086-5231-11ea-af87-af39af8227f0
4f949d6e-5231-11ea-ae78-43d2c61418d9,4fe8a6c0-5231-11ea-9e7d-b31d85676f77
4f99223a-5231-11ea-a4ee-4b77ce58fede,4fe8c056-5231-11ea-820c-271f8100a1c7
4f9d9aa4-5231-11ea-bc61-33470893f45d,4fe8fae4-5231-11ea-aa0f-ffd26757d4ba
4fcbefe4-5231-11ea-acd1-979642af0f4e,4fe90caa-5231-11ea-8dad-a72c3d25363d
4f9934be-5231-11ea-8c5b-6b440be6e058,4fe9229e-5231-11ea-b52d-334fca639ac5
4fd40af8-5231-11ea-97bc-1b8fd2a50c0a,4fe937e8-5231-11ea-bbe2-f35026c164d4
4fa6a374-5231-11ea-b666-4fbcfd9dd26b,4fe94b70-5231-11ea-9135-5ff1653981fb
4fd7d4ee-5231-11ea-ae49-bf7f7d34bc7f,4fe96ae2-5231-11ea-bdcd-3b64f14cb505
4fb6f53a-5231-11ea-bfe7-533172909472,4fe98478-5231-11ea-ac5d-3b22e3239e09
4fde6fe8-5231-11ea-9488-fb50042382fb,4fe9af8e-5231-11ea-9055-db230c9c822c
4f88b788-5231-11ea-b1bd-f39cbe94f8a6,4fea0f7e-5231-11ea-954e-3fa2a0ff1d96
4fd33556-5231-11ea-a1d3-0b2239effbd5,4fea255e-5231-11ea-88c6-2f9629a7510b
4fa43206-5231-11ea-acb8-e30d26ff5655,4fea3ada-5231-11ea-a174-7fad93d69c2f
4fad36c6-5231-11ea-a91e-f7d187aa57cf,4fea5b28-5231-11ea-8a51-a776fc96dac8
4fdd725a-5231-11ea-990c-4b08d43be604,4fea7216-5231-11ea-87e0-a786e85445da
4f94ea9e-5231-11ea-af26-3f9351f40205,4fea87b0-5231-11ea-be6f-5f67ceabb7d4
4f9ba08c-5231-11ea-a8fd-57bfb89c1a54,4feaa0b0-5231-11ea-a023-0b342107eb25
4f8a7596-5231-11ea-ada5-7faccb861584,4feb0dc0-5231-11ea-ad25-b7403e3e62b7
4fc6940e-5231-11ea-9299-9f284dfa36a0,4feb20bc-5231-11ea-b879-1b0fd03ff21c
4f9bd34a-5231-11ea-ae31-d7147176b036,4feb3520-5231-11ea-acbf-27e8d77746d1
4fa806ec-5231-11ea-a812-f3ab43805bca,4feb46c8-5231-11ea-9be1-3b72345a33c1
4f9ee44a-5231-11ea-bfb1-6794af1c9226,4feb5af0-5231-11ea-ae40-1341ee2f05bb
4fb38a08-5231-11ea-8e7b-6f7cb6fc8041,4feb6ec8-5231-11ea-a141-4bd1d3d85c25
4fc9559a-5231-11ea-bee5-733817e532f2,4feb82dc-5231-11ea-8b8b-6ff9bb802dca
4fdf058e-5231-11ea-940d-533d9d6165a3,4febd034-5231-11ea-a15a-dfd218bdb935
4fa65d56-5231-11ea-a371-b7ebb519bad3,4febeede-5231-11ea-9159-c70a0ad2edbc
4fc1d09a-5231-11ea-8e88-33f16f3e42ce,4fec86b4-5231-11ea-a59d-4f80175f17ef
4f9871aa-5231-11ea-aba4-e38395abac8a,4fec9d02-5231-11ea-a4b3-f75147a71926
4fbb4018-5231-11ea-968d-37ceefae3cfa,4fecb21a-5231-11ea-94cb-7b3d49af9a0d
4fa85fa2-5231-11ea-a3fc-af5ac50c598c,4fecc958-5231-11ea-b290-c7286440adcb
4fbab7f6-5231-11ea-b1b8-5fd569eba630,4fecde20-5231-11ea-a9c1-f7b5ce3f0a1b
4fd8afc2-5231-11ea-9fb8-3b7715e85e8a,4fecf27a-5231-11ea-a1cf-c3a0bbac15e9
4fca4630-5231-11ea-b244-bb017ff2d86c,4fed079c-5231-11ea-af4e-ab580496e5de
4fd0e03a-5231-11ea-a832-dbadcd6200f1,4fed2150-5231-11ea-ab52-3bf41196e0d5
4fb0946a-5231-11ea-ab76-6b291541d6da,4fed4d2e-5231-11ea-a71f-a38916e5f96b
4fcf9fea-5231-11ea-b3cb-57ea91b6fd62,4fed70e2-5231-11ea-94c6-774862e21323
4f89f616-5231-11ea-ba4c-4fc2ca53def6,4fed87da-5231-11ea-bc8c-43863882f006
4fe62170-5231-11ea-8028-7b5d00f6c672,4fee0a70-5231-11ea-8abb-63edac786daf
4fcec598-5231-11ea-9704-1b70476c231e,4fee3a9a-5231-11ea-b181-53edad59915a
4faf81b0-5231-11ea-b0f5-3fea096a911b,4fee2334-5231-11ea-9a60-6f6edf442c91
4fe3e28e-5231-11ea-8449-334810b90a7c,4fee4ecc-5231-11ea-a220-8318db611fb1
4fa89ff8-5231-11ea-b973-0765443fab90,4fee6362-5231-11ea-9c14-a7f022f5a2bc
4fbbb3cc-5231-11ea-b878-bbfe31d0cac7,4fee7500-5231-11ea-b258-d76cdae86e6c
4fac5616-5231-11ea-9bf8-cf767619b3ce,4fee88e2-5231-11ea-aea6-ef921908ea88
4fa9afba-5231-11ea-824a-7bbaca118846,4fee9f94-5231-11ea-98ed-1ffbee397bb8
4fbc5ea8-5231-11ea-8d47-3bb1c2c644cb,4fef09de-5231-11ea-a56a-87e3040ffc33
4fdf569c-5231-11ea-a7d2-1bda6a491551,4fef2c02-5231-11ea-afd2-93e49729202a
4fd9bdfe-5231-11ea-9a22-c34437ede17a,4fef3d78-5231-11ea-98ee-6b70807b613e
4fbe6ca2-5231-11ea-a560-b30e24b41fff,4fef5452-5231-11ea-ba40-33dee2357ae8
4fce5ca2-5231-11ea-969a-a3f8d7abc3f3,4fef68ca-5231-11ea-942a-93c915073169
4f87b5d6-5231-11ea-a10c-23acbe7d3b72,4fef8012-5231-11ea-9679-57b0f6f9aa32
4f97f022-5231-11ea-bff6-17a21ebb1497,4fef9476-5231-11ea-bc50-efff4f329d8c
4fd29aa6-5231-11ea-945c-2f28d6b5ed8f,4fefa858-5231-11ea-b8a3-6ba900aa8a3f
4f957f86-5231-11ea-a010-c7d9054ec3d4,4ff00208-5231-11ea-9034-7b348f1e500f
4fcf865e-5231-11ea-b53a-c755d85cee9c,4ff01ce8-5231-11ea-8495-cbab093c5df0
4fea3ada-5231-11ea-a174-7fad93d69c2f,4ff0344e-5231-11ea-bd5f-ff7fcd68f45a
4fb52976-5231-11ea-98a5-4fcc035471f4,4ff04510-5231-11ea-a629-0b4f61220638
4f9a28ba-5231-11ea-8527-fbdc82e9d566,4ff05a8c-5231-11ea-a56c-17e5b55795fb
4f89f616-5231-11ea-ba4c-4fc2ca53def6,4ff0726a-5231-11ea-8b8c-ab160cb43b4b
4fa973e2-5231-11ea-9c62-17f4cf12c554,4ff0c65c-5231-11ea-a0e1-cbb081326bde
4fe699ca-5231-11ea-bb79-4b1a96855f65,4ff0e3ee-5231-11ea-becd-9325cab40d22
4fd3c020-5231-11ea-89a3-8798abbe5a6f,4ff0f8ac-5231-11ea-8c05-17d393803cb6
4fae7da6-5231-11ea-bbd6-83eb725c7d33,4ff11198-5231-11ea-b5a9-a7e8cab44f3e
4fe1c6de-5231-11ea-bb01-e3e877bf5985,4ff152d4-5231-11ea-88c8-1b347d5f696d
4f9c5568-5231-11ea-ad4e-6fecb8f0bb78,4ff16b98-5231-11ea-982e-97df813afe99
4fac5616-5231-11ea-9bf8-cf767619b3ce,4ff188d0-5231-11ea-879f-0fb40b1f5a8a
4fc928a4-5231-11ea-ad85-2bdbbdcefdb2,4ff19dac-5231-11ea-a675-0b61136cd0d1
4fd4fe68-5231-11ea-aa9d-cff2eea13746,4ff1b134-5231-11ea-9e87-7f013247d73c
4fbc22e4-5231-11ea-8914-bb2f2be03524,4ff1c93a-5231-11ea-99ff-3f82f7040ada
4fecb21a-5231-11ea-94cb-7b3d49af9a0d,4ff22ed4-5231-11ea-a735-7f50dc201d88
4fa5779c-5231-11ea-8577-135d047339f5,4ff24842-5231-11ea-86ce-6bd3e98565aa
4fc47dcc-5231-11ea-b97d-3bd1a7268bd6,4ff25878-5231-11ea-9af8-9b60d6eeedb6
4fd97a88-5231-11ea-b0f7-177273d31b4a,4ff26dd6-5231-11ea-9448-07592e658976
4fdbca7c-5231-11ea-8142-2320a61a64b9,4ff2819a-5231-11ea-88e0-1b2a3f1310b6
4f9ba08c-5231-11ea-a8fd-57bfb89c1a54,4ff29536-5231-11ea-8f62-f74abc0db5d7
4fcd6e3c-5231-11ea-ace3-f71a040ebb5f,4ff2a724-5231-11ea-8c11-d32b0c330064
4fb1f8be-5231-11ea-b5d4-9bdfe5a3f3cd,4ff2b944-5231-11ea-beaf-4f9f58d4e5ad
4fab113e-5231-11ea-b52b-c7547e13022a,4ff31e0c-5231-11ea-a323-7ffba9761997
4fdf7f1e-5231-11ea-909a-0fad03f4a541,4ff339e6-5231-11ea-b0b6-07b3649de939
4fd97a88-5231-11ea-b0f7-177273d31b4a,4ff35336-5231-11ea-a3a1-d309361e485a
4fe308a0-5231-11ea-8d4f-8f778e4f0c92,4ff365f6-5231-11ea-8cbb-03f82d9b870a
4fb1662e-5231-11ea-a65c-4772b69eb8a1,4ff37708-5231-11ea-b451-c74eb0c1e27b
4fcbc91a-5231-11ea-885c-2b8c471729e8,4ff38a90-5231-11ea-ab40-bbdc46f8647b
4fcc77ca-5231-11ea-bd2b-f7962e5967af,4ff39fa8-5231-11ea-a905-df783c3f03c6
4fdd725a-5231-11ea-990c-4b08d43be604,4ff3ceba-5231-11ea-9a11-9f00f58511d7
4f975cac-5231-11ea-8090-0339e60972d5,4ff42e82-5231-11ea-8a01-33f1e339766a
4fea0f7e-5231-11ea-954e-3fa2a0ff1d96,4ff44746-5231-11ea-ba02-fbe2180cf760
4f914448-5231-11ea-9cb0-23557bea0d39,4ff45f74-5231-11ea-a473-a3a556dafc81
4fb5167a-5231-11ea-ac56-f729f102a351,4ff47f18-5231-11ea-bd2a-93dcb1cba59c
4f957f86-5231-11ea-a010-c7d9054ec3d4,4ff4999e-5231-11ea-bac6-9325137a3cc6
4fd08ce8-5231-11ea-bb68-4b9bd780ec1c,4ff4b082-5231-11ea-84df-d716f17a6858
4f9ecad2-5231-11ea-83c6-0fadd7af2282,4ff4c8ec-5231-11ea-9c8d-67c4075eac4a
4fb1662e-5231-11ea-a65c-4772b69eb8a1,4ff5131a-5231-11ea-a65e-bfbd2e0021b0
4fb0ae0a-5231-11ea-8376-6755c9b3ecde,4ff5627a-5231-11ea-8339-a394cd63c787
4fd045ee-5231-11ea-9cc7-63fe401d13e1,4ff59880-5231-11ea-ba82-f73143067cc8
4fd0cca8-5231-11ea-9355-3362bd23989a,4ff5affa-5231-11ea-83cc-0b8984102100
4fa916f4-5231-11ea-a1f5-6fe422c49635,4ff5c4ae-5231-11ea-ad2f-1b637c92a78c
4fdf6cf4-5231-11ea-aad7-5ff52fc07f2a,4ff5d606-5231-11ea-86bb-9bfd04f43f48
4f87a4f6-5231-11ea-847d-33da658b5e7f,4ff5e632-5231-11ea-9306-0f7eb96ff245
4fb11368-5231-11ea-ac94-a3f4f1a3ee84,4ff5fa3c-5231-11ea-ad1b-c7898d72a93e
4fb2df36-5231-11ea-ba66-eff95f5c4d2a,4ff60d10-5231-11ea-a375-83d1b8b30e35
4fb63bcc-5231-11ea-a1c9-c74325721a25,4ff660e4-5231-11ea-86e8-3b6290ac93b2
4fbc8536-5231-11ea-8e01-77a5325aa700,4ff67caa-5231-11ea-8878-47d0a9a09a48
4fd3a978-5231-11ea-a6f1-ff5bd8d1b745,4ff6a34c-5231-11ea-aee2-736ca0b82811
4fe308a0-5231-11ea-8d4f-8f778e4f0c92,4ff6be54-5231-11ea-bf79-4397c4c40bf3
4f990872-5231-11ea-b28a-8b643f825f94,4ff6d77c-5231-11ea-9d31-d767cf2abd30
4fd93cee-5231-11ea-b582-4723678d6340,4ff70b34-5231-11ea-a0de-d781c439d8bc
4fa029cc-5231-11ea-89b7-077de1418d95,4ff71ca0-5231-11ea-a22c-6f8d403f864e
4f95a600-5231-11ea-b189-f766f9acef0c,4ff735fa-5231-11ea-b0f0-3b65028f101d
4fb2953a-5231-11ea-80b8-3728424d23a3,4ff7547c-5231-11ea-80d2-bfa1a272fad4
4fd33556-5231-11ea-a1d3-0b2239effbd5,4ff76d72-5231-11ea-bfeb-ab791f149f3c
4fe77f48-5231-11ea-9896-8785090e9038,4ff794a0-5231-11ea-8b6c-5f5bd070a0e3
4fb4c918-5231-11ea-941e-77e147325251,4ff780dc-5231-11ea-a39d-0b23a057f9d8
4f975cac-5231-11ea-8090-0339e60972d5,4ff806c4-5231-11ea-973d-87d0ff0a2b3f
4fb9cd50-5231-11ea-a137-ff500bd6ba77,4ff81cfe-5231-11ea-9d62-8fd11a4f909e
4fcdca94-5231-11ea-81d2-67934e3bb2d1,4ff8314e-5231-11ea-9196-5b2189eb15d3
4fb585e2-5231-11ea-93cd-332f3ff99e6d,4ff84328-5231-11ea-baca-673b6ebb998f
4fce91e0-5231-11ea-8bd4-374dac5b13e2,4ff857b4-5231-11ea-b1e7-3bdf13b64c71
4f91ade8-5231-11ea-927f-3fd271d96d37,4ff86902-5231-11ea-b37d-87e5e25f87a1
4fe0a006-5231-11ea-ba05-e3b1372b5544,4ff87d0c-5231-11ea-8e92-2f29987d8b76
4fcc6244-5231-11ea-845c-3be92f9064da,4ff890b2-5231-11ea-a2d3-4f62f3589c75
4fb9be64-5231-11ea-99db-cfacde9b40e9,4ff8c370-5231-11ea-a353-a73cc507ebb1
4fafb982-5231-11ea-9da9-5720699cce01,4ff900e2-5231-11ea-8d1a-9f08e4cfa554
4febd034-5231-11ea-a15a-dfd218bdb935,4ff9421e-5231-11ea-9cd0-7f3a1a7c71a2
4fc584ec-5231-11ea-842f-f7b94ef3c5b4,4ff954de-5231-11ea-9d09-f7946762f38c
4fb05d2e-5231-11ea-9d92-6ffa6f0a6edf,4ff96a78-5231-11ea-b055-935375f9bfdd
4fc7d5d0-5231-11ea-ad8d-5396504f3bbe,4ff996d8-5231-11ea-86b6-d7710a6b4f1b
4f8c4092-5231-11ea-8b6b-3387e8f46547,4ff9af42-5231-11ea-aef9-63ae1ab63e45
4f9a71ee-5231-11ea-9d4c-7bb12bf48b74,4ff9c400-5231-11ea-9f95-fbff9dbb7a44
4fd5265e-5231-11ea-ad86-73f26cc299f2,4ff9dd32-5231-11ea-ac7c-c7e2537bc925
4fbe6ca2-5231-11ea-a560-b30e24b41fff,4ff9f4b6-5231-11ea-bc9d-97a45961bb14
4ff22ed4-5231-11ea-a735-7f50dc201d88,4ffa26f2-5231-11ea-8aff-239866119ed1
4fb8a074-5231-11ea-8d57-abb05dfc603b,4ffa4312-5231-11ea-afea-03af33dafbf1
4fe2e24e-5231-11ea-8c8d-ef7289666b27,4ffa5a32-5231-11ea-97f0-3f135ada421b
4f94ffde-5231-11ea-922e-ff5d6c0ec95b,4ffa79d6-5231-11ea-91a0-6fb456fdd881
4ff2a724-5231-11ea-8c11-d32b0c330064,4ffa91dc-5231-11ea-813f-e3ea18eeb8e5
4fa8ef08-5231-11ea-a97e-833229d199ba,4ffaa60e-5231-11ea-98a0-6ff0c4436dde
4f90dd3c-5231-11ea-b271-c795ee354373,4ffab950-5231-11ea-b575-13c90cfc4000
4f9934be-5231-11ea-8c5b-6b440be6e058,4ffad4da-5231-11ea-b0b1-8fc549872cba
4fb86366-5231-11ea-ab61-4bb1e0b73aac,4ffb4a64-5231-11ea-b91d-df00200abb9d
4fe43e32-5231-11ea-b34a-bb916cebf656,4ffb6580-5231-11ea-bf67-731650046a56
4fd9bdfe-5231-11ea-9a22-c34437ede17a,4ffb7b9c-5231-11ea-92f9-c7d8c66e6b62
4f9d80d2-5231-11ea-ad8a-8f021c0d2d20,4ffb9686-5231-11ea-8849-9fc974440cb8
4fe8fae4-5231-11ea-aa0f-ffd26757d4ba,4ffba9dc-5231-11ea-b7d8-3f7cc6cf0873
4fcadc9e-5231-11ea-beb4-5be1e0a538b1,4ffbbf76-5231-11ea-8fea-9bbc7b5b9549
4fa0f56e-5231-11ea-800f-2fb67be57422,4ffbd448-5231-11ea-a99d-1b22f0654285
4fbb8046-5231-11ea-a2d4-1b7679f6a792,4ffbff86-5231-11ea-a901-1f6a1b31faed
4fd10876-5231-11ea-95c4-973727dc2dd7,4ffc52e2-5231-11ea-b98b-0b2cea9f2c16
4f9173a0-5231-11ea-9cc9-7b1939500f66,4ffc9e8c-5231-11ea-a05f-6f775515ec72
4fe0face-5231-11ea-ac3c-a349d82adc85,4ffcb32c-5231-11ea-bdd6-8b012d0e6e77
4fed2150-5231-11ea-ab52-3bf41196e0d5,4ffcc4e8-5231-11ea-a920-87dca132ec2e
4fd64034-5231-11ea-9e67-a7585df5f545,4ffcda78-5231-11ea-89ba-174caff3fe8e
4f958f76-5231-11ea-b577-6bfdb110b5be,4ffcf274-5231-11ea-aa01-13c2b8f0386c
4fb5167a-5231-11ea-ac56-f729f102a351,4ffd07be-5231-11ea-8089-67cc4399772d
4fea3ada-5231-11ea-a174-7fad93d69c2f,4ffd237a-5231-11ea-a07c-57b4601246bf
4feb82dc-5231-11ea-8b8b-6ff9bb802dca,4ffd7ba4-5231-11ea-8f08-7ba3602f2aa4
4fe79492-5231-11ea-bab3-9765d1cdb36e,4ffd9b2a-5231-11ea-88e7-6be373e89288
4faf19c8-5231-11ea-aceb-97386ae21a0d,4ffdb9f2-5231-11ea-bb35-933a64008d9f
4fb4e33a-5231-11ea-8993-b70f02b43612,4ffdd022-5231-11ea-b567-57b6ed9dec3a
4f871446-5231-11ea-9ce9-837d607fcfad,4ffde3e6-5231-11ea-938a-0736f0f7d725
4fe79492-5231-11ea-bab3-9765d1cdb36e,4ffdf96c-5231-11ea-8670-37f7bc5ba35d
4fe2f5e0-5231-11ea-bbc7-b36b3dbcf3c3,4ffe114a-5231-11ea-a7de-9be68025d031
4fb585e2-5231-11ea-93cd-332f3ff99e6d,4ffe44b2-5231-11ea-afc5-6fdd05278836
4ff16b98-5231-11ea-982e-97df813afe99,4ffe58bc-5231-11ea-b922-576dfcdc0565
4fb08286-5231-11ea-aa60-7f6cd93181fa,4ffe789c-5231-11ea-869d-ef5d921825ad
4f8e6426-5231-11ea-956a-f710c77eaad8,4ffeb37a-5231-11ea-807c-7b6bd8065e31
4f90dd3c-5231-11ea-b271-c795ee354373,4ffedeea-5231-11ea-8386-4f33146e90c9
4fb32cc0-5231-11ea-ac60-3709c01556ff,4ffedee0-5231-11ea-b9fe-a335f6796dc9
4ff9dd32-5231-11ea-ac7c-c7e2537bc925,4ffefc0e-5231-11ea-91ed-7b5dc1ba928e
4ffe114a-5231-11ea-a7de-9be68025d031,4fff10ea-5231-11ea-86ec-4f3bb3e647ac
4f97f022-5231-11ea-bff6-17a21ebb1497,4fff2878-5231-11ea-a17f-176bbbbd7cf6
4fed4d2e-5231-11ea-a71f-a38916e5f96b,4fff4164-5231-11ea-98ba-a378fe41d941
4facbf7a-5231-11ea-a54b-0b8de7f63ffd,4fff71e8-5231-11ea-b243-4fcf6616c1e1
4fcbb65a-5231-11ea-97a7-13ed8f89e77a,4fff8b42-5231-11ea-9a8c-4f6dd9b712c6
4fdca28a-5231-11ea-bda9-3f15d4b1fc86,4fffcac6-5231-11ea-b3fd-a71f391c8031
4fde4aa4-5231-11ea-a294-a38b6f2827a9,4fffdd36-5231-11ea-a775-7b64188dd941
4fb07282-5231-11ea-b1f7-0788024b99c0,4ffff366-5231-11ea-b2a4-3f7b684e1d72
4fd9d78a-5231-11ea-8d42-bfbc8447b2f4,500008ce-5231-11ea-a48d-83616a593279
4f871446-5231-11ea-9ce9-837d607fcfad,50001f3a-5231-11ea-97d5-c7b0850270eb
4f9c62ba-5231-11ea-821b-63224ca425ac,50003768-5231-11ea-b7c0-db63e35634cc
4fd1c2c0-5231-11ea-915f-3bb221bc38d5,50006148-5231-11ea-af47-2bac149c5b4d
4fb0946a-5231-11ea-ab76-6b291541d6da,5000c32c-5231-11ea-a98e-7b623d899bf6
4fc2614a-5231-11ea-846f-6f6d1ad64994,5000dcea-5231-11ea-8965-4b3f8d7dba72
4fc06ca0-5231-11ea-a3b2-3fa20cef29a1,5000ef50-5231-11ea-892e-3fe46ea50cad
4fb12d6c-5231-11ea-bfaf-77659f276f13,50010440-5231-11ea-8cd2-9bb55ac4ef0a
4fc03190-5231-11ea-90a0-9b14a53aadef,500117a0-5231-11ea-8810-a7160393675b
4fd84924-5231-11ea-baab-6704a04c5e1c,50012b8c-5231-11ea-96ec-2f0b651a766f
4fe74d16-5231-11ea-8a79-cb038be11f2d,50013eb0-5231-11ea-a243-43ad8931f400
4fe8fae4-5231-11ea-aa0f-ffd26757d4ba,50018d20-5231-11ea-b4fd-a3518b086ca5
4fa84c92-5231-11ea-97c7-57c81bff2378,5001a210-5231-11ea-98c9-23e62adb9064
4fdd1ada-5231-11ea-b78a-c3b2ac2c65b0,5001ba34-5231-11ea-9cf5-cbc9ea3724f1
4fdc42b8-5231-11ea-9183-4fc833d1ade7,5001cf06-5231-11ea-ad2c-b35825b70108
4f9fdf08-5231-11ea-a633-5f6a68352206,5001f5b2-5231-11ea-b028-4b89569a4584
4fc928a4-5231-11ea-ad85-2bdbbdcefdb2,50020ab6-5231-11ea-bb47-8f91afc06ed3
4f9c9ce4-5231-11ea-999b-77fc49e442de,50021dda-5231-11ea-aeac-ff43aa265fa0
4faeb8ac-5231-11ea-9a2d-efb518984b23,50027582-5231-11ea-b1ad-77d072f70ef8
4f98d3fc-5231-11ea-bd59-67fc7bdffc7b,50028bc6-5231-11ea-97e9-d7d19cf9e5c4
4f89f616-5231-11ea-ba4c-4fc2ca53def6,50029fe4-5231-11ea-a2ca-87c03f5a520d
4fdb3d82-5231-11ea-b2ec-fb72eb70a3a3,5002b3b2-5231-11ea-b607-8b8ba69fb729
4ff86902-5231-11ea-b37d-87e5e25f87a1,5002c7a8-5231-11ea-a229-73549dbbfdbe
4ff6be54-5231-11ea-bf79-4397c4c40bf3,5002e0f8-5231-11ea-8421-d71cb07a439b
4fb86366-5231-11ea-ab61-4bb1e0b73aac,5002fa16-5231-11ea-b1de-4336187b1751
4f9c3592-5231-11ea-bf8c-eb342391261c,5003691a-5231-11ea-bb2f-efb0a8d46f9c
4fd3d5c4-5231-11ea-b7d3-3b61c79941e4,50037d7e-5231-11ea-8bb3-a7037cb19e3e
4fe3628c-5231-11ea-ad16-eff2396ff6bd,50039354-5231-11ea-b28f-c79269d005b8
4fd75668-5231-11ea-a8bb-63c0d7d4ed3a,5003a722-5231-11ea-b9b1-2f446d9c7f25
4ff890b2-5231-11ea-a2d3-4f62f3589c75,5003bae6-5231-11ea-8f52-d757a0262c3e
4fb34a0c-5231-11ea-96a5-875a6cd08f28,5003d396-5231-11ea-8d4b-ff002c463673
4fa2c6dc-5231-11ea-8560-1732bac52618,5003f6e6-5231-11ea-8daa-fb6b9969b847
4fb32cc0-5231-11ea-ac60-3709c01556ff,50042c92-5231-11ea-8d93-2f77055211a4
4fca8618-5231-11ea-9a68-03293723b9cd,500487c8-5231-11ea-aeaf-77736c9d86f2
4f92cdea-5231-11ea-81c9-5777c61fae70,5004a460-5231-11ea-9bd7-a3d54958c2da
4fed87da-5231-11ea-bc8c-43863882f006,5004b540-5231-11ea-8d6f-1fa2b78807a0
4fb7d25c-5231-11ea-a930-8fda551c9fa1,5004cba2-5231-11ea-b4f9-63890728275a
4fe96ae2-5231-11ea-bdcd-3b64f14cb505,5004de6c-5231-11ea-85bb-2b850d876446
4fbab7f6-5231-11ea-b1b8-5fd569eba630,5004ee02-5231-11ea-ba8f-77cc558f6fde
4f9ba08c-5231-11ea-a8fd-57bfb89c1a54,500501f8-5231-11ea-a63e-bbf62d219584
4fcc4a8e-5231-11ea-9c97-4bb7aeff9623,5005149a-5231-11ea-97d0-af319cbe5ada
4f9a28ba-5231-11ea-8527-fbdc82e9d566,50052f16-5231-11ea-b26a-2766d0802d8b
4fbc22e4-5231-11ea-8914-bb2f2be03524,50057cdc-5231-11ea-b3e2-3be60c262608
4fe43e32-5231-11ea-b34a-bb916cebf656,50059802-5231-11ea-8756-cbfbad7f66dc
