RunID,Tick,ActiveAgentsPerTick
run-2020-2-18-13-54-56.254370927,0,11
run-2020-2-18-13-54-56.254370927,1,10
run-2020-2-18-13-54-56.254370927,2,8
run-2020-2-18-13-54-56.254370927,3,8
run-2020-2-18-13-54-56.254370927,4,12
run-2020-2-18-13-54-56.254370927,5,15
run-2020-2-18-13-54-56.254370927,6,15
run-2020-2-18-13-54-56.254370927,7,16
run-2020-2-18-13-54-56.254370927,8,17
run-2020-2-18-13-54-56.254370927,9,18
run-2020-2-18-13-54-56.254370927,10,23
run-2020-2-18-13-54-56.254370927,11,26
run-2020-2-18-13-54-56.254370927,12,24
run-2020-2-18-13-54-56.254370927,13,25
run-2020-2-18-13-54-56.254370927,14,25
run-2020-2-18-13-54-56.254370927,15,26
run-2020-2-18-13-54-56.254370927,16,26
run-2020-2-18-13-54-56.254370927,17,27
run-2020-2-18-13-54-56.254370927,18,27
run-2020-2-18-13-54-56.254370927,19,27
run-2020-2-18-13-54-56.254370927,20,28
run-2020-2-18-13-54-56.254370927,21,29
run-2020-2-18-13-54-56.254370927,22,30
run-2020-2-18-13-54-56.254370927,23,32
run-2020-2-18-13-54-56.254370927,24,33
run-2020-2-18-13-54-56.254370927,25,38
run-2020-2-18-13-54-56.254370927,26,40
run-2020-2-18-13-54-56.254370927,27,38
run-2020-2-18-13-54-56.254370927,28,37
run-2020-2-18-13-54-56.254370927,29,39
run-2020-2-18-13-54-56.254370927,30,42
run-2020-2-18-13-54-56.254370927,31,42
run-2020-2-18-13-54-56.254370927,32,41
run-2020-2-18-13-54-56.254370927,33,41
run-2020-2-18-13-54-56.254370927,34,41
run-2020-2-18-13-54-56.254370927,35,40
run-2020-2-18-13-54-56.254370927,36,43
run-2020-2-18-13-54-56.254370927,37,44
run-2020-2-18-13-54-56.254370927,38,45
run-2020-2-18-13-54-56.254370927,39,48
run-2020-2-18-13-54-56.254370927,40,55
run-2020-2-18-13-54-56.254370927,41,58
run-2020-2-18-13-54-56.254370927,42,63
run-2020-2-18-13-54-56.254370927,43,63
run-2020-2-18-13-54-56.254370927,44,64
run-2020-2-18-13-54-56.254370927,45,62
run-2020-2-18-13-54-56.254370927,46,59
run-2020-2-18-13-54-56.254370927,47,61
run-2020-2-18-13-54-56.254370927,48,59
run-2020-2-18-13-54-56.254370927,49,61
run-2020-2-18-13-54-56.254370927,50,62
run-2020-2-18-13-54-56.254370927,51,59
run-2020-2-18-13-54-56.254370927,52,62
run-2020-2-18-13-54-56.254370927,53,63
run-2020-2-18-13-54-56.254370927,54,62
run-2020-2-18-13-54-56.254370927,55,58
run-2020-2-18-13-54-56.254370927,56,63
run-2020-2-18-13-54-56.254370927,57,66
run-2020-2-18-13-54-56.254370927,58,65
run-2020-2-18-13-54-56.254370927,59,63
run-2020-2-18-13-54-56.254370927,60,61
run-2020-2-18-13-54-56.254370927,61,64
run-2020-2-18-13-54-56.254370927,62,62
run-2020-2-18-13-54-56.254370927,63,61
run-2020-2-18-13-54-56.254370927,64,60
run-2020-2-18-13-54-56.254370927,65,59
run-2020-2-18-13-54-56.254370927,66,61
run-2020-2-18-13-54-56.254370927,67,66
run-2020-2-18-13-54-56.254370927,68,66
run-2020-2-18-13-54-56.254370927,69,66
run-2020-2-18-13-54-56.254370927,70,63
run-2020-2-18-13-54-56.254370927,71,61
run-2020-2-18-13-54-56.254370927,72,62
run-2020-2-18-13-54-56.254370927,73,65
run-2020-2-18-13-54-56.254370927,74,64
run-2020-2-18-13-54-56.254370927,75,68
run-2020-2-18-13-54-56.254370927,76,71
run-2020-2-18-13-54-56.254370927,77,68
run-2020-2-18-13-54-56.254370927,78,70
run-2020-2-18-13-54-56.254370927,79,71
run-2020-2-18-13-54-56.254370927,80,71
run-2020-2-18-13-54-56.254370927,81,67
run-2020-2-18-13-54-56.254370927,82,69
run-2020-2-18-13-54-56.254370927,83,69
run-2020-2-18-13-54-56.254370927,84,67
run-2020-2-18-13-54-56.254370927,85,64
run-2020-2-18-13-54-56.254370927,86,69
run-2020-2-18-13-54-56.254370927,87,68
run-2020-2-18-13-54-56.254370927,88,67
run-2020-2-18-13-54-56.254370927,89,69
run-2020-2-18-13-54-56.254370927,90,74
run-2020-2-18-13-54-56.254370927,91,72
run-2020-2-18-13-54-56.254370927,92,73
run-2020-2-18-13-54-56.254370927,93,68
run-2020-2-18-13-54-56.254370927,94,63
run-2020-2-18-13-54-56.254370927,95,62
run-2020-2-18-13-54-56.254370927,96,59
run-2020-2-18-13-54-56.254370927,97,61
run-2020-2-18-13-54-56.254370927,98,60
run-2020-2-18-13-54-56.254370927,99,62
run-2020-2-18-13-54-56.254370927,100,59
