Source,Target
3f7f327a-5256-11ea-9d14-7fd666745f81,3f84d3f6-5256-11ea-835e-375eb782d773
3f83c100-5256-11ea-a1da-17ac16ff507e,3f84f4f8-5256-11ea-8cea-cb8e79582608
3f8247ee-5256-11ea-8e29-f3037811f246,3f851ed8-5256-11ea-bdf5-cffe255ea617
3f8247ee-5256-11ea-8e29-f3037811f246,3f853062-5256-11ea-8cb0-7fc5a9519cc1
3f800fba-5256-11ea-b10d-bf590864f2b8,3f8553e4-5256-11ea-8c2b-0bea96a073dc
3f802b44-5256-11ea-98da-7b135463c67c,3f856eb0-5256-11ea-a4fa-a386607cfa78
3f800fba-5256-11ea-b10d-bf590864f2b8,3f858c2e-5256-11ea-8338-e315cfa086e4
3f7fcf50-5256-11ea-8acf-b30e3a193a97,3f85a51a-5256-11ea-87ff-3bbfbf0ac444
3f80a556-5256-11ea-947c-bb4eca9584d3,3f85c518-5256-11ea-bd38-67e829f3477e
3f7fcf50-5256-11ea-8acf-b30e3a193a97,3f85e804-5256-11ea-aab1-53b0d37f2c72
3f853062-5256-11ea-8cb0-7fc5a9519cc1,3f860136-5256-11ea-be38-275876d78cb0
3f7e58d2-5256-11ea-a3a0-73a5eb6a7264,3f861c48-5256-11ea-8fc3-f3d7912ee5be
3f80fc04-5256-11ea-bfe1-af1e98d3d123,3f8637d2-5256-11ea-be2f-3f418bd24f0a
3f80cc02-5256-11ea-9391-2b31916b0710,3f8651f4-5256-11ea-92a4-e371e7d0e3c0
3f7f4c42-5256-11ea-8dc2-3f3b0a762848,3f866d10-5256-11ea-85bb-d34d6164b031
3f84456c-5256-11ea-95e4-075cbc193922,3f8686a6-5256-11ea-9d61-373df7e62a4e
3f7f67d6-5256-11ea-a22a-375b2d10a2f5,3f86a4c4-5256-11ea-9ac0-ebf8c8a1a85f
3f7e3820-5256-11ea-a5dd-c3bbc8db83d3,3f86c18e-5256-11ea-9b29-53350abad905
3f7edb2c-5256-11ea-aa91-ffde2c2097bc,3f86dd90-5256-11ea-9f4a-9b8fdf7e41ed
3f846010-5256-11ea-ac65-dbbeb6e3d028,3f86f7d0-5256-11ea-b263-479183dcdb38
3f800fba-5256-11ea-b10d-bf590864f2b8,3f8713aa-5256-11ea-9f97-c799f2bebc2a
3f847ce4-5256-11ea-9eca-37075c92b3ae,3f872cfa-5256-11ea-8ebb-abe58f018aed
3f7e11f6-5256-11ea-919d-db52c050e5c3,3f875f4a-5256-11ea-8c0e-2f549a84c8cf
3f8247ee-5256-11ea-8e29-f3037811f246,3f87829a-5256-11ea-b2bf-875539cd57f9
3f866d10-5256-11ea-85bb-d34d6164b031,3f879c76-5256-11ea-80da-9f37c2851f6f
3f85a51a-5256-11ea-87ff-3bbfbf0ac444,3f87b80a-5256-11ea-b14f-6b6812e895d3
3f800fba-5256-11ea-b10d-bf590864f2b8,3f87d740-5256-11ea-928b-37c7ab324698
3f82a6da-5256-11ea-b479-63eda88dcbd8,3f87f27a-5256-11ea-9583-53a0234e037f
3f80fc04-5256-11ea-bfe1-af1e98d3d123,3f880c4c-5256-11ea-ad90-b3ddd452fd73
3f87829a-5256-11ea-b2bf-875539cd57f9,3f882722-5256-11ea-ac76-479bb15fa85e
3f806b40-5256-11ea-a689-b7cf18ff5d54,3f8848ba-5256-11ea-ae1f-d3b6e7f95396
3f7ff2c8-5256-11ea-9f30-2ba830e193e5,3f886764-5256-11ea-a995-e381066b0c86
3f7e7ab0-5256-11ea-ac71-d7db370457ec,3f8882f8-5256-11ea-a1c1-1fed26b43f1b
3f832fd8-5256-11ea-b7c8-d7e6efb343f1,3f889c20-5256-11ea-bd3b-fb8ef2eaace4
3f834c52-5256-11ea-b6a2-8f4413654f07,3f88b624-5256-11ea-a324-cf73167bda0d
3f7edb2c-5256-11ea-aa91-ffde2c2097bc,3f88d1a4-5256-11ea-9e42-5b4f74746726
3f87b80a-5256-11ea-b14f-6b6812e895d3,3f88ec52-5256-11ea-b224-93e262799e68
3f8637d2-5256-11ea-be2f-3f418bd24f0a,3f890598-5256-11ea-ac33-e36ca8b22710
3f7fcf50-5256-11ea-8acf-b30e3a193a97,3f892122-5256-11ea-889e-1b50c34d66f8
3f879c76-5256-11ea-80da-9f37c2851f6f,3f893b26-5256-11ea-a16e-db7502a5ee13
3f7f156a-5256-11ea-bd7b-7f4f9b014edb,3f896150-5256-11ea-b00c-5f8428c4a885
3f802b44-5256-11ea-98da-7b135463c67c,3f897b68-5256-11ea-a65c-33adf292a5f9
3f85a51a-5256-11ea-87ff-3bbfbf0ac444,3f899878-5256-11ea-b18e-0b9516522e8f
3f8421c2-5256-11ea-a7f9-2be1587f5262,3f89b678-5256-11ea-942f-a31db67c266a
3f8247ee-5256-11ea-8e29-f3037811f246,3f89d2de-5256-11ea-bc80-7759e0c55af9
3f889c20-5256-11ea-bd3b-fb8ef2eaace4,3f89ed78-5256-11ea-b6a8-336ccd2b1d11
3f892122-5256-11ea-889e-1b50c34d66f8,3f8a1410-5256-11ea-8196-7756f6a25a51
3f899878-5256-11ea-b18e-0b9516522e8f,3f8a2e3c-5256-11ea-b97e-c3b53b2c4e7c
3f886764-5256-11ea-a995-e381066b0c86,3f8a4c0a-5256-11ea-ac00-3b73b20b3ee6
3f808990-5256-11ea-b2d7-ffe1d09b9135,3f8a65f0-5256-11ea-8cac-f358c7956c5f
3f8848ba-5256-11ea-ae1f-d3b6e7f95396,3f8a7fcc-5256-11ea-8a4c-77aa17fadd98
3f82a6da-5256-11ea-b479-63eda88dcbd8,3f8a9c82-5256-11ea-9dd9-478df97d488e
3f806b40-5256-11ea-a689-b7cf18ff5d54,3f8ab60e-5256-11ea-89c3-1727f2d914b1
3f82160c-5256-11ea-b1bc-a70d6eb5ce49,3f8ad094-5256-11ea-ad4f-43f33bc945ca
3f832fd8-5256-11ea-b7c8-d7e6efb343f1,3f8aec3c-5256-11ea-be1a-17c44e792a82
3f8686a6-5256-11ea-9d61-373df7e62a4e,3f8b0848-5256-11ea-994f-3bd135541d63
3f88b624-5256-11ea-a324-cf73167bda0d,3f8b25d0-5256-11ea-9339-37f574650d05
3f7ef904-5256-11ea-9e9d-87e60e9d616d,3f8b41c8-5256-11ea-ad49-8f220629dfbf
3f836a3e-5256-11ea-b660-f740ac9466e9,3f8b5cc6-5256-11ea-94e4-cf0955bd2749
3f88d1a4-5256-11ea-9e42-5b4f74746726,3f8b78dc-5256-11ea-a722-63b951e663d5
3f7e58d2-5256-11ea-a3a0-73a5eb6a7264,3f8b972c-5256-11ea-bfa3-bfb961b6ea26
3f834c52-5256-11ea-b6a2-8f4413654f07,3f8bbd88-5256-11ea-82eb-0ff507e5d825
3f7fcf50-5256-11ea-8acf-b30e3a193a97,3f8bda16-5256-11ea-8d85-57318087de76
3f7e7ab0-5256-11ea-ac71-d7db370457ec,3f8bf6ae-5256-11ea-bb9a-93c6fdfdaa06
3f818db8-5256-11ea-9e33-874417270526,3f8c11a2-5256-11ea-b183-f3e16a4bfbdc
3f897b68-5256-11ea-a65c-33adf292a5f9,3f8c32fe-5256-11ea-a907-d3224e7c59d2
3f87b80a-5256-11ea-b14f-6b6812e895d3,3f8c57ca-5256-11ea-aed1-efac80e49b56
3f880c4c-5256-11ea-ad90-b3ddd452fd73,3f8c7412-5256-11ea-a6fc-37c9e55277b4
3f846010-5256-11ea-ac65-dbbeb6e3d028,3f8c982a-5256-11ea-beb4-bfcf839b3cb4
3f7e58d2-5256-11ea-a3a0-73a5eb6a7264,3f8cb54e-5256-11ea-aea1-2f4c47651f3d
3f88d1a4-5256-11ea-9e42-5b4f74746726,3f8cd0a6-5256-11ea-a1c1-6348c62dfdb3
3f7faca0-5256-11ea-8036-fb89cbbf7ab1,3f8cee60-5256-11ea-8f99-ffca64750835
3f84d3f6-5256-11ea-835e-375eb782d773,3f8d0a3a-5256-11ea-b81f-8736abb2dbae
3f872cfa-5256-11ea-8ebb-abe58f018aed,3f8d25ba-5256-11ea-933c-8bb545269982
3f886764-5256-11ea-a995-e381066b0c86,3f8d4162-5256-11ea-a748-9332b211f8cd
3f8d0a3a-5256-11ea-b81f-8736abb2dbae,3f8d6d9a-5256-11ea-ae1c-0f7ed1998dc8
3f80a556-5256-11ea-947c-bb4eca9584d3,3f8d7c86-5256-11ea-8ce8-9329600e25ea
3f8b5cc6-5256-11ea-94e4-cf0955bd2749,3f8da0bc-5256-11ea-ba6f-6b42456dba92
3f899878-5256-11ea-b18e-0b9516522e8f,3f8dbb06-5256-11ea-8a89-8f61446c8a3a
3f84d3f6-5256-11ea-835e-375eb782d773,3f8dd7b2-5256-11ea-8f7a-57eaa7c6ebb8
3f7ea288-5256-11ea-94e8-97ed29c4f74a,3f8df2a6-5256-11ea-b9fc-ab1c2ef7a28b
3f893b26-5256-11ea-a16e-db7502a5ee13,3f8e0ec6-5256-11ea-93a2-f33ba6e75df2
3f8ab60e-5256-11ea-89c3-1727f2d914b1,3f8e29e2-5256-11ea-986f-cf70a3085ca4
3f8160ae-5256-11ea-b9d4-afffbfb80a8c,3f8e4f12-5256-11ea-9719-afa4c8186948
3f8bf6ae-5256-11ea-bb9a-93c6fdfdaa06,3f8e6b5a-5256-11ea-b44d-8f28c039397b
3f8bf6ae-5256-11ea-bb9a-93c6fdfdaa06,3f8e85a4-5256-11ea-87d0-13c7ba543f7f
3f889c20-5256-11ea-bd3b-fb8ef2eaace4,3f8ea1e2-5256-11ea-bd71-5b4ecad41495
3f8713aa-5256-11ea-9f97-c799f2bebc2a,3f8ebcc2-5256-11ea-9b20-673f52858a83
3f8a1410-5256-11ea-8196-7756f6a25a51,3f8ee27e-5256-11ea-8ef4-1b1a466348ef
3f879c76-5256-11ea-80da-9f37c2851f6f,3f8efebc-5256-11ea-8e85-efd8eda57cca
3f83e20c-5256-11ea-a4d1-439cc3a0eee4,3f8f1a50-5256-11ea-81c4-bbc2e1e60377
3f83100c-5256-11ea-8948-3b029a1ecfcc,3f8f345e-5256-11ea-ab71-df8318034f10
3f800fba-5256-11ea-b10d-bf590864f2b8,3f8f518c-5256-11ea-b5e2-e35eec558ae8
3f8d7c86-5256-11ea-8ce8-9329600e25ea,3f8f70c2-5256-11ea-bb5e-b79580b76638
3f856eb0-5256-11ea-a4fa-a386607cfa78,3f8f8b0c-5256-11ea-9ddd-772793ba2c2e
3f879c76-5256-11ea-80da-9f37c2851f6f,3f8fa6e6-5256-11ea-8453-5325f200735c
3f8f1a50-5256-11ea-81c4-bbc2e1e60377,3f8fc626-5256-11ea-84c4-b78d83b902a3
3f7ef904-5256-11ea-9e9d-87e60e9d616d,3f8fe5a2-5256-11ea-91d8-d7e640f73bc4
