Source,Target
2f3088f2-5a1b-11ea-8786-af255703727e,2f326262-5a1b-11ea-a79b-3b4832d5abdc
2f30c5e2-5a1b-11ea-9d90-f3096668509a,2f32727a-5a1b-11ea-9f96-8704263d4c7e
2f3105d4-5a1b-11ea-9752-b7993f9f7bde,2f327fb8-5a1b-11ea-8529-1750af489e62
2f3088f2-5a1b-11ea-8786-af255703727e,2f32900c-5a1b-11ea-935f-fb873b3c8fab
2f301656-5a1b-11ea-9d68-0b0b93a1ba90,2f329eda-5a1b-11ea-bd04-6f2c4cf9b10d
2f317384-5a1b-11ea-bb88-7f4cdfada93a,2f32ade4-5a1b-11ea-8fd4-2f3d83f6e2db
2f2f91ae-5a1b-11ea-ae63-6b4f177c538d,2f32bcda-5a1b-11ea-9c95-6785424ba361
2f2f606c-5a1b-11ea-801b-cb5b9e39169a,2f32cc48-5a1b-11ea-a967-07373a92f805
2f321398-5a1b-11ea-b92d-67ca34098f48,2f32dce2-5a1b-11ea-adc4-cf4da5197ec9
2f329eda-5a1b-11ea-bd04-6f2c4cf9b10d,2f32ec14-5a1b-11ea-aaff-3395decce86b
2f2f606c-5a1b-11ea-801b-cb5b9e39169a,2f32fa7e-5a1b-11ea-adac-ffdeac9a6d9a
2f30f63e-5a1b-11ea-8157-2bdfe96d67b2,2f330ac8-5a1b-11ea-9e5a-d3306816865f
2f3223b0-5a1b-11ea-993f-9f904dc03381,2f331a54-5a1b-11ea-9597-070e9a0ca2a8
2f313446-5a1b-11ea-be05-d73df6ba3846,2f3329b8-5a1b-11ea-ab41-dfe22e7045bd
2f30e694-5a1b-11ea-b983-679f479df3bb,2f333aca-5a1b-11ea-a71a-eb22293b7279
2f32900c-5a1b-11ea-935f-fb873b3c8fab,2f33492a-5a1b-11ea-b429-4f74deee9990
2f31e044-5a1b-11ea-8163-4b5faece0d04,2f335b22-5a1b-11ea-bcc9-239ca5619f55
2f32001a-5a1b-11ea-aedd-df8cb1cd6e18,2f336ad6-5a1b-11ea-8e5a-6bf46b23d7e5
2f321398-5a1b-11ea-b92d-67ca34098f48,2f337986-5a1b-11ea-8c2e-232269dff59b
2f2f810a-5a1b-11ea-8994-bf8f998d527b,2f338ba6-5a1b-11ea-a35f-ffcaa2c9ec3e
2f327fb8-5a1b-11ea-8529-1750af489e62,2f339aa6-5a1b-11ea-9032-abc9eb54f744
2f31e044-5a1b-11ea-8163-4b5faece0d04,2f33a9ce-5a1b-11ea-9519-1bf70191bb56
2f323292-5a1b-11ea-9813-03324e0420e7,2f33b9b4-5a1b-11ea-a66b-b778fac9ab2b
2f32900c-5a1b-11ea-935f-fb873b3c8fab,2f33c7d8-5a1b-11ea-8e7c-a77e0bc04fb5
2f30c5e2-5a1b-11ea-9d90-f3096668509a,2f33d7d2-5a1b-11ea-80b7-33b405094057
2f3162f4-5a1b-11ea-920b-17e47916a628,2f33ea6a-5a1b-11ea-a6ec-7f977a3e5c19
2f33ea6a-5a1b-11ea-a6ec-7f977a3e5c19,2f33f67c-5a1b-11ea-9ec7-7ba4e88e96ff
2f337986-5a1b-11ea-8c2e-232269dff59b,2f340946-5a1b-11ea-8d13-67f4061f55d6
2f32ec14-5a1b-11ea-aaff-3395decce86b,2f34186e-5a1b-11ea-82a3-9be39da53959
2f31b22c-5a1b-11ea-9a8f-9f47d2bea6d6,2f3427b4-5a1b-11ea-bae1-97e42d73e0e0
2f30d65e-5a1b-11ea-807d-4bdf98e69057,2f34366e-5a1b-11ea-b13d-0ffe95bc96c0
2f3223b0-5a1b-11ea-993f-9f904dc03381,2f344582-5a1b-11ea-b3ca-639d4c19ec74
2f30360e-5a1b-11ea-b634-a7c81beed7f5,2f3454f0-5a1b-11ea-906a-77f8d92257fb
2f2f91ae-5a1b-11ea-ae63-6b4f177c538d,2f346454-5a1b-11ea-a94b-f727841ab79d
2f2f7048-5a1b-11ea-91ac-43a43c31d8b7,2f347322-5a1b-11ea-930e-b3ca7fd21f32
2f30e694-5a1b-11ea-b983-679f479df3bb,2f3482a4-5a1b-11ea-892d-4fb989322aaa
2f3482a4-5a1b-11ea-892d-4fb989322aaa,2f349230-5a1b-11ea-8da8-fb6e6c46c4d4
2f3142e2-5a1b-11ea-a7e1-b385c36ada28,2f34a04a-5a1b-11ea-aa96-136bbc590e6b
2f34a04a-5a1b-11ea-aa96-136bbc590e6b,2f34af86-5a1b-11ea-b52d-8f80d606a8c8
2f33a9ce-5a1b-11ea-9519-1bf70191bb56,2f34be86-5a1b-11ea-b7cb-c7561e1c1ed3
2f2fd0c4-5a1b-11ea-82f3-cb7cbb1cbccb,2f34cc78-5a1b-11ea-8467-2f99121639fa
2f33f67c-5a1b-11ea-9ec7-7ba4e88e96ff,2f34dca4-5a1b-11ea-805e-6baeb8aae517
2f32fa7e-5a1b-11ea-adac-ffdeac9a6d9a,2f34ea6e-5a1b-11ea-a2f7-f394695383c3
2f32727a-5a1b-11ea-9f96-8704263d4c7e,2f34fa18-5a1b-11ea-a049-c31b301eeefb
2f34fa18-5a1b-11ea-a049-c31b301eeefb,2f35090e-5a1b-11ea-ba19-4bbc4ac8fc2a
2f3185b8-5a1b-11ea-869f-cfbc6c836a79,2f351872-5a1b-11ea-9e18-63a995b89950
2f32dce2-5a1b-11ea-adc4-cf4da5197ec9,2f352650-5a1b-11ea-9fb2-17c34612a0fb
2f301656-5a1b-11ea-9d68-0b0b93a1ba90,2f353618-5a1b-11ea-a459-a33c424ca9e1
2f34cc78-5a1b-11ea-8467-2f99121639fa,2f354414-5a1b-11ea-9172-e3e82d695761
2f33492a-5a1b-11ea-b429-4f74deee9990,2f355850-5a1b-11ea-ba7c-575502957d54
2f2faff4-5a1b-11ea-8a80-07d1279b5940,2f356624-5a1b-11ea-8ac2-5bb7f5071a94
2f3223b0-5a1b-11ea-993f-9f904dc03381,2f357588-5a1b-11ea-b330-e351844163fe
2f3055da-5a1b-11ea-9b01-2ff7098b1c8d,2f358456-5a1b-11ea-abf7-5b20cb8a164a
2f346454-5a1b-11ea-a94b-f727841ab79d,2f359360-5a1b-11ea-9680-a76186bf283e
2f34cc78-5a1b-11ea-8467-2f99121639fa,2f35a616-5a1b-11ea-8e8f-eb96abe5c499
2f3454f0-5a1b-11ea-906a-77f8d92257fb,2f35b62e-5a1b-11ea-8746-7b405ee8b5a1
2f3162f4-5a1b-11ea-920b-17e47916a628,2f35c47a-5a1b-11ea-840b-d387c962e692
2f3242c8-5a1b-11ea-9a91-03edb54b60bb,2f35d46a-5a1b-11ea-b234-0be92f2a7582
2f3088f2-5a1b-11ea-8786-af255703727e,2f35e2e8-5a1b-11ea-a463-9ff26e106ac2
2f35b62e-5a1b-11ea-8746-7b405ee8b5a1,2f35f210-5a1b-11ea-835c-17d6f34b6519
2f31efc6-5a1b-11ea-ac9a-17b64655ad64,2f3603fe-5a1b-11ea-ae49-7f23e7ff044d
2f32fa7e-5a1b-11ea-adac-ffdeac9a6d9a,2f361236-5a1b-11ea-8028-6b233f173c14
2f34cc78-5a1b-11ea-8467-2f99121639fa,2f362136-5a1b-11ea-b9d3-c3b6d7a96c38
2f34186e-5a1b-11ea-82a3-9be39da53959,2f36300e-5a1b-11ea-9e2e-fba69eee7e3b
2f3162f4-5a1b-11ea-920b-17e47916a628,2f363fea-5a1b-11ea-8b8c-7756898d298e
2f36300e-5a1b-11ea-9e2e-fba69eee7e3b,2f364e40-5a1b-11ea-ad57-23e1ed05d348
2f2fd0c4-5a1b-11ea-82f3-cb7cbb1cbccb,2f365f8e-5a1b-11ea-b31c-6beecd4b7b56
2f351872-5a1b-11ea-9e18-63a995b89950,2f366d12-5a1b-11ea-9657-bb07568e7fde
2f362136-5a1b-11ea-b9d3-c3b6d7a96c38,2f367b86-5a1b-11ea-b438-ff780e35446e
2f34a04a-5a1b-11ea-aa96-136bbc590e6b,2f368b80-5a1b-11ea-b7ac-83557ee4c95f
2f3097f2-5a1b-11ea-886c-077159338437,2f369a8a-5a1b-11ea-8dcf-bf1f5e7c97ee
2f3603fe-5a1b-11ea-ae49-7f23e7ff044d,2f36aa66-5a1b-11ea-9975-334afe4be5fc
2f358456-5a1b-11ea-abf7-5b20cb8a164a,2f36ba6a-5a1b-11ea-837f-4f5978d7b144
2f331a54-5a1b-11ea-9597-070e9a0ca2a8,2f36c8b6-5a1b-11ea-9d63-7fe0287df2a8
2f363fea-5a1b-11ea-8b8c-7756898d298e,2f36d9a0-5a1b-11ea-80f8-47d6fdf7b6b7
2f32727a-5a1b-11ea-9f96-8704263d4c7e,2f36e774-5a1b-11ea-a762-ff429aa9d8b0
2f36300e-5a1b-11ea-9e2e-fba69eee7e3b,2f36f778-5a1b-11ea-92a9-1b4cf1599ac7
2f2f91ae-5a1b-11ea-ae63-6b4f177c538d,2f3705b0-5a1b-11ea-854f-63e2935bcbff
2f327fb8-5a1b-11ea-8529-1750af489e62,2f371488-5a1b-11ea-9ceb-3b41a5168020
2f32dce2-5a1b-11ea-adc4-cf4da5197ec9,2f372414-5a1b-11ea-8739-33c1fe1c4d42
2f36300e-5a1b-11ea-9e2e-fba69eee7e3b,2f373238-5a1b-11ea-8167-cf8c845bdb14
2f306840-5a1b-11ea-abf3-3737f3bdc067,2f374192-5a1b-11ea-b57f-7b6b1292985d
2f35a616-5a1b-11ea-8e8f-eb96abe5c499,2f374eee-5a1b-11ea-bb08-8f5761717178
2f3055da-5a1b-11ea-9b01-2ff7098b1c8d,2f375e66-5a1b-11ea-afe9-ebd0574562b2
2f311600-5a1b-11ea-9229-ebba05c69901,2f376de8-5a1b-11ea-894f-7f00b2eba4b4
2f3105d4-5a1b-11ea-9752-b7993f9f7bde,2f377c52-5a1b-11ea-8d6f-0f0528bdfb02
2f3088f2-5a1b-11ea-8786-af255703727e,2f378ab2-5a1b-11ea-8012-fb30e4bd5414
2f34366e-5a1b-11ea-b13d-0ffe95bc96c0,2f3799bc-5a1b-11ea-b292-87332a7c8829
2f3427b4-5a1b-11ea-bae1-97e42d73e0e0,2f37a97a-5a1b-11ea-b92e-53784cc558dd
2f35e2e8-5a1b-11ea-a463-9ff26e106ac2,2f37b7da-5a1b-11ea-af2e-63628ac6898d
2f313446-5a1b-11ea-be05-d73df6ba3846,2f37c676-5a1b-11ea-8402-cb482de69576
2f2fa176-5a1b-11ea-9da6-9bb124bfd0b4,2f37d670-5a1b-11ea-aab8-9f8bae047954
2f3162f4-5a1b-11ea-920b-17e47916a628,2f37e4e4-5a1b-11ea-b5fc-671a72903a32
2f31a26e-5a1b-11ea-8c1c-a7e248486f6b,2f37f448-5a1b-11ea-bf98-7331cab72a00
2f30360e-5a1b-11ea-b634-a7c81beed7f5,2f380366-5a1b-11ea-9852-1f6836876ee3
2f339aa6-5a1b-11ea-9032-abc9eb54f744,2f381248-5a1b-11ea-bc42-8b84e3b620de
2f3482a4-5a1b-11ea-892d-4fb989322aaa,2f382382-5a1b-11ea-a0b3-eb81476598fd
2f364e40-5a1b-11ea-ad57-23e1ed05d348,2f38335e-5a1b-11ea-b6e8-7be7be0d60ad
2f313446-5a1b-11ea-be05-d73df6ba3846,2f3849fc-5a1b-11ea-8015-3f2e79f5122f
2f2ff4a0-5a1b-11ea-ba5b-63670ede3ee0,2f387300-5a1b-11ea-8e8f-ff9c5ab2cfb0
2f2fe19a-5a1b-11ea-8dc8-2b5419375e68,2f388282-5a1b-11ea-ae6f-fbedc248283a
2f33f67c-5a1b-11ea-9ec7-7ba4e88e96ff,2f389204-5a1b-11ea-9ca6-c73de84115ae
2f37d670-5a1b-11ea-aab8-9f8bae047954,2f38a410-5a1b-11ea-9832-d3494c6ed087
2f34ea6e-5a1b-11ea-a2f7-f394695383c3,2f38b0f4-5a1b-11ea-9ca0-fb2f9612b249
2f312636-5a1b-11ea-8b82-9f8724ac44a2,2f38c03a-5a1b-11ea-8494-9ffe0820592e
2f37c676-5a1b-11ea-8402-cb482de69576,2f38d26e-5a1b-11ea-8d65-8f17ff91a40d
2f369a8a-5a1b-11ea-8dcf-bf1f5e7c97ee,2f38e0ce-5a1b-11ea-b5cb-033e4f4b938b
2f365f8e-5a1b-11ea-b31c-6beecd4b7b56,2f38ff32-5a1b-11ea-81c7-df0fac995393
2f31e044-5a1b-11ea-8163-4b5faece0d04,2f390d7e-5a1b-11ea-94b3-6f73b61a4baa
2f372414-5a1b-11ea-8739-33c1fe1c4d42,2f392048-5a1b-11ea-951d-a3a21be7de24
2f33a9ce-5a1b-11ea-9519-1bf70191bb56,2f39302e-5a1b-11ea-8801-57be00e01ba4
2f35e2e8-5a1b-11ea-a463-9ff26e106ac2,2f393d62-5a1b-11ea-ba24-7fdb03a97a4f
2f376de8-5a1b-11ea-894f-7f00b2eba4b4,2f394bd6-5a1b-11ea-8437-13d0f635de57
2f3242c8-5a1b-11ea-9a91-03edb54b60bb,2f395c70-5a1b-11ea-b679-4bd388237364
2f365f8e-5a1b-11ea-b31c-6beecd4b7b56,2f396ba2-5a1b-11ea-b509-53bbfa255c95
2f327fb8-5a1b-11ea-8529-1750af489e62,2f398fec-5a1b-11ea-8a4b-67dea48249c7
2f3454f0-5a1b-11ea-906a-77f8d92257fb,2f398ee8-5a1b-11ea-932a-47d6a56f21f4
2f361236-5a1b-11ea-8028-6b233f173c14,2f39ae32-5a1b-11ea-ab51-6ff2a957aa60
2f352650-5a1b-11ea-9fb2-17c34612a0fb,2f39a298-5a1b-11ea-93d4-cf658277759e
2f393d62-5a1b-11ea-ba24-7fdb03a97a4f,2f39c444-5a1b-11ea-acb1-570f16877747
2f317384-5a1b-11ea-bb88-7f4cdfada93a,2f39edac-5a1b-11ea-9d0e-0b050fe450c2
2f380366-5a1b-11ea-9852-1f6836876ee3,2f3a10ca-5a1b-11ea-af54-33c8f1c1e6b4
2f388282-5a1b-11ea-ae6f-fbedc248283a,2f3a231c-5a1b-11ea-bdec-3303ebd53c7d
2f375e66-5a1b-11ea-afe9-ebd0574562b2,2f3a364a-5a1b-11ea-9304-db36e02634b7
2f368b80-5a1b-11ea-b7ac-83557ee4c95f,2f3a49a0-5a1b-11ea-90c6-8787c99bdf6d
2f358456-5a1b-11ea-abf7-5b20cb8a164a,2f3a7038-5a1b-11ea-ad65-5f6be3822053
2f3a49a0-5a1b-11ea-90c6-8787c99bdf6d,2f3a819a-5a1b-11ea-9b0f-c7cb8bccef7f
2f3105d4-5a1b-11ea-9752-b7993f9f7bde,2f3a8ed8-5a1b-11ea-9844-3ba00f504b4a
2f39edac-5a1b-11ea-9d0e-0b050fe450c2,2f3aa4f4-5a1b-11ea-bccd-f322464bb528
2f38335e-5a1b-11ea-b6e8-7be7be0d60ad,2f3abe62-5a1b-11ea-a0da-33dcf8462c63
2f34af86-5a1b-11ea-b52d-8f80d606a8c8,2f3ad6d6-5a1b-11ea-8d19-0f77a7ee1527
2f372414-5a1b-11ea-8739-33c1fe1c4d42,2f3ae810-5a1b-11ea-8b0c-4f6ff286645c
2f32dce2-5a1b-11ea-adc4-cf4da5197ec9,2f3b03c2-5a1b-11ea-b4d4-27f73b3bbbc7
2f37a97a-5a1b-11ea-b92e-53784cc558dd,2f3b1ff6-5a1b-11ea-8449-5330a36d3533
2f3b03c2-5a1b-11ea-b4d4-27f73b3bbbc7,2f3b30f4-5a1b-11ea-b5ee-2f68bb1e021d
2f331a54-5a1b-11ea-9597-070e9a0ca2a8,2f3b48f0-5a1b-11ea-b5a2-8b96a9e6a3fc
2f38e0ce-5a1b-11ea-b5cb-033e4f4b938b,2f3b5bb0-5a1b-11ea-8f1b-83be270ac78b
2f3142e2-5a1b-11ea-a7e1-b385c36ada28,2f3b7b18-5a1b-11ea-ab66-c37962076711
2f323292-5a1b-11ea-9813-03324e0420e7,2f3bab38-5a1b-11ea-9298-5f93c5c60a3e
2f337986-5a1b-11ea-8c2e-232269dff59b,2f3b9c88-5a1b-11ea-959d-dbf61c8494d2
2f377c52-5a1b-11ea-8d6f-0f0528bdfb02,2f3bcc3a-5a1b-11ea-853b-475db4aa5acb
2f369a8a-5a1b-11ea-8dcf-bf1f5e7c97ee,2f3bdc98-5a1b-11ea-ac6b-0342c834e87d
2f32525e-5a1b-11ea-9d63-e7c3aa502383,2f3bebe8-5a1b-11ea-adf6-8303e2958724
2f32525e-5a1b-11ea-9d63-e7c3aa502383,2f3bfe58-5a1b-11ea-8f89-13e7c566cd6a
2f393d62-5a1b-11ea-ba24-7fdb03a97a4f,2f3c2126-5a1b-11ea-9add-57835d948e21
2f394bd6-5a1b-11ea-8437-13d0f635de57,2f3c50f6-5a1b-11ea-8e48-5fd0ce39a102
2f38c03a-5a1b-11ea-8494-9ffe0820592e,2f3c614a-5a1b-11ea-abca-2b55f436d951
2f34366e-5a1b-11ea-b13d-0ffe95bc96c0,2f3c71a8-5a1b-11ea-83e3-13b7a21b0aa5
2f37c676-5a1b-11ea-8402-cb482de69576,2f3c8594-5a1b-11ea-84a6-db2c95e953b7
2f3242c8-5a1b-11ea-9a91-03edb54b60bb,2f3c95de-5a1b-11ea-854f-fb0e4053eb3c
2f358456-5a1b-11ea-abf7-5b20cb8a164a,2f3cb73a-5a1b-11ea-89d4-1388ca1c3cc7
2f362136-5a1b-11ea-b9d3-c3b6d7a96c38,2f3cc496-5a1b-11ea-8a3c-0fc359e28c27
2f3799bc-5a1b-11ea-b292-87332a7c8829,2f3cd544-5a1b-11ea-a58a-7f450e51c1c9
2f2f91ae-5a1b-11ea-ae63-6b4f177c538d,2f3ce642-5a1b-11ea-b875-c30039453259
2f3c614a-5a1b-11ea-abca-2b55f436d951,2f3cf7c2-5a1b-11ea-98f2-d3ed20a1ea88
2f319346-5a1b-11ea-9770-b32d9a616ad4,2f3d2efe-5a1b-11ea-9767-8f96c395d15b
2f371488-5a1b-11ea-9ceb-3b41a5168020,2f3d407e-5a1b-11ea-88d7-13618c14ab98
2f373238-5a1b-11ea-8167-cf8c845bdb14,2f3d5604-5a1b-11ea-b344-7f4457dca6c9
2f32ec14-5a1b-11ea-aaff-3395decce86b,2f3d8e4e-5a1b-11ea-b9cb-d7cd99473444
2f3162f4-5a1b-11ea-920b-17e47916a628,2f3da050-5a1b-11ea-906a-63ee49184138
2f396ba2-5a1b-11ea-b509-53bbfa255c95,2f3db1f8-5a1b-11ea-800e-732cfa45dc7b
2f388282-5a1b-11ea-ae6f-fbedc248283a,2f3dc13e-5a1b-11ea-8761-0723783833d9
2f3799bc-5a1b-11ea-b292-87332a7c8829,2f3ddf7a-5a1b-11ea-8dba-735dff777133
2f36300e-5a1b-11ea-9e2e-fba69eee7e3b,2f3dfc6c-5a1b-11ea-b903-3356d2d396cc
2f32525e-5a1b-11ea-9d63-e7c3aa502383,2f3e2890-5a1b-11ea-9c70-dfe5d4e03f05
2f339aa6-5a1b-11ea-9032-abc9eb54f744,2f3e3902-5a1b-11ea-a46a-1b58bb82c635
2f38a410-5a1b-11ea-9832-d3494c6ed087,2f3e4a96-5a1b-11ea-983b-73d74599d3d9
2f3cb73a-5a1b-11ea-89d4-1388ca1c3cc7,2f3e6116-5a1b-11ea-a861-bb54b8455afc
2f3077f4-5a1b-11ea-b39f-c7aeba49e5bd,2f3e892a-5a1b-11ea-9fa1-874333d65d41
2f336ad6-5a1b-11ea-8e5a-6bf46b23d7e5,2f3eabc6-5a1b-11ea-90af-7f5607c6c32f
2f35d46a-5a1b-11ea-b234-0be92f2a7582,2f3ebb98-5a1b-11ea-8f70-77e002a7afa3
2f3eabc6-5a1b-11ea-90af-7f5607c6c32f,2f3ecd54-5a1b-11ea-9c58-17b49e9a840e
2f301656-5a1b-11ea-9d68-0b0b93a1ba90,2f3f058a-5a1b-11ea-b1da-efa6376a6a94
2f3ae810-5a1b-11ea-8b0c-4f6ff286645c,2f3f1c1e-5a1b-11ea-960e-fffbc6382dfd
2f38d26e-5a1b-11ea-8d65-8f17ff91a40d,2f3f2f7e-5a1b-11ea-9514-5ffd03673a11
2f3a7038-5a1b-11ea-ad65-5f6be3822053,2f3f40e0-5a1b-11ea-8f7b-9bf347a7eee2
2f390d7e-5a1b-11ea-94b3-6f73b61a4baa,2f3f56b6-5a1b-11ea-82cc-5f9e932d6fd6
2f35090e-5a1b-11ea-ba19-4bbc4ac8fc2a,2f3f76b4-5a1b-11ea-8c2d-dbba5609223e
2f32900c-5a1b-11ea-935f-fb873b3c8fab,2f3f85b4-5a1b-11ea-9899-634bcdc577f5
2f31efc6-5a1b-11ea-ac9a-17b64655ad64,2f3f989c-5a1b-11ea-bd1e-271394f76ead
2f38d26e-5a1b-11ea-8d65-8f17ff91a40d,2f3fa936-5a1b-11ea-86af-6b910b16bc99
2f3a819a-5a1b-11ea-9b0f-c7cb8bccef7f,2f3fbe30-5a1b-11ea-89eb-a36fdabce379
2f2f91ae-5a1b-11ea-ae63-6b4f177c538d,2f400ff2-5a1b-11ea-b519-47aa395e2961
2f37b7da-5a1b-11ea-af2e-63628ac6898d,2f401ce0-5a1b-11ea-8fd0-f7738801690a
2f363fea-5a1b-11ea-8b8c-7756898d298e,2f402c8a-5a1b-11ea-92d4-435a3e68545d
2f402c8a-5a1b-11ea-92d4-435a3e68545d,2f4074ba-5a1b-11ea-9678-1b7c511195ba
2f3c71a8-5a1b-11ea-83e3-13b7a21b0aa5,2f4089d2-5a1b-11ea-92f2-2f63a071dd5d
2f38ff32-5a1b-11ea-81c7-df0fac995393,2f40ac3c-5a1b-11ea-ae28-b7c2dce09be3
2f3ebb98-5a1b-11ea-8f70-77e002a7afa3,2f40deaa-5a1b-11ea-b457-83eb73d5687a
2f359360-5a1b-11ea-9680-a76186bf283e,2f40eecc-5a1b-11ea-8f30-273c956f8edd
2f37a97a-5a1b-11ea-b92e-53784cc558dd,2f40fcfa-5a1b-11ea-8a55-4fe8f64b1140
2f371488-5a1b-11ea-9ceb-3b41a5168020,2f410c18-5a1b-11ea-974d-87f06e5eb17d
2f3a10ca-5a1b-11ea-af54-33c8f1c1e6b4,2f412c8e-5a1b-11ea-bfa9-432f193e4f08
2f3abe62-5a1b-11ea-a0da-33dcf8462c63,2f414dea-5a1b-11ea-9682-ff2601e14a54
2f37e4e4-5a1b-11ea-b5fc-671a72903a32,2f416172-5a1b-11ea-a1ea-c7d3a43d2d99
2f35c47a-5a1b-11ea-840b-d387c962e692,2f4196f6-5a1b-11ea-9933-670a4d920e99
2f3f56b6-5a1b-11ea-82cc-5f9e932d6fd6,2f417f5e-5a1b-11ea-bbfe-67c5df3ab708
2f3f058a-5a1b-11ea-b1da-efa6376a6a94,2f41a7f4-5a1b-11ea-b8c4-cb3c19e267f2
2f365f8e-5a1b-11ea-b31c-6beecd4b7b56,2f41b974-5a1b-11ea-91aa-ab9a53f2b92e
2f3fa936-5a1b-11ea-86af-6b910b16bc99,2f41c7de-5a1b-11ea-b12f-6ff14577eb83
2f3dc13e-5a1b-11ea-8761-0723783833d9,2f41d9a4-5a1b-11ea-9736-0f0d5e07a893
2f34dca4-5a1b-11ea-805e-6baeb8aae517,2f41ea3e-5a1b-11ea-998c-db45d6fd3286
2f336ad6-5a1b-11ea-8e5a-6bf46b23d7e5,2f41fa92-5a1b-11ea-8f6e-17769cd040df
2f30f63e-5a1b-11ea-8157-2bdfe96d67b2,2f420a82-5a1b-11ea-9487-0b5e15a5af2f
2f3fa936-5a1b-11ea-86af-6b910b16bc99,2f421a72-5a1b-11ea-a064-dbd025246092
2f3b1ff6-5a1b-11ea-8449-5330a36d3533,2f422fa8-5a1b-11ea-aef5-4be23d61776a
2f3185b8-5a1b-11ea-869f-cfbc6c836a79,2f423f70-5a1b-11ea-8e3b-77aeedd10aa6
2f388282-5a1b-11ea-ae6f-fbedc248283a,2f426478-5a1b-11ea-b8e4-a79158421c66
2f338ba6-5a1b-11ea-a35f-ffcaa2c9ec3e,2f42797c-5a1b-11ea-8d52-97d7120fbced
2f33f67c-5a1b-11ea-9ec7-7ba4e88e96ff,2f429d80-5a1b-11ea-8b52-ebd1fb38a173
2f422fa8-5a1b-11ea-aef5-4be23d61776a,2f428e76-5a1b-11ea-a8db-6f8f7295bf8b
2f32900c-5a1b-11ea-935f-fb873b3c8fab,2f42bedc-5a1b-11ea-92ea-bbbe748464a2
2f30071a-5a1b-11ea-8cd9-cf4f3e7017c8,2f42e254-5a1b-11ea-a0aa-dfc4163a5a8b
2f4196f6-5a1b-11ea-9933-670a4d920e99,2f42fb04-5a1b-11ea-8254-1ba9ff21acad
2f34186e-5a1b-11ea-82a3-9be39da53959,2f431f8a-5a1b-11ea-a5c1-a7239d08d307
2f3f2f7e-5a1b-11ea-9514-5ffd03673a11,2f433e3e-5a1b-11ea-88d2-4f05028c56b5
2f3da050-5a1b-11ea-906a-63ee49184138,2f434dfc-5a1b-11ea-b205-1fcaa7b22c40
2f38ff32-5a1b-11ea-81c7-df0fac995393,2f436148-5a1b-11ea-9486-b73b4965fbca
2f3bdc98-5a1b-11ea-ac6b-0342c834e87d,2f439a28-5a1b-11ea-a5e2-f73d0396017f
2f40deaa-5a1b-11ea-b457-83eb73d5687a,2f43b58a-5a1b-11ea-9a08-d3f786166381
2f3bdc98-5a1b-11ea-ac6b-0342c834e87d,2f43c926-5a1b-11ea-8626-7bb86fc521f2
2f39a298-5a1b-11ea-93d4-cf658277759e,2f43d8f8-5a1b-11ea-a3d5-2f6ae82bef54
2f3097f2-5a1b-11ea-886c-077159338437,2f43f996-5a1b-11ea-919e-0b2eeb7658a9
2f3cb73a-5a1b-11ea-89d4-1388ca1c3cc7,2f440e36-5a1b-11ea-9613-4b768b3b6317
2f31a26e-5a1b-11ea-8c1c-a7e248486f6b,2f441d90-5a1b-11ea-ac04-1791798f6121
2f423f70-5a1b-11ea-8e3b-77aeedd10aa6,2f442fba-5a1b-11ea-a6d7-eba859e78111
2f377c52-5a1b-11ea-8d6f-0f0528bdfb02,2f444234-5a1b-11ea-b37a-6fe0513736f0
2f41ea3e-5a1b-11ea-998c-db45d6fd3286,2f445bca-5a1b-11ea-adf0-5bd54399f192
2f442fba-5a1b-11ea-a6d7-eba859e78111,2f446d04-5a1b-11ea-baca-87d4b813da9d
2f339aa6-5a1b-11ea-9032-abc9eb54f744,2f447e8e-5a1b-11ea-8190-a330b94e1dbd
2f30071a-5a1b-11ea-8cd9-cf4f3e7017c8,2f449e8c-5a1b-11ea-a69a-c7445072b18a
2f3c95de-5a1b-11ea-854f-fb0e4053eb3c,2f44af30-5a1b-11ea-b9b0-675b9a0de3a7
2f421a72-5a1b-11ea-a064-dbd025246092,2f44be58-5a1b-11ea-8b25-4753f26fc8b4
2f392048-5a1b-11ea-951d-a3a21be7de24,2f44d744-5a1b-11ea-a52b-1740358813aa
2f32dce2-5a1b-11ea-adc4-cf4da5197ec9,2f44fe54-5a1b-11ea-a1fb-17412469cd86
2f31e044-5a1b-11ea-8163-4b5faece0d04,2f451d58-5a1b-11ea-b665-6bcf80161acd
2f3f1c1e-5a1b-11ea-960e-fffbc6382dfd,2f452eba-5a1b-11ea-9a8e-3b15e39bbcad
2f354414-5a1b-11ea-9172-e3e82d695761,2f453e78-5a1b-11ea-826e-d70da8ea7518
2f323292-5a1b-11ea-9813-03324e0420e7,2f455d22-5a1b-11ea-83d7-43036339874c
2f3f2f7e-5a1b-11ea-9514-5ffd03673a11,2f4572a8-5a1b-11ea-b9c1-77676fb4d85b
2f440e36-5a1b-11ea-9613-4b768b3b6317,2f45927e-5a1b-11ea-a160-4b681921b226
2f3f56b6-5a1b-11ea-82cc-5f9e932d6fd6,2f45a2dc-5a1b-11ea-b4de-7f26de9c4ede
2f39302e-5a1b-11ea-8801-57be00e01ba4,2f45b416-5a1b-11ea-9ea0-ffe2e434b349
2f38d26e-5a1b-11ea-8d65-8f17ff91a40d,2f45c258-5a1b-11ea-8cb8-5f77149214c6
2f3c50f6-5a1b-11ea-8e48-5fd0ce39a102,2f45d2ca-5a1b-11ea-96fc-aba472ff152e
2f395c70-5a1b-11ea-b679-4bd388237364,2f45ed78-5a1b-11ea-9631-8fecf809a484
2f351872-5a1b-11ea-9e18-63a995b89950,2f46059c-5a1b-11ea-8e3c-c3becf8e0f60
2f45a2dc-5a1b-11ea-b4de-7f26de9c4ede,2f461f50-5a1b-11ea-8274-074789c42672
2f410c18-5a1b-11ea-974d-87f06e5eb17d,2f4643a4-5a1b-11ea-93f6-f3e1f2b14b50
2f3105d4-5a1b-11ea-9752-b7993f9f7bde,2f464c8c-5a1b-11ea-b459-fbce9c069ca0
2f431f8a-5a1b-11ea-a5c1-a7239d08d307,2f466a5a-5a1b-11ea-819f-4fe28290879b
2f436148-5a1b-11ea-9486-b73b4965fbca,2f467c66-5a1b-11ea-b4df-3f8a5cc13201
2f3f85b4-5a1b-11ea-9899-634bcdc577f5,2f468b70-5a1b-11ea-8b9e-9f70daa24bd3
2f45c258-5a1b-11ea-8cb8-5f77149214c6,2f469e6c-5a1b-11ea-8233-bfe37f73bc31
2f42fb04-5a1b-11ea-8254-1ba9ff21acad,2f46ab50-5a1b-11ea-8f22-3b6e00d64361
2f331a54-5a1b-11ea-9597-070e9a0ca2a8,2f46bc76-5a1b-11ea-93b8-2be8974fc9ad
2f35f210-5a1b-11ea-835c-17d6f34b6519,2f46cacc-5a1b-11ea-9c76-3345c681a5f7
2f317384-5a1b-11ea-bb88-7f4cdfada93a,2f46ea16-5a1b-11ea-9f20-3795eac0035b
2f373238-5a1b-11ea-8167-cf8c845bdb14,2f46f628-5a1b-11ea-9864-83bc73966154
2f361236-5a1b-11ea-8028-6b233f173c14,2f470852-5a1b-11ea-a593-1b6eb7a69544
2f3c614a-5a1b-11ea-abca-2b55f436d951,2f4718b0-5a1b-11ea-b0bd-a7f7c0b476c7
2f40deaa-5a1b-11ea-b457-83eb73d5687a,2f47297c-5a1b-11ea-9864-83140645bcd8
2f38d26e-5a1b-11ea-8d65-8f17ff91a40d,2f474542-5a1b-11ea-8330-ab6c401c5cf2
2f402c8a-5a1b-11ea-92d4-435a3e68545d,2f4755e6-5a1b-11ea-9e90-3bead78dfff5
2f2fc0ac-5a1b-11ea-b0dd-d3b013e697e2,2f4778a0-5a1b-11ea-8711-b74f3261dad8
2f329eda-5a1b-11ea-bd04-6f2c4cf9b10d,2f478a20-5a1b-11ea-9b6c-83a5a7adb87a
2f3f989c-5a1b-11ea-bd1e-271394f76ead,2f479aec-5a1b-11ea-ab2b-fb299bd0b15f
2f32bcda-5a1b-11ea-9c95-6785424ba361,2f47acf8-5a1b-11ea-adaa-8b628be00b7e
2f3d2efe-5a1b-11ea-9767-8f96c395d15b,2f47bbf8-5a1b-11ea-ab70-17f25435feb0
2f46ea16-5a1b-11ea-9f20-3795eac0035b,2f47d6b0-5a1b-11ea-84ab-83b679fd353c
2f32cc48-5a1b-11ea-a967-07373a92f805,2f482822-5a1b-11ea-ad83-eb88ac76a32e
2f3603fe-5a1b-11ea-ae49-7f23e7ff044d,2f484cee-5a1b-11ea-9c07-13758dd5554f
2f41ea3e-5a1b-11ea-998c-db45d6fd3286,2f485c2a-5a1b-11ea-86d5-171aa354af85
2f479aec-5a1b-11ea-ab2b-fb299bd0b15f,2f486d82-5a1b-11ea-bc40-b3dfc14548db
2f47d6b0-5a1b-11ea-84ab-83b679fd353c,2f488c36-5a1b-11ea-9869-dba46ca0e20c
2f356624-5a1b-11ea-8ac2-5bb7f5071a94,2f48aa90-5a1b-11ea-a805-7fe695145065
2f464c8c-5a1b-11ea-b459-fbce9c069ca0,2f48bdbe-5a1b-11ea-93c2-5f7c3856c8f8
2f3f2f7e-5a1b-11ea-9514-5ffd03673a11,2f48cb4c-5a1b-11ea-aa81-1383c3eb5470
2f380366-5a1b-11ea-9852-1f6836876ee3,2f48de02-5a1b-11ea-8748-1f7322ea7074
2f36300e-5a1b-11ea-9e2e-fba69eee7e3b,2f48ec44-5a1b-11ea-baea-f76bd8863f85
2f35b62e-5a1b-11ea-8746-7b405ee8b5a1,2f490238-5a1b-11ea-91ad-578e7a78cd2e
2f431f8a-5a1b-11ea-a5c1-a7239d08d307,2f4910d4-5a1b-11ea-9dbc-37e6c2be2e2b
2f48cb4c-5a1b-11ea-aa81-1383c3eb5470,2f492182-5a1b-11ea-a83b-1f24f304071e
2f3f85b4-5a1b-11ea-9899-634bcdc577f5,2f493230-5a1b-11ea-b05b-cba99c2a3c35
2f395c70-5a1b-11ea-b679-4bd388237364,2f4942de-5a1b-11ea-ae58-8bf073e1527f
2f3da050-5a1b-11ea-906a-63ee49184138,2f4968c2-5a1b-11ea-a71a-9b7375b1ffbb
2f41d9a4-5a1b-11ea-9736-0f0d5e07a893,2f49864a-5a1b-11ea-8f81-efe0f8c9eb2e
2f3799bc-5a1b-11ea-b292-87332a7c8829,2f4992f2-5a1b-11ea-8a05-e33fa5eac00d
2f3ebb98-5a1b-11ea-8f70-77e002a7afa3,2f49a3fa-5a1b-11ea-9a34-472c6133f29b
2f44af30-5a1b-11ea-b9b0-675b9a0de3a7,2f49b520-5a1b-11ea-a62f-dfc75c20b1e2
2f4074ba-5a1b-11ea-9678-1b7c511195ba,2f49cb8c-5a1b-11ea-9635-93b5b34f78c2
2f2fe19a-5a1b-11ea-8dc8-2b5419375e68,2f49ef90-5a1b-11ea-828e-e738f4b2a431
2f3142e2-5a1b-11ea-a7e1-b385c36ada28,2f4a07e6-5a1b-11ea-ad66-b31094084581
2f41b974-5a1b-11ea-91aa-ab9a53f2b92e,2f4a1768-5a1b-11ea-832f-ab67adf2fede
2f3603fe-5a1b-11ea-ae49-7f23e7ff044d,2f4a285c-5a1b-11ea-a5e2-7f3c3bff30c1
2f3055da-5a1b-11ea-9b01-2ff7098b1c8d,2f4a3856-5a1b-11ea-a1bf-b3ade07fa7ab
2f3a10ca-5a1b-11ea-af54-33c8f1c1e6b4,2f4a48be-5a1b-11ea-8861-0f789240e1fb
2f3e6116-5a1b-11ea-a861-bb54b8455afc,2f4a580e-5a1b-11ea-98d7-cb85b2f12831
2f40eecc-5a1b-11ea-8f30-273c956f8edd,2f4a677c-5a1b-11ea-9d52-135083e1829b
2f3f058a-5a1b-11ea-b1da-efa6376a6a94,2f4a7de8-5a1b-11ea-a754-93b055b68ddf
2f40ac3c-5a1b-11ea-ae28-b7c2dce09be3,2f4a8dce-5a1b-11ea-b072-3bfda4a25d36
2f35a616-5a1b-11ea-8e8f-eb96abe5c499,2f4a9ec2-5a1b-11ea-b082-0be983611c07
2f2fa176-5a1b-11ea-9da6-9bb124bfd0b4,2f4aaf20-5a1b-11ea-a6ec-7f177c08ad95
2f2fd0c4-5a1b-11ea-82f3-cb7cbb1cbccb,2f4ac23a-5a1b-11ea-8f1d-c30474e836df
2f369a8a-5a1b-11ea-8dcf-bf1f5e7c97ee,2f4ae422-5a1b-11ea-bd13-37342bffd055
2f32ec14-5a1b-11ea-aaff-3395decce86b,2f4ad55e-5a1b-11ea-baed-9b28d1a8f042
2f338ba6-5a1b-11ea-a35f-ffcaa2c9ec3e,2f4af67e-5a1b-11ea-860b-f3f5670b9ad8
2f440e36-5a1b-11ea-9613-4b768b3b6317,2f4b1b54-5a1b-11ea-b1d6-a79c403b9a6a
2f4a7de8-5a1b-11ea-a754-93b055b68ddf,2f4b2f54-5a1b-11ea-a64c-0f6522127e1b
2f469e6c-5a1b-11ea-8233-bfe37f73bc31,2f4b400c-5a1b-11ea-8707-8b7f0c7d8c55
2f3cc496-5a1b-11ea-8a3c-0fc359e28c27,2f4b5150-5a1b-11ea-a774-27a8ecca5169
2f3ebb98-5a1b-11ea-8f70-77e002a7afa3,2f4b6082-5a1b-11ea-9243-171205366be9
2f3a49a0-5a1b-11ea-90c6-8787c99bdf6d,2f4b6ece-5a1b-11ea-a7fa-6731b7d38387
2f4b5150-5a1b-11ea-a774-27a8ecca5169,2f4b7f0e-5a1b-11ea-8a45-1fc6d3f7389e
2f402c8a-5a1b-11ea-92d4-435a3e68545d,2f4b9156-5a1b-11ea-b16a-937de7b70741
2f4196f6-5a1b-11ea-9933-670a4d920e99,2f4b9f16-5a1b-11ea-8934-1f598204402c
2f4992f2-5a1b-11ea-8a05-e33fa5eac00d,2f4bb06e-5a1b-11ea-a9af-e30ee9147e2c
2f356624-5a1b-11ea-8ac2-5bb7f5071a94,2f4bbf3c-5a1b-11ea-a4b0-a3f8dfa7900a
2f3b1ff6-5a1b-11ea-8449-5330a36d3533,2f4bdd6e-5a1b-11ea-813c-c72609008b46
2f42797c-5a1b-11ea-8d52-97d7120fbced,2f4bebce-5a1b-11ea-b415-efb557a1f4ce
2f467c66-5a1b-11ea-b4df-3f8a5cc13201,2f4bfbf0-5a1b-11ea-94f2-b39df7055d16
2f32bcda-5a1b-11ea-9c95-6785424ba361,2f4c09e2-5a1b-11ea-b583-dba24ce614a6
2f37d670-5a1b-11ea-aab8-9f8bae047954,2f4c1a54-5a1b-11ea-85a5-4f30e54c68bd
2f47bbf8-5a1b-11ea-ab70-17f25435feb0,2f4c2a8a-5a1b-11ea-8176-e3db316216b2
2f3db1f8-5a1b-11ea-800e-732cfa45dc7b,2f4c3ade-5a1b-11ea-b89b-d7d9b477a189
2f3088f2-5a1b-11ea-8786-af255703727e,2f4c4d80-5a1b-11ea-ad37-2b2f7a5d89ea
2f4b5150-5a1b-11ea-a774-27a8ecca5169,2f4c5bd6-5a1b-11ea-a2c8-6724359e9444
2f327fb8-5a1b-11ea-8529-1750af489e62,2f4c6ba8-5a1b-11ea-8f28-8f2411d3ce20
2f412c8e-5a1b-11ea-bfa9-432f193e4f08,2f4c7a4e-5a1b-11ea-b26e-a76fcd96aa21
2f420a82-5a1b-11ea-9487-0b5e15a5af2f,2f4c8a98-5a1b-11ea-9c92-1b709c2e7cb7
2f39302e-5a1b-11ea-8801-57be00e01ba4,2f4c9a10-5a1b-11ea-be4a-333358947513
2f37d670-5a1b-11ea-aab8-9f8bae047954,2f4ca8f2-5a1b-11ea-b224-572e576b246e
2f35b62e-5a1b-11ea-8746-7b405ee8b5a1,2f4cb8ec-5a1b-11ea-8476-1b0a38b6168b
2f4942de-5a1b-11ea-ae58-8bf073e1527f,2f4cca58-5a1b-11ea-97b9-0b8e125264a7
2f45a2dc-5a1b-11ea-b4de-7f26de9c4ede,2f4ce984-5a1b-11ea-9dcb-fbc34220db8e
2f387300-5a1b-11ea-8e8f-ff9c5ab2cfb0,2f4cf96a-5a1b-11ea-ab51-7f8886605b82
2f4755e6-5a1b-11ea-9e90-3bead78dfff5,2f4d0a5e-5a1b-11ea-8fcc-b784521a7219
2f337986-5a1b-11ea-8c2e-232269dff59b,2f4d2174-5a1b-11ea-91ec-5ba47d02dc1e
2f3a231c-5a1b-11ea-bdec-3303ebd53c7d,2f4d3eca-5a1b-11ea-9a36-ff1e4303748b
2f3cf7c2-5a1b-11ea-98f2-d3ed20a1ea88,2f4d7354-5a1b-11ea-9600-3395ab041382
2f32ec14-5a1b-11ea-aaff-3395decce86b,2f4d87e0-5a1b-11ea-9c9c-c365c99990d0
2f3b03c2-5a1b-11ea-b4d4-27f73b3bbbc7,2f4daa90-5a1b-11ea-8a31-c7e4e636822c
2f3ae810-5a1b-11ea-8b0c-4f6ff286645c,2f4dd038-5a1b-11ea-a29d-e379c8b5157c
2f40eecc-5a1b-11ea-8f30-273c956f8edd,2f4ddec0-5a1b-11ea-b143-c3ed227c2c98
2f331a54-5a1b-11ea-9597-070e9a0ca2a8,2f4dffd6-5a1b-11ea-afc9-c3f0ba82a9a9
2f368b80-5a1b-11ea-b7ac-83557ee4c95f,2f4e0e72-5a1b-11ea-b79a-db126c305b31
2f30b6c4-5a1b-11ea-825c-7b3bf531cd9f,2f4e1d18-5a1b-11ea-be4c-8f4403ea2928
2f442fba-5a1b-11ea-a6d7-eba859e78111,2f4e3046-5a1b-11ea-a627-9f9a41c1f7f4
2f361236-5a1b-11ea-8028-6b233f173c14,2f4e3f8c-5a1b-11ea-9207-db449f548eea
2f3097f2-5a1b-11ea-886c-077159338437,2f4e4efa-5a1b-11ea-9cba-43bac1196b85
2f394bd6-5a1b-11ea-8437-13d0f635de57,2f4e65a2-5a1b-11ea-a45c-77dfc41497ec
2f34366e-5a1b-11ea-b13d-0ffe95bc96c0,2f4e7f60-5a1b-11ea-be50-8befeccea047
2f38d26e-5a1b-11ea-8d65-8f17ff91a40d,2f4e96e4-5a1b-11ea-9c63-13c0f7be67c6
2f46f628-5a1b-11ea-9864-83bc73966154,2f4eaabc-5a1b-11ea-a5e7-7fb2916e47bb
2f44fe54-5a1b-11ea-a1fb-17412469cd86,2f4ebade-5a1b-11ea-bd21-cb6f7802c1c5
2f486d82-5a1b-11ea-bc40-b3dfc14548db,2f4ed50a-5a1b-11ea-8cc7-a7983342ceef
2f3cd544-5a1b-11ea-a58a-7f450e51c1c9,2f4ee644-5a1b-11ea-9c7f-b32b08d9c267
2f4778a0-5a1b-11ea-8711-b74f3261dad8,2f4efd00-5a1b-11ea-89d2-23f8334f8d84
2f393d62-5a1b-11ea-ba24-7fdb03a97a4f,2f4f1632-5a1b-11ea-9ab5-f7d3f7e1b0e5
2f44fe54-5a1b-11ea-a1fb-17412469cd86,2f4f3aea-5a1b-11ea-b311-e7eafceba627
2f31e044-5a1b-11ea-8163-4b5faece0d04,2f4f4cec-5a1b-11ea-850d-ef6467dc6c47
2f33492a-5a1b-11ea-b429-4f74deee9990,2f4f5bc4-5a1b-11ea-93c8-0b6d4485cca7
2f46bc76-5a1b-11ea-93b8-2be8974fc9ad,2f4f6ccc-5a1b-11ea-8aac-7785702e2f5e
2f3077f4-5a1b-11ea-b39f-c7aeba49e5bd,2f4f8b1c-5a1b-11ea-97e2-7b9ad8ed2214
2f453e78-5a1b-11ea-826e-d70da8ea7518,2f4f7bae-5a1b-11ea-bb97-0ba230a93425
2f414dea-5a1b-11ea-9682-ff2601e14a54,2f4f9f1c-5a1b-11ea-ae05-17559d234a4d
2f31efc6-5a1b-11ea-ac9a-17b64655ad64,2f4fb812-5a1b-11ea-b51b-1b982b911449
2f4b7f0e-5a1b-11ea-8a45-1fc6d3f7389e,2f4fd766-5a1b-11ea-9288-d372b00ae3ce
2f3b5bb0-5a1b-11ea-8f1b-83be270ac78b,2f4fe698-5a1b-11ea-bcda-b370b5eeb268
2f49a3fa-5a1b-11ea-9a34-472c6133f29b,2f4ff71e-5a1b-11ea-8fd1-532e10db3bf4
2f38e0ce-5a1b-11ea-b5cb-033e4f4b938b,2f50066e-5a1b-11ea-b7c4-fb7e18033966
2f45a2dc-5a1b-11ea-b4de-7f26de9c4ede,2f501532-5a1b-11ea-8a24-d31aa6d1ad96
2f45a2dc-5a1b-11ea-b4de-7f26de9c4ede,2f502324-5a1b-11ea-90d4-773ace8bf2d0
2f323292-5a1b-11ea-9813-03324e0420e7,2f503580-5a1b-11ea-b034-177f39e7a11b
2f3f1c1e-5a1b-11ea-960e-fffbc6382dfd,2f5044f8-5a1b-11ea-8188-d7fb312423e8
2f3152aa-5a1b-11ea-8ddf-d33a16158e3a,2f505a92-5a1b-11ea-b94a-bbc887f69ceb
2f354414-5a1b-11ea-9172-e3e82d695761,2f507dba-5a1b-11ea-b528-9bb7f61e637b
2f49b520-5a1b-11ea-a62f-dfc75c20b1e2,2f506a82-5a1b-11ea-8501-579a79f20798
2f366d12-5a1b-11ea-9657-bb07568e7fde,2f508db4-5a1b-11ea-a77e-db78c3fc122b
2f503580-5a1b-11ea-b034-177f39e7a11b,2f50b03c-5a1b-11ea-a97f-ff500a2a33fb
2f436148-5a1b-11ea-9486-b73b4965fbca,2f50c144-5a1b-11ea-90ec-db1fc7d08e10
2f35e2e8-5a1b-11ea-a463-9ff26e106ac2,2f50d4c2-5a1b-11ea-90e8-53200e45d541
2f338ba6-5a1b-11ea-a35f-ffcaa2c9ec3e,2f50e3cc-5a1b-11ea-b729-5b9617f3491e
2f503580-5a1b-11ea-b034-177f39e7a11b,2f50ffec-5a1b-11ea-9b76-6765cb2bba61
2f3055da-5a1b-11ea-9b01-2ff7098b1c8d,2f510ef6-5a1b-11ea-a8ae-179253535463
2f31c276-5a1b-11ea-8114-2fefa5043ab7,2f511cc0-5a1b-11ea-a404-e37dbdc40bf6
2f352650-5a1b-11ea-9fb2-17c34612a0fb,2f5130b6-5a1b-11ea-b7fd-0bc5f283bf89
2f3142e2-5a1b-11ea-a7e1-b385c36ada28,2f51418c-5a1b-11ea-b1cd-a3824402a7ef
2f47297c-5a1b-11ea-9864-83140645bcd8,2f5150aa-5a1b-11ea-b7ad-b7960e49c816
2f4ce984-5a1b-11ea-9dcb-fbc34220db8e,2f515f6e-5a1b-11ea-9e0f-ff0ccba492fc
2f4b1b54-5a1b-11ea-b1d6-a79c403b9a6a,2f516e82-5a1b-11ea-87e9-8b28ff7a6f4d
2f33c7d8-5a1b-11ea-8e7c-a77e0bc04fb5,2f517dd2-5a1b-11ea-b030-9b271cbe0fa2
2f4e3046-5a1b-11ea-a627-9f9a41c1f7f4,2f518bec-5a1b-11ea-853f-afd28e6e1e65
2f36ba6a-5a1b-11ea-837f-4f5978d7b144,2f519a24-5a1b-11ea-baf8-9b9a8dd1cc01
2f43d8f8-5a1b-11ea-a3d5-2f6ae82bef54,2f51a852-5a1b-11ea-b736-23633b523c9e
2f3d2efe-5a1b-11ea-9767-8f96c395d15b,2f51b64e-5a1b-11ea-bdfd-13d64a2e4090
2f38a410-5a1b-11ea-9832-d3494c6ed087,2f51c616-5a1b-11ea-850d-d3b490d93b2a
2f38335e-5a1b-11ea-b6e8-7be7be0d60ad,2f51d822-5a1b-11ea-b344-b3da897d58bf
2f4a07e6-5a1b-11ea-ad66-b31094084581,2f51e786-5a1b-11ea-ac14-77da48d618e2
2f4a285c-5a1b-11ea-a5e2-7f3c3bff30c1,2f51fcd0-5a1b-11ea-acd8-07fe4800232e
2f4ebade-5a1b-11ea-bd21-cb6f7802c1c5,2f521062-5a1b-11ea-b442-bfb06c39939c
2f4bfbf0-5a1b-11ea-94f2-b39df7055d16,2f521f30-5a1b-11ea-89b1-8b3ac7ff21e1
2f358456-5a1b-11ea-abf7-5b20cb8a164a,2f522fde-5a1b-11ea-a3a1-4bc0650af7f7
2f3bfe58-5a1b-11ea-8f89-13e7c566cd6a,2f52412c-5a1b-11ea-baf0-37e97a94c818
2f3242c8-5a1b-11ea-9a91-03edb54b60bb,2f52460e-5a1b-11ea-9fef-abd43ff3a389
2f4f8b1c-5a1b-11ea-97e2-7b9ad8ed2214,2f524ce4-5a1b-11ea-b42d-13404480d875
2f410c18-5a1b-11ea-974d-87f06e5eb17d,2f525d1a-5a1b-11ea-8108-eb4323e8ed44
2f387300-5a1b-11ea-8e8f-ff9c5ab2cfb0,2f526918-5a1b-11ea-9199-93490493ccca
2f45927e-5a1b-11ea-a160-4b681921b226,2f527066-5a1b-11ea-8fa6-7bd590a937e1
2f4a07e6-5a1b-11ea-ad66-b31094084581,2f5282f4-5a1b-11ea-968f-6fd2835b0233
2f317384-5a1b-11ea-bb88-7f4cdfada93a,2f52932a-5a1b-11ea-a4e2-0b1e35186c44
2f3bfe58-5a1b-11ea-8f89-13e7c566cd6a,2f529afa-5a1b-11ea-8686-6ffa36492e72
2f515f6e-5a1b-11ea-9e0f-ff0ccba492fc,2f52a6ee-5a1b-11ea-8d8f-57a71e0141cd
2f41a7f4-5a1b-11ea-b8c4-cb3c19e267f2,2f52ad56-5a1b-11ea-988a-5f841309207a
2f4074ba-5a1b-11ea-9678-1b7c511195ba,2f52bd3c-5a1b-11ea-82f0-43b707d5f7d5
2f3ebb98-5a1b-11ea-8f70-77e002a7afa3,2f52c6c4-5a1b-11ea-837c-1365ca90ae43
2f4b9156-5a1b-11ea-b16a-937de7b70741,2f52ccfa-5a1b-11ea-bf0e-bf757c954625
2f4ac23a-5a1b-11ea-8f1d-c30474e836df,2f52d9a2-5a1b-11ea-bcdc-e31fd880bf92
2f30e694-5a1b-11ea-b983-679f479df3bb,2f52e83e-5a1b-11ea-a0e4-a33d420bd5a7
2f3bdc98-5a1b-11ea-ac6b-0342c834e87d,2f52f1ee-5a1b-11ea-8608-efe90dad4136
2f40fcfa-5a1b-11ea-8a55-4fe8f64b1140,2f52feaa-5a1b-11ea-a7da-cb86c2d4c47e
2f369a8a-5a1b-11ea-8dcf-bf1f5e7c97ee,2f5304ae-5a1b-11ea-9f33-1733300cfe49
2f3b30f4-5a1b-11ea-b5ee-2f68bb1e021d,2f531dcc-5a1b-11ea-b1cd-97cc1085310b
2f30f63e-5a1b-11ea-8157-2bdfe96d67b2,2f5325f6-5a1b-11ea-a20d-137f31aad955
2f417f5e-5a1b-11ea-bbfe-67c5df3ab708,2f532e84-5a1b-11ea-b14c-5b91d969b165
2f33d7d2-5a1b-11ea-80b7-33b405094057,2f533514-5a1b-11ea-bee9-3752bd2af664
2f4fb812-5a1b-11ea-b51b-1b982b911449,2f5340ae-5a1b-11ea-924a-d3ab7023a5df
2f33f67c-5a1b-11ea-9ec7-7ba4e88e96ff,2f534c20-5a1b-11ea-a328-d3ab9f3fe939
2f4ddec0-5a1b-11ea-b143-c3ed227c2c98,2f53576a-5a1b-11ea-b014-8bdfd896923c
2f48cb4c-5a1b-11ea-aa81-1383c3eb5470,2f535d78-5a1b-11ea-bc70-d70950e567a5
2f40eecc-5a1b-11ea-8f30-273c956f8edd,2f538762-5a1b-11ea-9f35-83d3adc28c5a
2f38ff32-5a1b-11ea-81c7-df0fac995393,2f538e9c-5a1b-11ea-ac34-931d9dad94a5
2f493230-5a1b-11ea-b05b-cba99c2a3c35,2f539630-5a1b-11ea-b3d0-8b1aabf5389f
2f39ae32-5a1b-11ea-ab51-6ff2a957aa60,2f53a940-5a1b-11ea-8397-23a6a07f3022
2f452eba-5a1b-11ea-9a8e-3b15e39bbcad,2f53c0ce-5a1b-11ea-987d-63ec7579f73d
2f3b48f0-5a1b-11ea-b5a2-8b96a9e6a3fc,2f53dd48-5a1b-11ea-a884-ef845f0cff97
2f37f448-5a1b-11ea-bf98-7331cab72a00,2f53d6f4-5a1b-11ea-bbcf-ef85db504062
2f4ac23a-5a1b-11ea-8f1d-c30474e836df,2f53e522-5a1b-11ea-a7a5-eb76f91c0e30
2f33d7d2-5a1b-11ea-80b7-33b405094057,2f53ed42-5a1b-11ea-acaa-f72f230e340d
2f506a82-5a1b-11ea-8501-579a79f20798,2f53f350-5a1b-11ea-b816-53bd662ee53e
2f4755e6-5a1b-11ea-9e90-3bead78dfff5,2f53fa12-5a1b-11ea-ae14-a388d9792b3d
2f532e84-5a1b-11ea-b14c-5b91d969b165,2f54073c-5a1b-11ea-b3c8-0fbb339241dc
2f3ddf7a-5a1b-11ea-8dba-735dff777133,2f5448f0-5a1b-11ea-978a-97190ce4cd75
2f428e76-5a1b-11ea-a8db-6f8f7295bf8b,2f546b28-5a1b-11ea-91ba-ef88b3e0b76b
2f323292-5a1b-11ea-9813-03324e0420e7,2f545ce6-5a1b-11ea-9ca1-3bdeab14f71c
2f2f3d6c-5a1b-11ea-83af-f3588b0f9e06,2f547bd6-5a1b-11ea-8319-47de7e7ade95
2f4bbf3c-5a1b-11ea-a4b0-a3f8dfa7900a,2f548b62-5a1b-11ea-9d69-a3c169f03ce8
2f3a49a0-5a1b-11ea-90c6-8787c99bdf6d,2f549b2a-5a1b-11ea-94a8-2707891f1493
2f3cd544-5a1b-11ea-a58a-7f450e51c1c9,2f54a9f8-5a1b-11ea-bf21-1365b89dc69d
2f340946-5a1b-11ea-8d13-67f4061f55d6,2f54bc86-5a1b-11ea-9789-d75f998faf19
2f3b5bb0-5a1b-11ea-8f1b-83be270ac78b,2f54d6b2-5a1b-11ea-b77e-7f8a42b3e4b5
2f3b1ff6-5a1b-11ea-8449-5330a36d3533,2f54f0ca-5a1b-11ea-8e82-c75b17f0e8d7
2f452eba-5a1b-11ea-9a8e-3b15e39bbcad,2f550362-5a1b-11ea-89c6-8b383f5c0585
2f52ccfa-5a1b-11ea-bf0e-bf757c954625,2f55289c-5a1b-11ea-ae0b-834e63cb8b78
2f548b62-5a1b-11ea-9d69-a3c169f03ce8,2f553788-5a1b-11ea-ac77-dbdb1b30c06d
2f53a940-5a1b-11ea-8397-23a6a07f3022,2f554b9c-5a1b-11ea-b234-d79d9bc0454b
2f35b62e-5a1b-11ea-8746-7b405ee8b5a1,2f556046-5a1b-11ea-b31a-db5b3b54f7ee
2f42fb04-5a1b-11ea-8254-1ba9ff21acad,2f5590e8-5a1b-11ea-af87-9fab6740d76e
2f34be86-5a1b-11ea-b7cb-c7561e1c1ed3,2f559dea-5a1b-11ea-ac90-6fc147a92655
2f5130b6-5a1b-11ea-b7fd-0bc5f283bf89,2f55af38-5a1b-11ea-93c4-ab8d74374041
2f440e36-5a1b-11ea-9613-4b768b3b6317,2f55c1bc-5a1b-11ea-a29d-3343837c8f73
2f338ba6-5a1b-11ea-a35f-ffcaa2c9ec3e,2f55f86c-5a1b-11ea-a116-f7fd09a8867f
2f3dfc6c-5a1b-11ea-b903-3356d2d396cc,2f55e886-5a1b-11ea-96b7-07ae36a842bb
2f3a819a-5a1b-11ea-9b0f-c7cb8bccef7f,2f560690-5a1b-11ea-80df-6f172b2da5ce
2f4bfbf0-5a1b-11ea-94f2-b39df7055d16,2f560e4c-5a1b-11ea-852c-cbe76813fbbd
2f2f4dca-5a1b-11ea-b65a-d7d1fc05fdf2,2f561da6-5a1b-11ea-8bb0-dfb6b370fdd8
2f4ff71e-5a1b-11ea-8fd1-532e10db3bf4,2f564e2a-5a1b-11ea-bf06-1769d56af510
2f4a677c-5a1b-11ea-9d52-135083e1829b,2f567170-5a1b-11ea-b73e-f750af7c5ed2
2f38e0ce-5a1b-11ea-b5cb-033e4f4b938b,2f567d78-5a1b-11ea-aaec-6fc68a9faafa
2f349230-5a1b-11ea-8da8-fb6e6c46c4d4,2f56b95a-5a1b-11ea-9664-230e3e44a3eb
2f3f40e0-5a1b-11ea-8f7b-9bf347a7eee2,2f56b3e2-5a1b-11ea-8785-7302ab2caeff
2f4b7f0e-5a1b-11ea-8a45-1fc6d3f7389e,2f56ae1a-5a1b-11ea-8132-6bdb3ea9fa8c
2f51fcd0-5a1b-11ea-acd8-07fe4800232e,2f56df34-5a1b-11ea-8931-8b27b68e5d23
2f4942de-5a1b-11ea-ae58-8bf073e1527f,2f56d976-5a1b-11ea-89a7-e320b84ff8c9
2f564e2a-5a1b-11ea-bf06-1769d56af510,2f570eaa-5a1b-11ea-9868-4f8770b94649
2f417f5e-5a1b-11ea-bbfe-67c5df3ab708,2f572a20-5a1b-11ea-beda-339276a6d761
2f546b28-5a1b-11ea-91ba-ef88b3e0b76b,2f5751ee-5a1b-11ea-bd7c-371ee77a79a1
2f50c144-5a1b-11ea-90ec-db1fc7d08e10,2f57582e-5a1b-11ea-8040-b7081dbca114
2f461f50-5a1b-11ea-8274-074789c42672,2f576468-5a1b-11ea-babf-e318b08ab5f2
2f2fd0c4-5a1b-11ea-82f3-cb7cbb1cbccb,2f5777a0-5a1b-11ea-83d6-cf4338b700c5
2f3db1f8-5a1b-11ea-800e-732cfa45dc7b,2f57a3ce-5a1b-11ea-ab6d-d3219e42bbe8
2f420a82-5a1b-11ea-9487-0b5e15a5af2f,2f57ad42-5a1b-11ea-8950-338a6b1cc834
2f439a28-5a1b-11ea-a5e2-f73d0396017f,2f57be90-5a1b-11ea-aa6b-abe03ad7570c
2f313446-5a1b-11ea-be05-d73df6ba3846,2f57ecb2-5a1b-11ea-80c2-4b9531e80415
2f4a1768-5a1b-11ea-832f-ab67adf2fede,2f57f3ba-5a1b-11ea-bdf2-53d6ee7c6c9b
2f56b95a-5a1b-11ea-9664-230e3e44a3eb,2f57fa0e-5a1b-11ea-8dc1-ab759b051902
2f451d58-5a1b-11ea-b665-6bcf80161acd,2f580242-5a1b-11ea-822d-ef072956b83c
2f56b95a-5a1b-11ea-9664-230e3e44a3eb,2f580918-5a1b-11ea-bc86-2fdc6d2af68c
2f48ec44-5a1b-11ea-baea-f76bd8863f85,2f58153e-5a1b-11ea-ae5d-ab7e13158835
2f4572a8-5a1b-11ea-b9c1-77676fb4d85b,2f58380c-5a1b-11ea-bab6-c34e63c24d28
2f2fe19a-5a1b-11ea-8dc8-2b5419375e68,2f585f26-5a1b-11ea-8328-67eb68f091c8
2f3e892a-5a1b-11ea-9fa1-874333d65d41,2f584d2e-5a1b-11ea-bf01-23d0de265283
2f53e522-5a1b-11ea-a7a5-eb76f91c0e30,2f585a44-5a1b-11ea-b59f-636d4181b4b6
2f4e7f60-5a1b-11ea-be50-8befeccea047,2f5866ec-5a1b-11ea-bbed-ef5b65235619
2f46cacc-5a1b-11ea-9c76-3345c681a5f7,2f589a90-5a1b-11ea-b2d4-03bc92c64280
2f526918-5a1b-11ea-9199-93490493ccca,2f58a468-5a1b-11ea-a16f-83549066fe79
