RunID,Tick,ActiveAgentsPerTick
run-2020-2-18-11-35-31.319422006,0,14
run-2020-2-18-11-35-31.319422006,1,14
run-2020-2-18-11-35-31.319422006,2,15
run-2020-2-18-11-35-31.319422006,3,18
run-2020-2-18-11-35-31.319422006,4,22
run-2020-2-18-11-35-31.319422006,5,24
run-2020-2-18-11-35-31.319422006,6,25
run-2020-2-18-11-35-31.319422006,7,23
run-2020-2-18-11-35-31.319422006,8,24
run-2020-2-18-11-35-31.319422006,9,28
run-2020-2-18-11-35-31.319422006,10,27
run-2020-2-18-11-35-31.319422006,11,24
run-2020-2-18-11-35-31.319422006,12,27
run-2020-2-18-11-35-31.319422006,13,30
run-2020-2-18-11-35-31.319422006,14,30
run-2020-2-18-11-35-31.319422006,15,38
run-2020-2-18-11-35-31.319422006,16,42
run-2020-2-18-11-35-31.319422006,17,42
run-2020-2-18-11-35-31.319422006,18,39
run-2020-2-18-11-35-31.319422006,19,40
run-2020-2-18-11-35-31.319422006,20,40
run-2020-2-18-11-35-31.319422006,21,42
run-2020-2-18-11-35-31.319422006,22,45
run-2020-2-18-11-35-31.319422006,23,43
run-2020-2-18-11-35-31.319422006,24,39
run-2020-2-18-11-35-31.319422006,25,41
run-2020-2-18-11-35-31.319422006,26,46
run-2020-2-18-11-35-31.319422006,27,51
run-2020-2-18-11-35-31.319422006,28,52
run-2020-2-18-11-35-31.319422006,29,49
run-2020-2-18-11-35-31.319422006,30,47
run-2020-2-18-11-35-31.319422006,31,45
run-2020-2-18-11-35-31.319422006,32,44
run-2020-2-18-11-35-31.319422006,33,44
run-2020-2-18-11-35-31.319422006,34,42
run-2020-2-18-11-35-31.319422006,35,46
run-2020-2-18-11-35-31.319422006,36,47
run-2020-2-18-11-35-31.319422006,37,51
run-2020-2-18-11-35-31.319422006,38,54
run-2020-2-18-11-35-31.319422006,39,55
run-2020-2-18-11-35-31.319422006,40,58
run-2020-2-18-11-35-31.319422006,41,60
run-2020-2-18-11-35-31.319422006,42,63
run-2020-2-18-11-35-31.319422006,43,62
run-2020-2-18-11-35-31.319422006,44,61
run-2020-2-18-11-35-31.319422006,45,59
run-2020-2-18-11-35-31.319422006,46,64
run-2020-2-18-11-35-31.319422006,47,62
run-2020-2-18-11-35-31.319422006,48,63
run-2020-2-18-11-35-31.319422006,49,62
run-2020-2-18-11-35-31.319422006,50,64
run-2020-2-18-11-35-31.319422006,51,62
run-2020-2-18-11-35-31.319422006,52,63
run-2020-2-18-11-35-31.319422006,53,60
run-2020-2-18-11-35-31.319422006,54,62
run-2020-2-18-11-35-31.319422006,55,59
run-2020-2-18-11-35-31.319422006,56,58
run-2020-2-18-11-35-31.319422006,57,62
run-2020-2-18-11-35-31.319422006,58,65
run-2020-2-18-11-35-31.319422006,59,65
run-2020-2-18-11-35-31.319422006,60,66
run-2020-2-18-11-35-31.319422006,61,61
run-2020-2-18-11-35-31.319422006,62,63
run-2020-2-18-11-35-31.319422006,63,57
run-2020-2-18-11-35-31.319422006,64,59
run-2020-2-18-11-35-31.319422006,65,60
run-2020-2-18-11-35-31.319422006,66,57
run-2020-2-18-11-35-31.319422006,67,53
run-2020-2-18-11-35-31.319422006,68,50
run-2020-2-18-11-35-31.319422006,69,51
run-2020-2-18-11-35-31.319422006,70,54
run-2020-2-18-11-35-31.319422006,71,55
run-2020-2-18-11-35-31.319422006,72,53
run-2020-2-18-11-35-31.319422006,73,51
run-2020-2-18-11-35-31.319422006,74,50
run-2020-2-18-11-35-31.319422006,75,49
run-2020-2-18-11-35-31.319422006,76,45
run-2020-2-18-11-35-31.319422006,77,46
run-2020-2-18-11-35-31.319422006,78,51
run-2020-2-18-11-35-31.319422006,79,52
run-2020-2-18-11-35-31.319422006,80,52
run-2020-2-18-11-35-31.319422006,81,53
run-2020-2-18-11-35-31.319422006,82,49
run-2020-2-18-11-35-31.319422006,83,45
run-2020-2-18-11-35-31.319422006,84,46
run-2020-2-18-11-35-31.319422006,85,46
run-2020-2-18-11-35-31.319422006,86,48
run-2020-2-18-11-35-31.319422006,87,50
run-2020-2-18-11-35-31.319422006,88,53
run-2020-2-18-11-35-31.319422006,89,52
run-2020-2-18-11-35-31.319422006,90,52
run-2020-2-18-11-35-31.319422006,91,52
run-2020-2-18-11-35-31.319422006,92,51
run-2020-2-18-11-35-31.319422006,93,53
run-2020-2-18-11-35-31.319422006,94,54
run-2020-2-18-11-35-31.319422006,95,52
run-2020-2-18-11-35-31.319422006,96,50
run-2020-2-18-11-35-31.319422006,97,48
run-2020-2-18-11-35-31.319422006,98,49
run-2020-2-18-11-35-31.319422006,99,53
run-2020-2-18-11-35-31.319422006,100,50
