RunID,Agent,Age,Created,Inactive,Resources,Reputation,Ability,Que
run-2020-2-18-11-30-5.9194319239999995,AGENT#2ec4a320-5242-11ea-ae49-7bad79c1d51c,1,0,1,10,1.0,1.0,0
run-2020-2-18-11-30-5.9194319239999995,AGENT#2ec44ac4-5242-11ea-a60d-0f181b2238ee,2,0,2,10,1.0,1.0,0
run-2020-2-18-11-30-5.9194319239999995,AGENT#2ec4a7e4-5242-11ea-b4f2-2b4cd5b2beb5,2,0,2,10,1.0,1.0,0
run-2020-2-18-11-30-5.9194319239999995,AGENT#2eda6174-5242-11ea-8780-5fa238f68af8,1,1,2,10,1.0,1.0,0
run-2020-2-18-11-30-5.9194319239999995,AGENT#2ec45f3c-5242-11ea-86a3-63d92fb8f14a,3,0,3,10,1.0,1.0,0
run-2020-2-18-11-30-5.9194319239999995,AGENT#2ec457bc-5242-11ea-b150-03f292e386df,4,0,4,10,1.0,1.0,0
run-2020-2-18-11-30-5.9194319239999995,AGENT#2ec46342-5242-11ea-a741-4bc7fcbce490,4,0,4,10,1.0,1.0,0
run-2020-2-18-11-30-5.9194319239999995,AGENT#2efece60-5242-11ea-a008-8b643d0b2f68,1,3,4,10,1.0,1.0,0
run-2020-2-18-11-30-5.9194319239999995,AGENT#2eed2d04-5242-11ea-9bb6-b7d9f968ac5d,3,2,5,10,1.0,1.0,0
run-2020-2-18-11-30-5.9194319239999995,AGENT#2f1183e8-5242-11ea-9fe7-a74f90fcce70,1,4,5,10,1.0,1.0,0
run-2020-2-18-11-30-5.9194319239999995,AGENT#2f118186-5242-11ea-bb3f-a385bd8c4f76,2,4,6,10,1.0,1.0,0
run-2020-2-18-11-30-5.9194319239999995,AGENT#2f118618-5242-11ea-b480-1f28283cdbb8,2,4,6,10,1.0,1.0,0
run-2020-2-18-11-30-5.9194319239999995,AGENT#2f23105e-5242-11ea-8cc6-1b915181d948,1,5,6,10,1.0,1.0,0
run-2020-2-18-11-30-5.9194319239999995,AGENT#2eed320e-5242-11ea-979f-afb9a470d10c,5,2,7,10,1.0,1.0,0
run-2020-2-18-11-30-5.9194319239999995,AGENT#2f34d622-5242-11ea-8512-4b5542bf6b77,1,6,7,10,1.0,1.0,0
run-2020-2-18-11-30-5.9194319239999995,AGENT#2f34dbd6-5242-11ea-82f3-8ba36afb1148,1,6,7,10,1.0,1.0,0
run-2020-2-18-11-30-5.9194319239999995,AGENT#2efecbea-5242-11ea-ac09-2bdf970765f5,5,3,8,10,1.0,1.0,0
run-2020-2-18-11-30-5.9194319239999995,AGENT#2f46a8a2-5242-11ea-b4e0-c37ad9171ad5,1,7,8,10,1.0,1.0,0
run-2020-2-18-11-30-5.9194319239999995,AGENT#2f46b23e-5242-11ea-9569-3303ec4715cf,1,7,8,10,1.0,1.0,0
run-2020-2-18-11-30-5.9194319239999995,AGENT#2f34d33e-5242-11ea-b238-b32fc4b24c8e,3,6,9,10,1.0,1.0,0
run-2020-2-18-11-30-5.9194319239999995,AGENT#2f5752d8-5242-11ea-a8a1-0f84c47e87af,1,8,9,10,1.0,1.0,0
run-2020-2-18-11-30-5.9194319239999995,AGENT#2f46ad66-5242-11ea-aeaa-a70b202dbd76,3,7,10,10,1.0,1.0,0
run-2020-2-18-11-30-5.9194319239999995,AGENT#2f575512-5242-11ea-8b35-1b49e192fc4b,2,8,10,10,1.0,1.0,0
run-2020-2-18-11-30-5.9194319239999995,AGENT#2f68e3fe-5242-11ea-9ce3-9b5b625d63ed,1,9,10,10,1.0,1.0,0
run-2020-2-18-11-30-5.9194319239999995,AGENT#2f34de38-5242-11ea-a9f1-f77cfd4c4c3e,5,6,11,10,1.0,1.0,0
run-2020-2-18-11-30-5.9194319239999995,AGENT#2ec4a596-5242-11ea-b70c-83eab715cd36,12,0,12,10,1.0,1.0,0
run-2020-2-18-11-30-5.9194319239999995,AGENT#2f574e96-5242-11ea-8390-bfdc9719cbc0,4,8,12,10,1.0,1.0,0
run-2020-2-18-11-30-5.9194319239999995,AGENT#2f8b694c-5242-11ea-8d64-e73901464003,1,11,12,10,1.0,1.0,0
run-2020-2-18-11-30-5.9194319239999995,AGENT#2f5750bc-5242-11ea-ace1-a382fabb6138,5,8,13,10,1.0,1.0,0
run-2020-2-18-11-30-5.9194319239999995,AGENT#2f68ec14-5242-11ea-844d-57f5cffcc6c2,4,9,13,10,1.0,1.0,0
run-2020-2-18-11-30-5.9194319239999995,AGENT#2f8b6622-5242-11ea-b82c-635aff6ef7f2,2,11,13,10,1.0,1.0,0
run-2020-2-18-11-30-5.9194319239999995,AGENT#2f9c929e-5242-11ea-b186-23ccf5a6678b,1,12,13,10,1.0,1.0,0
run-2020-2-18-11-30-5.9194319239999995,AGENT#2f68e6ec-5242-11ea-b8d0-53882130d1c5,5,9,14,10,1.0,1.0,0
run-2020-2-18-11-30-5.9194319239999995,AGENT#2f68e96c-5242-11ea-b45c-976628dcfc43,5,9,14,10,1.0,1.0,0
run-2020-2-18-11-30-5.9194319239999995,AGENT#2f68ee8a-5242-11ea-a6ac-3b38bf66ba55,5,9,14,10,1.0,1.0,0
run-2020-2-18-11-30-5.9194319239999995,AGENT#2f7a1200-5242-11ea-b598-affb6d4eacb4,4,10,14,10,1.0,1.0,0
run-2020-2-18-11-30-5.9194319239999995,AGENT#2f8b62ee-5242-11ea-83a7-332277723274,3,11,14,10,1.0,1.0,0
run-2020-2-18-11-30-5.9194319239999995,AGENT#2f9c8326-5242-11ea-85e4-1fdeceb18489,2,12,14,10,1.0,1.0,0
run-2020-2-18-11-30-5.9194319239999995,AGENT#2f9c875e-5242-11ea-bd66-fb8fda23bf95,2,12,14,10,1.0,1.0,0
run-2020-2-18-11-30-5.9194319239999995,AGENT#2f9c8f10-5242-11ea-a4c4-73179e541a24,2,12,14,10,1.0,1.0,0
run-2020-2-18-11-30-5.9194319239999995,AGENT#2faf9b78-5242-11ea-922d-936fa80248d7,1,13,14,10,1.0,1.0,0
run-2020-2-18-11-30-5.9194319239999995,AGENT#2f9c8b3c-5242-11ea-a35b-affc28b9a0d6,3,12,15,10,1.0,1.0,0
run-2020-2-18-11-30-5.9194319239999995,AGENT#2fc3479a-5242-11ea-a1e5-3fcc9380b4d8,1,14,15,10,1.0,1.0,0
run-2020-2-18-11-30-5.9194319239999995,AGENT#2f574a04-5242-11ea-ba72-139669061409,8,8,16,10,1.0,1.0,0
run-2020-2-18-11-30-5.9194319239999995,AGENT#2fd52802-5242-11ea-a8ed-d311a53bc0b3,1,15,16,10,1.0,1.0,0
run-2020-2-18-11-30-5.9194319239999995,AGENT#2fc3429a-5242-11ea-92aa-27d4e66d3092,3,14,17,10,1.0,1.0,0
run-2020-2-18-11-30-5.9194319239999995,AGENT#2fc3452e-5242-11ea-a677-af1d59d4ec14,3,14,17,10,1.0,1.0,0
run-2020-2-18-11-30-5.9194319239999995,AGENT#2fc34c54-5242-11ea-9b50-bbdaf2cd88f0,3,14,17,10,1.0,1.0,0
run-2020-2-18-11-30-5.9194319239999995,AGENT#2fd52f6e-5242-11ea-97a9-2f2230e1c973,2,15,17,10,1.0,1.0,0
run-2020-2-18-11-30-5.9194319239999995,AGENT#2fafa0e6-5242-11ea-b4a5-2f19e5d128f5,5,13,18,10,1.0,1.0,0
run-2020-2-18-11-30-5.9194319239999995,AGENT#2fc34a10-5242-11ea-92ac-73a46c94573b,4,14,18,10,1.0,1.0,0
run-2020-2-18-11-30-5.9194319239999995,AGENT#2fd523ca-5242-11ea-9690-4f4d0d0ece1b,3,15,18,10,1.0,1.0,0
run-2020-2-18-11-30-5.9194319239999995,AGENT#2fd5368a-5242-11ea-aa72-ab97d4c2a060,3,15,18,10,1.0,1.0,0
run-2020-2-18-11-30-5.9194319239999995,AGENT#2fd53a0e-5242-11ea-b700-c3510a6de4bd,3,15,18,10,1.0,1.0,0
run-2020-2-18-11-30-5.9194319239999995,AGENT#2ff7f21a-5242-11ea-b292-f30c41f101f6,1,17,18,10,1.0,1.0,0
run-2020-2-18-11-30-5.9194319239999995,AGENT#2ff7f45e-5242-11ea-a11f-bfffb93ac6c7,1,17,18,10,1.0,1.0,0
run-2020-2-18-11-30-5.9194319239999995,AGENT#2fe73bbe-5242-11ea-904e-532cb31d6c80,3,16,19,10,1.0,1.0,0
run-2020-2-18-11-30-5.9194319239999995,AGENT#2fe7408c-5242-11ea-9ce2-fbdea4cd7a62,3,16,19,10,1.0,1.0,0
run-2020-2-18-11-30-5.9194319239999995,AGENT#2ff7faf8-5242-11ea-a5a1-df5915e87ee7,2,17,19,10,1.0,1.0,0
run-2020-2-18-11-30-5.9194319239999995,AGENT#2ff7efb8-5242-11ea-bafb-eb96b35e6c11,3,17,20,10,1.0,1.0,0
run-2020-2-18-11-30-5.9194319239999995,AGENT#2ff7f8dc-5242-11ea-9086-d3432203b1fa,3,17,20,10,1.0,1.0,0
run-2020-2-18-11-30-5.9194319239999995,AGENT#3009b1a8-5242-11ea-9b04-6b9611b4dcab,2,18,20,10,1.0,1.0,0
run-2020-2-18-11-30-5.9194319239999995,AGENT#301b0912-5242-11ea-8ae7-e3c0e9da478b,1,19,20,10,1.0,1.0,0
run-2020-2-18-11-30-5.9194319239999995,AGENT#301b0dfe-5242-11ea-9aa9-fb042b5f7701,1,19,20,10,1.0,1.0,0
run-2020-2-18-11-30-5.9194319239999995,AGENT#301b1056-5242-11ea-a0ee-ef67b1fccf70,1,19,20,10,1.0,1.0,0
run-2020-2-18-11-30-5.9194319239999995,AGENT#2eed2f84-5242-11ea-bbaa-abf44e914536,19,2,21,10,1.0,1.0,0
run-2020-2-18-11-30-5.9194319239999995,AGENT#2ff7f6b6-5242-11ea-8940-ab13f1df60af,4,17,21,10,1.0,1.0,0
run-2020-2-18-11-30-5.9194319239999995,AGENT#301b151a-5242-11ea-bf23-bb4624653318,2,19,21,10,1.0,1.0,0
run-2020-2-18-11-30-5.9194319239999995,AGENT#302ca708-5242-11ea-b860-6f5310842565,1,20,21,10,1.0,1.0,0
run-2020-2-18-11-30-5.9194319239999995,AGENT#301b12a4-5242-11ea-8c30-e33408d761ef,3,19,22,10,1.0,1.0,0
run-2020-2-18-11-30-5.9194319239999995,AGENT#302caa1e-5242-11ea-b89a-5f0441529b01,2,20,22,10,1.0,1.0,0
run-2020-2-18-11-30-5.9194319239999995,AGENT#302cad16-5242-11ea-a666-9f20b63d89a0,2,20,22,10,1.0,1.0,0
run-2020-2-18-11-30-5.9194319239999995,AGENT#302cb004-5242-11ea-9bd9-abdcd1a9f0c0,2,20,22,10,1.0,1.0,0
run-2020-2-18-11-30-5.9194319239999995,AGENT#303dcc22-5242-11ea-ae82-f7ea4b8e207b,1,21,22,10,1.0,1.0,0
run-2020-2-18-11-30-5.9194319239999995,AGENT#2f231540-5242-11ea-9f5a-1fec5f9270f2,18,5,23,10,1.0,1.0,0
run-2020-2-18-11-30-5.9194319239999995,AGENT#302ca0b4-5242-11ea-8cd0-d364adbd80e1,3,20,23,10,1.0,1.0,0
run-2020-2-18-11-30-5.9194319239999995,AGENT#304d7712-5242-11ea-ae37-6b58a99011e7,2,22,24,10,1.0,1.0,0
run-2020-2-18-11-30-5.9194319239999995,AGENT#305f0590-5242-11ea-a976-170c90a1456d,1,23,24,10,1.0,1.0,0
run-2020-2-18-11-30-5.9194319239999995,AGENT#2f7a0ea4-5242-11ea-b049-9bb1ebffed66,15,10,25,10,1.0,1.0,0
run-2020-2-18-11-30-5.9194319239999995,AGENT#303dc236-5242-11ea-90f8-7f55660d286a,4,21,25,10,1.0,1.0,0
run-2020-2-18-11-30-5.9194319239999995,AGENT#304d7a32-5242-11ea-908b-0fb45e17a897,3,22,25,10,1.0,1.0,0
run-2020-2-18-11-30-5.9194319239999995,AGENT#304d7c8a-5242-11ea-8858-637fc9b1d244,3,22,25,10,1.0,1.0,0
run-2020-2-18-11-30-5.9194319239999995,AGENT#304d7410-5242-11ea-b8c4-2be21829a73d,4,22,26,10,1.0,1.0,0
run-2020-2-18-11-30-5.9194319239999995,AGENT#307042ec-5242-11ea-aa8b-d3f745097018,2,24,26,10,1.0,1.0,0
run-2020-2-18-11-30-5.9194319239999995,AGENT#309421e4-5242-11ea-9e62-7f47ff9aacc0,1,26,27,10,1.0,1.0,0
run-2020-2-18-11-30-5.9194319239999995,AGENT#3081b84c-5242-11ea-907b-574a751c80a3,3,25,28,10,1.0,1.0,0
run-2020-2-18-11-30-5.9194319239999995,AGENT#2ec45014-5242-11ea-9fb0-a3b68289e086,29,0,29,10,1.0,1.0,0
run-2020-2-18-11-30-5.9194319239999995,AGENT#303dc8da-5242-11ea-9227-ffdf87015ade,8,21,29,10,1.0,1.0,0
run-2020-2-18-11-30-5.9194319239999995,AGENT#30941c8a-5242-11ea-af01-93bed68c5bf1,3,26,29,10,1.0,1.0,0
run-2020-2-18-11-30-5.9194319239999995,AGENT#30b73314-5242-11ea-a732-bbf7b38196ed,1,28,29,10,1.0,1.0,0
run-2020-2-18-11-30-5.9194319239999995,AGENT#30b735a8-5242-11ea-a4d1-cfd5bfeeda97,1,28,29,10,1.0,1.0,0
run-2020-2-18-11-30-5.9194319239999995,AGENT#30b73a3a-5242-11ea-8d3b-cb8e8f72b3c2,2,28,30,10,1.0,1.0,0
run-2020-2-18-11-30-5.9194319239999995,AGENT#30c8d1c8-5242-11ea-8394-bbfa79fed2fc,1,29,30,10,1.0,1.0,0
run-2020-2-18-11-30-5.9194319239999995,AGENT#30c8d4c0-5242-11ea-83f2-47da3c098fe0,1,29,30,10,1.0,1.0,0
run-2020-2-18-11-30-5.9194319239999995,AGENT#30c8da38-5242-11ea-a678-13531d28ccd9,2,29,31,10,1.0,1.0,0
run-2020-2-18-11-30-5.9194319239999995,AGENT#31000be8-5242-11ea-b8c1-bb3c3fbcc33b,1,32,33,10,1.0,1.0,0
run-2020-2-18-11-30-5.9194319239999995,AGENT#31000e22-5242-11ea-a1d7-ffc89be14230,1,32,33,10,1.0,1.0,0
run-2020-2-18-11-30-5.9194319239999995,AGENT#2f11883e-5242-11ea-86a4-cf0bb352648b,30,4,34,10,1.0,1.0,0
run-2020-2-18-11-30-5.9194319239999995,AGENT#30d90980-5242-11ea-85a4-5f11d8035bda,4,30,34,10,1.0,1.0,0
run-2020-2-18-11-30-5.9194319239999995,AGENT#30eb32ae-5242-11ea-b375-5b4012aaae4a,3,31,34,10,1.0,1.0,0
run-2020-2-18-11-30-5.9194319239999995,AGENT#310012aa-5242-11ea-9cd3-db517f5dc535,2,32,34,10,1.0,1.0,0
run-2020-2-18-11-30-5.9194319239999995,AGENT#3112003c-5242-11ea-a328-1bd8a9a95bc5,1,33,34,10,1.0,1.0,0
run-2020-2-18-11-30-5.9194319239999995,AGENT#31120302-5242-11ea-93f9-4fca706253fe,1,33,34,10,1.0,1.0,0
run-2020-2-18-11-30-5.9194319239999995,AGENT#2ec46964-5242-11ea-9a83-4f16e276876c,35,0,35,10,1.0,1.0,0
run-2020-2-18-11-30-5.9194319239999995,AGENT#31120596-5242-11ea-a034-dbbb5fa7d007,2,33,35,10,1.0,1.0,0
run-2020-2-18-11-30-5.9194319239999995,AGENT#31232b50-5242-11ea-95ed-57cf2ee6b28c,1,34,35,10,1.0,1.0,0
run-2020-2-18-11-30-5.9194319239999995,AGENT#31120ac8-5242-11ea-8900-eb05086f0f98,4,33,37,10,1.0,1.0,0
run-2020-2-18-11-30-5.9194319239999995,AGENT#31473ebe-5242-11ea-86a1-cb3e12f2920b,1,36,37,10,1.0,1.0,0
run-2020-2-18-11-30-5.9194319239999995,AGENT#31361b16-5242-11ea-b545-bff00733e47b,4,35,39,10,1.0,1.0,0
run-2020-2-18-11-30-5.9194319239999995,AGENT#313618be-5242-11ea-9d94-47b8d292259c,5,35,40,10,1.0,1.0,0
run-2020-2-18-11-30-5.9194319239999995,AGENT#314737a2-5242-11ea-ad2b-2f3ad8904242,4,36,40,10,1.0,1.0,0
run-2020-2-18-11-30-5.9194319239999995,AGENT#314734f0-5242-11ea-97ed-3b2e92e5e0c6,5,36,41,10,1.0,1.0,0
run-2020-2-18-11-30-5.9194319239999995,AGENT#31690512-5242-11ea-8902-ab75e741170a,3,38,41,10,1.0,1.0,0
run-2020-2-18-11-30-5.9194319239999995,AGENT#318c5a6c-5242-11ea-988f-73d17039aebf,1,40,41,10,1.0,1.0,0
run-2020-2-18-11-30-5.9194319239999995,AGENT#317a0628-5242-11ea-899f-b3f2c9729f25,3,39,42,10,1.0,1.0,0
run-2020-2-18-11-30-5.9194319239999995,AGENT#2fe73e52-5242-11ea-a751-474ba4748167,27,16,43,10,1.0,1.0,0
run-2020-2-18-11-30-5.9194319239999995,AGENT#316907c4-5242-11ea-b25e-efaac6ddaad5,5,38,43,10,1.0,1.0,0
run-2020-2-18-11-30-5.9194319239999995,AGENT#318c611a-5242-11ea-af7e-7762a8ec5248,3,40,43,10,1.0,1.0,0
run-2020-2-18-11-30-5.9194319239999995,AGENT#319da77c-5242-11ea-ad49-2f98d2d85089,2,41,43,10,1.0,1.0,0
run-2020-2-18-11-30-5.9194319239999995,AGENT#31ae92a8-5242-11ea-8d8c-77a2eecb0114,1,42,43,10,1.0,1.0,0
run-2020-2-18-11-30-5.9194319239999995,AGENT#31ae953c-5242-11ea-89cb-c3d69dc45250,1,42,43,10,1.0,1.0,0
run-2020-2-18-11-30-5.9194319239999995,AGENT#3179ff2a-5242-11ea-b81a-e7c97be43c38,5,39,44,10,1.0,1.0,0
run-2020-2-18-11-30-5.9194319239999995,AGENT#317a086c-5242-11ea-b08e-57399ea86e0b,5,39,44,10,1.0,1.0,0
run-2020-2-18-11-30-5.9194319239999995,AGENT#318c5ee0-5242-11ea-b400-0f97d55623e1,4,40,44,10,1.0,1.0,0
run-2020-2-18-11-30-5.9194319239999995,AGENT#2ec45a14-5242-11ea-9da0-3b578d154b99,45,0,45,10,1.0,1.0,0
run-2020-2-18-11-30-5.9194319239999995,AGENT#303dcf1a-5242-11ea-9f98-d3ed5a94fee5,24,21,45,10,1.0,1.0,0
run-2020-2-18-11-30-5.9194319239999995,AGENT#319da218-5242-11ea-94e1-c3b5667492a3,4,41,45,10,1.0,1.0,0
run-2020-2-18-11-30-5.9194319239999995,AGENT#319da52e-5242-11ea-9f9f-6325c60cd048,4,41,45,10,1.0,1.0,0
run-2020-2-18-11-30-5.9194319239999995,AGENT#2ec46694-5242-11ea-b3b7-475ab57eb9d3,46,0,46,10,1.0,1.0,0
run-2020-2-18-11-30-5.9194319239999995,AGENT#307047b0-5242-11ea-81ad-4bb7590d10a5,22,24,46,10,1.0,1.0,0
run-2020-2-18-11-30-5.9194319239999995,AGENT#319d9a02-5242-11ea-82c3-b700462cd053,5,41,46,10,1.0,1.0,0
run-2020-2-18-11-30-5.9194319239999995,AGENT#31ae979e-5242-11ea-820c-03077d2fb8f6,4,42,46,10,1.0,1.0,0
run-2020-2-18-11-30-5.9194319239999995,AGENT#31bf3e32-5242-11ea-9276-d793fc016de1,3,43,46,10,1.0,1.0,0
run-2020-2-18-11-30-5.9194319239999995,AGENT#2ec452ee-5242-11ea-af89-7b2244fa1198,47,0,47,10,1.0,1.0,0
run-2020-2-18-11-30-5.9194319239999995,AGENT#2eda5ef4-5242-11ea-91d9-e361ffab9424,46,1,47,10,1.0,1.0,0
run-2020-2-18-11-30-5.9194319239999995,AGENT#2eed2a3e-5242-11ea-b2f1-679ba8576549,45,2,47,10,1.0,1.0,0
run-2020-2-18-11-30-5.9194319239999995,AGENT#31bf435a-5242-11ea-bf38-8ff815fa341a,4,43,47,10,1.0,1.0,0
run-2020-2-18-11-30-5.9194319239999995,AGENT#31f47cf0-5242-11ea-b62b-5729cdfbd909,1,46,47,10,1.0,1.0,0
run-2020-2-18-11-30-5.9194319239999995,AGENT#31e2da9a-5242-11ea-84de-77bb07a4f8d6,3,45,48,10,1.0,1.0,0
run-2020-2-18-11-30-5.9194319239999995,AGENT#3205c438-5242-11ea-959f-5fb05affc238,1,47,48,10,1.0,1.0,0
run-2020-2-18-11-30-5.9194319239999995,AGENT#31e2dcde-5242-11ea-a74e-d3e2bd2ed950,4,45,49,10,1.0,1.0,0
run-2020-2-18-11-30-5.9194319239999995,AGENT#3205bd30-5242-11ea-ae54-6fe838cc33f4,2,47,49,10,1.0,1.0,0
run-2020-2-18-11-30-5.9194319239999995,AGENT#2ec4556e-5242-11ea-b47a-5b6d2b54304f,50,0,50,10,1.0,1.0,0
run-2020-2-18-11-30-5.9194319239999995,AGENT#2f2312ca-5242-11ea-9963-5bc17259ad27,45,5,50,10,1.0,1.0,0
run-2020-2-18-11-30-5.9194319239999995,AGENT#31e2d810-5242-11ea-bf85-5b345222c9a7,5,45,50,10,1.0,1.0,0
run-2020-2-18-11-30-5.9194319239999995,AGENT#322839c8-5242-11ea-8722-b7ad0187105b,1,49,50,10,1.0,1.0,0
run-2020-2-18-11-30-5.9194319239999995,AGENT#2f34d898-5242-11ea-861d-47975ead0a50,45,6,51,10,1.0,1.0,0
run-2020-2-18-11-30-5.9194319239999995,AGENT#3111fd62-5242-11ea-8b65-6fa5ce442541,18,33,51,10,1.0,1.0,0
run-2020-2-18-11-30-5.9194319239999995,AGENT#321664aa-5242-11ea-a159-93ff44183f74,3,48,51,10,1.0,1.0,0
run-2020-2-18-11-30-5.9194319239999995,AGENT#2f46ab18-5242-11ea-9851-6fde71d8b2ee,45,7,52,10,1.0,1.0,0
run-2020-2-18-11-30-5.9194319239999995,AGENT#323ab2e2-5242-11ea-a2a0-e383bce15b06,2,50,52,10,1.0,1.0,0
run-2020-2-18-11-30-5.9194319239999995,AGENT#2f46affa-5242-11ea-8f2c-4b4a4fb994eb,46,7,53,10,1.0,1.0,0
run-2020-2-18-11-30-5.9194319239999995,AGENT#324d8a52-5242-11ea-b2bf-d7c796405f29,2,51,53,10,1.0,1.0,0
run-2020-2-18-11-30-5.9194319239999995,AGENT#324d8dae-5242-11ea-a77e-9fa631b1fb9d,2,51,53,10,1.0,1.0,0
run-2020-2-18-11-30-5.9194319239999995,AGENT#318c57ec-5242-11ea-a294-af4c5f7f4d12,14,40,54,10,1.0,1.0,0
run-2020-2-18-11-30-5.9194319239999995,AGENT#3272e8d8-5242-11ea-bda6-0feb248c2dc5,1,53,54,10,1.0,1.0,0
run-2020-2-18-11-30-5.9194319239999995,AGENT#3272eb08-5242-11ea-a006-0b1e93e9ae72,1,53,54,10,1.0,1.0,0
run-2020-2-18-11-30-5.9194319239999995,AGENT#2f7a1804-5242-11ea-8f4e-57237bdd53aa,45,10,55,10,1.0,1.0,0
run-2020-2-18-11-30-5.9194319239999995,AGENT#302cb310-5242-11ea-b8ff-2b7025ffb61b,35,20,55,10,1.0,1.0,0
run-2020-2-18-11-30-5.9194319239999995,AGENT#322833ba-5242-11ea-a9cc-5fc86281f1ef,6,49,55,10,1.0,1.0,0
run-2020-2-18-11-30-5.9194319239999995,AGENT#323ab558-5242-11ea-a968-13235cd577de,5,50,55,10,1.0,1.0,0
run-2020-2-18-11-30-5.9194319239999995,AGENT#325fcfa0-5242-11ea-82fa-9b840ffebe70,3,52,55,10,1.0,1.0,0
run-2020-2-18-11-30-5.9194319239999995,AGENT#3272e662-5242-11ea-be40-672d89b513b3,2,53,55,10,1.0,1.0,0
run-2020-2-18-11-30-5.9194319239999995,AGENT#3272f986-5242-11ea-86f3-471c565a4ef0,2,53,55,10,1.0,1.0,0
run-2020-2-18-11-30-5.9194319239999995,AGENT#3286943c-5242-11ea-8694-d33623f9305a,1,54,55,10,1.0,1.0,0
run-2020-2-18-11-30-5.9194319239999995,AGENT#2f7a150c-5242-11ea-9d4f-a3070e576375,46,10,56,10,1.0,1.0,0
run-2020-2-18-11-30-5.9194319239999995,AGENT#32992fe8-5242-11ea-b791-2f8a6c2aab32,1,55,56,10,1.0,1.0,0
run-2020-2-18-11-30-5.9194319239999995,AGENT#2f574c66-5242-11ea-9d3e-bf0e79263a30,49,8,57,10,1.0,1.0,0
run-2020-2-18-11-30-5.9194319239999995,AGENT#3070456c-5242-11ea-be26-b32cc9811554,33,24,57,10,1.0,1.0,0
run-2020-2-18-11-30-5.9194319239999995,AGENT#31001070-5242-11ea-96b0-837a709ddf22,25,32,57,10,1.0,1.0,0
run-2020-2-18-11-30-5.9194319239999995,AGENT#325fcd16-5242-11ea-ab0d-5326758233e1,5,52,57,10,1.0,1.0,0
run-2020-2-18-11-30-5.9194319239999995,AGENT#32993236-5242-11ea-8213-7f5c244be6cc,2,55,57,10,1.0,1.0,0
run-2020-2-18-11-30-5.9194319239999995,AGENT#329938b2-5242-11ea-b8ee-7b55b22fa3a2,3,55,58,10,1.0,1.0,0
run-2020-2-18-11-30-5.9194319239999995,AGENT#2faf9ea2-5242-11ea-92eb-8734a481e412,46,13,59,10,1.0,1.0,0
run-2020-2-18-11-30-5.9194319239999995,AGENT#2fd52be0-5242-11ea-8fb1-8bd4c9a1af96,44,15,59,10,1.0,1.0,0
run-2020-2-18-11-30-5.9194319239999995,AGENT#32868fbe-5242-11ea-92c1-ab904b546fe1,5,54,59,10,1.0,1.0,0
run-2020-2-18-11-30-5.9194319239999995,AGENT#32992b42-5242-11ea-b802-2bc6f1aeae3c,4,55,59,10,1.0,1.0,0
run-2020-2-18-11-30-5.9194319239999995,AGENT#32993678-5242-11ea-93ad-0b23246f1207,4,55,59,10,1.0,1.0,0
run-2020-2-18-11-30-5.9194319239999995,AGENT#32bc8e16-5242-11ea-9c4b-dbcbb787ae45,2,57,59,10,1.0,1.0,0
run-2020-2-18-11-30-5.9194319239999995,AGENT#32abdb7a-5242-11ea-8ff4-9f17900a7178,4,56,60,10,1.0,1.0,0
run-2020-2-18-11-30-5.9194319239999995,AGENT#32ded32c-5242-11ea-8231-af4094a757fd,1,59,60,10,1.0,1.0,0
run-2020-2-18-11-30-5.9194319239999995,AGENT#2fd532e8-5242-11ea-877e-a71506c01d7a,46,15,61,10,1.0,1.0,0
run-2020-2-18-11-30-5.9194319239999995,AGENT#318c5cb0-5242-11ea-8237-17c66911ca8f,21,40,61,10,1.0,1.0,0
run-2020-2-18-11-30-5.9194319239999995,AGENT#32abde36-5242-11ea-b13b-7fe1d5ff20bc,5,56,61,10,1.0,1.0,0
run-2020-2-18-11-30-5.9194319239999995,AGENT#32bc8b32-5242-11ea-8af0-0be2ce6268ad,4,57,61,10,1.0,1.0,0
run-2020-2-18-11-30-5.9194319239999995,AGENT#32bc9050-5242-11ea-a5c4-9f9b57be986c,4,57,61,10,1.0,1.0,0
run-2020-2-18-11-30-5.9194319239999995,AGENT#33017882-5242-11ea-92dd-03dd70d656ff,1,61,62,10,1.0,1.0,0
run-2020-2-18-11-30-5.9194319239999995,AGENT#301b0b74-5242-11ea-bf7f-5b99224f469e,45,19,64,10,1.0,1.0,0
run-2020-2-18-11-30-5.9194319239999995,AGENT#3100097c-5242-11ea-899f-c7a9a522b20d,32,32,64,10,1.0,1.0,0
run-2020-2-18-11-30-5.9194319239999995,AGENT#32cd5de0-5242-11ea-abf0-539ee458657e,6,58,64,10,1.0,1.0,0
run-2020-2-18-11-30-5.9194319239999995,AGENT#32eec3f4-5242-11ea-9c2f-ab3f8529f522,4,60,64,10,1.0,1.0,0
run-2020-2-18-11-30-5.9194319239999995,AGENT#33016eaa-5242-11ea-8280-c39d4143f73b,3,61,64,10,1.0,1.0,0
run-2020-2-18-11-30-5.9194319239999995,AGENT#33139da0-5242-11ea-8495-c3a910b7211f,2,62,64,10,1.0,1.0,0
run-2020-2-18-11-30-5.9194319239999995,AGENT#33279148-5242-11ea-b30c-279d985e715e,1,63,64,10,1.0,1.0,0
run-2020-2-18-11-30-5.9194319239999995,AGENT#302ca406-5242-11ea-8ae3-273a4ffb3efe,45,20,65,10,1.0,1.0,0
run-2020-2-18-11-30-5.9194319239999995,AGENT#32eec1a6-5242-11ea-b08c-a36189378fd4,5,60,65,10,1.0,1.0,0
run-2020-2-18-11-30-5.9194319239999995,AGENT#33017562-5242-11ea-8cb8-bfef2bced4f1,4,61,65,10,1.0,1.0,0
run-2020-2-18-11-30-5.9194319239999995,AGENT#33139b52-5242-11ea-ab63-6bc4ce3e49e7,3,62,65,10,1.0,1.0,0
run-2020-2-18-11-30-5.9194319239999995,AGENT#3313a264-5242-11ea-af85-8f6fee7966d4,3,62,65,10,1.0,1.0,0
run-2020-2-18-11-30-5.9194319239999995,AGENT#3338785a-5242-11ea-afe7-dfd9566d82e8,1,64,65,10,1.0,1.0,0
run-2020-2-18-11-30-5.9194319239999995,AGENT#301b0656-5242-11ea-9f53-c7a1e521f5e7,47,19,66,10,1.0,1.0,0
run-2020-2-18-11-30-5.9194319239999995,AGENT#303dc5c4-5242-11ea-95be-37979d17ffd8,45,21,66,10,1.0,1.0,0
run-2020-2-18-11-30-5.9194319239999995,AGENT#33017b8e-5242-11ea-a8e4-afdeb1681a17,5,61,66,10,1.0,1.0,0
run-2020-2-18-11-30-5.9194319239999995,AGENT#334b255e-5242-11ea-a014-f7ab1ef563b3,1,65,66,10,1.0,1.0,0
run-2020-2-18-11-30-5.9194319239999995,AGENT#334b2d88-5242-11ea-b84a-e7db6670fac8,1,65,66,10,1.0,1.0,0
run-2020-2-18-11-30-5.9194319239999995,AGENT#334b3242-5242-11ea-be1b-4b51ca1a291a,1,65,66,10,1.0,1.0,0
run-2020-2-18-11-30-5.9194319239999995,AGENT#332793a0-5242-11ea-8d64-43f4031e9e1e,4,63,67,10,1.0,1.0,0
run-2020-2-18-11-30-5.9194319239999995,AGENT#335d72d6-5242-11ea-a911-dfab4a6b1b33,1,66,67,10,1.0,1.0,0
run-2020-2-18-11-30-5.9194319239999995,AGENT#335d77a4-5242-11ea-89f3-9f5ae74549bc,1,66,67,10,1.0,1.0,0
run-2020-2-18-11-30-5.9194319239999995,AGENT#33278ed2-5242-11ea-a953-47c8385d60fa,5,63,68,10,1.0,1.0,0
run-2020-2-18-11-30-5.9194319239999995,AGENT#3338745e-5242-11ea-9458-37df9d35f9e3,4,64,68,10,1.0,1.0,0
run-2020-2-18-11-30-5.9194319239999995,AGENT#335d754c-5242-11ea-80c2-57851d5c74aa,2,66,68,10,1.0,1.0,0
run-2020-2-18-11-30-5.9194319239999995,AGENT#33704ba4-5242-11ea-9aee-b7ac02ff24bd,1,67,68,10,1.0,1.0,0
run-2020-2-18-11-30-5.9194319239999995,AGENT#33704e9c-5242-11ea-b8d4-038a66e26d46,1,67,68,10,1.0,1.0,0
run-2020-2-18-11-30-5.9194319239999995,AGENT#334b2ae0-5242-11ea-b8b6-db7d5d52e934,4,65,69,10,1.0,1.0,0
run-2020-2-18-11-30-5.9194319239999995,AGENT#337041f4-5242-11ea-b4a2-472cba746e70,2,67,69,10,1.0,1.0,0
run-2020-2-18-11-30-5.9194319239999995,AGENT#3370456e-5242-11ea-8397-23600b117b05,2,67,69,10,1.0,1.0,0
run-2020-2-18-11-30-5.9194319239999995,AGENT#337051b2-5242-11ea-a56c-2bab1b610ffd,2,67,69,10,1.0,1.0,0
run-2020-2-18-11-30-5.9194319239999995,AGENT#305f02f2-5242-11ea-bba5-6f01c5a21194,47,23,70,10,1.0,1.0,0
run-2020-2-18-11-30-5.9194319239999995,AGENT#335d7038-5242-11ea-ae4a-afa5c33367a6,4,66,70,10,1.0,1.0,0
run-2020-2-18-11-30-5.9194319239999995,AGENT#33704884-5242-11ea-acc3-cb57847d1436,3,67,70,10,1.0,1.0,0
run-2020-2-18-11-30-5.9194319239999995,AGENT#339899c4-5242-11ea-acab-7fc5180ebe91,1,69,70,10,1.0,1.0,0
run-2020-2-18-11-30-5.9194319239999995,AGENT#33989e7e-5242-11ea-b467-2ff9c9c93c2f,1,69,70,10,1.0,1.0,0
run-2020-2-18-11-30-5.9194319239999995,AGENT#3081b5a4-5242-11ea-980c-af5e60690279,46,25,71,10,1.0,1.0,0
run-2020-2-18-11-30-5.9194319239999995,AGENT#319d9700-5242-11ea-bccf-7ffd9437fe21,30,41,71,10,1.0,1.0,0
run-2020-2-18-11-30-5.9194319239999995,AGENT#335d7c36-5242-11ea-a656-ffdad3fb0a7a,5,66,71,10,1.0,1.0,0
run-2020-2-18-11-30-5.9194319239999995,AGENT#3398a2ca-5242-11ea-9cbc-b31dbec8d042,2,69,71,10,1.0,1.0,0
run-2020-2-18-11-30-5.9194319239999995,AGENT#30a5eca8-5242-11ea-b7f8-2f33a4913775,45,27,72,10,1.0,1.0,0
run-2020-2-18-11-30-5.9194319239999995,AGENT#3398a4f0-5242-11ea-974c-e392105317f4,3,69,72,10,1.0,1.0,0
run-2020-2-18-11-30-5.9194319239999995,AGENT#33bacf26-5242-11ea-a508-1748ecbf35e9,1,71,72,10,1.0,1.0,0
run-2020-2-18-11-30-5.9194319239999995,AGENT#30941f5a-5242-11ea-9ddf-6f76272b98c7,47,26,73,10,1.0,1.0,0
run-2020-2-18-11-30-5.9194319239999995,AGENT#30b73800-5242-11ea-9db3-1bce395eb4be,45,28,73,10,1.0,1.0,0
run-2020-2-18-11-30-5.9194319239999995,AGENT#33989c3a-5242-11ea-93f5-dfbd5a1eabc8,4,69,73,10,1.0,1.0,0
run-2020-2-18-11-30-5.9194319239999995,AGENT#33cc72b2-5242-11ea-ba64-6319fdb8cf5f,1,72,73,10,1.0,1.0,0
run-2020-2-18-11-30-5.9194319239999995,AGENT#30b73c74-5242-11ea-8ea0-8f94aa6bf3fa,46,28,74,10,1.0,1.0,0
run-2020-2-18-11-30-5.9194319239999995,AGENT#30b73ed6-5242-11ea-9bf9-ab7da2d445aa,46,28,74,10,1.0,1.0,0
run-2020-2-18-11-30-5.9194319239999995,AGENT#30c8d768-5242-11ea-ae54-07b4066e4421,45,29,74,10,1.0,1.0,0
run-2020-2-18-11-30-5.9194319239999995,AGENT#312328b2-5242-11ea-850e-e7f1d5e4868f,41,34,75,10,1.0,1.0,0
run-2020-2-18-11-30-5.9194319239999995,AGENT#33a9aa84-5242-11ea-bed9-b77fd60fc8f4,5,70,75,10,1.0,1.0,0
run-2020-2-18-11-30-5.9194319239999995,AGENT#33cc6790-5242-11ea-8e79-bf648bfa8ef5,3,72,75,10,1.0,1.0,0
run-2020-2-18-11-30-5.9194319239999995,AGENT#33cc6a10-5242-11ea-88cc-571fdfc1acb8,3,72,75,10,1.0,1.0,0
run-2020-2-18-11-30-5.9194319239999995,AGENT#33cc6e66-5242-11ea-811e-5fc90fbb9c0c,3,72,75,10,1.0,1.0,0
run-2020-2-18-11-30-5.9194319239999995,AGENT#33cc7082-5242-11ea-87da-cf74c3aee730,3,72,75,10,1.0,1.0,0
run-2020-2-18-11-30-5.9194319239999995,AGENT#33f21440-5242-11ea-ae3b-cb5037155c65,1,74,75,10,1.0,1.0,0
run-2020-2-18-11-30-5.9194319239999995,AGENT#33f21684-5242-11ea-a8b2-d3dd9477a804,1,74,75,10,1.0,1.0,0
run-2020-2-18-11-30-5.9194319239999995,AGENT#30eb2ff2-5242-11ea-8932-c7feb07b6c71,45,31,76,10,1.0,1.0,0
run-2020-2-18-11-30-5.9194319239999995,AGENT#33f218c8-5242-11ea-9e6e-431fedf657eb,2,74,76,10,1.0,1.0,0
run-2020-2-18-11-30-5.9194319239999995,AGENT#340482b0-5242-11ea-8537-ab3a98ebbb3e,1,75,76,10,1.0,1.0,0
run-2020-2-18-11-30-5.9194319239999995,AGENT#33cc6c40-5242-11ea-9206-a790faaaa307,5,72,77,10,1.0,1.0,0
run-2020-2-18-11-30-5.9194319239999995,AGENT#33f211ac-5242-11ea-9691-1faf037d2e1a,3,74,77,10,1.0,1.0,0
run-2020-2-18-11-30-5.9194319239999995,AGENT#34047fcc-5242-11ea-a68f-9f6e9fef82e3,2,75,77,10,1.0,1.0,0
run-2020-2-18-11-30-5.9194319239999995,AGENT#34168640-5242-11ea-a66b-17cc6be92272,1,76,77,10,1.0,1.0,0
run-2020-2-18-11-30-5.9194319239999995,AGENT#341689d8-5242-11ea-b6b0-4be59ab74031,2,76,78,10,1.0,1.0,0
run-2020-2-18-11-30-5.9194319239999995,AGENT#34168ff0-5242-11ea-b84e-3f0dd2c451ce,2,76,78,10,1.0,1.0,0
run-2020-2-18-11-30-5.9194319239999995,AGENT#342937cc-5242-11ea-862f-67cb02fc71d3,1,77,78,10,1.0,1.0,0
run-2020-2-18-11-30-5.9194319239999995,AGENT#310006f2-5242-11ea-b46b-534f3594c008,47,32,79,10,1.0,1.0,0
run-2020-2-18-11-30-5.9194319239999995,AGENT#31120852-5242-11ea-bfa5-bf1834446472,46,33,79,10,1.0,1.0,0
run-2020-2-18-11-30-5.9194319239999995,AGENT#34293e7a-5242-11ea-a303-db73c4992549,2,77,79,10,1.0,1.0,0
run-2020-2-18-11-30-5.9194319239999995,AGENT#343b531c-5242-11ea-83f0-27b5bb29cce5,1,78,79,10,1.0,1.0,0
run-2020-2-18-11-30-5.9194319239999995,AGENT#3136163e-5242-11ea-acb1-9baaf347ebe3,45,35,80,10,1.0,1.0,0
run-2020-2-18-11-30-5.9194319239999995,AGENT#34169914-5242-11ea-b556-e39469476300,4,76,80,10,1.0,1.0,0
run-2020-2-18-11-30-5.9194319239999995,AGENT#34293a1a-5242-11ea-9139-a7391f0573d5,3,77,80,10,1.0,1.0,0
run-2020-2-18-11-30-5.9194319239999995,AGENT#342940fa-5242-11ea-bfd3-239e1c8eeaae,3,77,80,10,1.0,1.0,0
run-2020-2-18-11-30-5.9194319239999995,AGENT#343b57cc-5242-11ea-bbef-d36604a2d5de,2,78,80,10,1.0,1.0,0
run-2020-2-18-11-30-5.9194319239999995,AGENT#31473a2c-5242-11ea-96cc-87dbd1b75533,45,36,81,10,1.0,1.0,0
run-2020-2-18-11-30-5.9194319239999995,AGENT#31473c7a-5242-11ea-854c-b3cb23b470e4,45,36,81,10,1.0,1.0,0
run-2020-2-18-11-30-5.9194319239999995,AGENT#335d79e8-5242-11ea-8540-67caa238c27d,15,66,81,10,1.0,1.0,0
run-2020-2-18-11-30-5.9194319239999995,AGENT#34168cee-5242-11ea-b812-2f0f5f7ac183,5,76,81,10,1.0,1.0,0
run-2020-2-18-11-30-5.9194319239999995,AGENT#341695ea-5242-11ea-b660-07f49521b279,5,76,81,10,1.0,1.0,0
run-2020-2-18-11-30-5.9194319239999995,AGENT#344de720-5242-11ea-bfce-7fef763b5779,2,79,81,10,1.0,1.0,0
run-2020-2-18-11-30-5.9194319239999995,AGENT#345f5528-5242-11ea-b5e5-3f067331a621,1,80,81,10,1.0,1.0,0
run-2020-2-18-11-30-5.9194319239999995,AGENT#34293556-5242-11ea-8845-0f3ee367a617,5,77,82,10,1.0,1.0,0
run-2020-2-18-11-30-5.9194319239999995,AGENT#343b5e5c-5242-11ea-9075-577eae5ed718,4,78,82,10,1.0,1.0,0
run-2020-2-18-11-30-5.9194319239999995,AGENT#345f5794-5242-11ea-9210-83f85fdb3a18,2,80,82,10,1.0,1.0,0
run-2020-2-18-11-30-5.9194319239999995,AGENT#343b5c36-5242-11ea-b3a9-8f9745a413e5,5,78,83,10,1.0,1.0,0
run-2020-2-18-11-30-5.9194319239999995,AGENT#317a01b4-5242-11ea-92e8-23c7bd3a7387,45,39,84,10,1.0,1.0,0
run-2020-2-18-11-30-5.9194319239999995,AGENT#348261f8-5242-11ea-b8ba-2b73a49df855,2,82,84,10,1.0,1.0,0
run-2020-2-18-11-30-5.9194319239999995,AGENT#33bacc10-5242-11ea-a9f7-9bfd02573449,14,71,85,10,1.0,1.0,0
run-2020-2-18-11-30-5.9194319239999995,AGENT#34825d66-5242-11ea-b1f1-a37d8bef3d7a,3,82,85,10,1.0,1.0,0
run-2020-2-18-11-30-5.9194319239999995,AGENT#3493c0e2-5242-11ea-a9bb-af94b204e68f,2,83,85,10,1.0,1.0,0
run-2020-2-18-11-30-5.9194319239999995,AGENT#3471771c-5242-11ea-8892-e3ef4597de14,5,81,86,10,1.0,1.0,0
run-2020-2-18-11-30-5.9194319239999995,AGENT#3493be30-5242-11ea-ab5d-37018bbba876,3,83,86,10,1.0,1.0,0
run-2020-2-18-11-30-5.9194319239999995,AGENT#34c93be6-5242-11ea-88e0-5b2f8f33a101,1,86,87,10,1.0,1.0,0
run-2020-2-18-11-30-5.9194319239999995,AGENT#31bf40ee-5242-11ea-940a-431afc8365ab,45,43,88,10,1.0,1.0,0
run-2020-2-18-11-30-5.9194319239999995,AGENT#31bf45b2-5242-11ea-bb4d-77796feaa5cb,45,43,88,10,1.0,1.0,0
run-2020-2-18-11-30-5.9194319239999995,AGENT#34a545f6-5242-11ea-a0cc-d73fb74119d2,4,84,88,10,1.0,1.0,0
run-2020-2-18-11-30-5.9194319239999995,AGENT#34c93740-5242-11ea-ac05-fb8458e450a7,2,86,88,10,1.0,1.0,0
run-2020-2-18-11-30-5.9194319239999995,AGENT#34db0ed4-5242-11ea-9796-c723bbd76f90,1,87,88,10,1.0,1.0,0
run-2020-2-18-11-30-5.9194319239999995,AGENT#34db137a-5242-11ea-a206-db8d131d2cb7,1,87,88,10,1.0,1.0,0
run-2020-2-18-11-30-5.9194319239999995,AGENT#317a03ee-5242-11ea-9c9a-cb4d7afbe060,50,39,89,10,1.0,1.0,0
run-2020-2-18-11-30-5.9194319239999995,AGENT#31d0b400-5242-11ea-ac52-df18be0d213f,45,44,89,10,1.0,1.0,0
run-2020-2-18-11-30-5.9194319239999995,AGENT#34a54d3a-5242-11ea-9747-c74b275a66b8,5,84,89,10,1.0,1.0,0
run-2020-2-18-11-30-5.9194319239999995,AGENT#34c939ac-5242-11ea-b8b0-834f0d380eeb,3,86,89,10,1.0,1.0,0
run-2020-2-18-11-30-5.9194319239999995,AGENT#34efb8ca-5242-11ea-ba88-039c573decb6,1,88,89,10,1.0,1.0,0
run-2020-2-18-11-30-5.9194319239999995,AGENT#319d9f66-5242-11ea-8555-3774a1f107c3,49,41,90,10,1.0,1.0,0
run-2020-2-18-11-30-5.9194319239999995,AGENT#3205bfa6-5242-11ea-a278-7b534640541c,43,47,90,10,1.0,1.0,0
run-2020-2-18-11-30-5.9194319239999995,AGENT#34b72276-5242-11ea-9a02-877959e531a8,5,85,90,10,1.0,1.0,0
run-2020-2-18-11-30-5.9194319239999995,AGENT#3503afc4-5242-11ea-a566-bb638785dc6d,1,89,90,10,1.0,1.0,0
run-2020-2-18-11-30-5.9194319239999995,AGENT#3503b9ba-5242-11ea-a329-93b5bc02a6fb,1,89,90,10,1.0,1.0,0
run-2020-2-18-11-30-5.9194319239999995,AGENT#31f47a8e-5242-11ea-8a53-3b3003350005,45,46,91,10,1.0,1.0,0
run-2020-2-18-11-30-5.9194319239999995,AGENT#34c93e2a-5242-11ea-bf3a-974fd11c56ec,5,86,91,10,1.0,1.0,0
run-2020-2-18-11-30-5.9194319239999995,AGENT#34db0ca4-5242-11ea-8591-fb4aad00bce4,4,87,91,10,1.0,1.0,0
run-2020-2-18-11-30-5.9194319239999995,AGENT#3205c1fe-5242-11ea-955c-cf4d69e8def5,45,47,92,10,1.0,1.0,0
run-2020-2-18-11-30-5.9194319239999995,AGENT#34efbb7c-5242-11ea-9401-d35fd1dbf393,4,88,92,10,1.0,1.0,0
run-2020-2-18-11-30-5.9194319239999995,AGENT#352ac960-5242-11ea-ba6d-53732e0e0b04,1,91,92,10,1.0,1.0,0
run-2020-2-18-11-30-5.9194319239999995,AGENT#3503b528-5242-11ea-bdcd-eb92aa66f496,4,89,93,10,1.0,1.0,0
run-2020-2-18-11-30-5.9194319239999995,AGENT#35171866-5242-11ea-853f-ab00e5479f19,3,90,93,10,1.0,1.0,0
run-2020-2-18-11-30-5.9194319239999995,AGENT#352ac596-5242-11ea-a33b-b341b3d69e46,2,91,93,10,1.0,1.0,0
run-2020-2-18-11-30-5.9194319239999995,AGENT#352ad8b0-5242-11ea-bb61-dba4f334a00a,2,91,93,10,1.0,1.0,0
run-2020-2-18-11-30-5.9194319239999995,AGENT#322836d0-5242-11ea-8f59-537c22b7d293,45,49,94,10,1.0,1.0,0
run-2020-2-18-11-30-5.9194319239999995,AGENT#33139fee-5242-11ea-a60d-8f7777a8aaf0,33,62,95,10,1.0,1.0,0
run-2020-2-18-11-30-5.9194319239999995,AGENT#344dee0a-5242-11ea-82e8-73863d5c0744,16,79,95,10,1.0,1.0,0
run-2020-2-18-11-30-5.9194319239999995,AGENT#3551c3ee-5242-11ea-972a-c3f48f51652f,2,93,95,10,1.0,1.0,0
run-2020-2-18-11-30-5.9194319239999995,AGENT#3551c68c-5242-11ea-94da-2bac26844465,2,93,95,10,1.0,1.0,0
run-2020-2-18-11-30-5.9194319239999995,AGENT#351715c8-5242-11ea-aebd-effca2a7e833,6,90,96,10,1.0,1.0,0
run-2020-2-18-11-30-5.9194319239999995,AGENT#352ad14e-5242-11ea-a859-13b53127f0a2,5,91,96,10,1.0,1.0,0
run-2020-2-18-11-30-5.9194319239999995,AGENT#353fb56e-5242-11ea-8ffd-93f6d65700f1,4,92,96,10,1.0,1.0,0
run-2020-2-18-11-30-5.9194319239999995,AGENT#35638fc0-5242-11ea-ab6e-3b376b64e377,2,94,96,10,1.0,1.0,0
run-2020-2-18-11-30-5.9194319239999995,AGENT#3563920e-5242-11ea-9345-f72867030f27,2,94,96,10,1.0,1.0,0
run-2020-2-18-11-30-5.9194319239999995,AGENT#3576ab82-5242-11ea-bd2c-a3755c16784a,1,95,96,10,1.0,1.0,0
run-2020-2-18-11-30-5.9194319239999995,AGENT#3576b0b4-5242-11ea-bc8b-77d72bddb536,1,95,96,10,1.0,1.0,0
run-2020-2-18-11-30-5.9194319239999995,AGENT#35638d2c-5242-11ea-afe9-eb375605847d,3,94,97,10,1.0,1.0,0
run-2020-2-18-11-30-5.9194319239999995,AGENT#3587fef0-5242-11ea-8544-b7d1bc742f4d,2,96,98,10,1.0,1.0,0
run-2020-2-18-11-30-5.9194319239999995,AGENT#359af8a2-5242-11ea-9acc-2fece297149f,1,97,98,10,1.0,1.0,0
run-2020-2-18-11-30-5.9194319239999995,AGENT#359b01d0-5242-11ea-9222-2b38ae54991f,1,97,98,10,1.0,1.0,0
run-2020-2-18-11-30-5.9194319239999995,AGENT#359b0432-5242-11ea-b4e8-47e2eb47bc47,1,97,98,10,1.0,1.0,0
run-2020-2-18-11-30-5.9194319239999995,AGENT#341692e8-5242-11ea-b98d-a3449593c02a,23,76,99,10,1.0,1.0,0
run-2020-2-18-11-30-5.9194319239999995,AGENT#3503b776-5242-11ea-9cc9-9b597a58b388,10,89,99,10,1.0,1.0,0
run-2020-2-18-11-30-5.9194319239999995,AGENT#352ad4f0-5242-11ea-83ce-d778bbff462b,8,91,99,10,1.0,1.0,0
run-2020-2-18-11-30-5.9194319239999995,AGENT#3587fc3e-5242-11ea-86dc-47911e4f4986,3,96,99,10,1.0,1.0,0
run-2020-2-18-11-30-5.9194319239999995,AGENT#359af604-5242-11ea-aa9f-c3f54bc31067,2,97,99,10,1.0,1.0,0
run-2020-2-18-11-30-5.9194319239999995,AGENT#35af9924-5242-11ea-9ae9-c35c9fd3b168,1,98,99,10,1.0,1.0,0
