RunID,Tick,AllAgents,Active,Inactive
run-2020-2-28-16-27-41.551723957,0,11,8,3
run-2020-2-28-16-27-41.551723957,1,15,10,5
run-2020-2-28-16-27-41.551723957,2,17,10,7
run-2020-2-28-16-27-41.551723957,3,18,7,11
run-2020-2-28-16-27-41.551723957,4,22,10,12
run-2020-2-28-16-27-41.551723957,5,24,9,15
run-2020-2-28-16-27-41.551723957,6,28,12,16
run-2020-2-28-16-27-41.551723957,7,33,16,17
run-2020-2-28-16-27-41.551723957,8,35,15,20
run-2020-2-28-16-27-41.551723957,9,36,12,24
run-2020-2-28-16-27-41.551723957,10,38,13,25
run-2020-2-28-16-27-41.551723957,11,40,12,28
run-2020-2-28-16-27-41.551723957,12,43,13,30
run-2020-2-28-16-27-41.551723957,13,48,15,33
run-2020-2-28-16-27-41.551723957,14,48,14,34
run-2020-2-28-16-27-41.551723957,15,50,16,34
run-2020-2-28-16-27-41.551723957,16,54,19,35
run-2020-2-28-16-27-41.551723957,17,58,21,37
run-2020-2-28-16-27-41.551723957,18,65,25,40
run-2020-2-28-16-27-41.551723957,19,70,29,41
run-2020-2-28-16-27-41.551723957,20,74,28,46
run-2020-2-28-16-27-41.551723957,21,76,28,48
run-2020-2-28-16-27-41.551723957,22,80,30,50
run-2020-2-28-16-27-41.551723957,23,85,34,51
run-2020-2-28-16-27-41.551723957,24,90,35,55
run-2020-2-28-16-27-41.551723957,25,94,36,58
run-2020-2-28-16-27-41.551723957,26,95,35,60
run-2020-2-28-16-27-41.551723957,27,97,36,61
run-2020-2-28-16-27-41.551723957,28,101,37,64
run-2020-2-28-16-27-41.551723957,29,103,38,65
run-2020-2-28-16-27-41.551723957,30,106,39,67
run-2020-2-28-16-27-41.551723957,31,109,38,71
run-2020-2-28-16-27-41.551723957,32,111,37,74
run-2020-2-28-16-27-41.551723957,33,117,42,75
run-2020-2-28-16-27-41.551723957,34,120,42,78
run-2020-2-28-16-27-41.551723957,35,127,46,81
run-2020-2-28-16-27-41.551723957,36,132,50,82
run-2020-2-28-16-27-41.551723957,37,135,48,87
run-2020-2-28-16-27-41.551723957,38,140,46,94
run-2020-2-28-16-27-41.551723957,39,144,45,99
run-2020-2-28-16-27-41.551723957,40,146,43,103
run-2020-2-28-16-27-41.551723957,41,151,46,105
run-2020-2-28-16-27-41.551723957,42,153,43,110
run-2020-2-28-16-27-41.551723957,43,157,46,111
run-2020-2-28-16-27-41.551723957,44,158,43,115
run-2020-2-28-16-27-41.551723957,45,161,43,118
run-2020-2-28-16-27-41.551723957,46,163,44,119
run-2020-2-28-16-27-41.551723957,47,169,48,121
run-2020-2-28-16-27-41.551723957,48,171,47,124
run-2020-2-28-16-27-41.551723957,49,175,50,125
run-2020-2-28-16-27-41.551723957,50,179,53,126
run-2020-2-28-16-27-41.551723957,51,181,48,133
run-2020-2-28-16-27-41.551723957,52,185,50,135
run-2020-2-28-16-27-41.551723957,53,186,44,142
run-2020-2-28-16-27-41.551723957,54,189,42,147
run-2020-2-28-16-27-41.551723957,55,192,44,148
run-2020-2-28-16-27-41.551723957,56,196,46,150
run-2020-2-28-16-27-41.551723957,57,198,46,152
run-2020-2-28-16-27-41.551723957,58,200,44,156
run-2020-2-28-16-27-41.551723957,59,205,48,157
run-2020-2-28-16-27-41.551723957,60,210,51,159
run-2020-2-28-16-27-41.551723957,61,220,56,164
run-2020-2-28-16-27-41.551723957,62,221,52,169
run-2020-2-28-16-27-41.551723957,63,226,51,175
run-2020-2-28-16-27-41.551723957,64,232,53,179
run-2020-2-28-16-27-41.551723957,65,238,53,185
run-2020-2-28-16-27-41.551723957,66,243,53,190
run-2020-2-28-16-27-41.551723957,67,246,50,196
run-2020-2-28-16-27-41.551723957,68,249,50,199
run-2020-2-28-16-27-41.551723957,69,252,48,204
run-2020-2-28-16-27-41.551723957,70,253,44,209
run-2020-2-28-16-27-41.551723957,71,253,43,210
run-2020-2-28-16-27-41.551723957,72,257,45,212
run-2020-2-28-16-27-41.551723957,73,258,44,214
run-2020-2-28-16-27-41.551723957,74,259,42,217
run-2020-2-28-16-27-41.551723957,75,262,43,219
run-2020-2-28-16-27-41.551723957,76,268,44,224
run-2020-2-28-16-27-41.551723957,77,271,43,228
run-2020-2-28-16-27-41.551723957,78,273,44,229
run-2020-2-28-16-27-41.551723957,79,279,45,234
run-2020-2-28-16-27-41.551723957,80,285,47,238
run-2020-2-28-16-27-41.551723957,81,287,45,242
run-2020-2-28-16-27-41.551723957,82,288,43,245
run-2020-2-28-16-27-41.551723957,83,293,46,247
run-2020-2-28-16-27-41.551723957,84,296,42,254
run-2020-2-28-16-27-41.551723957,85,299,42,257
run-2020-2-28-16-27-41.551723957,86,300,40,260
run-2020-2-28-16-27-41.551723957,87,301,37,264
run-2020-2-28-16-27-41.551723957,88,306,38,268
run-2020-2-28-16-27-41.551723957,89,311,40,271
run-2020-2-28-16-27-41.551723957,90,315,41,274
run-2020-2-28-16-27-41.551723957,91,320,44,276
run-2020-2-28-16-27-41.551723957,92,322,45,277
run-2020-2-28-16-27-41.551723957,93,324,42,282
run-2020-2-28-16-27-41.551723957,94,327,41,286
run-2020-2-28-16-27-41.551723957,95,333,43,290
run-2020-2-28-16-27-41.551723957,96,337,47,290
run-2020-2-28-16-27-41.551723957,97,338,47,291
run-2020-2-28-16-27-41.551723957,98,341,45,296
run-2020-2-28-16-27-41.551723957,99,348,49,299
