RunID,Tick,ActiveAgentsPerTick
run-2020-2-28-10-29-56.665518045,0,12
run-2020-2-28-10-29-56.665518045,1,12
run-2020-2-28-10-29-56.665518045,2,12
run-2020-2-28-10-29-56.665518045,3,13
run-2020-2-28-10-29-56.665518045,4,14
run-2020-2-28-10-29-56.665518045,5,17
run-2020-2-28-10-29-56.665518045,6,19
run-2020-2-28-10-29-56.665518045,7,19
run-2020-2-28-10-29-56.665518045,8,23
run-2020-2-28-10-29-56.665518045,9,26
run-2020-2-28-10-29-56.665518045,10,28
run-2020-2-28-10-29-56.665518045,11,34
run-2020-2-28-10-29-56.665518045,12,36
run-2020-2-28-10-29-56.665518045,13,32
run-2020-2-28-10-29-56.665518045,14,31
run-2020-2-28-10-29-56.665518045,15,38
run-2020-2-28-10-29-56.665518045,16,41
run-2020-2-28-10-29-56.665518045,17,43
run-2020-2-28-10-29-56.665518045,18,42
run-2020-2-28-10-29-56.665518045,19,45
run-2020-2-28-10-29-56.665518045,20,47
run-2020-2-28-10-29-56.665518045,21,43
run-2020-2-28-10-29-56.665518045,22,46
run-2020-2-28-10-29-56.665518045,23,48
run-2020-2-28-10-29-56.665518045,24,46
run-2020-2-28-10-29-56.665518045,25,52
run-2020-2-28-10-29-56.665518045,26,56
run-2020-2-28-10-29-56.665518045,27,54
run-2020-2-28-10-29-56.665518045,28,58
run-2020-2-28-10-29-56.665518045,29,57
run-2020-2-28-10-29-56.665518045,30,54
run-2020-2-28-10-29-56.665518045,31,56
run-2020-2-28-10-29-56.665518045,32,54
run-2020-2-28-10-29-56.665518045,33,57
run-2020-2-28-10-29-56.665518045,34,56
run-2020-2-28-10-29-56.665518045,35,58
run-2020-2-28-10-29-56.665518045,36,60
run-2020-2-28-10-29-56.665518045,37,62
run-2020-2-28-10-29-56.665518045,38,62
run-2020-2-28-10-29-56.665518045,39,62
run-2020-2-28-10-29-56.665518045,40,64
run-2020-2-28-10-29-56.665518045,41,62
run-2020-2-28-10-29-56.665518045,42,60
run-2020-2-28-10-29-56.665518045,43,59
run-2020-2-28-10-29-56.665518045,44,59
run-2020-2-28-10-29-56.665518045,45,60
run-2020-2-28-10-29-56.665518045,46,64
run-2020-2-28-10-29-56.665518045,47,65
run-2020-2-28-10-29-56.665518045,48,64
run-2020-2-28-10-29-56.665518045,49,67
run-2020-2-28-10-29-56.665518045,50,65
run-2020-2-28-10-29-56.665518045,51,65
run-2020-2-28-10-29-56.665518045,52,64
run-2020-2-28-10-29-56.665518045,53,62
run-2020-2-28-10-29-56.665518045,54,57
run-2020-2-28-10-29-56.665518045,55,58
run-2020-2-28-10-29-56.665518045,56,58
run-2020-2-28-10-29-56.665518045,57,56
run-2020-2-28-10-29-56.665518045,58,58
run-2020-2-28-10-29-56.665518045,59,61
run-2020-2-28-10-29-56.665518045,60,61
run-2020-2-28-10-29-56.665518045,61,60
run-2020-2-28-10-29-56.665518045,62,58
run-2020-2-28-10-29-56.665518045,63,56
run-2020-2-28-10-29-56.665518045,64,54
run-2020-2-28-10-29-56.665518045,65,53
run-2020-2-28-10-29-56.665518045,66,53
run-2020-2-28-10-29-56.665518045,67,57
run-2020-2-28-10-29-56.665518045,68,55
run-2020-2-28-10-29-56.665518045,69,59
run-2020-2-28-10-29-56.665518045,70,62
run-2020-2-28-10-29-56.665518045,71,62
run-2020-2-28-10-29-56.665518045,72,59
run-2020-2-28-10-29-56.665518045,73,56
run-2020-2-28-10-29-56.665518045,74,60
run-2020-2-28-10-29-56.665518045,75,63
run-2020-2-28-10-29-56.665518045,76,57
run-2020-2-28-10-29-56.665518045,77,51
run-2020-2-28-10-29-56.665518045,78,48
run-2020-2-28-10-29-56.665518045,79,49
run-2020-2-28-10-29-56.665518045,80,51
run-2020-2-28-10-29-56.665518045,81,53
run-2020-2-28-10-29-56.665518045,82,51
run-2020-2-28-10-29-56.665518045,83,52
run-2020-2-28-10-29-56.665518045,84,54
run-2020-2-28-10-29-56.665518045,85,54
run-2020-2-28-10-29-56.665518045,86,52
run-2020-2-28-10-29-56.665518045,87,57
run-2020-2-28-10-29-56.665518045,88,58
run-2020-2-28-10-29-56.665518045,89,63
run-2020-2-28-10-29-56.665518045,90,59
run-2020-2-28-10-29-56.665518045,91,54
run-2020-2-28-10-29-56.665518045,92,57
run-2020-2-28-10-29-56.665518045,93,58
run-2020-2-28-10-29-56.665518045,94,56
run-2020-2-28-10-29-56.665518045,95,54
run-2020-2-28-10-29-56.665518045,96,58
run-2020-2-28-10-29-56.665518045,97,57
run-2020-2-28-10-29-56.665518045,98,61
run-2020-2-28-10-29-56.665518045,99,64
run-2020-2-28-10-29-56.665518045,100,61
