Source,Target
5a208f64-5258-11ea-87c2-fb408fa73fbb,5a21d7b6-5258-11ea-b8c5-87cdefb509d3
5a1fe870-5258-11ea-8294-5f92f3c5ffc3,5a21e620-5258-11ea-9f69-837bcd73da29
5a1fe870-5258-11ea-8294-5f92f3c5ffc3,5a21fa52-5258-11ea-a789-4302f61035c0
5a1ff432-5258-11ea-bb89-8f55d854b8b4,5a22066e-5258-11ea-96ee-030121753ea6
5a1ecce2-5258-11ea-8f0b-67e653f3b6e2,5a22160e-5258-11ea-9b2a-a7c6045c80b2
5a1ed7e6-5258-11ea-8cd2-dbe85b51b429,5a2224d2-5258-11ea-ac2e-0ffd1874b3fe
5a1ed7e6-5258-11ea-8cd2-dbe85b51b429,5a2241a6-5258-11ea-9bce-93d40b764d66
5a214e2c-5258-11ea-8eb2-23b21c05c3bc,5a2248a4-5258-11ea-b5d0-4376bbfdd695
5a1ff432-5258-11ea-bb89-8f55d854b8b4,5a22561e-5258-11ea-8bad-6f74434b12bb
5a214e2c-5258-11ea-8eb2-23b21c05c3bc,5a226262-5258-11ea-92da-1b6a8043a6e2
5a1e8372-5258-11ea-97b9-af8bd015afc4,5a226d2a-5258-11ea-a4ac-3f2daa4e7a86
5a1f9168-5258-11ea-9302-9b6d16883682,5a2282ec-5258-11ea-979d-371da68e7ab8
5a219710-5258-11ea-be6e-574b2221cc44,5a228ea4-5258-11ea-a580-174146823822
5a2248a4-5258-11ea-b5d0-4376bbfdd695,5a22a722-5258-11ea-9f7b-8f5aa314608b
5a2174f6-5258-11ea-9e39-673c86f8a320,5a22c05e-5258-11ea-b29a-270e37e8a6a0
5a21c19a-5258-11ea-b4ad-271b0ee73ecb,5a22cc52-5258-11ea-979a-3fc267512cab
5a1f014e-5258-11ea-8858-ab62d68a1ba3,5a22d5ee-5258-11ea-8934-6f8e876d1ec0
5a1ed7e6-5258-11ea-8cd2-dbe85b51b429,5a22e0fc-5258-11ea-aed0-e733ecf5f159
5a1ea5f0-5258-11ea-a346-f3e7c334a4e8,5a22f1aa-5258-11ea-ac63-83b7ee8f99c9
5a213ca2-5258-11ea-8866-d7870677fc95,5a22fdbc-5258-11ea-9aa8-0b4ef85d151b
5a22c05e-5258-11ea-b29a-270e37e8a6a0,5a230938-5258-11ea-8f52-f3beae36589d
5a203442-5258-11ea-840e-b7dcba1df76c,5a2314aa-5258-11ea-8beb-1be3d676889d
5a1fe870-5258-11ea-8294-5f92f3c5ffc3,5a232648-5258-11ea-8df4-07e539d2fc6c
5a22a722-5258-11ea-9f7b-8f5aa314608b,5a233afc-5258-11ea-83b3-03633574031f
5a2224d2-5258-11ea-ac2e-0ffd1874b3fe,5a234682-5258-11ea-bb6f-3791a387f2f7
5a21b5a6-5258-11ea-be75-671351fd1a4f,5a235ac8-5258-11ea-b8be-e7f7c8fe72d3
5a22cc52-5258-11ea-979a-3fc267512cab,5a235172-5258-11ea-af55-bbc8722736d1
5a2108a4-5258-11ea-8ea5-53fb0131737b,5a2367b6-5258-11ea-9d70-27df1514808b
5a217fc8-5258-11ea-9bb9-f78d6eb2de4f,5a2373d2-5258-11ea-81a6-275b1b325aee
5a235ac8-5258-11ea-b8be-e7f7c8fe72d3,5a237f08-5258-11ea-bfc6-e7f508f78ce8
5a22cc52-5258-11ea-979a-3fc267512cab,5a2389e4-5258-11ea-9a05-871ad118f113
5a1fd10a-5258-11ea-b616-3b2cbe997e5c,5a239baa-5258-11ea-9296-6b4b85f94a43
5a2174f6-5258-11ea-9e39-673c86f8a320,5a23ab2c-5258-11ea-bd84-2f5b474dde4a
5a1ef3e8-5258-11ea-88fa-539a7862158f,5a23ba36-5258-11ea-895c-ebbffbb2c75a
5a208f64-5258-11ea-87c2-fb408fa73fbb,5a23c422-5258-11ea-a062-270f491eb12d
5a1fb4d6-5258-11ea-a88e-c75dff6acb05,5a23cf9e-5258-11ea-9833-134a754eade4
5a2314aa-5258-11ea-8beb-1be3d676889d,5a23f29e-5258-11ea-a6af-5b452ca623fe
5a20faa8-5258-11ea-bdf0-0f9c4cd1020a,5a23ff6e-5258-11ea-b3be-476befe19536
5a22e0fc-5258-11ea-aed0-e733ecf5f159,5a240946-5258-11ea-a53c-676b4f237227
5a1fd10a-5258-11ea-b616-3b2cbe997e5c,5a241788-5258-11ea-9091-2b0de76019a9
5a240946-5258-11ea-a53c-676b4f237227,5a2422be-5258-11ea-a429-a7c5baf3ea5c
5a1f014e-5258-11ea-8858-ab62d68a1ba3,5a242dea-5258-11ea-98fd-973e96dbc73b
5a1f8682-5258-11ea-9a12-f3d6e362db88,5a243902-5258-11ea-8835-a35911960f36
5a217fc8-5258-11ea-9bb9-f78d6eb2de4f,5a2444d8-5258-11ea-8875-d73f5dce5f23
5a23ab2c-5258-11ea-bd84-2f5b474dde4a,5a24522a-5258-11ea-9270-9b9ca2fd4760
5a1f50f4-5258-11ea-95fe-1733aaf2d0be,5a245cde-5258-11ea-a5b4-b7d556f87428
5a2174f6-5258-11ea-9e39-673c86f8a320,5a247020-5258-11ea-9f53-538c6184fb7a
5a22a722-5258-11ea-9f7b-8f5aa314608b,5a248f6a-5258-11ea-a568-cb3b38980538
5a203442-5258-11ea-840e-b7dcba1df76c,5a248268-5258-11ea-a488-17ecf9905965
5a235ac8-5258-11ea-b8be-e7f7c8fe72d3,5a249e06-5258-11ea-9abf-0b2330485297
5a22c05e-5258-11ea-b29a-270e37e8a6a0,5a24a8f6-5258-11ea-8ef9-2bc9d858168c
5a23cf9e-5258-11ea-9833-134a754eade4,5a24b7ce-5258-11ea-bf46-e7e2c04cf214
5a21e620-5258-11ea-9f69-837bcd73da29,5a24caf2-5258-11ea-966e-27420a572d22
5a233afc-5258-11ea-83b3-03633574031f,5a24da24-5258-11ea-b1fd-2f53955d6dbc
5a21fa52-5258-11ea-a789-4302f61035c0,5a24e53c-5258-11ea-95d8-579dbb353b11
5a1ec152-5258-11ea-99bc-6ba3577cad7e,5a24f0cc-5258-11ea-998d-efb02708280d
5a1f101c-5258-11ea-9e43-6b40043e601d,5a24fe82-5258-11ea-a74c-b7ab86b5a8f5
5a21aa5c-5258-11ea-808b-07aa1a716f67,5a250760-5258-11ea-892f-ffba70df24af
5a1f8682-5258-11ea-9a12-f3d6e362db88,5a2512c8-5258-11ea-8cc6-673a1b7e2881
5a1f014e-5258-11ea-8858-ab62d68a1ba3,5a252bf0-5258-11ea-8c41-43515acb72b0
5a230938-5258-11ea-8f52-f3beae36589d,5a253a6e-5258-11ea-8294-c38136b302aa
5a20233a-5258-11ea-9b68-f37acb686427,5a254b4e-5258-11ea-8510-27eff55e4113
5a248268-5258-11ea-a488-17ecf9905965,5a2558dc-5258-11ea-a601-53e180b4258c
5a20adfa-5258-11ea-b5a2-2bfe7a92d1de,5a256b88-5258-11ea-8fc0-17009e277234
5a1ef3e8-5258-11ea-88fa-539a7862158f,5a257470-5258-11ea-aab0-e75d007eda10
5a235172-5258-11ea-af55-bbc8722736d1,5a258064-5258-11ea-bfa9-9b8c092ebf7c
5a254b4e-5258-11ea-8510-27eff55e4113,5a258d2a-5258-11ea-8279-8faff6bd7976
5a23ab2c-5258-11ea-bd84-2f5b474dde4a,5a2598ba-5258-11ea-a778-6fea11ec3dfe
5a1fd10a-5258-11ea-b616-3b2cbe997e5c,5a25a3c8-5258-11ea-a366-fb094fcce8bb
5a2314aa-5258-11ea-8beb-1be3d676889d,5a25ae18-5258-11ea-ba46-33a17318e2a9
5a256b88-5258-11ea-8fc0-17009e277234,5a25cdda-5258-11ea-80b9-a700a537c93c
5a226d2a-5258-11ea-a4ac-3f2daa4e7a86,5a25dad2-5258-11ea-8aa1-23d9943ea3fd
5a1fc066-5258-11ea-9a34-075adf914eff,5a25e7ac-5258-11ea-95ac-abc3eb1d9988
5a1e8372-5258-11ea-97b9-af8bd015afc4,5a25f350-5258-11ea-8ef4-ffa3d0e7ada7
5a21e620-5258-11ea-9f69-837bcd73da29,5a25ff3a-5258-11ea-8375-2b9a84d9aa36
5a217fc8-5258-11ea-9bb9-f78d6eb2de4f,5a260ce6-5258-11ea-a915-eb4dc43fa532
5a25cdda-5258-11ea-80b9-a700a537c93c,5a261786-5258-11ea-b28b-973b77cc423f
5a207af6-5258-11ea-878d-bfd3e0e72a7b,5a262294-5258-11ea-b989-578f62374732
5a20adfa-5258-11ea-b5a2-2bfe7a92d1de,5a263176-5258-11ea-b85d-c70dd25cb788
5a1f60da-5258-11ea-b829-27155c14edee,5a26409e-5258-11ea-b182-bf024b84c695
5a241788-5258-11ea-9091-2b0de76019a9,5a264b3e-5258-11ea-beb4-f7bbee184032
5a2282ec-5258-11ea-979d-371da68e7ab8,5a265c0a-5258-11ea-8e1d-7353ed5eed94
5a235172-5258-11ea-af55-bbc8722736d1,5a2664a2-5258-11ea-a7bd-6f0853e04133
5a24522a-5258-11ea-9270-9b9ca2fd4760,5a266f92-5258-11ea-84ed-1f43257104a0
5a253a6e-5258-11ea-8294-c38136b302aa,5a2680e0-5258-11ea-876c-c76173c74cd9
5a20233a-5258-11ea-9b68-f37acb686427,5a268ba8-5258-11ea-b81d-4f272034bd81
5a22160e-5258-11ea-9b2a-a7c6045c80b2,5a269670-5258-11ea-a088-57d14502bbae
5a2174d8-5258-11ea-b787-af78fb4d63a6,5a26a890-5258-11ea-b7e6-2361d4518fd3
5a206656-5258-11ea-9585-638da5f21e09,5a26be84-5258-11ea-959c-276a030e7432
5a248268-5258-11ea-a488-17ecf9905965,5a26c9a6-5258-11ea-8295-9708ee436e87
5a262294-5258-11ea-b989-578f62374732,5a26d7c0-5258-11ea-aad5-53c1a0be07b7
5a1f3830-5258-11ea-ab58-ef02e584ead8,5a26f11a-5258-11ea-89c6-9f10ae85f15f
5a248f6a-5258-11ea-a568-cb3b38980538,5a26ff2a-5258-11ea-a300-ff1172cb018f
5a240946-5258-11ea-a53c-676b4f237227,5a2708bc-5258-11ea-80b1-b36908d7b2e6
5a26be84-5258-11ea-959c-276a030e7432,5a27137a-5258-11ea-90ca-73b6e7032a0c
5a2282ec-5258-11ea-979d-371da68e7ab8,5a271f00-5258-11ea-a6b1-5bf0ed24a539
5a1ff432-5258-11ea-bb89-8f55d854b8b4,5a272be4-5258-11ea-90ae-2313e039f106
5a2108a4-5258-11ea-8ea5-53fb0131737b,5a273de6-5258-11ea-b6fa-873e70f7e67d
5a219710-5258-11ea-be6e-574b2221cc44,5a274ade-5258-11ea-abc5-1b176f7a8620
5a1ec152-5258-11ea-99bc-6ba3577cad7e,5a275ee8-5258-11ea-a9d2-3f6a5f157848
5a22f1aa-5258-11ea-ac63-83b7ee8f99c9,5a275560-5258-11ea-85aa-6396aff83d44
5a258064-5258-11ea-bfa9-9b8c092ebf7c,5a2772de-5258-11ea-8638-ab57451b7d1a
5a1f3830-5258-11ea-ab58-ef02e584ead8,5a278a76-5258-11ea-89f3-179390b8130e
5a2367b6-5258-11ea-9d70-27df1514808b,5a278a76-5258-11ea-8f57-0364136bc5f5
5a1f9168-5258-11ea-9302-9b6d16883682,5a2798a4-5258-11ea-a269-67ff78062428
5a26a890-5258-11ea-b7e6-2361d4518fd3,5a27a416-5258-11ea-87c8-1f76591834ec
5a258d2a-5258-11ea-8279-8faff6bd7976,5a27b32a-5258-11ea-a762-fba42202d7cf
5a20233a-5258-11ea-9b68-f37acb686427,5a27be56-5258-11ea-adb1-cf717be823e1
5a23cf9e-5258-11ea-9833-134a754eade4,5a27c98c-5258-11ea-8616-2b6be788c923
5a22f1aa-5258-11ea-ac63-83b7ee8f99c9,5a27d7ec-5258-11ea-9b9b-0ff592d0934d
5a22c05e-5258-11ea-b29a-270e37e8a6a0,5a27ea16-5258-11ea-9602-fb215fbcd771
5a1fb4d6-5258-11ea-a88e-c75dff6acb05,5a27f754-5258-11ea-9e92-13b8e2303b01
5a226262-5258-11ea-92da-1b6a8043a6e2,5a2801f4-5258-11ea-8320-1fde5366649c
5a25ff3a-5258-11ea-8375-2b9a84d9aa36,5a2811da-5258-11ea-9f66-03c1e5751538
5a274ade-5258-11ea-abc5-1b176f7a8620,5a282364-5258-11ea-9082-f70be0c988b7
5a208f64-5258-11ea-87c2-fb408fa73fbb,5a282ec2-5258-11ea-b748-d797eb92ce5c
5a2598ba-5258-11ea-a778-6fea11ec3dfe,5a28391c-5258-11ea-9198-7b5eaaa33708
5a22d5ee-5258-11ea-8934-6f8e876d1ec0,5a284560-5258-11ea-b947-a32799b35f88
5a2558dc-5258-11ea-a601-53e180b4258c,5a285230-5258-11ea-a79b-8fa324940f50
5a1f8682-5258-11ea-9a12-f3d6e362db88,5a287846-5258-11ea-8d09-6399fc7494ab
5a261786-5258-11ea-b28b-973b77cc423f,5a285d3e-5258-11ea-9886-23aa4630f769
5a1eb48c-5258-11ea-a457-27eb95f5e056,5a286892-5258-11ea-9dce-ef88f63c660b
5a1fa2a2-5258-11ea-9b73-4fcb88a9df98,5a28a1f4-5258-11ea-a3cd-47739ebe14b0
5a214e2c-5258-11ea-8eb2-23b21c05c3bc,5a28ad20-5258-11ea-b799-1ba56122f940
5a25ae18-5258-11ea-ba46-33a17318e2a9,5a28b6f8-5258-11ea-8fbe-0b3f66cb82b9
5a1fc066-5258-11ea-9a34-075adf914eff,5a28c5d0-5258-11ea-8ac1-6b669c9f193f
5a1ecce2-5258-11ea-8f0b-67e653f3b6e2,5a28d020-5258-11ea-abbf-2fe904426b22
5a28ad20-5258-11ea-b799-1ba56122f940,5a28d8f4-5258-11ea-b5a9-af5e50a20f6e
5a285d3e-5258-11ea-9886-23aa4630f769,5a28e34e-5258-11ea-a064-6fee90ad09e4
5a214e2c-5258-11ea-8eb2-23b21c05c3bc,5a28ee52-5258-11ea-b33b-ab3999d5ec97
5a258d2a-5258-11ea-8279-8faff6bd7976,5a290022-5258-11ea-8ae6-a7e004776ab7
5a27b32a-5258-11ea-a762-fba42202d7cf,5a29109e-5258-11ea-ab9c-5bda6b8801ce
5a253a6e-5258-11ea-8294-c38136b302aa,5a291f9e-5258-11ea-9e73-0fe68e35da56
5a228ea4-5258-11ea-a580-174146823822,5a292e8a-5258-11ea-b709-a34b649f4faa
5a206656-5258-11ea-9585-638da5f21e09,5a2939f2-5258-11ea-a798-fb69b3938599
5a262294-5258-11ea-b989-578f62374732,5a294636-5258-11ea-9c9a-77d382cea20e
5a261786-5258-11ea-b28b-973b77cc423f,5a2950fe-5258-11ea-a312-533bbd8b62e6
5a21e620-5258-11ea-9f69-837bcd73da29,5a295a0e-5258-11ea-b705-b3f6d4739087
5a1f3830-5258-11ea-ab58-ef02e584ead8,5a296558-5258-11ea-8134-b7322f0ac107
5a21aa5c-5258-11ea-808b-07aa1a716f67,5a2974da-5258-11ea-af56-ef946554e771
5a24522a-5258-11ea-9270-9b9ca2fd4760,5a2991d6-5258-11ea-83fb-f343e50f67b4
5a24caf2-5258-11ea-966e-27420a572d22,5a29a658-5258-11ea-aca2-fb807b1682b4
5a24da24-5258-11ea-b1fd-2f53955d6dbc,5a29b026-5258-11ea-8535-cf025322a0bc
5a26d7c0-5258-11ea-aad5-53c1a0be07b7,5a29bb66-5258-11ea-a71b-770d4d122d2b
5a295a0e-5258-11ea-b705-b3f6d4739087,5a29cba6-5258-11ea-8e5e-1f6afadddab6
5a1f50f4-5258-11ea-95fe-1733aaf2d0be,5a29d592-5258-11ea-aba2-8715279d17c1
5a1ff432-5258-11ea-bb89-8f55d854b8b4,5a29e172-5258-11ea-839f-13a5855c2fcb
5a2950fe-5258-11ea-a312-533bbd8b62e6,5a29eb18-5258-11ea-a66f-f788355124af
5a2512c8-5258-11ea-8cc6-673a1b7e2881,5a29f6ee-5258-11ea-959b-df4400c2b28b
5a285230-5258-11ea-a79b-8fa324940f50,5a2a05ee-5258-11ea-ab80-dbaca2f17f70
5a22066e-5258-11ea-96ee-030121753ea6,5a2a1764-5258-11ea-bb70-d3684f0492ed
5a22160e-5258-11ea-9b2a-a7c6045c80b2,5a2a353c-5258-11ea-9966-af5285985ea1
5a2664a2-5258-11ea-a7bd-6f0853e04133,5a2a3f96-5258-11ea-879e-eb2b64c77b1c
5a27c98c-5258-11ea-8616-2b6be788c923,5a2a4b44-5258-11ea-811e-d3d7315228c4
5a24b7ce-5258-11ea-bf46-e7e2c04cf214,5a2a5986-5258-11ea-90a5-9b5181d0ed66
5a1eb48c-5258-11ea-a457-27eb95f5e056,5a2a658e-5258-11ea-b839-27d4da7d7c4a
5a29f6ee-5258-11ea-959b-df4400c2b28b,5a2a7128-5258-11ea-b2ee-8b2f5bd222df
5a27ea16-5258-11ea-9602-fb215fbcd771,5a2a7da8-5258-11ea-a6a7-4f73cae8918d
5a212f64-5258-11ea-a4cf-7bebd014adf4,5a2a86cc-5258-11ea-b61f-9f2e85d60671
5a21e620-5258-11ea-9f69-837bcd73da29,5a2a9216-5258-11ea-afec-53d18e63f17f
5a235172-5258-11ea-af55-bbc8722736d1,5a2aa97c-5258-11ea-8cdf-33a7276183b9
5a29a658-5258-11ea-aca2-fb807b1682b4,5a2abdc2-5258-11ea-ae48-af90d24e5c23
5a1ed7e6-5258-11ea-8cd2-dbe85b51b429,5a2ac984-5258-11ea-b7f8-5f7fe7bd4216
5a2116e6-5258-11ea-9bfa-4f22b34b99c4,5a2ad3e8-5258-11ea-870a-1308223b6438
5a2174f6-5258-11ea-9e39-673c86f8a320,5a2adff0-5258-11ea-86d3-47255b2eebf9
5a250760-5258-11ea-892f-ffba70df24af,5a2aee00-5258-11ea-bd1c-57990d98a833
5a1ff432-5258-11ea-bb89-8f55d854b8b4,5a2af80a-5258-11ea-85ce-83982b9fa372
5a28b6f8-5258-11ea-8fbe-0b3f66cb82b9,5a2b034a-5258-11ea-9717-e35ed4f5df99
5a2a4b44-5258-11ea-811e-d3d7315228c4,5a2b1434-5258-11ea-86be-7fef44929990
5a23ab2c-5258-11ea-bd84-2f5b474dde4a,5a2b267c-5258-11ea-a889-b375e8cc073c
5a240946-5258-11ea-a53c-676b4f237227,5a2b36da-5258-11ea-813c-13c621dfddde
5a24a8f6-5258-11ea-8ef9-2bc9d858168c,5a2b4120-5258-11ea-8273-b37f1842ff8e
5a27b32a-5258-11ea-a762-fba42202d7cf,5a2b4b20-5258-11ea-8efb-23ce9efcacd9
5a226262-5258-11ea-92da-1b6a8043a6e2,5a2b5b56-5258-11ea-90f6-fb3f40664e0d
5a1fd10a-5258-11ea-b616-3b2cbe997e5c,5a2b6556-5258-11ea-b977-cfdd8ab7ff23
5a26d7c0-5258-11ea-aad5-53c1a0be07b7,5a2b6f9c-5258-11ea-abc5-1f38eac44b8b
5a1ea5f0-5258-11ea-a346-f3e7c334a4e8,5a2b8072-5258-11ea-a0c5-0b0327ccb3bc
5a2b6556-5258-11ea-b977-cfdd8ab7ff23,5a2b8ffe-5258-11ea-a8f5-f36df7dc155a
5a28a1f4-5258-11ea-a3cd-47739ebe14b0,5a2b9cd8-5258-11ea-9b9d-c30e98ea78eb
5a252bf0-5258-11ea-8c41-43515acb72b0,5a2ba8e0-5258-11ea-b212-7bc4508a454c
5a25ff3a-5258-11ea-8375-2b9a84d9aa36,5a2bbbdc-5258-11ea-99b3-bba5e8d56a89
5a1ff432-5258-11ea-bb89-8f55d854b8b4,5a2bcaa0-5258-11ea-bcc4-b3d8262eb3c5
5a260ce6-5258-11ea-a915-eb4dc43fa532,5a2bd388-5258-11ea-bc39-63c185c2f58d
5a291f9e-5258-11ea-9e73-0fe68e35da56,5a2bde3c-5258-11ea-82cc-bf7798eb23d6
5a2373d2-5258-11ea-81a6-275b1b325aee,5a2befbc-5258-11ea-ab4c-7baaceb60770
5a2174f6-5258-11ea-9e39-673c86f8a320,5a2bfd9a-5258-11ea-bb34-ebf5dbd5b1b0
5a208f64-5258-11ea-87c2-fb408fa73fbb,5a2c0966-5258-11ea-b4f7-5f0bc2a9019b
5a2116e6-5258-11ea-9bfa-4f22b34b99c4,5a2c1370-5258-11ea-a539-37910e1b71a1
5a2a05ee-5258-11ea-ab80-dbaca2f17f70,5a2c2360-5258-11ea-8c52-bfb59ec29798
5a25e7ac-5258-11ea-95ac-abc3eb1d9988,5a2c3648-5258-11ea-a1d8-5b7074ca766f
5a274ade-5258-11ea-abc5-1b176f7a8620,5a2c4002-5258-11ea-a4c8-f70c256cb38d
5a26c9a6-5258-11ea-8295-9708ee436e87,5a2c4b60-5258-11ea-8fac-8f0d0cd0ec6c
5a273de6-5258-11ea-b6fa-873e70f7e67d,5a2c6d3e-5258-11ea-bd21-b750160b037c
5a29109e-5258-11ea-ab9c-5bda6b8801ce,5a2c7bb2-5258-11ea-8aa9-6f207e7fa2e3
5a22a722-5258-11ea-9f7b-8f5aa314608b,5a2c8594-5258-11ea-817a-2f396fbca1a5
5a29eb18-5258-11ea-a66f-f788355124af,5a2c8e7c-5258-11ea-847f-3b5bc7efb620
5a285d3e-5258-11ea-9886-23aa4630f769,5a2c9a5c-5258-11ea-9d3a-f36b388e29a4
5a25ae18-5258-11ea-ba46-33a17318e2a9,5a2ca8c6-5258-11ea-b822-2f35f409c07e
5a2811da-5258-11ea-9f66-03c1e5751538,5a2cb276-5258-11ea-b078-9fc8e9d954f1
5a233afc-5258-11ea-83b3-03633574031f,5a2cbcee-5258-11ea-ab0e-930e775d3778
5a2b5b56-5258-11ea-90f6-fb3f40664e0d,5a2cd120-5258-11ea-9c9c-b7bd90c3b760
5a26c9a6-5258-11ea-8295-9708ee436e87,5a2cdff8-5258-11ea-93b1-53352407be11
5a1fe870-5258-11ea-8294-5f92f3c5ffc3,5a2cf4b6-5258-11ea-b82e-93aea90e58ae
5a2a353c-5258-11ea-9966-af5285985ea1,5a2d015e-5258-11ea-a6dd-d79219d8b575
5a2a7da8-5258-11ea-a6a7-4f73cae8918d,5a2d0d48-5258-11ea-9a46-270f8549c012
5a2010de-5258-11ea-8b36-9789ca7bfa44,5a2d184c-5258-11ea-80f7-f7bc7e097210
5a2314aa-5258-11ea-8beb-1be3d676889d,5a2d22ce-5258-11ea-b37c-03b3c5b3b3ba
5a2a3f96-5258-11ea-879e-eb2b64c77b1c,5a2d312e-5258-11ea-9e32-7f272eb9007a
5a24a8f6-5258-11ea-8ef9-2bc9d858168c,5a2d3cf0-5258-11ea-ab5d-f7da86edd20f
5a25cdda-5258-11ea-80b9-a700a537c93c,5a2d4bdc-5258-11ea-8814-8f405f2c3e72
5a2b36da-5258-11ea-813c-13c621dfddde,5a2d5c76-5258-11ea-b92d-5fc7c8b11a16
5a2b5b56-5258-11ea-90f6-fb3f40664e0d,5a2d6cac-5258-11ea-bfdc-134abccde393
5a23c422-5258-11ea-a062-270f491eb12d,5a2d821e-5258-11ea-8d3d-bfcb306d1716
5a2950fe-5258-11ea-a312-533bbd8b62e6,5a2d8dcc-5258-11ea-8de0-872fe3e5933d
5a29eb18-5258-11ea-a66f-f788355124af,5a2d98b2-5258-11ea-9003-1722ff381f7d
5a2d3cf0-5258-11ea-ab5d-f7da86edd20f,5a2da5e6-5258-11ea-8f32-e7b9864857ec
5a23c422-5258-11ea-a062-270f491eb12d,5a2db31a-5258-11ea-b2e5-9383e6969037
5a2bbbdc-5258-11ea-99b3-bba5e8d56a89,5a2dc3aa-5258-11ea-b9df-63d7c5b1cf8c
5a26f11a-5258-11ea-89c6-9f10ae85f15f,5a2dca6c-5258-11ea-8882-d36a1b218085
5a2a658e-5258-11ea-b839-27d4da7d7c4a,5a2dd606-5258-11ea-b1af-f7e8c8d9a22c
5a265c0a-5258-11ea-8e1d-7353ed5eed94,5a2deb1e-5258-11ea-aca6-0bfcf7c7841a
5a2ba8e0-5258-11ea-b212-7bc4508a454c,5a2df686-5258-11ea-8417-2f7ffbcaafb5
5a282ec2-5258-11ea-b748-d797eb92ce5c,5a2e04e6-5258-11ea-b158-bb493feecccc
5a2ad3e8-5258-11ea-870a-1308223b6438,5a2e1562-5258-11ea-ad99-dfaa7a1cd022
5a226d2a-5258-11ea-a4ac-3f2daa4e7a86,5a2e2606-5258-11ea-bf2f-2bb471120b33
5a1e8372-5258-11ea-97b9-af8bd015afc4,5a2e30c4-5258-11ea-bffe-df6e0da0929a
5a2cdff8-5258-11ea-93b1-53352407be11,5a2e3baa-5258-11ea-ab42-7fe39d9ec1e2
5a28e34e-5258-11ea-a064-6fee90ad09e4,5a2e4686-5258-11ea-9c29-9f27d5655bd2
5a2befbc-5258-11ea-ab4c-7baaceb60770,5a2e561c-5258-11ea-8679-8fa410295d22
5a22a722-5258-11ea-9f7b-8f5aa314608b,5a2e6788-5258-11ea-9d0e-b380e52add4f
5a1f014e-5258-11ea-8858-ab62d68a1ba3,5a2e71b0-5258-11ea-814f-1b0ba560ee1d
5a20faa8-5258-11ea-bdf0-0f9c4cd1020a,5a2e7c6e-5258-11ea-bb48-5f2e6f469001
5a22cc52-5258-11ea-979a-3fc267512cab,5a2e9406-5258-11ea-8cb0-437b3b20086b
5a25a3c8-5258-11ea-a366-fb094fcce8bb,5a2ea428-5258-11ea-814d-4b2aad627d90
5a2680e0-5258-11ea-876c-c76173c74cd9,5a2eb850-5258-11ea-a0c1-abfbfb933a73
5a2512c8-5258-11ea-8cc6-673a1b7e2881,5a2ec46c-5258-11ea-b168-db1496254d9d
5a242dea-5258-11ea-98fd-973e96dbc73b,5a2ee2c6-5258-11ea-aa30-a320cbbe3dd3
5a2cd120-5258-11ea-9c9c-b7bd90c3b760,5a2ed4ca-5258-11ea-aed2-7b9bb6729704
5a2a5986-5258-11ea-90a5-9b5181d0ed66,5a2eef0a-5258-11ea-8af4-5bde5d35e316
5a258064-5258-11ea-bfa9-9b8c092ebf7c,5a2efcac-5258-11ea-ae6e-fb33e289faba
5a2d821e-5258-11ea-8d3d-bfcb306d1716,5a2f0800-5258-11ea-a3a0-9fb869ead0eb
5a21aa5c-5258-11ea-808b-07aa1a716f67,5a2f16e2-5258-11ea-80c7-b32856aa2647
5a2b034a-5258-11ea-9717-e35ed4f5df99,5a2f20ce-5258-11ea-baaf-0f290fe25bbc
5a2c1370-5258-11ea-a539-37910e1b71a1,5a2f52c4-5258-11ea-8609-cb15471c3d99
5a26c9a6-5258-11ea-8295-9708ee436e87,5a2f5d1e-5258-11ea-b5e1-c31673b5d551
5a1f101c-5258-11ea-9e43-6b40043e601d,5a2f68b8-5258-11ea-906f-cbe8e37915fa
5a2dca6c-5258-11ea-8882-d36a1b218085,5a2f73bc-5258-11ea-9a81-fbde8f14d1ea
5a2b36da-5258-11ea-813c-13c621dfddde,5a2f80b4-5258-11ea-b653-d7d63ff02274
5a2c2360-5258-11ea-8c52-bfb59ec29798,5a2f8cb2-5258-11ea-a1c9-fb2c6261295b
5a27d7ec-5258-11ea-9b9b-0ff592d0934d,5a2f95c2-5258-11ea-b72a-5f6a71094a45
5a242dea-5258-11ea-98fd-973e96dbc73b,5a2fa148-5258-11ea-b0e7-d30d0c8dcb41
5a21b5a6-5258-11ea-be75-671351fd1a4f,5a2fb53e-5258-11ea-8c25-f3a618ae3c8c
5a287846-5258-11ea-8d09-6399fc7494ab,5a2fc506-5258-11ea-9da8-03c2a197af68
5a257470-5258-11ea-aab0-e75d007eda10,5a2fd456-5258-11ea-8766-b71cfe5f0700
5a2389e4-5258-11ea-9a05-871ad118f113,5a2fdf96-5258-11ea-b654-2331b0392623
5a285230-5258-11ea-a79b-8fa324940f50,5a2ff18e-5258-11ea-8645-533a28bc97de
5a2c1370-5258-11ea-a539-37910e1b71a1,5a2ffd14-5258-11ea-90fa-bfee5fc4d4dc
5a2ed4ca-5258-11ea-aed2-7b9bb6729704,5a300e1c-5258-11ea-9fc3-2be8c01da555
5a2aa97c-5258-11ea-8cdf-33a7276183b9,5a3017d6-5258-11ea-a7e0-67dd03f1bd4f
5a2004f4-5258-11ea-8e32-1b25310f2578,5a302352-5258-11ea-90a7-4b229c011277
5a285230-5258-11ea-a79b-8fa324940f50,5a30309a-5258-11ea-8553-63a85920c2b0
5a2f80b4-5258-11ea-b653-d7d63ff02274,5a303bf8-5258-11ea-b7c3-3b5dc425e35c
5a21c19a-5258-11ea-b4ad-271b0ee73ecb,5a304ddc-5258-11ea-9d59-93224f4ac08a
5a2314aa-5258-11ea-8beb-1be3d676889d,5a305b38-5258-11ea-bc58-27e8877acacf
5a20faa8-5258-11ea-bdf0-0f9c4cd1020a,5a306bbe-5258-11ea-930a-8be6cbf8d8bd
5a21b5a6-5258-11ea-be75-671351fd1a4f,5a307ef6-5258-11ea-a079-c367d71dcbc9
5a28ee52-5258-11ea-b33b-ab3999d5ec97,5a308a86-5258-11ea-b231-9bfc775f0c1f
5a1f101c-5258-11ea-9e43-6b40043e601d,5a309b8e-5258-11ea-aad1-8bfbd1af3537
5a1eb48c-5258-11ea-a457-27eb95f5e056,5a30b9fc-5258-11ea-9a70-238266ad1c44
5a21ce06-5258-11ea-b39d-872f1c9a9926,5a30c730-5258-11ea-b826-fb2db48feb04
5a2772de-5258-11ea-8638-ab57451b7d1a,5a30d234-5258-11ea-86ce-9f3a64e49c9c
5a237f08-5258-11ea-bfc6-e7f508f78ce8,5a30df86-5258-11ea-a043-572ea6bf936f
5a2664a2-5258-11ea-a7bd-6f0853e04133,5a30eb48-5258-11ea-a017-f396eb642d7b
5a28d020-5258-11ea-abbf-2fe904426b22,5a30f71e-5258-11ea-8ca6-337132b8cf13
5a26be84-5258-11ea-959c-276a030e7432,5a310498-5258-11ea-8cc1-936110044be2
5a28391c-5258-11ea-9198-7b5eaaa33708,5a310e70-5258-11ea-8190-9b04db554649
5a273de6-5258-11ea-b6fa-873e70f7e67d,5a3119ce-5258-11ea-b43c-afe5de489750
5a2f73bc-5258-11ea-9a81-fbde8f14d1ea,5a313b98-5258-11ea-993e-27e57ef7eb55
5a26409e-5258-11ea-b182-bf024b84c695,5a31498a-5258-11ea-811f-3375a0a2d91b
5a1fb4d6-5258-11ea-a88e-c75dff6acb05,5a3155e2-5258-11ea-bd40-9fce5dae2bb3
5a21b5a6-5258-11ea-be75-671351fd1a4f,5a31623a-5258-11ea-9a44-ef90fb6c9cad
5a25f350-5258-11ea-8ef4-ffa3d0e7ada7,5a316ff0-5258-11ea-9234-d3c2094a219b
5a29cba6-5258-11ea-8e5e-1f6afadddab6,5a317c20-5258-11ea-a4c8-b359c78a02bf
5a22561e-5258-11ea-8bad-6f74434b12bb,5a318634-5258-11ea-a4b0-db2a3861780f
5a2fdf96-5258-11ea-b654-2331b0392623,5a319188-5258-11ea-b126-3718e0934cb6
5a2798a4-5258-11ea-a269-67ff78062428,5a31adc6-5258-11ea-ad3a-179b58a45f6a
5a248268-5258-11ea-a488-17ecf9905965,5a31bc08-5258-11ea-b626-63f0ce3e6a03
5a249e06-5258-11ea-9abf-0b2330485297,5a31d030-5258-11ea-b457-a3a0b8f6b8f1
5a2974da-5258-11ea-af56-ef946554e771,5a31da62-5258-11ea-873e-3373170549f2
5a31bc08-5258-11ea-b626-63f0ce3e6a03,5a31e9ee-5258-11ea-9098-4339123821be
5a22160e-5258-11ea-9b2a-a7c6045c80b2,5a31f5f6-5258-11ea-83ae-2ff93746d533
5a305b38-5258-11ea-bc58-27e8877acacf,5a3205b4-5258-11ea-902a-1711e8cd27b4
5a253a6e-5258-11ea-8294-c38136b302aa,5a321e96-5258-11ea-a943-a38728293cfe
5a258064-5258-11ea-bfa9-9b8c092ebf7c,5a321e50-5258-11ea-ba71-6b377b34b017
5a2d0d48-5258-11ea-9a46-270f8549c012,5a3229cc-5258-11ea-a3a2-ff9e85a52eb7
5a2f20ce-5258-11ea-baaf-0f290fe25bbc,5a323d86-5258-11ea-9495-1397d9e6d9c3
5a308a86-5258-11ea-b231-9bfc775f0c1f,5a325032-5258-11ea-8695-8bfb5846e91f
5a2598ba-5258-11ea-a778-6fea11ec3dfe,5a325af0-5258-11ea-8747-032fc68d4120
5a319188-5258-11ea-b126-3718e0934cb6,5a326e1e-5258-11ea-a054-13a3c6eb299e
5a20da78-5258-11ea-b79e-d7266daa52f7,5a327c1a-5258-11ea-a82a-4f35ff3892d3
5a28d8f4-5258-11ea-b5a9-af5e50a20f6e,5a328cf0-5258-11ea-9456-2755452e3adc
5a2282ec-5258-11ea-979d-371da68e7ab8,5a329b28-5258-11ea-9832-238492bf04dc
5a22cc52-5258-11ea-979a-3fc267512cab,5a32a6fe-5258-11ea-83a1-6761272d2df3
5a319188-5258-11ea-b126-3718e0934cb6,5a32b69e-5258-11ea-a0c8-479660e2def8
5a22c05e-5258-11ea-b29a-270e37e8a6a0,5a32c792-5258-11ea-b495-1bd01a771b5d
5a2fc506-5258-11ea-9da8-03c2a197af68,5a32d520-5258-11ea-aab4-9f64b095987c
5a2367b6-5258-11ea-9d70-27df1514808b,5a32e330-5258-11ea-80ab-3b5244e6c2a6
5a264b3e-5258-11ea-beb4-f7bbee184032,5a32fd3e-5258-11ea-97f6-df77b016315e
5a2fa148-5258-11ea-b0e7-d30d0c8dcb41,5a32f05a-5258-11ea-9b9a-870c87bb5934
5a2d8dcc-5258-11ea-8de0-872fe3e5933d,5a330b1c-5258-11ea-8689-337b58a9acaf
5a272be4-5258-11ea-90ae-2313e039f106,5a331648-5258-11ea-b0d9-d3c0b253d28b
5a2a86cc-5258-11ea-b61f-9f2e85d60671,5a332a7a-5258-11ea-a19d-03ef774e0b2f
5a2fd456-5258-11ea-8766-b71cfe5f0700,5a333b14-5258-11ea-83fc-27c43409a951
5a284560-5258-11ea-b947-a32799b35f88,5a334e74-5258-11ea-a170-37e062cbbe77
5a2dd606-5258-11ea-b1af-f7e8c8d9a22c,5a335dc4-5258-11ea-a3a3-2fb87cf0880f
5a27ea16-5258-11ea-9602-fb215fbcd771,5a336f80-5258-11ea-b85c-f383e1bac4c2
5a32a6fe-5258-11ea-83a1-6761272d2df3,5a337a7a-5258-11ea-821f-67f1b126c1a1
5a28b6f8-5258-11ea-8fbe-0b3f66cb82b9,5a338524-5258-11ea-92ac-c752a02a256d
5a1ff432-5258-11ea-bb89-8f55d854b8b4,5a339122-5258-11ea-a8ad-eb7e3f545860
5a2a9216-5258-11ea-afec-53d18e63f17f,5a33a1d0-5258-11ea-8c36-cfb8372a327a
5a260ce6-5258-11ea-a915-eb4dc43fa532,5a33afcc-5258-11ea-9d46-23370fb2c7b4
5a2a86cc-5258-11ea-b61f-9f2e85d60671,5a33bc38-5258-11ea-a58e-d334861fce84
5a232648-5258-11ea-8df4-07e539d2fc6c,5a33d6b4-5258-11ea-ab0d-b72d245583dd
5a2991d6-5258-11ea-83fb-f343e50f67b4,5a33c7aa-5258-11ea-a893-23a916a5b9f9
5a2174d8-5258-11ea-b787-af78fb4d63a6,5a33e74e-5258-11ea-94bb-03998f61576b
5a29b026-5258-11ea-8535-cf025322a0bc,5a33f838-5258-11ea-9b4a-a75c254c1421
5a253a6e-5258-11ea-8294-c38136b302aa,5a3405ee-5258-11ea-8234-1ff966c5a72b
5a2db31a-5258-11ea-b2e5-9383e6969037,5a341ade-5258-11ea-b10a-2f75dfa4db70
5a253a6e-5258-11ea-8294-c38136b302aa,5a342a4c-5258-11ea-ae24-93f0895ed5a8
5a22f1aa-5258-11ea-ac63-83b7ee8f99c9,5a343cc6-5258-11ea-be0b-9b29ac05dc2e
5a260ce6-5258-11ea-a915-eb4dc43fa532,5a3447fc-5258-11ea-b44d-57d2f6bf9236
5a252bf0-5258-11ea-8c41-43515acb72b0,5a345184-5258-11ea-9b20-5fc56fcd485e
5a32fd3e-5258-11ea-97f6-df77b016315e,5a345de6-5258-11ea-9395-d7efcddfa247
5a29a658-5258-11ea-aca2-fb807b1682b4,5a346c32-5258-11ea-9296-83cb5e3049e5
5a2f73bc-5258-11ea-9a81-fbde8f14d1ea,5a347ae2-5258-11ea-8938-b77b554a3295
5a22fdbc-5258-11ea-9aa8-0b4ef85d151b,5a348a64-5258-11ea-a66e-ab4181a184ec
5a317c20-5258-11ea-a4c8-b359c78a02bf,5a349946-5258-11ea-9942-bb704bb0b352
5a2a1764-5258-11ea-bb70-d3684f0492ed,5a34acce-5258-11ea-a478-cb33f0ee8969
5a2deb1e-5258-11ea-aca6-0bfcf7c7841a,5a34ba5c-5258-11ea-b7ba-073997aeec00
5a20faa8-5258-11ea-bdf0-0f9c4cd1020a,5a34cd26-5258-11ea-b782-1fbed777cfc8
5a3405ee-5258-11ea-8234-1ff966c5a72b,5a34f698-5258-11ea-b63a-976d1127f093
5a253a6e-5258-11ea-8294-c38136b302aa,5a350728-5258-11ea-8c61-a327c623c096
5a2e2606-5258-11ea-bf2f-2bb471120b33,5a350fa2-5258-11ea-a0bc-1baf9f562d92
5a29eb18-5258-11ea-a66f-f788355124af,5a351b96-5258-11ea-8565-ebb248a50231
5a29109e-5258-11ea-ab9c-5bda6b8801ce,5a352708-5258-11ea-b916-9b3ed1282489
5a2d98b2-5258-11ea-9003-1722ff381f7d,5a35318a-5258-11ea-9427-1b7ab3a9d20c
5a2e3baa-5258-11ea-ab42-7fe39d9ec1e2,5a353ae0-5258-11ea-b5be-4b4636bc4fa8
5a21b5a6-5258-11ea-be75-671351fd1a4f,5a354706-5258-11ea-90f2-eb33a5559602
5a21b5a6-5258-11ea-be75-671351fd1a4f,5a356b28-5258-11ea-9b06-1350362c15ad
5a2f5d1e-5258-11ea-b5e1-c31673b5d551,5a357e74-5258-11ea-8b13-e3bfad30095f
5a2f73bc-5258-11ea-9a81-fbde8f14d1ea,5a358e82-5258-11ea-bffc-a30ffeb226a9
5a257470-5258-11ea-aab0-e75d007eda10,5a359d3c-5258-11ea-ad11-5f2007480cc9
5a2558dc-5258-11ea-a601-53e180b4258c,5a35aa7a-5258-11ea-ab8f-9b1ee76eb8b6
5a1f8682-5258-11ea-9a12-f3d6e362db88,5a35b312-5258-11ea-b5dc-1fb6104c2e57
5a2ec46c-5258-11ea-b168-db1496254d9d,5a35bc36-5258-11ea-abed-07751cdb8b4f
5a22fdbc-5258-11ea-9aa8-0b4ef85d151b,5a35c7da-5258-11ea-b53d-ab00d1cd332c
5a242dea-5258-11ea-98fd-973e96dbc73b,5a35d356-5258-11ea-a9b2-975d05fd44b4
5a2f5d1e-5258-11ea-b5e1-c31673b5d551,5a35e454-5258-11ea-9f4a-2f2180c1953c
5a1ed7e6-5258-11ea-8cd2-dbe85b51b429,5a35f8d6-5258-11ea-816c-47c241f453c5
5a357e74-5258-11ea-8b13-e3bfad30095f,5a360ad8-5258-11ea-96a0-33a422c936a5
5a2f80b4-5258-11ea-b653-d7d63ff02274,5a361640-5258-11ea-9842-6bbd29700f35
5a285d3e-5258-11ea-9886-23aa4630f769,5a3627d4-5258-11ea-b3c6-8f7bc3a1aa2f
5a33d6b4-5258-11ea-ab0d-b72d245583dd,5a363602-5258-11ea-8aac-333288b4c673
5a21d7b6-5258-11ea-b8c5-87cdefb509d3,5a364066-5258-11ea-9266-4f30e1cbe3fd
5a2bfd9a-5258-11ea-bb34-ebf5dbd5b1b0,5a364cb4-5258-11ea-858e-dbeb6116dad1
5a2f5d1e-5258-11ea-b5e1-c31673b5d551,5a36575e-5258-11ea-89a5-3f910caff25d
5a32fd3e-5258-11ea-97f6-df77b016315e,5a36692e-5258-11ea-9765-07ac467869c9
5a3229cc-5258-11ea-a3a2-ff9e85a52eb7,5a36775c-5258-11ea-ab89-373dc3da2d99
5a2664a2-5258-11ea-a7bd-6f0853e04133,5a368b48-5258-11ea-8bdf-6b2bf75ec09d
5a2b5b56-5258-11ea-90f6-fb3f40664e0d,5a369af2-5258-11ea-a26b-e77e40b5705d
5a278a76-5258-11ea-89f3-179390b8130e,5a36ab32-5258-11ea-99e7-7f94b8331e74
5a2af80a-5258-11ea-85ce-83982b9fa372,5a36b776-5258-11ea-b02c-935198228029
5a296558-5258-11ea-8134-b7322f0ac107,5a36c5ae-5258-11ea-a795-67b855512848
5a31adc6-5258-11ea-ad3a-179b58a45f6a,5a36cf4a-5258-11ea-a74a-775711aaa764
5a25ae18-5258-11ea-ba46-33a17318e2a9,5a36dae4-5258-11ea-a3f9-83a3136008e5
5a1ff432-5258-11ea-bb89-8f55d854b8b4,5a36ea02-5258-11ea-b570-9b731a6fc2ce
5a2db31a-5258-11ea-b2e5-9383e6969037,5a36fba0-5258-11ea-9a36-df0f1103605f
5a228ea4-5258-11ea-a580-174146823822,5a370960-5258-11ea-ad81-9fdfb190bbe9
5a24a8f6-5258-11ea-8ef9-2bc9d858168c,5a371cac-5258-11ea-9a96-bf87471ab118
5a363602-5258-11ea-8aac-333288b4c673,5a3735e8-5258-11ea-adc9-4f2bd3eded22
5a2422be-5258-11ea-a429-a7c5baf3ea5c,5a374128-5258-11ea-8cea-439c64ba23ea
5a2f80b4-5258-11ea-b653-d7d63ff02274,5a374bdc-5258-11ea-abac-e71fa9ecc427
5a22d5ee-5258-11ea-8934-6f8e876d1ec0,5a375c12-5258-11ea-a6f6-1b94dee23722
5a22d5ee-5258-11ea-8934-6f8e876d1ec0,5a3767fc-5258-11ea-9973-17a87b724947
5a235172-5258-11ea-af55-bbc8722736d1,5a377828-5258-11ea-9501-83e361e2e3e6
5a2fa148-5258-11ea-b0e7-d30d0c8dcb41,5a378340-5258-11ea-8354-477cd999dc56
5a35d356-5258-11ea-a9b2-975d05fd44b4,5a3790c4-5258-11ea-92f7-fbdb0ae1b527
5a257470-5258-11ea-aab0-e75d007eda10,5a37a564-5258-11ea-978a-0b31281ae4cc
5a20da78-5258-11ea-b79e-d7266daa52f7,5a37c0b2-5258-11ea-83c0-27db2185ef94
5a2c0966-5258-11ea-b4f7-5f0bc2a9019b,5a37d872-5258-11ea-8337-8f0f45b530f6
5a2a86cc-5258-11ea-b61f-9f2e85d60671,5a37f44c-5258-11ea-a6c8-cbe7ff7fed86
5a37a564-5258-11ea-978a-0b31281ae4cc,5a37e6be-5258-11ea-85df-cb8c40a6e0ff
5a21d7b6-5258-11ea-b8c5-87cdefb509d3,5a380afe-5258-11ea-bafb-13496480384c
5a24f0cc-5258-11ea-998d-efb02708280d,5a37ffaa-5258-11ea-ae52-d3e94c413050
5a240946-5258-11ea-a53c-676b4f237227,5a3814d6-5258-11ea-9cc0-af444612fa4d
5a22c05e-5258-11ea-b29a-270e37e8a6a0,5a382016-5258-11ea-911d-f3ddc019d626
5a2d3cf0-5258-11ea-ab5d-f7da86edd20f,5a382c0a-5258-11ea-9ca2-37367fdf7c39
5a21b5a6-5258-11ea-be75-671351fd1a4f,5a384ffa-5258-11ea-816e-27ee06c52bb2
5a37d872-5258-11ea-8337-8f0f45b530f6,5a385a9a-5258-11ea-9cee-b32f71a09804
5a384ffa-5258-11ea-816e-27ee06c52bb2,5a38668e-5258-11ea-8585-0f684df57b06
5a265c0a-5258-11ea-8e1d-7353ed5eed94,5a38820e-5258-11ea-9ab4-175ca90fe5b3
5a266f92-5258-11ea-84ed-1f43257104a0,5a388272-5258-11ea-85e4-572be9991084
5a2558dc-5258-11ea-a601-53e180b4258c,5a388e8e-5258-11ea-a533-fb43955b11a0
5a37ffaa-5258-11ea-ae52-d3e94c413050,5a389a3c-5258-11ea-99e0-c7e7aa0caa4f
5a25cdda-5258-11ea-80b9-a700a537c93c,5a38a54a-5258-11ea-bd88-87b4dc9b233c
5a329b28-5258-11ea-9832-238492bf04dc,5a38b904-5258-11ea-8760-2fd33b5ac613
5a25f350-5258-11ea-8ef4-ffa3d0e7ada7,5a38cf98-5258-11ea-84c6-87b5a2ab471a
5a3814d6-5258-11ea-9cc0-af444612fa4d,5a38e4ce-5258-11ea-94f0-93d1bcfa0431
5a2bd388-5258-11ea-bc39-63c185c2f58d,5a38f09a-5258-11ea-af8d-cbbf8c4a6130
5a24fe82-5258-11ea-a74c-b7ab86b5a8f5,5a38fe50-5258-11ea-9e7f-5f462d7f6023
5a2bcaa0-5258-11ea-bcc4-b3d8262eb3c5,5a390b8e-5258-11ea-8e57-4bfb677a0efe
5a2ff18e-5258-11ea-8645-533a28bc97de,5a3916e2-5258-11ea-bf1e-ffcdef8a1d53
5a235172-5258-11ea-af55-bbc8722736d1,5a392740-5258-11ea-a843-737b1e31fa4c
5a331648-5258-11ea-b0d9-d3c0b253d28b,5a39346a-5258-11ea-aa6b-3fe1eac5d699
5a30df86-5258-11ea-a043-572ea6bf936f,5a3942c0-5258-11ea-a1ca-137bbf87144a
5a35d356-5258-11ea-a9b2-975d05fd44b4,5a3952ce-5258-11ea-a70b-bb744cfc0997
5a300e1c-5258-11ea-9fc3-2be8c01da555,5a396430-5258-11ea-9df9-1746beac9b68
5a2af80a-5258-11ea-85ce-83982b9fa372,5a397768-5258-11ea-b835-63b97cb96acc
5a29cba6-5258-11ea-8e5e-1f6afadddab6,5a3983d4-5258-11ea-8c6c-57c0684b1814
5a2680e0-5258-11ea-876c-c76173c74cd9,5a398fa0-5258-11ea-9b40-23a64c6b40fd
5a2d22ce-5258-11ea-b37c-03b3c5b3b3ba,5a39a01c-5258-11ea-a411-bf9eeba83c0c
5a1ef3e8-5258-11ea-88fa-539a7862158f,5a39b69c-5258-11ea-a852-c364bae2ed2b
5a21e620-5258-11ea-9f69-837bcd73da29,5a39c196-5258-11ea-a17a-93df142f0309
5a282364-5258-11ea-9082-f70be0c988b7,5a39cd3a-5258-11ea-93e8-132f0de24f06
5a2f73bc-5258-11ea-9a81-fbde8f14d1ea,5a39df0a-5258-11ea-acae-0faef47325d6
5a3017d6-5258-11ea-a7e0-67dd03f1bd4f,5a39ee82-5258-11ea-b652-572bfd719d82
5a360ad8-5258-11ea-96a0-33a422c936a5,5a3a07c8-5258-11ea-ad17-4fe08b6bc93c
5a1f2c64-5258-11ea-8df7-cb1d79a1477f,5a39fc92-5258-11ea-8925-73dca9aadfb1
5a33f838-5258-11ea-9b4a-a75c254c1421,5a3a17b8-5258-11ea-82f9-435e4e4c4fcc
5a335dc4-5258-11ea-a3a3-2fb87cf0880f,5a3a2924-5258-11ea-9771-9b7179f77deb
5a2d3cf0-5258-11ea-ab5d-f7da86edd20f,5a3a3928-5258-11ea-8c80-2be7aca08cda
5a2bfd9a-5258-11ea-bb34-ebf5dbd5b1b0,5a3a4526-5258-11ea-98b1-2fc73d3c67a9
5a2a05ee-5258-11ea-ab80-dbaca2f17f70,5a3a54da-5258-11ea-9a1a-877ed3a7b5ff
5a2d3cf0-5258-11ea-ab5d-f7da86edd20f,5a3a6d30-5258-11ea-a331-87b63f1f3447
5a2f73bc-5258-11ea-9a81-fbde8f14d1ea,5a3a778a-5258-11ea-9777-77c09e2757ef
5a333b14-5258-11ea-83fc-27c43409a951,5a3a9f3a-5258-11ea-aab0-0f0a45a625ec
5a1f9168-5258-11ea-9302-9b6d16883682,5a3aaaf2-5258-11ea-8a12-2bb816580eaa
5a24522a-5258-11ea-9270-9b9ca2fd4760,5a3ab81c-5258-11ea-b1ae-b3f5d888c467
5a230938-5258-11ea-8f52-f3beae36589d,5a3ac794-5258-11ea-add5-3be560589fbf
5a35f8d6-5258-11ea-816c-47c241f453c5,5a3ad400-5258-11ea-bc08-0f3869b19385
5a24da24-5258-11ea-b1fd-2f53955d6dbc,5a3ae2c4-5258-11ea-8716-b368c767e6f5
5a1eb48c-5258-11ea-a457-27eb95f5e056,5a3aecd8-5258-11ea-a6a7-133c6ea0c54f
5a3790c4-5258-11ea-92f7-fbdb0ae1b527,5a3af8ea-5258-11ea-8da4-c3b11a60c4f9
5a24da24-5258-11ea-b1fd-2f53955d6dbc,5a3b0a7e-5258-11ea-92f4-bf9c68d9f5ba
5a3ae2c4-5258-11ea-8716-b368c767e6f5,5a3b1de8-5258-11ea-82a8-8b54c8976fb1
5a392740-5258-11ea-a843-737b1e31fa4c,5a3b3332-5258-11ea-8cec-d39bcada3f2e
5a2224d2-5258-11ea-ac2e-0ffd1874b3fe,5a3b4688-5258-11ea-8196-07cfc189ed5f
5a278a76-5258-11ea-8f57-0364136bc5f5,5a3b5600-5258-11ea-841a-db5c96d54eca
5a282364-5258-11ea-9082-f70be0c988b7,5a3b6d66-5258-11ea-98d2-ff3e78084496
5a31623a-5258-11ea-9a44-ef90fb6c9cad,5a3b7a40-5258-11ea-af77-037e461fa4d2
5a32fd3e-5258-11ea-97f6-df77b016315e,5a3b619a-5258-11ea-aa29-6f3c3f2f0d78
5a34f698-5258-11ea-b63a-976d1127f093,5a3b8832-5258-11ea-b62d-1fb9747e2074
5a31bc08-5258-11ea-b626-63f0ce3e6a03,5a3b9746-5258-11ea-a9a2-93b3409f0440
5a1eb48c-5258-11ea-a457-27eb95f5e056,5a3bbcda-5258-11ea-a823-4f99c8cd75b1
5a3b9746-5258-11ea-a9a2-93b3409f0440,5a3bccfc-5258-11ea-bd3d-2f86d29be5ab
5a23ab2c-5258-11ea-bd84-2f5b474dde4a,5a3bdb7a-5258-11ea-8aa7-13dbf0c65ed2
5a28d020-5258-11ea-abbf-2fe904426b22,5a3bf420-5258-11ea-889c-fb03ee286696
5a2cb276-5258-11ea-b078-9fc8e9d954f1,5a3be7f0-5258-11ea-b64b-cb50c95974a0
5a2444d8-5258-11ea-8875-d73f5dce5f23,5a3c10b8-5258-11ea-8741-732c46485933
5a2d8dcc-5258-11ea-8de0-872fe3e5933d,5a3c1a86-5258-11ea-9ae4-2b62f92fe06c
5a20a2a6-5258-11ea-a351-8f83808cdcae,5a3c26a2-5258-11ea-884a-e310a3dd9573
5a2d22ce-5258-11ea-b37c-03b3c5b3b3ba,5a3c38f4-5258-11ea-8b77-6f94e4c5508e
5a31e9ee-5258-11ea-9098-4339123821be,5a3c4e84-5258-11ea-997b-63e4cc651bb6
5a323d86-5258-11ea-9495-1397d9e6d9c3,5a3c5c44-5258-11ea-b75d-e789d1ee0b2d
5a29e172-5258-11ea-839f-13a5855c2fcb,5a3c6978-5258-11ea-a48c-63b80a1e658f
5a2db31a-5258-11ea-b2e5-9383e6969037,5a3c7530-5258-11ea-ab55-6f05e88d3316
5a2798a4-5258-11ea-a269-67ff78062428,5a3c8dcc-5258-11ea-9134-67640e6fd442
5a2b4b20-5258-11ea-8efb-23ce9efcacd9,5a3c998e-5258-11ea-9994-afe2c5ef180e
5a261786-5258-11ea-b28b-973b77cc423f,5a3ca97e-5258-11ea-b986-9f43f5de7400
5a3bbcda-5258-11ea-a823-4f99c8cd75b1,5a3cb626-5258-11ea-81da-236056038506
5a382016-5258-11ea-911d-f3ddc019d626,5a3cc72e-5258-11ea-af11-1bb04d279207
5a24a8f6-5258-11ea-8ef9-2bc9d858168c,5a3cd624-5258-11ea-a6ad-cf61b43bac47
5a25dad2-5258-11ea-8aa1-23d9943ea3fd,5a3ce4e8-5258-11ea-8b1a-ff28f20b9f12
5a214e2c-5258-11ea-8eb2-23b21c05c3bc,5a3cf136-5258-11ea-9fae-6bd698a5798e
5a22561e-5258-11ea-8bad-6f74434b12bb,5a3d03ec-5258-11ea-a528-b74cd6792efb
5a2f68b8-5258-11ea-906f-cbe8e37915fa,5a3d1864-5258-11ea-9fb1-730d2677fde1
5a310e70-5258-11ea-8190-9b04db554649,5a3d2610-5258-11ea-9001-5b9f80d4e900
5a3a778a-5258-11ea-9777-77c09e2757ef,5a3d316e-5258-11ea-843e-2be4664020e7
5a30c730-5258-11ea-b826-fb2db48feb04,5a3d4168-5258-11ea-840d-6f4abacca7da
5a3119ce-5258-11ea-b43c-afe5de489750,5a3d4cb2-5258-11ea-a2cc-739326953762
5a2b5b56-5258-11ea-90f6-fb3f40664e0d,5a3d6cec-5258-11ea-a01f-a744ce6d66e3
5a3c1a86-5258-11ea-9ae4-2b62f92fe06c,5a3d7a5c-5258-11ea-9f17-776757fae0ca
5a247020-5258-11ea-9f53-538c6184fb7a,5a3d9258-5258-11ea-9c6b-93e055e404eb
5a2ec46c-5258-11ea-b168-db1496254d9d,5a3d9e6a-5258-11ea-be34-c7f1ccff2e38
5a22cc52-5258-11ea-979a-3fc267512cab,5a3db4e0-5258-11ea-ac64-73d1029c3f07
5a296558-5258-11ea-8134-b7322f0ac107,5a3dc2a0-5258-11ea-8ed4-f732b7db7399
5a34ba5c-5258-11ea-b7ba-073997aeec00,5a3dceda-5258-11ea-88e1-373628e0163d
5a32b69e-5258-11ea-a0c8-479660e2def8,5a3ddb00-5258-11ea-b9a4-cb49766fcb08
5a327c1a-5258-11ea-a82a-4f35ff3892d3,5a3ded66-5258-11ea-8b31-fb7c3ec5bc6a
5a28ee52-5258-11ea-b33b-ab3999d5ec97,5a3df932-5258-11ea-8c4e-8b8d1cf0b0ea
5a327c1a-5258-11ea-a82a-4f35ff3892d3,5a3e099a-5258-11ea-bf59-4fd561ffff7b
5a29b026-5258-11ea-8535-cf025322a0bc,5a3e15b6-5258-11ea-be0b-174ae47ad938
5a377828-5258-11ea-9501-83e361e2e3e6,5a3e27ae-5258-11ea-a91e-7767db7d7172
5a2c4002-5258-11ea-a4c8-f70c256cb38d,5a3e475c-5258-11ea-aa33-3f060261a620
5a292e8a-5258-11ea-b709-a34b649f4faa,5a3e54c2-5258-11ea-9b1b-1f2e6e715acc
5a2798a4-5258-11ea-a269-67ff78062428,5a3e5f9e-5258-11ea-96ff-dba911d07ad9
5a2e71b0-5258-11ea-814f-1b0ba560ee1d,5a3e6cbe-5258-11ea-8d23-9f939bf28ecc
5a2f68b8-5258-11ea-906f-cbe8e37915fa,5a3e7c72-5258-11ea-be4e-df7818f83d62
5a2d98b2-5258-11ea-9003-1722ff381f7d,5a3e8848-5258-11ea-9f0b-572e0cfcc083
5a3a9f3a-5258-11ea-aab0-0f0a45a625ec,5a3e9432-5258-11ea-8989-0f44932bafc7
5a3df932-5258-11ea-8c4e-8b8d1cf0b0ea,5a3ea01c-5258-11ea-9d30-e7a8a14bc839
5a390b8e-5258-11ea-8e57-4bfb677a0efe,5a3eb890-5258-11ea-bd5a-03d37dcdd72b
5a3b3332-5258-11ea-8cec-d39bcada3f2e,5a3ec984-5258-11ea-ba78-2b3de1a3ed8b
5a21d7b6-5258-11ea-b8c5-87cdefb509d3,5a3ed91a-5258-11ea-ab7b-5b526eedfe3c
5a29bb66-5258-11ea-a71b-770d4d122d2b,5a3eea18-5258-11ea-b4d1-230c061913a2
5a2c8594-5258-11ea-817a-2f396fbca1a5,5a3efb5c-5258-11ea-b9e6-4f5ae7356e1d
5a22066e-5258-11ea-96ee-030121753ea6,5a3f0c96-5258-11ea-85ff-b7e37a93214c
5a39b69c-5258-11ea-a852-c364bae2ed2b,5a3f1894-5258-11ea-9560-afe0b55c5a4e
5a2d5c76-5258-11ea-b92d-5fc7c8b11a16,5a3f2410-5258-11ea-a295-332508339a8e
5a38f09a-5258-11ea-af8d-cbbf8c4a6130,5a3f391e-5258-11ea-97ab-e33c31f7599c
5a2e30c4-5258-11ea-bffe-df6e0da0929a,5a3f45e4-5258-11ea-8957-87c7abe0ee28
5a35b312-5258-11ea-b5dc-1fb6104c2e57,5a3f553e-5258-11ea-9817-a39dba8b051a
5a3d4cb2-5258-11ea-a2cc-739326953762,5a3f67c2-5258-11ea-a6ab-87ecbd113cfc
5a3205b4-5258-11ea-902a-1711e8cd27b4,5a3f74f6-5258-11ea-bb80-9bb671a8137b
5a22d5ee-5258-11ea-8934-6f8e876d1ec0,5a3f8554-5258-11ea-af8e-a37748128fce
5a248268-5258-11ea-a488-17ecf9905965,5a3f95da-5258-11ea-bf40-8b241a22d9b9
5a3767fc-5258-11ea-9973-17a87b724947,5a3fa908-5258-11ea-8974-93392823328d
5a260ce6-5258-11ea-a915-eb4dc43fa532,5a3fbdd0-5258-11ea-b69d-5784d7e820cb
5a3767fc-5258-11ea-9973-17a87b724947,5a3fcfaa-5258-11ea-b272-77285df9932c
5a235172-5258-11ea-af55-bbc8722736d1,5a3fdcf2-5258-11ea-995c-938e37d452f8
5a3119ce-5258-11ea-b43c-afe5de489750,5a3feca6-5258-11ea-918f-2ff85cd71ab4
5a2f0800-5258-11ea-a3a0-9fb869ead0eb,5a3ffac0-5258-11ea-a2bf-ef57426a330b
5a2ca8c6-5258-11ea-b822-2f35f409c07e,5a400786-5258-11ea-b1cb-ef5ae116cc7b
5a39a01c-5258-11ea-a411-bf9eeba83c0c,5a4018d4-5258-11ea-87a3-6b4c8a983248
5a34cd26-5258-11ea-b782-1fbed777cfc8,5a404a5c-5258-11ea-93d6-9357b24f680b
5a338524-5258-11ea-92ac-c752a02a256d,5a404dcc-5258-11ea-8c66-7f49ed0cc003
5a1e9b28-5258-11ea-b6f1-3702dbd21b69,5a406064-5258-11ea-aad6-dfa15464bffe
5a20faa8-5258-11ea-bdf0-0f9c4cd1020a,5a406dde-5258-11ea-8805-7b5f1a3ddf17
5a3b619a-5258-11ea-aa29-6f3c3f2f0d78,5a407a2c-5258-11ea-8569-3fa4fecf912b
5a3bccfc-5258-11ea-bd3d-2f86d29be5ab,5a408828-5258-11ea-8a6d-978b5c2b33f0
5a392740-5258-11ea-a843-737b1e31fa4c,5a40923c-5258-11ea-91f8-c75a8a4c66f4
5a3af8ea-5258-11ea-8da4-c3b11a60c4f9,5a409e94-5258-11ea-a010-176e48a508ff
5a30309a-5258-11ea-8553-63a85920c2b0,5a40c266-5258-11ea-95e4-73e09eafc920
5a36ea02-5258-11ea-b570-9b731a6fc2ce,5a40cf7c-5258-11ea-8dbf-3b56275a0e6e
5a3c6978-5258-11ea-a48c-63b80a1e658f,5a40e62e-5258-11ea-bd03-8f971d8e4f8c
5a3f0c96-5258-11ea-85ff-b7e37a93214c,5a40f4a2-5258-11ea-9a2e-cbf3f1073587
5a2f80b4-5258-11ea-b653-d7d63ff02274,5a410532-5258-11ea-96ef-6be88821691f
5a3c1a86-5258-11ea-9ae4-2b62f92fe06c,5a411482-5258-11ea-ae91-330305e0a13d
5a263176-5258-11ea-b85d-c70dd25cb788,5a412008-5258-11ea-9ad0-ab7ca29f351b
5a3d9258-5258-11ea-9c6b-93e055e404eb,5a413020-5258-11ea-a8c8-8f7a2b723e7e
5a3229cc-5258-11ea-a3a2-ff9e85a52eb7,5a413d18-5258-11ea-a205-9fad7e838cf6
5a31d030-5258-11ea-b457-a3a0b8f6b8f1,5a415320-5258-11ea-a6c3-af3037dd4d59
5a2a05ee-5258-11ea-ab80-dbaca2f17f70,5a4163c4-5258-11ea-8f4e-cb9fcb1fe645
5a2cbcee-5258-11ea-ab0e-930e775d3778,5a417cc4-5258-11ea-b4d2-574cb6c2c1e7
5a278a76-5258-11ea-89f3-179390b8130e,5a418c1e-5258-11ea-bb49-6be8a3dee1a9
5a407a2c-5258-11ea-8569-3fa4fecf912b,5a41984e-5258-11ea-a032-4fe21c0644de
5a409e94-5258-11ea-a010-176e48a508ff,5a41a44c-5258-11ea-89bb-d7f12934eb95
5a2d0d48-5258-11ea-9a46-270f8549c012,5a41b5ea-5258-11ea-92a7-0f49502f8253
5a3b3332-5258-11ea-8cec-d39bcada3f2e,5a41c72e-5258-11ea-b99c-9fbb79cbac89
5a33e74e-5258-11ea-94bb-03998f61576b,5a41d2aa-5258-11ea-811f-ef53d8022c58
5a2d184c-5258-11ea-80f7-f7bc7e097210,5a41de30-5258-11ea-884d-5b0bf6c40668
5a25ff3a-5258-11ea-8375-2b9a84d9aa36,5a41f064-5258-11ea-bd22-fb3723258553
5a35e454-5258-11ea-9f4a-2f2180c1953c,5a42052c-5258-11ea-98c4-53aba5603fca
5a3e7c72-5258-11ea-be4e-df7818f83d62,5a4214e0-5258-11ea-a227-3f83b8aec46d
5a304ddc-5258-11ea-9d59-93224f4ac08a,5a4220ca-5258-11ea-8b43-2b26cc5fc7b3
5a3c4e84-5258-11ea-997b-63e4cc651bb6,5a423254-5258-11ea-a670-836f06cb1333
5a1f9168-5258-11ea-9302-9b6d16883682,5a424d66-5258-11ea-888f-c3f5e9752a03
5a2b5b56-5258-11ea-90f6-fb3f40664e0d,5a425946-5258-11ea-8521-6fe05e4254e2
5a2d5c76-5258-11ea-b92d-5fc7c8b11a16,5a42660c-5258-11ea-92a9-8bf4b6b7a13e
5a29cba6-5258-11ea-8e5e-1f6afadddab6,5a42720a-5258-11ea-9b7b-9ffdade91319
5a25a3c8-5258-11ea-a366-fb094fcce8bb,5a4288da-5258-11ea-824c-57c55fbaa29f
5a39fc92-5258-11ea-8925-73dca9aadfb1,5a42935c-5258-11ea-a59b-2328ea283215
5a3e099a-5258-11ea-bf59-4fd561ffff7b,5a429ee2-5258-11ea-a74f-5f813f6b1e54
5a2dd606-5258-11ea-b1af-f7e8c8d9a22c,5a42b18e-5258-11ea-8141-bf02b0c24f0b
5a415320-5258-11ea-a6c3-af3037dd4d59,5a42cef8-5258-11ea-94f5-57caca98c786
5a2241a6-5258-11ea-9bce-93d40b764d66,5a42de20-5258-11ea-814f-1308145a49b2
5a31e9ee-5258-11ea-9098-4339123821be,5a42ea0a-5258-11ea-8a2b-2beb1dda7f32
5a328cf0-5258-11ea-9456-2755452e3adc,5a42fa04-5258-11ea-9246-1b4c59beab94
5a24f0cc-5258-11ea-998d-efb02708280d,5a431444-5258-11ea-8ead-0b211dbd0816
5a2f52c4-5258-11ea-8609-cb15471c3d99,5a432966-5258-11ea-9041-d31cf62e7e64
5a332a7a-5258-11ea-a19d-03ef774e0b2f,5a4335c8-5258-11ea-a753-5764bdd71d06
5a2d6cac-5258-11ea-bfdc-134abccde393,5a4345f4-5258-11ea-8858-63274be3bc2e
5a26be84-5258-11ea-959c-276a030e7432,5a435224-5258-11ea-9ee9-b7675ed50ce3
5a2f0800-5258-11ea-a3a0-9fb869ead0eb,5a435c06-5258-11ea-bda1-db8c99bcad90
5a3ac794-5258-11ea-add5-3be560589fbf,5a43795c-5258-11ea-bc15-6bfb36431cd0
5a285230-5258-11ea-a79b-8fa324940f50,5a436e26-5258-11ea-9ea0-6704455f205b
5a296558-5258-11ea-8134-b7322f0ac107,5a438e56-5258-11ea-bedd-136019b45668
5a3d7a5c-5258-11ea-9f17-776757fae0ca,5a43a1e8-5258-11ea-87ee-53fa2d873cb9
5a2c8594-5258-11ea-817a-2f396fbca1a5,5a43ad28-5258-11ea-a358-23b342b26dee
5a2367b6-5258-11ea-9d70-27df1514808b,5a43d51e-5258-11ea-8e06-eb57c29f50bf
5a3790c4-5258-11ea-92f7-fbdb0ae1b527,5a43e374-5258-11ea-9b0c-33d9618aff72
5a3eb890-5258-11ea-bd5a-03d37dcdd72b,5a43d5a0-5258-11ea-abe9-b7550f80a749
5a203442-5258-11ea-840e-b7dcba1df76c,5a43ed06-5258-11ea-9c85-5731797a6d64
5a36fba0-5258-11ea-9a36-df0f1103605f,5a43f9cc-5258-11ea-aa10-9b4a84cedef3
5a3cd624-5258-11ea-a6ad-cf61b43bac47,5a440b6a-5258-11ea-8f5a-77e6f99727a0
5a22cc52-5258-11ea-979a-3fc267512cab,5a4419ac-5258-11ea-86c7-832f07dd3741
5a25f350-5258-11ea-8ef4-ffa3d0e7ada7,5a44483c-5258-11ea-bb71-1be695c9d8e9
5a2e9406-5258-11ea-8cb0-437b3b20086b,5a445b7e-5258-11ea-94aa-bffd2054459a
5a3ddb00-5258-11ea-b9a4-cb49766fcb08,5a4467c2-5258-11ea-b1f5-23f8ab622973
5a271f00-5258-11ea-a6b1-5bf0ed24a539,5a447226-5258-11ea-ad34-6f4f5a5d1dee
5a2a7da8-5258-11ea-a6a7-4f73cae8918d,5a447ee2-5258-11ea-bfb8-7f5ce9c3589e
5a207af6-5258-11ea-878d-bfd3e0e72a7b,5a448e14-5258-11ea-a797-efc77cbe828c
5a37c0b2-5258-11ea-83c0-27db2185ef94,5a4499f4-5258-11ea-baab-9b724a9e67fc
5a3fa908-5258-11ea-8974-93392823328d,5a44a73c-5258-11ea-a6ba-33a141fa8b72
5a38a54a-5258-11ea-bd88-87b4dc9b233c,5a44b984-5258-11ea-a089-c3913b81f445
5a2aa97c-5258-11ea-8cdf-33a7276183b9,5a44d4a0-5258-11ea-b0d9-8f466b683ac2
5a29f6ee-5258-11ea-959b-df4400c2b28b,5a44e0b2-5258-11ea-85b5-13ee33a01ecc
5a33c7aa-5258-11ea-a893-23a916a5b9f9,5a44ee2c-5258-11ea-8ae4-972a71ff379a
5a39a01c-5258-11ea-a411-bf9eeba83c0c,5a44fae8-5258-11ea-b530-0bf8d55a7877
5a2aee00-5258-11ea-bd1c-57990d98a833,5a450d1c-5258-11ea-9390-737fa4066fd8
5a22066e-5258-11ea-96ee-030121753ea6,5a451ce4-5258-11ea-8d68-6fc36333e8b2
5a1fe870-5258-11ea-8294-5f92f3c5ffc3,5a452efa-5258-11ea-a76d-f36c4dba2717
5a2efcac-5258-11ea-ae6e-fb33e289faba,5a4539f4-5258-11ea-b2e3-ab8a97f8fd46
5a22cc52-5258-11ea-979a-3fc267512cab,5a454e08-5258-11ea-9934-67f1f778b965
5a2ad3e8-5258-11ea-870a-1308223b6438,5a455f56-5258-11ea-a49b-1376cc045211
5a3eb890-5258-11ea-bd5a-03d37dcdd72b,5a4575b8-5258-11ea-8d15-4ba07157835a
5a25e7ac-5258-11ea-95ac-abc3eb1d9988,5a457f72-5258-11ea-8feb-a7627f64ee8e
5a3c1a86-5258-11ea-9ae4-2b62f92fe06c,5a459278-5258-11ea-a292-438065d9a39c
5a353ae0-5258-11ea-b5be-4b4636bc4fa8,5a45a222-5258-11ea-81ae-e3b763785638
5a282364-5258-11ea-9082-f70be0c988b7,5a45b1cc-5258-11ea-9472-3f1977c2f7c7
5a3a3928-5258-11ea-8c80-2be7aca08cda,5a45c4be-5258-11ea-99ff-ff7cfce94aef
5a41b5ea-5258-11ea-92a7-0f49502f8253,5a45f1d2-5258-11ea-a89e-53a6a1f20128
5a435c06-5258-11ea-bda1-db8c99bcad90,5a460352-5258-11ea-bc35-37b848b72ab6
5a233afc-5258-11ea-83b3-03633574031f,5a460f46-5258-11ea-ae45-8f604ef0d4e6
5a418c1e-5258-11ea-bb49-6be8a3dee1a9,5a461bc6-5258-11ea-9f4e-87f578712436
5a1f4514-5258-11ea-b251-4fd5f105f529,5a462c9c-5258-11ea-9d77-bbe6212416f5
5a2174f6-5258-11ea-9e39-673c86f8a320,5a463958-5258-11ea-97ec-472344bdecd8
5a2174d8-5258-11ea-b787-af78fb4d63a6,5a4645ba-5258-11ea-ba64-47244906a406
5a3bccfc-5258-11ea-bd3d-2f86d29be5ab,5a465280-5258-11ea-92b5-57c056589427
5a3814d6-5258-11ea-9cc0-af444612fa4d,5a46640a-5258-11ea-874d-47e3790b5036
5a2e6788-5258-11ea-9d0e-b380e52add4f,5a4674ae-5258-11ea-bffb-6fc6f55da250
5a452efa-5258-11ea-a76d-f36c4dba2717,5a468f70-5258-11ea-bf1b-df570d0d114c
5a29f6ee-5258-11ea-959b-df4400c2b28b,5a46a0aa-5258-11ea-9650-3784b308c19e
5a228ea4-5258-11ea-a580-174146823822,5a46b270-5258-11ea-ba8e-4b9fde587dda
5a455f56-5258-11ea-a49b-1376cc045211,5a46c06c-5258-11ea-b3ed-7f3029c6038d
5a364cb4-5258-11ea-858e-dbeb6116dad1,5a46ce90-5258-11ea-98e9-83b76b1ff70f
5a25ae18-5258-11ea-ba46-33a17318e2a9,5a46daca-5258-11ea-9e44-4f7d6c5fd4c3
5a32f05a-5258-11ea-9b9a-870c87bb5934,5a46e998-5258-11ea-ac4c-f3f9203307f6
5a2e1562-5258-11ea-ad99-dfaa7a1cd022,5a46f50a-5258-11ea-a5bb-1ffcf407b88b
5a28e34e-5258-11ea-a064-6fee90ad09e4,5a471e86-5258-11ea-a503-8ffd726b3942
5a38e4ce-5258-11ea-94f0-93d1bcfa0431,5a472a66-5258-11ea-a3f9-2b014c49bd65
5a361640-5258-11ea-9842-6bbd29700f35,5a4737b8-5258-11ea-82de-5f1ae3fdcf1f
5a2b9cd8-5258-11ea-9b9d-c30e98ea78eb,5a474cc6-5258-11ea-9bc5-67c229e0e0b8
5a3fbdd0-5258-11ea-b69d-5784d7e820cb,5a475cf2-5258-11ea-bdad-aba46fb06189
5a219710-5258-11ea-be6e-574b2221cc44,5a476706-5258-11ea-8dfa-6bf1b804ff73
5a35aa7a-5258-11ea-ab8f-9b1ee76eb8b6,5a477430-5258-11ea-8fa6-a77b8901f18d
5a256b88-5258-11ea-8fc0-17009e277234,5a478380-5258-11ea-9fd8-7baa378b7ee7
5a20adfa-5258-11ea-b5a2-2bfe7a92d1de,5a479e2e-5258-11ea-bd0c-0324f3286cbc
5a3205b4-5258-11ea-902a-1711e8cd27b4,5a47af5e-5258-11ea-8683-6b832c3aac94
5a415320-5258-11ea-a6c3-af3037dd4d59,5a47c214-5258-11ea-b8d3-074c55ed7d0b
5a2d0d48-5258-11ea-9a46-270f8549c012,5a47d204-5258-11ea-9fbd-2395845a6ad3
5a3e27ae-5258-11ea-a91e-7767db7d7172,5a47de3e-5258-11ea-9c32-9ff8d2006c7d
5a2ca8c6-5258-11ea-b822-2f35f409c07e,5a47ea50-5258-11ea-9b64-9f4718a8edd4
5a30c730-5258-11ea-b826-fb2db48feb04,5a47fb94-5258-11ea-a939-c7ebf3f28b67
5a21ce06-5258-11ea-b39d-872f1c9a9926,5a480fe4-5258-11ea-aea8-c72ce8123de4
5a380afe-5258-11ea-bafb-13496480384c,5a481f66-5258-11ea-ae30-57cb73b7869f
5a285230-5258-11ea-a79b-8fa324940f50,5a4831ea-5258-11ea-a485-d36a80610532
5a479e2e-5258-11ea-bd0c-0324f3286cbc,5a48439c-5258-11ea-ae8c-9f6516b29ea5
5a435224-5258-11ea-9ee9-b7675ed50ce3,5a485378-5258-11ea-94af-df58c0b41976
5a2a4b44-5258-11ea-811e-d3d7315228c4,5a4864ee-5258-11ea-932f-7bd28dc470bb
5a1fe870-5258-11ea-8294-5f92f3c5ffc3,5a487164-5258-11ea-a241-1f197bf85844
5a40c266-5258-11ea-95e4-73e09eafc920,5a488244-5258-11ea-86bd-a3246f04a8f5
5a26d7c0-5258-11ea-aad5-53c1a0be07b7,5a489428-5258-11ea-93e4-6753b54277b0
5a415320-5258-11ea-a6c3-af3037dd4d59,5a48a27e-5258-11ea-88c7-1b4afec9a45d
5a2fc506-5258-11ea-9da8-03c2a197af68,5a48c38a-5258-11ea-ae05-bb25b0a1feb6
5a2f73bc-5258-11ea-9a81-fbde8f14d1ea,5a48d24e-5258-11ea-bbf3-8f82e6eb0c2b
5a2b6556-5258-11ea-b977-cfdd8ab7ff23,5a48df50-5258-11ea-a8cd-97b327c2546a
5a31498a-5258-11ea-811f-3375a0a2d91b,5a48eb62-5258-11ea-a5ce-73a81ba83dd5
5a21c19a-5258-11ea-b4ad-271b0ee73ecb,5a48f9ae-5258-11ea-95be-f7585bbacbdb
5a31bc08-5258-11ea-b626-63f0ce3e6a03,5a4906b0-5258-11ea-ba4c-0f4188549fc2
5a294636-5258-11ea-9c9a-77d382cea20e,5a49124a-5258-11ea-8f87-8b8032205210
5a2f0800-5258-11ea-a3a0-9fb869ead0eb,5a492384-5258-11ea-a66a-8f89bd5522d1
5a31adc6-5258-11ea-ad3a-179b58a45f6a,5a494008-5258-11ea-a45b-c7b985f66eaf
5a29109e-5258-11ea-ab9c-5bda6b8801ce,5a495340-5258-11ea-8bdc-d7c39a0ae5f8
5a35f8d6-5258-11ea-816c-47c241f453c5,5a4960a6-5258-11ea-9cd7-672c11e8ef80
5a44483c-5258-11ea-bb71-1be695c9d8e9,5a496cb8-5258-11ea-b925-b3e48f7a8ce0
5a2abdc2-5258-11ea-ae48-af90d24e5c23,5a49805e-5258-11ea-b026-c7779b4dcc01
5a2f20ce-5258-11ea-baaf-0f290fe25bbc,5a498f0e-5258-11ea-8deb-c7c0c0c93a1d
5a2aee00-5258-11ea-bd1c-57990d98a833,5a499bde-5258-11ea-b267-8fcd1879bcef
5a308a86-5258-11ea-b231-9bfc775f0c1f,5a49ac46-5258-11ea-abc5-c70163ce6a4b
5a260ce6-5258-11ea-a915-eb4dc43fa532,5a49be8e-5258-11ea-aaa7-77bde29ba8a9
5a3c10b8-5258-11ea-8741-732c46485933,5a49cdca-5258-11ea-9a60-4322dd29d620
5a21c19a-5258-11ea-b4ad-271b0ee73ecb,5a49e0f8-5258-11ea-93c6-f74218793a1b
5a2f80b4-5258-11ea-b653-d7d63ff02274,5a49f124-5258-11ea-927c-530f1ef192bd
5a34f698-5258-11ea-b63a-976d1127f093,5a49fc32-5258-11ea-96d3-a3949344427a
5a3ac794-5258-11ea-add5-3be560589fbf,5a4a0fc4-5258-11ea-b4f9-7f5e05506b8c
5a3b5600-5258-11ea-841a-db5c96d54eca,5a4a1cf8-5258-11ea-8d0d-cbb754d9e808
5a2da5e6-5258-11ea-8f32-e7b9864857ec,5a4a290a-5258-11ea-b3fa-2f00ef4306a1
5a29109e-5258-11ea-ab9c-5bda6b8801ce,5a4a3ce2-5258-11ea-a6c7-8b615a408228
5a1e8e80-5258-11ea-a265-538f444a1fca,5a4a4cf0-5258-11ea-b5c8-a36c4b56fc1f
5a337a7a-5258-11ea-821f-67f1b126c1a1,5a4a5b96-5258-11ea-b569-5fa82a414448
5a1fc066-5258-11ea-9a34-075adf914eff,5a4a6a46-5258-11ea-9a4e-2377860ad580
5a37ffaa-5258-11ea-ae52-d3e94c413050,5a4a79c8-5258-11ea-9882-07e4d3afe356
5a2174f6-5258-11ea-9e39-673c86f8a320,5a4a8dfa-5258-11ea-9a4e-c3dd6fdf577e
5a261786-5258-11ea-b28b-973b77cc423f,5a4aa1dc-5258-11ea-ae80-8baeee4ec121
5a47de3e-5258-11ea-9c32-9ff8d2006c7d,5a4abeba-5258-11ea-bf3b-1705642f952a
5a3790c4-5258-11ea-92f7-fbdb0ae1b527,5a4acafe-5258-11ea-889c-6ba40dc730d0
5a285230-5258-11ea-a79b-8fa324940f50,5a4ad76a-5258-11ea-953a-3307ad4c3226
5a22c05e-5258-11ea-b29a-270e37e8a6a0,5a4ae44e-5258-11ea-be3f-8fe2cebcf554
5a2a1764-5258-11ea-bb70-d3684f0492ed,5a4af06a-5258-11ea-810e-bb23551e62d6
5a40cf7c-5258-11ea-8dbf-3b56275a0e6e,5a4b0050-5258-11ea-96c1-7739c7669259
5a3f553e-5258-11ea-9817-a39dba8b051a,5a4b10a4-5258-11ea-903a-2f6a45956a0b
5a2c2360-5258-11ea-8c52-bfb59ec29798,5a4b1d4c-5258-11ea-a671-5ba90d071e61
5a40e62e-5258-11ea-bd03-8f971d8e4f8c,5a4b31ce-5258-11ea-b3dd-4753dae111a3
5a36fba0-5258-11ea-9a36-df0f1103605f,5a4b4736-5258-11ea-8c92-6f4d8396e38a
5a487164-5258-11ea-a241-1f197bf85844,5a4b56fe-5258-11ea-83e4-0f560a495201
5a2b4120-5258-11ea-8273-b37f1842ff8e,5a4b673e-5258-11ea-84b6-eb991d9a3537
5a2798a4-5258-11ea-a269-67ff78062428,5a4b7242-5258-11ea-81e5-57589f193c3b
5a36cf4a-5258-11ea-a74a-775711aaa764,5a4b82dc-5258-11ea-b6b0-0bbd4b8b3afe
5a447ee2-5258-11ea-bfb8-7f5ce9c3589e,5a4bae92-5258-11ea-b160-870cbb6d02ea
5a20233a-5258-11ea-9b68-f37acb686427,5a4bbca2-5258-11ea-8fe0-c362fa124119
5a35aa7a-5258-11ea-ab8f-9b1ee76eb8b6,5a4bc6a2-5258-11ea-a8cd-ffc8492c366b
5a2cb276-5258-11ea-b078-9fc8e9d954f1,5a4bd4d0-5258-11ea-b389-37f5b0eb5d3e
5a27be56-5258-11ea-adb1-cf717be823e1,5a4be5c4-5258-11ea-b355-3f2a32de8eb2
5a425946-5258-11ea-8521-6fe05e4254e2,5a4bf186-5258-11ea-86dc-6bf4d23dbe52
5a26ff2a-5258-11ea-a300-ff1172cb018f,5a4bff96-5258-11ea-904f-f794068330c2
5a23f29e-5258-11ea-a6af-5b452ca623fe,5a4c0b12-5258-11ea-ba39-9378170e7136
5a3c6978-5258-11ea-a48c-63b80a1e658f,5a4c1c4c-5258-11ea-906f-7f721b39fb8b
5a1fc066-5258-11ea-9a34-075adf914eff,5a4c27a0-5258-11ea-81b2-cbdaff49cdf7
5a38b904-5258-11ea-8760-2fd33b5ac613,5a4c4546-5258-11ea-a93e-ffccb93ac51e
5a25e7ac-5258-11ea-95ac-abc3eb1d9988,5a4c77aa-5258-11ea-943d-af9263c93c45
5a2a1764-5258-11ea-bb70-d3684f0492ed,5a4c78cc-5258-11ea-a1a9-abc7855f5a77
5a44e0b2-5258-11ea-85b5-13ee33a01ecc,5a4c8704-5258-11ea-8e2e-6ba882873b03
5a325032-5258-11ea-8695-8bfb5846e91f,5a4c9172-5258-11ea-b8b6-3bde4f8d20bd
5a378340-5258-11ea-8354-477cd999dc56,5a4ca0b8-5258-11ea-bc9e-f3ba23bd112d
5a36775c-5258-11ea-ab89-373dc3da2d99,5a4cafe0-5258-11ea-af82-07a0e1a3ffc3
5a20adfa-5258-11ea-b5a2-2bfe7a92d1de,5a4cc688-5258-11ea-b80e-f330c7e5f557
5a3b8832-5258-11ea-b62d-1fb9747e2074,5a4cc890-5258-11ea-93a3-8bd722c0b8bb
5a47d204-5258-11ea-9fbd-2395845a6ad3,5a4cf86a-5258-11ea-97dd-7bf4e31662cc
5a2fd456-5258-11ea-8766-b71cfe5f0700,5a4d0b0c-5258-11ea-915d-23a754437820
5a39cd3a-5258-11ea-93e8-132f0de24f06,5a4d1f8e-5258-11ea-a1c6-17392743cf3d
5a447ee2-5258-11ea-bfb8-7f5ce9c3589e,5a4d31ea-5258-11ea-bdbc-a3da7258e5f0
5a2e2606-5258-11ea-bf2f-2bb471120b33,5a4d4054-5258-11ea-b8a7-33472cb36898
5a2f16e2-5258-11ea-80c7-b32856aa2647,5a4d4a22-5258-11ea-bb80-334c19d324cb
5a452efa-5258-11ea-a76d-f36c4dba2717,5a4d5738-5258-11ea-915d-47683c7ae74f
5a2f73bc-5258-11ea-9a81-fbde8f14d1ea,5a4d63f4-5258-11ea-ae6b-e31b49ff35a0
5a4b82dc-5258-11ea-b6b0-0bbd4b8b3afe,5a4d7542-5258-11ea-abc3-33e24f946f86
5a3efb5c-5258-11ea-b9e6-4f5ae7356e1d,5a4d8672-5258-11ea-98b8-2b56d7475759
5a2b6f9c-5258-11ea-abc5-1f38eac44b8b,5a4d93c4-5258-11ea-9985-37ba1fa5df0a
5a286892-5258-11ea-9dce-ef88f63c660b,5a4da5ee-5258-11ea-94aa-2fa30455712b
5a2e30c4-5258-11ea-bffe-df6e0da0929a,5a4db624-5258-11ea-a54a-1fafd05c8e97
5a487164-5258-11ea-a241-1f197bf85844,5a4dc9d4-5258-11ea-a973-6bfaeb1b83f3
5a3c38f4-5258-11ea-8b77-6f94e4c5508e,5a4ddb18-5258-11ea-a70c-f71c9001d547
5a26a890-5258-11ea-b7e6-2361d4518fd3,5a4deb1c-5258-11ea-b1cd-735eaacca3d3
5a2ee2c6-5258-11ea-aa30-a320cbbe3dd3,5a4e0958-5258-11ea-bb55-0713abb5fca8
5a24522a-5258-11ea-9270-9b9ca2fd4760,5a4dfcec-5258-11ea-9676-276917bc72ae
5a338524-5258-11ea-92ac-c752a02a256d,5a4e1894-5258-11ea-80b5-afbae6e30ad3
5a2241a6-5258-11ea-9bce-93d40b764d66,5a4e28b6-5258-11ea-8e79-fb05bed242e5
5a3405ee-5258-11ea-8234-1ff966c5a72b,5a4e3432-5258-11ea-ba34-13b81c014c14
5a3a4526-5258-11ea-98b1-2fc73d3c67a9,5a4e4daa-5258-11ea-9d26-73eb0424a6ae
5a24b7ce-5258-11ea-bf46-e7e2c04cf214,5a4e6786-5258-11ea-ac97-27ad1b3d9629
5a336f80-5258-11ea-b85c-f383e1bac4c2,5a4e870c-5258-11ea-baae-7375fea179a3
5a41984e-5258-11ea-a032-4fe21c0644de,5a4e92d8-5258-11ea-bcdf-1bd50014fada
5a36b776-5258-11ea-b02c-935198228029,5a4ea03e-5258-11ea-83cf-d776934ff52d
5a37ffaa-5258-11ea-ae52-d3e94c413050,5a4eaae8-5258-11ea-87e6-13c98a2ec331
5a3735e8-5258-11ea-adc9-4f2bd3eded22,5a4eb6dc-5258-11ea-9438-93862cc4a9c3
5a31d030-5258-11ea-b457-a3a0b8f6b8f1,5a4ec294-5258-11ea-82d9-ebd066fa70b2
5a2c8594-5258-11ea-817a-2f396fbca1a5,5a4ed392-5258-11ea-a3ba-03a71bf4106a
5a32d520-5258-11ea-aab4-9f64b095987c,5a4edf04-5258-11ea-a062-df75e12ce059
5a21d7b6-5258-11ea-b8c5-87cdefb509d3,5a4f075e-5258-11ea-866e-7bf39b449e56
5a203fb4-5258-11ea-84e7-635672277bd0,5a4f1582-5258-11ea-aa20-5fb6da121e40
5a3205b4-5258-11ea-902a-1711e8cd27b4,5a4f24c8-5258-11ea-b12c-33e7cdc3dc71
5a49805e-5258-11ea-b026-c7779b4dcc01,5a4f2ff4-5258-11ea-b071-b7dc6f9126e5
5a30d234-5258-11ea-86ce-9f3a64e49c9c,5a4f4138-5258-11ea-bbf6-57a2a523475f
5a452efa-5258-11ea-a76d-f36c4dba2717,5a4f50f6-5258-11ea-8b89-a70ea3180132
5a326e1e-5258-11ea-a054-13a3c6eb299e,5a4f5cf4-5258-11ea-994b-afe466093c7c
5a258d2a-5258-11ea-8279-8faff6bd7976,5a4f74aa-5258-11ea-b08f-5f8be6cce96c
5a2c6d3e-5258-11ea-bd21-b750160b037c,5a4f8936-5258-11ea-acc2-df1669fe8e97
5a409e94-5258-11ea-a010-176e48a508ff,5a4f9ffc-5258-11ea-9e60-1b763124f3f2
5a2b8072-5258-11ea-a0c5-0b0327ccb3bc,5a4fac7c-5258-11ea-adcc-3f7b10bdbc70
5a261786-5258-11ea-b28b-973b77cc423f,5a4fbdf2-5258-11ea-a386-cb382c7f5573
5a35aa7a-5258-11ea-ab8f-9b1ee76eb8b6,5a4fcad6-5258-11ea-bce0-a3abb07157a3
5a4b1d4c-5258-11ea-a671-5ba90d071e61,5a4fdbde-5258-11ea-b14f-0ba6e25ca648
5a219710-5258-11ea-be6e-574b2221cc44,5a4fec14-5258-11ea-bd85-4b108808c2f5
5a310498-5258-11ea-8cc1-936110044be2,5a5000d2-5258-11ea-8e35-1355fe404f35
5a4b31ce-5258-11ea-b3dd-4753dae111a3,5a500d5c-5258-11ea-9eb6-6b9dbdb06f33
5a36ab32-5258-11ea-99e7-7f94b8331e74,5a501d7e-5258-11ea-bda5-b3de0e28a774
5a2cbcee-5258-11ea-ab0e-930e775d3778,5a502e68-5258-11ea-a918-c7b566dabcfc
5a2389e4-5258-11ea-9a05-871ad118f113,5a5042ea-5258-11ea-9754-93c3aa576f99
5a26a890-5258-11ea-b7e6-2361d4518fd3,5a505438-5258-11ea-88cc-177ba6fefe0b
5a407a2c-5258-11ea-8569-3fa4fecf912b,5a506248-5258-11ea-aef3-6fda952c86ee
5a37ffaa-5258-11ea-ae52-d3e94c413050,5a506d92-5258-11ea-ae66-bfdd70f50b35
5a3bbcda-5258-11ea-a823-4f99c8cd75b1,5a507f1c-5258-11ea-a85f-0f32555be930
5a41d2aa-5258-11ea-811f-ef53d8022c58,5a508e58-5258-11ea-989b-8f405628c286
5a2e561c-5258-11ea-8679-8fa410295d22,5a50a4a6-5258-11ea-a2be-8fe792974a70
5a3c7530-5258-11ea-ab55-6f05e88d3316,5a50bf9a-5258-11ea-9905-9b587e420996
5a248f6a-5258-11ea-a568-cb3b38980538,5a50ca80-5258-11ea-9c13-2fce93b9b946
5a4ec294-5258-11ea-82d9-ebd066fa70b2,5a50d610-5258-11ea-90c9-fb56ef48f075
5a4e1894-5258-11ea-80b5-afbae6e30ad3,5a50e808-5258-11ea-8edf-cfb8ae3d399f
5a5042ea-5258-11ea-9754-93c3aa576f99,5a50f99c-5258-11ea-82c9-3b4563497dee
5a389a3c-5258-11ea-99e0-c7e7aa0caa4f,5a510acc-5258-11ea-a62a-879a21af2cd1
5a29e172-5258-11ea-839f-13a5855c2fcb,5a51171a-5258-11ea-9f16-9b1180f4771b
5a304ddc-5258-11ea-9d59-93224f4ac08a,5a514d8e-5258-11ea-9417-33419b847acc
5a3a54da-5258-11ea-9a1a-877ed3a7b5ff,5a514e2e-5258-11ea-ad56-cf07df9993da
5a1ff432-5258-11ea-bb89-8f55d854b8b4,5a5160f8-5258-11ea-b878-2f7da203923d
5a43e374-5258-11ea-9b0c-33d9618aff72,5a516eea-5258-11ea-a36a-2f55f4fa319c
5a4fbdf2-5258-11ea-a386-cb382c7f5573,5a517ea8-5258-11ea-887a-6f2b844c3d5d
5a1f9168-5258-11ea-9302-9b6d16883682,5a519280-5258-11ea-b81d-2304fa2dc5e7
5a2ec46c-5258-11ea-b168-db1496254d9d,5a519cf8-5258-11ea-b088-7b9a4af419fe
5a43f9cc-5258-11ea-aa10-9b4a84cedef3,5a51add8-5258-11ea-864c-fbab63c3e858
5a2d8dcc-5258-11ea-8de0-872fe3e5933d,5a51defc-5258-11ea-a2e4-87d9bb8fc221
5a460f46-5258-11ea-ae45-8f604ef0d4e6,5a51d146-5258-11ea-8d7c-3fe0cfe81f84
5a1ef3e8-5258-11ea-88fa-539a7862158f,5a51ee60-5258-11ea-b51f-2bdf5a1f6d96
5a2c8594-5258-11ea-817a-2f396fbca1a5,5a520152-5258-11ea-911e-ffcb81dda138
5a275560-5258-11ea-85aa-6396aff83d44,5a520f9e-5258-11ea-ad9b-c39669c5d88c
5a4ed392-5258-11ea-a3ba-03a71bf4106a,5a521f34-5258-11ea-a289-83b642f73937
5a4c4546-5258-11ea-a93e-ffccb93ac51e,5a522f7e-5258-11ea-81dc-a3840f583c9e
5a2367b6-5258-11ea-9d70-27df1514808b,5a523bd6-5258-11ea-b1e6-5f35eebb22bf
5a4e28b6-5258-11ea-8e79-fb05bed242e5,5a524f18-5258-11ea-8758-47f2976f5cb1
5a435224-5258-11ea-9ee9-b7675ed50ce3,5a525b52-5258-11ea-b1f5-cfdd9b4ac68f
5a2f73bc-5258-11ea-9a81-fbde8f14d1ea,5a526fd4-5258-11ea-a2e3-536b409f2054
5a3c1a86-5258-11ea-9ae4-2b62f92fe06c,5a5285be-5258-11ea-b6c9-6378b827d830
5a292e8a-5258-11ea-b709-a34b649f4faa,5a529ae0-5258-11ea-b06c-33b0109a31d0
5a415320-5258-11ea-a6c3-af3037dd4d59,5a52aa76-5258-11ea-a643-3b4e18405514
5a4c0b12-5258-11ea-ba39-9378170e7136,5a52b642-5258-11ea-b33c-c3be86197c0e
5a1e8e80-5258-11ea-a265-538f444a1fca,5a52c4f2-5258-11ea-9a54-3b41d7a066ec
5a309b8e-5258-11ea-aad1-8bfbd1af3537,5a52d866-5258-11ea-8c2c-27baacc2b1cf
5a507f1c-5258-11ea-a85f-0f32555be930,5a52e3ec-5258-11ea-8242-37b4f71ea687
5a4cc688-5258-11ea-b80e-f330c7e5f557,5a52f954-5258-11ea-a4c1-d3f63301cdce
5a3ad400-5258-11ea-bc08-0f3869b19385,5a530de0-5258-11ea-9eaf-b70dcb75013d
5a385a9a-5258-11ea-9cee-b32f71a09804,5a531db2-5258-11ea-8120-d72a2c2c2516
5a3ded66-5258-11ea-8b31-fb7c3ec5bc6a,5a533a9a-5258-11ea-9b2c-e3403bfddadd
5a2f0800-5258-11ea-a3a0-9fb869ead0eb,5a53479c-5258-11ea-82ff-e7b21de53edc
5a37ffaa-5258-11ea-ae52-d3e94c413050,5a5354d0-5258-11ea-9a7b-f31fd79bb33f
5a378340-5258-11ea-8354-477cd999dc56,5a53663c-5258-11ea-bf3b-5f1d14cd7e77
5a33afcc-5258-11ea-9d46-23370fb2c7b4,5a537230-5258-11ea-b919-27bc2da4dc50
5a53479c-5258-11ea-82ff-e7b21de53edc,5a537de8-5258-11ea-a0e3-d74284bc68f2
5a1ef3e8-5258-11ea-88fa-539a7862158f,5a5389d2-5258-11ea-b0e1-2fec7e47cad3
5a44ee2c-5258-11ea-8ae4-972a71ff379a,5a539a58-5258-11ea-8fa0-abb6b747d482
5a3e54c2-5258-11ea-9b1b-1f2e6e715acc,5a53ba06-5258-11ea-9730-9768b52645e3
5a3b4688-5258-11ea-8196-07cfc189ed5f,5a53c604-5258-11ea-aaf7-7ba525f3055d
5a1f2c64-5258-11ea-8df7-cb1d79a1477f,5a53d176-5258-11ea-ae1d-dbdf7af50f11
5a4163c4-5258-11ea-8f4e-cb9fcb1fe645,5a53e63e-5258-11ea-b2b9-93b3a76cd617
5a2eb850-5258-11ea-a0c1-abfbfb933a73,5a53f430-5258-11ea-89af-03731944292e
5a412008-5258-11ea-9ad0-ab7ca29f351b,5a541442-5258-11ea-87a1-77839a76b6fc
5a4214e0-5258-11ea-a227-3f83b8aec46d,5a543094-5258-11ea-b3a1-c3be085615c0
5a254b4e-5258-11ea-8510-27eff55e4113,5a5449bc-5258-11ea-8e09-7bb0a4d103ed
5a284560-5258-11ea-b947-a32799b35f88,5a545466-5258-11ea-b95d-e7d7e9e61770
5a4b10a4-5258-11ea-903a-2f6a45956a0b,5a545e16-5258-11ea-b3e3-4bf1fdad8514
5a451ce4-5258-11ea-8d68-6fc36333e8b2,5a54719e-5258-11ea-9e41-9b9947ec3e09
5a4f9ffc-5258-11ea-9e60-1b763124f3f2,5a548512-5258-11ea-9fa1-5bd3247ffda4
5a4b673e-5258-11ea-84b6-eb991d9a3537,5a54912e-5258-11ea-b7c6-b3b8f523b326
5a4edf04-5258-11ea-a062-df75e12ce059,5a549ca0-5258-11ea-8b38-7b503782e308
5a3a4526-5258-11ea-98b1-2fc73d3c67a9,5a54b136-5258-11ea-8f3d-67b0848ffe2e
5a53663c-5258-11ea-bf3b-5f1d14cd7e77,5a54c8b0-5258-11ea-abcd-3fcbd32c810c
5a3fbdd0-5258-11ea-b69d-5784d7e820cb,5a54d5b2-5258-11ea-9368-eb3d264d95f7
5a290022-5258-11ea-8ae6-a7e004776ab7,5a54f268-5258-11ea-806d-5be3cd2731ef
5a2adff0-5258-11ea-86d3-47255b2eebf9,5a54e11a-5258-11ea-ba3e-8bb88752d0c0
5a47af5e-5258-11ea-8683-6b832c3aac94,5a550aaa-5258-11ea-bd24-c3fa05d25df3
5a46a0aa-5258-11ea-9650-3784b308c19e,5a551b58-5258-11ea-a8b0-d72a520bf8c8
5a3a778a-5258-11ea-9777-77c09e2757ef,5a55267a-5258-11ea-856e-73027ca0e6c6
5a519cf8-5258-11ea-b088-7b9a4af419fe,5a553930-5258-11ea-a3bb-cfc75fdb80c8
5a38e4ce-5258-11ea-94f0-93d1bcfa0431,5a554628-5258-11ea-96b6-779ca1104c02
5a1f8682-5258-11ea-9a12-f3d6e362db88,5a55521c-5258-11ea-b34e-ff8897fab7ff
5a22a722-5258-11ea-9f7b-8f5aa314608b,5a5566da-5258-11ea-9720-73e8b7b1f00d
5a4467c2-5258-11ea-b1f5-23f8ab622973,5a5574f4-5258-11ea-b63d-83af66e0b047
5a240946-5258-11ea-a53c-676b4f237227,5a5589a8-5258-11ea-a2ba-a38e516e9974
5a226262-5258-11ea-92da-1b6a8043a6e2,5a559b3c-5258-11ea-b061-d7ca49dfcf63
5a3fa908-5258-11ea-8974-93392823328d,5a55ad52-5258-11ea-833e-27f328d8f237
5a292e8a-5258-11ea-b709-a34b649f4faa,5a55cc38-5258-11ea-aa33-ef1f6c2736eb
5a42720a-5258-11ea-9b7b-9ffdade91319,5a55d8b8-5258-11ea-b97a-cfd5cea53e7c
5a3d7a5c-5258-11ea-9f17-776757fae0ca,5a55e632-5258-11ea-a88c-17d419932e61
5a4a6a46-5258-11ea-9a4e-2377860ad580,5a55fcbc-5258-11ea-bc7d-a735c6fcfbb4
5a44a73c-5258-11ea-a6ba-33a141fa8b72,5a560d56-5258-11ea-b7a7-3ba34dfbbabc
5a382016-5258-11ea-911d-f3ddc019d626,5a561dbe-5258-11ea-a1ad-5b7fdb16461e
5a2bd388-5258-11ea-bc39-63c185c2f58d,5a562d72-5258-11ea-bb70-e3a8988e5dce
5a33a1d0-5258-11ea-8c36-cfb8372a327a,5a563f7e-5258-11ea-871a-d7992f9dcc1b
5a22d5ee-5258-11ea-8934-6f8e876d1ec0,5a5654c8-5258-11ea-82e4-c74963f7d9e7
5a2efcac-5258-11ea-ae6e-fb33e289faba,5a566684-5258-11ea-b588-2b7333352e00
5a34cd26-5258-11ea-b782-1fbed777cfc8,5a567d9a-5258-11ea-94cc-3b73545bc467
5a3bdb7a-5258-11ea-8aa7-13dbf0c65ed2,5a56905a-5258-11ea-b393-23240911a9e0
5a32c792-5258-11ea-b495-1bd01a771b5d,5a569d3e-5258-11ea-81be-574df21fa9c2
5a243902-5258-11ea-8835-a35911960f36,5a56b0bc-5258-11ea-be33-1f5afe09fa70
5a39df0a-5258-11ea-acae-0faef47325d6,5a56bd6e-5258-11ea-ac8d-63273928a6a4
5a3a54da-5258-11ea-9a1a-877ed3a7b5ff,5a56d506-5258-11ea-9d7e-87a0f47cd090
5a40cf7c-5258-11ea-8dbf-3b56275a0e6e,5a56f978-5258-11ea-9f65-cbfab67799cf
5a28a1f4-5258-11ea-a3cd-47739ebe14b0,5a570cba-5258-11ea-9bac-8b570dea672a
5a457f72-5258-11ea-8feb-a7627f64ee8e,5a571a02-5258-11ea-b708-eb3250fb19fe
5a21b5a6-5258-11ea-be75-671351fd1a4f,5a5727a4-5258-11ea-96a2-43da1822609d
5a33d6b4-5258-11ea-ab0d-b72d245583dd,5a5738fc-5258-11ea-9e75-076191e9e254
5a3d7a5c-5258-11ea-9f17-776757fae0ca,5a5745c2-5258-11ea-a9d0-670fac201e6e
5a213ca2-5258-11ea-8866-d7870677fc95,5a575774-5258-11ea-b8e5-0b6499acfb50
5a2e4686-5258-11ea-9c29-9f27d5655bd2,5a576a52-5258-11ea-bcee-4f021d7a4f2a
5a268ba8-5258-11ea-b81d-4f272034bd81,5a5783ca-5258-11ea-9334-5b04dcb92d83
5a31adc6-5258-11ea-ad3a-179b58a45f6a,5a579ff4-5258-11ea-b199-e3d76261b5fe
5a30d234-5258-11ea-86ce-9f3a64e49c9c,5a57b228-5258-11ea-a13b-2f4ae43d98a4
5a3bbcda-5258-11ea-a823-4f99c8cd75b1,5a57c1fa-5258-11ea-8eba-db254fbe570c
5a29e172-5258-11ea-839f-13a5855c2fcb,5a57d136-5258-11ea-a809-13fe1aa8bbdd
5a47af5e-5258-11ea-8683-6b832c3aac94,5a57dea6-5258-11ea-afd5-c373798f4f82
5a33e74e-5258-11ea-94bb-03998f61576b,5a57f148-5258-11ea-bdd3-8769f7ddaa4a
5a413020-5258-11ea-a8c8-8f7a2b723e7e,5a57fd00-5258-11ea-8fbc-ebd49af6d285
5a3a6d30-5258-11ea-a331-87b63f1f3447,5a5808ea-5258-11ea-840f-efe298038f48
5a31498a-5258-11ea-811f-3375a0a2d91b,5a58262c-5258-11ea-ba3c-fff71f2a8481
5a329b28-5258-11ea-9832-238492bf04dc,5a583bf8-5258-11ea-be93-2fab9198037c
5a4eb6dc-5258-11ea-9438-93862cc4a9c3,5a584ab2-5258-11ea-b633-9b0847f988cf
5a4e870c-5258-11ea-baae-7375fea179a3,5a585dea-5258-11ea-8278-5f251714feb2
5a388e8e-5258-11ea-a533-fb43955b11a0,5a586d44-5258-11ea-8aa2-27a3310b19a0
5a2e1562-5258-11ea-ad99-dfaa7a1cd022,5a588fea-5258-11ea-9f81-0f874f5cb03c
5a474cc6-5258-11ea-9bc5-67c229e0e0b8,5a588342-5258-11ea-aff3-57c7be63a279
5a46f50a-5258-11ea-a5bb-1ffcf407b88b,5a589cd8-5258-11ea-999d-5b037aac197a
5a54f268-5258-11ea-806d-5be3cd2731ef,5a58b272-5258-11ea-b16b-bb9e120e520d
5a4018d4-5258-11ea-87a3-6b4c8a983248,5a58c730-5258-11ea-95a6-77f42578f98c
5a4e92d8-5258-11ea-bcdf-1bd50014fada,5a58db12-5258-11ea-bf48-57cb9ea13139
5a1e9b28-5258-11ea-b6f1-3702dbd21b69,5a58eab2-5258-11ea-9eba-43afebe9f8d5
5a4ad76a-5258-11ea-953a-3307ad4c3226,5a58ff98-5258-11ea-9b30-6fef2d86124b
5a46b270-5258-11ea-ba8e-4b9fde587dda,5a5910d2-5258-11ea-824b-33ff751f879f
5a4f4138-5258-11ea-bbf6-57a2a523475f,5a591d98-5258-11ea-bd98-5fcb488a4893
5a36cf4a-5258-11ea-a74a-775711aaa764,5a592a18-5258-11ea-8e97-ebb0324682fb
5a4a5b96-5258-11ea-b569-5fa82a414448,5a59419c-5258-11ea-8c99-f7bccfa50ec7
5a41984e-5258-11ea-a032-4fe21c0644de,5a595894-5258-11ea-8652-7734b307bca4
5a567d9a-5258-11ea-94cc-3b73545bc467,5a596bf4-5258-11ea-b0c4-bb84cd216b2a
5a56b0bc-5258-11ea-be33-1f5afe09fa70,5a5989c2-5258-11ea-b5db-d7ffc71988f7
5a2174d8-5258-11ea-b787-af78fb4d63a6,5a59782e-5258-11ea-b185-6fda49366a8a
5a3cf136-5258-11ea-9fae-6bd698a5798e,5a599ac0-5258-11ea-b336-cba5e3614a38
5a3dceda-5258-11ea-88e1-373628e0163d,5a59ae3e-5258-11ea-b786-d731dacb2535
5a1f50f4-5258-11ea-95fe-1733aaf2d0be,5a59e142-5258-11ea-a167-8389a1c57b4d
5a4c4546-5258-11ea-a93e-ffccb93ac51e,5a59efac-5258-11ea-be4d-231d77539d91
5a56b0bc-5258-11ea-be33-1f5afe09fa70,5a59fce0-5258-11ea-b97a-87a8227267ff
5a321e96-5258-11ea-a943-a38728293cfe,5a5a08d4-5258-11ea-b716-a7974cfad357
5a2ac984-5258-11ea-b7f8-5f7fe7bd4216,5a5a143c-5258-11ea-b2d5-ff75076d4407
5a2bd388-5258-11ea-bc39-63c185c2f58d,5a5a2346-5258-11ea-835c-5fba4a3a1245
5a2ac984-5258-11ea-b7f8-5f7fe7bd4216,5a5a2e5e-5258-11ea-9bf0-e31634008615
5a48d24e-5258-11ea-bbf3-8f82e6eb0c2b,5a5a3ad4-5258-11ea-8188-ebf01ad5a811
5a2c3648-5258-11ea-a1d8-5b7074ca766f,5a5a591a-5258-11ea-9048-7f7cebcb34a3
5a3eea18-5258-11ea-b4d1-230c061913a2,5a5a70b2-5258-11ea-ad8e-7b0c7f6c7011
5a273de6-5258-11ea-b6fa-873e70f7e67d,5a5a8034-5258-11ea-8202-4b8ab5b74fc7
5a37e6be-5258-11ea-85df-cb8c40a6e0ff,5a5a92c2-5258-11ea-a354-139141b8d134
5a317c20-5258-11ea-a4c8-b359c78a02bf,5a5aa212-5258-11ea-a53e-cb78c618d776
5a230938-5258-11ea-8f52-f3beae36589d,5a5aae10-5258-11ea-9e04-6bc15872be86
5a212f64-5258-11ea-a4cf-7bebd014adf4,5a5abb6c-5258-11ea-983c-5722886d9772
5a371cac-5258-11ea-9a96-bf87471ab118,5a5acbb6-5258-11ea-b60c-e76f381c1856
5a4960a6-5258-11ea-9cd7-672c11e8ef80,5a5adcfa-5258-11ea-8d1a-af218ebcbf34
5a415320-5258-11ea-a6c3-af3037dd4d59,5a5b00c2-5258-11ea-b2dc-c3e05d3f8430
5a3cd624-5258-11ea-a6ad-cf61b43bac47,5a5b0ca2-5258-11ea-bedf-93f737bb2c70
5a2314aa-5258-11ea-8beb-1be3d676889d,5a5b214c-5258-11ea-8fbd-47d29d796c10
5a52c4f2-5258-11ea-9a54-3b41d7a066ec,5a5b342a-5258-11ea-af5c-eb460dd3bc9d
5a351b96-5258-11ea-8565-ebb248a50231,5a5b3f88-5258-11ea-b634-a334042ff438
5a3cd624-5258-11ea-a6ad-cf61b43bac47,5a5b4c26-5258-11ea-a8f3-e743f58b9522
5a4a290a-5258-11ea-b3fa-2f00ef4306a1,5a5b5d9c-5258-11ea-ae3c-3f4a9beaaa73
5a4bff96-5258-11ea-904f-f794068330c2,5a5b76ba-5258-11ea-ab8d-4317b7467714
5a5a2e5e-5258-11ea-9bf0-e31634008615,5a5b8b3c-5258-11ea-bcdc-ff422e086168
5a1ef3e8-5258-11ea-88fa-539a7862158f,5a5baed2-5258-11ea-95e2-1f5021c01a6e
5a4a1cf8-5258-11ea-8d0d-cbb754d9e808,5a5bbb98-5258-11ea-bb80-f398a6741502
5a3a778a-5258-11ea-9777-77c09e2757ef,5a5bc9bc-5258-11ea-8e8a-af22a4762f75
5a3fbdd0-5258-11ea-b69d-5784d7e820cb,5a5bd628-5258-11ea-b70d-5f07a7905571
5a203fb4-5258-11ea-84e7-635672277bd0,5a5be212-5258-11ea-b43c-3775653bbcf6
5a38a54a-5258-11ea-bd88-87b4dc9b233c,5a5bf2e8-5258-11ea-912d-ff66fe83a4d9
5a5b00c2-5258-11ea-b2dc-c3e05d3f8430,5a5c053a-5258-11ea-84cc-3f6867e2c2a8
5a3767fc-5258-11ea-9973-17a87b724947,5a5c1246-5258-11ea-ad7f-cb1d7f58cec4
5a309b8e-5258-11ea-aad1-8bfbd1af3537,5a5c31fe-5258-11ea-83c7-37766d985659
5a549ca0-5258-11ea-8b38-7b503782e308,5a5c3c08-5258-11ea-b5df-b3b1b708bd49
5a3d4cb2-5258-11ea-a2cc-739326953762,5a5c5274-5258-11ea-b083-43bc4b8e1018
5a282ec2-5258-11ea-b748-d797eb92ce5c,5a5c6110-5258-11ea-a941-135ff5a03ddc
5a52b642-5258-11ea-b33c-c3be86197c0e,5a5c6f5c-5258-11ea-9762-cb9954bf879f
5a589cd8-5258-11ea-999d-5b037aac197a,5a5c82c6-5258-11ea-b342-4300f1b7eb10
5a5989c2-5258-11ea-b5db-d7ffc71988f7,5a5c9e6e-5258-11ea-ab01-ef9358121832
5a4163c4-5258-11ea-8f4e-cb9fcb1fe645,5a5cab02-5258-11ea-a6f6-3358a2c29bb0
5a30d234-5258-11ea-86ce-9f3a64e49c9c,5a5cbc0a-5258-11ea-b7a8-27016f8c06d0
5a247020-5258-11ea-9f53-538c6184fb7a,5a5ccd12-5258-11ea-92d9-afca71555652
5a567d9a-5258-11ea-94cc-3b73545bc467,5a5cdf1e-5258-11ea-b8b8-5737b444dc11
5a27137a-5258-11ea-90ca-73b6e7032a0c,5a5cf35a-5258-11ea-bebd-c301b68724e6
5a30b9fc-5258-11ea-9a70-238266ad1c44,5a5d035e-5258-11ea-ba58-cfc6a6c70b6b
5a44d4a0-5258-11ea-b0d9-8f466b683ac2,5a5d133a-5258-11ea-8777-736c703713ca
5a3c7530-5258-11ea-ab55-6f05e88d3316,5a5d23a2-5258-11ea-8ccd-3313c26f1c3f
5a2c1370-5258-11ea-a539-37910e1b71a1,5a5d2f14-5258-11ea-8389-bb1dc59f653e
5a4c4546-5258-11ea-a93e-ffccb93ac51e,5a5d459e-5258-11ea-93ca-477efbdad84e
5a203fb4-5258-11ea-84e7-635672277bd0,5a5d5868-5258-11ea-b175-5309915348bf
5a22066e-5258-11ea-96ee-030121753ea6,5a5d66f0-5258-11ea-875e-afc21706a04a
5a5c6f5c-5258-11ea-9762-cb9954bf879f,5a5d778a-5258-11ea-b2c7-d3b3641f5050
5a2fa148-5258-11ea-b0e7-d30d0c8dcb41,5a5d878e-5258-11ea-b3bc-033eac661367
5a2fd456-5258-11ea-8766-b71cfe5f0700,5a5d9382-5258-11ea-986f-7b39e37e5e52
5a1ff432-5258-11ea-bb89-8f55d854b8b4,5a5da84a-5258-11ea-8d10-2bc46c8ea7d1
5a2fd456-5258-11ea-8766-b71cfe5f0700,5a5dbc68-5258-11ea-bd13-37ec8f104655
5a46640a-5258-11ea-874d-47e3790b5036,5a5dc7bc-5258-11ea-8599-cfc88973aacc
5a29d592-5258-11ea-aba2-8715279d17c1,5a5dd856-5258-11ea-88d1-276f27706c6e
5a510acc-5258-11ea-a62a-879a21af2cd1,5a5deb52-5258-11ea-9b19-db24a21bd574
5a3e54c2-5258-11ea-9b1b-1f2e6e715acc,5a5dfc82-5258-11ea-8bec-c37acdb2eb15
5a2c8e7c-5258-11ea-847f-3b5bc7efb620,5a5e0e02-5258-11ea-a3c4-d7cddb1833bc
5a31bc08-5258-11ea-b626-63f0ce3e6a03,5a5e1fa0-5258-11ea-8788-cfbe074aff94
5a4539f4-5258-11ea-b2e3-ab8a97f8fd46,5a5e39e0-5258-11ea-8626-cbcda089d5ba
5a56d506-5258-11ea-9d7e-87a0f47cd090,5a5e43cc-5258-11ea-af1d-fbc82ea9536b
5a351b96-5258-11ea-8565-ebb248a50231,5a5e5808-5258-11ea-bfa9-4bec5d15027a
5a25ae18-5258-11ea-ba46-33a17318e2a9,5a5e69ec-5258-11ea-a1ee-3756785821aa
5a42fa04-5258-11ea-9246-1b4c59beab94,5a5e786a-5258-11ea-96a0-fff88ba885d7
5a20faa8-5258-11ea-bdf0-0f9c4cd1020a,5a5e89cc-5258-11ea-b9b7-33a1746f7540
5a321e96-5258-11ea-a943-a38728293cfe,5a5e95a2-5258-11ea-9f05-b3893784d2cc
5a2664a2-5258-11ea-a7bd-6f0853e04133,5a5eaf6a-5258-11ea-a765-1f7f625906e7
5a4f24c8-5258-11ea-b12c-33e7cdc3dc71,5a5ebd66-5258-11ea-9768-b73d2552f2ed
5a4bae92-5258-11ea-b160-870cbb6d02ea,5a5ed18e-5258-11ea-8c41-2faa0d3b0b0a
5a29109e-5258-11ea-ab9c-5bda6b8801ce,5a5ee534-5258-11ea-870d-bfff81e8fc3f
5a4ed392-5258-11ea-a3ba-03a71bf4106a,5a5ef89e-5258-11ea-b0c2-77531a87bcd7
5a3db4e0-5258-11ea-ac64-73d1029c3f07,5a5f069a-5258-11ea-a95f-674c28c9b403
5a334e74-5258-11ea-a170-37e062cbbe77,5a5f1dc4-5258-11ea-a9d7-bf0dd4cc19cf
5a450d1c-5258-11ea-9390-737fa4066fd8,5a5f1158-5258-11ea-8459-13c90cdcb27e
5a25a3c8-5258-11ea-a366-fb094fcce8bb,5a5f369c-5258-11ea-80ad-67ebe11e42fa
5a3c8dcc-5258-11ea-9134-67640e6fd442,5a5f4b1e-5258-11ea-aca7-af1bf6a49c92
5a586d44-5258-11ea-8aa2-27a3310b19a0,5a5f664e-5258-11ea-a79b-c774b0104023
5a42b18e-5258-11ea-8141-bf02b0c24f0b,5a5f7ec2-5258-11ea-b4c5-2b6e67c7f9da
5a5f369c-5258-11ea-80ad-67ebe11e42fa,5a5f8e76-5258-11ea-8c45-27e064f8a77e
5a583bf8-5258-11ea-be93-2fab9198037c,5a5f9bdc-5258-11ea-a2c7-77989cbfc5b6
5a5a08d4-5258-11ea-b716-a7974cfad357,5a5fac62-5258-11ea-a3a7-8fe3fa867947
5a452efa-5258-11ea-a76d-f36c4dba2717,5a5fb978-5258-11ea-9128-0ba1a2d824fe
5a59efac-5258-11ea-be4d-231d77539d91,5a5fcfda-5258-11ea-8758-6fd5b2e2f680
5a214e2c-5258-11ea-8eb2-23b21c05c3bc,5a5fe754-5258-11ea-a8c3-fb582b0d94be
