RunID,Agent,Age,Created,Inactive,Resources,Reputation,Ability,Que
run-2020-2-18-13-53-23.720449924,AGENT#07ba433e-5256-11ea-b7cc-cf62eaadc5dd,0,0,0,10,1.0,1.0,0
run-2020-2-18-13-53-23.720449924,AGENT#07ba408c-5256-11ea-a684-0705256eaebf,1,0,1,10,1.0,1.0,0
run-2020-2-18-13-53-23.720449924,AGENT#07ba4884-5256-11ea-9de5-67f2d6e77698,1,0,1,10,1.0,1.0,0
run-2020-2-18-13-53-23.720449924,AGENT#07ba4b0e-5256-11ea-bb0a-6b2964887e89,1,0,1,10,1.0,1.0,0
run-2020-2-18-13-53-23.720449924,AGENT#07ba4da2-5256-11ea-a2d3-577c3ae29eff,1,0,1,10,1.0,1.0,0
run-2020-2-18-13-53-23.720449924,AGENT#07ba52ca-5256-11ea-ac9e-8396fbf5752f,1,0,1,10,1.0,1.0,0
run-2020-2-18-13-53-23.720449924,AGENT#07ba9aa0-5256-11ea-adfe-b3d747e08cb6,1,0,1,10,1.0,1.0,0
run-2020-2-18-13-53-23.720449924,AGENT#07ba5040-5256-11ea-a34f-673ffdf9b5e2,2,0,2,10,1.0,1.0,0
run-2020-2-18-13-53-23.720449924,AGENT#07ba5554-5256-11ea-82a2-bb78ac50d4fc,2,0,2,10,1.0,1.0,0
run-2020-2-18-13-53-23.720449924,AGENT#07ba923a-5256-11ea-8938-5f16eb86bb3e,2,0,2,10,1.0,1.0,0
run-2020-2-18-13-53-23.720449924,AGENT#07baa018-5256-11ea-aa93-4741fa72cac7,2,0,2,10,1.0,1.0,0
run-2020-2-18-13-53-23.720449924,AGENT#07bb2a10-5256-11ea-8abf-b7b8e41110a9,1,1,2,10,1.0,1.0,0
run-2020-2-18-13-53-23.720449924,AGENT#07bb3a50-5256-11ea-9742-27c3044dd2b5,1,1,2,10,1.0,1.0,0
run-2020-2-18-13-53-23.720449924,AGENT#07ba9d5c-5256-11ea-bfe9-3f587e6ca816,3,0,3,10,1.0,1.0,0
run-2020-2-18-13-53-23.720449924,AGENT#07bb23f8-5256-11ea-bcbd-1322c5b16502,2,1,3,10,1.0,1.0,0
run-2020-2-18-13-53-23.720449924,AGENT#07bb3dc0-5256-11ea-bbd0-973f04a321f0,3,1,4,10,1.0,1.0,0
run-2020-2-18-13-53-23.720449924,AGENT#07bb8262-5256-11ea-8d71-af482f710a76,2,2,4,10,1.0,1.0,0
run-2020-2-18-13-53-23.720449924,AGENT#07bbc2fe-5256-11ea-8358-0730ce91a9c4,1,3,4,10,1.0,1.0,0
run-2020-2-18-13-53-23.720449924,AGENT#07bb2e16-5256-11ea-b517-771be5683914,4,1,5,10,1.0,1.0,0
run-2020-2-18-13-53-23.720449924,AGENT#07bb3762-5256-11ea-8ed9-bb5ca00d357a,5,1,6,10,1.0,1.0,0
run-2020-2-18-13-53-23.720449924,AGENT#07bc021e-5256-11ea-b2fb-cbfede14d948,4,4,8,10,1.0,1.0,0
run-2020-2-18-13-53-23.720449924,AGENT#07bc0520-5256-11ea-8006-0b623b709f51,5,4,9,10,1.0,1.0,0
run-2020-2-18-13-53-23.720449924,AGENT#07bc336a-5256-11ea-9e8e-af5278625437,5,5,10,10,1.0,1.0,0
run-2020-2-18-13-53-23.720449924,AGENT#07bca796-5256-11ea-9486-c36d4039a160,3,7,10,10,1.0,1.0,0
run-2020-2-18-13-53-23.720449924,AGENT#07bc6790-5256-11ea-a35f-c73dc64ab45a,5,6,11,10,1.0,1.0,0
run-2020-2-18-13-53-23.720449924,AGENT#07bcebc0-5256-11ea-8874-0fead68f2b72,4,8,12,10,1.0,1.0,0
run-2020-2-18-13-53-23.720449924,AGENT#07bceea4-5256-11ea-aa35-67775529ff77,4,8,12,10,1.0,1.0,0
run-2020-2-18-13-53-23.720449924,AGENT#07bd32a6-5256-11ea-8008-0bb8a4a45814,3,9,12,10,1.0,1.0,0
run-2020-2-18-13-53-23.720449924,AGENT#07bce8aa-5256-11ea-bdee-97afc29b796e,5,8,13,10,1.0,1.0,0
run-2020-2-18-13-53-23.720449924,AGENT#07bdd058-5256-11ea-9834-fff7e69404f1,2,11,13,10,1.0,1.0,0
run-2020-2-18-13-53-23.720449924,AGENT#07bd2f5e-5256-11ea-8b68-67256402f01e,5,9,14,10,1.0,1.0,0
run-2020-2-18-13-53-23.720449924,AGENT#07be52d0-5256-11ea-996d-bf6e1a331fbb,1,13,14,10,1.0,1.0,0
run-2020-2-18-13-53-23.720449924,AGENT#07bdcda6-5256-11ea-ae4c-4f0a00120207,4,11,15,10,1.0,1.0,0
run-2020-2-18-13-53-23.720449924,AGENT#07be1040-5256-11ea-b8c9-07abcf142ec7,4,12,16,10,1.0,1.0,0
run-2020-2-18-13-53-23.720449924,AGENT#07bea136-5256-11ea-bbc9-fb4624afb193,2,14,16,10,1.0,1.0,0
run-2020-2-18-13-53-23.720449924,AGENT#07bf442e-5256-11ea-956f-c74471f1828f,1,16,17,10,1.0,1.0,0
run-2020-2-18-13-53-23.720449924,AGENT#07bf4e60-5256-11ea-8f5a-bbfea9e6007f,1,16,17,10,1.0,1.0,0
run-2020-2-18-13-53-23.720449924,AGENT#07be4ace-5256-11ea-af38-83f7b422b62d,5,13,18,10,1.0,1.0,0
run-2020-2-18-13-53-23.720449924,AGENT#07be4dd0-5256-11ea-a723-13139556fbcf,5,13,18,10,1.0,1.0,0
run-2020-2-18-13-53-23.720449924,AGENT#07bef604-5256-11ea-8136-93cf1effbcb0,4,15,19,10,1.0,1.0,0
run-2020-2-18-13-53-23.720449924,AGENT#07bf4960-5256-11ea-990c-77667046aa23,3,16,19,10,1.0,1.0,0
run-2020-2-18-13-53-23.720449924,AGENT#07bf536a-5256-11ea-8602-37aaa2a0bec1,3,16,19,10,1.0,1.0,0
run-2020-2-18-13-53-23.720449924,AGENT#07bf55e0-5256-11ea-9a59-1bad59bb61fd,3,16,19,10,1.0,1.0,0
run-2020-2-18-13-53-23.720449924,AGENT#07bef06e-5256-11ea-a0e7-57a2cb303552,5,15,20,10,1.0,1.0,0
run-2020-2-18-13-53-23.720449924,AGENT#07c054d6-5256-11ea-90f9-bbde007b5357,1,19,20,10,1.0,1.0,0
run-2020-2-18-13-53-23.720449924,AGENT#07bf4be0-5256-11ea-b667-1f1a17d15c84,5,16,21,10,1.0,1.0,0
run-2020-2-18-13-53-23.720449924,AGENT#07c001ac-5256-11ea-9893-3b61dc0d2816,3,18,21,10,1.0,1.0,0
run-2020-2-18-13-53-23.720449924,AGENT#07c0c3e4-5256-11ea-b7e6-6bb748df3375,1,20,21,10,1.0,1.0,0
run-2020-2-18-13-53-23.720449924,AGENT#07bffc48-5256-11ea-a538-6b3d0af2fa12,4,18,22,10,1.0,1.0,0
run-2020-2-18-13-53-23.720449924,AGENT#07c0c66e-5256-11ea-8f6a-f309933e82c5,2,20,22,10,1.0,1.0,0
run-2020-2-18-13-53-23.720449924,AGENT#07bfff0e-5256-11ea-b1a8-c7a750e41edd,5,18,23,10,1.0,1.0,0
run-2020-2-18-13-53-23.720449924,AGENT#07c0beda-5256-11ea-8161-c7ab84c22af3,3,20,23,10,1.0,1.0,0
run-2020-2-18-13-53-23.720449924,AGENT#07c0c902-5256-11ea-a74c-6f7bc4a86208,3,20,23,10,1.0,1.0,0
run-2020-2-18-13-53-23.720449924,AGENT#07c18b30-5256-11ea-8470-3b0f09879d16,1,22,23,10,1.0,1.0,0
run-2020-2-18-13-53-23.720449924,AGENT#07c057c4-5256-11ea-884c-f7719788bae6,5,19,24,10,1.0,1.0,0
run-2020-2-18-13-53-23.720449924,AGENT#07c0b674-5256-11ea-ab6b-6330c9451152,4,20,24,10,1.0,1.0,0
run-2020-2-18-13-53-23.720449924,AGENT#07c186a8-5256-11ea-a628-8f6a71a568bc,2,22,24,10,1.0,1.0,0
run-2020-2-18-13-53-23.720449924,AGENT#07c1f494-5256-11ea-8158-7fe020b0e308,1,23,24,10,1.0,1.0,0
run-2020-2-18-13-53-23.720449924,AGENT#07bd3580-5256-11ea-a10c-c36a2521ada7,16,9,25,10,1.0,1.0,0
run-2020-2-18-13-53-23.720449924,AGENT#07c0b980-5256-11ea-a703-0fe82de90163,5,20,25,10,1.0,1.0,0
run-2020-2-18-13-53-23.720449924,AGENT#07c0bc28-5256-11ea-8518-67be038393de,5,20,25,10,1.0,1.0,0
run-2020-2-18-13-53-23.720449924,AGENT#07c127bc-5256-11ea-90da-c7a38764e7a6,4,21,25,10,1.0,1.0,0
run-2020-2-18-13-53-23.720449924,AGENT#07c1818a-5256-11ea-a562-03c941a45f41,3,22,25,10,1.0,1.0,0
run-2020-2-18-13-53-23.720449924,AGENT#07c1ef26-5256-11ea-b63f-03b7e6788f68,2,23,25,10,1.0,1.0,0
run-2020-2-18-13-53-23.720449924,AGENT#07c25f38-5256-11ea-878e-f74c80a2f3bd,1,24,25,10,1.0,1.0,0
run-2020-2-18-13-53-23.720449924,AGENT#07c1f1ec-5256-11ea-b162-9f6f96cddff5,3,23,26,10,1.0,1.0,0
run-2020-2-18-13-53-23.720449924,AGENT#07c25c5e-5256-11ea-8877-d768cceee29b,2,24,26,10,1.0,1.0,0
run-2020-2-18-13-53-23.720449924,AGENT#07c2c41e-5256-11ea-a79c-578dede70247,1,25,26,10,1.0,1.0,0
run-2020-2-18-13-53-23.720449924,AGENT#07c2c6a8-5256-11ea-acd7-2b864c0dd37c,1,25,26,10,1.0,1.0,0
run-2020-2-18-13-53-23.720449924,AGENT#07ba97d0-5256-11ea-950b-9fd3f31b2974,27,0,27,10,1.0,1.0,0
run-2020-2-18-13-53-23.720449924,AGENT#07c1f714-5256-11ea-ad9e-634dd3d0f45d,4,23,27,10,1.0,1.0,0
run-2020-2-18-13-53-23.720449924,AGENT#07c261ea-5256-11ea-8536-cff4e64b4855,4,24,28,10,1.0,1.0,0
run-2020-2-18-13-53-23.720449924,AGENT#07bbcc22-5256-11ea-90de-efb6f390b7c6,26,3,29,10,1.0,1.0,0
run-2020-2-18-13-53-23.720449924,AGENT#07c327c4-5256-11ea-8198-8b527f3ee546,3,26,29,10,1.0,1.0,0
run-2020-2-18-13-53-23.720449924,AGENT#07bbc952-5256-11ea-94dd-fb7777e75efb,27,3,30,10,1.0,1.0,0
run-2020-2-18-13-53-23.720449924,AGENT#07c38480-5256-11ea-a42b-ff8ac423de9a,5,27,32,10,1.0,1.0,0
run-2020-2-18-13-53-23.720449924,AGENT#07c4a59a-5256-11ea-807b-b7f987a1e814,2,30,32,10,1.0,1.0,0
run-2020-2-18-13-53-23.720449924,AGENT#07bca480-5256-11ea-afef-7f5a2e18df55,26,7,33,10,1.0,1.0,0
run-2020-2-18-13-53-23.720449924,AGENT#07bfab30-5256-11ea-862c-e33967f2fcc1,16,17,33,10,1.0,1.0,0
run-2020-2-18-13-53-23.720449924,AGENT#07c3dcfa-5256-11ea-94b6-f3e1a9706f91,5,28,33,10,1.0,1.0,0
run-2020-2-18-13-53-23.720449924,AGENT#07c5254c-5256-11ea-9d44-6b4987cb5ff0,2,31,33,10,1.0,1.0,0
run-2020-2-18-13-53-23.720449924,AGENT#07bef8c0-5256-11ea-a023-f7dd25eaee23,19,15,34,10,1.0,1.0,0
run-2020-2-18-13-53-23.720449924,AGENT#07c527b8-5256-11ea-9338-97d2d3955767,3,31,34,10,1.0,1.0,0
run-2020-2-18-13-53-23.720449924,AGENT#07c5f7ec-5256-11ea-8906-bbe25c16f641,1,33,34,10,1.0,1.0,0
run-2020-2-18-13-53-23.720449924,AGENT#07c5fa80-5256-11ea-9a0e-b3d4f5c2cb83,1,33,34,10,1.0,1.0,0
run-2020-2-18-13-53-23.720449924,AGENT#07ba9528-5256-11ea-a3d1-47bdfc9b876a,35,0,35,10,1.0,1.0,0
run-2020-2-18-13-53-23.720449924,AGENT#07c12532-5256-11ea-b630-cf812596a250,14,21,35,10,1.0,1.0,0
run-2020-2-18-13-53-23.720449924,AGENT#07c4a87e-5256-11ea-a91b-3b50bac7db42,5,30,35,10,1.0,1.0,0
run-2020-2-18-13-53-23.720449924,AGENT#07c66790-5256-11ea-bca1-d323778c6854,1,34,35,10,1.0,1.0,0
run-2020-2-18-13-53-23.720449924,AGENT#07c67406-5256-11ea-8fd6-73aa24946ea3,1,34,35,10,1.0,1.0,0
run-2020-2-18-13-53-23.720449924,AGENT#07c67672-5256-11ea-b3cd-5f50c2ecc3a4,1,34,35,10,1.0,1.0,0
run-2020-2-18-13-53-23.720449924,AGENT#07c6f2b4-5256-11ea-a386-0fde40398c8c,1,35,36,10,1.0,1.0,0
run-2020-2-18-13-53-23.720449924,AGENT#07c66cd6-5256-11ea-8242-efda79096ea1,3,34,37,10,1.0,1.0,0
run-2020-2-18-13-53-23.720449924,AGENT#07c6ede6-5256-11ea-8635-bb7ea706a9f7,2,35,37,10,1.0,1.0,0
run-2020-2-18-13-53-23.720449924,AGENT#07c75e02-5256-11ea-b2d5-af15067e215f,1,36,37,10,1.0,1.0,0
run-2020-2-18-13-53-23.720449924,AGENT#07c760aa-5256-11ea-83c1-13db059abaf1,1,36,37,10,1.0,1.0,0
run-2020-2-18-13-53-23.720449924,AGENT#07bb85dc-5256-11ea-9daa-8312632f1b3d,36,2,38,10,1.0,1.0,0
run-2020-2-18-13-53-23.720449924,AGENT#07c66a4c-5256-11ea-9e56-9ff071d1ba39,4,34,38,10,1.0,1.0,0
run-2020-2-18-13-53-23.720449924,AGENT#07c6eb3e-5256-11ea-bba5-47d601968337,3,35,38,10,1.0,1.0,0
run-2020-2-18-13-53-23.720449924,AGENT#07c6f048-5256-11ea-bda4-b3906aca2bc8,3,35,38,10,1.0,1.0,0
run-2020-2-18-13-53-23.720449924,AGENT#07ba45f0-5256-11ea-812c-e7653ddac1f5,39,0,39,10,1.0,1.0,0
run-2020-2-18-13-53-23.720449924,AGENT#07c6f516-5256-11ea-8080-c73569d44679,4,35,39,10,1.0,1.0,0
run-2020-2-18-13-53-23.720449924,AGENT#07c7cf54-5256-11ea-b00b-d3461ef168e6,2,37,39,10,1.0,1.0,0
run-2020-2-18-13-53-23.720449924,AGENT#07ba3d76-5256-11ea-a490-2fcd8542cb56,40,0,40,10,1.0,1.0,0
run-2020-2-18-13-53-23.720449924,AGENT#07c7ca54-5256-11ea-af57-0b5f712e3793,3,37,40,10,1.0,1.0,0
run-2020-2-18-13-53-23.720449924,AGENT#07c84fb0-5256-11ea-9779-e3d40186789a,2,38,40,10,1.0,1.0,0
run-2020-2-18-13-53-23.720449924,AGENT#07c8bb8a-5256-11ea-88bb-274f75089ad0,1,39,40,10,1.0,1.0,0
run-2020-2-18-13-53-23.720449924,AGENT#07c8be5a-5256-11ea-acad-7fc11721d1f9,1,39,40,10,1.0,1.0,0
run-2020-2-18-13-53-23.720449924,AGENT#07c7d42c-5256-11ea-bc83-df4920c213b8,4,37,41,10,1.0,1.0,0
run-2020-2-18-13-53-23.720449924,AGENT#07c7cce8-5256-11ea-86a8-736816223686,5,37,42,10,1.0,1.0,0
run-2020-2-18-13-53-23.720449924,AGENT#07c93088-5256-11ea-bcfe-7f4374eadf38,2,40,42,10,1.0,1.0,0
run-2020-2-18-13-53-23.720449924,AGENT#07c935ec-5256-11ea-9eec-a3f06dab65f4,2,40,42,10,1.0,1.0,0
run-2020-2-18-13-53-23.720449924,AGENT#07c99da2-5256-11ea-a0bf-535e92904922,1,41,42,10,1.0,1.0,0
run-2020-2-18-13-53-23.720449924,AGENT#07c9a2ac-5256-11ea-b620-d33990fea5db,2,41,43,10,1.0,1.0,0
run-2020-2-18-13-53-23.720449924,AGENT#07ca1a16-5256-11ea-aed0-e79ba238cb1a,1,42,43,10,1.0,1.0,0
run-2020-2-18-13-53-23.720449924,AGENT#07bbcf2e-5256-11ea-ba10-6bf161d137b6,41,3,44,10,1.0,1.0,0
run-2020-2-18-13-53-23.720449924,AGENT#07c9384e-5256-11ea-9a27-5f98bc0d2094,4,40,44,10,1.0,1.0,0
run-2020-2-18-13-53-23.720449924,AGENT#07bf50e0-5256-11ea-ac07-7f6975914ef2,29,16,45,10,1.0,1.0,0
run-2020-2-18-13-53-23.720449924,AGENT#07caf31e-5256-11ea-a685-c7af98e6d58d,1,44,45,10,1.0,1.0,0
run-2020-2-18-13-53-23.720449924,AGENT#07bb33fc-5256-11ea-bab8-1b3216c73e7c,45,1,46,10,1.0,1.0,0
run-2020-2-18-13-53-23.720449924,AGENT#07ca1cdc-5256-11ea-9c64-0b2b4b4b2c1d,4,42,46,10,1.0,1.0,0
run-2020-2-18-13-53-23.720449924,AGENT#07caf7ec-5256-11ea-973c-1bf9619ff0ee,2,44,46,10,1.0,1.0,0
run-2020-2-18-13-53-23.720449924,AGENT#07cb6b96-5256-11ea-aa75-cf078ac5fb9e,1,45,46,10,1.0,1.0,0
run-2020-2-18-13-53-23.720449924,AGENT#07bf46c2-5256-11ea-b70d-8f2d2dc2964e,31,16,47,10,1.0,1.0,0
run-2020-2-18-13-53-23.720449924,AGENT#07caee1e-5256-11ea-9d42-bf3dc1f53288,3,44,47,10,1.0,1.0,0
run-2020-2-18-13-53-23.720449924,AGENT#07cb692a-5256-11ea-8a4f-cb0340ee455f,2,45,47,10,1.0,1.0,0
run-2020-2-18-13-53-23.720449924,AGENT#07cb6e16-5256-11ea-b89a-7f026e0ee6b4,2,45,47,10,1.0,1.0,0
run-2020-2-18-13-53-23.720449924,AGENT#07bb272c-5256-11ea-8ab6-3386ca76f3af,47,1,48,10,1.0,1.0,0
run-2020-2-18-13-53-23.720449924,AGENT#07cb6682-5256-11ea-95e2-db86239144c4,3,45,48,10,1.0,1.0,0
run-2020-2-18-13-53-23.720449924,AGENT#07cbf02a-5256-11ea-bcf8-9b4ea4df1703,2,46,48,10,1.0,1.0,0
run-2020-2-18-13-53-23.720449924,AGENT#07cbf520-5256-11ea-ae02-4fef750b9969,2,46,48,10,1.0,1.0,0
run-2020-2-18-13-53-23.720449924,AGENT#07caf58a-5256-11ea-b0ee-6fe15c8900e7,5,44,49,10,1.0,1.0,0
run-2020-2-18-13-53-23.720449924,AGENT#07cbf2be-5256-11ea-a07e-d38557c0fe0b,3,46,49,10,1.0,1.0,0
run-2020-2-18-13-53-23.720449924,AGENT#07cc6974-5256-11ea-9950-0f5ebbc7aa59,2,47,49,10,1.0,1.0,0
run-2020-2-18-13-53-23.720449924,AGENT#07bbc66e-5256-11ea-a384-7feca01297cc,47,3,50,10,1.0,1.0,0
run-2020-2-18-13-53-23.720449924,AGENT#07cce7aa-5256-11ea-99af-57a3da535a9d,2,48,50,10,1.0,1.0,0
run-2020-2-18-13-53-23.720449924,AGENT#07cd5e4c-5256-11ea-84a2-eb61950f6cd4,1,49,50,10,1.0,1.0,0
run-2020-2-18-13-53-23.720449924,AGENT#07bc6ace-5256-11ea-b945-3794c6f73373,45,6,51,10,1.0,1.0,0
run-2020-2-18-13-53-23.720449924,AGENT#07be9e84-5256-11ea-9c3c-237711065062,37,14,51,10,1.0,1.0,0
run-2020-2-18-13-53-23.720449924,AGENT#07cd60ea-5256-11ea-aac4-dbc0ddda7cb9,2,49,51,10,1.0,1.0,0
run-2020-2-18-13-53-23.720449924,AGENT#07cd659a-5256-11ea-a8ee-0b681bea3c92,2,49,51,10,1.0,1.0,0
run-2020-2-18-13-53-23.720449924,AGENT#07cd67fc-5256-11ea-bb47-57280f481bec,2,49,51,10,1.0,1.0,0
run-2020-2-18-13-53-23.720449924,AGENT#07ce6094-5256-11ea-ac78-7f40c2638dca,1,51,52,10,1.0,1.0,0
run-2020-2-18-13-53-23.720449924,AGENT#07bc6d8a-5256-11ea-ac0b-b34df900b343,47,6,53,10,1.0,1.0,0
run-2020-2-18-13-53-23.720449924,AGENT#07cce232-5256-11ea-abef-4b7cc6989f02,5,48,53,10,1.0,1.0,0
run-2020-2-18-13-53-23.720449924,AGENT#07cde42a-5256-11ea-97dc-275b88a17afe,3,50,53,10,1.0,1.0,0
run-2020-2-18-13-53-23.720449924,AGENT#07ceddc6-5256-11ea-b672-bb104d9bccc7,1,52,53,10,1.0,1.0,0
run-2020-2-18-13-53-23.720449924,AGENT#07cee03c-5256-11ea-8ee3-1b69bf7979d5,1,52,53,10,1.0,1.0,0
run-2020-2-18-13-53-23.720449924,AGENT#07ce5d9c-5256-11ea-832f-4be4405415d5,3,51,54,10,1.0,1.0,0
run-2020-2-18-13-53-23.720449924,AGENT#07bd8760-5256-11ea-9311-f7667aa54d78,45,10,55,10,1.0,1.0,0
run-2020-2-18-13-53-23.720449924,AGENT#07ce59f0-5256-11ea-a075-8f6efc062057,4,51,55,10,1.0,1.0,0
run-2020-2-18-13-53-23.720449924,AGENT#07cedb46-5256-11ea-a9af-178938a3a77c,3,52,55,10,1.0,1.0,0
run-2020-2-18-13-53-23.720449924,AGENT#07d00836-5256-11ea-aeb4-eb8a90572010,1,54,55,10,1.0,1.0,0
run-2020-2-18-13-53-23.720449924,AGENT#07bdca9a-5256-11ea-a53f-87f5334495ff,45,11,56,10,1.0,1.0,0
run-2020-2-18-13-53-23.720449924,AGENT#07c17ed8-5256-11ea-8acb-5f6fddfc75b2,34,22,56,10,1.0,1.0,0
run-2020-2-18-13-53-23.720449924,AGENT#07d0921a-5256-11ea-a060-6f6d8acb2cdd,1,55,56,10,1.0,1.0,0
run-2020-2-18-13-53-23.720449924,AGENT#07d09472-5256-11ea-b565-8f08b2a1d811,1,55,56,10,1.0,1.0,0
run-2020-2-18-13-53-23.720449924,AGENT#07d096de-5256-11ea-8ba3-ef62eff1dc68,1,55,56,10,1.0,1.0,0
run-2020-2-18-13-53-23.720449924,AGENT#07d00354-5256-11ea-b9e3-472a31d72909,3,54,57,10,1.0,1.0,0
run-2020-2-18-13-53-23.720449924,AGENT#07bdd30a-5256-11ea-b602-4b5144e6d02f,47,11,58,10,1.0,1.0,0
run-2020-2-18-13-53-23.720449924,AGENT#07cf72f4-5256-11ea-bdda-6be41c07dd6e,5,53,58,10,1.0,1.0,0
run-2020-2-18-13-53-23.720449924,AGENT#07d000ac-5256-11ea-87cf-b775b037f63e,4,54,58,10,1.0,1.0,0
run-2020-2-18-13-53-23.720449924,AGENT#07d125c2-5256-11ea-b183-27b54284022b,2,56,58,10,1.0,1.0,0
run-2020-2-18-13-53-23.720449924,AGENT#07be55e6-5256-11ea-aba4-f79e3b0029e6,46,13,59,10,1.0,1.0,0
run-2020-2-18-13-53-23.720449924,AGENT#07be58d4-5256-11ea-861e-33cb8d2c9845,46,13,59,10,1.0,1.0,0
run-2020-2-18-13-53-23.720449924,AGENT#07d005ca-5256-11ea-831a-d7b46d7e1c8f,5,54,59,10,1.0,1.0,0
run-2020-2-18-13-53-23.720449924,AGENT#07d08cfc-5256-11ea-beaf-971ee1a8cb3d,4,55,59,10,1.0,1.0,0
run-2020-2-18-13-53-23.720449924,AGENT#07d122fc-5256-11ea-9223-27895ae27d09,3,56,59,10,1.0,1.0,0
run-2020-2-18-13-53-23.720449924,AGENT#07d1b15e-5256-11ea-9dae-ebcaeaae02a4,2,57,59,10,1.0,1.0,0
run-2020-2-18-13-53-23.720449924,AGENT#07be9b78-5256-11ea-877f-8bb4ee304046,46,14,60,10,1.0,1.0,0
run-2020-2-18-13-53-23.720449924,AGENT#07c9a05e-5256-11ea-9537-afb18e6746c2,19,41,60,10,1.0,1.0,0
run-2020-2-18-13-53-23.720449924,AGENT#07d0992c-5256-11ea-94d5-670710474e2a,5,55,60,10,1.0,1.0,0
run-2020-2-18-13-53-23.720449924,AGENT#07d12856-5256-11ea-98e2-a7223cd91280,4,56,60,10,1.0,1.0,0
run-2020-2-18-13-53-23.720449924,AGENT#07d2d552-5256-11ea-8ee3-f7cf55c0db1b,1,59,60,10,1.0,1.0,0
run-2020-2-18-13-53-23.720449924,AGENT#07bef35c-5256-11ea-b072-f7bd98a3910d,46,15,61,10,1.0,1.0,0
run-2020-2-18-13-53-23.720449924,AGENT#07bf4154-5256-11ea-87d9-9367ef53bdb1,45,16,61,10,1.0,1.0,0
run-2020-2-18-13-53-23.720449924,AGENT#07bfa838-5256-11ea-872c-3facae673761,45,17,62,10,1.0,1.0,0
run-2020-2-18-13-53-23.720449924,AGENT#07c3df5c-5256-11ea-ac24-678c64592af1,34,28,62,10,1.0,1.0,0
run-2020-2-18-13-53-23.720449924,AGENT#07d360f8-5256-11ea-9cd3-dfff6828b0eb,2,60,62,10,1.0,1.0,0
run-2020-2-18-13-53-23.720449924,AGENT#07d3fb94-5256-11ea-883b-8f6a6370eb51,2,61,63,10,1.0,1.0,0
run-2020-2-18-13-53-23.720449924,AGENT#07d3fe78-5256-11ea-8353-230d333f8a75,2,61,63,10,1.0,1.0,0
run-2020-2-18-13-53-23.720449924,AGENT#07d4012a-5256-11ea-b265-d39958bfb353,2,61,63,10,1.0,1.0,0
run-2020-2-18-13-53-23.720449924,AGENT#07d403aa-5256-11ea-bc59-5ba9dd6a8793,2,61,63,10,1.0,1.0,0
run-2020-2-18-13-53-23.720449924,AGENT#07d4a8d2-5256-11ea-9d5f-bf909363936d,1,62,63,10,1.0,1.0,0
run-2020-2-18-13-53-23.720449924,AGENT#07d4ab66-5256-11ea-86eb-93ef913e9338,1,62,63,10,1.0,1.0,0
run-2020-2-18-13-53-23.720449924,AGENT#07d2da70-5256-11ea-96f0-5f223c6c52b2,5,59,64,10,1.0,1.0,0
run-2020-2-18-13-53-23.720449924,AGENT#07d36346-5256-11ea-80a7-77cbbaa1e0ba,5,60,65,10,1.0,1.0,0
run-2020-2-18-13-53-23.720449924,AGENT#07d5eb5c-5256-11ea-9f5d-376008de6903,1,64,65,10,1.0,1.0,0
run-2020-2-18-13-53-23.720449924,AGENT#07d5ed96-5256-11ea-bad3-83572e51f591,1,64,65,10,1.0,1.0,0
run-2020-2-18-13-53-23.720449924,AGENT#07d4a60c-5256-11ea-ab3d-4bc54bf9fd12,4,62,66,10,1.0,1.0,0
run-2020-2-18-13-53-23.720449924,AGENT#07d4addc-5256-11ea-bff6-af5f577679a6,4,62,66,10,1.0,1.0,0
run-2020-2-18-13-53-23.720449924,AGENT#07d5535e-5256-11ea-813b-dfcad582db87,3,63,66,10,1.0,1.0,0
run-2020-2-18-13-53-23.720449924,AGENT#07d5e652-5256-11ea-8cab-47f52b645cc9,2,64,66,10,1.0,1.0,0
run-2020-2-18-13-53-23.720449924,AGENT#07d674e6-5256-11ea-b7fc-23f8d5497a27,1,65,66,10,1.0,1.0,0
run-2020-2-18-13-53-23.720449924,AGENT#07c0c164-5256-11ea-89e1-f70f8f8a86dc,47,20,67,10,1.0,1.0,0
run-2020-2-18-13-53-23.720449924,AGENT#07c18414-5256-11ea-9a44-bb17104ea168,45,22,67,10,1.0,1.0,0
run-2020-2-18-13-53-23.720449924,AGENT#07d70cda-5256-11ea-8211-a74c4ac3cb5f,1,66,67,10,1.0,1.0,0
run-2020-2-18-13-53-23.720449924,AGENT#07c12258-5256-11ea-b4ad-334ae39463fe,47,21,68,10,1.0,1.0,0
run-2020-2-18-13-53-23.720449924,AGENT#07d711d0-5256-11ea-bd7e-7f291746e07a,2,66,68,10,1.0,1.0,0
run-2020-2-18-13-53-23.720449924,AGENT#07d71432-5256-11ea-bc01-6bb76fd32ee7,2,66,68,10,1.0,1.0,0
run-2020-2-18-13-53-23.720449924,AGENT#07c32ab2-5256-11ea-9fcc-87e5cf20247b,43,26,69,10,1.0,1.0,0
run-2020-2-18-13-53-23.720449924,AGENT#07d6720c-5256-11ea-8704-778946b98a21,4,65,69,10,1.0,1.0,0
run-2020-2-18-13-53-23.720449924,AGENT#07d84e2e-5256-11ea-9407-37c86b682375,1,68,69,10,1.0,1.0,0
run-2020-2-18-13-53-23.720449924,AGENT#07d7b1e4-5256-11ea-956a-e7256968e28d,3,67,70,10,1.0,1.0,0
run-2020-2-18-13-53-23.720449924,AGENT#07d84910-5256-11ea-9aef-276b8760488f,2,68,70,10,1.0,1.0,0
run-2020-2-18-13-53-23.720449924,AGENT#07d8f20c-5256-11ea-8640-db6b6d976c7e,1,69,70,10,1.0,1.0,0
run-2020-2-18-13-53-23.720449924,AGENT#07c2c16c-5256-11ea-8ece-8305b285fd07,46,25,71,10,1.0,1.0,0
run-2020-2-18-13-53-23.720449924,AGENT#07d7aa78-5256-11ea-9600-13a527f0c057,4,67,71,10,1.0,1.0,0
run-2020-2-18-13-53-23.720449924,AGENT#07d8ef1e-5256-11ea-bd20-e37ae91905ce,2,69,71,10,1.0,1.0,0
run-2020-2-18-13-53-23.720449924,AGENT#07d9a5d0-5256-11ea-861d-37ae99a59823,1,70,71,10,1.0,1.0,0
run-2020-2-18-13-53-23.720449924,AGENT#07d7ad20-5256-11ea-8177-ab8be22a2505,5,67,72,10,1.0,1.0,0
run-2020-2-18-13-53-23.720449924,AGENT#07d9a846-5256-11ea-a23c-abd3ec3cddc0,2,70,72,10,1.0,1.0,0
run-2020-2-18-13-53-23.720449924,AGENT#07da4e0e-5256-11ea-884b-176613337b9d,1,71,72,10,1.0,1.0,0
run-2020-2-18-13-53-23.720449924,AGENT#07c3d7d2-5256-11ea-a7c0-f70800bb7da8,45,28,73,10,1.0,1.0,0
run-2020-2-18-13-53-23.720449924,AGENT#07d846cc-5256-11ea-8193-0fabb652cae6,5,68,73,10,1.0,1.0,0
run-2020-2-18-13-53-23.720449924,AGENT#07d9a2e2-5256-11ea-ab47-c3976696ff1b,3,70,73,10,1.0,1.0,0
run-2020-2-18-13-53-23.720449924,AGENT#07db368e-5256-11ea-8d93-0fe7672f524d,1,72,73,10,1.0,1.0,0
run-2020-2-18-13-53-23.720449924,AGENT#07c43c22-5256-11ea-aebc-bb5b078a4e7f,45,29,74,10,1.0,1.0,0
run-2020-2-18-13-53-23.720449924,AGENT#07d8f46e-5256-11ea-9840-a3f1f01f23fd,5,69,74,10,1.0,1.0,0
run-2020-2-18-13-53-23.720449924,AGENT#07d8f6d0-5256-11ea-8e38-77a9ab2c128d,5,69,74,10,1.0,1.0,0
run-2020-2-18-13-53-23.720449924,AGENT#07d9aad0-5256-11ea-bfe4-3f385b0b6e3e,4,70,74,10,1.0,1.0,0
run-2020-2-18-13-53-23.720449924,AGENT#07da50c0-5256-11ea-8346-97e3e6ad8743,3,71,74,10,1.0,1.0,0
run-2020-2-18-13-53-23.720449924,AGENT#07da558e-5256-11ea-839d-c79c199a3df1,3,71,74,10,1.0,1.0,0
run-2020-2-18-13-53-23.720449924,AGENT#07dbed72-5256-11ea-956e-8b06e2e5a24d,1,73,74,10,1.0,1.0,0
run-2020-2-18-13-53-23.720449924,AGENT#07c3da84-5256-11ea-a4f4-333f902c2d92,47,28,75,10,1.0,1.0,0
run-2020-2-18-13-53-23.720449924,AGENT#07c436dc-5256-11ea-8757-bfa4297c9df5,46,29,75,10,1.0,1.0,0
run-2020-2-18-13-53-23.720449924,AGENT#07c4398e-5256-11ea-8417-bb0dd3a070f6,46,29,75,10,1.0,1.0,0
run-2020-2-18-13-53-23.720449924,AGENT#07d9ad6e-5256-11ea-83ad-7f14754cbef5,5,70,75,10,1.0,1.0,0
run-2020-2-18-13-53-23.720449924,AGENT#07dbe8c2-5256-11ea-9415-db1421c6508c,2,73,75,10,1.0,1.0,0
run-2020-2-18-13-53-23.720449924,AGENT#07c51fb6-5256-11ea-860e-2f2947f117b5,45,31,76,10,1.0,1.0,0
run-2020-2-18-13-53-23.720449924,AGENT#07d84442-5256-11ea-9ead-6fb50e90223f,8,68,76,10,1.0,1.0,0
run-2020-2-18-13-53-23.720449924,AGENT#07c4aafe-5256-11ea-a73d-7b64c709cd02,47,30,77,10,1.0,1.0,0
run-2020-2-18-13-53-23.720449924,AGENT#07dd4da2-5256-11ea-b38a-ebfa91b98b3a,2,75,77,10,1.0,1.0,0
run-2020-2-18-13-53-23.720449924,AGENT#07de15e8-5256-11ea-ab7c-3f9a7bcfb9e2,1,76,77,10,1.0,1.0,0
run-2020-2-18-13-53-23.720449924,AGENT#07c58f82-5256-11ea-b2a0-639e70771ec5,46,32,78,10,1.0,1.0,0
run-2020-2-18-13-53-23.720449924,AGENT#07dbeb24-5256-11ea-9957-4b0b8c2ee031,5,73,78,10,1.0,1.0,0
run-2020-2-18-13-53-23.720449924,AGENT#07dca186-5256-11ea-83dd-1f1bbd9b8d9f,4,74,78,10,1.0,1.0,0
run-2020-2-18-13-53-23.720449924,AGENT#07dd527a-5256-11ea-873f-23ec69d59483,3,75,78,10,1.0,1.0,0
run-2020-2-18-13-53-23.720449924,AGENT#07de1aac-5256-11ea-b0c3-7f03ee03d270,2,76,78,10,1.0,1.0,0
run-2020-2-18-13-53-23.720449924,AGENT#07dec736-5256-11ea-81c8-b3e1bcb4f215,1,77,78,10,1.0,1.0,0
run-2020-2-18-13-53-23.720449924,AGENT#07befb68-5256-11ea-969f-c77e03d38e91,64,15,79,10,1.0,1.0,0
run-2020-2-18-13-53-23.720449924,AGENT#07c43e84-5256-11ea-9ea0-b771f7fa1016,50,29,79,10,1.0,1.0,0
run-2020-2-18-13-53-23.720449924,AGENT#07c66f38-5256-11ea-b3b8-8fd803a52118,45,34,79,10,1.0,1.0,0
run-2020-2-18-13-53-23.720449924,AGENT#07dd5004-5256-11ea-8e71-af7b73933dc8,4,75,79,10,1.0,1.0,0
run-2020-2-18-13-53-23.720449924,AGENT#07dfa2e6-5256-11ea-a26f-cbbfe1cc3bf9,1,78,79,10,1.0,1.0,0
run-2020-2-18-13-53-23.720449924,AGENT#07c671b8-5256-11ea-b30d-572df536c6ab,46,34,80,10,1.0,1.0,0
run-2020-2-18-13-53-23.720449924,AGENT#07dd4b04-5256-11ea-b767-f7fa3f782df1,5,75,80,10,1.0,1.0,0
run-2020-2-18-13-53-23.720449924,AGENT#07dd54c8-5256-11ea-a64d-bb467a3bba75,5,75,80,10,1.0,1.0,0
run-2020-2-18-13-53-23.720449924,AGENT#07c522ae-5256-11ea-98d6-87a94f5c4dab,50,31,81,10,1.0,1.0,0
run-2020-2-18-13-53-23.720449924,AGENT#07e04cc8-5256-11ea-828c-1b6b97a6b9c1,2,79,81,10,1.0,1.0,0
run-2020-2-18-13-53-23.720449924,AGENT#07caf0a8-5256-11ea-9c29-635e67a9093b,38,44,82,10,1.0,1.0,0
run-2020-2-18-13-53-23.720449924,AGENT#07dfa03e-5256-11ea-9384-f359a83f3910,4,78,82,10,1.0,1.0,0
run-2020-2-18-13-53-23.720449924,AGENT#07e1a140-5256-11ea-9f53-e3cdb240facd,1,81,82,10,1.0,1.0,0
run-2020-2-18-13-53-23.720449924,AGENT#07e0f740-5256-11ea-86e8-13cc013375dc,3,80,83,10,1.0,1.0,0
run-2020-2-18-13-53-23.720449924,AGENT#07e0f4ca-5256-11ea-86c0-6bedd611d551,4,80,84,10,1.0,1.0,0
run-2020-2-18-13-53-23.720449924,AGENT#07e19ea2-5256-11ea-827b-0b4ab3d8c92a,3,81,84,10,1.0,1.0,0
run-2020-2-18-13-53-23.720449924,AGENT#07e24eec-5256-11ea-aec1-e37a58d5f40a,2,82,84,10,1.0,1.0,0
run-2020-2-18-13-53-23.720449924,AGENT#07c93376-5256-11ea-ba8a-1bbabf8d4af2,45,40,85,10,1.0,1.0,0
run-2020-2-18-13-53-23.720449924,AGENT#07e0f204-5256-11ea-a509-ff7f9b9dfe1b,5,80,85,10,1.0,1.0,0
run-2020-2-18-13-53-23.720449924,AGENT#07e3a6a2-5256-11ea-8382-b3dfff557c1d,1,84,85,10,1.0,1.0,0
run-2020-2-18-13-53-23.720449924,AGENT#07e2f7fc-5256-11ea-923a-8f365800790a,3,83,86,10,1.0,1.0,0
run-2020-2-18-13-53-23.720449924,AGENT#07e48fc2-5256-11ea-801d-63b84027e0aa,1,85,86,10,1.0,1.0,0
run-2020-2-18-13-53-23.720449924,AGENT#07e49256-5256-11ea-bd51-071c4052021c,1,85,86,10,1.0,1.0,0
run-2020-2-18-13-53-23.720449924,AGENT#07e2f338-5256-11ea-b54a-275aa7d042a1,4,83,87,10,1.0,1.0,0
run-2020-2-18-13-53-23.720449924,AGENT#07e486c6-5256-11ea-bb42-dbec9699f7d0,2,85,87,10,1.0,1.0,0
run-2020-2-18-13-53-23.720449924,AGENT#07e48d42-5256-11ea-925b-6bbc19778e84,2,85,87,10,1.0,1.0,0
run-2020-2-18-13-53-23.720449924,AGENT#07e55fc4-5256-11ea-8680-972c2aae1011,1,86,87,10,1.0,1.0,0
run-2020-2-18-13-53-23.720449924,AGENT#07e3ab8e-5256-11ea-be93-57a4e2f7fa9c,4,84,88,10,1.0,1.0,0
run-2020-2-18-13-53-23.720449924,AGENT#07e563f2-5256-11ea-a0e2-9340bcbae0e3,2,86,88,10,1.0,1.0,0
run-2020-2-18-13-53-23.720449924,AGENT#07e632b4-5256-11ea-b34a-374d144ccdc2,1,87,88,10,1.0,1.0,0
run-2020-2-18-13-53-23.720449924,AGENT#07e63c50-5256-11ea-97f2-47f2641662ec,1,87,88,10,1.0,1.0,0
run-2020-2-18-13-53-23.720449924,AGENT#07d12d10-5256-11ea-b0e9-cbadcd518f8b,33,56,89,10,1.0,1.0,0
run-2020-2-18-13-53-23.720449924,AGENT#07e3a404-5256-11ea-98cf-47cc950e7541,5,84,89,10,1.0,1.0,0
run-2020-2-18-13-53-23.720449924,AGENT#07e3a936-5256-11ea-a1db-974998d7ca3c,5,84,89,10,1.0,1.0,0
run-2020-2-18-13-53-23.720449924,AGENT#07c7d1c0-5256-11ea-a9db-03eff7228127,53,37,90,10,1.0,1.0,0
run-2020-2-18-13-53-23.720449924,AGENT#07cb7078-5256-11ea-9406-bf52216efe9a,45,45,90,10,1.0,1.0,0
run-2020-2-18-13-53-23.720449924,AGENT#07e5584e-5256-11ea-bd20-7764da3a5d34,4,86,90,10,1.0,1.0,0
run-2020-2-18-13-53-23.720449924,AGENT#07e7d920-5256-11ea-ba40-afe9c88fe3d3,1,89,90,10,1.0,1.0,0
run-2020-2-18-13-53-23.720449924,AGENT#07e7dbbe-5256-11ea-8984-2b03e29ea63f,1,89,90,10,1.0,1.0,0
run-2020-2-18-13-53-23.720449924,AGENT#07ca82c6-5256-11ea-b3c8-cf757d67ae88,48,43,91,10,1.0,1.0,0
run-2020-2-18-13-53-23.720449924,AGENT#07cbed78-5256-11ea-ac26-2bfe8d3f5e69,45,46,91,10,1.0,1.0,0
run-2020-2-18-13-53-23.720449924,AGENT#07e63534-5256-11ea-88c7-afb352649465,4,87,91,10,1.0,1.0,0
run-2020-2-18-13-53-23.720449924,AGENT#07e7057c-5256-11ea-a7b2-a783516189e7,3,88,91,10,1.0,1.0,0
run-2020-2-18-13-53-23.720449924,AGENT#07e8932e-5256-11ea-9abb-3b3ef0f9fa3b,1,90,91,10,1.0,1.0,0
run-2020-2-18-13-53-23.720449924,AGENT#07db2e28-5256-11ea-8a25-67309fa2981e,20,72,92,10,1.0,1.0,0
run-2020-2-18-13-53-23.720449924,AGENT#07e63002-5256-11ea-8800-d3c7aa50f58e,5,87,92,10,1.0,1.0,0
run-2020-2-18-13-53-23.720449924,AGENT#07e95264-5256-11ea-9a42-83ee79d38f49,1,91,92,10,1.0,1.0,0
run-2020-2-18-13-53-23.720449924,AGENT#07e959bc-5256-11ea-a026-ffc20953988b,1,91,92,10,1.0,1.0,0
run-2020-2-18-13-53-23.720449924,AGENT#07ccdeea-5256-11ea-b1c2-1f11ff2a1a08,45,48,93,10,1.0,1.0,0
run-2020-2-18-13-53-23.720449924,AGENT#07d2439e-5256-11ea-bba2-43129688862b,35,58,93,10,1.0,1.0,0
run-2020-2-18-13-53-23.720449924,AGENT#07df9b70-5256-11ea-9796-bb16490da8e8,15,78,93,10,1.0,1.0,0
run-2020-2-18-13-53-23.720449924,AGENT#07e2519e-5256-11ea-bb77-6fc4f2c6575b,11,82,93,10,1.0,1.0,0
run-2020-2-18-13-53-23.720449924,AGENT#07ea2176-5256-11ea-931f-8f8534e409ec,1,92,93,10,1.0,1.0,0
run-2020-2-18-13-53-23.720449924,AGENT#07ea23f6-5256-11ea-899a-d343e3632739,2,92,94,10,1.0,1.0,0
run-2020-2-18-13-53-23.720449924,AGENT#07eae9c6-5256-11ea-b5ed-1fc211e5748a,1,93,94,10,1.0,1.0,0
run-2020-2-18-13-53-23.720449924,AGENT#07cd6342-5256-11ea-99d3-e7459880925d,46,49,95,10,1.0,1.0,0
run-2020-2-18-13-53-23.720449924,AGENT#07df9904-5256-11ea-bd77-b712e38a257c,17,78,95,10,1.0,1.0,0
run-2020-2-18-13-53-23.720449924,AGENT#07ebad70-5256-11ea-a9e7-efed564a2e7b,1,94,95,10,1.0,1.0,0
run-2020-2-18-13-53-23.720449924,AGENT#07e94f80-5256-11ea-a73e-f75e114dae5c,5,91,96,10,1.0,1.0,0
run-2020-2-18-13-53-23.720449924,AGENT#07ec7066-5256-11ea-a8b7-e35f2f69a4da,1,95,96,10,1.0,1.0,0
run-2020-2-18-13-53-23.720449924,AGENT#07ec72be-5256-11ea-82ff-0b86577e3117,1,95,96,10,1.0,1.0,0
run-2020-2-18-13-53-23.720449924,AGENT#07cce50c-5256-11ea-9824-9395fd478807,49,48,97,10,1.0,1.0,0
run-2020-2-18-13-53-23.720449924,AGENT#07cd5b90-5256-11ea-a6bc-b750f1c2eaac,48,49,97,10,1.0,1.0,0
run-2020-2-18-13-53-23.720449924,AGENT#07ce6328-5256-11ea-9f15-f3f83224e0bf,46,51,97,10,1.0,1.0,0
run-2020-2-18-13-53-23.720449924,AGENT#07ea264e-5256-11ea-87cf-d3581912d446,5,92,97,10,1.0,1.0,0
run-2020-2-18-13-53-23.720449924,AGENT#07ed274a-5256-11ea-b8e8-27e41b49d776,1,96,97,10,1.0,1.0,0
run-2020-2-18-13-53-23.720449924,AGENT#07ec6dc8-5256-11ea-87a2-77b14ca89c1e,3,95,98,10,1.0,1.0,0
run-2020-2-18-13-53-23.720449924,AGENT#07edf396-5256-11ea-a4a1-572d72eccaee,1,97,98,10,1.0,1.0,0
run-2020-2-18-13-53-23.720449924,AGENT#07ec6b02-5256-11ea-a58c-63200fe0f61b,4,95,99,10,1.0,1.0,0
run-2020-2-18-13-53-23.720449924,AGENT#07ed24d4-5256-11ea-955b-afb1d07c0440,3,96,99,10,1.0,1.0,0
run-2020-2-18-13-53-23.720449924,AGENT#07eeff16-5256-11ea-8078-a3a74c84bc70,1,98,99,10,1.0,1.0,0
