RunID,Tick,ActiveAgentsPerTick
run-2020-2-18-13-54-35.895971059,0,12
run-2020-2-18-13-54-35.895971059,1,15
run-2020-2-18-13-54-35.895971059,2,16
run-2020-2-18-13-54-35.895971059,3,16
run-2020-2-18-13-54-35.895971059,4,16
run-2020-2-18-13-54-35.895971059,5,17
run-2020-2-18-13-54-35.895971059,6,19
run-2020-2-18-13-54-35.895971059,7,26
run-2020-2-18-13-54-35.895971059,8,26
run-2020-2-18-13-54-35.895971059,9,20
run-2020-2-18-13-54-35.895971059,10,21
run-2020-2-18-13-54-35.895971059,11,25
run-2020-2-18-13-54-35.895971059,12,28
run-2020-2-18-13-54-35.895971059,13,31
run-2020-2-18-13-54-35.895971059,14,36
run-2020-2-18-13-54-35.895971059,15,39
run-2020-2-18-13-54-35.895971059,16,36
run-2020-2-18-13-54-35.895971059,17,38
run-2020-2-18-13-54-35.895971059,18,41
run-2020-2-18-13-54-35.895971059,19,43
run-2020-2-18-13-54-35.895971059,20,43
run-2020-2-18-13-54-35.895971059,21,42
run-2020-2-18-13-54-35.895971059,22,42
run-2020-2-18-13-54-35.895971059,23,42
run-2020-2-18-13-54-35.895971059,24,44
run-2020-2-18-13-54-35.895971059,25,43
run-2020-2-18-13-54-35.895971059,26,43
run-2020-2-18-13-54-35.895971059,27,43
run-2020-2-18-13-54-35.895971059,28,43
run-2020-2-18-13-54-35.895971059,29,40
run-2020-2-18-13-54-35.895971059,30,42
run-2020-2-18-13-54-35.895971059,31,43
run-2020-2-18-13-54-35.895971059,32,47
run-2020-2-18-13-54-35.895971059,33,51
run-2020-2-18-13-54-35.895971059,34,54
run-2020-2-18-13-54-35.895971059,35,53
run-2020-2-18-13-54-35.895971059,36,51
run-2020-2-18-13-54-35.895971059,37,53
run-2020-2-18-13-54-35.895971059,38,52
run-2020-2-18-13-54-35.895971059,39,49
run-2020-2-18-13-54-35.895971059,40,52
run-2020-2-18-13-54-35.895971059,41,54
run-2020-2-18-13-54-35.895971059,42,56
run-2020-2-18-13-54-35.895971059,43,57
run-2020-2-18-13-54-35.895971059,44,56
run-2020-2-18-13-54-35.895971059,45,58
run-2020-2-18-13-54-35.895971059,46,63
run-2020-2-18-13-54-35.895971059,47,61
run-2020-2-18-13-54-35.895971059,48,57
run-2020-2-18-13-54-35.895971059,49,58
run-2020-2-18-13-54-35.895971059,50,54
run-2020-2-18-13-54-35.895971059,51,54
run-2020-2-18-13-54-35.895971059,52,56
run-2020-2-18-13-54-35.895971059,53,57
run-2020-2-18-13-54-35.895971059,54,58
run-2020-2-18-13-54-35.895971059,55,58
run-2020-2-18-13-54-35.895971059,56,64
run-2020-2-18-13-54-35.895971059,57,67
run-2020-2-18-13-54-35.895971059,58,72
run-2020-2-18-13-54-35.895971059,59,67
run-2020-2-18-13-54-35.895971059,60,62
run-2020-2-18-13-54-35.895971059,61,61
run-2020-2-18-13-54-35.895971059,62,59
run-2020-2-18-13-54-35.895971059,63,51
run-2020-2-18-13-54-35.895971059,64,52
run-2020-2-18-13-54-35.895971059,65,55
run-2020-2-18-13-54-35.895971059,66,57
run-2020-2-18-13-54-35.895971059,67,56
run-2020-2-18-13-54-35.895971059,68,61
run-2020-2-18-13-54-35.895971059,69,59
run-2020-2-18-13-54-35.895971059,70,55
run-2020-2-18-13-54-35.895971059,71,56
run-2020-2-18-13-54-35.895971059,72,60
run-2020-2-18-13-54-35.895971059,73,61
run-2020-2-18-13-54-35.895971059,74,57
run-2020-2-18-13-54-35.895971059,75,60
run-2020-2-18-13-54-35.895971059,76,59
run-2020-2-18-13-54-35.895971059,77,60
run-2020-2-18-13-54-35.895971059,78,60
run-2020-2-18-13-54-35.895971059,79,58
run-2020-2-18-13-54-35.895971059,80,60
run-2020-2-18-13-54-35.895971059,81,60
run-2020-2-18-13-54-35.895971059,82,59
run-2020-2-18-13-54-35.895971059,83,57
run-2020-2-18-13-54-35.895971059,84,58
run-2020-2-18-13-54-35.895971059,85,54
run-2020-2-18-13-54-35.895971059,86,57
run-2020-2-18-13-54-35.895971059,87,56
run-2020-2-18-13-54-35.895971059,88,52
run-2020-2-18-13-54-35.895971059,89,49
run-2020-2-18-13-54-35.895971059,90,51
run-2020-2-18-13-54-35.895971059,91,53
run-2020-2-18-13-54-35.895971059,92,52
run-2020-2-18-13-54-35.895971059,93,49
run-2020-2-18-13-54-35.895971059,94,52
run-2020-2-18-13-54-35.895971059,95,49
run-2020-2-18-13-54-35.895971059,96,50
run-2020-2-18-13-54-35.895971059,97,54
run-2020-2-18-13-54-35.895971059,98,54
run-2020-2-18-13-54-35.895971059,99,50
run-2020-2-18-13-54-35.895971059,100,47
