RunID,Tick,ActiveAgentsPerTick
run-2020-2-18-11-35-29.530589103,0,13
run-2020-2-18-11-35-29.530589103,1,11
run-2020-2-18-11-35-29.530589103,2,13
run-2020-2-18-11-35-29.530589103,3,10
run-2020-2-18-11-35-29.530589103,4,11
run-2020-2-18-11-35-29.530589103,5,12
run-2020-2-18-11-35-29.530589103,6,11
run-2020-2-18-11-35-29.530589103,7,17
run-2020-2-18-11-35-29.530589103,8,15
run-2020-2-18-11-35-29.530589103,9,16
run-2020-2-18-11-35-29.530589103,10,16
run-2020-2-18-11-35-29.530589103,11,16
run-2020-2-18-11-35-29.530589103,12,20
run-2020-2-18-11-35-29.530589103,13,21
run-2020-2-18-11-35-29.530589103,14,20
run-2020-2-18-11-35-29.530589103,15,23
run-2020-2-18-11-35-29.530589103,16,26
run-2020-2-18-11-35-29.530589103,17,32
run-2020-2-18-11-35-29.530589103,18,34
run-2020-2-18-11-35-29.530589103,19,32
run-2020-2-18-11-35-29.530589103,20,36
run-2020-2-18-11-35-29.530589103,21,36
run-2020-2-18-11-35-29.530589103,22,34
run-2020-2-18-11-35-29.530589103,23,35
run-2020-2-18-11-35-29.530589103,24,34
run-2020-2-18-11-35-29.530589103,25,35
run-2020-2-18-11-35-29.530589103,26,35
run-2020-2-18-11-35-29.530589103,27,37
run-2020-2-18-11-35-29.530589103,28,39
run-2020-2-18-11-35-29.530589103,29,42
run-2020-2-18-11-35-29.530589103,30,44
run-2020-2-18-11-35-29.530589103,31,43
run-2020-2-18-11-35-29.530589103,32,43
run-2020-2-18-11-35-29.530589103,33,45
run-2020-2-18-11-35-29.530589103,34,46
run-2020-2-18-11-35-29.530589103,35,47
run-2020-2-18-11-35-29.530589103,36,52
run-2020-2-18-11-35-29.530589103,37,56
run-2020-2-18-11-35-29.530589103,38,55
run-2020-2-18-11-35-29.530589103,39,58
run-2020-2-18-11-35-29.530589103,40,57
run-2020-2-18-11-35-29.530589103,41,55
run-2020-2-18-11-35-29.530589103,42,52
run-2020-2-18-11-35-29.530589103,43,53
run-2020-2-18-11-35-29.530589103,44,52
run-2020-2-18-11-35-29.530589103,45,53
run-2020-2-18-11-35-29.530589103,46,54
run-2020-2-18-11-35-29.530589103,47,57
run-2020-2-18-11-35-29.530589103,48,57
run-2020-2-18-11-35-29.530589103,49,58
run-2020-2-18-11-35-29.530589103,50,62
run-2020-2-18-11-35-29.530589103,51,61
run-2020-2-18-11-35-29.530589103,52,60
run-2020-2-18-11-35-29.530589103,53,59
run-2020-2-18-11-35-29.530589103,54,60
run-2020-2-18-11-35-29.530589103,55,64
run-2020-2-18-11-35-29.530589103,56,63
run-2020-2-18-11-35-29.530589103,57,60
run-2020-2-18-11-35-29.530589103,58,60
run-2020-2-18-11-35-29.530589103,59,61
run-2020-2-18-11-35-29.530589103,60,61
run-2020-2-18-11-35-29.530589103,61,65
run-2020-2-18-11-35-29.530589103,62,61
run-2020-2-18-11-35-29.530589103,63,58
run-2020-2-18-11-35-29.530589103,64,58
run-2020-2-18-11-35-29.530589103,65,62
run-2020-2-18-11-35-29.530589103,66,67
run-2020-2-18-11-35-29.530589103,67,61
run-2020-2-18-11-35-29.530589103,68,54
run-2020-2-18-11-35-29.530589103,69,55
run-2020-2-18-11-35-29.530589103,70,61
run-2020-2-18-11-35-29.530589103,71,57
run-2020-2-18-11-35-29.530589103,72,60
run-2020-2-18-11-35-29.530589103,73,64
run-2020-2-18-11-35-29.530589103,74,61
run-2020-2-18-11-35-29.530589103,75,55
run-2020-2-18-11-35-29.530589103,76,57
run-2020-2-18-11-35-29.530589103,77,50
run-2020-2-18-11-35-29.530589103,78,47
run-2020-2-18-11-35-29.530589103,79,47
run-2020-2-18-11-35-29.530589103,80,49
run-2020-2-18-11-35-29.530589103,81,44
run-2020-2-18-11-35-29.530589103,82,45
run-2020-2-18-11-35-29.530589103,83,41
run-2020-2-18-11-35-29.530589103,84,43
run-2020-2-18-11-35-29.530589103,85,41
run-2020-2-18-11-35-29.530589103,86,44
run-2020-2-18-11-35-29.530589103,87,42
run-2020-2-18-11-35-29.530589103,88,42
run-2020-2-18-11-35-29.530589103,89,41
run-2020-2-18-11-35-29.530589103,90,43
run-2020-2-18-11-35-29.530589103,91,42
run-2020-2-18-11-35-29.530589103,92,43
run-2020-2-18-11-35-29.530589103,93,39
run-2020-2-18-11-35-29.530589103,94,38
run-2020-2-18-11-35-29.530589103,95,39
run-2020-2-18-11-35-29.530589103,96,38
run-2020-2-18-11-35-29.530589103,97,37
run-2020-2-18-11-35-29.530589103,98,38
run-2020-2-18-11-35-29.530589103,99,34
run-2020-2-18-11-35-29.530589103,100,31
