Source,Target
c3f4e3ba-5242-11ea-b4e0-778357032433,c3f670fe-5242-11ea-995f-377519da2f21
c3f37f16-5242-11ea-a9ec-b78bbd0aa3e6,c3f6b42e-5242-11ea-8eb1-179f074d68a4
c3f4bb38-5242-11ea-978e-c38ee0f1d171,c3f6c716-5242-11ea-8ded-3b91b46a3a6b
c3f3e712-5242-11ea-a551-c79d957eb7da,c3f6df3a-5242-11ea-93ca-27015c00f047
c3f3db32-5242-11ea-a365-db8cf1e44b8f,c3f6d418-5242-11ea-9628-fbddd965f01d
c3f39a14-5242-11ea-b5cc-3f767ea6e56c,c3f6f01a-5242-11ea-b719-77f62b6165e2
c3f40936-5242-11ea-b910-b776c9ea4740,c3f72238-5242-11ea-bfb7-03e5b97100b7
c3f47218-5242-11ea-8454-cbd1f1e0b910,c3f754f6-5242-11ea-ac71-5351f373eb95
c3f5d798-5242-11ea-b2cd-17ca304cdfc3,c3f76180-5242-11ea-a662-db256a4614bd
c3f566d2-5242-11ea-8191-3704c287dd68,c3f76f5e-5242-11ea-91ff-eb3f1aadfcdc
c3f76180-5242-11ea-a662-db256a4614bd,c3f77c38-5242-11ea-b689-43a85be107ed
c3f3a96e-5242-11ea-9b58-93acc3cb503e,c3f78688-5242-11ea-b866-87e201b87a44
c3f3ceb2-5242-11ea-bee1-3fb994da2955,c3f792e0-5242-11ea-908c-0bbffa25e92c
c3f566d2-5242-11ea-8191-3704c287dd68,c3f79e70-5242-11ea-8cec-1728d04b027b
c3f3e712-5242-11ea-a551-c79d957eb7da,c3f7aa0a-5242-11ea-9222-137d9f574cca
c3f55b74-5242-11ea-abd2-3b5d49400542,c3f7b608-5242-11ea-8f0f-d7160de6deec
c3f7b608-5242-11ea-8f0f-d7160de6deec,c3f7cabc-5242-11ea-9d8e-0b8416a76b88
c3f4941e-5242-11ea-8cb2-63a2fa9514f3,c3f7ddea-5242-11ea-bfe8-e7ff01bdc9dd
c3f55b74-5242-11ea-abd2-3b5d49400542,c3f7d296-5242-11ea-a040-733bea4b48bb
c3f5b862-5242-11ea-8207-932aec775a4b,c3f7ee16-5242-11ea-9e07-03509521e5f8
c3f77c38-5242-11ea-b689-43a85be107ed,c3f80464-5242-11ea-86a6-939d349967f2
c3f3b67a-5242-11ea-84fe-9fb9b8dc85da,c3f80fe0-5242-11ea-8d1b-9f2e33941981
c3f54b02-5242-11ea-a515-9f420939e188,c3f81c60-5242-11ea-a795-1776067725ce
c3f4f13e-5242-11ea-97e8-ab7b46683779,c3f8285e-5242-11ea-bf69-f73d0cda0f24
c3f566d2-5242-11ea-8191-3704c287dd68,c3f8363c-5242-11ea-953f-37023c70f8d2
c3f3591e-5242-11ea-8e9b-a7bc96f1a6c5,c3f84082-5242-11ea-bf3b-8f914240a377
c3f77c38-5242-11ea-b689-43a85be107ed,c3f84b68-5242-11ea-94ee-373e2bcc1a72
c3f7ee16-5242-11ea-9e07-03509521e5f8,c3f85fc2-5242-11ea-a8fc-5f7ca55bca59
c3f6c716-5242-11ea-8ded-3b91b46a3a6b,c3f87af2-5242-11ea-acc9-9b772284010a
c3f5c8c0-5242-11ea-8538-5bf12c88e2c2,c3f8942e-5242-11ea-9d3a-277366685bae
c3f6df3a-5242-11ea-93ca-27015c00f047,c3f8a4dc-5242-11ea-a3fb-bb849ed59f49
c3f55b74-5242-11ea-abd2-3b5d49400542,c3f8b33c-5242-11ea-8a74-775d4d573c7b
c3f6f01a-5242-11ea-b719-77f62b6165e2,c3f8cd90-5242-11ea-8cff-57fd2b8e8c15
c3f4941e-5242-11ea-8cb2-63a2fa9514f3,c3f8cdb8-5242-11ea-a4a9-7fe738173653
c3f72238-5242-11ea-bfb7-03e5b97100b7,c3f8d952-5242-11ea-a24b-a73812c77797
c3f5a688-5242-11ea-a2a9-93e73a83595d,c3f8e8fc-5242-11ea-8344-ffc08fad69bf
c3f7ddea-5242-11ea-bfe8-e7ff01bdc9dd,c3f8f540-5242-11ea-90fe-3bf43f01e5f5
c3f76180-5242-11ea-a662-db256a4614bd,c3f900a8-5242-11ea-b3cd-87b3c73c2fb6
c3f900a8-5242-11ea-b3cd-87b3c73c2fb6,c3f90b16-5242-11ea-9d95-bb103894d253
c3f8942e-5242-11ea-9d3a-277366685bae,c3f91732-5242-11ea-9559-33c5384f54ca
c3f5e256-5242-11ea-b98d-73a35c4136f6,c3f9247a-5242-11ea-ba4e-d388c2f03be0
c3f4a238-5242-11ea-b356-33c448c37b61,c3f92ec0-5242-11ea-8c80-d7dcfc7206e2
c3f7ee16-5242-11ea-9e07-03509521e5f8,c3f93b86-5242-11ea-9de2-97c83300d782
c3f7ddea-5242-11ea-bfe8-e7ff01bdc9dd,c3f950a8-5242-11ea-bee8-034e361094dc
c3f77c38-5242-11ea-b689-43a85be107ed,c3f9478e-5242-11ea-b695-971e8ae18e5d
c3f670fe-5242-11ea-995f-377519da2f21,c3f95ae4-5242-11ea-b05b-4706c279cc6b
c3f5b862-5242-11ea-8207-932aec775a4b,c3f965ac-5242-11ea-ac5d-5379c27a250c
c3f6f01a-5242-11ea-b719-77f62b6165e2,c3f9709c-5242-11ea-ad9f-b744872e7df3
c3f81c60-5242-11ea-a795-1776067725ce,c3f97c5e-5242-11ea-b40e-4328c574f868
c3f97c5e-5242-11ea-b40e-4328c574f868,c3f988fc-5242-11ea-9721-cf297aa690c6
c3f80fe0-5242-11ea-8d1b-9f2e33941981,c3f99338-5242-11ea-af13-d3a480da454c
c3f3db32-5242-11ea-a365-db8cf1e44b8f,c3f9a6d4-5242-11ea-8673-4779b722d8fc
c3f4941e-5242-11ea-8cb2-63a2fa9514f3,c3f9bc32-5242-11ea-a1ec-ef3f76de24e6
c3f531e4-5242-11ea-82d7-e39a22067500,c3f9bbce-5242-11ea-a8fa-77e04a68c705
c3f92ec0-5242-11ea-8c80-d7dcfc7206e2,c3f9c858-5242-11ea-aad4-07b2b038a1fe
c3f9478e-5242-11ea-b695-971e8ae18e5d,c3f9d1fe-5242-11ea-9de6-6b2a271a6d70
c3f4e3ba-5242-11ea-b4e0-778357032433,c3f9e7fc-5242-11ea-abd7-33ac15b3a61b
c3f99338-5242-11ea-af13-d3a480da454c,c3f9dc44-5242-11ea-b25d-77c72ec0f6f0
c3f8285e-5242-11ea-bf69-f73d0cda0f24,c3f9f288-5242-11ea-9a3d-0bf628fbd8a7
c3f5ee68-5242-11ea-9522-1b6b4d23051b,c3fa1ce0-5242-11ea-9271-c7b8b2906ccc
c3f8cd90-5242-11ea-8cff-57fd2b8e8c15,c3fa273a-5242-11ea-9f94-c7d8b8fe3df0
c3f9709c-5242-11ea-ad9f-b744872e7df3,c3fa3432-5242-11ea-8904-93399fe48cff
c3f45b02-5242-11ea-baf8-b7ab40ec5d17,c3fa4102-5242-11ea-a5a6-57dd02ad668d
c3f4e3ba-5242-11ea-b4e0-778357032433,c3fa49e0-5242-11ea-ba5b-5bbf6cd2ec90
c3f4832a-5242-11ea-9995-97f3578567b6,c3fa541c-5242-11ea-af4b-4b37da6d3070
c3f65a2e-5242-11ea-a7b4-cfdc7808d4b3,c3fa70b4-5242-11ea-a55f-5f421d05ebb6
c3f8cdb8-5242-11ea-a4a9-7fe738173653,c3fa8608-5242-11ea-b143-53f6d3cc1cca
c3f5c8c0-5242-11ea-8538-5bf12c88e2c2,c3fa909e-5242-11ea-a40c-abaa02f669a3
c3f4d276-5242-11ea-b408-431428b95446,c3fa9c06-5242-11ea-98f1-df56859302d0
c3f4b0c0-5242-11ea-a786-afd3915b4f7b,c3faa71e-5242-11ea-a2a2-8b86a439023d
c3f566d2-5242-11ea-8191-3704c287dd68,c3fac078-5242-11ea-8ee8-2fd2882e0412
c3f99338-5242-11ea-af13-d3a480da454c,c3facd8e-5242-11ea-929e-6f7c203c68b7
c3f9d1fe-5242-11ea-9de6-6b2a271a6d70,c3fade46-5242-11ea-8a76-a349e19530b4
c3f62d60-5242-11ea-bfef-bfdc73960b73,c3faee90-5242-11ea-a71b-53f2006af008
c3f8cdb8-5242-11ea-a4a9-7fe738173653,c3faf958-5242-11ea-b43b-879536b2671f
c3f4b0c0-5242-11ea-a786-afd3915b4f7b,c3fb040c-5242-11ea-96a3-17cb73991347
c3f76180-5242-11ea-a662-db256a4614bd,c3fb0f1a-5242-11ea-95bd-139e02381a38
c3f8d952-5242-11ea-a24b-a73812c77797,c3fb1afa-5242-11ea-8573-33ce6613ac1d
c3f640fc-5242-11ea-8aea-a36b36b096b8,c3fb2572-5242-11ea-87c4-c79f000bdaf2
c3f6d418-5242-11ea-9628-fbddd965f01d,c3fb2e5a-5242-11ea-96ed-83601f8eacff
c3f7b608-5242-11ea-8f0f-d7160de6deec,c3fb38d2-5242-11ea-88f8-5b72ac57aa5a
c3f4c6d2-5242-11ea-aa50-bb26eef73795,c3fb489a-5242-11ea-b091-af2ae6676329
c3f54b02-5242-11ea-a515-9f420939e188,c3fb56f0-5242-11ea-b864-db8f8be4b7ea
c3f79e70-5242-11ea-8cec-1728d04b027b,c3fb61fe-5242-11ea-ad19-c3edc300a974
c3f6c716-5242-11ea-8ded-3b91b46a3a6b,c3fb743c-5242-11ea-85c4-e3ef536a67db
c3fa8608-5242-11ea-b143-53f6d3cc1cca,c3fb7f0e-5242-11ea-8a4d-d3a069929e51
c3f9f288-5242-11ea-9a3d-0bf628fbd8a7,c3fb8922-5242-11ea-9668-8728646bd9a2
c3f3ceb2-5242-11ea-bee1-3fb994da2955,c3fb93d6-5242-11ea-86f6-1777c1a9eaf8
c3f81c60-5242-11ea-a795-1776067725ce,c3fb9dcc-5242-11ea-b946-0b44bd5985f1
c3f42268-5242-11ea-abaf-abc1b0dcdc74,c3fba7ea-5242-11ea-88c4-87e636cd5865
c3f792e0-5242-11ea-908c-0bbffa25e92c,c3fbb668-5242-11ea-bcfd-83ab38201444
c3f95ae4-5242-11ea-b05b-4706c279cc6b,c3fbc022-5242-11ea-a1e5-a35882f11a6b
c3f87af2-5242-11ea-acc9-9b772284010a,c3fbea0c-5242-11ea-90ce-17dd374addb9
c3fa8608-5242-11ea-b143-53f6d3cc1cca,c3fbdf62-5242-11ea-a28e-ab3032e53945
