RunID,AgentID,Tick,Created,Ressources,Reputation,Ability,Que,Action
run-2020-6-30-8-37-21.636584043,AGENTf1b40f56-baac-11ea-a08a-07ddb3a64412,102,100,8,1.0,0,4,[]
run-2020-6-30-8-37-21.636584043,AGENTf1b40f56-baac-11ea-a08a-07ddb3a64412,103,100,7,1.0,0,3,[]
