RunID,Tick,ActiveAgentsPerTick
run-2020-2-29-9-27-59.521654367,0,17
run-2020-2-29-9-27-59.521654367,1,19
run-2020-2-29-9-27-59.521654367,2,15
run-2020-2-29-9-27-59.521654367,3,20
run-2020-2-29-9-27-59.521654367,4,17
run-2020-2-29-9-27-59.521654367,5,18
run-2020-2-29-9-27-59.521654367,6,16
run-2020-2-29-9-27-59.521654367,7,21
run-2020-2-29-9-27-59.521654367,8,21
run-2020-2-29-9-27-59.521654367,9,23
run-2020-2-29-9-27-59.521654367,10,25
run-2020-2-29-9-27-59.521654367,11,27
run-2020-2-29-9-27-59.521654367,12,31
run-2020-2-29-9-27-59.521654367,13,27
run-2020-2-29-9-27-59.521654367,14,24
run-2020-2-29-9-27-59.521654367,15,30
run-2020-2-29-9-27-59.521654367,16,28
run-2020-2-29-9-27-59.521654367,17,31
run-2020-2-29-9-27-59.521654367,18,31
run-2020-2-29-9-27-59.521654367,19,31
run-2020-2-29-9-27-59.521654367,20,30
run-2020-2-29-9-27-59.521654367,21,31
run-2020-2-29-9-27-59.521654367,22,27
run-2020-2-29-9-27-59.521654367,23,34
run-2020-2-29-9-27-59.521654367,24,35
run-2020-2-29-9-27-59.521654367,25,36
run-2020-2-29-9-27-59.521654367,26,37
run-2020-2-29-9-27-59.521654367,27,35
run-2020-2-29-9-27-59.521654367,28,35
run-2020-2-29-9-27-59.521654367,29,43
run-2020-2-29-9-27-59.521654367,30,49
run-2020-2-29-9-27-59.521654367,31,52
run-2020-2-29-9-27-59.521654367,32,50
run-2020-2-29-9-27-59.521654367,33,50
run-2020-2-29-9-27-59.521654367,34,51
run-2020-2-29-9-27-59.521654367,35,50
run-2020-2-29-9-27-59.521654367,36,52
run-2020-2-29-9-27-59.521654367,37,52
run-2020-2-29-9-27-59.521654367,38,59
run-2020-2-29-9-27-59.521654367,39,61
run-2020-2-29-9-27-59.521654367,40,67
run-2020-2-29-9-27-59.521654367,41,63
run-2020-2-29-9-27-59.521654367,42,58
run-2020-2-29-9-27-59.521654367,43,63
run-2020-2-29-9-27-59.521654367,44,64
run-2020-2-29-9-27-59.521654367,45,61
run-2020-2-29-9-27-59.521654367,46,59
run-2020-2-29-9-27-59.521654367,47,59
run-2020-2-29-9-27-59.521654367,48,57
run-2020-2-29-9-27-59.521654367,49,56
run-2020-2-29-9-27-59.521654367,50,57
run-2020-2-29-9-27-59.521654367,51,60
run-2020-2-29-9-27-59.521654367,52,55
run-2020-2-29-9-27-59.521654367,53,53
run-2020-2-29-9-27-59.521654367,54,52
run-2020-2-29-9-27-59.521654367,55,54
run-2020-2-29-9-27-59.521654367,56,52
run-2020-2-29-9-27-59.521654367,57,58
run-2020-2-29-9-27-59.521654367,58,63
run-2020-2-29-9-27-59.521654367,59,68
run-2020-2-29-9-27-59.521654367,60,66
run-2020-2-29-9-27-59.521654367,61,61
run-2020-2-29-9-27-59.521654367,62,58
run-2020-2-29-9-27-59.521654367,63,56
run-2020-2-29-9-27-59.521654367,64,56
run-2020-2-29-9-27-59.521654367,65,55
run-2020-2-29-9-27-59.521654367,66,56
run-2020-2-29-9-27-59.521654367,67,57
run-2020-2-29-9-27-59.521654367,68,62
run-2020-2-29-9-27-59.521654367,69,62
run-2020-2-29-9-27-59.521654367,70,61
run-2020-2-29-9-27-59.521654367,71,58
run-2020-2-29-9-27-59.521654367,72,58
run-2020-2-29-9-27-59.521654367,73,63
run-2020-2-29-9-27-59.521654367,74,62
run-2020-2-29-9-27-59.521654367,75,62
run-2020-2-29-9-27-59.521654367,76,64
run-2020-2-29-9-27-59.521654367,77,62
run-2020-2-29-9-27-59.521654367,78,59
run-2020-2-29-9-27-59.521654367,79,60
run-2020-2-29-9-27-59.521654367,80,64
run-2020-2-29-9-27-59.521654367,81,67
run-2020-2-29-9-27-59.521654367,82,67
run-2020-2-29-9-27-59.521654367,83,69
run-2020-2-29-9-27-59.521654367,84,71
run-2020-2-29-9-27-59.521654367,85,72
run-2020-2-29-9-27-59.521654367,86,68
run-2020-2-29-9-27-59.521654367,87,64
run-2020-2-29-9-27-59.521654367,88,66
run-2020-2-29-9-27-59.521654367,89,71
run-2020-2-29-9-27-59.521654367,90,71
run-2020-2-29-9-27-59.521654367,91,72
run-2020-2-29-9-27-59.521654367,92,67
run-2020-2-29-9-27-59.521654367,93,64
run-2020-2-29-9-27-59.521654367,94,59
run-2020-2-29-9-27-59.521654367,95,62
run-2020-2-29-9-27-59.521654367,96,64
run-2020-2-29-9-27-59.521654367,97,65
run-2020-2-29-9-27-59.521654367,98,67
run-2020-2-29-9-27-59.521654367,99,68
run-2020-2-29-9-27-59.521654367,100,66
