Source,Target
c4aab06e-5242-11ea-a2f8-77f0bb1ea4b2,c4ab9236-5242-11ea-b950-53ce0c6985b1
c4a9954e-5242-11ea-a749-af381101975f,c4aba032-5242-11ea-8f2e-f315527baa7a
c4aac978-5242-11ea-a3be-639d23f4f5e4,c4abad70-5242-11ea-a23a-e3c43fc519b1
c4aab06e-5242-11ea-a2f8-77f0bb1ea4b2,c4abbb9e-5242-11ea-9b58-c7a25e55b120
c4a9954e-5242-11ea-a749-af381101975f,c4abc8e6-5242-11ea-ac84-7f8099c4f144
c4abbb9e-5242-11ea-9b58-c7a25e55b120,c4abdd36-5242-11ea-bf5c-47cd0454d56a
c4a8ca88-5242-11ea-8170-db2edd5a567b,c4abefec-5242-11ea-b12d-7bf7a1a0246a
c4ab087a-5242-11ea-81fc-332737da97de,c4ac11c0-5242-11ea-8178-6798d978c619
c4ab65e0-5242-11ea-a03a-27b0efd8e894,c4ac11ac-5242-11ea-9752-23eb153a63fb
c4a8f77e-5242-11ea-bce4-fb57017c6d08,c4ac1efe-5242-11ea-b91c-fffc897fd849
c4a9be48-5242-11ea-8cf7-ef660a22caed,c4ac2b6a-5242-11ea-abc6-a7fda08a0208
c4a9954e-5242-11ea-a749-af381101975f,c4ac37f4-5242-11ea-9eee-83138eb5755c
c4a9481e-5242-11ea-8dc2-1380c84d1cae,c4ac4334-5242-11ea-8683-9b9e88994f6e
c4ac2b6a-5242-11ea-abc6-a7fda08a0208,c4ac4fe6-5242-11ea-90eb-a73c34a45401
c4aad9d6-5242-11ea-a8f1-6b1ea17474d1,c4ac5a86-5242-11ea-8ad2-1365c62af382
c4a9954e-5242-11ea-a749-af381101975f,c4ac66ca-5242-11ea-80ec-5b8344118bc3
c4abc8e6-5242-11ea-ac84-7f8099c4f144,c4ac79d0-5242-11ea-9357-b7ec35b1b2e5
c4aac978-5242-11ea-a3be-639d23f4f5e4,c4ac8ac4-5242-11ea-83d1-a3de2106fbba
c4aac978-5242-11ea-a3be-639d23f4f5e4,c4ac98f2-5242-11ea-94cc-a79ed6963e4c
c4ab65e0-5242-11ea-a03a-27b0efd8e894,c4aca5fe-5242-11ea-92d4-d36d050c6be0
c4aa309e-5242-11ea-a045-eb26824acb73,c4acb5f8-5242-11ea-b5b6-33d767d14d33
c4a98892-5242-11ea-adaa-a3fb9723428b,c4acc37c-5242-11ea-a37b-cf20a96c0210
c4abc8e6-5242-11ea-ac84-7f8099c4f144,c4accff2-5242-11ea-8a55-d38d04d490f3
c4ac4334-5242-11ea-8683-9b9e88994f6e,c4acdcf4-5242-11ea-ba79-df4bfdee8900
c4a9035e-5242-11ea-ab43-d72489a23b02,c4ace8ca-5242-11ea-9d22-b3ebee5de344
c4ac98f2-5242-11ea-94cc-a79ed6963e4c,c4acf57c-5242-11ea-a281-73a538ea2f79
c4a9be48-5242-11ea-8cf7-ef660a22caed,c4ad08c8-5242-11ea-bee4-53f2ca7a4307
c4ac1efe-5242-11ea-b91c-fffc897fd849,c4ad1462-5242-11ea-a745-538a050f905b
c4a9954e-5242-11ea-a749-af381101975f,c4ad2128-5242-11ea-8a07-3f5ab796f21a
c4a8ec8e-5242-11ea-a874-e3bfbf2df082,c4ad2df8-5242-11ea-b5b3-d354f9a3f3c0
c4aa1b18-5242-11ea-8154-ef1d29fd14d7,c4ad44b4-5242-11ea-8d1a-0b6bea134a39
c4ab3ec6-5242-11ea-b99f-d783d4e2ac89,c4ad39ec-5242-11ea-b19a-c77303aed7b5
c4ab087a-5242-11ea-81fc-332737da97de,c4ad51e8-5242-11ea-b163-f37f0fe0b162
c4a9b0ba-5242-11ea-a3b5-af9a1cc26edf,c4ad6020-5242-11ea-8694-975da71b4dd8
c4a8be12-5242-11ea-ac55-33a97425c7a1,c4ad6ee4-5242-11ea-b8f5-e36443d2d741
c4abad70-5242-11ea-a23a-e3c43fc519b1,c4ad7a42-5242-11ea-acea-fb1735e8e582
c4aaf3da-5242-11ea-8562-eba749acc6b0,c4ad873a-5242-11ea-b770-2797b9cd2a7a
c4a90ffc-5242-11ea-9fe6-6b0cb1d3f02b,c4ad9612-5242-11ea-aac8-d7faa84d9c0e
c4aaf3da-5242-11ea-8562-eba749acc6b0,c4ada1f2-5242-11ea-b245-cbbdb74a69df
c4aa97aa-5242-11ea-b822-53eda690e515,c4adada0-5242-11ea-95fa-7b1b7ef0cc46
c4ad6ee4-5242-11ea-b8f5-e36443d2d741,c4adb976-5242-11ea-a1b5-5fcb434483e0
c4acf57c-5242-11ea-a281-73a538ea2f79,c4adc740-5242-11ea-8d9c-0b6aeafb5196
c4a9a21e-5242-11ea-88a5-ff6a08baa3fe,c4add7f8-5242-11ea-8ac8-c71c231325c7
c4a9f548-5242-11ea-996f-e3d30bf72cea,c4adecac-5242-11ea-b896-3b3d61d328ed
c4a9cc26-5242-11ea-b085-ebd43dc11eb2,c4adf86e-5242-11ea-99db-1bd4ca4ede27
c4ad51e8-5242-11ea-b163-f37f0fe0b162,c4ae082c-5242-11ea-8fc2-3f9f72cea503
c4a8be12-5242-11ea-ac55-33a97425c7a1,c4ae1592-5242-11ea-82f6-d71261f15914
c4ac4334-5242-11ea-8683-9b9e88994f6e,c4ae2316-5242-11ea-8007-0bf62ab89bc9
c4ac8ac4-5242-11ea-83d1-a3de2106fbba,c4ae3036-5242-11ea-a291-0f33ec860732
c4ac4fe6-5242-11ea-90eb-a73c34a45401,c4ae3c70-5242-11ea-9305-4f95b0c1e03f
c4ac8ac4-5242-11ea-83d1-a3de2106fbba,c4ae4936-5242-11ea-a8db-2b21023b00cb
c4ac8ac4-5242-11ea-83d1-a3de2106fbba,c4ae55b6-5242-11ea-8277-1f6c7cfe79bf
c4ac11ac-5242-11ea-9752-23eb153a63fb,c4ae6eca-5242-11ea-803d-17bb0d7f75d6
c4aae80e-5242-11ea-a184-7f959c49a2ab,c4ae7d16-5242-11ea-8945-f7d76064a43e
c4ac79d0-5242-11ea-9357-b7ec35b1b2e5,c4ae6e7a-5242-11ea-9a48-ef2cbb0bd1f7
c4ab087a-5242-11ea-81fc-332737da97de,c4ae96c0-5242-11ea-837b-9be8fea78344
c4ae96c0-5242-11ea-837b-9be8fea78344,c4aebe3e-5242-11ea-b422-5f46b5db198e
c4abbb9e-5242-11ea-9b58-c7a25e55b120,c4aec15e-5242-11ea-8c93-8f9c5b191cac
c4aa02ea-5242-11ea-8cb4-d731d81c07d9,c4aed842-5242-11ea-9be0-3b3cda16273f
c4aabb9a-5242-11ea-924d-f7d4b52117ec,c4aeeabc-5242-11ea-b343-bf4bddac53df
c4a90ffc-5242-11ea-9fe6-6b0cb1d3f02b,c4aefc64-5242-11ea-97f8-a7e50da7df65
c4a9481e-5242-11ea-8dc2-1380c84d1cae,c4af0ef2-5242-11ea-8314-8b080f03bde0
c4aa633e-5242-11ea-b37a-377466a5a0c0,c4af1eba-5242-11ea-b29f-b7eab5853691
c4a9be48-5242-11ea-8cf7-ef660a22caed,c4af36fc-5242-11ea-969d-cbbd75a70f56
c4ad44b4-5242-11ea-8d1a-0b6bea134a39,c4af3788-5242-11ea-b1f5-57f13318bd6b
c4a8e180-5242-11ea-a794-2f65cfca924c,c4af4462-5242-11ea-a16e-8f06c4d9741f
c4ad08c8-5242-11ea-bee4-53f2ca7a4307,c4af51e6-5242-11ea-8fc1-23e256995421
c4ab65e0-5242-11ea-a03a-27b0efd8e894,c4af6262-5242-11ea-9a29-83d9c0168d10
c4aaf3da-5242-11ea-8562-eba749acc6b0,c4af7806-5242-11ea-b908-8311af6e181c
c4aab06e-5242-11ea-a2f8-77f0bb1ea4b2,c4af97fa-5242-11ea-a70a-431e8f8e4f4c
c4aa97aa-5242-11ea-b822-53eda690e515,c4af89ea-5242-11ea-89ff-579acbebdce6
c4ab5942-5242-11ea-9500-3b1153d9c8b8,c4afa416-5242-11ea-bcc9-7b9fbf304e65
c4a9481e-5242-11ea-8dc2-1380c84d1cae,c4afb2ee-5242-11ea-89ce-176f3d3832c1
c4af6262-5242-11ea-9a29-83d9c0168d10,c4afc0e0-5242-11ea-a126-97c5c6b1d95d
c4adc740-5242-11ea-8d9c-0b6aeafb5196,c4afca4a-5242-11ea-b905-ebcefe5a9ef3
c4adecac-5242-11ea-b896-3b3d61d328ed,c4afd684-5242-11ea-98c3-ebd1cacc710c
c4ae082c-5242-11ea-8fc2-3f9f72cea503,c4afe606-5242-11ea-8008-07e49e2c8648
c4ad6ee4-5242-11ea-b8f5-e36443d2d741,c4aff0ba-5242-11ea-861c-cf7117067255
c4aec15e-5242-11ea-8c93-8f9c5b191cac,c4affc4a-5242-11ea-a0de-631d6bdcb779
c4aa8a44-5242-11ea-845f-2b12291bab7e,c4b0080c-5242-11ea-a02f-0f0df96b2fb9
c4a9481e-5242-11ea-8dc2-1380c84d1cae,c4b01248-5242-11ea-8308-239323b3ca6b
c4acf57c-5242-11ea-a281-73a538ea2f79,c4b01f4a-5242-11ea-a63d-d35d2eac1ef9
c4af97fa-5242-11ea-a70a-431e8f8e4f4c,c4b02e9a-5242-11ea-ac18-6f1048cb2da8
c4a9481e-5242-11ea-8dc2-1380c84d1cae,c4b03a52-5242-11ea-83a0-cf825a26b3a7
c4add7f8-5242-11ea-8ac8-c71c231325c7,c4b04452-5242-11ea-b4fb-bbf73a07d79c
c4ae082c-5242-11ea-8fc2-3f9f72cea503,c4b05078-5242-11ea-8d71-5bf123ae1c23
c4abefec-5242-11ea-b12d-7bf7a1a0246a,c4b05c26-5242-11ea-aead-035d91adc2df
c4aa97aa-5242-11ea-b822-53eda690e515,c4b0681a-5242-11ea-8f14-c34b7deeadab
c4aabb9a-5242-11ea-924d-f7d4b52117ec,c4b0795e-5242-11ea-a76a-dfa5f1d72a89
c4ad2df8-5242-11ea-b5b3-d354f9a3f3c0,c4b085d4-5242-11ea-8b95-dfb3f45b3eb6
c4aec15e-5242-11ea-8c93-8f9c5b191cac,c4b09128-5242-11ea-af0f-8b69892e2811
c4ad9612-5242-11ea-aac8-d7faa84d9c0e,c4b09e98-5242-11ea-8e00-7b0af6c82c2a
c4abc8e6-5242-11ea-ac84-7f8099c4f144,c4b0ab22-5242-11ea-ba97-df9778941d35
c4ab7788-5242-11ea-874f-1f49c852b69b,c4b0b694-5242-11ea-8b1d-4fc4af8575c2
c4ad2128-5242-11ea-8a07-3f5ab796f21a,c4b0c2c4-5242-11ea-8f4a-274a934e9c5b
