RunID,Tick,ActiveAgentsPerTick
run-2020-2-18-13-56-15.530586004,0,13
run-2020-2-18-13-56-15.530586004,1,16
run-2020-2-18-13-56-15.530586004,2,16
run-2020-2-18-13-56-15.530586004,3,18
run-2020-2-18-13-56-15.530586004,4,21
run-2020-2-18-13-56-15.530586004,5,22
run-2020-2-18-13-56-15.530586004,6,24
run-2020-2-18-13-56-15.530586004,7,24
run-2020-2-18-13-56-15.530586004,8,29
run-2020-2-18-13-56-15.530586004,9,33
run-2020-2-18-13-56-15.530586004,10,33
run-2020-2-18-13-56-15.530586004,11,28
run-2020-2-18-13-56-15.530586004,12,27
run-2020-2-18-13-56-15.530586004,13,29
run-2020-2-18-13-56-15.530586004,14,35
run-2020-2-18-13-56-15.530586004,15,36
run-2020-2-18-13-56-15.530586004,16,39
run-2020-2-18-13-56-15.530586004,17,41
run-2020-2-18-13-56-15.530586004,18,43
run-2020-2-18-13-56-15.530586004,19,44
run-2020-2-18-13-56-15.530586004,20,47
run-2020-2-18-13-56-15.530586004,21,52
run-2020-2-18-13-56-15.530586004,22,53
run-2020-2-18-13-56-15.530586004,23,55
run-2020-2-18-13-56-15.530586004,24,61
run-2020-2-18-13-56-15.530586004,25,54
run-2020-2-18-13-56-15.530586004,26,55
run-2020-2-18-13-56-15.530586004,27,54
run-2020-2-18-13-56-15.530586004,28,56
run-2020-2-18-13-56-15.530586004,29,59
run-2020-2-18-13-56-15.530586004,30,60
run-2020-2-18-13-56-15.530586004,31,56
run-2020-2-18-13-56-15.530586004,32,59
run-2020-2-18-13-56-15.530586004,33,61
run-2020-2-18-13-56-15.530586004,34,64
run-2020-2-18-13-56-15.530586004,35,61
run-2020-2-18-13-56-15.530586004,36,65
run-2020-2-18-13-56-15.530586004,37,66
run-2020-2-18-13-56-15.530586004,38,65
run-2020-2-18-13-56-15.530586004,39,59
run-2020-2-18-13-56-15.530586004,40,60
run-2020-2-18-13-56-15.530586004,41,62
run-2020-2-18-13-56-15.530586004,42,56
run-2020-2-18-13-56-15.530586004,43,62
run-2020-2-18-13-56-15.530586004,44,63
run-2020-2-18-13-56-15.530586004,45,66
run-2020-2-18-13-56-15.530586004,46,63
run-2020-2-18-13-56-15.530586004,47,57
run-2020-2-18-13-56-15.530586004,48,59
run-2020-2-18-13-56-15.530586004,49,58
run-2020-2-18-13-56-15.530586004,50,61
run-2020-2-18-13-56-15.530586004,51,64
run-2020-2-18-13-56-15.530586004,52,68
run-2020-2-18-13-56-15.530586004,53,68
run-2020-2-18-13-56-15.530586004,54,64
run-2020-2-18-13-56-15.530586004,55,61
run-2020-2-18-13-56-15.530586004,56,58
run-2020-2-18-13-56-15.530586004,57,57
run-2020-2-18-13-56-15.530586004,58,60
run-2020-2-18-13-56-15.530586004,59,63
run-2020-2-18-13-56-15.530586004,60,68
run-2020-2-18-13-56-15.530586004,61,71
run-2020-2-18-13-56-15.530586004,62,72
run-2020-2-18-13-56-15.530586004,63,68
run-2020-2-18-13-56-15.530586004,64,67
run-2020-2-18-13-56-15.530586004,65,62
run-2020-2-18-13-56-15.530586004,66,58
run-2020-2-18-13-56-15.530586004,67,58
run-2020-2-18-13-56-15.530586004,68,55
run-2020-2-18-13-56-15.530586004,69,55
run-2020-2-18-13-56-15.530586004,70,54
run-2020-2-18-13-56-15.530586004,71,56
run-2020-2-18-13-56-15.530586004,72,61
run-2020-2-18-13-56-15.530586004,73,63
run-2020-2-18-13-56-15.530586004,74,63
run-2020-2-18-13-56-15.530586004,75,63
run-2020-2-18-13-56-15.530586004,76,64
run-2020-2-18-13-56-15.530586004,77,64
run-2020-2-18-13-56-15.530586004,78,59
run-2020-2-18-13-56-15.530586004,79,54
run-2020-2-18-13-56-15.530586004,80,54
run-2020-2-18-13-56-15.530586004,81,58
run-2020-2-18-13-56-15.530586004,82,59
run-2020-2-18-13-56-15.530586004,83,58
run-2020-2-18-13-56-15.530586004,84,54
run-2020-2-18-13-56-15.530586004,85,56
run-2020-2-18-13-56-15.530586004,86,56
run-2020-2-18-13-56-15.530586004,87,58
run-2020-2-18-13-56-15.530586004,88,58
run-2020-2-18-13-56-15.530586004,89,60
run-2020-2-18-13-56-15.530586004,90,54
run-2020-2-18-13-56-15.530586004,91,53
run-2020-2-18-13-56-15.530586004,92,52
run-2020-2-18-13-56-15.530586004,93,51
run-2020-2-18-13-56-15.530586004,94,50
run-2020-2-18-13-56-15.530586004,95,52
run-2020-2-18-13-56-15.530586004,96,58
run-2020-2-18-13-56-15.530586004,97,55
run-2020-2-18-13-56-15.530586004,98,51
run-2020-2-18-13-56-15.530586004,99,49
run-2020-2-18-13-56-15.530586004,100,45
