RunID,Tick,ActiveAgentsPerTick
run-2020-2-18-11-31-31.600532054,0,16
run-2020-2-18-11-31-31.600532054,1,21
run-2020-2-18-11-31-31.600532054,2,17
run-2020-2-18-11-31-31.600532054,3,17
run-2020-2-18-11-31-31.600532054,4,15
run-2020-2-18-11-31-31.600532054,5,16
run-2020-2-18-11-31-31.600532054,6,18
run-2020-2-18-11-31-31.600532054,7,22
run-2020-2-18-11-31-31.600532054,8,25
run-2020-2-18-11-31-31.600532054,9,25
run-2020-2-18-11-31-31.600532054,10,25
run-2020-2-18-11-31-31.600532054,11,21
run-2020-2-18-11-31-31.600532054,12,23
run-2020-2-18-11-31-31.600532054,13,27
run-2020-2-18-11-31-31.600532054,14,28
run-2020-2-18-11-31-31.600532054,15,29
run-2020-2-18-11-31-31.600532054,16,28
run-2020-2-18-11-31-31.600532054,17,29
run-2020-2-18-11-31-31.600532054,18,32
run-2020-2-18-11-31-31.600532054,19,30
run-2020-2-18-11-31-31.600532054,20,37
run-2020-2-18-11-31-31.600532054,21,37
run-2020-2-18-11-31-31.600532054,22,41
run-2020-2-18-11-31-31.600532054,23,45
run-2020-2-18-11-31-31.600532054,24,47
run-2020-2-18-11-31-31.600532054,25,47
run-2020-2-18-11-31-31.600532054,26,41
run-2020-2-18-11-31-31.600532054,27,41
run-2020-2-18-11-31-31.600532054,28,40
run-2020-2-18-11-31-31.600532054,29,46
run-2020-2-18-11-31-31.600532054,30,52
run-2020-2-18-11-31-31.600532054,31,53
run-2020-2-18-11-31-31.600532054,32,53
run-2020-2-18-11-31-31.600532054,33,51
run-2020-2-18-11-31-31.600532054,34,55
run-2020-2-18-11-31-31.600532054,35,58
run-2020-2-18-11-31-31.600532054,36,61
run-2020-2-18-11-31-31.600532054,37,57
run-2020-2-18-11-31-31.600532054,38,58
run-2020-2-18-11-31-31.600532054,39,54
run-2020-2-18-11-31-31.600532054,40,58
run-2020-2-18-11-31-31.600532054,41,60
run-2020-2-18-11-31-31.600532054,42,61
run-2020-2-18-11-31-31.600532054,43,58
run-2020-2-18-11-31-31.600532054,44,58
run-2020-2-18-11-31-31.600532054,45,55
run-2020-2-18-11-31-31.600532054,46,59
run-2020-2-18-11-31-31.600532054,47,63
run-2020-2-18-11-31-31.600532054,48,62
run-2020-2-18-11-31-31.600532054,49,67
run-2020-2-18-11-31-31.600532054,50,68
run-2020-2-18-11-31-31.600532054,51,72
run-2020-2-18-11-31-31.600532054,52,71
run-2020-2-18-11-31-31.600532054,53,68
run-2020-2-18-11-31-31.600532054,54,70
run-2020-2-18-11-31-31.600532054,55,69
run-2020-2-18-11-31-31.600532054,56,71
run-2020-2-18-11-31-31.600532054,57,69
run-2020-2-18-11-31-31.600532054,58,74
run-2020-2-18-11-31-31.600532054,59,69
run-2020-2-18-11-31-31.600532054,60,71
run-2020-2-18-11-31-31.600532054,61,72
run-2020-2-18-11-31-31.600532054,62,72
run-2020-2-18-11-31-31.600532054,63,74
run-2020-2-18-11-31-31.600532054,64,74
run-2020-2-18-11-31-31.600532054,65,72
run-2020-2-18-11-31-31.600532054,66,75
run-2020-2-18-11-31-31.600532054,67,71
run-2020-2-18-11-31-31.600532054,68,71
run-2020-2-18-11-31-31.600532054,69,68
run-2020-2-18-11-31-31.600532054,70,68
run-2020-2-18-11-31-31.600532054,71,67
run-2020-2-18-11-31-31.600532054,72,67
run-2020-2-18-11-31-31.600532054,73,68
run-2020-2-18-11-31-31.600532054,74,66
run-2020-2-18-11-31-31.600532054,75,65
run-2020-2-18-11-31-31.600532054,76,64
run-2020-2-18-11-31-31.600532054,77,61
run-2020-2-18-11-31-31.600532054,78,62
run-2020-2-18-11-31-31.600532054,79,63
run-2020-2-18-11-31-31.600532054,80,64
run-2020-2-18-11-31-31.600532054,81,67
run-2020-2-18-11-31-31.600532054,82,69
run-2020-2-18-11-31-31.600532054,83,67
run-2020-2-18-11-31-31.600532054,84,69
run-2020-2-18-11-31-31.600532054,85,67
run-2020-2-18-11-31-31.600532054,86,67
run-2020-2-18-11-31-31.600532054,87,68
run-2020-2-18-11-31-31.600532054,88,69
run-2020-2-18-11-31-31.600532054,89,70
run-2020-2-18-11-31-31.600532054,90,63
run-2020-2-18-11-31-31.600532054,91,65
run-2020-2-18-11-31-31.600532054,92,72
run-2020-2-18-11-31-31.600532054,93,69
run-2020-2-18-11-31-31.600532054,94,68
run-2020-2-18-11-31-31.600532054,95,64
run-2020-2-18-11-31-31.600532054,96,56
run-2020-2-18-11-31-31.600532054,97,57
run-2020-2-18-11-31-31.600532054,98,54
run-2020-2-18-11-31-31.600532054,99,57
run-2020-2-18-11-31-31.600532054,100,56
