RunID,Agent,Age,Created,Inactive,Resources,Reputation,Ability,Que
run-2020-2-18-11-31-31.600532054,AGENT#6bb6b4da-5242-11ea-a149-27de356fad46,1,0,1,10,1.0,1.0,0
run-2020-2-18-11-31-31.600532054,AGENT#6bb6b746-5242-11ea-97e9-c7be938e560a,1,0,1,10,1.0,1.0,0
run-2020-2-18-11-31-31.600532054,AGENT#6bb6b980-5242-11ea-9e7c-cb6b7eae7822,1,0,1,10,1.0,1.0,0
run-2020-2-18-11-31-31.600532054,AGENT#6bb6bdf4-5242-11ea-a300-ef167edd1c2e,1,0,1,10,1.0,1.0,0
run-2020-2-18-11-31-31.600532054,AGENT#6bb6c72c-5242-11ea-a5ab-4b8821cacf4f,1,0,1,10,1.0,1.0,0
run-2020-2-18-11-31-31.600532054,AGENT#6bb706f6-5242-11ea-b635-c3eb38fd6371,1,0,1,10,1.0,1.0,0
run-2020-2-18-11-31-31.600532054,AGENT#6bd576b8-5242-11ea-ad2d-6b1a7e2df476,1,1,2,10,1.0,1.0,0
run-2020-2-18-11-31-31.600532054,AGENT#6bb6c4f2-5242-11ea-9940-9f1a9614b345,3,0,3,10,1.0,1.0,0
run-2020-2-18-11-31-31.600532054,AGENT#6bb704a8-5242-11ea-8cb8-d3b5c0d2bc70,3,0,3,10,1.0,1.0,0
run-2020-2-18-11-31-31.600532054,AGENT#6bd58158-5242-11ea-8624-a765089001a0,2,1,3,10,1.0,1.0,0
run-2020-2-18-11-31-31.600532054,AGENT#6bb6c132-5242-11ea-b0fc-bb51f4318116,4,0,4,10,1.0,1.0,0
run-2020-2-18-11-31-31.600532054,AGENT#6bb6fb84-5242-11ea-895b-bfce0ebbbc80,4,0,4,10,1.0,1.0,0
run-2020-2-18-11-31-31.600532054,AGENT#6bd57c30-5242-11ea-9971-67b7db679562,3,1,4,10,1.0,1.0,0
run-2020-2-18-11-31-31.600532054,AGENT#6bd57ec4-5242-11ea-b6b9-97fbf8c6e0ec,3,1,4,10,1.0,1.0,0
run-2020-2-18-11-31-31.600532054,AGENT#6be79780-5242-11ea-b0ff-4765165d2ae6,2,2,4,10,1.0,1.0,0
run-2020-2-18-11-31-31.600532054,AGENT#6bf9d24c-5242-11ea-bf40-53b2cb8dc97e,1,3,4,10,1.0,1.0,0
run-2020-2-18-11-31-31.600532054,AGENT#6bb6b278-5242-11ea-b40e-2ff2ae032108,5,0,5,10,1.0,1.0,0
run-2020-2-18-11-31-31.600532054,AGENT#6be79a3c-5242-11ea-a64c-2babf5efbd6b,3,2,5,10,1.0,1.0,0
run-2020-2-18-11-31-31.600532054,AGENT#6c1f0256-5242-11ea-8909-27a31d02aee5,1,5,6,10,1.0,1.0,0
run-2020-2-18-11-31-31.600532054,AGENT#6c1f04ae-5242-11ea-8a53-3fa500ddb9cc,1,5,6,10,1.0,1.0,0
run-2020-2-18-11-31-31.600532054,AGENT#6c1f0706-5242-11ea-a198-3b3a97662d84,1,5,6,10,1.0,1.0,0
run-2020-2-18-11-31-31.600532054,AGENT#6c31c8c8-5242-11ea-a563-23d9a2760f10,2,6,8,10,1.0,1.0,0
run-2020-2-18-11-31-31.600532054,AGENT#6c0cde46-5242-11ea-8a5f-7395378aee90,5,4,9,10,1.0,1.0,0
run-2020-2-18-11-31-31.600532054,AGENT#6c445d80-5242-11ea-a853-37dc1338c9a6,2,7,9,10,1.0,1.0,0
run-2020-2-18-11-31-31.600532054,AGENT#6c1f0968-5242-11ea-842f-8708bf8d0493,5,5,10,10,1.0,1.0,0
run-2020-2-18-11-31-31.600532054,AGENT#6c31cc06-5242-11ea-a413-6b6e63e6fb3b,4,6,10,10,1.0,1.0,0
run-2020-2-18-11-31-31.600532054,AGENT#6c445204-5242-11ea-98f0-9f3664a1c833,3,7,10,10,1.0,1.0,0
run-2020-2-18-11-31-31.600532054,AGENT#6c445b00-5242-11ea-ab52-6368ab05c446,3,7,10,10,1.0,1.0,0
run-2020-2-18-11-31-31.600532054,AGENT#6c446280-5242-11ea-9c94-3f053a446874,3,7,10,10,1.0,1.0,0
run-2020-2-18-11-31-31.600532054,AGENT#6c5717ea-5242-11ea-a0db-d77aa4a8d387,2,8,10,10,1.0,1.0,0
run-2020-2-18-11-31-31.600532054,AGENT#6c31cf1c-5242-11ea-b3e5-67a8e96d29f7,5,6,11,10,1.0,1.0,0
run-2020-2-18-11-31-31.600532054,AGENT#6c571556-5242-11ea-86ed-2f595ebd7ba6,3,8,11,10,1.0,1.0,0
run-2020-2-18-11-31-31.600532054,AGENT#6c571b14-5242-11ea-8f09-73569f3abcda,3,8,11,10,1.0,1.0,0
run-2020-2-18-11-31-31.600532054,AGENT#6c6932d6-5242-11ea-b70e-43ffaa174f6e,4,9,13,10,1.0,1.0,0
run-2020-2-18-11-31-31.600532054,AGENT#6ca1ed88-5242-11ea-9bbf-bbe0cdb8d012,1,12,13,10,1.0,1.0,0
run-2020-2-18-11-31-31.600532054,AGENT#6cb3cc74-5242-11ea-81c2-d7ac39ca37dd,1,13,14,10,1.0,1.0,0
run-2020-2-18-11-31-31.600532054,AGENT#6c7ef8c8-5242-11ea-a53c-bf24becd0414,5,10,15,10,1.0,1.0,0
run-2020-2-18-11-31-31.600532054,AGENT#6c9100d6-5242-11ea-a45e-4f3cc4b04215,4,11,15,10,1.0,1.0,0
run-2020-2-18-11-31-31.600532054,AGENT#6ca1f490-5242-11ea-b5f0-fb358ec5f83d,4,12,16,10,1.0,1.0,0
run-2020-2-18-11-31-31.600532054,AGENT#6cc82926-5242-11ea-a2f7-cf2ad3f81b2d,2,14,16,10,1.0,1.0,0
run-2020-2-18-11-31-31.600532054,AGENT#6cb3ca3a-5242-11ea-b548-47f6a89cbf3e,4,13,17,10,1.0,1.0,0
run-2020-2-18-11-31-31.600532054,AGENT#6cd90f02-5242-11ea-abe9-2b49f91a2f5d,2,15,17,10,1.0,1.0,0
run-2020-2-18-11-31-31.600532054,AGENT#6ceb6e68-5242-11ea-b299-835be813a11b,1,16,17,10,1.0,1.0,0
run-2020-2-18-11-31-31.600532054,AGENT#6d005a12-5242-11ea-aff8-5bb6d5ae68fa,1,17,18,10,1.0,1.0,0
run-2020-2-18-11-31-31.600532054,AGENT#6d005d0a-5242-11ea-ad9c-13b77e9aed47,1,17,18,10,1.0,1.0,0
run-2020-2-18-11-31-31.600532054,AGENT#6d005fd0-5242-11ea-ba0b-afdd9c75b6d5,1,17,18,10,1.0,1.0,0
run-2020-2-18-11-31-31.600532054,AGENT#6d132f8e-5242-11ea-9ee1-dbcb61dc0f97,1,18,19,10,1.0,1.0,0
run-2020-2-18-11-31-31.600532054,AGENT#6d1332ae-5242-11ea-bc67-ef3d96fe9cdb,1,18,19,10,1.0,1.0,0
run-2020-2-18-11-31-31.600532054,AGENT#6d133600-5242-11ea-bea3-f75d4bb2ba50,2,18,20,10,1.0,1.0,0
run-2020-2-18-11-31-31.600532054,AGENT#6d133ad8-5242-11ea-bf5a-eff9ab18da10,2,18,20,10,1.0,1.0,0
run-2020-2-18-11-31-31.600532054,AGENT#6d2533e6-5242-11ea-a293-e3076ffca61c,1,19,20,10,1.0,1.0,0
run-2020-2-18-11-31-31.600532054,AGENT#6d132c46-5242-11ea-acda-df872e728d79,3,18,21,10,1.0,1.0,0
run-2020-2-18-11-31-31.600532054,AGENT#6d37579c-5242-11ea-a60a-9f13e353b000,1,20,21,10,1.0,1.0,0
run-2020-2-18-11-31-31.600532054,AGENT#6d375c6a-5242-11ea-bfb5-1f9526dd0141,1,20,21,10,1.0,1.0,0
run-2020-2-18-11-31-31.600532054,AGENT#6d497490-5242-11ea-872a-1bd0763b5a0e,2,21,23,10,1.0,1.0,0
run-2020-2-18-11-31-31.600532054,AGENT#6d5bfbd8-5242-11ea-b45e-37d456ebfeab,1,22,23,10,1.0,1.0,0
run-2020-2-18-11-31-31.600532054,AGENT#6d5c0268-5242-11ea-895d-abb33a5cabd7,1,22,23,10,1.0,1.0,0
run-2020-2-18-11-31-31.600532054,AGENT#6d3769a8-5242-11ea-8b6a-af64fd3a528a,4,20,24,10,1.0,1.0,0
run-2020-2-18-11-31-31.600532054,AGENT#6d5bf782-5242-11ea-af69-bfb169de2e48,2,22,24,10,1.0,1.0,0
run-2020-2-18-11-31-31.600532054,AGENT#6d5c0038-5242-11ea-b1a7-1fd39aa4ebfa,2,22,24,10,1.0,1.0,0
run-2020-2-18-11-31-31.600532054,AGENT#6ca1f80a-5242-11ea-a50c-3f6b79763efd,13,12,25,10,1.0,1.0,0
run-2020-2-18-11-31-31.600532054,AGENT#6d375a12-5242-11ea-bf9d-9346867fd801,5,20,25,10,1.0,1.0,0
run-2020-2-18-11-31-31.600532054,AGENT#6d375e9a-5242-11ea-817a-47d42a573c6e,5,20,25,10,1.0,1.0,0
run-2020-2-18-11-31-31.600532054,AGENT#6d49712a-5242-11ea-9be0-872588a63b60,4,21,25,10,1.0,1.0,0
run-2020-2-18-11-31-31.600532054,AGENT#6d5bf516-5242-11ea-838c-8b0bfabf32fa,3,22,25,10,1.0,1.0,0
run-2020-2-18-11-31-31.600532054,AGENT#6d5bf9bc-5242-11ea-b08f-afd2bc4280ef,3,22,25,10,1.0,1.0,0
run-2020-2-18-11-31-31.600532054,AGENT#6d5bfdfe-5242-11ea-9846-07ed4997a4db,3,22,25,10,1.0,1.0,0
run-2020-2-18-11-31-31.600532054,AGENT#6d812e6c-5242-11ea-824c-270e2ece008b,1,24,25,10,1.0,1.0,0
run-2020-2-18-11-31-31.600532054,AGENT#6d6f7f78-5242-11ea-ab99-5bd03c385366,3,23,26,10,1.0,1.0,0
run-2020-2-18-11-31-31.600532054,AGENT#6d812c32-5242-11ea-9a51-efc1384a4962,2,24,26,10,1.0,1.0,0
run-2020-2-18-11-31-31.600532054,AGENT#6d6f7adc-5242-11ea-909d-bb3706106a42,4,23,27,10,1.0,1.0,0
run-2020-2-18-11-31-31.600532054,AGENT#6da66876-5242-11ea-ad39-9f7d7edb4bf0,1,26,27,10,1.0,1.0,0
run-2020-2-18-11-31-31.600532054,AGENT#6db84046-5242-11ea-8f31-87b0244e2e79,1,27,28,10,1.0,1.0,0
run-2020-2-18-11-31-31.600532054,AGENT#6cb3c774-5242-11ea-8b59-27c6341bea7f,16,13,29,10,1.0,1.0,0
run-2020-2-18-11-31-31.600532054,AGENT#6db842c6-5242-11ea-a2c3-dbe277cce02e,3,27,30,10,1.0,1.0,0
run-2020-2-18-11-31-31.600532054,AGENT#6ddc0814-5242-11ea-9a82-bf15194ca38a,1,29,30,10,1.0,1.0,0
run-2020-2-18-11-31-31.600532054,AGENT#6ddc0a94-5242-11ea-acc2-472f204c9afe,1,29,30,10,1.0,1.0,0
run-2020-2-18-11-31-31.600532054,AGENT#6ddc0ee0-5242-11ea-9bab-97fdcf58f4f9,1,29,30,10,1.0,1.0,0
run-2020-2-18-11-31-31.600532054,AGENT#6ddc132c-5242-11ea-bd3e-6ff691b129e4,1,29,30,10,1.0,1.0,0
run-2020-2-18-11-31-31.600532054,AGENT#6ddc1552-5242-11ea-b74f-03f84d36daae,2,29,31,10,1.0,1.0,0
run-2020-2-18-11-31-31.600532054,AGENT#6dee268e-5242-11ea-88e4-67101b9bcb06,1,30,31,10,1.0,1.0,0
run-2020-2-18-11-31-31.600532054,AGENT#6dee2b0c-5242-11ea-881a-677b2aff1790,1,30,31,10,1.0,1.0,0
run-2020-2-18-11-31-31.600532054,AGENT#6ddc0cba-5242-11ea-8938-7b7f4a57dca0,3,29,32,10,1.0,1.0,0
run-2020-2-18-11-31-31.600532054,AGENT#6dee2468-5242-11ea-98c1-fb400255a761,2,30,32,10,1.0,1.0,0
run-2020-2-18-11-31-31.600532054,AGENT#6e00576e-5242-11ea-b283-e3d96081fb78,1,31,32,10,1.0,1.0,0
run-2020-2-18-11-31-31.600532054,AGENT#6dee2224-5242-11ea-90ad-2740e177f117,3,30,33,10,1.0,1.0,0
run-2020-2-18-11-31-31.600532054,AGENT#6e1535c6-5242-11ea-977e-4fe1a12fbbdd,1,32,33,10,1.0,1.0,0
run-2020-2-18-11-31-31.600532054,AGENT#6dee2d3c-5242-11ea-a54f-7b1caeb95d38,4,30,34,10,1.0,1.0,0
run-2020-2-18-11-31-31.600532054,AGENT#6e39d6f6-5242-11ea-a881-9ba4ccd2dab1,1,34,35,10,1.0,1.0,0
run-2020-2-18-11-31-31.600532054,AGENT#6c44584e-5242-11ea-a931-dbc28b0da709,29,7,36,10,1.0,1.0,0
run-2020-2-18-11-31-31.600532054,AGENT#6e004bf2-5242-11ea-b1ea-17e2fcd69da0,5,31,36,10,1.0,1.0,0
run-2020-2-18-11-31-31.600532054,AGENT#6e004e5e-5242-11ea-a2b1-871b1f2694bd,5,31,36,10,1.0,1.0,0
run-2020-2-18-11-31-31.600532054,AGENT#6e0052d2-5242-11ea-9f23-ffeecc408a02,5,31,36,10,1.0,1.0,0
run-2020-2-18-11-31-31.600532054,AGENT#6e153864-5242-11ea-bb05-0f93465a47b4,4,32,36,10,1.0,1.0,0
run-2020-2-18-11-31-31.600532054,AGENT#6e39de30-5242-11ea-82c1-2f03377c1c81,2,34,36,10,1.0,1.0,0
run-2020-2-18-11-31-31.600532054,AGENT#6e4d213e-5242-11ea-8233-eb47f3452da9,1,35,36,10,1.0,1.0,0
run-2020-2-18-11-31-31.600532054,AGENT#6e4d2a12-5242-11ea-85be-6bce5e224530,2,35,37,10,1.0,1.0,0
run-2020-2-18-11-31-31.600532054,AGENT#6e609e8a-5242-11ea-906b-ffa0edea1a2e,1,36,37,10,1.0,1.0,0
run-2020-2-18-11-31-31.600532054,AGENT#6e60a182-5242-11ea-983c-93a7b3dad2d4,1,36,37,10,1.0,1.0,0
run-2020-2-18-11-31-31.600532054,AGENT#6e271002-5242-11ea-8080-4749598b612e,5,33,38,10,1.0,1.0,0
run-2020-2-18-11-31-31.600532054,AGENT#6e39d976-5242-11ea-a9b0-1b5867042365,4,34,38,10,1.0,1.0,0
run-2020-2-18-11-31-31.600532054,AGENT#6e39dbe2-5242-11ea-a09d-97a24484de8f,4,34,38,10,1.0,1.0,0
run-2020-2-18-11-31-31.600532054,AGENT#6e60a678-5242-11ea-9d34-bf7b04c6f7d5,2,36,38,10,1.0,1.0,0
run-2020-2-18-11-31-31.600532054,AGENT#6e74c450-5242-11ea-abd1-d31e067aa0cc,1,37,38,10,1.0,1.0,0
run-2020-2-18-11-31-31.600532054,AGENT#6e74ca54-5242-11ea-afab-53f5265c9ee0,1,37,38,10,1.0,1.0,0
run-2020-2-18-11-31-31.600532054,AGENT#6e4d1bbc-5242-11ea-8237-1b222caef45d,4,35,39,10,1.0,1.0,0
run-2020-2-18-11-31-31.600532054,AGENT#6e74c734-5242-11ea-adea-4f28cb256f4a,2,37,39,10,1.0,1.0,0
run-2020-2-18-11-31-31.600532054,AGENT#6c1f0bc0-5242-11ea-8976-0b5b2669195e,35,5,40,10,1.0,1.0,0
run-2020-2-18-11-31-31.600532054,AGENT#6e9b1196-5242-11ea-aa4f-dbf8ac55caac,1,39,40,10,1.0,1.0,0
run-2020-2-18-11-31-31.600532054,AGENT#6c1efffe-5242-11ea-8add-c31ad71f1627,36,5,41,10,1.0,1.0,0
run-2020-2-18-11-31-31.600532054,AGENT#6e9b0e94-5242-11ea-bb33-3bb146c820ca,2,39,41,10,1.0,1.0,0
run-2020-2-18-11-31-31.600532054,AGENT#6bb7025a-5242-11ea-863a-3b7322bf9067,42,0,42,10,1.0,1.0,0
run-2020-2-18-11-31-31.600532054,AGENT#6e60a3ee-5242-11ea-bd88-2b8bfc278d2a,6,36,42,10,1.0,1.0,0
run-2020-2-18-11-31-31.600532054,AGENT#6e876704-5242-11ea-b1c1-d7c017b582f3,4,38,42,10,1.0,1.0,0
run-2020-2-18-11-31-31.600532054,AGENT#6e876ea2-5242-11ea-83c7-b7e37426dca3,4,38,42,10,1.0,1.0,0
run-2020-2-18-11-31-31.600532054,AGENT#6ead6c88-5242-11ea-9e00-3b48d02bd83b,2,40,42,10,1.0,1.0,0
run-2020-2-18-11-31-31.600532054,AGENT#6ead6f4e-5242-11ea-82b2-37cad1d1177d,3,40,43,10,1.0,1.0,0
run-2020-2-18-11-31-31.600532054,AGENT#6ec2c718-5242-11ea-89e3-8313d2d13e23,2,41,43,10,1.0,1.0,0
run-2020-2-18-11-31-31.600532054,AGENT#6ed4c6ca-5242-11ea-9752-2fd7717315cc,1,42,43,10,1.0,1.0,0
run-2020-2-18-11-31-31.600532054,AGENT#6ead6490-5242-11ea-8cb7-3f29b3077155,4,40,44,10,1.0,1.0,0
run-2020-2-18-11-31-31.600532054,AGENT#6ead6738-5242-11ea-9838-1724f294b6f9,4,40,44,10,1.0,1.0,0
run-2020-2-18-11-31-31.600532054,AGENT#6ead69e0-5242-11ea-aa9a-c71d1d25e63f,4,40,44,10,1.0,1.0,0
run-2020-2-18-11-31-31.600532054,AGENT#6ec2c4b6-5242-11ea-88e7-e3fa4ca557a7,3,41,44,10,1.0,1.0,0
run-2020-2-18-11-31-31.600532054,AGENT#6ee70330-5242-11ea-9eec-f3984647afdd,1,43,44,10,1.0,1.0,0
run-2020-2-18-11-31-31.600532054,AGENT#6ee705f6-5242-11ea-8eac-7ff3e60b42ac,1,43,44,10,1.0,1.0,0
run-2020-2-18-11-31-31.600532054,AGENT#6bb6af58-5242-11ea-ab1b-2b2f1509febf,45,0,45,10,1.0,1.0,0
run-2020-2-18-11-31-31.600532054,AGENT#6bb6bbb0-5242-11ea-af51-0f2a130a1266,45,0,45,10,1.0,1.0,0
run-2020-2-18-11-31-31.600532054,AGENT#6ed4c9cc-5242-11ea-b7f4-dbd374dd7dc5,3,42,45,10,1.0,1.0,0
run-2020-2-18-11-31-31.600532054,AGENT#6bb70020-5242-11ea-b7b9-d3e2ca83f1d9,46,0,46,10,1.0,1.0,0
run-2020-2-18-11-31-31.600532054,AGENT#6ed4cc56-5242-11ea-9c83-f74ac9436ed3,4,42,46,10,1.0,1.0,0
run-2020-2-18-11-31-31.600532054,AGENT#6f0cea1e-5242-11ea-bbd4-63478dc9c889,1,45,46,10,1.0,1.0,0
run-2020-2-18-11-31-31.600532054,AGENT#6bb6fddc-5242-11ea-8207-538220918570,47,0,47,10,1.0,1.0,0
run-2020-2-18-11-31-31.600532054,AGENT#6bd57974-5242-11ea-b471-8b95c6f08259,46,1,47,10,1.0,1.0,0
run-2020-2-18-11-31-31.600532054,AGENT#6d3760d4-5242-11ea-a821-83241a1ede60,27,20,47,10,1.0,1.0,0
run-2020-2-18-11-31-31.600532054,AGENT#6d812746-5242-11ea-9da7-6b2fe2cdfc76,23,24,47,10,1.0,1.0,0
run-2020-2-18-11-31-31.600532054,AGENT#6f0ce7a8-5242-11ea-9be3-83dfdc1cf8b3,2,45,47,10,1.0,1.0,0
run-2020-2-18-11-31-31.600532054,AGENT#6f1df5f2-5242-11ea-95b9-2773e94a1e22,1,46,47,10,1.0,1.0,0
run-2020-2-18-11-31-31.600532054,AGENT#6f1df82c-5242-11ea-ba5f-67ed8fff81e0,1,46,47,10,1.0,1.0,0
run-2020-2-18-11-31-31.600532054,AGENT#6f1dfa70-5242-11ea-a63f-239c65809303,2,46,48,10,1.0,1.0,0
run-2020-2-18-11-31-31.600532054,AGENT#6f2e9380-5242-11ea-981a-fba15e72aeb9,1,47,48,10,1.0,1.0,0
run-2020-2-18-11-31-31.600532054,AGENT#6ef999d2-5242-11ea-820b-2b24c137e13d,5,44,49,10,1.0,1.0,0
run-2020-2-18-11-31-31.600532054,AGENT#6f0cec58-5242-11ea-ae91-7fda47da605d,4,45,49,10,1.0,1.0,0
run-2020-2-18-11-31-31.600532054,AGENT#6f1df3c2-5242-11ea-b4b4-7f225139eed5,3,46,49,10,1.0,1.0,0
run-2020-2-18-11-31-31.600532054,AGENT#6f1dfca0-5242-11ea-a48c-9f05c74a6a02,3,46,49,10,1.0,1.0,0
run-2020-2-18-11-31-31.600532054,AGENT#6f401240-5242-11ea-ac22-8b1e1c6bd679,1,48,49,10,1.0,1.0,0
run-2020-2-18-11-31-31.600532054,AGENT#6f4016b4-5242-11ea-885d-dbc9712f0dd7,1,48,49,10,1.0,1.0,0
run-2020-2-18-11-31-31.600532054,AGENT#6c1efd7e-5242-11ea-b963-f36c69070196,45,5,50,10,1.0,1.0,0
run-2020-2-18-11-31-31.600532054,AGENT#6f1df17e-5242-11ea-adc0-0fa578804db3,5,46,51,10,1.0,1.0,0
run-2020-2-18-11-31-31.600532054,AGENT#6f520964-5242-11ea-85b1-1ff6afa173ae,2,49,51,10,1.0,1.0,0
run-2020-2-18-11-31-31.600532054,AGENT#6f520bee-5242-11ea-bf81-c7ceab2c229b,2,49,51,10,1.0,1.0,0
run-2020-2-18-11-31-31.600532054,AGENT#6f63183a-5242-11ea-a4e4-7b0beca57242,1,50,51,10,1.0,1.0,0
run-2020-2-18-11-31-31.600532054,AGENT#6c31d2a0-5242-11ea-ab8a-63cb0c29fcf6,46,6,52,10,1.0,1.0,0
run-2020-2-18-11-31-31.600532054,AGENT#6d9356a0-5242-11ea-9115-434c9fc70f38,27,25,52,10,1.0,1.0,0
run-2020-2-18-11-31-31.600532054,AGENT#6f2e9128-5242-11ea-9592-4799224563bc,5,47,52,10,1.0,1.0,0
run-2020-2-18-11-31-31.600532054,AGENT#6f2e95e2-5242-11ea-8531-3f212d67990d,5,47,52,10,1.0,1.0,0
run-2020-2-18-11-31-31.600532054,AGENT#6f521738-5242-11ea-9b86-1f8fea7a5f54,3,49,52,10,1.0,1.0,0
run-2020-2-18-11-31-31.600532054,AGENT#6f631592-5242-11ea-972c-6fa653c6c94f,2,50,52,10,1.0,1.0,0
run-2020-2-18-11-31-31.600532054,AGENT#6f631a74-5242-11ea-898f-0f851c0a2243,2,50,52,10,1.0,1.0,0
run-2020-2-18-11-31-31.600532054,AGENT#6f632320-5242-11ea-836f-d31fabcb7c54,2,50,52,10,1.0,1.0,0
run-2020-2-18-11-31-31.600532054,AGENT#6f75a130-5242-11ea-a7b9-c7ba764be9dd,1,51,52,10,1.0,1.0,0
run-2020-2-18-11-31-31.600532054,AGENT#6c4455a6-5242-11ea-9869-073e7e58c383,46,7,53,10,1.0,1.0,0
run-2020-2-18-11-31-31.600532054,AGENT#6f5212c4-5242-11ea-a209-134715d4784b,4,49,53,10,1.0,1.0,0
run-2020-2-18-11-31-31.600532054,AGENT#6f759816-5242-11ea-a38d-7beb5c4b677e,2,51,53,10,1.0,1.0,0
run-2020-2-18-11-31-31.600532054,AGENT#6d376548-5242-11ea-9b0c-b74860e34ee7,34,20,54,10,1.0,1.0,0
run-2020-2-18-11-31-31.600532054,AGENT#6f521508-5242-11ea-bca3-c7b6882c32cf,5,49,54,10,1.0,1.0,0
run-2020-2-18-11-31-31.600532054,AGENT#6f759b22-5242-11ea-a0db-2f27d2688f3d,3,51,54,10,1.0,1.0,0
run-2020-2-18-11-31-31.600532054,AGENT#6f882d14-5242-11ea-b9e5-2fa73e7e3bef,2,52,54,10,1.0,1.0,0
run-2020-2-18-11-31-31.600532054,AGENT#6f9bfa38-5242-11ea-a3a3-138f6a858766,1,53,54,10,1.0,1.0,0
run-2020-2-18-11-31-31.600532054,AGENT#6f9c0082-5242-11ea-be48-3b4dc5084ab8,1,53,54,10,1.0,1.0,0
run-2020-2-18-11-31-31.600532054,AGENT#6f7594c4-5242-11ea-a519-3f6a9e60dbc7,4,51,55,10,1.0,1.0,0
run-2020-2-18-11-31-31.600532054,AGENT#6f882a12-5242-11ea-be34-53ada93688fa,3,52,55,10,1.0,1.0,0
run-2020-2-18-11-31-31.600532054,AGENT#6c445ff6-5242-11ea-b56e-b72e866d0d63,49,7,56,10,1.0,1.0,0
run-2020-2-18-11-31-31.600532054,AGENT#6c7ef5e4-5242-11ea-aa29-43bfc6f99c52,46,10,56,10,1.0,1.0,0
run-2020-2-18-11-31-31.600532054,AGENT#6e00508e-5242-11ea-92dd-e36024634ea6,25,31,56,10,1.0,1.0,0
run-2020-2-18-11-31-31.600532054,AGENT#6f759e38-5242-11ea-b645-0fb446583d2b,5,51,56,10,1.0,1.0,0
run-2020-2-18-11-31-31.600532054,AGENT#6f9bfd8a-5242-11ea-9397-dbbafa63e5a8,3,53,56,10,1.0,1.0,0
run-2020-2-18-11-31-31.600532054,AGENT#6f9c03c0-5242-11ea-bfde-436a4c7afc8f,3,53,56,10,1.0,1.0,0
run-2020-2-18-11-31-31.600532054,AGENT#6fae5cfa-5242-11ea-885c-5fad3eb50f78,2,54,56,10,1.0,1.0,0
run-2020-2-18-11-31-31.600532054,AGENT#6fae63bc-5242-11ea-af25-3713590097e5,2,54,56,10,1.0,1.0,0
run-2020-2-18-11-31-31.600532054,AGENT#6fae5a70-5242-11ea-bf9f-3b259f32658c,3,54,57,10,1.0,1.0,0
run-2020-2-18-11-31-31.600532054,AGENT#6fae5f48-5242-11ea-8ce9-0bb4fe33cf3b,3,54,57,10,1.0,1.0,0
run-2020-2-18-11-31-31.600532054,AGENT#6ca1e98c-5242-11ea-94e6-8b0a1cb8e211,46,12,58,10,1.0,1.0,0
run-2020-2-18-11-31-31.600532054,AGENT#6ca1f116-5242-11ea-b4dc-d76a5c0e2e70,46,12,58,10,1.0,1.0,0
run-2020-2-18-11-31-31.600532054,AGENT#6cb3ceb8-5242-11ea-bcd2-cfcebcecd291,45,13,58,10,1.0,1.0,0
run-2020-2-18-11-31-31.600532054,AGENT#6f9c0636-5242-11ea-a9e7-ab90d98cfc31,5,53,58,10,1.0,1.0,0
run-2020-2-18-11-31-31.600532054,AGENT#6fd3c7f6-5242-11ea-bf82-6fef2793a11d,2,56,58,10,1.0,1.0,0
run-2020-2-18-11-31-31.600532054,AGENT#6fe5b3b2-5242-11ea-9fc7-3bc297bd99a0,1,57,58,10,1.0,1.0,0
run-2020-2-18-11-31-31.600532054,AGENT#6fe5b70e-5242-11ea-aba8-2f252ec49ab4,1,57,58,10,1.0,1.0,0
run-2020-2-18-11-31-31.600532054,AGENT#6fe5bd1c-5242-11ea-a917-5bbf19a30702,1,57,58,10,1.0,1.0,0
run-2020-2-18-11-31-31.600532054,AGENT#6fe5c352-5242-11ea-a9b5-db8755cc00cb,1,57,58,10,1.0,1.0,0
run-2020-2-18-11-31-31.600532054,AGENT#6c91039c-5242-11ea-8206-77c42b909098,48,11,59,10,1.0,1.0,0
run-2020-2-18-11-31-31.600532054,AGENT#6fc08b28-5242-11ea-8d2b-43fe90bb5d80,4,55,59,10,1.0,1.0,0
run-2020-2-18-11-31-31.600532054,AGENT#6fc09104-5242-11ea-8f41-e35912da58a2,4,55,59,10,1.0,1.0,0
run-2020-2-18-11-31-31.600532054,AGENT#6fc09398-5242-11ea-bfbb-8f17b5b84e3b,4,55,59,10,1.0,1.0,0
run-2020-2-18-11-31-31.600532054,AGENT#6fd3ca76-5242-11ea-b6b8-97b8d35d232d,3,56,59,10,1.0,1.0,0
run-2020-2-18-11-31-31.600532054,AGENT#6fd3ccf6-5242-11ea-bcb5-7feb29c7a2d6,3,56,59,10,1.0,1.0,0
run-2020-2-18-11-31-31.600532054,AGENT#6fd3cf30-5242-11ea-ba7a-63f6126a8053,3,56,59,10,1.0,1.0,0
run-2020-2-18-11-31-31.600532054,AGENT#6cc82bf6-5242-11ea-9f44-135a324bb159,46,14,60,10,1.0,1.0,0
run-2020-2-18-11-31-31.600532054,AGENT#700b3e2a-5242-11ea-8f06-4f0d7fb75dbb,1,59,60,10,1.0,1.0,0
run-2020-2-18-11-31-31.600532054,AGENT#6cc8258e-5242-11ea-8c52-8319f61995f9,47,14,61,10,1.0,1.0,0
run-2020-2-18-11-31-31.600532054,AGENT#700b42d0-5242-11ea-a211-9bbed44bc92d,2,59,61,10,1.0,1.0,0
run-2020-2-18-11-31-31.600532054,AGENT#701d3076-5242-11ea-94e7-1f99ca5e94a0,1,60,61,10,1.0,1.0,0
run-2020-2-18-11-31-31.600532054,AGENT#6fe5ba1a-5242-11ea-9630-0bb06e3139ff,5,57,62,10,1.0,1.0,0
run-2020-2-18-11-31-31.600532054,AGENT#6ff7d178-5242-11ea-9c52-cf227984d45b,4,58,62,10,1.0,1.0,0
run-2020-2-18-11-31-31.600532054,AGENT#6ff7d88a-5242-11ea-a068-6303ff32e03f,4,58,62,10,1.0,1.0,0
run-2020-2-18-11-31-31.600532054,AGENT#701d3792-5242-11ea-b8b0-5f15fc22674e,2,60,62,10,1.0,1.0,0
run-2020-2-18-11-31-31.600532054,AGENT#702f41c6-5242-11ea-81d0-df230fd582bf,1,61,62,10,1.0,1.0,0
run-2020-2-18-11-31-31.600532054,AGENT#6cd90c96-5242-11ea-9009-67bf67985b08,48,15,63,10,1.0,1.0,0
run-2020-2-18-11-31-31.600532054,AGENT#6f2e9c7c-5242-11ea-b22a-af40fc2c1fad,16,47,63,10,1.0,1.0,0
run-2020-2-18-11-31-31.600532054,AGENT#6ff7cea8-5242-11ea-87bf-eb5d4835f24b,5,58,63,10,1.0,1.0,0
run-2020-2-18-11-31-31.600532054,AGENT#701d2e1e-5242-11ea-b6a2-1f677adac29f,3,60,63,10,1.0,1.0,0
run-2020-2-18-11-31-31.600532054,AGENT#7040a7d6-5242-11ea-928b-7b039cf747a5,1,62,63,10,1.0,1.0,0
run-2020-2-18-11-31-31.600532054,AGENT#6d13388a-5242-11ea-8f14-7bfd0c796548,46,18,64,10,1.0,1.0,0
run-2020-2-18-11-31-31.600532054,AGENT#6f2e9a4c-5242-11ea-af88-771decff16be,17,47,64,10,1.0,1.0,0
run-2020-2-18-11-31-31.600532054,AGENT#700b408c-5242-11ea-9003-57563ec83789,5,59,64,10,1.0,1.0,0
run-2020-2-18-11-31-31.600532054,AGENT#701d32c4-5242-11ea-8ecc-8ff79f00c634,4,60,64,10,1.0,1.0,0
run-2020-2-18-11-31-31.600532054,AGENT#701d3530-5242-11ea-8cb8-27daaeb5ff6a,4,60,64,10,1.0,1.0,0
run-2020-2-18-11-31-31.600532054,AGENT#701d3c2e-5242-11ea-95d1-ff994c20380d,4,60,64,10,1.0,1.0,0
run-2020-2-18-11-31-31.600532054,AGENT#705276a0-5242-11ea-b72f-8ff2b9ce02b7,1,63,64,10,1.0,1.0,0
run-2020-2-18-11-31-31.600532054,AGENT#7040a556-5242-11ea-9b20-9f2f22e058b6,3,62,65,10,1.0,1.0,0
run-2020-2-18-11-31-31.600532054,AGENT#7040aa2e-5242-11ea-b973-17d11e36632a,3,62,65,10,1.0,1.0,0
run-2020-2-18-11-31-31.600532054,AGENT#6d376778-5242-11ea-a424-3f85b933c8bc,46,20,66,10,1.0,1.0,0
run-2020-2-18-11-31-31.600532054,AGENT#6d496dc4-5242-11ea-9a2b-ebdcd5f49fa3,45,21,66,10,1.0,1.0,0
run-2020-2-18-11-31-31.600532054,AGENT#6d6f7848-5242-11ea-9cf1-cf8a0652fa70,43,23,66,10,1.0,1.0,0
run-2020-2-18-11-31-31.600532054,AGENT#6f400dea-5242-11ea-8210-cfda2b7f4b69,18,48,66,10,1.0,1.0,0
run-2020-2-18-11-31-31.600532054,AGENT#70526f02-5242-11ea-bbd0-7bdd88991b33,3,63,66,10,1.0,1.0,0
run-2020-2-18-11-31-31.600532054,AGENT#70658d26-5242-11ea-ba81-6bf205206a65,2,64,66,10,1.0,1.0,0
run-2020-2-18-11-31-31.600532054,AGENT#706592da-5242-11ea-85fb-77fa9f735f69,2,64,66,10,1.0,1.0,0
run-2020-2-18-11-31-31.600532054,AGENT#6d37630e-5242-11ea-a6a8-ffc6d914afd6,47,20,67,10,1.0,1.0,0
run-2020-2-18-11-31-31.600532054,AGENT#6f2e9812-5242-11ea-a014-b3f1f1ae71ae,20,47,67,10,1.0,1.0,0
run-2020-2-18-11-31-31.600532054,AGENT#70526ae8-5242-11ea-aded-4345dcf91583,4,63,67,10,1.0,1.0,0
run-2020-2-18-11-31-31.600532054,AGENT#70779c46-5242-11ea-a0b8-3f47ebc9e4ac,2,65,67,10,1.0,1.0,0
run-2020-2-18-11-31-31.600532054,AGENT#7088dc72-5242-11ea-a343-5f499a8c7e01,1,66,67,10,1.0,1.0,0
run-2020-2-18-11-31-31.600532054,AGENT#6d8129c6-5242-11ea-bb10-3fe0d3225a42,44,24,68,10,1.0,1.0,0
run-2020-2-18-11-31-31.600532054,AGENT#6e8769d4-5242-11ea-83a6-d344512e2f94,30,38,68,10,1.0,1.0,0
run-2020-2-18-11-31-31.600532054,AGENT#705272d6-5242-11ea-83fb-37c7eed85628,5,63,68,10,1.0,1.0,0
run-2020-2-18-11-31-31.600532054,AGENT#705281ae-5242-11ea-b5d3-fb2535dc2701,5,63,68,10,1.0,1.0,0
run-2020-2-18-11-31-31.600532054,AGENT#706589a2-5242-11ea-ae82-13e2d78faf90,4,64,68,10,1.0,1.0,0
run-2020-2-18-11-31-31.600532054,AGENT#7065900a-5242-11ea-948b-c72595ec8ebc,4,64,68,10,1.0,1.0,0
run-2020-2-18-11-31-31.600532054,AGENT#7077a0ec-5242-11ea-b88e-cf19ae1d1dcf,3,65,68,10,1.0,1.0,0
run-2020-2-18-11-31-31.600532054,AGENT#709ac054-5242-11ea-81f9-1bf2992de528,1,67,68,10,1.0,1.0,0
run-2020-2-18-11-31-31.600532054,AGENT#6d8124d0-5242-11ea-a0f2-0337ca7a0aab,45,24,69,10,1.0,1.0,0
run-2020-2-18-11-31-31.600532054,AGENT#7077a31c-5242-11ea-a189-8b5970c0179b,4,65,69,10,1.0,1.0,0
run-2020-2-18-11-31-31.600532054,AGENT#7088d7d6-5242-11ea-8482-974fd7bd0050,3,66,69,10,1.0,1.0,0
run-2020-2-18-11-31-31.600532054,AGENT#70b1a6a2-5242-11ea-af15-dbed3dafb431,1,68,69,10,1.0,1.0,0
run-2020-2-18-11-31-31.600532054,AGENT#70b1a922-5242-11ea-9a99-57101cdf19ed,1,68,69,10,1.0,1.0,0
run-2020-2-18-11-31-31.600532054,AGENT#6d9353f8-5242-11ea-a903-33aae4988b4a,45,25,70,10,1.0,1.0,0
run-2020-2-18-11-31-31.600532054,AGENT#6e4d26d4-5242-11ea-a850-f340b27deddc,35,35,70,10,1.0,1.0,0
run-2020-2-18-11-31-31.600532054,AGENT#7088da42-5242-11ea-a1bd-17e2feddcf23,4,66,70,10,1.0,1.0,0
run-2020-2-18-11-31-31.600532054,AGENT#7088deca-5242-11ea-9fb9-7f04fb26fee4,4,66,70,10,1.0,1.0,0
run-2020-2-18-11-31-31.600532054,AGENT#709ab9ce-5242-11ea-945e-0375147f36b5,3,67,70,10,1.0,1.0,0
run-2020-2-18-11-31-31.600532054,AGENT#70c3c0a8-5242-11ea-9391-03bb43370b79,1,69,70,10,1.0,1.0,0
run-2020-2-18-11-31-31.600532054,AGENT#70c3c5b2-5242-11ea-8dfe-67fb4eaba3d4,1,69,70,10,1.0,1.0,0
run-2020-2-18-11-31-31.600532054,AGENT#6d6f7d2a-5242-11ea-9650-77df3a50d0e4,48,23,71,10,1.0,1.0,0
run-2020-2-18-11-31-31.600532054,AGENT#6d935902-5242-11ea-bea9-53f9406eeec2,46,25,71,10,1.0,1.0,0
run-2020-2-18-11-31-31.600532054,AGENT#6ff7d646-5242-11ea-9c25-a3a3520d70ad,13,58,71,10,1.0,1.0,0
run-2020-2-18-11-31-31.600532054,AGENT#70b1ab7a-5242-11ea-80a7-0f0ffb765ca6,3,68,71,10,1.0,1.0,0
run-2020-2-18-11-31-31.600532054,AGENT#70b1adb4-5242-11ea-bb44-5f23ca0f6042,3,68,71,10,1.0,1.0,0
run-2020-2-18-11-31-31.600532054,AGENT#70c3c800-5242-11ea-92b0-f7e850fa59ec,2,69,71,10,1.0,1.0,0
run-2020-2-18-11-31-31.600532054,AGENT#6da66506-5242-11ea-bac1-87c0dd4b2d16,46,26,72,10,1.0,1.0,0
run-2020-2-18-11-31-31.600532054,AGENT#6f882f76-5242-11ea-977b-6756b0c1cd5b,20,52,72,10,1.0,1.0,0
run-2020-2-18-11-31-31.600532054,AGENT#70e842d4-5242-11ea-8004-f70b859bfe9d,1,71,72,10,1.0,1.0,0
run-2020-2-18-11-31-31.600532054,AGENT#70e8452c-5242-11ea-a938-8fb187bf2203,1,71,72,10,1.0,1.0,0
run-2020-2-18-11-31-31.600532054,AGENT#6dca3d00-5242-11ea-b623-3301f1f8c6ef,45,28,73,10,1.0,1.0,0
run-2020-2-18-11-31-31.600532054,AGENT#70b1b020-5242-11ea-82ed-7787062048ff,5,68,73,10,1.0,1.0,0
run-2020-2-18-11-31-31.600532054,AGENT#70c3ca58-5242-11ea-a6af-c754a968fd82,4,69,73,10,1.0,1.0,0
run-2020-2-18-11-31-31.600532054,AGENT#70d5b4ca-5242-11ea-81f1-4bc2b8fcf3a9,3,70,73,10,1.0,1.0,0
run-2020-2-18-11-31-31.600532054,AGENT#70fe1a8c-5242-11ea-bfa2-9f5fcca9bafa,1,72,73,10,1.0,1.0,0
run-2020-2-18-11-31-31.600532054,AGENT#6ddc1110-5242-11ea-bbb4-53f220481928,45,29,74,10,1.0,1.0,0
run-2020-2-18-11-31-31.600532054,AGENT#70d5ade0-5242-11ea-94aa-a79e0dd6f3ae,4,70,74,10,1.0,1.0,0
run-2020-2-18-11-31-31.600532054,AGENT#70d5b272-5242-11ea-b59d-9798878c973e,4,70,74,10,1.0,1.0,0
run-2020-2-18-11-31-31.600532054,AGENT#70e84766-5242-11ea-82df-ff6ab51c440d,3,71,74,10,1.0,1.0,0
run-2020-2-18-11-31-31.600532054,AGENT#71115cfa-5242-11ea-ac4e-d3265f59ab3a,1,73,74,10,1.0,1.0,0
run-2020-2-18-11-31-31.600532054,AGENT#6dee1fb8-5242-11ea-b788-7b4ee91ac780,45,30,75,10,1.0,1.0,0
run-2020-2-18-11-31-31.600532054,AGENT#6f1dee90-5242-11ea-9e1a-8fd1bed6c973,29,46,75,10,1.0,1.0,0
run-2020-2-18-11-31-31.600532054,AGENT#70d5b02e-5242-11ea-b51b-538f5db44f58,5,70,75,10,1.0,1.0,0
run-2020-2-18-11-31-31.600532054,AGENT#6dee28b4-5242-11ea-93c3-dfb1b978ada2,46,30,76,10,1.0,1.0,0
run-2020-2-18-11-31-31.600532054,AGENT#6e0054ee-5242-11ea-bc81-5fd8d81c11fb,45,31,76,10,1.0,1.0,0
run-2020-2-18-11-31-31.600532054,AGENT#70e8405e-5242-11ea-8432-9f2e2235337b,5,71,76,10,1.0,1.0,0
run-2020-2-18-11-31-31.600532054,AGENT#70fe1d84-5242-11ea-8b36-23c5372ea017,4,72,76,10,1.0,1.0,0
run-2020-2-18-11-31-31.600532054,AGENT#70fe27f2-5242-11ea-b9f1-fbcfc810da81,4,72,76,10,1.0,1.0,0
run-2020-2-18-11-31-31.600532054,AGENT#7123a504-5242-11ea-bbf9-23545c64a808,3,74,77,10,1.0,1.0,0
run-2020-2-18-11-31-31.600532054,AGENT#71362e54-5242-11ea-a7d3-9f48216eca51,2,75,77,10,1.0,1.0,0
run-2020-2-18-11-31-31.600532054,AGENT#7136308e-5242-11ea-b480-ff2c357d8ea8,2,75,77,10,1.0,1.0,0
run-2020-2-18-11-31-31.600532054,AGENT#71362bde-5242-11ea-bc14-57a5ad94b54e,3,75,78,10,1.0,1.0,0
run-2020-2-18-11-31-31.600532054,AGENT#6e39e0c4-5242-11ea-bd64-3fc27579e303,45,34,79,10,1.0,1.0,0
run-2020-2-18-11-31-31.600532054,AGENT#7123a220-5242-11ea-9703-47d476abb766,5,74,79,10,1.0,1.0,0
run-2020-2-18-11-31-31.600532054,AGENT#71483c84-5242-11ea-997b-a7f2bbc9b74e,3,76,79,10,1.0,1.0,0
run-2020-2-18-11-31-31.600532054,AGENT#6e39d41c-5242-11ea-a604-d36b4c66d08c,46,34,80,10,1.0,1.0,0
run-2020-2-18-11-31-31.600532054,AGENT#701d39ea-5242-11ea-bb9e-1f2864fddd85,21,60,81,10,1.0,1.0,0
run-2020-2-18-11-31-31.600532054,AGENT#715a403c-5242-11ea-b1d6-a3ef78ba886d,4,77,81,10,1.0,1.0,0
run-2020-2-18-11-31-31.600532054,AGENT#717d8376-5242-11ea-9aff-6f33be9c04aa,2,79,81,10,1.0,1.0,0
run-2020-2-18-11-31-31.600532054,AGENT#6fc08e52-5242-11ea-a709-db9347675240,27,55,82,10,1.0,1.0,0
run-2020-2-18-11-31-31.600532054,AGENT#716bfdb8-5242-11ea-bb5f-03314366d99c,4,78,82,10,1.0,1.0,0
run-2020-2-18-11-31-31.600532054,AGENT#71904a6a-5242-11ea-936a-0f0436decec9,2,80,82,10,1.0,1.0,0
run-2020-2-18-11-31-31.600532054,AGENT#7190501e-5242-11ea-af63-3b21cc4f800d,2,80,82,10,1.0,1.0,0
run-2020-2-18-11-31-31.600532054,AGENT#71a258c2-5242-11ea-8d26-074fd5465c0f,1,81,82,10,1.0,1.0,0
run-2020-2-18-11-31-31.600532054,AGENT#71a25d5e-5242-11ea-9d28-ef7a1cd20946,1,81,82,10,1.0,1.0,0
run-2020-2-18-11-31-31.600532054,AGENT#6e153abc-5242-11ea-9b64-87e8d465130f,51,32,83,10,1.0,1.0,0
run-2020-2-18-11-31-31.600532054,AGENT#71b452de-5242-11ea-8bd2-872bb044c7ce,1,82,83,10,1.0,1.0,0
run-2020-2-18-11-31-31.600532054,AGENT#717d80e2-5242-11ea-8a15-e3dc178c688b,5,79,84,10,1.0,1.0,0
run-2020-2-18-11-31-31.600532054,AGENT#71904d80-5242-11ea-a859-6f634defedae,4,80,84,10,1.0,1.0,0
run-2020-2-18-11-31-31.600532054,AGENT#71a25638-5242-11ea-aa9d-ebe52df8a6f5,3,81,84,10,1.0,1.0,0
run-2020-2-18-11-31-31.600532054,AGENT#71c6d896-5242-11ea-b5c1-bb765cf8d3f3,1,83,84,10,1.0,1.0,0
run-2020-2-18-11-31-31.600532054,AGENT#71c6dac6-5242-11ea-a882-8f539430ec7e,1,83,84,10,1.0,1.0,0
run-2020-2-18-11-31-31.600532054,AGENT#6e876c54-5242-11ea-a4b4-ef4d9158d9bc,47,38,85,10,1.0,1.0,0
run-2020-2-18-11-31-31.600532054,AGENT#6ead6198-5242-11ea-a8ca-0f89f85ecbe4,45,40,85,10,1.0,1.0,0
run-2020-2-18-11-31-31.600532054,AGENT#71b455c2-5242-11ea-8e7f-6b11b53b33d2,3,82,85,10,1.0,1.0,0
run-2020-2-18-11-31-31.600532054,AGENT#71d92cee-5242-11ea-98b8-ef66334aea52,1,84,85,10,1.0,1.0,0
run-2020-2-18-11-31-31.600532054,AGENT#71d938ec-5242-11ea-a506-bb8896a2ec79,1,84,85,10,1.0,1.0,0
run-2020-2-18-11-31-31.600532054,AGENT#71c6d5ee-5242-11ea-aef2-83f7adf1c8cf,3,83,86,10,1.0,1.0,0
run-2020-2-18-11-31-31.600532054,AGENT#71d93536-5242-11ea-8694-cbd119299a0b,2,84,86,10,1.0,1.0,0
run-2020-2-18-11-31-31.600532054,AGENT#6ec2bfc0-5242-11ea-959c-5fd1bc8d728e,46,41,87,10,1.0,1.0,0
run-2020-2-18-11-31-31.600532054,AGENT#6ec2c268-5242-11ea-8c74-23715615d29d,46,41,87,10,1.0,1.0,0
run-2020-2-18-11-31-31.600532054,AGENT#6ff7d3d0-5242-11ea-974f-d7a8da1a44d7,29,58,87,10,1.0,1.0,0
run-2020-2-18-11-31-31.600532054,AGENT#71d9318a-5242-11ea-935f-c74728ecd4d1,3,84,87,10,1.0,1.0,0
run-2020-2-18-11-31-31.600532054,AGENT#71fefe4c-5242-11ea-8f4c-338ef06d5dd5,1,86,87,10,1.0,1.0,0
run-2020-2-18-11-31-31.600532054,AGENT#71ff013a-5242-11ea-b318-03598451ef37,1,86,87,10,1.0,1.0,0
run-2020-2-18-11-31-31.600532054,AGENT#71ec12dc-5242-11ea-8c81-d7bdfdb6ff00,3,85,88,10,1.0,1.0,0
run-2020-2-18-11-31-31.600532054,AGENT#71ff05b8-5242-11ea-abbf-03f0e1de934f,2,86,88,10,1.0,1.0,0
run-2020-2-18-11-31-31.600532054,AGENT#6ef9975c-5242-11ea-a60a-630370937303,45,44,89,10,1.0,1.0,0
run-2020-2-18-11-31-31.600532054,AGENT#6ef99c20-5242-11ea-9f55-f328a01fa5ce,45,44,89,10,1.0,1.0,0
run-2020-2-18-11-31-31.600532054,AGENT#7211d8d2-5242-11ea-93b0-53c672cfffdd,2,87,89,10,1.0,1.0,0
run-2020-2-18-11-31-31.600532054,AGENT#7224faf2-5242-11ea-a3af-9b52702d2a9a,1,88,89,10,1.0,1.0,0
run-2020-2-18-11-31-31.600532054,AGENT#7224ff84-5242-11ea-93ba-dfd55502bba1,1,88,89,10,1.0,1.0,0
run-2020-2-18-11-31-31.600532054,AGENT#722501fa-5242-11ea-bf89-9fa3a1b83403,1,88,89,10,1.0,1.0,0
run-2020-2-18-11-31-31.600532054,AGENT#72250434-5242-11ea-82f0-874d6a13f957,1,88,89,10,1.0,1.0,0
run-2020-2-18-11-31-31.600532054,AGENT#713632c8-5242-11ea-b160-b3463e03af98,15,75,90,10,1.0,1.0,0
run-2020-2-18-11-31-31.600532054,AGENT#7077a556-5242-11ea-bb9a-2b8251f0679b,27,65,92,10,1.0,1.0,0
run-2020-2-18-11-31-31.600532054,AGENT#7224f8a4-5242-11ea-9ef1-a38967aa6464,4,88,92,10,1.0,1.0,0
run-2020-2-18-11-31-31.600532054,AGENT#72369afa-5242-11ea-be09-d7629eccf273,3,89,92,10,1.0,1.0,0
run-2020-2-18-11-31-31.600532054,AGENT#72369d84-5242-11ea-a56d-2bc14c2d18f8,3,89,92,10,1.0,1.0,0
run-2020-2-18-11-31-31.600532054,AGENT#72369fe6-5242-11ea-af34-3fc26dcd035b,3,89,92,10,1.0,1.0,0
run-2020-2-18-11-31-31.600532054,AGENT#6f2e8dea-5242-11ea-ab3f-bb52511f987b,46,47,93,10,1.0,1.0,0
run-2020-2-18-11-31-31.600532054,AGENT#6ff7dd1c-5242-11ea-9df5-ebd4775fc4ca,35,58,93,10,1.0,1.0,0
run-2020-2-18-11-31-31.600532054,AGENT#726ed334-5242-11ea-9878-0bfbf37679ca,1,92,93,10,1.0,1.0,0
run-2020-2-18-11-31-31.600532054,AGENT#6f40101a-5242-11ea-91e9-f35a6894c5cc,46,48,94,10,1.0,1.0,0
run-2020-2-18-11-31-31.600532054,AGENT#6f401470-5242-11ea-aeb3-57a165530b62,46,48,94,10,1.0,1.0,0
run-2020-2-18-11-31-31.600532054,AGENT#6f52108a-5242-11ea-ac82-f31cfa925c51,45,49,94,10,1.0,1.0,0
run-2020-2-18-11-31-31.600532054,AGENT#71ff0388-5242-11ea-9da6-53cf226f76ed,8,86,94,10,1.0,1.0,0
run-2020-2-18-11-31-31.600532054,AGENT#726ed87a-5242-11ea-8f8c-2b3ac7531f8c,2,92,94,10,1.0,1.0,0
run-2020-2-18-11-31-31.600532054,AGENT#726edadc-5242-11ea-84cb-97df1fdbf160,2,92,94,10,1.0,1.0,0
run-2020-2-18-11-31-31.600532054,AGENT#6f400b7e-5242-11ea-954f-2f88e8f16532,47,48,95,10,1.0,1.0,0
run-2020-2-18-11-31-31.600532054,AGENT#6f520e46-5242-11ea-aa4d-6f6354559764,46,49,95,10,1.0,1.0,0
run-2020-2-18-11-31-31.600532054,AGENT#6f631eca-5242-11ea-950e-fbfea13b3b09,45,50,95,10,1.0,1.0,0
run-2020-2-18-11-31-31.600532054,AGENT#725a86ea-5242-11ea-ad25-179ba6221d43,4,91,95,10,1.0,1.0,0
run-2020-2-18-11-31-31.600532054,AGENT#725a89c4-5242-11ea-9ba7-1f6d683da5f3,4,91,95,10,1.0,1.0,0
run-2020-2-18-11-31-31.600532054,AGENT#726edd66-5242-11ea-b7d6-7ba38ec8a889,3,92,95,10,1.0,1.0,0
run-2020-2-18-11-31-31.600532054,AGENT#726edfbe-5242-11ea-b462-cb99d127235f,3,92,95,10,1.0,1.0,0
run-2020-2-18-11-31-31.600532054,AGENT#7281e50a-5242-11ea-a4cf-9f8146506ce3,2,93,95,10,1.0,1.0,0
run-2020-2-18-11-31-31.600532054,AGENT#7295c7fa-5242-11ea-b5fc-bf667052e5ea,1,94,95,10,1.0,1.0,0
run-2020-2-18-11-31-31.600532054,AGENT#7295cb92-5242-11ea-8a7c-5fef2f391a9b,1,94,95,10,1.0,1.0,0
run-2020-2-18-11-31-31.600532054,AGENT#726ed5f0-5242-11ea-94ea-c7685f184fcd,4,92,96,10,1.0,1.0,0
run-2020-2-18-11-31-31.600532054,AGENT#726ee23e-5242-11ea-9093-ebd50f9e0f8c,4,92,96,10,1.0,1.0,0
run-2020-2-18-11-31-31.600532054,AGENT#7281e794-5242-11ea-9756-376507751474,3,93,96,10,1.0,1.0,0
run-2020-2-18-11-31-31.600532054,AGENT#6f631c9a-5242-11ea-8fb4-3772da37dba2,47,50,97,10,1.0,1.0,0
run-2020-2-18-11-31-31.600532054,AGENT#6f6320fa-5242-11ea-b9b7-9f9a35916804,47,50,97,10,1.0,1.0,0
run-2020-2-18-11-31-31.600532054,AGENT#702f4446-5242-11ea-9181-3f76d1a50e48,36,61,97,10,1.0,1.0,0
run-2020-2-18-11-31-31.600532054,AGENT#72a8f8ca-5242-11ea-b1d3-e378c97e0c76,2,95,97,10,1.0,1.0,0
run-2020-2-18-11-31-31.600532054,AGENT#72c7586a-5242-11ea-9d70-33971746b31d,1,96,97,10,1.0,1.0,0
run-2020-2-18-11-31-31.600532054,AGENT#6f9c08a2-5242-11ea-ba3d-5b39b037c43d,45,53,98,10,1.0,1.0,0
run-2020-2-18-11-31-31.600532054,AGENT#716c05c4-5242-11ea-88ee-eb54d76a21d5,20,78,98,10,1.0,1.0,0
run-2020-2-18-11-31-31.600532054,AGENT#72a8fcee-5242-11ea-8400-cb778a3b4f34,4,95,99,10,1.0,1.0,0
