RunID,Agent,Age,Created,Inactive,Resources,Reputation,Ability,Que
run-2020-2-28-10-36-39.604916095,AGENT#341429b4-5a16-11ea-b526-3f341f56c898,0,0,0,10,1.0,1.0,0
run-2020-2-28-10-36-39.604916095,AGENT#34142d24-5a16-11ea-83bd-27717f3e0bd9,1,0,1,10,1.0,1.0,0
run-2020-2-28-10-36-39.604916095,AGENT#341482ec-5a16-11ea-b54b-0349b8b6b735,1,0,1,10,1.0,1.0,0
run-2020-2-28-10-36-39.604916095,AGENT#341441ce-5a16-11ea-ae88-afdf4ab0c38f,2,0,2,10,1.0,1.0,0
run-2020-2-28-10-36-39.604916095,AGENT#3438ce7c-5a16-11ea-ae68-139c7d76d347,1,1,2,10,1.0,1.0,0
run-2020-2-28-10-36-39.604916095,AGENT#34143620-5a16-11ea-8043-7f1e83edf6bc,3,0,3,10,1.0,1.0,0
run-2020-2-28-10-36-39.604916095,AGENT#34143904-5a16-11ea-94fe-03b2fd63e9a8,3,0,3,10,1.0,1.0,0
run-2020-2-28-10-36-39.604916095,AGENT#34143c1a-5a16-11ea-9ddd-2399ef8a89ca,3,0,3,10,1.0,1.0,0
run-2020-2-28-10-36-39.604916095,AGENT#3414449e-5a16-11ea-8d38-074b8b8df3ab,3,0,3,10,1.0,1.0,0
run-2020-2-28-10-36-39.604916095,AGENT#34589806-5a16-11ea-829f-e7e5123f39c8,1,2,3,10,1.0,1.0,0
run-2020-2-28-10-36-39.604916095,AGENT#34589a90-5a16-11ea-aaaf-87b994e66931,1,2,3,10,1.0,1.0,0
run-2020-2-28-10-36-39.604916095,AGENT#3438d110-5a16-11ea-a09f-8798b64deae7,3,1,4,10,1.0,1.0,0
run-2020-2-28-10-36-39.604916095,AGENT#3438d390-5a16-11ea-ab15-2f86ada84bd4,3,1,4,10,1.0,1.0,0
run-2020-2-28-10-36-39.604916095,AGENT#3475eeba-5a16-11ea-b523-1372d65306f8,2,3,5,10,1.0,1.0,0
run-2020-2-28-10-36-39.604916095,AGENT#34910556-5a16-11ea-bd1e-fb5c1abcce15,1,4,5,10,1.0,1.0,0
run-2020-2-28-10-36-39.604916095,AGENT#34589d24-5a16-11ea-a24c-f35d4f7261c4,4,2,6,10,1.0,1.0,0
run-2020-2-28-10-36-39.604916095,AGENT#34910204-5a16-11ea-9161-9b47d38120b9,2,4,6,10,1.0,1.0,0
run-2020-2-28-10-36-39.604916095,AGENT#34aa01aa-5a16-11ea-aa6e-7b9efde22c6e,1,5,6,10,1.0,1.0,0
run-2020-2-28-10-36-39.604916095,AGENT#34aa04ac-5a16-11ea-a2bc-d3ec8284b11b,2,5,7,10,1.0,1.0,0
run-2020-2-28-10-36-39.604916095,AGENT#34e4efb8-5a16-11ea-8f32-0fb0d716d7e2,1,6,7,10,1.0,1.0,0
run-2020-2-28-10-36-39.604916095,AGENT#3475f194-5a16-11ea-866e-c788cb19f14a,5,3,8,10,1.0,1.0,0
run-2020-2-28-10-36-39.604916095,AGENT#34e4f53a-5a16-11ea-a3f3-cfb2ad51847e,2,6,8,10,1.0,1.0,0
run-2020-2-28-10-36-39.604916095,AGENT#351dc64e-5a16-11ea-9061-7bd98d579a3a,1,7,8,10,1.0,1.0,0
run-2020-2-28-10-36-39.604916095,AGENT#34a9fdae-5a16-11ea-b73f-671318db764c,4,5,9,10,1.0,1.0,0
run-2020-2-28-10-36-39.604916095,AGENT#3553ccb2-5a16-11ea-b079-13b3e3dc7cb3,3,8,11,10,1.0,1.0,0
run-2020-2-28-10-36-39.604916095,AGENT#35885374-5a16-11ea-8434-2fd17ceb4fa2,2,9,11,10,1.0,1.0,0
run-2020-2-28-10-36-39.604916095,AGENT#35ba5680-5a16-11ea-a057-6bfc5374cac0,1,10,11,10,1.0,1.0,0
run-2020-2-28-10-36-39.604916095,AGENT#3553ca3c-5a16-11ea-8eca-db6135b101ed,4,8,12,10,1.0,1.0,0
run-2020-2-28-10-36-39.604916095,AGENT#35e6f140-5a16-11ea-b869-6b50cb2404cb,1,11,12,10,1.0,1.0,0
run-2020-2-28-10-36-39.604916095,AGENT#3553cf3c-5a16-11ea-af2a-abcc6900a148,5,8,13,10,1.0,1.0,0
run-2020-2-28-10-36-39.604916095,AGENT#36207f0a-5a16-11ea-9b94-335c2eda85ad,1,12,13,10,1.0,1.0,0
run-2020-2-28-10-36-39.604916095,AGENT#36207c26-5a16-11ea-a115-23156db8106a,2,12,14,10,1.0,1.0,0
run-2020-2-28-10-36-39.604916095,AGENT#35ba59f0-5a16-11ea-b4cf-333518003b61,5,10,15,10,1.0,1.0,0
run-2020-2-28-10-36-39.604916095,AGENT#3690b5b8-5a16-11ea-9733-ab9f0a302367,1,14,15,10,1.0,1.0,0
run-2020-2-28-10-36-39.604916095,AGENT#365a028e-5a16-11ea-bd01-a3001d898769,3,13,16,10,1.0,1.0,0
run-2020-2-28-10-36-39.604916095,AGENT#3475ebc2-5a16-11ea-abfa-d3217894a3b7,14,3,17,10,1.0,1.0,0
run-2020-2-28-10-36-39.604916095,AGENT#3620791a-5a16-11ea-995b-1bbd23216a6c,5,12,17,10,1.0,1.0,0
run-2020-2-28-10-36-39.604916095,AGENT#3659ff82-5a16-11ea-a4af-afc68ae4cb57,4,13,17,10,1.0,1.0,0
run-2020-2-28-10-36-39.604916095,AGENT#36c454c2-5a16-11ea-ab5c-a30c9230a0b9,2,15,17,10,1.0,1.0,0
run-2020-2-28-10-36-39.604916095,AGENT#36c44f18-5a16-11ea-b1b4-136bb28a8dcf,3,15,18,10,1.0,1.0,0
run-2020-2-28-10-36-39.604916095,AGENT#36f60d78-5a16-11ea-a78a-6f0f877ffb6d,2,16,18,10,1.0,1.0,0
run-2020-2-28-10-36-39.604916095,AGENT#36f6103e-5a16-11ea-874b-8730e545fa9c,2,16,18,10,1.0,1.0,0
run-2020-2-28-10-36-39.604916095,AGENT#3797a386-5a16-11ea-91bb-07016ae845c3,1,19,20,10,1.0,1.0,0
run-2020-2-28-10-36-39.604916095,AGENT#37ce0714-5a16-11ea-9077-df066e28a096,2,20,22,10,1.0,1.0,0
run-2020-2-28-10-36-39.604916095,AGENT#375ed1d2-5a16-11ea-b432-bbd9a60a530e,5,18,23,10,1.0,1.0,0
run-2020-2-28-10-36-39.604916095,AGENT#38020da2-5a16-11ea-a8d9-07f1f5fa8284,2,21,23,10,1.0,1.0,0
run-2020-2-28-10-36-39.604916095,AGENT#38340dde-5a16-11ea-ada4-fb850b7f8c42,1,22,23,10,1.0,1.0,0
run-2020-2-28-10-36-39.604916095,AGENT#383410f4-5a16-11ea-bc44-9b56d3bea873,1,22,23,10,1.0,1.0,0
run-2020-2-28-10-36-39.604916095,AGENT#3438cb5c-5a16-11ea-8a05-a7ef128646d8,23,1,24,10,1.0,1.0,0
run-2020-2-28-10-36-39.604916095,AGENT#38021360-5a16-11ea-abef-a39f61f7c538,3,21,24,10,1.0,1.0,0
run-2020-2-28-10-36-39.604916095,AGENT#3863418a-5a16-11ea-bb0c-57b99e965c94,1,23,24,10,1.0,1.0,0
run-2020-2-28-10-36-39.604916095,AGENT#380210cc-5a16-11ea-8714-9b8f09b81a2c,4,21,25,10,1.0,1.0,0
run-2020-2-28-10-36-39.604916095,AGENT#3802181a-5a16-11ea-9c72-634082dee831,4,21,25,10,1.0,1.0,0
run-2020-2-28-10-36-39.604916095,AGENT#386334b0-5a16-11ea-a166-433aae0aeb6e,2,23,25,10,1.0,1.0,0
run-2020-2-28-10-36-39.604916095,AGENT#386339ce-5a16-11ea-806e-2380e56b4a9c,2,23,25,10,1.0,1.0,0
run-2020-2-28-10-36-39.604916095,AGENT#389d4498-5a16-11ea-9090-cfed8f82ed1d,1,24,25,10,1.0,1.0,0
run-2020-2-28-10-36-39.604916095,AGENT#389d46e6-5a16-11ea-8304-efdb97d434c6,1,24,25,10,1.0,1.0,0
run-2020-2-28-10-36-39.604916095,AGENT#389d4970-5a16-11ea-9862-5381fa69399c,1,24,25,10,1.0,1.0,0
run-2020-2-28-10-36-39.604916095,AGENT#35ba5c84-5a16-11ea-bb02-df74149e2161,16,10,26,10,1.0,1.0,0
run-2020-2-28-10-36-39.604916095,AGENT#38634540-5a16-11ea-af5b-6bf1df9e792a,3,23,26,10,1.0,1.0,0
run-2020-2-28-10-36-39.604916095,AGENT#389d3f48-5a16-11ea-b4db-97dd1134a948,2,24,26,10,1.0,1.0,0
run-2020-2-28-10-36-39.604916095,AGENT#38d6d3ca-5a16-11ea-ad85-4bc1c5ba501a,1,25,26,10,1.0,1.0,0
run-2020-2-28-10-36-39.604916095,AGENT#3553d194-5a16-11ea-9949-6f71a61c4e56,19,8,27,10,1.0,1.0,0
run-2020-2-28-10-36-39.604916095,AGENT#37ce0160-5a16-11ea-ad0f-5b3c5804d8d6,7,20,27,10,1.0,1.0,0
run-2020-2-28-10-36-39.604916095,AGENT#3863490a-5a16-11ea-94c9-07d86235935b,4,23,27,10,1.0,1.0,0
run-2020-2-28-10-36-39.604916095,AGENT#38633dac-5a16-11ea-a882-974b4dadeb90,5,23,28,10,1.0,1.0,0
run-2020-2-28-10-36-39.604916095,AGENT#389d4e02-5a16-11ea-aef0-f3788bceb255,5,24,29,10,1.0,1.0,0
run-2020-2-28-10-36-39.604916095,AGENT#38d6ce02-5a16-11ea-aa70-6f9d2e3c6a96,4,25,29,10,1.0,1.0,0
run-2020-2-28-10-36-39.604916095,AGENT#39411b22-5a16-11ea-b8b3-8bc0dafe99fe,2,27,29,10,1.0,1.0,0
run-2020-2-28-10-36-39.604916095,AGENT#394127c0-5a16-11ea-ab9b-7fb024ef0d9c,2,27,29,10,1.0,1.0,0
run-2020-2-28-10-36-39.604916095,AGENT#3690b8ce-5a16-11ea-9289-533d756df73b,16,14,30,10,1.0,1.0,0
run-2020-2-28-10-36-39.604916095,AGENT#390ce316-5a16-11ea-8658-cb1cb8e526f9,4,26,30,10,1.0,1.0,0
run-2020-2-28-10-36-39.604916095,AGENT#390cec6c-5a16-11ea-a313-9f7be5a42518,4,26,30,10,1.0,1.0,0
run-2020-2-28-10-36-39.604916095,AGENT#390ceeba-5a16-11ea-987f-af9b34911411,4,26,30,10,1.0,1.0,0
run-2020-2-28-10-36-39.604916095,AGENT#390cea14-5a16-11ea-b1b6-9f8f8a5ac5eb,5,26,31,10,1.0,1.0,0
run-2020-2-28-10-36-39.604916095,AGENT#39412a22-5a16-11ea-b05f-ff3f02748284,4,27,31,10,1.0,1.0,0
run-2020-2-28-10-36-39.604916095,AGENT#39725674-5a16-11ea-9c60-7b51821f4b5e,3,28,31,10,1.0,1.0,0
run-2020-2-28-10-36-39.604916095,AGENT#39a111f8-5a16-11ea-99f5-83640a31be71,2,29,31,10,1.0,1.0,0
run-2020-2-28-10-36-39.604916095,AGENT#3a16e3d8-5a16-11ea-afd4-1faa01e5e330,1,31,32,10,1.0,1.0,0
run-2020-2-28-10-36-39.604916095,AGENT#3a16e64e-5a16-11ea-96c4-7f52dd90328c,1,31,32,10,1.0,1.0,0
run-2020-2-28-10-36-39.604916095,AGENT#3a16e89c-5a16-11ea-9117-339b367c91af,1,31,32,10,1.0,1.0,0
run-2020-2-28-10-36-39.604916095,AGENT#3a16eb08-5a16-11ea-bc68-43b4f485d9c5,2,31,33,10,1.0,1.0,0
run-2020-2-28-10-36-39.604916095,AGENT#3a16ed6a-5a16-11ea-a720-afce1b719d23,2,31,33,10,1.0,1.0,0
run-2020-2-28-10-36-39.604916095,AGENT#3a4e3f86-5a16-11ea-ad36-ff1c8109d13e,1,32,33,10,1.0,1.0,0
run-2020-2-28-10-36-39.604916095,AGENT#36c45710-5a16-11ea-a8f1-37392261702b,19,15,34,10,1.0,1.0,0
run-2020-2-28-10-36-39.604916095,AGENT#3a4e427e-5a16-11ea-984e-cb4af022a3c7,2,32,34,10,1.0,1.0,0
run-2020-2-28-10-36-39.604916095,AGENT#3a83fd24-5a16-11ea-b9fd-076d80d4167a,1,33,34,10,1.0,1.0,0
run-2020-2-28-10-36-39.604916095,AGENT#390ce7c6-5a16-11ea-bf12-eb0ca7f9fff8,9,26,35,10,1.0,1.0,0
run-2020-2-28-10-36-39.604916095,AGENT#3a83ffb8-5a16-11ea-aa18-3bd416ba942b,2,33,35,10,1.0,1.0,0
run-2020-2-28-10-36-39.604916095,AGENT#3ac39fd8-5a16-11ea-8c7a-f7803730dc5a,1,34,35,10,1.0,1.0,0
run-2020-2-28-10-36-39.604916095,AGENT#397250ca-5a16-11ea-997c-af51b53df5b5,8,28,36,10,1.0,1.0,0
run-2020-2-28-10-36-39.604916095,AGENT#3a16e0e0-5a16-11ea-9333-3f64f50d5c4d,5,31,36,10,1.0,1.0,0
run-2020-2-28-10-36-39.604916095,AGENT#3ac39c0e-5a16-11ea-833c-93ebb9ab2701,2,34,36,10,1.0,1.0,0
run-2020-2-28-10-36-39.604916095,AGENT#3af387a2-5a16-11ea-9902-cbc2ff8ee83c,1,35,36,10,1.0,1.0,0
run-2020-2-28-10-36-39.604916095,AGENT#3af38d4c-5a16-11ea-a05b-e72f43bcc681,1,35,36,10,1.0,1.0,0
run-2020-2-28-10-36-39.604916095,AGENT#3b400230-5a16-11ea-86c1-2fdab1886c34,1,36,37,10,1.0,1.0,0
run-2020-2-28-10-36-39.604916095,AGENT#3a83fa86-5a16-11ea-a42c-7f9eefe66e06,5,33,38,10,1.0,1.0,0
run-2020-2-28-10-36-39.604916095,AGENT#3ac3a5d2-5a16-11ea-bbc1-a38e71e633c2,5,34,39,10,1.0,1.0,0
run-2020-2-28-10-36-39.604916095,AGENT#3b3ffd4e-5a16-11ea-850f-2f4a35b93db9,3,36,39,10,1.0,1.0,0
run-2020-2-28-10-36-39.604916095,AGENT#3b400bae-5a16-11ea-86c2-97703123a1fb,3,36,39,10,1.0,1.0,0
run-2020-2-28-10-36-39.604916095,AGENT#3b7ef10c-5a16-11ea-a590-f3bbaaebace0,2,37,39,10,1.0,1.0,0
run-2020-2-28-10-36-39.604916095,AGENT#3b7ef3f0-5a16-11ea-9fab-bb353eec477d,2,37,39,10,1.0,1.0,0
run-2020-2-28-10-36-39.604916095,AGENT#3b400528-5a16-11ea-aba2-83bb365d9ab5,4,36,40,10,1.0,1.0,0
run-2020-2-28-10-36-39.604916095,AGENT#389d4bbe-5a16-11ea-acf9-478567a56dfa,17,24,41,10,1.0,1.0,0
run-2020-2-28-10-36-39.604916095,AGENT#3bc4d08c-5a16-11ea-8214-bb9f7b2171cd,4,38,42,10,1.0,1.0,0
run-2020-2-28-10-36-39.604916095,AGENT#3c3e4214-5a16-11ea-965b-1f235e2e347c,2,40,42,10,1.0,1.0,0
run-2020-2-28-10-36-39.604916095,AGENT#3af38ad6-5a16-11ea-b0bc-676d25dc693b,8,35,43,10,1.0,1.0,0
run-2020-2-28-10-36-39.604916095,AGENT#3c053cda-5a16-11ea-82cc-1f02c0385f66,4,39,43,10,1.0,1.0,0
run-2020-2-28-10-36-39.604916095,AGENT#3c6ebf34-5a16-11ea-9e2b-e36f4dc866b7,2,41,43,10,1.0,1.0,0
run-2020-2-28-10-36-39.604916095,AGENT#3c9dd436-5a16-11ea-8ec3-0fd515db4b08,1,42,43,10,1.0,1.0,0
run-2020-2-28-10-36-39.604916095,AGENT#389d422c-5a16-11ea-a20e-6756e7da8030,20,24,44,10,1.0,1.0,0
run-2020-2-28-10-36-39.604916095,AGENT#3c3e379c-5a16-11ea-bd01-335f8d3b32a9,4,40,44,10,1.0,1.0,0
run-2020-2-28-10-36-39.604916095,AGENT#3c3e3d64-5a16-11ea-b207-f78b1ca2fc1a,4,40,44,10,1.0,1.0,0
run-2020-2-28-10-36-39.604916095,AGENT#3c3e3fc6-5a16-11ea-b076-e794c7b4dc66,4,40,44,10,1.0,1.0,0
run-2020-2-28-10-36-39.604916095,AGENT#3cd983e6-5a16-11ea-954b-971a63711aad,1,43,44,10,1.0,1.0,0
run-2020-2-28-10-36-39.604916095,AGENT#3cd986e8-5a16-11ea-86f7-8371abe53c65,1,43,44,10,1.0,1.0,0
run-2020-2-28-10-36-39.604916095,AGENT#34143030-5a16-11ea-9a2f-5f7013627a1d,45,0,45,10,1.0,1.0,0
run-2020-2-28-10-36-39.604916095,AGENT#34143eea-5a16-11ea-83e7-235f16a15037,45,0,45,10,1.0,1.0,0
run-2020-2-28-10-36-39.604916095,AGENT#3c3e3aa8-5a16-11ea-9466-2f53c864ef9e,5,40,45,10,1.0,1.0,0
run-2020-2-28-10-36-39.604916095,AGENT#3cd98972-5a16-11ea-af3c-cf08d75a2d07,2,43,45,10,1.0,1.0,0
run-2020-2-28-10-36-39.604916095,AGENT#34143328-5a16-11ea-b83e-8b17bb251853,46,0,46,10,1.0,1.0,0
run-2020-2-28-10-36-39.604916095,AGENT#3d223a3c-5a16-11ea-a8ea-0f44c57ba1d5,2,44,46,10,1.0,1.0,0
run-2020-2-28-10-36-39.604916095,AGENT#3d62d5e2-5a16-11ea-bec9-7b0df2f00663,1,45,46,10,1.0,1.0,0
run-2020-2-28-10-36-39.604916095,AGENT#3cd98bfc-5a16-11ea-a69a-1b71c00b2aec,4,43,47,10,1.0,1.0,0
run-2020-2-28-10-36-39.604916095,AGENT#3d2235fa-5a16-11ea-aa5b-b37bc2a788b0,3,44,47,10,1.0,1.0,0
run-2020-2-28-10-36-39.604916095,AGENT#3d62c502-5a16-11ea-9e96-13223eaf69d8,2,45,47,10,1.0,1.0,0
run-2020-2-28-10-36-39.604916095,AGENT#3475e898-5a16-11ea-884a-ab95593682fb,45,3,48,10,1.0,1.0,0
run-2020-2-28-10-36-39.604916095,AGENT#3d222c68-5a16-11ea-aaf0-8f0ccd7af236,4,44,48,10,1.0,1.0,0
run-2020-2-28-10-36-39.604916095,AGENT#3d2231d6-5a16-11ea-9091-f3c24888bd83,4,44,48,10,1.0,1.0,0
run-2020-2-28-10-36-39.604916095,AGENT#3d62d11e-5a16-11ea-93a2-1b28a8087274,3,45,48,10,1.0,1.0,0
run-2020-2-28-10-36-39.604916095,AGENT#3dd285fe-5a16-11ea-b1e5-439d9b0378bf,1,47,48,10,1.0,1.0,0
run-2020-2-28-10-36-39.604916095,AGENT#345894be-5a16-11ea-8050-6f5085d989ef,47,2,49,10,1.0,1.0,0
run-2020-2-28-10-36-39.604916095,AGENT#394122f2-5a16-11ea-a6a7-5709dcc83912,22,27,49,10,1.0,1.0,0
run-2020-2-28-10-36-39.604916095,AGENT#3ac3a2d0-5a16-11ea-a343-67e47ac7b71a,15,34,49,10,1.0,1.0,0
run-2020-2-28-10-36-39.604916095,AGENT#3d223e56-5a16-11ea-912e-5f653c774745,5,44,49,10,1.0,1.0,0
run-2020-2-28-10-36-39.604916095,AGENT#34aa0740-5a16-11ea-baf6-67fa8b6a608f,45,5,50,10,1.0,1.0,0
run-2020-2-28-10-36-39.604916095,AGENT#3d9cedcc-5a16-11ea-bf01-c7055cac9b15,4,46,50,10,1.0,1.0,0
run-2020-2-28-10-36-39.604916095,AGENT#3e1080d4-5a16-11ea-930f-b30a2a2938d8,2,48,50,10,1.0,1.0,0
run-2020-2-28-10-36-39.604916095,AGENT#3e5d46ee-5a16-11ea-8be0-4f21c33c0b44,1,49,50,10,1.0,1.0,0
run-2020-2-28-10-36-39.604916095,AGENT#3e1088cc-5a16-11ea-9427-3be43fa32cb0,3,48,51,10,1.0,1.0,0
run-2020-2-28-10-36-39.604916095,AGENT#3e5d3d0c-5a16-11ea-963b-9f52968ca27c,2,49,51,10,1.0,1.0,0
run-2020-2-28-10-36-39.604916095,AGENT#3ea27a5c-5a16-11ea-b3b1-473b2f626ad4,1,50,51,10,1.0,1.0,0
run-2020-2-28-10-36-39.604916095,AGENT#36c45256-5a16-11ea-82ef-1b10c47efd87,37,15,52,10,1.0,1.0,0
run-2020-2-28-10-36-39.604916095,AGENT#390ce000-5a16-11ea-8f73-37aed48285ee,26,26,52,10,1.0,1.0,0
run-2020-2-28-10-36-39.604916095,AGENT#3e5d37da-5a16-11ea-bac7-8b2c460abf56,3,49,52,10,1.0,1.0,0
run-2020-2-28-10-36-39.604916095,AGENT#3ea27386-5a16-11ea-b15a-0b50c4070a3f,2,50,52,10,1.0,1.0,0
run-2020-2-28-10-36-39.604916095,AGENT#3ed8664e-5a16-11ea-a791-c71241c1a38a,1,51,52,10,1.0,1.0,0
run-2020-2-28-10-36-39.604916095,AGENT#3ed8729c-5a16-11ea-b446-93b5b71785a5,1,51,52,10,1.0,1.0,0
run-2020-2-28-10-36-39.604916095,AGENT#351dc932-5a16-11ea-911e-1f190c0a4c61,46,7,53,10,1.0,1.0,0
run-2020-2-28-10-36-39.604916095,AGENT#351dcbf8-5a16-11ea-b135-1f9bf896a38d,46,7,53,10,1.0,1.0,0
run-2020-2-28-10-36-39.604916095,AGENT#390cf162-5a16-11ea-b3f3-67fc5f2c505f,27,26,53,10,1.0,1.0,0
run-2020-2-28-10-36-39.604916095,AGENT#3d62cb2e-5a16-11ea-b682-034264347d63,8,45,53,10,1.0,1.0,0
run-2020-2-28-10-36-39.604916095,AGENT#3ea277a0-5a16-11ea-b5ba-fbe002e34078,3,50,53,10,1.0,1.0,0
run-2020-2-28-10-36-39.604916095,AGENT#3ed8634c-5a16-11ea-9418-dbe2f3c482ee,2,51,53,10,1.0,1.0,0
run-2020-2-28-10-36-39.604916095,AGENT#34e4f2ba-5a16-11ea-a01b-b7db0a9240a8,48,6,54,10,1.0,1.0,0
run-2020-2-28-10-36-39.604916095,AGENT#3553c73a-5a16-11ea-8287-7b3c8c70d48c,46,8,54,10,1.0,1.0,0
run-2020-2-28-10-36-39.604916095,AGENT#3e5d4dce-5a16-11ea-a4b9-5bdaeb9e71e1,5,49,54,10,1.0,1.0,0
run-2020-2-28-10-36-39.604916095,AGENT#3ea27d04-5a16-11ea-b8fd-336585933a82,4,50,54,10,1.0,1.0,0
run-2020-2-28-10-36-39.604916095,AGENT#3ed868d8-5a16-11ea-84a9-c7ea612460b3,3,51,54,10,1.0,1.0,0
run-2020-2-28-10-36-39.604916095,AGENT#3ed86b94-5a16-11ea-93d1-b779340c347e,3,51,54,10,1.0,1.0,0
run-2020-2-28-10-36-39.604916095,AGENT#3f13af60-5a16-11ea-ae4f-c7d7c62cf16b,2,52,54,10,1.0,1.0,0
run-2020-2-28-10-36-39.604916095,AGENT#3ea280a6-5a16-11ea-8bf9-2f1e6d16857a,5,50,55,10,1.0,1.0,0
run-2020-2-28-10-36-39.604916095,AGENT#3ed8704e-5a16-11ea-b886-5bc208ca97d6,4,51,55,10,1.0,1.0,0
run-2020-2-28-10-36-39.604916095,AGENT#3f13b7a8-5a16-11ea-ae6b-73e2f0581088,3,52,55,10,1.0,1.0,0
run-2020-2-28-10-36-39.604916095,AGENT#3f76e6f2-5a16-11ea-850e-ef08521a9f2d,1,54,55,10,1.0,1.0,0
run-2020-2-28-10-36-39.604916095,AGENT#3f76e986-5a16-11ea-9625-e721199c8edf,1,54,55,10,1.0,1.0,0
run-2020-2-28-10-36-39.604916095,AGENT#35ba5f18-5a16-11ea-bd08-dbc77261d5bb,46,10,56,10,1.0,1.0,0
run-2020-2-28-10-36-39.604916095,AGENT#3c6ec628-5a16-11ea-9151-63c18fb7b5b6,15,41,56,10,1.0,1.0,0
run-2020-2-28-10-36-39.604916095,AGENT#3ed86e00-5a16-11ea-82a5-f76ad10b3d8e,5,51,56,10,1.0,1.0,0
run-2020-2-28-10-36-39.604916095,AGENT#3f76ee36-5a16-11ea-b827-6bb12472ec0a,2,54,56,10,1.0,1.0,0
run-2020-2-28-10-36-39.604916095,AGENT#3c9dd102-5a16-11ea-ba6f-e36ac2efd6e9,15,42,57,10,1.0,1.0,0
run-2020-2-28-10-36-39.604916095,AGENT#3f76f08e-5a16-11ea-a5d6-8bc83b7d378d,3,54,57,10,1.0,1.0,0
run-2020-2-28-10-36-39.604916095,AGENT#3fa1f5cc-5a16-11ea-b7c5-77d370e84af6,2,55,57,10,1.0,1.0,0
run-2020-2-28-10-36-39.604916095,AGENT#3fa1f93c-5a16-11ea-b1bb-1f886867ce9d,2,55,57,10,1.0,1.0,0
run-2020-2-28-10-36-39.604916095,AGENT#3fa1ff22-5a16-11ea-b59c-a7101bcf3f10,2,55,57,10,1.0,1.0,0
run-2020-2-28-10-36-39.604916095,AGENT#3f76e134-5a16-11ea-8bf8-2b17e4456b5f,4,54,58,10,1.0,1.0,0
run-2020-2-28-10-36-39.604916095,AGENT#3fdc1c7a-5a16-11ea-b6a6-d3cca84b8d43,2,56,58,10,1.0,1.0,0
run-2020-2-28-10-36-39.604916095,AGENT#3690bba8-5a16-11ea-a201-0f12e40020ef,45,14,59,10,1.0,1.0,0
run-2020-2-28-10-36-39.604916095,AGENT#3fa1fc7a-5a16-11ea-b74b-7ffacf9249b4,4,55,59,10,1.0,1.0,0
run-2020-2-28-10-36-39.604916095,AGENT#3fdc1f0e-5a16-11ea-b984-3711aa13e8a0,3,56,59,10,1.0,1.0,0
run-2020-2-28-10-36-39.604916095,AGENT#40459862-5a16-11ea-995e-cf7b5261185e,2,58,60,10,1.0,1.0,0
run-2020-2-28-10-36-39.604916095,AGENT#407869c2-5a16-11ea-913b-bb32100ac376,1,59,60,10,1.0,1.0,0
run-2020-2-28-10-36-39.604916095,AGENT#36f609e0-5a16-11ea-a7fe-03ba5dc19ea2,45,16,61,10,1.0,1.0,0
run-2020-2-28-10-36-39.604916095,AGENT#40a8e980-5a16-11ea-ad8d-2b46ca5413e8,1,60,61,10,1.0,1.0,0
run-2020-2-28-10-36-39.604916095,AGENT#36c4595e-5a16-11ea-b80b-dbb4d75d54db,47,15,62,10,1.0,1.0,0
run-2020-2-28-10-36-39.604916095,AGENT#372541ba-5a16-11ea-a893-f3d3fffbaa15,45,17,62,10,1.0,1.0,0
run-2020-2-28-10-36-39.604916095,AGENT#40a8ebec-5a16-11ea-9f95-f72de7fc05ae,2,60,62,10,1.0,1.0,0
run-2020-2-28-10-36-39.604916095,AGENT#35ba6166-5a16-11ea-9b72-3bfe3536eb0c,53,10,63,10,1.0,1.0,0
run-2020-2-28-10-36-39.604916095,AGENT#40786f6c-5a16-11ea-aadb-53bd4c39979f,4,59,63,10,1.0,1.0,0
run-2020-2-28-10-36-39.604916095,AGENT#40787444-5a16-11ea-aab4-d7339b4fe9e4,4,59,63,10,1.0,1.0,0
run-2020-2-28-10-36-39.604916095,AGENT#40a8e71e-5a16-11ea-8665-eb9dc0e2913f,3,60,63,10,1.0,1.0,0
run-2020-2-28-10-36-39.604916095,AGENT#412b6702-5a16-11ea-b892-7b1210ed3a57,1,63,64,10,1.0,1.0,0
run-2020-2-28-10-36-39.604916095,AGENT#375ed4de-5a16-11ea-a57a-07e81f99b30b,47,18,65,10,1.0,1.0,0
run-2020-2-28-10-36-39.604916095,AGENT#40a8dee0-5a16-11ea-95a3-83017f0fa633,5,60,65,10,1.0,1.0,0
run-2020-2-28-10-36-39.604916095,AGENT#40d6ac30-5a16-11ea-8294-a368c234a9d0,4,61,65,10,1.0,1.0,0
run-2020-2-28-10-36-39.604916095,AGENT#41026384-5a16-11ea-b934-fbb6beeb522e,3,62,65,10,1.0,1.0,0
run-2020-2-28-10-36-39.604916095,AGENT#412b6c98-5a16-11ea-8f0a-fb6b1ac8d519,2,63,65,10,1.0,1.0,0
run-2020-2-28-10-36-39.604916095,AGENT#37ce046c-5a16-11ea-a315-3bf2ad10b6aa,46,20,66,10,1.0,1.0,0
run-2020-2-28-10-36-39.604916095,AGENT#38021a68-5a16-11ea-8761-8720f6a48bb9,45,21,66,10,1.0,1.0,0
run-2020-2-28-10-36-39.604916095,AGENT#41650b9c-5a16-11ea-ad86-f3e5d2d5fff7,2,64,66,10,1.0,1.0,0
run-2020-2-28-10-36-39.604916095,AGENT#419e0974-5a16-11ea-81c8-8bc5226b7f8f,1,65,66,10,1.0,1.0,0
run-2020-2-28-10-36-39.604916095,AGENT#380215ae-5a16-11ea-8de7-7bd4f6de3ead,46,21,67,10,1.0,1.0,0
run-2020-2-28-10-36-39.604916095,AGENT#3dd282b6-5a16-11ea-9b94-9733e41aa14f,20,47,67,10,1.0,1.0,0
run-2020-2-28-10-36-39.604916095,AGENT#3fdc195a-5a16-11ea-9b54-3bf562814655,11,56,67,10,1.0,1.0,0
run-2020-2-28-10-36-39.604916095,AGENT#419e05e6-5a16-11ea-8073-9b19247f12df,2,65,67,10,1.0,1.0,0
run-2020-2-28-10-36-39.604916095,AGENT#41d262e6-5a16-11ea-a437-57aa2987a501,1,66,67,10,1.0,1.0,0
run-2020-2-28-10-36-39.604916095,AGENT#3e10852a-5a16-11ea-9739-77a3462a070f,20,48,68,10,1.0,1.0,0
run-2020-2-28-10-36-39.604916095,AGENT#3a83f77a-5a16-11ea-8115-c78181f82cf0,36,33,69,10,1.0,1.0,0
run-2020-2-28-10-36-39.604916095,AGENT#41650868-5a16-11ea-88a4-cb8a7d37291a,5,64,69,10,1.0,1.0,0
run-2020-2-28-10-36-39.604916095,AGENT#41d2607a-5a16-11ea-a82a-af2c55c0582b,3,66,69,10,1.0,1.0,0
run-2020-2-28-10-36-39.604916095,AGENT#4237151a-5a16-11ea-8794-9745817a50e1,1,68,69,10,1.0,1.0,0
run-2020-2-28-10-36-39.604916095,AGENT#419e0e7e-5a16-11ea-86a3-d7aa90c2ba45,5,65,70,10,1.0,1.0,0
run-2020-2-28-10-36-39.604916095,AGENT#3797a070-5a16-11ea-8ed9-bffa80776cfe,52,19,71,10,1.0,1.0,0
run-2020-2-28-10-36-39.604916095,AGENT#38d6d12c-5a16-11ea-87f1-3b214ca076e5,46,25,71,10,1.0,1.0,0
run-2020-2-28-10-36-39.604916095,AGENT#390ce578-5a16-11ea-9e6e-5fbcd5b51186,45,26,71,10,1.0,1.0,0
run-2020-2-28-10-36-39.604916095,AGENT#412b6a18-5a16-11ea-9c65-0bb9da35f305,8,63,71,10,1.0,1.0,0
run-2020-2-28-10-36-39.604916095,AGENT#41d25d6e-5a16-11ea-9b83-f778a9b91bf9,5,66,71,10,1.0,1.0,0
run-2020-2-28-10-36-39.604916095,AGENT#42659f52-5a16-11ea-af7c-6703db2972a8,2,69,71,10,1.0,1.0,0
run-2020-2-28-10-36-39.604916095,AGENT#4291d68a-5a16-11ea-969a-13f4f445c6d5,1,70,71,10,1.0,1.0,0
run-2020-2-28-10-36-39.604916095,AGENT#4291e382-5a16-11ea-829c-43655f302d24,1,70,71,10,1.0,1.0,0
run-2020-2-28-10-36-39.604916095,AGENT#39411e2e-5a16-11ea-94a6-03a982c31807,45,27,72,10,1.0,1.0,0
run-2020-2-28-10-36-39.604916095,AGENT#3941209a-5a16-11ea-b932-f792f5f27342,45,27,72,10,1.0,1.0,0
run-2020-2-28-10-36-39.604916095,AGENT#39412572-5a16-11ea-81da-9b65e9860993,45,27,72,10,1.0,1.0,0
run-2020-2-28-10-36-39.604916095,AGENT#4291d9a0-5a16-11ea-9d72-bf1bf2e868dd,2,70,72,10,1.0,1.0,0
run-2020-2-28-10-36-39.604916095,AGENT#4291e102-5a16-11ea-bbba-0b6487726f89,2,70,72,10,1.0,1.0,0
run-2020-2-28-10-36-39.604916095,AGENT#426599d0-5a16-11ea-85e6-07e45b210142,4,69,73,10,1.0,1.0,0
run-2020-2-28-10-36-39.604916095,AGENT#4291dea0-5a16-11ea-8dd6-f7ab50254a8e,3,70,73,10,1.0,1.0,0
run-2020-2-28-10-36-39.604916095,AGENT#42bacb30-5a16-11ea-a1fa-d7096aa51e3c,2,71,73,10,1.0,1.0,0
run-2020-2-28-10-36-39.604916095,AGENT#4291dc3e-5a16-11ea-a499-e37a8d05afc1,4,70,74,10,1.0,1.0,0
run-2020-2-28-10-36-39.604916095,AGENT#42f607b8-5a16-11ea-a84d-7ba1ed61610c,2,72,74,10,1.0,1.0,0
run-2020-2-28-10-36-39.604916095,AGENT#42f61618-5a16-11ea-bddd-17ce0e1286cd,2,72,74,10,1.0,1.0,0
run-2020-2-28-10-36-39.604916095,AGENT#432ecf80-5a16-11ea-b6a0-d3734dbe56e1,1,73,74,10,1.0,1.0,0
run-2020-2-28-10-36-39.604916095,AGENT#3f76e468-5a16-11ea-ac68-277a640afb36,21,54,75,10,1.0,1.0,0
run-2020-2-28-10-36-39.604916095,AGENT#42f6025e-5a16-11ea-820f-dfd8ec670a69,3,72,75,10,1.0,1.0,0
run-2020-2-28-10-36-39.604916095,AGENT#42f6054c-5a16-11ea-86bb-43e8aa746541,3,72,75,10,1.0,1.0,0
run-2020-2-28-10-36-39.604916095,AGENT#42f613b6-5a16-11ea-90b1-274f343beba6,3,72,75,10,1.0,1.0,0
run-2020-2-28-10-36-39.604916095,AGENT#432ed2a0-5a16-11ea-a7d4-1741ea1d9eec,2,73,75,10,1.0,1.0,0
run-2020-2-28-10-36-39.604916095,AGENT#397253ea-5a16-11ea-be75-7bc28c63b7e4,48,28,76,10,1.0,1.0,0
run-2020-2-28-10-36-39.604916095,AGENT#42f60a10-5a16-11ea-abe4-8f8b0a63ef03,4,72,76,10,1.0,1.0,0
run-2020-2-28-10-36-39.604916095,AGENT#4399991e-5a16-11ea-88f7-2718b298d7b7,1,75,76,10,1.0,1.0,0
run-2020-2-28-10-36-39.604916095,AGENT#42bac78e-5a16-11ea-83d8-3bd448d5620f,6,71,77,10,1.0,1.0,0
run-2020-2-28-10-36-39.604916095,AGENT#43cb3a8c-5a16-11ea-a680-6fcc0c35542d,1,76,77,10,1.0,1.0,0
run-2020-2-28-10-36-39.604916095,AGENT#43cb44b4-5a16-11ea-8ed2-776a91e709e7,1,76,77,10,1.0,1.0,0
run-2020-2-28-10-36-39.604916095,AGENT#3a84024c-5a16-11ea-9eb4-ab18fca168c7,45,33,78,10,1.0,1.0,0
run-2020-2-28-10-36-39.604916095,AGENT#43651b30-5a16-11ea-a0ca-4b241174c682,4,74,78,10,1.0,1.0,0
run-2020-2-28-10-36-39.604916095,AGENT#43651e5a-5a16-11ea-8fd1-0b1911380453,4,74,78,10,1.0,1.0,0
run-2020-2-28-10-36-39.604916095,AGENT#3c6ebc5a-5a16-11ea-b82f-8f8da85bd292,38,41,79,10,1.0,1.0,0
run-2020-2-28-10-36-39.604916095,AGENT#3af38fb8-5a16-11ea-9bcf-6ff1774d7e45,45,35,80,10,1.0,1.0,0
run-2020-2-28-10-36-39.604916095,AGENT#43cb3dde-5a16-11ea-8dd9-434de03ecdf8,4,76,80,10,1.0,1.0,0
run-2020-2-28-10-36-39.604916095,AGENT#43cb4040-5a16-11ea-ba13-9b001e4c96de,5,76,81,10,1.0,1.0,0
run-2020-2-28-10-36-39.604916095,AGENT#4423f172-5a16-11ea-bb0b-ebf25e366251,3,78,81,10,1.0,1.0,0
run-2020-2-28-10-36-39.604916095,AGENT#444cdf7e-5a16-11ea-b0ec-a3873120b3d9,2,79,81,10,1.0,1.0,0
run-2020-2-28-10-36-39.604916095,AGENT#4473cbb6-5a16-11ea-8113-2b1cf531fec2,1,80,81,10,1.0,1.0,0
run-2020-2-28-10-36-39.604916095,AGENT#4473ceea-5a16-11ea-a1b8-7f2890e4b321,1,80,81,10,1.0,1.0,0
run-2020-2-28-10-36-39.604916095,AGENT#3b7ef652-5a16-11ea-921f-d794f68dba7d,45,37,82,10,1.0,1.0,0
run-2020-2-28-10-36-39.604916095,AGENT#4423e6be-5a16-11ea-9e47-a3eb4f6d8af5,4,78,82,10,1.0,1.0,0
run-2020-2-28-10-36-39.604916095,AGENT#4423ec86-5a16-11ea-b40a-ef036ed1ebce,4,78,82,10,1.0,1.0,0
run-2020-2-28-10-36-39.604916095,AGENT#44e2f87e-5a16-11ea-8ec5-7bce9c884f55,1,82,83,10,1.0,1.0,0
run-2020-2-28-10-36-39.604916095,AGENT#3c053ff0-5a16-11ea-a370-8fd3e541f3ae,45,39,84,10,1.0,1.0,0
run-2020-2-28-10-36-39.604916095,AGENT#4473d192-5a16-11ea-8eae-b32ccea6234e,4,80,84,10,1.0,1.0,0
run-2020-2-28-10-36-39.604916095,AGENT#43999662-5a16-11ea-92d7-f34df956614c,10,75,85,10,1.0,1.0,0
run-2020-2-28-10-36-39.604916095,AGENT#4473d46c-5a16-11ea-a953-ab16435fba84,5,80,85,10,1.0,1.0,0
run-2020-2-28-10-36-39.604916095,AGENT#44e2fbb2-5a16-11ea-a707-afea1b63b52b,3,82,85,10,1.0,1.0,0
run-2020-2-28-10-36-39.604916095,AGENT#45192ed0-5a16-11ea-8d46-d3bbb33c0974,2,83,85,10,1.0,1.0,0
run-2020-2-28-10-36-39.604916095,AGENT#454d8b26-5a16-11ea-9c02-3709fec5545c,1,84,85,10,1.0,1.0,0
run-2020-2-28-10-36-39.604916095,AGENT#454d926a-5a16-11ea-9bea-1f8f4b3e0b23,1,84,85,10,1.0,1.0,0
run-2020-2-28-10-36-39.604916095,AGENT#44ae9a84-5a16-11ea-a497-e3c0f31cda0f,5,81,86,10,1.0,1.0,0
run-2020-2-28-10-36-39.604916095,AGENT#44ae9dcc-5a16-11ea-8d2d-6758093b00a4,5,81,86,10,1.0,1.0,0
run-2020-2-28-10-36-39.604916095,AGENT#3c6ec222-5a16-11ea-a84d-778d30e74893,46,41,87,10,1.0,1.0,0
run-2020-2-28-10-36-39.604916095,AGENT#45192bb0-5a16-11ea-9f2e-e3815843dc36,4,83,87,10,1.0,1.0,0
run-2020-2-28-10-36-39.604916095,AGENT#454d8dba-5a16-11ea-8a1d-87e8ef777e8c,3,84,87,10,1.0,1.0,0
run-2020-2-28-10-36-39.604916095,AGENT#457e263c-5a16-11ea-badf-b71d993b7d1a,2,85,87,10,1.0,1.0,0
run-2020-2-28-10-36-39.604916095,AGENT#45ad383c-5a16-11ea-b7a0-6b2e6cb2371a,1,86,87,10,1.0,1.0,0
run-2020-2-28-10-36-39.604916095,AGENT#45ad3eb8-5a16-11ea-beaf-8f422b67b80f,1,86,87,10,1.0,1.0,0
run-2020-2-28-10-36-39.604916095,AGENT#3c6ec8e4-5a16-11ea-a2ed-1b18dc7b3d3b,47,41,88,10,1.0,1.0,0
run-2020-2-28-10-36-39.604916095,AGENT#454d94b8-5a16-11ea-a247-43c1cb4de2a4,4,84,88,10,1.0,1.0,0
run-2020-2-28-10-36-39.604916095,AGENT#457e2ba0-5a16-11ea-ae95-8bf11c58334e,3,85,88,10,1.0,1.0,0
run-2020-2-28-10-36-39.604916095,AGENT#457e2df8-5a16-11ea-927e-c35bda868436,3,85,88,10,1.0,1.0,0
run-2020-2-28-10-36-39.604916095,AGENT#45d9da18-5a16-11ea-adfb-df035aea0271,2,87,89,10,1.0,1.0,0
run-2020-2-28-10-36-39.604916095,AGENT#457e30aa-5a16-11ea-b927-9f95fa9811c5,5,85,90,10,1.0,1.0,0
run-2020-2-28-10-36-39.604916095,AGENT#3d9ceaca-5a16-11ea-9010-173f3b48f0c9,45,46,91,10,1.0,1.0,0
run-2020-2-28-10-36-39.604916095,AGENT#412b6f04-5a16-11ea-87d7-53bca964c50f,28,63,91,10,1.0,1.0,0
run-2020-2-28-10-36-39.604916095,AGENT#45ad3b98-5a16-11ea-a510-4fcd4ddca99c,5,86,91,10,1.0,1.0,0
run-2020-2-28-10-36-39.604916095,AGENT#45d9d252-5a16-11ea-8b7e-4fe5194a9c31,4,87,91,10,1.0,1.0,0
run-2020-2-28-10-36-39.604916095,AGENT#463dbcea-5a16-11ea-8d32-1bf77a7f452f,2,89,91,10,1.0,1.0,0
run-2020-2-28-10-36-39.604916095,AGENT#463db6a0-5a16-11ea-a783-b35d1dfc3c47,3,89,92,10,1.0,1.0,0
run-2020-2-28-10-36-39.604916095,AGENT#463dbf7e-5a16-11ea-967d-d710b172bb08,3,89,92,10,1.0,1.0,0
run-2020-2-28-10-36-39.604916095,AGENT#3f4895cc-5a16-11ea-8561-af9b72408a44,40,53,93,10,1.0,1.0,0
run-2020-2-28-10-36-39.604916095,AGENT#46759174-5a16-11ea-81ac-57adb002feb8,3,90,93,10,1.0,1.0,0
run-2020-2-28-10-36-39.604916095,AGENT#4675976e-5a16-11ea-bc15-b720882ce9ae,3,90,93,10,1.0,1.0,0
run-2020-2-28-10-36-39.604916095,AGENT#46aa7ccc-5a16-11ea-ba4e-f38e53b311d6,2,91,93,10,1.0,1.0,0
run-2020-2-28-10-36-39.604916095,AGENT#46aa8550-5a16-11ea-8fab-63daaef77fd3,2,91,93,10,1.0,1.0,0
run-2020-2-28-10-36-39.604916095,AGENT#46ddfce6-5a16-11ea-86ac-5b98315f63c1,1,92,93,10,1.0,1.0,0
run-2020-2-28-10-36-39.604916095,AGENT#46de01f0-5a16-11ea-9606-631c1834228c,1,92,93,10,1.0,1.0,0
run-2020-2-28-10-36-39.604916095,AGENT#46aa82d0-5a16-11ea-95a8-77e7ea48229f,4,91,95,10,1.0,1.0,0
run-2020-2-28-10-36-39.604916095,AGENT#4423f3de-5a16-11ea-a73b-1b954b32102f,18,78,96,10,1.0,1.0,0
run-2020-2-28-10-36-39.604916095,AGENT#46ddf9ee-5a16-11ea-bd74-877b52efce53,4,92,96,10,1.0,1.0,0
run-2020-2-28-10-36-39.604916095,AGENT#476b767a-5a16-11ea-aa87-d3caaa6306da,1,95,96,10,1.0,1.0,0
run-2020-2-28-10-36-39.604916095,AGENT#3e5d49f0-5a16-11ea-bef0-7bb18536426b,48,49,97,10,1.0,1.0,0
run-2020-2-28-10-36-39.604916095,AGENT#4291e5e4-5a16-11ea-ac5d-3faf7c92a696,27,70,97,10,1.0,1.0,0
run-2020-2-28-10-36-39.604916095,AGENT#476b6ea0-5a16-11ea-b456-b798d9820879,2,95,97,10,1.0,1.0,0
run-2020-2-28-10-36-39.604916095,AGENT#47960b88-5a16-11ea-bcce-5fa9a6d5dea3,1,96,97,10,1.0,1.0,0
run-2020-2-28-10-36-39.604916095,AGENT#47960ebc-5a16-11ea-9589-3796b42e280c,1,96,97,10,1.0,1.0,0
run-2020-2-28-10-36-39.604916095,AGENT#3e5d4338-5a16-11ea-bfb8-675889a192fb,49,49,98,10,1.0,1.0,0
run-2020-2-28-10-36-39.604916095,AGENT#473ed890-5a16-11ea-9a3c-5f847414feff,4,94,98,10,1.0,1.0,0
run-2020-2-28-10-36-39.604916095,AGENT#473ed570-5a16-11ea-80ff-c3c151c26a09,5,94,99,10,1.0,1.0,0
run-2020-2-28-10-36-39.604916095,AGENT#47ceae70-5a16-11ea-84f6-73d38f6f5c64,2,97,99,10,1.0,1.0,0
