RunID,Tick,AllAgents,Active,Inactive
run-2020-2-28-10-36-39.604916095,0,11,10,1
run-2020-2-28-10-36-39.604916095,1,15,12,3
run-2020-2-28-10-36-39.604916095,2,19,14,5
run-2020-2-28-10-36-39.604916095,3,23,12,11
run-2020-2-28-10-36-39.604916095,4,25,12,13
run-2020-2-28-10-36-39.604916095,5,29,14,15
run-2020-2-28-10-36-39.604916095,6,32,14,18
run-2020-2-28-10-36-39.604916095,7,35,15,20
run-2020-2-28-10-36-39.604916095,8,40,17,23
run-2020-2-28-10-36-39.604916095,9,41,17,24
run-2020-2-28-10-36-39.604916095,10,46,22,24
run-2020-2-28-10-36-39.604916095,11,47,20,27
run-2020-2-28-10-36-39.604916095,12,50,21,29
run-2020-2-28-10-36-39.604916095,13,52,21,31
run-2020-2-28-10-36-39.604916095,14,55,23,32
run-2020-2-28-10-36-39.604916095,15,60,26,34
run-2020-2-28-10-36-39.604916095,16,63,28,35
run-2020-2-28-10-36-39.604916095,17,64,25,39
run-2020-2-28-10-36-39.604916095,18,66,24,42
run-2020-2-28-10-36-39.604916095,19,68,26,42
run-2020-2-28-10-36-39.604916095,20,71,28,43
run-2020-2-28-10-36-39.604916095,21,77,34,43
run-2020-2-28-10-36-39.604916095,22,79,35,44
run-2020-2-28-10-36-39.604916095,23,85,37,48
run-2020-2-28-10-36-39.604916095,24,92,41,51
run-2020-2-28-10-36-39.604916095,25,95,37,58
run-2020-2-28-10-36-39.604916095,26,103,41,62
run-2020-2-28-10-36-39.604916095,27,110,45,65
run-2020-2-28-10-36-39.604916095,28,113,47,66
run-2020-2-28-10-36-39.604916095,29,114,44,70
run-2020-2-28-10-36-39.604916095,30,114,40,74
run-2020-2-28-10-36-39.604916095,31,120,42,78
run-2020-2-28-10-36-39.604916095,32,122,41,81
run-2020-2-28-10-36-39.604916095,33,127,43,84
run-2020-2-28-10-36-39.604916095,34,131,44,87
run-2020-2-28-10-36-39.604916095,35,135,45,90
run-2020-2-28-10-36-39.604916095,36,139,44,95
run-2020-2-28-10-36-39.604916095,37,142,46,96
run-2020-2-28-10-36-39.604916095,38,143,46,97
run-2020-2-28-10-36-39.604916095,39,145,43,102
run-2020-2-28-10-36-39.604916095,40,150,47,103
run-2020-2-28-10-36-39.604916095,41,155,51,104
run-2020-2-28-10-36-39.604916095,42,157,51,106
run-2020-2-28-10-36-39.604916095,43,161,51,110
run-2020-2-28-10-36-39.604916095,44,166,50,116
run-2020-2-28-10-36-39.604916095,45,170,50,120
run-2020-2-28-10-36-39.604916095,46,172,49,123
run-2020-2-28-10-36-39.604916095,47,174,48,126
run-2020-2-28-10-36-39.604916095,48,177,46,131
run-2020-2-28-10-36-39.604916095,49,183,48,135
run-2020-2-28-10-36-39.604916095,50,188,49,139
run-2020-2-28-10-36-39.604916095,51,195,53,142
run-2020-2-28-10-36-39.604916095,52,197,49,148
run-2020-2-28-10-36-39.604916095,53,198,44,154
run-2020-2-28-10-36-39.604916095,54,205,44,161
run-2020-2-28-10-36-39.604916095,55,210,44,166
run-2020-2-28-10-36-39.604916095,56,214,44,170
run-2020-2-28-10-36-39.604916095,57,214,39,175
run-2020-2-28-10-36-39.604916095,58,215,38,177
run-2020-2-28-10-36-39.604916095,59,220,40,180
run-2020-2-28-10-36-39.604916095,60,226,44,182
run-2020-2-28-10-36-39.604916095,61,227,43,184
run-2020-2-28-10-36-39.604916095,62,228,41,187
run-2020-2-28-10-36-39.604916095,63,233,42,191
run-2020-2-28-10-36-39.604916095,64,236,44,192
run-2020-2-28-10-36-39.604916095,65,241,44,197
run-2020-2-28-10-36-39.604916095,66,245,44,201
run-2020-2-28-10-36-39.604916095,67,247,41,206
run-2020-2-28-10-36-39.604916095,68,249,42,207
run-2020-2-28-10-36-39.604916095,69,252,41,211
run-2020-2-28-10-36-39.604916095,70,259,47,212
run-2020-2-28-10-36-39.604916095,71,262,42,220
run-2020-2-28-10-36-39.604916095,72,271,46,225
run-2020-2-28-10-36-39.604916095,73,273,45,228
run-2020-2-28-10-36-39.604916095,74,278,46,232
run-2020-2-28-10-36-39.604916095,75,281,44,237
run-2020-2-28-10-36-39.604916095,76,286,46,240
run-2020-2-28-10-36-39.604916095,77,286,43,243
run-2020-2-28-10-36-39.604916095,78,292,46,246
run-2020-2-28-10-36-39.604916095,79,295,48,247
run-2020-2-28-10-36-39.604916095,80,299,50,249
run-2020-2-28-10-36-39.604916095,81,301,47,254
run-2020-2-28-10-36-39.604916095,82,304,47,257
run-2020-2-28-10-36-39.604916095,83,306,48,258
run-2020-2-28-10-36-39.604916095,84,312,52,260
run-2020-2-28-10-36-39.604916095,85,317,51,266
run-2020-2-28-10-36-39.604916095,86,322,54,268
run-2020-2-28-10-36-39.604916095,87,328,54,274
run-2020-2-28-10-36-39.604916095,88,330,52,278
run-2020-2-28-10-36-39.604916095,89,335,56,279
run-2020-2-28-10-36-39.604916095,90,338,58,280
run-2020-2-28-10-36-39.604916095,91,342,57,285
run-2020-2-28-10-36-39.604916095,92,347,60,287
run-2020-2-28-10-36-39.604916095,93,347,53,294
run-2020-2-28-10-36-39.604916095,94,350,56,294
run-2020-2-28-10-36-39.604916095,95,355,60,295
run-2020-2-28-10-36-39.604916095,96,358,60,298
run-2020-2-28-10-36-39.604916095,97,361,58,303
run-2020-2-28-10-36-39.604916095,98,366,61,305
run-2020-2-28-10-36-39.604916095,99,366,59,307
