Source,Target
7ce04e40-519a-11ea-bab5-6762ae3426a5,7ce0dd4c-519a-11ea-956b-bbf7b551e4cc
7cdf0ab2-519a-11ea-a0d9-8fa911e6155c,7ce102fe-519a-11ea-98bb-ff53bbd21a01
7cdef25c-519a-11ea-8bb3-3fe8e742d8b2,7ce0ec92-519a-11ea-afcb-8b489dbdbd1b
7cdff97c-519a-11ea-8cd9-5fa28c44ec98,7ce1141a-519a-11ea-9beb-af2ed50da092
7ce0dd4c-519a-11ea-956b-bbf7b551e4cc,7ce160dc-519a-11ea-b4ba-bb3ec4c4bd1a
7ce03c16-519a-11ea-bf28-b7c381daeb18,7ce17252-519a-11ea-ae37-ef880403b87a
7ce0ec92-519a-11ea-afcb-8b489dbdbd1b,7ce182a6-519a-11ea-8645-3bbd171da949
7ce0c992-519a-11ea-9403-ebdbb30f4e47,7ce19b10-519a-11ea-94bc-a37a61a45c97
7cdf378a-519a-11ea-ad48-3bad0407a0ef,7ce1d04e-519a-11ea-a3be-674f60ff977a
7cdf0ab2-519a-11ea-a0d9-8fa911e6155c,7ce1e0a2-519a-11ea-86d5-9f3722c36d35
7cdff97c-519a-11ea-8cd9-5fa28c44ec98,7ce21c16-519a-11ea-97ad-973b210a51ca
7ce04e40-519a-11ea-bab5-6762ae3426a5,7ce22c74-519a-11ea-985e-af29fe146fff
7ce1e0a2-519a-11ea-86d5-9f3722c36d35,7ce24024-519a-11ea-a952-aba400b1d11c
7cdfb8e0-519a-11ea-9469-c7f070696e78,7ce24e16-519a-11ea-a025-ab9f66024464
7ce06c9a-519a-11ea-bf66-1739accf09a6,7ce273dc-519a-11ea-a731-2f6a92ecc5c9
7cdef25c-519a-11ea-8bb3-3fe8e742d8b2,7ce2b978-519a-11ea-b688-7f9b69df0764
7ce1d04e-519a-11ea-a3be-674f60ff977a,7ce2dafc-519a-11ea-9a03-8b7ea9cb829e
7ce102fe-519a-11ea-98bb-ff53bbd21a01,7ce2f5b4-519a-11ea-a1e2-aff6537edf20
7ce06c9a-519a-11ea-bf66-1739accf09a6,7ce31526-519a-11ea-878f-6f95358b956b
7ce0ec92-519a-11ea-afcb-8b489dbdbd1b,7ce327d2-519a-11ea-8556-53f414c9aa45
7cdf23bc-519a-11ea-836f-479594cba787,7ce339a2-519a-11ea-89be-7fb9739d84ea
7ce0ec92-519a-11ea-afcb-8b489dbdbd1b,7ce3a004-519a-11ea-a46e-23889362693b
7ce0dd4c-519a-11ea-956b-bbf7b551e4cc,7ce3b4f4-519a-11ea-a31b-eb5f7375c0d6
7ce102fe-519a-11ea-98bb-ff53bbd21a01,7ce3c6a6-519a-11ea-8079-7bf74ef8f423
7ce102fe-519a-11ea-98bb-ff53bbd21a01,7ce3d894-519a-11ea-8d3c-2fa485aa3e48
7ce339a2-519a-11ea-89be-7fb9739d84ea,7ce418b8-519a-11ea-abe3-ff32ca4317b3
7cdff97c-519a-11ea-8cd9-5fa28c44ec98,7ce448b0-519a-11ea-b0ad-7f562faddc01
7ce1141a-519a-11ea-9beb-af2ed50da092,7ce47614-519a-11ea-9ed4-17dd505aedc1
7ce3b4f4-519a-11ea-a31b-eb5f7375c0d6,7ce495d6-519a-11ea-804e-f764d5db909f
7ce3c6a6-519a-11ea-8079-7bf74ef8f423,7ce4d262-519a-11ea-bc6f-3b7a7aecec3d
7ce03c16-519a-11ea-bf28-b7c381daeb18,7ce4aeea-519a-11ea-b007-0bb74011eff6
7ce06c9a-519a-11ea-bf66-1739accf09a6,7ce53388-519a-11ea-b1e2-dbd7f39966c5
7ce448b0-519a-11ea-b0ad-7f562faddc01,7ce569e8-519a-11ea-a3b6-6fd8922e6f8f
7ce1141a-519a-11ea-9beb-af2ed50da092,7ce5828e-519a-11ea-8104-3f942fb833ab
7ce53388-519a-11ea-b1e2-dbd7f39966c5,7ce5b088-519a-11ea-ba20-371af69478f7
7ce495d6-519a-11ea-804e-f764d5db909f,7ce5c384-519a-11ea-9b05-534cd5f19894
7ce1e0a2-519a-11ea-86d5-9f3722c36d35,7ce5df18-519a-11ea-9e4d-a3c37aa7a855
7ce102fe-519a-11ea-98bb-ff53bbd21a01,7ce5f8fe-519a-11ea-9bda-a7fa9d753bf9
7cdff97c-519a-11ea-8cd9-5fa28c44ec98,7ce6268a-519a-11ea-8e93-778955202d90
7ce2b978-519a-11ea-b688-7f9b69df0764,7ce64002-519a-11ea-b662-0fd5db1e3653
7ce0dd4c-519a-11ea-956b-bbf7b551e4cc,7ce65a38-519a-11ea-b765-178f5e896bb5
7ce1141a-519a-11ea-9beb-af2ed50da092,7ce67522-519a-11ea-bd1c-8f44d5de6bac
7cdef25c-519a-11ea-8bb3-3fe8e742d8b2,7ce69804-519a-11ea-affb-4f22c828df69
7ce3b4f4-519a-11ea-a31b-eb5f7375c0d6,7ce6d44a-519a-11ea-b38a-2bb6d5237a42
7ce53388-519a-11ea-b1e2-dbd7f39966c5,7ce6eb9c-519a-11ea-95ac-5f10eb79d6b8
7ce339a2-519a-11ea-89be-7fb9739d84ea,7ce6ff42-519a-11ea-9506-3f313957f1fd
7cdf378a-519a-11ea-ad48-3bad0407a0ef,7ce77788-519a-11ea-bca9-3fe53f75fc83
7ce31526-519a-11ea-878f-6f95358b956b,7ce78caa-519a-11ea-b63a-ffa66352a892
7ce5b088-519a-11ea-ba20-371af69478f7,7ce7a316-519a-11ea-80eb-e3918c12ceaf
7ce1d04e-519a-11ea-a3be-674f60ff977a,7ce7b446-519a-11ea-aa50-9368effc97f1
7cdfb8e0-519a-11ea-9469-c7f070696e78,7ce805a4-519a-11ea-8466-87b3909214ee
7ce6d44a-519a-11ea-b38a-2bb6d5237a42,7ce819f4-519a-11ea-9ee1-831a326884d4
7ce1d04e-519a-11ea-a3be-674f60ff977a,7ce82d72-519a-11ea-8c8f-6780223f0d0c
7ce4aeea-519a-11ea-b007-0bb74011eff6,7ce840f0-519a-11ea-955f-43b6d510334c
7ce03c16-519a-11ea-bf28-b7c381daeb18,7ce8a8ba-519a-11ea-a342-6f8143c0b928
7ce03c16-519a-11ea-bf28-b7c381daeb18,7ce8c07a-519a-11ea-a3d1-9334affff165
7ce2b978-519a-11ea-b688-7f9b69df0764,7ce8e6ea-519a-11ea-b91c-e349107fa013
7cdfb8e0-519a-11ea-9469-c7f070696e78,7ce8f70c-519a-11ea-b1ab-37b5718456da
7ce67522-519a-11ea-bd1c-8f44d5de6bac,7ce9562a-519a-11ea-a62b-6f7ef0a8cf34
7ce4d262-519a-11ea-bc6f-3b7a7aecec3d,7ce96a5c-519a-11ea-bb74-4f6ca663d17c
7ce6ff42-519a-11ea-9506-3f313957f1fd,7ce97d26-519a-11ea-ba42-8f951ac1267a
7ce160dc-519a-11ea-b4ba-bb3ec4c4bd1a,7ce99266-519a-11ea-aa40-bf88f7198ec4
7ce7a316-519a-11ea-80eb-e3918c12ceaf,7ce9d2ee-519a-11ea-911b-9be2b223eafb
7ce06c9a-519a-11ea-bf66-1739accf09a6,7ce9f756-519a-11ea-8839-bf942d58bc64
7ce64002-519a-11ea-b662-0fd5db1e3653,7cea0aa2-519a-11ea-9906-d319e8fe8148
7ce53388-519a-11ea-b1e2-dbd7f39966c5,7cea4d78-519a-11ea-9c1a-8b63ea04005a
7ce418b8-519a-11ea-abe3-ff32ca4317b3,7cea7a96-519a-11ea-a1d2-d35ef3fb0d76
7ce0ec92-519a-11ea-afcb-8b489dbdbd1b,7ceaa232-519a-11ea-86b6-87095f4422fb
7ce1e0a2-519a-11ea-86d5-9f3722c36d35,7ceac532-519a-11ea-b973-e793ddbf0cdc
7ce327d2-519a-11ea-8556-53f414c9aa45,7ceb2338-519a-11ea-b2fc-8f47316bf84b
7ce819f4-519a-11ea-9ee1-831a326884d4,7ceb4318-519a-11ea-ad48-2384b1f00709
7ce3b4f4-519a-11ea-a31b-eb5f7375c0d6,7ceb57ae-519a-11ea-8012-3bd58fe1bcf4
7ce8f70c-519a-11ea-b1ab-37b5718456da,7ceb736a-519a-11ea-b0c7-db16743e04cb
7ce2b978-519a-11ea-b688-7f9b69df0764,7ceb9318-519a-11ea-8242-b7af41c51bcb
7ce4d262-519a-11ea-bc6f-3b7a7aecec3d,7cebcf40-519a-11ea-99d1-c7a2080f3f6f
7ce67522-519a-11ea-bd1c-8f44d5de6bac,7cebebb0-519a-11ea-a618-9329e109f23a
7ce448b0-519a-11ea-b0ad-7f562faddc01,7cec0230-519a-11ea-85b1-efee470f521d
7ce6ff42-519a-11ea-9506-3f313957f1fd,7cec140a-519a-11ea-84bc-b7c31523d326
7ce99266-519a-11ea-aa40-bf88f7198ec4,7cec4b64-519a-11ea-baca-d7a91b85cb5a
7ce102fe-519a-11ea-98bb-ff53bbd21a01,7cec6c70-519a-11ea-9658-6bc882a28a4c
7ce04e40-519a-11ea-bab5-6762ae3426a5,7cec8bec-519a-11ea-86a8-9fc7b0e64ada
7ce102fe-519a-11ea-98bb-ff53bbd21a01,7cec9e3e-519a-11ea-b692-27b01030b405
7ce97d26-519a-11ea-ba42-8f951ac1267a,7cecdd18-519a-11ea-b372-cfd7391aef17
7ce22c74-519a-11ea-985e-af29fe146fff,7ced06e4-519a-11ea-9169-cf46f288017c
7ce339a2-519a-11ea-89be-7fb9739d84ea,7ced2098-519a-11ea-b4d6-131611e2f4fc
7ce53388-519a-11ea-b1e2-dbd7f39966c5,7ced509a-519a-11ea-ac0b-e322aed61da5
7ce448b0-519a-11ea-b0ad-7f562faddc01,7ced8236-519a-11ea-8e88-6f1da49b4746
7ce21c16-519a-11ea-97ad-973b210a51ca,7ceda02c-519a-11ea-860f-4fe2525805ec
7ce9562a-519a-11ea-a62b-6f7ef0a8cf34,7cedb0da-519a-11ea-bece-2774b33c7552
7ced2098-519a-11ea-b4d6-131611e2f4fc,7cedc3fe-519a-11ea-abeb-0784023a7529
7cebebb0-519a-11ea-a618-9329e109f23a,7cee02e2-519a-11ea-a3c9-4bd1ebf048b2
7ce99266-519a-11ea-aa40-bf88f7198ec4,7cee3582-519a-11ea-bc80-2fc1bfd1a038
7ce77788-519a-11ea-bca9-3fe53f75fc83,7cee5fb2-519a-11ea-807f-43189d37f961
7ce64002-519a-11ea-b662-0fd5db1e3653,7cee8d52-519a-11ea-a1f6-1fa12f771d92
7ce78caa-519a-11ea-b63a-ffa66352a892,7ceedcf8-519a-11ea-a16b-578fe32b868c
7cedb0da-519a-11ea-bece-2774b33c7552,7ceef634-519a-11ea-834a-8ffa97464db6
7ce97d26-519a-11ea-ba42-8f951ac1267a,7cef09e4-519a-11ea-8826-ef080791c357
7ce1d04e-519a-11ea-a3be-674f60ff977a,7cef1e2a-519a-11ea-baba-bf0ff7c24098
7ce273dc-519a-11ea-a731-2f6a92ecc5c9,7cef73c0-519a-11ea-bc1e-375c4fc5d6a4
7ced06e4-519a-11ea-9169-cf46f288017c,7cef9602-519a-11ea-91e7-fb7368c46730
7ce97d26-519a-11ea-ba42-8f951ac1267a,7cefb7ea-519a-11ea-a613-13b18292bf13
7cee5fb2-519a-11ea-807f-43189d37f961,7cefcd8e-519a-11ea-89fb-c3219c55b8e8
7ce7b446-519a-11ea-aa50-9368effc97f1,7cefec7e-519a-11ea-b5e8-573ad31f221b
7cee8d52-519a-11ea-a1f6-1fa12f771d92,7cf03486-519a-11ea-aa05-83d9eab09ec2
7ce819f4-519a-11ea-9ee1-831a326884d4,7cf04b74-519a-11ea-b019-f7eb48051c43
7ce69804-519a-11ea-affb-4f22c828df69,7cf08c56-519a-11ea-b1ff-73b52cb7bc65
7cea7a96-519a-11ea-a1d2-d35ef3fb0d76,7cf0ae84-519a-11ea-8fb6-b37faecdd420
7ce65a38-519a-11ea-b765-178f5e896bb5,7cf0ca18-519a-11ea-9a16-0f62d969db04
7ce7b446-519a-11ea-aa50-9368effc97f1,7cf0f9d4-519a-11ea-808d-5bbb18e6f35e
7cea7a96-519a-11ea-a1d2-d35ef3fb0d76,7cf147ae-519a-11ea-a5bb-8fa72f4df33d
7cea4d78-519a-11ea-9c1a-8b63ea04005a,7cf165d6-519a-11ea-bb52-17495af7c81e
7ceedcf8-519a-11ea-a16b-578fe32b868c,7cf18566-519a-11ea-883e-2ff7ab744efa
7ce160dc-519a-11ea-b4ba-bb3ec4c4bd1a,7cf1ca12-519a-11ea-82f5-1392ef353e60
7cf18566-519a-11ea-883e-2ff7ab744efa,7cf1dd36-519a-11ea-a824-7b05aebc6b78
7ce21c16-519a-11ea-97ad-973b210a51ca,7cf1f014-519a-11ea-a588-13b3be77c9c1
7ce6eb9c-519a-11ea-95ac-5f10eb79d6b8,7cf22ea8-519a-11ea-9186-e325b18185e5
7ce418b8-519a-11ea-abe3-ff32ca4317b3,7cf25acc-519a-11ea-8883-7bb787fbd40f
7cef73c0-519a-11ea-bc1e-375c4fc5d6a4,7cf27002-519a-11ea-88bd-dba5f158c3c6
7ce8f70c-519a-11ea-b1ab-37b5718456da,7cf297bc-519a-11ea-b6fa-73e13ed5c0f5
7ce9f756-519a-11ea-8839-bf942d58bc64,7cf3071a-519a-11ea-8ee0-77d67c2703b1
7cdff97c-519a-11ea-8cd9-5fa28c44ec98,7cf3202e-519a-11ea-8322-c3dda5ac388c
7ce0c992-519a-11ea-9403-ebdbb30f4e47,7cf33a46-519a-11ea-8f35-47d14de2fc2a
7ce24024-519a-11ea-a952-aba400b1d11c,7cf352f6-519a-11ea-bc17-1f6e0b062a60
7ce82d72-519a-11ea-8c8f-6780223f0d0c,7cf3a45e-519a-11ea-b704-2326ac059e22
7ce8f70c-519a-11ea-b1ab-37b5718456da,7cf3b9ee-519a-11ea-b9cd-b798df9de427
7ce160dc-519a-11ea-b4ba-bb3ec4c4bd1a,7cf3cbbe-519a-11ea-84f8-8bb4cc3433fb
7ce102fe-519a-11ea-98bb-ff53bbd21a01,7cf3fc42-519a-11ea-9018-43bd0492895d
7ce5f8fe-519a-11ea-9bda-a7fa9d753bf9,7cf43ac2-519a-11ea-ab3a-d3f5b13835bc
7cf08c56-519a-11ea-b1ff-73b52cb7bc65,7cf46740-519a-11ea-a1b6-b30b8df66192
7cf3fc42-519a-11ea-9018-43bd0492895d,7cf495bc-519a-11ea-8223-1f97f761b444
7ce64002-519a-11ea-b662-0fd5db1e3653,7cf4b010-519a-11ea-a4fd-971d63152fa5
7ce1e0a2-519a-11ea-86d5-9f3722c36d35,7cf4c24e-519a-11ea-9bfc-6bb0971235b1
7ce82d72-519a-11ea-8c8f-6780223f0d0c,7cf4e134-519a-11ea-a88f-1f67a68e4a97
7ce17252-519a-11ea-ae37-ef880403b87a,7cf51550-519a-11ea-85fb-5bf35116cfc9
7ceb57ae-519a-11ea-8012-3bd58fe1bcf4,7cf54994-519a-11ea-bb78-13a1826211eb
7cecdd18-519a-11ea-b372-cfd7391aef17,7cf561fe-519a-11ea-958c-afce910f3342
7cf1dd36-519a-11ea-a824-7b05aebc6b78,7cf5835a-519a-11ea-ad39-53053bb26220
7cf352f6-519a-11ea-bc17-1f6e0b062a60,7cf5bd3e-519a-11ea-a846-7b5a7f235a9e
7cf3fc42-519a-11ea-9018-43bd0492895d,7cf5d09e-519a-11ea-b475-cbb616684420
7ce0ec92-519a-11ea-afcb-8b489dbdbd1b,7cf610d6-519a-11ea-9726-3be5402faac2
7ce4d262-519a-11ea-bc6f-3b7a7aecec3d,7cf62b16-519a-11ea-8c79-b34310ea186b
7cec0230-519a-11ea-85b1-efee470f521d,7cf657c6-519a-11ea-acc0-b7f7ebb570cd
7cf3071a-519a-11ea-8ee0-77d67c2703b1,7cf6c652-519a-11ea-9e03-3bfcb32fa125
7cf5d09e-519a-11ea-b475-cbb616684420,7cf6e3d0-519a-11ea-b96d-931f5be6c863
7cdf23bc-519a-11ea-836f-479594cba787,7cf6ed76-519a-11ea-9a4c-ef93725275ff
7ced06e4-519a-11ea-9169-cf46f288017c,7cf701a8-519a-11ea-b268-fbdd1dbdd6b7
7cec6c70-519a-11ea-9658-6bc882a28a4c,7cf75162-519a-11ea-9909-03d3395fafe0
7ce03c16-519a-11ea-bf28-b7c381daeb18,7cf77aca-519a-11ea-acbb-cb1e3f2ab4bf
7ce2f5b4-519a-11ea-a1e2-aff6537edf20,7cf78e66-519a-11ea-b767-9f2ca0415e7b
7cf4c24e-519a-11ea-9bfc-6bb0971235b1,7cf7a8c4-519a-11ea-91a6-73cb8288d26f
7cf0ae84-519a-11ea-8fb6-b37faecdd420,7cf7db82-519a-11ea-853a-83eed6ded3ab
7ce339a2-519a-11ea-89be-7fb9739d84ea,7cf80274-519a-11ea-9e0b-33efbbbd4552
7ce03c16-519a-11ea-bf28-b7c381daeb18,7cf81d54-519a-11ea-8a28-5f0cc4395b6c
7cee8d52-519a-11ea-a1f6-1fa12f771d92,7cf83e4c-519a-11ea-a810-c32ce6a534ab
7ce6eb9c-519a-11ea-95ac-5f10eb79d6b8,7cf87970-519a-11ea-9de6-6712b681860b
7ce327d2-519a-11ea-8556-53f414c9aa45,7cf8986a-519a-11ea-994f-1bf4c14fd372
7cf75162-519a-11ea-9909-03d3395fafe0,7cf8aabc-519a-11ea-9348-afefb1f743d5
7ce7a316-519a-11ea-80eb-e3918c12ceaf,7cf8d550-519a-11ea-a54d-ffa4bea7a8d0
7ce78caa-519a-11ea-b63a-ffa66352a892,7cf8f1c0-519a-11ea-bf7a-838206ff0445
7cf1dd36-519a-11ea-a824-7b05aebc6b78,7cf90854-519a-11ea-b225-0bfd379e28b1
7ce8f70c-519a-11ea-b1ab-37b5718456da,7cf95692-519a-11ea-9c91-a7a741c0744d
7ce7a316-519a-11ea-80eb-e3918c12ceaf,7cf96880-519a-11ea-9958-6787cbb4a015
7ce4aeea-519a-11ea-b007-0bb74011eff6,7cf9792e-519a-11ea-bf56-3b7ddebca1da
7cf147ae-519a-11ea-a5bb-8fa72f4df33d,7cf98c34-519a-11ea-b418-fba61e459b1e
7ce53388-519a-11ea-b1e2-dbd7f39966c5,7cf9c01e-519a-11ea-a81d-5bc1129f4b0c
7cf6c652-519a-11ea-9e03-3bfcb32fa125,7cf9d3e2-519a-11ea-9de4-2fe7e7b0c7ef
7ce7a316-519a-11ea-80eb-e3918c12ceaf,7cfa1bb8-519a-11ea-9ba7-4b6aff50c4ff
7cf1ca12-519a-11ea-82f5-1392ef353e60,7cfa4dea-519a-11ea-91b0-33153953a967
7cf18566-519a-11ea-883e-2ff7ab744efa,7cfa64f6-519a-11ea-9fba-172d1f9ffe81
7cf96880-519a-11ea-9958-6787cbb4a015,7cfa8710-519a-11ea-8e44-77cbccd2ecee
7cf4b010-519a-11ea-a4fd-971d63152fa5,7cfaa132-519a-11ea-8776-17909553a2b8
7cf90854-519a-11ea-b225-0bfd379e28b1,7cfac356-519a-11ea-97ec-2f70592d7399
7cf1ca12-519a-11ea-82f5-1392ef353e60,7cfaff4c-519a-11ea-be15-0718ffc7d73a
7cf51550-519a-11ea-85fb-5bf35116cfc9,7cfb1aae-519a-11ea-80cb-b7f11ca5d42d
7ce8a8ba-519a-11ea-a342-6f8143c0b928,7cfb5852-519a-11ea-83ca-373368d23195
7ce0ec92-519a-11ea-afcb-8b489dbdbd1b,7cfb6b08-519a-11ea-be2f-5b647306196c
7ce96a5c-519a-11ea-bb74-4f6ca663d17c,7cfb8cfa-519a-11ea-8e26-072ea3d1aa24
7cef9602-519a-11ea-91e7-fb7368c46730,7cfbd6b0-519a-11ea-8fbf-5fdbdb5dff98
7cf6c652-519a-11ea-9e03-3bfcb32fa125,7cfc45e6-519a-11ea-adb5-4fb13837efc8
7ce273dc-519a-11ea-a731-2f6a92ecc5c9,7cfc2fde-519a-11ea-b356-ab2301125e9d
7cedc3fe-519a-11ea-abeb-0784023a7529,7cfc590a-519a-11ea-ad45-33ebd99e142d
7cdf378a-519a-11ea-ad48-3bad0407a0ef,7cfc7016-519a-11ea-a0a9-cf37e47f44f9
7cf77aca-519a-11ea-acbb-cb1e3f2ab4bf,7cfccf8e-519a-11ea-832f-27066414f678
7ce273dc-519a-11ea-a731-2f6a92ecc5c9,7cfceac8-519a-11ea-a5e6-bbccfe68c7a5
7ceef634-519a-11ea-834a-8ffa97464db6,7cfcfe5a-519a-11ea-8a0b-1381fed1162f
7ceb736a-519a-11ea-b0c7-db16743e04cb,7cfd60a2-519a-11ea-a340-3f87bd5511e3
7ceef634-519a-11ea-834a-8ffa97464db6,7cfd7222-519a-11ea-a721-272bbcbb7190
7cf75162-519a-11ea-9909-03d3395fafe0,7cfd86ae-519a-11ea-872c-2ba34c4e84f9
7ce0dd4c-519a-11ea-956b-bbf7b551e4cc,7cfd9b76-519a-11ea-9e26-33e2a00b3a02
7ce327d2-519a-11ea-8556-53f414c9aa45,7cfdde92-519a-11ea-8d6e-a3c1bc987ada
7cef9602-519a-11ea-91e7-fb7368c46730,7cfdf350-519a-11ea-ab59-37bcbb563748
7ce3a004-519a-11ea-a46e-23889362693b,7cfe04ee-519a-11ea-931d-0b125fc5e05c
7ce9562a-519a-11ea-a62b-6f7ef0a8cf34,7cfe45d0-519a-11ea-9062-a7e04166b0cf
7cf08c56-519a-11ea-b1ff-73b52cb7bc65,7cfea28c-519a-11ea-b623-4bec991e71ca
7cf3b9ee-519a-11ea-b9cd-b798df9de427,7cfeb786-519a-11ea-b46c-7b04cc0d54b1
7cee02e2-519a-11ea-a3c9-4bd1ebf048b2,7cfecb7c-519a-11ea-adf2-f3da32e906af
7ce3d894-519a-11ea-8d3c-2fa485aa3e48,7cff09b6-519a-11ea-af87-0b439ae266bf
7cfcfe5a-519a-11ea-8a0b-1381fed1162f,7cff2216-519a-11ea-8025-e7c275ed8a59
7ceb4318-519a-11ea-ad48-2384b1f00709,7cff35c6-519a-11ea-b530-6f2defec1fb6
7ce96a5c-519a-11ea-bb74-4f6ca663d17c,7cff8490-519a-11ea-b2a6-630017c82c2a
7ce19b10-519a-11ea-94bc-a37a61a45c97,7cffa830-519a-11ea-9226-a748869927b7
7cef73c0-519a-11ea-bc1e-375c4fc5d6a4,7cffcc34-519a-11ea-9a93-7b5f1ccf5531
7ce04e40-519a-11ea-bab5-6762ae3426a5,7cffee4e-519a-11ea-8547-a396a391a268
7cffcc34-519a-11ea-9a93-7b5f1ccf5531,7d000b2c-519a-11ea-801d-cbddb17a5ae8
7cf95692-519a-11ea-9c91-a7a741c0744d,7d001fb8-519a-11ea-9f32-5b4c429c9200
7cf22ea8-519a-11ea-9186-e325b18185e5,7d004d9e-519a-11ea-9c10-1bbe96f2f5e6
7cec6c70-519a-11ea-9658-6bc882a28a4c,7d0070f8-519a-11ea-9179-7fe8e308c100
7ce4d262-519a-11ea-bc6f-3b7a7aecec3d,7d009bd2-519a-11ea-9a2c-c3f5331f08dd
7ce9d2ee-519a-11ea-911b-9be2b223eafb,7d00dff2-519a-11ea-93d0-ef42c33ea802
7ce0ec92-519a-11ea-afcb-8b489dbdbd1b,7d00b25c-519a-11ea-81ba-2bca6157a5df
7cff09b6-519a-11ea-af87-0b439ae266bf,7d013a24-519a-11ea-bdf0-5b8d43afe8d8
7ceedcf8-519a-11ea-a16b-578fe32b868c,7d019924-519a-11ea-9eab-c396384398bc
7cea0aa2-519a-11ea-9906-d319e8fe8148,7d0177e6-519a-11ea-a2ca-9f1408a92f2d
7cf7a8c4-519a-11ea-91a6-73cb8288d26f,7d01b3be-519a-11ea-bb08-fbb049183809
7cfc7016-519a-11ea-a0a9-cf37e47f44f9,7d020288-519a-11ea-a31d-4f2aeb4cd0c5
7cff2216-519a-11ea-8025-e7c275ed8a59,7d0227a4-519a-11ea-98ed-eff3b45f449a
7ce9f756-519a-11ea-8839-bf942d58bc64,7d028b2c-519a-11ea-ae53-8b7fc3545873
7cfc590a-519a-11ea-ad45-33ebd99e142d,7d02bd54-519a-11ea-9908-0bcf1049810c
7cedc3fe-519a-11ea-abeb-0784023a7529,7d02f13e-519a-11ea-9ffd-d3ef882c670a
7d000b2c-519a-11ea-801d-cbddb17a5ae8,7d02f116-519a-11ea-92cb-434d2380dff1
7cee3582-519a-11ea-bc80-2fc1bfd1a038,7d031970-519a-11ea-a735-576f8a04c42e
7ce6d44a-519a-11ea-b38a-2bb6d5237a42,7d03a46c-519a-11ea-aa97-2fda8cf74e26
7cf33a46-519a-11ea-8f35-47d14de2fc2a,7d03c35c-519a-11ea-8a51-973ad39ec15d
7cf46740-519a-11ea-a1b6-b30b8df66192,7d03df90-519a-11ea-88b5-fbaee58493df
7ce53388-519a-11ea-b1e2-dbd7f39966c5,7d03f958-519a-11ea-9999-937bca1dd8c3
7ce2dafc-519a-11ea-9a03-8b7ea9cb829e,7d0468c0-519a-11ea-89d7-1bac2fdf3ff9
7cf9c01e-519a-11ea-a81d-5bc1129f4b0c,7d04851c-519a-11ea-87ad-470e5d62d203
7cf8986a-519a-11ea-994f-1bf4c14fd372,7d04a84e-519a-11ea-968a-53c0a6cad2a5
7d009bd2-519a-11ea-9a2c-c3f5331f08dd,7d04edd6-519a-11ea-8fd1-9b8c8b4b0741
7ce5b088-519a-11ea-ba20-371af69478f7,7d05047e-519a-11ea-a835-cb231552b93c
7ce22c74-519a-11ea-985e-af29fe146fff,7d051d56-519a-11ea-944b-236f637d5ed8
7ce47614-519a-11ea-9ed4-17dd505aedc1,7d0555f0-519a-11ea-b8ea-476cec53c8bf
7cf6ed76-519a-11ea-9a4c-ef93725275ff,7d05768e-519a-11ea-87a2-ebe15943e77c
7cfd60a2-519a-11ea-a340-3f87bd5511e3,7d05a564-519a-11ea-b6f9-636082cee9ae
7ce7b446-519a-11ea-aa50-9368effc97f1,7d05baae-519a-11ea-8d92-5733c5c642a0
7cfcfe5a-519a-11ea-8a0b-1381fed1162f,7d060068-519a-11ea-9535-a75aacd37625
7cdf0ab2-519a-11ea-a0d9-8fa911e6155c,7d063506-519a-11ea-b647-1f1eb3b353fd
7ce339a2-519a-11ea-89be-7fb9739d84ea,7d06937a-519a-11ea-a258-9754f1a99030
7cedc3fe-519a-11ea-abeb-0784023a7529,7d06aa90-519a-11ea-9b6f-3f3a2af91afb
7cf5835a-519a-11ea-ad39-53053bb26220,7d06dfb0-519a-11ea-b366-67077ed1ebd7
7cf4b010-519a-11ea-a4fd-971d63152fa5,7d071868-519a-11ea-b031-ff6c01d68176
7cf701a8-519a-11ea-b268-fbdd1dbdd6b7,7d075da0-519a-11ea-a2b5-e3a77821c9ed
7cf0f9d4-519a-11ea-808d-5bbb18e6f35e,7d07a260-519a-11ea-b66b-5b78cca730b5
7cf0ae84-519a-11ea-8fb6-b37faecdd420,7d07cc86-519a-11ea-96f4-53be4367b924
7cf51550-519a-11ea-85fb-5bf35116cfc9,7d07e73e-519a-11ea-92c9-5ffecb5dd882
7ce3b4f4-519a-11ea-a31b-eb5f7375c0d6,7d07fa12-519a-11ea-a855-875dda93fcad
7cf54994-519a-11ea-bb78-13a1826211eb,7d085cf0-519a-11ea-9b43-f3d0cb8175e6
7cfeb786-519a-11ea-b46c-7b04cc0d54b1,7d087244-519a-11ea-b9c1-8f4df8dfa10b
7cec4b64-519a-11ea-baca-d7a91b85cb5a,7d089c9c-519a-11ea-8eb8-57d51a432104
7d071868-519a-11ea-b031-ff6c01d68176,7d08b844-519a-11ea-8374-db3ade5b1871
7d07cc86-519a-11ea-96f4-53be4367b924,7d092694-519a-11ea-93a1-e7aa65d4a8e1
7ce569e8-519a-11ea-a3b6-6fd8922e6f8f,7d096672-519a-11ea-92c9-d7bc7c436c87
7cfaff4c-519a-11ea-be15-0718ffc7d73a,7d094ebc-519a-11ea-b697-7fa88e447bfc
7cf7db82-519a-11ea-853a-83eed6ded3ab,7d097f4a-519a-11ea-81f8-6b7507bc73de
7ce53388-519a-11ea-b1e2-dbd7f39966c5,7d09eb4c-519a-11ea-b69e-d31224ffdd44
7cfb1aae-519a-11ea-80cb-b7f11ca5d42d,7d0a085c-519a-11ea-8f6a-cb8a1afee0f1
7d03c35c-519a-11ea-8a51-973ad39ec15d,7d0a2bde-519a-11ea-a10e-7b394c858259
7ce6ff42-519a-11ea-9506-3f313957f1fd,7d0a4434-519a-11ea-b09c-2b576f70f7d6
7d06937a-519a-11ea-a258-9754f1a99030,7d0a8386-519a-11ea-9db9-9f6c0be0a633
7cf83e4c-519a-11ea-a810-c32ce6a534ab,7d0abeaa-519a-11ea-b37f-c3dba8235a62
7ce4d262-519a-11ea-bc6f-3b7a7aecec3d,7d0af3e8-519a-11ea-b2c6-43ed9358b854
7cfa4dea-519a-11ea-91b0-33153953a967,7d0b0cc0-519a-11ea-a0c1-c7f1696ad54e
7ce418b8-519a-11ea-abe3-ff32ca4317b3,7d0b3164-519a-11ea-95c0-53d8c91b39d2
7d013a24-519a-11ea-bdf0-5b8d43afe8d8,7d0ba0f4-519a-11ea-b48a-9fa846be13b1
7cf3071a-519a-11ea-8ee0-77d67c2703b1,7d0bb76a-519a-11ea-b21a-6ffc0909ecd1
7ce819f4-519a-11ea-9ee1-831a326884d4,7d0bdb5a-519a-11ea-b86e-83c3bf0c8869
7cef9602-519a-11ea-91e7-fb7368c46730,7d0bf0fe-519a-11ea-b043-67f89b13d96d
7cf9c01e-519a-11ea-a81d-5bc1129f4b0c,7d0c4130-519a-11ea-bafb-ef4b140e3e6a
7d06dfb0-519a-11ea-b366-67077ed1ebd7,7d0c5cd8-519a-11ea-9035-af81a65bfba0
7ce4aeea-519a-11ea-b007-0bb74011eff6,7d0c9b62-519a-11ea-86ce-9f9a6b5631e8
7ce182a6-519a-11ea-8645-3bbd171da949,7d0ccd94-519a-11ea-a876-dfb10c4cec0f
7cefcd8e-519a-11ea-89fb-c3219c55b8e8,7d0d085e-519a-11ea-9048-ab763163e269
7cec8bec-519a-11ea-86a8-9fc7b0e64ada,7d0d1c68-519a-11ea-8824-3b8631e03906
7cfe45d0-519a-11ea-9062-a7e04166b0cf,7d0d3158-519a-11ea-9bb6-17ee7355b833
7cfc45e6-519a-11ea-adb5-4fb13837efc8,7d0d4e18-519a-11ea-9830-db1636778a51
7cf4c24e-519a-11ea-9bfc-6bb0971235b1,7d0d6e66-519a-11ea-98cb-6bedb23c2472
7d028b2c-519a-11ea-ae53-8b7fc3545873,7d0db042-519a-11ea-b107-03f98c171ef3
7ced8236-519a-11ea-8e88-6f1da49b4746,7d0dd162-519a-11ea-b55f-2f57fa0b5cc9
7cdf0ab2-519a-11ea-a0d9-8fa911e6155c,7d0de9f4-519a-11ea-bb29-5f7e0be76e7e
7cf33a46-519a-11ea-8f35-47d14de2fc2a,7d0e34a4-519a-11ea-819c-ff34c43f0405
7ced509a-519a-11ea-ac0b-e322aed61da5,7d0e58ee-519a-11ea-8648-1b16825bef8e
7d04a84e-519a-11ea-968a-53c0a6cad2a5,7d0e7428-519a-11ea-bf2f-b3e3c8986cc0
7d0177e6-519a-11ea-a2ca-9f1408a92f2d,7d0ebece-519a-11ea-b677-ab0e81c47f36
7d05047e-519a-11ea-a835-cb231552b93c,7d0f0564-519a-11ea-b194-1b444e2b0434
7cf08c56-519a-11ea-b1ff-73b52cb7bc65,7d0f1dd8-519a-11ea-be1a-c7853dad05f6
7ce6268a-519a-11ea-8e93-778955202d90,7d0f2fe4-519a-11ea-949d-2b3579305ca2
7cefcd8e-519a-11ea-89fb-c3219c55b8e8,7d0f43bc-519a-11ea-9d9d-3f224312d7cb
7cfa8710-519a-11ea-8e44-77cbccd2ecee,7d0f850c-519a-11ea-8411-b35bd1aadf43
7cf3a45e-519a-11ea-b704-2326ac059e22,7d0fb5a4-519a-11ea-92fc-13cffa148e3d
7d020288-519a-11ea-a31d-4f2aeb4cd0c5,7d0fd6ce-519a-11ea-8c50-47d33996b83f
7ce819f4-519a-11ea-9ee1-831a326884d4,7d0fe97a-519a-11ea-8192-5f9032bf9923
7ce1141a-519a-11ea-9beb-af2ed50da092,7d100568-519a-11ea-8b3f-ef3d3cb23693
7d04edd6-519a-11ea-8fd1-9b8c8b4b0741,7d106db4-519a-11ea-96a8-23dd5a4e94d9
7cfcfe5a-519a-11ea-8a0b-1381fed1162f,7d10861e-519a-11ea-a7a3-9f236c7978ad
7ce0dd4c-519a-11ea-956b-bbf7b551e4cc,7d10a3b0-519a-11ea-839e-07899f03fd27
7cee5fb2-519a-11ea-807f-43189d37f961,7d10b986-519a-11ea-ba41-bff36cd166d6
7ce8c07a-519a-11ea-a3d1-9334affff165,7d11420c-519a-11ea-a5be-3f8a8943d7f5
7cef1e2a-519a-11ea-baba-bf0ff7c24098,7d115b66-519a-11ea-b183-d7bc106fb3d2
7ce53388-519a-11ea-b1e2-dbd7f39966c5,7d117344-519a-11ea-bdb6-5f7f257d226a
7d07cc86-519a-11ea-96f4-53be4367b924,7d1189ec-519a-11ea-a960-73147c05f9b4
7ce04e40-519a-11ea-bab5-6762ae3426a5,7d11ea0e-519a-11ea-ae7b-2fdadbd1c214
7ce21c16-519a-11ea-97ad-973b210a51ca,7d1227c6-519a-11ea-82b3-d3a1851f9afe
7d0a4434-519a-11ea-b09c-2b576f70f7d6,7d1247ce-519a-11ea-b34b-838464cc969e
7d0a4434-519a-11ea-b09c-2b576f70f7d6,7d127dca-519a-11ea-adf8-f38a612dc18f
7cea7a96-519a-11ea-a1d2-d35ef3fb0d76,7d12654c-519a-11ea-ab7a-3fd21d0c2f71
7ce6268a-519a-11ea-8e93-778955202d90,7d12d626-519a-11ea-a881-2330d997b2a6
7d04edd6-519a-11ea-8fd1-9b8c8b4b0741,7d131ef6-519a-11ea-a3ce-8740c7b03a70
7d0f0564-519a-11ea-b194-1b444e2b0434,7d130290-519a-11ea-8011-9f56625e85e7
7cec8bec-519a-11ea-86a8-9fc7b0e64ada,7d135ae2-519a-11ea-aa88-27c8d633ad98
7ce24e16-519a-11ea-a025-ab9f66024464,7d13b050-519a-11ea-b80f-e704367697cd
7cefec7e-519a-11ea-b5e8-573ad31f221b,7d13ce96-519a-11ea-bd76-af929b1c762c
7cfecb7c-519a-11ea-adf2-f3da32e906af,7d13f5ce-519a-11ea-9dca-5b8737302524
7cea0aa2-519a-11ea-9906-d319e8fe8148,7d142eae-519a-11ea-9441-2f976fd51b07
7d085cf0-519a-11ea-9b43-f3d0cb8175e6,7d149d3a-519a-11ea-86b5-63292162a60a
7d05047e-519a-11ea-a835-cb231552b93c,7d14ba86-519a-11ea-8eab-af6c54806234
7d12d626-519a-11ea-a881-2330d997b2a6,7d14eee8-519a-11ea-91c5-570e33f05bed
7d1189ec-519a-11ea-a960-73147c05f9b4,7d14d4bc-519a-11ea-b247-bb6f45580a53
7d14d4bc-519a-11ea-b247-bb6f45580a53,7d15672e-519a-11ea-9cae-5f6d8ab548e0
7cf27002-519a-11ea-88bd-dba5f158c3c6,7d1583b2-519a-11ea-891a-0bc5b151ef5a
7d031970-519a-11ea-a735-576f8a04c42e,7d159ed8-519a-11ea-a223-071a0ecf820c
7cfdde92-519a-11ea-8d6e-a3c1bc987ada,7d15ec8a-519a-11ea-b653-f3e93dafcf43
7cf81d54-519a-11ea-8a28-5f0cc4395b6c,7d161066-519a-11ea-8088-bb6a304c5b68
7d12d626-519a-11ea-a881-2330d997b2a6,7d162434-519a-11ea-8e07-9793303d2fbe
7d1247ce-519a-11ea-b34b-838464cc969e,7d163b36-519a-11ea-964e-530236238796
7cfd60a2-519a-11ea-a340-3f87bd5511e3,7d1696f8-519a-11ea-9492-433cf9b166e3
7ce1d04e-519a-11ea-a3be-674f60ff977a,7d16d366-519a-11ea-ab62-2f8b433962ed
7d10a3b0-519a-11ea-839e-07899f03fd27,7d17003e-519a-11ea-ac1e-43cc781267d0
7d019924-519a-11ea-9eab-c396384398bc,7d171420-519a-11ea-867b-1b8d7b0554ef
7ce339a2-519a-11ea-89be-7fb9739d84ea,7d1739e6-519a-11ea-967b-df390c1d000b
7ce2b978-519a-11ea-b688-7f9b69df0764,7d177668-519a-11ea-a30e-936bad3acd7c
7d000b2c-519a-11ea-801d-cbddb17a5ae8,7d178cfc-519a-11ea-b133-17a2a4fbddba
7cf33a46-519a-11ea-8f35-47d14de2fc2a,7d17d7d4-519a-11ea-a84c-43560bd5c54a
7cefec7e-519a-11ea-b5e8-573ad31f221b,7d17eeea-519a-11ea-88d1-e3518607bb9f
7d0c4130-519a-11ea-bafb-ef4b140e3e6a,7d1845de-519a-11ea-a89c-57f8e72d8ae6
7ce82d72-519a-11ea-8c8f-6780223f0d0c,7d18641a-519a-11ea-96e1-9b619c7deb1e
7cefec7e-519a-11ea-b5e8-573ad31f221b,7d1883dc-519a-11ea-b569-2b48e4524c40
7ce0ec92-519a-11ea-afcb-8b489dbdbd1b,7d18c4dc-519a-11ea-b9a7-07d92a0aff5b
7d1883dc-519a-11ea-b569-2b48e4524c40,7d18a48e-519a-11ea-9393-b31bec0b28a5
7ced509a-519a-11ea-ac0b-e322aed61da5,7d1909ce-519a-11ea-9134-9fcb973ea12c
7cf33a46-519a-11ea-8f35-47d14de2fc2a,7d1950c8-519a-11ea-a7f2-437e7bf60c6b
7cfe04ee-519a-11ea-931d-0b125fc5e05c,7d19704e-519a-11ea-879d-b79a36762113
7d075da0-519a-11ea-a2b5-e3a77821c9ed,7d198840-519a-11ea-91a4-ab2fa7e23304
7cf8aabc-519a-11ea-9348-afefb1f743d5,7d199a42-519a-11ea-9537-9f20b26af15e
7cfaff4c-519a-11ea-be15-0718ffc7d73a,7d19fe6a-519a-11ea-a2ea-43bbb33b293f
7d03f958-519a-11ea-9999-937bca1dd8c3,7d1a3d58-519a-11ea-8434-e7d65366c235
7cf80274-519a-11ea-9e0b-33efbbbd4552,7d1a5766-519a-11ea-bbf7-dfeebc8a6e68
7ce99266-519a-11ea-aa40-bf88f7198ec4,7d1a6b8e-519a-11ea-8647-5f0624e2fd6f
7cff2216-519a-11ea-8025-e7c275ed8a59,7d1aceee-519a-11ea-9dd6-63015c869719
7ce160dc-519a-11ea-b4ba-bb3ec4c4bd1a,7d1af6d0-519a-11ea-8e98-ab60384353ae
7d106db4-519a-11ea-96a8-23dd5a4e94d9,7d1b08d2-519a-11ea-a953-bfc79ed788f1
7ced509a-519a-11ea-ac0b-e322aed61da5,7d1b1c32-519a-11ea-8a6d-a7e372998527
7ced2098-519a-11ea-b4d6-131611e2f4fc,7d1b6764-519a-11ea-85dd-9b176a25e0c6
7d097f4a-519a-11ea-81f8-6b7507bc73de,7d1bd208-519a-11ea-85c4-3feec5877127
7d1af6d0-519a-11ea-8e98-ab60384353ae,7d1bf42c-519a-11ea-a6c9-df231b3bd9a5
7d135ae2-519a-11ea-aa88-27c8d633ad98,7d1c1e5c-519a-11ea-9c32-afc1993bf02f
7cf22ea8-519a-11ea-9186-e325b18185e5,7d1c3f2c-519a-11ea-ac61-6ba33f23026d
7d0227a4-519a-11ea-98ed-eff3b45f449a,7d1ca084-519a-11ea-a9f4-83357f5f06ae
7d0d4e18-519a-11ea-9830-db1636778a51,7d1cbe02-519a-11ea-8529-efd3031d4d04
7cfe04ee-519a-11ea-931d-0b125fc5e05c,7d1cd32e-519a-11ea-8d39-6fa73884a700
7cf27002-519a-11ea-88bd-dba5f158c3c6,7d1cedb4-519a-11ea-840e-27ba2da16beb
7cf75162-519a-11ea-9909-03d3395fafe0,7d1d4520-519a-11ea-b9f4-8f65ef7295bf
7cfb6b08-519a-11ea-be2f-5b647306196c,7d1d57c2-519a-11ea-95f4-afdeee05fccf
7d0bdb5a-519a-11ea-b86e-83c3bf0c8869,7d1d6aaa-519a-11ea-859c-ebe0eff890ac
7ce4d262-519a-11ea-bc6f-3b7a7aecec3d,7d1d94b2-519a-11ea-a1d9-db85a487c281
7d0f2fe4-519a-11ea-949d-2b3579305ca2,7d1dcbf8-519a-11ea-a7b7-131eb22e57fb
7cf43ac2-519a-11ea-ab3a-d3f5b13835bc,7d1e1d2e-519a-11ea-8226-dbec93c0ef13
7ce67522-519a-11ea-bd1c-8f44d5de6bac,7d1e31c4-519a-11ea-9626-933e7f1ee623
7d1cd32e-519a-11ea-8d39-6fa73884a700,7d1e7af8-519a-11ea-bef2-ffee985abe66
7cf3a45e-519a-11ea-b704-2326ac059e22,7d1eba9a-519a-11ea-a9d1-b74af0a2025c
7ce160dc-519a-11ea-b4ba-bb3ec4c4bd1a,7d1ed2aa-519a-11ea-8e77-4f2b839444be
7ce65a38-519a-11ea-b765-178f5e896bb5,7d1eed30-519a-11ea-8499-53e44d4dc7f5
7d0abeaa-519a-11ea-b37f-c3dba8235a62,7d1f0072-519a-11ea-be13-e3da0f8cebf2
7cff09b6-519a-11ea-af87-0b439ae266bf,7d1f56bc-519a-11ea-b709-37a499c210e5
7d0bf0fe-519a-11ea-b043-67f89b13d96d,7d1f6d0a-519a-11ea-882e-87abcb455f8c
7d11420c-519a-11ea-a5be-3f8a8943d7f5,7d1f8e98-519a-11ea-8822-972a3e4e52e8
7ce31526-519a-11ea-878f-6f95358b956b,7d1fc584-519a-11ea-8b0f-039f24429c9c
7d085cf0-519a-11ea-9b43-f3d0cb8175e6,7d200bd4-519a-11ea-b844-5b9d76dc1b29
7d004d9e-519a-11ea-9c10-1bbe96f2f5e6,7d203e74-519a-11ea-862d-87639b2f3e47
7ce04e40-519a-11ea-bab5-6762ae3426a5,7d20549a-519a-11ea-a879-ffab8aae6371
7ce273dc-519a-11ea-a731-2f6a92ecc5c9,7d207cea-519a-11ea-95db-b3bc2ba6fa05
7cdff97c-519a-11ea-8cd9-5fa28c44ec98,7d21110a-519a-11ea-89ba-5b2af65f6364
7cecdd18-519a-11ea-b372-cfd7391aef17,7d212898-519a-11ea-a9e9-c7869e4c540e
7cf297bc-519a-11ea-b6fa-73e13ed5c0f5,7d213fea-519a-11ea-9a38-1351021de073
7cefec7e-519a-11ea-b5e8-573ad31f221b,7d2154b2-519a-11ea-97f2-03a9e9fc18ef
7d0d1c68-519a-11ea-8824-3b8631e03906,7d2193c8-519a-11ea-bcfe-d373961db6ea
7d0a085c-519a-11ea-8f6a-cb8a1afee0f1,7d21db8a-519a-11ea-9204-ebdab57e3e9e
7cf25acc-519a-11ea-8883-7bb787fbd40f,7d21f084-519a-11ea-b0a7-cbe34710e15c
7d1b6764-519a-11ea-85dd-9b176a25e0c6,7d220632-519a-11ea-99ad-27c1f07ab8ea
7cfb6b08-519a-11ea-be2f-5b647306196c,7d221f00-519a-11ea-9fc7-1ff71c7d22d7
7cec6c70-519a-11ea-9658-6bc882a28a4c,7d227d06-519a-11ea-adac-c3f2b39dbd93
7d0b3164-519a-11ea-95c0-53d8c91b39d2,7d22b050-519a-11ea-8ac1-137a69bdddfd
7ce5f8fe-519a-11ea-9bda-a7fa9d753bf9,7d2295a2-519a-11ea-9851-7bc7dfca7f17
7cf08c56-519a-11ea-b1ff-73b52cb7bc65,7d22c446-519a-11ea-a2b9-13d0c6aa52ca
7ce53388-519a-11ea-b1e2-dbd7f39966c5,7d2336f6-519a-11ea-94da-1f9146801e58
7cf8f1c0-519a-11ea-bf7a-838206ff0445,7d236946-519a-11ea-a103-f74e3244fa73
7ceda02c-519a-11ea-860f-4fe2525805ec,7d2389d0-519a-11ea-8e7e-a7864a3753d2
7cf4b010-519a-11ea-a4fd-971d63152fa5,7d23a00a-519a-11ea-a628-a39236adb379
7d0ba0f4-519a-11ea-b48a-9fa846be13b1,7d23d7dc-519a-11ea-be75-177ed2bac7e0
7d0468c0-519a-11ea-89d7-1bac2fdf3ff9,7d23fea6-519a-11ea-b986-9b4aadae4fd0
7d1d94b2-519a-11ea-a1d9-db85a487c281,7d2426ec-519a-11ea-ab3c-cba04cb9431f
7ce102fe-519a-11ea-98bb-ff53bbd21a01,7d243e16-519a-11ea-95e6-839b74ef2cc5
7d100568-519a-11ea-8b3f-ef3d3cb23693,7d24965e-519a-11ea-be2e-f734f691e41e
7cfea28c-519a-11ea-b623-4bec991e71ca,7d24c0b6-519a-11ea-80a8-7bf9a6431ba2
7cf27002-519a-11ea-88bd-dba5f158c3c6,7d24daf6-519a-11ea-9f44-0fd2efae8d8e
7cfb5852-519a-11ea-83ca-373368d23195,7d24ee60-519a-11ea-a4a0-b7a03fd7fcc2
7cfa4dea-519a-11ea-91b0-33153953a967,7d2538f2-519a-11ea-8557-e7dd03db34e9
7d1845de-519a-11ea-a89c-57f8e72d8ae6,7d254f04-519a-11ea-81d7-938aa5f7c36d
7cdef25c-519a-11ea-8bb3-3fe8e742d8b2,7d258a8c-519a-11ea-aabc-2f09e9835430
7ceda02c-519a-11ea-860f-4fe2525805ec,7d25a698-519a-11ea-821b-a3932d1dc9d3
7ce495d6-519a-11ea-804e-f764d5db909f,7d262d8e-519a-11ea-82ba-6b09b2ed29be
7d09eb4c-519a-11ea-b69e-d31224ffdd44,7d264558-519a-11ea-97e7-4b685dd02c4b
7d04a84e-519a-11ea-968a-53c0a6cad2a5,7d26672c-519a-11ea-acb2-b3b706a6ed26
7ce840f0-519a-11ea-955f-43b6d510334c,7d267d0c-519a-11ea-8525-5794121e383d
7d1583b2-519a-11ea-891a-0bc5b151ef5a,7d26bbd2-519a-11ea-9a7f-8f25048476d2
7ce418b8-519a-11ea-abe3-ff32ca4317b3,7d26d8c4-519a-11ea-8c26-73813a177b14
7cf4b010-519a-11ea-a4fd-971d63152fa5,7d26ede6-519a-11ea-9afa-1b2ec48dc7de
7ce6ff42-519a-11ea-9506-3f313957f1fd,7d273788-519a-11ea-8c69-7ff8b4688a70
7d085cf0-519a-11ea-9b43-f3d0cb8175e6,7d276654-519a-11ea-9550-a3de1213333f
7cdf378a-519a-11ea-ad48-3bad0407a0ef,7d277b80-519a-11ea-94e3-730f1c2c1238
7ced8236-519a-11ea-8e88-6f1da49b4746,7d279048-519a-11ea-8b50-ff048414708a
7d0a8386-519a-11ea-9db9-9f6c0be0a633,7d27b726-519a-11ea-a275-b3a194f125e9
7cf3cbbe-519a-11ea-84f8-8bb4cc3433fb,7d27f36c-519a-11ea-8dde-030cdf50b946
7d0a2bde-519a-11ea-a10e-7b394c858259,7d280ece-519a-11ea-bf67-1bd7a052bd8e
7d11ea0e-519a-11ea-ae7b-2fdadbd1c214,7d2824c2-519a-11ea-b1b8-ef884c944dd5
7d009bd2-519a-11ea-9a2c-c3f5331f08dd,7d288138-519a-11ea-a57a-3b43742c06b3
7cfd9b76-519a-11ea-9e26-33e2a00b3a02,7d28bce8-519a-11ea-b698-53daabaa66d2
7ce160dc-519a-11ea-b4ba-bb3ec4c4bd1a,7d28d3b8-519a-11ea-aaf0-f33e0f5cb7d0
7d000b2c-519a-11ea-801d-cbddb17a5ae8,7d28eff6-519a-11ea-bd12-b726a3f4368d
7d06aa90-519a-11ea-9b6f-3f3a2af91afb,7d290586-519a-11ea-8b79-6b884a7eaa51
7d0ebece-519a-11ea-b677-ab0e81c47f36,7d295612-519a-11ea-b983-1fb2e55c9c8b
7d1e7af8-519a-11ea-bef2-ffee985abe66,7d29737c-519a-11ea-bb7a-1372e535304b
7d130290-519a-11ea-8011-9f56625e85e7,7d299384-519a-11ea-86f3-871b1cd9ceb7
7d198840-519a-11ea-91a4-ab2fa7e23304,7d29ad9c-519a-11ea-ac95-57f53c0f333c
7cf5d09e-519a-11ea-b475-cbb616684420,7d29d63c-519a-11ea-89d8-f3bf2fc9858e
7d0ebece-519a-11ea-b677-ab0e81c47f36,7d2a22ea-519a-11ea-9cd0-2f8d406cadf1
7cf4b010-519a-11ea-a4fd-971d63152fa5,7d2a3b04-519a-11ea-b791-eb0c01d08161
7d1f56bc-519a-11ea-b709-37a499c210e5,7d2a6dc2-519a-11ea-9636-63cd1288329f
7d09eb4c-519a-11ea-b69e-d31224ffdd44,7d2a9f0e-519a-11ea-ae8e-ab94e92d8257
7d1883dc-519a-11ea-b569-2b48e4524c40,7d2b26e0-519a-11ea-8c7c-dbb01480d3c3
7cdf23bc-519a-11ea-836f-479594cba787,7d2b445e-519a-11ea-a4bf-f71501199dd3
7d1583b2-519a-11ea-891a-0bc5b151ef5a,7d2b5840-519a-11ea-b8be-ffc5c1a0e9e6
7ceb57ae-519a-11ea-8012-3bd58fe1bcf4,7d2b73d4-519a-11ea-843c-67449ae9051a
7d18641a-519a-11ea-96e1-9b619c7deb1e,7d2bda04-519a-11ea-ad2c-33493e5d6b63
7d0c4130-519a-11ea-bafb-ef4b140e3e6a,7d2bfef8-519a-11ea-8e77-6f1d48dd3187
7cfb1aae-519a-11ea-80cb-b7f11ca5d42d,7d2c1d3e-519a-11ea-aaaf-f70463519385
7cff35c6-519a-11ea-b530-6f2defec1fb6,7d2c4b06-519a-11ea-a407-9be77561bdc8
7ce8f70c-519a-11ea-b1ab-37b5718456da,7d2c92a0-519a-11ea-b0e7-9f5b89721f58
7cfc45e6-519a-11ea-adb5-4fb13837efc8,7d2cb320-519a-11ea-866a-2fa2db392334
7d1d94b2-519a-11ea-a1d9-db85a487c281,7d2ccd60-519a-11ea-aa4a-ab5627d12927
7cee3582-519a-11ea-bc80-2fc1bfd1a038,7d2d23c8-519a-11ea-b68b-8f9ff852dde0
7cfd86ae-519a-11ea-872c-2ba34c4e84f9,7d2d3994-519a-11ea-8d98-57c503ef6517
7cf5bd3e-519a-11ea-a846-7b5a7f235a9e,7d2d55a0-519a-11ea-bb83-5f32c2dd5787
7d097f4a-519a-11ea-81f8-6b7507bc73de,7d2d8b10-519a-11ea-9ebf-63994ba557b0
7d1d94b2-519a-11ea-a1d9-db85a487c281,7d2e0af4-519a-11ea-8e17-7bd20bb30f77
7cf81d54-519a-11ea-8a28-5f0cc4395b6c,7d2e2af2-519a-11ea-80a4-3b8c6bc1b2ea
7ce102fe-519a-11ea-98bb-ff53bbd21a01,7d2e80a6-519a-11ea-923e-8b1c9184b2cf
7cf8f1c0-519a-11ea-bf7a-838206ff0445,7d2e9b9a-519a-11ea-91cd-63988a692311
7d18c4dc-519a-11ea-b9a7-07d92a0aff5b,7d2ec64c-519a-11ea-9a6f-2308214d6fb9
7cf701a8-519a-11ea-b268-fbdd1dbdd6b7,7d2ef9e6-519a-11ea-97f2-8f463529b991
7d11ea0e-519a-11ea-ae7b-2fdadbd1c214,7d2f577e-519a-11ea-9ae4-3318154dd1cb
7d1eba9a-519a-11ea-a9d1-b74af0a2025c,7d2f7420-519a-11ea-91a7-bf1c071aab69
7d1739e6-519a-11ea-967b-df390c1d000b,7d2fa3b4-519a-11ea-a09b-ffa24b2395fc
7cfaa132-519a-11ea-8776-17909553a2b8,7d2ff166-519a-11ea-bbb4-c3e0fd8811c4
7d27f36c-519a-11ea-8dde-030cdf50b946,7d3010ba-519a-11ea-a109-2bcd5c04abb2
7ceb57ae-519a-11ea-8012-3bd58fe1bcf4,7d3025d2-519a-11ea-8374-3fbfb4ddcf2b
7d1227c6-519a-11ea-82b3-d3a1851f9afe,7d305ab6-519a-11ea-b446-23bb9dc01975
7d10a3b0-519a-11ea-839e-07899f03fd27,7d308978-519a-11ea-b764-1fcb83da41ec
7cdfb8e0-519a-11ea-9469-c7f070696e78,7d30a0ca-519a-11ea-a6da-731e01e85a4b
7ceb9318-519a-11ea-8242-b7af41c51bcb,7d30b54c-519a-11ea-bc9e-bf9b87cbdb04
7d07cc86-519a-11ea-96f4-53be4367b924,7d30ca82-519a-11ea-8a9a-679058716e5d
7cf27002-519a-11ea-88bd-dba5f158c3c6,7d314e08-519a-11ea-a244-bfccd40d8c60
7ce17252-519a-11ea-ae37-ef880403b87a,7d313864-519a-11ea-8ddd-03c7f04727b1
7cf3cbbe-519a-11ea-84f8-8bb4cc3433fb,7d316a96-519a-11ea-94cc-4ffd2cb169c9
7ce65a38-519a-11ea-b765-178f5e896bb5,7d318da0-519a-11ea-ac2a-ab65c73340c8
7d0b0cc0-519a-11ea-a0c1-c7f1696ad54e,7d31fd58-519a-11ea-80cb-4f5683013e52
7ce96a5c-519a-11ea-bb74-4f6ca663d17c,7d32123e-519a-11ea-a8b0-e3c1c9022537
7d243e16-519a-11ea-95e6-839b74ef2cc5,7d3225c6-519a-11ea-8206-e3506248881b
7cffee4e-519a-11ea-8547-a396a391a268,7d3239c6-519a-11ea-a357-33a0e4f5f0df
7d07cc86-519a-11ea-96f4-53be4367b924,7d32b464-519a-11ea-82b7-874e947dfb8d
7cfe45d0-519a-11ea-9062-a7e04166b0cf,7d32e0d8-519a-11ea-904d-cf56418eea8c
7cec4b64-519a-11ea-baca-d7a91b85cb5a,7d331a1c-519a-11ea-911c-b386e3e3fe7d
7d3225c6-519a-11ea-8206-e3506248881b,7d33339e-519a-11ea-b8c6-9f101d82ea49
7d2824c2-519a-11ea-b1b8-ef884c944dd5,7d334622-519a-11ea-a2f6-6b6a210d4059
7d11ea0e-519a-11ea-ae7b-2fdadbd1c214,7d337908-519a-11ea-b7b1-8378079d4109
7ce69804-519a-11ea-affb-4f22c828df69,7d33c458-519a-11ea-980d-93a256b73309
7d2b73d4-519a-11ea-843c-67449ae9051a,7d33deca-519a-11ea-bd8d-33aa83a9b7c2
7d1cd32e-519a-11ea-8d39-6fa73884a700,7d33f298-519a-11ea-b232-5f56ea341b22
7d028b2c-519a-11ea-ae53-8b7fc3545873,7d342ce0-519a-11ea-a9a7-43865bc54323
7ce3c6a6-519a-11ea-8079-7bf74ef8f423,7d344b62-519a-11ea-93db-cfadf909db07
7d019924-519a-11ea-9eab-c396384398bc,7d34661a-519a-11ea-9eb4-6b82beee5a57
7d21f084-519a-11ea-b0a7-cbe34710e15c,7d348af0-519a-11ea-b806-df120f66cc21
7d00b25c-519a-11ea-81ba-2bca6157a5df,7d34d654-519a-11ea-95f2-4b2db28d1f68
7cf03486-519a-11ea-aa05-83d9eab09ec2,7d34f1de-519a-11ea-9a00-573e2f2fbdca
7cf6c652-519a-11ea-9e03-3bfcb32fa125,7d352992-519a-11ea-885d-2f414d2fd557
7d0ebece-519a-11ea-b677-ab0e81c47f36,7d353dec-519a-11ea-868d-e72504f74f6d
7d0070f8-519a-11ea-9179-7fe8e308c100,7d3552c8-519a-11ea-b284-3b3f72379142
7d159ed8-519a-11ea-a223-071a0ecf820c,7d3597ce-519a-11ea-9483-7fd7ec108ed3
7cfe45d0-519a-11ea-9062-a7e04166b0cf,7d35ac00-519a-11ea-979a-2f8dfdfd825f
7d07cc86-519a-11ea-96f4-53be4367b924,7d35cba4-519a-11ea-aac2-a7ebe18dee5a
7ce8a8ba-519a-11ea-a342-6f8143c0b928,7d35df40-519a-11ea-be01-7367a6145520
7d0d3158-519a-11ea-9bb6-17ee7355b833,7d3644da-519a-11ea-aaa0-37d51e3fc28c
7d19704e-519a-11ea-879d-b79a36762113,7d365b32-519a-11ea-bafe-9b4cbc16af22
7cecdd18-519a-11ea-b372-cfd7391aef17,7d3676bc-519a-11ea-89ca-1f8c1e73a5d9
7d199a42-519a-11ea-9537-9f20b26af15e,7d36914c-519a-11ea-9b80-63b2485b6276
7d13b050-519a-11ea-b80f-e704367697cd,7d36bae6-519a-11ea-aa75-e3bc9cf3f09c
7d075da0-519a-11ea-a2b5-e3a77821c9ed,7d3723f0-519a-11ea-9fe9-0f658f668f7a
7ced8236-519a-11ea-8e88-6f1da49b4746,7d373944-519a-11ea-905b-bbfe2aab5f84
7cf147ae-519a-11ea-a5bb-8fa72f4df33d,7d375492-519a-11ea-bd75-7f166798678e
7d0d4e18-519a-11ea-9830-db1636778a51,7d3767c0-519a-11ea-b064-2f8dbd35eabf
7d27f36c-519a-11ea-8dde-030cdf50b946,7d37ba54-519a-11ea-a31f-9bd63c00bf01
7d15672e-519a-11ea-9cae-5f6d8ab548e0,7d37d35e-519a-11ea-80a4-f3c59205ad84
7d1a3d58-519a-11ea-8434-e7d65366c235,7d3810e4-519a-11ea-b8aa-6fd745e71bd4
7d0e7428-519a-11ea-bf2f-b3e3c8986cc0,7d37f9c4-519a-11ea-bb40-0347879aa719
7d2ec64c-519a-11ea-9a6f-2308214d6fb9,7d386bac-519a-11ea-8904-6bd7fdcb4daa
7cf83e4c-519a-11ea-a810-c32ce6a534ab,7d38a09a-519a-11ea-a1e6-a7d1556b4cec
7d161066-519a-11ea-8088-bb6a304c5b68,7d38c264-519a-11ea-802f-2b64d1877708
7d227d06-519a-11ea-adac-c3f2b39dbd93,7d38d664-519a-11ea-9efe-372fd6b3cc8b
7d18c4dc-519a-11ea-b9a7-07d92a0aff5b,7d390094-519a-11ea-8aaa-17434d374ad2
7d26672c-519a-11ea-acb2-b3b706a6ed26,7d39224a-519a-11ea-92bf-4f5d0e771502
7d2bfef8-519a-11ea-8e77-6f1d48dd3187,7d393546-519a-11ea-86dd-67636562b304
7d1e31c4-519a-11ea-9626-933e7f1ee623,7d3981b8-519a-11ea-bbde-ab20fe612f6e
7d3225c6-519a-11ea-8206-e3506248881b,7d39952c-519a-11ea-8a1c-2becb49ff3be
7d130290-519a-11ea-8011-9f56625e85e7,7d39b32c-519a-11ea-b70c-bf638533bbcf
7d177668-519a-11ea-a30e-936bad3acd7c,7d39d924-519a-11ea-8eba-d79429bd25e7
7d23a00a-519a-11ea-a628-a39236adb379,7d3a05ca-519a-11ea-a333-5f7634ab5b46
7cf83e4c-519a-11ea-a810-c32ce6a534ab,7d3a6aba-519a-11ea-b0ed-576629e29f98
7cef73c0-519a-11ea-bc1e-375c4fc5d6a4,7d3a9120-519a-11ea-b2ef-3395d5e8238c
7cdf0ab2-519a-11ea-a0d9-8fa911e6155c,7d3aa660-519a-11ea-97a8-5bec95db108c
7d386bac-519a-11ea-8904-6bd7fdcb4daa,7d3abc18-519a-11ea-8e1e-bbff502dd96d
7cf54994-519a-11ea-bb78-13a1826211eb,7d3b149c-519a-11ea-b81a-d7a32452772c
7d279048-519a-11ea-8b50-ff048414708a,7d3b2f18-519a-11ea-bba4-972815e6c251
7d3010ba-519a-11ea-a109-2bcd5c04abb2,7d3b462e-519a-11ea-9c66-2b33ac502ee6
7d295612-519a-11ea-b983-1fb2e55c9c8b,7d3bab0a-519a-11ea-82ba-fb531786d57f
7ce17252-519a-11ea-ae37-ef880403b87a,7d3bbf82-519a-11ea-b0d5-3b5e8929ca6c
7d2426ec-519a-11ea-ab3c-cba04cb9431f,7d3bd2ec-519a-11ea-b083-1fe45434591c
7d2d3994-519a-11ea-8d98-57c503ef6517,7d3c0d8e-519a-11ea-b153-3b8e6551a360
7d199a42-519a-11ea-9537-9f20b26af15e,7d3c4f10-519a-11ea-9ff6-37fe09de4be4
7d2c92a0-519a-11ea-b0e7-9f5b89721f58,7d3c7f9e-519a-11ea-9745-ff76c5d46eb5
7ce03c16-519a-11ea-bf28-b7c381daeb18,7d3c938a-519a-11ea-8376-8b821390f4bd
7ceb2338-519a-11ea-b2fc-8f47316bf84b,7d3cf5c8-519a-11ea-9259-9f87890e7103
7d3a9120-519a-11ea-b2ef-3395d5e8238c,7d3d0b76-519a-11ea-8272-337822f52626
7ce97d26-519a-11ea-ba42-8f951ac1267a,7d3d1dc8-519a-11ea-9067-c75e3f4d0ff2
7d24daf6-519a-11ea-9f44-0fd2efae8d8e,7d3d4de8-519a-11ea-8da7-d341fe338a88
7d3676bc-519a-11ea-89ca-1f8c1e73a5d9,7d3d857e-519a-11ea-a3ec-635eba12421d
7d295612-519a-11ea-b983-1fb2e55c9c8b,7d3db0c6-519a-11ea-adab-67af169d58d2
7cf87970-519a-11ea-9de6-6712b681860b,7d3e029c-519a-11ea-a679-8fa3f0c91d38
7ceb736a-519a-11ea-b0c7-db16743e04cb,7d3e26e6-519a-11ea-b63e-9f21f6b6eb4b
7cf81d54-519a-11ea-8a28-5f0cc4395b6c,7d3e4a2c-519a-11ea-b87b-7b2bbfb5979c
7d14d4bc-519a-11ea-b247-bb6f45580a53,7d3e7dda-519a-11ea-be90-4f1e01600875
7d3c0d8e-519a-11ea-b153-3b8e6551a360,7d3eba02-519a-11ea-9c76-c31f892c915d
7cf0ae84-519a-11ea-8fb6-b37faecdd420,7d3eccc2-519a-11ea-b728-1b01421a117a
7d3a6aba-519a-11ea-b0ed-576629e29f98,7d3ef6f2-519a-11ea-bc40-9bbb95d79567
7d3d4de8-519a-11ea-8da7-d341fe338a88,7d3f1646-519a-11ea-9336-cb37682a42e7
7ce47614-519a-11ea-9ed4-17dd505aedc1,7d3f54e4-519a-11ea-b34d-93ffd4cfe5df
7d004d9e-519a-11ea-9c10-1bbe96f2f5e6,7d3f6c72-519a-11ea-a677-8b04732c8864
7d280ece-519a-11ea-bf67-1bd7a052bd8e,7d3f8d92-519a-11ea-95e6-e384d60de41c
7d280ece-519a-11ea-bf67-1bd7a052bd8e,7d3fa1e2-519a-11ea-a8bc-17d4464b2521
7ce17252-519a-11ea-ae37-ef880403b87a,7d400dee-519a-11ea-a4d4-efce87b39f93
7cfb6b08-519a-11ea-be2f-5b647306196c,7d403418-519a-11ea-92e5-5bb534add03e
7cf83e4c-519a-11ea-a810-c32ce6a534ab,7d404926-519a-11ea-b712-1ba2733a0227
7cf87970-519a-11ea-9de6-6712b681860b,7d405aec-519a-11ea-8005-1bb4231d2061
7d295612-519a-11ea-b983-1fb2e55c9c8b,7d409d72-519a-11ea-b782-47e564153675
7d2e2af2-519a-11ea-80a4-3b8c6bc1b2ea,7d40b230-519a-11ea-b04d-ebb3ef2e1b8d
7d3c7f9e-519a-11ea-9745-ff76c5d46eb5,7d4112e8-519a-11ea-95ca-9399a4743f11
7cee02e2-519a-11ea-a3c9-4bd1ebf048b2,7d412814-519a-11ea-a2cb-2792123b38f0
7d3b2f18-519a-11ea-bba4-972815e6c251,7d41401a-519a-11ea-a5c2-b735877c50f3
7d18a48e-519a-11ea-9393-b31bec0b28a5,7d4152d0-519a-11ea-966a-ebdd4682efc9
7d131ef6-519a-11ea-a3ce-8740c7b03a70,7d41c490-519a-11ea-bd90-4b0da0f65260
7cf0f9d4-519a-11ea-808d-5bbb18e6f35e,7d41db1a-519a-11ea-9269-97b85b24e505
7cfea28c-519a-11ea-b623-4bec991e71ca,7d41ee2a-519a-11ea-a636-af317fc1bfb2
7ce1d04e-519a-11ea-a3be-674f60ff977a,7d42023e-519a-11ea-a249-a7b920ce2a47
7ceda02c-519a-11ea-860f-4fe2525805ec,7d428ed4-519a-11ea-b6bb-f768345669d5
7d28eff6-519a-11ea-bd12-b726a3f4368d,7d42a39c-519a-11ea-9cfe-97bcaeb8e353
7d0bb76a-519a-11ea-b21a-6ffc0909ecd1,7d42be90-519a-11ea-b519-87c69f041590
7d2426ec-519a-11ea-ab3c-cba04cb9431f,7d42d56a-519a-11ea-8a26-7f38777a84ec
7cee5fb2-519a-11ea-807f-43189d37f961,7d430e2c-519a-11ea-a288-df77edc4ddce
7cf165d6-519a-11ea-bb52-17495af7c81e,7d4363ae-519a-11ea-84df-935a12ef236c
7d1189ec-519a-11ea-a960-73147c05f9b4,7d437bc8-519a-11ea-8699-ab19a5033964
7cee02e2-519a-11ea-a3c9-4bd1ebf048b2,7d438e2e-519a-11ea-b41f-c77d621778a3
7d288138-519a-11ea-a57a-3b43742c06b3,7d43bc3c-519a-11ea-a46b-074289e537d9
7d03df90-519a-11ea-88b5-fbaee58493df,7d43da96-519a-11ea-9a7f-6bd10c37c619
7d305ab6-519a-11ea-b446-23bb9dc01975,7d4451f6-519a-11ea-a972-4f92c9ee4e48
7cfc2fde-519a-11ea-b356-ab2301125e9d,7d446808-519a-11ea-88c2-77bece9c6429
7cf3202e-519a-11ea-8322-c3dda5ac388c,7d449ba2-519a-11ea-ae82-a739184cf7d9
7d15672e-519a-11ea-9cae-5f6d8ab548e0,7d44b60a-519a-11ea-8071-4b3c33056e84
7d051d56-519a-11ea-944b-236f637d5ed8,7d44da40-519a-11ea-975a-a7c70cb275e8
7d200bd4-519a-11ea-b844-5b9d76dc1b29,7d44ef80-519a-11ea-be99-e7264dda6dc4
7d3a9120-519a-11ea-b2ef-3395d5e8238c,7d4554de-519a-11ea-b819-e7b0ab431eec
7ce3c6a6-519a-11ea-8079-7bf74ef8f423,7d459e3a-519a-11ea-9e19-5bff6b8979dd
7ce8f70c-519a-11ea-b1ab-37b5718456da,7d45b83e-519a-11ea-9a1c-6309e49a96ca
7d2154b2-519a-11ea-97f2-03a9e9fc18ef,7d45ccfc-519a-11ea-af5b-3bdc3fe5590b
7d0a085c-519a-11ea-8f6a-cb8a1afee0f1,7d463e4e-519a-11ea-90df-e3f901a17c31
7d1a6b8e-519a-11ea-8647-5f0624e2fd6f,7d4665fe-519a-11ea-aa34-c7aea3455ddc
7cee8d52-519a-11ea-a1f6-1fa12f771d92,7d467ba2-519a-11ea-878c-a7874f9d0637
7d1bd208-519a-11ea-85c4-3feec5877127,7d469628-519a-11ea-9c29-6fc81f2e0d82
7d38c264-519a-11ea-802f-2b64d1877708,7d46cbf2-519a-11ea-adbc-db922d173b11
7d3c4f10-519a-11ea-9ff6-37fe09de4be4,7d4737ae-519a-11ea-b120-6f829a18098d
7d18c4dc-519a-11ea-b9a7-07d92a0aff5b,7d475248-519a-11ea-8a21-2f403be5d0cb
7d02bd54-519a-11ea-9908-0bcf1049810c,7d47919a-519a-11ea-a486-a38f85e14602
7ce7b446-519a-11ea-aa50-9368effc97f1,7d47aa9a-519a-11ea-a5dc-83dac36e8cd4
7d1e1d2e-519a-11ea-8226-dbec93c0ef13,7d4807c4-519a-11ea-b083-b3cb1b643e89
7cfa1bb8-519a-11ea-9ba7-4b6aff50c4ff,7d4847a2-519a-11ea-bc34-6f02a43f7add
7d30b54c-519a-11ea-bc9e-bf9b87cbdb04,7d4868f4-519a-11ea-842b-938f54fcfe30
7d3aa660-519a-11ea-97a8-5bec95db108c,7d4890cc-519a-11ea-a3b6-df6e4c25ea53
7d07a260-519a-11ea-b66b-5b78cca730b5,7d48d244-519a-11ea-a393-9bdc65c9c647
7cfeb786-519a-11ea-b46c-7b04cc0d54b1,7d4919ca-519a-11ea-895b-6f1cf9e874f3
7cdef25c-519a-11ea-8bb3-3fe8e742d8b2,7d493162-519a-11ea-a763-733d7d456c46
7ce99266-519a-11ea-aa40-bf88f7198ec4,7d49813a-519a-11ea-bb4a-3b38a3d334c2
7d4554de-519a-11ea-b819-e7b0ab431eec,7d499ba2-519a-11ea-8513-dbdc044aa03d
7d200bd4-519a-11ea-b844-5b9d76dc1b29,7d49bed4-519a-11ea-9381-0b364453f7d0
7d2e80a6-519a-11ea-923e-8b1c9184b2cf,7d49eb5c-519a-11ea-bb6d-fb2be964fb53
7cec9e3e-519a-11ea-b692-27b01030b405,7d4a6c62-519a-11ea-80c5-63387bd8aa0a
7d35df40-519a-11ea-be01-7367a6145520,7d4a8382-519a-11ea-9589-9fd5c96dfd09
7ceb57ae-519a-11ea-8012-3bd58fe1bcf4,7d4a9a84-519a-11ea-b642-375db9a21f37
7d2b73d4-519a-11ea-843c-67449ae9051a,7d4af4de-519a-11ea-bd93-770671519826
7cdf0ab2-519a-11ea-a0d9-8fa911e6155c,7d4b560e-519a-11ea-bc21-b7d596379023
7d2824c2-519a-11ea-b1b8-ef884c944dd5,7d4b8304-519a-11ea-8b82-c7985641a33a
7d0a8386-519a-11ea-9db9-9f6c0be0a633,7d4b6bb2-519a-11ea-b6e2-ab32be898253
7d467ba2-519a-11ea-878c-a7874f9d0637,7d4b9cc2-519a-11ea-9370-433ca0e644b1
7d4890cc-519a-11ea-a3b6-df6e4c25ea53,7d4c41cc-519a-11ea-8ab3-4777f7d80c96
7cf22ea8-519a-11ea-9186-e325b18185e5,7d4c60bc-519a-11ea-ae24-0f4f3f2706ae
7cf77aca-519a-11ea-acbb-cb1e3f2ab4bf,7d4c7b1a-519a-11ea-a486-2bd15cef55df
7d03df90-519a-11ea-88b5-fbaee58493df,7d4c9974-519a-11ea-90ac-cffc49e8cfb3
7cfaff4c-519a-11ea-be15-0718ffc7d73a,7d4d0878-519a-11ea-b12e-37696572afa4
7cf95692-519a-11ea-9c91-a7a741c0744d,7d4d24e8-519a-11ea-8cf0-23b218ffa015
7d3ef6f2-519a-11ea-bc40-9bbb95d79567,7d4d4d6a-519a-11ea-9064-fb8f89d0b1b6
7d3bab0a-519a-11ea-82ba-fb531786d57f,7d4d85c8-519a-11ea-b8b9-9f032bda94e9
7cf75162-519a-11ea-9909-03d3395fafe0,7d4decb6-519a-11ea-b379-0b4d4fa52ae2
7d1a6b8e-519a-11ea-8647-5f0624e2fd6f,7d4e0764-519a-11ea-a4ca-d75cc03847fc
7d203e74-519a-11ea-862d-87639b2f3e47,7d4e4c1a-519a-11ea-aa09-8b31f494da97
7d38c264-519a-11ea-802f-2b64d1877708,7d4e61f0-519a-11ea-947b-2fbfff5302c3
7d2c1d3e-519a-11ea-aaaf-f70463519385,7d4e93be-519a-11ea-86aa-97f878dc953d
7d220632-519a-11ea-99ad-27c1f07ab8ea,7d4eb5b0-519a-11ea-b561-979c179b8aa8
7ce5c384-519a-11ea-9b05-534cd5f19894,7d4f30d0-519a-11ea-8d58-1ffba6b4e44b
7d10a3b0-519a-11ea-839e-07899f03fd27,7d4f4750-519a-11ea-97d9-7fcc56a44b5d
7ce3a004-519a-11ea-a46e-23889362693b,7d4f7a18-519a-11ea-ab3f-47f3e000eafa
7ce1d04e-519a-11ea-a3be-674f60ff977a,7d4f9692-519a-11ea-baa1-df073f0a61b7
7d3c0d8e-519a-11ea-b153-3b8e6551a360,7d4fed68-519a-11ea-8e49-3bc6c2edba2d
7cf03486-519a-11ea-aa05-83d9eab09ec2,7d50312e-519a-11ea-81ad-53f1d5b53519
7d1a6b8e-519a-11ea-8647-5f0624e2fd6f,7d505b72-519a-11ea-a20a-b7e2dfc77c18
7d01b3be-519a-11ea-bb08-fbb049183809,7d50d7a0-519a-11ea-a750-037edc8a5435
7cf9c01e-519a-11ea-a81d-5bc1129f4b0c,7d50f42e-519a-11ea-8050-c3c5e52d2a12
7d26d8c4-519a-11ea-8c26-73813a177b14,7d512fd4-519a-11ea-a59c-7741ac2b1874
7d1a6b8e-519a-11ea-8647-5f0624e2fd6f,7d515ebe-519a-11ea-85f8-43e5616eb20a
7d258a8c-519a-11ea-aabc-2f09e9835430,7d51caa2-519a-11ea-926e-b3db728544bf
7d4f30d0-519a-11ea-8d58-1ffba6b4e44b,7d51f950-519a-11ea-a8b7-07865d5f542c
7d3abc18-519a-11ea-8e1e-bbff502dd96d,7d5228d0-519a-11ea-ab07-33bcc922efe7
7ce03c16-519a-11ea-bf28-b7c381daeb18,7d5286d6-519a-11ea-9138-17bbab794aed
7d1950c8-519a-11ea-a7f2-437e7bf60c6b,7d52ceca-519a-11ea-b4bc-df6b8b881ef7
7d131ef6-519a-11ea-a3ce-8740c7b03a70,7d52a0ee-519a-11ea-bca5-0780bb15969e
7d3d4de8-519a-11ea-8da7-d341fe338a88,7d52b7c8-519a-11ea-9667-4f81ba949af3
7d0c5cd8-519a-11ea-9035-af81a65bfba0,7d535002-519a-11ea-8cc9-abf4b12860ff
7d11420c-519a-11ea-a5be-3f8a8943d7f5,7d536fd8-519a-11ea-a249-ffdb35b8a540
7cf561fe-519a-11ea-958c-afce910f3342,7d53c2b2-519a-11ea-a280-7ff5fc25d77c
7d3f1646-519a-11ea-9336-cb37682a42e7,7d53aaa2-519a-11ea-b31d-a7276aaa1e83
7d26672c-519a-11ea-acb2-b3b706a6ed26,7d5457ae-519a-11ea-ab4c-bba1a8ee4850
7ce19b10-519a-11ea-94bc-a37a61a45c97,7d543c92-519a-11ea-9718-2761cc1c3324
7d41ee2a-519a-11ea-a636-af317fc1bfb2,7d5470fe-519a-11ea-9a58-57f60845ca65
7d0bf0fe-519a-11ea-b043-67f89b13d96d,7d54853a-519a-11ea-88b8-2f1f56d85d31
7ce1d04e-519a-11ea-a3be-674f60ff977a,7d5512fc-519a-11ea-bc29-6f267844fa69
7d2295a2-519a-11ea-9851-7bc7dfca7f17,7d552f80-519a-11ea-b0be-1fe9d411e7d4
7d318da0-519a-11ea-ac2a-ab65c73340c8,7d554966-519a-11ea-88cd-2b45224bad11
7d4868f4-519a-11ea-842b-938f54fcfe30,7d557a58-519a-11ea-85ba-f3a452c69b9e
7d1f56bc-519a-11ea-b709-37a499c210e5,7d56055e-519a-11ea-b0e4-2f68caf7caac
7d0b3164-519a-11ea-95c0-53d8c91b39d2,7d56212e-519a-11ea-b3a3-2337e7975c1a
7d063506-519a-11ea-b647-1f1eb3b353fd,7d565586-519a-11ea-9bc0-e73503da037d
7d06937a-519a-11ea-a258-9754f1a99030,7d56389e-519a-11ea-a64a-6b8f42b826c6
7d10a3b0-519a-11ea-839e-07899f03fd27,7d56adec-519a-11ea-b047-8f9cfee9b2e4
7ce1e0a2-519a-11ea-86d5-9f3722c36d35,7d56cc3c-519a-11ea-90c9-9764a851d1f7
7cf18566-519a-11ea-883e-2ff7ab744efa,7d56e974-519a-11ea-958c-6bfe2c676f5b
7d0e34a4-519a-11ea-819c-ff34c43f0405,7d574c48-519a-11ea-becb-bf9ee3c7f2fd
7d4f7a18-519a-11ea-ab3f-47f3e000eafa,7d5764da-519a-11ea-b911-5b7425719ae2
7cebcf40-519a-11ea-99d1-c7a2080f3f6f,7d578050-519a-11ea-b6a5-bb94e622733b
7d2c92a0-519a-11ea-b0e7-9f5b89721f58,7d57be1c-519a-11ea-aae7-b3494e65aba9
7cfd7222-519a-11ea-a721-272bbcbb7190,7d57f4c2-519a-11ea-89e9-73b75cfe6d63
7d23fea6-519a-11ea-b986-9b4aadae4fd0,7d582b54-519a-11ea-89d4-2b0b8cbec36b
7cf8aabc-519a-11ea-9348-afefb1f743d5,7d58447c-519a-11ea-be95-bb59610f56bd
7d536fd8-519a-11ea-a249-ffdb35b8a540,7d58b4de-519a-11ea-9069-2716e00fd0fb
7d4112e8-519a-11ea-95ca-9399a4743f11,7d58cf5a-519a-11ea-a9b3-5359191608a8
7d2389d0-519a-11ea-8e7e-a7864a3753d2,7d58e742-519a-11ea-8ecc-57476fdf3d28
7ce6d44a-519a-11ea-b38a-2bb6d5237a42,7d58fdae-519a-11ea-95cb-4799d576ab7a
7cfe45d0-519a-11ea-9062-a7e04166b0cf,7d595f42-519a-11ea-a129-438ae924666d
7cee02e2-519a-11ea-a3c9-4bd1ebf048b2,7d599d04-519a-11ea-82e8-ff4a691e95ff
7d51f950-519a-11ea-a8b7-07865d5f542c,7d59b69a-519a-11ea-aa17-7b57efff10fd
7d3f54e4-519a-11ea-b34d-93ffd4cfe5df,7d59d544-519a-11ea-8212-e38815823c95
7ce448b0-519a-11ea-b0ad-7f562faddc01,7d5a5082-519a-11ea-9b0b-173a58801184
7d29737c-519a-11ea-bb7a-1372e535304b,7d5a6fae-519a-11ea-bf10-1fa0aa27c3aa
7d000b2c-519a-11ea-801d-cbddb17a5ae8,7d5a871e-519a-11ea-a5c2-0f8583a15824
7d004d9e-519a-11ea-9c10-1bbe96f2f5e6,7d5a9d30-519a-11ea-ab7e-a39659e38631
7d28d3b8-519a-11ea-aaf0-f33e0f5cb7d0,7d5b5450-519a-11ea-8eb6-b78b765e34f4
7cfa4dea-519a-11ea-91b0-33153953a967,7d5b6db4-519a-11ea-95e4-1b65d46191fb
7cfecb7c-519a-11ea-adf2-f3da32e906af,7d5b82fe-519a-11ea-95ff-9f322c2ef3db
7d44da40-519a-11ea-975a-a7c70cb275e8,7d5b9e1a-519a-11ea-8ca8-8374cbc8ef7f
7d199a42-519a-11ea-9537-9f20b26af15e,7d5c00b2-519a-11ea-8d82-23097731a485
7ce8c07a-519a-11ea-a3d1-9334affff165,7d5c6ea8-519a-11ea-9f3c-7fdd7a523e66
7d412814-519a-11ea-a2cb-2792123b38f0,7d5c880c-519a-11ea-b6a2-5391f035b113
7d0b3164-519a-11ea-95c0-53d8c91b39d2,7d5ca29c-519a-11ea-83af-8f0157822479
7d4f30d0-519a-11ea-8d58-1ffba6b4e44b,7d5cf08a-519a-11ea-b6e7-bf3849dcc2b6
7d4b8304-519a-11ea-8b82-c7985641a33a,7d5d465c-519a-11ea-88fd-7f3219d67a8c
7d0f2fe4-519a-11ea-949d-2b3579305ca2,7d5d5dfe-519a-11ea-8730-bff61339b9ea
7d475248-519a-11ea-8a21-2f403be5d0cb,7d5d7faa-519a-11ea-921a-7bc1f6839ef4
7d42a39c-519a-11ea-9cfe-97bcaeb8e353,7d5d9a80-519a-11ea-944a-c3d2ab16a72e
7d2ccd60-519a-11ea-aa4a-ab5627d12927,7d5e6366-519a-11ea-8e54-0f296975c170
7d207cea-519a-11ea-95db-b3bc2ba6fa05,7d5e7e3c-519a-11ea-ab2f-e38b591243b8
7d2bfef8-519a-11ea-8e77-6f1d48dd3187,7d5e93d6-519a-11ea-b13e-d7d9503d5775
7d599d04-519a-11ea-82e8-ff4a691e95ff,7d5ea9f2-519a-11ea-a930-d3a835b1520e
7d536fd8-519a-11ea-a249-ffdb35b8a540,7d5f23fa-519a-11ea-8deb-ef7528b33cb6
7d14ba86-519a-11ea-8eab-af6c54806234,7d5f819c-519a-11ea-937b-5745ae4da7d9
7ce5c384-519a-11ea-9b05-534cd5f19894,7d5fb6c6-519a-11ea-bc09-7f7d536665ab
7cf1ca12-519a-11ea-82f5-1392ef353e60,7d5f9ba0-519a-11ea-a309-7b4efbdc0155
7ceb2338-519a-11ea-b2fc-8f47316bf84b,7d602d7c-519a-11ea-a41c-5758568f7668
7d13f5ce-519a-11ea-9dca-5b8737302524,7d6044b0-519a-11ea-9255-5b051d5ebc67
7d33f298-519a-11ea-b232-5f56ea341b22,7d606076-519a-11ea-8b9f-2f6d3de4e430
7d1189ec-519a-11ea-a960-73147c05f9b4,7d6079f8-519a-11ea-9364-774fa0ccfacb
7d5228d0-519a-11ea-ab07-33bcc922efe7,7d60e9a6-519a-11ea-88a0-7b143ec22dbb
7d3b2f18-519a-11ea-bba4-972815e6c251,7d612d08-519a-11ea-be8c-5b031632e4aa
7d0af3e8-519a-11ea-b2c6-43ed9358b854,7d61666a-519a-11ea-a093-73e48bb2fad7
7cec6c70-519a-11ea-9658-6bc882a28a4c,7d614b76-519a-11ea-a333-d732ac31b3c2
7ceb9318-519a-11ea-8242-b7af41c51bcb,7d6192ca-519a-11ea-8173-77999c0d279e
7d5b6db4-519a-11ea-95e4-1b65d46191fb,7d620430-519a-11ea-a006-7f4bbc17e754
7d19fe6a-519a-11ea-a2ea-43bbb33b293f,7d6229d8-519a-11ea-b5c9-bf7c9d1a9061
7d4451f6-519a-11ea-a972-4f92c9ee4e48,7d6244b8-519a-11ea-bc52-870a4ded4f4d
7d1bf42c-519a-11ea-a6c9-df231b3bd9a5,7d6259da-519a-11ea-836e-3ba4fd28dd5e
7ce47614-519a-11ea-9ed4-17dd505aedc1,7d62e760-519a-11ea-9eea-d3cbd67db800
7d0a4434-519a-11ea-b09c-2b576f70f7d6,7d6308a8-519a-11ea-9675-27831f037476
7d10b986-519a-11ea-ba41-bff36cd166d6,7d633800-519a-11ea-a6f7-fba3ccb15cb0
7cf8aabc-519a-11ea-9348-afefb1f743d5,7d632216-519a-11ea-9122-ef99cc925b3d
7d2bfef8-519a-11ea-8e77-6f1d48dd3187,7d63acb8-519a-11ea-8e0c-43861bb7d6a7
7ce273dc-519a-11ea-a731-2f6a92ecc5c9,7d63f43e-519a-11ea-8ffa-1f0498415441
7d57be1c-519a-11ea-aae7-b3494e65aba9,7d64100e-519a-11ea-9f87-eb70aabedef5
7d4a6c62-519a-11ea-80c5-63387bd8aa0a,7d643eb2-519a-11ea-a212-9fdf80ddcf35
7d0d4e18-519a-11ea-9830-db1636778a51,7d647bde-519a-11ea-8914-8738bb3d22d3
7d2e0af4-519a-11ea-8e17-7bd20bb30f77,7d64faa0-519a-11ea-8f91-47c79d6e3d3d
7d2cb320-519a-11ea-866a-2fa2db392334,7d652f3e-519a-11ea-9ed8-cb8b114c7fc0
7cffcc34-519a-11ea-9a93-7b5f1ccf5531,7d65167a-519a-11ea-8c63-ab74eb5f4964
7ce7b446-519a-11ea-aa50-9368effc97f1,7d659bc2-519a-11ea-a2df-57d4cc3f8c82
7d4847a2-519a-11ea-bc34-6f02a43f7add,7d65b12a-519a-11ea-97e0-bfd186d8e0b5
7d22c446-519a-11ea-a2b9-13d0c6aa52ca,7d65c822-519a-11ea-9432-6b5460c57cee
7ceef634-519a-11ea-834a-8ffa97464db6,7d65f2e8-519a-11ea-ac5b-f33458d47eee
7d21db8a-519a-11ea-9204-ebdab57e3e9e,7d664c52-519a-11ea-a96c-2f8b9a083e74
7cfb8cfa-519a-11ea-8e26-072ea3d1aa24,7d667c04-519a-11ea-934b-3f52ad1b3251
7d3239c6-519a-11ea-a357-33a0e4f5f0df,7d66928e-519a-11ea-911b-e32c8b3b6e94
7cec8bec-519a-11ea-86a8-9fc7b0e64ada,7d66aa08-519a-11ea-a859-7f51c67d52f3
7cfa64f6-519a-11ea-9fba-172d1f9ffe81,7d671a60-519a-11ea-b847-d7030c6bddbf
7d0db042-519a-11ea-b107-03f98c171ef3,7d674882-519a-11ea-8ee0-133792f0f846
7d4a8382-519a-11ea-9589-9fd5c96dfd09,7d677b86-519a-11ea-be7d-4b2f8534a946
7d467ba2-519a-11ea-878c-a7874f9d0637,7d6799d6-519a-11ea-b814-a7b81a0a1525
7d2426ec-519a-11ea-ab3c-cba04cb9431f,7d67ecc4-519a-11ea-b7d0-db44045309ce
7d6244b8-519a-11ea-bc52-870a4ded4f4d,7d6828e2-519a-11ea-8174-9343ee484855
7d0bf0fe-519a-11ea-b043-67f89b13d96d,7d687a5e-519a-11ea-908a-fb34728ee0b7
7ce77788-519a-11ea-bca9-3fe53f75fc83,7d685e7a-519a-11ea-997a-8f0d81105bea
7d599d04-519a-11ea-82e8-ff4a691e95ff,7d68c84c-519a-11ea-a20c-cbc58afd0c02
7d2d23c8-519a-11ea-b68b-8f9ff852dde0,7d68f204-519a-11ea-8063-bbe5aa0ddf22
7cf4e134-519a-11ea-a88f-1f67a68e4a97,7d69076c-519a-11ea-94d8-4bdaf37f1d5a
7d3e4a2c-519a-11ea-b87b-7b2bbfb5979c,7d694632-519a-11ea-938c-b33475ddda7b
7d23fea6-519a-11ea-b986-9b4aadae4fd0,7d69b18a-519a-11ea-be21-5fad597a386c
7ce64002-519a-11ea-b662-0fd5db1e3653,7d69cec2-519a-11ea-951b-8bcffdaee4ea
7d0ba0f4-519a-11ea-b48a-9fa846be13b1,7d69e812-519a-11ea-b634-7b34d74081e1
7d28bce8-519a-11ea-b698-53daabaa66d2,7d6a2516-519a-11ea-b796-0f9afa7f5ea5
7d314e08-519a-11ea-a244-bfccd40d8c60,7d6a6c2e-519a-11ea-abdb-7f54edd7a688
7cf5835a-519a-11ea-ad39-53053bb26220,7d6a9fbe-519a-11ea-afea-1ffa901b70ec
7d02bd54-519a-11ea-9908-0bcf1049810c,7d6ab6c0-519a-11ea-a747-673aef1a3cc0
7d652f3e-519a-11ea-9ed8-cb8b114c7fc0,7d6aebe0-519a-11ea-bb1f-bfad6de0430c
7d4868f4-519a-11ea-842b-938f54fcfe30,7d6b62c8-519a-11ea-a4f3-27bb5c306af4
7cf495bc-519a-11ea-8223-1f97f761b444,7d6b7d76-519a-11ea-96ff-c324ba8a5530
7d071868-519a-11ea-b031-ff6c01d68176,7d6b90d6-519a-11ea-bfe0-438c80765f42
7d3a05ca-519a-11ea-a333-5f7634ab5b46,7d6ba602-519a-11ea-8577-cf759665757f
7d33f298-519a-11ea-b232-5f56ea341b22,7d6bf508-519a-11ea-ab56-67f7a4aef296
7cf5835a-519a-11ea-ad39-53053bb26220,7d6c1506-519a-11ea-bd95-bb9b3c2e0a40
7d07fa12-519a-11ea-a855-875dda93fcad,7d6c30ae-519a-11ea-abe7-7357cc1f5d91
7ce21c16-519a-11ea-97ad-973b210a51ca,7d6c4d78-519a-11ea-af64-97185001b6c3
7d6192ca-519a-11ea-8173-77999c0d279e,7d6ce63e-519a-11ea-8fc0-e700c31e7869
7d64100e-519a-11ea-9f87-eb70aabedef5,7d6d04fc-519a-11ea-9cf7-d332846eba09
7d1739e6-519a-11ea-967b-df390c1d000b,7d6d1b72-519a-11ea-9962-6b9a3ab68d69
7ce1141a-519a-11ea-9beb-af2ed50da092,7d6d2fe0-519a-11ea-b351-2f2df2b39dd7
7cecdd18-519a-11ea-b372-cfd7391aef17,7d6db3a2-519a-11ea-8b91-b7455c475577
7d243e16-519a-11ea-95e6-839b74ef2cc5,7d6dd40e-519a-11ea-842e-d3e497f5d4ed
7d05baae-519a-11ea-8d92-5733c5c642a0,7d6df56a-519a-11ea-8958-bf5795f5da55
7d6ba602-519a-11ea-8577-cf759665757f,7d6e07f8-519a-11ea-a233-3718cc1dce9d
7d6a9fbe-519a-11ea-afea-1ffa901b70ec,7d6e65e0-519a-11ea-b8e4-bfed2212fa8e
7d0e58ee-519a-11ea-8648-1b16825bef8e,7d6e876e-519a-11ea-81ad-67fece353120
7d06937a-519a-11ea-a258-9754f1a99030,7d6e9e34-519a-11ea-a115-fb92fad2b81e
7d3d0b76-519a-11ea-8272-337822f52626,7d6ed5fc-519a-11ea-a1b4-13288b9551fe
7d0f2fe4-519a-11ea-949d-2b3579305ca2,7d6f1bb6-519a-11ea-967d-97cee1d1d363
7d5e93d6-519a-11ea-b13e-d7d9503d5775,7d6f31c8-519a-11ea-9d59-3751cfc0ebc2
7d19fe6a-519a-11ea-a2ea-43bbb33b293f,7d6f5d92-519a-11ea-a4fa-f3062f1b83e7
7d019924-519a-11ea-9eab-c396384398bc,7d6f7a0c-519a-11ea-99f6-efd75c8cbd91
7d4eb5b0-519a-11ea-b561-979c179b8aa8,7d6fc5c0-519a-11ea-8c59-97e40e7ef921
7d06aa90-519a-11ea-9b6f-3f3a2af91afb,7d700792-519a-11ea-836c-0f571b0444c0
7d009bd2-519a-11ea-9a2c-c3f5331f08dd,7d701976-519a-11ea-8b28-efe1281dd95e
7d313864-519a-11ea-8ddd-03c7f04727b1,7d70315e-519a-11ea-ae01-f7011a6a46ed
7d258a8c-519a-11ea-aabc-2f09e9835430,7d70443c-519a-11ea-819c-87b51396d3b4
7ce3b4f4-519a-11ea-a31b-eb5f7375c0d6,7d70986a-519a-11ea-bf10-e72c3650def7
7d33f298-519a-11ea-b232-5f56ea341b22,7d70b9e4-519a-11ea-ba23-2f5522e73093
7d4847a2-519a-11ea-bc34-6f02a43f7add,7d70e4f0-519a-11ea-96d7-eb940eccbc87
7ce8c07a-519a-11ea-a3d1-9334affff165,7d712cb2-519a-11ea-a3f1-6742301e0151
7d701976-519a-11ea-8b28-efe1281dd95e,7d71465c-519a-11ea-b2e4-5f968a50d01a
7d63acb8-519a-11ea-8e0c-43861bb7d6a7,7d715b06-519a-11ea-8216-bb74b871a04c
7cea7a96-519a-11ea-a1d2-d35ef3fb0d76,7d718fc2-519a-11ea-8fc4-d7203eac4a21
7cfbd6b0-519a-11ea-8fbf-5fdbdb5dff98,7d71c5aa-519a-11ea-b977-f7380ae2bdb4
7d1bd208-519a-11ea-85c4-3feec5877127,7d71db6c-519a-11ea-9b38-1b16e526f6da
7d701976-519a-11ea-8b28-efe1281dd95e,7d720b0a-519a-11ea-b4e3-a71acfb9cae0
7ce6ff42-519a-11ea-9506-3f313957f1fd,7d72608c-519a-11ea-9962-6fe37501025a
7d0070f8-519a-11ea-9179-7fe8e308c100,7d728652-519a-11ea-8d25-bf92ce22abc9
7d54853a-519a-11ea-88b8-2f1f56d85d31,7d72a0ba-519a-11ea-8502-9b48be8b3c9e
7d5ea9f2-519a-11ea-a930-d3a835b1520e,7d72ed4a-519a-11ea-a8a6-f347ade5e32e
7d1eba9a-519a-11ea-a9d1-b74af0a2025c,7d733de0-519a-11ea-8591-2bf60eea84bc
7ceb736a-519a-11ea-b0c7-db16743e04cb,7d73664e-519a-11ea-99b0-63ff63da39e6
7cf04b74-519a-11ea-b019-f7eb48051c43,7d7366f8-519a-11ea-8fb9-0f2bde006c14
7d13b050-519a-11ea-b80f-e704367697cd,7d7387a0-519a-11ea-8292-4f9b14640fa7
7d087244-519a-11ea-b9c1-8f4df8dfa10b,7d73e1c8-519a-11ea-aa32-274825119b28
7d1ca084-519a-11ea-a9f4-83357f5f06ae,7d740ec8-519a-11ea-b5bc-6f79e83e308b
7d5ea9f2-519a-11ea-a930-d3a835b1520e,7d742eb2-519a-11ea-989c-3fe74738c334
7d65167a-519a-11ea-8c63-ab74eb5f4964,7d745bbc-519a-11ea-85a2-670147fbb7b4
7d552f80-519a-11ea-b0be-1fe9d411e7d4,7d74c93a-519a-11ea-bea4-f762d7af4b25
7d5c6ea8-519a-11ea-9f3c-7fdd7a523e66,7d74df24-519a-11ea-a7bc-d350c57e2667
7d094ebc-519a-11ea-b697-7fa88e447bfc,7d74f3f6-519a-11ea-9188-0fd7221f6528
7d24c0b6-519a-11ea-80a8-7bf9a6431ba2,7d7507a6-519a-11ea-a878-67869a026aea
7d49813a-519a-11ea-bb4a-3b38a3d334c2,7d7588ca-519a-11ea-96ac-8fd0490841c1
7d4363ae-519a-11ea-84df-935a12ef236c,7d75a486-519a-11ea-a353-53b9600c6a29
7d72608c-519a-11ea-9962-6fe37501025a,7d75bec6-519a-11ea-bf5b-43c7ceae519e
7cf0ca18-519a-11ea-9a16-0f62d969db04,7d75d69a-519a-11ea-b06e-e7cff451ba4f
7d5e7e3c-519a-11ea-ab2f-e38b591243b8,7d765cc8-519a-11ea-acda-c31f8b854cad
7cfaff4c-519a-11ea-be15-0718ffc7d73a,7d767488-519a-11ea-819b-1f3451939181
7d26ede6-519a-11ea-9afa-1b2ec48dc7de,7d768a22-519a-11ea-ac9f-cb299b56ee5e
7cfb5852-519a-11ea-83ca-373368d23195,7d76a11a-519a-11ea-aeb8-7315c7737272
7d0d085e-519a-11ea-9048-ab763163e269,7d77011e-519a-11ea-910d-27c72057404a
7d1f6d0a-519a-11ea-882e-87abcb455f8c,7d771b7c-519a-11ea-aba7-4bb9a1a04030
7d4c41cc-519a-11ea-8ab3-4777f7d80c96,7d7777ac-519a-11ea-8579-2f82d28165c8
7d0d6e66-519a-11ea-98cb-6bedb23c2472,7d7798ae-519a-11ea-91a5-f79081cd4dfe
7d2824c2-519a-11ea-b1b8-ef884c944dd5,7d77b208-519a-11ea-819b-83dfa058f0f9
7d582b54-519a-11ea-89d4-2b0b8cbec36b,7d77fc86-519a-11ea-ace6-1f4ac23a33c2
7d0fd6ce-519a-11ea-8c50-47d33996b83f,7d782e7c-519a-11ea-83f9-c38f93103ef0
7d3644da-519a-11ea-aaa0-37d51e3fc28c,7d785776-519a-11ea-8c28-93ee595a1abe
7d2a6dc2-519a-11ea-9636-63cd1288329f,7d7872ba-519a-11ea-b104-770b374b1d87
7d3e029c-519a-11ea-a679-8fa3f0c91d38,7d78cfda-519a-11ea-8627-c39122e2d00a
7d06aa90-519a-11ea-9b6f-3f3a2af91afb,7d78f3ca-519a-11ea-b4c4-87d2ee9f949d
7d2824c2-519a-11ea-b1b8-ef884c944dd5,7d793628-519a-11ea-9ca8-5345c4359be4
7cfbd6b0-519a-11ea-8fbf-5fdbdb5dff98,7d794c94-519a-11ea-91a5-2f5763d57ed7
7d599d04-519a-11ea-82e8-ff4a691e95ff,7d798e16-519a-11ea-8a88-17da0eb4065c
7d58447c-519a-11ea-be95-bb59610f56bd,7d79e000-519a-11ea-baa8-2bacb017f486
7d75bec6-519a-11ea-bf5b-43c7ceae519e,7d79f63a-519a-11ea-a4cf-af151082df05
7d4d4d6a-519a-11ea-9064-fb8f89d0b1b6,7d7a114c-519a-11ea-9c83-0ba49ed5c635
7d446808-519a-11ea-88c2-77bece9c6429,7d7a6e58-519a-11ea-bac6-1bd6164ac28c
7cfa1bb8-519a-11ea-9ba7-4b6aff50c4ff,7d7a97d4-519a-11ea-8aa0-1338218ac4a9
7d39d924-519a-11ea-8eba-d79429bd25e7,7d7acc36-519a-11ea-999b-0f3d8e981f45
7d0ebece-519a-11ea-b677-ab0e81c47f36,7d7aeee6-519a-11ea-b127-6713d02863e3
7cf95692-519a-11ea-9c91-a7a741c0744d,7d7b2096-519a-11ea-a85e-6bf6260734cd
7d200bd4-519a-11ea-b844-5b9d76dc1b29,7d7b4530-519a-11ea-86ec-3f5d3e74fcec
7d21f084-519a-11ea-b0a7-cbe34710e15c,7d7b8d06-519a-11ea-9890-3fda91080049
7d4b6bb2-519a-11ea-b6e2-ab32be898253,7d7ba30e-519a-11ea-8de8-d7332b5c0a5d
7d671a60-519a-11ea-b847-d7030c6bddbf,7d7bb95c-519a-11ea-a3af-5f40a90d401a
7d149d3a-519a-11ea-86b5-63292162a60a,7d7c21da-519a-11ea-848c-4350d5bf3b80
7d031970-519a-11ea-a735-576f8a04c42e,7d7c38a0-519a-11ea-85b0-331cfe4381a5
7cf6ed76-519a-11ea-9a4c-ef93725275ff,7d7c66cc-519a-11ea-a011-e37016e9752a
7d701976-519a-11ea-8b28-efe1281dd95e,7d7c80f8-519a-11ea-a562-7bc826660dce
7ce5df18-519a-11ea-9e4d-a3c37aa7a855,7d7ca5a6-519a-11ea-b4df-9f4993a258a0
7d47aa9a-519a-11ea-a5dc-83dac36e8cd4,7d7ce93a-519a-11ea-9920-fb2af27a594e
7d3aa660-519a-11ea-97a8-5bec95db108c,7d7d0d02-519a-11ea-8b5f-4f60631f6d71
7d6d1b72-519a-11ea-9962-6b9a3ab68d69,7d7d35e8-519a-11ea-ac9c-8f94734176d2
7cfccf8e-519a-11ea-832f-27066414f678,7d7d4a9c-519a-11ea-835c-b7c69c5aabbf
7cf8d550-519a-11ea-a54d-ffa4bea7a8d0,7d7d7f62-519a-11ea-bb73-3b8d9ce4de48
7d02bd54-519a-11ea-9908-0bcf1049810c,7d7e081a-519a-11ea-bfa7-73c1dbdc46e7
7d243e16-519a-11ea-95e6-839b74ef2cc5,7d7e27f0-519a-11ea-8885-cb06ad6732a9
7d142eae-519a-11ea-9441-2f976fd51b07,7d7e4f5a-519a-11ea-8314-9396bcf8e31a
7d262d8e-519a-11ea-82ba-6b09b2ed29be,7d7e6738-519a-11ea-8579-1756ea74dd71
7d028b2c-519a-11ea-ae53-8b7fc3545873,7d7ecf34-519a-11ea-841a-3326739ba136
7cfeb786-519a-11ea-b46c-7b04cc0d54b1,7d7ee2b2-519a-11ea-9378-37a8951b3c7c
7ce17252-519a-11ea-ae37-ef880403b87a,7d7f0472-519a-11ea-ac1f-236f3e433c29
7cefb7ea-519a-11ea-a613-13b18292bf13,7d7f191c-519a-11ea-9e26-df40c1a351d6
7d04edd6-519a-11ea-8fd1-9b8c8b4b0741,7d7f66ce-519a-11ea-a075-9b0acfde10e6
7d39d924-519a-11ea-8eba-d79429bd25e7,7d7faaf8-519a-11ea-884e-6b5a1dbb3cbc
7d243e16-519a-11ea-95e6-839b74ef2cc5,7d7fc3c6-519a-11ea-bb27-8b3fabb81a3b
7d72ed4a-519a-11ea-a8a6-f347ade5e32e,7d7fd97e-519a-11ea-98a5-93c558553e09
7d63acb8-519a-11ea-8e0c-43861bb7d6a7,7d80062e-519a-11ea-8292-d30881a141c4
7d21db8a-519a-11ea-9204-ebdab57e3e9e,7d806d30-519a-11ea-a443-9fa35962641c
7d3239c6-519a-11ea-a357-33a0e4f5f0df,7d8081c6-519a-11ea-9db5-abd1ff37ed45
7d1a3d58-519a-11ea-8434-e7d65366c235,7d80adb8-519a-11ea-8366-f3f7e0f181bd
7d262d8e-519a-11ea-82ba-6b09b2ed29be,7d80cf96-519a-11ea-b04d-e77999c06edc
7d0e58ee-519a-11ea-8648-1b16825bef8e,7d8113c0-519a-11ea-b1e9-cf070c6ff40d
7d47aa9a-519a-11ea-a5dc-83dac36e8cd4,7d815ec0-519a-11ea-b712-cfee3e07288f
7d236946-519a-11ea-a103-f74e3244fa73,7d818832-519a-11ea-b58d-33f6a3c9f50b
7d60e9a6-519a-11ea-88a0-7b143ec22dbb,7d818846-519a-11ea-9bfe-03bbdffacc65
7cfb8cfa-519a-11ea-8e26-072ea3d1aa24,7d821aae-519a-11ea-957b-0f453ff62575
7d785776-519a-11ea-8c28-93ee595a1abe,7d823f20-519a-11ea-921a-87c6fc33ce56
7d6229d8-519a-11ea-b5c9-bf7c9d1a9061,7d8255f0-519a-11ea-ab7f-d324cde6ae70
7d7bb95c-519a-11ea-a3af-5f40a90d401a,7d8269c8-519a-11ea-885a-1bea76c33069
7d1bd208-519a-11ea-85c4-3feec5877127,7d82c83c-519a-11ea-aca8-132bfb56e91d
7d26bbd2-519a-11ea-9a7f-8f25048476d2,7d82dd86-519a-11ea-ba9d-373b8d23f545
7d40b230-519a-11ea-b04d-ebb3ef2e1b8d,7d82fc62-519a-11ea-8678-4be92a3fd612
7d236946-519a-11ea-a103-f74e3244fa73,7d830f0e-519a-11ea-be21-8f15ec0e16fb
7d262d8e-519a-11ea-82ba-6b09b2ed29be,7d839eb0-519a-11ea-ba4c-07221c3d1b6c
7d3eba02-519a-11ea-9c76-c31f892c915d,7d83cda4-519a-11ea-80d4-df61bde0a85a
7d3d1dc8-519a-11ea-9067-c75e3f4d0ff2,7d83e2d0-519a-11ea-a6bd-5f5aaeb6c6fd
7d6b62c8-519a-11ea-a4f3-27bb5c306af4,7d8401ac-519a-11ea-8cec-bf2fd8d1d196
7d505b72-519a-11ea-a20a-b7e2dfc77c18,7d844572-519a-11ea-978d-279e9abd4094
7d15672e-519a-11ea-9cae-5f6d8ab548e0,7d845d14-519a-11ea-abf2-3342db5efbad
7d2f577e-519a-11ea-9ae4-3318154dd1cb,7d847b3c-519a-11ea-9283-7f33a713858f
7d5b82fe-519a-11ea-95ff-9f322c2ef3db,7d84b8ea-519a-11ea-95eb-33988bda3342
7d6f1bb6-519a-11ea-967d-97cee1d1d363,7d84d6ae-519a-11ea-b3b9-bf77cd037099
7d30b54c-519a-11ea-bc9e-bf9b87cbdb04,7d852dca-519a-11ea-8cb7-3b852f90787f
7d02f116-519a-11ea-92cb-434d2380dff1,7d8549cc-519a-11ea-8bf2-531eb702be0b
7d6d2fe0-519a-11ea-b351-2f2df2b39dd7,7d857d02-519a-11ea-a6ae-2f18e10ec8a3
7d4363ae-519a-11ea-84df-935a12ef236c,7d85b222-519a-11ea-aa65-ff1c239ebf9d
7d32123e-519a-11ea-a8b0-e3c1c9022537,7d85de78-519a-11ea-84d8-ffd3d09f8473
7d2e2af2-519a-11ea-80a4-3b8c6bc1b2ea,7d861460-519a-11ea-b0f7-8fc3ee023d22
7d565586-519a-11ea-9bc0-e73503da037d,7d863a3a-519a-11ea-bb21-1766c705c187
7d3a05ca-519a-11ea-a333-5f7634ab5b46,7d864de0-519a-11ea-8526-0b7b72bd2bc7
7d56212e-519a-11ea-b3a3-2337e7975c1a,7d867cac-519a-11ea-a6ec-8fda3b7bb591
7d3d0b76-519a-11ea-8272-337822f52626,7d86d1a2-519a-11ea-8e08-97fc1fb84471
7d7faaf8-519a-11ea-884e-6b5a1dbb3cbc,7d86e692-519a-11ea-a3ce-ab3b2cc50b24
7d42023e-519a-11ea-a249-a7b920ce2a47,7d86fe20-519a-11ea-b161-c7790a81e289
7d4fed68-519a-11ea-8e49-3bc6c2edba2d,7d876662-519a-11ea-a209-932052d2a9e8
7d5d5dfe-519a-11ea-8730-bff61339b9ea,7d8794e8-519a-11ea-a66c-074b25b8fff1
7d5b6db4-519a-11ea-95e4-1b65d46191fb,7d87a9b0-519a-11ea-b15a-4fd8db545f41
7d6ba602-519a-11ea-8577-cf759665757f,7d87c1a2-519a-11ea-8d19-634517e338da
7d6259da-519a-11ea-836e-3ba4fd28dd5e,7d881c24-519a-11ea-9583-cfdda57676de
7d7872ba-519a-11ea-b104-770b374b1d87,7d882e26-519a-11ea-bc75-7b859f1818d1
7cf46740-519a-11ea-a1b6-b30b8df66192,7d884492-519a-11ea-b8ec-fb3eaf23500c
7cf6e3d0-519a-11ea-b96d-931f5be6c863,7d88b1e8-519a-11ea-a377-8be2c761323b
7cffee4e-519a-11ea-8547-a396a391a268,7d8909ae-519a-11ea-8415-571cf03fd7f0
7d87a9b0-519a-11ea-b15a-4fd8db545f41,7d89206a-519a-11ea-811b-63d2e438c984
7d28eff6-519a-11ea-bd12-b726a3f4368d,7d899630-519a-11ea-ac2e-bbf407a7c8be
7d75d69a-519a-11ea-b06e-e7cff451ba4f,7d8a0142-519a-11ea-a2ee-9397fc6e968b
7d6229d8-519a-11ea-b5c9-bf7c9d1a9061,7d89e5ea-519a-11ea-a4f0-0bdb112cfca2
7d4c41cc-519a-11ea-8ab3-4777f7d80c96,7d8a1bd2-519a-11ea-99dd-e30547fa327d
7d39952c-519a-11ea-8a1c-2becb49ff3be,7d8ab6e6-519a-11ea-8489-777a6bdaaa63
7d04a84e-519a-11ea-968a-53c0a6cad2a5,7d8ad3b0-519a-11ea-adf0-e32c6682f007
7d75d69a-519a-11ea-b06e-e7cff451ba4f,7d8b39fe-519a-11ea-aaae-8713c28ea59d
7d42023e-519a-11ea-a249-a7b920ce2a47,7d8b67c6-519a-11ea-b85b-3306a8269dd9
7d405aec-519a-11ea-8005-1bb4231d2061,7d8bbdde-519a-11ea-bcfe-dffe83af264e
7d013a24-519a-11ea-bdf0-5b8d43afe8d8,7d8be728-519a-11ea-a5b5-cbaa316b15f2
7d659bc2-519a-11ea-a2df-57d4cc3f8c82,7d8c3afc-519a-11ea-8387-6f4d55a28302
7d2295a2-519a-11ea-9851-7bc7dfca7f17,7d8c9164-519a-11ea-8855-dbbf7bac5eef
7d49bed4-519a-11ea-9381-0b364453f7d0,7d8d13e6-519a-11ea-995c-9b6f06569896
7d469628-519a-11ea-9c29-6fc81f2e0d82,7d8ce808-519a-11ea-833e-0799642dee4c
7d001fb8-519a-11ea-9f32-5b4c429c9200,7d8da09a-519a-11ea-8f28-238869969877
7d33f298-519a-11ea-b232-5f56ea341b22,7d8dc890-519a-11ea-a3b1-73193b2aebe8
7d316a96-519a-11ea-94cc-4ffd2cb169c9,7d8df1d0-519a-11ea-8c73-63c5deafc62f
7d884492-519a-11ea-b8ec-fb3eaf23500c,7d8e42fc-519a-11ea-8a07-07ad333ac178
7d019924-519a-11ea-9eab-c396384398bc,7d8e9aea-519a-11ea-bee5-ef1fcc49b3ce
7ce1e0a2-519a-11ea-86d5-9f3722c36d35,7d8ed122-519a-11ea-85c4-33f9f433f82e
7d863a3a-519a-11ea-bb21-1766c705c187,7d8ef7ba-519a-11ea-9226-4b682fc831dc
7d475248-519a-11ea-8a21-2f403be5d0cb,7d8f25dc-519a-11ea-b721-1b69776942f6
7d7e6738-519a-11ea-8579-1756ea74dd71,7d8faa0c-519a-11ea-92c1-3bebb7859963
7d4e61f0-519a-11ea-947b-2fbfff5302c3,7d8fc5be-519a-11ea-8e97-b30ae71763ca
7d4d4d6a-519a-11ea-9064-fb8f89d0b1b6,7d8fe8e6-519a-11ea-b62a-b3f103561e72
7d2ccd60-519a-11ea-aa4a-ab5627d12927,7d90093e-519a-11ea-bf81-67fff08a8413
7d0abeaa-519a-11ea-b37f-c3dba8235a62,7d904638-519a-11ea-839a-5b769bba1602
7ce06c9a-519a-11ea-bf66-1739accf09a6,7d9088a0-519a-11ea-a0dc-cb71a5c4683a
7d3a6aba-519a-11ea-b0ed-576629e29f98,7d909f66-519a-11ea-a3fc-cbf0f451100f
7cfd7222-519a-11ea-a721-272bbcbb7190,7d90c2e8-519a-11ea-b7e4-df506e8cbf6d
7d135ae2-519a-11ea-aa88-27c8d633ad98,7d9127ec-519a-11ea-be83-c37fbb4f4607
7ce327d2-519a-11ea-8556-53f414c9aa45,7d9152d0-519a-11ea-b942-5f31613521eb
7d90c2e8-519a-11ea-b7e4-df506e8cbf6d,7d917a08-519a-11ea-a942-971362d804db
7d612d08-519a-11ea-be8c-5b031632e4aa,7d91d250-519a-11ea-9256-ab957c410ca8
7d87a9b0-519a-11ea-b15a-4fd8db545f41,7d921aa8-519a-11ea-aba4-6b6de59ce918
7d7ce93a-519a-11ea-9920-fb2af27a594e,7d928c04-519a-11ea-a89c-bbc86bdb932c
7d18a48e-519a-11ea-9393-b31bec0b28a5,7d92cc00-519a-11ea-8dbc-1703a23caf4b
7d23d7dc-519a-11ea-be75-177ed2bac7e0,7d92cbf6-519a-11ea-a944-5369538ccede
7cef1e2a-519a-11ea-baba-bf0ff7c24098,7d92fb3a-519a-11ea-b11a-c705fa4b37a1
7d3bd2ec-519a-11ea-b083-1fe45434591c,7d9336e0-519a-11ea-8266-370df6af4be7
7d33deca-519a-11ea-bd8d-33aa83a9b7c2,7d9399aa-519a-11ea-8254-3b2dbd62fc80
7d094ebc-519a-11ea-b697-7fa88e447bfc,7d93b3b8-519a-11ea-ada5-cbe8b52416c6
7cefcd8e-519a-11ea-89fb-c3219c55b8e8,7d93d230-519a-11ea-9305-0b6e2cfddb5b
7cf62b16-519a-11ea-8c79-b34310ea186b,7d93e5f4-519a-11ea-96a5-f75cd983288e
7d400dee-519a-11ea-a4d4-efce87b39f93,7d942dc0-519a-11ea-9e37-372a0e005194
7ce99266-519a-11ea-aa40-bf88f7198ec4,7d944954-519a-11ea-b180-2f50e04f659b
7d715b06-519a-11ea-8216-bb74b871a04c,7d94a6ec-519a-11ea-b5b4-a74168bbc006
7cf98c34-519a-11ea-b418-fba61e459b1e,7d95004c-519a-11ea-a516-37709b628634
7d720b0a-519a-11ea-b4e3-a71acfb9cae0,7d9528c4-519a-11ea-ae92-0bec49995d72
7d30b54c-519a-11ea-bc9e-bf9b87cbdb04,7d954138-519a-11ea-b103-bff5442d5da6
7d33c458-519a-11ea-980d-93a256b73309,7d956dfc-519a-11ea-a2bf-572a17fc4dca
7cebebb0-519a-11ea-a618-9329e109f23a,7d95bd34-519a-11ea-9a28-ff1aa47e6a33
7d0555f0-519a-11ea-b8ea-476cec53c8bf,7d95faa6-519a-11ea-bc63-73f50db71974
7d1b1c32-519a-11ea-8a6d-a7e372998527,7d961202-519a-11ea-b62f-7744d53462b2
7d27f36c-519a-11ea-8dde-030cdf50b946,7d963f2a-519a-11ea-ad4a-4b1b97e8439f
7d69b18a-519a-11ea-be21-5fad597a386c,7d9681ba-519a-11ea-b97c-2bf77dd9ec31
7d515ebe-519a-11ea-85f8-43e5616eb20a,7d96b388-519a-11ea-a106-278c8949dc28
7d963f2a-519a-11ea-ad4a-4b1b97e8439f,7d96f83e-519a-11ea-879f-57b12f7d4d43
7d1696f8-519a-11ea-9492-433cf9b166e3,7d970f0e-519a-11ea-81c7-8b53973344cd
7d295612-519a-11ea-b983-1fb2e55c9c8b,7d97b206-519a-11ea-bd73-47d55c00d47a
7d0af3e8-519a-11ea-b2c6-43ed9358b854,7d97d5ec-519a-11ea-b645-d7196307e375
7d273788-519a-11ea-8c69-7ff8b4688a70,7d97fd06-519a-11ea-8a91-af42f705f13a
7d909f66-519a-11ea-a3fc-cbf0f451100f,7d984932-519a-11ea-a3a0-d78016bc5127
7d543c92-519a-11ea-9718-2761cc1c3324,7d98955e-519a-11ea-9223-f399446d1085
7d58fdae-519a-11ea-95cb-4799d576ab7a,7d98e78e-519a-11ea-9f7e-07a3ce84d2bb
7d66928e-519a-11ea-911b-e32c8b3b6e94,7d99098a-519a-11ea-ab11-0ba5594e910a
7d78cfda-519a-11ea-8627-c39122e2d00a,7d998130-519a-11ea-bb63-fbcc4dd84479
7d04edd6-519a-11ea-8fd1-9b8c8b4b0741,7d999864-519a-11ea-95bd-63c8560f31c0
7d69076c-519a-11ea-94d8-4bdaf37f1d5a,7d99d798-519a-11ea-b995-cf0171175dfb
7d14ba86-519a-11ea-8eab-af6c54806234,7d99fd90-519a-11ea-93f2-1fa70e276ae4
7d771b7c-519a-11ea-aba7-4bb9a1a04030,7d9a5bb4-519a-11ea-9934-47564b176ce7
7d5d9a80-519a-11ea-944a-c3d2ab16a72e,7d9ab140-519a-11ea-9789-8f1ab1559e0d
7d95004c-519a-11ea-a516-37709b628634,7d9adf94-519a-11ea-9a7f-7f2c16e993b1
7d4737ae-519a-11ea-b120-6f829a18098d,7d9b1e96-519a-11ea-86b2-1f5f34846a43
7d1247ce-519a-11ea-b34b-838464cc969e,7d9b4218-519a-11ea-b0cd-ef8f417d4d89
