RunID,Tick,ActiveAgentsPerTick
run-2020-2-18-12-30-28.027543067,0,12
run-2020-2-18-12-30-28.027543067,1,19
run-2020-2-18-12-30-28.027543067,2,21
run-2020-2-18-12-30-28.027543067,3,19
run-2020-2-18-12-30-28.027543067,4,15
run-2020-2-18-12-30-28.027543067,5,14
run-2020-2-18-12-30-28.027543067,6,16
run-2020-2-18-12-30-28.027543067,7,21
run-2020-2-18-12-30-28.027543067,8,26
run-2020-2-18-12-30-28.027543067,9,22
run-2020-2-18-12-30-28.027543067,10,20
run-2020-2-18-12-30-28.027543067,11,21
run-2020-2-18-12-30-28.027543067,12,18
run-2020-2-18-12-30-28.027543067,13,19
run-2020-2-18-12-30-28.027543067,14,19
run-2020-2-18-12-30-28.027543067,15,22
run-2020-2-18-12-30-28.027543067,16,26
run-2020-2-18-12-30-28.027543067,17,29
run-2020-2-18-12-30-28.027543067,18,32
run-2020-2-18-12-30-28.027543067,19,34
run-2020-2-18-12-30-28.027543067,20,32
run-2020-2-18-12-30-28.027543067,21,34
run-2020-2-18-12-30-28.027543067,22,32
run-2020-2-18-12-30-28.027543067,23,33
run-2020-2-18-12-30-28.027543067,24,35
run-2020-2-18-12-30-28.027543067,25,40
run-2020-2-18-12-30-28.027543067,26,38
run-2020-2-18-12-30-28.027543067,27,35
run-2020-2-18-12-30-28.027543067,28,40
run-2020-2-18-12-30-28.027543067,29,42
run-2020-2-18-12-30-28.027543067,30,44
run-2020-2-18-12-30-28.027543067,31,47
run-2020-2-18-12-30-28.027543067,32,48
run-2020-2-18-12-30-28.027543067,33,45
run-2020-2-18-12-30-28.027543067,34,50
run-2020-2-18-12-30-28.027543067,35,47
run-2020-2-18-12-30-28.027543067,36,48
run-2020-2-18-12-30-28.027543067,37,48
run-2020-2-18-12-30-28.027543067,38,52
run-2020-2-18-12-30-28.027543067,39,50
run-2020-2-18-12-30-28.027543067,40,47
run-2020-2-18-12-30-28.027543067,41,43
run-2020-2-18-12-30-28.027543067,42,44
run-2020-2-18-12-30-28.027543067,43,43
run-2020-2-18-12-30-28.027543067,44,48
run-2020-2-18-12-30-28.027543067,45,54
run-2020-2-18-12-30-28.027543067,46,54
run-2020-2-18-12-30-28.027543067,47,52
run-2020-2-18-12-30-28.027543067,48,55
run-2020-2-18-12-30-28.027543067,49,56
run-2020-2-18-12-30-28.027543067,50,56
run-2020-2-18-12-30-28.027543067,51,57
run-2020-2-18-12-30-28.027543067,52,54
run-2020-2-18-12-30-28.027543067,53,56
run-2020-2-18-12-30-28.027543067,54,56
run-2020-2-18-12-30-28.027543067,55,50
run-2020-2-18-12-30-28.027543067,56,52
run-2020-2-18-12-30-28.027543067,57,54
run-2020-2-18-12-30-28.027543067,58,51
run-2020-2-18-12-30-28.027543067,59,50
run-2020-2-18-12-30-28.027543067,60,52
run-2020-2-18-12-30-28.027543067,61,56
run-2020-2-18-12-30-28.027543067,62,58
run-2020-2-18-12-30-28.027543067,63,63
run-2020-2-18-12-30-28.027543067,64,65
run-2020-2-18-12-30-28.027543067,65,66
run-2020-2-18-12-30-28.027543067,66,64
run-2020-2-18-12-30-28.027543067,67,60
run-2020-2-18-12-30-28.027543067,68,67
run-2020-2-18-12-30-28.027543067,69,66
run-2020-2-18-12-30-28.027543067,70,64
run-2020-2-18-12-30-28.027543067,71,62
run-2020-2-18-12-30-28.027543067,72,62
run-2020-2-18-12-30-28.027543067,73,58
run-2020-2-18-12-30-28.027543067,74,61
run-2020-2-18-12-30-28.027543067,75,66
run-2020-2-18-12-30-28.027543067,76,67
run-2020-2-18-12-30-28.027543067,77,66
run-2020-2-18-12-30-28.027543067,78,62
run-2020-2-18-12-30-28.027543067,79,67
run-2020-2-18-12-30-28.027543067,80,70
run-2020-2-18-12-30-28.027543067,81,70
run-2020-2-18-12-30-28.027543067,82,72
run-2020-2-18-12-30-28.027543067,83,70
run-2020-2-18-12-30-28.027543067,84,63
run-2020-2-18-12-30-28.027543067,85,62
run-2020-2-18-12-30-28.027543067,86,64
run-2020-2-18-12-30-28.027543067,87,68
run-2020-2-18-12-30-28.027543067,88,67
run-2020-2-18-12-30-28.027543067,89,67
run-2020-2-18-12-30-28.027543067,90,65
run-2020-2-18-12-30-28.027543067,91,63
run-2020-2-18-12-30-28.027543067,92,61
run-2020-2-18-12-30-28.027543067,93,65
run-2020-2-18-12-30-28.027543067,94,61
run-2020-2-18-12-30-28.027543067,95,61
run-2020-2-18-12-30-28.027543067,96,64
run-2020-2-18-12-30-28.027543067,97,63
run-2020-2-18-12-30-28.027543067,98,62
run-2020-2-18-12-30-28.027543067,99,60
run-2020-2-18-12-30-28.027543067,100,57
