RunID,Agent,Age,Created,Inactive,Resources,Reputation,Ability,Que
run-2020-2-17-18-2-47.706218004,AGENT#b5710d98-51af-11ea-b28f-8366a2feb826,0,0,0,10,1.0,1.0,0
run-2020-2-17-18-2-47.706218004,AGENT#b5711d06-51af-11ea-a873-bff34b04ceb8,2,0,2,10,1.0,1.0,0
run-2020-2-17-18-2-47.706218004,AGENT#b5712562-51af-11ea-83f0-632ca317bfeb,2,0,2,10,1.0,1.0,0
run-2020-2-17-18-2-47.706218004,AGENT#b571703a-51af-11ea-9068-cf350c877d18,2,0,2,10,1.0,1.0,0
run-2020-2-17-18-2-47.706218004,AGENT#b57aa9f2-51af-11ea-b77e-a3e0f9e0b219,1,1,2,10,1.0,1.0,0
run-2020-2-17-18-2-47.706218004,AGENT#b57aaf24-51af-11ea-bed6-e39f91f9ab27,1,1,2,10,1.0,1.0,0
run-2020-2-17-18-2-47.706218004,AGENT#b571229c-51af-11ea-b3d2-17be4083a41c,3,0,3,10,1.0,1.0,0
run-2020-2-17-18-2-47.706218004,AGENT#b57d4478-51af-11ea-b89e-2b9ebdc6fafa,1,2,3,10,1.0,1.0,0
run-2020-2-17-18-2-47.706218004,AGENT#b57f9214-51af-11ea-a572-471e48a39146,1,3,4,10,1.0,1.0,0
run-2020-2-17-18-2-47.706218004,AGENT#b5711464-51af-11ea-ba4e-efd7a50cd546,5,0,5,10,1.0,1.0,0
run-2020-2-17-18-2-47.706218004,AGENT#b57173a0-51af-11ea-b0f8-87313513df3d,5,0,5,10,1.0,1.0,0
run-2020-2-17-18-2-47.706218004,AGENT#b57d4ae0-51af-11ea-83c8-63f804bf01bc,3,2,5,10,1.0,1.0,0
run-2020-2-17-18-2-47.706218004,AGENT#b5818376-51af-11ea-a1ef-73b91e16d3be,2,4,6,10,1.0,1.0,0
run-2020-2-17-18-2-47.706218004,AGENT#b5818a9c-51af-11ea-8e8e-6b07691754ac,2,4,6,10,1.0,1.0,0
run-2020-2-17-18-2-47.706218004,AGENT#b57f948a-51af-11ea-8edd-978d085b435c,4,3,7,10,1.0,1.0,0
run-2020-2-17-18-2-47.706218004,AGENT#b5842108-51af-11ea-9790-57ae22bc3803,1,6,7,10,1.0,1.0,0
run-2020-2-17-18-2-47.706218004,AGENT#b5831010-51af-11ea-bdab-6bc9959249b8,4,5,9,10,1.0,1.0,0
run-2020-2-17-18-2-47.706218004,AGENT#b584dc42-51af-11ea-b3f0-fb897ccf0913,2,7,9,10,1.0,1.0,0
run-2020-2-17-18-2-47.706218004,AGENT#b584ded6-51af-11ea-9b7d-275a1f819c00,2,7,9,10,1.0,1.0,0
run-2020-2-17-18-2-47.706218004,AGENT#b585b91e-51af-11ea-98ff-d7c30ecf41d8,1,8,9,10,1.0,1.0,0
run-2020-2-17-18-2-47.706218004,AGENT#b5711fd6-51af-11ea-8ff0-1bfdd1e08b0c,10,0,10,10,1.0,1.0,0
run-2020-2-17-18-2-47.706218004,AGENT#b57aa1a0-51af-11ea-8ee2-b3639a00ff46,9,1,10,10,1.0,1.0,0
run-2020-2-17-18-2-47.706218004,AGENT#b5830d36-51af-11ea-93cf-e7cbf1f52fbb,5,5,10,10,1.0,1.0,0
run-2020-2-17-18-2-47.706218004,AGENT#b5859f9c-51af-11ea-908f-4f71a1454773,2,8,10,10,1.0,1.0,0
run-2020-2-17-18-2-47.706218004,AGENT#b585bd42-51af-11ea-bb3e-5b0b9d826007,2,8,10,10,1.0,1.0,0
run-2020-2-17-18-2-47.706218004,AGENT#b58423a6-51af-11ea-93b1-a37ae2f50b2e,5,6,11,10,1.0,1.0,0
run-2020-2-17-18-2-47.706218004,AGENT#b585a97e-51af-11ea-a3f6-7787cffbb4f3,3,8,11,10,1.0,1.0,0
run-2020-2-17-18-2-47.706218004,AGENT#b586723c-51af-11ea-b069-e760e788af10,2,9,11,10,1.0,1.0,0
run-2020-2-17-18-2-47.706218004,AGENT#b58674f8-51af-11ea-915d-fb72d6d9097f,2,9,11,10,1.0,1.0,0
run-2020-2-17-18-2-47.706218004,AGENT#b5870f9e-51af-11ea-9d4e-c78d194c2b80,1,10,11,10,1.0,1.0,0
run-2020-2-17-18-2-47.706218004,AGENT#b58711ec-51af-11ea-a2bd-13c516184851,1,10,11,10,1.0,1.0,0
run-2020-2-17-18-2-47.706218004,AGENT#b587ad28-51af-11ea-ad25-5f67c7beea9a,2,11,13,10,1.0,1.0,0
run-2020-2-17-18-2-47.706218004,AGENT#b588340a-51af-11ea-9142-a77b51e9f525,3,12,15,10,1.0,1.0,0
run-2020-2-17-18-2-47.706218004,AGENT#b5894e1c-51af-11ea-aa94-ab1a7536cda0,1,14,15,10,1.0,1.0,0
run-2020-2-17-18-2-47.706218004,AGENT#b588314e-51af-11ea-b3a0-a7f17fbbc644,4,12,16,10,1.0,1.0,0
run-2020-2-17-18-2-47.706218004,AGENT#b5711a22-51af-11ea-ab92-630746b5c3f3,17,0,17,10,1.0,1.0,0
run-2020-2-17-18-2-47.706218004,AGENT#b5894480-51af-11ea-8e0b-17d800b7ba5f,3,14,17,10,1.0,1.0,0
run-2020-2-17-18-2-47.706218004,AGENT#b589f272-51af-11ea-9c4b-6baa6d5dcd05,2,15,17,10,1.0,1.0,0
run-2020-2-17-18-2-47.706218004,AGENT#b58a8dcc-51af-11ea-a015-877748f30e8f,1,16,17,10,1.0,1.0,0
run-2020-2-17-18-2-47.706218004,AGENT#b58a974a-51af-11ea-9929-7b694bf6346d,1,16,17,10,1.0,1.0,0
run-2020-2-17-18-2-47.706218004,AGENT#b58946ec-51af-11ea-8b6a-ffe666059d44,4,14,18,10,1.0,1.0,0
run-2020-2-17-18-2-47.706218004,AGENT#b58a88e0-51af-11ea-b7eb-8760ebe5bbbe,2,16,18,10,1.0,1.0,0
run-2020-2-17-18-2-47.706218004,AGENT#b58a929a-51af-11ea-abc8-c7d42207e554,2,16,18,10,1.0,1.0,0
run-2020-2-17-18-2-47.706218004,AGENT#b58b3e66-51af-11ea-96ef-635bc72354f4,1,17,18,10,1.0,1.0,0
run-2020-2-17-18-2-47.706218004,AGENT#b5894944-51af-11ea-8ab9-6bbe87a8f728,5,14,19,10,1.0,1.0,0
run-2020-2-17-18-2-47.706218004,AGENT#b58b3998-51af-11ea-9d25-0b39208cd733,3,17,20,10,1.0,1.0,0
run-2020-2-17-18-2-47.706218004,AGENT#b58c64d0-51af-11ea-a18c-07ab39976801,1,19,20,10,1.0,1.0,0
run-2020-2-17-18-2-47.706218004,AGENT#b58b3736-51af-11ea-bff0-e3bde281bbfa,4,17,21,10,1.0,1.0,0
run-2020-2-17-18-2-47.706218004,AGENT#b58d05ac-51af-11ea-a9fa-df5e3ebc111e,1,20,21,10,1.0,1.0,0
run-2020-2-17-18-2-47.706218004,AGENT#b58cfe0e-51af-11ea-987a-b3fd71cd7dc4,2,20,22,10,1.0,1.0,0
run-2020-2-17-18-2-47.706218004,AGENT#b58d00e8-51af-11ea-b88e-ef00ebfbcc36,2,20,22,10,1.0,1.0,0
run-2020-2-17-18-2-47.706218004,AGENT#b58d0368-51af-11ea-8528-1ba1c7f3ff20,3,20,23,10,1.0,1.0,0
run-2020-2-17-18-2-47.706218004,AGENT#b584e12e-51af-11ea-9f61-e3fe1c41aed2,17,7,24,10,1.0,1.0,0
run-2020-2-17-18-2-47.706218004,AGENT#b58c6764-51af-11ea-a2df-eb6b49e1b7b0,5,19,24,10,1.0,1.0,0
run-2020-2-17-18-2-47.706218004,AGENT#b58daad4-51af-11ea-b826-ffb6be0e430a,3,21,24,10,1.0,1.0,0
run-2020-2-17-18-2-47.706218004,AGENT#b58eefe8-51af-11ea-a54e-6febafc2606d,1,23,24,10,1.0,1.0,0
run-2020-2-17-18-2-47.706218004,AGENT#b58ef48e-51af-11ea-8b57-2fb8f9a915e4,1,23,24,10,1.0,1.0,0
run-2020-2-17-18-2-47.706218004,AGENT#b58d07fa-51af-11ea-b8a7-7337f1f82820,5,20,25,10,1.0,1.0,0
run-2020-2-17-18-2-47.706218004,AGENT#b58f9f1a-51af-11ea-a0dd-87c584fd69df,1,24,25,10,1.0,1.0,0
run-2020-2-17-18-2-47.706218004,AGENT#b58e4278-51af-11ea-b033-3f77ee8accc3,4,22,26,10,1.0,1.0,0
run-2020-2-17-18-2-47.706218004,AGENT#b58ef6dc-51af-11ea-8a97-8b574d1f190e,3,23,26,10,1.0,1.0,0
run-2020-2-17-18-2-47.706218004,AGENT#b58ef934-51af-11ea-abfb-9b6ea6739e95,3,23,26,10,1.0,1.0,0
run-2020-2-17-18-2-47.706218004,AGENT#b58a94f2-51af-11ea-be01-dfb43bedd245,11,16,27,10,1.0,1.0,0
run-2020-2-17-18-2-47.706218004,AGENT#b5903790-51af-11ea-a965-e3fd9174804d,3,25,28,10,1.0,1.0,0
run-2020-2-17-18-2-47.706218004,AGENT#b591ee96-51af-11ea-bfcd-ffb5c0e7dabf,1,27,28,10,1.0,1.0,0
run-2020-2-17-18-2-47.706218004,AGENT#b58f9c7c-51af-11ea-a2d3-33890b223e82,5,24,29,10,1.0,1.0,0
run-2020-2-17-18-2-47.706218004,AGENT#b590354c-51af-11ea-80aa-f77a1e4eee7d,4,25,29,10,1.0,1.0,0
run-2020-2-17-18-2-47.706218004,AGENT#b590dcb8-51af-11ea-856a-9b863f266db6,3,26,29,10,1.0,1.0,0
run-2020-2-17-18-2-47.706218004,AGENT#b590df4c-51af-11ea-b85b-2f1b96a27a46,3,26,29,10,1.0,1.0,0
run-2020-2-17-18-2-47.706218004,AGENT#b591f4e0-51af-11ea-a003-ff2c0e3af092,2,27,29,10,1.0,1.0,0
run-2020-2-17-18-2-47.706218004,AGENT#b585b41e-51af-11ea-9758-5f03a4ea8cbb,22,8,30,10,1.0,1.0,0
run-2020-2-17-18-2-47.706218004,AGENT#b590e406-51af-11ea-a262-571c71ad6ea1,4,26,30,10,1.0,1.0,0
run-2020-2-17-18-2-47.706218004,AGENT#b591f1c0-51af-11ea-ba70-1ff92bf8f3f8,3,27,30,10,1.0,1.0,0
run-2020-2-17-18-2-47.706218004,AGENT#b592bd30-51af-11ea-bb29-9f98383985bf,2,28,30,10,1.0,1.0,0
run-2020-2-17-18-2-47.706218004,AGENT#b5937b8a-51af-11ea-a517-6b3a88859551,1,29,30,10,1.0,1.0,0
run-2020-2-17-18-2-47.706218004,AGENT#b589efc0-51af-11ea-aa4f-d77bdb65bb2c,16,15,31,10,1.0,1.0,0
run-2020-2-17-18-2-47.706218004,AGENT#b590e19a-51af-11ea-9170-af1f374a68de,5,26,31,10,1.0,1.0,0
run-2020-2-17-18-2-47.706218004,AGENT#b5937e32-51af-11ea-9443-7fbc47b7c02f,2,29,31,10,1.0,1.0,0
run-2020-2-17-18-2-47.706218004,AGENT#b591ead6-51af-11ea-a97b-734c061ae3fd,5,27,32,10,1.0,1.0,0
run-2020-2-17-18-2-47.706218004,AGENT#b5943764-51af-11ea-a324-23a603c9eb91,2,30,32,10,1.0,1.0,0
run-2020-2-17-18-2-47.706218004,AGENT#b592b592-51af-11ea-8d1b-6338d7dfe0f5,5,28,33,10,1.0,1.0,0
run-2020-2-17-18-2-47.706218004,AGENT#b5950b6c-51af-11ea-b6f1-0b744061747e,2,31,33,10,1.0,1.0,0
run-2020-2-17-18-2-47.706218004,AGENT#b5950dd8-51af-11ea-a50e-93de51268eb1,2,31,33,10,1.0,1.0,0
run-2020-2-17-18-2-47.706218004,AGENT#b5951274-51af-11ea-a00c-1b94d421834f,2,31,33,10,1.0,1.0,0
run-2020-2-17-18-2-47.706218004,AGENT#b595f19e-51af-11ea-99cd-6bbcdf079e88,1,32,33,10,1.0,1.0,0
run-2020-2-17-18-2-47.706218004,AGENT#b595f89c-51af-11ea-aec2-8bc6ce907d11,1,32,33,10,1.0,1.0,0
run-2020-2-17-18-2-47.706218004,AGENT#b5942d50-51af-11ea-98b3-3b9bd7afd3b2,4,30,34,10,1.0,1.0,0
run-2020-2-17-18-2-47.706218004,AGENT#b595ecda-51af-11ea-b7c2-17f21b443b9b,2,32,34,10,1.0,1.0,0
run-2020-2-17-18-2-47.706218004,AGENT#b595063a-51af-11ea-83f3-67a75a084bc9,4,31,35,10,1.0,1.0,0
run-2020-2-17-18-2-47.706218004,AGENT#b595101c-51af-11ea-99af-af4fa811af70,4,31,35,10,1.0,1.0,0
run-2020-2-17-18-2-47.706218004,AGENT#b595e9ec-51af-11ea-bbf8-1bab3928968b,3,32,35,10,1.0,1.0,0
run-2020-2-17-18-2-47.706218004,AGENT#b595f658-51af-11ea-978a-cb6c0e56b51b,3,32,35,10,1.0,1.0,0
run-2020-2-17-18-2-47.706218004,AGENT#b5870d14-51af-11ea-b54a-3beed800874e,26,10,36,10,1.0,1.0,0
run-2020-2-17-18-2-47.706218004,AGENT#b595090a-51af-11ea-a3de-e38243a51e40,5,31,36,10,1.0,1.0,0
run-2020-2-17-18-2-47.706218004,AGENT#b595f3ec-51af-11ea-a3f5-6ba164e263a7,4,32,36,10,1.0,1.0,0
run-2020-2-17-18-2-47.706218004,AGENT#b5983760-51af-11ea-9fc1-6b31dbf5a138,1,35,36,10,1.0,1.0,0
run-2020-2-17-18-2-47.706218004,AGENT#b5983a44-51af-11ea-8291-7b6505b38061,1,35,36,10,1.0,1.0,0
run-2020-2-17-18-2-47.706218004,AGENT#b59840c0-51af-11ea-9065-97a8d2cc989e,1,35,36,10,1.0,1.0,0
run-2020-2-17-18-2-47.706218004,AGENT#b5818830-51af-11ea-8ee3-8fef4da99749,33,4,37,10,1.0,1.0,0
run-2020-2-17-18-2-47.706218004,AGENT#b59776cc-51af-11ea-8766-579a4cd898c3,3,34,37,10,1.0,1.0,0
run-2020-2-17-18-2-47.706218004,AGENT#b5977910-51af-11ea-a729-7bd22d0b43f8,3,34,37,10,1.0,1.0,0
run-2020-2-17-18-2-47.706218004,AGENT#b59900a0-51af-11ea-b23e-7fa9b49ae8ba,1,36,37,10,1.0,1.0,0
run-2020-2-17-18-2-47.706218004,AGENT#b5977168-51af-11ea-8731-73ced7819cde,4,34,38,10,1.0,1.0,0
run-2020-2-17-18-2-47.706218004,AGENT#b5977460-51af-11ea-894e-e3ebb2d111ac,4,34,38,10,1.0,1.0,0
run-2020-2-17-18-2-47.706218004,AGENT#b599b8c4-51af-11ea-8326-d79c1d3181e1,1,37,38,10,1.0,1.0,0
run-2020-2-17-18-2-47.706218004,AGENT#b59a7cf0-51af-11ea-a71f-9ff5241dc9f1,1,38,39,10,1.0,1.0,0
run-2020-2-17-18-2-47.706218004,AGENT#b59a840c-51af-11ea-b28b-b32ba197243e,1,38,39,10,1.0,1.0,0
run-2020-2-17-18-2-47.706218004,AGENT#b599037a-51af-11ea-bee2-f31024caf842,4,36,40,10,1.0,1.0,0
run-2020-2-17-18-2-47.706218004,AGENT#b599b446-51af-11ea-ba17-27ca8c603f17,3,37,40,10,1.0,1.0,0
run-2020-2-17-18-2-47.706218004,AGENT#b59a7f70-51af-11ea-9c8e-5777e0dd7b10,2,38,40,10,1.0,1.0,0
run-2020-2-17-18-2-47.706218004,AGENT#b59b4fea-51af-11ea-bdb0-cf658d912b63,1,39,40,10,1.0,1.0,0
run-2020-2-17-18-2-47.706218004,AGENT#b59b5274-51af-11ea-9bce-a71d5ffa507b,1,39,40,10,1.0,1.0,0
run-2020-2-17-18-2-47.706218004,AGENT#b59b599a-51af-11ea-8691-af4d6012bfc6,2,39,41,10,1.0,1.0,0
run-2020-2-17-18-2-47.706218004,AGENT#b594300c-51af-11ea-8aee-6bc7714279f6,13,30,43,10,1.0,1.0,0
run-2020-2-17-18-2-47.706218004,AGENT#b59b54ea-51af-11ea-a2b2-270bc5a71023,4,39,43,10,1.0,1.0,0
run-2020-2-17-18-2-47.706218004,AGENT#b59d1082-51af-11ea-8ee3-0baf091977c5,2,41,43,10,1.0,1.0,0
run-2020-2-17-18-2-47.706218004,AGENT#b59ec242-51af-11ea-b67b-5f7c8398026e,1,43,44,10,1.0,1.0,0
run-2020-2-17-18-2-47.706218004,AGENT#b571116c-51af-11ea-ab08-9fa290a72cf5,45,0,45,10,1.0,1.0,0
run-2020-2-17-18-2-47.706218004,AGENT#b5712846-51af-11ea-bb42-1f7e0343f540,45,0,45,10,1.0,1.0,0
run-2020-2-17-18-2-47.706218004,AGENT#b59d0812-51af-11ea-a027-77b9abf71243,4,41,45,10,1.0,1.0,0
run-2020-2-17-18-2-47.706218004,AGENT#b59d1316-51af-11ea-91a2-87c2f8461367,4,41,45,10,1.0,1.0,0
run-2020-2-17-18-2-47.706218004,AGENT#b59df04c-51af-11ea-a599-0b3841044482,3,42,45,10,1.0,1.0,0
run-2020-2-17-18-2-47.706218004,AGENT#b59fa8e2-51af-11ea-a2d3-a3eac7b63fa8,1,44,45,10,1.0,1.0,0
run-2020-2-17-18-2-47.706218004,AGENT#b57aa74a-51af-11ea-a985-171dc79bddc2,45,1,46,10,1.0,1.0,0
run-2020-2-17-18-2-47.706218004,AGENT#b57aac90-51af-11ea-9117-7f8e2423611a,45,1,46,10,1.0,1.0,0
run-2020-2-17-18-2-47.706218004,AGENT#b5711748-51af-11ea-8629-5b9bb8ae0b37,47,0,47,10,1.0,1.0,0
run-2020-2-17-18-2-47.706218004,AGENT#b571768e-51af-11ea-a8e0-c3a4ff49c01e,47,0,47,10,1.0,1.0,0
run-2020-2-17-18-2-47.706218004,AGENT#b57d4fd6-51af-11ea-a68f-1b9d618716dc,45,2,47,10,1.0,1.0,0
run-2020-2-17-18-2-47.706218004,AGENT#b5983d0a-51af-11ea-8bf5-c77df16a80eb,12,35,47,10,1.0,1.0,0
run-2020-2-17-18-2-47.706218004,AGENT#b5a09a9a-51af-11ea-81d1-6bcbc6009cc6,2,45,47,10,1.0,1.0,0
run-2020-2-17-18-2-47.706218004,AGENT#b5a17230-51af-11ea-8e14-17fd1229a860,1,46,47,10,1.0,1.0,0
run-2020-2-17-18-2-47.706218004,AGENT#b57f8f62-51af-11ea-b61e-cfc459ebf285,45,3,48,10,1.0,1.0,0
run-2020-2-17-18-2-47.706218004,AGENT#b57f96f6-51af-11ea-b496-13eec5b1966e,45,3,48,10,1.0,1.0,0
run-2020-2-17-18-2-47.706218004,AGENT#b58941d8-51af-11ea-85d5-9f32de0e5597,34,14,48,10,1.0,1.0,0
run-2020-2-17-18-2-47.706218004,AGENT#b58185d8-51af-11ea-87c1-f73b34aaac3a,45,4,49,10,1.0,1.0,0
run-2020-2-17-18-2-47.706218004,AGENT#b5a3913c-51af-11ea-8a81-079a64e06b12,1,48,49,10,1.0,1.0,0
run-2020-2-17-18-2-47.706218004,AGENT#b57aa4a2-51af-11ea-a223-eb3e9b6abaae,49,1,50,10,1.0,1.0,0
run-2020-2-17-18-2-47.706218004,AGENT#b5817e76-51af-11ea-8d10-5fa906204092,46,4,50,10,1.0,1.0,0
run-2020-2-17-18-2-47.706218004,AGENT#b5818114-51af-11ea-a0e6-ff9fa1f69263,46,4,50,10,1.0,1.0,0
run-2020-2-17-18-2-47.706218004,AGENT#b57ab1ae-51af-11ea-a7ed-23c1d45bd18b,50,1,51,10,1.0,1.0,0
run-2020-2-17-18-2-47.706218004,AGENT#b5a4956e-51af-11ea-9342-3799526bfe70,2,49,51,10,1.0,1.0,0
run-2020-2-17-18-2-47.706218004,AGENT#b5a4982a-51af-11ea-a64e-ef490b1e884b,2,49,51,10,1.0,1.0,0
run-2020-2-17-18-2-47.706218004,AGENT#b5a49b18-51af-11ea-bc4c-536935c5b00c,2,49,51,10,1.0,1.0,0
run-2020-2-17-18-2-47.706218004,AGENT#b5a59f40-51af-11ea-8553-178dc7c6e656,1,50,51,10,1.0,1.0,0
run-2020-2-17-18-2-47.706218004,AGENT#b5a69b2a-51af-11ea-a1b2-27592494aeb3,1,51,52,10,1.0,1.0,0
run-2020-2-17-18-2-47.706218004,AGENT#b585c198-51af-11ea-b83a-43ff9cb2195d,45,8,53,10,1.0,1.0,0
run-2020-2-17-18-2-47.706218004,AGENT#b5a38ac0-51af-11ea-bf73-b76fa54c07f8,5,48,53,10,1.0,1.0,0
run-2020-2-17-18-2-47.706218004,AGENT#b5a3943e-51af-11ea-a10e-53acac06dd0c,5,48,53,10,1.0,1.0,0
run-2020-2-17-18-2-47.706218004,AGENT#b5a59bc6-51af-11ea-b2c9-cfb638cb0d74,3,50,53,10,1.0,1.0,0
run-2020-2-17-18-2-47.706218004,AGENT#b5a6986e-51af-11ea-8e97-a33d811d2b55,2,51,53,10,1.0,1.0,0
run-2020-2-17-18-2-47.706218004,AGENT#b5a81e28-51af-11ea-bd71-cbdfa29ecb49,1,52,53,10,1.0,1.0,0
run-2020-2-17-18-2-47.706218004,AGENT#b5a82184-51af-11ea-9b78-47e2ff61238d,1,52,53,10,1.0,1.0,0
run-2020-2-17-18-2-47.706218004,AGENT#b585aff0-51af-11ea-a349-a367990e71e0,46,8,54,10,1.0,1.0,0
run-2020-2-17-18-2-47.706218004,AGENT#b58e4516-51af-11ea-9373-37eedfd275b2,32,22,54,10,1.0,1.0,0
run-2020-2-17-18-2-47.706218004,AGENT#b59032c2-51af-11ea-8c79-9b1bad531cc5,29,25,54,10,1.0,1.0,0
run-2020-2-17-18-2-47.706218004,AGENT#b5a5a210-51af-11ea-8e93-937daf39c983,4,50,54,10,1.0,1.0,0
run-2020-2-17-18-2-47.706218004,AGENT#b5a8170c-51af-11ea-af7a-f39338bbc41e,2,52,54,10,1.0,1.0,0
run-2020-2-17-18-2-47.706218004,AGENT#b5a976d8-51af-11ea-a0dd-ef7dc8ce5bab,1,53,54,10,1.0,1.0,0
run-2020-2-17-18-2-47.706218004,AGENT#b5a97ac0-51af-11ea-993a-7f1915e0bfe5,1,53,54,10,1.0,1.0,0
run-2020-2-17-18-2-47.706218004,AGENT#b5818cea-51af-11ea-8ed7-935ed8563018,51,4,55,10,1.0,1.0,0
run-2020-2-17-18-2-47.706218004,AGENT#b586776e-51af-11ea-9fd0-6382d443a98d,46,9,55,10,1.0,1.0,0
run-2020-2-17-18-2-47.706218004,AGENT#b5a48966-51af-11ea-ae7a-a75eeca7d26a,6,49,55,10,1.0,1.0,0
run-2020-2-17-18-2-47.706218004,AGENT#b5a8251c-51af-11ea-b0c3-0756b0cd7f4c,3,52,55,10,1.0,1.0,0
run-2020-2-17-18-2-47.706218004,AGENT#b5a97e76-51af-11ea-bda9-3faa84ae675b,2,53,55,10,1.0,1.0,0
run-2020-2-17-18-2-47.706218004,AGENT#b5a9890c-51af-11ea-98a9-cfa0f85ef1e3,2,53,55,10,1.0,1.0,0
run-2020-2-17-18-2-47.706218004,AGENT#b5aab7f0-51af-11ea-8236-db1a7999801a,1,54,55,10,1.0,1.0,0
run-2020-2-17-18-2-47.706218004,AGENT#b587a968-51af-11ea-b0c0-5b5631bb658e,45,11,56,10,1.0,1.0,0
run-2020-2-17-18-2-47.706218004,AGENT#b5abd838-51af-11ea-a01f-7f53bbfe302e,1,55,56,10,1.0,1.0,0
run-2020-2-17-18-2-47.706218004,AGENT#b588ae80-51af-11ea-875f-0f71625d6218,45,13,58,10,1.0,1.0,0
run-2020-2-17-18-2-47.706218004,AGENT#b588b114-51af-11ea-8b0b-ab442c6fc9ea,46,13,59,10,1.0,1.0,0
run-2020-2-17-18-2-47.706218004,AGENT#b588b380-51af-11ea-bccd-d76a7f7cf0b9,46,13,59,10,1.0,1.0,0
run-2020-2-17-18-2-47.706218004,AGENT#b5894bba-51af-11ea-8496-af25d3700472,45,14,59,10,1.0,1.0,0
run-2020-2-17-18-2-47.706218004,AGENT#b5abdc2a-51af-11ea-9b23-ef8cffa81e68,4,55,59,10,1.0,1.0,0
run-2020-2-17-18-2-47.706218004,AGENT#b5ad047e-51af-11ea-a02e-0b68d89ce057,3,56,59,10,1.0,1.0,0
run-2020-2-17-18-2-47.706218004,AGENT#b5ae234a-51af-11ea-9b23-5bb7e7304d70,3,57,60,10,1.0,1.0,0
run-2020-2-17-18-2-47.706218004,AGENT#b5b04ee0-51af-11ea-954b-078eba85fe48,1,59,60,10,1.0,1.0,0
run-2020-2-17-18-2-47.706218004,AGENT#b589f4f2-51af-11ea-8b7d-739eb6593c21,46,15,61,10,1.0,1.0,0
run-2020-2-17-18-2-47.706218004,AGENT#b58a8b6a-51af-11ea-86ae-977ce6a77607,45,16,61,10,1.0,1.0,0
run-2020-2-17-18-2-47.706218004,AGENT#b5ad00e6-51af-11ea-964a-9fda925fec06,5,56,61,10,1.0,1.0,0
run-2020-2-17-18-2-47.706218004,AGENT#b5b048aa-51af-11ea-8179-433939acbbd0,2,59,61,10,1.0,1.0,0
run-2020-2-17-18-2-47.706218004,AGENT#b58a9042-51af-11ea-b7f7-0b8605a719e9,46,16,62,10,1.0,1.0,0
run-2020-2-17-18-2-47.706218004,AGENT#b58b348e-51af-11ea-b20c-0375c4651276,45,17,62,10,1.0,1.0,0
run-2020-2-17-18-2-47.706218004,AGENT#b5b26d06-51af-11ea-8780-83b03ab0fc45,1,61,62,10,1.0,1.0,0
run-2020-2-17-18-2-47.706218004,AGENT#b5b04206-51af-11ea-827b-cb487b1a4e4a,4,59,63,10,1.0,1.0,0
run-2020-2-17-18-2-47.706218004,AGENT#b5b26702-51af-11ea-979b-b3c23aaf2c47,2,61,63,10,1.0,1.0,0
run-2020-2-17-18-2-47.706218004,AGENT#b5b3c4e4-51af-11ea-889d-0ba387d2b466,1,62,63,10,1.0,1.0,0
run-2020-2-17-18-2-47.706218004,AGENT#b58b3c0e-51af-11ea-8fce-43fa3beebc56,47,17,64,10,1.0,1.0,0
run-2020-2-17-18-2-47.706218004,AGENT#b58c69d0-51af-11ea-8201-6b9060d9cb10,45,19,64,10,1.0,1.0,0
run-2020-2-17-18-2-47.706218004,AGENT#b58ef240-51af-11ea-ba81-ef0f4d066c98,41,23,64,10,1.0,1.0,0
run-2020-2-17-18-2-47.706218004,AGENT#b5b15222-51af-11ea-84fc-37758791df5a,4,60,64,10,1.0,1.0,0
run-2020-2-17-18-2-47.706218004,AGENT#b5b25fd2-51af-11ea-8dda-a75bbd72b513,3,61,64,10,1.0,1.0,0
run-2020-2-17-18-2-47.706218004,AGENT#b5b263ce-51af-11ea-b8b6-67cb03216b7c,3,61,64,10,1.0,1.0,0
run-2020-2-17-18-2-47.706218004,AGENT#b5b3c8ae-51af-11ea-95ed-af92a9e2ea85,2,62,64,10,1.0,1.0,0
run-2020-2-17-18-2-47.706218004,AGENT#b5b4e9c8-51af-11ea-893e-63fe7417601b,1,63,64,10,1.0,1.0,0
run-2020-2-17-18-2-47.706218004,AGENT#b5b4f3a0-51af-11ea-bcd6-ebf9b80d60ad,1,63,64,10,1.0,1.0,0
run-2020-2-17-18-2-47.706218004,AGENT#b58e47a0-51af-11ea-8b9b-b347ede02072,43,22,65,10,1.0,1.0,0
run-2020-2-17-18-2-47.706218004,AGENT#b5b15574-51af-11ea-85e6-235d53954139,5,60,65,10,1.0,1.0,0
run-2020-2-17-18-2-47.706218004,AGENT#b5b4ed56-51af-11ea-963d-6bef5ee87bf7,2,63,65,10,1.0,1.0,0
run-2020-2-17-18-2-47.706218004,AGENT#b5b4f044-51af-11ea-8638-97f0cee5c149,2,63,65,10,1.0,1.0,0
run-2020-2-17-18-2-47.706218004,AGENT#b59a865a-51af-11ea-90e6-0b6a6016171e,28,38,66,10,1.0,1.0,0
run-2020-2-17-18-2-47.706218004,AGENT#b5a81ac2-51af-11ea-8f2a-9f2234dd2557,14,52,66,10,1.0,1.0,0
run-2020-2-17-18-2-47.706218004,AGENT#b5b63314-51af-11ea-91af-bfe9fd6e8970,2,64,66,10,1.0,1.0,0
run-2020-2-17-18-2-47.706218004,AGENT#b5b63882-51af-11ea-834e-67f1e8e2c46b,2,64,66,10,1.0,1.0,0
run-2020-2-17-18-2-47.706218004,AGENT#b5b75d16-51af-11ea-9f9b-376fbe1cfaf9,1,65,66,10,1.0,1.0,0
run-2020-2-17-18-2-47.706218004,AGENT#b58e49ee-51af-11ea-9e79-ffc9fb4c102d,45,22,67,10,1.0,1.0,0
run-2020-2-17-18-2-47.706218004,AGENT#b5b4fbc0-51af-11ea-bc15-7ff9e839b75d,4,63,67,10,1.0,1.0,0
run-2020-2-17-18-2-47.706218004,AGENT#b5b62a0e-51af-11ea-84db-e77703824c13,3,64,67,10,1.0,1.0,0
run-2020-2-17-18-2-47.706218004,AGENT#b58eea98-51af-11ea-9367-e77277d4943e,45,23,68,10,1.0,1.0,0
run-2020-2-17-18-2-47.706218004,AGENT#b58eed4a-51af-11ea-90af-ab8aeb603b0b,45,23,68,10,1.0,1.0,0
run-2020-2-17-18-2-47.706218004,AGENT#b5b86daa-51af-11ea-abe9-ab21e72d7772,2,66,68,10,1.0,1.0,0
run-2020-2-17-18-2-47.706218004,AGENT#b5b97402-51af-11ea-b68a-1b6f4c9c1368,1,67,68,10,1.0,1.0,0
run-2020-2-17-18-2-47.706218004,AGENT#b5b63062-51af-11ea-badd-f31007fe8f7a,5,64,69,10,1.0,1.0,0
run-2020-2-17-18-2-47.706218004,AGENT#b5b635c6-51af-11ea-a23e-1bc7865a8f47,5,64,69,10,1.0,1.0,0
run-2020-2-17-18-2-47.706218004,AGENT#b5b751b8-51af-11ea-8594-4bc18c436244,4,65,69,10,1.0,1.0,0
run-2020-2-17-18-2-47.706218004,AGENT#b5b754ba-51af-11ea-ba80-2fba4c89fb92,5,65,70,10,1.0,1.0,0
run-2020-2-17-18-2-47.706218004,AGENT#b5b970ba-51af-11ea-aed0-b33bb9590b9b,3,67,70,10,1.0,1.0,0
run-2020-2-17-18-2-47.706218004,AGENT#b5b87138-51af-11ea-811d-ab2bf40592ab,5,66,71,10,1.0,1.0,0
run-2020-2-17-18-2-47.706218004,AGENT#b5b976c8-51af-11ea-83f2-db3e6d4581d5,4,67,71,10,1.0,1.0,0
run-2020-2-17-18-2-47.706218004,AGENT#b5b97d62-51af-11ea-839b-efb77a06894e,4,67,71,10,1.0,1.0,0
run-2020-2-17-18-2-47.706218004,AGENT#b5a8288c-51af-11ea-b0e0-db3fc78b1876,20,52,72,10,1.0,1.0,0
run-2020-2-17-18-2-47.706218004,AGENT#b599af8c-51af-11ea-9a46-071b4ee33698,36,37,73,10,1.0,1.0,0
run-2020-2-17-18-2-47.706218004,AGENT#b59d0dee-51af-11ea-83dc-070fe7afaca8,32,41,73,10,1.0,1.0,0
run-2020-2-17-18-2-47.706218004,AGENT#b5bd62e2-51af-11ea-9e58-43b4dbf3446b,2,71,73,10,1.0,1.0,0
run-2020-2-17-18-2-47.706218004,AGENT#b5be4afe-51af-11ea-a9a2-8b43a1629091,1,72,73,10,1.0,1.0,0
run-2020-2-17-18-2-47.706218004,AGENT#b592bace-51af-11ea-93c7-1f63bd06bbf0,46,28,74,10,1.0,1.0,0
run-2020-2-17-18-2-47.706218004,AGENT#b5b04bac-51af-11ea-af4a-5b03405e8278,15,59,74,10,1.0,1.0,0
run-2020-2-17-18-2-47.706218004,AGENT#b592b858-51af-11ea-b399-e7365ef977ec,47,28,75,10,1.0,1.0,0
run-2020-2-17-18-2-47.706218004,AGENT#b5943502-51af-11ea-b5be-6fcca094991e,45,30,75,10,1.0,1.0,0
run-2020-2-17-18-2-47.706218004,AGENT#b59439a8-51af-11ea-a14e-3f70a09284e1,45,30,75,10,1.0,1.0,0
run-2020-2-17-18-2-47.706218004,AGENT#b5be4806-51af-11ea-a113-3b73cfe8da85,3,72,75,10,1.0,1.0,0
run-2020-2-17-18-2-47.706218004,AGENT#b5bf6952-51af-11ea-be7f-9feb1255ba32,2,73,75,10,1.0,1.0,0
run-2020-2-17-18-2-47.706218004,AGENT#b5c08224-51af-11ea-a284-4f68e5d37936,1,74,75,10,1.0,1.0,0
run-2020-2-17-18-2-47.706218004,AGENT#b5c08490-51af-11ea-9436-77bc2a33fa4d,1,74,75,10,1.0,1.0,0
run-2020-2-17-18-2-47.706218004,AGENT#b5be52ba-51af-11ea-b50d-3f79556450f1,4,72,76,10,1.0,1.0,0
run-2020-2-17-18-2-47.706218004,AGENT#b5c07ac2-51af-11ea-a0a7-0373accb83d1,2,74,76,10,1.0,1.0,0
run-2020-2-17-18-2-47.706218004,AGENT#b5c07d60-51af-11ea-a746-77697d9277f8,3,74,77,10,1.0,1.0,0
run-2020-2-17-18-2-47.706218004,AGENT#b5c1bd7e-51af-11ea-a31c-ab4c4c5a4ce6,2,75,77,10,1.0,1.0,0
run-2020-2-17-18-2-47.706218004,AGENT#b5c1c166-51af-11ea-bfd8-f3195d8dfead,2,75,77,10,1.0,1.0,0
run-2020-2-17-18-2-47.706218004,AGENT#b5c1c558-51af-11ea-ba2b-d76b9f8873ff,2,75,77,10,1.0,1.0,0
run-2020-2-17-18-2-47.706218004,AGENT#b5c1cbf2-51af-11ea-8d48-6b526406ba45,2,75,77,10,1.0,1.0,0
run-2020-2-17-18-2-47.706218004,AGENT#b5c33a0a-51af-11ea-a3a7-2fca8a1686eb,1,76,77,10,1.0,1.0,0
run-2020-2-17-18-2-47.706218004,AGENT#b59432aa-51af-11ea-9fc9-bf1184461e3f,48,30,78,10,1.0,1.0,0
run-2020-2-17-18-2-47.706218004,AGENT#b595ef46-51af-11ea-999c-3b433c69a769,46,32,78,10,1.0,1.0,0
run-2020-2-17-18-2-47.706218004,AGENT#b596b8fe-51af-11ea-8bb6-2b2168e4f318,45,33,78,10,1.0,1.0,0
run-2020-2-17-18-2-47.706218004,AGENT#b5bf6cf4-51af-11ea-bd65-ff21d4f9ad47,5,73,78,10,1.0,1.0,0
run-2020-2-17-18-2-47.706218004,AGENT#b5c07fc2-51af-11ea-a53a-6bd7ecd95adf,4,74,78,10,1.0,1.0,0
run-2020-2-17-18-2-47.706218004,AGENT#b5c1c8f0-51af-11ea-a157-67d4e8cf0270,3,75,78,10,1.0,1.0,0
run-2020-2-17-18-2-47.706218004,AGENT#b5c336e0-51af-11ea-919d-db2da8082078,2,76,78,10,1.0,1.0,0
run-2020-2-17-18-2-47.706218004,AGENT#b5c45700-51af-11ea-bc28-c3e1284070ab,1,77,78,10,1.0,1.0,0
run-2020-2-17-18-2-47.706218004,AGENT#b5c459e4-51af-11ea-930b-bfcb187c7f08,1,77,78,10,1.0,1.0,0
run-2020-2-17-18-2-47.706218004,AGENT#b5c45c46-51af-11ea-92ab-77cdc408c0ba,2,77,79,10,1.0,1.0,0
run-2020-2-17-18-2-47.706218004,AGENT#b5c57df6-51af-11ea-a815-6b2e41549a55,1,78,79,10,1.0,1.0,0
run-2020-2-17-18-2-47.706218004,AGENT#b598446c-51af-11ea-84cd-834b03c32997,45,35,80,10,1.0,1.0,0
run-2020-2-17-18-2-47.706218004,AGENT#b5c1cf9e-51af-11ea-9467-2bd3a97f24db,5,75,80,10,1.0,1.0,0
run-2020-2-17-18-2-47.706218004,AGENT#b5c45e9e-51af-11ea-9793-7f3f70db1be8,3,77,80,10,1.0,1.0,0
run-2020-2-17-18-2-47.706218004,AGENT#b5c330d2-51af-11ea-98c8-072245550486,5,76,81,10,1.0,1.0,0
run-2020-2-17-18-2-47.706218004,AGENT#b59905d2-51af-11ea-9b4b-67fa7e19bb78,46,36,82,10,1.0,1.0,0
run-2020-2-17-18-2-47.706218004,AGENT#b599b1ee-51af-11ea-a5ab-33e3db993ea7,45,37,82,10,1.0,1.0,0
run-2020-2-17-18-2-47.706218004,AGENT#b5c46100-51af-11ea-8b9d-77eb5283310f,5,77,82,10,1.0,1.0,0
run-2020-2-17-18-2-47.706218004,AGENT#b5c6785a-51af-11ea-9249-f7a45640e896,3,79,82,10,1.0,1.0,0
run-2020-2-17-18-2-47.706218004,AGENT#b5c79028-51af-11ea-8c3e-df77ce3436d2,2,80,82,10,1.0,1.0,0
run-2020-2-17-18-2-47.706218004,AGENT#b5c7929e-51af-11ea-99ee-cf10af8103d2,2,80,82,10,1.0,1.0,0
run-2020-2-17-18-2-47.706218004,AGENT#b5c89fa4-51af-11ea-8889-13041ff32896,1,81,82,10,1.0,1.0,0
run-2020-2-17-18-2-47.706218004,AGENT#b599b68a-51af-11ea-8a50-4b34d90672a7,46,37,83,10,1.0,1.0,0
run-2020-2-17-18-2-47.706218004,AGENT#b59a81c8-51af-11ea-908e-3bce3d781348,45,38,83,10,1.0,1.0,0
run-2020-2-17-18-2-47.706218004,AGENT#b59a889e-51af-11ea-9a5d-73681e87d876,45,38,83,10,1.0,1.0,0
run-2020-2-17-18-2-47.706218004,AGENT#b5c67d28-51af-11ea-92c5-6fac67f3959e,4,79,83,10,1.0,1.0,0
run-2020-2-17-18-2-47.706218004,AGENT#b5c79500-51af-11ea-a57c-23257441d253,3,80,83,10,1.0,1.0,0
run-2020-2-17-18-2-47.706218004,AGENT#b5c89aea-51af-11ea-b016-87d5c951679b,2,81,83,10,1.0,1.0,0
run-2020-2-17-18-2-47.706218004,AGENT#b5c8a21a-51af-11ea-8dab-eb4c83c2ac4a,2,81,83,10,1.0,1.0,0
run-2020-2-17-18-2-47.706218004,AGENT#b5c9fe58-51af-11ea-9449-eb435a232547,1,82,83,10,1.0,1.0,0
run-2020-2-17-18-2-47.706218004,AGENT#b5ca00c4-51af-11ea-af0e-571c79c2385d,1,82,83,10,1.0,1.0,0
run-2020-2-17-18-2-47.706218004,AGENT#b5c78a92-51af-11ea-bfeb-37765cf03d95,4,80,84,10,1.0,1.0,0
run-2020-2-17-18-2-47.706218004,AGENT#b5cb1ab8-51af-11ea-8e58-c71d944ef718,1,83,84,10,1.0,1.0,0
run-2020-2-17-18-2-47.706218004,AGENT#b5a69558-51af-11ea-8b1a-57aa65322237,34,51,85,10,1.0,1.0,0
run-2020-2-17-18-2-47.706218004,AGENT#b5c89d60-51af-11ea-9ff0-3b65955f30e4,4,81,85,10,1.0,1.0,0
run-2020-2-17-18-2-47.706218004,AGENT#b5c9fb60-51af-11ea-bbbb-738438ac5d96,3,82,85,10,1.0,1.0,0
run-2020-2-17-18-2-47.706218004,AGENT#b5ca057e-51af-11ea-9b49-2ff7a4fda99a,3,82,85,10,1.0,1.0,0
run-2020-2-17-18-2-47.706218004,AGENT#b5cb1db0-51af-11ea-8e9d-07e978b44705,2,83,85,10,1.0,1.0,0
run-2020-2-17-18-2-47.706218004,AGENT#b5cb2012-51af-11ea-a936-775bd62066c6,2,83,85,10,1.0,1.0,0
run-2020-2-17-18-2-47.706218004,AGENT#b59b574c-51af-11ea-a7c4-e35d839a1d0b,47,39,86,10,1.0,1.0,0
run-2020-2-17-18-2-47.706218004,AGENT#b5cc60d0-51af-11ea-a1f4-472f0d4d5d93,2,84,86,10,1.0,1.0,0
run-2020-2-17-18-2-47.706218004,AGENT#b5cd954a-51af-11ea-9618-ff5f6a99dd00,1,85,86,10,1.0,1.0,0
run-2020-2-17-18-2-47.706218004,AGENT#b59ded2c-51af-11ea-9310-5bb5119e9a02,45,42,87,10,1.0,1.0,0
run-2020-2-17-18-2-47.706218004,AGENT#b5cc54dc-51af-11ea-bf81-9b9cdcb76c8e,3,84,87,10,1.0,1.0,0
run-2020-2-17-18-2-47.706218004,AGENT#b5cc6404-51af-11ea-8ef0-3fa56ee1fbcb,3,84,87,10,1.0,1.0,0
run-2020-2-17-18-2-47.706218004,AGENT#b5cd8cee-51af-11ea-91e8-6bd77b453726,2,85,87,10,1.0,1.0,0
run-2020-2-17-18-2-47.706218004,AGENT#b5ceda0e-51af-11ea-99d2-8f75748ea81a,1,86,87,10,1.0,1.0,0
run-2020-2-17-18-2-47.706218004,AGENT#b5cb1450-51af-11ea-a64a-2b529799e1ea,5,83,88,10,1.0,1.0,0
run-2020-2-17-18-2-47.706218004,AGENT#b5cd92ac-51af-11ea-965e-079ca1deee0b,3,85,88,10,1.0,1.0,0
run-2020-2-17-18-2-47.706218004,AGENT#b5d030ca-51af-11ea-9891-7fa4b726277c,1,87,88,10,1.0,1.0,0
run-2020-2-17-18-2-47.706218004,AGENT#b5a98592-51af-11ea-b231-f3bfd68d934a,36,53,89,10,1.0,1.0,0
run-2020-2-17-18-2-47.706218004,AGENT#b5d16f76-51af-11ea-abac-5bd8a63cec89,1,88,89,10,1.0,1.0,0
run-2020-2-17-18-2-47.706218004,AGENT#b5ced4be-51af-11ea-80dc-9774b227f7cd,4,86,90,10,1.0,1.0,0
run-2020-2-17-18-2-47.706218004,AGENT#b5ced784-51af-11ea-b1f9-378aa7f85147,4,86,90,10,1.0,1.0,0
run-2020-2-17-18-2-47.706218004,AGENT#b5d17246-51af-11ea-9536-6b6dd20640a9,2,88,90,10,1.0,1.0,0
run-2020-2-17-18-2-47.706218004,AGENT#b5d177c8-51af-11ea-9264-8bc4e5b4c793,2,88,90,10,1.0,1.0,0
run-2020-2-17-18-2-47.706218004,AGENT#b5d2a9e0-51af-11ea-bec2-cff5b793f54b,1,89,90,10,1.0,1.0,0
run-2020-2-17-18-2-47.706218004,AGENT#b5d2af8a-51af-11ea-9cad-072c002b92be,1,89,90,10,1.0,1.0,0
run-2020-2-17-18-2-47.706218004,AGENT#b5d2b71e-51af-11ea-a026-176e8de2c4e5,1,89,90,10,1.0,1.0,0
run-2020-2-17-18-2-47.706218004,AGENT#b59d0b5a-51af-11ea-881f-bb50dfec2b6b,50,41,91,10,1.0,1.0,0
run-2020-2-17-18-2-47.706218004,AGENT#b5a17532-51af-11ea-92a7-df98ba1fc955,45,46,91,10,1.0,1.0,0
run-2020-2-17-18-2-47.706218004,AGENT#b5d1752a-51af-11ea-8ffa-eb117702d965,3,88,91,10,1.0,1.0,0
run-2020-2-17-18-2-47.706218004,AGENT#b5cb116c-51af-11ea-8273-bf046442c41a,9,83,92,10,1.0,1.0,0
run-2020-2-17-18-2-47.706218004,AGENT#b5d2b214-51af-11ea-adbc-7f8c657940e0,3,89,92,10,1.0,1.0,0
run-2020-2-17-18-2-47.706218004,AGENT#b5b97a42-51af-11ea-a01e-2f890cd0fbdc,26,67,93,10,1.0,1.0,0
run-2020-2-17-18-2-47.706218004,AGENT#b5d3edd2-51af-11ea-a9b2-7f0e22abe18d,3,90,93,10,1.0,1.0,0
run-2020-2-17-18-2-47.706218004,AGENT#b5d50e88-51af-11ea-8776-d7ddf56eda2b,2,91,93,10,1.0,1.0,0
run-2020-2-17-18-2-47.706218004,AGENT#b5d516ee-51af-11ea-97b6-538037b46530,2,91,93,10,1.0,1.0,0
run-2020-2-17-18-2-47.706218004,AGENT#b5a38e62-51af-11ea-9a18-e3e6a1056603,46,48,94,10,1.0,1.0,0
run-2020-2-17-18-2-47.706218004,AGENT#b5a3975e-51af-11ea-bac1-0b54f8d773d4,46,48,94,10,1.0,1.0,0
run-2020-2-17-18-2-47.706218004,AGENT#b5a48fd8-51af-11ea-b1e8-6f60ec5e381b,45,49,94,10,1.0,1.0,0
run-2020-2-17-18-2-47.706218004,AGENT#b5a49294-51af-11ea-9569-b3ef0563f7a0,45,49,94,10,1.0,1.0,0
run-2020-2-17-18-2-47.706218004,AGENT#b5b75a6e-51af-11ea-8aca-df91c2f2ba1c,29,65,94,10,1.0,1.0,0
run-2020-2-17-18-2-47.706218004,AGENT#b5d2acf6-51af-11ea-a955-c77bd2cd4760,5,89,94,10,1.0,1.0,0
run-2020-2-17-18-2-47.706218004,AGENT#b5d3eb20-51af-11ea-8a05-8b5b738f238c,4,90,94,10,1.0,1.0,0
run-2020-2-17-18-2-47.706218004,AGENT#b5d51400-51af-11ea-a204-bfc9f0d96361,3,91,94,10,1.0,1.0,0
run-2020-2-17-18-2-47.706218004,AGENT#b5d51982-51af-11ea-a42d-77c3f0311036,3,91,94,10,1.0,1.0,0
run-2020-2-17-18-2-47.706218004,AGENT#b5d92842-51af-11ea-8872-ef29ff7a59b7,1,94,95,10,1.0,1.0,0
run-2020-2-17-18-2-47.706218004,AGENT#b5a48cd6-51af-11ea-a0ec-c381d2cca160,48,49,97,10,1.0,1.0,0
run-2020-2-17-18-2-47.706218004,AGENT#b5abe2f6-51af-11ea-afac-cbe37c389584,42,55,97,10,1.0,1.0,0
run-2020-2-17-18-2-47.706218004,AGENT#b5d66b66-51af-11ea-bcfb-93a6163a6633,5,92,97,10,1.0,1.0,0
run-2020-2-17-18-2-47.706218004,AGENT#b5b62d9c-51af-11ea-8b2b-a76d99497fa6,34,64,98,10,1.0,1.0,0
run-2020-2-17-18-2-47.706218004,AGENT#b5bc6b80-51af-11ea-826e-8b73a3cb892a,28,70,98,10,1.0,1.0,0
run-2020-2-17-18-2-47.706218004,AGENT#b5d7b390-51af-11ea-90c7-277a6532f4df,5,93,98,10,1.0,1.0,0
run-2020-2-17-18-2-47.706218004,AGENT#b5d92342-51af-11ea-99d9-9320fdaa1e88,4,94,98,10,1.0,1.0,0
run-2020-2-17-18-2-47.706218004,AGENT#b5da5352-51af-11ea-a949-3788489d11d9,3,95,98,10,1.0,1.0,0
run-2020-2-17-18-2-47.706218004,AGENT#b5da583e-51af-11ea-a2d8-5779d9479e13,3,95,98,10,1.0,1.0,0
run-2020-2-17-18-2-47.706218004,AGENT#b5da5aaa-51af-11ea-8d25-7330b02e0a60,3,95,98,10,1.0,1.0,0
run-2020-2-17-18-2-47.706218004,AGENT#b5da5cf8-51af-11ea-8d9f-1f896a766d3c,3,95,98,10,1.0,1.0,0
run-2020-2-17-18-2-47.706218004,AGENT#b5dcf120-51af-11ea-a3d1-ef96d4f3326a,1,97,98,10,1.0,1.0,0
run-2020-2-17-18-2-47.706218004,AGENT#b5a9820e-51af-11ea-9b84-2b469036b089,46,53,99,10,1.0,1.0,0
run-2020-2-17-18-2-47.706218004,AGENT#b5dcee96-51af-11ea-8207-b392674ffb15,2,97,99,10,1.0,1.0,0
