RunID,AgentID,Tick,Created,Ressources,Reputation,Ability,Que,Action
run-2020-6-29-12-23-18.817868947,AGENT6f67afac-ba03-11ea-b40b-4386a6df67f2,109,108,9,1.0,0.3,0,[]
run-2020-6-29-12-23-18.817868947,AGENT6f67afac-ba03-11ea-b40b-4386a6df67f2,111,108,8,1.0,0.3,0,[]
run-2020-6-29-12-23-18.817868947,AGENT6f67afac-ba03-11ea-b40b-4386a6df67f2,113,108,6,1.0,0.3,0,[]
run-2020-6-29-12-23-18.817868947,AGENT6f67afac-ba03-11ea-b40b-4386a6df67f2,115,108,5,1.0,0.3,0,[]
run-2020-6-29-12-23-18.817868947,AGENT6f67afac-ba03-11ea-b40b-4386a6df67f2,117,108,3,1.0,0.3,0,[]
run-2020-6-29-12-23-18.817868947,AGENT6f67afac-ba03-11ea-b40b-4386a6df67f2,119,108,2,1.0,0.3,0,[]
