RunID,AgentID,Tick,Created,Ressources,Reputation,Ability,Que,Action
run-2020-6-29-12-23-18.817868947,AGENT6fbe23aa-ba03-11ea-8fa5-abd46b3af143,112,110,7,1.0,0.1,2,[]
run-2020-6-29-12-23-18.817868947,AGENT6fbe23aa-ba03-11ea-8fa5-abd46b3af143,113,110,5,1.0,0.1,1,[]
run-2020-6-29-12-23-18.817868947,AGENT6fbe23aa-ba03-11ea-8fa5-abd46b3af143,114,110,3,1.0,0.1,0,[]
