Source,Target
LAW1f2b4b78-5fc9-11ea-a54c-af684e92c20f,LAW1f2b5de8-5fc9-11ea-b895-cfaa1a775b38
LAW1f2b3f0c-5fc9-11ea-a93a-b7a2159b1468,LAW1f2b609a-5fc9-11ea-bf14-e761fdbc2759
LAW1f2b5de8-5fc9-11ea-b895-cfaa1a775b38,LAW1f2b63ce-5fc9-11ea-b042-7744eaa68c82
