Source,Target
5ea91184-5256-11ea-8cf4-471072af8ad2,5eaa996e-5256-11ea-ab5d-ab899d685c12
5ea800a0-5256-11ea-bc20-830aaf157dae,5eaabd18-5256-11ea-8818-b73fc638454f
5ea964b8-5256-11ea-adb5-2b4426afb98f,5eaadc62-5256-11ea-af8f-6fac873d1db9
5ea858c0-5256-11ea-af91-2b23ac04421f,5eab0426-5256-11ea-934a-7fe276757530
5ea59ffe-5256-11ea-8416-a3e1e607fa0d,5eab4ae4-5256-11ea-8d24-07e73ac03d1b
5ea9a7a2-5256-11ea-a4da-2f6854c6c701,5eab2690-5256-11ea-8341-2f98567035b6
5ea41cd8-5256-11ea-b3a5-47e1f93f12e3,5eab6a2e-5256-11ea-aa32-c70fe75acd4d
5eaadc62-5256-11ea-af8f-6fac873d1db9,5eab8f68-5256-11ea-8fe6-23c7620c34c5
5ea5cab0-5256-11ea-b53c-8fe3d4b2105d,5eabad18-5256-11ea-ad0c-5bc1d5cea23b
5eaa4036-5256-11ea-bca5-7fedd8405e09,5eabc726-5256-11ea-a6e1-0fda5e9aaa87
5eab8f68-5256-11ea-8fe6-23c7620c34c5,5eabe076-5256-11ea-a5fb-3ffe0d54453f
5ea56e26-5256-11ea-8a84-17a6aa3c6144,5eac15dc-5256-11ea-8588-8b36b9e5f389
5ea41cd8-5256-11ea-b3a5-47e1f93f12e3,5eac3878-5256-11ea-a012-0b646b0e4f00
5eabad18-5256-11ea-ad0c-5bc1d5cea23b,5eac5eca-5256-11ea-b1ae-ebaa4ca79ef1
5ea9d07e-5256-11ea-9c53-2f7ba4a635cb,5eac82a6-5256-11ea-b669-5780ff275746
5ea4b40e-5256-11ea-aed8-73fc70a1d6bf,5eaca484-5256-11ea-8dde-13f50351a3ed
5ea36644-5256-11ea-b418-3307e30a77e7,5eacc338-5256-11ea-9d99-43e5b809aeeb
5ea472f0-5256-11ea-bbdf-6766b44390ef,5eacebb0-5256-11ea-9a7e-2372a1ac19b4
5ea8a096-5256-11ea-af1c-bb2935fbda9f,5ead0dde-5256-11ea-bfd4-f3e6331b2725
5ea91184-5256-11ea-8cf4-471072af8ad2,5ead29d6-5256-11ea-83ab-5ff22f08e52d
5eac82a6-5256-11ea-b669-5780ff275746,5ead508c-5256-11ea-80da-cb786fa6dd46
5ea800a0-5256-11ea-bc20-830aaf157dae,5ead6da6-5256-11ea-8ab9-a7c022283a93
5ea9a7a2-5256-11ea-a4da-2f6854c6c701,5ead9bdc-5256-11ea-8058-1bbdad51388f
5ea29eee-5256-11ea-944e-4bb58bba78e1,5eadcb52-5256-11ea-8064-2b0961b01889
5ea24688-5256-11ea-8b3a-7399c42e99ca,5eae0446-5256-11ea-ac30-332e744cce33
5ea39498-5256-11ea-821f-0b5466b36e53,5eae3222-5256-11ea-86b3-1fafc47c20d6
5ea41cd8-5256-11ea-b3a5-47e1f93f12e3,5eae7bc4-5256-11ea-aad9-8bf2e3304d93
5ea61a60-5256-11ea-a8d7-8f6f5d576b66,5eaebfa8-5256-11ea-9b0a-075ba252a9e4
5ea3f406-5256-11ea-a0ba-4bd4b0797e1c,5eaf2204-5256-11ea-ab96-affed878584d
5ea36644-5256-11ea-b418-3307e30a77e7,5eafbd18-5256-11ea-a28d-f32010ab26f7
5ea449c4-5256-11ea-8c2d-2b8142baec29,5eb0251e-5256-11ea-acc9-cf42f0364c88
5ea527cc-5256-11ea-983c-67fd1269ef1f,5eb055de-5256-11ea-9699-8319bea3c9a2
5eaca484-5256-11ea-8dde-13f50351a3ed,5eb08298-5256-11ea-9219-cb5c68620972
5eabad18-5256-11ea-ad0c-5bc1d5cea23b,5eb0a746-5256-11ea-97a4-4f429a652dd0
5ea1e922-5256-11ea-a898-17af927319a6,5eb0cca8-5256-11ea-a086-4bf53c081989
5eaf2204-5256-11ea-ab96-affed878584d,5eb0f944-5256-11ea-ab4d-fb20981a06fa
5ea1aef8-5256-11ea-a598-27e6a7e8a62a,5eb11b9a-5256-11ea-a26b-1344a60fdad3
5ea1aef8-5256-11ea-a598-27e6a7e8a62a,5eb146b0-5256-11ea-84a0-f36cc5b6ece5
5ea61a60-5256-11ea-a8d7-8f6f5d576b66,5eb17108-5256-11ea-98ac-87375cee9afd
5eac5eca-5256-11ea-b1ae-ebaa4ca79ef1,5eb1afd8-5256-11ea-9b5e-7ffcceef86d5
5ead508c-5256-11ea-80da-cb786fa6dd46,5eb1d44a-5256-11ea-bcbf-cfc4971e076c
5eaa6944-5256-11ea-a88d-f7f340996b2d,5eb1f6dc-5256-11ea-8847-03e608783c60
5ea693a0-5256-11ea-8504-3b87797f049b,5eb215fe-5256-11ea-bec0-6bcda3af7519
5ea98b00-5256-11ea-a257-c70a3975db0f,5eb233f4-5256-11ea-ab6b-6b52198b8d0a
5eb055de-5256-11ea-9699-8319bea3c9a2,5eb251fe-5256-11ea-ad6f-5bf7474401a2
5eb233f4-5256-11ea-ab6b-6b52198b8d0a,5eb26c2a-5256-11ea-af5c-23b1a4cc1d7f
5eacebb0-5256-11ea-9a7e-2372a1ac19b4,5eb288ae-5256-11ea-a1bf-4b872bf24811
5eaa1764-5256-11ea-a003-cb8c40232ce0,5eb2a4ec-5256-11ea-bbd6-533f56ac2213
5ead29d6-5256-11ea-83ab-5ff22f08e52d,5eb2c382-5256-11ea-95e7-bb3475c4bfb1
5ea882f0-5256-11ea-8d0f-ab92122d7673,5eb2eb46-5256-11ea-878f-8f63811a4af7
5ea4ff22-5256-11ea-b28e-2fe6bae6f41e,5eb3101c-5256-11ea-bb7f-e7a94e74038f
5ea61a60-5256-11ea-a8d7-8f6f5d576b66,5eb3395c-5256-11ea-8530-af5d3b878a93
5eaca484-5256-11ea-8dde-13f50351a3ed,5eb36350-5256-11ea-9555-7bdeccf76966
5ea7ab46-5256-11ea-8e32-fb928c2e5659,5eb39ec4-5256-11ea-bcd4-77b759fd016d
5eb288ae-5256-11ea-a1bf-4b872bf24811,5eb3c3ae-5256-11ea-9561-8b6699991b83
5eac5eca-5256-11ea-b1ae-ebaa4ca79ef1,5eb3e74e-5256-11ea-b217-4fd0acc21847
5eb3e74e-5256-11ea-b217-4fd0acc21847,5eb408a0-5256-11ea-8a24-9bf6bbde18d6
5eadcb52-5256-11ea-8064-2b0961b01889,5eb42ef2-5256-11ea-837b-6b1d3e73b86f
5ea39498-5256-11ea-821f-0b5466b36e53,5eb45242-5256-11ea-9b85-83f223a4684d
5eab2690-5256-11ea-8341-2f98567035b6,5eb47b46-5256-11ea-983e-430b41ef607a
5eb0f944-5256-11ea-ab4d-fb20981a06fa,5eb4a936-5256-11ea-a48f-2b5b27e672f3
5eab8f68-5256-11ea-8fe6-23c7620c34c5,5eb4d35c-5256-11ea-a2ca-0bfee1f3f059
5ea3ced6-5256-11ea-ba25-870f6f348dc6,5eb4fd78-5256-11ea-a16a-33f8a41de7ae
5eabe076-5256-11ea-a5fb-3ffe0d54453f,5eb51baa-5256-11ea-b3b5-bfaa8464ecf8
5ea56e26-5256-11ea-8a84-17a6aa3c6144,5eb538ba-5256-11ea-89df-0fc995e1ab6d
5eafbd18-5256-11ea-a28d-f32010ab26f7,5eb55cbe-5256-11ea-912c-2330967c3f0f
5ea858c0-5256-11ea-af91-2b23ac04421f,5eb57a82-5256-11ea-a374-fbc4d080cb8a
5ea472f0-5256-11ea-bbdf-6766b44390ef,5eb5945e-5256-11ea-90e1-d3120b6ddc90
5ead29d6-5256-11ea-83ab-5ff22f08e52d,5eb5b2a4-5256-11ea-ac61-73040e849ccd
5eb1f6dc-5256-11ea-8847-03e608783c60,5eb5cc62-5256-11ea-825c-935c940238c7
5ea779f0-5256-11ea-a5d7-d71d7a1a75fc,5eb5ea3a-5256-11ea-ba87-c7e56fde222f
5eb146b0-5256-11ea-84a0-f36cc5b6ece5,5eb603d0-5256-11ea-928a-e3e9fbeb9725
5eb4d35c-5256-11ea-a2ca-0bfee1f3f059,5eb62720-5256-11ea-bea5-d32e10f40b14
5eb288ae-5256-11ea-a1bf-4b872bf24811,5eb644d0-5256-11ea-9d8d-bf3c60affc4e
5eb3395c-5256-11ea-8530-af5d3b878a93,5eb66122-5256-11ea-a211-4fcfd71ca765
5eb603d0-5256-11ea-928a-e3e9fbeb9725,5eb67f04-5256-11ea-ade7-e3a924f3646a
5ea4ff22-5256-11ea-b28e-2fe6bae6f41e,5eb6993a-5256-11ea-8407-2b014e243415
5eaa6944-5256-11ea-a88d-f7f340996b2d,5eb6b5f0-5256-11ea-b686-1b9385b2844e
5eb2eb46-5256-11ea-878f-8f63811a4af7,5eb6da58-5256-11ea-aacb-c33f3b974391
5ea8edee-5256-11ea-8a89-bf7a78fd5543,5eb6f34e-5256-11ea-a4d3-73078294dc2c
5eabe076-5256-11ea-a5fb-3ffe0d54453f,5eb710cc-5256-11ea-96b7-33912b9eb607
5eafbd18-5256-11ea-a28d-f32010ab26f7,5eb72a44-5256-11ea-869b-838802f16857
5eb6f34e-5256-11ea-a4d3-73078294dc2c,5eb7547e-5256-11ea-9725-23f91bccbfb9
5eadcb52-5256-11ea-8064-2b0961b01889,5eb77382-5256-11ea-ae39-575592b13b5c
5eb47b46-5256-11ea-983e-430b41ef607a,5eb78caa-5256-11ea-84c5-53ba4492a19f
5eab8f68-5256-11ea-8fe6-23c7620c34c5,5eb7a654-5256-11ea-b211-9fd8ded7142b
5eb2eb46-5256-11ea-878f-8f63811a4af7,5eb7cc24-5256-11ea-aa38-474a163264f8
5eb36350-5256-11ea-9555-7bdeccf76966,5eb7eab0-5256-11ea-8885-f75c56dc99ec
5ea1e922-5256-11ea-a898-17af927319a6,5eb804dc-5256-11ea-87ef-23ea28549ff8
5eacc338-5256-11ea-9d99-43e5b809aeeb,5eb825d4-5256-11ea-b5d6-efaa02a0e515
5eb5945e-5256-11ea-90e1-d3120b6ddc90,5eb84244-5256-11ea-a87c-07c52c8c4585
5eacc338-5256-11ea-9d99-43e5b809aeeb,5eb85cca-5256-11ea-99a2-0f0544b0c0d9
5ea964b8-5256-11ea-adb5-2b4426afb98f,5eb878b8-5256-11ea-a0ae-7341d04d29f9
5eb146b0-5256-11ea-84a0-f36cc5b6ece5,5eb89438-5256-11ea-a658-4fe65349d161
5ea59ffe-5256-11ea-8416-a3e1e607fa0d,5eb8b206-5256-11ea-a9dc-2b43f30a3cc8
5eb3c3ae-5256-11ea-9561-8b6699991b83,5eb8cdcc-5256-11ea-99c1-abc63016799d
5eb644d0-5256-11ea-9d8d-bf3c60affc4e,5eb8e9d8-5256-11ea-b772-9bc18b5d1448
5eb77382-5256-11ea-ae39-575592b13b5c,5eb90828-5256-11ea-a40e-eb380e0d4655
5eb6b5f0-5256-11ea-b686-1b9385b2844e,5eb92240-5256-11ea-b427-f741f80c5fe6
5ea3f406-5256-11ea-a0ba-4bd4b0797e1c,5eb93c58-5256-11ea-ad8c-5762532df763
5ea9a7a2-5256-11ea-a4da-2f6854c6c701,5eb964ee-5256-11ea-9c84-6749538ceca6
5eb215fe-5256-11ea-bec0-6bcda3af7519,5eb97e48-5256-11ea-9bbe-7b5929ab4e16
5eae7bc4-5256-11ea-aad9-8bf2e3304d93,5eb99a7c-5256-11ea-9b06-ef2dbeb0e6b5
5eb0cca8-5256-11ea-a086-4bf53c081989,5eb9b2e6-5256-11ea-ba9f-47a271795292
5eacc338-5256-11ea-9d99-43e5b809aeeb,5eb9cede-5256-11ea-92be-d7a93b142c72
5eb72a44-5256-11ea-869b-838802f16857,5eb9e93c-5256-11ea-9635-b31b04047496
5eb6b5f0-5256-11ea-b686-1b9385b2844e,5eba0a20-5256-11ea-a8c2-6f551c33d5fe
5ea56e26-5256-11ea-8a84-17a6aa3c6144,5eba2b7c-5256-11ea-bce4-eff1ca203702
5eb72a44-5256-11ea-869b-838802f16857,5eba5386-5256-11ea-a492-2f992db32ac8
5ead6da6-5256-11ea-8ab9-a7c022283a93,5eba6f2e-5256-11ea-94ca-8b8b8b16305b
5eb17108-5256-11ea-98ac-87375cee9afd,5eba8c70-5256-11ea-908c-63017d26b08f
5ea693a0-5256-11ea-8504-3b87797f049b,5ebaa7fa-5256-11ea-962e-8b75784d74ad
5eb39ec4-5256-11ea-bcd4-77b759fd016d,5ebac5f0-5256-11ea-be0a-a7124a74adc6
5ea29eee-5256-11ea-944e-4bb58bba78e1,5ebae09e-5256-11ea-8454-87e39f31e069
5eaabd18-5256-11ea-8818-b73fc638454f,5ebb0196-5256-11ea-b1ed-03ff74224561
5eb72a44-5256-11ea-869b-838802f16857,5ebb1fd2-5256-11ea-a78a-0fc56965389b
5eb78caa-5256-11ea-84c5-53ba4492a19f,5ebb3cd8-5256-11ea-9f20-1fd5288225a2
5ea693a0-5256-11ea-8504-3b87797f049b,5ebb5a2e-5256-11ea-bde2-a393678fedfc
5ea9f400-5256-11ea-9dc8-37e6e7b348a0,5ebb7b80-5256-11ea-8b9d-0f3dbf4315c3
5ebb3cd8-5256-11ea-9f20-1fd5288225a2,5ebb9958-5256-11ea-8b33-cb7eb6dd8baf
5ea56e12-5256-11ea-ba24-035c116540d3,5ebbba14-5256-11ea-aa2b-378cd55cd5cb
5eabe076-5256-11ea-a5fb-3ffe0d54453f,5ebbd684-5256-11ea-819e-6fc9211dbb0e
5eb804dc-5256-11ea-87ef-23ea28549ff8,5ebbf628-5256-11ea-8047-cf2dda30eff3
5eab6a2e-5256-11ea-aa32-c70fe75acd4d,5ebc12b6-5256-11ea-8bf9-8f6246994fb3
5eb9b2e6-5256-11ea-ba9f-47a271795292,5ebc3048-5256-11ea-a3e1-2be477c5228e
5ea41cd8-5256-11ea-b3a5-47e1f93f12e3,5ebc4e84-5256-11ea-b8a9-53ae5ae06b74
5eb72a44-5256-11ea-869b-838802f16857,5ebc6cac-5256-11ea-8e46-e3ab41dce9d5
5eb5cc62-5256-11ea-825c-935c940238c7,5ebc9894-5256-11ea-af73-e387a29ce342
5eaca484-5256-11ea-8dde-13f50351a3ed,5ebca99c-5256-11ea-9917-03b76880d872
5eb251fe-5256-11ea-ad6f-5bf7474401a2,5ebcc5f8-5256-11ea-8a6d-bf57a22f7632
5eab2690-5256-11ea-8341-2f98567035b6,5ebceaba-5256-11ea-8515-53b1850fe1d0
5eac82a6-5256-11ea-b669-5780ff275746,5ebd07d4-5256-11ea-a34b-eb2a99b6b83d
5ebb1fd2-5256-11ea-a78a-0fc56965389b,5ebd2f02-5256-11ea-a9cd-0bc0c7330312
5ea56e12-5256-11ea-ba24-035c116540d3,5ebd48e8-5256-11ea-a505-471e8850f3ae
5eab8f68-5256-11ea-8fe6-23c7620c34c5,5ebd658a-5256-11ea-b293-07b17d2d088c
5ea5f670-5256-11ea-b4ab-079712dfa26d,5ebd8448-5256-11ea-aeaa-a759cd899b0e
5ebc3048-5256-11ea-a3e1-2be477c5228e,5ebd9dfc-5256-11ea-9698-ffaa835d7f1e
5eae7bc4-5256-11ea-aad9-8bf2e3304d93,5ebdb71a-5256-11ea-9ebd-cf960fa0e5c9
5eb66122-5256-11ea-a211-4fcfd71ca765,5ebdd7a4-5256-11ea-8322-2f122c7dc40e
5eb9e93c-5256-11ea-9635-b31b04047496,5ebdf428-5256-11ea-bae0-07938ebf95e7
5ea6ecf6-5256-11ea-8270-b3459075bc54,5ebe211e-5256-11ea-ae33-df3d6868426b
5ea59ffe-5256-11ea-8416-a3e1e607fa0d,5ebe3ffa-5256-11ea-8c18-a3b99844dedd
5ead6da6-5256-11ea-8ab9-a7c022283a93,5ebe650c-5256-11ea-b773-3bbd462fed70
5eaadc62-5256-11ea-af8f-6fac873d1db9,5ebe81ea-5256-11ea-a402-3bf524707224
5eb2a4ec-5256-11ea-bbd6-533f56ac2213,5ebe9e64-5256-11ea-a427-b743bed23ed3
5ea882f0-5256-11ea-8d0f-ab92122d7673,5ebebbd8-5256-11ea-84f2-6f74b0acbce2
5eb55cbe-5256-11ea-912c-2330967c3f0f,5ebee072-5256-11ea-b122-178784a2ddaa
5ea9d07e-5256-11ea-9c53-2f7ba4a635cb,5ebf064c-5256-11ea-803d-cf721efb14be
5ea1e922-5256-11ea-a898-17af927319a6,5ebf2e24-5256-11ea-8f79-177a406b105d
5ea4ff22-5256-11ea-b28e-2fe6bae6f41e,5ebf48dc-5256-11ea-ac33-9ff905d5c80a
5ea7349a-5256-11ea-9207-ef2b33c2d5a7,5ebf64ac-5256-11ea-ad25-df4ab6a2df81
5eab6a2e-5256-11ea-aa32-c70fe75acd4d,5ebf7d8e-5256-11ea-aca8-a778b74b0097
5eba8c70-5256-11ea-908c-63017d26b08f,5ebf9648-5256-11ea-a4db-f333ed1e119b
5eac82a6-5256-11ea-b669-5780ff275746,5ebfaf7a-5256-11ea-b569-afdfdcc61f73
5eb538ba-5256-11ea-89df-0fc995e1ab6d,5ebfd8d8-5256-11ea-8123-fbc94a456186
5ea5f670-5256-11ea-b4ab-079712dfa26d,5ebffbb0-5256-11ea-bb65-8f539fb5c15a
5eb710cc-5256-11ea-96b7-33912b9eb607,5ec01b90-5256-11ea-ac13-1b393bcb06ee
5ead0dde-5256-11ea-bfd4-f3e6331b2725,5ec0394a-5256-11ea-813e-0bccf620fd0a
5ea31a7c-5256-11ea-a7b3-5b5adf8cc85f,5ec053da-5256-11ea-814e-13f0c8c93fb5
5eb66122-5256-11ea-a211-4fcfd71ca765,5ec070e0-5256-11ea-9d7e-d73026049134
5eb92240-5256-11ea-b427-f741f80c5fe6,5ec08f26-5256-11ea-9981-9b15e181500f
5eb8b206-5256-11ea-a9dc-2b43f30a3cc8,5ec0ad30-5256-11ea-975b-2ba9efead0bd
5ea1aef8-5256-11ea-a598-27e6a7e8a62a,5ec0c982-5256-11ea-ae14-6f0e1518d835
5ea493d4-5256-11ea-b455-efdc44306509,5ec0e5fc-5256-11ea-9ef5-0b27bc2445d2
5ead6da6-5256-11ea-8ab9-a7c022283a93,5ec0fe98-5256-11ea-a3d4-835a5198bff5
5eb233f4-5256-11ea-ab6b-6b52198b8d0a,5ec11acc-5256-11ea-9212-67e33096d445
5ea98b00-5256-11ea-a257-c70a3975db0f,5ec13534-5256-11ea-aa62-0f63991b395b
5eb08298-5256-11ea-9219-cb5c68620972,5ec152bc-5256-11ea-8e70-e73621e48553
5ea61a60-5256-11ea-a8d7-8f6f5d576b66,5ec174a4-5256-11ea-906e-4b756aaec4b6
5ebe3ffa-5256-11ea-8c18-a3b99844dedd,5ec197fe-5256-11ea-855f-47fc014a4d16
5eb2c382-5256-11ea-95e7-bb3475c4bfb1,5ec1b6b2-5256-11ea-9e05-2ba6c896d9b9
5eb9b2e6-5256-11ea-ba9f-47a271795292,5ec1d1ce-5256-11ea-ba2c-fb71131de2c2
5eb3e74e-5256-11ea-b217-4fd0acc21847,5ec1ece0-5256-11ea-a280-c70321ebd3a3
5eb538ba-5256-11ea-89df-0fc995e1ab6d,5ec20e6e-5256-11ea-813c-6b7c0c775de8
5ebae09e-5256-11ea-8454-87e39f31e069,5ec231a0-5256-11ea-8672-9f497b7ba9bc
5eb215fe-5256-11ea-bec0-6bcda3af7519,5ec24c08-5256-11ea-950c-9f8cff9aca50
5ea9d07e-5256-11ea-9c53-2f7ba4a635cb,5ec26c42-5256-11ea-8b56-4fb1d936822d
5ea91184-5256-11ea-8cf4-471072af8ad2,5ec294d8-5256-11ea-affc-b72be273e33c
5ea693a0-5256-11ea-8504-3b87797f049b,5ec2c0ac-5256-11ea-abb7-9719392b951d
5ebc12b6-5256-11ea-8bf9-8f6246994fb3,5ec2e46a-5256-11ea-9ce7-4730eb28329d
5ec2c0ac-5256-11ea-abb7-9719392b951d,5ec2ff90-5256-11ea-b93a-e388fca58991
5ec0e5fc-5256-11ea-9ef5-0b27bc2445d2,5ec31ac0-5256-11ea-bdca-4fcf606ecd47
5ebb7b80-5256-11ea-8b9d-0f3dbf4315c3,5ec338b6-5256-11ea-80d0-e7afd481ed99
5eb45242-5256-11ea-9b85-83f223a4684d,5ec35274-5256-11ea-9f68-ff338efaeecc
5eacc338-5256-11ea-9d99-43e5b809aeeb,5ec36e8a-5256-11ea-8d28-bfb770e6316f
5ebac5f0-5256-11ea-be0a-a7124a74adc6,5ec38802-5256-11ea-98a1-5b2d9d5182ff
5ea4ff22-5256-11ea-b28e-2fe6bae6f41e,5ec3a044-5256-11ea-a35b-170a262536bb
5ebe211e-5256-11ea-ae33-df3d6868426b,5ec3bc8c-5256-11ea-ba3a-fb1d5d8081aa
5eb45242-5256-11ea-9b85-83f223a4684d,5ec3d7d0-5256-11ea-8453-438b6b229708
5ea61a60-5256-11ea-a8d7-8f6f5d576b66,5ec3f008-5256-11ea-965a-7fa19728b802
5eafbd18-5256-11ea-a28d-f32010ab26f7,5ec40cbe-5256-11ea-a0fd-37c247af5826
5eb4fd78-5256-11ea-a16a-33f8a41de7ae,5ec42a8c-5256-11ea-b34a-bf76bc6e903c
5eb6993a-5256-11ea-8407-2b014e243415,5ec450a2-5256-11ea-b3e4-170b09f85a51
5eb2a4ec-5256-11ea-bbd6-533f56ac2213,5ec46e02-5256-11ea-9a72-572bbbce35fc
5ea964b8-5256-11ea-adb5-2b4426afb98f,5ec48752-5256-11ea-a8f9-6fd2f731d6dc
5eb8b206-5256-11ea-a9dc-2b43f30a3cc8,5ec4a28c-5256-11ea-a56c-e3f3242fee22
5ea36644-5256-11ea-b418-3307e30a77e7,5ec4c028-5256-11ea-94bb-3727038d6647
5eab0426-5256-11ea-934a-7fe276757530,5ec4da7c-5256-11ea-be9e-abbb30fff384
5ec26c42-5256-11ea-8b56-4fb1d936822d,5ec4f2e6-5256-11ea-8cf9-230d126ce705
5eb710cc-5256-11ea-96b7-33912b9eb607,5ec511a4-5256-11ea-8ef3-eb0925ee948a
5eb055de-5256-11ea-9699-8319bea3c9a2,5ec529dc-5256-11ea-846e-47b4b7ca88f8
5eacebb0-5256-11ea-9a7e-2372a1ac19b4,5ec543ae-5256-11ea-b8e4-6fa73eb50da8
5eb36350-5256-11ea-9555-7bdeccf76966,5ec55d3a-5256-11ea-a73b-e75216f2050d
5eb17108-5256-11ea-98ac-87375cee9afd,5ec5806c-5256-11ea-8205-0312fe87906c
5eaa1764-5256-11ea-a003-cb8c40232ce0,5ec5b028-5256-11ea-a7e1-437842669e46
5eb603d0-5256-11ea-928a-e3e9fbeb9725,5ec5c8ba-5256-11ea-93fd-6b438c6b1852
5ea693a0-5256-11ea-8504-3b87797f049b,5ec5e0de-5256-11ea-9590-ef46b1d87ca1
5ec3f008-5256-11ea-965a-7fa19728b802,5ec5fcb8-5256-11ea-a20e-0f7957a5aa38
5ea882f0-5256-11ea-8d0f-ab92122d7673,5ec6175c-5256-11ea-b779-bf111ab71137
5ec24c08-5256-11ea-950c-9f8cff9aca50,5ec63034-5256-11ea-980a-dbe8cf6aef2f
5ec5fcb8-5256-11ea-a20e-0f7957a5aa38,5ec64bd2-5256-11ea-b009-933ec2b4e692
5eb9e93c-5256-11ea-9635-b31b04047496,5ec669b4-5256-11ea-a515-970cf609ca54
5ebb3cd8-5256-11ea-9f20-1fd5288225a2,5ec68610-5256-11ea-8ca3-bbbebdb12632
5eb51baa-5256-11ea-b3b5-bfaa8464ecf8,5ec69e02-5256-11ea-9481-6bc83aa2fd09
5ebb7b80-5256-11ea-8b9d-0f3dbf4315c3,5ec6be14-5256-11ea-be31-0f3efae649f5
5ec529dc-5256-11ea-846e-47b4b7ca88f8,5ec6d70a-5256-11ea-b6c8-b3259ca95540
5eaa6944-5256-11ea-a88d-f7f340996b2d,5ec6f4c4-5256-11ea-88f9-2b550cc9cb6e
5ea1aef8-5256-11ea-a598-27e6a7e8a62a,5ec70f2c-5256-11ea-b06f-4b6801ecda99
5eb84244-5256-11ea-a87c-07c52c8c4585,5ec72bc4-5256-11ea-8242-03dd49839259
5ec01b90-5256-11ea-ac13-1b393bcb06ee,5ec743fc-5256-11ea-ac1a-677548914e1c
5ebf064c-5256-11ea-803d-cf721efb14be,5ec75ffe-5256-11ea-ad00-cf4df81e7a27
5eb89438-5256-11ea-a658-4fe65349d161,5ec77b74-5256-11ea-8128-17fcafa453e0
5ebe211e-5256-11ea-ae33-df3d6868426b,5ec793ac-5256-11ea-bdeb-a304577ecc6e
5ec543ae-5256-11ea-b8e4-6fa73eb50da8,5ec7ab30-5256-11ea-9995-cb679f69550d
5eb251fe-5256-11ea-ad6f-5bf7474401a2,5ec7cb88-5256-11ea-8047-b39b8a760a37
5ea4b40e-5256-11ea-aed8-73fc70a1d6bf,5ec7f66c-5256-11ea-b1b8-0bd69cf79333
5ec743fc-5256-11ea-ac1a-677548914e1c,5ec804d6-5256-11ea-bbd9-d75e7e94699a
5ebae09e-5256-11ea-8454-87e39f31e069,5ec81de0-5256-11ea-b81a-b71014d5c5a1
5eb7a654-5256-11ea-b211-9fd8ded7142b,5ec83f46-5256-11ea-9204-bb746ef32c89
5ea8c83c-5256-11ea-bd8d-dfd43f298912,5ec85af8-5256-11ea-aea0-5392a615133f
5ebdb71a-5256-11ea-9ebd-cf960fa0e5c9,5ec87628-5256-11ea-bd48-57446e6a0026
5eacebb0-5256-11ea-9a7e-2372a1ac19b4,5ec89022-5256-11ea-b73a-f3f15f90dba8
5eab4ae4-5256-11ea-8d24-07e73ac03d1b,5ec8aaf8-5256-11ea-9a5d-07de1fe61655
5eb0251e-5256-11ea-acc9-cf42f0364c88,5ec8c628-5256-11ea-bc96-aff925a7fb2c
5eae7bc4-5256-11ea-aad9-8bf2e3304d93,5ec8ed4c-5256-11ea-b691-e369e6be1a06
5eba2b7c-5256-11ea-bce4-eff1ca203702,5ec90a8e-5256-11ea-a887-dfc64695f18d
5ea693a0-5256-11ea-8504-3b87797f049b,5ec9265e-5256-11ea-b6fe-ef26ed41d0fd
5ec3a044-5256-11ea-a35b-170a262536bb,5ec93fc2-5256-11ea-a833-3b57c102fdfe
5ead508c-5256-11ea-80da-cb786fa6dd46,5ec95994-5256-11ea-86a1-6bb80a5fd5c4
5ec13534-5256-11ea-aa62-0f63991b395b,5ec97852-5256-11ea-9b15-2ff7d1dbaa59
5ebb1fd2-5256-11ea-a78a-0fc56965389b,5ec99c2e-5256-11ea-99b8-d348de795efa
5ebca99c-5256-11ea-9917-03b76880d872,5ec9ba6a-5256-11ea-9a49-1bb356a0d1ba
5ec35274-5256-11ea-9f68-ff338efaeecc,5ec9d84c-5256-11ea-ae1e-734d8e71b6ec
5ea9d07e-5256-11ea-9c53-2f7ba4a635cb,5ec9f69c-5256-11ea-8e89-b33350495b7a
5ec6175c-5256-11ea-b779-bf111ab71137,5eca1352-5256-11ea-ac6c-4be376374505
5ec83f46-5256-11ea-9204-bb746ef32c89,5eca2f40-5256-11ea-8288-b3c484f76014
5eb644d0-5256-11ea-9d8d-bf3c60affc4e,5eca4a70-5256-11ea-ab38-b74bae680aba
5eb36350-5256-11ea-9555-7bdeccf76966,5eca64d8-5256-11ea-bca4-c38b8af95790
5ec0e5fc-5256-11ea-9ef5-0b27bc2445d2,5eca8512-5256-11ea-900a-0ba531c78ce5
5ea8edee-5256-11ea-8a89-bf7a78fd5543,5eca9f70-5256-11ea-80ce-63fe6bc94853
5ebebbd8-5256-11ea-84f2-6f74b0acbce2,5ecabb68-5256-11ea-9594-836ca97efa62
5ea964b8-5256-11ea-adb5-2b4426afb98f,5ecadb8e-5256-11ea-8d98-fbda4bb1a35d
5ebdb71a-5256-11ea-9ebd-cf960fa0e5c9,5ecafbd2-5256-11ea-b2d8-97d4188fb22b
5ebd9dfc-5256-11ea-9698-ffaa835d7f1e,5ecb19f0-5256-11ea-845f-b7af0a3bf331
5ea493d4-5256-11ea-b455-efdc44306509,5ecb3976-5256-11ea-ac84-23ee06708104
5ec3d7d0-5256-11ea-8453-438b6b229708,5ecb5622-5256-11ea-a0b1-b7187783a225
5eb9e93c-5256-11ea-9635-b31b04047496,5ecb7292-5256-11ea-abf9-5f0bf12ae2d6
5eb4fd78-5256-11ea-a16a-33f8a41de7ae,5ecb8ea8-5256-11ea-8a6f-6f2362168e64
5ec543ae-5256-11ea-b8e4-6fa73eb50da8,5ecbad3e-5256-11ea-af60-47df564d1c30
5ebe650c-5256-11ea-b773-3bbd462fed70,5ecbd08e-5256-11ea-8910-5fce45bca559
5eaa6944-5256-11ea-a88d-f7f340996b2d,5ecbff28-5256-11ea-960c-53b8316b6c4f
5ea56e26-5256-11ea-8a84-17a6aa3c6144,5ecc1ac6-5256-11ea-ab2e-6f643a164929
5ec08f26-5256-11ea-9981-9b15e181500f,5ecc39b6-5256-11ea-bcf9-5b6117e2170f
5ec93fc2-5256-11ea-a833-3b57c102fdfe,5ecc59b4-5256-11ea-a968-a760f347f1b5
5eae0446-5256-11ea-ac30-332e744cce33,5ecc7642-5256-11ea-92a1-73c2eff9b769
5ecb7292-5256-11ea-abf9-5f0bf12ae2d6,5ecc8ec0-5256-11ea-97e7-2b16e53f12b3
5ebcc5f8-5256-11ea-8a6d-bf57a22f7632,5ecca87e-5256-11ea-bd75-336a28cc0afd
5ec5fcb8-5256-11ea-a20e-0f7957a5aa38,5eccc476-5256-11ea-bac3-5be5038b5c5a
5eba6f2e-5256-11ea-94ca-8b8b8b16305b,5ecce870-5256-11ea-8aa0-4f6c06b49024
5eb5945e-5256-11ea-90e1-d3120b6ddc90,5ecd2150-5256-11ea-8a9a-97a7791d96e3
5eb233f4-5256-11ea-ab6b-6b52198b8d0a,5ecd123c-5256-11ea-aa20-630cab059f0f
5ea7349a-5256-11ea-9207-ef2b33c2d5a7,5ecd46b2-5256-11ea-9f75-13b191798bd6
5eb825d4-5256-11ea-b5d6-efaa02a0e515,5ecd6494-5256-11ea-b16a-271730853929
5eb5945e-5256-11ea-90e1-d3120b6ddc90,5ecd81d6-5256-11ea-a323-172d42412fad
5ec90a8e-5256-11ea-a887-dfc64695f18d,5ecd9d88-5256-11ea-a740-bb7b072e4cdc
5eb964ee-5256-11ea-9c84-6749538ceca6,5ecdb8e0-5256-11ea-873a-b344c316193c
5eb6993a-5256-11ea-8407-2b014e243415,5ecdd528-5256-11ea-8d56-e3dd13496c61
5ecb7292-5256-11ea-abf9-5f0bf12ae2d6,5ecdefea-5256-11ea-93c7-f75c2002cfc2
5eb6b5f0-5256-11ea-b686-1b9385b2844e,5ece1420-5256-11ea-b6d8-572e8332e3bd
5ecabb68-5256-11ea-9594-836ca97efa62,5ece33e2-5256-11ea-865e-a72dd5797d92
5eaa1764-5256-11ea-a003-cb8c40232ce0,5ece5192-5256-11ea-87c4-5b33fdf9b411
5ec338b6-5256-11ea-80d0-e7afd481ed99,5ece6a7e-5256-11ea-9490-4f9d9fedb764
5ea493d4-5256-11ea-b455-efdc44306509,5ece88ec-5256-11ea-973c-2b7949a3d4f9
5ec5806c-5256-11ea-8205-0312fe87906c,5ecea52a-5256-11ea-904a-e75b0c9b73b0
5eb6b5f0-5256-11ea-b686-1b9385b2844e,5ecebe0c-5256-11ea-9d23-43e73bb83898
5ea1aef8-5256-11ea-a598-27e6a7e8a62a,5eced9f0-5256-11ea-a9aa-97293f6deace
5ec4a28c-5256-11ea-a56c-e3f3242fee22,5ecef624-5256-11ea-9860-4fb1cadf22cf
5eaebfa8-5256-11ea-9b0a-075ba252a9e4,5ecf2e6e-5256-11ea-ac99-53b7d098d296
5eaabd18-5256-11ea-8818-b73fc638454f,5ecf10a0-5256-11ea-b15d-cf30ad0fbe04
5eb47b46-5256-11ea-983e-430b41ef607a,5ecf4c6e-5256-11ea-a0b3-f3059fa4574b
5ebe650c-5256-11ea-b773-3bbd462fed70,5ecf6bcc-5256-11ea-8a83-cb1443b590b9
5ec64bd2-5256-11ea-b009-933ec2b4e692,5ecf886e-5256-11ea-a560-43e801c72a07
5ec2c0ac-5256-11ea-abb7-9719392b951d,5ecfc28e-5256-11ea-b994-3f89df0cb809
5eaca484-5256-11ea-8dde-13f50351a3ed,5ecfa8f8-5256-11ea-ab92-630b47b6faa7
5ec13534-5256-11ea-aa62-0f63991b395b,5ecfe89a-5256-11ea-8fdf-9ba8f0b483b9
5eba2b7c-5256-11ea-bce4-eff1ca203702,5ed007e4-5256-11ea-9a40-3f266d47d5a6
5ec48752-5256-11ea-a8f9-6fd2f731d6dc,5ed02cf6-5256-11ea-9a19-cff4db6c8748
5ebc4e84-5256-11ea-b8a9-53ae5ae06b74,5ed05000-5256-11ea-8f3d-2333da06f2e6
5ec4f2e6-5256-11ea-8cf9-230d126ce705,5ed06e50-5256-11ea-ac8f-6ffed3b22654
5ea882f0-5256-11ea-8d0f-ab92122d7673,5ed08c32-5256-11ea-a916-0f46ea52e7e6
5ebbd684-5256-11ea-819e-6fc9211dbb0e,5ed0a9ec-5256-11ea-a780-ebc9cdf3aae8
5ec77b74-5256-11ea-8128-17fcafa453e0,5ed0d85e-5256-11ea-9e3b-77d522165a52
5ec48752-5256-11ea-a8f9-6fd2f731d6dc,5ed0f956-5256-11ea-82a3-0b10bab2b503
5eb4fd78-5256-11ea-a16a-33f8a41de7ae,5ed11792-5256-11ea-b664-873bb5c37a4b
5ec450a2-5256-11ea-b3e4-170b09f85a51,5ed1336c-5256-11ea-83aa-976c9c5b7a1c
5ebc3048-5256-11ea-a3e1-2be477c5228e,5ed15298-5256-11ea-83ed-5fa55d7fbc46
5ea9d07e-5256-11ea-9c53-2f7ba4a635cb,5ed16fbc-5256-11ea-911a-f3f16e8c6b4d
5ec48752-5256-11ea-a8f9-6fd2f731d6dc,5ed18b32-5256-11ea-a502-27afb859a06c
5ec08f26-5256-11ea-9981-9b15e181500f,5ed1c160-5256-11ea-93b9-330d7bdeb10d
5ec01b90-5256-11ea-ac13-1b393bcb06ee,5ed1ff86-5256-11ea-b6d8-870151c3dc2c
5eaca484-5256-11ea-8dde-13f50351a3ed,5ed1df9c-5256-11ea-91b5-07fa11168a25
5eb055de-5256-11ea-9699-8319bea3c9a2,5ed21d90-5256-11ea-9fef-bf2311399323
5ed1ff86-5256-11ea-b6d8-870151c3dc2c,5ed23b4a-5256-11ea-ab7b-2b2f8f3a9a7d
5ea36644-5256-11ea-b418-3307e30a77e7,5ed25c74-5256-11ea-8447-cfcf321d85ae
5ebebbd8-5256-11ea-84f2-6f74b0acbce2,5ed2798e-5256-11ea-9ed3-c7b2335f625c
5ea341b4-5256-11ea-b219-279d5952c46a,5ed2975c-5256-11ea-a3d3-8fc515cede9d
5ed1336c-5256-11ea-83aa-976c9c5b7a1c,5ed2b73c-5256-11ea-a103-bbbea9001f33
5eb78caa-5256-11ea-84c5-53ba4492a19f,5ed2d668-5256-11ea-9f26-abc73120d5aa
5ec793ac-5256-11ea-bdeb-a304577ecc6e,5ed2fa1c-5256-11ea-b064-db91a6715065
5ec0394a-5256-11ea-813e-0bccf620fd0a,5ed314d4-5256-11ea-be61-7bb392082d71
5eae0446-5256-11ea-ac30-332e744cce33,5ed32ec4-5256-11ea-9046-d3c6d04bad2e
5eb51baa-5256-11ea-b3b5-bfaa8464ecf8,5ed34cba-5256-11ea-bc32-9b512b81af79
5eaa6944-5256-11ea-a88d-f7f340996b2d,5ed36d80-5256-11ea-84fe-53a5405b2044
5eb0cca8-5256-11ea-a086-4bf53c081989,5ed38cb6-5256-11ea-8478-1f54fd1d0145
5ea4b40e-5256-11ea-aed8-73fc70a1d6bf,5ed3a782-5256-11ea-b3b6-57329212b05a
5ebb3cd8-5256-11ea-9f20-1fd5288225a2,5ed3d9be-5256-11ea-9b95-efddfc0eb1ee
5ecc1ac6-5256-11ea-ab2e-6f643a164929,5ed3f4b2-5256-11ea-a010-7ff770f2e93c
5ebc12b6-5256-11ea-8bf9-8f6246994fb3,5ed40e70-5256-11ea-917b-2780fe10461a
5eb97e48-5256-11ea-9bbe-7b5929ab4e16,5ed429b4-5256-11ea-8ac2-f3d3619a7a14
5ec24c08-5256-11ea-950c-9f8cff9aca50,5ed44886-5256-11ea-ab73-a345101b61e8
5ebc4e84-5256-11ea-b8a9-53ae5ae06b74,5ed46618-5256-11ea-ad53-1b5d35b85108
5ebb1fd2-5256-11ea-a78a-0fc56965389b,5ed48332-5256-11ea-9fa7-eb0bf473c42a
5ea91184-5256-11ea-8cf4-471072af8ad2,5ed49c32-5256-11ea-9686-93c981353af9
5eba6f2e-5256-11ea-94ca-8b8b8b16305b,5ed4b870-5256-11ea-80ae-9fc09ee33c6a
5ecb7292-5256-11ea-abf9-5f0bf12ae2d6,5ed4d4d6-5256-11ea-a74c-cb44828b14ca
5ebe3ffa-5256-11ea-8c18-a3b99844dedd,5ed4f1a0-5256-11ea-9d6f-db3d49675e1f
5ed1c160-5256-11ea-93b9-330d7bdeb10d,5ed50e92-5256-11ea-b5b5-4f15826b37cb
5eba2b7c-5256-11ea-bce4-eff1ca203702,5ed52ce2-5256-11ea-9109-f3e4f9afee40
5ebbd684-5256-11ea-819e-6fc9211dbb0e,5ed549ca-5256-11ea-9340-1323abf60d5b
5ec0fe98-5256-11ea-a3d4-835a5198bff5,5ed56b76-5256-11ea-aa84-ebb197b513a0
5ea24688-5256-11ea-8b3a-7399c42e99ca,5ed58840-5256-11ea-884b-f34396a4c5bd
5ec85af8-5256-11ea-aea0-5392a615133f,5ed5a398-5256-11ea-bda7-ff240db020f7
5ead508c-5256-11ea-80da-cb786fa6dd46,5ed5bd88-5256-11ea-ba85-0321758ef5b0
5eccc476-5256-11ea-bac3-5be5038b5c5a,5ed5d958-5256-11ea-a87a-bb63cc01995b
5ed02cf6-5256-11ea-9a19-cff4db6c8748,5ed5f62c-5256-11ea-ae1b-5f98c190dd3f
5ece6a7e-5256-11ea-9490-4f9d9fedb764,5ed614f4-5256-11ea-bd8d-77d21497d64d
5ea39498-5256-11ea-821f-0b5466b36e53,5ed64e74-5256-11ea-b30e-479a822a8596
5ec0ad30-5256-11ea-975b-2ba9efead0bd,5ed65fae-5256-11ea-a8d4-9fa846678f66
5eb8b206-5256-11ea-a9dc-2b43f30a3cc8,5ed67f2a-5256-11ea-8245-d798028f4212
5ea882f0-5256-11ea-8d0f-ab92122d7673,5ed6ae50-5256-11ea-b7b2-d3b804a53355
5eb97e48-5256-11ea-9bbe-7b5929ab4e16,5ed6e280-5256-11ea-95f9-af5b1cf51d05
5ed314d4-5256-11ea-be61-7bb392082d71,5ed712fa-5256-11ea-9335-437d9ba4c04a
5ec9265e-5256-11ea-b6fe-ef26ed41d0fd,5ed7466c-5256-11ea-92e1-bfd64546d533
5ec338b6-5256-11ea-80d0-e7afd481ed99,5ed7bdfe-5256-11ea-8302-fb511beaaeaa
5ea858c0-5256-11ea-af91-2b23ac04421f,5ed7f51c-5256-11ea-a01e-4f18eca73cfa
5eac15dc-5256-11ea-8588-8b36b9e5f389,5ed81fce-5256-11ea-ad21-1f578f564bb3
5ec6be14-5256-11ea-be31-0f3efae649f5,5ed851ec-5256-11ea-b281-23fa1c836ca8
5ecb3976-5256-11ea-ac84-23ee06708104,5ed88202-5256-11ea-ab2f-9f023212a3bf
5eab4ae4-5256-11ea-8d24-07e73ac03d1b,5ed8afde-5256-11ea-aec2-e735b8a60f80
5ed851ec-5256-11ea-b281-23fa1c836ca8,5ed8c852-5256-11ea-bc43-87c513551c6d
5ec4c028-5256-11ea-94bb-3727038d6647,5ed8e954-5256-11ea-9f97-2bcbc1a31f07
5eafbd18-5256-11ea-a28d-f32010ab26f7,5ed91460-5256-11ea-a7ff-e77c02778a44
5ec3f008-5256-11ea-965a-7fa19728b802,5ed936f2-5256-11ea-8485-6bba534777f6
5ea1aef8-5256-11ea-a598-27e6a7e8a62a,5ed964d8-5256-11ea-b5a6-8f79045c616f
5ed7466c-5256-11ea-92e1-bfd64546d533,5ed9871a-5256-11ea-9b60-8b4d7fdd740b
5eccc476-5256-11ea-bac3-5be5038b5c5a,5ed9ab46-5256-11ea-8ed4-0334f36e3667
5eb8e9d8-5256-11ea-b772-9bc18b5d1448,5ed9caea-5256-11ea-86d5-2794ee0df70b
5eb3101c-5256-11ea-bb7f-e7a94e74038f,5ed9f088-5256-11ea-a6a1-f7156f804df8
5ecd9d88-5256-11ea-a740-bb7b072e4cdc,5eda0ef6-5256-11ea-a8ae-c7b587c991ed
5eb26c2a-5256-11ea-af5c-23b1a4cc1d7f,5eda31a6-5256-11ea-ae10-d36572e5887d
5eb2c382-5256-11ea-95e7-bb3475c4bfb1,5eda4e66-5256-11ea-8f00-eb9bb09358f9
5ec4c028-5256-11ea-94bb-3727038d6647,5eda6b4e-5256-11ea-ad09-5b4348183f87
5ed9871a-5256-11ea-9b60-8b4d7fdd740b,5eda89a8-5256-11ea-b39a-e302a5b94732
5eac3878-5256-11ea-a012-0b646b0e4f00,5edaa7e4-5256-11ea-83f2-9fe25926ea87
5ecb7292-5256-11ea-abf9-5f0bf12ae2d6,5edac1e8-5256-11ea-be11-5fea8352c15b
5eb710cc-5256-11ea-96b7-33912b9eb607,5edae0ce-5256-11ea-82df-7f07a4adf606
5ecf4c6e-5256-11ea-a0b3-f3059fa4574b,5edb0982-5256-11ea-bb9d-e7c8722dcf76
5ec77b74-5256-11ea-8128-17fcafa453e0,5edb377c-5256-11ea-ac55-973d90012f6a
5ea638ba-5256-11ea-9e75-9fe2d3c6b6e5,5edb59a0-5256-11ea-b9fc-9399f7f0698d
5ebf64ac-5256-11ea-ad25-df4ab6a2df81,5edb7b38-5256-11ea-943e-975d35d727d7
5ec13534-5256-11ea-aa62-0f63991b395b,5edb9fbe-5256-11ea-a156-73d797bb521d
5ed0f956-5256-11ea-82a3-0b10bab2b503,5edbbc6a-5256-11ea-b76a-9b2c71e36503
5eda89a8-5256-11ea-b39a-e302a5b94732,5edbd6aa-5256-11ea-bfce-37597ad44c2a
5ea9d07e-5256-11ea-9c53-2f7ba4a635cb,5edbf1f8-5256-11ea-9275-bf5cf940361b
5ea9a7a2-5256-11ea-a4da-2f6854c6c701,5edc199e-5256-11ea-8091-8b83641ae01c
5eacc338-5256-11ea-9d99-43e5b809aeeb,5edc4b08-5256-11ea-bc46-c707782081ee
5ed7bdfe-5256-11ea-8302-fb511beaaeaa,5edc73ee-5256-11ea-878f-238a0efadddb
5ecd6494-5256-11ea-b16a-271730853929,5edc9824-5256-11ea-a7a0-7fa3de719a9f
5ed4d4d6-5256-11ea-a74c-cb44828b14ca,5edcc2d6-5256-11ea-be9c-bb1e7c51c6a5
5eb1f6dc-5256-11ea-8847-03e608783c60,5edce36a-5256-11ea-a890-9bed711780dc
5ea56e12-5256-11ea-ba24-035c116540d3,5edd04a8-5256-11ea-9fea-57ff6b4f0785
5ecd123c-5256-11ea-aa20-630cab059f0f,5edd24d8-5256-11ea-b87c-aff8f50bcd0d
5ed2fa1c-5256-11ea-b064-db91a6715065,5edd44b8-5256-11ea-ab82-7fd2470897f7
5eb78caa-5256-11ea-84c5-53ba4492a19f,5edd6236-5256-11ea-b900-07d6cc95dabf
5edd44b8-5256-11ea-ab82-7fd2470897f7,5edd80ea-5256-11ea-9b9a-df5480c94b6c
5ebd8448-5256-11ea-aeaa-a759cd899b0e,5edda0f2-5256-11ea-b9ad-0fb416fa5b87
5edd24d8-5256-11ea-b87c-aff8f50bcd0d,5eddbed4-5256-11ea-9510-4b0d5f4b47b7
5ec38802-5256-11ea-98a1-5b2d9d5182ff,5eddd78e-5256-11ea-9d82-57a03a9967fc
5eb9b2e6-5256-11ea-ba9f-47a271795292,5eddf188-5256-11ea-90e0-abe4d4e9a195
5ed1336c-5256-11ea-83aa-976c9c5b7a1c,5ede13fc-5256-11ea-bef6-ffcc8b0221e6
5ea82af8-5256-11ea-aec9-2b0889b39b77,5ede38aa-5256-11ea-a95c-ebef60975ba1
5eab6a2e-5256-11ea-aa32-c70fe75acd4d,5ede5498-5256-11ea-be3c-fb1a49c8d8d3
5eb5b2a4-5256-11ea-ac61-73040e849ccd,5ede7108-5256-11ea-b05b-fbb5b392e019
5ec743fc-5256-11ea-ac1a-677548914e1c,5ede91ba-5256-11ea-b4b3-6325a08a79c7
5eab8f68-5256-11ea-8fe6-23c7620c34c5,5edead6c-5256-11ea-ad64-cfbbd22fa86f
5ecc8ec0-5256-11ea-97e7-2b16e53f12b3,5edecbbc-5256-11ea-ad8f-2b02629fd92a
5eca8512-5256-11ea-900a-0ba531c78ce5,5edee32c-5256-11ea-8225-e71299241729
5ecea52a-5256-11ea-904a-e75b0c9b73b0,5edefed4-5256-11ea-b8ac-a349d1fe680f
5ed02cf6-5256-11ea-9a19-cff4db6c8748,5edf28a0-5256-11ea-9b07-4706ea65a025
5ebe81ea-5256-11ea-a402-3bf524707224,5edf47cc-5256-11ea-b741-eb68f224660b
5eb2eb46-5256-11ea-878f-8f63811a4af7,5edf64fa-5256-11ea-91ad-4b5fff867a4e
5ed3a782-5256-11ea-b3b6-57329212b05a,5edf816a-5256-11ea-a1f2-dfc3ecbc826d
5eb90828-5256-11ea-a40e-eb380e0d4655,5edf9dc6-5256-11ea-85b5-3b651c234a07
5eb603d0-5256-11ea-928a-e3e9fbeb9725,5edfb98c-5256-11ea-9d6d-fffc193355a1
5ec4a28c-5256-11ea-a56c-e3f3242fee22,5edfd58e-5256-11ea-8200-0b8f870105de
5eb0251e-5256-11ea-acc9-cf42f0364c88,5edfef42-5256-11ea-b9c2-d732cdd204e7
5eae7bc4-5256-11ea-aad9-8bf2e3304d93,5ee00f36-5256-11ea-9824-3bac2166de90
5ea41cd8-5256-11ea-b3a5-47e1f93f12e3,5ee02c28-5256-11ea-a2c9-e3447d0b488c
5ece1420-5256-11ea-b6d8-572e8332e3bd,5ee045aa-5256-11ea-b455-afd734cb2b27
5ebe81ea-5256-11ea-a402-3bf524707224,5ee06a4e-5256-11ea-81be-eb1f0d86716f
5eb92240-5256-11ea-b427-f741f80c5fe6,5ee0897a-5256-11ea-9faf-3764117c37e5
5ea8c83c-5256-11ea-bd8d-dfd43f298912,5ee0a89c-5256-11ea-974f-e711abcb3738
5edcc2d6-5256-11ea-be9c-bb1e7c51c6a5,5ee0e140-5256-11ea-9fa3-e318c1ac5d88
5ec743fc-5256-11ea-ac1a-677548914e1c,5ee0e208-5256-11ea-bc91-4b64c495a3ab
5ede7108-5256-11ea-b05b-fbb5b392e019,5ee0fd10-5256-11ea-becf-1f7ac8364b51
5eaf2204-5256-11ea-ab96-affed878584d,5ee11796-5256-11ea-877d-f30b556261a6
5eaa996e-5256-11ea-ab5d-ab899d685c12,5ee13118-5256-11ea-872e-5b270381e3c4
5ebf2e24-5256-11ea-8f79-177a406b105d,5ee15616-5256-11ea-9688-47dabd181a42
5ea882f0-5256-11ea-8d0f-ab92122d7673,5ee182ee-5256-11ea-8074-27f79e1ddcaf
5ea36644-5256-11ea-b418-3307e30a77e7,5ee1a27e-5256-11ea-93a1-03a341c18a80
5edcc2d6-5256-11ea-be9c-bb1e7c51c6a5,5ee1bf48-5256-11ea-8bbd-ebf4a46bcb6e
5ec13534-5256-11ea-aa62-0f63991b395b,5ee1e586-5256-11ea-bcf3-fbf3f6566333
5ed5bd88-5256-11ea-ba85-0321758ef5b0,5ee20372-5256-11ea-8edb-ff5cbeccb86d
5eb7547e-5256-11ea-9725-23f91bccbfb9,5ee23ca2-5256-11ea-b5e0-2f193f242028
5eaa1764-5256-11ea-a003-cb8c40232ce0,5ee273d4-5256-11ea-9aae-97a7745d96cd
5edd6236-5256-11ea-b900-07d6cc95dabf,5ee2a39a-5256-11ea-87c2-0b977906ce4d
5ed4f1a0-5256-11ea-9d6f-db3d49675e1f,5ee2d54a-5256-11ea-adbc-335173fd613d
5ec053da-5256-11ea-814e-13f0c8c93fb5,5ee2fc14-5256-11ea-b4ef-03b044d3ebd5
5eb72a44-5256-11ea-869b-838802f16857,5ee31c4e-5256-11ea-934e-93954f042467
5ed2fa1c-5256-11ea-b064-db91a6715065,5ee33fda-5256-11ea-84a6-5f2837518d3b
5eba8c70-5256-11ea-908c-63017d26b08f,5ee3691a-5256-11ea-b27a-2b08ea4b19fb
5eb1d44a-5256-11ea-bcbf-cfc4971e076c,5ee38a8a-5256-11ea-a498-e3af6350f404
5ee15616-5256-11ea-9688-47dabd181a42,5ee3b53c-5256-11ea-b19c-e3eea9d9fbf6
5eca64d8-5256-11ea-bca4-c38b8af95790,5ee3e336-5256-11ea-9c25-3bd142ce0211
5eb146b0-5256-11ea-84a0-f36cc5b6ece5,5ee40d5c-5256-11ea-9663-277ac14034e8
5ea26960-5256-11ea-8397-dfe54c70316d,5ee43296-5256-11ea-997b-3fe1c09ed27f
5eafbd18-5256-11ea-a28d-f32010ab26f7,5ee459ba-5256-11ea-b043-f76a69186dea
5ec85af8-5256-11ea-aea0-5392a615133f,5ee47bca-5256-11ea-a87d-df2faabb4b56
5edbf1f8-5256-11ea-9275-bf5cf940361b,5ee4c602-5256-11ea-9b37-3b2e52af8603
5edfd58e-5256-11ea-8200-0b8f870105de,5ee4f76c-5256-11ea-b61a-17571f925250
5ecef624-5256-11ea-9860-4fb1cadf22cf,5ee51ddc-5256-11ea-80fe-5b9e213958e5
5ecdefea-5256-11ea-93c7-f75c2002cfc2,5ee5485c-5256-11ea-863c-574cd3623c8f
5ec7ab30-5256-11ea-9995-cb679f69550d,5ee57aca-5256-11ea-bca1-8f3ca7096482
5eca9f70-5256-11ea-80ce-63fe6bc94853,5ee5a2fc-5256-11ea-9876-eb582c8692d0
5eb67f04-5256-11ea-ade7-e3a924f3646a,5ee5bf12-5256-11ea-ba13-471613284e7b
5ee3b53c-5256-11ea-b19c-e3eea9d9fbf6,5ee5e028-5256-11ea-8164-ffc3c10afa17
5ed2798e-5256-11ea-9ed3-c7b2335f625c,5ee5ffae-5256-11ea-b889-336e18c9b2b7
5eb3395c-5256-11ea-8530-af5d3b878a93,5ee61de0-5256-11ea-bac7-8fedcecbda8c
5ee23ca2-5256-11ea-b5e0-2f193f242028,5ee63c12-5256-11ea-be09-73cb8b818ae0
5ecd9d88-5256-11ea-a740-bb7b072e4cdc,5ee65c42-5256-11ea-857d-37b7384f720b
5ebf2e24-5256-11ea-8f79-177a406b105d,5ee683e8-5256-11ea-b786-f36d58632de7
5ed46618-5256-11ea-ad53-1b5d35b85108,5ee6ad50-5256-11ea-a207-57db3115cb62
5ec2e46a-5256-11ea-9ce7-4730eb28329d,5ee6da5a-5256-11ea-8f0e-13be90804ed8
5ea8edee-5256-11ea-8a89-bf7a78fd5543,5ee70c00-5256-11ea-a0cd-8f67df7d277a
5ed49c32-5256-11ea-9686-93c981353af9,5ee733a6-5256-11ea-98aa-13740f7405c8
5ec450a2-5256-11ea-b3e4-170b09f85a51,5ee75764-5256-11ea-b9ef-273b83a840d4
5ead508c-5256-11ea-80da-cb786fa6dd46,5ee772d0-5256-11ea-992f-e7300f754109
5ec87628-5256-11ea-bd48-57446e6a0026,5ee798c8-5256-11ea-92f1-c7ecbba35b92
5ea1aef8-5256-11ea-a598-27e6a7e8a62a,5ee7b89e-5256-11ea-9be7-bb8d43b13838
5ec87628-5256-11ea-bd48-57446e6a0026,5ee7d392-5256-11ea-a12a-b79f8598b514
5ea858c0-5256-11ea-af91-2b23ac04421f,5ee7ed00-5256-11ea-8a9c-f32803d90a23
5eb4d35c-5256-11ea-a2ca-0bfee1f3f059,5ee80bbe-5256-11ea-9115-278a765905e3
5ecf4c6e-5256-11ea-a0b3-f3059fa4574b,5ee82b30-5256-11ea-ace3-a7eac1e4fe35
5ec6be14-5256-11ea-be31-0f3efae649f5,5ee84728-5256-11ea-a37b-73d76116801a
5ee23ca2-5256-11ea-b5e0-2f193f242028,5ee86dac-5256-11ea-8c8d-eb2499724cb8
5ec3a044-5256-11ea-a35b-170a262536bb,5ee89160-5256-11ea-ad1c-0f0807a74ee6
5eb6da58-5256-11ea-aacb-c33f3b974391,5ee8c4b4-5256-11ea-93e5-8bc8331e0843
5ede38aa-5256-11ea-a95c-ebef60975ba1,5ee8e066-5256-11ea-8ed9-e3985dd5fb39
5eb825d4-5256-11ea-b5d6-efaa02a0e515,5ee9037a-5256-11ea-9421-7353a9e4d356
5ece1420-5256-11ea-b6d8-572e8332e3bd,5ee924d6-5256-11ea-8d16-1f84e384665b
5ed7bdfe-5256-11ea-8302-fb511beaaeaa,5ee94204-5256-11ea-8bea-7376345b8a8c
5ec77b74-5256-11ea-8128-17fcafa453e0,5ee9614e-5256-11ea-8f18-c3ffab0e1056
5ec6175c-5256-11ea-b779-bf111ab71137,5ee97fc6-5256-11ea-ad5b-2fb59715a1a5
5ed9caea-5256-11ea-86d5-2794ee0df70b,5ee99dc6-5256-11ea-96de-073961f6eeb1
5eab4ae4-5256-11ea-8d24-07e73ac03d1b,5ee9bb80-5256-11ea-9fdb-b3281e8d28a8
5ecf2e6e-5256-11ea-ac99-53b7d098d296,5ee9d926-5256-11ea-89e7-33ac450df5a0
5eb4fd78-5256-11ea-a16a-33f8a41de7ae,5ee9f38e-5256-11ea-aa53-df7ed0728e39
5ec338b6-5256-11ea-80d0-e7afd481ed99,5eea110c-5256-11ea-a38c-a38c95477ebe
5ecd123c-5256-11ea-aa20-630cab059f0f,5eea354c-5256-11ea-9749-5319d64834f4
5ebffbb0-5256-11ea-bb65-8f539fb5c15a,5eea5310-5256-11ea-a68a-6b51a47ec6d8
5ee7d392-5256-11ea-a12a-b79f8598b514,5eea833a-5256-11ea-af0f-9f4f18d9ba50
5ee0e140-5256-11ea-9fa3-e318c1ac5d88,5eeaa2a2-5256-11ea-b096-1bfd74e51121
5eda6b4e-5256-11ea-ad09-5b4348183f87,5eeabd5a-5256-11ea-a227-23001c6fb280
5ec9265e-5256-11ea-b6fe-ef26ed41d0fd,5eeadc22-5256-11ea-b29b-9316d956341a
5eb3c3ae-5256-11ea-9561-8b6699991b83,5eeaf96e-5256-11ea-86f5-cbbf9747cea8
5eb57a82-5256-11ea-a374-fbc4d080cb8a,5eeb1566-5256-11ea-96cc-23e25f971383
5ec89022-5256-11ea-b73a-f3f15f90dba8,5eeb3244-5256-11ea-bebb-c3102137baa1
5ed49c32-5256-11ea-9686-93c981353af9,5eeb549a-5256-11ea-b2b7-33c8e2863d61
5ec6f4c4-5256-11ea-88f9-2b550cc9cb6e,5eeb71c8-5256-11ea-a923-ebc6e46638fe
5eb055de-5256-11ea-9699-8319bea3c9a2,5eeb975c-5256-11ea-926e-f3b96c7b89ba
5ed15298-5256-11ea-83ed-5fa55d7fbc46,5eebb5fc-5256-11ea-ae82-67f8b7d1bab3
5ec81de0-5256-11ea-b81a-b71014d5c5a1,5eebd848-5256-11ea-be81-a319ed1cac72
5eac82a6-5256-11ea-b669-5780ff275746,5eebf71a-5256-11ea-88d9-93c3b46a7d74
5ebf064c-5256-11ea-803d-cf721efb14be,5eec14ca-5256-11ea-a70e-5341dae3e989
5eb17108-5256-11ea-98ac-87375cee9afd,5eec3554-5256-11ea-a1dd-8f50729628b1
5ea9f400-5256-11ea-9dc8-37e6e7b348a0,5eec5354-5256-11ea-a63d-0724e47c320b
5eb804dc-5256-11ea-87ef-23ea28549ff8,5eec700a-5256-11ea-bb5b-332565600749
5ee9037a-5256-11ea-9421-7353a9e4d356,5eeca73c-5256-11ea-98eb-5f472a478d51
5ec64bd2-5256-11ea-b009-933ec2b4e692,5eec8d4c-5256-11ea-a9ba-0bfc345886a9
5ee3b53c-5256-11ea-b19c-e3eea9d9fbf6,5eeceb16-5256-11ea-a7ce-6302551ac2ca
5ed5d958-5256-11ea-a87a-bb63cc01995b,5eeccc44-5256-11ea-ac81-77f772516b7c
5eb1d44a-5256-11ea-bcbf-cfc4971e076c,5eed301c-5256-11ea-8425-b30ba603a3cc
5ed44886-5256-11ea-ab73-a345101b61e8,5eed0bdc-5256-11ea-8e97-c30d5894d28f
5ee4c602-5256-11ea-9b37-3b2e52af8603,5eed5ccc-5256-11ea-b77e-4f1dc558bfff
5edbbc6a-5256-11ea-b76a-9b2c71e36503,5eed81f2-5256-11ea-bc65-0ffefd4d395c
5ea779f0-5256-11ea-a5d7-d71d7a1a75fc,5eeda3da-5256-11ea-9d53-07f954f189cf
5ebf9648-5256-11ea-a4db-f333ed1e119b,5eedc2d4-5256-11ea-98fe-cf6e9cb15547
5edecbbc-5256-11ea-ad8f-2b02629fd92a,5eede1a6-5256-11ea-89c8-b3b46704078a
5ece6a7e-5256-11ea-9490-4f9d9fedb764,5eee053c-5256-11ea-8bde-d3238bebb787
5ee5ffae-5256-11ea-b889-336e18c9b2b7,5eee25d0-5256-11ea-9b00-2330b33fd570
5ec70f2c-5256-11ea-b06f-4b6801ecda99,5eee4420-5256-11ea-8872-1b9359a3278e
5ee0e208-5256-11ea-bc91-4b64c495a3ab,5eee61da-5256-11ea-8857-1bc294f1fe74
5ec68610-5256-11ea-8ca3-bbbebdb12632,5eee85de-5256-11ea-86a9-3b208f6ec02c
5ec93fc2-5256-11ea-a833-3b57c102fdfe,5eeea438-5256-11ea-b6b6-13ad7f0220c1
5ee15616-5256-11ea-9688-47dabd181a42,5eeec544-5256-11ea-834c-1bba18a9b025
5ed7f51c-5256-11ea-a01e-4f18eca73cfa,5eeee312-5256-11ea-951f-1fdb91e2da82
5ea1e922-5256-11ea-a898-17af927319a6,5eef0068-5256-11ea-8715-bf7970347060
5ecc59b4-5256-11ea-a968-a760f347f1b5,5eef235e-5256-11ea-b3b2-ff4321187be5
5ebb3cd8-5256-11ea-9f20-1fd5288225a2,5eef4032-5256-11ea-986c-7318e1080c2a
5ed56b76-5256-11ea-aa84-ebb197b513a0,5eef59dc-5256-11ea-9b5b-e30d2c991cbb
5ed5d958-5256-11ea-a87a-bb63cc01995b,5eef77fa-5256-11ea-9dba-9bb5a2f8c958
5ebc12b6-5256-11ea-8bf9-8f6246994fb3,5eef95dc-5256-11ea-ad8f-d7f8f42af15c
5ee11796-5256-11ea-877d-f30b556261a6,5eefb418-5256-11ea-a827-b3b15ebdb24a
5ee23ca2-5256-11ea-b5e0-2f193f242028,5eefd2fe-5256-11ea-a6fe-3b872de81f48
5ebf2e24-5256-11ea-8f79-177a406b105d,5eeff0b8-5256-11ea-b97d-cf284beb7814
5edd80ea-5256-11ea-9b9a-df5480c94b6c,5ef02272-5256-11ea-9acd-bb55ef57233e
5eba8c70-5256-11ea-908c-63017d26b08f,5ef047b6-5256-11ea-a89b-3beac7f13188
5ee0897a-5256-11ea-9faf-3764117c37e5,5ef0653e-5256-11ea-a3fd-6fec8390c489
5eb5b2a4-5256-11ea-ac61-73040e849ccd,5ef08460-5256-11ea-a0d9-db74c3aa314f
5eb93c58-5256-11ea-ad8c-5762532df763,5ef0a332-5256-11ea-bb62-2752eb408136
5eb8b206-5256-11ea-a9dc-2b43f30a3cc8,5ef0c5e2-5256-11ea-af12-e774c9612b67
5eca1352-5256-11ea-ac6c-4be376374505,5ef0e220-5256-11ea-92f2-2372a75321e6
5ebb0196-5256-11ea-b1ed-03ff74224561,5ef0fda0-5256-11ea-bb5c-a7cdca056575
5ee94204-5256-11ea-8bea-7376345b8a8c,5ef11ba0-5256-11ea-ac10-2bd835943e4b
5eea833a-5256-11ea-af0f-9f4f18d9ba50,5ef13cca-5256-11ea-a3cd-7bbac73d0caa
5ebbba14-5256-11ea-aa2b-378cd55cd5cb,5ef16042-5256-11ea-9a49-2f449dcb20ad
5ee51ddc-5256-11ea-80fe-5b9e213958e5,5ef17f00-5256-11ea-8e6e-e740b57a8831
5eb72a44-5256-11ea-869b-838802f16857,5ef19d96-5256-11ea-8e81-9f8fef53aacf
5eed81f2-5256-11ea-bc65-0ffefd4d395c,5ef1bc86-5256-11ea-ba12-db05cea66550
5ec5c8ba-5256-11ea-93fd-6b438c6b1852,5ef1dda6-5256-11ea-8e3d-8fe75d5d7342
5ec543ae-5256-11ea-b8e4-6fa73eb50da8,5ef1fac0-5256-11ea-93c7-3b3993c4793b
5ec4a28c-5256-11ea-a56c-e3f3242fee22,5ef22158-5256-11ea-9ff7-43b8075c47b8
5ec174a4-5256-11ea-906e-4b756aaec4b6,5ef23ecc-5256-11ea-8671-178eea6ace7e
5eb55cbe-5256-11ea-912c-2330967c3f0f,5ef2623a-5256-11ea-99fa-33303dfe3254
5ea36644-5256-11ea-b418-3307e30a77e7,5ef27dc4-5256-11ea-90e0-efb36b5df223
5eea110c-5256-11ea-a38c-a38c95477ebe,5ef297aa-5256-11ea-9603-97e592f4f303
5ed36d80-5256-11ea-84fe-53a5405b2044,5ef2b35c-5256-11ea-90da-8b6b4cfe0c71
5eba2b7c-5256-11ea-bce4-eff1ca203702,5ef2d922-5256-11ea-b40a-536a4eef8bf8
5ef2b35c-5256-11ea-90da-8b6b4cfe0c71,5ef31018-5256-11ea-98aa-e7048a40dc4f
5ed429b4-5256-11ea-8ac2-f3d3619a7a14,5ef32da0-5256-11ea-b964-afc1c508e358
5ec64bd2-5256-11ea-b009-933ec2b4e692,5ef34a9c-5256-11ea-8565-574d613b7232
5ec55d3a-5256-11ea-a73b-e75216f2050d,5ef36590-5256-11ea-bb72-c7dcb86193db
5ee20372-5256-11ea-8edb-ff5cbeccb86d,5ef3823c-5256-11ea-9715-77fb745f2cd5
5ece88ec-5256-11ea-973c-2b7949a3d4f9,5ef39e84-5256-11ea-8575-c3c50e802b0d
5ec72bc4-5256-11ea-8242-03dd49839259,5ef3bba8-5256-11ea-91da-0fe01a048ccd
5ee733a6-5256-11ea-98aa-13740f7405c8,5ef3d598-5256-11ea-9682-033393d68aa1
5eaebfa8-5256-11ea-9b0a-075ba252a9e4,5ef3f9c4-5256-11ea-8340-7b218177751d
5ec24c08-5256-11ea-950c-9f8cff9aca50,5ef41ee0-5256-11ea-b50b-a7fb721f1ec5
5eeb3244-5256-11ea-bebb-c3102137baa1,5ef439a2-5256-11ea-acee-5776b78a8264
5ef36590-5256-11ea-bb72-c7dcb86193db,5ef455a4-5256-11ea-9909-037401b3bd39
5ed15298-5256-11ea-83ed-5fa55d7fbc46,5ef47386-5256-11ea-8821-f37308046d99
5edd6236-5256-11ea-b900-07d6cc95dabf,5ef490a0-5256-11ea-8291-7bd0aa770617
5eed301c-5256-11ea-8425-b30ba603a3cc,5ef4ab30-5256-11ea-b26a-afa2ccea5477
5eef77fa-5256-11ea-9dba-9bb5a2f8c958,5ef4c778-5256-11ea-a054-034aa6cff8d1
5ec01b90-5256-11ea-ac13-1b393bcb06ee,5ef4e41a-5256-11ea-922a-c31b4fbf264a
5eee053c-5256-11ea-8bde-d3238bebb787,5ef501e8-5256-11ea-8ba3-bbb24b08131d
5ecc59b4-5256-11ea-a968-a760f347f1b5,5ef521d2-5256-11ea-8572-3f597f0408dd
5ed4b870-5256-11ea-80ae-9fc09ee33c6a,5ef5466c-5256-11ea-900d-6b2983b7bc55
5eb84244-5256-11ea-a87c-07c52c8c4585,5ef56a16-5256-11ea-9507-4f9e87ca44ae
5ee2fc14-5256-11ea-b4ef-03b044d3ebd5,5ef58cf8-5256-11ea-8b0f-835dfd474714
5ec152bc-5256-11ea-8e70-e73621e48553,5ef5b282-5256-11ea-a9ea-5fb34bd6990d
5edce36a-5256-11ea-a890-9bed711780dc,5ef5f242-5256-11ea-bbc4-d3e2abba4bfc
5ee924d6-5256-11ea-8d16-1f84e384665b,5ef61466-5256-11ea-b9ed-9303e2a78288
5ebe9e64-5256-11ea-a427-b743bed23ed3,5ef6320c-5256-11ea-9fac-c3b1e22a7d51
5ec5b028-5256-11ea-a7e1-437842669e46,5ef64bf2-5256-11ea-8520-570a852eea7d
5edd04a8-5256-11ea-9fea-57ff6b4f0785,5ef67186-5256-11ea-96ae-6f4398cac4e6
5ebf2e24-5256-11ea-8f79-177a406b105d,5ef69c10-5256-11ea-a65c-f37c5020573a
5edfb98c-5256-11ea-9d6d-fffc193355a1,5ef6bdc6-5256-11ea-a7a4-4f760b122232
5ebe650c-5256-11ea-b773-3bbd462fed70,5ef6e7f6-5256-11ea-b627-17f015c40eab
5ec89022-5256-11ea-b73a-f3f15f90dba8,5ef70f74-5256-11ea-804e-07746cca1676
5ea493d4-5256-11ea-b455-efdc44306509,5ef72ffe-5256-11ea-8a90-27d2c1d310a5
5ec0394a-5256-11ea-813e-0bccf620fd0a,5ef75484-5256-11ea-b770-7f40989c5863
5ef490a0-5256-11ea-8291-7bd0aa770617,5ef77892-5256-11ea-a849-236034d6f964
5eab6a2e-5256-11ea-aa32-c70fe75acd4d,5ef7a1f0-5256-11ea-82b8-83207f1c4812
5ef5f242-5256-11ea-bbc4-d3e2abba4bfc,5ef7cafe-5256-11ea-8eca-6f70dd935745
5ead9bdc-5256-11ea-8058-1bbdad51388f,5ef7f27c-5256-11ea-8130-df0c90825ed4
5ebd07d4-5256-11ea-a34b-eb2a99b6b83d,5ef810d6-5256-11ea-8090-736c4937eee8
5eb3395c-5256-11ea-8530-af5d3b878a93,5ef82ec2-5256-11ea-bc36-cb0883949153
5ede13fc-5256-11ea-bef6-ffcc8b0221e6,5ef848d0-5256-11ea-93c4-c32a407fc37e
5ee9d926-5256-11ea-89e7-33ac450df5a0,5ef86806-5256-11ea-850d-af2753c1f4f6
5ecd123c-5256-11ea-aa20-630cab059f0f,5ef89286-5256-11ea-b053-df237dfd6455
5ea693a0-5256-11ea-8504-3b87797f049b,5ef8e038-5256-11ea-b638-b3d657b9612d
5ed0f956-5256-11ea-82a3-0b10bab2b503,5ef8df16-5256-11ea-a2e8-136e0a4ae1cc
5ecd123c-5256-11ea-aa20-630cab059f0f,5ef9046e-5256-11ea-b2ac-676655559e28
5ebebbd8-5256-11ea-84f2-6f74b0acbce2,5ef92c00-5256-11ea-81da-b3fa6755ce84
5ea693a0-5256-11ea-8504-3b87797f049b,5ef94726-5256-11ea-9b6b-27516671778d
5ecd46b2-5256-11ea-9f75-13b191798bd6,5ef96fe4-5256-11ea-bf1a-930ae7bcb71f
5eafbd18-5256-11ea-a28d-f32010ab26f7,5ef9926c-5256-11ea-b642-d3485d81f005
5eea833a-5256-11ea-af0f-9f4f18d9ba50,5ef9b170-5256-11ea-a8b7-bf1457d28759
5eeaf96e-5256-11ea-86f5-cbbf9747cea8,5ef9d33a-5256-11ea-b9e4-575ef9465a98
5ecf4c6e-5256-11ea-a0b3-f3059fa4574b,5ef9efe6-5256-11ea-ba27-03bc9a85f7ea
5edb0982-5256-11ea-bb9d-e7c8722dcf76,5efa13c2-5256-11ea-b5b3-4f492f2606d5
5ed52ce2-5256-11ea-9109-f3e4f9afee40,5efa3294-5256-11ea-a509-7f11832fe8ce
5eec700a-5256-11ea-bb5b-332565600749,5efa508a-5256-11ea-b498-2b0487c80104
5ee99dc6-5256-11ea-96de-073961f6eeb1,5efa709c-5256-11ea-9b6a-0be297f8355e
5ea493d4-5256-11ea-b455-efdc44306509,5efa8bd6-5256-11ea-8e05-2bd4c3a7d8ae
5eb3e74e-5256-11ea-b217-4fd0acc21847,5efaab5c-5256-11ea-a253-47f366f2953e
5ef521d2-5256-11ea-8572-3f597f0408dd,5efacc22-5256-11ea-bd6d-3f096c61ff4e
5eea833a-5256-11ea-af0f-9f4f18d9ba50,5efaea72-5256-11ea-a33c-e76dd999fe44
5ea5cab0-5256-11ea-b53c-8fe3d4b2105d,5efb1434-5256-11ea-b74b-e7dcb43e4a53
5ec2c0ac-5256-11ea-abb7-9719392b951d,5efb3086-5256-11ea-ac9e-b7d8e2efda27
5ed64e74-5256-11ea-b30e-479a822a8596,5efb4d96-5256-11ea-b850-af781563a1f8
5eb1d44a-5256-11ea-bcbf-cfc4971e076c,5efb6da8-5256-11ea-b24d-afc117bcf8bd
5ee0897a-5256-11ea-9faf-3764117c37e5,5efb90bc-5256-11ea-9be0-378082b0300a
5ef67186-5256-11ea-96ae-6f4398cac4e6,5efbae44-5256-11ea-98b8-1b76ac470334
5ec0c982-5256-11ea-ae14-6f0e1518d835,5efbd338-5256-11ea-a830-8bbbe7d33b4f
5edd6236-5256-11ea-b900-07d6cc95dabf,5efbf00c-5256-11ea-ba9a-cf1a86bba78d
5edd04a8-5256-11ea-9fea-57ff6b4f0785,5efc0d9e-5256-11ea-b3d1-4bfe08e2ca33
5ed9f088-5256-11ea-a6a1-f7156f804df8,5efc365c-5256-11ea-95df-3305a667850a
5edac1e8-5256-11ea-be11-5fea8352c15b,5efc53da-5256-11ea-84fd-1f7adda54fa3
5ea2e43a-5256-11ea-a27d-fb0ad62fe455,5efc725c-5256-11ea-b6e4-0b6646e1e7a6
5ee97fc6-5256-11ea-ad5b-2fb59715a1a5,5efc96e2-5256-11ea-b78b-73e5347b86d5
5eea833a-5256-11ea-af0f-9f4f18d9ba50,5efcb988-5256-11ea-81d6-7f826b038e6e
5eabe076-5256-11ea-a5fb-3ffe0d54453f,5efcdfee-5256-11ea-aa48-53b18f079963
5efc53da-5256-11ea-84fd-1f7adda54fa3,5efcfaf6-5256-11ea-8591-df1ea325d285
5eb85cca-5256-11ea-99a2-0f0544b0c0d9,5efd1b30-5256-11ea-8df5-333e4955340a
5eb62720-5256-11ea-bea5-d32e10f40b14,5efd549c-5256-11ea-b78d-7b484653a8c3
5ede7108-5256-11ea-b05b-fbb5b392e019,5efd3872-5256-11ea-b1c3-7f78eb161657
5ec64bd2-5256-11ea-b009-933ec2b4e692,5efd783c-5256-11ea-95b1-5be03e206682
5edaa7e4-5256-11ea-83f2-9fe25926ea87,5efd95a6-5256-11ea-aed7-5f70b5dc72b3
5ee7b89e-5256-11ea-9be7-bb8d43b13838,5efdb2a2-5256-11ea-8e70-df217ba927bc
5ebb0196-5256-11ea-b1ed-03ff74224561,5efdfba4-5256-11ea-a098-47eed87c3c31
5ec24c08-5256-11ea-950c-9f8cff9aca50,5efdfd84-5256-11ea-8fe9-53cce012d071
5ed9871a-5256-11ea-9b60-8b4d7fdd740b,5efe2c14-5256-11ea-ab8f-aba01b0f523c
5eaabd18-5256-11ea-8818-b73fc638454f,5efe6698-5256-11ea-848e-973dd8543514
5ef08460-5256-11ea-a0d9-db74c3aa314f,5efe9bae-5256-11ea-ad3b-d3974722e8c0
5efc725c-5256-11ea-b6e4-0b6646e1e7a6,5efecba6-5256-11ea-b01a-27c4f8bd843c
5ed11792-5256-11ea-b664-873bb5c37a4b,5efeecf8-5256-11ea-8e1a-2385cbf82ddf
5eb26c2a-5256-11ea-af5c-23b1a4cc1d7f,5eff0c92-5256-11ea-b34a-5bd4ad8bf74b
5ea4ff22-5256-11ea-b28e-2fe6bae6f41e,5eff290c-5256-11ea-bf35-5bd5c2ecf81a
5ee57aca-5256-11ea-bca1-8f3ca7096482,5eff4518-5256-11ea-82f9-172b398280ce
5efc53da-5256-11ea-84fd-1f7adda54fa3,5eff6340-5256-11ea-8645-d35738ad456f
5efc96e2-5256-11ea-b78b-73e5347b86d5,5eff8a8c-5256-11ea-bf1f-071900cee6d0
5ee5e028-5256-11ea-8164-ffc3c10afa17,5effafbc-5256-11ea-822e-3326c1f54336
5efc365c-5256-11ea-95df-3305a667850a,5effd1b8-5256-11ea-bbe5-7fc8f013e3ec
5ed007e4-5256-11ea-9a40-3f266d47d5a6,5efff1e8-5256-11ea-9483-8b8201e835a1
5ec93fc2-5256-11ea-a833-3b57c102fdfe,5f0026f4-5256-11ea-b913-2fa9e320d99d
5ed67f2a-5256-11ea-8245-d798028f4212,5f005386-5256-11ea-8cb0-9fa084f29b72
5ec8c628-5256-11ea-bc96-aff925a7fb2c,5f008450-5256-11ea-a9c4-07ae1962e44e
5ecafbd2-5256-11ea-b2d8-97d4188fb22b,5f00b57e-5256-11ea-adcd-afb788698b5f
5ea1aef8-5256-11ea-a598-27e6a7e8a62a,5f00f278-5256-11ea-8a2b-0b5f60c6d0d6
5ebd48e8-5256-11ea-a505-471e8850f3ae,5f01234c-5256-11ea-a004-ef7c60030667
5ed712fa-5256-11ea-9335-437d9ba4c04a,5f01592a-5256-11ea-9212-f3dac9e29876
5eee85de-5256-11ea-86a9-3b208f6ec02c,5f01949e-5256-11ea-a5c8-efae88dc6495
5efa709c-5256-11ea-9b6a-0be297f8355e,5f01d472-5256-11ea-85a1-6f633c6c6e16
5ef82ec2-5256-11ea-bc36-cb0883949153,5f0231a6-5256-11ea-bc8f-a38c807eb11a
5ef490a0-5256-11ea-8291-7bd0aa770617,5f027e0e-5256-11ea-a4c5-0781b5ba8764
5eb2eb46-5256-11ea-878f-8f63811a4af7,5f02b982-5256-11ea-87fb-1b6cb536f279
5efe6698-5256-11ea-848e-973dd8543514,5f02da52-5256-11ea-881a-abd1a211578c
5ef32da0-5256-11ea-b964-afc1c508e358,5f03068a-5256-11ea-85cd-1723cbeeba05
5ec6175c-5256-11ea-b779-bf111ab71137,5f033024-5256-11ea-af5f-67de169471ea
5ea858c0-5256-11ea-af91-2b23ac04421f,5f035b30-5256-11ea-b55a-974b5e3e2d4b
5f01d472-5256-11ea-85a1-6f633c6c6e16,5f037c8c-5256-11ea-a0aa-73d7ab7b69a8
5effd1b8-5256-11ea-bbe5-7fc8f013e3ec,5f039b40-5256-11ea-9fdf-7badbb68d508
5efdfba4-5256-11ea-a098-47eed87c3c31,5f03bb66-5256-11ea-8c97-4f1f7bd8ce71
5ee273d4-5256-11ea-9aae-97a7745d96cd,5f03db0a-5256-11ea-8b94-2f521f8a0386
5ebf064c-5256-11ea-803d-cf721efb14be,5f040030-5256-11ea-8b65-3bceeae8b126
5effafbc-5256-11ea-822e-3326c1f54336,5f041d7c-5256-11ea-ac64-7345a6ef66d7
5edc199e-5256-11ea-8091-8b83641ae01c,5f043cc6-5256-11ea-93e3-cf2e1e4ea24b
5ee00f36-5256-11ea-9824-3bac2166de90,5f045a26-5256-11ea-aee6-97495411aaab
5f02da52-5256-11ea-881a-abd1a211578c,5f047722-5256-11ea-b68d-f75501a1a0fc
5ec5fcb8-5256-11ea-a20e-0f7957a5aa38,5f049522-5256-11ea-b57d-07d6209b529c
5ebac5f0-5256-11ea-be0a-a7124a74adc6,5f04b3ea-5256-11ea-b717-d7c15241f1cf
5ea5cab0-5256-11ea-b53c-8fe3d4b2105d,5f04d186-5256-11ea-a7ff-777b861b5fc4
5eb45242-5256-11ea-9b85-83f223a4684d,5f04f7ec-5256-11ea-8899-a70c84008130
5ec450a2-5256-11ea-b3e4-170b09f85a51,5f0524f6-5256-11ea-90f0-ab9ffe9096ea
5efa13c2-5256-11ea-b5b3-4f492f2606d5,5f055278-5256-11ea-b7b3-2f2cd5d0d220
5ee80bbe-5256-11ea-9115-278a765905e3,5f058914-5256-11ea-a45e-17621e788510
5ed7bdfe-5256-11ea-8302-fb511beaaeaa,5f05bc54-5256-11ea-b02b-a7ebd14d07a1
5edcc2d6-5256-11ea-be9c-bb1e7c51c6a5,5f05efd0-5256-11ea-b97b-439922ecf56f
5ea39498-5256-11ea-821f-0b5466b36e53,5f06155a-5256-11ea-ba10-dbc542849ccb
5ef2b35c-5256-11ea-90da-8b6b4cfe0c71,5f0642a0-5256-11ea-835e-d3b2b624961e
5ede38aa-5256-11ea-a95c-ebef60975ba1,5f0650ce-5256-11ea-8ac3-7feebba187ae
5ec85af8-5256-11ea-aea0-5392a615133f,5f066ec4-5256-11ea-bb29-d33c5505b7a4
5ec08f26-5256-11ea-9981-9b15e181500f,5f0697f0-5256-11ea-8f58-8b05916d772b
5ec90a8e-5256-11ea-a887-dfc64695f18d,5f06be6a-5256-11ea-bfd9-df5dc517c6cc
5eb825d4-5256-11ea-b5d6-efaa02a0e515,5f06e8e0-5256-11ea-a052-a7c61cf9c482
5efb4d96-5256-11ea-b850-af781563a1f8,5f0711d0-5256-11ea-9857-6b8369fadde2
5eb8b206-5256-11ea-a9dc-2b43f30a3cc8,5f071eaa-5256-11ea-b23c-4f2d8c91071a
5ee80bbe-5256-11ea-9115-278a765905e3,5f0739da-5256-11ea-9879-73a1bd607adb
5ed5d958-5256-11ea-a87a-bb63cc01995b,5f075258-5256-11ea-8ab1-6f9adfa6ee14
5eac15dc-5256-11ea-8588-8b36b9e5f389,5f0782f0-5256-11ea-94b7-7b9b4b11d17c
5ec11acc-5256-11ea-9212-67e33096d445,5f07afb4-5256-11ea-9b91-cb1328af1c7a
5ebf64ac-5256-11ea-ad25-df4ab6a2df81,5f07d228-5256-11ea-9b69-0f57c1cb8f4d
5ed9871a-5256-11ea-9b60-8b4d7fdd740b,5f07f4c4-5256-11ea-9247-6776a0a801ab
5ef6bdc6-5256-11ea-a7a4-4f760b122232,5f081aee-5256-11ea-99b7-d3403a8e43d3
5ee924d6-5256-11ea-8d16-1f84e384665b,5f08408c-5256-11ea-95aa-53514fefa81a
5f07afb4-5256-11ea-9b91-cb1328af1c7a,5f0860c6-5256-11ea-9210-33fb630585f5
5f01d472-5256-11ea-85a1-6f633c6c6e16,5f087d7c-5256-11ea-8785-bfc7187f953e
5eced9f0-5256-11ea-a9aa-97293f6deace,5f089b86-5256-11ea-959b-837b47e3a959
5eb2a4ec-5256-11ea-bbd6-533f56ac2213,5f08b936-5256-11ea-a271-33bf659dcb3a
5edd44b8-5256-11ea-ab82-7fd2470897f7,5f08d2cc-5256-11ea-9ddd-d7f6c18875a6
5ead0dde-5256-11ea-bfd4-f3e6331b2725,5f08ecbc-5256-11ea-b57a-f338783c5053
5ec11acc-5256-11ea-9212-67e33096d445,5f0905f8-5256-11ea-b248-aba9d3c2990c
5ebe211e-5256-11ea-ae33-df3d6868426b,5f0921e6-5256-11ea-b55b-334f49e08e56
5ecafbd2-5256-11ea-b2d8-97d4188fb22b,5f093ece-5256-11ea-8c53-5f9966c5b2c7
5eeb549a-5256-11ea-b2b7-33c8e2863d61,5f0959ae-5256-11ea-9a29-637b7a636eb8
5ef8e038-5256-11ea-b638-b3d657b9612d,5f0976c8-5256-11ea-af86-13a15b36f405
5ecd2150-5256-11ea-8a9a-97a7791d96e3,5f099c98-5256-11ea-b8cc-1b1410e6f0f3
5ec152bc-5256-11ea-8e70-e73621e48553,5f09b778-5256-11ea-b657-038dda710e6f
5ea91184-5256-11ea-8cf4-471072af8ad2,5f09d5e6-5256-11ea-a14f-7326e6248178
5eb7a654-5256-11ea-b211-9fd8ded7142b,5f09f454-5256-11ea-811c-57703f7fa362
5f045a26-5256-11ea-aee6-97495411aaab,5f0a17f4-5256-11ea-b2fe-2b48ed616766
5f005386-5256-11ea-8cb0-9fa084f29b72,5f0a343c-5256-11ea-839c-8f6e4bea8d91
5f0959ae-5256-11ea-9a29-637b7a636eb8,5f0a4ed6-5256-11ea-828b-cf9278192847
5ef47386-5256-11ea-8821-f37308046d99,5f0a6b78-5256-11ea-a53f-43302dce3b6c
5ed21d90-5256-11ea-9fef-bf2311399323,5f0a857c-5256-11ea-b8fe-6f6613b110cf
5ef47386-5256-11ea-8821-f37308046d99,5f0aa070-5256-11ea-985e-7f793865f085
5ee00f36-5256-11ea-9824-3bac2166de90,5f0ad5ea-5256-11ea-9f71-b72dfa38b033
5f01592a-5256-11ea-9212-f3dac9e29876,5f0abb64-5256-11ea-af42-ebe90c4a85a3
5ee80bbe-5256-11ea-9115-278a765905e3,5f0af67e-5256-11ea-ac9d-777de55670f6
5ec55d3a-5256-11ea-a73b-e75216f2050d,5f0b1410-5256-11ea-9736-870e67043cc3
5eddbed4-5256-11ea-9510-4b0d5f4b47b7,5f0b3382-5256-11ea-bf0f-2bd91bcc445a
5ecd2150-5256-11ea-8a9a-97a7791d96e3,5f0b4dcc-5256-11ea-ae6e-cbfa3f0fd074
5ea56e12-5256-11ea-ba24-035c116540d3,5f0b6c58-5256-11ea-aac8-ab668604755b
5edd24d8-5256-11ea-b87c-aff8f50bcd0d,5f0b8558-5256-11ea-b21a-2bf8afdfb0b4
5ec5e0de-5256-11ea-9590-ef46b1d87ca1,5f0b9f98-5256-11ea-9723-1be617a9e49e
5ed712fa-5256-11ea-9335-437d9ba4c04a,5f0bbf14-5256-11ea-bace-1ff12b51bb26
5eba6f2e-5256-11ea-94ca-8b8b8b16305b,5f0bdbf2-5256-11ea-b640-cfc0f0081383
5ea61a60-5256-11ea-a8d7-8f6f5d576b66,5f0bfac4-5256-11ea-8b21-b3e57c0d18bd
5eb8b206-5256-11ea-a9dc-2b43f30a3cc8,5f0c1806-5256-11ea-b187-0b64fb7d0a82
5ea341b4-5256-11ea-b219-279d5952c46a,5f0c34bc-5256-11ea-ac87-3ff4ede9235f
5ee38a8a-5256-11ea-a498-e3af6350f404,5f0c51fe-5256-11ea-b0f6-d7a541b076f1
5ec8c628-5256-11ea-bc96-aff925a7fb2c,5f0c6e96-5256-11ea-8ace-1770d69b20c4
5ea882f0-5256-11ea-8d0f-ab92122d7673,5f0c8cf0-5256-11ea-ab5e-03f289efb12a
5ee1a27e-5256-11ea-93a1-03a341c18a80,5f0cab2c-5256-11ea-91aa-13b4a1d9c3f5
5ec36e8a-5256-11ea-8d28-bfb770e6316f,5f0cc77e-5256-11ea-ba72-3bacb268d270
5edc4b08-5256-11ea-bc46-c707782081ee,5f0ce6b4-5256-11ea-828d-537eb3ebb886
5f0524f6-5256-11ea-90f0-ab9ffe9096ea,5f0d0108-5256-11ea-9bd0-3f718ede38d2
5ec0c982-5256-11ea-ae14-6f0e1518d835,5f0d1da0-5256-11ea-8ccc-4fdb5b393cb9
5ef1fac0-5256-11ea-93c7-3b3993c4793b,5f0d3bfa-5256-11ea-854c-7394a15a668e
5eddbed4-5256-11ea-9510-4b0d5f4b47b7,5f0d5914-5256-11ea-83b5-97d1e41c2a49
5ecdefea-5256-11ea-93c7-f75c2002cfc2,5f0d7552-5256-11ea-acb3-0bd9a238010e
5ea800a0-5256-11ea-bc20-830aaf157dae,5f0d9050-5256-11ea-a428-8b6d666eccb9
5ec5b028-5256-11ea-a7e1-437842669e46,5f0dac16-5256-11ea-bbe3-cf71cf649a94
5ecce870-5256-11ea-8aa0-4f6c06b49024,5f0dc642-5256-11ea-8ddc-2f98e7bccaf6
5ed25c74-5256-11ea-8447-cfcf321d85ae,5f0de294-5256-11ea-b29f-039fae033323
5efa508a-5256-11ea-b498-2b0487c80104,5f0e008a-5256-11ea-9fed-4f83ec875a32
5f0c34bc-5256-11ea-ac87-3ff4ede9235f,5f0e20ba-5256-11ea-b83e-eb0e005be2fa
5edd80ea-5256-11ea-9b9a-df5480c94b6c,5f0e3d70-5256-11ea-a029-23212a29a33c
5ea2e43a-5256-11ea-a27d-fb0ad62fe455,5f0e57f6-5256-11ea-bb90-6714a5216312
5effd1b8-5256-11ea-bbe5-7fc8f013e3ec,5f0e702e-5256-11ea-b340-4b61774ff412
5efaea72-5256-11ea-a33c-e76dd999fe44,5f0e8b90-5256-11ea-8ae4-8b3f67e489ae
5ecb19f0-5256-11ea-845f-b7af0a3bf331,5f0eab48-5256-11ea-b59d-af734170c348
5ea882f0-5256-11ea-8d0f-ab92122d7673,5f0ec8e4-5256-11ea-8346-8fe04ddaf5a4
5efcb988-5256-11ea-81d6-7f826b038e6e,5f0ee752-5256-11ea-a92d-a35276ca3f1e
5f040030-5256-11ea-8b65-3bceeae8b126,5f0f0412-5256-11ea-ab9c-0fb3138ad1f3
5ecb8ea8-5256-11ea-8a6f-6f2362168e64,5f0f1fce-5256-11ea-bf2b-5bfeaabf92b6
5eeccc44-5256-11ea-ac81-77f772516b7c,5f0f3db0-5256-11ea-b248-17c7e52953fa
5ed712fa-5256-11ea-9335-437d9ba4c04a,5f0f5b56-5256-11ea-83ed-4f22422a5f9b
5ed58840-5256-11ea-884b-f34396a4c5bd,5f0f78d4-5256-11ea-86a0-e3a5555ff4a5
5ee97fc6-5256-11ea-ad5b-2fb59715a1a5,5f0f949a-5256-11ea-b817-078e0936d1ba
5ef5466c-5256-11ea-900d-6b2983b7bc55,5f0fc186-5256-11ea-b23a-8f39b3ed1a2d
5f008450-5256-11ea-a9c4-07ae1962e44e,5f0fe1fc-5256-11ea-a57c-839c834e0e69
5ed38cb6-5256-11ea-8478-1f54fd1d0145,5f1009ac-5256-11ea-b407-4fc5e3e6f7a7
5eb57a82-5256-11ea-a374-fbc4d080cb8a,5f102c98-5256-11ea-8475-83dd406a58ed
5eb2eb46-5256-11ea-878f-8f63811a4af7,5f104ffc-5256-11ea-ad6c-377760e4bce1
5eef4032-5256-11ea-986c-7318e1080c2a,5f107ffe-5256-11ea-8147-975f8b2a928d
5ee4f76c-5256-11ea-b61a-17571f925250,5f10adb2-5256-11ea-a07b-8b469a0511ec
5eef95dc-5256-11ea-ad8f-d7f8f42af15c,5f10e55c-5256-11ea-bebe-4374519175a3
5eb84244-5256-11ea-a87c-07c52c8c4585,5f110c80-5256-11ea-ae29-a70397aaf5bc
5ec9f69c-5256-11ea-8e89-b33350495b7a,5f112ef4-5256-11ea-bc43-7fb55a14ffad
5ef32da0-5256-11ea-b964-afc1c508e358,5f115294-5256-11ea-9748-7b8e5282b8f3
5f01234c-5256-11ea-a004-ef7c60030667,5f117300-5256-11ea-9f32-3fe47545fe59
5eec700a-5256-11ea-bb5b-332565600749,5f1199de-5256-11ea-94a9-9f6713ae19d9
5ee63c12-5256-11ea-be09-73cb8b818ae0,5f11bf22-5256-11ea-8dd9-c7e8e4dcd290
5f0dc642-5256-11ea-8ddc-2f98e7bccaf6,5f11e11e-5256-11ea-a598-4340b52fa791
5eaa6944-5256-11ea-a88d-f7f340996b2d,5f11fff0-5256-11ea-880e-4bffc3a77b0d
5edf47cc-5256-11ea-b741-eb68f224660b,5f123272-5256-11ea-b2ae-430cf79d7953
5ef7cafe-5256-11ea-8eca-6f70dd935745,5f1252ac-5256-11ea-a0ee-13c9417b4969
5ea7349a-5256-11ea-9207-ef2b33c2d5a7,5f127be2-5256-11ea-818c-63e33ea6b39a
5eac5eca-5256-11ea-b1ae-ebaa4ca79ef1,5f12a1f8-5256-11ea-b45d-2395670062fc
5ee7b89e-5256-11ea-9be7-bb8d43b13838,5f12c278-5256-11ea-ae31-bbff95bf0a07
5ed8e954-5256-11ea-9f97-2bcbc1a31f07,5f12e10e-5256-11ea-ad83-db2ff86716fa
5ef8e038-5256-11ea-b638-b3d657b9612d,5f1305e4-5256-11ea-8754-2789813e4aba
5ee9f38e-5256-11ea-aa53-df7ed0728e39,5f132d62-5256-11ea-a987-8b51d7ae6688
5ee57aca-5256-11ea-bca1-8f3ca7096482,5f1352ce-5256-11ea-a1af-97332b152817
5ed9871a-5256-11ea-9b60-8b4d7fdd740b,5f137ace-5256-11ea-a957-2b924189f68a
5f05efd0-5256-11ea-b97b-439922ecf56f,5f13969e-5256-11ea-97c1-9f17682cf628
5f066ec4-5256-11ea-bb29-d33c5505b7a4,5f13b692-5256-11ea-9c8e-5b0afeb8b9fa
5ed49c32-5256-11ea-9686-93c981353af9,5f13d8a2-5256-11ea-a452-5f958b414bad
5eb2eb46-5256-11ea-878f-8f63811a4af7,5f13fac6-5256-11ea-890e-136fb2872f29
5eb5945e-5256-11ea-90e1-d3120b6ddc90,5f142e9c-5256-11ea-b671-1b960fd06132
5efdb2a2-5256-11ea-8e70-df217ba927bc,5f14bfec-5256-11ea-bd4e-57a9eeb0f14f
5ed936f2-5256-11ea-8485-6bba534777f6,5f151c08-5256-11ea-8404-ebd40a3f72e4
5eeea438-5256-11ea-b6b6-13ad7f0220c1,5f159480-5256-11ea-afe9-9f54abf5c677
5eae3222-5256-11ea-86b3-1fafc47c20d6,5f15c522-5256-11ea-a6ae-ff47440c7985
5ee97fc6-5256-11ea-ad5b-2fb59715a1a5,5f15f5e2-5256-11ea-960a-378de8d70ac9
5ed81fce-5256-11ea-ad21-1f578f564bb3,5f1623fa-5256-11ea-9b08-0f57167e6a40
5f0d0108-5256-11ea-9bd0-3f718ede38d2,5f165aa0-5256-11ea-ac53-5fd20bd45c49
5ed23b4a-5256-11ea-ab7b-2b2f8f3a9a7d,5f1690e2-5256-11ea-87bc-1f35a2cedbd9
5eaa4036-5256-11ea-bca5-7fedd8405e09,5f16bbee-5256-11ea-b77e-57a653325da5
5f15f5e2-5256-11ea-960a-378de8d70ac9,5f16e4a2-5256-11ea-9f1f-77253817446b
5f0ad5ea-5256-11ea-9f71-b72dfa38b033,5f173312-5256-11ea-9076-e7acfe05d538
5eeff0b8-5256-11ea-b97d-cf284beb7814,5f1799c4-5256-11ea-8a05-c770c0baf62a
5ea9f400-5256-11ea-9dc8-37e6e7b348a0,5f17cb92-5256-11ea-a0bf-3703ab397c53
5eab4ae4-5256-11ea-8d24-07e73ac03d1b,5f17f810-5256-11ea-a65a-b7e51af297e2
5ef3bba8-5256-11ea-91da-0fe01a048ccd,5f18222c-5256-11ea-9f65-bfea17208e5b
5f0e20ba-5256-11ea-b83e-eb0e005be2fa,5f184aea-5256-11ea-8d3a-afac1252b081
5ec48752-5256-11ea-a8f9-6fd2f731d6dc,5f187290-5256-11ea-aced-5f82e9002f5e
5ebd8448-5256-11ea-aeaa-a759cd899b0e,5f189c52-5256-11ea-83a3-bfce5ea4d23c
5ef6e7f6-5256-11ea-b627-17f015c40eab,5f18c2a4-5256-11ea-9ec4-933590bc6e62
5eca1352-5256-11ea-ac6c-4be376374505,5f18e43c-5256-11ea-aec5-e763719f091d
5edc4b08-5256-11ea-bc46-c707782081ee,5f190ebc-5256-11ea-a4bf-e3bbe203e5d6
5ebb0196-5256-11ea-b1ed-03ff74224561,5f192de8-5256-11ea-afd0-1b601e074697
5f05efd0-5256-11ea-b97b-439922ecf56f,5f1958ea-5256-11ea-86ad-cf0bc5263b6f
5f0b6c58-5256-11ea-aac8-ab668604755b,5f198b1c-5256-11ea-90bd-d34dddabe3c4
5ebc6cac-5256-11ea-8e46-e3ab41dce9d5,5f19b38a-5256-11ea-9c17-c7c6eda3b7df
5ec38802-5256-11ea-98a1-5b2d9d5182ff,5f19dd6a-5256-11ea-b112-ab6d9d44f512
5ebb1fd2-5256-11ea-a78a-0fc56965389b,5f1a03e4-5256-11ea-805d-535597d037ef
5ef27dc4-5256-11ea-90e0-efb36b5df223,5f1a2a40-5256-11ea-912f-af9137f89181
5ea527cc-5256-11ea-983c-67fd1269ef1f,5f1a52a4-5256-11ea-bad2-ffcd6edf0aeb
5eb9cede-5256-11ea-92be-d7a93b142c72,5f1a7932-5256-11ea-953e-af8a7b4d38a6
5efd95a6-5256-11ea-aed7-5f70b5dc72b3,5f1aa34e-5256-11ea-8427-b3acf23280c5
5eeca73c-5256-11ea-98eb-5f472a478d51,5f1ad346-5256-11ea-8422-ef5c3eaa9362
5ed549ca-5256-11ea-9340-1323abf60d5b,5f1af998-5256-11ea-b97b-1fb4a11b6e46
5ee2a39a-5256-11ea-87c2-0b977906ce4d,5f1b244a-5256-11ea-a133-032054b16a98
5ea98b00-5256-11ea-a257-c70a3975db0f,5f1b4e0c-5256-11ea-8064-5f00b7cb5a31
5edda0f2-5256-11ea-b9ad-0fb416fa5b87,5f1b9a56-5256-11ea-8e50-efbe83c9a708
5ee57aca-5256-11ea-bca1-8f3ca7096482,5f1bbd42-5256-11ea-ba48-bf69d5eaf9ee
5ee51ddc-5256-11ea-80fe-5b9e213958e5,5f1be42a-5256-11ea-9929-c34a955f0364
5ec0ad30-5256-11ea-975b-2ba9efead0bd,5f1c0eb4-5256-11ea-a158-8bee2946080b
5eaebfa8-5256-11ea-9b0a-075ba252a9e4,5f1c37c2-5256-11ea-bd8b-3fbaac6c7ab5
5ee733a6-5256-11ea-98aa-13740f7405c8,5f1c6026-5256-11ea-ad37-3370a5952186
5ee40d5c-5256-11ea-9663-277ac14034e8,5f1c88c6-5256-11ea-84e4-ebd8d0ef83bc
5f047722-5256-11ea-b68d-f75501a1a0fc,5f1cb6d4-5256-11ea-a03c-1f5eb12c3f73
5ed64e74-5256-11ea-b30e-479a822a8596,5f1ce2b2-5256-11ea-b07a-dbf9af0ac255
5ef23ecc-5256-11ea-8671-178eea6ace7e,5f1d036e-5256-11ea-842c-9319e9372980
5f1c0eb4-5256-11ea-a158-8bee2946080b,5f1d2542-5256-11ea-ba3a-f74159b2af31
5ed11792-5256-11ea-b664-873bb5c37a4b,5f1d49be-5256-11ea-a8b1-6b291852a5c5
5edae0ce-5256-11ea-82df-7f07a4adf606,5f1dcdf8-5256-11ea-bb2d-8f9daa66161d
5eea5310-5256-11ea-a68a-6b51a47ec6d8,5f1daa6c-5256-11ea-95f5-4313411bc34b
5edf64fa-5256-11ea-91ad-4b5fff867a4e,5f1e0750-5256-11ea-9613-7354070d991e
5ecfe89a-5256-11ea-8fdf-9ba8f0b483b9,5f1e43aa-5256-11ea-b67b-df0e8d29dd00
5f0f5b56-5256-11ea-83ed-4f22422a5f9b,5f1e5e26-5256-11ea-8634-a33efc98c444
5ef9926c-5256-11ea-b642-d3485d81f005,5f1e8482-5256-11ea-8a64-976794992380
5ecafbd2-5256-11ea-b2d8-97d4188fb22b,5f1eaa20-5256-11ea-88e9-d71af663b011
5eec14ca-5256-11ea-a70e-5341dae3e989,5f1ed3f6-5256-11ea-bca1-6f8821b2940d
5eac15dc-5256-11ea-8588-8b36b9e5f389,5f1f1618-5256-11ea-bb5a-179aeeaa541e
5eb3101c-5256-11ea-bb7f-e7a94e74038f,5f1f40b6-5256-11ea-83d6-2f86192c4e1b
5ea3f406-5256-11ea-a0ba-4bd4b0797e1c,5f1f6122-5256-11ea-8914-376e671f4ecf
5ee97fc6-5256-11ea-ad5b-2fb59715a1a5,5f1f8a3a-5256-11ea-942a-df7dc8f9b423
5ef89286-5256-11ea-b053-df237dfd6455,5f1fc16c-5256-11ea-9f68-37a0bf89a387
5ebb5a2e-5256-11ea-bde2-a393678fedfc,5f1fedf4-5256-11ea-91aa-4fc514be4565
5ede38aa-5256-11ea-a95c-ebef60975ba1,5f201d4c-5256-11ea-b3ee-b716f9c345b6
5efc96e2-5256-11ea-b78b-73e5347b86d5,5f2046d2-5256-11ea-9642-5fe7cffad7c2
5eaebfa8-5256-11ea-9b0a-075ba252a9e4,5f20887c-5256-11ea-98cc-eba938d11124
5ea8edee-5256-11ea-8a89-bf7a78fd5543,5f20b2fc-5256-11ea-bc95-531555bf5370
5ebceaba-5256-11ea-8515-53b1850fe1d0,5f20dd7c-5256-11ea-8eb8-e3cea266fa22
5eb42ef2-5256-11ea-837b-6b1d3e73b86f,5f20fe56-5256-11ea-8548-73f3eb338db3
5eeee312-5256-11ea-951f-1fdb91e2da82,5f211c38-5256-11ea-81df-6bd1cd65dcfd
5eb89438-5256-11ea-a658-4fe65349d161,5f21397a-5256-11ea-860f-9f1ed9de4587
5ebb3cd8-5256-11ea-9f20-1fd5288225a2,5f2158f6-5256-11ea-a881-1fb6c3ff2797
5ecb7292-5256-11ea-abf9-5f0bf12ae2d6,5f217ba6-5256-11ea-bfcc-2bae33475a0e
5f16bbee-5256-11ea-b77e-57a653325da5,5f219fb4-5256-11ea-a62f-c721a84678e8
5f04d186-5256-11ea-a7ff-777b861b5fc4,5f21ca5c-5256-11ea-a2a6-176e26eeefe2
5eac5eca-5256-11ea-b1ae-ebaa4ca79ef1,5f21ece4-5256-11ea-a95d-db0145a8a45f
5eeabd5a-5256-11ea-a227-23001c6fb280,5f222ac4-5256-11ea-9be2-3b5e0be1123e
5ec42a8c-5256-11ea-b34a-bf76bc6e903c,5f220c7e-5256-11ea-98a2-878cf992f431
5ede38aa-5256-11ea-a95c-ebef60975ba1,5f224b58-5256-11ea-ace0-5f1890efb8c4
5edce36a-5256-11ea-a890-9bed711780dc,5f226b92-5256-11ea-8c64-d7071451c456
5eea354c-5256-11ea-9749-5319d64834f4,5f228bc2-5256-11ea-abbb-eb8d4386f9c5
5ebc12b6-5256-11ea-8bf9-8f6246994fb3,5f22ab02-5256-11ea-9a1f-d3a3cb0712d6
5eed301c-5256-11ea-8425-b30ba603a3cc,5f22c6a0-5256-11ea-a3ad-a71745932847
5ecf10a0-5256-11ea-b15d-cf30ad0fbe04,5f22e37e-5256-11ea-a893-ab8df77976a7
5ebb1fd2-5256-11ea-a78a-0fc56965389b,5f22fe18-5256-11ea-9933-236361632816
5f0d1da0-5256-11ea-8ccc-4fdb5b393cb9,5f231f10-5256-11ea-a069-4f16cd1fc72b
5efc365c-5256-11ea-95df-3305a667850a,5f23486e-5256-11ea-bb6c-27b06da595be
5ef4e41a-5256-11ea-922a-c31b4fbf264a,5f23679a-5256-11ea-92f1-bfd1c580bc31
5f081aee-5256-11ea-99b7-d3403a8e43d3,5f23818a-5256-11ea-ab03-af15ef129edc
5f033024-5256-11ea-af5f-67de169471ea,5f23a02a-5256-11ea-a4cb-d358eb05bed3
5ef7a1f0-5256-11ea-82b8-83207f1c4812,5f23be52-5256-11ea-bc13-ef2783771e06
5efa8bd6-5256-11ea-8e05-2bd4c3a7d8ae,5f23e56c-5256-11ea-84a4-1b0b468a8669
5f09f454-5256-11ea-811c-57703f7fa362,5f240a38-5256-11ea-b17e-e3d680c313bf
5f0976c8-5256-11ea-af86-13a15b36f405,5f242fb8-5256-11ea-9a4f-1b49af6702fe
5ef0c5e2-5256-11ea-af12-e774c9612b67,5f2456b4-5256-11ea-b331-1fb3ca10f582
5ec69e02-5256-11ea-9481-6bc83aa2fd09,5f247c16-5256-11ea-addf-c3ae53e5b50d
5f0f949a-5256-11ea-b817-078e0936d1ba,5f249c32-5256-11ea-9793-e3a2776c2dfb
5ec9ba6a-5256-11ea-9a49-1bb356a0d1ba,5f24c482-5256-11ea-abf0-a74c92d90dd5
5ebcc5f8-5256-11ea-8a6d-bf57a22f7632,5f24f128-5256-11ea-9d52-87a8623548c4
5ee3691a-5256-11ea-b27a-2b08ea4b19fb,5f2525bc-5256-11ea-9bea-4f4f45c2e845
5f05bc54-5256-11ea-b02b-a7ebd14d07a1,5f256be4-5256-11ea-bb1b-3f64646f9a1f
5eff6340-5256-11ea-8645-d35738ad456f,5f25a8e8-5256-11ea-bbc0-b75a563f5c04
5eeb975c-5256-11ea-926e-f3b96c7b89ba,5f26040a-5256-11ea-a794-7b04d0899cf0
5ee733a6-5256-11ea-98aa-13740f7405c8,5f264d52-5256-11ea-b90a-6769493c11be
5ec2c0ac-5256-11ea-abb7-9719392b951d,5f2679f8-5256-11ea-9863-5f81208a6cab
5eeceb16-5256-11ea-a7ce-6302551ac2ca,5f26a626-5256-11ea-9ef6-7f684da31837
5f0711d0-5256-11ea-9857-6b8369fadde2,5f26d326-5256-11ea-9413-4b51d8edb853
5ea7ab46-5256-11ea-8e32-fb928c2e5659,5f2723b2-5256-11ea-b8ff-23dd7ba5f99e
5ecadb8e-5256-11ea-8d98-fbda4bb1a35d,5f2723a8-5256-11ea-873c-b317181d7848
5ec6d70a-5256-11ea-b6c8-b3259ca95540,5f2742de-5256-11ea-81b1-df173dc82862
5f1690e2-5256-11ea-87bc-1f35a2cedbd9,5f276052-5256-11ea-b2bb-b38ad11a7c44
5eb964ee-5256-11ea-9c84-6749538ceca6,5f279b6c-5256-11ea-8e86-67e0cacd3c58
5ea6ecf6-5256-11ea-8270-b3459075bc54,5f277d26-5256-11ea-a43e-478b68af6d98
5eb4fd78-5256-11ea-a16a-33f8a41de7ae,5f27bba6-5256-11ea-bb68-4fac2ad8c01a
5f1e0750-5256-11ea-9613-7354070d991e,5f27e0a4-5256-11ea-8ef1-67f264a33ea5
5ef490a0-5256-11ea-8291-7bd0aa770617,5f27fd1e-5256-11ea-a32e-57eb9b79ed64
5ead0dde-5256-11ea-bfd4-f3e6331b2725,5f281a42-5256-11ea-9336-af1318bdfc13
5eb538ba-5256-11ea-89df-0fc995e1ab6d,5f28363a-5256-11ea-9fb1-77b8d6c511b5
5eea110c-5256-11ea-a38c-a38c95477ebe,5f28508e-5256-11ea-b453-4fd4fff39dec
5f0bfac4-5256-11ea-8b21-b3e57c0d18bd,5f286de4-5256-11ea-9341-7b9fa36ccf1f
5f01234c-5256-11ea-a004-ef7c60030667,5f288b62-5256-11ea-9bed-7f1af2f2d9a4
5f099c98-5256-11ea-b8cc-1b1410e6f0f3,5f28a624-5256-11ea-9982-0384b941ae31
5f1be42a-5256-11ea-9929-c34a955f0364,5f28ca6e-5256-11ea-b41d-8b0924acbe58
5f2456b4-5256-11ea-b331-1fb3ca10f582,5f28ed46-5256-11ea-b5e2-4bc57514ecd0
5f0a343c-5256-11ea-839c-8f6e4bea8d91,5f290ace-5256-11ea-9fea-5fb5ecf7c91f
5f08d2cc-5256-11ea-9ddd-d7f6c18875a6,5f2929a0-5256-11ea-963a-eb1f4505d5e4
5f13969e-5256-11ea-97c1-9f17682cf628,5f294336-5256-11ea-92f8-8321b51595d1
5ec68610-5256-11ea-8ca3-bbbebdb12632,5f295f6a-5256-11ea-b565-33ae06906898
5eeff0b8-5256-11ea-b97d-cf284beb7814,5f297a18-5256-11ea-b01d-3b1776c92a8b
5ee7ed00-5256-11ea-8a9c-f32803d90a23,5f29941c-5256-11ea-b640-93226357cc79
5f0b1410-5256-11ea-9736-870e67043cc3,5f29b58c-5256-11ea-abf7-7b95d9e9092d
5f26a626-5256-11ea-9ef6-7f684da31837,5f29d166-5256-11ea-a00b-036e63bb2de5
5f1252ac-5256-11ea-a0ee-13c9417b4969,5f29ebce-5256-11ea-9825-4b80ffda361e
5effd1b8-5256-11ea-bbe5-7fc8f013e3ec,5f2a09ec-5256-11ea-8869-b3c6ee1384c0
5f2525bc-5256-11ea-9bea-4f4f45c2e845,5f2a2616-5256-11ea-9813-4ff03b42eb84
5efbae44-5256-11ea-98b8-1b76ac470334,5f2a492a-5256-11ea-b31a-374e5af2b385
5efdfba4-5256-11ea-a098-47eed87c3c31,5f2a6770-5256-11ea-a144-df50082f3850
5ed44886-5256-11ea-ab73-a345101b61e8,5f2a83fe-5256-11ea-9a33-2bb32c4dca41
5ea693a0-5256-11ea-8504-3b87797f049b,5f2a9d9e-5256-11ea-9abe-9f276a660383
5f06155a-5256-11ea-ba10-dbc542849ccb,5f2ab9f0-5256-11ea-9ef7-97b06550d217
5eef77fa-5256-11ea-9dba-9bb5a2f8c958,5f2ad426-5256-11ea-8bd8-d707b48118f9
5ecdefea-5256-11ea-93c7-f75c2002cfc2,5f2aed6c-5256-11ea-b9e1-bb02537fea71
5edf28a0-5256-11ea-9b07-4706ea65a025,5f2b070c-5256-11ea-9d2a-432e706cf097
5ec63034-5256-11ea-980a-dbe8cf6aef2f,5f2b2124-5256-11ea-8fc3-37dab5457ff0
5ef4ab30-5256-11ea-b26a-afa2ccea5477,5f2b3dee-5256-11ea-8d58-8be5abea9ae0
5f201d4c-5256-11ea-b3ee-b716f9c345b6,5f2b59f0-5256-11ea-875c-a7cf0b2899f7
5eb2a4ec-5256-11ea-bbd6-533f56ac2213,5f2b723c-5256-11ea-b82f-17eb31d8da86
5ecd9d88-5256-11ea-a740-bb7b072e4cdc,5f2b8d44-5256-11ea-a268-b7959751b19b
5ecc1ac6-5256-11ea-ab2e-6f643a164929,5f2bb238-5256-11ea-a3d2-efc0d5bb184a
5ea341b4-5256-11ea-b219-279d5952c46a,5f2bcce6-5256-11ea-8b36-bbbb8404e9ab
5ee273d4-5256-11ea-9aae-97a7745d96cd,5f2be96a-5256-11ea-9a77-bf656cb5bdbb
5ebaa7fa-5256-11ea-962e-8b75784d74ad,5f2c01e8-5256-11ea-a189-7b5ecbfa4d83
5eeff0b8-5256-11ea-b97d-cf284beb7814,5f2c3b72-5256-11ea-8adb-1f24d993ccd8
5ecf886e-5256-11ea-a560-43e801c72a07,5f2c1b38-5256-11ea-94db-0beadfef7962
5f0860c6-5256-11ea-9210-33fb630585f5,5f2c5850-5256-11ea-a518-8fb47c902c55
5ea4ff22-5256-11ea-b28e-2fe6bae6f41e,5f2c7592-5256-11ea-8338-7772b695ef30
5f081aee-5256-11ea-99b7-d3403a8e43d3,5f2c8f96-5256-11ea-9d37-1f9b74163f8a
5ec1b6b2-5256-11ea-9e05-2ba6c896d9b9,5f2cab16-5256-11ea-a5a5-b3266f2e096d
5ee80bbe-5256-11ea-9115-278a765905e3,5f2cc984-5256-11ea-af5a-4bbeaa9be808
5eac82a6-5256-11ea-b669-5780ff275746,5f2ce8d8-5256-11ea-b75d-87339454f28a
5ee045aa-5256-11ea-b455-afd734cb2b27,5f2d206e-5256-11ea-b715-6f82badf25a8
5f2929a0-5256-11ea-963a-eb1f4505d5e4,5f2d055c-5256-11ea-8c8b-270d5c337271
5ecfc28e-5256-11ea-b994-3f89df0cb809,5f2d3cde-5256-11ea-8d7e-1b74c3f06fe3
5ee86dac-5256-11ea-8c8d-eb2499724cb8,5f2d5642-5256-11ea-92e1-8b9b8b789c5d
5edcc2d6-5256-11ea-be9c-bb1e7c51c6a5,5f2d7320-5256-11ea-8353-57ce8230d4bb
5f2742de-5256-11ea-81b1-df173dc82862,5f2d8f04-5256-11ea-bbc3-8795c911ba4e
5f2d055c-5256-11ea-8c8b-270d5c337271,5f2da6b0-5256-11ea-b819-d3d90d7baf6e
5f0d1da0-5256-11ea-8ccc-4fdb5b393cb9,5f2dbf7e-5256-11ea-bee6-2f72f7f87f7f
5f2929a0-5256-11ea-963a-eb1f4505d5e4,5f2ddacc-5256-11ea-806c-27a69f079347
5ec8ed4c-5256-11ea-b691-e369e6be1a06,5f2df43a-5256-11ea-aab0-1f83403ae76e
5f0711d0-5256-11ea-9857-6b8369fadde2,5f2e115e-5256-11ea-a0b8-fbeb5c23c70b
5eaf2204-5256-11ea-ab96-affed878584d,5f2e2b12-5256-11ea-8c65-0fb7c2301c1d
5f0697f0-5256-11ea-8f58-8b05916d772b,5f2e446c-5256-11ea-9daf-27da5151c59c
5eeec544-5256-11ea-834c-1bba18a9b025,5f2e5cea-5256-11ea-832a-935d84fa6500
5ed712fa-5256-11ea-9335-437d9ba4c04a,5f2e80b2-5256-11ea-bf8b-5ff6deef37c9
5ea800a0-5256-11ea-bc20-830aaf157dae,5f2e9dd6-5256-11ea-b8a9-738d9c83d9f9
5f01949e-5256-11ea-a5c8-efae88dc6495,5f2eb758-5256-11ea-9a30-6785586ef092
5ed8c852-5256-11ea-bc43-87c513551c6d,5f2eeeda-5256-11ea-92cf-ff1ddd6805ac
5eb9b2e6-5256-11ea-ba9f-47a271795292,5f2ed3aa-5256-11ea-ac86-bb42c9294814
5ecb3976-5256-11ea-ac84-23ee06708104,5f2f116c-5256-11ea-b4ff-7bf6c71841c1
5ec99c2e-5256-11ea-99b8-d348de795efa,5f2f2e68-5256-11ea-9c54-4fe9ff66958c
5ee273d4-5256-11ea-9aae-97a7745d96cd,5f2f4e02-5256-11ea-94ec-0354be1886bc
5f23a02a-5256-11ea-a4cb-d358eb05bed3,5f2f6536-5256-11ea-bbb3-47160cceb016
5f0905f8-5256-11ea-b248-aba9d3c2990c,5f2f817e-5256-11ea-9a1f-fb7f9862d05d
5f13d8a2-5256-11ea-a452-5f958b414bad,5f2f9b28-5256-11ea-8998-e33d9eb68614
5ebf7d8e-5256-11ea-aca8-a778b74b0097,5f2fd11a-5256-11ea-a1d8-57b172d39fcd
5f1d49be-5256-11ea-a8b1-6b291852a5c5,5f2fb5ae-5256-11ea-ac79-b7f8d2f3d902
5f19b38a-5256-11ea-9c17-c7c6eda3b7df,5f2fefc4-5256-11ea-8a33-dbe35137df2a
5f005386-5256-11ea-8cb0-9fa084f29b72,5f3009a0-5256-11ea-8510-57b5ac0f9424
5eb2eb46-5256-11ea-878f-8f63811a4af7,5f30267e-5256-11ea-806f-1b75264f6f30
5eee85de-5256-11ea-86a9-3b208f6ec02c,5f3042bc-5256-11ea-bc94-572192ad7131
5eca64d8-5256-11ea-bca4-c38b8af95790,5f305cd4-5256-11ea-a2a2-0bc3c4a5ca9f
5f104ffc-5256-11ea-ad6c-377760e4bce1,5f3076ce-5256-11ea-bd0e-6b0213cb5b22
5ee1bf48-5256-11ea-8bbd-ebf4a46bcb6e,5f30950a-5256-11ea-a40f-e3ad876d3ab7
5f20dd7c-5256-11ea-8eb8-e3cea266fa22,5f30afcc-5256-11ea-8b0e-5763ab73b514
