RunID,Tick,AllAgents,Active,Inactive
run-2020-2-18-13-55-48.603188037,0,11,9,2
run-2020-2-18-13-55-48.603188037,1,16,10,6
run-2020-2-18-13-55-48.603188037,2,23,14,9
run-2020-2-18-13-55-48.603188037,3,26,13,13
run-2020-2-18-13-55-48.603188037,4,32,16,16
run-2020-2-18-13-55-48.603188037,5,36,16,20
run-2020-2-18-13-55-48.603188037,6,40,16,24
run-2020-2-18-13-55-48.603188037,7,44,16,28
run-2020-2-18-13-55-48.603188037,8,46,16,30
run-2020-2-18-13-55-48.603188037,9,50,20,30
run-2020-2-18-13-55-48.603188037,10,54,22,32
run-2020-2-18-13-55-48.603188037,11,56,20,36
run-2020-2-18-13-55-48.603188037,12,60,22,38
run-2020-2-18-13-55-48.603188037,13,61,20,41
run-2020-2-18-13-55-48.603188037,14,63,20,43
run-2020-2-18-13-55-48.603188037,15,67,24,43
run-2020-2-18-13-55-48.603188037,16,70,23,47
run-2020-2-18-13-55-48.603188037,17,73,23,50
run-2020-2-18-13-55-48.603188037,18,77,25,52
run-2020-2-18-13-55-48.603188037,19,77,21,56
run-2020-2-18-13-55-48.603188037,20,78,16,62
run-2020-2-18-13-55-48.603188037,21,82,20,62
run-2020-2-18-13-55-48.603188037,22,84,21,63
run-2020-2-18-13-55-48.603188037,23,89,26,63
run-2020-2-18-13-55-48.603188037,24,93,30,63
run-2020-2-18-13-55-48.603188037,25,98,30,68
run-2020-2-18-13-55-48.603188037,26,102,31,71
run-2020-2-18-13-55-48.603188037,27,106,33,73
run-2020-2-18-13-55-48.603188037,28,110,32,78
run-2020-2-18-13-55-48.603188037,29,116,38,78
run-2020-2-18-13-55-48.603188037,30,117,35,82
run-2020-2-18-13-55-48.603188037,31,118,33,85
run-2020-2-18-13-55-48.603188037,32,120,34,86
run-2020-2-18-13-55-48.603188037,33,127,39,88
run-2020-2-18-13-55-48.603188037,34,135,42,93
run-2020-2-18-13-55-48.603188037,35,140,43,97
run-2020-2-18-13-55-48.603188037,36,145,44,101
run-2020-2-18-13-55-48.603188037,37,148,45,103
run-2020-2-18-13-55-48.603188037,38,155,50,105
run-2020-2-18-13-55-48.603188037,39,161,50,111
run-2020-2-18-13-55-48.603188037,40,166,49,117
run-2020-2-18-13-55-48.603188037,41,168,47,121
run-2020-2-18-13-55-48.603188037,42,172,46,126
run-2020-2-18-13-55-48.603188037,43,174,44,130
run-2020-2-18-13-55-48.603188037,44,176,41,135
run-2020-2-18-13-55-48.603188037,45,178,42,136
run-2020-2-18-13-55-48.603188037,46,181,44,137
run-2020-2-18-13-55-48.603188037,47,183,42,141
run-2020-2-18-13-55-48.603188037,48,185,42,143
run-2020-2-18-13-55-48.603188037,49,188,42,146
run-2020-2-18-13-55-48.603188037,50,193,47,146
run-2020-2-18-13-55-48.603188037,51,200,49,151
run-2020-2-18-13-55-48.603188037,52,202,48,154
run-2020-2-18-13-55-48.603188037,53,208,49,159
run-2020-2-18-13-55-48.603188037,54,216,54,162
run-2020-2-18-13-55-48.603188037,55,218,52,166
run-2020-2-18-13-55-48.603188037,56,224,56,168
run-2020-2-18-13-55-48.603188037,57,225,52,173
run-2020-2-18-13-55-48.603188037,58,228,51,177
run-2020-2-18-13-55-48.603188037,59,231,52,179
run-2020-2-18-13-55-48.603188037,60,235,53,182
run-2020-2-18-13-55-48.603188037,61,237,45,192
run-2020-2-18-13-55-48.603188037,62,242,48,194
run-2020-2-18-13-55-48.603188037,63,249,55,194
run-2020-2-18-13-55-48.603188037,64,252,55,197
run-2020-2-18-13-55-48.603188037,65,254,52,202
run-2020-2-18-13-55-48.603188037,66,255,49,206
run-2020-2-18-13-55-48.603188037,67,260,49,211
run-2020-2-18-13-55-48.603188037,68,265,49,216
run-2020-2-18-13-55-48.603188037,69,269,51,218
run-2020-2-18-13-55-48.603188037,70,273,49,224
run-2020-2-18-13-55-48.603188037,71,273,46,227
run-2020-2-18-13-55-48.603188037,72,274,42,232
run-2020-2-18-13-55-48.603188037,73,281,46,235
run-2020-2-18-13-55-48.603188037,74,284,47,237
run-2020-2-18-13-55-48.603188037,75,286,44,242
run-2020-2-18-13-55-48.603188037,76,288,42,246
run-2020-2-18-13-55-48.603188037,77,289,42,247
run-2020-2-18-13-55-48.603188037,78,292,42,250
run-2020-2-18-13-55-48.603188037,79,296,42,254
run-2020-2-18-13-55-48.603188037,80,298,40,258
run-2020-2-18-13-55-48.603188037,81,302,42,260
run-2020-2-18-13-55-48.603188037,82,309,48,261
run-2020-2-18-13-55-48.603188037,83,311,49,262
run-2020-2-18-13-55-48.603188037,84,314,44,270
run-2020-2-18-13-55-48.603188037,85,316,42,274
run-2020-2-18-13-55-48.603188037,86,322,46,276
run-2020-2-18-13-55-48.603188037,87,323,42,281
run-2020-2-18-13-55-48.603188037,88,330,47,283
run-2020-2-18-13-55-48.603188037,89,335,47,288
run-2020-2-18-13-55-48.603188037,90,338,48,290
run-2020-2-18-13-55-48.603188037,91,339,44,295
run-2020-2-18-13-55-48.603188037,92,340,43,297
run-2020-2-18-13-55-48.603188037,93,342,43,299
run-2020-2-18-13-55-48.603188037,94,349,49,300
run-2020-2-18-13-55-48.603188037,95,355,53,302
run-2020-2-18-13-55-48.603188037,96,361,55,306
run-2020-2-18-13-55-48.603188037,97,361,50,311
run-2020-2-18-13-55-48.603188037,98,367,54,313
run-2020-2-18-13-55-48.603188037,99,369,52,317
