Source,Target
e85078d4-5a15-11ea-808d-b3076988474b,e850f070-5a15-11ea-9307-3f287a0c2d5d
e850bad8-5a15-11ea-9a8a-577f0287d7be,e8511820-5a15-11ea-97a0-af3b246669b8
e850df22-5a15-11ea-bcdb-afcc121118d0,e8512ad6-5a15-11ea-8e7d-ff7642f5adfd
e850f070-5a15-11ea-9307-3f287a0c2d5d,e8513d46-5a15-11ea-be0d-3717bd7ca0e7
e850cc9e-5a15-11ea-a67d-9b13e6802ba0,e851462e-5a15-11ea-bd70-ebffe1fcaf1f
e8513d46-5a15-11ea-be0d-3717bd7ca0e7,e851531c-5a15-11ea-ac72-bf2a2cc2f827
e850ad54-5a15-11ea-b231-dfb02397410a,e8515b32-5a15-11ea-9fc3-cf9961269c90
e85078d4-5a15-11ea-808d-b3076988474b,e851674e-5a15-11ea-804d-2f8c196cc2f3
e8511820-5a15-11ea-97a0-af3b246669b8,e851773e-5a15-11ea-b085-87e581828916
e850bad8-5a15-11ea-9a8a-577f0287d7be,e851858a-5a15-11ea-8c74-231864c91064
e8515b32-5a15-11ea-9fc3-cf9961269c90,e85196c4-5a15-11ea-82ba-83d8c70e5193
e850ad54-5a15-11ea-b231-dfb02397410a,e851a420-5a15-11ea-bc7d-375fcb2d79e2
e850ad54-5a15-11ea-b231-dfb02397410a,e851b2bc-5a15-11ea-b727-639a61adca97
e851858a-5a15-11ea-8c74-231864c91064,e851bb18-5a15-11ea-af13-bb3340116f79
e850f070-5a15-11ea-9307-3f287a0c2d5d,e851ca86-5a15-11ea-b1ac-dfa4c2297ebc
e851674e-5a15-11ea-804d-2f8c196cc2f3,e851d21a-5a15-11ea-ad5e-77970513aae8
e850df22-5a15-11ea-bcdb-afcc121118d0,e851de22-5a15-11ea-9340-a340d6001d85
e850df22-5a15-11ea-bcdb-afcc121118d0,e851ed0e-5a15-11ea-a900-a3168e21de96
e85078d4-5a15-11ea-808d-b3076988474b,e8520064-5a15-11ea-aa95-b35e9d0771d9
e851773e-5a15-11ea-b085-87e581828916,e852113a-5a15-11ea-8f75-f3ae10d775e1
e850a3c2-5a15-11ea-a2c2-bb144868b625,e85218ce-5a15-11ea-a5fd-cff267e985c4
e8512ad6-5a15-11ea-8e7d-ff7642f5adfd,e8522be8-5a15-11ea-b4fd-6f6e86bae526
e851674e-5a15-11ea-804d-2f8c196cc2f3,e8523570-5a15-11ea-aec6-4fbdefc71a57
e850df22-5a15-11ea-bcdb-afcc121118d0,e8524268-5a15-11ea-b509-534ee9abf89b
e851bb18-5a15-11ea-af13-bb3340116f79,e85249e8-5a15-11ea-965f-8745203d412f
e851674e-5a15-11ea-804d-2f8c196cc2f3,e8526c34-5a15-11ea-bd4d-3b3d0c4b5043
e851531c-5a15-11ea-ac72-bf2a2cc2f827,e8525a8c-5a15-11ea-8a3a-b7333308fe01
e851773e-5a15-11ea-b085-87e581828916,e8528f5c-5a15-11ea-89b5-af845384a059
e8522be8-5a15-11ea-b4fd-6f6e86bae526,e85298f8-5a15-11ea-96ce-ff06659a2d55
e85070e6-5a15-11ea-962a-1b2be8ba9641,e852a348-5a15-11ea-b68f-83411dde9f02
e851a420-5a15-11ea-bc7d-375fcb2d79e2,e852aaaa-5a15-11ea-9310-a3163f413c29
e851d21a-5a15-11ea-ad5e-77970513aae8,e852b2de-5a15-11ea-9295-9b84f192a747
e8520064-5a15-11ea-aa95-b35e9d0771d9,e852c2b0-5a15-11ea-9b55-2ffda99fd221
e85298f8-5a15-11ea-96ce-ff06659a2d55,e852caa8-5a15-11ea-8609-f3646ba37d00
e8512ad6-5a15-11ea-8e7d-ff7642f5adfd,e852ece0-5a15-11ea-a4d1-a735cc20a46d
e852c2b0-5a15-11ea-9b55-2ffda99fd221,e852fdfc-5a15-11ea-ba68-d30ede82020e
e851531c-5a15-11ea-ac72-bf2a2cc2f827,e85308ce-5a15-11ea-a7c5-1b21d444933a
e851ca86-5a15-11ea-b1ac-dfa4c2297ebc,e853138c-5a15-11ea-96f2-9bedb1df90d8
e8523570-5a15-11ea-aec6-4fbdefc71a57,e85323cc-5a15-11ea-b795-8b2dcf34ae21
e8528f5c-5a15-11ea-89b5-af845384a059,e8532b56-5a15-11ea-b6c0-f3b54852fe2d
e850f070-5a15-11ea-9307-3f287a0c2d5d,e8533484-5a15-11ea-9c46-cb22aa6e7418
e8533484-5a15-11ea-9c46-cb22aa6e7418,e85342da-5a15-11ea-a4d8-b3acf83ca260
e850e882-5a15-11ea-9c5e-5f1e3d7877af,e853548c-5a15-11ea-b88c-43e27bbf7bb0
e851d21a-5a15-11ea-ad5e-77970513aae8,e8535f18-5a15-11ea-916a-6706ca62fdbe
e852c2b0-5a15-11ea-9b55-2ffda99fd221,e8536f76-5a15-11ea-99be-b7a984e42fbf
e851674e-5a15-11ea-804d-2f8c196cc2f3,e8538060-5a15-11ea-8392-07d59d7b5a82
e8532b56-5a15-11ea-b6c0-f3b54852fe2d,e8538b50-5a15-11ea-abdb-1701d7cca655
e851858a-5a15-11ea-8c74-231864c91064,e8539ca8-5a15-11ea-9d0f-8fe808e8b036
e851ca86-5a15-11ea-b1ac-dfa4c2297ebc,e853abda-5a15-11ea-8a77-1790c3288609
e850f070-5a15-11ea-9307-3f287a0c2d5d,e853b72e-5a15-11ea-8aef-7f7d7e813407
e8536f76-5a15-11ea-99be-b7a984e42fbf,e853bf9e-5a15-11ea-b152-df92fd92403a
e8535f18-5a15-11ea-916a-6706ca62fdbe,e853ce1c-5a15-11ea-87fa-03bec6009f86
e8526c34-5a15-11ea-bd4d-3b3d0c4b5043,e853e85c-5a15-11ea-9f83-1736287d5b02
e85298f8-5a15-11ea-96ce-ff06659a2d55,e85401c0-5a15-11ea-bf73-d3a6e48ca76e
e85308ce-5a15-11ea-a7c5-1b21d444933a,e8540da0-5a15-11ea-aa42-4f1578f507e1
e851a420-5a15-11ea-bc7d-375fcb2d79e2,e8541692-5a15-11ea-8fd4-57a42be2fc94
e853bf9e-5a15-11ea-b152-df92fd92403a,e854247a-5a15-11ea-a1e6-9ba07bac6d45
e8528f5c-5a15-11ea-89b5-af845384a059,e8542c2c-5a15-11ea-a9b1-5beac7255a24
e8522be8-5a15-11ea-b4fd-6f6e86bae526,e85436a4-5a15-11ea-9568-6b975b04efd8
e8532b56-5a15-11ea-b6c0-f3b54852fe2d,e8544068-5a15-11ea-b600-ef887df8b0db
e851bb18-5a15-11ea-af13-bb3340116f79,e854536e-5a15-11ea-8031-13274dd04e8e
e8533484-5a15-11ea-9c46-cb22aa6e7418,e8546be2-5a15-11ea-9bf4-87d39b31892e
e850e882-5a15-11ea-9c5e-5f1e3d7877af,e85492ca-5a15-11ea-9948-6fdd102e00c9
e8515b32-5a15-11ea-9fc3-cf9961269c90,e854928e-5a15-11ea-9399-8b12df099b13
e85196c4-5a15-11ea-82ba-83d8c70e5193,e854a0b2-5a15-11ea-aa83-67be7d31a5c4
e8524268-5a15-11ea-b509-534ee9abf89b,e854b502-5a15-11ea-a376-076c124fffab
e8544068-5a15-11ea-b600-ef887df8b0db,e854c01a-5a15-11ea-a980-c39aa954ef22
e851bb18-5a15-11ea-af13-bb3340116f79,e854c83a-5a15-11ea-a772-83f37b077599
e852a348-5a15-11ea-b68f-83411dde9f02,e854cf6a-5a15-11ea-9dab-23c4ec16cae3
e85323cc-5a15-11ea-b795-8b2dcf34ae21,e854e734-5a15-11ea-a18d-57e74cd3398e
e8540da0-5a15-11ea-aa42-4f1578f507e1,e854eedc-5a15-11ea-a24a-23e3a5e86253
e852113a-5a15-11ea-8f75-f3ae10d775e1,e854fb48-5a15-11ea-9492-6795e819c787
e8512ad6-5a15-11ea-8e7d-ff7642f5adfd,e8550a20-5a15-11ea-97a1-37fcded80dd2
e851de22-5a15-11ea-9340-a340d6001d85,e8551bc8-5a15-11ea-8fa8-bb37dba529d9
e8540da0-5a15-11ea-aa42-4f1578f507e1,e855278a-5a15-11ea-8579-6f2f6e262d23
e8541692-5a15-11ea-8fd4-57a42be2fc94,e8552ece-5a15-11ea-a29d-6b1dc59c7406
e852ece0-5a15-11ea-a4d1-a735cc20a46d,e8554a1c-5a15-11ea-897e-0bbf0c18cdd4
e8542c2c-5a15-11ea-a9b1-5beac7255a24,e85542b0-5a15-11ea-a213-e79c380b1514
e85542b0-5a15-11ea-a213-e79c380b1514,e85559bc-5a15-11ea-bd08-5f9a4ddd408a
e85070e6-5a15-11ea-962a-1b2be8ba9641,e855615a-5a15-11ea-ae21-af4a65cea53c
e851b2bc-5a15-11ea-b727-639a61adca97,e8558306-5a15-11ea-92b4-c315d5e5bda7
e854928e-5a15-11ea-9399-8b12df099b13,e8557a96-5a15-11ea-906f-7bc99d211943
e850e882-5a15-11ea-9c5e-5f1e3d7877af,e8559c88-5a15-11ea-979b-b7e4634b6c82
e8540da0-5a15-11ea-aa42-4f1578f507e1,e8558950-5a15-11ea-8e65-c3d6b7fc87a8
e852ece0-5a15-11ea-a4d1-a735cc20a46d,e855a4b2-5a15-11ea-99dc-03ff574b4b29
e85218ce-5a15-11ea-a5fd-cff267e985c4,e855d3c4-5a15-11ea-98f1-13c2910ee11f
e85298f8-5a15-11ea-96ce-ff06659a2d55,e855c64a-5a15-11ea-8365-93b349960d13
e8557a96-5a15-11ea-906f-7bc99d211943,e855f02a-5a15-11ea-9554-ef4b0e8a8bdb
e851462e-5a15-11ea-bd70-ebffe1fcaf1f,e855f9c6-5a15-11ea-aafb-3fcc78d6c0ce
e851674e-5a15-11ea-804d-2f8c196cc2f3,e8560b46-5a15-11ea-9f8e-c3ac9ec1c946
e8558306-5a15-11ea-92b4-c315d5e5bda7,e8563be8-5a15-11ea-b811-439e03819a83
e8535f18-5a15-11ea-916a-6706ca62fdbe,e856308a-5a15-11ea-a261-0fa29558b83f
e854247a-5a15-11ea-a1e6-9ba07bac6d45,e856475a-5a15-11ea-8cb5-2707490f667d
e8532b56-5a15-11ea-b6c0-f3b54852fe2d,e856536c-5a15-11ea-baf3-c72d8f896dc6
e8524268-5a15-11ea-b509-534ee9abf89b,e85660c8-5a15-11ea-a85a-efadf0e312db
e851773e-5a15-11ea-b085-87e581828916,e8566f64-5a15-11ea-8753-bfcdeb5c806f
