RunID,Tick,ActiveAgentsPerTick
run-2020-2-18-11-34-38.17751193,0,18
run-2020-2-18-11-34-38.17751193,1,18
run-2020-2-18-11-34-38.17751193,2,17
run-2020-2-18-11-34-38.17751193,3,22
run-2020-2-18-11-34-38.17751193,4,21
run-2020-2-18-11-34-38.17751193,5,24
run-2020-2-18-11-34-38.17751193,6,24
run-2020-2-18-11-34-38.17751193,7,30
run-2020-2-18-11-34-38.17751193,8,36
run-2020-2-18-11-34-38.17751193,9,32
run-2020-2-18-11-34-38.17751193,10,35
run-2020-2-18-11-34-38.17751193,11,37
run-2020-2-18-11-34-38.17751193,12,35
run-2020-2-18-11-34-38.17751193,13,35
run-2020-2-18-11-34-38.17751193,14,34
run-2020-2-18-11-34-38.17751193,15,37
run-2020-2-18-11-34-38.17751193,16,38
run-2020-2-18-11-34-38.17751193,17,36
run-2020-2-18-11-34-38.17751193,18,34
run-2020-2-18-11-34-38.17751193,19,36
run-2020-2-18-11-34-38.17751193,20,39
run-2020-2-18-11-34-38.17751193,21,40
run-2020-2-18-11-34-38.17751193,22,40
run-2020-2-18-11-34-38.17751193,23,39
run-2020-2-18-11-34-38.17751193,24,45
run-2020-2-18-11-34-38.17751193,25,47
run-2020-2-18-11-34-38.17751193,26,43
run-2020-2-18-11-34-38.17751193,27,45
run-2020-2-18-11-34-38.17751193,28,49
run-2020-2-18-11-34-38.17751193,29,50
run-2020-2-18-11-34-38.17751193,30,53
run-2020-2-18-11-34-38.17751193,31,58
run-2020-2-18-11-34-38.17751193,32,56
run-2020-2-18-11-34-38.17751193,33,53
run-2020-2-18-11-34-38.17751193,34,54
run-2020-2-18-11-34-38.17751193,35,56
run-2020-2-18-11-34-38.17751193,36,59
run-2020-2-18-11-34-38.17751193,37,59
run-2020-2-18-11-34-38.17751193,38,56
run-2020-2-18-11-34-38.17751193,39,59
run-2020-2-18-11-34-38.17751193,40,56
run-2020-2-18-11-34-38.17751193,41,58
run-2020-2-18-11-34-38.17751193,42,60
run-2020-2-18-11-34-38.17751193,43,64
run-2020-2-18-11-34-38.17751193,44,64
run-2020-2-18-11-34-38.17751193,45,65
run-2020-2-18-11-34-38.17751193,46,66
run-2020-2-18-11-34-38.17751193,47,69
run-2020-2-18-11-34-38.17751193,48,69
run-2020-2-18-11-34-38.17751193,49,64
run-2020-2-18-11-34-38.17751193,50,62
run-2020-2-18-11-34-38.17751193,51,61
run-2020-2-18-11-34-38.17751193,52,61
run-2020-2-18-11-34-38.17751193,53,65
run-2020-2-18-11-34-38.17751193,54,65
run-2020-2-18-11-34-38.17751193,55,62
run-2020-2-18-11-34-38.17751193,56,58
run-2020-2-18-11-34-38.17751193,57,56
run-2020-2-18-11-34-38.17751193,58,59
run-2020-2-18-11-34-38.17751193,59,58
run-2020-2-18-11-34-38.17751193,60,60
run-2020-2-18-11-34-38.17751193,61,61
run-2020-2-18-11-34-38.17751193,62,61
run-2020-2-18-11-34-38.17751193,63,61
run-2020-2-18-11-34-38.17751193,64,61
run-2020-2-18-11-34-38.17751193,65,61
run-2020-2-18-11-34-38.17751193,66,61
run-2020-2-18-11-34-38.17751193,67,61
run-2020-2-18-11-34-38.17751193,68,58
run-2020-2-18-11-34-38.17751193,69,58
run-2020-2-18-11-34-38.17751193,70,61
run-2020-2-18-11-34-38.17751193,71,62
run-2020-2-18-11-34-38.17751193,72,60
run-2020-2-18-11-34-38.17751193,73,63
run-2020-2-18-11-34-38.17751193,74,67
run-2020-2-18-11-34-38.17751193,75,69
run-2020-2-18-11-34-38.17751193,76,64
run-2020-2-18-11-34-38.17751193,77,64
run-2020-2-18-11-34-38.17751193,78,68
run-2020-2-18-11-34-38.17751193,79,67
run-2020-2-18-11-34-38.17751193,80,66
run-2020-2-18-11-34-38.17751193,81,67
run-2020-2-18-11-34-38.17751193,82,64
run-2020-2-18-11-34-38.17751193,83,61
run-2020-2-18-11-34-38.17751193,84,58
run-2020-2-18-11-34-38.17751193,85,59
run-2020-2-18-11-34-38.17751193,86,62
run-2020-2-18-11-34-38.17751193,87,63
run-2020-2-18-11-34-38.17751193,88,62
run-2020-2-18-11-34-38.17751193,89,63
run-2020-2-18-11-34-38.17751193,90,60
run-2020-2-18-11-34-38.17751193,91,61
run-2020-2-18-11-34-38.17751193,92,62
run-2020-2-18-11-34-38.17751193,93,59
run-2020-2-18-11-34-38.17751193,94,60
run-2020-2-18-11-34-38.17751193,95,58
run-2020-2-18-11-34-38.17751193,96,56
run-2020-2-18-11-34-38.17751193,97,54
run-2020-2-18-11-34-38.17751193,98,56
run-2020-2-18-11-34-38.17751193,99,58
run-2020-2-18-11-34-38.17751193,100,53
