Source,Target
6a059676-524a-11ea-b7e8-e32768489698,6a096300-524a-11ea-83e8-7f685cd1ec46
6a05d4ce-524a-11ea-8fc9-e306a323c538,6a098f38-524a-11ea-8568-3f82be8af45c
6a066e98-524a-11ea-9f44-07779993db1c,6a09a00e-524a-11ea-bf6d-13b16e43341a
6a069684-524a-11ea-b647-e35b5c063d14,6a09ad06-524a-11ea-b0d6-fbe766c343cd
6a056b2e-524a-11ea-9214-cbef1a796e78,6a09bf08-524a-11ea-87a7-1b0edf0a9416
6a07743c-524a-11ea-887f-475eb4073456,6a09cd72-524a-11ea-a8b6-23067d362c0f
6a09bf08-524a-11ea-87a7-1b0edf0a9416,6a09dc5e-524a-11ea-8e43-6be23010622b
6a076104-524a-11ea-9fb5-eb8da5111fb2,6a09ef14-524a-11ea-a982-4b83cf9af6b0
6a08ec90-524a-11ea-b523-efa8ecaede7e,6a0a01ca-524a-11ea-beee-1fc5b2caf4c4
6a086d7e-524a-11ea-9fd7-efc2737bcf44,6a0a0aa8-524a-11ea-957f-a73f400ea073
6a081018-524a-11ea-a25a-df111db0efe2,6a0a1da4-524a-11ea-a920-433d79040584
6a0820a8-524a-11ea-81c5-c72632b6f526,6a0a3212-524a-11ea-a122-1b112efd6e98
6a057592-524a-11ea-b64a-0bfb460c85ee,6a0a41b2-524a-11ea-8273-97748cf74e55
6a0924e4-524a-11ea-b732-1f366ac7766b,6a0a4fcc-524a-11ea-870b-5ff7715bf725
6a08ec90-524a-11ea-b523-efa8ecaede7e,6a0a7308-524a-11ea-b343-63754bd6368c
6a0a3212-524a-11ea-a122-1b112efd6e98,6a0a8370-524a-11ea-973e-73347975658b
6a079822-524a-11ea-a5d4-2bc46852e087,6a0a9270-524a-11ea-80dd-2fb47399ad1a
6a093740-524a-11ea-ac1a-5380b1d04eb8,6a0a9f0e-524a-11ea-8ddb-d7ea99ad380c
6a0a9f0e-524a-11ea-8ddb-d7ea99ad380c,6a0ab94e-524a-11ea-9ac8-3fc9c78b870f
6a0a9f0e-524a-11ea-8ddb-d7ea99ad380c,6a0ac916-524a-11ea-9313-27f4d97bf21a
6a07d206-524a-11ea-85c0-371eb06cfa41,6a0ae8ec-524a-11ea-a4a9-b78caca376e8
6a05edce-524a-11ea-b638-13a669bc8642,6a0af8d2-524a-11ea-9279-63b878217e9f
6a096300-524a-11ea-83e8-7f685cd1ec46,6a0b0a16-524a-11ea-82d9-7ffbdfa5c86b
6a06d3e2-524a-11ea-bd77-cb2916b0ae77,6a0b2924-524a-11ea-930a-038f3895a5bf
6a09bf08-524a-11ea-87a7-1b0edf0a9416,6a0b39be-524a-11ea-b55c-8f5ffca0a70f
6a06d3e2-524a-11ea-bd77-cb2916b0ae77,6a0b492c-524a-11ea-bd76-ef580023f82f
6a069684-524a-11ea-b647-e35b5c063d14,6a0b5cc8-524a-11ea-808e-ab62612ecdaa
6a0a3212-524a-11ea-a122-1b112efd6e98,6a0b71fe-524a-11ea-96b8-2714efbd5af4
6a06eb7a-524a-11ea-9a84-2768ce0b82f8,6a0b958a-524a-11ea-8189-3b92ec317d3f
6a0a7308-524a-11ea-b343-63754bd6368c,6a0bc35c-524a-11ea-8607-03c77d744842
6a0af8d2-524a-11ea-9279-63b878217e9f,6a0be422-524a-11ea-8c8e-c77425be6bdc
6a09dc5e-524a-11ea-8e43-6be23010622b,6a0bf8c2-524a-11ea-a286-bfdd5ec04ef9
6a0a9270-524a-11ea-80dd-2fb47399ad1a,6a0c6514-524a-11ea-a6b4-636400650f9f
6a081018-524a-11ea-a25a-df111db0efe2,6a0c7f90-524a-11ea-b7f4-37ebb266601a
6a083778-524a-11ea-9b81-3f3958a6fbf1,6a0cb8e8-524a-11ea-836b-979be353214c
6a069684-524a-11ea-b647-e35b5c063d14,6a0cd256-524a-11ea-af2f-9f6523874d8f
6a09bf08-524a-11ea-87a7-1b0edf0a9416,6a0ce2c8-524a-11ea-a711-9fdd4b0c8f7e
6a0639c8-524a-11ea-bc4c-5b2824af3243,6a0d2166-524a-11ea-b602-03107f6623a1
6a090ab8-524a-11ea-ac52-630430fd47e0,6a0d0370-524a-11ea-af9a-f79dbaf52582
6a083778-524a-11ea-9b81-3f3958a6fbf1,6a0d396c-524a-11ea-8570-9b770505a7c2
6a0d0370-524a-11ea-af9a-f79dbaf52582,6a0d4b0a-524a-11ea-9f43-7f0b89dc8cc0
6a09cd72-524a-11ea-a8b6-23067d362c0f,6a0da80c-524a-11ea-adb0-f3baf42aacc8
6a07ea20-524a-11ea-abd5-c36162052861,6a0db644-524a-11ea-9310-cfbb1bba4df4
6a0884c6-524a-11ea-b746-53e97f5aba84,6a0dc436-524a-11ea-bb7f-a7a1cce0bc21
6a08ec90-524a-11ea-b523-efa8ecaede7e,6a0dd16a-524a-11ea-93ec-ff07fce462a5
6a0b492c-524a-11ea-bd76-ef580023f82f,6a0ddd22-524a-11ea-af92-43ff8b3a9501
6a083778-524a-11ea-9b81-3f3958a6fbf1,6a0df05a-524a-11ea-9a03-77f9139a0287
6a07c25c-524a-11ea-9d71-7b00ee0a0aab,6a0e0c66-524a-11ea-a6c9-6741489a6293
6a0924e4-524a-11ea-b732-1f366ac7766b,6a0e1bde-524a-11ea-b4e5-d7d01ddeb464
6a0db644-524a-11ea-9310-cfbb1bba4df4,6a0e2b74-524a-11ea-a276-638964da0a66
6a0b5cc8-524a-11ea-808e-ab62612ecdaa,6a0e36aa-524a-11ea-a955-9fe793c2492f
6a07743c-524a-11ea-887f-475eb4073456,6a0e4014-524a-11ea-a138-2ff52a226ed7
6a089326-524a-11ea-81c5-9b46030458e2,6a0e4adc-524a-11ea-bc6f-978dc70b7453
6a067d98-524a-11ea-a20c-b77f4e958b0d,6a0e55b8-524a-11ea-860d-cbcc43640c03
6a084236-524a-11ea-9487-373b4d58d794,6a0e5e64-524a-11ea-9fe4-73f11532ca48
6a08baa4-524a-11ea-9418-dfc2ab256d53,6a0e6dfa-524a-11ea-8260-f773e427c03f
6a0ce2c8-524a-11ea-a711-9fdd4b0c8f7e,6a0e9618-524a-11ea-8d55-9360ce80db5b
6a0e9618-524a-11ea-8d55-9360ce80db5b,6a0eb7ba-524a-11ea-a8ca-3f398427aeb4
6a0ddd22-524a-11ea-af92-43ff8b3a9501,6a0ebc9c-524a-11ea-8a41-3bf19145590c
6a076104-524a-11ea-9fb5-eb8da5111fb2,6a0ece44-524a-11ea-b206-b3457cafc879
6a0bf8c2-524a-11ea-a286-bfdd5ec04ef9,6a0edb5a-524a-11ea-a7b4-b770c1f20760
6a0a9270-524a-11ea-80dd-2fb47399ad1a,6a0ee7ee-524a-11ea-983b-4b4bb708707e
6a07743c-524a-11ea-887f-475eb4073456,6a0f018e-524a-11ea-bf41-8f4eea0139ce
6a05d4ce-524a-11ea-8fc9-e306a323c538,6a0f12aa-524a-11ea-b235-27591f43b737
6a093740-524a-11ea-ac1a-5380b1d04eb8,6a0f1e94-524a-11ea-b0f0-13e342a9e192
6a0be422-524a-11ea-8c8e-c77425be6bdc,6a0f39c4-524a-11ea-a62b-1fb3a0af354c
6a0a7308-524a-11ea-b343-63754bd6368c,6a0f3c44-524a-11ea-9631-43fe078f4b50
6a069684-524a-11ea-b647-e35b5c063d14,6a0f46a8-524a-11ea-9eaf-e728ddaf0446
6a08baa4-524a-11ea-9418-dfc2ab256d53,6a0f5652-524a-11ea-9a4d-5f2b2e8bbc33
6a085c12-524a-11ea-82a7-27b4501ba58d,6a0f6598-524a-11ea-a59b-8f8c82275097
6a0a4fcc-524a-11ea-870b-5ff7715bf725,6a0f6ef8-524a-11ea-a019-b7de31660b81
6a09ef14-524a-11ea-a982-4b83cf9af6b0,6a0f8b4a-524a-11ea-93e1-c792e2354245
6a059676-524a-11ea-b7e8-e32768489698,6a0f9784-524a-11ea-813a-a7db55168c3f
6a0cb8e8-524a-11ea-836b-979be353214c,6a0fa396-524a-11ea-a8eb-fb3db6ef58a3
6a0bf8c2-524a-11ea-a286-bfdd5ec04ef9,6a0fad3c-524a-11ea-8e1c-5b6b954068e3
6a0eb7ba-524a-11ea-a8ca-3f398427aeb4,6a0fb62e-524a-11ea-a867-bf2ffc308624
6a0b5cc8-524a-11ea-808e-ab62612ecdaa,6a0fc11e-524a-11ea-b481-0373d025803a
6a0ddd22-524a-11ea-af92-43ff8b3a9501,6a0fe608-524a-11ea-a711-879bdf7235a2
6a0ebc9c-524a-11ea-8a41-3bf19145590c,6a0ff756-524a-11ea-b873-f3c6e124c1ae
6a0fad3c-524a-11ea-8e1c-5b6b954068e3,6a100368-524a-11ea-8d55-33979c2eb403
6a0d2166-524a-11ea-b602-03107f6623a1,6a1010e2-524a-11ea-9abb-830c699da31a
6a072d88-524a-11ea-8b1a-afe30ff80136,6a101c0e-524a-11ea-8457-5f238ebe68c8
6a09ad06-524a-11ea-b0d6-fbe766c343cd,6a1033f6-524a-11ea-9a61-73016914bc6a
6a066e98-524a-11ea-9f44-07779993db1c,6a104792-524a-11ea-9b06-f7b243ed932a
6a0a41b2-524a-11ea-8273-97748cf74e55,6a105494-524a-11ea-b058-5fa3d070bf50
6a0d4b0a-524a-11ea-9f43-7f0b89dc8cc0,6a1074b0-524a-11ea-9184-73e10d1bedb8
6a0a41b2-524a-11ea-8273-97748cf74e55,6a106948-524a-11ea-8bc6-776c13fe2220
6a058640-524a-11ea-b626-2bf59100eaf5,6a10895a-524a-11ea-b3b8-63b4a976cefa
6a0ebc9c-524a-11ea-8a41-3bf19145590c,6a1093d2-524a-11ea-a9cc-dbd44d848927
6a0eb7ba-524a-11ea-a8ca-3f398427aeb4,6a10ac5a-524a-11ea-9fb2-3f0f141c8834
6a074fd4-524a-11ea-a5dc-c30734af7419,6a10b9d4-524a-11ea-adef-53e152897b94
6a0a4fcc-524a-11ea-870b-5ff7715bf725,6a10c83e-524a-11ea-8aaf-d3f328f3b484
6a0ae8ec-524a-11ea-a4a9-b78caca376e8,6a10d996-524a-11ea-9be3-f7047df793f6
6a078ee0-524a-11ea-8e53-4b719f8a8fa7,6a10e45e-524a-11ea-a4fe-a7a8bcf60cfb
6a096300-524a-11ea-83e8-7f685cd1ec46,6a10f0a2-524a-11ea-ab93-8f65d4998b7b
6a07ea20-524a-11ea-abd5-c36162052861,6a10fd18-524a-11ea-98f4-73db2d2512c3
6a06a944-524a-11ea-adcd-1fc17f24a8c6,6a1107fe-524a-11ea-a307-5365969ebf3a
