RunID,Tick,AllAgents,Active,Inactive
run-2020-2-18-12-30-14.63471198,0,12,10,2
run-2020-2-18-12-30-14.63471198,1,13,10,3
run-2020-2-18-12-30-14.63471198,2,15,11,4
run-2020-2-18-12-30-14.63471198,3,17,11,6
run-2020-2-18-12-30-14.63471198,4,19,10,9
run-2020-2-18-12-30-14.63471198,5,24,13,11
run-2020-2-18-12-30-14.63471198,6,28,15,13
run-2020-2-18-12-30-14.63471198,7,30,13,17
run-2020-2-18-12-30-14.63471198,8,36,19,17
run-2020-2-18-12-30-14.63471198,9,42,21,21
run-2020-2-18-12-30-14.63471198,10,51,28,23
run-2020-2-18-12-30-14.63471198,11,56,29,27
run-2020-2-18-12-30-14.63471198,12,63,31,32
run-2020-2-18-12-30-14.63471198,13,69,32,37
run-2020-2-18-12-30-14.63471198,14,72,30,42
run-2020-2-18-12-30-14.63471198,15,75,27,48
run-2020-2-18-12-30-14.63471198,16,75,24,51
run-2020-2-18-12-30-14.63471198,17,79,26,53
run-2020-2-18-12-30-14.63471198,18,81,28,53
run-2020-2-18-12-30-14.63471198,19,83,29,54
run-2020-2-18-12-30-14.63471198,20,86,31,55
run-2020-2-18-12-30-14.63471198,21,86,30,56
run-2020-2-18-12-30-14.63471198,22,89,32,57
run-2020-2-18-12-30-14.63471198,23,90,31,59
run-2020-2-18-12-30-14.63471198,24,91,30,61
run-2020-2-18-12-30-14.63471198,25,92,28,64
run-2020-2-18-12-30-14.63471198,26,95,29,66
run-2020-2-18-12-30-14.63471198,27,100,33,67
run-2020-2-18-12-30-14.63471198,28,107,37,70
run-2020-2-18-12-30-14.63471198,29,110,38,72
run-2020-2-18-12-30-14.63471198,30,115,38,77
run-2020-2-18-12-30-14.63471198,31,118,39,79
run-2020-2-18-12-30-14.63471198,32,120,40,80
run-2020-2-18-12-30-14.63471198,33,121,38,83
run-2020-2-18-12-30-14.63471198,34,124,38,86
run-2020-2-18-12-30-14.63471198,35,129,42,87
run-2020-2-18-12-30-14.63471198,36,131,44,87
run-2020-2-18-12-30-14.63471198,37,133,42,91
run-2020-2-18-12-30-14.63471198,38,138,47,91
run-2020-2-18-12-30-14.63471198,39,143,50,93
run-2020-2-18-12-30-14.63471198,40,146,46,100
run-2020-2-18-12-30-14.63471198,41,152,50,102
run-2020-2-18-12-30-14.63471198,42,155,50,105
run-2020-2-18-12-30-14.63471198,43,155,46,109
run-2020-2-18-12-30-14.63471198,44,160,50,110
run-2020-2-18-12-30-14.63471198,45,161,49,112
run-2020-2-18-12-30-14.63471198,46,164,50,114
run-2020-2-18-12-30-14.63471198,47,166,49,117
run-2020-2-18-12-30-14.63471198,48,169,51,118
run-2020-2-18-12-30-14.63471198,49,174,55,119
run-2020-2-18-12-30-14.63471198,50,177,55,122
run-2020-2-18-12-30-14.63471198,51,180,54,126
run-2020-2-18-12-30-14.63471198,52,184,54,130
run-2020-2-18-12-30-14.63471198,53,187,52,135
run-2020-2-18-12-30-14.63471198,54,193,54,139
run-2020-2-18-12-30-14.63471198,55,196,53,143
run-2020-2-18-12-30-14.63471198,56,199,51,148
run-2020-2-18-12-30-14.63471198,57,205,52,153
run-2020-2-18-12-30-14.63471198,58,206,52,154
run-2020-2-18-12-30-14.63471198,59,211,53,158
run-2020-2-18-12-30-14.63471198,60,212,51,161
run-2020-2-18-12-30-14.63471198,61,219,53,166
run-2020-2-18-12-30-14.63471198,62,220,48,172
run-2020-2-18-12-30-14.63471198,63,222,46,176
run-2020-2-18-12-30-14.63471198,64,226,47,179
run-2020-2-18-12-30-14.63471198,65,231,49,182
run-2020-2-18-12-30-14.63471198,66,233,47,186
run-2020-2-18-12-30-14.63471198,67,240,52,188
run-2020-2-18-12-30-14.63471198,68,246,55,191
run-2020-2-18-12-30-14.63471198,69,248,53,195
run-2020-2-18-12-30-14.63471198,70,254,55,199
run-2020-2-18-12-30-14.63471198,71,255,48,207
run-2020-2-18-12-30-14.63471198,72,257,49,208
run-2020-2-18-12-30-14.63471198,73,267,53,214
run-2020-2-18-12-30-14.63471198,74,270,53,217
run-2020-2-18-12-30-14.63471198,75,271,52,219
run-2020-2-18-12-30-14.63471198,76,278,54,224
run-2020-2-18-12-30-14.63471198,77,281,53,228
run-2020-2-18-12-30-14.63471198,78,283,47,236
run-2020-2-18-12-30-14.63471198,79,291,49,242
run-2020-2-18-12-30-14.63471198,80,294,47,247
run-2020-2-18-12-30-14.63471198,81,295,45,250
run-2020-2-18-12-30-14.63471198,82,298,44,254
run-2020-2-18-12-30-14.63471198,83,303,44,259
run-2020-2-18-12-30-14.63471198,84,310,47,263
run-2020-2-18-12-30-14.63471198,85,314,48,266
run-2020-2-18-12-30-14.63471198,86,322,53,269
run-2020-2-18-12-30-14.63471198,87,330,59,271
run-2020-2-18-12-30-14.63471198,88,335,60,275
run-2020-2-18-12-30-14.63471198,89,336,55,281
run-2020-2-18-12-30-14.63471198,90,337,45,292
run-2020-2-18-12-30-14.63471198,91,342,44,298
run-2020-2-18-12-30-14.63471198,92,344,46,298
run-2020-2-18-12-30-14.63471198,93,352,53,299
run-2020-2-18-12-30-14.63471198,94,352,49,303
run-2020-2-18-12-30-14.63471198,95,353,47,306
run-2020-2-18-12-30-14.63471198,96,356,48,308
run-2020-2-18-12-30-14.63471198,97,358,46,312
run-2020-2-18-12-30-14.63471198,98,359,43,316
run-2020-2-18-12-30-14.63471198,99,360,41,319
