Source,Target
dff70608-5254-11ea-b3f5-4b51ca7cfd50,dff7c156-5254-11ea-89b7-bfdbca8ad223
dff72188-5254-11ea-aebd-8f6b80ce5c9a,dff7ca2a-5254-11ea-9e7a-1feb911984ce
dff5afc4-5254-11ea-bb5d-47d7729cab53,dff7dcae-5254-11ea-acca-bf0978c1eb3b
dff6e056-5254-11ea-9d64-5f7fc366d919,dff7fe82-5254-11ea-b1df-93f015f32f5c
dff72188-5254-11ea-aebd-8f6b80ce5c9a,dff7f874-5254-11ea-a30b-331240eb8d76
dff5624e-5254-11ea-a1be-93e10214a6a7,dff80c42-5254-11ea-9dd0-2be31487d77d
dff6b540-5254-11ea-90d7-b7eff434e420,dff8167e-5254-11ea-a938-e3ec97b8a2eb
dff70608-5254-11ea-b3f5-4b51ca7cfd50,dff82222-5254-11ea-8976-df33fe8e80e5
dff77908-5254-11ea-a68c-db02022f025b,dff8396a-5254-11ea-a7f1-7feae54e64d7
dff7b440-5254-11ea-b7c2-83544bd56eab,dff8440a-5254-11ea-90ea-1f43e79936a2
dff5b6cc-5254-11ea-88e9-93a472ee0522,dff84afe-5254-11ea-a74c-6b91470f19d0
dff5124e-5254-11ea-ad5c-d3b2dd0494e6,dff86282-5254-11ea-a8fd-9f631682243e
dff7ca2a-5254-11ea-9e7a-1feb911984ce,dff8693a-5254-11ea-85a2-a7135ddbebce
dff52b4e-5254-11ea-a7dd-9370ddfc051f,dff86f52-5254-11ea-98f2-57e1959b46b5
dff7c156-5254-11ea-89b7-bfdbca8ad223,dff87f1a-5254-11ea-afab-7fccb857c892
dff75126-5254-11ea-86cd-b38b6befff49,dff89248-5254-11ea-9fb9-dbace8f67dfb
dff79780-5254-11ea-b7e9-bb880a5f67eb,dff8a5bc-5254-11ea-963a-fffc84708399
dff4fd40-5254-11ea-9109-3b949d626675,dff8abfc-5254-11ea-a90c-b7bcabb71816
dff5966a-5254-11ea-b6e3-9f7a79448d42,dff8be26-5254-11ea-b1c1-0b6591c5f55e
dff89248-5254-11ea-9fb9-dbace8f67dfb,dff8c40c-5254-11ea-9837-cb131fb6663f
dff7b440-5254-11ea-b7c2-83544bd56eab,dff8d4ce-5254-11ea-bdec-7b91c5af3b9a
dff8c40c-5254-11ea-9837-cb131fb6663f,dff8dc80-5254-11ea-9793-1f53b2481354
dff8a5bc-5254-11ea-963a-fffc84708399,dff8eda6-5254-11ea-acbe-6b8d762c2e28
dff86f52-5254-11ea-98f2-57e1959b46b5,dff8fa80-5254-11ea-851a-5b524227aa8b
dff61a04-5254-11ea-9b9c-9713d85ed85a,dff90ab6-5254-11ea-b1d1-df372b89d77c
dff5d9f4-5254-11ea-b9ba-07e0156e1cee,dff9110a-5254-11ea-88ec-3f3419158869
dff75126-5254-11ea-86cd-b38b6befff49,dff91c90-5254-11ea-9edf-c3bed67ec9b4
dff84afe-5254-11ea-a74c-6b91470f19d0,dff92802-5254-11ea-b583-cfa29973ca3b
dff86282-5254-11ea-a8fd-9f631682243e,dff93a72-5254-11ea-98a0-0b69f9b18d9b
dff8396a-5254-11ea-a7f1-7feae54e64d7,dff940a8-5254-11ea-b02f-83696ac9eeb9
dff8440a-5254-11ea-90ea-1f43e79936a2,dff95098-5254-11ea-a36f-eba5fb169a64
dff6a1a4-5254-11ea-8140-8b078fd202cc,dff965ec-5254-11ea-a5f7-0701b66383bc
dff6c832-5254-11ea-a61a-7f873691b3a7,dff96fb0-5254-11ea-ba58-6f63fbde5e4a
dff70608-5254-11ea-b3f5-4b51ca7cfd50,dff97618-5254-11ea-a13e-7f703b5992e9
dff95098-5254-11ea-a36f-eba5fb169a64,dff980d6-5254-11ea-b237-c3ded72f8f31
dff6e056-5254-11ea-9d64-5f7fc366d919,dff98fa4-5254-11ea-a88a-a359dddb015f
dff70608-5254-11ea-b3f5-4b51ca7cfd50,dff9972e-5254-11ea-8dbb-f3e8fe2d6e54
dff713c8-5254-11ea-8db4-778c383f7e4c,dff9a336-5254-11ea-824c-4ba20f723138
dff87f1a-5254-11ea-afab-7fccb857c892,dff9adea-5254-11ea-9b87-3f16834f4dff
dff5624e-5254-11ea-a1be-93e10214a6a7,dff9dacc-5254-11ea-90dc-b7df444a2144
dff91c90-5254-11ea-9edf-c3bed67ec9b4,dff9d310-5254-11ea-83e7-e7bfb2f7f681
dff89248-5254-11ea-9fb9-dbace8f67dfb,dff9e4d6-5254-11ea-83b4-3ba3ff77c172
dff61a04-5254-11ea-9b9c-9713d85ed85a,dff9ed1e-5254-11ea-8dd8-8b1c22770204
dff96fb0-5254-11ea-ba58-6f63fbde5e4a,dff9fe08-5254-11ea-8fc6-33e69e3f6644
dff5d9f4-5254-11ea-b9ba-07e0156e1cee,dffa040c-5254-11ea-a753-ebdf7e69f4c4
dff9ed1e-5254-11ea-8dd8-8b1c22770204,dffa0cd6-5254-11ea-af42-035429e5e8c1
dff91c90-5254-11ea-9edf-c3bed67ec9b4,dffa1334-5254-11ea-8175-1be12e5269e5
dff5ec1e-5254-11ea-81f4-e73bab945fc2,dffa36d4-5254-11ea-a2e3-5bc09709e685
dff9110a-5254-11ea-88ec-3f3419158869,dffa3f94-5254-11ea-a86b-17ce8e0f72b4
dff8fa80-5254-11ea-851a-5b524227aa8b,dffa45d4-5254-11ea-a320-f70d77765fe9
dff5a934-5254-11ea-bd20-678bbb356a76,dffa4c78-5254-11ea-af24-4326067210a6
dff8d4ce-5254-11ea-bdec-7b91c5af3b9a,dffa614a-5254-11ea-ac2b-ff12df556ad8
dff57cfc-5254-11ea-8919-6b3cec19f917,dffa6744-5254-11ea-abc1-cbafce185e79
dffa4c78-5254-11ea-af24-4326067210a6,dffa719e-5254-11ea-910a-bb95414916dd
dff713c8-5254-11ea-8db4-778c383f7e4c,dffa7784-5254-11ea-9af0-5b79adad84af
dff72188-5254-11ea-aebd-8f6b80ce5c9a,dffa9566-5254-11ea-ba82-f7a8d4ece184
dff6edd0-5254-11ea-8be1-f708ef78ad41,dffaa2d6-5254-11ea-8f7c-bba0ad3c5f14
dff96fb0-5254-11ea-ba58-6f63fbde5e4a,dffaa8da-5254-11ea-8a29-a7d8ecc39617
dff79780-5254-11ea-b7e9-bb880a5f67eb,dffaaf4c-5254-11ea-98bb-3fe6c24ce8c1
dffa7784-5254-11ea-9af0-5b79adad84af,dffabb90-5254-11ea-9574-3f0b5b6d13c6
dff79780-5254-11ea-b7e9-bb880a5f67eb,dffac310-5254-11ea-96bc-2712aae7630f
dffa4c78-5254-11ea-af24-4326067210a6,dffaccd4-5254-11ea-a5df-af67975ffe9c
dff759d2-5254-11ea-b40f-57b6eb1c8d73,dffaddb4-5254-11ea-9546-27c574651499
dff93a72-5254-11ea-98a0-0b69f9b18d9b,dffaf63c-5254-11ea-b522-83ea116f7722
dff545d4-5254-11ea-a3f7-67f5aae3eeeb,dffb01c2-5254-11ea-a198-67a78f9a5759
dff86282-5254-11ea-a8fd-9f631682243e,dffb0d34-5254-11ea-be85-dfc36b0d4211
dff5124e-5254-11ea-ad5c-d3b2dd0494e6,dffb1748-5254-11ea-b74b-c3b05ba4f3df
dffaa8da-5254-11ea-8a29-a7d8ecc39617,dffb2274-5254-11ea-b062-7f789564ad0a
dffa6744-5254-11ea-abc1-cbafce185e79,dffb285a-5254-11ea-b9b7-3fe08b12611a
dff6cc4c-5254-11ea-9eb7-f7941cb268cd,dffb303e-5254-11ea-8a23-7b0b79d6e4cc
dff61a04-5254-11ea-9b9c-9713d85ed85a,dffb3976-5254-11ea-ae10-b3b8df726908
dffa1334-5254-11ea-8175-1be12e5269e5,dffb533e-5254-11ea-8632-0bb88a8bb1c3
dffaf63c-5254-11ea-b522-83ea116f7722,dffb5dc0-5254-11ea-8256-676eba9014c9
dffaaf4c-5254-11ea-98bb-3fe6c24ce8c1,dffb639c-5254-11ea-b061-f7b39e4eb8e7
dff759d2-5254-11ea-b40f-57b6eb1c8d73,dffb740e-5254-11ea-af68-2b18f9d72f3a
dff7a27a-5254-11ea-b4ad-536011d6ee7a,dffb7ee0-5254-11ea-b743-23ad754ca180
dff6e6a0-5254-11ea-9497-2b11e4e1b8dd,dffb8a2a-5254-11ea-a6de-974ceebfa9b4
dff628c8-5254-11ea-9df4-ffac986777d4,dffb95e2-5254-11ea-9517-874fe43d315a
dff6e056-5254-11ea-9d64-5f7fc366d919,dffbb6c6-5254-11ea-ad26-937908e40259
dff8440a-5254-11ea-90ea-1f43e79936a2,dffbc08a-5254-11ea-b25b-e76b522b8ae2
dff60f5a-5254-11ea-9dbe-47fdbb68bfa7,dffbc7b0-5254-11ea-9c47-6fade7caa29d
dff51d8e-5254-11ea-abd0-4bb086191161,dffbce36-5254-11ea-86e5-7b632904ef13
dff74578-5254-11ea-a296-a7406ee89e68,dffbda70-5254-11ea-8042-ff829c995e11
dff95098-5254-11ea-a36f-eba5fb169a64,dffbe524-5254-11ea-b0af-175f679cf333
dff82222-5254-11ea-8976-df33fe8e80e5,dffbebb4-5254-11ea-971f-37b4b24e55a7
dffbc7b0-5254-11ea-9c47-6fade7caa29d,dffbf258-5254-11ea-a2b3-73fc8e497b1d
dff6cc4c-5254-11ea-9eb7-f7941cb268cd,dffc168e-5254-11ea-9a2a-bb5855a3e4db
dff533c8-5254-11ea-9692-a312bd063710,dffc232c-5254-11ea-8383-3b1b80b657b4
dff6a1a4-5254-11ea-8140-8b078fd202cc,dffc289a-5254-11ea-b689-efd485bdab42
dff86f52-5254-11ea-98f2-57e1959b46b5,dffc3024-5254-11ea-b2b2-8bd4ad5356be
dff51d8e-5254-11ea-abd0-4bb086191161,dffc383a-5254-11ea-a8ef-bf999495c4d5
dff78cd6-5254-11ea-9072-6f931580c139,dffc42f8-5254-11ea-9988-8f68c3e87f25
dff628c8-5254-11ea-9df4-ffac986777d4,dffc499c-5254-11ea-9322-1b522f02a117
dff76b3e-5254-11ea-9598-cbd117afe673,dffc55d6-5254-11ea-a7fe-136e05f8f49a
