Source,Target
e0541960-5254-11ea-83ad-bb87e3597bcf,e0560d92-5254-11ea-afee-efb46fafd4e8
e0558ce6-5254-11ea-ac1d-13176fe64079,e0561cec-5254-11ea-8949-4fc1dc1d9fbe
e0543a58-5254-11ea-967d-93b43eb5aa77,e05630c4-5254-11ea-9371-3fff24786ec9
e05519f0-5254-11ea-bacd-0f290cee81bd,e0563fec-5254-11ea-86ea-331e1e60961f
e055249a-5254-11ea-aab8-f79a95a517a1,e0564a8c-5254-11ea-844f-37087723809d
e055a212-5254-11ea-a5ea-3b623a2a7164,e0565662-5254-11ea-bfe6-b361ade7f6f1
e0547a86-5254-11ea-a3bd-33469e711b67,e0566634-5254-11ea-bc96-bf92f7d100ff
e055ad5c-5254-11ea-8edc-4b5d7402a387,e05674ee-5254-11ea-8289-3fd40e6040d2
e054c432-5254-11ea-b98e-df06566637ac,e0567d90-5254-11ea-a632-77e1cd4d15c6
e0544eb2-5254-11ea-862d-f3bd80a8e3a5,e0566ee0-5254-11ea-b917-233640617f72
e05519f0-5254-11ea-bacd-0f290cee81bd,e056980c-5254-11ea-80cc-db9ee73b07ac
e0543a58-5254-11ea-967d-93b43eb5aa77,e056a162-5254-11ea-863c-cb08fca90e15
e055ad5c-5254-11ea-8edc-4b5d7402a387,e056abd0-5254-11ea-bab8-a38664bbafd1
e0560d92-5254-11ea-afee-efb46fafd4e8,e056b440-5254-11ea-af83-ab248e847a28
e055b1d0-5254-11ea-b101-5f1b9a8a4aa7,e056c3cc-5254-11ea-bdc7-5b237b30e29c
e053ee72-5254-11ea-951e-7bdb1e472861,e056cf20-5254-11ea-bb84-93a2933453f2
e0560d92-5254-11ea-afee-efb46fafd4e8,e056daf6-5254-11ea-adc3-a38c1853f65f
e0566ee0-5254-11ea-b917-233640617f72,e056de20-5254-11ea-b4d8-9378b9991278
e054f876-5254-11ea-9cc3-b3196798bc84,e056f6d0-5254-11ea-bdc4-bf1da56d3b4a
e056c3cc-5254-11ea-bdc7-5b237b30e29c,e0570274-5254-11ea-9671-b3ca9a93a12b
e053cdca-5254-11ea-bd5e-37e71d178c8b,e05710de-5254-11ea-ae23-93336b2b42b8
e054d472-5254-11ea-8ed5-bfdd4fd5066e,e05716a6-5254-11ea-9fa9-930f26386438
e056f6d0-5254-11ea-bdc4-bf1da56d3b4a,e0572056-5254-11ea-9d3a-f702ef289361
e056c3cc-5254-11ea-bdc7-5b237b30e29c,e0573122-5254-11ea-b5aa-cfada64a49d2
e055f55a-5254-11ea-8d8c-9f8c1af12a87,e0573f32-5254-11ea-a4ae-cf9fe9f4cb7e
e054bdfc-5254-11ea-913b-6b73a108c38b,e0574b6c-5254-11ea-9bdd-a36066b8c359
e0558ce6-5254-11ea-ac1d-13176fe64079,e05754ea-5254-11ea-aa53-6f2b52a8e559
e05545f6-5254-11ea-b5a7-437a6c9a8781,e05766ba-5254-11ea-8661-0b523c3db909
e0574b6c-5254-11ea-9bdd-a36066b8c359,e0576d86-5254-11ea-a4c8-1f2be268d895
e05545f6-5254-11ea-b5a7-437a6c9a8781,e0577c90-5254-11ea-9870-134c3f360268
e05563ec-5254-11ea-8bd8-d79481ee8317,e0578186-5254-11ea-aafa-2784013e2e98
e05377bc-5254-11ea-9f94-ab1018c26027,e057927a-5254-11ea-841e-1bb431bd39f9
e053e6ca-5254-11ea-ac64-136e9408e1dd,e0579b44-5254-11ea-bb89-e721fdaf21e7
e055fe4c-5254-11ea-92df-2b2bc158fdff,e057ab66-5254-11ea-8d83-4f776c099076
e0543a58-5254-11ea-967d-93b43eb5aa77,e057af44-5254-11ea-9b34-0b00b053c7b1
e056de20-5254-11ea-b4d8-9378b9991278,e057cd6c-5254-11ea-8630-d7da71199d14
e0547a86-5254-11ea-a3bd-33469e711b67,e057d578-5254-11ea-a4d6-2b55f23c6d4c
e053b236-5254-11ea-9bc7-43d98b5ccf97,e057de38-5254-11ea-8fa9-8f31272817d0
e053b196-5254-11ea-a756-73d23c424f21,e057e4e6-5254-11ea-9d79-8f430f377854
e0536452-5254-11ea-945d-270a3a2ef098,e057efa4-5254-11ea-aaa6-cf7180871ef6
e0577c90-5254-11ea-9870-134c3f360268,e057f6b6-5254-11ea-af89-1bcbc365393e
e057927a-5254-11ea-841e-1bb431bd39f9,e057ffee-5254-11ea-b080-6b52a9eca9c8
e056980c-5254-11ea-80cc-db9ee73b07ac,e0580ec6-5254-11ea-8fb5-d71fa845960b
e0565662-5254-11ea-bfe6-b361ade7f6f1,e0582f00-5254-11ea-b2e6-177b2deb1104
e054f876-5254-11ea-9cc3-b3196798bc84,e05836e4-5254-11ea-a1ec-672a27ecc0f1
e0553610-5254-11ea-a590-13eacd89665d,e05844fe-5254-11ea-9886-e79968e7ade1
e054c432-5254-11ea-b98e-df06566637ac,e0584f30-5254-11ea-a067-73b6f785b9c8
e05766ba-5254-11ea-8661-0b523c3db909,e0585796-5254-11ea-902e-171bd4069754
e055f55a-5254-11ea-8d8c-9f8c1af12a87,e05861be-5254-11ea-8f15-4bcc5520bf66
e0554e66-5254-11ea-9b57-474a1c52a082,e0586632-5254-11ea-ae00-3323b681719c
e057e4e6-5254-11ea-9d79-8f430f377854,e0587122-5254-11ea-8794-67cd1dae1910
e0563fec-5254-11ea-86ea-331e1e60961f,e05881ee-5254-11ea-ac12-ff5479ded858
e053b236-5254-11ea-9bc7-43d98b5ccf97,e058903a-5254-11ea-99de-c7fdca8f384d
e056daf6-5254-11ea-adc3-a38c1853f65f,e0589bca-5254-11ea-973f-4b935b8f5f9a
e0536452-5254-11ea-945d-270a3a2ef098,e058ab60-5254-11ea-9a46-271235059f8c
e053b236-5254-11ea-9bc7-43d98b5ccf97,e058b45c-5254-11ea-ac57-7b944533916c
e0570274-5254-11ea-9671-b3ca9a93a12b,e058c2bc-5254-11ea-8577-078642ee3cc4
e0582f00-5254-11ea-b2e6-177b2deb1104,e058cdc0-5254-11ea-b5a2-a3e121329f7f
e0572056-5254-11ea-9d3a-f702ef289361,e058d554-5254-11ea-9517-5f42d33a02b6
e057af44-5254-11ea-9b34-0b00b053c7b1,e058e79c-5254-11ea-a33f-1bd388282ea3
e0573122-5254-11ea-b5aa-cfada64a49d2,e058e832-5254-11ea-b32a-6b77f1c4c827
e055b1d0-5254-11ea-b101-5f1b9a8a4aa7,e058f5ac-5254-11ea-acc6-272db59f734a
e0557774-5254-11ea-bfbf-13c63d70ee6c,e058ff98-5254-11ea-a301-bb17fb260306
e054c432-5254-11ea-b98e-df06566637ac,e05916ea-5254-11ea-b14a-bb2a5454ac19
e056daf6-5254-11ea-adc3-a38c1853f65f,e0591de8-5254-11ea-8af3-b371b2f58b1d
e0587122-5254-11ea-8794-67cd1dae1910,e0592748-5254-11ea-890c-c343162b64e6
e05754ea-5254-11ea-aa53-6f2b52a8e559,e05930f8-5254-11ea-a5a5-f727be9e2510
e0540542-5254-11ea-8b0e-63686dc3070b,e0594084-5254-11ea-9de5-8343d5e34572
e054e3c2-5254-11ea-8c82-57d57862ebbf,e0594700-5254-11ea-86ac-5bf700cae7e3
e057927a-5254-11ea-841e-1bb431bd39f9,e0595ad8-5254-11ea-8ba7-67174f603787
e0543a58-5254-11ea-967d-93b43eb5aa77,e0595cc2-5254-11ea-8777-535b2f430104
e0553e44-5254-11ea-a06f-0f233acfe900,e0597388-5254-11ea-bef9-63525fc597e0
e054088a-5254-11ea-ac63-7f9a427bad76,e0598134-5254-11ea-bbf8-1ff5cf5a887d
e053ee72-5254-11ea-951e-7bdb1e472861,e0598792-5254-11ea-b16c-87ec23de9ebc
e05710de-5254-11ea-ae23-93336b2b42b8,e0598dfa-5254-11ea-8f05-23261d59e885
e05930f8-5254-11ea-a5a5-f727be9e2510,e0599c5a-5254-11ea-96b2-f39a4cc3225e
e0543a58-5254-11ea-967d-93b43eb5aa77,e059ace0-5254-11ea-b4ff-07b91a782875
e0595cc2-5254-11ea-8777-535b2f430104,e059b4ec-5254-11ea-8a5e-bf17f7b67f80
e053b196-5254-11ea-a756-73d23c424f21,e059bbea-5254-11ea-a298-0b45bbb24b06
e05766ba-5254-11ea-8661-0b523c3db909,e059cbe4-5254-11ea-a043-37b3b039d7a0
e058ab60-5254-11ea-9a46-271235059f8c,e059da12-5254-11ea-9dbc-474a45089d93
e05545f6-5254-11ea-b5a7-437a6c9a8781,e059ea02-5254-11ea-80f1-9ffc5078cc15
e054dbde-5254-11ea-8a81-0f1c41bf0c4b,e059f8f8-5254-11ea-aa9f-6b0411c9ed1a
e0585796-5254-11ea-902e-171bd4069754,e05a012c-5254-11ea-817a-43382d3d2fad
e05766ba-5254-11ea-8661-0b523c3db909,e05a0f00-5254-11ea-b8c6-375a557c12d4
e057af44-5254-11ea-9b34-0b00b053c7b1,e05a15e0-5254-11ea-9294-47e754111e0c
e056de20-5254-11ea-b4d8-9378b9991278,e05a1c98-5254-11ea-b141-0b87f6b696ba
e05881ee-5254-11ea-ac12-ff5479ded858,e05a28fa-5254-11ea-b066-574836447ee5
e0586632-5254-11ea-ae00-3323b681719c,e05a35de-5254-11ea-bc90-4b29ce2d70f6
e054d472-5254-11ea-8ed5-bfdd4fd5066e,e05a40ce-5254-11ea-ab36-63f180533b17
e0598134-5254-11ea-bbf8-1ff5cf5a887d,e05a5186-5254-11ea-aaa6-9b612dd763b3
e0553e44-5254-11ea-a06f-0f233acfe900,e05a5c76-5254-11ea-b59e-87d24f83bdce
e059da12-5254-11ea-9dbc-474a45089d93,e05a7472-5254-11ea-9792-47cb370730c0
e05519f0-5254-11ea-bacd-0f290cee81bd,e05a7bf2-5254-11ea-b44e-a76bf85b5249
e0548a94-5254-11ea-a886-ff2a4e531de7,e05a6e1e-5254-11ea-9b8a-d70c9e67acce
