RunID,Tick,AllAgents,Active,Inactive
run-2020-2-18-13-45-8.164403915,0,13,11,2
run-2020-2-18-13-45-8.164403915,1,15,8,7
run-2020-2-18-13-45-8.164403915,2,15,6,9
run-2020-2-18-13-45-8.164403915,3,21,12,9
run-2020-2-18-13-45-8.164403915,4,22,12,10
run-2020-2-18-13-45-8.164403915,5,23,13,10
run-2020-2-18-13-45-8.164403915,6,26,14,12
run-2020-2-18-13-45-8.164403915,7,35,22,13
run-2020-2-18-13-45-8.164403915,8,37,21,16
run-2020-2-18-13-45-8.164403915,9,40,23,17
run-2020-2-18-13-45-8.164403915,10,44,25,19
run-2020-2-18-13-45-8.164403915,11,48,27,21
run-2020-2-18-13-45-8.164403915,12,49,24,25
run-2020-2-18-13-45-8.164403915,13,50,23,27
run-2020-2-18-13-45-8.164403915,14,55,26,29
run-2020-2-18-13-45-8.164403915,15,56,26,30
run-2020-2-18-13-45-8.164403915,16,63,32,31
run-2020-2-18-13-45-8.164403915,17,66,32,34
run-2020-2-18-13-45-8.164403915,18,66,30,36
run-2020-2-18-13-45-8.164403915,19,73,35,38
run-2020-2-18-13-45-8.164403915,20,76,36,40
run-2020-2-18-13-45-8.164403915,21,78,34,44
run-2020-2-18-13-45-8.164403915,22,82,34,48
run-2020-2-18-13-45-8.164403915,23,84,32,52
run-2020-2-18-13-45-8.164403915,24,85,32,53
run-2020-2-18-13-45-8.164403915,25,92,38,54
run-2020-2-18-13-45-8.164403915,26,97,41,56
run-2020-2-18-13-45-8.164403915,27,102,45,57
run-2020-2-18-13-45-8.164403915,28,104,40,64
run-2020-2-18-13-45-8.164403915,29,106,39,67
run-2020-2-18-13-45-8.164403915,30,109,40,69
run-2020-2-18-13-45-8.164403915,31,111,39,72
run-2020-2-18-13-45-8.164403915,32,116,43,73
run-2020-2-18-13-45-8.164403915,33,120,44,76
run-2020-2-18-13-45-8.164403915,34,122,45,77
run-2020-2-18-13-45-8.164403915,35,127,49,78
run-2020-2-18-13-45-8.164403915,36,131,46,85
run-2020-2-18-13-45-8.164403915,37,135,46,89
run-2020-2-18-13-45-8.164403915,38,136,45,91
run-2020-2-18-13-45-8.164403915,39,140,46,94
run-2020-2-18-13-45-8.164403915,40,143,45,98
run-2020-2-18-13-45-8.164403915,41,145,45,100
run-2020-2-18-13-45-8.164403915,42,152,51,101
run-2020-2-18-13-45-8.164403915,43,157,54,103
run-2020-2-18-13-45-8.164403915,44,161,55,106
run-2020-2-18-13-45-8.164403915,45,166,56,110
run-2020-2-18-13-45-8.164403915,46,171,58,113
run-2020-2-18-13-45-8.164403915,47,175,55,120
run-2020-2-18-13-45-8.164403915,48,175,52,123
run-2020-2-18-13-45-8.164403915,49,177,53,124
run-2020-2-18-13-45-8.164403915,50,182,53,129
run-2020-2-18-13-45-8.164403915,51,188,59,129
run-2020-2-18-13-45-8.164403915,52,190,58,132
run-2020-2-18-13-45-8.164403915,53,194,56,138
run-2020-2-18-13-45-8.164403915,54,196,54,142
run-2020-2-18-13-45-8.164403915,55,200,54,146
run-2020-2-18-13-45-8.164403915,56,204,55,149
run-2020-2-18-13-45-8.164403915,57,204,48,156
run-2020-2-18-13-45-8.164403915,58,206,49,157
run-2020-2-18-13-45-8.164403915,59,210,47,163
run-2020-2-18-13-45-8.164403915,60,211,46,165
run-2020-2-18-13-45-8.164403915,61,214,44,170
run-2020-2-18-13-45-8.164403915,62,221,50,171
run-2020-2-18-13-45-8.164403915,63,225,51,174
run-2020-2-18-13-45-8.164403915,64,229,50,179
run-2020-2-18-13-45-8.164403915,65,236,51,185
run-2020-2-18-13-45-8.164403915,66,239,48,191
run-2020-2-18-13-45-8.164403915,67,244,47,197
run-2020-2-18-13-45-8.164403915,68,250,51,199
run-2020-2-18-13-45-8.164403915,69,252,46,206
run-2020-2-18-13-45-8.164403915,70,254,44,210
run-2020-2-18-13-45-8.164403915,71,257,45,212
run-2020-2-18-13-45-8.164403915,72,262,47,215
run-2020-2-18-13-45-8.164403915,73,265,48,217
run-2020-2-18-13-45-8.164403915,74,267,49,218
run-2020-2-18-13-45-8.164403915,75,270,47,223
run-2020-2-18-13-45-8.164403915,76,275,51,224
run-2020-2-18-13-45-8.164403915,77,277,50,227
run-2020-2-18-13-45-8.164403915,78,283,52,231
run-2020-2-18-13-45-8.164403915,79,287,54,233
run-2020-2-18-13-45-8.164403915,80,290,51,239
run-2020-2-18-13-45-8.164403915,81,292,51,241
run-2020-2-18-13-45-8.164403915,82,292,50,242
run-2020-2-18-13-45-8.164403915,83,298,55,243
run-2020-2-18-13-45-8.164403915,84,299,53,246
run-2020-2-18-13-45-8.164403915,85,301,52,249
run-2020-2-18-13-45-8.164403915,86,307,54,253
run-2020-2-18-13-45-8.164403915,87,313,52,261
run-2020-2-18-13-45-8.164403915,88,315,51,264
run-2020-2-18-13-45-8.164403915,89,317,49,268
run-2020-2-18-13-45-8.164403915,90,320,50,270
run-2020-2-18-13-45-8.164403915,91,322,50,272
run-2020-2-18-13-45-8.164403915,92,326,51,275
run-2020-2-18-13-45-8.164403915,93,331,53,278
run-2020-2-18-13-45-8.164403915,94,334,53,281
run-2020-2-18-13-45-8.164403915,95,341,59,282
run-2020-2-18-13-45-8.164403915,96,342,55,287
run-2020-2-18-13-45-8.164403915,97,348,58,290
run-2020-2-18-13-45-8.164403915,98,355,59,296
run-2020-2-18-13-45-8.164403915,99,356,56,300
