RunID,Tick,AllAgents,Active,Inactive
run-2020-2-28-10-26-16.401443958,0,16,12,4
run-2020-2-28-10-26-16.401443958,1,21,13,8
run-2020-2-28-10-26-16.401443958,2,24,14,10
run-2020-2-28-10-26-16.401443958,3,25,10,15
run-2020-2-28-10-26-16.401443958,4,29,10,19
run-2020-2-28-10-26-16.401443958,5,34,14,20
run-2020-2-28-10-26-16.401443958,6,38,15,23
run-2020-2-28-10-26-16.401443958,7,40,12,28
run-2020-2-28-10-26-16.401443958,8,44,15,29
run-2020-2-28-10-26-16.401443958,9,48,19,29
run-2020-2-28-10-26-16.401443958,10,52,19,33
run-2020-2-28-10-26-16.401443958,11,56,23,33
run-2020-2-28-10-26-16.401443958,12,62,27,35
run-2020-2-28-10-26-16.401443958,13,64,27,37
run-2020-2-28-10-26-16.401443958,14,66,25,41
run-2020-2-28-10-26-16.401443958,15,68,25,43
run-2020-2-28-10-26-16.401443958,16,73,27,46
run-2020-2-28-10-26-16.401443958,17,79,29,50
run-2020-2-28-10-26-16.401443958,18,80,28,52
run-2020-2-28-10-26-16.401443958,19,83,26,57
run-2020-2-28-10-26-16.401443958,20,90,32,58
run-2020-2-28-10-26-16.401443958,21,96,35,61
run-2020-2-28-10-26-16.401443958,22,101,39,62
run-2020-2-28-10-26-16.401443958,23,102,37,65
run-2020-2-28-10-26-16.401443958,24,106,34,72
run-2020-2-28-10-26-16.401443958,25,109,35,74
run-2020-2-28-10-26-16.401443958,26,115,38,77
run-2020-2-28-10-26-16.401443958,27,115,37,78
run-2020-2-28-10-26-16.401443958,28,117,39,78
run-2020-2-28-10-26-16.401443958,29,123,44,79
run-2020-2-28-10-26-16.401443958,30,129,47,82
run-2020-2-28-10-26-16.401443958,31,130,46,84
run-2020-2-28-10-26-16.401443958,32,131,47,84
run-2020-2-28-10-26-16.401443958,33,134,50,84
run-2020-2-28-10-26-16.401443958,34,141,56,85
run-2020-2-28-10-26-16.401443958,35,148,58,90
run-2020-2-28-10-26-16.401443958,36,152,59,93
run-2020-2-28-10-26-16.401443958,37,153,54,99
run-2020-2-28-10-26-16.401443958,38,156,54,102
run-2020-2-28-10-26-16.401443958,39,160,57,103
run-2020-2-28-10-26-16.401443958,40,162,56,106
run-2020-2-28-10-26-16.401443958,41,165,58,107
run-2020-2-28-10-26-16.401443958,42,167,56,111
run-2020-2-28-10-26-16.401443958,43,174,62,112
run-2020-2-28-10-26-16.401443958,44,178,64,114
run-2020-2-28-10-26-16.401443958,45,179,61,118
run-2020-2-28-10-26-16.401443958,46,183,59,124
run-2020-2-28-10-26-16.401443958,47,185,57,128
run-2020-2-28-10-26-16.401443958,48,187,57,130
run-2020-2-28-10-26-16.401443958,49,191,58,133
run-2020-2-28-10-26-16.401443958,50,193,58,135
run-2020-2-28-10-26-16.401443958,51,198,59,139
run-2020-2-28-10-26-16.401443958,52,199,58,141
run-2020-2-28-10-26-16.401443958,53,202,56,146
run-2020-2-28-10-26-16.401443958,54,204,53,151
run-2020-2-28-10-26-16.401443958,55,204,52,152
run-2020-2-28-10-26-16.401443958,56,208,52,156
run-2020-2-28-10-26-16.401443958,57,212,49,163
run-2020-2-28-10-26-16.401443958,58,212,47,165
run-2020-2-28-10-26-16.401443958,59,217,49,168
run-2020-2-28-10-26-16.401443958,60,220,50,170
run-2020-2-28-10-26-16.401443958,61,221,48,173
run-2020-2-28-10-26-16.401443958,62,223,44,179
run-2020-2-28-10-26-16.401443958,63,227,48,179
run-2020-2-28-10-26-16.401443958,64,232,50,182
run-2020-2-28-10-26-16.401443958,65,236,52,184
run-2020-2-28-10-26-16.401443958,66,238,48,190
run-2020-2-28-10-26-16.401443958,67,243,49,194
run-2020-2-28-10-26-16.401443958,68,245,47,198
run-2020-2-28-10-26-16.401443958,69,248,48,200
run-2020-2-28-10-26-16.401443958,70,252,49,203
run-2020-2-28-10-26-16.401443958,71,253,47,206
run-2020-2-28-10-26-16.401443958,72,257,47,210
run-2020-2-28-10-26-16.401443958,73,261,48,213
run-2020-2-28-10-26-16.401443958,74,262,47,215
run-2020-2-28-10-26-16.401443958,75,266,47,219
run-2020-2-28-10-26-16.401443958,76,271,50,221
run-2020-2-28-10-26-16.401443958,77,272,47,225
run-2020-2-28-10-26-16.401443958,78,278,52,226
run-2020-2-28-10-26-16.401443958,79,281,51,230
run-2020-2-28-10-26-16.401443958,80,284,51,233
run-2020-2-28-10-26-16.401443958,81,286,49,237
run-2020-2-28-10-26-16.401443958,82,292,52,240
run-2020-2-28-10-26-16.401443958,83,295,52,243
run-2020-2-28-10-26-16.401443958,84,297,52,245
run-2020-2-28-10-26-16.401443958,85,302,55,247
run-2020-2-28-10-26-16.401443958,86,305,53,252
run-2020-2-28-10-26-16.401443958,87,307,52,255
run-2020-2-28-10-26-16.401443958,88,307,48,259
run-2020-2-28-10-26-16.401443958,89,311,49,262
run-2020-2-28-10-26-16.401443958,90,315,53,262
run-2020-2-28-10-26-16.401443958,91,315,51,264
run-2020-2-28-10-26-16.401443958,92,321,56,265
run-2020-2-28-10-26-16.401443958,93,327,57,270
run-2020-2-28-10-26-16.401443958,94,331,59,272
run-2020-2-28-10-26-16.401443958,95,333,58,275
run-2020-2-28-10-26-16.401443958,96,335,56,279
run-2020-2-28-10-26-16.401443958,97,342,57,285
run-2020-2-28-10-26-16.401443958,98,347,57,290
run-2020-2-28-10-26-16.401443958,99,348,56,292
