RunID,Agent,Age,Created,Inactive,Resources,Reputation,Ability,Que
run-2020-7-14-14-3-18.290033102,AGENTc88de0a0-c5da-11ea-b2bf-4795f7308799,0,100,100,10,1.0,0.3,0
run-2020-7-14-14-3-18.290033102,AGENTc88e39ba-c5da-11ea-ae05-ab40eb44cfe4,0,100,100,10,1.0,0.3,0
run-2020-7-14-14-3-18.290033102,AGENTc8921210-c5da-11ea-92e4-0370aa5b27b0,0,100,100,10,1.0,0.3,0
run-2020-7-14-14-3-18.290033102,AGENTc892be9a-c5da-11ea-a399-e799a4075d86,0,100,100,10,1.0,0.9,0
