run-2020-7-14-14-3-18.290033102,0,20
run-2020-7-14-14-3-18.290033102,1,22
run-2020-7-14-14-3-18.290033102,2,22
run-2020-7-14-14-3-18.290033102,3,4
run-2020-7-14-14-3-18.290033102,4,7
run-2020-7-14-14-3-18.290033102,5,2
run-2020-7-14-14-3-18.290033102,6,2
run-2020-7-14-14-3-18.290033102,7,0
run-2020-7-14-14-3-18.290033102,8,0
run-2020-7-14-14-3-18.290033102,9,0
run-2020-7-14-14-3-18.290033102,10,0
run-2020-7-14-14-3-18.290033102,11,1
run-2020-7-14-14-3-18.290033102,12,0
run-2020-7-14-14-3-18.290033102,13,0
run-2020-7-14-14-3-18.290033102,14,0
run-2020-7-14-14-3-18.290033102,15,0
run-2020-7-14-14-3-18.290033102,16,0
run-2020-7-14-14-3-18.290033102,17,0
run-2020-7-14-14-3-18.290033102,18,0
run-2020-7-14-14-3-18.290033102,19,0
run-2020-7-14-14-3-18.290033102,20,0
run-2020-7-14-14-3-18.290033102,21,0
run-2020-7-14-14-3-18.290033102,22,0
run-2020-7-14-14-3-18.290033102,23,0
run-2020-7-14-14-3-18.290033102,24,0
run-2020-7-14-14-3-18.290033102,25,0
run-2020-7-14-14-3-18.290033102,26,0
run-2020-7-14-14-3-18.290033102,27,0
run-2020-7-14-14-3-18.290033102,28,0
run-2020-7-14-14-3-18.290033102,29,0
run-2020-7-14-14-3-18.290033102,30,0
run-2020-7-14-14-3-18.290033102,31,0
run-2020-7-14-14-3-18.290033102,32,0
run-2020-7-14-14-3-18.290033102,33,0
run-2020-7-14-14-3-18.290033102,34,0
run-2020-7-14-14-3-18.290033102,35,0
run-2020-7-14-14-3-18.290033102,36,0
run-2020-7-14-14-3-18.290033102,37,0
run-2020-7-14-14-3-18.290033102,38,0
run-2020-7-14-14-3-18.290033102,39,0
run-2020-7-14-14-3-18.290033102,40,0
run-2020-7-14-14-3-18.290033102,41,0
run-2020-7-14-14-3-18.290033102,42,0
run-2020-7-14-14-3-18.290033102,43,0
run-2020-7-14-14-3-18.290033102,44,0
run-2020-7-14-14-3-18.290033102,45,0
run-2020-7-14-14-3-18.290033102,46,0
run-2020-7-14-14-3-18.290033102,47,0
run-2020-7-14-14-3-18.290033102,48,0
run-2020-7-14-14-3-18.290033102,49,0
run-2020-7-14-14-3-18.290033102,50,0
run-2020-7-14-14-3-18.290033102,51,0
run-2020-7-14-14-3-18.290033102,52,0
run-2020-7-14-14-3-18.290033102,53,0
run-2020-7-14-14-3-18.290033102,54,0
run-2020-7-14-14-3-18.290033102,55,0
run-2020-7-14-14-3-18.290033102,56,0
run-2020-7-14-14-3-18.290033102,57,0
run-2020-7-14-14-3-18.290033102,58,0
run-2020-7-14-14-3-18.290033102,59,0
run-2020-7-14-14-3-18.290033102,60,0
run-2020-7-14-14-3-18.290033102,61,0
run-2020-7-14-14-3-18.290033102,62,0
run-2020-7-14-14-3-18.290033102,63,0
run-2020-7-14-14-3-18.290033102,64,0
run-2020-7-14-14-3-18.290033102,65,0
run-2020-7-14-14-3-18.290033102,66,0
run-2020-7-14-14-3-18.290033102,67,0
run-2020-7-14-14-3-18.290033102,68,0
run-2020-7-14-14-3-18.290033102,69,0
run-2020-7-14-14-3-18.290033102,70,0
run-2020-7-14-14-3-18.290033102,71,0
run-2020-7-14-14-3-18.290033102,72,0
run-2020-7-14-14-3-18.290033102,73,0
run-2020-7-14-14-3-18.290033102,74,0
run-2020-7-14-14-3-18.290033102,75,0
run-2020-7-14-14-3-18.290033102,76,0
run-2020-7-14-14-3-18.290033102,77,0
run-2020-7-14-14-3-18.290033102,78,0
run-2020-7-14-14-3-18.290033102,79,0
run-2020-7-14-14-3-18.290033102,80,0
run-2020-7-14-14-3-18.290033102,81,0
run-2020-7-14-14-3-18.290033102,82,0
run-2020-7-14-14-3-18.290033102,83,0
run-2020-7-14-14-3-18.290033102,84,0
run-2020-7-14-14-3-18.290033102,85,0
run-2020-7-14-14-3-18.290033102,86,0
run-2020-7-14-14-3-18.290033102,87,0
run-2020-7-14-14-3-18.290033102,88,0
run-2020-7-14-14-3-18.290033102,89,0
run-2020-7-14-14-3-18.290033102,90,0
run-2020-7-14-14-3-18.290033102,91,0
run-2020-7-14-14-3-18.290033102,92,0
run-2020-7-14-14-3-18.290033102,93,0
run-2020-7-14-14-3-18.290033102,94,0
run-2020-7-14-14-3-18.290033102,95,0
run-2020-7-14-14-3-18.290033102,96,0
run-2020-7-14-14-3-18.290033102,97,0
run-2020-7-14-14-3-18.290033102,98,0
run-2020-7-14-14-3-18.290033102,99,0
run-2020-7-14-14-3-18.290033102,100,0
run-2020-7-14-14-3-18.290033102,101,0
