RunID,Tick,ActiveAgentsPerTick
run-2020-2-28-11-12-45.310568094,0,11
run-2020-2-28-11-12-45.310568094,1,12
run-2020-2-28-11-12-45.310568094,2,13
run-2020-2-28-11-12-45.310568094,3,15
run-2020-2-28-11-12-45.310568094,4,12
run-2020-2-28-11-12-45.310568094,5,14
run-2020-2-28-11-12-45.310568094,6,15
run-2020-2-28-11-12-45.310568094,7,21
run-2020-2-28-11-12-45.310568094,8,22
run-2020-2-28-11-12-45.310568094,9,19
run-2020-2-28-11-12-45.310568094,10,21
run-2020-2-28-11-12-45.310568094,11,28
run-2020-2-28-11-12-45.310568094,12,30
run-2020-2-28-11-12-45.310568094,13,31
run-2020-2-28-11-12-45.310568094,14,31
run-2020-2-28-11-12-45.310568094,15,28
run-2020-2-28-11-12-45.310568094,16,27
run-2020-2-28-11-12-45.310568094,17,26
run-2020-2-28-11-12-45.310568094,18,28
run-2020-2-28-11-12-45.310568094,19,33
run-2020-2-28-11-12-45.310568094,20,30
run-2020-2-28-11-12-45.310568094,21,30
run-2020-2-28-11-12-45.310568094,22,29
run-2020-2-28-11-12-45.310568094,23,32
run-2020-2-28-11-12-45.310568094,24,33
run-2020-2-28-11-12-45.310568094,25,36
run-2020-2-28-11-12-45.310568094,26,40
run-2020-2-28-11-12-45.310568094,27,38
run-2020-2-28-11-12-45.310568094,28,40
run-2020-2-28-11-12-45.310568094,29,41
run-2020-2-28-11-12-45.310568094,30,44
run-2020-2-28-11-12-45.310568094,31,43
run-2020-2-28-11-12-45.310568094,32,44
run-2020-2-28-11-12-45.310568094,33,43
run-2020-2-28-11-12-45.310568094,34,40
run-2020-2-28-11-12-45.310568094,35,40
run-2020-2-28-11-12-45.310568094,36,39
run-2020-2-28-11-12-45.310568094,37,44
run-2020-2-28-11-12-45.310568094,38,45
run-2020-2-28-11-12-45.310568094,39,44
run-2020-2-28-11-12-45.310568094,40,44
run-2020-2-28-11-12-45.310568094,41,43
run-2020-2-28-11-12-45.310568094,42,45
run-2020-2-28-11-12-45.310568094,43,46
run-2020-2-28-11-12-45.310568094,44,49
run-2020-2-28-11-12-45.310568094,45,49
run-2020-2-28-11-12-45.310568094,46,45
run-2020-2-28-11-12-45.310568094,47,45
run-2020-2-28-11-12-45.310568094,48,46
run-2020-2-28-11-12-45.310568094,49,52
run-2020-2-28-11-12-45.310568094,50,52
run-2020-2-28-11-12-45.310568094,51,52
run-2020-2-28-11-12-45.310568094,52,48
run-2020-2-28-11-12-45.310568094,53,43
run-2020-2-28-11-12-45.310568094,54,42
run-2020-2-28-11-12-45.310568094,55,42
run-2020-2-28-11-12-45.310568094,56,47
run-2020-2-28-11-12-45.310568094,57,51
run-2020-2-28-11-12-45.310568094,58,53
run-2020-2-28-11-12-45.310568094,59,47
run-2020-2-28-11-12-45.310568094,60,47
run-2020-2-28-11-12-45.310568094,61,46
run-2020-2-28-11-12-45.310568094,62,46
run-2020-2-28-11-12-45.310568094,63,43
run-2020-2-28-11-12-45.310568094,64,44
run-2020-2-28-11-12-45.310568094,65,45
run-2020-2-28-11-12-45.310568094,66,46
run-2020-2-28-11-12-45.310568094,67,49
run-2020-2-28-11-12-45.310568094,68,52
run-2020-2-28-11-12-45.310568094,69,53
run-2020-2-28-11-12-45.310568094,70,51
run-2020-2-28-11-12-45.310568094,71,48
run-2020-2-28-11-12-45.310568094,72,46
run-2020-2-28-11-12-45.310568094,73,44
run-2020-2-28-11-12-45.310568094,74,45
run-2020-2-28-11-12-45.310568094,75,44
run-2020-2-28-11-12-45.310568094,76,44
run-2020-2-28-11-12-45.310568094,77,44
run-2020-2-28-11-12-45.310568094,78,43
run-2020-2-28-11-12-45.310568094,79,45
run-2020-2-28-11-12-45.310568094,80,51
run-2020-2-28-11-12-45.310568094,81,54
run-2020-2-28-11-12-45.310568094,82,52
run-2020-2-28-11-12-45.310568094,83,49
run-2020-2-28-11-12-45.310568094,84,47
run-2020-2-28-11-12-45.310568094,85,47
run-2020-2-28-11-12-45.310568094,86,50
run-2020-2-28-11-12-45.310568094,87,51
run-2020-2-28-11-12-45.310568094,88,51
run-2020-2-28-11-12-45.310568094,89,48
run-2020-2-28-11-12-45.310568094,90,47
run-2020-2-28-11-12-45.310568094,91,44
run-2020-2-28-11-12-45.310568094,92,46
run-2020-2-28-11-12-45.310568094,93,52
run-2020-2-28-11-12-45.310568094,94,52
run-2020-2-28-11-12-45.310568094,95,55
run-2020-2-28-11-12-45.310568094,96,59
run-2020-2-28-11-12-45.310568094,97,57
run-2020-2-28-11-12-45.310568094,98,57
run-2020-2-28-11-12-45.310568094,99,54
run-2020-2-28-11-12-45.310568094,100,51
