Tick,AgentsPerTick
1,11
2,10
3,10
4,10
5,8
6,7
7,10
8,13
9,15
10,17
11,19
12,22
13,22
14,22
15,21
16,20
17,19
18,18
19,15
20,14
21,17
22,15
23,15
24,16
25,14
26,10
27,8
28,7
29,10
30,11
31,10
32,12
33,14
34,10
35,9
36,11
37,9
38,15
39,14
40,14
41,13
42,12
43,9
44,9
45,9
46,10
47,9
48,9
49,9
50,8
51,12
52,10
53,7
54,8
55,7
56,8
57,9
58,14
59,10
60,14
61,10
62,10
63,10
64,10
65,11
66,10
67,9
68,7
69,7
70,8
71,10
72,12
73,12
74,13
75,10
76,7
77,11
78,14
79,15
80,13
81,13
82,6
83,11
84,8
85,10
86,8
87,11
88,15
89,13
90,12
91,13
92,17
93,14
94,15
95,9
96,11
97,11
98,12
99,12
100,12
101,9
102,8
103,7
