Source,Target
LAWd649954c-baac-11ea-b160-53f6000a9f18,LAWd64ab4c2-baac-11ea-aef5-0720239c966e
LAWd64a3b50-baac-11ea-8819-37ed14360220,LAWd64ab2b0-baac-11ea-a4b9-234e12a72e4b
LAWd649fd5c-baac-11ea-a8bc-8f1e5db7db0b,LAWd64b0080-baac-11ea-bcde-275066ac1b8b
LAWd64ab4c2-baac-11ea-aef5-0720239c966e,LAWd64b0120-baac-11ea-aa94-3f8338cb0de7
LAWd649f5b4-baac-11ea-99d8-573a450a41ef,LAWd64ac0ca-baac-11ea-b25b-9f02e84d8373
LAWd64a3aa6-baac-11ea-a888-7f6a24d84984,LAWd64ab76a-baac-11ea-ba9b-3305c22e4237
LAWd64a2f7a-baac-11ea-be73-e725a110a990,LAWd64b0a9e-baac-11ea-aa82-8b7631348e7f
LAWd64a3b50-baac-11ea-8819-37ed14360220,LAWd64b0abc-baac-11ea-b94f-7f4d017bdeb7
LAWd64a2f7a-baac-11ea-be73-e725a110a990,LAWd64b0b3e-baac-11ea-85c2-c756acb314c7
LAWd64b0120-baac-11ea-aa94-3f8338cb0de7,LAWd64ab9ea-baac-11ea-b6b7-6399deb0f10d
LAWd64a3a92-baac-11ea-b5ee-ab3edd8ff313,LAWd64aba94-baac-11ea-8103-57481bfc733c
LAWd649f71c-baac-11ea-8a2b-bf736e6e2da9,LAWd64b1340-baac-11ea-8efb-37e2a53a1d5c
LAWd64a3a92-baac-11ea-b5ee-ab3edd8ff313,LAWd64b144e-baac-11ea-bbdd-cf50b0256647
LAWd64a3aa6-baac-11ea-a888-7f6a24d84984,LAWd64b1480-baac-11ea-8860-d79518486f91
LAWd64b0080-baac-11ea-bcde-275066ac1b8b,LAWd64b150c-baac-11ea-b9fb-1b4ab8efd60d
LAWd649f85c-baac-11ea-b0f5-73c14bb512ac,LAWd64ab6de-baac-11ea-97a2-3bff7fa3ef13
LAWd649f5b4-baac-11ea-99d8-573a450a41ef,LAWd64b088c-baac-11ea-a836-837b65db0bbf
LAWd64a3a92-baac-11ea-b5ee-ab3edd8ff313,LAWd64b18fe-baac-11ea-8b82-ef044d2b8ad2
LAWd649fd5c-baac-11ea-a8bc-8f1e5db7db0b,LAWd64b1df4-baac-11ea-98c4-f7994e21f0a7
LAWd64b1480-baac-11ea-8860-d79518486f91,LAWd64b1e30-baac-11ea-be43-331fec9663e1
LAWd64b0120-baac-11ea-aa94-3f8338cb0de7,LAWd64b1f34-baac-11ea-98e6-d351f353cc58
LAWd64995b0-baac-11ea-9f62-c755d9c74ff0,LAWd64b1f2a-baac-11ea-887f-3b4fb7d7c0b7
LAWd64b144e-baac-11ea-bbdd-cf50b0256647,LAWd64b2006-baac-11ea-a540-e32d57e9c1b0
LAWd64b18fe-baac-11ea-8b82-ef044d2b8ad2,LAWd64b2092-baac-11ea-9409-9b62347e147c
LAWd64b150c-baac-11ea-b9fb-1b4ab8efd60d,LAWd64b22e0-baac-11ea-a88f-9f805a3a34ac
LAWd649954c-baac-11ea-b160-53f6000a9f18,LAWd64abc74-baac-11ea-a2a1-b367c5938b10
LAWd64a2f7a-baac-11ea-be73-e725a110a990,LAWd64b28da-baac-11ea-a121-530bea7c5de3
LAWd64a2b92-baac-11ea-b3c5-375b0e903545,LAWd64b292a-baac-11ea-a5cc-9786e0189973
LAWd649f85c-baac-11ea-b0f5-73c14bb512ac,LAWd64b29b6-baac-11ea-9c75-1b44f07255f8
LAWd64a3a92-baac-11ea-b5ee-ab3edd8ff313,LAWd64b2a9c-baac-11ea-91c8-5b9942b68714
LAWd64a3aa6-baac-11ea-a888-7f6a24d84984,LAWd64b28da-baac-11ea-b71a-0b56f31fef0e
LAWd64a3a92-baac-11ea-b5ee-ab3edd8ff313,LAWd64b2c18-baac-11ea-abd0-4b67ed2c5a89
LAWd649f85c-baac-11ea-b0f5-73c14bb512ac,LAWd64b2b78-baac-11ea-bc3b-ef2777df0107
LAWd64b292a-baac-11ea-a5cc-9786e0189973,LAWd64b2f06-baac-11ea-9fda-1f65b68c9d12
LAWd64b0abc-baac-11ea-b94f-7f4d017bdeb7,LAWd64b32bc-baac-11ea-a8ae-0fe2f26abb10
LAWd64ab9ea-baac-11ea-b6b7-6399deb0f10d,LAWd64b32bc-baac-11ea-9898-5bbf9e591820
LAWd64a3aa6-baac-11ea-a888-7f6a24d84984,LAWd64b342e-baac-11ea-bbfd-7f0c6eb98c50
LAWd64b1480-baac-11ea-8860-d79518486f91,LAWd64b35a0-baac-11ea-951e-c3430be596ad
LAWd64b2b78-baac-11ea-bc3b-ef2777df0107,LAWd64b35a0-baac-11ea-8069-ef7fe9837cec
LAWd64aba94-baac-11ea-8103-57481bfc733c,LAWd64b353c-baac-11ea-9a72-cf5fbe62b27e
