RunID,Agent,Age,Created,Inactive,Resources,Reputation,Ability,Que
run-2020-2-19-15-37-14.807482957,AGENT#b48752c8-532d-11ea-a75b-b72c11fa6ac4,0,0,0,10,1.0,1.0,0
run-2020-2-19-15-37-14.807482957,AGENT#b4874058-532d-11ea-bcf1-cf4ce65dd0c7,1,0,1,10,1.0,1.0,0
run-2020-2-19-15-37-14.807482957,AGENT#b48758a4-532d-11ea-9cd7-e3b9b7f12ea3,1,0,1,10,1.0,1.0,0
run-2020-2-19-15-37-14.807482957,AGENT#b4873d1a-532d-11ea-b70d-dbdc8359b46d,2,0,2,10,1.0,1.0,0
run-2020-2-19-15-37-14.807482957,AGENT#b4874e68-532d-11ea-a767-ffd77f0dee72,2,0,2,10,1.0,1.0,0
run-2020-2-19-15-37-14.807482957,AGENT#b4875b42-532d-11ea-bf40-73c74ccfa004,2,0,2,10,1.0,1.0,0
run-2020-2-19-15-37-14.807482957,AGENT#b4879d64-532d-11ea-8fc9-c3ba1e944bce,2,0,2,10,1.0,1.0,0
run-2020-2-19-15-37-14.807482957,AGENT#b49806d6-532d-11ea-9859-031f77c32dca,1,1,2,10,1.0,1.0,0
run-2020-2-19-15-37-14.807482957,AGENT#b487954e-532d-11ea-8470-b39284fcf35d,3,0,3,10,1.0,1.0,0
run-2020-2-19-15-37-14.807482957,AGENT#b4879ac6-532d-11ea-92f8-afd49f2c6f95,3,0,3,10,1.0,1.0,0
run-2020-2-19-15-37-14.807482957,AGENT#b487a57a-532d-11ea-b9d4-bf863c65e785,3,0,3,10,1.0,1.0,0
run-2020-2-19-15-37-14.807482957,AGENT#b49bc744-532d-11ea-954a-cfece2589a4a,1,2,3,10,1.0,1.0,0
run-2020-2-19-15-37-14.807482957,AGENT#b487a2c8-532d-11ea-bbf3-4fceb119d68f,4,0,4,10,1.0,1.0,0
run-2020-2-19-15-37-14.807482957,AGENT#b487430a-532d-11ea-b110-2f2de465163f,5,0,5,10,1.0,1.0,0
run-2020-2-19-15-37-14.807482957,AGENT#b49bcf1e-532d-11ea-9cc0-8fe887b6f058,3,2,5,10,1.0,1.0,0
run-2020-2-19-15-37-14.807482957,AGENT#b49c33f0-532d-11ea-a5e5-6359e8fd316d,2,3,5,10,1.0,1.0,0
run-2020-2-19-15-37-14.807482957,AGENT#b49c982c-532d-11ea-ad87-6b5ec8d616f5,1,4,5,10,1.0,1.0,0
run-2020-2-19-15-37-14.807482957,AGENT#b49c9dd6-532d-11ea-a918-674bf8074702,1,4,5,10,1.0,1.0,0
run-2020-2-19-15-37-14.807482957,AGENT#b4980a1e-532d-11ea-b9ca-ff341ca30228,5,1,6,10,1.0,1.0,0
run-2020-2-19-15-37-14.807482957,AGENT#b49bccbc-532d-11ea-874e-4f3564753dd4,4,2,6,10,1.0,1.0,0
run-2020-2-19-15-37-14.807482957,AGENT#b49c9b06-532d-11ea-8387-03e38b9831b4,2,4,6,10,1.0,1.0,0
run-2020-2-19-15-37-14.807482957,AGENT#b49ca02e-532d-11ea-87d9-03ccbbf839dd,2,4,6,10,1.0,1.0,0
run-2020-2-19-15-37-14.807482957,AGENT#b49d0726-532d-11ea-8114-7f1c352708bb,1,5,6,10,1.0,1.0,0
run-2020-2-19-15-37-14.807482957,AGENT#b49c2c8e-532d-11ea-bc42-236550f47dd2,4,3,7,10,1.0,1.0,0
run-2020-2-19-15-37-14.807482957,AGENT#b49c2f04-532d-11ea-8de3-abd0767c158d,4,3,7,10,1.0,1.0,0
run-2020-2-19-15-37-14.807482957,AGENT#b49c955c-532d-11ea-a91e-ff530d5ad01a,3,4,7,10,1.0,1.0,0
run-2020-2-19-15-37-14.807482957,AGENT#b49d76ca-532d-11ea-a451-775aa4537af8,1,6,7,10,1.0,1.0,0
run-2020-2-19-15-37-14.807482957,AGENT#b49c3198-532d-11ea-b333-67fb44b431d1,5,3,8,10,1.0,1.0,0
run-2020-2-19-15-37-14.807482957,AGENT#b49eac98-532d-11ea-b55d-af8214d23ebb,1,9,10,10,1.0,1.0,0
run-2020-2-19-15-37-14.807482957,AGENT#b49d8106-532d-11ea-99df-e3a54c0c0306,5,6,11,10,1.0,1.0,0
run-2020-2-19-15-37-14.807482957,AGENT#b49e4b2c-532d-11ea-91cd-e763823559a8,3,8,11,10,1.0,1.0,0
run-2020-2-19-15-37-14.807482957,AGENT#b49ea9aa-532d-11ea-91da-9fbad41bf9c6,2,9,11,10,1.0,1.0,0
run-2020-2-19-15-37-14.807482957,AGENT#b49ffd00-532d-11ea-b26e-f745b5a2fda6,1,12,13,10,1.0,1.0,0
run-2020-2-19-15-37-14.807482957,AGENT#b49f7fb0-532d-11ea-8e5a-3f01914f998a,3,11,14,10,1.0,1.0,0
run-2020-2-19-15-37-14.807482957,AGENT#b49f8230-532d-11ea-b7d5-4b9111dbd60e,3,11,14,10,1.0,1.0,0
run-2020-2-19-15-37-14.807482957,AGENT#b49f77a4-532d-11ea-8985-eb9f2030e77b,4,11,15,10,1.0,1.0,0
run-2020-2-19-15-37-14.807482957,AGENT#b49f7d44-532d-11ea-abf8-43022b6d7dd2,5,11,16,10,1.0,1.0,0
run-2020-2-19-15-37-14.807482957,AGENT#b4a00534-532d-11ea-b2fa-bbff57e1a51a,4,12,16,10,1.0,1.0,0
run-2020-2-19-15-37-14.807482957,AGENT#b4a07302-532d-11ea-9cb3-67aae02e4bab,3,13,16,10,1.0,1.0,0
run-2020-2-19-15-37-14.807482957,AGENT#b487a00c-532d-11ea-b13b-2fefae32db93,17,0,17,10,1.0,1.0,0
run-2020-2-19-15-37-14.807482957,AGENT#b49fffd0-532d-11ea-a036-cb4973fb9fa3,5,12,17,10,1.0,1.0,0
run-2020-2-19-15-37-14.807482957,AGENT#b4a0023c-532d-11ea-a8d8-67855530e0a4,5,12,17,10,1.0,1.0,0
run-2020-2-19-15-37-14.807482957,AGENT#b4a0078c-532d-11ea-af1e-e3f8018816a6,5,12,17,10,1.0,1.0,0
run-2020-2-19-15-37-14.807482957,AGENT#b4a0d8ce-532d-11ea-a4de-e34b550bbc41,3,14,17,10,1.0,1.0,0
run-2020-2-19-15-37-14.807482957,AGENT#b4a0dfa4-532d-11ea-b621-eb459ab3b8e7,3,14,17,10,1.0,1.0,0
run-2020-2-19-15-37-14.807482957,AGENT#b4a14c6e-532d-11ea-bf0d-178d99896e2c,2,15,17,10,1.0,1.0,0
run-2020-2-19-15-37-14.807482957,AGENT#b4a1cd2e-532d-11ea-85c1-a387a45a6922,1,16,17,10,1.0,1.0,0
run-2020-2-19-15-37-14.807482957,AGENT#b48755ac-532d-11ea-aa0c-ef1b575dfad3,18,0,18,10,1.0,1.0,0
run-2020-2-19-15-37-14.807482957,AGENT#b4a0db30-532d-11ea-a0cd-7b9eb619d146,4,14,18,10,1.0,1.0,0
run-2020-2-19-15-37-14.807482957,AGENT#b4a14f02-532d-11ea-bb63-f771ad1d6f12,3,15,18,10,1.0,1.0,0
run-2020-2-19-15-37-14.807482957,AGENT#b4a15434-532d-11ea-90a8-d7c7a1ed5025,3,15,18,10,1.0,1.0,0
run-2020-2-19-15-37-14.807482957,AGENT#b4a1ca68-532d-11ea-81a5-930508efdaaa,2,16,18,10,1.0,1.0,0
run-2020-2-19-15-37-14.807482957,AGENT#b4a2508c-532d-11ea-83fc-fb6d51ce3afc,1,17,18,10,1.0,1.0,0
run-2020-2-19-15-37-14.807482957,AGENT#b4a2495c-532d-11ea-90f4-1b92ea30022c,2,17,19,10,1.0,1.0,0
run-2020-2-19-15-37-14.807482957,AGENT#b4a24bb4-532d-11ea-b3f5-4f0e5c4af7f8,2,17,19,10,1.0,1.0,0
run-2020-2-19-15-37-14.807482957,AGENT#b4a24e2a-532d-11ea-8856-3b2d95381bbf,2,17,19,10,1.0,1.0,0
run-2020-2-19-15-37-14.807482957,AGENT#b4a2442a-532d-11ea-9393-77c4481a9245,3,17,20,10,1.0,1.0,0
run-2020-2-19-15-37-14.807482957,AGENT#b4a2e948-532d-11ea-a74d-37c83c98cbe8,2,18,20,10,1.0,1.0,0
run-2020-2-19-15-37-14.807482957,AGENT#b49d7eb8-532d-11ea-8c25-ab8afc55bbfa,16,6,22,10,1.0,1.0,0
run-2020-2-19-15-37-14.807482957,AGENT#b4a2e632-532d-11ea-b542-3f2522b11b65,4,18,22,10,1.0,1.0,0
run-2020-2-19-15-37-14.807482957,AGENT#b4a377c8-532d-11ea-9f71-478c480bc755,3,19,22,10,1.0,1.0,0
run-2020-2-19-15-37-14.807482957,AGENT#b4a45d64-532d-11ea-ac9e-07c4259f70a0,1,21,22,10,1.0,1.0,0
run-2020-2-19-15-37-14.807482957,AGENT#b4a36e72-532d-11ea-a1d4-67d661d695f3,4,19,23,10,1.0,1.0,0
run-2020-2-19-15-37-14.807482957,AGENT#b4a4ccfe-532d-11ea-8208-0f1874ee1131,1,22,23,10,1.0,1.0,0
run-2020-2-19-15-37-14.807482957,AGENT#b4a37386-532d-11ea-ac12-ab5a3eb02a14,5,19,24,10,1.0,1.0,0
run-2020-2-19-15-37-14.807482957,AGENT#b4a5502a-532d-11ea-a0c9-07dcac89ab4d,1,23,24,10,1.0,1.0,0
run-2020-2-19-15-37-14.807482957,AGENT#b49bd194-532d-11ea-ba47-57ef72b36e8f,23,2,25,10,1.0,1.0,0
run-2020-2-19-15-37-14.807482957,AGENT#b4a4d46a-532d-11ea-9733-b75a0e5efc0a,3,22,25,10,1.0,1.0,0
run-2020-2-19-15-37-14.807482957,AGENT#b4a5488c-532d-11ea-8ab5-535eb58130ff,2,23,25,10,1.0,1.0,0
run-2020-2-19-15-37-14.807482957,AGENT#b4a54ddc-532d-11ea-8337-0b16eb745a6f,2,23,25,10,1.0,1.0,0
run-2020-2-19-15-37-14.807482957,AGENT#b4a5e562-532d-11ea-8e10-c3a4ae6076dd,1,24,25,10,1.0,1.0,0
run-2020-2-19-15-37-14.807482957,AGENT#b4a5e0e4-532d-11ea-b0dc-cf3b84cd4ea2,2,24,26,10,1.0,1.0,0
run-2020-2-19-15-37-14.807482957,AGENT#b4a66a6e-532d-11ea-a4ab-23ad80a21378,1,25,26,10,1.0,1.0,0
run-2020-2-19-15-37-14.807482957,AGENT#b4a4cf6a-532d-11ea-9ec0-9b2e0bf9ed17,5,22,27,10,1.0,1.0,0
run-2020-2-19-15-37-14.807482957,AGENT#b4a5d964-532d-11ea-8f20-334309dd2566,3,24,27,10,1.0,1.0,0
run-2020-2-19-15-37-14.807482957,AGENT#b4a5de96-532d-11ea-b347-d3d6162169ad,3,24,27,10,1.0,1.0,0
run-2020-2-19-15-37-14.807482957,AGENT#b4a66cd0-532d-11ea-929c-ff8a5a0e9518,2,25,27,10,1.0,1.0,0
run-2020-2-19-15-37-14.807482957,AGENT#b4a6f1dc-532d-11ea-9161-9b40404ef0b6,1,26,27,10,1.0,1.0,0
run-2020-2-19-15-37-14.807482957,AGENT#b4a5dc16-532d-11ea-9601-e72efa9d1ca3,4,24,28,10,1.0,1.0,0
run-2020-2-19-15-37-14.807482957,AGENT#b4a5e328-532d-11ea-8be4-0fc35ad2532b,4,24,28,10,1.0,1.0,0
run-2020-2-19-15-37-14.807482957,AGENT#b4a778dc-532d-11ea-92f5-07cadc074af5,1,27,28,10,1.0,1.0,0
run-2020-2-19-15-37-14.807482957,AGENT#b4a77ddc-532d-11ea-bdba-bf043dbf7051,1,27,28,10,1.0,1.0,0
run-2020-2-19-15-37-14.807482957,AGENT#b4a4ca38-532d-11ea-a09c-bf0178d58202,7,22,29,10,1.0,1.0,0
run-2020-2-19-15-37-14.807482957,AGENT#b4a6ef48-532d-11ea-9974-5320b9a962c7,3,26,29,10,1.0,1.0,0
run-2020-2-19-15-37-14.807482957,AGENT#b4874710-532d-11ea-882e-a7e7bc953966,30,0,30,10,1.0,1.0,0
run-2020-2-19-15-37-14.807482957,AGENT#b4a667ee-532d-11ea-ac0f-bf79d2159bef,5,25,30,10,1.0,1.0,0
run-2020-2-19-15-37-14.807482957,AGENT#b4a87f02-532d-11ea-ba35-b38c9aef9d59,1,29,30,10,1.0,1.0,0
run-2020-2-19-15-37-14.807482957,AGENT#b4a77b66-532d-11ea-bd40-bf55019046c2,4,27,31,10,1.0,1.0,0
run-2020-2-19-15-37-14.807482957,AGENT#b4a886c8-532d-11ea-a4c2-8b3670f5a509,2,29,31,10,1.0,1.0,0
run-2020-2-19-15-37-14.807482957,AGENT#b4a92506-532d-11ea-a22d-4bf523679261,2,30,32,10,1.0,1.0,0
run-2020-2-19-15-37-14.807482957,AGENT#b4a88448-532d-11ea-8c5f-27c86aebbcbe,4,29,33,10,1.0,1.0,0
run-2020-2-19-15-37-14.807482957,AGENT#b4a9a652-532d-11ea-a7f8-0f11afbd5303,2,31,33,10,1.0,1.0,0
run-2020-2-19-15-37-14.807482957,AGENT#b4a9a8dc-532d-11ea-828b-33c0360a226c,2,31,33,10,1.0,1.0,0
run-2020-2-19-15-37-14.807482957,AGENT#b4aa30c2-532d-11ea-95cb-b7e7a753d0fe,1,32,33,10,1.0,1.0,0
run-2020-2-19-15-37-14.807482957,AGENT#b4a77616-532d-11ea-b0d0-339b7c4ce5f0,7,27,34,10,1.0,1.0,0
run-2020-2-19-15-37-14.807482957,AGENT#b4a92786-532d-11ea-af25-4f7b4cfad811,4,30,34,10,1.0,1.0,0
run-2020-2-19-15-37-14.807482957,AGENT#b4aa2960-532d-11ea-9d7e-abf0ae25f181,2,32,34,10,1.0,1.0,0
run-2020-2-19-15-37-14.807482957,AGENT#b4a3ee92-532d-11ea-bcf3-af0c8638d347,15,20,35,10,1.0,1.0,0
run-2020-2-19-15-37-14.807482957,AGENT#b4aaba7e-532d-11ea-8ecd-3ff687cc6420,2,33,35,10,1.0,1.0,0
run-2020-2-19-15-37-14.807482957,AGENT#b4abd5c6-532d-11ea-b8ab-e38b30463827,1,35,36,10,1.0,1.0,0
run-2020-2-19-15-37-14.807482957,AGENT#b4aab57e-532d-11ea-92fd-fb301c02b43b,4,33,37,10,1.0,1.0,0
run-2020-2-19-15-37-14.807482957,AGENT#b4ab4796-532d-11ea-9ad5-cb36eb6b7bf5,3,34,37,10,1.0,1.0,0
run-2020-2-19-15-37-14.807482957,AGENT#b4abd81e-532d-11ea-baa7-47c015b409e0,2,35,37,10,1.0,1.0,0
run-2020-2-19-15-37-14.807482957,AGENT#b4ad073e-532d-11ea-ad32-477eb5b9e6c8,1,37,38,10,1.0,1.0,0
run-2020-2-19-15-37-14.807482957,AGENT#b4ad0ee6-532d-11ea-a856-2fb215a0b839,1,37,38,10,1.0,1.0,0
run-2020-2-19-15-37-14.807482957,AGENT#b4ac7850-532d-11ea-a3b1-b31f96fb42df,3,36,39,10,1.0,1.0,0
run-2020-2-19-15-37-14.807482957,AGENT#b4ac7ab2-532d-11ea-9e07-bbc74489fa5e,4,36,40,10,1.0,1.0,0
run-2020-2-19-15-37-14.807482957,AGENT#b4ad09be-532d-11ea-9b8d-43f73f7fdd11,3,37,40,10,1.0,1.0,0
run-2020-2-19-15-37-14.807482957,AGENT#b4aec5d8-532d-11ea-8ab7-370961057520,1,40,41,10,1.0,1.0,0
run-2020-2-19-15-37-14.807482957,AGENT#b4ada928-532d-11ea-b991-1745862b9e90,4,38,42,10,1.0,1.0,0
run-2020-2-19-15-37-14.807482957,AGENT#b4aec826-532d-11ea-a295-6b4f76c5394a,2,40,42,10,1.0,1.0,0
run-2020-2-19-15-37-14.807482957,AGENT#b4af7334-532d-11ea-ba4c-d354015a393e,1,41,42,10,1.0,1.0,0
run-2020-2-19-15-37-14.807482957,AGENT#b487980a-532d-11ea-9178-03f1851f46dc,43,0,43,10,1.0,1.0,0
run-2020-2-19-15-37-14.807482957,AGENT#b4b00920-532d-11ea-875e-8f270431dad7,1,42,43,10,1.0,1.0,0
run-2020-2-19-15-37-14.807482957,AGENT#b4b00e0c-532d-11ea-9061-f70f6c79022e,2,42,44,10,1.0,1.0,0
run-2020-2-19-15-37-14.807482957,AGENT#b4b01294-532d-11ea-b273-a31fcde67ab6,2,42,44,10,1.0,1.0,0
run-2020-2-19-15-37-14.807482957,AGENT#b4b0abdc-532d-11ea-a327-43793a7a3c5f,1,43,44,10,1.0,1.0,0
run-2020-2-19-15-37-14.807482957,AGENT#b4874b3e-532d-11ea-885b-6fde3c5ab89f,45,0,45,10,1.0,1.0,0
run-2020-2-19-15-37-14.807482957,AGENT#b4b0a95c-532d-11ea-8cd8-5bac3507784e,2,43,45,10,1.0,1.0,0
run-2020-2-19-15-37-14.807482957,AGENT#b4b151e0-532d-11ea-a18e-8f99f21a382e,1,44,45,10,1.0,1.0,0
run-2020-2-19-15-37-14.807482957,AGENT#b49803ac-532d-11ea-a0a7-0bd87b2c6987,45,1,46,10,1.0,1.0,0
run-2020-2-19-15-37-14.807482957,AGENT#b4b14f60-532d-11ea-80c3-2b1307c99611,2,44,46,10,1.0,1.0,0
run-2020-2-19-15-37-14.807482957,AGENT#b4b15442-532d-11ea-912e-5327d07fcebd,2,44,46,10,1.0,1.0,0
run-2020-2-19-15-37-14.807482957,AGENT#b4b2073e-532d-11ea-b0b8-bfcf910bad0b,1,45,46,10,1.0,1.0,0
run-2020-2-19-15-37-14.807482957,AGENT#b4b00b96-532d-11ea-8e0c-a7e74035aaf7,5,42,47,10,1.0,1.0,0
run-2020-2-19-15-37-14.807482957,AGENT#b4b0a66e-532d-11ea-aa22-c7c2adf5fec4,4,43,47,10,1.0,1.0,0
run-2020-2-19-15-37-14.807482957,AGENT#b4b156cc-532d-11ea-8e03-cf18b98505d7,3,44,47,10,1.0,1.0,0
run-2020-2-19-15-37-14.807482957,AGENT#b4b2c066-532d-11ea-b504-9b39edeac327,1,46,47,10,1.0,1.0,0
run-2020-2-19-15-37-14.807482957,AGENT#b4980d34-532d-11ea-af6f-83d135ac7d17,47,1,48,10,1.0,1.0,0
run-2020-2-19-15-37-14.807482957,AGENT#b49bca28-532d-11ea-b368-4f0b617f9565,46,2,48,10,1.0,1.0,0
run-2020-2-19-15-37-14.807482957,AGENT#b49c29f0-532d-11ea-bfd6-732db40c3837,45,3,48,10,1.0,1.0,0
run-2020-2-19-15-37-14.807482957,AGENT#b4b20176-532d-11ea-8aab-f3db5a84c8f9,3,45,48,10,1.0,1.0,0
run-2020-2-19-15-37-14.807482957,AGENT#b4b2098c-532d-11ea-b028-a32b723caaba,3,45,48,10,1.0,1.0,0
run-2020-2-19-15-37-14.807482957,AGENT#b4b1ff14-532d-11ea-b8ab-df8ea2711231,4,45,49,10,1.0,1.0,0
run-2020-2-19-15-37-14.807482957,AGENT#b4980000-532d-11ea-aab9-eb3fc7c401e4,49,1,50,10,1.0,1.0,0
run-2020-2-19-15-37-14.807482957,AGENT#b4a246d2-532d-11ea-b509-c3148cb5cd49,33,17,50,10,1.0,1.0,0
run-2020-2-19-15-37-14.807482957,AGENT#b4ab4d36-532d-11ea-8fdb-93898f977150,16,34,50,10,1.0,1.0,0
run-2020-2-19-15-37-14.807482957,AGENT#b4b1f71c-532d-11ea-a4b2-1bef2b3a7518,5,45,50,10,1.0,1.0,0
run-2020-2-19-15-37-14.807482957,AGENT#b4b1f988-532d-11ea-b159-bffbfb61b137,5,45,50,10,1.0,1.0,0
run-2020-2-19-15-37-14.807482957,AGENT#b4b2bbf2-532d-11ea-a7a1-a7307d5aea4a,4,46,50,10,1.0,1.0,0
run-2020-2-19-15-37-14.807482957,AGENT#b4b2c2b4-532d-11ea-9006-d3fcf749119e,4,46,50,10,1.0,1.0,0
run-2020-2-19-15-37-14.807482957,AGENT#b4b2c4ee-532d-11ea-8533-c79bb2fcff29,4,46,50,10,1.0,1.0,0
run-2020-2-19-15-37-14.807482957,AGENT#b49d79d6-532d-11ea-a4f9-83a4ea778f47,45,6,51,10,1.0,1.0,0
run-2020-2-19-15-37-14.807482957,AGENT#b4b2be2c-532d-11ea-aa6e-13f9d464248b,5,46,51,10,1.0,1.0,0
run-2020-2-19-15-37-14.807482957,AGENT#b4b45732-532d-11ea-8111-af54fc18f414,3,48,51,10,1.0,1.0,0
run-2020-2-19-15-37-14.807482957,AGENT#b4b50bfa-532d-11ea-9a83-13a32860afb5,2,49,51,10,1.0,1.0,0
run-2020-2-19-15-37-14.807482957,AGENT#b4b5cf86-532d-11ea-9fec-1b5fb9df6cd8,1,50,51,10,1.0,1.0,0
run-2020-2-19-15-37-14.807482957,AGENT#b49ddea8-532d-11ea-8c3d-13b7d8c73db9,45,7,52,10,1.0,1.0,0
run-2020-2-19-15-37-14.807482957,AGENT#b49de204-532d-11ea-b328-bbdf24ec18bc,45,7,52,10,1.0,1.0,0
run-2020-2-19-15-37-14.807482957,AGENT#b4b39950-532d-11ea-9a6b-0fd05a06f2df,5,47,52,10,1.0,1.0,0
run-2020-2-19-15-37-14.807482957,AGENT#b49d7c38-532d-11ea-9c01-f7d9984dfebc,47,6,53,10,1.0,1.0,0
run-2020-2-19-15-37-14.807482957,AGENT#b4b68af2-532d-11ea-a8d6-6715f1dd3d9b,2,51,53,10,1.0,1.0,0
run-2020-2-19-15-37-14.807482957,AGENT#b49f116a-532d-11ea-acff-27dc189ac7e2,45,10,55,10,1.0,1.0,0
run-2020-2-19-15-37-14.807482957,AGENT#b4b5d45e-532d-11ea-af4d-d71f993bfa05,5,50,55,10,1.0,1.0,0
run-2020-2-19-15-37-14.807482957,AGENT#b4b68548-532d-11ea-a253-6f561f9a374c,4,51,55,10,1.0,1.0,0
run-2020-2-19-15-37-14.807482957,AGENT#b49e4870-532d-11ea-ab93-d3689f29af93,48,8,56,10,1.0,1.0,0
run-2020-2-19-15-37-14.807482957,AGENT#b49f7a7e-532d-11ea-8f6d-438e8b851c2e,45,11,56,10,1.0,1.0,0
run-2020-2-19-15-37-14.807482957,AGENT#b4b69132-532d-11ea-8567-ef8cf5106f3f,5,51,56,10,1.0,1.0,0
run-2020-2-19-15-37-14.807482957,AGENT#b4b75d74-532d-11ea-9598-4b0cbd47b6bc,4,52,56,10,1.0,1.0,0
run-2020-2-19-15-37-14.807482957,AGENT#b4b76062-532d-11ea-a209-8310df987181,4,52,56,10,1.0,1.0,0
run-2020-2-19-15-37-14.807482957,AGENT#b4b8cc40-532d-11ea-82d8-1b7a0344b987,2,54,56,10,1.0,1.0,0
run-2020-2-19-15-37-14.807482957,AGENT#b4b8d3fc-532d-11ea-b70b-ff0c55eed213,2,54,56,10,1.0,1.0,0
run-2020-2-19-15-37-14.807482957,AGENT#b4b99332-532d-11ea-a7f1-1b6f4ad677f3,1,55,56,10,1.0,1.0,0
run-2020-2-19-15-37-14.807482957,AGENT#b4b99a4e-532d-11ea-ae08-c71fcaf44621,1,55,56,10,1.0,1.0,0
run-2020-2-19-15-37-14.807482957,AGENT#b4b9980a-532d-11ea-aa15-cb1a7f2a535e,2,55,57,10,1.0,1.0,0
run-2020-2-19-15-37-14.807482957,AGENT#b4ba6672-532d-11ea-b5d7-b7cc0a6e0d27,1,56,57,10,1.0,1.0,0
run-2020-2-19-15-37-14.807482957,AGENT#b49f0c4c-532d-11ea-9ddb-cb2fc27b2228,48,10,58,10,1.0,1.0,0
run-2020-2-19-15-37-14.807482957,AGENT#b49f0efe-532d-11ea-b366-07ade0fbeb96,48,10,58,10,1.0,1.0,0
run-2020-2-19-15-37-14.807482957,AGENT#b4ba63ca-532d-11ea-bedd-3b08921ed0cc,2,56,58,10,1.0,1.0,0
run-2020-2-19-15-37-14.807482957,AGENT#b4a0dd74-532d-11ea-854a-e798f27863a1,45,14,59,10,1.0,1.0,0
run-2020-2-19-15-37-14.807482957,AGENT#b4aebf7a-532d-11ea-a597-579bf734cc7c,19,40,59,10,1.0,1.0,0
run-2020-2-19-15-37-14.807482957,AGENT#b4bb2df0-532d-11ea-a47d-a7f6a4830e97,2,57,59,10,1.0,1.0,0
run-2020-2-19-15-37-14.807482957,AGENT#b4bb305c-532d-11ea-9992-fb56f910e47d,3,57,60,10,1.0,1.0,0
run-2020-2-19-15-37-14.807482957,AGENT#b4bb2b3e-532d-11ea-a987-d3f8adfafa8b,4,57,61,10,1.0,1.0,0
run-2020-2-19-15-37-14.807482957,AGENT#b4bb32be-532d-11ea-836f-07d58f412edf,4,57,61,10,1.0,1.0,0
run-2020-2-19-15-37-14.807482957,AGENT#b4adabc6-532d-11ea-8443-074ac1b2774b,24,38,62,10,1.0,1.0,0
run-2020-2-19-15-37-14.807482957,AGENT#b4bcb102-532d-11ea-9130-e779d4a017df,4,59,63,10,1.0,1.0,0
run-2020-2-19-15-37-14.807482957,AGENT#b4bcb38c-532d-11ea-af93-fbd372ead912,4,59,63,10,1.0,1.0,0
run-2020-2-19-15-37-14.807482957,AGENT#b4be1eca-532d-11ea-b3ec-fff2bf6f297e,2,61,63,10,1.0,1.0,0
run-2020-2-19-15-37-14.807482957,AGENT#b4beef3a-532d-11ea-9269-2bec609871c4,1,62,63,10,1.0,1.0,0
run-2020-2-19-15-37-14.807482957,AGENT#b4a1515a-532d-11ea-adae-c79776a2928c,49,15,64,10,1.0,1.0,0
run-2020-2-19-15-37-14.807482957,AGENT#b4a370f2-532d-11ea-97c0-235474f4fcfc,45,19,64,10,1.0,1.0,0
run-2020-2-19-15-37-14.807482957,AGENT#b4bcae32-532d-11ea-9c6d-57d424a9fc17,5,59,64,10,1.0,1.0,0
run-2020-2-19-15-37-14.807482957,AGENT#b4a36b70-532d-11ea-b65d-334f6afb887f,46,19,65,10,1.0,1.0,0
run-2020-2-19-15-37-14.807482957,AGENT#b4bef25a-532d-11ea-8319-93d9b9e93cd3,3,62,65,10,1.0,1.0,0
run-2020-2-19-15-37-14.807482957,AGENT#b4a54b3e-532d-11ea-bb0d-37ed22bbbf99,43,23,66,10,1.0,1.0,0
run-2020-2-19-15-37-14.807482957,AGENT#b4be2140-532d-11ea-8589-7703b386653b,5,61,66,10,1.0,1.0,0
run-2020-2-19-15-37-14.807482957,AGENT#b4c007c6-532d-11ea-8b68-ef9955bcb10e,3,63,66,10,1.0,1.0,0
run-2020-2-19-15-37-14.807482957,AGENT#b4c1113e-532d-11ea-ba8b-775be9dfc251,2,64,66,10,1.0,1.0,0
run-2020-2-19-15-37-14.807482957,AGENT#b4c11454-532d-11ea-a0e1-2b444f26e504,2,64,66,10,1.0,1.0,0
run-2020-2-19-15-37-14.807482957,AGENT#b4c119a4-532d-11ea-a3e5-0b725a176905,2,64,66,10,1.0,1.0,0
run-2020-2-19-15-37-14.807482957,AGENT#b4c1ef28-532d-11ea-b888-ff51f925439a,1,65,66,10,1.0,1.0,0
run-2020-2-19-15-37-14.807482957,AGENT#b4bef4d0-532d-11ea-8c6b-a701a88bf2cd,5,62,67,10,1.0,1.0,0
run-2020-2-19-15-37-14.807482957,AGENT#b4c011b2-532d-11ea-bdd8-a33a57f43e1b,4,63,67,10,1.0,1.0,0
run-2020-2-19-15-37-14.807482957,AGENT#b4c11706-532d-11ea-b189-07821002a598,3,64,67,10,1.0,1.0,0
run-2020-2-19-15-37-14.807482957,AGENT#b4c1ecda-532d-11ea-bca9-9307e54e3a61,2,65,67,10,1.0,1.0,0
run-2020-2-19-15-37-14.807482957,AGENT#b4c1f1da-532d-11ea-883c-87428509614b,2,65,67,10,1.0,1.0,0
run-2020-2-19-15-37-14.807482957,AGENT#b4c1f428-532d-11ea-a4a1-ef153b99b96e,2,65,67,10,1.0,1.0,0
run-2020-2-19-15-37-14.807482957,AGENT#b4c00b72-532d-11ea-9d7f-4f5d48250310,5,63,68,10,1.0,1.0,0
run-2020-2-19-15-37-14.807482957,AGENT#b4c1ea5a-532d-11ea-9378-a338fcadc78b,3,65,68,10,1.0,1.0,0
run-2020-2-19-15-37-14.807482957,AGENT#b4c3a5de-532d-11ea-a7fb-5f619dc1d3ea,1,67,68,10,1.0,1.0,0
run-2020-2-19-15-37-14.807482957,AGENT#b4a4d1e0-532d-11ea-975d-c30ff417cca5,47,22,69,10,1.0,1.0,0
run-2020-2-19-15-37-14.807482957,AGENT#b4a881b4-532d-11ea-84ba-b7c27c13b7af,40,29,69,10,1.0,1.0,0
run-2020-2-19-15-37-14.807482957,AGENT#b4c2cbd2-532d-11ea-a45b-dbf29fcf9bf6,3,66,69,10,1.0,1.0,0
run-2020-2-19-15-37-14.807482957,AGENT#b4c482c4-532d-11ea-b15b-1b1ce567a889,1,68,69,10,1.0,1.0,0
run-2020-2-19-15-37-14.807482957,AGENT#b4a66532-532d-11ea-8ab1-eb6827008e45,45,25,70,10,1.0,1.0,0
run-2020-2-19-15-37-14.807482957,AGENT#b4a66f5a-532d-11ea-8fa0-0790169a0662,45,25,70,10,1.0,1.0,0
run-2020-2-19-15-37-14.807482957,AGENT#b4c2ce48-532d-11ea-b8aa-f3d0a17c665d,5,66,71,10,1.0,1.0,0
run-2020-2-19-15-37-14.807482957,AGENT#b4c66314-532d-11ea-9b61-0b826b628e7a,1,70,71,10,1.0,1.0,0
run-2020-2-19-15-37-14.807482957,AGENT#b4a78034-532d-11ea-af8d-a7897c915435,45,27,72,10,1.0,1.0,0
run-2020-2-19-15-37-14.807482957,AGENT#b4c478b0-532d-11ea-aa1c-67b1fd789489,4,68,72,10,1.0,1.0,0
run-2020-2-19-15-37-14.807482957,AGENT#b4c48030-532d-11ea-8a19-efb950da6ed5,4,68,72,10,1.0,1.0,0
run-2020-2-19-15-37-14.807482957,AGENT#b4c66cd8-532d-11ea-b754-4f57f2ce9f2f,2,70,72,10,1.0,1.0,0
run-2020-2-19-15-37-14.807482957,AGENT#b4c75422-532d-11ea-888e-7b961ed63966,1,71,72,10,1.0,1.0,0
run-2020-2-19-15-37-14.807482957,AGENT#b4c66a76-532d-11ea-9f36-2bdf23f15127,3,70,73,10,1.0,1.0,0
run-2020-2-19-15-37-14.807482957,AGENT#b4c74b8a-532d-11ea-835a-4f1c2da88567,2,71,73,10,1.0,1.0,0
run-2020-2-19-15-37-14.807482957,AGENT#b4c74ed2-532d-11ea-b8b3-3f6245bf8cda,2,71,73,10,1.0,1.0,0
run-2020-2-19-15-37-14.807482957,AGENT#b4c75170-532d-11ea-b5b2-d7c6b20ceb2b,2,71,73,10,1.0,1.0,0
run-2020-2-19-15-37-14.807482957,AGENT#b4c85502-532d-11ea-843c-637ca69f8a26,1,72,73,10,1.0,1.0,0
run-2020-2-19-15-37-14.807482957,AGENT#b4c6658a-532d-11ea-8843-635bc6ee2b92,4,70,74,10,1.0,1.0,0
run-2020-2-19-15-37-14.807482957,AGENT#b4c93486-532d-11ea-be01-3b52419f0664,1,73,74,10,1.0,1.0,0
run-2020-2-19-15-37-14.807482957,AGENT#b4c47b62-532d-11ea-8320-2b9f5031eee5,7,68,75,10,1.0,1.0,0
run-2020-2-19-15-37-14.807482957,AGENT#b4c85854-532d-11ea-b2da-f72b156ffe56,3,72,75,10,1.0,1.0,0
run-2020-2-19-15-37-14.807482957,AGENT#b4ca27a6-532d-11ea-9a40-d75a23473d81,2,74,76,10,1.0,1.0,0
run-2020-2-19-15-37-14.807482957,AGENT#b4a9ab5c-532d-11ea-8c20-57a738cc4ff7,46,31,77,10,1.0,1.0,0
run-2020-2-19-15-37-14.807482957,AGENT#b4aa2e4c-532d-11ea-8153-379115aa8121,45,32,77,10,1.0,1.0,0
run-2020-2-19-15-37-14.807482957,AGENT#b4c5794a-532d-11ea-a96a-b7b2d4152670,8,69,77,10,1.0,1.0,0
run-2020-2-19-15-37-14.807482957,AGENT#b4ca1e1e-532d-11ea-9584-07e2046e341b,3,74,77,10,1.0,1.0,0
run-2020-2-19-15-37-14.807482957,AGENT#b4ca2486-532d-11ea-9bfb-c7c4e59da6df,3,74,77,10,1.0,1.0,0
run-2020-2-19-15-37-14.807482957,AGENT#b4a92254-532d-11ea-800f-77f64b370958,48,30,78,10,1.0,1.0,0
run-2020-2-19-15-37-14.807482957,AGENT#b4aab81c-532d-11ea-b170-eb755d63316a,45,33,78,10,1.0,1.0,0
run-2020-2-19-15-37-14.807482957,AGENT#b4ca1798-532d-11ea-bbaa-b363721ec905,4,74,78,10,1.0,1.0,0
run-2020-2-19-15-37-14.807482957,AGENT#b4ccfce2-532d-11ea-b1e2-0b1bbf5b1137,1,77,78,10,1.0,1.0,0
run-2020-2-19-15-37-14.807482957,AGENT#b4cd04c6-532d-11ea-a100-2f38b99acf9c,1,77,78,10,1.0,1.0,0
run-2020-2-19-15-37-14.807482957,AGENT#b4af7640-532d-11ea-82d0-23e80584abc9,38,41,79,10,1.0,1.0,0
run-2020-2-19-15-37-14.807482957,AGENT#b4cd0728-532d-11ea-a8dc-17ff9bcf1d8b,2,77,79,10,1.0,1.0,0
run-2020-2-19-15-37-14.807482957,AGENT#b4cdfcd2-532d-11ea-85e7-e3cc2d785479,1,78,79,10,1.0,1.0,0
run-2020-2-19-15-37-14.807482957,AGENT#b4ab4aa2-532d-11ea-adf4-1b9c614cacd4,46,34,80,10,1.0,1.0,0
run-2020-2-19-15-37-14.807482957,AGENT#b4cee6d8-532d-11ea-bf6a-eb9f39b30ebf,1,79,80,10,1.0,1.0,0
run-2020-2-19-15-37-14.807482957,AGENT#b4aa2bf4-532d-11ea-b905-d337a9dcadf1,49,32,81,10,1.0,1.0,0
run-2020-2-19-15-37-14.807482957,AGENT#b4abd314-532d-11ea-b7b5-ebcda6130361,46,35,81,10,1.0,1.0,0
run-2020-2-19-15-37-14.807482957,AGENT#b4ac7d14-532d-11ea-9c3e-3f1ce54e5651,45,36,81,10,1.0,1.0,0
run-2020-2-19-15-37-14.807482957,AGENT#b4cbfb30-532d-11ea-a851-dbc2ae7f1dd0,5,76,81,10,1.0,1.0,0
run-2020-2-19-15-37-14.807482957,AGENT#b4cdf048-532d-11ea-9253-9fc5e97d71dc,3,78,81,10,1.0,1.0,0
run-2020-2-19-15-37-14.807482957,AGENT#b4cfd1ec-532d-11ea-9f3b-eb727a8840d9,1,80,81,10,1.0,1.0,0
run-2020-2-19-15-37-14.807482957,AGENT#b4ad0c20-532d-11ea-ab7d-6fc53384a7d7,45,37,82,10,1.0,1.0,0
run-2020-2-19-15-37-14.807482957,AGENT#b4cded14-532d-11ea-b43b-2f61640d8f88,4,78,82,10,1.0,1.0,0
run-2020-2-19-15-37-14.807482957,AGENT#b4d0c778-532d-11ea-8bb7-e363945bda99,1,81,82,10,1.0,1.0,0
run-2020-2-19-15-37-14.807482957,AGENT#b4aab2d6-532d-11ea-996a-db772a2c16bb,50,33,83,10,1.0,1.0,0
run-2020-2-19-15-37-14.807482957,AGENT#b4cfd4f8-532d-11ea-8b6e-777f590ee1cd,3,80,83,10,1.0,1.0,0
run-2020-2-19-15-37-14.807482957,AGENT#b4d0ca3e-532d-11ea-a3ab-0b49cb728fca,2,81,83,10,1.0,1.0,0
run-2020-2-19-15-37-14.807482957,AGENT#b4d1cf42-532d-11ea-9b83-6384b8a1db88,1,82,83,10,1.0,1.0,0
run-2020-2-19-15-37-14.807482957,AGENT#b4cee9bc-532d-11ea-9e54-6b1e98fbee84,5,79,84,10,1.0,1.0,0
run-2020-2-19-15-37-14.807482957,AGENT#b4ac75a8-532d-11ea-ad8e-d7e742b57973,49,36,85,10,1.0,1.0,0
run-2020-2-19-15-37-14.807482957,AGENT#b4d2ceec-532d-11ea-bd08-cf25bcbb056e,2,83,85,10,1.0,1.0,0
run-2020-2-19-15-37-14.807482957,AGENT#b4d2d176-532d-11ea-96db-0333472237d4,3,83,86,10,1.0,1.0,0
run-2020-2-19-15-37-14.807482957,AGENT#b4d4d192-532d-11ea-8e4b-afb831c11a13,1,85,86,10,1.0,1.0,0
run-2020-2-19-15-37-14.807482957,AGENT#b4d4dc00-532d-11ea-a7f9-6750888cfb48,1,85,86,10,1.0,1.0,0
run-2020-2-19-15-37-14.807482957,AGENT#b4aec34e-532d-11ea-a240-e3797a05b431,47,40,87,10,1.0,1.0,0
run-2020-2-19-15-37-14.807482957,AGENT#b4d1cc72-532d-11ea-b06c-5789188c0907,5,82,87,10,1.0,1.0,0
run-2020-2-19-15-37-14.807482957,AGENT#b4d3c928-532d-11ea-86a5-7f6c34c050b6,3,84,87,10,1.0,1.0,0
run-2020-2-19-15-37-14.807482957,AGENT#b4d61d2c-532d-11ea-9cad-dbb5389c4ac6,1,86,87,10,1.0,1.0,0
run-2020-2-19-15-37-14.807482957,AGENT#b4b01046-532d-11ea-a411-2f94fb388e60,46,42,88,10,1.0,1.0,0
run-2020-2-19-15-37-14.807482957,AGENT#b4d4d70a-532d-11ea-9ddf-abfcc52bc352,3,85,88,10,1.0,1.0,0
run-2020-2-19-15-37-14.807482957,AGENT#b4d4e0a6-532d-11ea-931c-c3fb08acdee5,3,85,88,10,1.0,1.0,0
run-2020-2-19-15-37-14.807482957,AGENT#b4d3c432-532d-11ea-b0c7-0ff5003c7a5f,5,84,89,10,1.0,1.0,0
run-2020-2-19-15-37-14.807482957,AGENT#b4d3d0f8-532d-11ea-a823-f74ec02a1db2,5,84,89,10,1.0,1.0,0
run-2020-2-19-15-37-14.807482957,AGENT#b4d4de58-532d-11ea-b027-0352aaa4581a,4,85,89,10,1.0,1.0,0
run-2020-2-19-15-37-14.807482957,AGENT#b4d61854-532d-11ea-8e7e-8bc1ccc3776a,3,86,89,10,1.0,1.0,0
run-2020-2-19-15-37-14.807482957,AGENT#b4d732ac-532d-11ea-96da-3b3cf622db63,2,87,89,10,1.0,1.0,0
run-2020-2-19-15-37-14.807482957,AGENT#b4d73888-532d-11ea-87a6-fb02a6761442,2,87,89,10,1.0,1.0,0
run-2020-2-19-15-37-14.807482957,AGENT#b4b1592e-532d-11ea-99b5-2f99d4afa962,46,44,90,10,1.0,1.0,0
run-2020-2-19-15-37-14.807482957,AGENT#b4b1fbe0-532d-11ea-be8e-eb938a135d63,45,45,90,10,1.0,1.0,0
run-2020-2-19-15-37-14.807482957,AGENT#b4d61552-532d-11ea-b261-f7f151257798,4,86,90,10,1.0,1.0,0
run-2020-2-19-15-37-14.807482957,AGENT#b4b204d2-532d-11ea-aa01-b70f1a77c115,46,45,91,10,1.0,1.0,0
run-2020-2-19-15-37-14.807482957,AGENT#b4b2b4b8-532d-11ea-b9a0-af3e6fe0dff9,45,46,91,10,1.0,1.0,0
run-2020-2-19-15-37-14.807482957,AGENT#b4b2b74c-532d-11ea-a768-bb709b71ecff,45,46,91,10,1.0,1.0,0
run-2020-2-19-15-37-14.807482957,AGENT#b4b2b9ae-532d-11ea-bd78-a700b598a5e5,45,46,91,10,1.0,1.0,0
run-2020-2-19-15-37-14.807482957,AGENT#b4da4af0-532d-11ea-9b28-4b6903f79d59,1,90,91,10,1.0,1.0,0
run-2020-2-19-15-37-14.807482957,AGENT#b4b39c20-532d-11ea-a077-77d66b936bd9,45,47,92,10,1.0,1.0,0
run-2020-2-19-15-37-14.807482957,AGENT#b4d94ad8-532d-11ea-b954-cfaf57cb3854,3,89,92,10,1.0,1.0,0
run-2020-2-19-15-37-14.807482957,AGENT#b4b14cae-532d-11ea-bab1-3bd5cf7cd86a,49,44,93,10,1.0,1.0,0
run-2020-2-19-15-37-14.807482957,AGENT#b4b3a30a-532d-11ea-bf1b-bf65bfeb70d9,46,47,93,10,1.0,1.0,0
run-2020-2-19-15-37-14.807482957,AGENT#b4da482a-532d-11ea-b022-577ca8baf442,3,90,93,10,1.0,1.0,0
run-2020-2-19-15-37-14.807482957,AGENT#b4b50916-532d-11ea-8ca5-2f73631d97bf,45,49,94,10,1.0,1.0,0
run-2020-2-19-15-37-14.807482957,AGENT#b4d3ccb6-532d-11ea-859c-abc9562d055f,10,84,94,10,1.0,1.0,0
run-2020-2-19-15-37-14.807482957,AGENT#b4dc7276-532d-11ea-a647-734faedf99c0,2,92,94,10,1.0,1.0,0
run-2020-2-19-15-37-14.807482957,AGENT#b4b5d1f2-532d-11ea-9d19-bf92ecb3d5ea,45,50,95,10,1.0,1.0,0
run-2020-2-19-15-37-14.807482957,AGENT#b4c11c88-532d-11ea-a943-5b3dc979fe58,31,64,95,10,1.0,1.0,0
run-2020-2-19-15-37-14.807482957,AGENT#b4db6886-532d-11ea-a663-3f546cc4ed02,4,91,95,10,1.0,1.0,0
run-2020-2-19-15-37-14.807482957,AGENT#b4b6820a-532d-11ea-9697-1f85f43caea4,45,51,96,10,1.0,1.0,0
run-2020-2-19-15-37-14.807482957,AGENT#b4dc7820-532d-11ea-b063-7775603f0f3d,4,92,96,10,1.0,1.0,0
run-2020-2-19-15-37-14.807482957,AGENT#b4b687b4-532d-11ea-9ad1-7f60980e34de,46,51,97,10,1.0,1.0,0
run-2020-2-19-15-37-14.807482957,AGENT#b4b995a8-532d-11ea-9d50-2f73f1e8d755,42,55,97,10,1.0,1.0,0
run-2020-2-19-15-37-14.807482957,AGENT#b4ccff9e-532d-11ea-bf6b-37a45a52a15a,20,77,97,10,1.0,1.0,0
run-2020-2-19-15-37-14.807482957,AGENT#b4dc7f6e-532d-11ea-8b8d-bf3620275581,5,92,97,10,1.0,1.0,0
run-2020-2-19-15-37-14.807482957,AGENT#b4e080aa-532d-11ea-ba9f-8f5434b3e4b0,1,96,97,10,1.0,1.0,0
run-2020-2-19-15-37-14.807482957,AGENT#b4e08636-532d-11ea-bffd-1ff299c98a4b,1,96,97,10,1.0,1.0,0
run-2020-2-19-15-37-14.807482957,AGENT#b4e08b04-532d-11ea-b054-035934f83026,1,96,97,10,1.0,1.0,0
run-2020-2-19-15-37-14.807482957,AGENT#b4de7d0a-532d-11ea-8050-ef00f69120d6,4,94,98,10,1.0,1.0,0
run-2020-2-19-15-37-14.807482957,AGENT#b4b68eb2-532d-11ea-836c-ef6721cc0a11,48,51,99,10,1.0,1.0,0
run-2020-2-19-15-37-14.807482957,AGENT#b4b819da-532d-11ea-baf1-87cc732713ce,46,53,99,10,1.0,1.0,0
run-2020-2-19-15-37-14.807482957,AGENT#b4b8d19a-532d-11ea-8000-4356e9e7852c,45,54,99,10,1.0,1.0,0
run-2020-2-19-15-37-14.807482957,AGENT#b4d1d19a-532d-11ea-ae93-275977ed9a6a,17,82,99,10,1.0,1.0,0
run-2020-2-19-15-37-14.807482957,AGENT#b4de7a1c-532d-11ea-8bb1-5703cb106f8c,5,94,99,10,1.0,1.0,0
run-2020-2-19-15-37-14.807482957,AGENT#b4df7188-532d-11ea-adb2-f395b2a743d1,4,95,99,10,1.0,1.0,0
run-2020-2-19-15-37-14.807482957,AGENT#b4e0837a-532d-11ea-89b2-d3500035511c,3,96,99,10,1.0,1.0,0
run-2020-2-19-15-37-14.807482957,AGENT#b4e08d5c-532d-11ea-b17e-d750669b38f3,3,96,99,10,1.0,1.0,0
