Source,Target
LAWea8d944a-5fcb-11ea-9451-230f60353631,LAWea8da55c-5fcb-11ea-a0d3-53ec22a872da
LAWea8d94e0-5fcb-11ea-b86e-13bfb0a9fe7a,LAWea8dbeb6-5fcb-11ea-868c-4f7351b2432d
LAWea8dbeb6-5fcb-11ea-868c-4f7351b2432d,LAWea8dc32a-5fcb-11ea-ba1d-5f41527a0732
