RunID,Tick,AllAgents,Active,Inactive
run-2020-3-4-16-39-23.075031995,0,12,11,1
run-2020-3-4-16-39-23.075031995,1,15,13,2
run-2020-3-4-16-39-23.075031995,2,16,12,4
run-2020-3-4-16-39-23.075031995,3,20,15,5
run-2020-3-4-16-39-23.075031995,4,25,17,8
run-2020-3-4-16-39-23.075031995,5,29,15,14
run-2020-3-4-16-39-23.075031995,6,34,17,17
run-2020-3-4-16-39-23.075031995,7,36,15,21
run-2020-3-4-16-39-23.075031995,8,39,17,22
