RunID,Tick,ActiveAgentsPerTick
run-2020-2-28-15-49-33.209811925,0,16
run-2020-2-28-15-49-33.209811925,1,17
run-2020-2-28-15-49-33.209811925,2,16
run-2020-2-28-15-49-33.209811925,3,22
run-2020-2-28-15-49-33.209811925,4,20
run-2020-2-28-15-49-33.209811925,5,21
run-2020-2-28-15-49-33.209811925,6,21
run-2020-2-28-15-49-33.209811925,7,19
run-2020-2-28-15-49-33.209811925,8,19
run-2020-2-28-15-49-33.209811925,9,21
run-2020-2-28-15-49-33.209811925,10,24
run-2020-2-28-15-49-33.209811925,11,26
run-2020-2-28-15-49-33.209811925,12,29
run-2020-2-28-15-49-33.209811925,13,33
run-2020-2-28-15-49-33.209811925,14,30
run-2020-2-28-15-49-33.209811925,15,30
run-2020-2-28-15-49-33.209811925,16,35
run-2020-2-28-15-49-33.209811925,17,38
run-2020-2-28-15-49-33.209811925,18,38
run-2020-2-28-15-49-33.209811925,19,37
run-2020-2-28-15-49-33.209811925,20,37
run-2020-2-28-15-49-33.209811925,21,40
run-2020-2-28-15-49-33.209811925,22,38
run-2020-2-28-15-49-33.209811925,23,41
run-2020-2-28-15-49-33.209811925,24,40
run-2020-2-28-15-49-33.209811925,25,42
run-2020-2-28-15-49-33.209811925,26,42
run-2020-2-28-15-49-33.209811925,27,48
run-2020-2-28-15-49-33.209811925,28,49
run-2020-2-28-15-49-33.209811925,29,50
run-2020-2-28-15-49-33.209811925,30,49
run-2020-2-28-15-49-33.209811925,31,45
run-2020-2-28-15-49-33.209811925,32,48
run-2020-2-28-15-49-33.209811925,33,51
run-2020-2-28-15-49-33.209811925,34,58
run-2020-2-28-15-49-33.209811925,35,56
run-2020-2-28-15-49-33.209811925,36,63
run-2020-2-28-15-49-33.209811925,37,63
run-2020-2-28-15-49-33.209811925,38,64
run-2020-2-28-15-49-33.209811925,39,63
run-2020-2-28-15-49-33.209811925,40,59
run-2020-2-28-15-49-33.209811925,41,57
run-2020-2-28-15-49-33.209811925,42,58
run-2020-2-28-15-49-33.209811925,43,56
run-2020-2-28-15-49-33.209811925,44,55
run-2020-2-28-15-49-33.209811925,45,59
run-2020-2-28-15-49-33.209811925,46,63
run-2020-2-28-15-49-33.209811925,47,59
run-2020-2-28-15-49-33.209811925,48,58
run-2020-2-28-15-49-33.209811925,49,55
run-2020-2-28-15-49-33.209811925,50,58
run-2020-2-28-15-49-33.209811925,51,57
run-2020-2-28-15-49-33.209811925,52,51
run-2020-2-28-15-49-33.209811925,53,54
run-2020-2-28-15-49-33.209811925,54,54
run-2020-2-28-15-49-33.209811925,55,57
run-2020-2-28-15-49-33.209811925,56,57
run-2020-2-28-15-49-33.209811925,57,56
run-2020-2-28-15-49-33.209811925,58,58
run-2020-2-28-15-49-33.209811925,59,55
run-2020-2-28-15-49-33.209811925,60,57
run-2020-2-28-15-49-33.209811925,61,57
run-2020-2-28-15-49-33.209811925,62,56
run-2020-2-28-15-49-33.209811925,63,56
run-2020-2-28-15-49-33.209811925,64,55
run-2020-2-28-15-49-33.209811925,65,52
run-2020-2-28-15-49-33.209811925,66,52
run-2020-2-28-15-49-33.209811925,67,54
run-2020-2-28-15-49-33.209811925,68,53
run-2020-2-28-15-49-33.209811925,69,54
run-2020-2-28-15-49-33.209811925,70,54
run-2020-2-28-15-49-33.209811925,71,51
run-2020-2-28-15-49-33.209811925,72,55
run-2020-2-28-15-49-33.209811925,73,53
run-2020-2-28-15-49-33.209811925,74,49
run-2020-2-28-15-49-33.209811925,75,48
run-2020-2-28-15-49-33.209811925,76,47
run-2020-2-28-15-49-33.209811925,77,47
run-2020-2-28-15-49-33.209811925,78,47
run-2020-2-28-15-49-33.209811925,79,48
run-2020-2-28-15-49-33.209811925,80,51
run-2020-2-28-15-49-33.209811925,81,51
run-2020-2-28-15-49-33.209811925,82,50
run-2020-2-28-15-49-33.209811925,83,46
run-2020-2-28-15-49-33.209811925,84,41
run-2020-2-28-15-49-33.209811925,85,44
run-2020-2-28-15-49-33.209811925,86,47
run-2020-2-28-15-49-33.209811925,87,50
run-2020-2-28-15-49-33.209811925,88,48
run-2020-2-28-15-49-33.209811925,89,50
run-2020-2-28-15-49-33.209811925,90,49
run-2020-2-28-15-49-33.209811925,91,48
run-2020-2-28-15-49-33.209811925,92,48
run-2020-2-28-15-49-33.209811925,93,50
run-2020-2-28-15-49-33.209811925,94,53
run-2020-2-28-15-49-33.209811925,95,57
run-2020-2-28-15-49-33.209811925,96,58
run-2020-2-28-15-49-33.209811925,97,54
run-2020-2-28-15-49-33.209811925,98,52
run-2020-2-28-15-49-33.209811925,99,52
run-2020-2-28-15-49-33.209811925,100,48
