RunID,Tick,ActiveAgentsPerTick
run-2020-2-18-13-46-8.483575105,0,11
run-2020-2-18-13-46-8.483575105,1,10
run-2020-2-18-13-46-8.483575105,2,13
run-2020-2-18-13-46-8.483575105,3,18
run-2020-2-18-13-46-8.483575105,4,21
run-2020-2-18-13-46-8.483575105,5,18
run-2020-2-18-13-46-8.483575105,6,16
run-2020-2-18-13-46-8.483575105,7,15
run-2020-2-18-13-46-8.483575105,8,19
run-2020-2-18-13-46-8.483575105,9,25
run-2020-2-18-13-46-8.483575105,10,27
run-2020-2-18-13-46-8.483575105,11,23
run-2020-2-18-13-46-8.483575105,12,19
run-2020-2-18-13-46-8.483575105,13,19
run-2020-2-18-13-46-8.483575105,14,24
run-2020-2-18-13-46-8.483575105,15,26
run-2020-2-18-13-46-8.483575105,16,28
run-2020-2-18-13-46-8.483575105,17,29
run-2020-2-18-13-46-8.483575105,18,28
run-2020-2-18-13-46-8.483575105,19,29
run-2020-2-18-13-46-8.483575105,20,30
run-2020-2-18-13-46-8.483575105,21,31
run-2020-2-18-13-46-8.483575105,22,28
run-2020-2-18-13-46-8.483575105,23,35
run-2020-2-18-13-46-8.483575105,24,39
run-2020-2-18-13-46-8.483575105,25,39
run-2020-2-18-13-46-8.483575105,26,38
run-2020-2-18-13-46-8.483575105,27,41
run-2020-2-18-13-46-8.483575105,28,46
run-2020-2-18-13-46-8.483575105,29,46
run-2020-2-18-13-46-8.483575105,30,42
run-2020-2-18-13-46-8.483575105,31,41
run-2020-2-18-13-46-8.483575105,32,40
run-2020-2-18-13-46-8.483575105,33,42
run-2020-2-18-13-46-8.483575105,34,40
run-2020-2-18-13-46-8.483575105,35,36
run-2020-2-18-13-46-8.483575105,36,33
run-2020-2-18-13-46-8.483575105,37,37
run-2020-2-18-13-46-8.483575105,38,37
run-2020-2-18-13-46-8.483575105,39,43
run-2020-2-18-13-46-8.483575105,40,43
run-2020-2-18-13-46-8.483575105,41,47
run-2020-2-18-13-46-8.483575105,42,49
run-2020-2-18-13-46-8.483575105,43,49
run-2020-2-18-13-46-8.483575105,44,50
run-2020-2-18-13-46-8.483575105,45,52
run-2020-2-18-13-46-8.483575105,46,51
run-2020-2-18-13-46-8.483575105,47,53
run-2020-2-18-13-46-8.483575105,48,53
run-2020-2-18-13-46-8.483575105,49,53
run-2020-2-18-13-46-8.483575105,50,57
run-2020-2-18-13-46-8.483575105,51,58
run-2020-2-18-13-46-8.483575105,52,56
run-2020-2-18-13-46-8.483575105,53,60
run-2020-2-18-13-46-8.483575105,54,61
run-2020-2-18-13-46-8.483575105,55,58
run-2020-2-18-13-46-8.483575105,56,57
run-2020-2-18-13-46-8.483575105,57,58
run-2020-2-18-13-46-8.483575105,58,54
run-2020-2-18-13-46-8.483575105,59,55
run-2020-2-18-13-46-8.483575105,60,54
run-2020-2-18-13-46-8.483575105,61,56
run-2020-2-18-13-46-8.483575105,62,56
run-2020-2-18-13-46-8.483575105,63,58
run-2020-2-18-13-46-8.483575105,64,59
run-2020-2-18-13-46-8.483575105,65,62
run-2020-2-18-13-46-8.483575105,66,58
run-2020-2-18-13-46-8.483575105,67,54
run-2020-2-18-13-46-8.483575105,68,52
run-2020-2-18-13-46-8.483575105,69,49
run-2020-2-18-13-46-8.483575105,70,48
run-2020-2-18-13-46-8.483575105,71,46
run-2020-2-18-13-46-8.483575105,72,44
run-2020-2-18-13-46-8.483575105,73,49
run-2020-2-18-13-46-8.483575105,74,51
run-2020-2-18-13-46-8.483575105,75,56
run-2020-2-18-13-46-8.483575105,76,56
run-2020-2-18-13-46-8.483575105,77,62
run-2020-2-18-13-46-8.483575105,78,62
run-2020-2-18-13-46-8.483575105,79,56
run-2020-2-18-13-46-8.483575105,80,57
run-2020-2-18-13-46-8.483575105,81,59
run-2020-2-18-13-46-8.483575105,82,59
run-2020-2-18-13-46-8.483575105,83,56
run-2020-2-18-13-46-8.483575105,84,62
run-2020-2-18-13-46-8.483575105,85,62
run-2020-2-18-13-46-8.483575105,86,60
run-2020-2-18-13-46-8.483575105,87,58
run-2020-2-18-13-46-8.483575105,88,59
run-2020-2-18-13-46-8.483575105,89,56
run-2020-2-18-13-46-8.483575105,90,55
run-2020-2-18-13-46-8.483575105,91,52
run-2020-2-18-13-46-8.483575105,92,50
run-2020-2-18-13-46-8.483575105,93,51
run-2020-2-18-13-46-8.483575105,94,50
run-2020-2-18-13-46-8.483575105,95,47
run-2020-2-18-13-46-8.483575105,96,52
run-2020-2-18-13-46-8.483575105,97,53
run-2020-2-18-13-46-8.483575105,98,53
run-2020-2-18-13-46-8.483575105,99,55
run-2020-2-18-13-46-8.483575105,100,52
