RunID,Agent,Age,Created,Inactive,Resources,Reputation,Ability,Que
run-2020-2-18-13-46-8.483575105,AGENT#045b4dec-5255-11ea-b37e-77d37bd78d32,0,0,0,10,1.0,1.0,0
run-2020-2-18-13-46-8.483575105,AGENT#045b5d0a-5255-11ea-8a65-abddf2e18f19,0,0,0,10,1.0,1.0,0
run-2020-2-18-13-46-8.483575105,AGENT#045b6854-5255-11ea-a7d4-bf737a7bf98b,0,0,0,10,1.0,1.0,0
run-2020-2-18-13-46-8.483575105,AGENT#045b5152-5255-11ea-8626-4bc4712b4250,2,0,2,10,1.0,1.0,0
run-2020-2-18-13-46-8.483575105,AGENT#045b62b4-5255-11ea-bd1a-73ff9bab2ce9,2,0,2,10,1.0,1.0,0
run-2020-2-18-13-46-8.483575105,AGENT#045b6584-5255-11ea-9f60-73168e1391f8,2,0,2,10,1.0,1.0,0
run-2020-2-18-13-46-8.483575105,AGENT#045c0fde-5255-11ea-9d86-1f30ec6f1177,1,1,2,10,1.0,1.0,0
run-2020-2-18-13-46-8.483575105,AGENT#045baa12-5255-11ea-a98b-d3672ccbb517,3,0,3,10,1.0,1.0,0
run-2020-2-18-13-46-8.483575105,AGENT#045b5454-5255-11ea-beda-f740e08b3aa4,4,0,4,10,1.0,1.0,0
run-2020-2-18-13-46-8.483575105,AGENT#045b5fda-5255-11ea-af30-f3841b4f95cb,4,0,4,10,1.0,1.0,0
run-2020-2-18-13-46-8.483575105,AGENT#045c4ee0-5255-11ea-bdd5-0391ce47ace5,2,2,4,10,1.0,1.0,0
run-2020-2-18-13-46-8.483575105,AGENT#045c9486-5255-11ea-b361-a31df7529af3,1,3,4,10,1.0,1.0,0
run-2020-2-18-13-46-8.483575105,AGENT#045c9ac6-5255-11ea-87ba-c3954d0ab7ec,1,3,4,10,1.0,1.0,0
run-2020-2-18-13-46-8.483575105,AGENT#045ca426-5255-11ea-b226-7fb7e8a30aa8,1,3,4,10,1.0,1.0,0
run-2020-2-18-13-46-8.483575105,AGENT#045c4be8-5255-11ea-9a63-1bd1a595c45f,3,2,5,10,1.0,1.0,0
run-2020-2-18-13-46-8.483575105,AGENT#045c9030-5255-11ea-9644-2721d94b272f,2,3,5,10,1.0,1.0,0
run-2020-2-18-13-46-8.483575105,AGENT#045cf520-5255-11ea-af3b-e7fcf1d22b97,1,4,5,10,1.0,1.0,0
run-2020-2-18-13-46-8.483575105,AGENT#045cfc28-5255-11ea-a0ce-0b7b21aa753b,1,4,5,10,1.0,1.0,0
run-2020-2-18-13-46-8.483575105,AGENT#045c12fe-5255-11ea-a146-0b88bfe3b1fc,5,1,6,10,1.0,1.0,0
run-2020-2-18-13-46-8.483575105,AGENT#045cf908-5255-11ea-b065-0b13e567d9af,2,4,6,10,1.0,1.0,0
run-2020-2-18-13-46-8.483575105,AGENT#045d3a3a-5255-11ea-8371-3b4ec34dd434,1,5,6,10,1.0,1.0,0
run-2020-2-18-13-46-8.483575105,AGENT#045c97d8-5255-11ea-b6b7-abc13015d877,4,3,7,10,1.0,1.0,0
run-2020-2-18-13-46-8.483575105,AGENT#045d36ca-5255-11ea-8785-2b246f0c218e,2,5,7,10,1.0,1.0,0
run-2020-2-18-13-46-8.483575105,AGENT#045de354-5255-11ea-9b2d-cfde570bda67,1,8,9,10,1.0,1.0,0
run-2020-2-18-13-46-8.483575105,AGENT#045d3d3c-5255-11ea-85f7-1b8e13b4b1cc,5,5,10,10,1.0,1.0,0
run-2020-2-18-13-46-8.483575105,AGENT#045d71ee-5255-11ea-a0f0-9b8c5a6eb98b,4,6,10,10,1.0,1.0,0
run-2020-2-18-13-46-8.483575105,AGENT#045da380-5255-11ea-a401-3b9415322506,3,7,10,10,1.0,1.0,0
run-2020-2-18-13-46-8.483575105,AGENT#045da6b4-5255-11ea-a52a-5ff9ddf054be,3,7,10,10,1.0,1.0,0
run-2020-2-18-13-46-8.483575105,AGENT#045de048-5255-11ea-8f6d-f307bf892c51,2,8,10,10,1.0,1.0,0
run-2020-2-18-13-46-8.483575105,AGENT#045decb4-5255-11ea-bb46-a3892575d5e4,2,8,10,10,1.0,1.0,0
run-2020-2-18-13-46-8.483575105,AGENT#045e2ba2-5255-11ea-ae9c-032017f0770c,1,9,10,10,1.0,1.0,0
run-2020-2-18-13-46-8.483575105,AGENT#045e31a6-5255-11ea-a068-574ea07002b2,1,9,10,10,1.0,1.0,0
run-2020-2-18-13-46-8.483575105,AGENT#045d6ece-5255-11ea-9f4e-439f430ad86b,5,6,11,10,1.0,1.0,0
run-2020-2-18-13-46-8.483575105,AGENT#045ddd0a-5255-11ea-8fa2-3bd4968f2b76,3,8,11,10,1.0,1.0,0
run-2020-2-18-13-46-8.483575105,AGENT#045e3a48-5255-11ea-8bdd-33ee1fde4930,2,9,11,10,1.0,1.0,0
run-2020-2-18-13-46-8.483575105,AGENT#045e816a-5255-11ea-abb2-6bd305e080e3,1,10,11,10,1.0,1.0,0
run-2020-2-18-13-46-8.483575105,AGENT#045e2ecc-5255-11ea-b4d2-33d0ddd3841b,3,9,12,10,1.0,1.0,0
run-2020-2-18-13-46-8.483575105,AGENT#045e3782-5255-11ea-8df0-3bd6c4f86f93,3,9,12,10,1.0,1.0,0
run-2020-2-18-13-46-8.483575105,AGENT#045de674-5255-11ea-85aa-2f3df5f9955e,5,8,13,10,1.0,1.0,0
run-2020-2-18-13-46-8.483575105,AGENT#045ec60c-5255-11ea-93ed-d38c006c2cb4,3,11,14,10,1.0,1.0,0
run-2020-2-18-13-46-8.483575105,AGENT#045e7e36-5255-11ea-8674-3fb56db568d9,5,10,15,10,1.0,1.0,0
run-2020-2-18-13-46-8.483575105,AGENT#045f3eca-5255-11ea-98e8-537e1b179312,2,13,15,10,1.0,1.0,0
run-2020-2-18-13-46-8.483575105,AGENT#045f8b00-5255-11ea-8990-6365d3890b85,1,14,15,10,1.0,1.0,0
run-2020-2-18-13-46-8.483575105,AGENT#045f421c-5255-11ea-874f-b7a11b9fdad8,3,13,16,10,1.0,1.0,0
run-2020-2-18-13-46-8.483575105,AGENT#045fe032-5255-11ea-83d6-ebb0c6f7ec3c,1,15,16,10,1.0,1.0,0
run-2020-2-18-13-46-8.483575105,AGENT#045f7c50-5255-11ea-ab2d-e7a9ed26200a,3,14,17,10,1.0,1.0,0
run-2020-2-18-13-46-8.483575105,AGENT#045fdd1c-5255-11ea-943a-b3ed356d3954,2,15,17,10,1.0,1.0,0
run-2020-2-18-13-46-8.483575105,AGENT#04602c22-5255-11ea-b84b-df4caa40cd53,1,16,17,10,1.0,1.0,0
run-2020-2-18-13-46-8.483575105,AGENT#0460261e-5255-11ea-bb71-5b6a3c9add13,2,16,18,10,1.0,1.0,0
run-2020-2-18-13-46-8.483575105,AGENT#04602ef2-5255-11ea-98a5-5b4fa4176b57,2,16,18,10,1.0,1.0,0
run-2020-2-18-13-46-8.483575105,AGENT#04607a7e-5255-11ea-83ab-c7fbac4cbf3b,1,17,18,10,1.0,1.0,0
run-2020-2-18-13-46-8.483575105,AGENT#045e34a8-5255-11ea-b850-136dbdcea00c,10,9,19,10,1.0,1.0,0
run-2020-2-18-13-46-8.483575105,AGENT#046031b8-5255-11ea-9e26-5f4fc040574b,3,16,19,10,1.0,1.0,0
run-2020-2-18-13-46-8.483575105,AGENT#04607d9e-5255-11ea-8c18-03aef9e0381a,2,17,19,10,1.0,1.0,0
run-2020-2-18-13-46-8.483575105,AGENT#0460292a-5255-11ea-83ab-83062d4bd5b6,4,16,20,10,1.0,1.0,0
run-2020-2-18-13-46-8.483575105,AGENT#0460c81c-5255-11ea-90e3-03710a430f39,3,18,21,10,1.0,1.0,0
run-2020-2-18-13-46-8.483575105,AGENT#04611d76-5255-11ea-804e-0764343ade48,2,19,21,10,1.0,1.0,0
run-2020-2-18-13-46-8.483575105,AGENT#04616a56-5255-11ea-87da-4b7861466fec,1,20,21,10,1.0,1.0,0
run-2020-2-18-13-46-8.483575105,AGENT#046114ca-5255-11ea-824d-f7543d86d8ee,3,19,22,10,1.0,1.0,0
run-2020-2-18-13-46-8.483575105,AGENT#04616d3a-5255-11ea-8649-fb5a4993163f,3,20,23,10,1.0,1.0,0
run-2020-2-18-13-46-8.483575105,AGENT#04617000-5255-11ea-935c-53b25ccfea47,3,20,23,10,1.0,1.0,0
run-2020-2-18-13-46-8.483575105,AGENT#045fd9d4-5255-11ea-b856-8769772e8174,9,15,24,10,1.0,1.0,0
run-2020-2-18-13-46-8.483575105,AGENT#04611aa6-5255-11ea-948f-d7690c84741b,5,19,24,10,1.0,1.0,0
run-2020-2-18-13-46-8.483575105,AGENT#04626582-5255-11ea-87fc-8f5b50fc13ed,2,23,25,10,1.0,1.0,0
run-2020-2-18-13-46-8.483575105,AGENT#0462737e-5255-11ea-b4bd-7b8e70b5263e,2,23,25,10,1.0,1.0,0
run-2020-2-18-13-46-8.483575105,AGENT#046278d8-5255-11ea-bd1d-3f76fd970de3,2,23,25,10,1.0,1.0,0
run-2020-2-18-13-46-8.483575105,AGENT#0462cf22-5255-11ea-84c0-97981975d1cc,1,24,25,10,1.0,1.0,0
run-2020-2-18-13-46-8.483575105,AGENT#0462da58-5255-11ea-bb72-979d4aa8eb8b,1,24,25,10,1.0,1.0,0
run-2020-2-18-13-46-8.483575105,AGENT#04626898-5255-11ea-a658-63f85f2d40b8,3,23,26,10,1.0,1.0,0
run-2020-2-18-13-46-8.483575105,AGENT#0462d4b8-5255-11ea-9f53-2ff2f91506a6,2,24,26,10,1.0,1.0,0
run-2020-2-18-13-46-8.483575105,AGENT#0463498e-5255-11ea-a250-93553d0c227a,1,25,26,10,1.0,1.0,0
run-2020-2-18-13-46-8.483575105,AGENT#0463bc2a-5255-11ea-9b8a-bbf41be16a2e,1,26,27,10,1.0,1.0,0
run-2020-2-18-13-46-8.483575105,AGENT#0463bee6-5255-11ea-83c9-077c1497a41a,1,26,27,10,1.0,1.0,0
run-2020-2-18-13-46-8.483575105,AGENT#0463b914-5255-11ea-b6a4-bbd3ef7e3d13,2,26,28,10,1.0,1.0,0
run-2020-2-18-13-46-8.483575105,AGENT#04642796-5255-11ea-82f0-ab5a3b1a8a8e,1,27,28,10,1.0,1.0,0
run-2020-2-18-13-46-8.483575105,AGENT#0463b5ea-5255-11ea-b4e8-9f527a52ded3,3,26,29,10,1.0,1.0,0
run-2020-2-18-13-46-8.483575105,AGENT#0464220a-5255-11ea-a91d-8f1adfd225e8,2,27,29,10,1.0,1.0,0
run-2020-2-18-13-46-8.483575105,AGENT#046424f8-5255-11ea-a3a3-d30fdfe77aaa,2,27,29,10,1.0,1.0,0
run-2020-2-18-13-46-8.483575105,AGENT#04649122-5255-11ea-8bb8-bbea54e07e29,1,28,29,10,1.0,1.0,0
run-2020-2-18-13-46-8.483575105,AGENT#04649b90-5255-11ea-9a13-db6cf3b7daa4,1,28,29,10,1.0,1.0,0
run-2020-2-18-13-46-8.483575105,AGENT#04649e38-5255-11ea-a2f0-3f667b057a8a,1,28,29,10,1.0,1.0,0
run-2020-2-18-13-46-8.483575105,AGENT#046493c0-5255-11ea-bace-bb0c3b3e8d8d,2,28,30,10,1.0,1.0,0
run-2020-2-18-13-46-8.483575105,AGENT#0464965e-5255-11ea-af8c-ff7b09504178,2,28,30,10,1.0,1.0,0
run-2020-2-18-13-46-8.483575105,AGENT#046498fc-5255-11ea-bd40-ebfc100ab8f0,2,28,30,10,1.0,1.0,0
run-2020-2-18-13-46-8.483575105,AGENT#04608064-5255-11ea-8c7a-cbb1664ca990,14,17,31,10,1.0,1.0,0
run-2020-2-18-13-46-8.483575105,AGENT#0461ca32-5255-11ea-b5a8-4fa6359330fe,10,21,31,10,1.0,1.0,0
run-2020-2-18-13-46-8.483575105,AGENT#0462763a-5255-11ea-8830-b7977c84338a,8,23,31,10,1.0,1.0,0
run-2020-2-18-13-46-8.483575105,AGENT#04641eea-5255-11ea-a21a-870985686ee9,4,27,31,10,1.0,1.0,0
run-2020-2-18-13-46-8.483575105,AGENT#04650f58-5255-11ea-9c7f-97ea85b25885,2,29,31,10,1.0,1.0,0
run-2020-2-18-13-46-8.483575105,AGENT#04642cc8-5255-11ea-9a4e-4b78e45b8f71,5,27,32,10,1.0,1.0,0
run-2020-2-18-13-46-8.483575105,AGENT#04650b16-5255-11ea-863b-efd7ec7b5e11,3,29,32,10,1.0,1.0,0
run-2020-2-18-13-46-8.483575105,AGENT#046657be-5255-11ea-ae28-fb6b87933b5a,1,32,33,10,1.0,1.0,0
run-2020-2-18-13-46-8.483575105,AGENT#04665a48-5255-11ea-9376-6360042ce378,1,32,33,10,1.0,1.0,0
run-2020-2-18-13-46-8.483575105,AGENT#0460cb1e-5255-11ea-8648-c3dcb35f15e5,16,18,34,10,1.0,1.0,0
run-2020-2-18-13-46-8.483575105,AGENT#04657646-5255-11ea-9ab7-ff0447e3b936,4,30,34,10,1.0,1.0,0
run-2020-2-18-13-46-8.483575105,AGENT#0466c42e-5255-11ea-86e0-f3a292b53653,1,33,34,10,1.0,1.0,0
run-2020-2-18-13-46-8.483575105,AGENT#0466c97e-5255-11ea-b950-0be8d96f06d7,1,33,34,10,1.0,1.0,0
run-2020-2-18-13-46-8.483575105,AGENT#045ec2ce-5255-11ea-957e-db0879c7a86c,24,11,35,10,1.0,1.0,0
run-2020-2-18-13-46-8.483575105,AGENT#0465ebb2-5255-11ea-89fc-17ebdbf024b0,4,31,35,10,1.0,1.0,0
run-2020-2-18-13-46-8.483575105,AGENT#04665502-5255-11ea-85d0-375af7dd7666,3,32,35,10,1.0,1.0,0
run-2020-2-18-13-46-8.483575105,AGENT#0466520a-5255-11ea-a43f-03ac543913b4,4,32,36,10,1.0,1.0,0
run-2020-2-18-13-46-8.483575105,AGENT#0466c6ea-5255-11ea-b98e-c719e9a5b97f,3,33,36,10,1.0,1.0,0
run-2020-2-18-13-46-8.483575105,AGENT#045c4864-5255-11ea-a9b6-e3a8bd84c308,36,2,38,10,1.0,1.0,0
run-2020-2-18-13-46-8.483575105,AGENT#0468689c-5255-11ea-85c3-dbca7b751cab,1,37,38,10,1.0,1.0,0
run-2020-2-18-13-46-8.483575105,AGENT#046873a0-5255-11ea-8f00-6f19e58d6e95,1,37,38,10,1.0,1.0,0
run-2020-2-18-13-46-8.483575105,AGENT#0461cda2-5255-11ea-b3a6-5fc59f50dc5e,18,21,39,10,1.0,1.0,0
run-2020-2-18-13-46-8.483575105,AGENT#04686590-5255-11ea-81cb-53cccc396ddb,2,37,39,10,1.0,1.0,0
run-2020-2-18-13-46-8.483575105,AGENT#046117e0-5255-11ea-8d71-dfe4d097dd82,21,19,40,10,1.0,1.0,0
run-2020-2-18-13-46-8.483575105,AGENT#04695662-5255-11ea-9ba0-3febe82b02cf,1,39,40,10,1.0,1.0,0
run-2020-2-18-13-46-8.483575105,AGENT#046958ce-5255-11ea-bd08-37138f52c3d4,3,39,42,10,1.0,1.0,0
run-2020-2-18-13-46-8.483575105,AGENT#04695d92-5255-11ea-ba14-979cb01049c8,3,39,42,10,1.0,1.0,0
run-2020-2-18-13-46-8.483575105,AGENT#0465eec8-5255-11ea-8ce6-2be8fed4b388,12,31,43,10,1.0,1.0,0
run-2020-2-18-13-46-8.483575105,AGENT#046a466c-5255-11ea-a630-9f6d9ef363ea,2,41,43,10,1.0,1.0,0
run-2020-2-18-13-46-8.483575105,AGENT#046ab926-5255-11ea-801c-c3864b38c920,1,42,43,10,1.0,1.0,0
run-2020-2-18-13-46-8.483575105,AGENT#04694eec-5255-11ea-a32f-2f5331144195,5,39,44,10,1.0,1.0,0
run-2020-2-18-13-46-8.483575105,AGENT#046953d8-5255-11ea-af94-ef17947ee43c,5,39,44,10,1.0,1.0,0
run-2020-2-18-13-46-8.483575105,AGENT#0469c912-5255-11ea-a30e-071bde548223,4,40,44,10,1.0,1.0,0
run-2020-2-18-13-46-8.483575105,AGENT#046b35f4-5255-11ea-b6fa-3325e05c73cf,1,43,44,10,1.0,1.0,0
run-2020-2-18-13-46-8.483575105,AGENT#046a3a14-5255-11ea-b982-fb019811b335,4,41,45,10,1.0,1.0,0
run-2020-2-18-13-46-8.483575105,AGENT#046bacaa-5255-11ea-b8a6-0f54ac3f450b,1,44,45,10,1.0,1.0,0
run-2020-2-18-13-46-8.483575105,AGENT#046bb4ac-5255-11ea-b59e-775e9ece0336,1,44,45,10,1.0,1.0,0
run-2020-2-18-13-46-8.483575105,AGENT#046a3f3c-5255-11ea-949a-3f0b4a54aea8,5,41,46,10,1.0,1.0,0
run-2020-2-18-13-46-8.483575105,AGENT#045b5a3a-5255-11ea-bfac-e36219e0d504,47,0,47,10,1.0,1.0,0
run-2020-2-18-13-46-8.483575105,AGENT#046baf7a-5255-11ea-9739-4f571c79ff29,3,44,47,10,1.0,1.0,0
run-2020-2-18-13-46-8.483575105,AGENT#046cb08c-5255-11ea-abde-3b23963aad6a,1,46,47,10,1.0,1.0,0
run-2020-2-18-13-46-8.483575105,AGENT#045b5756-5255-11ea-8f42-a7766232a8f2,48,0,48,10,1.0,1.0,0
run-2020-2-18-13-46-8.483575105,AGENT#046c31f2-5255-11ea-9683-67d74526e68b,3,45,48,10,1.0,1.0,0
run-2020-2-18-13-46-8.483575105,AGENT#046cadee-5255-11ea-8f1c-132e7d0b29f8,2,46,48,10,1.0,1.0,0
run-2020-2-18-13-46-8.483575105,AGENT#045ca732-5255-11ea-bfc0-83c72ba42cb5,46,3,49,10,1.0,1.0,0
run-2020-2-18-13-46-8.483575105,AGENT#046db2ac-5255-11ea-9eb6-b37741a8a914,1,48,49,10,1.0,1.0,0
run-2020-2-18-13-46-8.483575105,AGENT#045ca0a2-5255-11ea-82f4-73c215da05e8,47,3,50,10,1.0,1.0,0
run-2020-2-18-13-46-8.483575105,AGENT#045cffa2-5255-11ea-9cc6-6f065410d907,46,4,50,10,1.0,1.0,0
run-2020-2-18-13-46-8.483575105,AGENT#046c2f7c-5255-11ea-94ca-4f1068a456e7,5,45,50,10,1.0,1.0,0
run-2020-2-18-13-46-8.483575105,AGENT#046dad84-5255-11ea-915d-970aeb02b55a,2,48,50,10,1.0,1.0,0
run-2020-2-18-13-46-8.483575105,AGENT#046eb594-5255-11ea-8494-7fc667868b72,1,50,51,10,1.0,1.0,0
run-2020-2-18-13-46-8.483575105,AGENT#046eb7e2-5255-11ea-a9c0-4fcc6f091550,1,50,51,10,1.0,1.0,0
run-2020-2-18-13-46-8.483575105,AGENT#046eba44-5255-11ea-bcf6-230f85be0ede,1,50,51,10,1.0,1.0,0
run-2020-2-18-13-46-8.483575105,AGENT#046d317e-5255-11ea-aa70-bf8ce611a612,5,47,52,10,1.0,1.0,0
run-2020-2-18-13-46-8.483575105,AGENT#046e339e-5255-11ea-991c-d3894a133f74,3,49,52,10,1.0,1.0,0
run-2020-2-18-13-46-8.483575105,AGENT#045c8b80-5255-11ea-b7de-3baefcbbb0e5,50,3,53,10,1.0,1.0,0
run-2020-2-18-13-46-8.483575105,AGENT#045c9daa-5255-11ea-9408-a348e241b662,50,3,53,10,1.0,1.0,0
run-2020-2-18-13-46-8.483575105,AGENT#0470378e-5255-11ea-ba4d-57a0f05ea715,1,52,53,10,1.0,1.0,0
run-2020-2-18-13-46-8.483575105,AGENT#046eb346-5255-11ea-9e9a-4b6b4602df70,4,50,54,10,1.0,1.0,0
run-2020-2-18-13-46-8.483575105,AGENT#046f8550-5255-11ea-9a40-83a7f917972d,3,51,54,10,1.0,1.0,0
run-2020-2-18-13-46-8.483575105,AGENT#0470dbe4-5255-11ea-bc70-5bd699a4dddb,1,53,54,10,1.0,1.0,0
run-2020-2-18-13-46-8.483575105,AGENT#045e8462-5255-11ea-bbcd-37b845fe995f,45,10,55,10,1.0,1.0,0
run-2020-2-18-13-46-8.483575105,AGENT#0470d95a-5255-11ea-aad9-7b708bdfa30a,2,53,55,10,1.0,1.0,0
run-2020-2-18-13-46-8.483575105,AGENT#04716eec-5255-11ea-85af-73263f1d2f44,1,54,55,10,1.0,1.0,0
run-2020-2-18-13-46-8.483575105,AGENT#0471713a-5255-11ea-a9a5-2b68bbef5ac2,1,54,55,10,1.0,1.0,0
run-2020-2-18-13-46-8.483575105,AGENT#045de9c6-5255-11ea-a881-934e6d9735c1,48,8,56,10,1.0,1.0,0
run-2020-2-18-13-46-8.483575105,AGENT#04716a0a-5255-11ea-8d63-2b63333c22db,2,54,56,10,1.0,1.0,0
run-2020-2-18-13-46-8.483575105,AGENT#045ec8fa-5255-11ea-ba1c-b7990a79d635,46,11,57,10,1.0,1.0,0
run-2020-2-18-13-46-8.483575105,AGENT#046c394a-5255-11ea-a171-e31a7125b0b9,12,45,57,10,1.0,1.0,0
run-2020-2-18-13-46-8.483575105,AGENT#0470d43c-5255-11ea-a75b-9b2701301321,4,53,57,10,1.0,1.0,0
run-2020-2-18-13-46-8.483575105,AGENT#0470d6e4-5255-11ea-af56-475ae6837fbe,4,53,57,10,1.0,1.0,0
run-2020-2-18-13-46-8.483575105,AGENT#045ecbde-5255-11ea-9636-17973bcf7e31,47,11,58,10,1.0,1.0,0
run-2020-2-18-13-46-8.483575105,AGENT#04727f80-5255-11ea-a556-d7393c06f69f,2,56,58,10,1.0,1.0,0
run-2020-2-18-13-46-8.483575105,AGENT#047281ba-5255-11ea-82e6-9f4047055451,2,56,58,10,1.0,1.0,0
run-2020-2-18-13-46-8.483575105,AGENT#045f7f70-5255-11ea-bfc2-9726d8e5d63c,45,14,59,10,1.0,1.0,0
run-2020-2-18-13-46-8.483575105,AGENT#045f8556-5255-11ea-bd67-776ec1b05244,45,14,59,10,1.0,1.0,0
run-2020-2-18-13-46-8.483575105,AGENT#045f8844-5255-11ea-a9e1-5b7e815c6553,45,14,59,10,1.0,1.0,0
run-2020-2-18-13-46-8.483575105,AGENT#047309b4-5255-11ea-81c1-87e0daa78981,2,57,59,10,1.0,1.0,0
run-2020-2-18-13-46-8.483575105,AGENT#045f824a-5255-11ea-9196-43778a7ccc77,46,14,60,10,1.0,1.0,0
run-2020-2-18-13-46-8.483575105,AGENT#04742358-5255-11ea-98d1-f7de0ca46d7f,1,59,60,10,1.0,1.0,0
run-2020-2-18-13-46-8.483575105,AGENT#046c36e8-5255-11ea-a489-abcbe669c256,16,45,61,10,1.0,1.0,0
run-2020-2-18-13-46-8.483575105,AGENT#04730e6e-5255-11ea-8ac0-cb5897009231,4,57,61,10,1.0,1.0,0
run-2020-2-18-13-46-8.483575105,AGENT#04742092-5255-11ea-b9a3-87d4e5e42251,2,59,61,10,1.0,1.0,0
run-2020-2-18-13-46-8.483575105,AGENT#0474b746-5255-11ea-8fe7-278d2a553f7f,2,60,62,10,1.0,1.0,0
run-2020-2-18-13-46-8.483575105,AGENT#04696008-5255-11ea-98f7-7396f2dfe20c,24,39,63,10,1.0,1.0,0
run-2020-2-18-13-46-8.483575105,AGENT#04742678-5255-11ea-a89e-d7c335236a42,4,59,63,10,1.0,1.0,0
run-2020-2-18-13-46-8.483575105,AGENT#046c2cde-5255-11ea-87c3-234203bd7684,19,45,64,10,1.0,1.0,0
run-2020-2-18-13-46-8.483575105,AGENT#04727d00-5255-11ea-bb33-f72e099eaeb5,8,56,64,10,1.0,1.0,0
run-2020-2-18-13-46-8.483575105,AGENT#0474b49e-5255-11ea-b6ad-a7a655ef444e,4,60,64,10,1.0,1.0,0
run-2020-2-18-13-46-8.483575105,AGENT#04754350-5255-11ea-971e-9395b275607b,3,61,64,10,1.0,1.0,0
run-2020-2-18-13-46-8.483575105,AGENT#04686dec-5255-11ea-a109-7b7067f590e1,28,37,65,10,1.0,1.0,0
run-2020-2-18-13-46-8.483575105,AGENT#046e313c-5255-11ea-9651-97741a36e5bb,16,49,65,10,1.0,1.0,0
run-2020-2-18-13-46-8.483575105,AGENT#047540da-5255-11ea-8bb8-13ac212d3f28,4,61,65,10,1.0,1.0,0
run-2020-2-18-13-46-8.483575105,AGENT#0475cd5c-5255-11ea-9900-c3529dbe9a21,3,62,65,10,1.0,1.0,0
run-2020-2-18-13-46-8.483575105,AGENT#0476952a-5255-11ea-8f5a-afbee8031bd7,2,63,65,10,1.0,1.0,0
run-2020-2-18-13-46-8.483575105,AGENT#04616768-5255-11ea-9f23-234cc2e7b235,46,20,66,10,1.0,1.0,0
run-2020-2-18-13-46-8.483575105,AGENT#04648e48-5255-11ea-b3f9-1fc7d5c80f0c,38,28,66,10,1.0,1.0,0
run-2020-2-18-13-46-8.483575105,AGENT#0474b994-5255-11ea-ba33-67011863f2f4,6,60,66,10,1.0,1.0,0
run-2020-2-18-13-46-8.483575105,AGENT#0475d216-5255-11ea-a96d-afa604ede372,4,62,66,10,1.0,1.0,0
run-2020-2-18-13-46-8.483575105,AGENT#0477e880-5255-11ea-aa09-6bc17f69c8ff,1,65,66,10,1.0,1.0,0
run-2020-2-18-13-46-8.483575105,AGENT#047428c6-5255-11ea-b00f-2f6da487a2c4,8,59,67,10,1.0,1.0,0
run-2020-2-18-13-46-8.483575105,AGENT#0477ef56-5255-11ea-8480-c7834d93b417,2,65,67,10,1.0,1.0,0
run-2020-2-18-13-46-8.483575105,AGENT#04788db2-5255-11ea-89c6-2bf26e24a59f,1,66,67,10,1.0,1.0,0
run-2020-2-18-13-46-8.483575105,AGENT#04626b72-5255-11ea-b7ca-c7e6cfcd25a2,45,23,68,10,1.0,1.0,0
run-2020-2-18-13-46-8.483575105,AGENT#04626e2e-5255-11ea-b87f-bb78db2742f6,45,23,68,10,1.0,1.0,0
run-2020-2-18-13-46-8.483575105,AGENT#0477e628-5255-11ea-a0cf-7b4e401aeba8,3,65,68,10,1.0,1.0,0
run-2020-2-18-13-46-8.483575105,AGENT#0477eaba-5255-11ea-9fab-2f3fcceeeebb,3,65,68,10,1.0,1.0,0
run-2020-2-18-13-46-8.483575105,AGENT#046270d6-5255-11ea-bd88-2f4cb8fc4a5d,46,23,69,10,1.0,1.0,0
run-2020-2-18-13-46-8.483575105,AGENT#0462d206-5255-11ea-9d4a-1f78933f7a11,45,24,69,10,1.0,1.0,0
run-2020-2-18-13-46-8.483575105,AGENT#0462dce2-5255-11ea-9070-ff00e5a6b7f0,45,24,69,10,1.0,1.0,0
run-2020-2-18-13-46-8.483575105,AGENT#0477e380-5255-11ea-9975-eb04cc4d68b5,4,65,69,10,1.0,1.0,0
run-2020-2-18-13-46-8.483575105,AGENT#04634d30-5255-11ea-a30e-4b2058c98377,45,25,70,10,1.0,1.0,0
run-2020-2-18-13-46-8.483575105,AGENT#0477f190-5255-11ea-88bc-8b9d228d4cf5,5,65,70,10,1.0,1.0,0
run-2020-2-18-13-46-8.483575105,AGENT#04794568-5255-11ea-a433-cb2dc665b7ed,3,67,70,10,1.0,1.0,0
run-2020-2-18-13-46-8.483575105,AGENT#047a0b4c-5255-11ea-a180-4b61135797d3,2,68,70,10,1.0,1.0,0
run-2020-2-18-13-46-8.483575105,AGENT#0462d774-5255-11ea-894f-abe050fd25f1,47,24,71,10,1.0,1.0,0
run-2020-2-18-13-46-8.483575105,AGENT#046f7efc-5255-11ea-980d-2bfcf572c2f7,20,51,71,10,1.0,1.0,0
run-2020-2-18-13-46-8.483575105,AGENT#047ab646-5255-11ea-8f37-ff3c49eac32c,2,69,71,10,1.0,1.0,0
run-2020-2-18-13-46-8.483575105,AGENT#047b5394-5255-11ea-b76e-d74141592550,1,70,71,10,1.0,1.0,0
run-2020-2-18-13-46-8.483575105,AGENT#046e2e8a-5255-11ea-9579-37dc7bd96682,24,49,73,10,1.0,1.0,0
run-2020-2-18-13-46-8.483575105,AGENT#047bda58-5255-11ea-96c0-0399490cb2f2,2,71,73,10,1.0,1.0,0
run-2020-2-18-13-46-8.483575105,AGENT#047c5cf8-5255-11ea-a94f-af75558df92e,1,72,73,10,1.0,1.0,0
run-2020-2-18-13-46-8.483575105,AGENT#04642a34-5255-11ea-86ff-9370bd41d395,47,27,74,10,1.0,1.0,0
run-2020-2-18-13-46-8.483575105,AGENT#047c5a82-5255-11ea-a700-378805a7afcc,2,72,74,10,1.0,1.0,0
run-2020-2-18-13-46-8.483575105,AGENT#04657916-5255-11ea-9dad-831c9ebe5755,45,30,75,10,1.0,1.0,0
run-2020-2-18-13-46-8.483575105,AGENT#046870c6-5255-11ea-956f-0f9b586bf972,38,37,75,10,1.0,1.0,0
run-2020-2-18-13-46-8.483575105,AGENT#047cf0be-5255-11ea-a186-37767f70c81a,2,73,75,10,1.0,1.0,0
run-2020-2-18-13-46-8.483575105,AGENT#047d86c8-5255-11ea-8cfa-abe4b1fb6a51,1,74,75,10,1.0,1.0,0
run-2020-2-18-13-46-8.483575105,AGENT#047d88f8-5255-11ea-a255-2f11f3bf14ea,1,74,75,10,1.0,1.0,0
run-2020-2-18-13-46-8.483575105,AGENT#047bdcc4-5255-11ea-adee-478207c448d2,5,71,76,10,1.0,1.0,0
run-2020-2-18-13-46-8.483575105,AGENT#047e2330-5255-11ea-b664-4771589fc2da,1,75,76,10,1.0,1.0,0
run-2020-2-18-13-46-8.483575105,AGENT#047e2114-5255-11ea-8dbb-17c69ea39bf9,2,75,77,10,1.0,1.0,0
run-2020-2-18-13-46-8.483575105,AGENT#0466c136-5255-11ea-897f-c31368151e7f,45,33,78,10,1.0,1.0,0
run-2020-2-18-13-46-8.483575105,AGENT#046eae28-5255-11ea-a2f2-833e6b997e44,28,50,78,10,1.0,1.0,0
run-2020-2-18-13-46-8.483575105,AGENT#047cfa28-5255-11ea-bffb-cb7a259a1c00,5,73,78,10,1.0,1.0,0
run-2020-2-18-13-46-8.483575105,AGENT#047d8b3c-5255-11ea-99ad-f3fbbc726129,4,74,78,10,1.0,1.0,0
run-2020-2-18-13-46-8.483575105,AGENT#047e2772-5255-11ea-9dba-d766f08fe571,3,75,78,10,1.0,1.0,0
run-2020-2-18-13-46-8.483575105,AGENT#047f78ac-5255-11ea-a97d-e7c59a83ed38,1,77,78,10,1.0,1.0,0
run-2020-2-18-13-46-8.483575105,AGENT#047f7b04-5255-11ea-8be7-8bad1092b776,1,77,78,10,1.0,1.0,0
run-2020-2-18-13-46-8.483575105,AGENT#047f7d3e-5255-11ea-854b-6bc196111239,1,77,78,10,1.0,1.0,0
run-2020-2-18-13-46-8.483575105,AGENT#047f81b2-5255-11ea-bdce-b3e23dc160f2,1,77,78,10,1.0,1.0,0
run-2020-2-18-13-46-8.483575105,AGENT#04694bf4-5255-11ea-bb17-1f7d4bb80fad,40,39,79,10,1.0,1.0,0
run-2020-2-18-13-46-8.483575105,AGENT#04695b30-5255-11ea-b0d7-1b79fd70e0c8,40,39,79,10,1.0,1.0,0
run-2020-2-18-13-46-8.483575105,AGENT#047545c6-5255-11ea-8baa-fff106ba86fd,18,61,79,10,1.0,1.0,0
run-2020-2-18-13-46-8.483575105,AGENT#047e1a20-5255-11ea-9890-27847f9e1079,4,75,79,10,1.0,1.0,0
run-2020-2-18-13-46-8.483575105,AGENT#047e1caa-5255-11ea-81d3-b7db369e88d6,4,75,79,10,1.0,1.0,0
run-2020-2-18-13-46-8.483575105,AGENT#047e1eda-5255-11ea-9801-d3a3ff47301a,5,75,80,10,1.0,1.0,0
run-2020-2-18-13-46-8.483575105,AGENT#047ecd80-5255-11ea-94fe-fbb1ef0f42e7,4,76,80,10,1.0,1.0,0
run-2020-2-18-13-46-8.483575105,AGENT#0480f826-5255-11ea-9991-7fa32d483c15,1,79,80,10,1.0,1.0,0
run-2020-2-18-13-46-8.483575105,AGENT#047ecfe2-5255-11ea-95e4-17e3739c36ea,5,76,81,10,1.0,1.0,0
run-2020-2-18-13-46-8.483575105,AGENT#047f73e8-5255-11ea-ab0f-a706e1b44c3a,4,77,81,10,1.0,1.0,0
run-2020-2-18-13-46-8.483575105,AGENT#047f7f78-5255-11ea-b182-a307dd7d8162,4,77,81,10,1.0,1.0,0
run-2020-2-18-13-46-8.483575105,AGENT#04819e7a-5255-11ea-b450-0f988fcff8a8,1,80,81,10,1.0,1.0,0
run-2020-2-18-13-46-8.483575105,AGENT#046bb20e-5255-11ea-8582-5b7ae14ae75e,38,44,82,10,1.0,1.0,0
run-2020-2-18-13-46-8.483575105,AGENT#046d2eea-5255-11ea-89bc-2b86c5f38fd9,35,47,82,10,1.0,1.0,0
run-2020-2-18-13-46-8.483575105,AGENT#04804480-5255-11ea-ac69-f74988f96c4d,4,78,82,10,1.0,1.0,0
run-2020-2-18-13-46-8.483575105,AGENT#0481a32a-5255-11ea-8213-f79e9a90b069,2,80,82,10,1.0,1.0,0
run-2020-2-18-13-46-8.483575105,AGENT#04826378-5255-11ea-a1f1-37b30c37ad43,1,81,82,10,1.0,1.0,0
run-2020-2-18-13-46-8.483575105,AGENT#04686b58-5255-11ea-84b8-4fd18c1cbfd8,46,37,83,10,1.0,1.0,0
run-2020-2-18-13-46-8.483575105,AGENT#04827020-5255-11ea-ae80-931650a3b101,2,81,83,10,1.0,1.0,0
run-2020-2-18-13-46-8.483575105,AGENT#047ecad8-5255-11ea-827d-6f77affe03fb,8,76,84,10,1.0,1.0,0
run-2020-2-18-13-46-8.483575105,AGENT#0480fd1c-5255-11ea-b546-839f97be9458,5,79,84,10,1.0,1.0,0
run-2020-2-18-13-46-8.483575105,AGENT#04819bbe-5255-11ea-97ef-47f7007ef673,5,80,85,10,1.0,1.0,0
run-2020-2-18-13-46-8.483575105,AGENT#0481a0c8-5255-11ea-8d68-73a1dd627de8,5,80,85,10,1.0,1.0,0
run-2020-2-18-13-46-8.483575105,AGENT#048265c6-5255-11ea-9d62-0f4225a4e955,4,81,85,10,1.0,1.0,0
run-2020-2-18-13-46-8.483575105,AGENT#04833172-5255-11ea-a2ce-b375456c57e5,3,82,85,10,1.0,1.0,0
run-2020-2-18-13-46-8.483575105,AGENT#0469516c-5255-11ea-a173-8b64480e1948,47,39,86,10,1.0,1.0,0
run-2020-2-18-13-46-8.483575105,AGENT#046a3cbc-5255-11ea-9dd8-735ca29ae02c,45,41,86,10,1.0,1.0,0
run-2020-2-18-13-46-8.483575105,AGENT#048336f4-5255-11ea-ae1d-afc99e672d29,4,82,86,10,1.0,1.0,0
run-2020-2-18-13-46-8.483575105,AGENT#04840b6a-5255-11ea-bd1b-27d91bd706ea,3,83,86,10,1.0,1.0,0
run-2020-2-18-13-46-8.483575105,AGENT#04840e62-5255-11ea-8319-03a278aac202,3,83,86,10,1.0,1.0,0
run-2020-2-18-13-46-8.483575105,AGENT#0484bd1c-5255-11ea-a1ff-b33becf120e0,2,84,86,10,1.0,1.0,0
run-2020-2-18-13-46-8.483575105,AGENT#0484c3d4-5255-11ea-adf1-7fc69ab4dc90,2,84,86,10,1.0,1.0,0
run-2020-2-18-13-46-8.483575105,AGENT#0484c69a-5255-11ea-a2ff-cbc959f65f05,2,84,86,10,1.0,1.0,0
run-2020-2-18-13-46-8.483575105,AGENT#0484cb86-5255-11ea-8c37-c3cd89ebcd57,2,84,86,10,1.0,1.0,0
run-2020-2-18-13-46-8.483575105,AGENT#0485a6be-5255-11ea-8f18-5f1de3420498,1,85,86,10,1.0,1.0,0
run-2020-2-18-13-46-8.483575105,AGENT#0485ab1e-5255-11ea-b20f-17d2b1f70b13,1,85,86,10,1.0,1.0,0
run-2020-2-18-13-46-8.483575105,AGENT#046ab674-5255-11ea-81a1-f3bfa4423b62,45,42,87,10,1.0,1.0,0
run-2020-2-18-13-46-8.483575105,AGENT#047ed280-5255-11ea-b313-6fa96457a9ed,11,76,87,10,1.0,1.0,0
run-2020-2-18-13-46-8.483575105,AGENT#0483347e-5255-11ea-ad51-5f462f78ae2f,5,82,87,10,1.0,1.0,0
run-2020-2-18-13-46-8.483575105,AGENT#0483394c-5255-11ea-8298-b7cb887cf65a,5,82,87,10,1.0,1.0,0
run-2020-2-18-13-46-8.483575105,AGENT#046a419e-5255-11ea-9a61-87cd64b654a7,47,41,88,10,1.0,1.0,0
run-2020-2-18-13-46-8.483575105,AGENT#046a440a-5255-11ea-a99e-6f879642ae35,47,41,88,10,1.0,1.0,0
run-2020-2-18-13-46-8.483575105,AGENT#046b332e-5255-11ea-a03e-8361eda507d6,45,43,88,10,1.0,1.0,0
run-2020-2-18-13-46-8.483575105,AGENT#048739de-5255-11ea-a08d-07749d5dfca8,1,87,88,10,1.0,1.0,0
run-2020-2-18-13-46-8.483575105,AGENT#048747bc-5255-11ea-84dc-f77de9c85dc2,1,87,88,10,1.0,1.0,0
run-2020-2-18-13-46-8.483575105,AGENT#0469cc50-5255-11ea-87d3-33c8d8becb93,49,40,89,10,1.0,1.0,0
run-2020-2-18-13-46-8.483575105,AGENT#0484cdd4-5255-11ea-8dfb-b7e0763a6cd3,5,84,89,10,1.0,1.0,0
run-2020-2-18-13-46-8.483575105,AGENT#048734ac-5255-11ea-9622-2332795c2d91,2,87,89,10,1.0,1.0,0
run-2020-2-18-13-46-8.483575105,AGENT#04873786-5255-11ea-9daf-0374e4b98361,2,87,89,10,1.0,1.0,0
run-2020-2-18-13-46-8.483575105,AGENT#048823c6-5255-11ea-a81f-e34fc2331c5e,1,88,89,10,1.0,1.0,0
run-2020-2-18-13-46-8.483575105,AGENT#046c3486-5255-11ea-b5da-7fac943ec5a8,45,45,90,10,1.0,1.0,0
run-2020-2-18-13-46-8.483575105,AGENT#048681e2-5255-11ea-a3f7-5ff7b6f55fb6,4,86,90,10,1.0,1.0,0
run-2020-2-18-13-46-8.483575105,AGENT#04881c96-5255-11ea-8e16-e7bf441da398,2,88,90,10,1.0,1.0,0
run-2020-2-18-13-46-8.483575105,AGENT#0488e752-5255-11ea-8fd9-0fdd88352038,1,89,90,10,1.0,1.0,0
run-2020-2-18-13-46-8.483575105,AGENT#04867e5e-5255-11ea-8495-137f4de8579e,5,86,91,10,1.0,1.0,0
run-2020-2-18-13-46-8.483575105,AGENT#04873e84-5255-11ea-9015-cff1d3ebe9e6,4,87,91,10,1.0,1.0,0
run-2020-2-18-13-46-8.483575105,AGENT#04874578-5255-11ea-9d39-8bcae9673487,4,87,91,10,1.0,1.0,0
run-2020-2-18-13-46-8.483575105,AGENT#04881f16-5255-11ea-bdda-1fe35b7791b8,3,88,91,10,1.0,1.0,0
run-2020-2-18-13-46-8.483575105,AGENT#0489bc54-5255-11ea-9560-73ee7490c090,1,90,91,10,1.0,1.0,0
run-2020-2-18-13-46-8.483575105,AGENT#046d33e0-5255-11ea-82dc-13bf99acb81d,45,47,92,10,1.0,1.0,0
run-2020-2-18-13-46-8.483575105,AGENT#04873c36-5255-11ea-989e-139b4c75d7db,5,87,92,10,1.0,1.0,0
run-2020-2-18-13-46-8.483575105,AGENT#048740dc-5255-11ea-97cb-4fad152e6092,5,87,92,10,1.0,1.0,0
run-2020-2-18-13-46-8.483575105,AGENT#04882178-5255-11ea-aac4-fbd1071c0492,4,88,92,10,1.0,1.0,0
run-2020-2-18-13-46-8.483575105,AGENT#0489b38a-5255-11ea-b950-03ccde9194bd,2,90,92,10,1.0,1.0,0
run-2020-2-18-13-46-8.483575105,AGENT#0481a55a-5255-11ea-93d2-f711c78e7527,13,80,93,10,1.0,1.0,0
run-2020-2-18-13-46-8.483575105,AGENT#048b3fde-5255-11ea-bb45-53e780175bf6,1,92,93,10,1.0,1.0,0
run-2020-2-18-13-46-8.483575105,AGENT#046db040-5255-11ea-8594-476f2e1a48ed,46,48,94,10,1.0,1.0,0
run-2020-2-18-13-46-8.483575105,AGENT#048a86ac-5255-11ea-a3c3-7b9aac40de5e,3,91,94,10,1.0,1.0,0
run-2020-2-18-13-46-8.483575105,AGENT#048c07ac-5255-11ea-961e-03abe2135aa0,1,93,94,10,1.0,1.0,0
run-2020-2-18-13-46-8.483575105,AGENT#048c04b4-5255-11ea-b4ed-3341b7eb963c,2,93,95,10,1.0,1.0,0
run-2020-2-18-13-46-8.483575105,AGENT#048c0b6c-5255-11ea-b15b-9b9636dbdcc6,2,93,95,10,1.0,1.0,0
run-2020-2-18-13-46-8.483575105,AGENT#046eb0b2-5255-11ea-8961-8b75238fece1,46,50,96,10,1.0,1.0,0
run-2020-2-18-13-46-8.483575105,AGENT#046f7858-5255-11ea-92cd-1b873e2a146c,45,51,96,10,1.0,1.0,0
run-2020-2-18-13-46-8.483575105,AGENT#046f7be6-5255-11ea-b89a-43a0fdb2c53c,45,51,96,10,1.0,1.0,0
run-2020-2-18-13-46-8.483575105,AGENT#046f821c-5255-11ea-8fdf-0340c34e34dd,45,51,96,10,1.0,1.0,0
run-2020-2-18-13-46-8.483575105,AGENT#048b3aca-5255-11ea-be7a-5b76d8b0d2f6,4,92,96,10,1.0,1.0,0
run-2020-2-18-13-46-8.483575105,AGENT#048cd47a-5255-11ea-8e87-9363d80c4e8e,2,94,96,10,1.0,1.0,0
run-2020-2-18-13-46-8.483575105,AGENT#048e494a-5255-11ea-8358-3704bc8d77d0,1,96,97,10,1.0,1.0,0
run-2020-2-18-13-46-8.483575105,AGENT#048e5ad4-5255-11ea-9b6c-ef7bc24ca9a9,1,96,97,10,1.0,1.0,0
run-2020-2-18-13-46-8.483575105,AGENT#048c0e5a-5255-11ea-9fe7-d3a05c709d57,5,93,98,10,1.0,1.0,0
run-2020-2-18-13-46-8.483575105,AGENT#04716c80-5255-11ea-b68b-bba6e14584fb,45,54,99,10,1.0,1.0,0
run-2020-2-18-13-46-8.483575105,AGENT#048e5200-5255-11ea-95b4-a730f64c2892,3,96,99,10,1.0,1.0,0
run-2020-2-18-13-46-8.483575105,AGENT#048f362a-5255-11ea-9228-13774d812c11,2,97,99,10,1.0,1.0,0
