RunID,Tick,AllAgents,Active,Inactive
run-2020-2-18-13-57-55.900228023,0,13,10,3
run-2020-2-18-13-57-55.900228023,1,16,9,7
run-2020-2-18-13-57-55.900228023,2,18,10,8
run-2020-2-18-13-57-55.900228023,3,21,11,10
run-2020-2-18-13-57-55.900228023,4,26,15,11
run-2020-2-18-13-57-55.900228023,5,28,17,11
run-2020-2-18-13-57-55.900228023,6,31,19,12
run-2020-2-18-13-57-55.900228023,7,36,23,13
run-2020-2-18-13-57-55.900228023,8,43,26,17
run-2020-2-18-13-57-55.900228023,9,47,26,21
run-2020-2-18-13-57-55.900228023,10,51,29,22
run-2020-2-18-13-57-55.900228023,11,56,31,25
run-2020-2-18-13-57-55.900228023,12,60,30,30
run-2020-2-18-13-57-55.900228023,13,62,27,35
run-2020-2-18-13-57-55.900228023,14,68,28,40
run-2020-2-18-13-57-55.900228023,15,75,33,42
run-2020-2-18-13-57-55.900228023,16,76,32,44
run-2020-2-18-13-57-55.900228023,17,82,35,47
run-2020-2-18-13-57-55.900228023,18,89,38,51
run-2020-2-18-13-57-55.900228023,19,92,37,55
run-2020-2-18-13-57-55.900228023,20,93,34,59
run-2020-2-18-13-57-55.900228023,21,98,37,61
run-2020-2-18-13-57-55.900228023,22,102,40,62
run-2020-2-18-13-57-55.900228023,23,107,40,67
run-2020-2-18-13-57-55.900228023,24,111,39,72
run-2020-2-18-13-57-55.900228023,25,115,39,76
run-2020-2-18-13-57-55.900228023,26,118,40,78
run-2020-2-18-13-57-55.900228023,27,120,39,81
run-2020-2-18-13-57-55.900228023,28,125,41,84
run-2020-2-18-13-57-55.900228023,29,131,44,87
run-2020-2-18-13-57-55.900228023,30,134,46,88
run-2020-2-18-13-57-55.900228023,31,141,46,95
run-2020-2-18-13-57-55.900228023,32,146,49,97
run-2020-2-18-13-57-55.900228023,33,147,46,101
run-2020-2-18-13-57-55.900228023,34,150,49,101
run-2020-2-18-13-57-55.900228023,35,152,48,104
run-2020-2-18-13-57-55.900228023,36,157,51,106
run-2020-2-18-13-57-55.900228023,37,159,50,109
run-2020-2-18-13-57-55.900228023,38,166,50,116
run-2020-2-18-13-57-55.900228023,39,167,49,118
run-2020-2-18-13-57-55.900228023,40,171,51,120
run-2020-2-18-13-57-55.900228023,41,177,52,125
run-2020-2-18-13-57-55.900228023,42,180,51,129
run-2020-2-18-13-57-55.900228023,43,182,49,133
run-2020-2-18-13-57-55.900228023,44,184,48,136
run-2020-2-18-13-57-55.900228023,45,186,47,139
run-2020-2-18-13-57-55.900228023,46,188,46,142
run-2020-2-18-13-57-55.900228023,47,192,46,146
run-2020-2-18-13-57-55.900228023,48,199,50,149
run-2020-2-18-13-57-55.900228023,49,202,49,153
run-2020-2-18-13-57-55.900228023,50,205,46,159
run-2020-2-18-13-57-55.900228023,51,210,48,162
run-2020-2-18-13-57-55.900228023,52,216,51,165
run-2020-2-18-13-57-55.900228023,53,218,50,168
run-2020-2-18-13-57-55.900228023,54,222,51,171
run-2020-2-18-13-57-55.900228023,55,224,50,174
run-2020-2-18-13-57-55.900228023,56,227,47,180
run-2020-2-18-13-57-55.900228023,57,229,47,182
run-2020-2-18-13-57-55.900228023,58,230,44,186
run-2020-2-18-13-57-55.900228023,59,236,48,188
run-2020-2-18-13-57-55.900228023,60,238,47,191
run-2020-2-18-13-57-55.900228023,61,241,46,195
run-2020-2-18-13-57-55.900228023,62,244,44,200
run-2020-2-18-13-57-55.900228023,63,249,46,203
run-2020-2-18-13-57-55.900228023,64,251,43,208
run-2020-2-18-13-57-55.900228023,65,253,44,209
run-2020-2-18-13-57-55.900228023,66,262,50,212
run-2020-2-18-13-57-55.900228023,67,267,53,214
run-2020-2-18-13-57-55.900228023,68,272,49,223
run-2020-2-18-13-57-55.900228023,69,274,43,231
run-2020-2-18-13-57-55.900228023,70,275,40,235
run-2020-2-18-13-57-55.900228023,71,279,41,238
run-2020-2-18-13-57-55.900228023,72,286,47,239
run-2020-2-18-13-57-55.900228023,73,287,42,245
run-2020-2-18-13-57-55.900228023,74,291,44,247
run-2020-2-18-13-57-55.900228023,75,297,47,250
run-2020-2-18-13-57-55.900228023,76,304,50,254
run-2020-2-18-13-57-55.900228023,77,305,46,259
run-2020-2-18-13-57-55.900228023,78,308,46,262
run-2020-2-18-13-57-55.900228023,79,311,48,263
run-2020-2-18-13-57-55.900228023,80,320,54,266
run-2020-2-18-13-57-55.900228023,81,324,54,270
run-2020-2-18-13-57-55.900228023,82,326,52,274
run-2020-2-18-13-57-55.900228023,83,332,54,278
run-2020-2-18-13-57-55.900228023,84,335,51,284
run-2020-2-18-13-57-55.900228023,85,340,55,285
run-2020-2-18-13-57-55.900228023,86,341,51,290
run-2020-2-18-13-57-55.900228023,87,343,51,292
run-2020-2-18-13-57-55.900228023,88,347,53,294
run-2020-2-18-13-57-55.900228023,89,349,53,296
run-2020-2-18-13-57-55.900228023,90,354,55,299
run-2020-2-18-13-57-55.900228023,91,355,54,301
run-2020-2-18-13-57-55.900228023,92,357,50,307
run-2020-2-18-13-57-55.900228023,93,362,49,313
run-2020-2-18-13-57-55.900228023,94,369,51,318
run-2020-2-18-13-57-55.900228023,95,373,53,320
run-2020-2-18-13-57-55.900228023,96,374,50,324
run-2020-2-18-13-57-55.900228023,97,381,52,329
run-2020-2-18-13-57-55.900228023,98,383,53,330
run-2020-2-18-13-57-55.900228023,99,389,55,334
