RunID,Tick,ActiveAgentsPerTick
run-2020-2-18-11-35-21.228343963,0,15
run-2020-2-18-11-35-21.228343963,1,16
run-2020-2-18-11-35-21.228343963,2,21
run-2020-2-18-11-35-21.228343963,3,21
run-2020-2-18-11-35-21.228343963,4,20
run-2020-2-18-11-35-21.228343963,5,18
run-2020-2-18-11-35-21.228343963,6,15
run-2020-2-18-11-35-21.228343963,7,21
run-2020-2-18-11-35-21.228343963,8,24
run-2020-2-18-11-35-21.228343963,9,22
run-2020-2-18-11-35-21.228343963,10,23
run-2020-2-18-11-35-21.228343963,11,25
run-2020-2-18-11-35-21.228343963,12,24
run-2020-2-18-11-35-21.228343963,13,24
run-2020-2-18-11-35-21.228343963,14,25
run-2020-2-18-11-35-21.228343963,15,26
run-2020-2-18-11-35-21.228343963,16,25
run-2020-2-18-11-35-21.228343963,17,26
run-2020-2-18-11-35-21.228343963,18,29
run-2020-2-18-11-35-21.228343963,19,32
run-2020-2-18-11-35-21.228343963,20,35
run-2020-2-18-11-35-21.228343963,21,33
run-2020-2-18-11-35-21.228343963,22,34
run-2020-2-18-11-35-21.228343963,23,37
run-2020-2-18-11-35-21.228343963,24,34
run-2020-2-18-11-35-21.228343963,25,32
run-2020-2-18-11-35-21.228343963,26,37
run-2020-2-18-11-35-21.228343963,27,42
run-2020-2-18-11-35-21.228343963,28,44
run-2020-2-18-11-35-21.228343963,29,44
run-2020-2-18-11-35-21.228343963,30,44
run-2020-2-18-11-35-21.228343963,31,44
run-2020-2-18-11-35-21.228343963,32,44
run-2020-2-18-11-35-21.228343963,33,46
run-2020-2-18-11-35-21.228343963,34,50
run-2020-2-18-11-35-21.228343963,35,52
run-2020-2-18-11-35-21.228343963,36,53
run-2020-2-18-11-35-21.228343963,37,56
run-2020-2-18-11-35-21.228343963,38,59
run-2020-2-18-11-35-21.228343963,39,59
run-2020-2-18-11-35-21.228343963,40,57
run-2020-2-18-11-35-21.228343963,41,54
run-2020-2-18-11-35-21.228343963,42,51
run-2020-2-18-11-35-21.228343963,43,51
run-2020-2-18-11-35-21.228343963,44,55
run-2020-2-18-11-35-21.228343963,45,55
run-2020-2-18-11-35-21.228343963,46,59
run-2020-2-18-11-35-21.228343963,47,61
run-2020-2-18-11-35-21.228343963,48,56
run-2020-2-18-11-35-21.228343963,49,58
run-2020-2-18-11-35-21.228343963,50,57
run-2020-2-18-11-35-21.228343963,51,59
run-2020-2-18-11-35-21.228343963,52,60
run-2020-2-18-11-35-21.228343963,53,61
run-2020-2-18-11-35-21.228343963,54,59
run-2020-2-18-11-35-21.228343963,55,58
run-2020-2-18-11-35-21.228343963,56,58
run-2020-2-18-11-35-21.228343963,57,55
run-2020-2-18-11-35-21.228343963,58,55
run-2020-2-18-11-35-21.228343963,59,56
run-2020-2-18-11-35-21.228343963,60,54
run-2020-2-18-11-35-21.228343963,61,59
run-2020-2-18-11-35-21.228343963,62,58
run-2020-2-18-11-35-21.228343963,63,59
run-2020-2-18-11-35-21.228343963,64,55
run-2020-2-18-11-35-21.228343963,65,57
run-2020-2-18-11-35-21.228343963,66,60
run-2020-2-18-11-35-21.228343963,67,63
run-2020-2-18-11-35-21.228343963,68,62
run-2020-2-18-11-35-21.228343963,69,61
run-2020-2-18-11-35-21.228343963,70,58
run-2020-2-18-11-35-21.228343963,71,55
run-2020-2-18-11-35-21.228343963,72,56
run-2020-2-18-11-35-21.228343963,73,52
run-2020-2-18-11-35-21.228343963,74,52
run-2020-2-18-11-35-21.228343963,75,52
run-2020-2-18-11-35-21.228343963,76,55
run-2020-2-18-11-35-21.228343963,77,51
run-2020-2-18-11-35-21.228343963,78,50
run-2020-2-18-11-35-21.228343963,79,50
run-2020-2-18-11-35-21.228343963,80,47
run-2020-2-18-11-35-21.228343963,81,49
run-2020-2-18-11-35-21.228343963,82,49
run-2020-2-18-11-35-21.228343963,83,47
run-2020-2-18-11-35-21.228343963,84,49
run-2020-2-18-11-35-21.228343963,85,51
run-2020-2-18-11-35-21.228343963,86,50
run-2020-2-18-11-35-21.228343963,87,50
run-2020-2-18-11-35-21.228343963,88,49
run-2020-2-18-11-35-21.228343963,89,48
run-2020-2-18-11-35-21.228343963,90,47
run-2020-2-18-11-35-21.228343963,91,47
run-2020-2-18-11-35-21.228343963,92,44
run-2020-2-18-11-35-21.228343963,93,47
run-2020-2-18-11-35-21.228343963,94,48
run-2020-2-18-11-35-21.228343963,95,47
run-2020-2-18-11-35-21.228343963,96,49
run-2020-2-18-11-35-21.228343963,97,50
run-2020-2-18-11-35-21.228343963,98,50
run-2020-2-18-11-35-21.228343963,99,51
run-2020-2-18-11-35-21.228343963,100,49
