RunID,Tick,AllAgents,Active,Inactive
run-2020-2-18-13-55-36.234502077,0,13,11,2
run-2020-2-18-13-55-36.234502077,1,15,11,4
run-2020-2-18-13-55-36.234502077,2,23,16,7
run-2020-2-18-13-55-36.234502077,3,31,21,10
run-2020-2-18-13-55-36.234502077,4,35,21,14
run-2020-2-18-13-55-36.234502077,5,41,20,21
run-2020-2-18-13-55-36.234502077,6,44,18,26
run-2020-2-18-13-55-36.234502077,7,47,18,29
run-2020-2-18-13-55-36.234502077,8,49,19,30
run-2020-2-18-13-55-36.234502077,9,53,22,31
run-2020-2-18-13-55-36.234502077,10,61,27,34
run-2020-2-18-13-55-36.234502077,11,67,24,43
run-2020-2-18-13-55-36.234502077,12,70,26,44
run-2020-2-18-13-55-36.234502077,13,75,28,47
run-2020-2-18-13-55-36.234502077,14,75,27,48
run-2020-2-18-13-55-36.234502077,15,78,28,50
run-2020-2-18-13-55-36.234502077,16,83,29,54
run-2020-2-18-13-55-36.234502077,17,84,28,56
run-2020-2-18-13-55-36.234502077,18,91,33,58
run-2020-2-18-13-55-36.234502077,19,97,36,61
run-2020-2-18-13-55-36.234502077,20,105,43,62
run-2020-2-18-13-55-36.234502077,21,107,44,63
run-2020-2-18-13-55-36.234502077,22,109,39,70
run-2020-2-18-13-55-36.234502077,23,113,40,73
run-2020-2-18-13-55-36.234502077,24,116,39,77
run-2020-2-18-13-55-36.234502077,25,122,41,81
run-2020-2-18-13-55-36.234502077,26,126,43,83
run-2020-2-18-13-55-36.234502077,27,128,42,86
run-2020-2-18-13-55-36.234502077,28,131,42,89
run-2020-2-18-13-55-36.234502077,29,134,43,91
run-2020-2-18-13-55-36.234502077,30,135,41,94
run-2020-2-18-13-55-36.234502077,31,137,40,97
run-2020-2-18-13-55-36.234502077,32,139,40,99
run-2020-2-18-13-55-36.234502077,33,142,43,99
run-2020-2-18-13-55-36.234502077,34,143,41,102
run-2020-2-18-13-55-36.234502077,35,145,42,103
run-2020-2-18-13-55-36.234502077,36,150,45,105
run-2020-2-18-13-55-36.234502077,37,154,43,111
run-2020-2-18-13-55-36.234502077,38,157,46,111
run-2020-2-18-13-55-36.234502077,39,163,48,115
run-2020-2-18-13-55-36.234502077,40,168,49,119
run-2020-2-18-13-55-36.234502077,41,173,50,123
run-2020-2-18-13-55-36.234502077,42,178,48,130
run-2020-2-18-13-55-36.234502077,43,184,50,134
run-2020-2-18-13-55-36.234502077,44,186,47,139
run-2020-2-18-13-55-36.234502077,45,187,44,143
run-2020-2-18-13-55-36.234502077,46,191,45,146
run-2020-2-18-13-55-36.234502077,47,192,42,150
run-2020-2-18-13-55-36.234502077,48,194,42,152
run-2020-2-18-13-55-36.234502077,49,197,44,153
run-2020-2-18-13-55-36.234502077,50,202,46,156
run-2020-2-18-13-55-36.234502077,51,206,45,161
run-2020-2-18-13-55-36.234502077,52,210,46,164
run-2020-2-18-13-55-36.234502077,53,214,44,170
run-2020-2-18-13-55-36.234502077,54,216,41,175
run-2020-2-18-13-55-36.234502077,55,219,41,178
run-2020-2-18-13-55-36.234502077,56,220,38,182
run-2020-2-18-13-55-36.234502077,57,222,36,186
run-2020-2-18-13-55-36.234502077,58,226,37,189
run-2020-2-18-13-55-36.234502077,59,229,37,192
run-2020-2-18-13-55-36.234502077,60,232,36,196
run-2020-2-18-13-55-36.234502077,61,236,38,198
run-2020-2-18-13-55-36.234502077,62,242,41,201
run-2020-2-18-13-55-36.234502077,63,249,45,204
run-2020-2-18-13-55-36.234502077,64,250,39,211
run-2020-2-18-13-55-36.234502077,65,254,39,215
run-2020-2-18-13-55-36.234502077,66,257,40,217
run-2020-2-18-13-55-36.234502077,67,259,41,218
run-2020-2-18-13-55-36.234502077,68,263,39,224
run-2020-2-18-13-55-36.234502077,69,265,39,226
run-2020-2-18-13-55-36.234502077,70,269,36,233
run-2020-2-18-13-55-36.234502077,71,270,33,237
run-2020-2-18-13-55-36.234502077,72,275,32,243
run-2020-2-18-13-55-36.234502077,73,278,32,246
run-2020-2-18-13-55-36.234502077,74,285,38,247
run-2020-2-18-13-55-36.234502077,75,288,36,252
run-2020-2-18-13-55-36.234502077,76,293,40,253
run-2020-2-18-13-55-36.234502077,77,300,42,258
run-2020-2-18-13-55-36.234502077,78,301,39,262
run-2020-2-18-13-55-36.234502077,79,304,32,272
run-2020-2-18-13-55-36.234502077,80,305,32,273
run-2020-2-18-13-55-36.234502077,81,307,30,277
run-2020-2-18-13-55-36.234502077,82,311,33,278
run-2020-2-18-13-55-36.234502077,83,315,33,282
run-2020-2-18-13-55-36.234502077,84,323,39,284
run-2020-2-18-13-55-36.234502077,85,329,43,286
run-2020-2-18-13-55-36.234502077,86,332,43,289
run-2020-2-18-13-55-36.234502077,87,334,36,298
run-2020-2-18-13-55-36.234502077,88,340,39,301
run-2020-2-18-13-55-36.234502077,89,343,37,306
run-2020-2-18-13-55-36.234502077,90,347,38,309
run-2020-2-18-13-55-36.234502077,91,352,39,313
run-2020-2-18-13-55-36.234502077,92,360,45,315
run-2020-2-18-13-55-36.234502077,93,361,42,319
run-2020-2-18-13-55-36.234502077,94,365,41,324
run-2020-2-18-13-55-36.234502077,95,367,40,327
run-2020-2-18-13-55-36.234502077,96,369,37,332
run-2020-2-18-13-55-36.234502077,97,372,40,332
run-2020-2-18-13-55-36.234502077,98,373,39,334
run-2020-2-18-13-55-36.234502077,99,376,38,338
