RunID,Tick,ActiveAgentsPerTick
run-2020-2-28-10-28-49.733850002,0,15
run-2020-2-28-10-28-49.733850002,1,11
run-2020-2-28-10-28-49.733850002,2,11
run-2020-2-28-10-28-49.733850002,3,10
run-2020-2-28-10-28-49.733850002,4,14
run-2020-2-28-10-28-49.733850002,5,21
run-2020-2-28-10-28-49.733850002,6,25
run-2020-2-28-10-28-49.733850002,7,26
run-2020-2-28-10-28-49.733850002,8,23
run-2020-2-28-10-28-49.733850002,9,25
run-2020-2-28-10-28-49.733850002,10,31
run-2020-2-28-10-28-49.733850002,11,34
run-2020-2-28-10-28-49.733850002,12,35
run-2020-2-28-10-28-49.733850002,13,35
run-2020-2-28-10-28-49.733850002,14,38
run-2020-2-28-10-28-49.733850002,15,39
run-2020-2-28-10-28-49.733850002,16,41
run-2020-2-28-10-28-49.733850002,17,40
run-2020-2-28-10-28-49.733850002,18,42
run-2020-2-28-10-28-49.733850002,19,47
run-2020-2-28-10-28-49.733850002,20,49
run-2020-2-28-10-28-49.733850002,21,46
run-2020-2-28-10-28-49.733850002,22,51
run-2020-2-28-10-28-49.733850002,23,48
run-2020-2-28-10-28-49.733850002,24,46
run-2020-2-28-10-28-49.733850002,25,52
run-2020-2-28-10-28-49.733850002,26,52
run-2020-2-28-10-28-49.733850002,27,53
run-2020-2-28-10-28-49.733850002,28,53
run-2020-2-28-10-28-49.733850002,29,54
run-2020-2-28-10-28-49.733850002,30,53
run-2020-2-28-10-28-49.733850002,31,53
run-2020-2-28-10-28-49.733850002,32,50
run-2020-2-28-10-28-49.733850002,33,54
run-2020-2-28-10-28-49.733850002,34,54
run-2020-2-28-10-28-49.733850002,35,54
run-2020-2-28-10-28-49.733850002,36,57
run-2020-2-28-10-28-49.733850002,37,59
run-2020-2-28-10-28-49.733850002,38,60
run-2020-2-28-10-28-49.733850002,39,61
run-2020-2-28-10-28-49.733850002,40,59
run-2020-2-28-10-28-49.733850002,41,58
run-2020-2-28-10-28-49.733850002,42,57
run-2020-2-28-10-28-49.733850002,43,63
run-2020-2-28-10-28-49.733850002,44,69
run-2020-2-28-10-28-49.733850002,45,71
run-2020-2-28-10-28-49.733850002,46,71
run-2020-2-28-10-28-49.733850002,47,73
run-2020-2-28-10-28-49.733850002,48,71
run-2020-2-28-10-28-49.733850002,49,67
run-2020-2-28-10-28-49.733850002,50,63
run-2020-2-28-10-28-49.733850002,51,63
run-2020-2-28-10-28-49.733850002,52,62
run-2020-2-28-10-28-49.733850002,53,63
run-2020-2-28-10-28-49.733850002,54,58
run-2020-2-28-10-28-49.733850002,55,62
run-2020-2-28-10-28-49.733850002,56,63
run-2020-2-28-10-28-49.733850002,57,63
run-2020-2-28-10-28-49.733850002,58,60
run-2020-2-28-10-28-49.733850002,59,58
run-2020-2-28-10-28-49.733850002,60,55
run-2020-2-28-10-28-49.733850002,61,60
run-2020-2-28-10-28-49.733850002,62,60
run-2020-2-28-10-28-49.733850002,63,58
run-2020-2-28-10-28-49.733850002,64,53
run-2020-2-28-10-28-49.733850002,65,54
run-2020-2-28-10-28-49.733850002,66,51
run-2020-2-28-10-28-49.733850002,67,47
run-2020-2-28-10-28-49.733850002,68,52
run-2020-2-28-10-28-49.733850002,69,55
run-2020-2-28-10-28-49.733850002,70,56
run-2020-2-28-10-28-49.733850002,71,55
run-2020-2-28-10-28-49.733850002,72,54
run-2020-2-28-10-28-49.733850002,73,59
run-2020-2-28-10-28-49.733850002,74,59
run-2020-2-28-10-28-49.733850002,75,59
run-2020-2-28-10-28-49.733850002,76,55
run-2020-2-28-10-28-49.733850002,77,52
run-2020-2-28-10-28-49.733850002,78,52
run-2020-2-28-10-28-49.733850002,79,52
run-2020-2-28-10-28-49.733850002,80,55
run-2020-2-28-10-28-49.733850002,81,61
run-2020-2-28-10-28-49.733850002,82,66
run-2020-2-28-10-28-49.733850002,83,63
run-2020-2-28-10-28-49.733850002,84,59
run-2020-2-28-10-28-49.733850002,85,56
run-2020-2-28-10-28-49.733850002,86,60
run-2020-2-28-10-28-49.733850002,87,64
run-2020-2-28-10-28-49.733850002,88,65
run-2020-2-28-10-28-49.733850002,89,63
run-2020-2-28-10-28-49.733850002,90,63
run-2020-2-28-10-28-49.733850002,91,65
run-2020-2-28-10-28-49.733850002,92,64
run-2020-2-28-10-28-49.733850002,93,60
run-2020-2-28-10-28-49.733850002,94,65
run-2020-2-28-10-28-49.733850002,95,65
run-2020-2-28-10-28-49.733850002,96,64
run-2020-2-28-10-28-49.733850002,97,63
run-2020-2-28-10-28-49.733850002,98,67
run-2020-2-28-10-28-49.733850002,99,68
run-2020-2-28-10-28-49.733850002,100,64
