RunID,Agent,Age,Created,Inactive,Resources,Reputation,Ability,Que
run-2020-2-18-11-35-33.152611017,AGENT#c623e87a-5242-11ea-8aaf-53e27e21f3bc,0,0,0,10,1.0,1.0,0
run-2020-2-18-11-35-33.152611017,AGENT#c623f356-5242-11ea-8d88-53987fccebde,0,0,0,10,1.0,1.0,0
run-2020-2-18-11-35-33.152611017,AGENT#c623fa18-5242-11ea-9bda-e785a48f792d,0,0,0,10,1.0,1.0,0
run-2020-2-18-11-35-33.152611017,AGENT#c623ff9a-5242-11ea-8e64-5b31e1dec389,0,0,0,10,1.0,1.0,0
run-2020-2-18-11-35-33.152611017,AGENT#c623f6c6-5242-11ea-ae48-c3c832e22651,1,0,1,10,1.0,1.0,0
run-2020-2-18-11-35-33.152611017,AGENT#c62445b8-5242-11ea-92ac-ebe295b29b91,1,0,1,10,1.0,1.0,0
run-2020-2-18-11-35-33.152611017,AGENT#c62448b0-5242-11ea-af72-8398dece5b3a,1,0,1,10,1.0,1.0,0
run-2020-2-18-11-35-33.152611017,AGENT#c6244284-5242-11ea-a58b-db5978817112,2,0,2,10,1.0,1.0,0
run-2020-2-18-11-35-33.152611017,AGENT#c624ca7e-5242-11ea-bfc3-7ba01802ea83,1,1,2,10,1.0,1.0,0
run-2020-2-18-11-35-33.152611017,AGENT#c62404f4-5242-11ea-8a61-9f3c7dc06811,3,0,3,10,1.0,1.0,0
run-2020-2-18-11-35-33.152611017,AGENT#c624c75e-5242-11ea-bf14-43a281b42605,2,1,3,10,1.0,1.0,0
run-2020-2-18-11-35-33.152611017,AGENT#c62535c2-5242-11ea-89cd-d781fbd11e81,1,2,3,10,1.0,1.0,0
run-2020-2-18-11-35-33.152611017,AGENT#c623ee74-5242-11ea-bd08-37f3d198d4b9,4,0,4,10,1.0,1.0,0
run-2020-2-18-11-35-33.152611017,AGENT#c624d622-5242-11ea-a9bc-67739166b5e2,3,1,4,10,1.0,1.0,0
run-2020-2-18-11-35-33.152611017,AGENT#c6280e14-5242-11ea-952f-7f0f4bf4a19c,1,3,4,10,1.0,1.0,0
run-2020-2-18-11-35-33.152611017,AGENT#c62813d2-5242-11ea-846d-ef651cbcc730,1,3,4,10,1.0,1.0,0
run-2020-2-18-11-35-33.152611017,AGENT#c6281972-5242-11ea-8a3f-1bdf6bfe2ec7,1,3,4,10,1.0,1.0,0
run-2020-2-18-11-35-33.152611017,AGENT#c623eba4-5242-11ea-9e9e-cb10b679e88d,5,0,5,10,1.0,1.0,0
run-2020-2-18-11-35-33.152611017,AGENT#c624024c-5242-11ea-a57d-7fda5357e024,5,0,5,10,1.0,1.0,0
run-2020-2-18-11-35-33.152611017,AGENT#c624d348-5242-11ea-9d98-cfa652d638e5,4,1,5,10,1.0,1.0,0
run-2020-2-18-11-35-33.152611017,AGENT#c62afe58-5242-11ea-8f1d-47f766c07786,3,4,7,10,1.0,1.0,0
run-2020-2-18-11-35-33.152611017,AGENT#c62e2ab0-5242-11ea-a054-eff0e833e7b1,2,5,7,10,1.0,1.0,0
run-2020-2-18-11-35-33.152611017,AGENT#c630f72c-5242-11ea-a212-c3b9ad8979b9,2,6,8,10,1.0,1.0,0
run-2020-2-18-11-35-33.152611017,AGENT#c6252c44-5242-11ea-8449-17f122ba1dc9,7,2,9,10,1.0,1.0,0
run-2020-2-18-11-35-33.152611017,AGENT#c6339ad6-5242-11ea-b63e-53d639debcbc,2,7,9,10,1.0,1.0,0
run-2020-2-18-11-35-33.152611017,AGENT#c624d064-5242-11ea-add0-4735c3d49ff0,9,1,10,10,1.0,1.0,0
run-2020-2-18-11-35-33.152611017,AGENT#c62e27e0-5242-11ea-8a1d-b7b516fcdeae,5,5,10,10,1.0,1.0,0
run-2020-2-18-11-35-33.152611017,AGENT#c62e2fe2-5242-11ea-906f-d394c3cd3818,5,5,10,10,1.0,1.0,0
run-2020-2-18-11-35-33.152611017,AGENT#c62e326c-5242-11ea-bc8c-9f4d14396d5c,5,5,10,10,1.0,1.0,0
run-2020-2-18-11-35-33.152611017,AGENT#c62e3528-5242-11ea-998f-67b70f88eadc,5,5,10,10,1.0,1.0,0
run-2020-2-18-11-35-33.152611017,AGENT#c6339fcc-5242-11ea-a303-f7eec96c01e8,3,7,10,10,1.0,1.0,0
run-2020-2-18-11-35-33.152611017,AGENT#c633a24c-5242-11ea-8569-b3441c471cb0,3,7,10,10,1.0,1.0,0
run-2020-2-18-11-35-33.152611017,AGENT#c63887f8-5242-11ea-be03-83611f432825,2,9,11,10,1.0,1.0,0
run-2020-2-18-11-35-33.152611017,AGENT#c63891b2-5242-11ea-9e75-7b3cc2f08962,2,9,11,10,1.0,1.0,0
run-2020-2-18-11-35-33.152611017,AGENT#c633959a-5242-11ea-8569-ff2e89790f7a,5,7,12,10,1.0,1.0,0
run-2020-2-18-11-35-33.152611017,AGENT#c633a4ae-5242-11ea-94a8-f79e26abe455,5,7,12,10,1.0,1.0,0
run-2020-2-18-11-35-33.152611017,AGENT#c6388d0c-5242-11ea-9e3d-478ba97f20bb,3,9,12,10,1.0,1.0,0
run-2020-2-18-11-35-33.152611017,AGENT#c6388f64-5242-11ea-9bd8-0b2a219f9b78,4,9,13,10,1.0,1.0,0
run-2020-2-18-11-35-33.152611017,AGENT#c63e2618-5242-11ea-817e-abaddb17db71,2,11,13,10,1.0,1.0,0
run-2020-2-18-11-35-33.152611017,AGENT#c63e2a82-5242-11ea-bfa9-4fe8f0ce90ca,2,11,13,10,1.0,1.0,0
run-2020-2-18-11-35-33.152611017,AGENT#c63e2cda-5242-11ea-a8db-879aaf624e6d,2,11,13,10,1.0,1.0,0
run-2020-2-18-11-35-33.152611017,AGENT#c64368da-5242-11ea-82e1-33dba8db1c6f,1,13,14,10,1.0,1.0,0
run-2020-2-18-11-35-33.152611017,AGENT#c63e2f14-5242-11ea-978d-37ef11421eaf,4,11,15,10,1.0,1.0,0
run-2020-2-18-11-35-33.152611017,AGENT#c6462f3e-5242-11ea-994b-d73e8cc2087b,1,14,15,10,1.0,1.0,0
run-2020-2-18-11-35-33.152611017,AGENT#c6361522-5242-11ea-8220-2bfdadfa4446,8,8,16,10,1.0,1.0,0
run-2020-2-18-11-35-33.152611017,AGENT#c640d430-5242-11ea-8602-070e3b969199,4,12,16,10,1.0,1.0,0
run-2020-2-18-11-35-33.152611017,AGENT#c650e00a-5242-11ea-8854-e76164cdd8ef,1,18,19,10,1.0,1.0,0
run-2020-2-18-11-35-33.152611017,AGENT#c6565a6c-5242-11ea-9878-6386b93f202d,1,20,21,10,1.0,1.0,0
run-2020-2-18-11-35-33.152611017,AGENT#c6244b80-5242-11ea-a95b-47ba3e1281d3,23,0,23,10,1.0,1.0,0
run-2020-2-18-11-35-33.152611017,AGENT#c650d90c-5242-11ea-b30d-6fae764c84fe,5,18,23,10,1.0,1.0,0
run-2020-2-18-11-35-33.152611017,AGENT#c650db5a-5242-11ea-afbf-d3623eca653b,5,18,23,10,1.0,1.0,0
run-2020-2-18-11-35-33.152611017,AGENT#c6537f18-5242-11ea-8644-03f3744f78b0,4,19,23,10,1.0,1.0,0
run-2020-2-18-11-35-33.152611017,AGENT#c65b913a-5242-11ea-906e-9323ee3c8dc5,2,22,24,10,1.0,1.0,0
run-2020-2-18-11-35-33.152611017,AGENT#c6565512-5242-11ea-a4b4-aff260c0f680,5,20,25,10,1.0,1.0,0
run-2020-2-18-11-35-33.152611017,AGENT#c658e502-5242-11ea-9d16-7f7fa59241d5,5,21,26,10,1.0,1.0,0
run-2020-2-18-11-35-33.152611017,AGENT#c65e2b66-5242-11ea-820e-ab1cb65bfb26,3,23,26,10,1.0,1.0,0
run-2020-2-18-11-35-33.152611017,AGENT#c660ca60-5242-11ea-bc2d-ebb452305b9f,2,24,26,10,1.0,1.0,0
run-2020-2-18-11-35-33.152611017,AGENT#c660ce20-5242-11ea-bcd6-63bf3ef18d81,2,24,26,10,1.0,1.0,0
run-2020-2-18-11-35-33.152611017,AGENT#c65b93ec-5242-11ea-8854-9f2aa261d8ea,5,22,27,10,1.0,1.0,0
run-2020-2-18-11-35-33.152611017,AGENT#c660d0b4-5242-11ea-8571-9324cf371999,3,24,27,10,1.0,1.0,0
run-2020-2-18-11-35-33.152611017,AGENT#c63612ac-5242-11ea-8bed-c76cf143798f,20,8,28,10,1.0,1.0,0
run-2020-2-18-11-35-33.152611017,AGENT#c663dcdc-5242-11ea-9775-2338ee1c7a63,3,25,28,10,1.0,1.0,0
run-2020-2-18-11-35-33.152611017,AGENT#c66973ae-5242-11ea-b8fb-6341439e594c,1,27,28,10,1.0,1.0,0
run-2020-2-18-11-35-33.152611017,AGENT#c6281116-5242-11ea-853c-3b33a3e24e92,26,3,29,10,1.0,1.0,0
run-2020-2-18-11-35-33.152611017,AGENT#c630fa10-5242-11ea-9247-ab0c9e4321d7,23,6,29,10,1.0,1.0,0
run-2020-2-18-11-35-33.152611017,AGENT#c623fcd4-5242-11ea-86ca-ff522cc2c425,32,0,32,10,1.0,1.0,0
run-2020-2-18-11-35-33.152611017,AGENT#c66c28b0-5242-11ea-a679-132d905edc6c,4,28,32,10,1.0,1.0,0
run-2020-2-18-11-35-33.152611017,AGENT#c66c2b80-5242-11ea-8d53-7fb8714273a2,5,28,33,10,1.0,1.0,0
run-2020-2-18-11-35-33.152611017,AGENT#c6743604-5242-11ea-81f8-3fcb186801f0,3,31,34,10,1.0,1.0,0
run-2020-2-18-11-35-33.152611017,AGENT#c676ddd2-5242-11ea-b579-272fa853431a,2,32,34,10,1.0,1.0,0
run-2020-2-18-11-35-33.152611017,AGENT#c676e2aa-5242-11ea-8d32-7750381eddb1,2,32,34,10,1.0,1.0,0
run-2020-2-18-11-35-33.152611017,AGENT#c679d7bc-5242-11ea-bd85-6798144acb76,1,33,34,10,1.0,1.0,0
run-2020-2-18-11-35-33.152611017,AGENT#c676daee-5242-11ea-8779-67a00d2a48ea,3,32,35,10,1.0,1.0,0
run-2020-2-18-11-35-33.152611017,AGENT#c679e018-5242-11ea-9a4f-37473ef2f76a,2,33,35,10,1.0,1.0,0
run-2020-2-18-11-35-33.152611017,AGENT#c679e2c0-5242-11ea-9c2a-a31e6ef94990,3,33,36,10,1.0,1.0,0
run-2020-2-18-11-35-33.152611017,AGENT#c67d188c-5242-11ea-9647-1b57c07d8812,2,34,36,10,1.0,1.0,0
run-2020-2-18-11-35-33.152611017,AGENT#c67ff7aa-5242-11ea-9532-f71c605047b6,1,35,36,10,1.0,1.0,0
run-2020-2-18-11-35-33.152611017,AGENT#c6800326-5242-11ea-a4f7-bbb0cfe94242,1,35,36,10,1.0,1.0,0
run-2020-2-18-11-35-33.152611017,AGENT#c68005ce-5242-11ea-ace2-0f5d56133530,1,35,36,10,1.0,1.0,0
run-2020-2-18-11-35-33.152611017,AGENT#c6800b0a-5242-11ea-a02e-d3a7ccdc0a5c,1,35,36,10,1.0,1.0,0
run-2020-2-18-11-35-33.152611017,AGENT#c67d12a6-5242-11ea-aae2-470e7b9f9951,3,34,37,10,1.0,1.0,0
run-2020-2-18-11-35-33.152611017,AGENT#c685abb4-5242-11ea-b12f-7bc79a467369,1,37,38,10,1.0,1.0,0
run-2020-2-18-11-35-33.152611017,AGENT#c685b582-5242-11ea-87f2-5b753802d2d6,1,37,38,10,1.0,1.0,0
run-2020-2-18-11-35-33.152611017,AGENT#c676e50c-5242-11ea-8816-9f9e8b5b7f9e,7,32,39,10,1.0,1.0,0
run-2020-2-18-11-35-33.152611017,AGENT#c679daaa-5242-11ea-a34a-5fe3bf58eaf1,6,33,39,10,1.0,1.0,0
run-2020-2-18-11-35-33.152611017,AGENT#c67d15da-5242-11ea-a720-934adbf101e7,5,34,39,10,1.0,1.0,0
run-2020-2-18-11-35-33.152611017,AGENT#c685ae52-5242-11ea-b008-5319bd0de758,2,37,39,10,1.0,1.0,0
run-2020-2-18-11-35-33.152611017,AGENT#c67ffb42-5242-11ea-bfd1-238da5fa1e99,5,35,40,10,1.0,1.0,0
run-2020-2-18-11-35-33.152611017,AGENT#c682f040-5242-11ea-abe1-2bcb4bf39eab,4,36,40,10,1.0,1.0,0
run-2020-2-18-11-35-33.152611017,AGENT#c68b6fcc-5242-11ea-ab52-4f38a65547c4,1,39,40,10,1.0,1.0,0
run-2020-2-18-11-35-33.152611017,AGENT#c6887218-5242-11ea-8b25-d3d8bf56ae7d,3,38,41,10,1.0,1.0,0
run-2020-2-18-11-35-33.152611017,AGENT#c688748e-5242-11ea-b9d7-234c989df803,3,38,41,10,1.0,1.0,0
run-2020-2-18-11-35-33.152611017,AGENT#c6887952-5242-11ea-9e1c-f361ef90bef5,3,38,41,10,1.0,1.0,0
run-2020-2-18-11-35-33.152611017,AGENT#c68e3554-5242-11ea-86c2-0f12245dc2ed,1,40,41,10,1.0,1.0,0
run-2020-2-18-11-35-33.152611017,AGENT#c685b0b4-5242-11ea-a39d-8777477fd9b0,5,37,42,10,1.0,1.0,0
run-2020-2-18-11-35-33.152611017,AGENT#c68876d2-5242-11ea-9aaf-1bb931730b12,4,38,42,10,1.0,1.0,0
run-2020-2-18-11-35-33.152611017,AGENT#c68e2dfc-5242-11ea-a79b-6f90c9191b76,2,40,42,10,1.0,1.0,0
run-2020-2-18-11-35-33.152611017,AGENT#c68e378e-5242-11ea-8576-83397de714d0,2,40,42,10,1.0,1.0,0
run-2020-2-18-11-35-33.152611017,AGENT#c6918af6-5242-11ea-826a-87bc9db2650e,1,41,42,10,1.0,1.0,0
run-2020-2-18-11-35-33.152611017,AGENT#c6944ff2-5242-11ea-b783-57c070c90440,1,42,43,10,1.0,1.0,0
run-2020-2-18-11-35-33.152611017,AGENT#c69187d6-5242-11ea-8013-d3e49c477ee1,3,41,44,10,1.0,1.0,0
run-2020-2-18-11-35-33.152611017,AGENT#c6944a7a-5242-11ea-bbf3-9faa30f2ff64,2,42,44,10,1.0,1.0,0
run-2020-2-18-11-35-33.152611017,AGENT#c6970cec-5242-11ea-ac8e-c71745cf857b,1,43,44,10,1.0,1.0,0
run-2020-2-18-11-35-33.152611017,AGENT#c6970f44-5242-11ea-8f63-9f736df96ba3,1,43,44,10,1.0,1.0,0
run-2020-2-18-11-35-33.152611017,AGENT#c6244e50-5242-11ea-835e-1f8c1bfd6602,45,0,45,10,1.0,1.0,0
run-2020-2-18-11-35-33.152611017,AGENT#c650d66e-5242-11ea-8d84-bf67dfe577ba,27,18,45,10,1.0,1.0,0
run-2020-2-18-11-35-33.152611017,AGENT#c68e32f2-5242-11ea-8234-af6ae5d88dc9,5,40,45,10,1.0,1.0,0
run-2020-2-18-11-35-33.152611017,AGENT#c6944d54-5242-11ea-b1f8-3fa8dc5876f3,3,42,45,10,1.0,1.0,0
run-2020-2-18-11-35-33.152611017,AGENT#c6945268-5242-11ea-a149-7f7426f5302d,3,42,45,10,1.0,1.0,0
run-2020-2-18-11-35-33.152611017,AGENT#c69454de-5242-11ea-8c73-6fac5aa0843f,3,42,45,10,1.0,1.0,0
run-2020-2-18-11-35-33.152611017,AGENT#c6970828-5242-11ea-9dc3-977307933fb9,2,43,45,10,1.0,1.0,0
run-2020-2-18-11-35-33.152611017,AGENT#c69713c2-5242-11ea-b77a-f7d13040e1a0,2,43,45,10,1.0,1.0,0
run-2020-2-18-11-35-33.152611017,AGENT#c676e03e-5242-11ea-a928-df5b25cd3eea,14,32,46,10,1.0,1.0,0
run-2020-2-18-11-35-33.152611017,AGENT#c69a5366-5242-11ea-bc97-bf1450724947,2,44,46,10,1.0,1.0,0
run-2020-2-18-11-35-33.152611017,AGENT#c69a5758-5242-11ea-93a0-7bc7163969cb,2,44,46,10,1.0,1.0,0
run-2020-2-18-11-35-33.152611017,AGENT#c69e48fe-5242-11ea-b3bc-f7e0f300c22c,1,45,46,10,1.0,1.0,0
run-2020-2-18-11-35-33.152611017,AGENT#c624cd8a-5242-11ea-852e-431a09d9f601,46,1,47,10,1.0,1.0,0
run-2020-2-18-11-35-33.152611017,AGENT#c6970a94-5242-11ea-ba69-63738f68f4d4,4,43,47,10,1.0,1.0,0
run-2020-2-18-11-35-33.152611017,AGENT#c6253126-5242-11ea-892e-87d5b4dd7d79,46,2,48,10,1.0,1.0,0
run-2020-2-18-11-35-33.152611017,AGENT#c6887b8c-5242-11ea-85c0-dbaf26ba4e3a,10,38,48,10,1.0,1.0,0
run-2020-2-18-11-35-33.152611017,AGENT#c69a5b04-5242-11ea-85e5-7f89cf7c8c56,4,44,48,10,1.0,1.0,0
run-2020-2-18-11-35-33.152611017,AGENT#c69e41e2-5242-11ea-a931-fb2754bc0f66,3,45,48,10,1.0,1.0,0
run-2020-2-18-11-35-33.152611017,AGENT#c6a5559a-5242-11ea-b000-03517b00ddb8,1,47,48,10,1.0,1.0,0
run-2020-2-18-11-35-33.152611017,AGENT#c6a55eb4-5242-11ea-ac51-ebeb6f16ab95,1,47,48,10,1.0,1.0,0
run-2020-2-18-11-35-33.152611017,AGENT#c62816ac-5242-11ea-a5d1-0f316c4f0372,46,3,49,10,1.0,1.0,0
run-2020-2-18-11-35-33.152611017,AGENT#c62b0114-5242-11ea-a36e-47b61d1ee602,45,4,49,10,1.0,1.0,0
run-2020-2-18-11-35-33.152611017,AGENT#c63e2398-5242-11ea-ba76-079b0be1df4d,38,11,49,10,1.0,1.0,0
run-2020-2-18-11-35-33.152611017,AGENT#c69a4f10-5242-11ea-8f30-f70056ed474c,5,44,49,10,1.0,1.0,0
run-2020-2-18-11-35-33.152611017,AGENT#c6a55266-5242-11ea-a8de-fb81ef7ecaea,2,47,49,10,1.0,1.0,0
run-2020-2-18-11-35-33.152611017,AGENT#c6a561ca-5242-11ea-8b7d-ffd6f07398c9,2,47,49,10,1.0,1.0,0
run-2020-2-18-11-35-33.152611017,AGENT#c6a8daa8-5242-11ea-afdb-ef820f253176,1,48,49,10,1.0,1.0,0
run-2020-2-18-11-35-33.152611017,AGENT#c630fc86-5242-11ea-ba97-77a5206d2b2b,45,6,51,10,1.0,1.0,0
run-2020-2-18-11-35-33.152611017,AGENT#c6a1e4c8-5242-11ea-b71e-d79b03747af0,5,46,51,10,1.0,1.0,0
run-2020-2-18-11-35-33.152611017,AGENT#c6a1e7de-5242-11ea-baec-ff54146e589c,5,46,51,10,1.0,1.0,0
run-2020-2-18-11-35-33.152611017,AGENT#c6aed39a-5242-11ea-915f-fb493064785b,1,50,51,10,1.0,1.0,0
run-2020-2-18-11-35-33.152611017,AGENT#c6aed64c-5242-11ea-ba2f-efb280a3b2b5,1,50,51,10,1.0,1.0,0
run-2020-2-18-11-35-33.152611017,AGENT#c62e2d44-5242-11ea-a100-eb1d97ff9e98,47,5,52,10,1.0,1.0,0
run-2020-2-18-11-35-33.152611017,AGENT#c6a55ba8-5242-11ea-a0ae-3fa52760f6d0,5,47,52,10,1.0,1.0,0
run-2020-2-18-11-35-33.152611017,AGENT#c6339d6a-5242-11ea-a524-6f7e1e29a2c4,46,7,53,10,1.0,1.0,0
run-2020-2-18-11-35-33.152611017,AGENT#c6a8d77e-5242-11ea-9e92-df51cd4c2d5d,5,48,53,10,1.0,1.0,0
run-2020-2-18-11-35-33.152611017,AGENT#c62b03d0-5242-11ea-8236-73708ebf861a,50,4,54,10,1.0,1.0,0
run-2020-2-18-11-35-33.152611017,AGENT#c6388a96-5242-11ea-bba2-4fa568ebf478,45,9,54,10,1.0,1.0,0
run-2020-2-18-11-35-33.152611017,AGENT#c6aed0b6-5242-11ea-9d3e-2bfcee5f57d8,5,50,55,10,1.0,1.0,0
run-2020-2-18-11-35-33.152611017,AGENT#c6b4f004-5242-11ea-8685-2fe8909996e0,3,52,55,10,1.0,1.0,0
run-2020-2-18-11-35-33.152611017,AGENT#c6baad78-5242-11ea-b7a4-ab0a771efcde,1,54,55,10,1.0,1.0,0
run-2020-2-18-11-35-33.152611017,AGENT#c63e2852-5242-11ea-9b82-cf700f5e1a93,45,11,56,10,1.0,1.0,0
run-2020-2-18-11-35-33.152611017,AGENT#c640d976-5242-11ea-8446-9362e70e53bd,44,12,56,10,1.0,1.0,0
run-2020-2-18-11-35-33.152611017,AGENT#c6bab00c-5242-11ea-b489-a7fd40874915,2,54,56,10,1.0,1.0,0
run-2020-2-18-11-35-33.152611017,AGENT#c6bab8fe-5242-11ea-9097-c3c319a7e669,2,54,56,10,1.0,1.0,0
run-2020-2-18-11-35-33.152611017,AGENT#c63b5762-5242-11ea-bca0-1b154544d4e0,47,10,57,10,1.0,1.0,0
run-2020-2-18-11-35-33.152611017,AGENT#c666c7c6-5242-11ea-a20a-6f1214036719,31,26,57,10,1.0,1.0,0
run-2020-2-18-11-35-33.152611017,AGENT#c6b4eafa-5242-11ea-9967-4790d92078d6,5,52,57,10,1.0,1.0,0
run-2020-2-18-11-35-33.152611017,AGENT#c6b4ed70-5242-11ea-a656-8349dac2fbac,5,52,57,10,1.0,1.0,0
run-2020-2-18-11-35-33.152611017,AGENT#c6bab246-5242-11ea-9bc7-17fee712e308,3,54,57,10,1.0,1.0,0
run-2020-2-18-11-35-33.152611017,AGENT#c6bd907e-5242-11ea-b778-672af4ed79d6,2,55,57,10,1.0,1.0,0
run-2020-2-18-11-35-33.152611017,AGENT#c6c0a390-5242-11ea-aa98-4bc82ef9044d,1,56,57,10,1.0,1.0,0
run-2020-2-18-11-35-33.152611017,AGENT#c640dbf6-5242-11ea-8a57-136e0af83882,46,12,58,10,1.0,1.0,0
run-2020-2-18-11-35-33.152611017,AGENT#c6bab6ba-5242-11ea-b62a-0f8ca98610c7,4,54,58,10,1.0,1.0,0
run-2020-2-18-11-35-33.152611017,AGENT#c6bd8e30-5242-11ea-b038-137676c60d2a,3,55,58,10,1.0,1.0,0
run-2020-2-18-11-35-33.152611017,AGENT#c6c35d9c-5242-11ea-a244-d39eb87815ea,1,57,58,10,1.0,1.0,0
run-2020-2-18-11-35-33.152611017,AGENT#c6339856-5242-11ea-8b7a-4bdde4a3f9ac,52,7,59,10,1.0,1.0,0
run-2020-2-18-11-35-33.152611017,AGENT#c6bab476-5242-11ea-8e0a-07d250eefff8,5,54,59,10,1.0,1.0,0
run-2020-2-18-11-35-33.152611017,AGENT#c6bd871e-5242-11ea-a447-2f4aa47724b1,4,55,59,10,1.0,1.0,0
run-2020-2-18-11-35-33.152611017,AGENT#c6c35892-5242-11ea-b22a-a735a4502d4a,2,57,59,10,1.0,1.0,0
run-2020-2-18-11-35-33.152611017,AGENT#c6c35b3a-5242-11ea-9ab6-afd5e67cfb50,2,57,59,10,1.0,1.0,0
run-2020-2-18-11-35-33.152611017,AGENT#c6436b64-5242-11ea-ada3-df6bc3b1f0f1,48,13,61,10,1.0,1.0,0
run-2020-2-18-11-35-33.152611017,AGENT#c679dd7a-5242-11ea-9175-8b19debba3bc,28,33,61,10,1.0,1.0,0
run-2020-2-18-11-35-33.152611017,AGENT#c68e39fa-5242-11ea-97d8-4781a187e776,21,40,61,10,1.0,1.0,0
run-2020-2-18-11-35-33.152611017,AGENT#c6c3629c-5242-11ea-aea7-b76fccd367cd,4,57,61,10,1.0,1.0,0
run-2020-2-18-11-35-33.152611017,AGENT#c6cc227e-5242-11ea-b41c-9f97687ce1be,1,60,61,10,1.0,1.0,0
run-2020-2-18-11-35-33.152611017,AGENT#c64e317a-5242-11ea-982e-3f14b17b0e3d,45,17,62,10,1.0,1.0,0
run-2020-2-18-11-35-33.152611017,AGENT#c640d6e2-5242-11ea-ba10-0fcd3f937a40,51,12,63,10,1.0,1.0,0
run-2020-2-18-11-35-33.152611017,AGENT#c64b97b2-5242-11ea-b115-cb10aabfcf66,47,16,63,10,1.0,1.0,0
run-2020-2-18-11-35-33.152611017,AGENT#c6d1f41a-5242-11ea-be64-c7d5ca2e78b8,1,62,63,10,1.0,1.0,0
run-2020-2-18-11-35-33.152611017,AGENT#c6d1faaa-5242-11ea-bd6c-abe441d869b5,1,62,63,10,1.0,1.0,0
run-2020-2-18-11-35-33.152611017,AGENT#c65381d4-5242-11ea-8a56-e7ccf04fccda,45,19,64,10,1.0,1.0,0
run-2020-2-18-11-35-33.152611017,AGENT#c6d4e256-5242-11ea-8ebb-a760d8f5473f,1,63,64,10,1.0,1.0,0
run-2020-2-18-11-35-33.152611017,AGENT#c650dd94-5242-11ea-a320-536213ea3ef8,47,18,65,10,1.0,1.0,0
run-2020-2-18-11-35-33.152611017,AGENT#c6d1f78a-5242-11ea-8473-079de659cede,3,62,65,10,1.0,1.0,0
run-2020-2-18-11-35-33.152611017,AGENT#c6d1fdc0-5242-11ea-9e0f-9bd3a7f8dbaf,3,62,65,10,1.0,1.0,0
run-2020-2-18-11-35-33.152611017,AGENT#c6d4e490-5242-11ea-9a81-6f1ffc93bd0b,2,63,65,10,1.0,1.0,0
run-2020-2-18-11-35-33.152611017,AGENT#c6d4e6de-5242-11ea-90c1-7feb080f0212,2,63,65,10,1.0,1.0,0
run-2020-2-18-11-35-33.152611017,AGENT#c6d7f7fc-5242-11ea-83aa-836f2e282db6,1,64,65,10,1.0,1.0,0
run-2020-2-18-11-35-33.152611017,AGENT#c6d7fdd8-5242-11ea-a6ea-2f8c5ece6728,1,64,65,10,1.0,1.0,0
run-2020-2-18-11-35-33.152611017,AGENT#c6d80062-5242-11ea-b00a-7ff504392830,1,64,65,10,1.0,1.0,0
run-2020-2-18-11-35-33.152611017,AGENT#c653849a-5242-11ea-bee1-23e4809dbd04,47,19,66,10,1.0,1.0,0
run-2020-2-18-11-35-33.152611017,AGENT#c6d200e0-5242-11ea-922c-3b729622b925,4,62,66,10,1.0,1.0,0
run-2020-2-18-11-35-33.152611017,AGENT#c6daf0f6-5242-11ea-8499-ff9a9a181282,1,65,66,10,1.0,1.0,0
run-2020-2-18-11-35-33.152611017,AGENT#c65657f6-5242-11ea-83fc-3746b4552b4a,47,20,67,10,1.0,1.0,0
run-2020-2-18-11-35-33.152611017,AGENT#c6d2040a-5242-11ea-b261-13d4bc8f69fb,5,62,67,10,1.0,1.0,0
run-2020-2-18-11-35-33.152611017,AGENT#c6de5250-5242-11ea-a8f1-37dec2d0bf36,1,66,67,10,1.0,1.0,0
run-2020-2-18-11-35-33.152611017,AGENT#c65e265c-5242-11ea-bd46-6bec6c772865,45,23,68,10,1.0,1.0,0
run-2020-2-18-11-35-33.152611017,AGENT#c65e2dbe-5242-11ea-80d9-e327a2088d7a,45,23,68,10,1.0,1.0,0
run-2020-2-18-11-35-33.152611017,AGENT#c6d4dd88-5242-11ea-930c-7fe571100312,5,63,68,10,1.0,1.0,0
run-2020-2-18-11-35-33.152611017,AGENT#c6de6114-5242-11ea-96d3-13b2fe8efa05,2,66,68,10,1.0,1.0,0
run-2020-2-18-11-35-33.152611017,AGENT#c6e187d6-5242-11ea-b8e7-e3678f9f1d67,1,67,68,10,1.0,1.0,0
run-2020-2-18-11-35-33.152611017,AGENT#c658e782-5242-11ea-a075-67c05d9cb89d,48,21,69,10,1.0,1.0,0
run-2020-2-18-11-35-33.152611017,AGENT#c6d7fb26-5242-11ea-8d40-1318cc390a2d,5,64,69,10,1.0,1.0,0
run-2020-2-18-11-35-33.152611017,AGENT#c6de5516-5242-11ea-a49a-27e3a4e1cbee,3,66,69,10,1.0,1.0,0
run-2020-2-18-11-35-33.152611017,AGENT#c6e4b528-5242-11ea-937d-87179e044f75,1,68,69,10,1.0,1.0,0
run-2020-2-18-11-35-33.152611017,AGENT#c6daec32-5242-11ea-8ca2-939adb29c926,5,65,70,10,1.0,1.0,0
run-2020-2-18-11-35-33.152611017,AGENT#c6de5ec6-5242-11ea-abfb-2331886945fe,4,66,70,10,1.0,1.0,0
run-2020-2-18-11-35-33.152611017,AGENT#c6e4b1fe-5242-11ea-9f6e-9f87695db9f2,2,68,70,10,1.0,1.0,0
run-2020-2-18-11-35-33.152611017,AGENT#c6e7d190-5242-11ea-b212-5771acdfb112,1,69,70,10,1.0,1.0,0
run-2020-2-18-11-35-33.152611017,AGENT#c6e7d438-5242-11ea-a08d-639f0971f23b,1,69,70,10,1.0,1.0,0
run-2020-2-18-11-35-33.152611017,AGENT#c6e7db72-5242-11ea-bc27-8fd4c05c783f,1,69,70,10,1.0,1.0,0
run-2020-2-18-11-35-33.152611017,AGENT#c65e2904-5242-11ea-b101-f736181d109c,48,23,71,10,1.0,1.0,0
run-2020-2-18-11-35-33.152611017,AGENT#c6e49de0-5242-11ea-ad1b-67a3ec842628,3,68,71,10,1.0,1.0,0
run-2020-2-18-11-35-33.152611017,AGENT#c6e4b7da-5242-11ea-a53f-1789e7d2e1c7,3,68,71,10,1.0,1.0,0
run-2020-2-18-11-35-33.152611017,AGENT#c6e7ddf2-5242-11ea-a3b7-17bb279a810a,2,69,71,10,1.0,1.0,0
run-2020-2-18-11-35-33.152611017,AGENT#c6e7d91a-5242-11ea-9c16-03dd15e2b051,3,69,72,10,1.0,1.0,0
run-2020-2-18-11-35-33.152611017,AGENT#c6ead002-5242-11ea-b9eb-cbf430fd1041,2,70,72,10,1.0,1.0,0
run-2020-2-18-11-35-33.152611017,AGENT#c6ead296-5242-11ea-9d40-3fbc36b66d75,2,70,72,10,1.0,1.0,0
run-2020-2-18-11-35-33.152611017,AGENT#c6e49822-5242-11ea-b40c-efad6ec60d85,5,68,73,10,1.0,1.0,0
run-2020-2-18-11-35-33.152611017,AGENT#c6e4a3a8-5242-11ea-be36-83adc3b51068,5,68,73,10,1.0,1.0,0
run-2020-2-18-11-35-33.152611017,AGENT#c6e4ad4e-5242-11ea-bd2d-43cd1ed92e42,5,68,73,10,1.0,1.0,0
run-2020-2-18-11-35-33.152611017,AGENT#c6ead4f8-5242-11ea-ae87-03c90a03f87f,4,70,74,10,1.0,1.0,0
run-2020-2-18-11-35-33.152611017,AGENT#c6edda90-5242-11ea-badb-1f7fd15463a6,3,71,74,10,1.0,1.0,0
run-2020-2-18-11-35-33.152611017,AGENT#c6f0d81c-5242-11ea-bdbc-7b959a960f9f,2,72,74,10,1.0,1.0,0
run-2020-2-18-11-35-33.152611017,AGENT#c6f0e208-5242-11ea-9a18-af4e66c8c4e1,2,72,74,10,1.0,1.0,0
run-2020-2-18-11-35-33.152611017,AGENT#c66ecf16-5242-11ea-81ea-53101255b2db,46,29,75,10,1.0,1.0,0
run-2020-2-18-11-35-33.152611017,AGENT#c6eddf5e-5242-11ea-988c-47650a4ad9ee,4,71,75,10,1.0,1.0,0
run-2020-2-18-11-35-33.152611017,AGENT#c6f0df9c-5242-11ea-933b-d3ba00edbcbe,3,72,75,10,1.0,1.0,0
run-2020-2-18-11-35-33.152611017,AGENT#c6743366-5242-11ea-8c83-c727f0239e9c,45,31,76,10,1.0,1.0,0
run-2020-2-18-11-35-33.152611017,AGENT#c6eddd1a-5242-11ea-8d2e-6f4bd39bbf64,5,71,76,10,1.0,1.0,0
run-2020-2-18-11-35-33.152611017,AGENT#c6f706c4-5242-11ea-be1a-5bb6560a5ddb,2,74,76,10,1.0,1.0,0
run-2020-2-18-11-35-33.152611017,AGENT#c6f70bba-5242-11ea-9fe2-930350bf1f04,3,74,77,10,1.0,1.0,0
run-2020-2-18-11-35-33.152611017,AGENT#c6718d50-5242-11ea-8f39-43caa568d5c3,48,30,78,10,1.0,1.0,0
run-2020-2-18-11-35-33.152611017,AGENT#c6de5c0a-5242-11ea-bd4a-27e055edcccc,12,66,78,10,1.0,1.0,0
run-2020-2-18-11-35-33.152611017,AGENT#c6f3f560-5242-11ea-b1eb-4b886673fd92,5,73,78,10,1.0,1.0,0
run-2020-2-18-11-35-33.152611017,AGENT#c6fe05e6-5242-11ea-a5be-57338d6e298b,2,76,78,10,1.0,1.0,0
run-2020-2-18-11-35-33.152611017,AGENT#c6fe028a-5242-11ea-b3d2-4b9ac59ddd92,3,76,79,10,1.0,1.0,0
run-2020-2-18-11-35-33.152611017,AGENT#c6fe0c76-5242-11ea-8c68-bfc133eb1d3b,3,76,79,10,1.0,1.0,0
run-2020-2-18-11-35-33.152611017,AGENT#c680086c-5242-11ea-9f49-53a86ee0444e,45,35,80,10,1.0,1.0,0
run-2020-2-18-11-35-33.152611017,AGENT#c6ceec66-5242-11ea-98d6-9be87e3fd6ce,19,61,80,10,1.0,1.0,0
run-2020-2-18-11-35-33.152611017,AGENT#c6800006-5242-11ea-a999-a3729a5fd1c6,46,35,81,10,1.0,1.0,0
run-2020-2-18-11-35-33.152611017,AGENT#c682f306-5242-11ea-9404-ef6c484473cc,45,36,81,10,1.0,1.0,0
run-2020-2-18-11-35-33.152611017,AGENT#c682f5a4-5242-11ea-b537-bb21ce2a4642,45,36,81,10,1.0,1.0,0
run-2020-2-18-11-35-33.152611017,AGENT#c6fe0942-5242-11ea-97f5-ab4a5d080dd9,5,76,81,10,1.0,1.0,0
run-2020-2-18-11-35-33.152611017,AGENT#c7011402-5242-11ea-b624-b7c5c57d962a,4,77,81,10,1.0,1.0,0
run-2020-2-18-11-35-33.152611017,AGENT#c70adeba-5242-11ea-b9a5-bb71d0d35ef2,1,80,81,10,1.0,1.0,0
run-2020-2-18-11-35-33.152611017,AGENT#c685b7da-5242-11ea-acb0-438f13de31b9,45,37,82,10,1.0,1.0,0
run-2020-2-18-11-35-33.152611017,AGENT#c7011650-5242-11ea-872a-3baf85578b80,5,77,82,10,1.0,1.0,0
run-2020-2-18-11-35-33.152611017,AGENT#c685b30c-5242-11ea-ad02-f71c3f045f3a,46,37,83,10,1.0,1.0,0
run-2020-2-18-11-35-33.152611017,AGENT#c70457c0-5242-11ea-a9cb-8f322ab05161,5,78,83,10,1.0,1.0,0
run-2020-2-18-11-35-33.152611017,AGENT#c70de16e-5242-11ea-ade3-6b66b9106617,2,81,83,10,1.0,1.0,0
run-2020-2-18-11-35-33.152611017,AGENT#c710df22-5242-11ea-b65c-9778b49d2ab1,1,82,83,10,1.0,1.0,0
run-2020-2-18-11-35-33.152611017,AGENT#c710e1ca-5242-11ea-a0df-83e902e0fe2f,1,82,83,10,1.0,1.0,0
run-2020-2-18-11-35-33.152611017,AGENT#c6de5782-5242-11ea-aa68-63d8d1b239d1,18,66,84,10,1.0,1.0,0
run-2020-2-18-11-35-33.152611017,AGENT#c68e3090-5242-11ea-a76b-5368100ba5c1,45,40,85,10,1.0,1.0,0
run-2020-2-18-11-35-33.152611017,AGENT#c6b4e87a-5242-11ea-97cd-bf9a24e2de8c,33,52,85,10,1.0,1.0,0
run-2020-2-18-11-35-33.152611017,AGENT#c6f0dd1c-5242-11ea-a7df-c71562d347eb,13,72,85,10,1.0,1.0,0
run-2020-2-18-11-35-33.152611017,AGENT#c716a7a4-5242-11ea-9fa1-1330ce63cc85,1,84,85,10,1.0,1.0,0
run-2020-2-18-11-35-33.152611017,AGENT#c70dde9e-5242-11ea-ad31-8bfe95f158c0,5,81,86,10,1.0,1.0,0
run-2020-2-18-11-35-33.152611017,AGENT#c71a12a4-5242-11ea-8b37-e390f82945e8,1,85,86,10,1.0,1.0,0
run-2020-2-18-11-35-33.152611017,AGENT#c716a51a-5242-11ea-9c11-ef68a41f34a9,3,84,87,10,1.0,1.0,0
run-2020-2-18-11-35-33.152611017,AGENT#c71a151a-5242-11ea-9ae3-7f856b556de9,3,85,88,10,1.0,1.0,0
run-2020-2-18-11-35-33.152611017,AGENT#c71d16fc-5242-11ea-b831-d3093c7ab8c1,2,86,88,10,1.0,1.0,0
run-2020-2-18-11-35-33.152611017,AGENT#c71d199a-5242-11ea-b9f0-43fc001164c6,2,86,88,10,1.0,1.0,0
run-2020-2-18-11-35-33.152611017,AGENT#c71d1c10-5242-11ea-98ab-27ff0e26e654,3,86,89,10,1.0,1.0,0
run-2020-2-18-11-35-33.152611017,AGENT#c71ff6a6-5242-11ea-b00f-4742c584af59,2,87,89,10,1.0,1.0,0
run-2020-2-18-11-35-33.152611017,AGENT#c72004a2-5242-11ea-8f1b-4f054a10fce4,2,87,89,10,1.0,1.0,0
run-2020-2-18-11-35-33.152611017,AGENT#c6971188-5242-11ea-8824-5336f5bffb56,47,43,90,10,1.0,1.0,0
run-2020-2-18-11-35-33.152611017,AGENT#c71ffc96-5242-11ea-ba26-eb65b63ac9b5,3,87,90,10,1.0,1.0,0
run-2020-2-18-11-35-33.152611017,AGENT#c7239838-5242-11ea-82be-e31994e3d599,2,88,90,10,1.0,1.0,0
run-2020-2-18-11-35-33.152611017,AGENT#c723a18e-5242-11ea-b048-57627e9973a5,2,88,90,10,1.0,1.0,0
run-2020-2-18-11-35-33.152611017,AGENT#c69e4c32-5242-11ea-a2d8-fbc71ca1c6e7,46,45,91,10,1.0,1.0,0
run-2020-2-18-11-35-33.152611017,AGENT#c6a1e16c-5242-11ea-a696-f7023a24b4ca,45,46,91,10,1.0,1.0,0
run-2020-2-18-11-35-33.152611017,AGENT#c726e01a-5242-11ea-903b-ebe99b74ff05,2,89,91,10,1.0,1.0,0
run-2020-2-18-11-35-33.152611017,AGENT#c6f0daba-5242-11ea-8291-9757ba2d898f,20,72,92,10,1.0,1.0,0
run-2020-2-18-11-35-33.152611017,AGENT#c726d8b8-5242-11ea-8898-33dca1bfb004,3,89,92,10,1.0,1.0,0
run-2020-2-18-11-35-33.152611017,AGENT#c72a867a-5242-11ea-a666-73a93ee84176,2,90,92,10,1.0,1.0,0
run-2020-2-18-11-35-33.152611017,AGENT#c69e458e-5242-11ea-a087-630c56e28bf7,48,45,93,10,1.0,1.0,0
run-2020-2-18-11-35-33.152611017,AGENT#c726db56-5242-11ea-82bd-bb084fe99f6f,4,89,93,10,1.0,1.0,0
run-2020-2-18-11-35-33.152611017,AGENT#c72d8ef6-5242-11ea-ab0b-839cafd90cfa,2,91,93,10,1.0,1.0,0
run-2020-2-18-11-35-33.152611017,AGENT#c72d9144-5242-11ea-87c0-cf3c55d22c92,2,91,93,10,1.0,1.0,0
run-2020-2-18-11-35-33.152611017,AGENT#c730f000-5242-11ea-a7fd-07077a39cda7,1,92,93,10,1.0,1.0,0
run-2020-2-18-11-35-33.152611017,AGENT#c730ff96-5242-11ea-891a-5fb3b11104b4,1,92,93,10,1.0,1.0,0
run-2020-2-18-11-35-33.152611017,AGENT#c72d8a32-5242-11ea-98a0-d7a0327d5297,3,91,94,10,1.0,1.0,0
run-2020-2-18-11-35-33.152611017,AGENT#c72d8cb2-5242-11ea-9e48-a3e1a231e5eb,3,91,94,10,1.0,1.0,0
run-2020-2-18-11-35-33.152611017,AGENT#c72d95b8-5242-11ea-9fdb-3bd1253f0c3d,3,91,94,10,1.0,1.0,0
run-2020-2-18-11-35-33.152611017,AGENT#c7349a84-5242-11ea-bc8b-7b1683a0e904,1,93,94,10,1.0,1.0,0
run-2020-2-18-11-35-33.152611017,AGENT#c730f7f8-5242-11ea-92a9-c7954dcd1e7e,3,92,95,10,1.0,1.0,0
run-2020-2-18-11-35-33.152611017,AGENT#c737a9b8-5242-11ea-a818-87300e6bb4cb,1,94,95,10,1.0,1.0,0
run-2020-2-18-11-35-33.152611017,AGENT#c6abee96-5242-11ea-92b0-ef7f4efecbe2,47,49,96,10,1.0,1.0,0
run-2020-2-18-11-35-33.152611017,AGENT#c6e18cf4-5242-11ea-8b61-a74df4bd6b7f,29,67,96,10,1.0,1.0,0
run-2020-2-18-11-35-33.152611017,AGENT#c726d5de-5242-11ea-9d1b-9b684cc00165,7,89,96,10,1.0,1.0,0
run-2020-2-18-11-35-33.152611017,AGENT#c737ae72-5242-11ea-96fb-6fc3a23f01ac,2,94,96,10,1.0,1.0,0
run-2020-2-18-11-35-33.152611017,AGENT#c6a558ba-5242-11ea-9fcd-0f0449641948,50,47,97,10,1.0,1.0,0
run-2020-2-18-11-35-33.152611017,AGENT#c6b1d7d4-5242-11ea-bca8-574ac9c11a23,46,51,97,10,1.0,1.0,0
run-2020-2-18-11-35-33.152611017,AGENT#c6b1dc20-5242-11ea-b272-a35e92f823f9,46,51,97,10,1.0,1.0,0
run-2020-2-18-11-35-33.152611017,AGENT#c6b4e5b4-5242-11ea-adbb-efdfea66747b,45,52,97,10,1.0,1.0,0
run-2020-2-18-11-35-33.152611017,AGENT#c73e39f4-5242-11ea-9a4b-6bba1b36ec96,1,96,97,10,1.0,1.0,0
run-2020-2-18-11-35-33.152611017,AGENT#c7011182-5242-11ea-a35f-43e191b76513,21,77,98,10,1.0,1.0,0
run-2020-2-18-11-35-33.152611017,AGENT#c73e4688-5242-11ea-a2a1-67a9951daf6f,2,96,98,10,1.0,1.0,0
run-2020-2-18-11-35-33.152611017,AGENT#c737ac1a-5242-11ea-9ee4-1b037b280193,5,94,99,10,1.0,1.0,0
run-2020-2-18-11-35-33.152611017,AGENT#c73ae1a0-5242-11ea-806a-1ff4d68aa735,4,95,99,10,1.0,1.0,0
run-2020-2-18-11-35-33.152611017,AGENT#c73e41ba-5242-11ea-856e-9f97476a1fbf,3,96,99,10,1.0,1.0,0
run-2020-2-18-11-35-33.152611017,AGENT#c7419748-5242-11ea-8c74-cb709c1b4e96,2,97,99,10,1.0,1.0,0
run-2020-2-18-11-35-33.152611017,AGENT#c74199dc-5242-11ea-ac3f-630a7f2333cc,2,97,99,10,1.0,1.0,0
