RunID,Tick,AllAgents,Active,Inactive
run-2020-2-18-13-55-31.699259996,0,15,14,1
run-2020-2-18-13-55-31.699259996,1,21,16,5
run-2020-2-18-13-55-31.699259996,2,26,20,6
run-2020-2-18-13-55-31.699259996,3,33,25,8
run-2020-2-18-13-55-31.699259996,4,36,21,15
run-2020-2-18-13-55-31.699259996,5,40,23,17
run-2020-2-18-13-55-31.699259996,6,42,21,21
run-2020-2-18-13-55-31.699259996,7,44,21,23
run-2020-2-18-13-55-31.699259996,8,49,24,25
run-2020-2-18-13-55-31.699259996,9,51,24,27
run-2020-2-18-13-55-31.699259996,10,53,25,28
run-2020-2-18-13-55-31.699259996,11,59,29,30
run-2020-2-18-13-55-31.699259996,12,62,32,30
run-2020-2-18-13-55-31.699259996,13,67,35,32
run-2020-2-18-13-55-31.699259996,14,71,34,37
run-2020-2-18-13-55-31.699259996,15,75,37,38
run-2020-2-18-13-55-31.699259996,16,80,39,41
run-2020-2-18-13-55-31.699259996,17,83,38,45
run-2020-2-18-13-55-31.699259996,18,86,40,46
run-2020-2-18-13-55-31.699259996,19,89,40,49
run-2020-2-18-13-55-31.699259996,20,94,41,53
run-2020-2-18-13-55-31.699259996,21,102,47,55
run-2020-2-18-13-55-31.699259996,22,109,48,61
run-2020-2-18-13-55-31.699259996,23,113,49,64
run-2020-2-18-13-55-31.699259996,24,114,45,69
run-2020-2-18-13-55-31.699259996,25,119,47,72
run-2020-2-18-13-55-31.699259996,26,122,48,74
run-2020-2-18-13-55-31.699259996,27,124,47,77
run-2020-2-18-13-55-31.699259996,28,124,45,79
run-2020-2-18-13-55-31.699259996,29,129,47,82
run-2020-2-18-13-55-31.699259996,30,134,49,85
run-2020-2-18-13-55-31.699259996,31,137,47,90
run-2020-2-18-13-55-31.699259996,32,143,51,92
run-2020-2-18-13-55-31.699259996,33,147,52,95
run-2020-2-18-13-55-31.699259996,34,148,50,98
run-2020-2-18-13-55-31.699259996,35,153,54,99
run-2020-2-18-13-55-31.699259996,36,153,51,102
run-2020-2-18-13-55-31.699259996,37,156,53,103
run-2020-2-18-13-55-31.699259996,38,159,51,108
run-2020-2-18-13-55-31.699259996,39,161,52,109
run-2020-2-18-13-55-31.699259996,40,167,58,109
run-2020-2-18-13-55-31.699259996,41,171,59,112
run-2020-2-18-13-55-31.699259996,42,177,63,114
run-2020-2-18-13-55-31.699259996,43,182,64,118
run-2020-2-18-13-55-31.699259996,44,186,64,122
run-2020-2-18-13-55-31.699259996,45,189,63,126
run-2020-2-18-13-55-31.699259996,46,192,61,131
run-2020-2-18-13-55-31.699259996,47,194,54,140
run-2020-2-18-13-55-31.699259996,48,194,50,144
run-2020-2-18-13-55-31.699259996,49,196,51,145
run-2020-2-18-13-55-31.699259996,50,199,52,147
run-2020-2-18-13-55-31.699259996,51,200,47,153
run-2020-2-18-13-55-31.699259996,52,201,45,156
run-2020-2-18-13-55-31.699259996,53,202,42,160
run-2020-2-18-13-55-31.699259996,54,205,44,161
run-2020-2-18-13-55-31.699259996,55,211,47,164
run-2020-2-18-13-55-31.699259996,56,216,48,168
run-2020-2-18-13-55-31.699259996,57,223,50,173
run-2020-2-18-13-55-31.699259996,58,226,50,176
run-2020-2-18-13-55-31.699259996,59,231,50,181
run-2020-2-18-13-55-31.699259996,60,234,48,186
run-2020-2-18-13-55-31.699259996,61,237,47,190
run-2020-2-18-13-55-31.699259996,62,241,49,192
run-2020-2-18-13-55-31.699259996,63,245,49,196
run-2020-2-18-13-55-31.699259996,64,246,48,198
run-2020-2-18-13-55-31.699259996,65,246,43,203
run-2020-2-18-13-55-31.699259996,66,249,44,205
run-2020-2-18-13-55-31.699259996,67,254,44,210
run-2020-2-18-13-55-31.699259996,68,261,50,211
run-2020-2-18-13-55-31.699259996,69,264,50,214
run-2020-2-18-13-55-31.699259996,70,270,54,216
run-2020-2-18-13-55-31.699259996,71,270,51,219
run-2020-2-18-13-55-31.699259996,72,271,49,222
run-2020-2-18-13-55-31.699259996,73,276,47,229
run-2020-2-18-13-55-31.699259996,74,280,49,231
run-2020-2-18-13-55-31.699259996,75,285,51,234
run-2020-2-18-13-55-31.699259996,76,286,48,238
run-2020-2-18-13-55-31.699259996,77,291,49,242
run-2020-2-18-13-55-31.699259996,78,294,49,245
run-2020-2-18-13-55-31.699259996,79,299,50,249
run-2020-2-18-13-55-31.699259996,80,303,50,253
run-2020-2-18-13-55-31.699259996,81,307,50,257
run-2020-2-18-13-55-31.699259996,82,313,53,260
run-2020-2-18-13-55-31.699259996,83,316,50,266
run-2020-2-18-13-55-31.699259996,84,321,53,268
run-2020-2-18-13-55-31.699259996,85,322,49,273
run-2020-2-18-13-55-31.699259996,86,323,46,277
run-2020-2-18-13-55-31.699259996,87,327,49,278
run-2020-2-18-13-55-31.699259996,88,329,50,279
run-2020-2-18-13-55-31.699259996,89,333,51,282
run-2020-2-18-13-55-31.699259996,90,338,50,288
run-2020-2-18-13-55-31.699259996,91,340,48,292
run-2020-2-18-13-55-31.699259996,92,344,50,294
run-2020-2-18-13-55-31.699259996,93,351,50,301
run-2020-2-18-13-55-31.699259996,94,357,50,307
run-2020-2-18-13-55-31.699259996,95,360,48,312
run-2020-2-18-13-55-31.699259996,96,365,49,316
run-2020-2-18-13-55-31.699259996,97,365,43,322
run-2020-2-18-13-55-31.699259996,98,367,43,324
run-2020-2-18-13-55-31.699259996,99,369,44,325
