RunID,Tick,AllAgents,Active,Inactive
run-2020-2-29-9-28-5.526069641,0,12,11,1
run-2020-2-29-9-28-5.526069641,1,18,14,4
run-2020-2-29-9-28-5.526069641,2,20,12,8
run-2020-2-29-9-28-5.526069641,3,24,13,11
run-2020-2-29-9-28-5.526069641,4,25,12,13
run-2020-2-29-9-28-5.526069641,5,28,12,16
run-2020-2-29-9-28-5.526069641,6,30,13,17
run-2020-2-29-9-28-5.526069641,7,34,15,19
run-2020-2-29-9-28-5.526069641,8,37,17,20
run-2020-2-29-9-28-5.526069641,9,41,20,21
run-2020-2-29-9-28-5.526069641,10,46,23,23
run-2020-2-29-9-28-5.526069641,11,50,24,26
run-2020-2-29-9-28-5.526069641,12,58,30,28
run-2020-2-29-9-28-5.526069641,13,61,27,34
run-2020-2-29-9-28-5.526069641,14,67,33,34
run-2020-2-29-9-28-5.526069641,15,71,34,37
run-2020-2-29-9-28-5.526069641,16,75,30,45
run-2020-2-29-9-28-5.526069641,17,78,31,47
run-2020-2-29-9-28-5.526069641,18,83,35,48
run-2020-2-29-9-28-5.526069641,19,86,35,51
run-2020-2-29-9-28-5.526069641,20,92,41,51
run-2020-2-29-9-28-5.526069641,21,95,42,53
run-2020-2-29-9-28-5.526069641,22,97,43,54
run-2020-2-29-9-28-5.526069641,23,103,47,56
run-2020-2-29-9-28-5.526069641,24,106,45,61
run-2020-2-29-9-28-5.526069641,25,108,43,65
run-2020-2-29-9-28-5.526069641,26,108,39,69
run-2020-2-29-9-28-5.526069641,27,113,42,71
run-2020-2-29-9-28-5.526069641,28,116,45,71
run-2020-2-29-9-28-5.526069641,29,120,45,75
run-2020-2-29-9-28-5.526069641,30,123,47,76
run-2020-2-29-9-28-5.526069641,31,126,48,78
run-2020-2-29-9-28-5.526069641,32,132,52,80
run-2020-2-29-9-28-5.526069641,33,132,49,83
run-2020-2-29-9-28-5.526069641,34,138,52,86
run-2020-2-29-9-28-5.526069641,35,147,59,88
run-2020-2-29-9-28-5.526069641,36,153,60,93
run-2020-2-29-9-28-5.526069641,37,154,57,97
run-2020-2-29-9-28-5.526069641,38,161,61,100
run-2020-2-29-9-28-5.526069641,39,163,61,102
run-2020-2-29-9-28-5.526069641,40,168,61,107
run-2020-2-29-9-28-5.526069641,41,175,65,110
run-2020-2-29-9-28-5.526069641,42,181,66,115
run-2020-2-29-9-28-5.526069641,43,186,68,118
run-2020-2-29-9-28-5.526069641,44,190,66,124
run-2020-2-29-9-28-5.526069641,45,196,70,126
run-2020-2-29-9-28-5.526069641,46,199,67,132
run-2020-2-29-9-28-5.526069641,47,205,70,135
run-2020-2-29-9-28-5.526069641,48,208,68,140
run-2020-2-29-9-28-5.526069641,49,208,66,142
run-2020-2-29-9-28-5.526069641,50,211,64,147
run-2020-2-29-9-28-5.526069641,51,217,68,149
run-2020-2-29-9-28-5.526069641,52,223,70,153
run-2020-2-29-9-28-5.526069641,53,230,65,165
run-2020-2-29-9-28-5.526069641,54,232,62,170
run-2020-2-29-9-28-5.526069641,55,237,64,173
run-2020-2-29-9-28-5.526069641,56,240,64,176
run-2020-2-29-9-28-5.526069641,57,241,63,178
run-2020-2-29-9-28-5.526069641,58,242,63,179
run-2020-2-29-9-28-5.526069641,59,250,66,184
run-2020-2-29-9-28-5.526069641,60,254,65,189
run-2020-2-29-9-28-5.526069641,61,259,68,191
run-2020-2-29-9-28-5.526069641,62,261,68,193
run-2020-2-29-9-28-5.526069641,63,265,67,198
run-2020-2-29-9-28-5.526069641,64,270,66,204
run-2020-2-29-9-28-5.526069641,65,272,65,207
run-2020-2-29-9-28-5.526069641,66,275,65,210
run-2020-2-29-9-28-5.526069641,67,276,61,215
run-2020-2-29-9-28-5.526069641,68,278,60,218
run-2020-2-29-9-28-5.526069641,69,284,65,219
run-2020-2-29-9-28-5.526069641,70,285,61,224
run-2020-2-29-9-28-5.526069641,71,289,64,225
run-2020-2-29-9-28-5.526069641,72,290,62,228
run-2020-2-29-9-28-5.526069641,73,295,65,230
run-2020-2-29-9-28-5.526069641,74,298,63,235
run-2020-2-29-9-28-5.526069641,75,302,61,241
run-2020-2-29-9-28-5.526069641,76,305,57,248
run-2020-2-29-9-28-5.526069641,77,307,55,252
run-2020-2-29-9-28-5.526069641,78,310,56,254
run-2020-2-29-9-28-5.526069641,79,314,57,257
run-2020-2-29-9-28-5.526069641,80,320,59,261
run-2020-2-29-9-28-5.526069641,81,325,61,264
run-2020-2-29-9-28-5.526069641,82,329,63,266
run-2020-2-29-9-28-5.526069641,83,331,57,274
run-2020-2-29-9-28-5.526069641,84,336,58,278
run-2020-2-29-9-28-5.526069641,85,341,58,283
run-2020-2-29-9-28-5.526069641,86,344,56,288
run-2020-2-29-9-28-5.526069641,87,346,54,292
run-2020-2-29-9-28-5.526069641,88,351,54,297
run-2020-2-29-9-28-5.526069641,89,352,51,301
run-2020-2-29-9-28-5.526069641,90,357,55,302
run-2020-2-29-9-28-5.526069641,91,363,56,307
run-2020-2-29-9-28-5.526069641,92,367,56,311
run-2020-2-29-9-28-5.526069641,93,369,52,317
run-2020-2-29-9-28-5.526069641,94,371,50,321
run-2020-2-29-9-28-5.526069641,95,375,51,324
run-2020-2-29-9-28-5.526069641,96,381,54,327
run-2020-2-29-9-28-5.526069641,97,384,56,328
run-2020-2-29-9-28-5.526069641,98,389,55,334
run-2020-2-29-9-28-5.526069641,99,394,56,338
