Source,Target
bc0c5f84-5242-11ea-87ab-63290e9eb15d,bc0daeb6-5242-11ea-8867-2763f0fc0f7c
bc0d1b36-5242-11ea-9e04-c38916f4d33a,bc0db514-5242-11ea-b138-e33065d82920
bc0c6434-5242-11ea-84a8-cb48825df698,bc0db8d4-5242-11ea-851d-b31afb72116c
bc0d6e60-5242-11ea-9ab9-ffd915803498,bc0dbe2e-5242-11ea-af0c-a77e5d388a2e
bc0d1244-5242-11ea-b1e8-9fa86353ef94,bc0dc284-5242-11ea-8a5e-7717bcf8c577
bc0ce828-5242-11ea-b196-abd254a7c83e,bc0dd4ae-5242-11ea-84f2-6346f6148864
bc0c0728-5242-11ea-8f32-bb447e334f7d,bc0de642-5242-11ea-ac0f-2bca8e06ad56
bc0cb5a6-5242-11ea-8492-4b316a16de1f,bc0dedc2-5242-11ea-aaa9-cb43c19148d3
bc0cc01e-5242-11ea-91dd-ab3fa45cd77d,bc0dfb00-5242-11ea-bb82-b3f50ce89a63
bc0c1970-5242-11ea-8bc7-e7fc9723c393,bc0e017c-5242-11ea-aec4-6ffcf4aa1056
bc0ca89a-5242-11ea-b9cc-cf96eb754746,bc0e0852-5242-11ea-ba5f-53b124894fa9
bc0bebd0-5242-11ea-9441-efaed05bc918,bc0e0c8a-5242-11ea-8ad9-736d68d2f8b5
bc0b74b6-5242-11ea-8838-3fc02a64d0f3,bc0e1518-5242-11ea-9e7f-6b2f13f4657f
bc0e0c8a-5242-11ea-8ad9-736d68d2f8b5,bc0e2eea-5242-11ea-819f-23fd93977e73
bc0dfb00-5242-11ea-bb82-b3f50ce89a63,bc0e3610-5242-11ea-a727-af1ed4205d70
bc0d28e2-5242-11ea-90d4-f771da38f0be,bc0e3cb4-5242-11ea-befd-b7ce593dad6b
bc0dbe2e-5242-11ea-af0c-a77e5d388a2e,bc0e4c86-5242-11ea-85b9-cb3bd82e30f9
bc0c1970-5242-11ea-8bc7-e7fc9723c393,bc0e4862-5242-11ea-a198-4fad05336d7b
bc0c5b4c-5242-11ea-9af5-5bd4e57e9662,bc0e5352-5242-11ea-91db-bfedc9b6941a
bc0d072c-5242-11ea-9e02-33c9c95e3a82,bc0e5e74-5242-11ea-b3b5-df63cd0f36f1
bc0e0852-5242-11ea-ba5f-53b124894fa9,bc0e62ac-5242-11ea-ba4c-9ba621f3de26
bc0dfb00-5242-11ea-bb82-b3f50ce89a63,bc0e7936-5242-11ea-b7cc-979039a455f7
bc0cc01e-5242-11ea-91dd-ab3fa45cd77d,bc0e8304-5242-11ea-b55d-376303b1ba54
bc0d6622-5242-11ea-8c1a-0f89effaf0bf,bc0e8ad4-5242-11ea-95b6-03eac08836f8
bc0dd4ae-5242-11ea-84f2-6346f6148864,bc0e9628-5242-11ea-a336-bb44bb187ce2
bc0e017c-5242-11ea-aec4-6ffcf4aa1056,bc0e9bb4-5242-11ea-91a3-df2ed2d741fd
bc0d16c2-5242-11ea-906a-af8d439355cb,bc0e9f4c-5242-11ea-a6f8-cf686c4c0479
bc0e1518-5242-11ea-9e7f-6b2f13f4657f,bc0eaf0a-5242-11ea-9701-8ffea9781bbf
bc0e9bb4-5242-11ea-91a3-df2ed2d741fd,bc0eb28e-5242-11ea-9acf-df85cce8b5b0
bc0cc01e-5242-11ea-91dd-ab3fa45cd77d,bc0ec2f6-5242-11ea-b8ce-4b9098921f80
bc0e2eea-5242-11ea-819f-23fd93977e73,bc0ed034-5242-11ea-9115-174ce189f64a
bc0eb28e-5242-11ea-9acf-df85cce8b5b0,bc0ed55c-5242-11ea-9f64-5f6618302198
bc0cb04c-5242-11ea-adab-3b4798a0ba4b,bc0edd90-5242-11ea-972d-e7d297776f5d
bc0e4c86-5242-11ea-85b9-cb3bd82e30f9,bc0ee66e-5242-11ea-a0bb-5be5cce0716e
bc0d28e2-5242-11ea-90d4-f771da38f0be,bc0eefd8-5242-11ea-804b-87951632520f
bc0db514-5242-11ea-b138-e33065d82920,bc0eff64-5242-11ea-9228-db7f7e0979af
bc0ee66e-5242-11ea-a0bb-5be5cce0716e,bc0f0310-5242-11ea-a88f-93a144b3af95
bc0cc01e-5242-11ea-91dd-ab3fa45cd77d,bc0f0f04-5242-11ea-8f57-a78b4d7b23d5
bc0d9872-5242-11ea-b72e-173a88a84d1e,bc0f1bfc-5242-11ea-bd17-2b5fe594e345
bc0cb04c-5242-11ea-adab-3b4798a0ba4b,bc0f22b4-5242-11ea-aa95-434357d55042
bc0bb872-5242-11ea-b0ec-db71f4afd4b5,bc0f26c4-5242-11ea-8e34-af91b1b64422
bc0b9090-5242-11ea-899d-4bb92405c32f,bc0f2f7a-5242-11ea-9043-c31d4bc78eda
bc0eaf0a-5242-11ea-9701-8ffea9781bbf,bc0f363c-5242-11ea-b873-d373d4d76dc0
bc0d626c-5242-11ea-992e-c32db6e2d632,bc0f4a0a-5242-11ea-a48d-afdeee52deb3
bc0de642-5242-11ea-ac0f-2bca8e06ad56,bc0f5414-5242-11ea-bf27-53017c3eaa9a
bc0e8ad4-5242-11ea-95b6-03eac08836f8,bc0f5806-5242-11ea-9147-4b679b825181
bc0d6622-5242-11ea-8c1a-0f89effaf0bf,bc0f6cba-5242-11ea-98e9-dbe513c213a6
bc0cb5a6-5242-11ea-8492-4b316a16de1f,bc0f6832-5242-11ea-a54b-3b2336f70cdf
bc0f0310-5242-11ea-a88f-93a144b3af95,bc0f767e-5242-11ea-a831-67939c1d5664
bc0f767e-5242-11ea-a831-67939c1d5664,bc0f7d7c-5242-11ea-81e7-97a287038366
bc0d6e60-5242-11ea-9ab9-ffd915803498,bc0f8164-5242-11ea-b810-4bf409abe82e
bc0f363c-5242-11ea-b873-d373d4d76dc0,bc0f9a8c-5242-11ea-96ea-f318b3a21943
bc0d9c32-5242-11ea-9bea-c712f6599c24,bc0fa126-5242-11ea-b417-f3f189179821
bc0e8304-5242-11ea-b55d-376303b1ba54,bc0fa7a2-5242-11ea-b405-1381a325f736
bc0f9a8c-5242-11ea-96ea-f318b3a21943,bc0fb508-5242-11ea-b009-878e2f4a18e3
bc0f9a8c-5242-11ea-96ea-f318b3a21943,bc0fb90e-5242-11ea-b1aa-7bf14b9572c9
bc0cbaf6-5242-11ea-a0ff-0b855bda2354,bc0fbcec-5242-11ea-8dba-db24d006982b
bc0d072c-5242-11ea-9e02-33c9c95e3a82,bc0fc66a-5242-11ea-a5bb-73da3ae79ec8
bc0d1b36-5242-11ea-9e04-c38916f4d33a,bc0fcdfe-5242-11ea-92f1-fb29b544fd0a
bc0c76fe-5242-11ea-af90-e7ecf0f1c5aa,bc0fe758-5242-11ea-af49-bb8eab060da6
bc0dc284-5242-11ea-8a5e-7717bcf8c577,bc0fed0c-5242-11ea-b368-67930f469ff3
bc0f8164-5242-11ea-b810-4bf409abe82e,bc0ff522-5242-11ea-9e95-c3019e995813
bc0c5b4c-5242-11ea-9af5-5bd4e57e9662,bc0ffefa-5242-11ea-b42d-4f4e551738e2
bc0db514-5242-11ea-b138-e33065d82920,bc100332-5242-11ea-8114-bbbf2feda682
bc0fa126-5242-11ea-b417-f3f189179821,bc100a4e-5242-11ea-b56c-ff8d8948b1c2
bc0ed55c-5242-11ea-9f64-5f6618302198,bc1017be-5242-11ea-a367-27594ff039d8
bc0f5414-5242-11ea-bf27-53017c3eaa9a,bc10114c-5242-11ea-b9a6-9777446f5834
bc0ed55c-5242-11ea-9f64-5f6618302198,bc103226-5242-11ea-9d32-ef260d28be54
bc0d6a96-5242-11ea-8e8a-5bab70a562a3,bc104932-5242-11ea-a3bc-37e1b4a2846b
bc0e3610-5242-11ea-a727-af1ed4205d70,bc104ef0-5242-11ea-9f6b-2b0fbe079b27
bc0d4386-5242-11ea-89b8-cf566be32bd0,bc105bf2-5242-11ea-bf23-e72da448e83e
bc0f0f04-5242-11ea-8f57-a78b4d7b23d5,bc105382-5242-11ea-ad4d-631d6cedf71c
bc0ee66e-5242-11ea-a0bb-5be5cce0716e,bc105846-5242-11ea-a94f-0bbe8ab4a897
bc0c0728-5242-11ea-8f32-bb447e334f7d,bc107880-5242-11ea-a116-c34692f8d370
bc0e9628-5242-11ea-a336-bb44bb187ce2,bc107d8a-5242-11ea-bac6-0ba4bbaf4b93
bc0e0c8a-5242-11ea-8ad9-736d68d2f8b5,bc108c8a-5242-11ea-b893-974eeff6255c
bc0e0c8a-5242-11ea-8ad9-736d68d2f8b5,bc10923e-5242-11ea-af77-6787d8037000
bc0cb04c-5242-11ea-adab-3b4798a0ba4b,bc109aae-5242-11ea-8e2f-67a2fb824089
bc0c76fe-5242-11ea-af90-e7ecf0f1c5aa,bc10961c-5242-11ea-8eec-db899b393ba4
bc0fa7a2-5242-11ea-b405-1381a325f736,bc10b926-5242-11ea-939d-e7737cafe2cd
bc0daeb6-5242-11ea-8867-2763f0fc0f7c,bc10c808-5242-11ea-94e4-cb865a739e2d
bc0bb872-5242-11ea-b0ec-db71f4afd4b5,bc10cbdc-5242-11ea-a698-4b0613c2869a
bc0f5806-5242-11ea-9147-4b679b825181,bc10cff6-5242-11ea-b4f7-4b886153e256
bc0bd032-5242-11ea-ad9b-53ed0f0f4dc2,bc10d96a-5242-11ea-ad27-df77b5e88e1e
bc0fbcec-5242-11ea-8dba-db24d006982b,bc10df78-5242-11ea-b341-eb7f91fef056
bc0f5806-5242-11ea-9147-4b679b825181,bc10e8f6-5242-11ea-a2d1-87c4796738c0
bc0e3cb4-5242-11ea-befd-b7ce593dad6b,bc10ed06-5242-11ea-aebb-573836b3aa18
bc10e8f6-5242-11ea-a2d1-87c4796738c0,bc110084-5242-11ea-8b8e-271914bfc030
bc0ffefa-5242-11ea-b42d-4f4e551738e2,bc1113c6-5242-11ea-a648-f74c49066ef1
bc0f6cba-5242-11ea-98e9-dbe513c213a6,bc111812-5242-11ea-9525-8bc40a7d3aa3
bc0c6952-5242-11ea-9763-571d9a30efff,bc111d1c-5242-11ea-8a94-672f815eb94e
bc1017be-5242-11ea-a367-27594ff039d8,bc112e24-5242-11ea-ac2c-f75685219b1b
bc0f0f04-5242-11ea-8f57-a78b4d7b23d5,bc1126ae-5242-11ea-9f1a-c72fccb81a24
bc0c9b70-5242-11ea-b0a5-0b304487b9ff,bc1134e6-5242-11ea-bfaf-83e3fc4e31df
bc10d96a-5242-11ea-ad27-df77b5e88e1e,bc113ab8-5242-11ea-8d86-bf01d6a62217
