RunID,Agent,Age,Created,Inactive,Resources,Reputation,Ability,Que
run-2020-2-17-18-28-30.017527103,AGENT#4cee750e-51b3-11ea-9b54-4b7c23d52986,0,0,0,10,1.0,1.0,0
run-2020-2-17-18-28-30.017527103,AGENT#4cee86a2-51b3-11ea-8e71-8f9b933cc120,0,0,0,10,1.0,1.0,0
run-2020-2-17-18-28-30.017527103,AGENT#4cee8972-51b3-11ea-8a54-5b4d68f33910,0,0,0,10,1.0,1.0,0
run-2020-2-17-18-28-30.017527103,AGENT#4cee7162-51b3-11ea-a72e-dbf7cf71d409,1,0,1,10,1.0,1.0,0
run-2020-2-17-18-28-30.017527103,AGENT#4cee7b26-51b3-11ea-9891-6369257002cc,1,0,1,10,1.0,1.0,0
run-2020-2-17-18-28-30.017527103,AGENT#4cee7e14-51b3-11ea-b03d-2bec2cc69cc4,2,0,2,10,1.0,1.0,0
run-2020-2-17-18-28-30.017527103,AGENT#4ceed936-51b3-11ea-aa0d-e37ebf1d6b31,2,0,2,10,1.0,1.0,0
run-2020-2-17-18-28-30.017527103,AGENT#4ceee354-51b3-11ea-93b9-cf6d0b53f503,2,0,2,10,1.0,1.0,0
run-2020-2-17-18-28-30.017527103,AGENT#4cee7810-51b3-11ea-9c76-f3977fb9325c,3,0,3,10,1.0,1.0,0
run-2020-2-17-18-28-30.017527103,AGENT#4cee83be-51b3-11ea-9d5b-972d050392a1,3,0,3,10,1.0,1.0,0
run-2020-2-17-18-28-30.017527103,AGENT#4cee8c42-51b3-11ea-a064-0f8fa1a8ec67,3,0,3,10,1.0,1.0,0
run-2020-2-17-18-28-30.017527103,AGENT#4ceed580-51b3-11ea-aee2-27cbc3ab0a67,3,0,3,10,1.0,1.0,0
run-2020-2-17-18-28-30.017527103,AGENT#4cf9aa82-51b3-11ea-97d3-57c289afe8b4,2,1,3,10,1.0,1.0,0
run-2020-2-17-18-28-30.017527103,AGENT#4cface44-51b3-11ea-b6ca-5f2a5f5c2a76,1,2,3,10,1.0,1.0,0
run-2020-2-17-18-28-30.017527103,AGENT#4cfad358-51b3-11ea-ac4a-ff54c670f1eb,1,2,3,10,1.0,1.0,0
run-2020-2-17-18-28-30.017527103,AGENT#4cf9a4b0-51b3-11ea-a882-bfd423865615,3,1,4,10,1.0,1.0,0
run-2020-2-17-18-28-30.017527103,AGENT#4cf9a78a-51b3-11ea-b42d-5f9784b395af,3,1,4,10,1.0,1.0,0
run-2020-2-17-18-28-30.017527103,AGENT#4cfac91c-51b3-11ea-b182-cf1844d0b8a4,2,2,4,10,1.0,1.0,0
run-2020-2-17-18-28-30.017527103,AGENT#4cfad628-51b3-11ea-946c-8790722e8602,2,2,4,10,1.0,1.0,0
run-2020-2-17-18-28-30.017527103,AGENT#4cfad8bc-51b3-11ea-b907-5f03412435a9,2,2,4,10,1.0,1.0,0
run-2020-2-17-18-28-30.017527103,AGENT#4cee80ee-51b3-11ea-bed1-eb0a257056ba,5,0,5,10,1.0,1.0,0
run-2020-2-17-18-28-30.017527103,AGENT#4cfac660-51b3-11ea-b0fd-a7282a6d6755,3,2,5,10,1.0,1.0,0
run-2020-2-17-18-28-30.017527103,AGENT#4cfc299c-51b3-11ea-808c-776742ade3cc,1,4,5,10,1.0,1.0,0
run-2020-2-17-18-28-30.017527103,AGENT#4cfc2c1c-51b3-11ea-815b-ebd29e3902c9,2,4,6,10,1.0,1.0,0
run-2020-2-17-18-28-30.017527103,AGENT#4cfacba6-51b3-11ea-9650-c3ff3a949713,5,2,7,10,1.0,1.0,0
run-2020-2-17-18-28-30.017527103,AGENT#4cfc31ee-51b3-11ea-9bad-a7358df12389,3,4,7,10,1.0,1.0,0
run-2020-2-17-18-28-30.017527103,AGENT#4cfc2f00-51b3-11ea-81ae-d7896676710f,4,4,8,10,1.0,1.0,0
run-2020-2-17-18-28-30.017527103,AGENT#4cfcb7c2-51b3-11ea-bdd7-7378fd288db4,3,5,8,10,1.0,1.0,0
run-2020-2-17-18-28-30.017527103,AGENT#4cfd1e06-51b3-11ea-ab97-6f8630a22e67,2,6,8,10,1.0,1.0,0
run-2020-2-17-18-28-30.017527103,AGENT#4cfd9638-51b3-11ea-bb66-f7a7c8775ef4,1,7,8,10,1.0,1.0,0
run-2020-2-17-18-28-30.017527103,AGENT#4cfe0c08-51b3-11ea-b795-772c42f55940,1,8,9,10,1.0,1.0,0
run-2020-2-17-18-28-30.017527103,AGENT#4cfcb538-51b3-11ea-9493-db93b32e44ff,5,5,10,10,1.0,1.0,0
run-2020-2-17-18-28-30.017527103,AGENT#4cfd2c84-51b3-11ea-b13e-df8306018cef,4,6,10,10,1.0,1.0,0
run-2020-2-17-18-28-30.017527103,AGENT#4cfd9a0c-51b3-11ea-80d7-4ba3b67f4a70,3,7,10,10,1.0,1.0,0
run-2020-2-17-18-28-30.017527103,AGENT#4cfe0672-51b3-11ea-a0f0-6b9f5b40f88e,3,8,11,10,1.0,1.0,0
run-2020-2-17-18-28-30.017527103,AGENT#4cfedf48-51b3-11ea-97f9-67c6fc5ca05a,1,10,11,10,1.0,1.0,0
run-2020-2-17-18-28-30.017527103,AGENT#4cfd9390-51b3-11ea-bb90-af072c4186c3,5,7,12,10,1.0,1.0,0
run-2020-2-17-18-28-30.017527103,AGENT#4cfe0960-51b3-11ea-ab0f-23c69a74193a,4,8,12,10,1.0,1.0,0
run-2020-2-17-18-28-30.017527103,AGENT#4cfed2a0-51b3-11ea-b0ad-578709c4c548,2,10,12,10,1.0,1.0,0
run-2020-2-17-18-28-30.017527103,AGENT#4cfed55c-51b3-11ea-8f1a-c7282eccff9b,2,10,12,10,1.0,1.0,0
run-2020-2-17-18-28-30.017527103,AGENT#4cfedcd2-51b3-11ea-b8b5-8b9d514934ea,3,10,13,10,1.0,1.0,0
run-2020-2-17-18-28-30.017527103,AGENT#4cfed7d2-51b3-11ea-b51a-972b8e5e758c,4,10,14,10,1.0,1.0,0
run-2020-2-17-18-28-30.017527103,AGENT#4cfeda66-51b3-11ea-a8ff-6b241c055243,4,10,14,10,1.0,1.0,0
run-2020-2-17-18-28-30.017527103,AGENT#4cff4c94-51b3-11ea-a940-b3d9d02c9ca4,3,11,14,10,1.0,1.0,0
run-2020-2-17-18-28-30.017527103,AGENT#4cff5482-51b3-11ea-8ef2-772b294e2570,3,11,14,10,1.0,1.0,0
run-2020-2-17-18-28-30.017527103,AGENT#4cffc732-51b3-11ea-8cc6-3fe25ff42706,2,12,14,10,1.0,1.0,0
run-2020-2-17-18-28-30.017527103,AGENT#4d002916-51b3-11ea-9d24-6bd95c15852f,1,13,14,10,1.0,1.0,0
run-2020-2-17-18-28-30.017527103,AGENT#4cffc4a8-51b3-11ea-9eef-3bb61a4e0e45,3,12,15,10,1.0,1.0,0
run-2020-2-17-18-28-30.017527103,AGENT#4d002e7a-51b3-11ea-bdab-830d874b042f,2,13,15,10,1.0,1.0,0
run-2020-2-17-18-28-30.017527103,AGENT#4d0030fa-51b3-11ea-b8f0-97cd4a5b5c94,2,13,15,10,1.0,1.0,0
run-2020-2-17-18-28-30.017527103,AGENT#4d003604-51b3-11ea-a5d1-d76d655e7ee2,2,13,15,10,1.0,1.0,0
run-2020-2-17-18-28-30.017527103,AGENT#4d00387a-51b3-11ea-8053-2ba507b4a0eb,2,13,15,10,1.0,1.0,0
run-2020-2-17-18-28-30.017527103,AGENT#4d00c132-51b3-11ea-acc9-5bfa56ae0d38,1,14,15,10,1.0,1.0,0
run-2020-2-17-18-28-30.017527103,AGENT#4cff4fa0-51b3-11ea-8456-dbdf96667197,5,11,16,10,1.0,1.0,0
run-2020-2-17-18-28-30.017527103,AGENT#4d002bfa-51b3-11ea-b835-3f40f9f3dbd4,3,13,16,10,1.0,1.0,0
run-2020-2-17-18-28-30.017527103,AGENT#4d00b4d0-51b3-11ea-839a-9fd2af68fc45,2,14,16,10,1.0,1.0,0
run-2020-2-17-18-28-30.017527103,AGENT#4d00c628-51b3-11ea-9274-cf93e62ea3dd,2,14,16,10,1.0,1.0,0
run-2020-2-17-18-28-30.017527103,AGENT#4d00ccf4-51b3-11ea-836a-a33e61c5cb5d,2,14,16,10,1.0,1.0,0
run-2020-2-17-18-28-30.017527103,AGENT#4ceedd50-51b3-11ea-aa73-7b7d21e77461,17,0,17,10,1.0,1.0,0
run-2020-2-17-18-28-30.017527103,AGENT#4d003370-51b3-11ea-84d0-03c675f21dd0,5,13,18,10,1.0,1.0,0
run-2020-2-17-18-28-30.017527103,AGENT#4d00b7c8-51b3-11ea-8567-f74ef707bea8,4,14,18,10,1.0,1.0,0
run-2020-2-17-18-28-30.017527103,AGENT#4d014b8e-51b3-11ea-bb9b-eb473663c8b6,3,15,18,10,1.0,1.0,0
run-2020-2-17-18-28-30.017527103,AGENT#4d015124-51b3-11ea-b63b-7730eb8f4641,3,15,18,10,1.0,1.0,0
run-2020-2-17-18-28-30.017527103,AGENT#4d01bd26-51b3-11ea-a29d-8b247ed2061d,2,16,18,10,1.0,1.0,0
run-2020-2-17-18-28-30.017527103,AGENT#4d00d212-51b3-11ea-bb43-337057e6bb7f,5,14,19,10,1.0,1.0,0
run-2020-2-17-18-28-30.017527103,AGENT#4d024c3c-51b3-11ea-ace6-ff2e33c2f7a9,2,17,19,10,1.0,1.0,0
run-2020-2-17-18-28-30.017527103,AGENT#4d024ec6-51b3-11ea-a2e5-8b90d808097e,2,17,19,10,1.0,1.0,0
run-2020-2-17-18-28-30.017527103,AGENT#4d01c514-51b3-11ea-be5c-93b6d3bb3fb6,4,16,20,10,1.0,1.0,0
run-2020-2-17-18-28-30.017527103,AGENT#4d014e68-51b3-11ea-abe3-935392b5acdc,6,15,21,10,1.0,1.0,0
run-2020-2-17-18-28-30.017527103,AGENT#4d02c0ea-51b3-11ea-bf5c-fb77f01ee0cb,3,18,21,10,1.0,1.0,0
run-2020-2-17-18-28-30.017527103,AGENT#4d03c684-51b3-11ea-aecb-8b3f95935bc2,1,20,21,10,1.0,1.0,0
run-2020-2-17-18-28-30.017527103,AGENT#4d033980-51b3-11ea-b757-2710138e998c,3,19,22,10,1.0,1.0,0
run-2020-2-17-18-28-30.017527103,AGENT#4cfe7846-51b3-11ea-be5f-fbe1f154e72d,15,9,24,10,1.0,1.0,0
run-2020-2-17-18-28-30.017527103,AGENT#4d043538-51b3-11ea-b3e9-578896574051,3,21,24,10,1.0,1.0,0
run-2020-2-17-18-28-30.017527103,AGENT#4d052a1a-51b3-11ea-affb-7fe5f4d5ec90,1,23,24,10,1.0,1.0,0
run-2020-2-17-18-28-30.017527103,AGENT#4d05387a-51b3-11ea-9b15-f3fee9c099e8,1,23,24,10,1.0,1.0,0
run-2020-2-17-18-28-30.017527103,AGENT#4d052c86-51b3-11ea-9ea1-a74570a8cb2a,2,23,25,10,1.0,1.0,0
run-2020-2-17-18-28-30.017527103,AGENT#4d00bb1a-51b3-11ea-8051-1f0b40176ed8,12,14,26,10,1.0,1.0,0
run-2020-2-17-18-28-30.017527103,AGENT#4d053ae6-51b3-11ea-9396-df8479d05204,3,23,26,10,1.0,1.0,0
run-2020-2-17-18-28-30.017527103,AGENT#4d064c74-51b3-11ea-ba91-878ba94a9144,1,25,26,10,1.0,1.0,0
run-2020-2-17-18-28-30.017527103,AGENT#4d05bcb4-51b3-11ea-8a7d-6bf45e3071ae,3,24,27,10,1.0,1.0,0
run-2020-2-17-18-28-30.017527103,AGENT#4d01ba74-51b3-11ea-8855-6397a41fa7a9,12,16,28,10,1.0,1.0,0
run-2020-2-17-18-28-30.017527103,AGENT#4d053276-51b3-11ea-892b-ffc64feb0332,5,23,28,10,1.0,1.0,0
run-2020-2-17-18-28-30.017527103,AGENT#4d05b9b2-51b3-11ea-b985-d7687a8b2c01,4,24,28,10,1.0,1.0,0
run-2020-2-17-18-28-30.017527103,AGENT#4d0648a0-51b3-11ea-9a96-0757ba58467e,3,25,28,10,1.0,1.0,0
run-2020-2-17-18-28-30.017527103,AGENT#4d06d68a-51b3-11ea-99e8-bb29ce34c6e6,2,26,28,10,1.0,1.0,0
run-2020-2-17-18-28-30.017527103,AGENT#4d0759f2-51b3-11ea-aea5-5b3c0de1fe4e,1,27,28,10,1.0,1.0,0
run-2020-2-17-18-28-30.017527103,AGENT#4d06d900-51b3-11ea-9ab8-8729c9ba2e75,3,26,29,10,1.0,1.0,0
run-2020-2-17-18-28-30.017527103,AGENT#4d07e426-51b3-11ea-8211-0f21fc4bc3c1,2,28,30,10,1.0,1.0,0
run-2020-2-17-18-28-30.017527103,AGENT#4d07e6ba-51b3-11ea-85fa-476fc4edb638,2,28,30,10,1.0,1.0,0
run-2020-2-17-18-28-30.017527103,AGENT#4d08b25c-51b3-11ea-a012-4386fbe4c9c1,2,29,31,10,1.0,1.0,0
run-2020-2-17-18-28-30.017527103,AGENT#4d07df30-51b3-11ea-ab51-e7ed33857fbb,4,28,32,10,1.0,1.0,0
run-2020-2-17-18-28-30.017527103,AGENT#4d089966-51b3-11ea-8622-eb6ac4d355ce,3,29,32,10,1.0,1.0,0
run-2020-2-17-18-28-30.017527103,AGENT#4d08aba4-51b3-11ea-a49a-7343c2a30827,3,29,32,10,1.0,1.0,0
run-2020-2-17-18-28-30.017527103,AGENT#4d095fea-51b3-11ea-8134-93bf48422ea2,2,30,32,10,1.0,1.0,0
run-2020-2-17-18-28-30.017527103,AGENT#4d096300-51b3-11ea-99d6-53d69978ad4c,2,30,32,10,1.0,1.0,0
run-2020-2-17-18-28-30.017527103,AGENT#4d0a29f2-51b3-11ea-93c4-bb3dbbb0ffc9,1,31,32,10,1.0,1.0,0
run-2020-2-17-18-28-30.017527103,AGENT#4d07dc7e-51b3-11ea-ba3f-dbc2aeb7e565,5,28,33,10,1.0,1.0,0
run-2020-2-17-18-28-30.017527103,AGENT#4d08af3c-51b3-11ea-9ae2-ebb2fa85fa2e,4,29,33,10,1.0,1.0,0
run-2020-2-17-18-28-30.017527103,AGENT#4d095932-51b3-11ea-8a42-83d013585e38,3,30,33,10,1.0,1.0,0
run-2020-2-17-18-28-30.017527103,AGENT#4d0a251a-51b3-11ea-85ba-ef0f52f5b53c,2,31,33,10,1.0,1.0,0
run-2020-2-17-18-28-30.017527103,AGENT#4d0a2ea2-51b3-11ea-a183-c7603943ed70,2,31,33,10,1.0,1.0,0
run-2020-2-17-18-28-30.017527103,AGENT#4d0965ee-51b3-11ea-9ee0-ab87780c115d,5,30,35,10,1.0,1.0,0
run-2020-2-17-18-28-30.017527103,AGENT#4d0a3226-51b3-11ea-896b-5f39aa91fef0,4,31,35,10,1.0,1.0,0
run-2020-2-17-18-28-30.017527103,AGENT#4d0ba8ae-51b3-11ea-9cbd-0b2cdba299f7,2,33,35,10,1.0,1.0,0
run-2020-2-17-18-28-30.017527103,AGENT#4d0babc4-51b3-11ea-8e00-47d51e6a1eb0,2,33,35,10,1.0,1.0,0
run-2020-2-17-18-28-30.017527103,AGENT#4d06d414-51b3-11ea-898d-77e2b8fb1ec2,10,26,36,10,1.0,1.0,0
run-2020-2-17-18-28-30.017527103,AGENT#4d0ae6a8-51b3-11ea-bea2-7759a6deb9f3,4,32,36,10,1.0,1.0,0
run-2020-2-17-18-28-30.017527103,AGENT#4d0aea4a-51b3-11ea-8fc8-bf11bfdc72cf,4,32,36,10,1.0,1.0,0
run-2020-2-17-18-28-30.017527103,AGENT#4d0aed60-51b3-11ea-8d9b-6f3ede69d386,4,32,36,10,1.0,1.0,0
run-2020-2-17-18-28-30.017527103,AGENT#4d0c5e98-51b3-11ea-8604-4f8c12811715,2,34,36,10,1.0,1.0,0
run-2020-2-17-18-28-30.017527103,AGENT#4d0c619a-51b3-11ea-bb4b-87fabbca7b9c,2,34,36,10,1.0,1.0,0
run-2020-2-17-18-28-30.017527103,AGENT#4d0d260c-51b3-11ea-b9f0-8b91bccdc132,1,35,36,10,1.0,1.0,0
run-2020-2-17-18-28-30.017527103,AGENT#4d0d2dbe-51b3-11ea-9fb9-17faac74633f,1,35,36,10,1.0,1.0,0
run-2020-2-17-18-28-30.017527103,AGENT#4d0c6500-51b3-11ea-ac6d-6b5eba281926,3,34,37,10,1.0,1.0,0
run-2020-2-17-18-28-30.017527103,AGENT#4d0d22e2-51b3-11ea-a132-a36bc6f7b152,2,35,37,10,1.0,1.0,0
run-2020-2-17-18-28-30.017527103,AGENT#4d0d1f7c-51b3-11ea-aa15-9bc0cb839b9a,4,35,39,10,1.0,1.0,0
run-2020-2-17-18-28-30.017527103,AGENT#4d0d28dc-51b3-11ea-b2db-b35de6b90c9d,4,35,39,10,1.0,1.0,0
run-2020-2-17-18-28-30.017527103,AGENT#4d0e05b8-51b3-11ea-9980-afac8d79c829,3,36,39,10,1.0,1.0,0
run-2020-2-17-18-28-30.017527103,AGENT#4d0e0b80-51b3-11ea-acd3-3392dcd3ac88,4,36,40,10,1.0,1.0,0
run-2020-2-17-18-28-30.017527103,AGENT#4d0eb634-51b3-11ea-8bab-f7089d87c373,3,37,40,10,1.0,1.0,0
run-2020-2-17-18-28-30.017527103,AGENT#4d0f65e8-51b3-11ea-8b24-6b09bd5fc4c3,2,38,40,10,1.0,1.0,0
run-2020-2-17-18-28-30.017527103,AGENT#4d104c1a-51b3-11ea-93af-4fb368e62a50,1,39,40,10,1.0,1.0,0
run-2020-2-17-18-28-30.017527103,AGENT#4d0e0248-51b3-11ea-ab35-1772c4774356,5,36,41,10,1.0,1.0,0
run-2020-2-17-18-28-30.017527103,AGENT#4d0f68b8-51b3-11ea-9a50-d7e536e056f9,3,38,41,10,1.0,1.0,0
run-2020-2-17-18-28-30.017527103,AGENT#4d0f6b74-51b3-11ea-b318-8f77191add50,3,38,41,10,1.0,1.0,0
run-2020-2-17-18-28-30.017527103,AGENT#4d0f6e44-51b3-11ea-87cc-4f898d9da5da,3,38,41,10,1.0,1.0,0
run-2020-2-17-18-28-30.017527103,AGENT#4d103784-51b3-11ea-8ee6-b725b574aa65,3,39,42,10,1.0,1.0,0
run-2020-2-17-18-28-30.017527103,AGENT#4d104f08-51b3-11ea-908c-73bca2262d89,3,39,42,10,1.0,1.0,0
run-2020-2-17-18-28-30.017527103,AGENT#4d111438-51b3-11ea-9bac-236c4e524675,2,40,42,10,1.0,1.0,0
run-2020-2-17-18-28-30.017527103,AGENT#4d11e962-51b3-11ea-826e-93cb72b8ba6c,1,41,42,10,1.0,1.0,0
run-2020-2-17-18-28-30.017527103,AGENT#4d11ef84-51b3-11ea-9695-9fcf93303127,1,41,42,10,1.0,1.0,0
run-2020-2-17-18-28-30.017527103,AGENT#4d103bc6-51b3-11ea-9bdd-3ba4476c87cd,4,39,43,10,1.0,1.0,0
run-2020-2-17-18-28-30.017527103,AGENT#4d1046de-51b3-11ea-b18a-a78ee8adac80,4,39,43,10,1.0,1.0,0
run-2020-2-17-18-28-30.017527103,AGENT#4d1110fa-51b3-11ea-8874-a7abebc575c8,3,40,43,10,1.0,1.0,0
run-2020-2-17-18-28-30.017527103,AGENT#4d12d19c-51b3-11ea-837e-9765ba9c49fa,1,42,43,10,1.0,1.0,0
run-2020-2-17-18-28-30.017527103,AGENT#4d0535e6-51b3-11ea-8023-a305a3946676,21,23,44,10,1.0,1.0,0
run-2020-2-17-18-28-30.017527103,AGENT#4d10442c-51b3-11ea-9cea-5ba6acfda629,5,39,44,10,1.0,1.0,0
run-2020-2-17-18-28-30.017527103,AGENT#4d11eca0-51b3-11ea-910b-87f75413d4d3,4,41,45,10,1.0,1.0,0
run-2020-2-17-18-28-30.017527103,AGENT#4d11f240-51b3-11ea-b88f-9b8fb0ff582a,4,41,45,10,1.0,1.0,0
run-2020-2-17-18-28-30.017527103,AGENT#4d1443c4-51b3-11ea-be65-7b161da0f644,1,44,45,10,1.0,1.0,0
run-2020-2-17-18-28-30.017527103,AGENT#4d104184-51b3-11ea-b57d-ff6d5f2f5eec,7,39,46,10,1.0,1.0,0
run-2020-2-17-18-28-30.017527103,AGENT#4d12daac-51b3-11ea-a939-a3cfdaabfbf6,4,42,46,10,1.0,1.0,0
run-2020-2-17-18-28-30.017527103,AGENT#4d144ab8-51b3-11ea-b6f2-9798da58ba49,2,44,46,10,1.0,1.0,0
run-2020-2-17-18-28-30.017527103,AGENT#4d14478e-51b3-11ea-9be7-1700fdc0839e,3,44,47,10,1.0,1.0,0
run-2020-2-17-18-28-30.017527103,AGENT#4d1532a2-51b3-11ea-899f-f33f74ccb8d9,2,45,47,10,1.0,1.0,0
run-2020-2-17-18-28-30.017527103,AGENT#4d15f52a-51b3-11ea-aaf4-6fad6999e3ba,1,46,47,10,1.0,1.0,0
run-2020-2-17-18-28-30.017527103,AGENT#4d15f818-51b3-11ea-8321-eb862e31df22,2,46,48,10,1.0,1.0,0
run-2020-2-17-18-28-30.017527103,AGENT#4d160344-51b3-11ea-8d79-6f53f2f9cc24,2,46,48,10,1.0,1.0,0
run-2020-2-17-18-28-30.017527103,AGENT#4cfad0d8-51b3-11ea-bd5e-aff194d30ff6,47,2,49,10,1.0,1.0,0
run-2020-2-17-18-28-30.017527103,AGENT#4cfc26ea-51b3-11ea-ad54-3b32caab28ee,45,4,49,10,1.0,1.0,0
run-2020-2-17-18-28-30.017527103,AGENT#4d1535b8-51b3-11ea-9fd1-c7c44e4eb238,4,45,49,10,1.0,1.0,0
run-2020-2-17-18-28-30.017527103,AGENT#4d15fac0-51b3-11ea-b9d2-0b5807b0994e,3,46,49,10,1.0,1.0,0
run-2020-2-17-18-28-30.017527103,AGENT#4d177fbc-51b3-11ea-8a89-8b87ffcb1eeb,1,48,49,10,1.0,1.0,0
run-2020-2-17-18-28-30.017527103,AGENT#4d16b730-51b3-11ea-9d23-4b7b4bcb7de1,3,47,50,10,1.0,1.0,0
run-2020-2-17-18-28-30.017527103,AGENT#4d16bcda-51b3-11ea-a39f-83fa6daaf4c9,3,47,50,10,1.0,1.0,0
run-2020-2-17-18-28-30.017527103,AGENT#4d16bf64-51b3-11ea-9f4c-87f61a00dda2,3,47,50,10,1.0,1.0,0
run-2020-2-17-18-28-30.017527103,AGENT#4d185310-51b3-11ea-81c0-efdd9fd1a029,1,49,50,10,1.0,1.0,0
run-2020-2-17-18-28-30.017527103,AGENT#4d1858ba-51b3-11ea-b9b9-df46aa7468df,2,49,51,10,1.0,1.0,0
run-2020-2-17-18-28-30.017527103,AGENT#4d185d7e-51b3-11ea-a7e3-ebdf5c4fb1dc,2,49,51,10,1.0,1.0,0
run-2020-2-17-18-28-30.017527103,AGENT#4d186062-51b3-11ea-9369-0712ba0b1d5d,2,49,51,10,1.0,1.0,0
run-2020-2-17-18-28-30.017527103,AGENT#4cfd2914-51b3-11ea-9d88-efb1e9c68fb1,46,6,52,10,1.0,1.0,0
run-2020-2-17-18-28-30.017527103,AGENT#4cfd90de-51b3-11ea-b58d-f339c0e528cb,45,7,52,10,1.0,1.0,0
run-2020-2-17-18-28-30.017527103,AGENT#4d185b1c-51b3-11ea-9355-cb0d32754a34,3,49,52,10,1.0,1.0,0
run-2020-2-17-18-28-30.017527103,AGENT#4cfd2360-51b3-11ea-b201-67a276443d0d,47,6,53,10,1.0,1.0,0
run-2020-2-17-18-28-30.017527103,AGENT#4d191886-51b3-11ea-a830-8bf3ce6a4e7a,3,50,53,10,1.0,1.0,0
run-2020-2-17-18-28-30.017527103,AGENT#4d1a8f5e-51b3-11ea-936c-835ed7bb50ea,1,52,53,10,1.0,1.0,0
run-2020-2-17-18-28-30.017527103,AGENT#4d1a91ca-51b3-11ea-9134-3b4a97739884,1,52,53,10,1.0,1.0,0
run-2020-2-17-18-28-30.017527103,AGENT#4d0ba534-51b3-11ea-ad0b-779e1de061a0,21,33,54,10,1.0,1.0,0
run-2020-2-17-18-28-30.017527103,AGENT#4d1b7d56-51b3-11ea-b8ff-ff970fa4aa91,1,53,54,10,1.0,1.0,0
run-2020-2-17-18-28-30.017527103,AGENT#4d1a8a2c-51b3-11ea-a4d0-c3ac1ae56716,3,52,55,10,1.0,1.0,0
run-2020-2-17-18-28-30.017527103,AGENT#4d1b755e-51b3-11ea-bee5-574651be7dff,2,53,55,10,1.0,1.0,0
run-2020-2-17-18-28-30.017527103,AGENT#4d1b79aa-51b3-11ea-be5a-e71f4bb12bb0,2,53,55,10,1.0,1.0,0
run-2020-2-17-18-28-30.017527103,AGENT#4d06db4e-51b3-11ea-ad12-2bd3ca6f6148,30,26,56,10,1.0,1.0,0
run-2020-2-17-18-28-30.017527103,AGENT#4d1c884a-51b3-11ea-84f3-c3786bfe5d55,2,54,56,10,1.0,1.0,0
run-2020-2-17-18-28-30.017527103,AGENT#4d1dae96-51b3-11ea-b34a-f70959cd1890,1,55,56,10,1.0,1.0,0
run-2020-2-17-18-28-30.017527103,AGENT#4d1db2d8-51b3-11ea-a82a-eb9be87bdc5f,1,55,56,10,1.0,1.0,0
run-2020-2-17-18-28-30.017527103,AGENT#4cff5216-51b3-11ea-b1a2-c3447c7616f4,46,11,57,10,1.0,1.0,0
run-2020-2-17-18-28-30.017527103,AGENT#4cffc1ba-51b3-11ea-af0e-ab8b7201ecdb,45,12,57,10,1.0,1.0,0
run-2020-2-17-18-28-30.017527103,AGENT#4d04a04a-51b3-11ea-8669-834af88643af,35,22,57,10,1.0,1.0,0
run-2020-2-17-18-28-30.017527103,AGENT#4d1a8cfc-51b3-11ea-ab0f-1f252332b300,5,52,57,10,1.0,1.0,0
run-2020-2-17-18-28-30.017527103,AGENT#4d1db67a-51b3-11ea-a898-036aa90a205b,2,55,57,10,1.0,1.0,0
run-2020-2-17-18-28-30.017527103,AGENT#4d1dc106-51b3-11ea-8496-3718a265877e,2,55,57,10,1.0,1.0,0
run-2020-2-17-18-28-30.017527103,AGENT#4cfcb2a4-51b3-11ea-8f96-33472d5fadc1,53,5,58,10,1.0,1.0,0
run-2020-2-17-18-28-30.017527103,AGENT#4cff56e4-51b3-11ea-b36f-df3ed9629731,47,11,58,10,1.0,1.0,0
run-2020-2-17-18-28-30.017527103,AGENT#4d1b84c2-51b3-11ea-999d-7b1608e5a236,5,53,58,10,1.0,1.0,0
run-2020-2-17-18-28-30.017527103,AGENT#4d1dbda0-51b3-11ea-a95d-dbaf563c50ad,3,55,58,10,1.0,1.0,0
run-2020-2-17-18-28-30.017527103,AGENT#4d1ecd6c-51b3-11ea-8bf3-e74236a8bfd5,3,56,59,10,1.0,1.0,0
run-2020-2-17-18-28-30.017527103,AGENT#4d1ed17c-51b3-11ea-871c-a76a572001d2,3,56,59,10,1.0,1.0,0
run-2020-2-17-18-28-30.017527103,AGENT#4d1fe27e-51b3-11ea-88ae-a7348124c67e,2,57,59,10,1.0,1.0,0
run-2020-2-17-18-28-30.017527103,AGENT#4d1fe990-51b3-11ea-bdec-efdc4a6dc616,2,57,59,10,1.0,1.0,0
run-2020-2-17-18-28-30.017527103,AGENT#4d1fed1e-51b3-11ea-8003-c7334c00a4b0,2,57,59,10,1.0,1.0,0
run-2020-2-17-18-28-30.017527103,AGENT#4d221288-51b3-11ea-9469-47da15c50386,1,59,60,10,1.0,1.0,0
run-2020-2-17-18-28-30.017527103,AGENT#4d0c5b6e-51b3-11ea-93be-6798752a5626,27,34,61,10,1.0,1.0,0
run-2020-2-17-18-28-30.017527103,AGENT#4d1ff0e8-51b3-11ea-96bc-339f67a3a116,4,57,61,10,1.0,1.0,0
run-2020-2-17-18-28-30.017527103,AGENT#4d20ffce-51b3-11ea-a1c5-638f2616db46,3,58,61,10,1.0,1.0,0
run-2020-2-17-18-28-30.017527103,AGENT#4d220ee6-51b3-11ea-8710-0b59e86c1ac9,2,59,61,10,1.0,1.0,0
run-2020-2-17-18-28-30.017527103,AGENT#4d23053a-51b3-11ea-b9e9-5fdfd87ddc3b,1,60,61,10,1.0,1.0,0
run-2020-2-17-18-28-30.017527103,AGENT#4d02498a-51b3-11ea-a2b6-5faa72dbd7ff,45,17,62,10,1.0,1.0,0
run-2020-2-17-18-28-30.017527103,AGENT#4d08a5d2-51b3-11ea-9c66-4fac28887499,33,29,62,10,1.0,1.0,0
run-2020-2-17-18-28-30.017527103,AGENT#4d220b4e-51b3-11ea-8802-7b3b5566d7b8,3,59,62,10,1.0,1.0,0
run-2020-2-17-18-28-30.017527103,AGENT#4d01c276-51b3-11ea-b045-774522e4b4dd,47,16,63,10,1.0,1.0,0
run-2020-2-17-18-28-30.017527103,AGENT#4d02467e-51b3-11ea-a808-8b4626f2c88b,46,17,63,10,1.0,1.0,0
run-2020-2-17-18-28-30.017527103,AGENT#4d07e1ba-51b3-11ea-a0ef-d3380e473191,35,28,63,10,1.0,1.0,0
run-2020-2-17-18-28-30.017527103,AGENT#4d2301b6-51b3-11ea-86d7-77848e8a23b1,3,60,63,10,1.0,1.0,0
run-2020-2-17-18-28-30.017527103,AGENT#4d240660-51b3-11ea-96aa-1f560a5c41c9,2,61,63,10,1.0,1.0,0
run-2020-2-17-18-28-30.017527103,AGENT#4d240d0e-51b3-11ea-a471-a3bf8ae4ee48,2,61,63,10,1.0,1.0,0
run-2020-2-17-18-28-30.017527103,AGENT#4d24fd5e-51b3-11ea-9d7c-7763451ffafa,1,62,63,10,1.0,1.0,0
run-2020-2-17-18-28-30.017527103,AGENT#4d04a31a-51b3-11ea-9e09-c38476ecb749,43,22,65,10,1.0,1.0,0
run-2020-2-17-18-28-30.017527103,AGENT#4d06d162-51b3-11ea-887a-ff1e5e6288d3,39,26,65,10,1.0,1.0,0
run-2020-2-17-18-28-30.017527103,AGENT#4d271724-51b3-11ea-9b90-7f89142bbe44,1,64,65,10,1.0,1.0,0
run-2020-2-17-18-28-30.017527103,AGENT#4d01c000-51b3-11ea-941b-a70a212a85c6,51,16,67,10,1.0,1.0,0
run-2020-2-17-18-28-30.017527103,AGENT#4d033692-51b3-11ea-af53-e3dff6948ef9,48,19,67,10,1.0,1.0,0
run-2020-2-17-18-28-30.017527103,AGENT#4d2508f8-51b3-11ea-b1d3-3f8051cf0465,5,62,67,10,1.0,1.0,0
run-2020-2-17-18-28-30.017527103,AGENT#4d282556-51b3-11ea-b014-b38f67bde2a9,2,65,67,10,1.0,1.0,0
run-2020-2-17-18-28-30.017527103,AGENT#4d282bdc-51b3-11ea-999f-978f669d37af,2,65,67,10,1.0,1.0,0
run-2020-2-17-18-28-30.017527103,AGENT#4d261eaa-51b3-11ea-9148-9ba7c8a0788f,5,63,68,10,1.0,1.0,0
run-2020-2-17-18-28-30.017527103,AGENT#4d271ab2-51b3-11ea-b0ce-fbbdf96e2faa,4,64,68,10,1.0,1.0,0
run-2020-2-17-18-28-30.017527103,AGENT#4d2a2310-51b3-11ea-8e0d-d3252ac1bc08,1,67,68,10,1.0,1.0,0
run-2020-2-17-18-28-30.017527103,AGENT#4d052722-51b3-11ea-be5b-37fa094c42c7,46,23,69,10,1.0,1.0,0
run-2020-2-17-18-28-30.017527103,AGENT#4d2b0aa0-51b3-11ea-8a16-67c44b1fcfb9,1,68,69,10,1.0,1.0,0
run-2020-2-17-18-28-30.017527103,AGENT#4d05bf52-51b3-11ea-9287-c3253c9c9cc8,46,24,70,10,1.0,1.0,0
run-2020-2-17-18-28-30.017527103,AGENT#4d2828d0-51b3-11ea-be47-7340e38dc5a4,5,65,70,10,1.0,1.0,0
run-2020-2-17-18-28-30.017527103,AGENT#4d2a1ffa-51b3-11ea-925a-57dbd6f5ccd9,3,67,70,10,1.0,1.0,0
run-2020-2-17-18-28-30.017527103,AGENT#4d2b07b2-51b3-11ea-bf90-4fe9f7800af2,2,68,70,10,1.0,1.0,0
run-2020-2-17-18-28-30.017527103,AGENT#4d2c0388-51b3-11ea-86fe-6757ed462481,2,69,71,10,1.0,1.0,0
run-2020-2-17-18-28-30.017527103,AGENT#4d075d9e-51b3-11ea-9440-bf771882ff8f,45,27,72,10,1.0,1.0,0
run-2020-2-17-18-28-30.017527103,AGENT#4d2b0d5c-51b3-11ea-a17e-83428bcdb35b,4,68,72,10,1.0,1.0,0
run-2020-2-17-18-28-30.017527103,AGENT#4d2d0256-51b3-11ea-80d3-b3225c6369bd,2,70,72,10,1.0,1.0,0
run-2020-2-17-18-28-30.017527103,AGENT#4d2d04e0-51b3-11ea-b1d8-9b0719f6b9b5,2,70,72,10,1.0,1.0,0
run-2020-2-17-18-28-30.017527103,AGENT#4d2df8fa-51b3-11ea-bae5-13d46bf7cb5e,1,71,72,10,1.0,1.0,0
run-2020-2-17-18-28-30.017527103,AGENT#4d2dfc06-51b3-11ea-a9ab-f769ab8054cd,2,71,73,10,1.0,1.0,0
run-2020-2-17-18-28-30.017527103,AGENT#4d2dfec2-51b3-11ea-93ba-bb1e182bf668,2,71,73,10,1.0,1.0,0
run-2020-2-17-18-28-30.017527103,AGENT#4d2f0024-51b3-11ea-81a4-dbecf8bce0d4,1,72,73,10,1.0,1.0,0
run-2020-2-17-18-28-30.017527103,AGENT#4d089d80-51b3-11ea-86ca-877fe9765a52,45,29,74,10,1.0,1.0,0
run-2020-2-17-18-28-30.017527103,AGENT#4d0f62a0-51b3-11ea-97da-1bc3cc3edfdc,36,38,74,10,1.0,1.0,0
run-2020-2-17-18-28-30.017527103,AGENT#4d104986-51b3-11ea-af5f-3b067733db1f,35,39,74,10,1.0,1.0,0
run-2020-2-17-18-28-30.017527103,AGENT#4d2bfdb6-51b3-11ea-868f-07e4358b33fd,5,69,74,10,1.0,1.0,0
run-2020-2-17-18-28-30.017527103,AGENT#4d2c0676-51b3-11ea-a242-d74fac39268e,5,69,74,10,1.0,1.0,0
run-2020-2-17-18-28-30.017527103,AGENT#4d2c093c-51b3-11ea-92d9-77903276ba04,5,69,74,10,1.0,1.0,0
run-2020-2-17-18-28-30.017527103,AGENT#4d2ffea2-51b3-11ea-99ce-8f6391c452f3,1,73,74,10,1.0,1.0,0
run-2020-2-17-18-28-30.017527103,AGENT#4d1c9696-51b3-11ea-9227-4fb3ea516c47,21,54,75,10,1.0,1.0,0
run-2020-2-17-18-28-30.017527103,AGENT#4d31e74e-51b3-11ea-9a3f-cbc81b86589a,2,75,77,10,1.0,1.0,0
run-2020-2-17-18-28-30.017527103,AGENT#4d32cec0-51b3-11ea-ad3a-ffef95d1bf0d,1,76,77,10,1.0,1.0,0
run-2020-2-17-18-28-30.017527103,AGENT#4d095cb6-51b3-11ea-b7d2-f3aafff54d93,48,30,78,10,1.0,1.0,0
run-2020-2-17-18-28-30.017527103,AGENT#4d31d7a4-51b3-11ea-858a-6bb4e1a62da4,4,75,79,10,1.0,1.0,0
run-2020-2-17-18-28-30.017527103,AGENT#4d31dd44-51b3-11ea-9aeb-43a2e681c75e,5,75,80,10,1.0,1.0,0
run-2020-2-17-18-28-30.017527103,AGENT#4d31e262-51b3-11ea-a244-2b8ac0300331,5,75,80,10,1.0,1.0,0
run-2020-2-17-18-28-30.017527103,AGENT#4d31e4ce-51b3-11ea-b226-43a5382a0ce1,5,75,80,10,1.0,1.0,0
run-2020-2-17-18-28-30.017527103,AGENT#4d359c5e-51b3-11ea-b228-dfc9e1ba27a7,1,79,80,10,1.0,1.0,0
run-2020-2-17-18-28-30.017527103,AGENT#4d359ed4-51b3-11ea-8750-239439a0f0a2,1,79,80,10,1.0,1.0,0
run-2020-2-17-18-28-30.017527103,AGENT#4d0e0888-51b3-11ea-98ef-e3bc70afed1d,45,36,81,10,1.0,1.0,0
run-2020-2-17-18-28-30.017527103,AGENT#4d34aefc-51b3-11ea-acb5-f30ef4a8f493,3,78,81,10,1.0,1.0,0
run-2020-2-17-18-28-30.017527103,AGENT#4d368e48-51b3-11ea-b287-f77b664ce392,1,80,81,10,1.0,1.0,0
run-2020-2-17-18-28-30.017527103,AGENT#4d369352-51b3-11ea-87b4-338e871caf18,1,80,81,10,1.0,1.0,0
run-2020-2-17-18-28-30.017527103,AGENT#4d369618-51b3-11ea-bc9c-e70bdc820b84,1,80,81,10,1.0,1.0,0
run-2020-2-17-18-28-30.017527103,AGENT#4d3690fa-51b3-11ea-bc3c-4ba2f8625f51,3,80,83,10,1.0,1.0,0
run-2020-2-17-18-28-30.017527103,AGENT#4d3860ec-51b3-11ea-81b4-5ba3fb7c10b1,1,82,83,10,1.0,1.0,0
run-2020-2-17-18-28-30.017527103,AGENT#4d1fe634-51b3-11ea-94cc-eb31a6232138,27,57,84,10,1.0,1.0,0
run-2020-2-17-18-28-30.017527103,AGENT#4d35a154-51b3-11ea-8df5-cf2caa02859e,5,79,84,10,1.0,1.0,0
run-2020-2-17-18-28-30.017527103,AGENT#4d385dfe-51b3-11ea-b7a6-430cd4ac31a3,2,82,84,10,1.0,1.0,0
run-2020-2-17-18-28-30.017527103,AGENT#4d386600-51b3-11ea-8f27-e765ffd22aef,2,82,84,10,1.0,1.0,0
run-2020-2-17-18-28-30.017527103,AGENT#4d103ed2-51b3-11ea-9b92-6b32c8ac242e,46,39,85,10,1.0,1.0,0
run-2020-2-17-18-28-30.017527103,AGENT#4d20fc04-51b3-11ea-8fc5-13e14eef92c2,27,58,85,10,1.0,1.0,0
run-2020-2-17-18-28-30.017527103,AGENT#4d3863a8-51b3-11ea-81a7-23177817e33f,3,82,85,10,1.0,1.0,0
run-2020-2-17-18-28-30.017527103,AGENT#4d11f4e8-51b3-11ea-acc0-93b2b779e1b4,46,41,87,10,1.0,1.0,0
run-2020-2-17-18-28-30.017527103,AGENT#4d2b0474-51b3-11ea-aca7-fb94221c01cc,19,68,87,10,1.0,1.0,0
run-2020-2-17-18-28-30.017527103,AGENT#4d38686c-51b3-11ea-950f-b316c89fbcde,5,82,87,10,1.0,1.0,0
run-2020-2-17-18-28-30.017527103,AGENT#4d396410-51b3-11ea-8527-07e493fd8576,4,83,87,10,1.0,1.0,0
run-2020-2-17-18-28-30.017527103,AGENT#4d3a5d8e-51b3-11ea-867a-dfd1632a0c48,4,84,88,10,1.0,1.0,0
run-2020-2-17-18-28-30.017527103,AGENT#4d3b6526-51b3-11ea-8af0-971255e9a7ef,3,85,88,10,1.0,1.0,0
run-2020-2-17-18-28-30.017527103,AGENT#4d3c699e-51b3-11ea-89dc-ff9da5f4c057,2,86,88,10,1.0,1.0,0
run-2020-2-17-18-28-30.017527103,AGENT#4d3b5fd6-51b3-11ea-b1ee-a3fe96801f48,4,85,89,10,1.0,1.0,0
run-2020-2-17-18-28-30.017527103,AGENT#4d3b6814-51b3-11ea-8c9f-4bbd131bd873,5,85,90,10,1.0,1.0,0
run-2020-2-17-18-28-30.017527103,AGENT#4d3d72ee-51b3-11ea-af4b-e75c77155e64,3,87,90,10,1.0,1.0,0
run-2020-2-17-18-28-30.017527103,AGENT#4d3f74ea-51b3-11ea-9942-f39750509f40,1,89,90,10,1.0,1.0,0
run-2020-2-17-18-28-30.017527103,AGENT#4d153892-51b3-11ea-b769-6beb46bfd73a,46,45,91,10,1.0,1.0,0
run-2020-2-17-18-28-30.017527103,AGENT#4d15fd68-51b3-11ea-a68e-5f149c5f9d8b,45,46,91,10,1.0,1.0,0
run-2020-2-17-18-28-30.017527103,AGENT#4d16009c-51b3-11ea-8235-93a959a19e4e,45,46,91,10,1.0,1.0,0
run-2020-2-17-18-28-30.017527103,AGENT#4d3e745a-51b3-11ea-b5fe-c7c9531c12c3,3,88,91,10,1.0,1.0,0
run-2020-2-17-18-28-30.017527103,AGENT#4d407c28-51b3-11ea-8e1d-c7b8b1f069c5,1,90,91,10,1.0,1.0,0
run-2020-2-17-18-28-30.017527103,AGENT#4d40822c-51b3-11ea-8059-43e17ceda425,1,90,91,10,1.0,1.0,0
run-2020-2-17-18-28-30.017527103,AGENT#4d16ba3c-51b3-11ea-895b-477c63450de1,45,47,92,10,1.0,1.0,0
run-2020-2-17-18-28-30.017527103,AGENT#4d12d746-51b3-11ea-934b-cb4d32423e4a,51,42,93,10,1.0,1.0,0
run-2020-2-17-18-28-30.017527103,AGENT#4d152cc6-51b3-11ea-b5e3-cb8e1e9e89a8,48,45,93,10,1.0,1.0,0
run-2020-2-17-18-28-30.017527103,AGENT#4d177c2e-51b3-11ea-b576-678d897204a8,45,48,93,10,1.0,1.0,0
run-2020-2-17-18-28-30.017527103,AGENT#4d1783a4-51b3-11ea-9df7-4fada1fdcc34,45,48,93,10,1.0,1.0,0
run-2020-2-17-18-28-30.017527103,AGENT#4d418b90-51b3-11ea-8be2-576dbce6ff31,2,91,93,10,1.0,1.0,0
run-2020-2-17-18-28-30.017527103,AGENT#4d418e06-51b3-11ea-93a8-eb1c2baf9f17,2,91,93,10,1.0,1.0,0
run-2020-2-17-18-28-30.017527103,AGENT#4d4282e8-51b3-11ea-815f-77e64fee5eff,1,92,93,10,1.0,1.0,0
run-2020-2-17-18-28-30.017527103,AGENT#4d419068-51b3-11ea-ae05-fbbd9bc130c4,3,91,94,10,1.0,1.0,0
run-2020-2-17-18-28-30.017527103,AGENT#4d43ca7c-51b3-11ea-a2d1-bbf7f90c4f31,1,93,94,10,1.0,1.0,0
run-2020-2-17-18-28-30.017527103,AGENT#4d407f7a-51b3-11ea-96cf-43f6eced55e2,5,90,95,10,1.0,1.0,0
run-2020-2-17-18-28-30.017527103,AGENT#4d191b9c-51b3-11ea-a6c6-d3f6748f076b,46,50,96,10,1.0,1.0,0
run-2020-2-17-18-28-30.017527103,AGENT#4d191e12-51b3-11ea-997e-fff49c19d825,46,50,96,10,1.0,1.0,0
run-2020-2-17-18-28-30.017527103,AGENT#4d44bf54-51b3-11ea-952b-9f2f6436b7fe,2,94,96,10,1.0,1.0,0
run-2020-2-17-18-28-30.017527103,AGENT#4d44c1d4-51b3-11ea-8bb3-0bfede072ee3,2,94,96,10,1.0,1.0,0
run-2020-2-17-18-28-30.017527103,AGENT#4d45b896-51b3-11ea-95d4-cf8e4fc6e640,1,95,96,10,1.0,1.0,0
run-2020-2-17-18-28-30.017527103,AGENT#4d45bb3e-51b3-11ea-be9c-773c480407ca,1,95,96,10,1.0,1.0,0
run-2020-2-17-18-28-30.017527103,AGENT#4d395ac4-51b3-11ea-b905-a3db388a5416,14,83,97,10,1.0,1.0,0
run-2020-2-17-18-28-30.017527103,AGENT#4d19dfc8-51b3-11ea-ba33-7760ea378aef,47,51,98,10,1.0,1.0,0
run-2020-2-17-18-28-30.017527103,AGENT#4d1b8116-51b3-11ea-a7f5-5ff63b00998f,45,53,98,10,1.0,1.0,0
run-2020-2-17-18-28-30.017527103,AGENT#4d43c374-51b3-11ea-861a-abe08f52c944,5,93,98,10,1.0,1.0,0
run-2020-2-17-18-28-30.017527103,AGENT#4d45b5ee-51b3-11ea-a426-2f12ffa338a5,3,95,98,10,1.0,1.0,0
run-2020-2-17-18-28-30.017527103,AGENT#4d46b23c-51b3-11ea-bfbb-3b25ca9a92fc,2,96,98,10,1.0,1.0,0
run-2020-2-17-18-28-30.017527103,AGENT#4d47cc08-51b3-11ea-bb54-672152871e5e,1,97,98,10,1.0,1.0,0
run-2020-2-17-18-28-30.017527103,AGENT#4d377fec-51b3-11ea-a9f7-03beb96ec719,18,81,99,10,1.0,1.0,0
run-2020-2-17-18-28-30.017527103,AGENT#4d395f7e-51b3-11ea-9137-eb4445fadf0b,16,83,99,10,1.0,1.0,0
run-2020-2-17-18-28-30.017527103,AGENT#4d46b714-51b3-11ea-a367-cf2faa0a5c18,3,96,99,10,1.0,1.0,0
run-2020-2-17-18-28-30.017527103,AGENT#4d46b976-51b3-11ea-a23b-3b40d8daa370,3,96,99,10,1.0,1.0,0
run-2020-2-17-18-28-30.017527103,AGENT#4d47c9c4-51b3-11ea-b59d-ff17fb485ad3,2,97,99,10,1.0,1.0,0
run-2020-2-17-18-28-30.017527103,AGENT#4d48da6c-51b3-11ea-8005-3fa1757a5392,1,98,99,10,1.0,1.0,0
