Source,Target
3b20dfc6-532d-11ea-aab8-57a2e062746a,3b212ff8-532d-11ea-bcbd-1b6bd0e8fbeb
3b20db52-532d-11ea-885f-4f8c5100ce4d,3b21343a-532d-11ea-90b1-13012e0775cf
3b20db52-532d-11ea-885f-4f8c5100ce4d,3b21385e-532d-11ea-aa63-3f1da9689364
3b20e4b2-532d-11ea-b0e3-43c0af93412b,3b213c8c-532d-11ea-b3a6-e7badc636bbd
3b20015a-532d-11ea-965e-cbb267d6d619,3b21413c-532d-11ea-b791-c3a9b7247741
3b1f4bde-532d-11ea-b857-474817ea7730,3b216662-532d-11ea-ad53-bfd997b6702e
3b20883c-532d-11ea-aca4-4f1068bfa0f1,3b217026-532d-11ea-8ae4-e35b3077b956
3b1f8a04-532d-11ea-8220-afa32c3204cc,3b2174cc-532d-11ea-a675-8306cdf22717
3b1f519c-532d-11ea-ba7f-8fa311b5fb62,3b217cf6-532d-11ea-8734-a70ace787b91
3b1f4bde-532d-11ea-b857-474817ea7730,3b2183b8-532d-11ea-bbbc-6b8eecd2bd78
3b212864-532d-11ea-a28d-1b67a767a479,3b218872-532d-11ea-b823-372d0a153ca7
3b212ff8-532d-11ea-bcbd-1b6bd0e8fbeb,3b218d2c-532d-11ea-ae97-5f26d9bbaffa
3b1fce7e-532d-11ea-a77d-67c8eaccb1e8,3b219164-532d-11ea-a7e3-03725c34580a
3b1f9594-532d-11ea-967c-53861c4ceeee,3b21b982-532d-11ea-9467-9f22ddeee140
3b1fa6d8-532d-11ea-a935-175067d600eb,3b21bd60-532d-11ea-9efd-4b116fa2b956
3b20cff4-532d-11ea-b5e3-4f0960a694d9,3b21c148-532d-11ea-9814-472b30eb3a1f
3b207bbc-532d-11ea-8637-97bf22f37225,3b21c5c6-532d-11ea-85d4-3bab628b2c33
3b1f3cac-532d-11ea-ac95-1b43e63afbfb,3b21ccec-532d-11ea-96c9-6fa74c03605e
3b1fd400-532d-11ea-a21e-c7912f1c71f2,3b21d11a-532d-11ea-a4bf-fb326232282a
3b20db52-532d-11ea-885f-4f8c5100ce4d,3b21d5d4-532d-11ea-9002-4f9552ebd6ae
3b1fe774-532d-11ea-935b-cb0d1436c786,3b21d9bc-532d-11ea-a7ed-135913545973
3b209c1e-532d-11ea-b090-4b28971fa1e6,3b2204dc-532d-11ea-a980-a7a36e7f456e
3b203c88-532d-11ea-853c-cfd9b6064da8,3b220860-532d-11ea-9246-6f7bf14cccdb
3b1fda68-532d-11ea-8ac0-57f12c55cdc1,3b220dc4-532d-11ea-9fac-cb74ab273b6e
3b1fd400-532d-11ea-a21e-c7912f1c71f2,3b221206-532d-11ea-86ac-c317300d9926
3b21413c-532d-11ea-b791-c3a9b7247741,3b221efe-532d-11ea-91dc-a7989cb7beea
3b2083dc-532d-11ea-b1e3-c312ea8412ac,3b221a62-532d-11ea-81b5-b3fe596217e7
3b1f4bde-532d-11ea-b857-474817ea7730,3b2215e4-532d-11ea-90ed-072068ebe96f
3b20cff4-532d-11ea-b5e3-4f0960a694d9,3b222282-532d-11ea-bef6-3700931e8a1a
3b208c10-532d-11ea-8d41-4f77d7896137,3b224d7a-532d-11ea-9157-1bbfed5205ba
3b20504c-532d-11ea-b1ad-9fdbb9c19db6,3b225270-532d-11ea-b78f-63855166c618
3b209c1e-532d-11ea-b090-4b28971fa1e6,3b225b58-532d-11ea-bbe7-eb58dd3295f2
3b218872-532d-11ea-b823-372d0a153ca7,3b2261c0-532d-11ea-9724-43f8a23bfcd2
3b21b982-532d-11ea-9467-9f22ddeee140,3b226990-532d-11ea-9c36-33944c21d9c3
3b20cff4-532d-11ea-b5e3-4f0960a694d9,3b226d5a-532d-11ea-9483-374df96d6f7b
3b21ccec-532d-11ea-96c9-6fa74c03605e,3b2275e8-532d-11ea-a6e8-ef1f4e286c20
3b217cf6-532d-11ea-8734-a70ace787b91,3b227b7e-532d-11ea-b5c3-c32c2a020879
3b21d5d4-532d-11ea-9002-4f9552ebd6ae,3b229712-532d-11ea-8554-8386faa4bf8e
3b21413c-532d-11ea-b791-c3a9b7247741,3b22a446-532d-11ea-a885-23bb96ddaf84
3b2017e4-532d-11ea-af08-a321bdcbc3a8,3b22a8ce-532d-11ea-b0d3-6bcf5e2346d2
3b2031ac-532d-11ea-9095-db54593917ae,3b22afea-532d-11ea-9318-1fb5aba14b16
3b226990-532d-11ea-9c36-33944c21d9c3,3b22b558-532d-11ea-a820-efa9df045cc4
3b2031ac-532d-11ea-9095-db54593917ae,3b22bc42-532d-11ea-8434-77cda1e0b7e4
3b20e4b2-532d-11ea-b0e3-43c0af93412b,3b22c034-532d-11ea-a8fa-0b6e6f2961fb
3b2261c0-532d-11ea-9724-43f8a23bfcd2,3b22caac-532d-11ea-865d-8ff17fc21da6
3b1f35e0-532d-11ea-a53a-93437901d4a8,3b22dd6c-532d-11ea-a9f2-5fd889c31c39
3b2083dc-532d-11ea-b1e3-c312ea8412ac,3b22f252-532d-11ea-a2a3-e7ca0aef416c
3b202b1c-532d-11ea-adf9-13bc3a913ff0,3b22f6e4-532d-11ea-9a36-5763a0aa9e57
3b213c8c-532d-11ea-b3a6-e7badc636bbd,3b230008-532d-11ea-82ea-efd3a956a3eb
3b21b982-532d-11ea-9467-9f22ddeee140,3b2309a4-532d-11ea-bb72-178cb4214c72
3b22f252-532d-11ea-a2a3-e7ca0aef416c,3b230440-532d-11ea-a2b6-838f66de85e4
3b20d6ac-532d-11ea-8b7c-9bd68953d7e7,3b231034-532d-11ea-9a19-dbcfae24177b
3b218d2c-532d-11ea-ae97-5f26d9bbaffa,3b231c6e-532d-11ea-8621-a712883b9de8
3b1fd400-532d-11ea-a21e-c7912f1c71f2,3b232862-532d-11ea-b8bf-eb71125060ed
3b1f35e0-532d-11ea-a53a-93437901d4a8,3b2347d4-532d-11ea-9d16-bfb4521c11c0
3b1fd400-532d-11ea-a21e-c7912f1c71f2,3b235300-532d-11ea-ae0f-cf0eaa7bdda1
3b1f9594-532d-11ea-967c-53861c4ceeee,3b235846-532d-11ea-8749-93c5173f4f62
3b212864-532d-11ea-a28d-1b67a767a479,3b235daa-532d-11ea-b941-a78c0a7aaa42
3b220860-532d-11ea-9246-6f7bf14cccdb,3b236142-532d-11ea-a168-ebe0b39ee524
3b232862-532d-11ea-b8bf-eb71125060ed,3b2365d4-532d-11ea-bf89-ef25a102e0fd
3b2174cc-532d-11ea-a675-8306cdf22717,3b236aac-532d-11ea-9ba7-5b3f35f8b2bb
3b22dd6c-532d-11ea-a9f2-5fd889c31c39,3b2375c4-532d-11ea-91bd-ab8e169d1a4a
3b21ccec-532d-11ea-96c9-6fa74c03605e,3b23989c-532d-11ea-9a12-5328526c8d27
3b21bd60-532d-11ea-9efd-4b116fa2b956,3b23a17a-532d-11ea-9710-33f51eb79066
3b1f8e0a-532d-11ea-881c-cbd7cdf758da,3b23a6ac-532d-11ea-a2ed-03eac96e6edf
3b1f35e0-532d-11ea-a53a-93437901d4a8,3b23ab3e-532d-11ea-a075-3f41fb457677
3b203c88-532d-11ea-853c-cfd9b6064da8,3b23b142-532d-11ea-ab09-4faec1ca9563
3b231034-532d-11ea-9a19-dbcfae24177b,3b23b570-532d-11ea-bc18-472bde90fa89
3b1f519c-532d-11ea-ba7f-8fa311b5fb62,3b23ba2a-532d-11ea-900c-230825629f97
3b20dfc6-532d-11ea-aab8-57a2e062746a,3b23c056-532d-11ea-b4a5-477473f1bf64
3b22bc42-532d-11ea-8434-77cda1e0b7e4,3b23e55e-532d-11ea-8100-e7708752b294
3b213c8c-532d-11ea-b3a6-e7badc636bbd,3b23e96e-532d-11ea-9517-97dfa7c8067b
3b1f3cac-532d-11ea-ac95-1b43e63afbfb,3b23f29c-532d-11ea-a1d5-ab82642fed2f
3b23f29c-532d-11ea-a1d5-ab82642fed2f,3b23fa30-532d-11ea-8b03-7fbfc9c1d79a
3b22a446-532d-11ea-a885-23bb96ddaf84,3b240156-532d-11ea-9e79-b70876d21d63
3b221a62-532d-11ea-81b5-b3fe596217e7,3b2403b8-532d-11ea-8dd9-8b50cdc076b7
3b21413c-532d-11ea-b791-c3a9b7247741,3b2407fa-532d-11ea-9f45-9f090fd3c50a
3b1fb27c-532d-11ea-8cc3-f3f2b7c5e997,3b241060-532d-11ea-b1c4-93a7c1a64dc0
3b220860-532d-11ea-9246-6f7bf14cccdb,3b242de8-532d-11ea-8037-d388b50d4aee
3b2309a4-532d-11ea-bb72-178cb4214c72,3b2432fc-532d-11ea-8fee-9754fe69c89b
3b241060-532d-11ea-b1c4-93a7c1a64dc0,3b244576-532d-11ea-ab2c-af7d3f520463
3b1f35e0-532d-11ea-a53a-93437901d4a8,3b244c10-532d-11ea-9c7f-23ca11a7209e
3b2174cc-532d-11ea-a675-8306cdf22717,3b244fd0-532d-11ea-be88-e7e9e9980879
3b21d5d4-532d-11ea-9002-4f9552ebd6ae,3b245926-532d-11ea-8789-67fb54c3a768
3b240156-532d-11ea-9e79-b70876d21d63,3b245d0e-532d-11ea-ab97-f3fbeb615150
3b1f6ad8-532d-11ea-8b60-3bc01d6a51ea,3b24613c-532d-11ea-8c2a-e7dc696c77a6
3b217cf6-532d-11ea-8734-a70ace787b91,3b24779e-532d-11ea-87d9-d34c57e52fad
3b1f8a04-532d-11ea-8220-afa32c3204cc,3b2488b0-532d-11ea-ad0d-b31fc0ba1e4d
3b221a62-532d-11ea-81b5-b3fe596217e7,3b249440-532d-11ea-8d4d-7faf05322f82
3b1fb27c-532d-11ea-8cc3-f3f2b7c5e997,3b249b20-532d-11ea-8a11-1b29a6b95cea
3b1fda68-532d-11ea-8ac0-57f12c55cdc1,3b249f80-532d-11ea-b95e-4f7fccf70dda
3b207bbc-532d-11ea-8637-97bf22f37225,3b24a44e-532d-11ea-8022-ab081227896d
3b230008-532d-11ea-82ea-efd3a956a3eb,3b24aef8-532d-11ea-b99e-5fa8c1bd78ff
3b21242c-532d-11ea-9f3e-476494e18b07,3b24aab6-532d-11ea-9c12-efd8a56f3232
3b235daa-532d-11ea-b941-a78c0a7aaa42,3b24c140-532d-11ea-9c0d-ef0867e0f3ba
3b249440-532d-11ea-8d4d-7faf05322f82,3b24d180-532d-11ea-961d-2b1855344f5b
3b20cff4-532d-11ea-b5e3-4f0960a694d9,3b24e102-532d-11ea-b138-efe45a9b1e5d
3b22a8ce-532d-11ea-b0d3-6bcf5e2346d2,3b24ee7c-532d-11ea-a206-eb041be7a51a
3b1fde0a-532d-11ea-afbd-df4715c42481,3b24ea6c-532d-11ea-a287-93a8db8caef2
3b21d9bc-532d-11ea-a7ed-135913545973,3b24f2a0-532d-11ea-bfa1-a36ac1bcc409
3b24613c-532d-11ea-8c2a-e7dc696c77a6,3b24faf2-532d-11ea-9acd-db60538a0a53
3b20cff4-532d-11ea-b5e3-4f0960a694d9,3b24fef8-532d-11ea-af08-5768f895926b
3b204c5a-532d-11ea-88a8-5b0b73e8e295,3b250dbc-532d-11ea-9d4f-abc25051be09
3b21bd60-532d-11ea-9efd-4b116fa2b956,3b251afa-532d-11ea-baaf-7737116b66bb
3b23c056-532d-11ea-b4a5-477473f1bf64,3b2528f6-532d-11ea-a727-ff1ffbb88d9a
3b23b142-532d-11ea-ab09-4faec1ca9563,3b253710-532d-11ea-83a8-574f12bf77f6
3b24613c-532d-11ea-8c2a-e7dc696c77a6,3b253d1e-532d-11ea-8929-931fd93dac93
3b2215e4-532d-11ea-90ed-072068ebe96f,3b25446c-532d-11ea-b553-67036b175144
3b24d180-532d-11ea-961d-2b1855344f5b,3b254836-532d-11ea-9673-fb6cd6059630
3b22afea-532d-11ea-9318-1fb5aba14b16,3b254c28-532d-11ea-94ac-2be37807ff49
3b24aef8-532d-11ea-b99e-5fa8c1bd78ff,3b25565a-532d-11ea-be4f-3bc649b928f8
3b24fef8-532d-11ea-af08-5768f895926b,3b2560e6-532d-11ea-9e2d-8fee9a7f0632
3b21d11a-532d-11ea-a4bf-fb326232282a,3b25739c-532d-11ea-b5ea-7fb96628c774
3b2347d4-532d-11ea-9d16-bfb4521c11c0,3b2585a8-532d-11ea-9959-efefd46108cd
3b20883c-532d-11ea-aca4-4f1068bfa0f1,3b258cf6-532d-11ea-912e-6f486f11c507
3b225b58-532d-11ea-bbe7-eb58dd3295f2,3b259192-532d-11ea-9085-9f7a5818e95d
3b22b558-532d-11ea-a820-efa9df045cc4,3b2598cc-532d-11ea-b993-57220a4f4cf7
3b203c88-532d-11ea-853c-cfd9b6064da8,3b259cc8-532d-11ea-8248-4b557aa9c722
3b24fef8-532d-11ea-af08-5768f895926b,3b25b01e-532d-11ea-bd4a-679ed64b5474
3b20e4b2-532d-11ea-b0e3-43c0af93412b,3b25b442-532d-11ea-a454-87998f6cc597
3b21d11a-532d-11ea-a4bf-fb326232282a,3b25c50e-532d-11ea-93bd-4391d881b960
3b231c6e-532d-11ea-8621-a712883b9de8,3b25d53a-532d-11ea-9114-5b573de7b9d3
3b236aac-532d-11ea-9ba7-5b3f35f8b2bb,3b25d9b8-532d-11ea-a582-5f0728db5d2e
3b221efe-532d-11ea-91dc-a7989cb7beea,3b25eee4-532d-11ea-93bc-b352fd2c2fb1
3b24faf2-532d-11ea-9acd-db60538a0a53,3b25f34e-532d-11ea-a0f2-9f131bfa0824
3b204c5a-532d-11ea-88a8-5b0b73e8e295,3b25e7fa-532d-11ea-aea5-93fa18daeda9
3b231034-532d-11ea-9a19-dbcfae24177b,3b25fb46-532d-11ea-851c-4f8f67bd400b
3b25739c-532d-11ea-b5ea-7fb96628c774,3b26023a-532d-11ea-abbe-833ed1487b62
3b259cc8-532d-11ea-8248-4b557aa9c722,3b2632c8-532d-11ea-b50c-a305938b1f25
3b23a17a-532d-11ea-9710-33f51eb79066,3b26380e-532d-11ea-b605-532396ba7ac8
3b25446c-532d-11ea-b553-67036b175144,3b263e6c-532d-11ea-8f3a-57d14e16f458
3b23e55e-532d-11ea-8100-e7708752b294,3b264218-532d-11ea-861b-5b2819efb7ec
3b244fd0-532d-11ea-be88-e7e9e9980879,3b2647b8-532d-11ea-a391-1fafcfdd7956
3b221a62-532d-11ea-81b5-b3fe596217e7,3b264c68-532d-11ea-a3d7-03603f8bbe70
3b202374-532d-11ea-a1aa-1b225600dccc,3b2650d2-532d-11ea-8619-77c8cfaaa477
3b249f80-532d-11ea-b95e-4f7fccf70dda,3b2656cc-532d-11ea-8c85-7bcf88a06a42
3b20883c-532d-11ea-aca4-4f1068bfa0f1,3b268a5c-532d-11ea-a4ec-0745ff8b310b
3b25f34e-532d-11ea-a0f2-9f131bfa0824,3b2685e8-532d-11ea-91e2-1bcf15925bd3
3b253d1e-532d-11ea-8929-931fd93dac93,3b269092-532d-11ea-8ef8-1b5bb3637452
3b2183b8-532d-11ea-bbbc-6b8eecd2bd78,3b269588-532d-11ea-8ae7-7f95f217ffc6
3b212ff8-532d-11ea-bcbd-1b6bd0e8fbeb,3b269998-532d-11ea-b9da-57b51941f8ee
3b221206-532d-11ea-86ac-c317300d9926,3b269e02-532d-11ea-923c-4361d6b5c5f7
3b1fa6d8-532d-11ea-a935-175067d600eb,3b26a30c-532d-11ea-bcd7-07f60aa864a6
3b21bd60-532d-11ea-9efd-4b116fa2b956,3b26a9d8-532d-11ea-a389-ab41280cfa79
3b25739c-532d-11ea-b5ea-7fb96628c774,3b26cf4e-532d-11ea-85cf-f77189824a8e
3b25d53a-532d-11ea-9114-5b573de7b9d3,3b26d5f2-532d-11ea-bedb-bfef777b02d4
3b25739c-532d-11ea-b5ea-7fb96628c774,3b26dd7c-532d-11ea-a76b-2bd983045ce4
3b22bc42-532d-11ea-8434-77cda1e0b7e4,3b26e556-532d-11ea-9c5e-d715b55344c9
3b202b1c-532d-11ea-adf9-13bc3a913ff0,3b26ea74-532d-11ea-bf67-37ccadc2db07
3b235846-532d-11ea-8749-93c5173f4f62,3b26f302-532d-11ea-bb53-9fb76999c437
3b22b558-532d-11ea-a820-efa9df045cc4,3b26eede-532d-11ea-b820-6bf28e0be744
3b21bd60-532d-11ea-9efd-4b116fa2b956,3b26f7a8-532d-11ea-b741-3fea808bb412
3b21413c-532d-11ea-b791-c3a9b7247741,3b271a4e-532d-11ea-9ac1-7b96d6d9bc33
3b229712-532d-11ea-8554-8386faa4bf8e,3b2728a4-532d-11ea-aa96-c754b7ce592c
3b22dd6c-532d-11ea-a9f2-5fd889c31c39,3b273646-532d-11ea-971f-2b1c962c1ea8
3b245d0e-532d-11ea-ab97-f3fbeb615150,3b273c90-532d-11ea-8a6f-876186c2564d
3b2403b8-532d-11ea-8dd9-8b50cdc076b7,3b274262-532d-11ea-8f02-d395dd209edc
3b226d5a-532d-11ea-9483-374df96d6f7b,3b274708-532d-11ea-8d9f-bbde295ae8bf
3b212864-532d-11ea-a28d-1b67a767a479,3b274b5e-532d-11ea-8747-dfa0289adeae
3b21385e-532d-11ea-aa63-3f1da9689364,3b2754b4-532d-11ea-b80a-97d7e20df6c8
3b236aac-532d-11ea-9ba7-5b3f35f8b2bb,3b275e46-532d-11ea-b9b7-f71be9e7fc93
3b25d53a-532d-11ea-9114-5b573de7b9d3,3b277f48-532d-11ea-846e-87d452075e05
3b236142-532d-11ea-a168-ebe0b39ee524,3b2775c0-532d-11ea-b06e-83bdeabe2e52
3b25565a-532d-11ea-be4f-3bc649b928f8,3b278c72-532d-11ea-a958-772071523905
3b274b5e-532d-11ea-8747-dfa0289adeae,3b279316-532d-11ea-91c4-b38a174a8a03
3b225b58-532d-11ea-bbe7-eb58dd3295f2,3b2797bc-532d-11ea-a508-43f3863c0f6b
3b209c1e-532d-11ea-b090-4b28971fa1e6,3b279bfe-532d-11ea-868a-8be113294eb7
3b2183b8-532d-11ea-bbbc-6b8eecd2bd78,3b27a554-532d-11ea-83ae-eb8e8b88bb30
3b25b442-532d-11ea-a454-87998f6cc597,3b27a964-532d-11ea-98a2-8fbd0d060dd4
3b278c72-532d-11ea-a958-772071523905,3b27ca34-532d-11ea-9878-3f76b1141116
3b221efe-532d-11ea-91dc-a7989cb7beea,3b27ce94-532d-11ea-8c35-fb91fef11dfc
3b236aac-532d-11ea-9ba7-5b3f35f8b2bb,3b27de84-532d-11ea-8f15-b7ecf69fc131
3b1f746a-532d-11ea-9527-93baf6bf1600,3b27e2da-532d-11ea-909b-1bca27dbcca7
3b2183b8-532d-11ea-bbbc-6b8eecd2bd78,3b27e744-532d-11ea-8b3c-5b4e8ced6cab
3b24aef8-532d-11ea-b99e-5fa8c1bd78ff,3b27f518-532d-11ea-8806-7f81f90b8656
3b21d9bc-532d-11ea-a7ed-135913545973,3b27fbc6-532d-11ea-8265-f7f8a1cbd64e
3b20883c-532d-11ea-aca4-4f1068bfa0f1,3b280094-532d-11ea-b939-3ff74a4c64f1
3b26eede-532d-11ea-b820-6bf28e0be744,3b28164c-532d-11ea-b905-ef2a91caf679
3b2432fc-532d-11ea-8fee-9754fe69c89b,3b281a0c-532d-11ea-8185-c352623b0f9b
3b274b5e-532d-11ea-8747-dfa0289adeae,3b282d1c-532d-11ea-af3c-63d70d00178e
3b1f3cac-532d-11ea-ac95-1b43e63afbfb,3b283474-532d-11ea-855d-c397a2ffd6f0
3b220dc4-532d-11ea-9fac-cb74ab273b6e,3b283bcc-532d-11ea-90f5-d77ac3b6a4a4
3b245926-532d-11ea-8789-67fb54c3a768,3b2844dc-532d-11ea-a4e5-8f19b15f21d8
3b221a62-532d-11ea-81b5-b3fe596217e7,3b28513e-532d-11ea-b6b8-1bc163e317ba
3b2775c0-532d-11ea-b06e-83bdeabe2e52,3b285936-532d-11ea-923d-4bdaef923720
3b23f29c-532d-11ea-a1d5-ab82642fed2f,3b2868a4-532d-11ea-8835-ff6e2bb12d68
3b269092-532d-11ea-8ef8-1b5bb3637452,3b286f5c-532d-11ea-b967-a3f76b87e53a
3b1fb27c-532d-11ea-8cc3-f3f2b7c5e997,3b287bc8-532d-11ea-bed2-efbbd890d2e0
3b280094-532d-11ea-b939-3ff74a4c64f1,3b2886e0-532d-11ea-8759-fb579a1d3a85
3b23e55e-532d-11ea-8100-e7708752b294,3b289234-532d-11ea-a902-83fab63ca8c7
3b235daa-532d-11ea-b941-a78c0a7aaa42,3b289658-532d-11ea-9f05-d730d8adca4e
3b25fb46-532d-11ea-851c-4f8f67bd400b,3b28a8b4-532d-11ea-852e-77b9f6b407d4
3b20015a-532d-11ea-965e-cbb267d6d619,3b28a4d6-532d-11ea-8650-03718153fa33
3b221efe-532d-11ea-91dc-a7989cb7beea,3b28be80-532d-11ea-a88c-53e5f3c67166
3b279316-532d-11ea-91c4-b38a174a8a03,3b28c330-532d-11ea-a134-7776a53f8ae5
3b225270-532d-11ea-b78f-63855166c618,3b28c7ea-532d-11ea-95a5-03cf824012cf
3b20e930-532d-11ea-89a5-fbf203ff83cc,3b28da0a-532d-11ea-9f4a-1396cc50cb35
3b25565a-532d-11ea-be4f-3bc649b928f8,3b28e2b6-532d-11ea-b02e-fb79fd74bf01
3b21d9bc-532d-11ea-a7ed-135913545973,3b28f9c2-532d-11ea-a8a7-97be96b90850
3b24e102-532d-11ea-b138-efe45a9b1e5d,3b28fdc8-532d-11ea-b101-f781c2b9ab2a
3b24a44e-532d-11ea-8022-ab081227896d,3b29127c-532d-11ea-9d5d-374db10358c0
3b20504c-532d-11ea-b1ad-9fdbb9c19db6,3b2920fa-532d-11ea-8009-df8066b378dd
3b24ee7c-532d-11ea-a206-eb041be7a51a,3b291768-532d-11ea-9fec-b7a66a4f2b91
3b24ee7c-532d-11ea-a206-eb041be7a51a,3b29322a-532d-11ea-a0f4-a73fb2d9c349
3b24d180-532d-11ea-961d-2b1855344f5b,3b293630-532d-11ea-9959-b7263b55ba0c
3b20ed04-532d-11ea-b9e3-bb463eec314a,3b293acc-532d-11ea-aa3f-37a204f3d7e1
3b244576-532d-11ea-ab2c-af7d3f520463,3b2946ca-532d-11ea-8c9a-b70aa6c8ef7c
3b2868a4-532d-11ea-8835-ff6e2bb12d68,3b294da0-532d-11ea-af64-83080eefffa4
3b1f746a-532d-11ea-9527-93baf6bf1600,3b295f48-532d-11ea-8085-833f3d8eae40
3b24613c-532d-11ea-8c2a-e7dc696c77a6,3b2968c6-532d-11ea-8ea1-13ba2d3eaf9e
3b2017e4-532d-11ea-af08-a321bdcbc3a8,3b296f10-532d-11ea-ba4f-dff6fd4ab40e
3b230008-532d-11ea-82ea-efd3a956a3eb,3b297d48-532d-11ea-983a-ffbd239222a0
3b22a8ce-532d-11ea-b0d3-6bcf5e2346d2,3b29866c-532d-11ea-a8ac-6b200130554d
3b28513e-532d-11ea-b6b8-1bc163e317ba,3b298fea-532d-11ea-bed7-73a2b7492394
3b2091ec-532d-11ea-b66d-371c4514dc8c,3b2995da-532d-11ea-80b5-d73a9f778e5e
3b274708-532d-11ea-8d9f-bbde295ae8bf,3b299e0e-532d-11ea-b721-1f4a6eb90985
3b2844dc-532d-11ea-a4e5-8f19b15f21d8,3b29a8fe-532d-11ea-84b5-bb00d7b33fa2
3b2775c0-532d-11ea-b06e-83bdeabe2e52,3b29b65a-532d-11ea-9b44-c3d02e99175c
3b25c50e-532d-11ea-93bd-4391d881b960,3b29bf24-532d-11ea-821b-37c86c07f8f6
3b244576-532d-11ea-ab2c-af7d3f520463,3b29c9a6-532d-11ea-aa82-6b48fe62e7ba
3b20e930-532d-11ea-89a5-fbf203ff83cc,3b29de96-532d-11ea-8419-93739840569b
3b2017e4-532d-11ea-af08-a321bdcbc3a8,3b29e314-532d-11ea-af35-5b8f981bfa24
3b230440-532d-11ea-a2b6-838f66de85e4,3b29e97c-532d-11ea-b928-1b14fd2fa0b5
3b25565a-532d-11ea-be4f-3bc649b928f8,3b29f08e-532d-11ea-8f8d-ff1974b4da4e
3b28513e-532d-11ea-b6b8-1bc163e317ba,3b29f674-532d-11ea-8259-9f5925ceaaf5
3b25f34e-532d-11ea-a0f2-9f131bfa0824,3b2a00c4-532d-11ea-be36-9f02be711c48
3b20504c-532d-11ea-b1ad-9fdbb9c19db6,3b2a16c2-532d-11ea-b0ab-cb6bb9374958
3b25565a-532d-11ea-be4f-3bc649b928f8,3b2a1f64-532d-11ea-9cac-4bf24a17be10
3b25b442-532d-11ea-a454-87998f6cc597,3b2a2ec8-532d-11ea-ad99-cf4b4df807cf
3b275e46-532d-11ea-b9b7-f71be9e7fc93,3b2a365c-532d-11ea-8f82-3bc7c81925c6
3b219164-532d-11ea-a7e3-03725c34580a,3b2a3cf6-532d-11ea-b5a3-e7aa1de2ded1
3b2a00c4-532d-11ea-be36-9f02be711c48,3b2a49bc-532d-11ea-b3c1-67041a87e9ce
3b2309a4-532d-11ea-bb72-178cb4214c72,3b2a5074-532d-11ea-9f48-af30da0d8af9
3b249f80-532d-11ea-b95e-4f7fccf70dda,3b2a574a-532d-11ea-b904-bbf0105faa02
3b28a8b4-532d-11ea-852e-77b9f6b407d4,3b2a6974-532d-11ea-80c6-9b4a0532cbc2
3b2488b0-532d-11ea-ad0d-b31fc0ba1e4d,3b2a70a4-532d-11ea-939e-a769c6a2e371
3b269092-532d-11ea-8ef8-1b5bb3637452,3b2a7b62-532d-11ea-a04e-e723af1c7408
3b1f9594-532d-11ea-967c-53861c4ceeee,3b2a84ae-532d-11ea-9fb3-9f48d3b5fe28
3b244fd0-532d-11ea-be88-e7e9e9980879,3b2a9796-532d-11ea-b3e6-0f94baf6b39c
3b1fe774-532d-11ea-935b-cb0d1436c786,3b2a9c3c-532d-11ea-abcf-87ed1f030316
3b20883c-532d-11ea-aca4-4f1068bfa0f1,3b2aa132-532d-11ea-adfa-1f22f6452881
3b28be80-532d-11ea-a88c-53e5f3c67166,3b2aa5c4-532d-11ea-9e85-c3ab30e3e6fa
3b29e97c-532d-11ea-b928-1b14fd2fa0b5,3b2ac338-532d-11ea-a68a-8fa0e35ed639
3b2204dc-532d-11ea-a980-a7a36e7f456e,3b2ac8ec-532d-11ea-819c-cf7cd04494a8
3b29866c-532d-11ea-a8ac-6b200130554d,3b2accf2-532d-11ea-8938-cb37386d3360
3b231c6e-532d-11ea-8621-a712883b9de8,3b2ae28c-532d-11ea-a0dd-839fe607ff94
3b22a8ce-532d-11ea-b0d3-6bcf5e2346d2,3b2aead4-532d-11ea-ba3b-f736efb7944e
3b269588-532d-11ea-8ae7-7f95f217ffc6,3b2af0ce-532d-11ea-9948-7f11ec1e8819
3b26023a-532d-11ea-abbe-833ed1487b62,3b2af5c4-532d-11ea-a2d6-6b86ec81011c
3b28513e-532d-11ea-b6b8-1bc163e317ba,3b2af98e-532d-11ea-b5fd-c795b8e4374d
3b235daa-532d-11ea-b941-a78c0a7aaa42,3b2b107c-532d-11ea-ade3-cf50790b5d05
3b235300-532d-11ea-ae0f-cf0eaa7bdda1,3b2b1c2a-532d-11ea-94e4-97eb93e38b46
3b1f746a-532d-11ea-9527-93baf6bf1600,3b2b242c-532d-11ea-8f11-07508604a5dd
3b222282-532d-11ea-bef6-3700931e8a1a,3b2b33cc-532d-11ea-8a11-bb32cd154320
3b2b242c-532d-11ea-8f11-07508604a5dd,3b2b3f0c-532d-11ea-8df2-1f17818b706f
3b253d1e-532d-11ea-8929-931fd93dac93,3b2b43e4-532d-11ea-830a-bf25992ee2af
3b2365d4-532d-11ea-bf89-ef25a102e0fd,3b2b4998-532d-11ea-9e34-2794222df3f8
3b26380e-532d-11ea-b605-532396ba7ac8,3b2b4de4-532d-11ea-8b48-e7d64c6cd69b
3b254c28-532d-11ea-94ac-2be37807ff49,3b2b5c12-532d-11ea-a667-cff7ec99e220
3b25c50e-532d-11ea-93bd-4391d881b960,3b2b681a-532d-11ea-8e5f-d395a933a307
3b251afa-532d-11ea-baaf-7737116b66bb,3b2b7382-532d-11ea-9667-4bdc9b9be23a
3b29127c-532d-11ea-9d5d-374db10358c0,3b2b803e-532d-11ea-a165-6f51f69e4c8d
3b2995da-532d-11ea-80b5-d73a9f778e5e,3b2b9330-532d-11ea-b468-13a4a93f29a4
3b249b20-532d-11ea-8a11-1b29a6b95cea,3b2b993e-532d-11ea-8737-b7149150c901
3b22c034-532d-11ea-a8fa-0b6e6f2961fb,3b2b9d62-532d-11ea-a591-0b8e88b92792
3b2728a4-532d-11ea-aa96-c754b7ce592c,3b2bb34c-532d-11ea-b3bc-67c02c940f47
3b1f9594-532d-11ea-967c-53861c4ceeee,3b2ba208-532d-11ea-a982-83e8eee7c236
3b20cff4-532d-11ea-b5e3-4f0960a694d9,3b2bd6d8-532d-11ea-89ca-172dd7e96f7d
3b254836-532d-11ea-9673-fb6cd6059630,3b2bdb60-532d-11ea-bbc2-47df823ddc5e
3b274708-532d-11ea-8d9f-bbde295ae8bf,3b2be06a-532d-11ea-a1f6-e753bec1d9f3
3b25d53a-532d-11ea-9114-5b573de7b9d3,3b2be574-532d-11ea-923e-17fe860019bd
3b21d11a-532d-11ea-a4bf-fb326232282a,3b2bef60-532d-11ea-961e-77555537f6fb
3b213c8c-532d-11ea-b3a6-e7badc636bbd,3b2bfadc-532d-11ea-9b21-7f218cf7673a
3b2797bc-532d-11ea-a508-43f3863c0f6b,3b2c041e-532d-11ea-b5a2-ffcefaa3263a
3b21343a-532d-11ea-90b1-13012e0775cf,3b2c08ba-532d-11ea-b01d-6bc2d8240085
3b268a5c-532d-11ea-a4ec-0745ff8b310b,3b2c2db8-532d-11ea-887d-9faf900d369d
3b26e556-532d-11ea-9c5e-d715b55344c9,3b2c32e0-532d-11ea-b6dd-8f06b6d788c4
3b212c42-532d-11ea-9ee0-bbc6a06ad50b,3b2c3ab0-532d-11ea-8114-abecbea80cb3
3b2bd6d8-532d-11ea-89ca-172dd7e96f7d,3b2c3f56-532d-11ea-a539-af2c42d02795
3b2528f6-532d-11ea-a727-ff1ffbb88d9a,3b2c4442-532d-11ea-a13e-d34ad74fdebe
3b28513e-532d-11ea-b6b8-1bc163e317ba,3b2c48b6-532d-11ea-b4af-a3a3f3676f85
3b29a8fe-532d-11ea-84b5-bb00d7b33fa2,3b2c62f6-532d-11ea-810f-a750ea21dbd8
3b26f7a8-532d-11ea-b741-3fea808bb412,3b2c68d2-532d-11ea-9d35-a77b20c8bddf
3b2c3f56-532d-11ea-a539-af2c42d02795,3b2c7dea-532d-11ea-aa05-471b26da5fe8
3b2c08ba-532d-11ea-b01d-6bc2d8240085,3b2c8344-532d-11ea-a566-b3f92ebdb56f
3b264c68-532d-11ea-a3d7-03603f8bbe70,3b2c8f10-532d-11ea-9992-f7f48e0be92b
3b274b5e-532d-11ea-8747-dfa0289adeae,3b2c9712-532d-11ea-ad69-dbc354b3413c
3b274b5e-532d-11ea-8747-dfa0289adeae,3b2c9dca-532d-11ea-9a0e-3b9ad4ea2c65
3b235300-532d-11ea-ae0f-cf0eaa7bdda1,3b2ca504-532d-11ea-94b1-db959848e4f2
3b249f80-532d-11ea-b95e-4f7fccf70dda,3b2cb440-532d-11ea-946e-2f1d71be9b41
3b250dbc-532d-11ea-9d4f-abc25051be09,3b2cb8be-532d-11ea-8e17-579f4bc96fdf
3b2365d4-532d-11ea-bf89-ef25a102e0fd,3b2ccc50-532d-11ea-adf7-83401fb6291b
3b2b43e4-532d-11ea-830a-bf25992ee2af,3b2cdeca-532d-11ea-8a6b-873e953e2833
3b254c28-532d-11ea-94ac-2be37807ff49,3b2ce3fc-532d-11ea-99dd-272eefdd541a
3b2275e8-532d-11ea-a6e8-ef1f4e286c20,3b2ceb04-532d-11ea-9548-9b2829e8d7fa
3b293630-532d-11ea-9959-b7263b55ba0c,3b2cf036-532d-11ea-82f1-4f9af46beefc
3b269092-532d-11ea-8ef8-1b5bb3637452,3b2cfc7a-532d-11ea-9e32-032e55bcf00d
3b2c08ba-532d-11ea-b01d-6bc2d8240085,3b2d049a-532d-11ea-b83f-5fbc9728a275
3b27fbc6-532d-11ea-8265-f7f8a1cbd64e,3b2d0e18-532d-11ea-94cf-835be00217ea
3b244fd0-532d-11ea-be88-e7e9e9980879,3b2d1f3e-532d-11ea-856b-8778f1f5a476
3b297d48-532d-11ea-983a-ffbd239222a0,3b2d353c-532d-11ea-ba4d-d7ba8c3bd01b
3b25565a-532d-11ea-be4f-3bc649b928f8,3b2d3ab4-532d-11ea-afe2-8b952c0a3860
3b1fb600-532d-11ea-a6f5-37647a5bc449,3b2d3fd2-532d-11ea-a097-eb9cec712cce
3b1ff7e6-532d-11ea-8b6c-b761e999f388,3b2d47b6-532d-11ea-a211-97a86b2f9d20
3b2a3cf6-532d-11ea-b5a3-e7aa1de2ded1,3b2d58a0-532d-11ea-8952-3f7c197b59fe
3b2d1f3e-532d-11ea-856b-8778f1f5a476,3b2d5dbe-532d-11ea-8dde-9f63b499fba6
3b2c08ba-532d-11ea-b01d-6bc2d8240085,3b2d65e8-532d-11ea-ae98-53a66bcadb9b
3b235300-532d-11ea-ae0f-cf0eaa7bdda1,3b2d775e-532d-11ea-a325-c7efab5976c8
3b22a446-532d-11ea-a885-23bb96ddaf84,3b2d883e-532d-11ea-a872-77296bf6e0c7
3b2d353c-532d-11ea-ba4d-d7ba8c3bd01b,3b2d928e-532d-11ea-b632-a3a350342f08
3b21343a-532d-11ea-90b1-13012e0775cf,3b2d97ac-532d-11ea-b4a2-ef270c3e9eea
3b26a9d8-532d-11ea-a389-ab41280cfa79,3b2d9f18-532d-11ea-bfdf-63cc541325d5
3b2d775e-532d-11ea-a325-c7efab5976c8,3b2db200-532d-11ea-b00a-f763f3057fcc
3b24aef8-532d-11ea-b99e-5fa8c1bd78ff,3b2db624-532d-11ea-bedd-0794a7e57a1f
3b29127c-532d-11ea-9d5d-374db10358c0,3b2dc10a-532d-11ea-b363-bbfc6c048563
3b2c32e0-532d-11ea-b6dd-8f06b6d788c4,3b2dce0c-532d-11ea-a176-1f0ac7c4ed84
3b21d11a-532d-11ea-a4bf-fb326232282a,3b2dd5be-532d-11ea-aadc-b3f465854193
3b2d883e-532d-11ea-a872-77296bf6e0c7,3b2de5c2-532d-11ea-b617-a39e4b83c47a
3b23fa30-532d-11ea-8b03-7fbfc9c1d79a,3b2ded88-532d-11ea-a0b1-ab5991ec6978
3b269588-532d-11ea-8ae7-7f95f217ffc6,3b2df292-532d-11ea-bdba-33d4a7f8b0ca
3b28da0a-532d-11ea-9f4a-1396cc50cb35,3b2e0886-532d-11ea-bd2b-af7a6d15f74f
3b26eede-532d-11ea-b820-6bf28e0be744,3b2e0d22-532d-11ea-a929-77a8d96a8e2e
3b28c330-532d-11ea-a134-7776a53f8ae5,3b2e1812-532d-11ea-b895-4f68069f849c
3b2be574-532d-11ea-923e-17fe860019bd,3b2e25e6-532d-11ea-9436-bf0f4cd7c4bd
3b2968c6-532d-11ea-8ea1-13ba2d3eaf9e,3b2e2d5c-532d-11ea-b380-a7084d70cbb0
3b2c2db8-532d-11ea-887d-9faf900d369d,3b2e4008-532d-11ea-8b6b-2b004cde8636
3b2ce3fc-532d-11ea-99dd-272eefdd541a,3b2e4792-532d-11ea-9fbc-5bfe6b868837
3b2b242c-532d-11ea-8f11-07508604a5dd,3b2e4c60-532d-11ea-abe5-97e9479de06d
3b285936-532d-11ea-923d-4bdaef923720,3b2e5ebc-532d-11ea-b96d-c7be749ca610
3b258cf6-532d-11ea-912e-6f486f11c507,3b2e63c6-532d-11ea-a9c8-67150d3bc5b4
3b27ce94-532d-11ea-8c35-fb91fef11dfc,3b2e6ede-532d-11ea-99ee-5b95773cc4ff
3b20273e-532d-11ea-a610-b78cd4c36998,3b2e7852-532d-11ea-9db5-d7006bd89094
3b2cb8be-532d-11ea-8e17-579f4bc96fdf,3b2e805e-532d-11ea-9e0e-8f6c131d6b01
3b235846-532d-11ea-8749-93c5173f4f62,3b2ea53e-532d-11ea-8ec2-efc927d01a66
3b26ea74-532d-11ea-bf67-37ccadc2db07,3b2eb182-532d-11ea-be9c-5fb72334029b
3b2aead4-532d-11ea-ba3b-f736efb7944e,3b2eb664-532d-11ea-b998-8be80457faa0
3b207702-532d-11ea-b2ce-5bcecc4b318b,3b2ebb1e-532d-11ea-858f-7779f1af6ab7
3b22bc42-532d-11ea-8434-77cda1e0b7e4,3b2ec03c-532d-11ea-bcc9-97211fb82513
3b2347d4-532d-11ea-9d16-bfb4521c11c0,3b2ec56e-532d-11ea-999a-67fc081d4712
3b209c1e-532d-11ea-b090-4b28971fa1e6,3b2ed130-532d-11ea-b345-b3f2a2675daf
3b23ab3e-532d-11ea-a075-3f41fb457677,3b2ed798-532d-11ea-a7fb-37030893d2a4
3b2585a8-532d-11ea-9959-efefd46108cd,3b2ef174-532d-11ea-b80c-2b4c3901f7f7
3b22f252-532d-11ea-a2a3-e7ca0aef416c,3b2f0902-532d-11ea-9294-af1d672c491a
3b22b558-532d-11ea-a820-efa9df045cc4,3b2f0db2-532d-11ea-9318-ef65ea20e817
3b202374-532d-11ea-a1aa-1b225600dccc,3b2f1500-532d-11ea-8f65-dba954f7050d
3b20e4b2-532d-11ea-b0e3-43c0af93412b,3b2f1a14-532d-11ea-bbd9-3332baf95e19
3b21d11a-532d-11ea-a4bf-fb326232282a,3b2f202c-532d-11ea-a781-075adea8e876
3b2dd5be-532d-11ea-aadc-b3f465854193,3b2f2568-532d-11ea-88e0-474220fa3b83
3b2e25e6-532d-11ea-9436-bf0f4cd7c4bd,3b2f29fa-532d-11ea-ade9-4746614bdecf
3b244c10-532d-11ea-9c7f-23ca11a7209e,3b2f44d0-532d-11ea-be3f-47dde58005b2
3b220860-532d-11ea-9246-6f7bf14cccdb,3b2f5d26-532d-11ea-a49a-f7206a7f7f45
3b2ef174-532d-11ea-b80c-2b4c3901f7f7,3b2f6582-532d-11ea-8088-0f4633511bc3
3b289234-532d-11ea-a902-83fab63ca8c7,3b2f6a82-532d-11ea-963a-2728c3b2b416
3b2a3cf6-532d-11ea-b5a3-e7aa1de2ded1,3b2f6f8c-532d-11ea-a4cd-cf7eae829004
3b2c68d2-532d-11ea-9d35-a77b20c8bddf,3b2f746e-532d-11ea-b150-ef7e8237a8b1
3b2c8f10-532d-11ea-9992-f7f48e0be92b,3b2f795a-532d-11ea-ae27-8bf5f5c28352
3b24f2a0-532d-11ea-bfa1-a36ac1bcc409,3b2f868e-532d-11ea-b9af-8f68f37e881e
3b23b142-532d-11ea-ab09-4faec1ca9563,3b2fab6e-532d-11ea-bf82-fb603c01dce8
3b2a00c4-532d-11ea-be36-9f02be711c48,3b2fb438-532d-11ea-9461-07d304cd589b
3b242de8-532d-11ea-8037-d388b50d4aee,3b2fc27a-532d-11ea-bc9d-ab958fafef8c
3b2accf2-532d-11ea-8938-cb37386d3360,3b2fc734-532d-11ea-8f5d-87736e6a9a4a
3b283bcc-532d-11ea-90f5-d77ac3b6a4a4,3b2fd1de-532d-11ea-b4be-679ad67e6316
3b2ca504-532d-11ea-94b1-db959848e4f2,3b2fd99a-532d-11ea-b4e1-3bb83ff846e8
3b2920fa-532d-11ea-8009-df8066b378dd,3b2fde86-532d-11ea-9589-6f1d4b7390aa
3b2fc27a-532d-11ea-bc9d-ab958fafef8c,3b2fe3cc-532d-11ea-a61c-234025910e40
3b2d049a-532d-11ea-b83f-5fbc9728a275,3b2ffeb6-532d-11ea-be52-433d6282f2ce
3b27ce94-532d-11ea-8c35-fb91fef11dfc,3b3008a2-532d-11ea-9b63-fbf9954e22cc
3b26a30c-532d-11ea-bcd7-07f60aa864a6,3b301748-532d-11ea-a283-bb5b0d28f512
3b2968c6-532d-11ea-8ea1-13ba2d3eaf9e,3b301b4e-532d-11ea-81f9-139553deed2f
3b1f6f42-532d-11ea-92b6-674ffb6f7ad4,3b3023d2-532d-11ea-ab69-4fc5d170b185
3b21343a-532d-11ea-90b1-13012e0775cf,3b303458-532d-11ea-89e6-fb2e341e5bad
3b24c140-532d-11ea-9c0d-ef0867e0f3ba,3b303ce6-532d-11ea-a8b0-bf82efba3243
3b1fda68-532d-11ea-8ac0-57f12c55cdc1,3b3041c8-532d-11ea-a0ee-c3f35e384e8c
3b2bb34c-532d-11ea-b3bc-67c02c940f47,3b305c80-532d-11ea-85c7-f32ae5c19b93
3b25d53a-532d-11ea-9114-5b573de7b9d3,3b306112-532d-11ea-9a15-4b1712fa55b7
3b29127c-532d-11ea-9d5d-374db10358c0,3b306e14-532d-11ea-a990-cb1bb4da88be
3b301b4e-532d-11ea-81f9-139553deed2f,3b307314-532d-11ea-b24d-03f8c16f3892
3b298fea-532d-11ea-bed7-73a2b7492394,3b307990-532d-11ea-bb0f-83046d5bea84
3b2b242c-532d-11ea-8f11-07508604a5dd,3b30880e-532d-11ea-8758-4f0ea2d4dea7
3b249b20-532d-11ea-8a11-1b29a6b95cea,3b30952e-532d-11ea-a058-0bc4769f1a52
3b2f6f8c-532d-11ea-a4cd-cf7eae829004,3b309a92-532d-11ea-8ddf-cf335ba3d892
3b2b803e-532d-11ea-a165-6f51f69e4c8d,3b30afe6-532d-11ea-9940-c7892e09df83
3b259cc8-532d-11ea-8248-4b557aa9c722,3b30b82e-532d-11ea-8100-eb327ff10ef3
3b23b142-532d-11ea-ab09-4faec1ca9563,3b30ca30-532d-11ea-8a0b-3752b8bbfd00
3b2fd1de-532d-11ea-b4be-679ad67e6316,3b30cfb2-532d-11ea-8f5b-8fd517ab6a84
3b23a6ac-532d-11ea-a2ed-03eac96e6edf,3b30d534-532d-11ea-abdd-a7aae44cee2a
3b2ded88-532d-11ea-a0b1-ab5991ec6978,3b30e060-532d-11ea-9ce7-cb6cb0f85a2e
3b20ed04-532d-11ea-b9e3-bb463eec314a,3b30e7f4-532d-11ea-9d76-4fd9f1c5e54b
3b2b3f0c-532d-11ea-8df2-1f17818b706f,3b30f3fc-532d-11ea-ae33-473d8caf177c
3b280094-532d-11ea-b939-3ff74a4c64f1,3b31081a-532d-11ea-8368-1f2123350d39
3b293acc-532d-11ea-aa3f-37a204f3d7e1,3b310cde-532d-11ea-8651-2f3ca9d1d878
3b269e02-532d-11ea-923c-4361d6b5c5f7,3b3118be-532d-11ea-8ed1-0fff94d789c4
3b217026-532d-11ea-8ae4-e35b3077b956,3b312052-532d-11ea-b4a9-6b461058ce40
3b2ffeb6-532d-11ea-be52-433d6282f2ce,3b312d40-532d-11ea-a848-6f9a9496dd0a
3b2c9712-532d-11ea-ad69-dbc354b3413c,3b313484-532d-11ea-886b-c33f3f624ada
3b2f6f8c-532d-11ea-a4cd-cf7eae829004,3b313c18-532d-11ea-8381-77ac2230fd57
3b2ec03c-532d-11ea-bcc9-97211fb82513,3b315ff4-532d-11ea-897c-f75f15d3d146
3b2f202c-532d-11ea-a781-075adea8e876,3b31692c-532d-11ea-994d-ff00de9b5170
3b20e930-532d-11ea-89a5-fbf203ff83cc,3b317e80-532d-11ea-bff5-cf8da67cef54
3b29e314-532d-11ea-af35-5b8f981bfa24,3b3177fa-532d-11ea-8bf4-2bb47fdc4c73
3b2d883e-532d-11ea-a872-77296bf6e0c7,3b318844-532d-11ea-baf6-8b6fbc584e3b
3b269e02-532d-11ea-923c-4361d6b5c5f7,3b318ca4-532d-11ea-b682-c3e320db1437
3b1f9594-532d-11ea-967c-53861c4ceeee,3b3191c2-532d-11ea-9058-e773aadda2b7
3b1fb27c-532d-11ea-8cc3-f3f2b7c5e997,3b31969a-532d-11ea-a6ad-ebc9013d0970
3b3191c2-532d-11ea-9058-e773aadda2b7,3b31b1ca-532d-11ea-97db-53ac7a8c6450
3b280094-532d-11ea-b939-3ff74a4c64f1,3b31c08e-532d-11ea-999c-47eb686cc24e
3b21413c-532d-11ea-b791-c3a9b7247741,3b31cb38-532d-11ea-a88f-63d29b9be331
3b2b242c-532d-11ea-8f11-07508604a5dd,3b31d0d8-532d-11ea-be09-eb3ce78498a5
3b2be574-532d-11ea-923e-17fe860019bd,3b31e460-532d-11ea-9c32-0787bc849d1f
3b29127c-532d-11ea-9d5d-374db10358c0,3b31e9e2-532d-11ea-abf8-734d71b48f57
3b2f868e-532d-11ea-b9af-8f68f37e881e,3b31ef14-532d-11ea-a206-3fd0748efde6
3b28c7ea-532d-11ea-95a5-03cf824012cf,3b31f3d8-532d-11ea-9d5e-8b01079e0be4
3b2f202c-532d-11ea-a781-075adea8e876,3b320864-532d-11ea-9c0c-d37da81953d7
3b245d0e-532d-11ea-ab97-f3fbeb615150,3b3213cc-532d-11ea-883c-2f843f168f46
3b2cf036-532d-11ea-82f1-4f9af46beefc,3b3218c2-532d-11ea-a03a-fb2e0ec5f28d
3b203c88-532d-11ea-853c-cfd9b6064da8,3b322bf0-532d-11ea-ae11-bfeb06dbe80e
3b20db52-532d-11ea-885f-4f8c5100ce4d,3b323b7c-532d-11ea-9823-af28dcc3bc45
3b202b1c-532d-11ea-adf9-13bc3a913ff0,3b324400-532d-11ea-8834-5fa7cce37fd1
3b277f48-532d-11ea-846e-87d452075e05,3b324a18-532d-11ea-b2b6-5f95acc0ac14
3b2cfc7a-532d-11ea-9e32-032e55bcf00d,3b325ecc-532d-11ea-93a0-9b3b6ad12245
3b273646-532d-11ea-971f-2b1c962c1ea8,3b327538-532d-11ea-a5ab-3fc3a4a60c3c
3b30ca30-532d-11ea-8a0b-3752b8bbfd00,3b327a4c-532d-11ea-ab64-ab1286c21f91
3b2e1812-532d-11ea-b895-4f68069f849c,3b328208-532d-11ea-8ff0-23efc7bf0b9f
3b1f8a04-532d-11ea-8220-afa32c3204cc,3b3292d4-532d-11ea-8999-6b383ea16b04
3b2ea53e-532d-11ea-8ec2-efc927d01a66,3b329784-532d-11ea-b8eb-57562b680c05
3b242de8-532d-11ea-8037-d388b50d4aee,3b32ae90-532d-11ea-a866-4f9df423995e
3b20c464-532d-11ea-927c-27ee07c024e8,3b32b958-532d-11ea-b141-4b66f7769d1b
3b1fce7e-532d-11ea-a77d-67c8eaccb1e8,3b32c024-532d-11ea-a7b8-576c48cbe844
3b31d0d8-532d-11ea-be09-eb3ce78498a5,3b32cf92-532d-11ea-bf21-fbec1dd62d72
3b203c88-532d-11ea-853c-cfd9b6064da8,3b32d474-532d-11ea-a1d0-af25c40df735
3b221206-532d-11ea-86ac-c317300d9926,3b32d97e-532d-11ea-9377-9bc5c6b1d090
3b2797bc-532d-11ea-a508-43f3863c0f6b,3b32f580-532d-11ea-92d5-1b4018a4e64a
3b21343a-532d-11ea-90b1-13012e0775cf,3b32fb34-532d-11ea-b234-5759470ecd91
3b31cb38-532d-11ea-a88f-63d29b9be331,3b33046c-532d-11ea-bf5d-2b05c5a6b8d4
3b283474-532d-11ea-855d-c397a2ffd6f0,3b330ec6-532d-11ea-8763-136d50046681
3b31ef14-532d-11ea-a206-3fd0748efde6,3b33170e-532d-11ea-bb9f-bb3ad713714f
3b31969a-532d-11ea-a6ad-ebc9013d0970,3b332b5e-532d-11ea-913c-97a8a794deac
3b1fda68-532d-11ea-8ac0-57f12c55cdc1,3b333022-532d-11ea-ab65-dbdfc6cdf7e1
3b20883c-532d-11ea-aca4-4f1068bfa0f1,3b333522-532d-11ea-8655-5f83dc8062e6
3b2f202c-532d-11ea-a781-075adea8e876,3b3347ec-532d-11ea-bd44-47951274ab04
3b2a9c3c-532d-11ea-abcf-87ed1f030316,3b3351e2-532d-11ea-ba18-df7cc374479f
3b1f6f42-532d-11ea-92b6-674ffb6f7ad4,3b335980-532d-11ea-9448-a7f6e91cce0b
3b27e744-532d-11ea-8b3c-5b4e8ced6cab,3b336114-532d-11ea-9ea2-1b209e690b8a
3b31b1ca-532d-11ea-97db-53ac7a8c6450,3b3368a8-532d-11ea-853a-efd2c38fdb0c
3b2f44d0-532d-11ea-be3f-47dde58005b2,3b3380a4-532d-11ea-96b0-df2a278980eb
3b22bc42-532d-11ea-8434-77cda1e0b7e4,3b338626-532d-11ea-9db8-2f128f842c61
3b236aac-532d-11ea-9ba7-5b3f35f8b2bb,3b338aae-532d-11ea-99bf-db6d0f9f0581
3b2a70a4-532d-11ea-939e-a769c6a2e371,3b33a1e2-532d-11ea-bce6-43f9c6328d22
3b2275e8-532d-11ea-a6e8-ef1f4e286c20,3b33a93a-532d-11ea-a4e0-ef1eb055c93f
3b2c3ab0-532d-11ea-8114-abecbea80cb3,3b33b0e2-532d-11ea-8b8c-2b381e420e80
3b2632c8-532d-11ea-b50c-a305938b1f25,3b33b5ec-532d-11ea-9fc4-f785c4d12bc2
3b30e060-532d-11ea-9ce7-cb6cb0f85a2e,3b33be20-532d-11ea-8353-2f89ed97937f
3b31e460-532d-11ea-9c32-0787bc849d1f,3b33d3ce-532d-11ea-9a9f-035ef16a413b
3b25446c-532d-11ea-b553-67036b175144,3b33e292-532d-11ea-ae4b-ebe7e06858d4
3b3118be-532d-11ea-8ed1-0fff94d789c4,3b340ca4-532d-11ea-a7e1-33bb6e3ae34a
3b31f3d8-532d-11ea-9d5e-8b01079e0be4,3b33fa7a-532d-11ea-8f3b-5b73290bb1f0
3b1f3cac-532d-11ea-ac95-1b43e63afbfb,3b340614-532d-11ea-82dc-1b8eb4642663
3b254c28-532d-11ea-94ac-2be37807ff49,3b3416fe-532d-11ea-8f6d-731c10891eb6
3b2fde86-532d-11ea-9589-6f1d4b7390aa,3b343472-532d-11ea-aad9-0368c8766b5c
3b23ab3e-532d-11ea-a075-3f41fb457677,3b3411f4-532d-11ea-a3df-879e344de231
3b2b33cc-532d-11ea-8a11-bb32cd154320,3b34390e-532d-11ea-87e7-7791c7b1c5ae
3b2797bc-532d-11ea-a508-43f3863c0f6b,3b345fce-532d-11ea-9afc-4f7daa05444e
3b20273e-532d-11ea-a610-b78cd4c36998,3b346636-532d-11ea-8819-973f02d947bf
3b2e1812-532d-11ea-b895-4f68069f849c,3b346fbe-532d-11ea-b0f7-cf3528133a13
3b293acc-532d-11ea-aa3f-37a204f3d7e1,3b347478-532d-11ea-bd3c-c3a8f7a882f4
3b27a964-532d-11ea-98a2-8fbd0d060dd4,3b347b62-532d-11ea-af68-5312ffe4e5bf
3b2650d2-532d-11ea-8619-77c8cfaaa477,3b348c9c-532d-11ea-b944-836f1c141fdf
3b23ab3e-532d-11ea-a075-3f41fb457677,3b34916a-532d-11ea-ae68-dbdd1bb20bce
3b22f252-532d-11ea-a2a3-e7ca0aef416c,3b349642-532d-11ea-b026-0bb2d7474914
3b33e292-532d-11ea-ae4b-ebe7e06858d4,3b34c0b8-532d-11ea-8320-afda91fec442
3b2261c0-532d-11ea-9724-43f8a23bfcd2,3b34cab8-532d-11ea-808b-cfe85101e8d1
3b320864-532d-11ea-9c0c-d37da81953d7,3b34cc66-532d-11ea-b272-4b9be023ef78
3b2174cc-532d-11ea-a675-8306cdf22717,3b34d102-532d-11ea-8014-ef9de726baa2
3b27fbc6-532d-11ea-8265-f7f8a1cbd64e,3b34d968-532d-11ea-a497-ff62cc900ee5
3b229712-532d-11ea-8554-8386faa4bf8e,3b34e318-532d-11ea-8db2-4b3bba69ecbb
3b2183b8-532d-11ea-bbbc-6b8eecd2bd78,3b34e8f4-532d-11ea-b3c2-ab35a26ab04a
3b2c4442-532d-11ea-a13e-d34ad74fdebe,3b34f0f6-532d-11ea-bd4e-6f3ba5398488
3b306112-532d-11ea-9a15-4b1712fa55b7,3b351946-532d-11ea-916a-3b1f8793d1f7
3b269092-532d-11ea-8ef8-1b5bb3637452,3b352710-532d-11ea-8613-079d91148525
3b235300-532d-11ea-ae0f-cf0eaa7bdda1,3b352c7e-532d-11ea-869e-2f557e5a841b
3b2b1c2a-532d-11ea-94e4-97eb93e38b46,3b353138-532d-11ea-8c6d-ffbf4308517e
3b330ec6-532d-11ea-8763-136d50046681,3b353a52-532d-11ea-91db-9f2dbfa21924
3b213c8c-532d-11ea-b3a6-e7badc636bbd,3b353e9e-532d-11ea-ba0e-a33afb13a04d
3b2ac8ec-532d-11ea-819c-cf7cd04494a8,3b35438a-532d-11ea-90a1-0fb0c86f7729
3b2d775e-532d-11ea-a325-c7efab5976c8,3b354fc4-532d-11ea-8050-af64d2dcf9fd
3b2be06a-532d-11ea-a1f6-e753bec1d9f3,3b356f2c-532d-11ea-857d-17e14a5d7ae4
3b333522-532d-11ea-8655-5f83dc8062e6,3b357c88-532d-11ea-9260-f34d10cbf5e4
3b232862-532d-11ea-b8bf-eb71125060ed,3b3585a2-532d-11ea-afa1-83ddfe468a52
3b298fea-532d-11ea-bed7-73a2b7492394,3b358c78-532d-11ea-87a6-53f221e89d78
3b333022-532d-11ea-ab65-dbdfc6cdf7e1,3b358f66-532d-11ea-9884-4fdcf6c03311
3b27a554-532d-11ea-83ae-eb8e8b88bb30,3b359704-532d-11ea-a19c-336cabf719dd
3b289658-532d-11ea-9f05-d730d8adca4e,3b359e52-532d-11ea-b338-730b3ee89102
3b22f6e4-532d-11ea-9a36-5763a0aa9e57,3b35af64-532d-11ea-8600-e319338bfd55
3b353138-532d-11ea-8c6d-ffbf4308517e,3b35c77e-532d-11ea-88e3-5b8fb7973fc4
3b1fd400-532d-11ea-a21e-c7912f1c71f2,3b35d002-532d-11ea-bd43-d7ea2e064899
3b21bd60-532d-11ea-9efd-4b116fa2b956,3b35deee-532d-11ea-967c-d3fa2bf3bbb1
3b232862-532d-11ea-b8bf-eb71125060ed,3b35e3e4-532d-11ea-a543-c7874b183f0c
3b25eee4-532d-11ea-93bc-b352fd2c2fb1,3b35e8a8-532d-11ea-996a-6f71a4e366e8
3b34d102-532d-11ea-8014-ef9de726baa2,3b35f050-532d-11ea-b7de-23df5fec5616
3b2c08ba-532d-11ea-b01d-6bc2d8240085,3b35f64a-532d-11ea-975c-4b3474c74601
3b2a16c2-532d-11ea-b0ab-cb6bb9374958,3b360c52-532d-11ea-8472-17b2375a54a3
3b209714-532d-11ea-8985-9fd17f618d7a,3b361eea-532d-11ea-90f3-9ba5544ff546
3b2e63c6-532d-11ea-a9c8-67150d3bc5b4,3b363286-532d-11ea-b6d3-e78b46f6ff97
3b226990-532d-11ea-9c36-33944c21d9c3,3b363862-532d-11ea-98e0-2757272c134e
3b21385e-532d-11ea-aa63-3f1da9689364,3b363f60-532d-11ea-bc86-172c0eeb60f5
3b2968c6-532d-11ea-8ea1-13ba2d3eaf9e,3b36450a-532d-11ea-9830-0f2e740c6489
3b29bf24-532d-11ea-821b-37c86c07f8f6,3b364988-532d-11ea-af6b-ff3a9fb9dc2b
3b226990-532d-11ea-9c36-33944c21d9c3,3b3651ee-532d-11ea-8509-cb14f2668603
3b20504c-532d-11ea-b1ad-9fdbb9c19db6,3b36610c-532d-11ea-b686-2fdd39b6dd51
3b28c330-532d-11ea-a134-7776a53f8ae5,3b367dae-532d-11ea-b72b-a71f22724c32
3b23c056-532d-11ea-b4a5-477473f1bf64,3b36914a-532d-11ea-ba30-d3530772914f
3b2e4c60-532d-11ea-abe5-97e9479de06d,3b369ba4-532d-11ea-9d9b-2ff3bb844205
3b20883c-532d-11ea-aca4-4f1068bfa0f1,3b36a16c-532d-11ea-ba9e-33486450b7fb
3b1fa6d8-532d-11ea-a935-175067d600eb,3b36a7d4-532d-11ea-ba2b-97a92a6bc4da
3b2fde86-532d-11ea-9589-6f1d4b7390aa,3b36aff4-532d-11ea-b780-cb067316e89d
3b227b7e-532d-11ea-b5c3-c32c2a020879,3b36b526-532d-11ea-9526-c3709e29fbe5
3b20dfc6-532d-11ea-aab8-57a2e062746a,3b36ba26-532d-11ea-b895-8b2ca411d924
3b204c5a-532d-11ea-88a8-5b0b73e8e295,3b36d15a-532d-11ea-a4d2-3f40fb937191
3b26eede-532d-11ea-b820-6bf28e0be744,3b36ebb8-532d-11ea-817b-1bc390d40de9
3b21ccec-532d-11ea-96c9-6fa74c03605e,3b36f7a2-532d-11ea-9fd2-7f61f9812e8c
3b2e25e6-532d-11ea-9436-bf0f4cd7c4bd,3b36fd56-532d-11ea-9bac-4724fe30745b
3b2b107c-532d-11ea-ade3-cf50790b5d05,3b370a80-532d-11ea-b0fe-3771d3931aa5
3b297d48-532d-11ea-983a-ffbd239222a0,3b3704ea-532d-11ea-8163-8f918c178e42
3b3218c2-532d-11ea-a03a-fb2e0ec5f28d,3b372aec-532d-11ea-95cf-63b114348994
3b236142-532d-11ea-a168-ebe0b39ee524,3b373500-532d-11ea-aa5c-031459f2f736
3b2c4442-532d-11ea-a13e-d34ad74fdebe,3b373a3c-532d-11ea-aa12-fff0f934ad37
3b2e25e6-532d-11ea-9436-bf0f4cd7c4bd,3b3745cc-532d-11ea-82c0-6b07c07ee202
3b33fa7a-532d-11ea-8f3b-5b73290bb1f0,3b375580-532d-11ea-895d-67c0964988d6
3b2d353c-532d-11ea-ba4d-d7ba8c3bd01b,3b375cd8-532d-11ea-9c4b-03c7f5c0e2a9
3b2be574-532d-11ea-923e-17fe860019bd,3b3764ee-532d-11ea-830c-33605897d00d
3b328208-532d-11ea-8ff0-23efc7bf0b9f,3b376ade-532d-11ea-9879-bb9c1a94ecba
3b363862-532d-11ea-98e0-2757272c134e,3b37847e-532d-11ea-ad7c-abb050fd4818
3b2eb664-532d-11ea-b998-8be80457faa0,3b378e6a-532d-11ea-b38b-23a552683b05
3b2d9f18-532d-11ea-bfdf-63cc541325d5,3b3796a8-532d-11ea-a2a3-2fa9651ccb75
3b2c2db8-532d-11ea-887d-9faf900d369d,3b37a044-532d-11ea-b1f1-d7917a0504db
3b29e314-532d-11ea-af35-5b8f981bfa24,3b37b50c-532d-11ea-8868-777e7b96248d
3b29322a-532d-11ea-a0f4-a73fb2d9c349,3b37aaee-532d-11ea-a503-1f254b40638b
3b26f302-532d-11ea-bb53-9fb76999c437,3b37c3ee-532d-11ea-9d66-3b421f49f8b5
3b1fe774-532d-11ea-935b-cb0d1436c786,3b37de6a-532d-11ea-af2c-132dac05b60c
3b32b958-532d-11ea-b141-4b66f7769d1b,3b37e374-532d-11ea-a4c5-c7b13d735444
3b359e52-532d-11ea-b338-730b3ee89102,3b37eebe-532d-11ea-bff8-63af75121821
3b25d53a-532d-11ea-9114-5b573de7b9d3,3b37f63e-532d-11ea-bce8-b3a5104c180f
3b2d9f18-532d-11ea-bfdf-63cc541325d5,3b37ff58-532d-11ea-8c95-ff43c0df2231
3b33b0e2-532d-11ea-8b8c-2b381e420e80,3b380908-532d-11ea-aab0-4b886cce5573
3b20c464-532d-11ea-927c-27ee07c024e8,3b380e58-532d-11ea-a2c7-4f25808b7380
3b372aec-532d-11ea-95cf-63b114348994,3b382078-532d-11ea-88aa-bff1256d8e33
3b338626-532d-11ea-9db8-2f128f842c61,3b3837d4-532d-11ea-b9d5-0f6a45d7cfd3
3b26380e-532d-11ea-b605-532396ba7ac8,3b383d4c-532d-11ea-9f84-130117b1e09a
3b2f5d26-532d-11ea-a49a-f7206a7f7f45,3b384bb6-532d-11ea-966c-a3668eedc263
3b297d48-532d-11ea-983a-ffbd239222a0,3b385192-532d-11ea-a6d7-73660b7ad7f3
3b258cf6-532d-11ea-912e-6f486f11c507,3b38598a-532d-11ea-9dac-1f7257d70b79
3b317e80-532d-11ea-bff5-cf8da67cef54,3b38700a-532d-11ea-aa40-13ff90f138cc
3b2c08ba-532d-11ea-b01d-6bc2d8240085,3b387672-532d-11ea-ab13-dba9e3427100
3b31692c-532d-11ea-994d-ff00de9b5170,3b387bcc-532d-11ea-8d6a-c75d040eacd5
3b2aa132-532d-11ea-adfa-1f22f6452881,3b38926a-532d-11ea-b286-d711923cb16e
3b244c10-532d-11ea-9c7f-23ca11a7209e,3b38a7d2-532d-11ea-8b9a-eb1bc2829246
3b2ded88-532d-11ea-a0b1-ab5991ec6978,3b38c334-532d-11ea-a861-4794980759e0
3b2cfc7a-532d-11ea-9e32-032e55bcf00d,3b38d054-532d-11ea-b283-232f16a6ec83
3b219164-532d-11ea-a7e3-03725c34580a,3b38cbd6-532d-11ea-8f3a-2f9759f1f540
3b315ff4-532d-11ea-897c-f75f15d3d146,3b38d932-532d-11ea-b29a-1f53e70c7f09
3b3191c2-532d-11ea-9058-e773aadda2b7,3b38dfb8-532d-11ea-842c-ff2ca8795247
3b24d180-532d-11ea-961d-2b1855344f5b,3b39033a-532d-11ea-9c4d-733bf6a9b45a
3b2f6f8c-532d-11ea-a4cd-cf7eae829004,3b390934-532d-11ea-b890-f7652f0f0e6f
3b2c68d2-532d-11ea-9d35-a77b20c8bddf,3b392c8e-532d-11ea-83d0-07f0a7613e5a
3b385192-532d-11ea-a6d7-73660b7ad7f3,3b39321a-532d-11ea-ab7c-b3397ea92300
3b361eea-532d-11ea-90f3-9ba5544ff546,3b393846-532d-11ea-91ab-af4b37174cf4
3b2b3f0c-532d-11ea-8df2-1f17818b706f,3b393d50-532d-11ea-bf31-ff198c099726
3b36a16c-532d-11ea-ba9e-33486450b7fb,3b3946ec-532d-11ea-b19c-ab2ff85668d1
3b24d180-532d-11ea-961d-2b1855344f5b,3b3969ba-532d-11ea-af0b-e7c2d4c8f416
3b323b7c-532d-11ea-9823-af28dcc3bc45,3b3971bc-532d-11ea-988e-2b355076fe9a
3b283474-532d-11ea-855d-c397a2ffd6f0,3b399b60-532d-11ea-b928-0f364f77d98f
3b29b65a-532d-11ea-9b44-c3d02e99175c,3b39a254-532d-11ea-90ba-2f98602387fd
3b263e6c-532d-11ea-8f3a-57d14e16f458,3b39a740-532d-11ea-b5f5-8f5d9544463f
3b2886e0-532d-11ea-8759-fb579a1d3a85,3b39b276-532d-11ea-8e6b-03291b4c2779
3b2b993e-532d-11ea-8737-b7149150c901,3b39adda-532d-11ea-8538-43d0e4a4e917
3b370a80-532d-11ea-b0fe-3771d3931aa5,3b39c766-532d-11ea-862f-dbcc290b7d9b
3b2a49bc-532d-11ea-b3c1-67041a87e9ce,3b39d1ca-532d-11ea-8e59-53538e0c8eb1
3b2bfadc-532d-11ea-9b21-7f218cf7673a,3b39fc40-532d-11ea-8613-6feb43a74ead
3b35deee-532d-11ea-967c-d3fa2bf3bbb1,3b3a02a8-532d-11ea-a0ee-ebc78a6a222f
3b32b958-532d-11ea-b141-4b66f7769d1b,3b3a0bea-532d-11ea-8691-13c270e6914f
3b2c08ba-532d-11ea-b01d-6bc2d8240085,3b3a107c-532d-11ea-8ef8-67db94ac0d09
3b33046c-532d-11ea-bf5d-2b05c5a6b8d4,3b3a152c-532d-11ea-8ebd-13fd7ba3882c
3b249b20-532d-11ea-8a11-1b29a6b95cea,3b3a1a90-532d-11ea-a307-1f6f0a378bc3
3b383d4c-532d-11ea-9f84-130117b1e09a,3b3a3124-532d-11ea-8eb5-a7f21f677f5b
3b27a964-532d-11ea-98a2-8fbd0d060dd4,3b3a59b0-532d-11ea-989e-d31ab08728b8
3b3177fa-532d-11ea-8bf4-2bb47fdc4c73,3b3a6162-532d-11ea-883a-83dc0abc2ac7
3b303458-532d-11ea-89e6-fb2e341e5bad,3b3a6ac2-532d-11ea-a797-63ddad35d2ae
3b230008-532d-11ea-82ea-efd3a956a3eb,3b3a703a-532d-11ea-851b-1bde67327860
3b346fbe-532d-11ea-b0f7-cf3528133a13,3b3a756c-532d-11ea-96f5-334fc74aaebc
3b2685e8-532d-11ea-91e2-1bcf15925bd3,3b3a7a6c-532d-11ea-90e9-13002f781005
3b29f08e-532d-11ea-8f8d-ff1974b4da4e,3b3a9a38-532d-11ea-9b15-a359ca639600
3b2ec03c-532d-11ea-bcc9-97211fb82513,3b3ac90e-532d-11ea-abf9-172483bae269
3b2995da-532d-11ea-80b5-d73a9f778e5e,3b3abd92-532d-11ea-a4ac-cfe1c45c87e2
3b39321a-532d-11ea-ab7c-b3397ea92300,3b3ace04-532d-11ea-9793-670069c2cc09
3b3969ba-532d-11ea-af0b-e7c2d4c8f416,3b3ad318-532d-11ea-84a3-7f86f10aa873
3b269e02-532d-11ea-923c-4361d6b5c5f7,3b3adcaa-532d-11ea-9289-c7fc1ccfd970
3b208c10-532d-11ea-8d41-4f77d7896137,3b3ad8b8-532d-11ea-bc44-dfd738f12986
3b23c056-532d-11ea-b4a5-477473f1bf64,3b3afa64-532d-11ea-b957-fbd64c3dcfb6
3b24aef8-532d-11ea-b99e-5fa8c1bd78ff,3b3b27f0-532d-11ea-a503-cf3f7052b142
3b1fde0a-532d-11ea-afbd-df4715c42481,3b3b2fac-532d-11ea-83a3-5384b489a827
3b2bef60-532d-11ea-961e-77555537f6fb,3b3b36b4-532d-11ea-b13d-7bd90bbfe950
3b28a8b4-532d-11ea-852e-77b9f6b407d4,3b3b3b0a-532d-11ea-b454-1f8ec12967a7
3b2403b8-532d-11ea-8dd9-8b50cdc076b7,3b3b40aa-532d-11ea-a5f4-9f3091ca7bac
3b318844-532d-11ea-baf6-8b6fbc584e3b,3b3b462c-532d-11ea-8c86-9379d398385e
3b2cb8be-532d-11ea-8e17-579f4bc96fdf,3b3b4d66-532d-11ea-ae89-a3a7132b753d
3b21343a-532d-11ea-90b1-13012e0775cf,3b3b5fd6-532d-11ea-a238-47bac6a96039
3b3704ea-532d-11ea-8163-8f918c178e42,3b3b7c14-532d-11ea-b5e3-aba6ba57f1f7
3b38d932-532d-11ea-b29a-1f53e70c7f09,3b3b8a42-532d-11ea-b758-bfb62a44b078
3b2e805e-532d-11ea-9e0e-8f6c131d6b01,3b3b8fba-532d-11ea-96c6-3bf98bdb89c2
3b2647b8-532d-11ea-a391-1fafcfdd7956,3b3b9b04-532d-11ea-bf6e-377439f7c480
3b2e25e6-532d-11ea-9436-bf0f4cd7c4bd,3b3ba126-532d-11ea-ab86-1fe49dd5c28c
3b221a62-532d-11ea-81b5-b3fe596217e7,3b3bb62a-532d-11ea-8fa6-4bb0475fcf16
3b3a59b0-532d-11ea-989e-d31ab08728b8,3b3bc386-532d-11ea-9d1d-3fcf2c262e67
3b279bfe-532d-11ea-868a-8be113294eb7,3b3be58c-532d-11ea-b06e-031b89ab8cb6
3b2cdeca-532d-11ea-8a6b-873e953e2833,3b3beaf0-532d-11ea-acc5-e3d817719aed
3b2f868e-532d-11ea-b9af-8f68f37e881e,3b3bef82-532d-11ea-bbb2-a3ebc1ab2238
3b2775c0-532d-11ea-b06e-83bdeabe2e52,3b3bf5a4-532d-11ea-918b-77d6742f7102
3b2204dc-532d-11ea-a980-a7a36e7f456e,3b3bfd10-532d-11ea-9bf5-a7ff7a61a31f
3b264c68-532d-11ea-a3d7-03603f8bbe70,3b3c1142-532d-11ea-a30b-ab88032da348
3b1f449a-532d-11ea-9d6b-07395f02846b,3b3c20a6-532d-11ea-bd16-6749b1da9a3c
3b221206-532d-11ea-86ac-c317300d9926,3b3c3b7c-532d-11ea-b442-83bf2c1095c3
3b2af0ce-532d-11ea-9948-7f11ec1e8819,3b3c487e-532d-11ea-8fd6-0ffa78e45b4f
3b1f519c-532d-11ea-ba7f-8fa311b5fb62,3b3c4fae-532d-11ea-9bb9-2f906b6de00d
3b2d049a-532d-11ea-b83f-5fbc9728a275,3b3c544a-532d-11ea-a92b-77dad2dfcbcf
3b28a8b4-532d-11ea-852e-77b9f6b407d4,3b3c594a-532d-11ea-8824-af026988e5f3
3b23e55e-532d-11ea-8100-e7708752b294,3b3c756a-532d-11ea-859d-97bb2769e235
3b22f6e4-532d-11ea-9a36-5763a0aa9e57,3b3c8564-532d-11ea-b6cb-d7e108142cd8
3b1f6ad8-532d-11ea-8b60-3bc01d6a51ea,3b3c7b00-532d-11ea-abc9-c774712bf843
3b280094-532d-11ea-b939-3ff74a4c64f1,3b3cadfa-532d-11ea-a155-137b952e8e55
3b1f3cac-532d-11ea-ac95-1b43e63afbfb,3b3cb4bc-532d-11ea-90b8-6f627fd64093
3b26e556-532d-11ea-9c5e-d715b55344c9,3b3cb9e4-532d-11ea-b6af-93f3fb3a393a
3b33fa7a-532d-11ea-8f3b-5b73290bb1f0,3b3cd500-532d-11ea-a272-bf7a0580b612
3b34d968-532d-11ea-a497-ff62cc900ee5,3b3ce054-532d-11ea-b50e-d7aa234b7bd8
3b278c72-532d-11ea-a958-772071523905,3b3ce612-532d-11ea-9072-e3618ac4527d
3b2ef174-532d-11ea-b80c-2b4c3901f7f7,3b3ceab8-532d-11ea-b144-1710ef3a5cb4
3b35438a-532d-11ea-90a1-0fb0c86f7729,3b3d0796-532d-11ea-a37f-97d9d5f59438
3b202374-532d-11ea-a1aa-1b225600dccc,3b3d11d2-532d-11ea-b792-3bc78e5f1e1d
3b353e9e-532d-11ea-ba0e-a33afb13a04d,3b3d1ac4-532d-11ea-bc14-bb797f520cb3
3b24e102-532d-11ea-b138-efe45a9b1e5d,3b3d2b7c-532d-11ea-93a5-a721f9f4073f
3b30ca30-532d-11ea-8a0b-3752b8bbfd00,3b3d3900-532d-11ea-8abf-87c10c82dc03
3b352c7e-532d-11ea-869e-2f557e5a841b,3b3d3e64-532d-11ea-b25b-9f480e462bb8
3b221206-532d-11ea-86ac-c317300d9926,3b3d4670-532d-11ea-a09c-978045151e1c
3b29e97c-532d-11ea-b928-1b14fd2fa0b5,3b3d6600-532d-11ea-af9f-3f74d0a1b407
3b2ce3fc-532d-11ea-99dd-272eefdd541a,3b3d6e0c-532d-11ea-a0d7-af97f6680505
3b27ce94-532d-11ea-8c35-fb91fef11dfc,3b3d741a-532d-11ea-8d2d-2f69ac21abf4
3b22caac-532d-11ea-865d-8ff17fc21da6,3b3d8b76-532d-11ea-8939-e7a3a6825c3a
3b21d9bc-532d-11ea-a7ed-135913545973,3b3d9526-532d-11ea-805c-bfc7e103ba5d
3b36ebb8-532d-11ea-817b-1bc390d40de9,3b3d9d32-532d-11ea-94e0-b7ad09e97e08
3b244576-532d-11ea-ab2c-af7d3f520463,3b3da390-532d-11ea-923b-c38513324ff4
3b328208-532d-11ea-8ff0-23efc7bf0b9f,3b3dc442-532d-11ea-bafa-33441e93d828
3b320864-532d-11ea-9c0c-d37da81953d7,3b3dc97e-532d-11ea-92de-b3d4e0732a61
3b312052-532d-11ea-b4a9-6b461058ce40,3b3dd2de-532d-11ea-9d6f-7b9d9886f7e5
3b2db200-532d-11ea-b00a-f763f3057fcc,3b3de5a8-532d-11ea-a0ae-ab9b22094e6d
3b27f518-532d-11ea-8806-7f81f90b8656,3b3def44-532d-11ea-ae69-0732c2617df3
3b1fda68-532d-11ea-8ac0-57f12c55cdc1,3b3df8fe-532d-11ea-a518-ff7499c4f4db
3b3d6e0c-532d-11ea-a0d7-af97f6680505,3b3e0268-532d-11ea-8d64-a3b1078c4bdc
3b273c90-532d-11ea-8a6f-876186c2564d,3b3e250e-532d-11ea-92a0-9fd4d833d110
3b280094-532d-11ea-b939-3ff74a4c64f1,3b3e2b4e-532d-11ea-a05f-337a44e6e707
3b323b7c-532d-11ea-9823-af28dcc3bc45,3b3e3148-532d-11ea-9e00-e7f98d7f9962
3b329784-532d-11ea-b8eb-57562b680c05,3b3e4282-532d-11ea-a457-fbccd10703da
3b212ff8-532d-11ea-bcbd-1b6bd0e8fbeb,3b3e5a6a-532d-11ea-93a0-efa41ec28c31
3b39d1ca-532d-11ea-8e59-53538e0c8eb1,3b3e612c-532d-11ea-a0f6-b3e4e5a72135
3b35e8a8-532d-11ea-996a-6f71a4e366e8,3b3e669a-532d-11ea-934f-e34f4ddf7752
3b27a964-532d-11ea-98a2-8fbd0d060dd4,3b3e8166-532d-11ea-acb1-5fbbc7536f44
3b20504c-532d-11ea-b1ad-9fdbb9c19db6,3b3e8e2c-532d-11ea-8ebc-8fd912bf3474
3b3ce054-532d-11ea-b50e-d7aa234b7bd8,3b3e935e-532d-11ea-93a6-5bf8a5ba5822
3b27a554-532d-11ea-83ae-eb8e8b88bb30,3b3e9d22-532d-11ea-bd75-0f06e99ae723
3b35f64a-532d-11ea-975c-4b3474c74601,3b3ebd2a-532d-11ea-a031-f30ca475788a
3b254c28-532d-11ea-94ac-2be37807ff49,3b3ec162-532d-11ea-9967-7b7e6dc71be8
3b2a9796-532d-11ea-b3e6-0f94baf6b39c,3b3ec694-532d-11ea-a49a-1b600d17735f
3b348c9c-532d-11ea-b944-836f1c141fdf,3b3edbde-532d-11ea-9099-b7aaf7767b99
3b315ff4-532d-11ea-897c-f75f15d3d146,3b3ee99e-532d-11ea-8a8c-b34de13a3db7
3b1fd400-532d-11ea-a21e-c7912f1c71f2,3b3ef16e-532d-11ea-a8a6-af8253e7403a
3b24fef8-532d-11ea-af08-5768f895926b,3b3f01ea-532d-11ea-8c20-8b6c55fad017
3b37847e-532d-11ea-ad7c-abb050fd4818,3b3f15e0-532d-11ea-93a2-b7ef88da2550
3b23c056-532d-11ea-b4a5-477473f1bf64,3b3f1f7c-532d-11ea-b451-ef5bc744f7b9
3b221a62-532d-11ea-81b5-b3fe596217e7,3b3f24ea-532d-11ea-bb2c-5f090b9a16a6
3b370a80-532d-11ea-b0fe-3771d3931aa5,3b3f3872-532d-11ea-8d20-9764f88ca010
3b231c6e-532d-11ea-8621-a712883b9de8,3b3f4808-532d-11ea-908c-fb9fd5ff2b29
3b39a740-532d-11ea-b5f5-8f5d9544463f,3b3f4dbc-532d-11ea-b77a-3ff9f1927069
3b2347d4-532d-11ea-9d16-bfb4521c11c0,3b3f632e-532d-11ea-b1e4-93aca4f87322
3b225b58-532d-11ea-bbe7-eb58dd3295f2,3b3f7300-532d-11ea-a34e-ef3504c08b23
3b3dc97e-532d-11ea-92de-b3d4e0732a61,3b3f7b20-532d-11ea-a1ed-d78c957b6a34
3b38dfb8-532d-11ea-842c-ff2ca8795247,3b3f855c-532d-11ea-989c-cf653c2d17b1
3b38cbd6-532d-11ea-8f3a-2f9759f1f540,3b3fa532-532d-11ea-8260-fbc218722e9d
3b332b5e-532d-11ea-913c-97a8a794deac,3b3fae92-532d-11ea-bda3-2b1d731ab5d7
3b2e6ede-532d-11ea-99ee-5b95773cc4ff,3b3fb482-532d-11ea-821f-5fd897201a3b
3b33fa7a-532d-11ea-8f3b-5b73290bb1f0,3b3fba68-532d-11ea-b215-936f2adf7831
3b358c78-532d-11ea-87a6-53f221e89d78,3b3fbf2c-532d-11ea-aff5-cb6b7c505707
3b2aa132-532d-11ea-adfa-1f22f6452881,3b3fd912-532d-11ea-b49e-ebc8bd7eea11
3b3bef82-532d-11ea-bbb2-a3ebc1ab2238,3b3fde6c-532d-11ea-8b69-5f511200f7db
3b21ccec-532d-11ea-96c9-6fa74c03605e,3b3ffe74-532d-11ea-b628-179045b7a5a6
3b3d6600-532d-11ea-af9f-3f74d0a1b407,3b4007a2-532d-11ea-ba2c-7b71b27e5622
3b37de6a-532d-11ea-af2c-132dac05b60c,3b40138c-532d-11ea-85dc-4fe42c23d595
3b3d0796-532d-11ea-a37f-97d9d5f59438,3b401b98-532d-11ea-b4b2-7b8cc0dda03b
3b35c77e-532d-11ea-88e3-5b8fb7973fc4,3b40220a-532d-11ea-88ce-93d3a4b74d94
3b226990-532d-11ea-9c36-33944c21d9c3,3b402822-532d-11ea-8e7e-7f655cef50e7
3b274262-532d-11ea-8f02-d395dd209edc,3b403fec-532d-11ea-9ece-3b8fd7c8befc
3b2d97ac-532d-11ea-b4a2-ef270c3e9eea,3b404578-532d-11ea-9536-7f87b4f41340
3b3ce054-532d-11ea-b50e-d7aa234b7bd8,3b4061ca-532d-11ea-8434-d319dbd48a47
3b2c041e-532d-11ea-b5a2-ffcefaa3263a,3b4069fe-532d-11ea-90e4-2fe491f62b7a
3b2eb182-532d-11ea-be9c-5fb72334029b,3b407552-532d-11ea-a000-33323454ef23
3b30b82e-532d-11ea-8100-eb327ff10ef3,3b407fd4-532d-11ea-91b4-8fead201394e
3b25b01e-532d-11ea-bd4a-679ed64b5474,3b40857e-532d-11ea-90d5-d7f8ee5a9ef7
3b274708-532d-11ea-8d9f-bbde295ae8bf,3b408a9c-532d-11ea-9ce5-af7564a39fa9
3b21d11a-532d-11ea-a4bf-fb326232282a,3b40a518-532d-11ea-b140-cfea36790073
3b1fa6d8-532d-11ea-a935-175067d600eb,3b40ab30-532d-11ea-ba1b-eb9adc07d8b8
3b3f24ea-532d-11ea-bb2c-5f090b9a16a6,3b40cb38-532d-11ea-970a-af9be7db4a65
3b3fa532-532d-11ea-8260-fbc218722e9d,3b40dc7c-532d-11ea-86bc-cf2305cb5b5d
3b373500-532d-11ea-aa5c-031459f2f736,3b40e582-532d-11ea-b441-cbf8f28b13bd
3b280094-532d-11ea-b939-3ff74a4c64f1,3b40eaaa-532d-11ea-ace3-d3db4594fb6b
3b370a80-532d-11ea-b0fe-3771d3931aa5,3b40f414-532d-11ea-b908-8f6898e8e928
3b2f6a82-532d-11ea-963a-2728c3b2b416,3b40f9f0-532d-11ea-aba4-431e6b8e8fe4
3b340614-532d-11ea-82dc-1b8eb4642663,3b410ab2-532d-11ea-8225-2fc1ba3f172a
3b20db52-532d-11ea-885f-4f8c5100ce4d,3b4110f2-532d-11ea-8088-93acf256dd95
3b2e25e6-532d-11ea-9436-bf0f4cd7c4bd,3b412e52-532d-11ea-b7f6-cf364144fd2d
3b2c8344-532d-11ea-a566-b3f92ebdb56f,3b414162-532d-11ea-ba63-ffd3f3fb7791
3b24faf2-532d-11ea-9acd-db60538a0a53,3b414a5e-532d-11ea-9a84-c764c409613c
3b37eebe-532d-11ea-bff8-63af75121821,3b415238-532d-11ea-a298-2f10a4844cf6
3b3c544a-532d-11ea-a92b-77dad2dfcbcf,3b415cec-532d-11ea-b6ef-e3149e467d9a
3b2af0ce-532d-11ea-9948-7f11ec1e8819,3b416250-532d-11ea-acfd-2f6e28e827e0
3b29866c-532d-11ea-a8ac-6b200130554d,3b4176be-532d-11ea-b9b3-837f35028624
3b2f0902-532d-11ea-9294-af1d672c491a,3b41709c-532d-11ea-8271-37bd0280def7
3b2cb8be-532d-11ea-8e17-579f4bc96fdf,3b41a74c-532d-11ea-a924-cf21b0511f9d
3b230008-532d-11ea-82ea-efd3a956a3eb,3b41acb0-532d-11ea-bf43-2b01bd7861d9
3b1f91c0-532d-11ea-be5d-97be6bd31808,3b41b2e6-532d-11ea-aa0a-f73558b49991
3b34e318-532d-11ea-8db2-4b3bba69ecbb,3b41b7dc-532d-11ea-b25f-03339a49d481
3b221a62-532d-11ea-81b5-b3fe596217e7,3b41c510-532d-11ea-a8ac-271aa305a92c
3b22dd6c-532d-11ea-a9f2-5fd889c31c39,3b41ca7e-532d-11ea-a3e0-03a224a9bf85
3b3347ec-532d-11ea-bd44-47951274ab04,3b41d8f2-532d-11ea-b0b1-6b41d2c7bdb4
3b34f0f6-532d-11ea-bd4e-6f3ba5398488,3b41de06-532d-11ea-b0e4-f734d95ff016
3b24c140-532d-11ea-9c0d-ef0867e0f3ba,3b420d5e-532d-11ea-9513-e76486deafe5
3b221efe-532d-11ea-91dc-a7989cb7beea,3b4215a6-532d-11ea-9d64-5bcd0399edb6
3b36ba26-532d-11ea-b895-8b2ca411d924,3b421ee8-532d-11ea-b51f-5fc7ec6edc53
3b34d102-532d-11ea-8014-ef9de726baa2,3b422456-532d-11ea-ad74-1f275695e6d7
3b296f10-532d-11ea-ba4f-dff6fd4ab40e,3b422eb0-532d-11ea-ac5e-7be9592baea7
3b2cb440-532d-11ea-946e-2f1d71be9b41,3b423716-532d-11ea-beaa-537418cdb98c
3b2ca504-532d-11ea-94b1-db959848e4f2,3b424210-532d-11ea-810f-5bff5b360b79
3b36b526-532d-11ea-9526-c3709e29fbe5,3b424a94-532d-11ea-be76-638b48eefcc4
3b30e7f4-532d-11ea-9d76-4fd9f1c5e54b,3b4283ec-532d-11ea-a2e0-ab92e31371fd
3b303458-532d-11ea-89e6-fb2e341e5bad,3b428c84-532d-11ea-813d-6b1896f7d408
3b3da390-532d-11ea-923b-c38513324ff4,3b4291ac-532d-11ea-9a68-97e2a90b71ea
3b392c8e-532d-11ea-83d0-07f0a7613e5a,3b429760-532d-11ea-8cff-e3ae1272c8b2
3b2ea53e-532d-11ea-8ec2-efc927d01a66,3b429cb0-532d-11ea-888a-fbc7c9a53703
3b3e8e2c-532d-11ea-8ebc-8fd912bf3474,3b42a20a-532d-11ea-98c8-7b99840547bf
3b25eee4-532d-11ea-93bc-b352fd2c2fb1,3b42a75a-532d-11ea-9c3b-0bb8c9b8b094
3b39033a-532d-11ea-9c4d-733bf6a9b45a,3b42b86c-532d-11ea-b7f4-6b80ae247b83
3b3c4fae-532d-11ea-9bb9-2f906b6de00d,3b42e4ea-532d-11ea-946c-8f92a0b4b087
3b20cff4-532d-11ea-b5e3-4f0960a694d9,3b43066e-532d-11ea-bf46-37063f3cd065
3b2dce0c-532d-11ea-a176-1f0ac7c4ed84,3b42fc5a-532d-11ea-a478-fbe72c7dd2ad
3b420d5e-532d-11ea-9513-e76486deafe5,3b43010a-532d-11ea-8e71-3f9903c328ad
3b41ca7e-532d-11ea-a3e0-03a224a9bf85,3b42f11a-532d-11ea-99ed-1b8de4df3797
3b26dd7c-532d-11ea-a76b-2bd983045ce4,3b4316e0-532d-11ea-8a30-eb1279da8a9a
3b385192-532d-11ea-a6d7-73660b7ad7f3,3b431c80-532d-11ea-baf9-9bc28c33eff1
3b312052-532d-11ea-b4a9-6b461058ce40,3b43254a-532d-11ea-9c2a-8bc90b25d739
3b324400-532d-11ea-8834-5fa7cce37fd1,3b435ce0-532d-11ea-8b17-0b3b322c630a
3b220dc4-532d-11ea-9fac-cb74ab273b6e,3b436384-532d-11ea-aea8-d384c625ede5
3b2a84ae-532d-11ea-9fb3-9f48d3b5fe28,3b4368ca-532d-11ea-b7dd-ef7c14242bfa
3b2b7382-532d-11ea-9667-4bdc9b9be23a,3b43773e-532d-11ea-b67a-131ff3e978fb
3b3292d4-532d-11ea-8999-6b383ea16b04,3b437da6-532d-11ea-bff4-bfbb03d8232b
3b3ce612-532d-11ea-9072-e3618ac4527d,3b43840e-532d-11ea-86e6-fb5ee536318a
3b307314-532d-11ea-b24d-03f8c16f3892,3b438c4c-532d-11ea-8edf-f3a17863bb1c
3b343472-532d-11ea-aad9-0368c8766b5c,3b439124-532d-11ea-ad00-c72b06857930
3b1f35e0-532d-11ea-a53a-93437901d4a8,3b43c9dc-532d-11ea-b3f4-5b670360aa53
3b35e3e4-532d-11ea-a543-c7874b183f0c,3b43cfa4-532d-11ea-ab65-b715b8371382
3b421ee8-532d-11ea-b51f-5fc7ec6edc53,3b43d5c6-532d-11ea-af60-0bac58968de0
3b3213cc-532d-11ea-883c-2f843f168f46,3b43e034-532d-11ea-8b74-4f9a8a03a749
3b312052-532d-11ea-b4a9-6b461058ce40,3b43ed68-532d-11ea-a8d0-7fbba715fb6a
3b30880e-532d-11ea-8758-4f0ea2d4dea7,3b43f31c-532d-11ea-98f2-0f2a14fc8b40
3b2f795a-532d-11ea-ae27-8bf5f5c28352,3b43f862-532d-11ea-8377-73e0131b2530
3b3d2b7c-532d-11ea-93a5-a721f9f4073f,3b43fd58-532d-11ea-aa49-cb1011514417
3b2d65e8-532d-11ea-ae98-53a66bcadb9b,3b443124-532d-11ea-9b89-7b52c0c8fb98
3b29e97c-532d-11ea-b928-1b14fd2fa0b5,3b443692-532d-11ea-81aa-e3b3f9885789
3b3df8fe-532d-11ea-a518-ff7499c4f4db,3b443ef8-532d-11ea-a601-431d7f77d118
3b3ace04-532d-11ea-9793-670069c2cc09,3b444682-532d-11ea-919e-2b749471df2c
3b1fa6d8-532d-11ea-a935-175067d600eb,3b445186-532d-11ea-85eb-57ea04f3ff22
3b375580-532d-11ea-895d-67c0964988d6,3b44565e-532d-11ea-b000-237d08d31a95
3b39d1ca-532d-11ea-8e59-53538e0c8eb1,3b44613a-532d-11ea-8cbe-5306488827f1
3b407552-532d-11ea-a000-33323454ef23,3b446b62-532d-11ea-87f9-0f426d427e96
3b3cd500-532d-11ea-a272-bf7a0580b612,3b44a00a-532d-11ea-9d63-37855875f287
3b420d5e-532d-11ea-9513-e76486deafe5,3b44a5aa-532d-11ea-89c1-07dba8afb220
3b2995da-532d-11ea-80b5-d73a9f778e5e,3b44b162-532d-11ea-adff-1f0e7fe045e7
3b23e55e-532d-11ea-8100-e7708752b294,3b44b8ba-532d-11ea-a690-e717ee3f8f79
3b320864-532d-11ea-9c0c-d37da81953d7,3b44be28-532d-11ea-a13d-07963e01dcf5
3b28a8b4-532d-11ea-852e-77b9f6b407d4,3b44c31e-532d-11ea-ae5b-4f9cb127d405
3b3651ee-532d-11ea-8509-cb14f2668603,3b44cf76-532d-11ea-b89b-e341334ea22f
3b35deee-532d-11ea-967c-d3fa2bf3bbb1,3b44d502-532d-11ea-8859-6b462c6b3c82
3b3c1142-532d-11ea-a30b-ab88032da348,3b4507fc-532d-11ea-93d6-6fca59608cec
3b2ebb1e-532d-11ea-858f-7779f1af6ab7,3b451224-532d-11ea-b2d5-2732b439ad50
3b2aead4-532d-11ea-ba3b-f736efb7944e,3b4534b6-532d-11ea-9e3c-9b0e3ddbc579
3b4283ec-532d-11ea-a2e0-ab92e31371fd,3b4526e2-532d-11ea-ac65-b7550fa88df2
3b2ac338-532d-11ea-a68a-8fa0e35ed639,3b452ca0-532d-11ea-ba3e-1f9b4219340c
3b363286-532d-11ea-b6d3-e78b46f6ff97,3b451e4a-532d-11ea-8ca8-039f3d966450
3b37aaee-532d-11ea-a503-1f254b40638b,3b4539d4-532d-11ea-8c2d-37b4f677eb11
3b281a0c-532d-11ea-8185-c352623b0f9b,3b457106-532d-11ea-9f70-af7a76f805f5
3b23ab3e-532d-11ea-a075-3f41fb457677,3b4578f4-532d-11ea-9d47-439e65fbf2ab
3b2632c8-532d-11ea-b50c-a305938b1f25,3b457ec6-532d-11ea-a2ab-fb7028c43328
3b3bef82-532d-11ea-bbb2-a3ebc1ab2238,3b458dd0-532d-11ea-9a1e-63838601b141
3b329784-532d-11ea-b8eb-57562b680c05,3b459636-532d-11ea-a92a-97dd39128912
3b291768-532d-11ea-9fec-b7a66a4f2b91,3b459c12-532d-11ea-b17e-7b4d3ee25d1a
3b3ebd2a-532d-11ea-a031-f30ca475788a,3b45a658-532d-11ea-af38-173d0c152731
3b3d6e0c-532d-11ea-a0d7-af97f6680505,3b45c53e-532d-11ea-adb9-4f87a2607f49
3b24d180-532d-11ea-961d-2b1855344f5b,3b45d7cc-532d-11ea-8db1-4736d4530e0f
3b2df292-532d-11ea-bdba-33d4a7f8b0ca,3b45dde4-532d-11ea-b4b5-636203c62b47
3b384bb6-532d-11ea-966c-a3668eedc263,3b45e6a4-532d-11ea-9428-4f79bf28ba17
3b40cb38-532d-11ea-970a-af9be7db4a65,3b45f450-532d-11ea-a52b-978f3b70871b
3b375cd8-532d-11ea-9c4b-03c7f5c0e2a9,3b45fd60-532d-11ea-8083-e31bf84296ba
3b2a9c3c-532d-11ea-abcf-87ed1f030316,3b460904-532d-11ea-bd4e-5359cf3e42d7
3b3abd92-532d-11ea-a4ac-cfe1c45c87e2,3b46105c-532d-11ea-9eef-5fb2c0131e70
3b29e314-532d-11ea-af35-5b8f981bfa24,3b462ace-532d-11ea-b4b7-cfcf8e634b29
3b2585a8-532d-11ea-9959-efefd46108cd,3b464360-532d-11ea-b505-f72f8fdf5f7e
3b2a6974-532d-11ea-80c6-9b4a0532cbc2,3b4649d2-532d-11ea-9bed-8b83b447a2ca
3b297d48-532d-11ea-983a-ffbd239222a0,3b4651f2-532d-11ea-ad51-b769b2829ea3
3b2f6a82-532d-11ea-963a-2728c3b2b416,3b4660b6-532d-11ea-8ce3-23bc28a9d8b2
3b3e3148-532d-11ea-9e00-e7f98d7f9962,3b4667aa-532d-11ea-ac7e-cfed4b265111
3b1f6ad8-532d-11ea-8b60-3bc01d6a51ea,3b468276-532d-11ea-a126-dbbedf3232bd
3b307990-532d-11ea-bb0f-83046d5bea84,3b46882a-532d-11ea-9a25-2bcfc08f342f
3b40eaaa-532d-11ea-ace3-d3db4594fb6b,3b469144-532d-11ea-b085-ab19a31d64db
3b469144-532d-11ea-b085-ab19a31d64db,3b46ae9a-532d-11ea-8f2c-eb0cc3673a28
3b3d6600-532d-11ea-af9f-3f74d0a1b407,3b46b4ee-532d-11ea-ba88-4bc89963b8f9
3b2af98e-532d-11ea-b5fd-c795b8e4374d,3b46ba5c-532d-11ea-9f9c-1beb0ed8d3ba
3b384bb6-532d-11ea-966c-a3668eedc263,3b46bfd4-532d-11ea-b025-7bfc48ec81e2
3b2347d4-532d-11ea-9d16-bfb4521c11c0,3b46d172-532d-11ea-9d6b-b79e71400055
3b338626-532d-11ea-9db8-2f128f842c61,3b46e270-532d-11ea-a18e-c7d3f15bbeb1
3b3ace04-532d-11ea-9793-670069c2cc09,3b46e7a2-532d-11ea-bf58-a7012f0ba9bb
3b22f6e4-532d-11ea-9a36-5763a0aa9e57,3b46f13e-532d-11ea-969d-a7a6dfc27a6e
3b330ec6-532d-11ea-8763-136d50046681,3b471682-532d-11ea-9d4d-8780408c2ee7
3b2f746e-532d-11ea-b150-ef7e8237a8b1,3b471c5e-532d-11ea-91bd-773808cc9132
3b45dde4-532d-11ea-b4b5-636203c62b47,3b4721ae-532d-11ea-91e4-37b565ad9432
3b44d502-532d-11ea-8859-6b462c6b3c82,3b472942-532d-11ea-8498-379d00b8b9d9
3b3d3900-532d-11ea-8abf-87c10c82dc03,3b473eb4-532d-11ea-9058-4730b8da0e00
3b2e25e6-532d-11ea-9436-bf0f4cd7c4bd,3b474404-532d-11ea-a80f-bfc49d6aa243
3b346636-532d-11ea-8819-973f02d947bf,3b474d28-532d-11ea-9de3-2b25bd15a893
3b2ef174-532d-11ea-b80c-2b4c3901f7f7,3b475296-532d-11ea-bb29-dbdf68526797
3b21385e-532d-11ea-aa63-3f1da9689364,3b477ad2-532d-11ea-91c6-9329050b7b66
3b22bc42-532d-11ea-8434-77cda1e0b7e4,3b478018-532d-11ea-81f1-1308eac2d2e0
3b444682-532d-11ea-919e-2b749471df2c,3b478798-532d-11ea-b3d2-f787b62d4d72
3b40e582-532d-11ea-b441-cbf8f28b13bd,3b478ff4-532d-11ea-8890-1b0bd77f4812
3b224d7a-532d-11ea-9157-1bbfed5205ba,3b479f12-532d-11ea-85ba-77ed4808a744
3b3beaf0-532d-11ea-acc5-e3d817719aed,3b47abec-532d-11ea-8eda-171763faea5a
3b2c48b6-532d-11ea-b4af-a3a3f3676f85,3b47bf1a-532d-11ea-95ee-0beff0ebecd5
3b436384-532d-11ea-aea8-d384c625ede5,3b47c49c-532d-11ea-bdfa-8b028cfb0f1b
3b22bc42-532d-11ea-8434-77cda1e0b7e4,3b47e1e8-532d-11ea-aa82-23bc58340629
3b2e63c6-532d-11ea-a9c8-67150d3bc5b4,3b47ea58-532d-11ea-9a1f-a76b93d1be7f
3b21413c-532d-11ea-b791-c3a9b7247741,3b47f336-532d-11ea-a76b-0738acf59d4c
3b27a964-532d-11ea-98a2-8fbd0d060dd4,3b47f84a-532d-11ea-b021-d3f3a60a06af
3b2dd5be-532d-11ea-aadc-b3f465854193,3b4801a0-532d-11ea-8700-bf2a3f7992b0
3b37b50c-532d-11ea-8868-777e7b96248d,3b48326a-532d-11ea-a5a2-bff4c788e4d8
3b20273e-532d-11ea-a610-b78cd4c36998,3b484520-532d-11ea-86c8-23ade6cb5efa
3b35e3e4-532d-11ea-a543-c7874b183f0c,3b48536c-532d-11ea-8f50-e79c827a15e6
3b2a574a-532d-11ea-b904-bbf0105faa02,3b485dda-532d-11ea-91a4-cb9a17ab3adb
3b3d9d32-532d-11ea-94e0-b7ad09e97e08,3b4867f8-532d-11ea-b031-0bac235f1c1d
3b451224-532d-11ea-b2d5-2732b439ad50,3b48795a-532d-11ea-b27d-23c86bab509d
3b423716-532d-11ea-beaa-537418cdb98c,3b48a18c-532d-11ea-9179-cf7aafaebdee
3b20d6ac-532d-11ea-8b7c-9bd68953d7e7,3b48af24-532d-11ea-a7cf-b77b2b24a8de
3b2432fc-532d-11ea-8fee-9754fe69c89b,3b48babe-532d-11ea-8e22-53c719d65e1b
3b2a2ec8-532d-11ea-ad99-cf4b4df807cf,3b48c450-532d-11ea-8c50-df6333298098
3b3cb9e4-532d-11ea-b6af-93f3fb3a393a,3b48d6c0-532d-11ea-9448-3b0783fc7390
3b279316-532d-11ea-91c4-b38a174a8a03,3b48e890-532d-11ea-a2d1-834fbf5c74bd
3b4215a6-532d-11ea-9d64-5bcd0399edb6,3b49080c-532d-11ea-8a64-072569bc1c1f
3b3b3b0a-532d-11ea-b454-1f8ec12967a7,3b491d7e-532d-11ea-a0d9-8f9134926263
3b412e52-532d-11ea-b7f6-cf364144fd2d,3b49229c-532d-11ea-a31b-776737500cd1
3b2db200-532d-11ea-b00a-f763f3057fcc,3b492c24-532d-11ea-9378-9b7980a41fad
3b340ca4-532d-11ea-a7e1-33bb6e3ae34a,3b493f84-532d-11ea-aa2f-53ade6592bde
3b307990-532d-11ea-bb0f-83046d5bea84,3b494cd6-532d-11ea-8274-6313fe205f6d
3b353138-532d-11ea-8c6d-ffbf4308517e,3b497378-532d-11ea-aaa3-bfe36bd865b3
3b2e5ebc-532d-11ea-b96d-c7be749ca610,3b49898a-532d-11ea-9350-57a407275383
3b2b9330-532d-11ea-b468-13a4a93f29a4,3b498f66-532d-11ea-9181-23b3d2b5edcf
3b30e7f4-532d-11ea-9d76-4fd9f1c5e54b,3b49948e-532d-11ea-8310-0b7215dac2a4
3b443692-532d-11ea-81aa-e3b3f9885789,3b49b18a-532d-11ea-8d17-d31bb6e2f6bd
3b204c5a-532d-11ea-88a8-5b0b73e8e295,3b49bbbc-532d-11ea-b151-0f4727bb5cbc
3b2f795a-532d-11ea-ae27-8bf5f5c28352,3b49f6ea-532d-11ea-9809-e7201ddcf9e1
3b3a7a6c-532d-11ea-90e9-13002f781005,3b4a1774-532d-11ea-b011-5fbe84dba994
3b46e7a2-532d-11ea-bf58-a7012f0ba9bb,3b4a01f8-532d-11ea-af15-2f6a1043ef9d
3b33046c-532d-11ea-bf5d-2b05c5a6b8d4,3b4a1e18-532d-11ea-ab37-8b3c8ace4700
3b3bef82-532d-11ea-bbb2-a3ebc1ab2238,3b4a49ba-532d-11ea-ac9f-f7212a05cd88
3b202b1c-532d-11ea-adf9-13bc3a913ff0,3b4a4faa-532d-11ea-a8d3-87e4f93386cf
3b363f60-532d-11ea-bc86-172c0eeb60f5,3b4a55d6-532d-11ea-b82d-8b6b09fbfaf0
3b32b958-532d-11ea-b141-4b66f7769d1b,3b4a63fa-532d-11ea-b4e3-73494bf12eb9
3b3e3148-532d-11ea-9e00-e7f98d7f9962,3b4a6918-532d-11ea-a5cf-8fe7576ea24b
3b36ba26-532d-11ea-b895-8b2ca411d924,3b4a6ed6-532d-11ea-bec3-5f4c0093d61e
3b29e97c-532d-11ea-b928-1b14fd2fa0b5,3b4a81dc-532d-11ea-b747-5749165b5154
3b3e8e2c-532d-11ea-8ebc-8fd912bf3474,3b4aafcc-532d-11ea-aae2-d7dba6ced848
3b2c8344-532d-11ea-a566-b3f92ebdb56f,3b4abdd2-532d-11ea-94af-c313ee0df472
3b4007a2-532d-11ea-ba2c-7b71b27e5622,3b4ac660-532d-11ea-b61c-8fdc32117e88
3b401b98-532d-11ea-b4b2-7b8cc0dda03b,3b4ab530-532d-11ea-bcc6-0bcf2c6b6339
3b3218c2-532d-11ea-a03a-fb2e0ec5f28d,3b4ad092-532d-11ea-893d-d7e8dbdaf81c
3b307314-532d-11ea-b24d-03f8c16f3892,3b4acbba-532d-11ea-b9e1-c7c9469b189c
3b43fd58-532d-11ea-aa49-cb1011514417,3b4ae3ac-532d-11ea-b5dc-8bdb8503d4cb
3b22bc42-532d-11ea-8434-77cda1e0b7e4,3b4b1322-532d-11ea-8777-e7b827e65147
3b23ab3e-532d-11ea-a075-3f41fb457677,3b4b378a-532d-11ea-a335-c79926de5a90
3b28f9c2-532d-11ea-a8a7-97be96b90850,3b4b323a-532d-11ea-ae7f-4729dcc09459
3b31692c-532d-11ea-994d-ff00de9b5170,3b4b3c8a-532d-11ea-a467-ab40a17fe2df
3b2b4de4-532d-11ea-8b48-e7d64c6cd69b,3b4b2948-532d-11ea-bacb-c745da02a289
3b36450a-532d-11ea-9830-0f2e740c6489,3b4b4356-532d-11ea-b7bc-372165db87fb
3b2d0e18-532d-11ea-94cf-835be00217ea,3b4b487e-532d-11ea-b139-db0cc116cc29
3b333522-532d-11ea-8655-5f83dc8062e6,3b4b998c-532d-11ea-aabc-376a52c6f751
3b2cfc7a-532d-11ea-9e32-032e55bcf00d,3b4ba4b8-532d-11ea-986b-3bf516e8198f
3b25d9b8-532d-11ea-a582-5f0728db5d2e,3b4baf26-532d-11ea-acb7-f7b5afd86a27
3b4061ca-532d-11ea-8434-d319dbd48a47,3b4be2d4-532d-11ea-9a2b-f7e23b21215e
3b451224-532d-11ea-b2d5-2732b439ad50,3b4bf06c-532d-11ea-a41c-bf2b3d134ab0
3b356f2c-532d-11ea-857d-17e14a5d7ae4,3b4bf512-532d-11ea-8350-831f5b7e7d2a
3b249f80-532d-11ea-b95e-4f7fccf70dda,3b4beb44-532d-11ea-bc2e-875d61fde7a2
3b4beb44-532d-11ea-bc2e-875d61fde7a2,3b4c302c-532d-11ea-b3e5-a36e397a7c56
3b2995da-532d-11ea-80b5-d73a9f778e5e,3b4c36da-532d-11ea-a3f5-fb00d4aa35b5
3b340ca4-532d-11ea-a7e1-33bb6e3ae34a,3b4c3cde-532d-11ea-a78a-2b324af6db91
3b227b7e-532d-11ea-b5c3-c32c2a020879,3b4c74f6-532d-11ea-b628-734b945142c1
3b26f302-532d-11ea-bb53-9fb76999c437,3b4c9364-532d-11ea-925e-c3b426de61f2
3b2f6f8c-532d-11ea-a4cd-cf7eae829004,3b4c988c-532d-11ea-97f2-3b95ad37401b
3b309a92-532d-11ea-8ddf-cf335ba3d892,3b4c9e68-532d-11ea-8847-d7c2e25d4165
3b4c9e68-532d-11ea-8847-d7c2e25d4165,3b4cd69e-532d-11ea-8309-17e717bf1d68
3b3b40aa-532d-11ea-a5f4-9f3091ca7bac,3b4cdc16-532d-11ea-8398-ffec2cb7e065
3b3c594a-532d-11ea-8824-af026988e5f3,3b4ce166-532d-11ea-b065-3fa0329ac80d
3b471682-532d-11ea-9d4d-8780408c2ee7,3b4ce774-532d-11ea-a63b-cb9ca75b0ba5
3b4283ec-532d-11ea-a2e0-ab92e31371fd,3b4d14ec-532d-11ea-9fc0-97825f5856c6
3b2af98e-532d-11ea-b5fd-c795b8e4374d,3b4d2220-532d-11ea-87e2-9b9296c52456
3b30952e-532d-11ea-a058-0bc4769f1a52,3b4d411a-532d-11ea-bb90-d751c6d47b22
3b2488b0-532d-11ea-ad0d-b31fc0ba1e4d,3b4d45fc-532d-11ea-98dd-0fac55ed7d1a
3b2968c6-532d-11ea-8ea1-13ba2d3eaf9e,3b4d5dbc-532d-11ea-a098-8743aae912d2
3b296f10-532d-11ea-ba4f-dff6fd4ab40e,3b4d630c-532d-11ea-b135-0f958533e14f
3b23e55e-532d-11ea-8100-e7708752b294,3b4d8b16-532d-11ea-b3dd-cbc7f8b4e12d
3b318ca4-532d-11ea-b682-c3e320db1437,3b4d8648-532d-11ea-ada3-0bb4e6f84280
3b420d5e-532d-11ea-9513-e76486deafe5,3b4da1be-532d-11ea-a885-d309431ddc75
3b33b5ec-532d-11ea-9fc4-f785c4d12bc2,3b4da6c8-532d-11ea-aa6b-3fbc5390899f
3b3ad8b8-532d-11ea-bc44-dfd738f12986,3b4de5e8-532d-11ea-a3d0-db963874bd77
3b269588-532d-11ea-8ae7-7f95f217ffc6,3b4dea66-532d-11ea-bea9-8785e0d9d319
3b289234-532d-11ea-a902-83fab63ca8c7,3b4defca-532d-11ea-93cd-936dcd608bd0
3b4110f2-532d-11ea-8088-93acf256dd95,3b4e076c-532d-11ea-8042-c371c5775162
3b408a9c-532d-11ea-9ce5-af7564a39fa9,3b4df524-532d-11ea-a557-d7ef8fcb8d7c
3b3d11d2-532d-11ea-b792-3bc78e5f1e1d,3b4e0cc6-532d-11ea-93b6-7f703c123a63
3b269998-532d-11ea-b9da-57b51941f8ee,3b4e4a56-532d-11ea-a52f-4f4a34d3941f
3b3837d4-532d-11ea-b9d5-0f6a45d7cfd3,3b4e4fd8-532d-11ea-ac51-af687e368357
3b347478-532d-11ea-bd3c-c3a8f7a882f4,3b4e5622-532d-11ea-bfc8-7f00e6b6f11e
3b216662-532d-11ea-ad53-bfd997b6702e,3b4e5b36-532d-11ea-a204-cf6760ef5a96
3b2aa5c4-532d-11ea-9e85-c3ab30e3e6fa,3b4e925e-532d-11ea-8437-bb70877e8975
3b1fe774-532d-11ea-935b-cb0d1436c786,3b4e97b8-532d-11ea-8619-1f0714d99e67
3b45d7cc-532d-11ea-8db1-4736d4530e0f,3b4e9d6c-532d-11ea-b97b-cbafe674205e
3b3a1a90-532d-11ea-a307-1f6f0a378bc3,3b4ea28a-532d-11ea-81d6-43f83a4cc448
3b293acc-532d-11ea-aa3f-37a204f3d7e1,3b4ed458-532d-11ea-a5bb-affc1f65d44b
3b31e460-532d-11ea-9c32-0787bc849d1f,3b4edb42-532d-11ea-8225-b712f7658502
3b2886e0-532d-11ea-8759-fb579a1d3a85,3b4ee038-532d-11ea-9d82-7fdf10761aee
3b20883c-532d-11ea-aca4-4f1068bfa0f1,3b4f1efe-532d-11ea-808e-fb41eb3b49b5
3b23c056-532d-11ea-b4a5-477473f1bf64,3b4f249e-532d-11ea-b2cd-7f3a9f46895d
3b253710-532d-11ea-83a8-574f12bf77f6,3b4f2bb0-532d-11ea-922e-bfdde26d2dcc
3b244c10-532d-11ea-9c7f-23ca11a7209e,3b4f60f8-532d-11ea-84a9-67a338179725
3b3837d4-532d-11ea-b9d5-0f6a45d7cfd3,3b4f679c-532d-11ea-9580-ebd0ee4198a5
3b3e0268-532d-11ea-8d64-a3b1078c4bdc,3b4f6de6-532d-11ea-a3da-d78393d6d718
3b30e060-532d-11ea-9ce7-cb6cb0f85a2e,3b4f75de-532d-11ea-b7f8-771a590aef0d
3b469144-532d-11ea-b085-ab19a31d64db,3b4f7bba-532d-11ea-b19a-c32a1fa8fc90
3b4d411a-532d-11ea-bb90-d751c6d47b22,3b4f83ee-532d-11ea-83d1-e332e817fb4f
3b44b162-532d-11ea-adff-1f0e7fe045e7,3b4fcba6-532d-11ea-8015-cb38913e1ec5
3b209714-532d-11ea-8985-9fd17f618d7a,3b4fd25e-532d-11ea-a20b-bb7e97543b0d
3b42f11a-532d-11ea-99ed-1b8de4df3797,3b4fd81c-532d-11ea-83b8-d3deb82ff6f3
3b28a4d6-532d-11ea-8650-03718153fa33,3b4fdd9e-532d-11ea-9a00-2f188e790350
3b3c594a-532d-11ea-8824-af026988e5f3,3b4fe302-532d-11ea-9b4d-9bd25d9280f5
3b295f48-532d-11ea-8085-833f3d8eae40,3b4fe992-532d-11ea-aa81-775f3b42f784
3b39a254-532d-11ea-90ba-2f98602387fd,3b4fef78-532d-11ea-92ea-2fc9e550e4ba
3b4a63fa-532d-11ea-b4e3-73494bf12eb9,3b503898-532d-11ea-8dbb-1355ce6c6231
3b4c9e68-532d-11ea-8847-d7c2e25d4165,3b503d66-532d-11ea-8979-a3306ba2a3c5
3b39c766-532d-11ea-862f-dbcc290b7d9b,3b504284-532d-11ea-b534-e73a950fd891
3b36aff4-532d-11ea-b780-cb067316e89d,3b504a4a-532d-11ea-b482-83f797e24337
3b4c9364-532d-11ea-925e-c3b426de61f2,3b504efa-532d-11ea-bc72-cf4b049ce9d8
3b26eede-532d-11ea-b820-6bf28e0be744,3b505544-532d-11ea-b448-9b01df5df5bd
3b275e46-532d-11ea-b9b7-f71be9e7fc93,3b505d46-532d-11ea-a105-1fcfbe7f7560
3b263e6c-532d-11ea-8f3a-57d14e16f458,3b50c128-532d-11ea-bd0d-7b721b93755c
3b373500-532d-11ea-aa5c-031459f2f736,3b50bcc8-532d-11ea-b2dd-b34b6ff57940
3b4dea66-532d-11ea-bea9-8785e0d9d319,3b50c6dc-532d-11ea-85ab-db78a3be7366
3b2728a4-532d-11ea-aa96-c754b7ce592c,3b50d06e-532d-11ea-925a-57c587741306
3b4cdc16-532d-11ea-8398-ffec2cb7e065,3b50cbdc-532d-11ea-bd90-638e993e94ab
3b2ed798-532d-11ea-a7fb-37030893d2a4,3b50fdfa-532d-11ea-965c-3b99236144d1
3b24fef8-532d-11ea-af08-5768f895926b,3b5102a0-532d-11ea-955a-3b432533ff93
3b312052-532d-11ea-b4a9-6b461058ce40,3b513112-532d-11ea-a687-ef6f0267dadb
3b4721ae-532d-11ea-91e4-37b565ad9432,3b512c3a-532d-11ea-ab06-ffc29e207b46
3b23f29c-532d-11ea-a1d5-ab82642fed2f,3b5136da-532d-11ea-8bd8-0b72775718a4
3b38d932-532d-11ea-b29a-1f53e70c7f09,3b513bee-532d-11ea-98e8-7fa618f6588f
3b29f674-532d-11ea-8259-9f5925ceaaf5,3b5140d0-532d-11ea-9dd7-8f8105cd418d
3b35e8a8-532d-11ea-996a-6f71a4e366e8,3b5165ec-532d-11ea-86a5-d39af7b64b6d
3b2a49bc-532d-11ea-b3c1-67041a87e9ce,3b516e02-532d-11ea-a73b-1b57ace9114b
3b436384-532d-11ea-aea8-d384c625ede5,3b5193aa-532d-11ea-b1f1-6b24d9556323
3b28a4d6-532d-11ea-8650-03718153fa33,3b5198fa-532d-11ea-bf0d-53323fb91382
3b353a52-532d-11ea-91db-9f2dbfa21924,3b519da0-532d-11ea-934f-87fc25069fad
3b25eee4-532d-11ea-93bc-b352fd2c2fb1,3b51a23c-532d-11ea-bf6f-5fcf4c404b21
3b3c487e-532d-11ea-8fd6-0ffa78e45b4f,3b51a778-532d-11ea-a5ef-d7c27ca2f845
3b38cbd6-532d-11ea-8f3a-2f9759f1f540,3b51c71c-532d-11ea-8d59-4f0ef62b6afc
3b33046c-532d-11ea-bf5d-2b05c5a6b8d4,3b51fa20-532d-11ea-af45-ef799cc41201
3b3cadfa-532d-11ea-a155-137b952e8e55,3b51f192-532d-11ea-a944-7f49088af421
3b22f252-532d-11ea-a2a3-e7ca0aef416c,3b52018c-532d-11ea-ae32-db318fdc2093
3b48d6c0-532d-11ea-9448-3b0783fc7390,3b52097a-532d-11ea-96bd-ff258143cc92
3b2c8344-532d-11ea-a566-b3f92ebdb56f,3b520c0e-532d-11ea-990f-87b01404a143
3b387bcc-532d-11ea-8d6a-c75d040eacd5,3b521122-532d-11ea-91a8-7b146f1f4305
3b3416fe-532d-11ea-8f6d-731c10891eb6,3b5247fa-532d-11ea-a274-1be053485c46
3b2775c0-532d-11ea-b06e-83bdeabe2e52,3b525dc6-532d-11ea-9633-435bf40fea80
3b28e2b6-532d-11ea-b02e-fb79fd74bf01,3b526a3c-532d-11ea-8352-d3c3d69ae92a
3b30cfb2-532d-11ea-8f5b-8fd517ab6a84,3b5264b0-532d-11ea-b6b9-577d7c7d6143
3b451e4a-532d-11ea-8ca8-039f3d966450,3b526ffa-532d-11ea-9ada-df1aca435751
