RunID,Tick,AllAgents,Active,Inactive
run-2020-2-19-15-33-51.62947297,0,16,13,3
run-2020-2-19-15-33-51.62947297,1,18,12,6
run-2020-2-19-15-33-51.62947297,2,23,15,8
run-2020-2-19-15-33-51.62947297,3,24,14,10
run-2020-2-19-15-33-51.62947297,4,29,16,13
run-2020-2-19-15-33-51.62947297,5,35,17,18
run-2020-2-19-15-33-51.62947297,6,40,19,21
run-2020-2-19-15-33-51.62947297,7,45,20,25
run-2020-2-19-15-33-51.62947297,8,50,21,29
run-2020-2-19-15-33-51.62947297,9,57,24,33
run-2020-2-19-15-33-51.62947297,10,60,22,38
run-2020-2-19-15-33-51.62947297,11,64,22,42
run-2020-2-19-15-33-51.62947297,12,66,21,45
run-2020-2-19-15-33-51.62947297,13,68,20,48
run-2020-2-19-15-33-51.62947297,14,72,20,52
run-2020-2-19-15-33-51.62947297,15,77,24,53
run-2020-2-19-15-33-51.62947297,16,81,27,54
run-2020-2-19-15-33-51.62947297,17,84,27,57
run-2020-2-19-15-33-51.62947297,18,89,29,60
run-2020-2-19-15-33-51.62947297,19,96,33,63
run-2020-2-19-15-33-51.62947297,20,100,29,71
run-2020-2-19-15-33-51.62947297,21,105,28,77
run-2020-2-19-15-33-51.62947297,22,111,33,78
run-2020-2-19-15-33-51.62947297,23,115,36,79
run-2020-2-19-15-33-51.62947297,24,117,34,83
run-2020-2-19-15-33-51.62947297,25,120,31,89
run-2020-2-19-15-33-51.62947297,26,121,32,89
run-2020-2-19-15-33-51.62947297,27,124,34,90
run-2020-2-19-15-33-51.62947297,28,129,37,92
run-2020-2-19-15-33-51.62947297,29,133,38,95
run-2020-2-19-15-33-51.62947297,30,139,43,96
run-2020-2-19-15-33-51.62947297,31,142,43,99
run-2020-2-19-15-33-51.62947297,32,145,40,105
run-2020-2-19-15-33-51.62947297,33,150,43,107
run-2020-2-19-15-33-51.62947297,34,153,43,110
run-2020-2-19-15-33-51.62947297,35,156,43,113
run-2020-2-19-15-33-51.62947297,36,157,40,117
run-2020-2-19-15-33-51.62947297,37,160,43,117
run-2020-2-19-15-33-51.62947297,38,164,44,120
run-2020-2-19-15-33-51.62947297,39,168,45,123
run-2020-2-19-15-33-51.62947297,40,171,46,125
run-2020-2-19-15-33-51.62947297,41,173,48,125
run-2020-2-19-15-33-51.62947297,42,176,49,127
run-2020-2-19-15-33-51.62947297,43,179,50,129
run-2020-2-19-15-33-51.62947297,44,183,51,132
run-2020-2-19-15-33-51.62947297,45,184,50,134
run-2020-2-19-15-33-51.62947297,46,189,53,136
run-2020-2-19-15-33-51.62947297,47,192,55,137
run-2020-2-19-15-33-51.62947297,48,200,58,142
run-2020-2-19-15-33-51.62947297,49,207,62,145
run-2020-2-19-15-33-51.62947297,50,212,64,148
run-2020-2-19-15-33-51.62947297,51,218,63,155
run-2020-2-19-15-33-51.62947297,52,220,61,159
run-2020-2-19-15-33-51.62947297,53,222,60,162
run-2020-2-19-15-33-51.62947297,54,224,57,167
run-2020-2-19-15-33-51.62947297,55,225,51,174
run-2020-2-19-15-33-51.62947297,56,226,50,176
run-2020-2-19-15-33-51.62947297,57,226,47,179
run-2020-2-19-15-33-51.62947297,58,228,45,183
run-2020-2-19-15-33-51.62947297,59,234,50,184
run-2020-2-19-15-33-51.62947297,60,240,55,185
run-2020-2-19-15-33-51.62947297,61,240,53,187
run-2020-2-19-15-33-51.62947297,62,241,52,189
run-2020-2-19-15-33-51.62947297,63,243,50,193
run-2020-2-19-15-33-51.62947297,64,249,52,197
run-2020-2-19-15-33-51.62947297,65,253,52,201
run-2020-2-19-15-33-51.62947297,66,254,50,204
run-2020-2-19-15-33-51.62947297,67,257,52,205
run-2020-2-19-15-33-51.62947297,68,262,53,209
run-2020-2-19-15-33-51.62947297,69,266,55,211
run-2020-2-19-15-33-51.62947297,70,270,55,215
run-2020-2-19-15-33-51.62947297,71,275,60,215
run-2020-2-19-15-33-51.62947297,72,279,59,220
run-2020-2-19-15-33-51.62947297,73,282,59,223
run-2020-2-19-15-33-51.62947297,74,286,60,226
run-2020-2-19-15-33-51.62947297,75,287,54,233
run-2020-2-19-15-33-51.62947297,76,290,54,236
run-2020-2-19-15-33-51.62947297,77,297,58,239
run-2020-2-19-15-33-51.62947297,78,301,57,244
run-2020-2-19-15-33-51.62947297,79,305,60,245
run-2020-2-19-15-33-51.62947297,80,310,61,249
run-2020-2-19-15-33-51.62947297,81,313,56,257
run-2020-2-19-15-33-51.62947297,82,318,58,260
run-2020-2-19-15-33-51.62947297,83,324,54,270
run-2020-2-19-15-33-51.62947297,84,327,52,275
run-2020-2-19-15-33-51.62947297,85,330,51,279
run-2020-2-19-15-33-51.62947297,86,331,52,279
run-2020-2-19-15-33-51.62947297,87,334,51,283
run-2020-2-19-15-33-51.62947297,88,336,49,287
run-2020-2-19-15-33-51.62947297,89,339,49,290
run-2020-2-19-15-33-51.62947297,90,342,48,294
run-2020-2-19-15-33-51.62947297,91,345,47,298
run-2020-2-19-15-33-51.62947297,92,346,46,300
run-2020-2-19-15-33-51.62947297,93,346,40,306
run-2020-2-19-15-33-51.62947297,94,350,42,308
run-2020-2-19-15-33-51.62947297,95,355,42,313
run-2020-2-19-15-33-51.62947297,96,357,44,313
run-2020-2-19-15-33-51.62947297,97,359,43,316
run-2020-2-19-15-33-51.62947297,98,364,46,318
run-2020-2-19-15-33-51.62947297,99,369,45,324
