RunID,Tick,AllAgents,Active,Inactive
run-2020-3-6-17-0-16.226061105,0,16,15,1
run-2020-3-6-17-0-16.226061105,1,16,15,1
run-2020-3-6-17-0-16.226061105,2,18,13,5
run-2020-3-6-17-0-16.226061105,3,20,13,7
run-2020-3-6-17-0-16.226061105,4,26,15,11
run-2020-3-6-17-0-16.226061105,5,30,17,13
run-2020-3-6-17-0-16.226061105,6,31,16,15
run-2020-3-6-17-0-16.226061105,7,34,18,16
run-2020-3-6-17-0-16.226061105,8,38,20,18
run-2020-3-6-17-0-16.226061105,9,43,22,21
run-2020-3-6-17-0-16.226061105,10,47,23,24
run-2020-3-6-17-0-16.226061105,11,51,25,26
run-2020-3-6-17-0-16.226061105,12,53,25,28
run-2020-3-6-17-0-16.226061105,13,58,28,30
run-2020-3-6-17-0-16.226061105,14,62,28,34
run-2020-3-6-17-0-16.226061105,15,64,30,34
run-2020-3-6-17-0-16.226061105,16,67,31,36
run-2020-3-6-17-0-16.226061105,17,67,30,37
run-2020-3-6-17-0-16.226061105,18,68,26,42
run-2020-3-6-17-0-16.226061105,19,70,26,44
run-2020-3-6-17-0-16.226061105,20,73,29,44
run-2020-3-6-17-0-16.226061105,21,76,32,44
run-2020-3-6-17-0-16.226061105,22,79,35,44
run-2020-3-6-17-0-16.226061105,23,85,39,46
run-2020-3-6-17-0-16.226061105,24,87,39,48
run-2020-3-6-17-0-16.226061105,25,89,37,52
run-2020-3-6-17-0-16.226061105,26,96,42,54
run-2020-3-6-17-0-16.226061105,27,99,44,55
run-2020-3-6-17-0-16.226061105,28,104,45,59
run-2020-3-6-17-0-16.226061105,29,104,43,61
run-2020-3-6-17-0-16.226061105,30,110,46,64
run-2020-3-6-17-0-16.226061105,31,112,46,66
run-2020-3-6-17-0-16.226061105,32,113,41,72
run-2020-3-6-17-0-16.226061105,33,115,42,73
run-2020-3-6-17-0-16.226061105,34,120,45,75
run-2020-3-6-17-0-16.226061105,35,122,47,75
run-2020-3-6-17-0-16.226061105,36,128,47,81
run-2020-3-6-17-0-16.226061105,37,129,43,86
run-2020-3-6-17-0-16.226061105,38,136,47,89
run-2020-3-6-17-0-16.226061105,39,139,47,92
run-2020-3-6-17-0-16.226061105,40,142,47,95
run-2020-3-6-17-0-16.226061105,41,144,44,100
run-2020-3-6-17-0-16.226061105,42,147,43,104
run-2020-3-6-17-0-16.226061105,43,151,46,105
run-2020-3-6-17-0-16.226061105,44,160,53,107
run-2020-3-6-17-0-16.226061105,45,164,54,110
run-2020-3-6-17-0-16.226061105,46,170,54,116
run-2020-3-6-17-0-16.226061105,47,174,54,120
run-2020-3-6-17-0-16.226061105,48,179,54,125
run-2020-3-6-17-0-16.226061105,49,185,55,130
run-2020-3-6-17-0-16.226061105,50,188,53,135
run-2020-3-6-17-0-16.226061105,51,193,53,140
run-2020-3-6-17-0-16.226061105,52,200,58,142
run-2020-3-6-17-0-16.226061105,53,205,58,147
run-2020-3-6-17-0-16.226061105,54,213,65,148
run-2020-3-6-17-0-16.226061105,55,217,62,155
run-2020-3-6-17-0-16.226061105,56,218,55,163
run-2020-3-6-17-0-16.226061105,57,224,56,168
run-2020-3-6-17-0-16.226061105,58,225,51,174
run-2020-3-6-17-0-16.226061105,59,230,51,179
run-2020-3-6-17-0-16.226061105,60,234,52,182
run-2020-3-6-17-0-16.226061105,61,236,50,186
run-2020-3-6-17-0-16.226061105,62,242,55,187
run-2020-3-6-17-0-16.226061105,63,246,57,189
run-2020-3-6-17-0-16.226061105,64,253,56,197
run-2020-3-6-17-0-16.226061105,65,257,53,204
run-2020-3-6-17-0-16.226061105,66,262,55,207
run-2020-3-6-17-0-16.226061105,67,265,55,210
run-2020-3-6-17-0-16.226061105,68,270,55,215
run-2020-3-6-17-0-16.226061105,69,275,55,220
run-2020-3-6-17-0-16.226061105,70,283,60,223
run-2020-3-6-17-0-16.226061105,71,286,60,226
run-2020-3-6-17-0-16.226061105,72,289,57,232
run-2020-3-6-17-0-16.226061105,73,291,55,236
run-2020-3-6-17-0-16.226061105,74,296,57,239
run-2020-3-6-17-0-16.226061105,75,300,56,244
run-2020-3-6-17-0-16.226061105,76,302,58,244
run-2020-3-6-17-0-16.226061105,77,303,54,249
run-2020-3-6-17-0-16.226061105,78,309,59,250
run-2020-3-6-17-0-16.226061105,79,314,62,252
run-2020-3-6-17-0-16.226061105,80,320,61,259
run-2020-3-6-17-0-16.226061105,81,327,67,260
run-2020-3-6-17-0-16.226061105,82,332,69,263
run-2020-3-6-17-0-16.226061105,83,337,67,270
run-2020-3-6-17-0-16.226061105,84,339,64,275
run-2020-3-6-17-0-16.226061105,85,339,60,279
run-2020-3-6-17-0-16.226061105,86,343,60,283
run-2020-3-6-17-0-16.226061105,87,347,60,287
run-2020-3-6-17-0-16.226061105,88,352,60,292
run-2020-3-6-17-0-16.226061105,89,357,60,297
run-2020-3-6-17-0-16.226061105,90,360,61,299
run-2020-3-6-17-0-16.226061105,91,368,61,307
run-2020-3-6-17-0-16.226061105,92,374,65,309
run-2020-3-6-17-0-16.226061105,93,376,61,315
run-2020-3-6-17-0-16.226061105,94,383,63,320
run-2020-3-6-17-0-16.226061105,95,387,59,328
run-2020-3-6-17-0-16.226061105,96,389,58,331
run-2020-3-6-17-0-16.226061105,97,395,59,336
run-2020-3-6-17-0-16.226061105,98,402,65,337
run-2020-3-6-17-0-16.226061105,99,407,66,341
