Source,Target
0801e3e2-5256-11ea-a1f9-7b48bf5be0be,08041dec-5256-11ea-bf81-3f51711ff1ab
08035772-5256-11ea-a86f-3790f96fa6b7,08042b5c-5256-11ea-a015-235de2503748
080226f4-5256-11ea-a1ca-53f0133bfc8a,08043930-5256-11ea-8929-e3e128126b71
0803b848-5256-11ea-adc8-fb6a39c973e0,08044498-5256-11ea-82f7-9757a4bc5f64
0803a812-5256-11ea-9bde-d70b5b45c0e9,08045410-5256-11ea-b80b-071bea4df7f5
0802cb7c-5256-11ea-b673-5f311655c27b,08045cbc-5256-11ea-80c4-cb163f9be5c4
0802bd76-5256-11ea-a784-ef1f23ad4e15,08046306-5256-11ea-8fd1-ffaddb7825a9
08030c36-5256-11ea-805b-abb0d1701d74,08046a22-5256-11ea-8319-f3b6121983bd
0802db80-5256-11ea-8e40-272e720f1b3d,080473fa-5256-11ea-8552-ff79b623a007
0803b0d2-5256-11ea-bd1e-f70a3e0d35a6,08047aee-5256-11ea-ae46-8b46e793833f
0802b5b0-5256-11ea-bd9f-b7d0591ef853,08048b06-5256-11ea-b5cc-2f82ae2129de
0802db80-5256-11ea-8e40-272e720f1b3d,08049510-5256-11ea-bbb1-97ac0c06c821
0802cb7c-5256-11ea-b673-5f311655c27b,08049de4-5256-11ea-ba89-1b596265e227
0803466a-5256-11ea-b962-730ca58aac88,0804abfe-5256-11ea-be5f-1bdff36f1d28
08035772-5256-11ea-a86f-3790f96fa6b7,0804b3c4-5256-11ea-a57d-3f33ad90ceb6
0804b3c4-5256-11ea-a57d-3f33ad90ceb6,0804bdce-5256-11ea-9976-2783ecbfe3af
08043930-5256-11ea-8929-e3e128126b71,0804c530-5256-11ea-b2f4-a305b1321929
0803232e-5256-11ea-a447-93cde02a6995,0804cf76-5256-11ea-8d60-670e21407ae5
08042b5c-5256-11ea-a015-235de2503748,0804d8a4-5256-11ea-9328-ef49f8ea5235
0803b848-5256-11ea-adc8-fb6a39c973e0,0804e27c-5256-11ea-a7a4-9bec9b790e51
0803e16a-5256-11ea-a395-73034ec8f3ac,0804f352-5256-11ea-a038-dbc47d5ef960
08049510-5256-11ea-bbb1-97ac0c06c821,0804faf0-5256-11ea-96a0-5f1e469bf610
0802604c-5256-11ea-a38c-a3c43d847bf5,080504dc-5256-11ea-b906-e71962b76fcd
0803c1bc-5256-11ea-9b9d-7b168dc75176,08051026-5256-11ea-825e-0f02bed38e2a
0804c530-5256-11ea-b2f4-a305b1321929,08051896-5256-11ea-897f-2785e141f394
0802d2de-5256-11ea-b693-7bff8f665ddb,08052002-5256-11ea-a75c-5b8dba4a9e77
0801e3e2-5256-11ea-a1f9-7b48bf5be0be,08052d04-5256-11ea-8245-dfce499262d6
08043930-5256-11ea-8929-e3e128126b71,080533d0-5256-11ea-aa96-d74f7799923b
080226f4-5256-11ea-a1ca-53f0133bfc8a,0805424e-5256-11ea-a480-fbe335be48cd
08044498-5256-11ea-82f7-9757a4bc5f64,08054c08-5256-11ea-b7f9-6f9aec9108be
0803b0d2-5256-11ea-bd1e-f70a3e0d35a6,080556b2-5256-11ea-999b-6338d4f9685a
0803e16a-5256-11ea-a395-73034ec8f3ac,08057188-5256-11ea-8da3-af2164c74a78
0802161e-5256-11ea-a148-8baea1277e3e,08058786-5256-11ea-b201-23cb3c4e87f2
08049510-5256-11ea-bbb1-97ac0c06c821,08057e12-5256-11ea-92fc-9f763b82f8ab
08020160-5256-11ea-8e29-274956828336,08058e34-5256-11ea-acfd-9f1a1b92e118
08057188-5256-11ea-8da3-af2164c74a78,0805960e-5256-11ea-a3bc-b3ad34b60a55
0801f79c-5256-11ea-98cf-23dd73dbca1d,08059ea6-5256-11ea-9b25-17a8b0ae4462
0801dbb8-5256-11ea-8346-af576f8a692c,0805a82e-5256-11ea-965f-f7b4be51c242
0805960e-5256-11ea-a3bc-b3ad34b60a55,0805affe-5256-11ea-a254-53350e789918
08049de4-5256-11ea-ba89-1b596265e227,0805bef4-5256-11ea-b313-67b236d9d0f7
08041518-5256-11ea-9d68-33e3a8d597be,0805d146-5256-11ea-9b6d-cf46aee5c715
08042b5c-5256-11ea-a015-235de2503748,0805dbaa-5256-11ea-b3fc-5fc1b4236dde
0802cb7c-5256-11ea-b673-5f311655c27b,0805e3f2-5256-11ea-b965-1393149f7ec9
0803650a-5256-11ea-a0b6-57d2f53c5e7f,0805ed02-5256-11ea-bbbd-9fa889adf8c9
08049de4-5256-11ea-ba89-1b596265e227,08060076-5256-11ea-ac00-7f4efe842dc1
0802f55c-5256-11ea-839b-4f1a20f0b4d2,0806081e-5256-11ea-af3b-cf810bd46c9e
0804faf0-5256-11ea-96a0-5f1e469bf610,08061110-5256-11ea-8e55-3f0b98cd4075
080473fa-5256-11ea-8552-ff79b623a007,080618b8-5256-11ea-b244-af1a6af831d0
080556b2-5256-11ea-999b-6338d4f9685a,080623e4-5256-11ea-9a8a-ef19f3897c5b
08041dec-5256-11ea-bf81-3f51711ff1ab,0806388e-5256-11ea-9421-0b1efc573662
08030c36-5256-11ea-805b-abb0d1701d74,08062f74-5256-11ea-91bc-9b35c3227ba1
08032aa4-5256-11ea-8a0b-8bfe2a5331fa,08063f96-5256-11ea-b7f2-7bbfb89fbe0e
0805affe-5256-11ea-a254-53350e789918,08066084-5256-11ea-a85b-afd188f6d1f7
08051896-5256-11ea-897f-2785e141f394,0806678c-5256-11ea-af87-970f5c63a2b7
08052d04-5256-11ea-8245-dfce499262d6,08066f7a-5256-11ea-98f1-c39446d1a609
08037838-5256-11ea-a419-63f3325ab29d,08067664-5256-11ea-988c-839f3083ea86
08045cbc-5256-11ea-80c4-cb163f9be5c4,08067f56-5256-11ea-9155-338927e8e5a8
0804bdce-5256-11ea-9976-2783ecbfe3af,0806876c-5256-11ea-8cc6-8b330c722cd5
08043930-5256-11ea-8929-e3e128126b71,08068f82-5256-11ea-99c1-fb100c70d60e
08049de4-5256-11ea-ba89-1b596265e227,08069694-5256-11ea-893f-938946f33baf
0806388e-5256-11ea-9421-0b1efc573662,0806acce-5256-11ea-8d99-afe8d84e01d7
0804e27c-5256-11ea-a7a4-9bec9b790e51,0806b426-5256-11ea-bc63-8f1d7c27f9a9
08047aee-5256-11ea-ae46-8b46e793833f,0806bf2a-5256-11ea-b7fb-fff424228fec
0804cf76-5256-11ea-8d60-670e21407ae5,0806ce0c-5256-11ea-8d55-8b8317ad029e
0805affe-5256-11ea-a254-53350e789918,0806d762-5256-11ea-b04a-7f092841d031
0801ef18-5256-11ea-9498-33c027d876ac,0806e4e6-5256-11ea-98d1-57c166a880b3
08031424-5256-11ea-b788-ff4ff9790294,0806ef04-5256-11ea-9dd3-735aed351107
08032aa4-5256-11ea-8a0b-8bfe2a5331fa,0806f83c-5256-11ea-9c69-43ee890df18b
0804b3c4-5256-11ea-a57d-3f33ad90ceb6,080701b0-5256-11ea-a9fe-d30e5c969168
0802f55c-5256-11ea-839b-4f1a20f0b4d2,08070ae8-5256-11ea-90eb-9b314c8406f7
08047aee-5256-11ea-ae46-8b46e793833f,08071a92-5256-11ea-aa66-ffeba576d393
08061110-5256-11ea-8e55-3f0b98cd4075,0807247e-5256-11ea-bab2-87d26468435f
08062f74-5256-11ea-91bc-9b35c3227ba1,08072e4c-5256-11ea-8918-f3f56ef3f2d8
08043930-5256-11ea-8929-e3e128126b71,080738f6-5256-11ea-98f6-dbfb309ce027
08030c36-5256-11ea-805b-abb0d1701d74,0807440e-5256-11ea-a159-33098badbe9a
080276f4-5256-11ea-bd39-6be72964970b,080752a0-5256-11ea-b70f-1f9a829d4a17
08024f08-5256-11ea-9750-e3a70f0bbc24,080759bc-5256-11ea-b448-a3542db21acc
08043930-5256-11ea-8929-e3e128126b71,08077334-5256-11ea-8d99-6b9534a8fc9f
0802a9ee-5256-11ea-912d-b7f89864d71c,08077b4a-5256-11ea-b973-4f8cd24f9416
08061110-5256-11ea-8e55-3f0b98cd4075,08078702-5256-11ea-ad40-43f4351365f5
08047aee-5256-11ea-ae46-8b46e793833f,08078fa4-5256-11ea-afd5-d3e7264c76bd
0803b0d2-5256-11ea-bd1e-f70a3e0d35a6,08079c6a-5256-11ea-862d-23da662f8211
080738f6-5256-11ea-98f6-dbfb309ce027,0807acaa-5256-11ea-b6ea-03469686a08d
0803d90e-5256-11ea-9ced-ff71fe7aaf48,0807a480-5256-11ea-8b8e-93a44f5378f7
08035772-5256-11ea-a86f-3790f96fa6b7,0807b376-5256-11ea-a6c0-6310dea45c77
0806d762-5256-11ea-b04a-7f092841d031,0807c096-5256-11ea-b6c7-8fbf07174a8c
0805424e-5256-11ea-a480-fbe335be48cd,0807d950-5256-11ea-86c9-93c0bed69050
080226f4-5256-11ea-a1ca-53f0133bfc8a,0807e1e8-5256-11ea-b451-c344793b3bd4
0801ef18-5256-11ea-9498-33c027d876ac,0807e8e6-5256-11ea-8aad-07be98c0c0d5
0805ed02-5256-11ea-bbbd-9fa889adf8c9,0807f3c2-5256-11ea-acd7-df9d7b78e7e3
0804c530-5256-11ea-b2f4-a305b1321929,0807fe26-5256-11ea-9b2b-7f435c50968f
0802b5b0-5256-11ea-bd9f-b7d0591ef853,08080646-5256-11ea-bb3a-eb602c5b42a1
08063f96-5256-11ea-b7f2-7bbfb89fbe0e,08080e52-5256-11ea-8ef1-6726c103fe70
0801ef18-5256-11ea-9498-33c027d876ac,080815be-5256-11ea-b386-5f017a084a10
