RunID,Tick,AllAgents,Active,Inactive
run-2020-2-18-13-55-41.589025974,0,13,13,0
run-2020-2-18-13-55-41.589025974,1,19,17,2
run-2020-2-18-13-55-41.589025974,2,20,12,8
run-2020-2-18-13-55-41.589025974,3,24,14,10
run-2020-2-18-13-55-41.589025974,4,25,11,14
run-2020-2-18-13-55-41.589025974,5,30,16,14
run-2020-2-18-13-55-41.589025974,6,35,19,16
run-2020-2-18-13-55-41.589025974,7,37,20,17
run-2020-2-18-13-55-41.589025974,8,41,20,21
run-2020-2-18-13-55-41.589025974,9,45,21,24
run-2020-2-18-13-55-41.589025974,10,47,19,28
run-2020-2-18-13-55-41.589025974,11,53,23,30
run-2020-2-18-13-55-41.589025974,12,53,22,31
run-2020-2-18-13-55-41.589025974,13,57,24,33
run-2020-2-18-13-55-41.589025974,14,59,25,34
run-2020-2-18-13-55-41.589025974,15,64,26,38
run-2020-2-18-13-55-41.589025974,16,66,25,41
run-2020-2-18-13-55-41.589025974,17,67,25,42
run-2020-2-18-13-55-41.589025974,18,73,29,44
run-2020-2-18-13-55-41.589025974,19,79,34,45
run-2020-2-18-13-55-41.589025974,20,84,38,46
run-2020-2-18-13-55-41.589025974,21,86,35,51
run-2020-2-18-13-55-41.589025974,22,91,35,56
run-2020-2-18-13-55-41.589025974,23,93,35,58
run-2020-2-18-13-55-41.589025974,24,95,34,61
run-2020-2-18-13-55-41.589025974,25,99,36,63
run-2020-2-18-13-55-41.589025974,26,102,35,67
run-2020-2-18-13-55-41.589025974,27,103,35,68
run-2020-2-18-13-55-41.589025974,28,106,37,69
run-2020-2-18-13-55-41.589025974,29,109,35,74
run-2020-2-18-13-55-41.589025974,30,117,40,77
run-2020-2-18-13-55-41.589025974,31,123,45,78
run-2020-2-18-13-55-41.589025974,32,125,42,83
run-2020-2-18-13-55-41.589025974,33,126,39,87
run-2020-2-18-13-55-41.589025974,34,129,40,89
run-2020-2-18-13-55-41.589025974,35,135,45,90
run-2020-2-18-13-55-41.589025974,36,138,46,92
run-2020-2-18-13-55-41.589025974,37,139,47,92
run-2020-2-18-13-55-41.589025974,38,141,47,94
run-2020-2-18-13-55-41.589025974,39,146,50,96
run-2020-2-18-13-55-41.589025974,40,149,49,100
run-2020-2-18-13-55-41.589025974,41,155,52,103
run-2020-2-18-13-55-41.589025974,42,159,52,107
run-2020-2-18-13-55-41.589025974,43,162,53,109
run-2020-2-18-13-55-41.589025974,44,165,55,110
run-2020-2-18-13-55-41.589025974,45,171,57,114
run-2020-2-18-13-55-41.589025974,46,174,57,117
run-2020-2-18-13-55-41.589025974,47,177,58,119
run-2020-2-18-13-55-41.589025974,48,183,61,122
run-2020-2-18-13-55-41.589025974,49,188,63,125
run-2020-2-18-13-55-41.589025974,50,193,63,130
run-2020-2-18-13-55-41.589025974,51,195,60,135
run-2020-2-18-13-55-41.589025974,52,197,57,140
run-2020-2-18-13-55-41.589025974,53,201,58,143
run-2020-2-18-13-55-41.589025974,54,204,57,147
run-2020-2-18-13-55-41.589025974,55,206,57,149
run-2020-2-18-13-55-41.589025974,56,208,57,151
run-2020-2-18-13-55-41.589025974,57,210,57,153
run-2020-2-18-13-55-41.589025974,58,214,60,154
run-2020-2-18-13-55-41.589025974,59,217,60,157
run-2020-2-18-13-55-41.589025974,60,222,61,161
run-2020-2-18-13-55-41.589025974,61,226,62,164
run-2020-2-18-13-55-41.589025974,62,229,62,167
run-2020-2-18-13-55-41.589025974,63,236,66,170
run-2020-2-18-13-55-41.589025974,64,238,63,175
run-2020-2-18-13-55-41.589025974,65,240,60,180
run-2020-2-18-13-55-41.589025974,66,246,60,186
run-2020-2-18-13-55-41.589025974,67,250,63,187
run-2020-2-18-13-55-41.589025974,68,255,63,192
run-2020-2-18-13-55-41.589025974,69,261,66,195
run-2020-2-18-13-55-41.589025974,70,264,61,203
run-2020-2-18-13-55-41.589025974,71,266,59,207
run-2020-2-18-13-55-41.589025974,72,269,60,209
run-2020-2-18-13-55-41.589025974,73,274,64,210
run-2020-2-18-13-55-41.589025974,74,280,63,217
run-2020-2-18-13-55-41.589025974,75,282,61,221
run-2020-2-18-13-55-41.589025974,76,290,59,231
run-2020-2-18-13-55-41.589025974,77,297,61,236
run-2020-2-18-13-55-41.589025974,78,304,63,241
run-2020-2-18-13-55-41.589025974,79,305,58,247
run-2020-2-18-13-55-41.589025974,80,311,56,255
run-2020-2-18-13-55-41.589025974,81,312,54,258
run-2020-2-18-13-55-41.589025974,82,315,50,265
run-2020-2-18-13-55-41.589025974,83,318,50,268
run-2020-2-18-13-55-41.589025974,84,323,50,273
run-2020-2-18-13-55-41.589025974,85,328,53,275
run-2020-2-18-13-55-41.589025974,86,330,52,278
run-2020-2-18-13-55-41.589025974,87,334,54,280
run-2020-2-18-13-55-41.589025974,88,336,51,285
run-2020-2-18-13-55-41.589025974,89,339,51,288
run-2020-2-18-13-55-41.589025974,90,339,45,294
run-2020-2-18-13-55-41.589025974,91,341,44,297
run-2020-2-18-13-55-41.589025974,92,346,47,299
run-2020-2-18-13-55-41.589025974,93,352,50,302
run-2020-2-18-13-55-41.589025974,94,356,51,305
run-2020-2-18-13-55-41.589025974,95,360,52,308
run-2020-2-18-13-55-41.589025974,96,367,52,315
run-2020-2-18-13-55-41.589025974,97,372,51,321
run-2020-2-18-13-55-41.589025974,98,374,50,324
run-2020-2-18-13-55-41.589025974,99,376,47,329
