RunID,Tick,AllAgents,Active,Inactive
run-2020-2-28-10-29-41.798820018,0,10,10,0
run-2020-2-28-10-29-41.798820018,1,14,12,2
run-2020-2-28-10-29-41.798820018,2,16,11,5
run-2020-2-28-10-29-41.798820018,3,17,10,7
run-2020-2-28-10-29-41.798820018,4,22,14,8
run-2020-2-28-10-29-41.798820018,5,22,6,16
run-2020-2-28-10-29-41.798820018,6,22,4,18
run-2020-2-28-10-29-41.798820018,7,25,6,19
run-2020-2-28-10-29-41.798820018,8,31,12,19
run-2020-2-28-10-29-41.798820018,9,34,12,22
run-2020-2-28-10-29-41.798820018,10,42,19,23
run-2020-2-28-10-29-41.798820018,11,43,16,27
run-2020-2-28-10-29-41.798820018,12,48,19,29
run-2020-2-28-10-29-41.798820018,13,55,23,32
run-2020-2-28-10-29-41.798820018,14,62,26,36
run-2020-2-28-10-29-41.798820018,15,66,28,38
run-2020-2-28-10-29-41.798820018,16,73,33,40
run-2020-2-28-10-29-41.798820018,17,80,37,43
run-2020-2-28-10-29-41.798820018,18,84,37,47
run-2020-2-28-10-29-41.798820018,19,90,39,51
run-2020-2-28-10-29-41.798820018,20,94,40,54
run-2020-2-28-10-29-41.798820018,21,100,44,56
run-2020-2-28-10-29-41.798820018,22,102,41,61
run-2020-2-28-10-29-41.798820018,23,103,40,63
run-2020-2-28-10-29-41.798820018,24,105,39,66
run-2020-2-28-10-29-41.798820018,25,108,42,66
run-2020-2-28-10-29-41.798820018,26,111,43,68
run-2020-2-28-10-29-41.798820018,27,116,46,70
run-2020-2-28-10-29-41.798820018,28,121,48,73
run-2020-2-28-10-29-41.798820018,29,125,50,75
run-2020-2-28-10-29-41.798820018,30,133,54,79
run-2020-2-28-10-29-41.798820018,31,134,52,82
run-2020-2-28-10-29-41.798820018,32,139,51,88
run-2020-2-28-10-29-41.798820018,33,143,51,92
run-2020-2-28-10-29-41.798820018,34,149,54,95
run-2020-2-28-10-29-41.798820018,35,154,56,98
run-2020-2-28-10-29-41.798820018,36,160,58,102
run-2020-2-28-10-29-41.798820018,37,164,60,104
run-2020-2-28-10-29-41.798820018,38,165,56,109
run-2020-2-28-10-29-41.798820018,39,171,58,113
run-2020-2-28-10-29-41.798820018,40,173,57,116
run-2020-2-28-10-29-41.798820018,41,179,63,116
run-2020-2-28-10-29-41.798820018,42,186,69,117
run-2020-2-28-10-29-41.798820018,43,187,67,120
run-2020-2-28-10-29-41.798820018,44,195,73,122
run-2020-2-28-10-29-41.798820018,45,197,69,128
run-2020-2-28-10-29-41.798820018,46,202,70,132
run-2020-2-28-10-29-41.798820018,47,209,73,136
run-2020-2-28-10-29-41.798820018,48,212,73,139
run-2020-2-28-10-29-41.798820018,49,213,72,141
run-2020-2-28-10-29-41.798820018,50,217,74,143
run-2020-2-28-10-29-41.798820018,51,220,76,144
run-2020-2-28-10-29-41.798820018,52,227,78,149
run-2020-2-28-10-29-41.798820018,53,230,76,154
run-2020-2-28-10-29-41.798820018,54,232,73,159
run-2020-2-28-10-29-41.798820018,55,237,73,164
run-2020-2-28-10-29-41.798820018,56,238,70,168
run-2020-2-28-10-29-41.798820018,57,239,66,173
run-2020-2-28-10-29-41.798820018,58,241,66,175
run-2020-2-28-10-29-41.798820018,59,247,69,178
run-2020-2-28-10-29-41.798820018,60,248,64,184
run-2020-2-28-10-29-41.798820018,61,252,66,186
run-2020-2-28-10-29-41.798820018,62,252,61,191
run-2020-2-28-10-29-41.798820018,63,254,61,193
run-2020-2-28-10-29-41.798820018,64,257,60,197
run-2020-2-28-10-29-41.798820018,65,261,61,200
run-2020-2-28-10-29-41.798820018,66,267,63,204
run-2020-2-28-10-29-41.798820018,67,274,66,208
run-2020-2-28-10-29-41.798820018,68,281,66,215
run-2020-2-28-10-29-41.798820018,69,282,61,221
run-2020-2-28-10-29-41.798820018,70,286,63,223
run-2020-2-28-10-29-41.798820018,71,293,65,228
run-2020-2-28-10-29-41.798820018,72,301,64,237
run-2020-2-28-10-29-41.798820018,73,304,61,243
run-2020-2-28-10-29-41.798820018,74,311,61,250
run-2020-2-28-10-29-41.798820018,75,313,57,256
run-2020-2-28-10-29-41.798820018,76,318,58,260
run-2020-2-28-10-29-41.798820018,77,324,59,265
run-2020-2-28-10-29-41.798820018,78,328,61,267
run-2020-2-28-10-29-41.798820018,79,329,59,270
run-2020-2-28-10-29-41.798820018,80,332,60,272
run-2020-2-28-10-29-41.798820018,81,334,55,279
run-2020-2-28-10-29-41.798820018,82,337,53,284
run-2020-2-28-10-29-41.798820018,83,344,60,284
run-2020-2-28-10-29-41.798820018,84,351,61,290
run-2020-2-28-10-29-41.798820018,85,358,63,295
run-2020-2-28-10-29-41.798820018,86,362,60,302
run-2020-2-28-10-29-41.798820018,87,364,57,307
run-2020-2-28-10-29-41.798820018,88,365,52,313
run-2020-2-28-10-29-41.798820018,89,371,53,318
run-2020-2-28-10-29-41.798820018,90,378,56,322
run-2020-2-28-10-29-41.798820018,91,382,59,323
run-2020-2-28-10-29-41.798820018,92,386,54,332
run-2020-2-28-10-29-41.798820018,93,391,54,337
run-2020-2-28-10-29-41.798820018,94,394,50,344
run-2020-2-28-10-29-41.798820018,95,399,51,348
run-2020-2-28-10-29-41.798820018,96,402,51,351
run-2020-2-28-10-29-41.798820018,97,404,48,356
run-2020-2-28-10-29-41.798820018,98,410,51,359
run-2020-2-28-10-29-41.798820018,99,413,50,363
