RunID,Agent,Age,Created,Inactive,Resources,Reputation,Ability,Que
run-2020-2-17-15-30-15.879700899,AGENT#668644b0-519a-11ea-beb9-9f5b9a2b3b5a,0,0,0,10,1.0,1.0,0
run-2020-2-17-15-30-15.879700899,AGENT#66865036-519a-11ea-992a-3f86e244fd3d,0,0,0,10,1.0,1.0,0
run-2020-2-17-15-30-15.879700899,AGENT#66864172-519a-11ea-9317-1f29b273792a,1,0,1,10,1.0,1.0,0
run-2020-2-17-15-30-15.879700899,AGENT#668691fe-519a-11ea-8fa3-8795668cc2b9,1,0,1,10,1.0,1.0,0
run-2020-2-17-15-30-15.879700899,AGENT#6686479e-519a-11ea-90d6-ef2a689f20a0,3,0,3,10,1.0,1.0,0
run-2020-2-17-15-30-15.879700899,AGENT#668633ee-519a-11ea-a389-b3c5ca7a1359,4,0,4,10,1.0,1.0,0
run-2020-2-17-15-30-15.879700899,AGENT#66864a78-519a-11ea-9390-ab54ad6c8caa,4,0,4,10,1.0,1.0,0
run-2020-2-17-15-30-15.879700899,AGENT#66a7a0a6-519a-11ea-b945-4316ac6fc56c,3,1,4,10,1.0,1.0,0
run-2020-2-17-15-30-15.879700899,AGENT#66b2c102-519a-11ea-bbd8-6ff02608d070,1,3,4,10,1.0,1.0,0
run-2020-2-17-15-30-15.879700899,AGENT#66a79bf6-519a-11ea-b373-cbc7ccb48cf0,4,1,5,10,1.0,1.0,0
run-2020-2-17-15-30-15.879700899,AGENT#66a79e4e-519a-11ea-9b3a-afb0be10784d,4,1,5,10,1.0,1.0,0
run-2020-2-17-15-30-15.879700899,AGENT#66b2be8c-519a-11ea-bde9-232bcd33f4d6,2,3,5,10,1.0,1.0,0
run-2020-2-17-15-30-15.879700899,AGENT#66b81f4e-519a-11ea-b654-0b4e886e2aac,1,4,5,10,1.0,1.0,0
run-2020-2-17-15-30-15.879700899,AGENT#66bca0c8-519a-11ea-b2fc-1ff2a625b573,2,5,7,10,1.0,1.0,0
run-2020-2-17-15-30-15.879700899,AGENT#66b2c346-519a-11ea-aee6-83c4e3b71b1e,5,3,8,10,1.0,1.0,0
run-2020-2-17-15-30-15.879700899,AGENT#66c233c6-519a-11ea-bb89-fb173aa27a5c,1,7,8,10,1.0,1.0,0
run-2020-2-17-15-30-15.879700899,AGENT#66c23650-519a-11ea-8137-9b23df9e3ad5,1,7,8,10,1.0,1.0,0
run-2020-2-17-15-30-15.879700899,AGENT#66c23af6-519a-11ea-8589-27cf69261770,1,7,8,10,1.0,1.0,0
run-2020-2-17-15-30-15.879700899,AGENT#66c00a24-519a-11ea-a958-6331418615f0,3,6,9,10,1.0,1.0,0
run-2020-2-17-15-30-15.879700899,AGENT#66c238a8-519a-11ea-b3da-33381d78e818,3,7,10,10,1.0,1.0,0
run-2020-2-17-15-30-15.879700899,AGENT#66c3a15c-519a-11ea-8114-03e892399d68,2,8,10,10,1.0,1.0,0
run-2020-2-17-15-30-15.879700899,AGENT#66c39efa-519a-11ea-9efe-3b7daaa7452e,5,8,13,10,1.0,1.0,0
run-2020-2-17-15-30-15.879700899,AGENT#66c86c0a-519a-11ea-be56-4b5cfb2543a7,3,10,13,10,1.0,1.0,0
run-2020-2-17-15-30-15.879700899,AGENT#66d0643c-519a-11ea-9218-a758efab2326,1,13,14,10,1.0,1.0,0
run-2020-2-17-15-30-15.879700899,AGENT#66d068f6-519a-11ea-bc51-3b63f938bf48,1,13,14,10,1.0,1.0,0
run-2020-2-17-15-30-15.879700899,AGENT#66c86eb2-519a-11ea-bf12-ffafd4576bb9,5,10,15,10,1.0,1.0,0
run-2020-2-17-15-30-15.879700899,AGENT#66d05f32-519a-11ea-9985-1f07a32e8308,2,13,15,10,1.0,1.0,0
run-2020-2-17-15-30-15.879700899,AGENT#66d061da-519a-11ea-aa4e-ef339e7856ac,2,13,15,10,1.0,1.0,0
run-2020-2-17-15-30-15.879700899,AGENT#66d06b44-519a-11ea-9919-8372eafda49b,2,13,15,10,1.0,1.0,0
run-2020-2-17-15-30-15.879700899,AGENT#66d37d20-519a-11ea-8c06-d3a3c39639af,2,14,16,10,1.0,1.0,0
run-2020-2-17-15-30-15.879700899,AGENT#66d37fb4-519a-11ea-9b90-1ba01bedf90a,2,14,16,10,1.0,1.0,0
run-2020-2-17-15-30-15.879700899,AGENT#66d6fb9e-519a-11ea-aadb-eb6ed8eee47d,1,15,16,10,1.0,1.0,0
run-2020-2-17-15-30-15.879700899,AGENT#66d6fe3c-519a-11ea-8225-b31b13482db9,1,15,16,10,1.0,1.0,0
run-2020-2-17-15-30-15.879700899,AGENT#66d702f6-519a-11ea-9afc-0b7f83efa458,2,15,17,10,1.0,1.0,0
run-2020-2-17-15-30-15.879700899,AGENT#66d9ff24-519a-11ea-bbd4-43c6074046f1,1,16,17,10,1.0,1.0,0
run-2020-2-17-15-30-15.879700899,AGENT#66da0654-519a-11ea-8866-67e2dda356f5,1,16,17,10,1.0,1.0,0
run-2020-2-17-15-30-15.879700899,AGENT#66d7009e-519a-11ea-997e-874b6edd28e9,3,15,18,10,1.0,1.0,0
run-2020-2-17-15-30-15.879700899,AGENT#66bca488-519a-11ea-88c2-77ed118aa3aa,14,5,19,10,1.0,1.0,0
run-2020-2-17-15-30-15.879700899,AGENT#66da01a4-519a-11ea-bf34-7f730e93ee86,3,16,19,10,1.0,1.0,0
run-2020-2-17-15-30-15.879700899,AGENT#66e095aa-519a-11ea-9e3d-1b75b530c14a,1,18,19,10,1.0,1.0,0
run-2020-2-17-15-30-15.879700899,AGENT#66e09c3a-519a-11ea-b1ef-fbfeec97dec8,1,18,19,10,1.0,1.0,0
run-2020-2-17-15-30-15.879700899,AGENT#66d9fc86-519a-11ea-8e3b-53e570866c1e,4,16,20,10,1.0,1.0,0
run-2020-2-17-15-30-15.879700899,AGENT#66da0898-519a-11ea-ac4a-1f6af3491161,4,16,20,10,1.0,1.0,0
run-2020-2-17-15-30-15.879700899,AGENT#66e098ac-519a-11ea-b5de-5bd2bf8e89c9,2,18,20,10,1.0,1.0,0
run-2020-2-17-15-30-15.879700899,AGENT#66e46ed2-519a-11ea-a8c5-0f046908ee7a,1,19,20,10,1.0,1.0,0
run-2020-2-17-15-30-15.879700899,AGENT#66e47dbe-519a-11ea-ba99-a3a4e9a6d0c8,1,19,20,10,1.0,1.0,0
run-2020-2-17-15-30-15.879700899,AGENT#66e48070-519a-11ea-8de0-27c33e501b77,1,19,20,10,1.0,1.0,0
run-2020-2-17-15-30-15.879700899,AGENT#66e7903a-519a-11ea-a074-4f839b236d4c,1,20,21,10,1.0,1.0,0
run-2020-2-17-15-30-15.879700899,AGENT#66dd3888-519a-11ea-9ade-0b0582496409,5,17,22,10,1.0,1.0,0
run-2020-2-17-15-30-15.879700899,AGENT#66e478d2-519a-11ea-974a-c363a8530f2d,3,19,22,10,1.0,1.0,0
run-2020-2-17-15-30-15.879700899,AGENT#66e47666-519a-11ea-9d7d-abf59eec3d6c,4,19,23,10,1.0,1.0,0
run-2020-2-17-15-30-15.879700899,AGENT#66ed72b6-519a-11ea-8dfa-ff1e13ca626d,1,22,23,10,1.0,1.0,0
run-2020-2-17-15-30-15.879700899,AGENT#66ed7f7c-519a-11ea-bea9-dbf3640274f6,1,22,23,10,1.0,1.0,0
run-2020-2-17-15-30-15.879700899,AGENT#66d06694-519a-11ea-81f4-ef1a188bca75,11,13,24,10,1.0,1.0,0
run-2020-2-17-15-30-15.879700899,AGENT#66e47b20-519a-11ea-9c8a-7334e294a771,5,19,24,10,1.0,1.0,0
run-2020-2-17-15-30-15.879700899,AGENT#66ed7626-519a-11ea-9cfb-632dca2080ad,2,22,24,10,1.0,1.0,0
run-2020-2-17-15-30-15.879700899,AGENT#66f0da78-519a-11ea-adc2-9fe514211221,1,23,24,10,1.0,1.0,0
run-2020-2-17-15-30-15.879700899,AGENT#66e78dd8-519a-11ea-a1ec-d3931c173671,5,20,25,10,1.0,1.0,0
run-2020-2-17-15-30-15.879700899,AGENT#66ed86ca-519a-11ea-9023-c7c72ed5ce9a,3,22,25,10,1.0,1.0,0
run-2020-2-17-15-30-15.879700899,AGENT#66f0dfa0-519a-11ea-9c01-fbde1b29a583,2,23,25,10,1.0,1.0,0
run-2020-2-17-15-30-15.879700899,AGENT#66f3cb98-519a-11ea-9483-ab5cc42e79a9,1,24,25,10,1.0,1.0,0
run-2020-2-17-15-30-15.879700899,AGENT#66ed7c7a-519a-11ea-b7bd-03e8dcfe13a8,4,22,26,10,1.0,1.0,0
run-2020-2-17-15-30-15.879700899,AGENT#66f0e46e-519a-11ea-a80c-0342ba82a9f4,3,23,26,10,1.0,1.0,0
run-2020-2-17-15-30-15.879700899,AGENT#66f3c92c-519a-11ea-92f0-43b3453d7fdd,2,24,26,10,1.0,1.0,0
run-2020-2-17-15-30-15.879700899,AGENT#66f3ce04-519a-11ea-aa75-4b5d66a5ae52,2,24,26,10,1.0,1.0,0
run-2020-2-17-15-30-15.879700899,AGENT#66f6a94e-519a-11ea-ac03-f7a73b46714d,2,25,27,10,1.0,1.0,0
run-2020-2-17-15-30-15.879700899,AGENT#66f6b13c-519a-11ea-a884-db9cf554ba81,2,25,27,10,1.0,1.0,0
run-2020-2-17-15-30-15.879700899,AGENT#66f9f48c-519a-11ea-affa-8fbc66603e5c,1,26,27,10,1.0,1.0,0
run-2020-2-17-15-30-15.879700899,AGENT#66f9f73e-519a-11ea-b78d-9fefb02f63f8,1,26,27,10,1.0,1.0,0
run-2020-2-17-15-30-15.879700899,AGENT#66f0dd20-519a-11ea-8e0e-ff573cee4ec0,5,23,28,10,1.0,1.0,0
run-2020-2-17-15-30-15.879700899,AGENT#66f6b3c6-519a-11ea-b204-87e63ddc6fb9,3,25,28,10,1.0,1.0,0
run-2020-2-17-15-30-15.879700899,AGENT#66fd89b2-519a-11ea-9f72-6f3ac2c8e46a,1,27,28,10,1.0,1.0,0
run-2020-2-17-15-30-15.879700899,AGENT#67006dd0-519a-11ea-acc1-b329fe56cb66,1,28,29,10,1.0,1.0,0
run-2020-2-17-15-30-15.879700899,AGENT#66c64d94-519a-11ea-bd5f-3fb63878b4c9,21,9,30,10,1.0,1.0,0
run-2020-2-17-15-30-15.879700899,AGENT#6703248a-519a-11ea-86ba-7b867ff4cfca,1,29,30,10,1.0,1.0,0
run-2020-2-17-15-30-15.879700899,AGENT#67032c46-519a-11ea-b31e-e35e4047bc24,1,29,30,10,1.0,1.0,0
run-2020-2-17-15-30-15.879700899,AGENT#6706813e-519a-11ea-80be-1f4a2e587601,1,30,31,10,1.0,1.0,0
run-2020-2-17-15-30-15.879700899,AGENT#6706892c-519a-11ea-84bd-d758a7bf1392,1,30,31,10,1.0,1.0,0
run-2020-2-17-15-30-15.879700899,AGENT#66dd35e0-519a-11ea-bd7b-23739f26f110,15,17,32,10,1.0,1.0,0
run-2020-2-17-15-30-15.879700899,AGENT#670683e6-519a-11ea-ad46-6b2c564ed219,2,30,32,10,1.0,1.0,0
run-2020-2-17-15-30-15.879700899,AGENT#670329a8-519a-11ea-b788-07119d1b28dd,4,29,33,10,1.0,1.0,0
run-2020-2-17-15-30-15.879700899,AGENT#67067e46-519a-11ea-9223-9f87024c6a3f,3,30,33,10,1.0,1.0,0
run-2020-2-17-15-30-15.879700899,AGENT#67068684-519a-11ea-a519-134a98338903,3,30,33,10,1.0,1.0,0
run-2020-2-17-15-30-15.879700899,AGENT#670a3b58-519a-11ea-9a62-7fdf426f8d05,2,31,33,10,1.0,1.0,0
run-2020-2-17-15-30-15.879700899,AGENT#6703273c-519a-11ea-81aa-9f763c4c5149,5,29,34,10,1.0,1.0,0
run-2020-2-17-15-30-15.879700899,AGENT#670a38d8-519a-11ea-a5f4-bbc429b6cdab,3,31,34,10,1.0,1.0,0
run-2020-2-17-15-30-15.879700899,AGENT#6710cf04-519a-11ea-b103-33608086e6f7,1,33,34,10,1.0,1.0,0
run-2020-2-17-15-30-15.879700899,AGENT#66fd8ca0-519a-11ea-80f8-3b645f341f7d,8,27,35,10,1.0,1.0,0
run-2020-2-17-15-30-15.879700899,AGENT#6710c752-519a-11ea-97c2-479b3a4d31eb,2,33,35,10,1.0,1.0,0
run-2020-2-17-15-30-15.879700899,AGENT#6710ca04-519a-11ea-96aa-2fdad74f4068,2,33,35,10,1.0,1.0,0
run-2020-2-17-15-30-15.879700899,AGENT#6710cc84-519a-11ea-935d-b7da15625398,2,33,35,10,1.0,1.0,0
run-2020-2-17-15-30-15.879700899,AGENT#671451ec-519a-11ea-a32b-f3965c43b05e,1,34,35,10,1.0,1.0,0
run-2020-2-17-15-30-15.879700899,AGENT#66c65140-519a-11ea-a708-5fe6d55aa701,27,9,36,10,1.0,1.0,0
run-2020-2-17-15-30-15.879700899,AGENT#66e09208-519a-11ea-9b5a-2b26387581ef,18,18,36,10,1.0,1.0,0
run-2020-2-17-15-30-15.879700899,AGENT#67144eea-519a-11ea-a92e-7f3aae39ef5f,2,34,36,10,1.0,1.0,0
run-2020-2-17-15-30-15.879700899,AGENT#67183e56-519a-11ea-940e-0334bced3df8,1,35,36,10,1.0,1.0,0
run-2020-2-17-15-30-15.879700899,AGENT#671b7a3a-519a-11ea-962e-9bdc2ce43fe4,1,36,37,10,1.0,1.0,0
run-2020-2-17-15-30-15.879700899,AGENT#671ea5f2-519a-11ea-9628-1bea82d3d9e4,1,37,38,10,1.0,1.0,0
run-2020-2-17-15-30-15.879700899,AGENT#671840fe-519a-11ea-8305-bbadc63acd81,4,35,39,10,1.0,1.0,0
run-2020-2-17-15-30-15.879700899,AGENT#671b7d1e-519a-11ea-94a9-77b41ac0056d,4,36,40,10,1.0,1.0,0
run-2020-2-17-15-30-15.879700899,AGENT#671ea372-519a-11ea-98b1-63aa8b272af9,3,37,40,10,1.0,1.0,0
run-2020-2-17-15-30-15.879700899,AGENT#672511e4-519a-11ea-b357-478eeff30331,1,39,40,10,1.0,1.0,0
run-2020-2-17-15-30-15.879700899,AGENT#66f3c666-519a-11ea-a70e-ab341f3bdfcd,17,24,41,10,1.0,1.0,0
run-2020-2-17-15-30-15.879700899,AGENT#67250622-519a-11ea-b3b1-5f4548495ded,2,39,41,10,1.0,1.0,0
run-2020-2-17-15-30-15.879700899,AGENT#67250884-519a-11ea-a4cf-7b149ffc36a4,2,39,41,10,1.0,1.0,0
run-2020-2-17-15-30-15.879700899,AGENT#671ea868-519a-11ea-9f04-b33ca9a7e8cb,5,37,42,10,1.0,1.0,0
run-2020-2-17-15-30-15.879700899,AGENT#668637b8-519a-11ea-a108-9b6d8bb80429,43,0,43,10,1.0,1.0,0
run-2020-2-17-15-30-15.879700899,AGENT#6721a9b4-519a-11ea-86b2-938f8f90507e,5,38,43,10,1.0,1.0,0
run-2020-2-17-15-30-15.879700899,AGENT#6721ac34-519a-11ea-80b5-f733bcdacc0e,5,38,43,10,1.0,1.0,0
run-2020-2-17-15-30-15.879700899,AGENT#67250d2a-519a-11ea-9a55-07bdb0fb6c0d,4,39,43,10,1.0,1.0,0
run-2020-2-17-15-30-15.879700899,AGENT#672ddbd0-519a-11ea-8a40-4fb3dff1823f,1,42,43,10,1.0,1.0,0
run-2020-2-17-15-30-15.879700899,AGENT#67250366-519a-11ea-8c31-736978e521da,5,39,44,10,1.0,1.0,0
run-2020-2-17-15-30-15.879700899,AGENT#672ac1d4-519a-11ea-9d0f-779b4fb6e318,3,41,44,10,1.0,1.0,0
run-2020-2-17-15-30-15.879700899,AGENT#66864d66-519a-11ea-b52c-efaff39e8efa,45,0,45,10,1.0,1.0,0
run-2020-2-17-15-30-15.879700899,AGENT#67318bf4-519a-11ea-b930-bf10afa4b696,2,43,45,10,1.0,1.0,0
run-2020-2-17-15-30-15.879700899,AGENT#672dd464-519a-11ea-994e-4fdc5d2fd9ff,4,42,46,10,1.0,1.0,0
run-2020-2-17-15-30-15.879700899,AGENT#672dd964-519a-11ea-9b0b-2fc16d950349,4,42,46,10,1.0,1.0,0
run-2020-2-17-15-30-15.879700899,AGENT#672dde14-519a-11ea-a52b-5b7b8d4287bf,4,42,46,10,1.0,1.0,0
run-2020-2-17-15-30-15.879700899,AGENT#67349fa6-519a-11ea-b9fc-d3682b1e78f2,2,44,46,10,1.0,1.0,0
run-2020-2-17-15-30-15.879700899,AGENT#6734a226-519a-11ea-ac9c-3f38a7b4daa1,2,44,46,10,1.0,1.0,0
run-2020-2-17-15-30-15.879700899,AGENT#66863b28-519a-11ea-a7a5-67c1f9d2310b,47,0,47,10,1.0,1.0,0
run-2020-2-17-15-30-15.879700899,AGENT#66863dee-519a-11ea-8523-e3c4f39df63a,47,0,47,10,1.0,1.0,0
run-2020-2-17-15-30-15.879700899,AGENT#673b7bc8-519a-11ea-8eb0-d7e4f1d9286b,1,46,47,10,1.0,1.0,0
run-2020-2-17-15-30-15.879700899,AGENT#673b7e20-519a-11ea-9cba-83da2b93432e,2,46,48,10,1.0,1.0,0
run-2020-2-17-15-30-15.879700899,AGENT#673f0392-519a-11ea-97e5-af354c24bffe,1,47,48,10,1.0,1.0,0
run-2020-2-17-15-30-15.879700899,AGENT#66c39c8e-519a-11ea-86d8-035f6e908943,41,8,49,10,1.0,1.0,0
run-2020-2-17-15-30-15.879700899,AGENT#672dd702-519a-11ea-a480-cf0707e8a369,7,42,49,10,1.0,1.0,0
run-2020-2-17-15-30-15.879700899,AGENT#6734a4b0-519a-11ea-ad7b-0b8d42334fb5,5,44,49,10,1.0,1.0,0
run-2020-2-17-15-30-15.879700899,AGENT#6738261c-519a-11ea-8b18-879ba00d6d5b,4,45,49,10,1.0,1.0,0
run-2020-2-17-15-30-15.879700899,AGENT#67421a00-519a-11ea-8c7f-6f1c228fe16f,1,48,49,10,1.0,1.0,0
run-2020-2-17-15-30-15.879700899,AGENT#66a79958-519a-11ea-8da8-e73da8aa11ec,49,1,50,10,1.0,1.0,0
run-2020-2-17-15-30-15.879700899,AGENT#670da540-519a-11ea-a0a7-33ab8888b7f2,18,32,50,10,1.0,1.0,0
run-2020-2-17-15-30-15.879700899,AGENT#6738293c-519a-11ea-aea9-6f46d94385da,5,45,50,10,1.0,1.0,0
run-2020-2-17-15-30-15.879700899,AGENT#673f0964-519a-11ea-9d9b-4bf57b8585ba,3,47,50,10,1.0,1.0,0
run-2020-2-17-15-30-15.879700899,AGENT#6744f680-519a-11ea-aa15-8f9461348aae,1,49,50,10,1.0,1.0,0
run-2020-2-17-15-30-15.879700899,AGENT#674501ca-519a-11ea-a9e1-4f405022919d,1,49,50,10,1.0,1.0,0
run-2020-2-17-15-30-15.879700899,AGENT#66c00614-519a-11ea-83ef-47940fcd957d,45,6,51,10,1.0,1.0,0
run-2020-2-17-15-30-15.879700899,AGENT#673f06da-519a-11ea-932f-3b0fdfd51591,4,47,51,10,1.0,1.0,0
run-2020-2-17-15-30-15.879700899,AGENT#673f0bda-519a-11ea-bd86-e7e7ef6da493,4,47,51,10,1.0,1.0,0
run-2020-2-17-15-30-15.879700899,AGENT#6742147e-519a-11ea-8d66-f3a5be094573,3,48,51,10,1.0,1.0,0
run-2020-2-17-15-30-15.879700899,AGENT#6744f8ec-519a-11ea-9ff9-db39457ef98d,3,49,52,10,1.0,1.0,0
run-2020-2-17-15-30-15.879700899,AGENT#674bb434-519a-11ea-ae2b-b7e041d22b46,2,51,53,10,1.0,1.0,0
run-2020-2-17-15-30-15.879700899,AGENT#67484114-519a-11ea-9dc1-db129260edfe,4,50,54,10,1.0,1.0,0
run-2020-2-17-15-30-15.879700899,AGENT#674bb704-519a-11ea-bd8c-3bf517c5a0de,3,51,54,10,1.0,1.0,0
run-2020-2-17-15-30-15.879700899,AGENT#6752330e-519a-11ea-ad5f-ef73fc0da3d0,1,53,54,10,1.0,1.0,0
run-2020-2-17-15-30-15.879700899,AGENT#67523f2a-519a-11ea-af0c-77b8d05f2dec,1,53,54,10,1.0,1.0,0
run-2020-2-17-15-30-15.879700899,AGENT#67524182-519a-11ea-bb0b-63660810a5a9,1,53,54,10,1.0,1.0,0
run-2020-2-17-15-30-15.879700899,AGENT#67524420-519a-11ea-8d62-3f85d453ee8c,1,53,54,10,1.0,1.0,0
run-2020-2-17-15-30-15.879700899,AGENT#67523822-519a-11ea-a0ad-0399491941f8,2,53,55,10,1.0,1.0,0
run-2020-2-17-15-30-15.879700899,AGENT#67523cd2-519a-11ea-af00-fb1fe2570981,2,53,55,10,1.0,1.0,0
run-2020-2-17-15-30-15.879700899,AGENT#6755a16a-519a-11ea-a054-6bc2f2e32676,1,54,55,10,1.0,1.0,0
run-2020-2-17-15-30-15.879700899,AGENT#674f044a-519a-11ea-8b0f-1f62e0acb710,4,52,56,10,1.0,1.0,0
run-2020-2-17-15-30-15.879700899,AGENT#67523a84-519a-11ea-b026-23b339135c85,3,53,56,10,1.0,1.0,0
run-2020-2-17-15-30-15.879700899,AGENT#675a9d28-519a-11ea-8ca5-8304f5057695,1,55,56,10,1.0,1.0,0
run-2020-2-17-15-30-15.879700899,AGENT#675aab7e-519a-11ea-bccf-338841558ba8,1,55,56,10,1.0,1.0,0
run-2020-2-17-15-30-15.879700899,AGENT#6744ffa4-519a-11ea-91cd-d72b02ee5162,8,49,57,10,1.0,1.0,0
run-2020-2-17-15-30-15.879700899,AGENT#675f1e20-519a-11ea-9981-ab1447136e57,1,56,57,10,1.0,1.0,0
run-2020-2-17-15-30-15.879700899,AGENT#66ca8de6-519a-11ea-9624-1f3e42e2598a,47,11,58,10,1.0,1.0,0
run-2020-2-17-15-30-15.879700899,AGENT#66cd392e-519a-11ea-9fd3-abeebf896108,46,12,58,10,1.0,1.0,0
run-2020-2-17-15-30-15.879700899,AGENT#672800c0-519a-11ea-901b-ab4359e1e6cd,18,40,58,10,1.0,1.0,0
run-2020-2-17-15-30-15.879700899,AGENT#67559f08-519a-11ea-b42b-7f5f5eda1379,4,54,58,10,1.0,1.0,0
run-2020-2-17-15-30-15.879700899,AGENT#6755a3e0-519a-11ea-812c-bfdb64fd52ca,4,54,58,10,1.0,1.0,0
run-2020-2-17-15-30-15.879700899,AGENT#6755a62e-519a-11ea-9d46-d33676233a65,4,54,58,10,1.0,1.0,0
run-2020-2-17-15-30-15.879700899,AGENT#6755aaf2-519a-11ea-95b4-b32564a9880c,4,54,58,10,1.0,1.0,0
run-2020-2-17-15-30-15.879700899,AGENT#675f17ea-519a-11ea-a82f-5792a8a793fa,2,56,58,10,1.0,1.0,0
run-2020-2-17-15-30-15.879700899,AGENT#675f1b0a-519a-11ea-baa6-3bf6e45b15af,2,56,58,10,1.0,1.0,0
run-2020-2-17-15-30-15.879700899,AGENT#67631106-519a-11ea-b0dc-d3a8ab3c0c07,1,57,58,10,1.0,1.0,0
run-2020-2-17-15-30-15.879700899,AGENT#6714549e-519a-11ea-bbe3-0ff894276f74,25,34,59,10,1.0,1.0,0
run-2020-2-17-15-30-15.879700899,AGENT#675aa4b2-519a-11ea-8c10-970881185246,4,55,59,10,1.0,1.0,0
run-2020-2-17-15-30-15.879700899,AGENT#675aaeda-519a-11ea-a037-c7591bb0c54a,4,55,59,10,1.0,1.0,0
run-2020-2-17-15-30-15.879700899,AGENT#67673164-519a-11ea-a9a9-7b251ea8218d,1,58,59,10,1.0,1.0,0
run-2020-2-17-15-30-15.879700899,AGENT#6744fd7e-519a-11ea-9aac-376e1a62a4e1,11,49,60,10,1.0,1.0,0
run-2020-2-17-15-30-15.879700899,AGENT#675f14a2-519a-11ea-9309-bfae9370a5a0,4,56,60,10,1.0,1.0,0
run-2020-2-17-15-30-15.879700899,AGENT#67631764-519a-11ea-a69b-53ca3e83e870,3,57,60,10,1.0,1.0,0
run-2020-2-17-15-30-15.879700899,AGENT#676723c2-519a-11ea-ac16-a3d7ea152bea,2,58,60,10,1.0,1.0,0
run-2020-2-17-15-30-15.879700899,AGENT#67672688-519a-11ea-831d-4b230bd96413,2,58,60,10,1.0,1.0,0
run-2020-2-17-15-30-15.879700899,AGENT#6767293a-519a-11ea-8d41-73e55fee5e96,2,58,60,10,1.0,1.0,0
run-2020-2-17-15-30-15.879700899,AGENT#66ca908e-519a-11ea-9ec9-dfae5e200976,50,11,61,10,1.0,1.0,0
run-2020-2-17-15-30-15.879700899,AGENT#676720b6-519a-11ea-bb53-13e17a0f6d05,3,58,61,10,1.0,1.0,0
run-2020-2-17-15-30-15.879700899,AGENT#67672ec6-519a-11ea-94c9-4f34933ae8e6,3,58,61,10,1.0,1.0,0
run-2020-2-17-15-30-15.879700899,AGENT#66da0410-519a-11ea-ac38-47ae33b6d2a9,46,16,62,10,1.0,1.0,0
run-2020-2-17-15-30-15.879700899,AGENT#675f2168-519a-11ea-ab6d-0737ccb32867,7,56,63,10,1.0,1.0,0
run-2020-2-17-15-30-15.879700899,AGENT#677309da-519a-11ea-85e7-e7c0b9544eb1,2,61,63,10,1.0,1.0,0
run-2020-2-17-15-30-15.879700899,AGENT#67768d4e-519a-11ea-b60a-538a5e20a152,1,62,63,10,1.0,1.0,0
run-2020-2-17-15-30-15.879700899,AGENT#66da0ad2-519a-11ea-99b6-67a0d921355a,48,16,64,10,1.0,1.0,0
run-2020-2-17-15-30-15.879700899,AGENT#66dd3ae0-519a-11ea-9659-4bdefd823a69,47,17,64,10,1.0,1.0,0
run-2020-2-17-15-30-15.879700899,AGENT#66e4718e-519a-11ea-a26d-57102943272a,45,19,64,10,1.0,1.0,0
run-2020-2-17-15-30-15.879700899,AGENT#676f6e38-519a-11ea-9a25-9bfd7a8748cb,4,60,64,10,1.0,1.0,0
run-2020-2-17-15-30-15.879700899,AGENT#676f7676-519a-11ea-abd2-c3cdbd0ea009,4,60,64,10,1.0,1.0,0
run-2020-2-17-15-30-15.879700899,AGENT#6773197a-519a-11ea-9974-b7efc2a1fd10,3,61,64,10,1.0,1.0,0
run-2020-2-17-15-30-15.879700899,AGENT#67768f9c-519a-11ea-8119-279d37fec0b8,2,62,64,10,1.0,1.0,0
run-2020-2-17-15-30-15.879700899,AGENT#677a21f2-519a-11ea-b41e-c31662b1ff20,1,63,64,10,1.0,1.0,0
run-2020-2-17-15-30-15.879700899,AGENT#66e78b26-519a-11ea-9f03-9f0d38372622,45,20,65,10,1.0,1.0,0
run-2020-2-17-15-30-15.879700899,AGENT#676f7216-519a-11ea-9243-1b6deb97be30,5,60,65,10,1.0,1.0,0
run-2020-2-17-15-30-15.879700899,AGENT#6773168c-519a-11ea-892b-f7ff82a130cd,4,61,65,10,1.0,1.0,0
run-2020-2-17-15-30-15.879700899,AGENT#677dc1c2-519a-11ea-b841-978ba02a91bc,1,64,65,10,1.0,1.0,0
run-2020-2-17-15-30-15.879700899,AGENT#677dc65e-519a-11ea-ab34-7f1fe5f8b21b,1,64,65,10,1.0,1.0,0
run-2020-2-17-15-30-15.879700899,AGENT#677dc88e-519a-11ea-926a-a77a2759630b,1,64,65,10,1.0,1.0,0
run-2020-2-17-15-30-15.879700899,AGENT#66e473fa-519a-11ea-864d-5b2785cae8d3,47,19,66,10,1.0,1.0,0
run-2020-2-17-15-30-15.879700899,AGENT#677a2454-519a-11ea-8f06-f386eca4e433,3,63,66,10,1.0,1.0,0
run-2020-2-17-15-30-15.879700899,AGENT#677a2b98-519a-11ea-b8b0-8bbf30f36d6b,3,63,66,10,1.0,1.0,0
run-2020-2-17-15-30-15.879700899,AGENT#677dc410-519a-11ea-b817-c3f2778c72aa,2,64,66,10,1.0,1.0,0
run-2020-2-17-15-30-15.879700899,AGENT#67811f34-519a-11ea-be3e-1f199a398363,1,65,66,10,1.0,1.0,0
run-2020-2-17-15-30-15.879700899,AGENT#66e08b5a-519a-11ea-b445-fff77473a37a,49,18,67,10,1.0,1.0,0
run-2020-2-17-15-30-15.879700899,AGENT#677a28fa-519a-11ea-902f-1753cc211a97,4,63,67,10,1.0,1.0,0
run-2020-2-17-15-30-15.879700899,AGENT#677a3066-519a-11ea-888e-631a5dd86ec4,4,63,67,10,1.0,1.0,0
run-2020-2-17-15-30-15.879700899,AGENT#67857430-519a-11ea-bff3-fbad43aefc29,1,66,67,10,1.0,1.0,0
run-2020-2-17-15-30-15.879700899,AGENT#678576b0-519a-11ea-87be-47dadbddbe1e,1,66,67,10,1.0,1.0,0
run-2020-2-17-15-30-15.879700899,AGENT#6755a890-519a-11ea-8b9e-a31c32e9bc5d,14,54,68,10,1.0,1.0,0
run-2020-2-17-15-30-15.879700899,AGENT#677a26b6-519a-11ea-a313-471e96307a03,5,63,68,10,1.0,1.0,0
run-2020-2-17-15-30-15.879700899,AGENT#677dbf60-519a-11ea-ba1f-2b34e3ea4ab8,4,64,68,10,1.0,1.0,0
run-2020-2-17-15-30-15.879700899,AGENT#678121be-519a-11ea-bf79-035d0a4e2f33,3,65,68,10,1.0,1.0,0
run-2020-2-17-15-30-15.879700899,AGENT#66ed83be-519a-11ea-81f1-2f43c243fdf2,47,22,69,10,1.0,1.0,0
run-2020-2-17-15-30-15.879700899,AGENT#66f0e20c-519a-11ea-8e5e-5719e00eb266,46,23,69,10,1.0,1.0,0
run-2020-2-17-15-30-15.879700899,AGENT#67812664-519a-11ea-87cf-5f286dae2f6d,4,65,69,10,1.0,1.0,0
run-2020-2-17-15-30-15.879700899,AGENT#678c6bf0-519a-11ea-8730-53387f5037b1,1,68,69,10,1.0,1.0,0
run-2020-2-17-15-30-15.879700899,AGENT#66ed7950-519a-11ea-b9f4-db6b7f121a0b,48,22,70,10,1.0,1.0,0
run-2020-2-17-15-30-15.879700899,AGENT#66f3d08e-519a-11ea-8fb8-8f1df6bc1bb5,46,24,70,10,1.0,1.0,0
run-2020-2-17-15-30-15.879700899,AGENT#67812416-519a-11ea-af34-d38f5fa5e906,5,65,70,10,1.0,1.0,0
run-2020-2-17-15-30-15.879700899,AGENT#66f9f1bc-519a-11ea-b2a6-a7a2c171f3d2,45,26,71,10,1.0,1.0,0
run-2020-2-17-15-30-15.879700899,AGENT#67250ad2-519a-11ea-920d-8342f23c9b50,32,39,71,10,1.0,1.0,0
run-2020-2-17-15-30-15.879700899,AGENT#678578ea-519a-11ea-a0fb-eb0c78b5d243,5,66,71,10,1.0,1.0,0
run-2020-2-17-15-30-15.879700899,AGENT#67892eae-519a-11ea-baa4-dff5596a6a08,4,67,71,10,1.0,1.0,0
run-2020-2-17-15-30-15.879700899,AGENT#678f8196-519a-11ea-85be-cbf0572b8c67,2,69,71,10,1.0,1.0,0
run-2020-2-17-15-30-15.879700899,AGENT#67930e2e-519a-11ea-b63e-d3908e66fd3a,1,70,71,10,1.0,1.0,0
run-2020-2-17-15-30-15.879700899,AGENT#66f6b63c-519a-11ea-bf9f-1f710fc7959e,47,25,72,10,1.0,1.0,0
run-2020-2-17-15-30-15.879700899,AGENT#675235ac-519a-11ea-a3e4-ab91409e8d2f,19,53,72,10,1.0,1.0,0
run-2020-2-17-15-30-15.879700899,AGENT#678926c0-519a-11ea-b511-8ff2c92808d9,5,67,72,10,1.0,1.0,0
run-2020-2-17-15-30-15.879700899,AGENT#678f8452-519a-11ea-a17e-d72ed52fb290,3,69,72,10,1.0,1.0,0
run-2020-2-17-15-30-15.879700899,AGENT#678f86aa-519a-11ea-a369-f3a243b19814,3,69,72,10,1.0,1.0,0
run-2020-2-17-15-30-15.879700899,AGENT#66f6aea8-519a-11ea-a4e9-d39c65f5cd01,48,25,73,10,1.0,1.0,0
run-2020-2-17-15-30-15.879700899,AGENT#678c70be-519a-11ea-9f5b-d749e9f6225c,5,68,73,10,1.0,1.0,0
run-2020-2-17-15-30-15.879700899,AGENT#679a0f8a-519a-11ea-ba80-e7e4d713e333,1,72,73,10,1.0,1.0,0
run-2020-2-17-15-30-15.879700899,AGENT#66f6ac14-519a-11ea-83ba-67a45174e7de,49,25,74,10,1.0,1.0,0
run-2020-2-17-15-30-15.879700899,AGENT#670a3662-519a-11ea-9b23-4b8572e13702,43,31,74,10,1.0,1.0,0
run-2020-2-17-15-30-15.879700899,AGENT#67930352-519a-11ea-9ec8-bba4f393504e,5,70,75,10,1.0,1.0,0
run-2020-2-17-15-30-15.879700899,AGENT#6796f8b8-519a-11ea-877a-ab1ccfd30753,4,71,75,10,1.0,1.0,0
run-2020-2-17-15-30-15.879700899,AGENT#6796fd04-519a-11ea-bbe9-f36107208849,4,71,75,10,1.0,1.0,0
run-2020-2-17-15-30-15.879700899,AGENT#670a3112-519a-11ea-b03f-d7dca9919a13,45,31,76,10,1.0,1.0,0
run-2020-2-17-15-30-15.879700899,AGENT#67145728-519a-11ea-b0cf-6f33a68d9b8c,42,34,76,10,1.0,1.0,0
run-2020-2-17-15-30-15.879700899,AGENT#679d7c1a-519a-11ea-b6a3-ebd100d264cb,3,73,76,10,1.0,1.0,0
run-2020-2-17-15-30-15.879700899,AGENT#67a0d1b2-519a-11ea-aada-eba5b29d7121,2,74,76,10,1.0,1.0,0
run-2020-2-17-15-30-15.879700899,AGENT#67a0d658-519a-11ea-9e02-9366953b9bc1,2,74,76,10,1.0,1.0,0
run-2020-2-17-15-30-15.879700899,AGENT#67a52500-519a-11ea-bc9e-f33359d9c3eb,1,75,76,10,1.0,1.0,0
run-2020-2-17-15-30-15.879700899,AGENT#67a528de-519a-11ea-9105-df8ff0f7cf4c,1,75,76,10,1.0,1.0,0
run-2020-2-17-15-30-15.879700899,AGENT#670a33c4-519a-11ea-ac74-df401d192905,46,31,77,10,1.0,1.0,0
run-2020-2-17-15-30-15.879700899,AGENT#67a0cf0a-519a-11ea-818d-9b187ffac09f,3,74,77,10,1.0,1.0,0
run-2020-2-17-15-30-15.879700899,AGENT#67a0d888-519a-11ea-b8d5-8b0dbe5f7159,3,74,77,10,1.0,1.0,0
run-2020-2-17-15-30-15.879700899,AGENT#67a53694-519a-11ea-938e-eba1a694a3cf,2,75,77,10,1.0,1.0,0
run-2020-2-17-15-30-15.879700899,AGENT#67a9f9fe-519a-11ea-81c7-67d949bc73d0,1,76,77,10,1.0,1.0,0
run-2020-2-17-15-30-15.879700899,AGENT#679d7422-519a-11ea-95ae-cb343ae353cb,5,73,78,10,1.0,1.0,0
run-2020-2-17-15-30-15.879700899,AGENT#67a53324-519a-11ea-ad6e-3b91c9249499,3,75,78,10,1.0,1.0,0
run-2020-2-17-15-30-15.879700899,AGENT#67ae4c66-519a-11ea-80d3-cfe7687bf7dd,1,77,78,10,1.0,1.0,0
run-2020-2-17-15-30-15.879700899,AGENT#67ae4ffe-519a-11ea-a23c-c7cc2192c7e6,1,77,78,10,1.0,1.0,0
run-2020-2-17-15-30-15.879700899,AGENT#67ae590e-519a-11ea-9024-575e813cd560,1,77,78,10,1.0,1.0,0
run-2020-2-17-15-30-15.879700899,AGENT#67ae61c4-519a-11ea-9235-27e9bfeff34b,1,77,78,10,1.0,1.0,0
run-2020-2-17-15-30-15.879700899,AGENT#6710d3b4-519a-11ea-a57d-7ba16f1446c4,46,33,79,10,1.0,1.0,0
run-2020-2-17-15-30-15.879700899,AGENT#67a52c58-519a-11ea-90df-ab69ee3393ab,4,75,79,10,1.0,1.0,0
run-2020-2-17-15-30-15.879700899,AGENT#67a9fd1e-519a-11ea-ad5f-bbedff8895ad,3,76,79,10,1.0,1.0,0
run-2020-2-17-15-30-15.879700899,AGENT#6710d15c-519a-11ea-a709-3bf3ab0870e6,47,33,80,10,1.0,1.0,0
run-2020-2-17-15-30-15.879700899,AGENT#67a53a68-519a-11ea-9b72-b3dd56f0a94f,5,75,80,10,1.0,1.0,0
run-2020-2-17-15-30-15.879700899,AGENT#67ae5eea-519a-11ea-b7f1-7be1448481c4,3,77,80,10,1.0,1.0,0
run-2020-2-17-15-30-15.879700899,AGENT#67b30396-519a-11ea-8f4c-63ab0ef673e0,2,78,80,10,1.0,1.0,0
run-2020-2-17-15-30-15.879700899,AGENT#67b7a8b0-519a-11ea-9887-c3ddf79cb37b,1,79,80,10,1.0,1.0,0
run-2020-2-17-15-30-15.879700899,AGENT#67b7ab44-519a-11ea-ad4c-8ba06797907d,1,79,80,10,1.0,1.0,0
run-2020-2-17-15-30-15.879700899,AGENT#67a9efc2-519a-11ea-ab87-03689932c325,5,76,81,10,1.0,1.0,0
run-2020-2-17-15-30-15.879700899,AGENT#67b79dd4-519a-11ea-844d-a3210fe94246,2,79,81,10,1.0,1.0,0
run-2020-2-17-15-30-15.879700899,AGENT#67ae5332-519a-11ea-b5ae-d3c9eef548bd,5,77,82,10,1.0,1.0,0
run-2020-2-17-15-30-15.879700899,AGENT#67ae5bf2-519a-11ea-acf8-5fc3cd8dfb05,5,77,82,10,1.0,1.0,0
run-2020-2-17-15-30-15.879700899,AGENT#67ae649e-519a-11ea-aa97-038a16a7150b,5,77,82,10,1.0,1.0,0
run-2020-2-17-15-30-15.879700899,AGENT#67b7a608-519a-11ea-9f2b-1b50a2404fe1,3,79,82,10,1.0,1.0,0
run-2020-2-17-15-30-15.879700899,AGENT#67a52fbe-519a-11ea-9ff4-372b303080dd,8,75,83,10,1.0,1.0,0
run-2020-2-17-15-30-15.879700899,AGENT#67b7a0c2-519a-11ea-a31e-9b506d8f8e3e,4,79,83,10,1.0,1.0,0
run-2020-2-17-15-30-15.879700899,AGENT#67bb7300-519a-11ea-83be-cfb931fb8854,3,80,83,10,1.0,1.0,0
run-2020-2-17-15-30-15.879700899,AGENT#67bef688-519a-11ea-a882-57abb06dfadb,2,81,83,10,1.0,1.0,0
run-2020-2-17-15-30-15.879700899,AGENT#67bb75f8-519a-11ea-a178-17fa39a3d156,4,80,84,10,1.0,1.0,0
run-2020-2-17-15-30-15.879700899,AGENT#67bef0d4-519a-11ea-ba3f-3fa79b7711ff,3,81,84,10,1.0,1.0,0
run-2020-2-17-15-30-15.879700899,AGENT#67c2ab8e-519a-11ea-92cc-0f3db36004d5,2,82,84,10,1.0,1.0,0
run-2020-2-17-15-30-15.879700899,AGENT#67c6b698-519a-11ea-9b05-037ef94f3a68,1,83,84,10,1.0,1.0,0
run-2020-2-17-15-30-15.879700899,AGENT#67250f96-519a-11ea-93a3-cb3db9ef2cf2,47,39,86,10,1.0,1.0,0
run-2020-2-17-15-30-15.879700899,AGENT#672803a4-519a-11ea-ad41-8bbb0a063a0e,46,40,86,10,1.0,1.0,0
run-2020-2-17-15-30-15.879700899,AGENT#67c6be36-519a-11ea-a012-7b489254eebd,3,83,86,10,1.0,1.0,0
run-2020-2-17-15-30-15.879700899,AGENT#67cd535e-519a-11ea-bcc1-57de89a2ec0d,1,85,86,10,1.0,1.0,0
run-2020-2-17-15-30-15.879700899,AGENT#67cd58fe-519a-11ea-92a1-f7602a61df87,1,85,86,10,1.0,1.0,0
run-2020-2-17-15-30-15.879700899,AGENT#671ea0b6-519a-11ea-99cb-bb782520c820,50,37,87,10,1.0,1.0,0
run-2020-2-17-15-30-15.879700899,AGENT#67ca1dce-519a-11ea-9abd-e3ec460b40cd,3,84,87,10,1.0,1.0,0
run-2020-2-17-15-30-15.879700899,AGENT#67cd55ca-519a-11ea-a560-0372feae4fee,2,85,87,10,1.0,1.0,0
run-2020-2-17-15-30-15.879700899,AGENT#672de062-519a-11ea-ad8b-a7cf814e15a6,46,42,88,10,1.0,1.0,0
run-2020-2-17-15-30-15.879700899,AGENT#67c6b940-519a-11ea-9c6a-9f9281e344d3,5,83,88,10,1.0,1.0,0
run-2020-2-17-15-30-15.879700899,AGENT#67d0fc2a-519a-11ea-9d1a-6356daaeb36a,3,86,89,10,1.0,1.0,0
run-2020-2-17-15-30-15.879700899,AGENT#67d10314-519a-11ea-8582-f379dbb8b39b,3,86,89,10,1.0,1.0,0
run-2020-2-17-15-30-15.879700899,AGENT#67d5163e-519a-11ea-b209-471313ae54f1,2,87,89,10,1.0,1.0,0
run-2020-2-17-15-30-15.879700899,AGENT#67d8a92a-519a-11ea-84e8-572430607368,1,88,89,10,1.0,1.0,0
run-2020-2-17-15-30-15.879700899,AGENT#67382194-519a-11ea-9702-4716f9b22181,45,45,90,10,1.0,1.0,0
run-2020-2-17-15-30-15.879700899,AGENT#67d10562-519a-11ea-894f-2f5b7c229441,4,86,90,10,1.0,1.0,0
run-2020-2-17-15-30-15.879700899,AGENT#67dc0e8a-519a-11ea-84ce-637c86c248f3,1,89,90,10,1.0,1.0,0
run-2020-2-17-15-30-15.879700899,AGENT#679d83a4-519a-11ea-ae1e-b36bd580abc0,18,73,91,10,1.0,1.0,0
run-2020-2-17-15-30-15.879700899,AGENT#67dc098a-519a-11ea-864d-fbdfe0ef1ae9,2,89,91,10,1.0,1.0,0
run-2020-2-17-15-30-15.879700899,AGENT#67dfe384-519a-11ea-bf5c-8b47930b5b1f,1,90,91,10,1.0,1.0,0
run-2020-2-17-15-30-15.879700899,AGENT#673b76d2-519a-11ea-955a-53080362639b,46,46,92,10,1.0,1.0,0
run-2020-2-17-15-30-15.879700899,AGENT#677dbcea-519a-11ea-ba79-73e2e1c36c08,28,64,92,10,1.0,1.0,0
run-2020-2-17-15-30-15.879700899,AGENT#67d5190e-519a-11ea-8d79-db170fcc6244,5,87,92,10,1.0,1.0,0
run-2020-2-17-15-30-15.879700899,AGENT#67dfe0aa-519a-11ea-91c0-978c85e7b363,2,90,92,10,1.0,1.0,0
run-2020-2-17-15-30-15.879700899,AGENT#673b7970-519a-11ea-8ba1-67fe43d64f9b,47,46,93,10,1.0,1.0,0
run-2020-2-17-15-30-15.879700899,AGENT#67421776-519a-11ea-b2ba-dba0debd8fc2,45,48,93,10,1.0,1.0,0
run-2020-2-17-15-30-15.879700899,AGENT#67d8abdc-519a-11ea-a582-5bb6fa1f64a8,5,88,93,10,1.0,1.0,0
run-2020-2-17-15-30-15.879700899,AGENT#67dc159c-519a-11ea-97d7-532f9c1ce930,4,89,93,10,1.0,1.0,0
run-2020-2-17-15-30-15.879700899,AGENT#67e4110c-519a-11ea-9101-7bec1de5ac19,2,91,93,10,1.0,1.0,0
run-2020-2-17-15-30-15.879700899,AGENT#67e7b780-519a-11ea-87ca-2b15a0ae7f15,1,92,93,10,1.0,1.0,0
run-2020-2-17-15-30-15.879700899,AGENT#67bef3c2-519a-11ea-bb2d-73234eb97e53,13,81,94,10,1.0,1.0,0
run-2020-2-17-15-30-15.879700899,AGENT#67e40c0c-519a-11ea-9665-5fba55c3b053,3,91,94,10,1.0,1.0,0
run-2020-2-17-15-30-15.879700899,AGENT#67e41350-519a-11ea-b841-9772234496de,3,91,94,10,1.0,1.0,0
run-2020-2-17-15-30-15.879700899,AGENT#67382c0c-519a-11ea-ab69-27b30f2cafff,50,45,95,10,1.0,1.0,0
run-2020-2-17-15-30-15.879700899,AGENT#6744fb1c-519a-11ea-b84c-e308f776fec9,46,49,95,10,1.0,1.0,0
run-2020-2-17-15-30-15.879700899,AGENT#67484380-519a-11ea-8bc9-7300b01c71e4,45,50,95,10,1.0,1.0,0
run-2020-2-17-15-30-15.879700899,AGENT#67768aa6-519a-11ea-ba55-9fe18bcb2bec,33,62,95,10,1.0,1.0,0
run-2020-2-17-15-30-15.879700899,AGENT#678c6e66-519a-11ea-8618-4b375ffce62d,27,68,95,10,1.0,1.0,0
run-2020-2-17-15-30-15.879700899,AGENT#67e7b0a0-519a-11ea-b18f-6b69f313f344,3,92,95,10,1.0,1.0,0
run-2020-2-17-15-30-15.879700899,AGENT#67e7b2f8-519a-11ea-bf4b-a7a0187ced00,4,92,96,10,1.0,1.0,0
run-2020-2-17-15-30-15.879700899,AGENT#67eeb9ae-519a-11ea-9157-838926647e8f,2,94,96,10,1.0,1.0,0
run-2020-2-17-15-30-15.879700899,AGENT#67f2b5b8-519a-11ea-a0dc-4f8cd0dd7542,1,95,96,10,1.0,1.0,0
run-2020-2-17-15-30-15.879700899,AGENT#67483e4e-519a-11ea-8f5b-dbd45760aef5,47,50,97,10,1.0,1.0,0
run-2020-2-17-15-30-15.879700899,AGENT#679d812e-519a-11ea-a21f-6bf322a5a411,24,73,97,10,1.0,1.0,0
run-2020-2-17-15-30-15.879700899,AGENT#677a2dd2-519a-11ea-b5a1-836714b51fde,35,63,98,10,1.0,1.0,0
run-2020-2-17-15-30-15.879700899,AGENT#67f62e3c-519a-11ea-a9ea-472eb1f3a88e,2,96,98,10,1.0,1.0,0
run-2020-2-17-15-30-15.879700899,AGENT#67f98fb4-519a-11ea-a13d-f7b6a655c3a9,1,97,98,10,1.0,1.0,0
run-2020-2-17-15-30-15.879700899,AGENT#67522ef4-519a-11ea-83c6-6f45172d70d3,46,53,99,10,1.0,1.0,0
run-2020-2-17-15-30-15.879700899,AGENT#67559c2e-519a-11ea-9efe-7f50e51303c1,45,54,99,10,1.0,1.0,0
run-2020-2-17-15-30-15.879700899,AGENT#67f2b072-519a-11ea-ba0d-27a0ac22e56f,4,95,99,10,1.0,1.0,0
run-2020-2-17-15-30-15.879700899,AGENT#67fd8f6a-519a-11ea-aa6d-93847f954f42,1,98,99,10,1.0,1.0,0
