RunID,Agent,Age,Created,Inactive,Resources,Reputation,Ability,Que
run-2020-2-18-11-34-45.279551982,AGENT#a9973aa4-5242-11ea-b4da-73c9cdb820dc,0,0,0,10,1.0,1.0,0
run-2020-2-18-11-34-45.279551982,AGENT#a9973fa4-5242-11ea-8bf6-73014008bbdf,1,0,1,10,1.0,1.0,0
run-2020-2-18-11-34-45.279551982,AGENT#a9978c3e-5242-11ea-908f-df9271f859b0,1,0,1,10,1.0,1.0,0
run-2020-2-18-11-34-45.279551982,AGENT#a99737f2-5242-11ea-bab1-8743326a1ef0,2,0,2,10,1.0,1.0,0
run-2020-2-18-11-34-45.279551982,AGENT#a997471a-5242-11ea-bb4c-730ae5c2e1a1,2,0,2,10,1.0,1.0,0
run-2020-2-18-11-34-45.279551982,AGENT#a99789aa-5242-11ea-b2b2-dfec6342cc18,2,0,2,10,1.0,1.0,0
run-2020-2-18-11-34-45.279551982,AGENT#a9978f54-5242-11ea-90f5-eb374d6ddbde,2,0,2,10,1.0,1.0,0
run-2020-2-18-11-34-45.279551982,AGENT#a9973d24-5242-11ea-ac03-ef7e88be12e6,3,0,3,10,1.0,1.0,0
run-2020-2-18-11-34-45.279551982,AGENT#a997870c-5242-11ea-b2f7-773787a5d3a0,3,0,3,10,1.0,1.0,0
run-2020-2-18-11-34-45.279551982,AGENT#a999acf8-5242-11ea-a2e5-5b3661b3e818,2,1,3,10,1.0,1.0,0
run-2020-2-18-11-34-45.279551982,AGENT#a999b270-5242-11ea-98f0-bf14e24f17d1,2,1,3,10,1.0,1.0,0
run-2020-2-18-11-34-45.279551982,AGENT#a99afca2-5242-11ea-8c0d-f78ceb778581,1,2,3,10,1.0,1.0,0
run-2020-2-18-11-34-45.279551982,AGENT#a99734e6-5242-11ea-b0ee-0f0864fe3d33,4,0,4,10,1.0,1.0,0
run-2020-2-18-11-34-45.279551982,AGENT#a99744a4-5242-11ea-8a53-b30b84193bd0,4,0,4,10,1.0,1.0,0
run-2020-2-18-11-34-45.279551982,AGENT#a99aff68-5242-11ea-9611-b39cd47695ed,2,2,4,10,1.0,1.0,0
run-2020-2-18-11-34-45.279551982,AGENT#a99b01f2-5242-11ea-9317-03d2c47ffa1c,2,2,4,10,1.0,1.0,0
run-2020-2-18-11-34-45.279551982,AGENT#a99bdcbc-5242-11ea-bd4e-5bde25ce8e79,1,3,4,10,1.0,1.0,0
run-2020-2-18-11-34-45.279551982,AGENT#a99bdf6e-5242-11ea-a1f7-939510b03caa,1,3,4,10,1.0,1.0,0
run-2020-2-18-11-34-45.279551982,AGENT#a9974c10-5242-11ea-850d-6f1b94eda462,5,0,5,10,1.0,1.0,0
run-2020-2-18-11-34-45.279551982,AGENT#a99791fc-5242-11ea-90c9-bf074f4e6535,5,0,5,10,1.0,1.0,0
run-2020-2-18-11-34-45.279551982,AGENT#a999afb4-5242-11ea-b643-df8b07a37877,4,1,5,10,1.0,1.0,0
run-2020-2-18-11-34-45.279551982,AGENT#a99c580e-5242-11ea-b37e-276dbb79dc2b,2,4,6,10,1.0,1.0,0
run-2020-2-18-11-34-45.279551982,AGENT#a99be4d2-5242-11ea-b1df-078b30ecdc7b,4,3,7,10,1.0,1.0,0
run-2020-2-18-11-34-45.279551982,AGENT#a99bd53c-5242-11ea-9259-2be5c61a4de8,5,3,8,10,1.0,1.0,0
run-2020-2-18-11-34-45.279551982,AGENT#a99be23e-5242-11ea-9d5e-2b37f7c7a1ea,5,3,8,10,1.0,1.0,0
run-2020-2-18-11-34-45.279551982,AGENT#a99d4084-5242-11ea-81c6-e7425c8c85ac,1,7,8,10,1.0,1.0,0
run-2020-2-18-11-34-45.279551982,AGENT#a99ca35e-5242-11ea-982c-cf52e9923463,4,5,9,10,1.0,1.0,0
run-2020-2-18-11-34-45.279551982,AGENT#a99ca656-5242-11ea-9dee-bf1cab787e74,4,5,9,10,1.0,1.0,0
run-2020-2-18-11-34-45.279551982,AGENT#a99ce8d2-5242-11ea-a673-af7682f370a9,4,6,10,10,1.0,1.0,0
run-2020-2-18-11-34-45.279551982,AGENT#a99dccb6-5242-11ea-8f7b-f7b17242a573,1,9,10,10,1.0,1.0,0
run-2020-2-18-11-34-45.279551982,AGENT#a99dd440-5242-11ea-a2d0-939729544607,1,9,10,10,1.0,1.0,0
run-2020-2-18-11-34-45.279551982,AGENT#a99dd6b6-5242-11ea-85f4-ab1ae59c1c39,1,9,10,10,1.0,1.0,0
run-2020-2-18-11-34-45.279551982,AGENT#a99cebb6-5242-11ea-93d2-8b3ea2d4ffa4,5,6,11,10,1.0,1.0,0
run-2020-2-18-11-34-45.279551982,AGENT#a99d894a-5242-11ea-92cc-b3a0411c8495,3,8,11,10,1.0,1.0,0
run-2020-2-18-11-34-45.279551982,AGENT#a99d388c-5242-11ea-8cbb-279e3ae2186b,5,7,12,10,1.0,1.0,0
run-2020-2-18-11-34-45.279551982,AGENT#a99dca04-5242-11ea-b299-6b1c941b0c05,3,9,12,10,1.0,1.0,0
run-2020-2-18-11-34-45.279551982,AGENT#a99e1d42-5242-11ea-8ab8-afe68fd4922a,2,10,12,10,1.0,1.0,0
run-2020-2-18-11-34-45.279551982,AGENT#a99e2544-5242-11ea-84f9-5318132ab113,2,10,12,10,1.0,1.0,0
run-2020-2-18-11-34-45.279551982,AGENT#a99e7f58-5242-11ea-bf34-33608769cde4,1,11,12,10,1.0,1.0,0
run-2020-2-18-11-34-45.279551982,AGENT#a99d8698-5242-11ea-b48d-070c4c1c05d7,5,8,13,10,1.0,1.0,0
run-2020-2-18-11-34-45.279551982,AGENT#a99d8c56-5242-11ea-8c4f-e766d185ac27,5,8,13,10,1.0,1.0,0
run-2020-2-18-11-34-45.279551982,AGENT#a99e1a5e-5242-11ea-8ddf-838d7198d6ad,3,10,13,10,1.0,1.0,0
run-2020-2-18-11-34-45.279551982,AGENT#a99ed516-5242-11ea-b612-871c5b8126b0,2,12,14,10,1.0,1.0,0
run-2020-2-18-11-34-45.279551982,AGENT#a99e825a-5242-11ea-96ff-5b915cfb3e7c,4,11,15,10,1.0,1.0,0
run-2020-2-18-11-34-45.279551982,AGENT#a99ed28c-5242-11ea-94f4-4faa9b32ebb9,3,12,15,10,1.0,1.0,0
run-2020-2-18-11-34-45.279551982,AGENT#a99f65da-5242-11ea-ae0c-13bdf07de192,1,14,15,10,1.0,1.0,0
run-2020-2-18-11-34-45.279551982,AGENT#a99f1db4-5242-11ea-94e6-a78cd38b93c7,3,13,16,10,1.0,1.0,0
run-2020-2-18-11-34-45.279551982,AGENT#a99f2052-5242-11ea-887e-1f2249b7e913,3,13,16,10,1.0,1.0,0
run-2020-2-18-11-34-45.279551982,AGENT#a99f6b2a-5242-11ea-88d0-a3527ecfed9b,2,14,16,10,1.0,1.0,0
run-2020-2-18-11-34-45.279551982,AGENT#a99fbf76-5242-11ea-9193-974da9fce5fa,1,15,16,10,1.0,1.0,0
run-2020-2-18-11-34-45.279551982,AGENT#a99f68be-5242-11ea-96ed-a740b219a1a3,4,14,18,10,1.0,1.0,0
run-2020-2-18-11-34-45.279551982,AGENT#a9a0213c-5242-11ea-93ea-9f893c1a2750,2,16,18,10,1.0,1.0,0
run-2020-2-18-11-34-45.279551982,AGENT#a9a02402-5242-11ea-b1e0-7fa468b380c6,2,16,18,10,1.0,1.0,0
run-2020-2-18-11-34-45.279551982,AGENT#a9a02678-5242-11ea-8d42-efe04231d89f,2,16,18,10,1.0,1.0,0
run-2020-2-18-11-34-45.279551982,AGENT#a99f6dbe-5242-11ea-a60f-27348c113e88,5,14,19,10,1.0,1.0,0
run-2020-2-18-11-34-45.279551982,AGENT#a9a0cb5a-5242-11ea-aeab-47946086fde5,1,18,19,10,1.0,1.0,0
run-2020-2-18-11-34-45.279551982,AGENT#a9a11d8a-5242-11ea-81f2-8b4119768151,1,19,20,10,1.0,1.0,0
run-2020-2-18-11-34-45.279551982,AGENT#a9a11830-5242-11ea-abcc-1fbe1f2f01c4,2,19,21,10,1.0,1.0,0
run-2020-2-18-11-34-45.279551982,AGENT#a9a16fce-5242-11ea-a5d5-37fb2f218709,1,20,21,10,1.0,1.0,0
run-2020-2-18-11-34-45.279551982,AGENT#a9a1721c-5242-11ea-84f7-937dc03baf20,1,20,21,10,1.0,1.0,0
run-2020-2-18-11-34-45.279551982,AGENT#a9a16b14-5242-11ea-bf3e-a7a2e4aa698d,2,20,22,10,1.0,1.0,0
run-2020-2-18-11-34-45.279551982,AGENT#a9a1c884-5242-11ea-927d-574d9381e564,1,21,22,10,1.0,1.0,0
run-2020-2-18-11-34-45.279551982,AGENT#a99fc7b4-5242-11ea-9da9-6b03143c5900,8,15,23,10,1.0,1.0,0
run-2020-2-18-11-34-45.279551982,AGENT#a9a16646-5242-11ea-973f-9fa5fb2ca54f,3,20,23,10,1.0,1.0,0
run-2020-2-18-11-34-45.279551982,AGENT#a9a168bc-5242-11ea-9f2e-df01d03cc68f,3,20,23,10,1.0,1.0,0
run-2020-2-18-11-34-45.279551982,AGENT#a9a16d8a-5242-11ea-854d-9b84d8bccc0e,3,20,23,10,1.0,1.0,0
run-2020-2-18-11-34-45.279551982,AGENT#a9a22216-5242-11ea-b092-ff1bab378e0a,1,22,23,10,1.0,1.0,0
run-2020-2-18-11-34-45.279551982,AGENT#a9a22b44-5242-11ea-bc7a-636a50cd7cb9,1,22,23,10,1.0,1.0,0
run-2020-2-18-11-34-45.279551982,AGENT#a9a22dba-5242-11ea-aa72-efed39122634,1,22,23,10,1.0,1.0,0
run-2020-2-18-11-34-45.279551982,AGENT#a9a28d6e-5242-11ea-90aa-a345b17cd486,1,23,24,10,1.0,1.0,0
run-2020-2-18-11-34-45.279551982,AGENT#a9a1c5dc-5242-11ea-be13-33fca07f3487,4,21,25,10,1.0,1.0,0
run-2020-2-18-11-34-45.279551982,AGENT#a9a294da-5242-11ea-a226-07b300f82e31,2,23,25,10,1.0,1.0,0
run-2020-2-18-11-34-45.279551982,AGENT#a9a307c6-5242-11ea-82a6-d3c9a3fb5459,1,24,25,10,1.0,1.0,0
run-2020-2-18-11-34-45.279551982,AGENT#a9a30528-5242-11ea-bba4-4f3ffa328be9,2,24,26,10,1.0,1.0,0
run-2020-2-18-11-34-45.279551982,AGENT#a9a36874-5242-11ea-8a1b-1f82ba2eb7a6,1,25,26,10,1.0,1.0,0
run-2020-2-18-11-34-45.279551982,AGENT#a9a36dba-5242-11ea-9299-8385e6a2fdef,1,25,26,10,1.0,1.0,0
run-2020-2-18-11-34-45.279551982,AGENT#a9a28af8-5242-11ea-a75a-0beb8d4d1d3e,4,23,27,10,1.0,1.0,0
run-2020-2-18-11-34-45.279551982,AGENT#a9a36b4e-5242-11ea-971f-a77fc9520b75,2,25,27,10,1.0,1.0,0
run-2020-2-18-11-34-45.279551982,AGENT#a9a3cb48-5242-11ea-bdb0-ab4b55d615ac,1,26,27,10,1.0,1.0,0
run-2020-2-18-11-34-45.279551982,AGENT#a9a3d052-5242-11ea-806d-27f74b5fb1ab,1,26,27,10,1.0,1.0,0
run-2020-2-18-11-34-45.279551982,AGENT#a9a2883c-5242-11ea-a5ff-53f39f7c6c97,5,23,28,10,1.0,1.0,0
run-2020-2-18-11-34-45.279551982,AGENT#a9a436fa-5242-11ea-bf9c-3ff5f2d0ae1e,1,27,28,10,1.0,1.0,0
run-2020-2-18-11-34-45.279551982,AGENT#a9a3d520-5242-11ea-b547-2faa38ad2672,3,26,29,10,1.0,1.0,0
run-2020-2-18-11-34-45.279551982,AGENT#a9a4a75c-5242-11ea-804a-7b051deb51de,1,28,29,10,1.0,1.0,0
run-2020-2-18-11-34-45.279551982,AGENT#a9a4aa36-5242-11ea-a9d9-dfa49312b2ed,1,28,29,10,1.0,1.0,0
run-2020-2-18-11-34-45.279551982,AGENT#a9a3cde6-5242-11ea-88f7-375feb4a29d1,4,26,30,10,1.0,1.0,0
run-2020-2-18-11-34-45.279551982,AGENT#a9a42fd4-5242-11ea-af2f-aba870c054dd,3,27,30,10,1.0,1.0,0
run-2020-2-18-11-34-45.279551982,AGENT#a9a533a2-5242-11ea-8e50-f33978dc8f29,1,29,30,10,1.0,1.0,0
run-2020-2-18-11-34-45.279551982,AGENT#a997421a-5242-11ea-8214-bf8662e6ed6f,31,0,31,10,1.0,1.0,0
run-2020-2-18-11-34-45.279551982,AGENT#a9a5a36e-5242-11ea-ae37-23aa6bacfd5e,1,30,31,10,1.0,1.0,0
run-2020-2-18-11-34-45.279551982,AGENT#a9a5ab34-5242-11ea-b9f5-3ba1c90e69e7,1,30,31,10,1.0,1.0,0
run-2020-2-18-11-34-45.279551982,AGENT#a9a43970-5242-11ea-88a3-db42b10cd894,5,27,32,10,1.0,1.0,0
run-2020-2-18-11-34-45.279551982,AGENT#a9a5a652-5242-11ea-bc0e-53ef3254d9a1,2,30,32,10,1.0,1.0,0
run-2020-2-18-11-34-45.279551982,AGENT#a9a0ce02-5242-11ea-95ce-634ddb9082d8,15,18,33,10,1.0,1.0,0
run-2020-2-18-11-34-45.279551982,AGENT#a9a5ada0-5242-11ea-966c-d3213bba1465,3,30,33,10,1.0,1.0,0
run-2020-2-18-11-34-45.279551982,AGENT#a9a52c4a-5242-11ea-8917-df2f3927901b,5,29,34,10,1.0,1.0,0
run-2020-2-18-11-34-45.279551982,AGENT#a9a5a8b4-5242-11ea-bccd-3ff3c87e3e87,4,30,34,10,1.0,1.0,0
run-2020-2-18-11-34-45.279551982,AGENT#a9a67bc2-5242-11ea-8dc9-af7f51aec54f,2,32,34,10,1.0,1.0,0
run-2020-2-18-11-34-45.279551982,AGENT#a9a6809a-5242-11ea-b3e2-a74764b9661c,2,32,34,10,1.0,1.0,0
run-2020-2-18-11-34-45.279551982,AGENT#a9a67e4c-5242-11ea-bc2d-5384035fdb29,3,32,35,10,1.0,1.0,0
run-2020-2-18-11-34-45.279551982,AGENT#a9a70010-5242-11ea-9934-53d74f61d953,2,33,35,10,1.0,1.0,0
run-2020-2-18-11-34-45.279551982,AGENT#a9a7a6b4-5242-11ea-8048-3f47575ebfee,1,34,35,10,1.0,1.0,0
run-2020-2-18-11-34-45.279551982,AGENT#a9a7034e-5242-11ea-b04c-c748d7949941,3,33,36,10,1.0,1.0,0
run-2020-2-18-11-34-45.279551982,AGENT#a9a8262a-5242-11ea-b36d-6f9098841173,1,35,36,10,1.0,1.0,0
run-2020-2-18-11-34-45.279551982,AGENT#a9a8a488-5242-11ea-bd46-6f80069b01a3,1,36,37,10,1.0,1.0,0
run-2020-2-18-11-34-45.279551982,AGENT#a9a8ac6c-5242-11ea-89a4-478cb544f270,1,36,37,10,1.0,1.0,0
run-2020-2-18-11-34-45.279551982,AGENT#a9a8aec4-5242-11ea-8e5a-b758dd5f92ce,3,36,39,10,1.0,1.0,0
run-2020-2-18-11-34-45.279551982,AGENT#a9a925f2-5242-11ea-ace4-cf78b6fa0179,2,37,39,10,1.0,1.0,0
run-2020-2-18-11-34-45.279551982,AGENT#a9a99f1e-5242-11ea-879a-3766481e7d5a,1,38,39,10,1.0,1.0,0
run-2020-2-18-11-34-45.279551982,AGENT#a9a8a9d8-5242-11ea-8efb-d3eb6aec438f,4,36,40,10,1.0,1.0,0
run-2020-2-18-11-34-45.279551982,AGENT#a9a9a220-5242-11ea-a2c0-075fdd26fc56,2,38,40,10,1.0,1.0,0
run-2020-2-18-11-34-45.279551982,AGENT#a9aa42de-5242-11ea-9241-0bc87171ffaf,1,39,40,10,1.0,1.0,0
run-2020-2-18-11-34-45.279551982,AGENT#a9a9a7a2-5242-11ea-b0c3-0b1623ee518d,3,38,41,10,1.0,1.0,0
run-2020-2-18-11-34-45.279551982,AGENT#a9aacf60-5242-11ea-b961-434ec7d77d6d,2,40,42,10,1.0,1.0,0
run-2020-2-18-11-34-45.279551982,AGENT#a9ab58d6-5242-11ea-8c67-030279a04101,1,41,42,10,1.0,1.0,0
run-2020-2-18-11-34-45.279551982,AGENT#a9ab5dcc-5242-11ea-8b13-5b9e1851eed2,1,41,42,10,1.0,1.0,0
run-2020-2-18-11-34-45.279551982,AGENT#a9aacc90-5242-11ea-92c0-e75a97fc8ae8,3,40,43,10,1.0,1.0,0
run-2020-2-18-11-34-45.279551982,AGENT#a9abee86-5242-11ea-b596-93d4f0f93865,1,42,43,10,1.0,1.0,0
run-2020-2-18-11-34-45.279551982,AGENT#a9aa45d6-5242-11ea-a632-a751bb6fea1d,5,39,44,10,1.0,1.0,0
run-2020-2-18-11-34-45.279551982,AGENT#a9abe40e-5242-11ea-98a9-ab7b76f05494,2,42,44,10,1.0,1.0,0
run-2020-2-18-11-34-45.279551982,AGENT#a9978446-5242-11ea-b2af-d7a6d643d6a3,45,0,45,10,1.0,1.0,0
run-2020-2-18-11-34-45.279551982,AGENT#a9ab5688-5242-11ea-a21a-d357210fb212,4,41,45,10,1.0,1.0,0
run-2020-2-18-11-34-45.279551982,AGENT#a9ab5b74-5242-11ea-90b8-a313cd161621,4,41,45,10,1.0,1.0,0
run-2020-2-18-11-34-45.279551982,AGENT#a9abec2e-5242-11ea-b59e-ef5be43a23ee,3,42,45,10,1.0,1.0,0
run-2020-2-18-11-34-45.279551982,AGENT#a9ad24ae-5242-11ea-96a6-073404a8806a,1,44,45,10,1.0,1.0,0
run-2020-2-18-11-34-45.279551982,AGENT#a997499a-5242-11ea-a529-abbd725ce0ba,46,0,46,10,1.0,1.0,0
run-2020-2-18-11-34-45.279551982,AGENT#a9ab53fe-5242-11ea-818a-4305cbaad306,5,41,46,10,1.0,1.0,0
run-2020-2-18-11-34-45.279551982,AGENT#a9adcc06-5242-11ea-9e3f-07f61c27c6ad,1,45,46,10,1.0,1.0,0
run-2020-2-18-11-34-45.279551982,AGENT#a9adce90-5242-11ea-b247-876c8226698d,1,45,46,10,1.0,1.0,0
run-2020-2-18-11-34-45.279551982,AGENT#a999b518-5242-11ea-a656-f337dfc263f7,46,1,47,10,1.0,1.0,0
run-2020-2-18-11-34-45.279551982,AGENT#a9abf0e8-5242-11ea-87d4-ab20fccc667b,5,42,47,10,1.0,1.0,0
run-2020-2-18-11-34-45.279551982,AGENT#a9ad21ca-5242-11ea-8146-ffd9cbfbb4aa,3,44,47,10,1.0,1.0,0
run-2020-2-18-11-34-45.279551982,AGENT#a9ac88c8-5242-11ea-87df-87190b4d6bc9,5,43,48,10,1.0,1.0,0
run-2020-2-18-11-34-45.279551982,AGENT#a9ad295e-5242-11ea-8a43-0fa957044767,4,44,48,10,1.0,1.0,0
run-2020-2-18-11-34-45.279551982,AGENT#a9ae659e-5242-11ea-840c-03edaebb7182,2,46,48,10,1.0,1.0,0
run-2020-2-18-11-34-45.279551982,AGENT#a9ae60da-5242-11ea-bca5-c345c9a4d7ad,3,46,49,10,1.0,1.0,0
run-2020-2-18-11-34-45.279551982,AGENT#a99bd9e2-5242-11ea-aad4-fb1eed18b03e,47,3,50,10,1.0,1.0,0
run-2020-2-18-11-34-45.279551982,AGENT#a99ca91c-5242-11ea-9d89-5700f107fef7,45,5,50,10,1.0,1.0,0
run-2020-2-18-11-34-45.279551982,AGENT#a9b041f2-5242-11ea-8ad3-4fc54b7647cb,1,49,50,10,1.0,1.0,0
run-2020-2-18-11-34-45.279551982,AGENT#a99cee36-5242-11ea-b5fc-2f8ac89c339f,45,6,51,10,1.0,1.0,0
run-2020-2-18-11-34-45.279551982,AGENT#a99cf0ca-5242-11ea-af51-1319f213c508,45,6,51,10,1.0,1.0,0
run-2020-2-18-11-34-45.279551982,AGENT#a9ae5e14-5242-11ea-8029-9ba335d53983,5,46,51,10,1.0,1.0,0
run-2020-2-18-11-34-45.279551982,AGENT#a9af058a-5242-11ea-9ae3-3b36bdf2041d,4,47,51,10,1.0,1.0,0
run-2020-2-18-11-34-45.279551982,AGENT#a99d3df0-5242-11ea-89b9-5f0015f241e8,45,7,52,10,1.0,1.0,0
run-2020-2-18-11-34-45.279551982,AGENT#a99e1798-5242-11ea-80d1-a78c23a4dc67,42,10,52,10,1.0,1.0,0
run-2020-2-18-11-34-45.279551982,AGENT#a99f22d2-5242-11ea-8440-779160d83c20,39,13,52,10,1.0,1.0,0
run-2020-2-18-11-34-45.279551982,AGENT#a9afa2f6-5242-11ea-a885-0350f9ad2fe7,4,48,52,10,1.0,1.0,0
run-2020-2-18-11-34-45.279551982,AGENT#a9b0d748-5242-11ea-86ad-7370bfdd9586,2,50,52,10,1.0,1.0,0
run-2020-2-18-11-34-45.279551982,AGENT#a9b177d4-5242-11ea-bf61-63aa27eb8f1b,1,51,52,10,1.0,1.0,0
run-2020-2-18-11-34-45.279551982,AGENT#a99c5516-5242-11ea-a8cb-7b1b46dd3aab,49,4,53,10,1.0,1.0,0
run-2020-2-18-11-34-45.279551982,AGENT#a99d3b48-5242-11ea-ae0d-17f9b0216f82,46,7,53,10,1.0,1.0,0
run-2020-2-18-11-34-45.279551982,AGENT#a9b0d284-5242-11ea-8fc5-d307ea1ffcb1,3,50,53,10,1.0,1.0,0
run-2020-2-18-11-34-45.279551982,AGENT#a9b0d4fa-5242-11ea-8687-03f8c004901e,3,50,53,10,1.0,1.0,0
run-2020-2-18-11-34-45.279551982,AGENT#a9b238cc-5242-11ea-a4f5-73e322ac684c,1,52,53,10,1.0,1.0,0
run-2020-2-18-11-34-45.279551982,AGENT#a9b23b38-5242-11ea-95a2-ebff3a78ecce,1,52,53,10,1.0,1.0,0
run-2020-2-18-11-34-45.279551982,AGENT#a9b24010-5242-11ea-b812-63226ee4ebff,1,52,53,10,1.0,1.0,0
run-2020-2-18-11-34-45.279551982,AGENT#a99dcf4a-5242-11ea-a9d9-5fb2566b23da,45,9,54,10,1.0,1.0,0
run-2020-2-18-11-34-45.279551982,AGENT#a99dd1d4-5242-11ea-9443-2747a93b4783,45,9,54,10,1.0,1.0,0
run-2020-2-18-11-34-45.279551982,AGENT#a9a705e2-5242-11ea-9c74-aba9a140c65e,21,33,54,10,1.0,1.0,0
run-2020-2-18-11-34-45.279551982,AGENT#a9b0d00e-5242-11ea-abd3-0f216116fe0e,5,50,55,10,1.0,1.0,0
run-2020-2-18-11-34-45.279551982,AGENT#a9b23606-5242-11ea-bb5f-53775a8cef59,3,52,55,10,1.0,1.0,0
run-2020-2-18-11-34-45.279551982,AGENT#a9b23d9a-5242-11ea-8b55-eba7c05c22d7,3,52,55,10,1.0,1.0,0
run-2020-2-18-11-34-45.279551982,AGENT#a99e8548-5242-11ea-aa13-1f766f061886,45,11,56,10,1.0,1.0,0
run-2020-2-18-11-34-45.279551982,AGENT#a99e87e6-5242-11ea-8a81-c397b4f4c10e,45,11,56,10,1.0,1.0,0
run-2020-2-18-11-34-45.279551982,AGENT#a9b2e722-5242-11ea-8f55-43b74595acb7,3,53,56,10,1.0,1.0,0
run-2020-2-18-11-34-45.279551982,AGENT#a9b2ebe6-5242-11ea-a75c-bfa24aef1a95,3,53,56,10,1.0,1.0,0
run-2020-2-18-11-34-45.279551982,AGENT#a9b43d34-5242-11ea-ab28-4718f8436f10,1,55,56,10,1.0,1.0,0
run-2020-2-18-11-34-45.279551982,AGENT#a99e1fea-5242-11ea-9862-73ef2050522c,47,10,57,10,1.0,1.0,0
run-2020-2-18-11-34-45.279551982,AGENT#a99e22d8-5242-11ea-ad9c-23b2b32f1f0c,47,10,57,10,1.0,1.0,0
run-2020-2-18-11-34-45.279551982,AGENT#a9b4f166-5242-11ea-8eaa-57ab55fa0e17,1,56,57,10,1.0,1.0,0
run-2020-2-18-11-34-45.279551982,AGENT#a9b4ff8a-5242-11ea-bccf-cbd2f37f81ff,2,56,58,10,1.0,1.0,0
run-2020-2-18-11-34-45.279551982,AGENT#a99f1ae4-5242-11ea-b334-538253eb34c4,46,13,59,10,1.0,1.0,0
run-2020-2-18-11-34-45.279551982,AGENT#a9b5ad04-5242-11ea-80ea-0fdf550a7d2d,2,57,59,10,1.0,1.0,0
run-2020-2-18-11-34-45.279551982,AGENT#a9b5af5c-5242-11ea-89e9-573b08a0d267,2,57,59,10,1.0,1.0,0
run-2020-2-18-11-34-45.279551982,AGENT#a9b5b1dc-5242-11ea-a237-47dd1356c40f,2,57,59,10,1.0,1.0,0
run-2020-2-18-11-34-45.279551982,AGENT#a9b65f24-5242-11ea-99ad-2fadc390c5b0,1,58,59,10,1.0,1.0,0
run-2020-2-18-11-34-45.279551982,AGENT#a9b67856-5242-11ea-b9d5-bfe099326431,1,58,59,10,1.0,1.0,0
run-2020-2-18-11-34-45.279551982,AGENT#a99fc264-5242-11ea-ae06-8386b5a643f9,45,15,60,10,1.0,1.0,0
run-2020-2-18-11-34-45.279551982,AGENT#a9b4f436-5242-11ea-a33a-3be251c92e9c,4,56,60,10,1.0,1.0,0
run-2020-2-18-11-34-45.279551982,AGENT#a9b4fcec-5242-11ea-b680-2fab59ec2cf9,4,56,60,10,1.0,1.0,0
run-2020-2-18-11-34-45.279551982,AGENT#a9b66b90-5242-11ea-82ad-eb80a75fb525,2,58,60,10,1.0,1.0,0
run-2020-2-18-11-34-45.279551982,AGENT#a9b675d6-5242-11ea-99bd-67b662f48795,2,58,60,10,1.0,1.0,0
run-2020-2-18-11-34-45.279551982,AGENT#a9b7565e-5242-11ea-9d00-ebfeaf37bba0,1,59,60,10,1.0,1.0,0
run-2020-2-18-11-34-45.279551982,AGENT#a9b501f6-5242-11ea-a573-bbd99939ab6c,5,56,61,10,1.0,1.0,0
run-2020-2-18-11-34-45.279551982,AGENT#a9b758f2-5242-11ea-afdc-7f2071118e7f,2,59,61,10,1.0,1.0,0
run-2020-2-18-11-34-45.279551982,AGENT#a9b75b5e-5242-11ea-93db-73a2a26686bf,2,59,61,10,1.0,1.0,0
run-2020-2-18-11-34-45.279551982,AGENT#a9b75dd4-5242-11ea-b74d-f36beda18c08,2,59,61,10,1.0,1.0,0
run-2020-2-18-11-34-45.279551982,AGENT#a9a07baa-5242-11ea-ae31-43c69c057b0b,45,17,62,10,1.0,1.0,0
run-2020-2-18-11-34-45.279551982,AGENT#a9b59ee0-5242-11ea-92d0-43197fe8d7cf,5,57,62,10,1.0,1.0,0
run-2020-2-18-11-34-45.279551982,AGENT#a9b8e2a8-5242-11ea-979f-b338c939c3f0,1,61,62,10,1.0,1.0,0
run-2020-2-18-11-34-45.279551982,AGENT#a9af004e-5242-11ea-a5ff-2f10e431a710,16,47,63,10,1.0,1.0,0
run-2020-2-18-11-34-45.279551982,AGENT#a9b66f96-5242-11ea-91e0-fb14a2d5e2a8,5,58,63,10,1.0,1.0,0
run-2020-2-18-11-34-45.279551982,AGENT#a9b753a2-5242-11ea-987a-2bd776456356,4,59,63,10,1.0,1.0,0
run-2020-2-18-11-34-45.279551982,AGENT#a9b82fa2-5242-11ea-b593-633a617e3386,3,60,63,10,1.0,1.0,0
run-2020-2-18-11-34-45.279551982,AGENT#a9b8e032-5242-11ea-b7f2-4794b4f7f3d1,2,61,63,10,1.0,1.0,0
run-2020-2-18-11-34-45.279551982,AGENT#a9b9c13c-5242-11ea-8e3e-a38f10c5afed,1,62,63,10,1.0,1.0,0
run-2020-2-18-11-34-45.279551982,AGENT#a99fc4e4-5242-11ea-b949-0bf2d9625331,49,15,64,10,1.0,1.0,0
run-2020-2-18-11-34-45.279551982,AGENT#a9b59bfc-5242-11ea-8c1b-fbe0ec8d462f,7,57,64,10,1.0,1.0,0
run-2020-2-18-11-34-45.279551982,AGENT#a9b9c3da-5242-11ea-b3f2-af47fe1a5325,2,62,64,10,1.0,1.0,0
run-2020-2-18-11-34-45.279551982,AGENT#a9ba967a-5242-11ea-8205-6fdc133a96cf,1,63,64,10,1.0,1.0,0
run-2020-2-18-11-34-45.279551982,AGENT#a9a11af6-5242-11ea-b035-c3aef4ca8b10,46,19,65,10,1.0,1.0,0
run-2020-2-18-11-34-45.279551982,AGENT#a9b5aa70-5242-11ea-b4bb-dfa76bd62c40,8,57,65,10,1.0,1.0,0
run-2020-2-18-11-34-45.279551982,AGENT#a9b82d2c-5242-11ea-8baa-0b9c8fcb3c54,5,60,65,10,1.0,1.0,0
run-2020-2-18-11-34-45.279551982,AGENT#a9b8e51e-5242-11ea-9a4a-877b046e6434,4,61,65,10,1.0,1.0,0
run-2020-2-18-11-34-45.279551982,AGENT#a9b9bd40-5242-11ea-83ac-9ff4aa89ba5b,3,62,65,10,1.0,1.0,0
run-2020-2-18-11-34-45.279551982,AGENT#a9ba9b34-5242-11ea-a61a-fbe441e951d5,2,63,65,10,1.0,1.0,0
run-2020-2-18-11-34-45.279551982,AGENT#a9bb4d4a-5242-11ea-94ac-b3be058a838d,1,64,65,10,1.0,1.0,0
run-2020-2-18-11-34-45.279551982,AGENT#a9ba98fa-5242-11ea-95d0-bbd6a56f9c9d,3,63,66,10,1.0,1.0,0
run-2020-2-18-11-34-45.279551982,AGENT#a9b9c650-5242-11ea-8567-eb2272b9c18d,5,62,67,10,1.0,1.0,0
run-2020-2-18-11-34-45.279551982,AGENT#a9b9cb6e-5242-11ea-b1c7-87954ba331b7,5,62,67,10,1.0,1.0,0
run-2020-2-18-11-34-45.279551982,AGENT#a9bb507e-5242-11ea-b92d-975fe69b3b01,3,64,67,10,1.0,1.0,0
run-2020-2-18-11-34-45.279551982,AGENT#a9bb52fe-5242-11ea-a08b-7fda06639d48,3,64,67,10,1.0,1.0,0
run-2020-2-18-11-34-45.279551982,AGENT#a9bb5bbe-5242-11ea-a4c0-8fab98ea7cbd,3,64,67,10,1.0,1.0,0
run-2020-2-18-11-34-45.279551982,AGENT#a9bb60b4-5242-11ea-b46b-33382783e1dc,3,64,67,10,1.0,1.0,0
run-2020-2-18-11-34-45.279551982,AGENT#a9bc3d68-5242-11ea-86d7-073bb6231ace,2,65,67,10,1.0,1.0,0
run-2020-2-18-11-34-45.279551982,AGENT#a9bcf5be-5242-11ea-8ba0-eb6384317f4b,1,66,67,10,1.0,1.0,0
run-2020-2-18-11-34-45.279551982,AGENT#a9bcfa64-5242-11ea-88b7-338d5d0da2c1,1,66,67,10,1.0,1.0,0
run-2020-2-18-11-34-45.279551982,AGENT#a9a2263a-5242-11ea-a662-bb3da34a6a7e,46,22,68,10,1.0,1.0,0
run-2020-2-18-11-34-45.279551982,AGENT#a9a28fd0-5242-11ea-bbaf-c3dd3ca765c3,45,23,68,10,1.0,1.0,0
run-2020-2-18-11-34-45.279551982,AGENT#a9a828fa-5242-11ea-925d-4b08f9c7a764,33,35,68,10,1.0,1.0,0
run-2020-2-18-11-34-45.279551982,AGENT#a9bb5786-5242-11ea-b3a7-8b2c669ed8b9,4,64,68,10,1.0,1.0,0
run-2020-2-18-11-34-45.279551982,AGENT#a9bdf874-5242-11ea-a3a3-57726c56fb8e,1,67,68,10,1.0,1.0,0
run-2020-2-18-11-34-45.279551982,AGENT#a9a29a66-5242-11ea-a758-e7f5f33c8fe5,46,23,69,10,1.0,1.0,0
run-2020-2-18-11-34-45.279551982,AGENT#a9a53122-5242-11ea-bc3c-e732ea9cc094,40,29,69,10,1.0,1.0,0
run-2020-2-18-11-34-45.279551982,AGENT#a9beefea-5242-11ea-89f7-d7433c7025e7,1,68,69,10,1.0,1.0,0
run-2020-2-18-11-34-45.279551982,AGENT#a9a228ce-5242-11ea-b024-0b3b5f2e87c8,48,22,70,10,1.0,1.0,0
run-2020-2-18-11-34-45.279551982,AGENT#a9bcf2ee-5242-11ea-9a1d-8b9c60d170c7,4,66,70,10,1.0,1.0,0
run-2020-2-18-11-34-45.279551982,AGENT#a9bdf57c-5242-11ea-9348-ff0afb4018bd,3,67,70,10,1.0,1.0,0
run-2020-2-18-11-34-45.279551982,AGENT#a9bdfd2e-5242-11ea-bb50-771324f93f88,3,67,70,10,1.0,1.0,0
run-2020-2-18-11-34-45.279551982,AGENT#a9bef986-5242-11ea-b1fd-efdd4f657363,2,68,70,10,1.0,1.0,0
run-2020-2-18-11-34-45.279551982,AGENT#a9a3703a-5242-11ea-a74f-9302df7a2496,46,25,71,10,1.0,1.0,0
run-2020-2-18-11-34-45.279551982,AGENT#a9aad1c2-5242-11ea-a550-f7ca667114e6,31,40,71,10,1.0,1.0,0
run-2020-2-18-11-34-45.279551982,AGENT#a9befdaa-5242-11ea-9fae-cfb42c37ef9a,3,68,71,10,1.0,1.0,0
run-2020-2-18-11-34-45.279551982,AGENT#a9a3d2be-5242-11ea-a09e-bb71c28da354,46,26,72,10,1.0,1.0,0
run-2020-2-18-11-34-45.279551982,AGENT#a9a434a2-5242-11ea-99b8-4737b46111a9,45,27,72,10,1.0,1.0,0
run-2020-2-18-11-34-45.279551982,AGENT#a9a52ec0-5242-11ea-959e-3f561909d339,43,29,72,10,1.0,1.0,0
run-2020-2-18-11-34-45.279551982,AGENT#a9b9c902-5242-11ea-893c-f7a3012f3496,10,62,72,10,1.0,1.0,0
run-2020-2-18-11-34-45.279551982,AGENT#a9bdfad6-5242-11ea-94f8-879ca8381b51,5,67,72,10,1.0,1.0,0
run-2020-2-18-11-34-45.279551982,AGENT#a9beeb6c-5242-11ea-8e47-77c1efe8779d,4,68,72,10,1.0,1.0,0
run-2020-2-18-11-34-45.279551982,AGENT#a9bfcdc0-5242-11ea-95bf-d32adc7f8e90,3,69,72,10,1.0,1.0,0
run-2020-2-18-11-34-45.279551982,AGENT#a9bfd018-5242-11ea-8cb4-c38185d6ba84,3,69,72,10,1.0,1.0,0
run-2020-2-18-11-34-45.279551982,AGENT#a9c0aede-5242-11ea-98c3-abb8232bb665,2,70,72,10,1.0,1.0,0
run-2020-2-18-11-34-45.279551982,AGENT#a9a4324a-5242-11ea-ba99-c7f274bcc9ff,46,27,73,10,1.0,1.0,0
run-2020-2-18-11-34-45.279551982,AGENT#a9bef562-5242-11ea-be7c-e71e20944c14,5,68,73,10,1.0,1.0,0
run-2020-2-18-11-34-45.279551982,AGENT#a9c0ab96-5242-11ea-92a3-47ed38cb0bd2,3,70,73,10,1.0,1.0,0
run-2020-2-18-11-34-45.279551982,AGENT#a9adc922-5242-11ea-b9d7-1f7e567fd6d9,29,45,74,10,1.0,1.0,0
run-2020-2-18-11-34-45.279551982,AGENT#a9b38132-5242-11ea-9733-679e2954de76,20,54,74,10,1.0,1.0,0
run-2020-2-18-11-34-45.279551982,AGENT#a9c1ae42-5242-11ea-bf74-57ff75038a1b,3,71,74,10,1.0,1.0,0
run-2020-2-18-11-34-45.279551982,AGENT#a9a4a3ce-5242-11ea-82e9-cb4f081ed9f8,47,28,75,10,1.0,1.0,0
run-2020-2-18-11-34-45.279551982,AGENT#a9a53604-5242-11ea-8099-27f10a115b25,46,29,75,10,1.0,1.0,0
run-2020-2-18-11-34-45.279551982,AGENT#a9a682de-5242-11ea-a1a0-63b0ad888533,43,32,75,10,1.0,1.0,0
run-2020-2-18-11-34-45.279551982,AGENT#a9b2e98e-5242-11ea-a212-c7aa0510b2b8,22,53,75,10,1.0,1.0,0
run-2020-2-18-11-34-45.279551982,AGENT#a9c3ff26-5242-11ea-9482-77dfb9f11166,1,74,75,10,1.0,1.0,0
run-2020-2-18-11-34-45.279551982,AGENT#a9a52948-5242-11ea-8843-c73430ba6484,47,29,76,10,1.0,1.0,0
run-2020-2-18-11-34-45.279551982,AGENT#a9c3317c-5242-11ea-a6f8-3343f1a9d3d9,3,73,76,10,1.0,1.0,0
run-2020-2-18-11-34-45.279551982,AGENT#a9c3fc9c-5242-11ea-b440-67bf3431d2e5,2,74,76,10,1.0,1.0,0
run-2020-2-18-11-34-45.279551982,AGENT#a9c4c3ca-5242-11ea-9898-b385fbbeaaf1,1,75,76,10,1.0,1.0,0
run-2020-2-18-11-34-45.279551982,AGENT#a9c4c622-5242-11ea-8433-338e14be056f,1,75,76,10,1.0,1.0,0
run-2020-2-18-11-34-45.279551982,AGENT#a9b2e466-5242-11ea-abb5-c37f1870ea4a,24,53,77,10,1.0,1.0,0
run-2020-2-18-11-34-45.279551982,AGENT#a9c3f954-5242-11ea-826e-d7cbb3c8e300,4,74,78,10,1.0,1.0,0
run-2020-2-18-11-34-45.279551982,AGENT#a9c4cd0c-5242-11ea-8b6f-bb4dc4b0962e,3,75,78,10,1.0,1.0,0
run-2020-2-18-11-34-45.279551982,AGENT#a9c4019c-5242-11ea-b289-1fbc010aeec3,5,74,79,10,1.0,1.0,0
run-2020-2-18-11-34-45.279551982,AGENT#a9c5886e-5242-11ea-98fd-97877f5e4f2c,3,76,79,10,1.0,1.0,0
run-2020-2-18-11-34-45.279551982,AGENT#a9a7a3f8-5242-11ea-8177-879983d536ff,46,34,80,10,1.0,1.0,0
run-2020-2-18-11-34-45.279551982,AGENT#a9b1842c-5242-11ea-9ac6-db663c0b80ce,29,51,80,10,1.0,1.0,0
run-2020-2-18-11-34-45.279551982,AGENT#a9c4c154-5242-11ea-9f4e-73a0b8a4f418,5,75,80,10,1.0,1.0,0
run-2020-2-18-11-34-45.279551982,AGENT#a9c655be-5242-11ea-8207-0bbe57c917ab,3,77,80,10,1.0,1.0,0
run-2020-2-18-11-34-45.279551982,AGENT#a9c65924-5242-11ea-8c80-e709d417ecf9,3,77,80,10,1.0,1.0,0
run-2020-2-18-11-34-45.279551982,AGENT#a9a7a916-5242-11ea-859c-07b177798847,47,34,81,10,1.0,1.0,0
run-2020-2-18-11-34-45.279551982,AGENT#a9a82b70-5242-11ea-845b-6f886f42b619,46,35,81,10,1.0,1.0,0
run-2020-2-18-11-34-45.279551982,AGENT#a9a8a758-5242-11ea-bc74-c307d9cf0165,45,36,81,10,1.0,1.0,0
run-2020-2-18-11-34-45.279551982,AGENT#a9a8b11c-5242-11ea-b0aa-270877633080,45,36,81,10,1.0,1.0,0
run-2020-2-18-11-34-45.279551982,AGENT#a9c8c948-5242-11ea-8d02-f33b58b8132f,1,80,81,10,1.0,1.0,0
run-2020-2-18-11-34-45.279551982,AGENT#a9a92ad4-5242-11ea-a643-4354519349dd,45,37,82,10,1.0,1.0,0
run-2020-2-18-11-34-45.279551982,AGENT#a9c27d40-5242-11ea-8a5a-6785f7e90af6,10,72,82,10,1.0,1.0,0
run-2020-2-18-11-34-45.279551982,AGENT#a9c66090-5242-11ea-b103-7774dad9484c,5,77,82,10,1.0,1.0,0
run-2020-2-18-11-34-45.279551982,AGENT#a9c9ad9a-5242-11ea-9c24-d35ef3dc7fe2,1,81,82,10,1.0,1.0,0
run-2020-2-18-11-34-45.279551982,AGENT#a9a9a4d2-5242-11ea-ba7a-1b7b963d9d9d,45,38,83,10,1.0,1.0,0
run-2020-2-18-11-34-45.279551982,AGENT#a9c7f270-5242-11ea-b105-836e2c75e60f,4,79,83,10,1.0,1.0,0
run-2020-2-18-11-34-45.279551982,AGENT#a9ca86d4-5242-11ea-928b-cb088e3fdebc,1,82,83,10,1.0,1.0,0
run-2020-2-18-11-34-45.279551982,AGENT#a9ca8f1c-5242-11ea-919f-cb4ddb896b59,1,82,83,10,1.0,1.0,0
run-2020-2-18-11-34-45.279551982,AGENT#a9c7ef82-5242-11ea-af82-5f9c979cb7f2,5,79,84,10,1.0,1.0,0
run-2020-2-18-11-34-45.279551982,AGENT#a9c9a5e8-5242-11ea-9864-df84f7f366cb,3,81,84,10,1.0,1.0,0
run-2020-2-18-11-34-45.279551982,AGENT#a9a92886-5242-11ea-9c12-43d42e6b76c8,48,37,85,10,1.0,1.0,0
run-2020-2-18-11-34-45.279551982,AGENT#a9bfd25c-5242-11ea-8b4a-3748342eda2e,16,69,85,10,1.0,1.0,0
run-2020-2-18-11-34-45.279551982,AGENT#a9c99fe4-5242-11ea-8e6b-1fe67b0746a8,4,81,85,10,1.0,1.0,0
run-2020-2-18-11-34-45.279551982,AGENT#a9c9a30e-5242-11ea-aea9-c3d93569fa41,4,81,85,10,1.0,1.0,0
run-2020-2-18-11-34-45.279551982,AGENT#a9c9ab1a-5242-11ea-be8c-83cd761d60bb,4,81,85,10,1.0,1.0,0
run-2020-2-18-11-34-45.279551982,AGENT#a9cc89d4-5242-11ea-9056-df4d90f26139,2,84,86,10,1.0,1.0,0
run-2020-2-18-11-34-45.279551982,AGENT#a9cd7934-5242-11ea-9cee-c7c91ba52938,1,85,86,10,1.0,1.0,0
run-2020-2-18-11-34-45.279551982,AGENT#a9abe972-5242-11ea-b00d-7f34d5541a14,45,42,87,10,1.0,1.0,0
run-2020-2-18-11-34-45.279551982,AGENT#a9b662a8-5242-11ea-86e4-5391ffbba6a2,29,58,87,10,1.0,1.0,0
run-2020-2-18-11-34-45.279551982,AGENT#a9cb8fca-5242-11ea-bc17-87d05a694e4f,4,83,87,10,1.0,1.0,0
run-2020-2-18-11-34-45.279551982,AGENT#a9ceb48e-5242-11ea-8658-cf246a3e151e,1,86,87,10,1.0,1.0,0
run-2020-2-18-11-34-45.279551982,AGENT#a9ceba1a-5242-11ea-ae1a-e385e2a0b179,1,86,87,10,1.0,1.0,0
run-2020-2-18-11-34-45.279551982,AGENT#a9aad42e-5242-11ea-9882-ab5edfbc9c29,48,40,88,10,1.0,1.0,0
run-2020-2-18-11-34-45.279551982,AGENT#a9cb9948-5242-11ea-ac8a-bfb37d5d3593,5,83,88,10,1.0,1.0,0
run-2020-2-18-11-34-45.279551982,AGENT#a9cd736c-5242-11ea-8125-5b972184f545,3,85,88,10,1.0,1.0,0
run-2020-2-18-11-34-45.279551982,AGENT#a9cd7e98-5242-11ea-abdf-4b786838211e,3,85,88,10,1.0,1.0,0
run-2020-2-18-11-34-45.279551982,AGENT#a9ceb74a-5242-11ea-94cb-6fc4e2d5c572,2,86,88,10,1.0,1.0,0
run-2020-2-18-11-34-45.279551982,AGENT#a9cfad76-5242-11ea-aa7d-7722ae92f235,1,87,88,10,1.0,1.0,0
run-2020-2-18-11-34-45.279551982,AGENT#a9cfb848-5242-11ea-9403-f79da65e41bf,1,87,88,10,1.0,1.0,0
run-2020-2-18-11-34-45.279551982,AGENT#a9c4cabe-5242-11ea-8309-43296ac0b0a4,14,75,89,10,1.0,1.0,0
run-2020-2-18-11-34-45.279551982,AGENT#a9cd7682-5242-11ea-b02f-3f0135085e44,4,85,89,10,1.0,1.0,0
run-2020-2-18-11-34-45.279551982,AGENT#a9cebce0-5242-11ea-b40e-bb1eb597615e,3,86,89,10,1.0,1.0,0
run-2020-2-18-11-34-45.279551982,AGENT#a9cfbd66-5242-11ea-b098-e32b84c0356e,2,87,89,10,1.0,1.0,0
run-2020-2-18-11-34-45.279551982,AGENT#a9b1801c-5242-11ea-b294-23170764b557,39,51,90,10,1.0,1.0,0
run-2020-2-18-11-34-45.279551982,AGENT#a9cd7bdc-5242-11ea-8349-1b01e2f37133,5,85,90,10,1.0,1.0,0
run-2020-2-18-11-34-45.279551982,AGENT#a9d0d3ea-5242-11ea-9aa8-87b7f59c8a4f,2,88,90,10,1.0,1.0,0
run-2020-2-18-11-34-45.279551982,AGENT#a9d0d674-5242-11ea-9528-f3209d8653ec,2,88,90,10,1.0,1.0,0
run-2020-2-18-11-34-45.279551982,AGENT#a9d1d2f4-5242-11ea-b3ac-939e5afd28f4,1,89,90,10,1.0,1.0,0
run-2020-2-18-11-34-45.279551982,AGENT#a9ae6332-5242-11ea-9671-53fa243c88d7,45,46,91,10,1.0,1.0,0
run-2020-2-18-11-34-45.279551982,AGENT#a9cfbac8-5242-11ea-80d9-f3ad50924159,4,87,91,10,1.0,1.0,0
run-2020-2-18-11-34-45.279551982,AGENT#a9d0ce22-5242-11ea-a234-eb7688381466,3,88,91,10,1.0,1.0,0
run-2020-2-18-11-34-45.279551982,AGENT#a9d1c5a2-5242-11ea-9987-7b99b9fb3d14,2,89,91,10,1.0,1.0,0
run-2020-2-18-11-34-45.279551982,AGENT#a9d1c89a-5242-11ea-9509-9b03991b23fb,3,89,92,10,1.0,1.0,0
run-2020-2-18-11-34-45.279551982,AGENT#a9d1cb2e-5242-11ea-8241-43728b575812,3,89,92,10,1.0,1.0,0
run-2020-2-18-11-34-45.279551982,AGENT#a9d1cdf4-5242-11ea-a45a-b710f2f993c7,3,89,92,10,1.0,1.0,0
run-2020-2-18-11-34-45.279551982,AGENT#a9d2c48e-5242-11ea-9885-5b4d1abfb5af,2,90,92,10,1.0,1.0,0
run-2020-2-18-11-34-45.279551982,AGENT#a9d3c730-5242-11ea-a05b-43087fdcbcdf,1,91,92,10,1.0,1.0,0
run-2020-2-18-11-34-45.279551982,AGENT#a9d1d07e-5242-11ea-87bd-37d2a453f932,4,89,93,10,1.0,1.0,0
run-2020-2-18-11-34-45.279551982,AGENT#a9d2cb8c-5242-11ea-bc09-bbf9026157bc,3,90,93,10,1.0,1.0,0
run-2020-2-18-11-34-45.279551982,AGENT#a9d4a8c6-5242-11ea-bc99-478c93439742,1,92,93,10,1.0,1.0,0
run-2020-2-18-11-34-45.279551982,AGENT#a9afa850-5242-11ea-b362-334edae0338d,46,48,94,10,1.0,1.0,0
run-2020-2-18-11-34-45.279551982,AGENT#a9d2c7ea-5242-11ea-a0aa-2f0a3a65d699,4,90,94,10,1.0,1.0,0
run-2020-2-18-11-34-45.279551982,AGENT#a9d59178-5242-11ea-9f47-273a406cb7a9,1,93,94,10,1.0,1.0,0
run-2020-2-18-11-34-45.279551982,AGENT#a9afa5ee-5242-11ea-ab79-374c1427dc6a,47,48,95,10,1.0,1.0,0
run-2020-2-18-11-34-45.279551982,AGENT#a9b0d98c-5242-11ea-9673-1f0a1cfba424,45,50,95,10,1.0,1.0,0
run-2020-2-18-11-34-45.279551982,AGENT#a9d5887c-5242-11ea-ac3e-f3c26dde6fb8,2,93,95,10,1.0,1.0,0
run-2020-2-18-11-34-45.279551982,AGENT#a9d593da-5242-11ea-a274-3bba93489231,2,93,95,10,1.0,1.0,0
run-2020-2-18-11-34-45.279551982,AGENT#a9d6839e-5242-11ea-b453-63d52fe500e5,1,94,95,10,1.0,1.0,0
run-2020-2-18-11-34-45.279551982,AGENT#a9d6860a-5242-11ea-9264-4fb8f1777162,1,94,95,10,1.0,1.0,0
run-2020-2-18-11-34-45.279551982,AGENT#a9af031e-5242-11ea-92db-075875e117f5,49,47,96,10,1.0,1.0,0
run-2020-2-18-11-34-45.279551982,AGENT#a9b18710-5242-11ea-9786-733ba7fa957b,45,51,96,10,1.0,1.0,0
run-2020-2-18-11-34-45.279551982,AGENT#a9d58ec6-5242-11ea-a099-d3543639436e,3,93,96,10,1.0,1.0,0
run-2020-2-18-11-34-45.279551982,AGENT#a9d6796c-5242-11ea-863f-e3c5973746bc,2,94,96,10,1.0,1.0,0
run-2020-2-18-11-34-45.279551982,AGENT#a9cfb082-5242-11ea-a7d9-d337e25bae70,10,87,97,10,1.0,1.0,0
run-2020-2-18-11-34-45.279551982,AGENT#a9d5848a-5242-11ea-a4c9-8fed447b7f0f,4,93,97,10,1.0,1.0,0
run-2020-2-18-11-34-45.279551982,AGENT#a9d67c32-5242-11ea-a844-cf39172c0e23,3,94,97,10,1.0,1.0,0
run-2020-2-18-11-34-45.279551982,AGENT#a9d68146-5242-11ea-a5bb-9755a6ac1447,3,94,97,10,1.0,1.0,0
run-2020-2-18-11-34-45.279551982,AGENT#a9d7c6f0-5242-11ea-a998-d349e661e27e,2,95,97,10,1.0,1.0,0
run-2020-2-18-11-34-45.279551982,AGENT#a9d8af98-5242-11ea-8a85-073b19a3f284,1,96,97,10,1.0,1.0,0
run-2020-2-18-11-34-45.279551982,AGENT#a9ad2710-5242-11ea-9761-8381aacd1df3,54,44,98,10,1.0,1.0,0
run-2020-2-18-11-34-45.279551982,AGENT#a9d7cc90-5242-11ea-a9b5-dbc9f435769e,3,95,98,10,1.0,1.0,0
run-2020-2-18-11-34-45.279551982,AGENT#a9d8b25e-5242-11ea-86d6-c327afbb157c,2,96,98,10,1.0,1.0,0
run-2020-2-18-11-34-45.279551982,AGENT#a9b38380-5242-11ea-8f4e-eb050f44dcc1,45,54,99,10,1.0,1.0,0
run-2020-2-18-11-34-45.279551982,AGENT#a9d98d82-5242-11ea-9261-27feb23352b4,2,97,99,10,1.0,1.0,0
