RunID,Tick,ActiveAgentsPerTick
run-2020-7-14-14-3-53.709927082,0,0
run-2020-7-14-14-3-53.709927082,1,0
run-2020-7-14-14-3-53.709927082,2,0
run-2020-7-14-14-3-53.709927082,3,0
run-2020-7-14-14-3-53.709927082,4,0
run-2020-7-14-14-3-53.709927082,5,0
run-2020-7-14-14-3-53.709927082,6,0
run-2020-7-14-14-3-53.709927082,7,0
run-2020-7-14-14-3-53.709927082,8,0
run-2020-7-14-14-3-53.709927082,9,0
run-2020-7-14-14-3-53.709927082,10,0
run-2020-7-14-14-3-53.709927082,11,0
run-2020-7-14-14-3-53.709927082,12,0
run-2020-7-14-14-3-53.709927082,13,0
run-2020-7-14-14-3-53.709927082,14,0
run-2020-7-14-14-3-53.709927082,15,0
run-2020-7-14-14-3-53.709927082,16,0
run-2020-7-14-14-3-53.709927082,17,0
run-2020-7-14-14-3-53.709927082,18,0
run-2020-7-14-14-3-53.709927082,19,0
run-2020-7-14-14-3-53.709927082,20,0
run-2020-7-14-14-3-53.709927082,21,0
run-2020-7-14-14-3-53.709927082,22,0
run-2020-7-14-14-3-53.709927082,23,0
run-2020-7-14-14-3-53.709927082,24,0
run-2020-7-14-14-3-53.709927082,25,0
run-2020-7-14-14-3-53.709927082,26,0
run-2020-7-14-14-3-53.709927082,27,0
run-2020-7-14-14-3-53.709927082,28,0
run-2020-7-14-14-3-53.709927082,29,0
run-2020-7-14-14-3-53.709927082,30,0
run-2020-7-14-14-3-53.709927082,31,0
run-2020-7-14-14-3-53.709927082,32,0
run-2020-7-14-14-3-53.709927082,33,0
run-2020-7-14-14-3-53.709927082,34,0
run-2020-7-14-14-3-53.709927082,35,0
run-2020-7-14-14-3-53.709927082,36,0
run-2020-7-14-14-3-53.709927082,37,0
run-2020-7-14-14-3-53.709927082,38,0
run-2020-7-14-14-3-53.709927082,39,0
run-2020-7-14-14-3-53.709927082,40,0
run-2020-7-14-14-3-53.709927082,41,0
run-2020-7-14-14-3-53.709927082,42,0
run-2020-7-14-14-3-53.709927082,43,0
run-2020-7-14-14-3-53.709927082,44,0
run-2020-7-14-14-3-53.709927082,45,0
run-2020-7-14-14-3-53.709927082,46,0
run-2020-7-14-14-3-53.709927082,47,0
run-2020-7-14-14-3-53.709927082,48,0
run-2020-7-14-14-3-53.709927082,49,0
run-2020-7-14-14-3-53.709927082,50,0
run-2020-7-14-14-3-53.709927082,51,0
run-2020-7-14-14-3-53.709927082,52,0
run-2020-7-14-14-3-53.709927082,53,0
run-2020-7-14-14-3-53.709927082,54,0
run-2020-7-14-14-3-53.709927082,55,0
run-2020-7-14-14-3-53.709927082,56,0
run-2020-7-14-14-3-53.709927082,57,0
run-2020-7-14-14-3-53.709927082,58,0
run-2020-7-14-14-3-53.709927082,59,0
run-2020-7-14-14-3-53.709927082,60,0
run-2020-7-14-14-3-53.709927082,61,0
run-2020-7-14-14-3-53.709927082,62,0
run-2020-7-14-14-3-53.709927082,63,0
run-2020-7-14-14-3-53.709927082,64,0
run-2020-7-14-14-3-53.709927082,65,0
run-2020-7-14-14-3-53.709927082,66,0
run-2020-7-14-14-3-53.709927082,67,0
run-2020-7-14-14-3-53.709927082,68,0
run-2020-7-14-14-3-53.709927082,69,0
run-2020-7-14-14-3-53.709927082,70,0
run-2020-7-14-14-3-53.709927082,71,0
run-2020-7-14-14-3-53.709927082,72,0
run-2020-7-14-14-3-53.709927082,73,0
run-2020-7-14-14-3-53.709927082,74,0
run-2020-7-14-14-3-53.709927082,75,0
run-2020-7-14-14-3-53.709927082,76,0
run-2020-7-14-14-3-53.709927082,77,0
run-2020-7-14-14-3-53.709927082,78,0
run-2020-7-14-14-3-53.709927082,79,0
run-2020-7-14-14-3-53.709927082,80,0
run-2020-7-14-14-3-53.709927082,81,0
run-2020-7-14-14-3-53.709927082,82,0
run-2020-7-14-14-3-53.709927082,83,0
run-2020-7-14-14-3-53.709927082,84,0
run-2020-7-14-14-3-53.709927082,85,0
run-2020-7-14-14-3-53.709927082,86,0
run-2020-7-14-14-3-53.709927082,87,0
run-2020-7-14-14-3-53.709927082,88,0
run-2020-7-14-14-3-53.709927082,89,0
run-2020-7-14-14-3-53.709927082,90,0
run-2020-7-14-14-3-53.709927082,91,0
run-2020-7-14-14-3-53.709927082,92,0
run-2020-7-14-14-3-53.709927082,93,0
run-2020-7-14-14-3-53.709927082,94,0
run-2020-7-14-14-3-53.709927082,95,0
run-2020-7-14-14-3-53.709927082,96,0
run-2020-7-14-14-3-53.709927082,97,0
run-2020-7-14-14-3-53.709927082,98,0
run-2020-7-14-14-3-53.709927082,99,0
run-2020-7-14-14-3-53.709927082,100,27
run-2020-7-14-14-3-53.709927082,101,26
