Source,Target
LAWd9e67b78-c5da-11ea-a4e2-bba9f789bc4d,LAWd9e6e6bc-c5da-11ea-8bb6-f7dc9875e173
LAWd9e63474-c5da-11ea-adaa-e3183dc93dc8,LAWd9e6e73e-c5da-11ea-bf1d-07303c6e94f2
LAWd9e67aa6-c5da-11ea-af97-578bd71007fd,LAWd9e6e694-c5da-11ea-9d1e-2b6f4de20232
LAWd9e67ace-c5da-11ea-8651-8f0ea36c1fb2,LAWd9e6e798-c5da-11ea-adb9-6b4d1cec328d
LAWd9e686b8-c5da-11ea-accf-97acfcb1d1de,LAWd9e6e130-c5da-11ea-b150-4b0bcd846356
LAWd9e6371c-c5da-11ea-a133-f7cf0e795a89,LAWd9e6e39c-c5da-11ea-8e7a-b3a6edfa9c99
LAWd9e680a0-c5da-11ea-ad6f-bb2b4533b3c9,LAWd9e6e20c-c5da-11ea-9690-974f4ab13e51
LAWd9e63ad2-c5da-11ea-8257-cfaa99857709,LAWd9e6e78e-c5da-11ea-9609-8b54e8697dbb
LAWd9e63a5a-c5da-11ea-9296-13479fa4ddc0,LAWd9e72956-c5da-11ea-94a9-a3b3c7248dab
LAWd9e63a5a-c5da-11ea-9296-13479fa4ddc0,LAWd9e72bea-c5da-11ea-9ed9-a35f9d3b9cd5
LAWd9e634ce-c5da-11ea-b295-c3a2fd524f80,LAWd9e72bea-c5da-11ea-b6e8-6b49ba739d7e
LAWd9e67ace-c5da-11ea-8651-8f0ea36c1fb2,LAWd9e72d84-c5da-11ea-8736-8bf76d4c1e6a
LAWd9e634a6-c5da-11ea-a4e1-b72a5065bb21,LAWd9e72dd4-c5da-11ea-8888-9bbd2c6cdd06
LAWd9e688f2-c5da-11ea-b9c7-23aee2fed22f,LAWd9e72dd4-c5da-11ea-ad5d-1b7a62cd193d
LAWd9e6e78e-c5da-11ea-9609-8b54e8697dbb,LAWd9e73072-c5da-11ea-8d07-83d468b154e3
LAWd9e6e798-c5da-11ea-adb9-6b4d1cec328d,LAWd9e73374-c5da-11ea-b497-df4a4154d63e
LAWd9e684b0-c5da-11ea-a25e-2fec88614c6c,LAWd9e737f2-c5da-11ea-8c29-6f097bd2e87c
LAWd9e67ace-c5da-11ea-8651-8f0ea36c1fb2,LAWd9e7389c-c5da-11ea-9aa4-db963bec6e12
LAWd9e72bea-c5da-11ea-9ed9-a35f9d3b9cd5,LAWd9e73a04-c5da-11ea-b650-8fc0ee6b3e83
LAWd9e72dd4-c5da-11ea-8888-9bbd2c6cdd06,LAWd9e73c16-c5da-11ea-b12c-4b108fc1154a
LAWd9e6364a-c5da-11ea-b8dd-174866cc42ac,LAWd9e73c34-c5da-11ea-aaf4-1fd918022eb3
LAWd9e67aa6-c5da-11ea-af97-578bd71007fd,LAWd9e73c34-c5da-11ea-8538-17e4e0815cae
LAWd9e67dda-c5da-11ea-8680-6fb132bf7ddf,LAWd9e73d38-c5da-11ea-bb38-87c870fd60b7
LAWd9e6e20c-c5da-11ea-9690-974f4ab13e51,LAWd9e74076-c5da-11ea-a954-4375e69911a8
LAWd9e73374-c5da-11ea-b497-df4a4154d63e,LAWd9e74508-c5da-11ea-9984-97f6592868f6
LAWd9e6e6bc-c5da-11ea-8bb6-f7dc9875e173,LAWd9e74544-c5da-11ea-aedc-43e02e322cc0
LAWd9e6781c-c5da-11ea-8c5c-eb9e3034d813,LAWd9e74666-c5da-11ea-a11e-83bb35c46656
LAWd9e67ace-c5da-11ea-8651-8f0ea36c1fb2,LAWd9e7472e-c5da-11ea-82ea-b73b23141883
LAWd9e63b72-c5da-11ea-aac6-dfb41c42800b,LAWd9e748be-c5da-11ea-89ed-17572f6274e3
LAWd9e6e39c-c5da-11ea-8e7a-b3a6edfa9c99,LAWd9e748d2-c5da-11ea-b107-47bdd37b3fce
LAWd9e67de4-c5da-11ea-846e-ebc7aa3dd1be,LAWd9e74a62-c5da-11ea-908d-2be8277f24c6
LAWd9e67ace-c5da-11ea-8651-8f0ea36c1fb2,LAWd9e74fe4-c5da-11ea-a4df-6782b65d4e1f
LAWd9e6e6bc-c5da-11ea-8bb6-f7dc9875e173,LAWd9e75048-c5da-11ea-9367-03bf79c9d5f8
LAWd9e73374-c5da-11ea-b497-df4a4154d63e,LAWd9e751a6-c5da-11ea-914b-9361d3b457e8
LAWd9e6e798-c5da-11ea-adb9-6b4d1cec328d,LAWd9e755ac-c5da-11ea-9305-cb8d9cda8854
LAWd9e67ace-c5da-11ea-8651-8f0ea36c1fb2,LAWd9e75822-c5da-11ea-9aba-db82ab534ddb
LAWd9e63a5a-c5da-11ea-9296-13479fa4ddc0,LAWd9e75a98-c5da-11ea-b805-8b76ad5ff99f
LAWd9e73a04-c5da-11ea-b650-8fc0ee6b3e83,LAWd9e75a70-c5da-11ea-882d-47d0cdce2664
LAWd9e74fe4-c5da-11ea-a4df-6782b65d4e1f,LAWd9e75b06-c5da-11ea-b058-b736cdc61a83
LAWd9e74508-c5da-11ea-9984-97f6592868f6,LAWd9e75c46-c5da-11ea-b94f-f3ee8a7133b1
