Source,Target
3e78c800-5256-11ea-909b-1baa55c19bc0,3e791c9c-5256-11ea-8c9e-1f89f2ddf798
3e76f1b0-5256-11ea-8ca8-ffd5855c0ef6,3e793858-5256-11ea-8dd3-0b90279f5f98
3e7872e2-5256-11ea-b33a-9fadda30731b,3e7956b2-5256-11ea-9abf-4f8710fdd032
3e7858a2-5256-11ea-8c85-bb8411b669bb,3e7971f6-5256-11ea-8ea9-f3e01b62ed02
3e7971f6-5256-11ea-8ea9-f3e01b62ed02,3e798c7c-5256-11ea-9114-d326b1a5815b
3e77e4d0-5256-11ea-89d2-6794a445c7f6,3e79a57c-5256-11ea-b1b6-57694e9e19bd
3e74fa36-5256-11ea-923f-1f91acdcb8a9,3e79c052-5256-11ea-b47c-7f28d6bd8589
3e79c052-5256-11ea-b47c-7f28d6bd8589,3e79db6e-5256-11ea-a88a-0fa66163ebeb
3e73eace-5256-11ea-9797-5f921a7ca612,3e79f8a6-5256-11ea-9f21-7f513abd91b0
3e763202-5256-11ea-95dc-e7627a6c62f2,3e7a1458-5256-11ea-95bb-9fd3400ada1a
3e76b86c-5256-11ea-851c-ef57bdf396d3,3e7a3762-5256-11ea-873c-bbb8e2d9b45c
3e758c76-5256-11ea-b1f9-3b3fc552635f,3e7a5058-5256-11ea-9041-978ffb453017
3e798c7c-5256-11ea-9114-d326b1a5815b,3e7a698a-5256-11ea-bcce-4f2e124968de
3e77e4d0-5256-11ea-89d2-6794a445c7f6,3e7a8c94-5256-11ea-b81d-2fb686b30e84
3e7821f2-5256-11ea-9c96-33c2feaa701c,3e7aa8fa-5256-11ea-9cb7-6b55345bed46
3e79c052-5256-11ea-b47c-7f28d6bd8589,3e7ac1be-5256-11ea-9d98-33445e6ea509
3e7a8c94-5256-11ea-b81d-2fb686b30e84,3e7adae6-5256-11ea-8eb1-272dd7b2772b
3e73eace-5256-11ea-9797-5f921a7ca612,3e7af440-5256-11ea-a9a5-77a113ae28c5
3e764e36-5256-11ea-adde-4f408ce85716,3e7b0d5e-5256-11ea-becf-577f27bc9baf
3e78e196-5256-11ea-9ec6-4744e6d3f821,3e7b283e-5256-11ea-8272-abf37903c732
3e76b86c-5256-11ea-851c-ef57bdf396d3,3e7b436e-5256-11ea-8740-d7b4c38b3414
3e76f1b0-5256-11ea-8ca8-ffd5855c0ef6,3e7b5c6e-5256-11ea-aaf9-bb25cbbd14cf
3e75d96a-5256-11ea-9f20-3bad09ceda7c,3e7b75fa-5256-11ea-9b0a-676d7df596e6
3e741daa-5256-11ea-a892-931af1e478cc,3e7b8e6e-5256-11ea-9200-3f3a53e48877
3e77b096-5256-11ea-bb50-ff0d8d514f98,3e7ba822-5256-11ea-b470-6f7db0cfbe52
3e7a698a-5256-11ea-bcce-4f2e124968de,3e7bc168-5256-11ea-a1c9-bb34f2ca909a
3e7956b2-5256-11ea-9abf-4f8710fdd032,3e7be238-5256-11ea-aa7f-23b195f42372
3e7858a2-5256-11ea-8c85-bb8411b669bb,3e7c1848-5256-11ea-bfc7-0f43c07330ec
3e7a8c94-5256-11ea-b81d-2fb686b30e84,3e7c18ac-5256-11ea-9d90-5b6e7f8caab0
3e7b8e6e-5256-11ea-9200-3f3a53e48877,3e7c30d0-5256-11ea-95d7-93b1386bf57b
3e7c1848-5256-11ea-bfc7-0f43c07330ec,3e7c4a66-5256-11ea-b3da-d70d7d1d6c6c
3e777db0-5256-11ea-8df9-f368ec2bff5b,3e7c65c8-5256-11ea-b618-e79e07609cb5
3e7956b2-5256-11ea-9abf-4f8710fdd032,3e7c7f0e-5256-11ea-b69d-7309601b1c3a
3e79c052-5256-11ea-b47c-7f28d6bd8589,3e7c96ba-5256-11ea-8739-17904dcfafc6
3e740478-5256-11ea-8961-f30598ade0d7,3e7cb546-5256-11ea-9d10-635d2294babf
3e772810-5256-11ea-958a-2347ee3dc146,3e7cd2c4-5256-11ea-88c2-f3c1dfce8b71
3e788d90-5256-11ea-ba88-27cf6406ee48,3e7ced9a-5256-11ea-8d93-bbddc677144f
3e76f1b0-5256-11ea-8ca8-ffd5855c0ef6,3e7d0744-5256-11ea-8fee-3f98350d2a42
3e74877c-5256-11ea-b685-9b6b58e63037,3e7d2076-5256-11ea-b795-37fd4461bf9d
3e7c7f0e-5256-11ea-b69d-7309601b1c3a,3e7d3ca0-5256-11ea-a06f-77871073b060
3e7b75fa-5256-11ea-9b0a-676d7df596e6,3e7d54d8-5256-11ea-83d2-d3576cc3b334
3e7b5c6e-5256-11ea-aaf9-bb25cbbd14cf,3e7d6db0-5256-11ea-a18b-5b95088f868b
3e7adae6-5256-11ea-8eb1-272dd7b2772b,3e7d8c46-5256-11ea-86ce-5b1fc3205d19
3e7a5058-5256-11ea-9041-978ffb453017,3e7da80c-5256-11ea-b2d9-df1e8459605c
3e764e36-5256-11ea-adde-4f408ce85716,3e7dc1b6-5256-11ea-b16e-3ff77787fa0c
3e7be238-5256-11ea-aa7f-23b195f42372,3e7ddb06-5256-11ea-83c9-178edd8e7c94
3e7821f2-5256-11ea-9c96-33c2feaa701c,3e7df37a-5256-11ea-9c33-cfa28f955c1f
3e79c052-5256-11ea-b47c-7f28d6bd8589,3e7e0c52-5256-11ea-84bc-63fde47be503
3e7da80c-5256-11ea-b2d9-df1e8459605c,3e7e2b24-5256-11ea-b906-3fac9f1ef605
3e76d2c0-5256-11ea-bb6d-1f8dec868b62,3e7e4dfc-5256-11ea-98e9-77caf6ee22c8
3e7a1458-5256-11ea-95bb-9fd3400ada1a,3e7e671a-5256-11ea-bb30-0bbbd09375a0
3e79db6e-5256-11ea-a88a-0fa66163ebeb,3e7e847a-5256-11ea-ba26-779d2f009f79
3e7c18ac-5256-11ea-9d90-5b6e7f8caab0,3e7ea112-5256-11ea-a4c5-274001c18983
3e7971f6-5256-11ea-8ea9-f3e01b62ed02,3e7ebec2-5256-11ea-97c2-23060133f8fc
3e7956b2-5256-11ea-9abf-4f8710fdd032,3e7edf74-5256-11ea-a817-1722fa0c2e32
3e76f1b0-5256-11ea-8ca8-ffd5855c0ef6,3e7ef8ce-5256-11ea-a964-c3d5a8edcb71
3e7c18ac-5256-11ea-9d90-5b6e7f8caab0,3e7f1a2a-5256-11ea-9bb9-6fc5d5ccbade
3e75586e-5256-11ea-8a30-db4e6fdf99f7,3e7f3690-5256-11ea-ae5c-1bb7635e5b9c
3e7c30d0-5256-11ea-95d7-93b1386bf57b,3e7f53be-5256-11ea-a962-07e6663b6f38
3e79db6e-5256-11ea-a88a-0fa66163ebeb,3e7f6c82-5256-11ea-82b6-b7faf6d15c8d
3e7821f2-5256-11ea-9c96-33c2feaa701c,3e7f88b6-5256-11ea-b2c2-1f3d1789ed72
3e75a5ee-5256-11ea-aade-7f9a5c86851d,3e7fa0e4-5256-11ea-96e8-1f9cd5b9a481
3e78c800-5256-11ea-909b-1baa55c19bc0,3e7fb9ee-5256-11ea-9dc5-233c2dd47a99
3e7ebec2-5256-11ea-97c2-23060133f8fc,3e7fd668-5256-11ea-99d3-d76da0e10df1
3e770d4e-5256-11ea-bdcb-9b10fd0fe8f6,3e7ff12a-5256-11ea-a9ba-77ae9c162ba5
3e78c800-5256-11ea-909b-1baa55c19bc0,3e800af2-5256-11ea-aa19-9f7f370fdb6a
3e791c9c-5256-11ea-8c9e-1f89f2ddf798,3e80287a-5256-11ea-9465-9fcd3dcab5a5
3e7ff12a-5256-11ea-a9ba-77ae9c162ba5,3e804364-5256-11ea-a67c-330c126104f8
3e76d2c0-5256-11ea-bb6d-1f8dec868b62,3e805b74-5256-11ea-9c68-e300068c02ba
3e7cb546-5256-11ea-9d10-635d2294babf,3e80778a-5256-11ea-a173-b74ed20d02d8
3e7dc1b6-5256-11ea-b16e-3ff77787fa0c,3e8091f2-5256-11ea-a351-1f115d6ab20a
3e8091f2-5256-11ea-a351-1f115d6ab20a,3e80aac0-5256-11ea-80e1-77b3ccb7ab12
3e7d0744-5256-11ea-8fee-3f98350d2a42,3e80c5c8-5256-11ea-a7d8-8fbb61df4cb0
3e788d90-5256-11ea-ba88-27cf6406ee48,3e80e102-5256-11ea-8601-4b29caac2764
3e74fa36-5256-11ea-923f-1f91acdcb8a9,3e80fb74-5256-11ea-aedc-dbb5802452f2
3e7ac1be-5256-11ea-9d98-33445e6ea509,3e811488-5256-11ea-9c8b-8377d6dab351
3e7d6db0-5256-11ea-a18b-5b95088f868b,3e812dc4-5256-11ea-a769-1fee4e19ec64
3e770d4e-5256-11ea-bdcb-9b10fd0fe8f6,3e814700-5256-11ea-84a4-4b98ce64262b
3e7821f2-5256-11ea-9c96-33c2feaa701c,3e81637a-5256-11ea-b57c-67f6b35b06c7
3e7a698a-5256-11ea-bcce-4f2e124968de,3e817e96-5256-11ea-b209-67e2a7f8d529
3e7a5058-5256-11ea-9041-978ffb453017,3e819cb4-5256-11ea-a159-d77055d49c55
3e81637a-5256-11ea-b57c-67f6b35b06c7,3e81b5aa-5256-11ea-96a8-a78c7cadfe6a
3e769d64-5256-11ea-a5d0-f379acf348ba,3e81d2c4-5256-11ea-9ffa-0b640b94d225
3e7c1848-5256-11ea-bfc7-0f43c07330ec,3e81ee08-5256-11ea-840e-f7f684ef0df9
3e73b6f8-5256-11ea-bb8d-1b031a06c2bb,3e820a8c-5256-11ea-9d00-cb5ddd07930d
3e7c30d0-5256-11ea-95d7-93b1386bf57b,3e822440-5256-11ea-8dab-7b1ece918d84
3e8091f2-5256-11ea-a351-1f115d6ab20a,3e824592-5256-11ea-b1a3-43c3609265b0
3e7d6db0-5256-11ea-a18b-5b95088f868b,3e826036-5256-11ea-98a5-03294145e402
3e764e36-5256-11ea-adde-4f408ce85716,3e82797c-5256-11ea-b4bc-2b1fca44264e
3e824592-5256-11ea-b1a3-43c3609265b0,3e8294ca-5256-11ea-a8fa-eb992c073526
3e75c092-5256-11ea-a84b-678f49a4b06c,3e82ac80-5256-11ea-b7da-b7211a7a859c
3e77b096-5256-11ea-bb50-ff0d8d514f98,3e82c3f0-5256-11ea-b153-63fa5631b0be
3e7ea112-5256-11ea-a4c5-274001c18983,3e82e146-5256-11ea-9552-13f121a3e911
3e80c5c8-5256-11ea-a7d8-8fbb61df4cb0,3e82fa46-5256-11ea-9d9f-e3d2e4f5a74f
3e7d8c46-5256-11ea-86ce-5b1fc3205d19,3e8316f2-5256-11ea-b7c5-ff0fc190c8f0
3e779688-5256-11ea-964a-1f15c5b24c58,3e8338f8-5256-11ea-ab82-4b1262521914
3e7ea112-5256-11ea-a4c5-274001c18983,3e835306-5256-11ea-beb8-e37f54faf451
3e75d96a-5256-11ea-9f20-3bad09ceda7c,3e836d96-5256-11ea-b0c3-6313899f69a1
