Source,Target
25e08c56-5279-11ea-808d-7ba20a772efd,25e0ce8c-5279-11ea-9fbf-870d4bca2511
25dfa958-5279-11ea-9840-bff7d7f92221,25e0d6ac-5279-11ea-92ba-1bcb34cefafa
25dfb9a2-5279-11ea-83e0-0b04a7678964,25e0e0de-5279-11ea-ad71-efe39e63306c
25e0e0de-5279-11ea-ad71-efe39e63306c,25e0ea84-5279-11ea-b0ea-3b24105ddf0f
25e01c1c-5279-11ea-9aac-03b34e5bb175,25e1012c-5279-11ea-9fb6-67b29bb7fca5
25e09b4c-5279-11ea-a158-5395a91693c5,25e0f542-5279-11ea-b1a1-237317aa048a
25e02b8a-5279-11ea-815b-2b171a9a5fdb,25e1203a-5279-11ea-8b98-776c3bb91ca4
25deb0ca-5279-11ea-8a4a-1fea24fadb45,25e12ae4-5279-11ea-84e1-df0fa2f7ba57
25def864-5279-11ea-ad9a-a33fd2496d01,25e1335e-5279-11ea-ac99-cb00a99abe17
25e02b8a-5279-11ea-815b-2b171a9a5fdb,25e13ba6-5279-11ea-bcd9-7b0eb6204905
25e0d6ac-5279-11ea-92ba-1bcb34cefafa,25e14e7a-5279-11ea-abd6-33c2c32c1f9e
25e02b8a-5279-11ea-815b-2b171a9a5fdb,25e1447a-5279-11ea-8498-6b2b8266d68a
25e0e0de-5279-11ea-ad71-efe39e63306c,25e157a8-5279-11ea-8947-df7ccc136114
25dea4a4-5279-11ea-9699-2b04226817e1,25e16a86-5279-11ea-8347-3bf479f104eb
25dfec2e-5279-11ea-86a5-d3e6394dfb69,25e174ae-5279-11ea-a4d9-efb6f198cb37
25e09250-5279-11ea-aa70-d7ff74578e61,25e18160-5279-11ea-b0d9-b73990268e40
25df9ea4-5279-11ea-bf67-57d4659ff162,25e18e30-5279-11ea-bd81-6766225e2bf6
25e18e30-5279-11ea-bd81-6766225e2bf6,25e19722-5279-11ea-a4b5-6bb0d40a5ffc
25df1dda-5279-11ea-b2be-a795f0ce2105,25e1b28e-5279-11ea-a95b-b3d79cd27797
25df433c-5279-11ea-ad6b-63a2366d2557,25e1ddae-5279-11ea-ac7f-17163facb826
25df5cc8-5279-11ea-9164-7b8cf93a070a,25e1f672-5279-11ea-9ba4-db5ed4f49f2b
25df10b0-5279-11ea-a1ae-c3b33d7f07ab,25e1fd98-5279-11ea-a1d8-0b110a6717e7
25e002a4-5279-11ea-98b7-e7a79bd0e349,25e2070c-5279-11ea-a85b-f718fca008a4
25df9314-5279-11ea-b649-d7812dab4376,25e21152-5279-11ea-95f6-0b6083863905
25df73ac-5279-11ea-b103-fb789cd2bef8,25e21a1c-5279-11ea-ad2e-b74771b164cb
25e03940-5279-11ea-98fa-23efe3403f89,25e2232c-5279-11ea-bda9-bb6e9f1447e4
25deef54-5279-11ea-8e10-d33e319dd4d1,25e22be2-5279-11ea-ae49-77820bf6ea2b
25e1f672-5279-11ea-9ba4-db5ed4f49f2b,25e234c0-5279-11ea-8c8d-4bf9817e2556
25e1fd98-5279-11ea-a1d8-0b110a6717e7,25e24a78-5279-11ea-9b87-3355d6fb64db
25deb0ca-5279-11ea-8a4a-1fea24fadb45,25e2570c-5279-11ea-ae01-b7b155f82c66
25e157a8-5279-11ea-8947-df7ccc136114,25e26044-5279-11ea-8cf4-539053243458
25e1447a-5279-11ea-8498-6b2b8266d68a,25e26d14-5279-11ea-b168-f7e9251fb6b8
25e2570c-5279-11ea-ae01-b7b155f82c66,25e27642-5279-11ea-bebb-53a25bc00c1c
25e08120-5279-11ea-9577-77d63342e786,25e287ea-5279-11ea-9e1f-832ad0f2b984
25e18160-5279-11ea-b0d9-b73990268e40,25e27fc0-5279-11ea-ba5e-f78aa6dd4c0d
25e08120-5279-11ea-9577-77d63342e786,25e2906e-5279-11ea-8142-a3b5bbc83337
25df6bc8-5279-11ea-95b4-bb8fd7f07666,25e2ad60-5279-11ea-b26c-bf51e620a588
25de7d44-5279-11ea-89fd-f7564f67a3b0,25e2b6ca-5279-11ea-8997-2746865e6320
25e24a78-5279-11ea-9b87-3355d6fb64db,25e2becc-5279-11ea-910b-7793425fa245
25e19722-5279-11ea-a4b5-6bb0d40a5ffc,25e2c804-5279-11ea-93cc-172c4c814c00
25ded2bc-5279-11ea-8ce7-9f4c4ba66af2,25e2d10a-5279-11ea-95de-03427e712f1f
25e1fd98-5279-11ea-a1d8-0b110a6717e7,25e2db5a-5279-11ea-9be1-6f1405a88c35
25df9314-5279-11ea-b649-d7812dab4376,25e2e244-5279-11ea-82f2-2b81b84ad2e3
25df5d86-5279-11ea-84bd-7f5cb85513b7,25e2ea78-5279-11ea-baf4-e3ea069fa174
25de7d44-5279-11ea-89fd-f7564f67a3b0,25e30274-5279-11ea-ba14-1b732372f484
25e08120-5279-11ea-9577-77d63342e786,25e30e72-5279-11ea-a0da-67461a5ed65b
25e21a1c-5279-11ea-ad2e-b74771b164cb,25e31610-5279-11ea-9535-8b5dd8a53f67
25e234c0-5279-11ea-8c8d-4bf9817e2556,25e325e2-5279-11ea-b677-bfbdd4f22816
25de9964-5279-11ea-bf75-07d54aebafce,25e33e6a-5279-11ea-8e9f-bb200faf46cb
25deb0ca-5279-11ea-8a4a-1fea24fadb45,25e3319a-5279-11ea-9e82-4ffaafc55387
25e2906e-5279-11ea-8142-a3b5bbc83337,25e34608-5279-11ea-853f-0794036cdd8a
25e1335e-5279-11ea-ac99-cb00a99abe17,25e34e82-5279-11ea-84cd-a7191b01fe48
25e2d10a-5279-11ea-95de-03427e712f1f,25e363e0-5279-11ea-94bd-6f8bd9ab6463
25e22be2-5279-11ea-ae49-77820bf6ea2b,25e37790-5279-11ea-ab28-3b0c7f7770f2
25e2232c-5279-11ea-bda9-bb6e9f1447e4,25e3885c-5279-11ea-a799-bbd9261faaab
25df10b0-5279-11ea-a1ae-c3b33d7f07ab,25e39cde-5279-11ea-b9c5-dfc803e4eb9a
25e1012c-5279-11ea-9fb6-67b29bb7fca5,25e3a5e4-5279-11ea-8612-ff6ccb64f206
25e2232c-5279-11ea-bda9-bb6e9f1447e4,25e3adc8-5279-11ea-8a96-5fc3998d7cb5
25df8338-5279-11ea-83dc-4b2844c98dc6,25e3b4da-5279-11ea-ad81-3720fd58a230
25ded2bc-5279-11ea-8ce7-9f4c4ba66af2,25e3bd54-5279-11ea-aa31-c7c8c1c6942f
25e04566-5279-11ea-9012-6fa87b988f76,25e3c556-5279-11ea-b7eb-13e7332ae7ab
25e26d14-5279-11ea-b168-f7e9251fb6b8,25e3cd4e-5279-11ea-b65d-ab73fb103c26
25def864-5279-11ea-ad9a-a33fd2496d01,25e3e3b0-5279-11ea-8858-b363424aaa0c
25e13ba6-5279-11ea-bcd9-7b0eb6204905,25e3ef90-5279-11ea-b75a-c705a3ba24c7
25e02b8a-5279-11ea-815b-2b171a9a5fdb,25e3ff62-5279-11ea-b497-1b122b9156f4
25e2ad60-5279-11ea-b26c-bf51e620a588,25e4111e-5279-11ea-a017-2339586fcabc
25e325e2-5279-11ea-b677-bfbdd4f22816,25e419ac-5279-11ea-aab7-638594b6c761
25e0e0de-5279-11ea-ad71-efe39e63306c,25e43216-5279-11ea-9aa0-c3c0c49de662
25e08120-5279-11ea-9577-77d63342e786,25e43f86-5279-11ea-8cfc-7705be56eb52
25e04566-5279-11ea-9012-6fa87b988f76,25e448b4-5279-11ea-bcf0-5fc9da0f658e
25e27fc0-5279-11ea-ba5e-f78aa6dd4c0d,25e450d4-5279-11ea-9084-8f8102dfeb8f
25df8338-5279-11ea-83dc-4b2844c98dc6,25e45944-5279-11ea-9d34-ab5801616512
25ded2bc-5279-11ea-8ce7-9f4c4ba66af2,25e46128-5279-11ea-a5ac-4b4202b73e6e
25e21a1c-5279-11ea-ad2e-b74771b164cb,25e471d6-5279-11ea-ba71-877b7bfe27d8
25e27642-5279-11ea-bebb-53a25bc00c1c,25e48bee-5279-11ea-a2c0-3bd91ccc27b4
25e26044-5279-11ea-8cf4-539053243458,25e48220-5279-11ea-a2fb-bf3b35e7d953
25de74d4-5279-11ea-9f77-7ffe149b936d,25e4974c-5279-11ea-8c5d-4b1ffb742ee9
25dfd068-5279-11ea-ac55-73f4fc764a08,25e4a458-5279-11ea-8663-efda73a6dcbe
25e0d6ac-5279-11ea-92ba-1bcb34cefafa,25e4ae4e-5279-11ea-8697-8fe5f0bf4edb
25e46128-5279-11ea-a5ac-4b4202b73e6e,25e4b66e-5279-11ea-adf5-e75ebe00adcf
25e30274-5279-11ea-ba14-1b732372f484,25e4c2b2-5279-11ea-ac96-8fa693f263b5
25df8338-5279-11ea-83dc-4b2844c98dc6,25e4ceec-5279-11ea-9a2d-0bbb402b4ea6
25e0e0de-5279-11ea-ad71-efe39e63306c,25e4e54e-5279-11ea-b0e3-038fea3df93b
25e002a4-5279-11ea-98b7-e7a79bd0e349,25e4ed3c-5279-11ea-b3bc-c76d64e69ca3
25e34608-5279-11ea-853f-0794036cdd8a,25e4f5b6-5279-11ea-9770-978993281432
25e26d14-5279-11ea-b168-f7e9251fb6b8,25e4ff8e-5279-11ea-a819-cb90a63b3e4d
25e18e30-5279-11ea-bd81-6766225e2bf6,25e50ab0-5279-11ea-8e1f-1b9684e5d6b5
25e24a78-5279-11ea-9b87-3355d6fb64db,25e51582-5279-11ea-a23b-ffe5b4b7ff24
25e3b4da-5279-11ea-ad81-3720fd58a230,25e53102-5279-11ea-8703-bf669680261a
25e30e72-5279-11ea-a0da-67461a5ed65b,25e543ea-5279-11ea-a0f9-9f16a8708dcd
25dfb9a2-5279-11ea-83e0-0b04a7678964,25e55272-5279-11ea-8e2e-6ba4d7a867f0
25de9892-5279-11ea-80e1-fb53419eb328,25e55e3e-5279-11ea-bb81-ef3814fd8608
25dee2ac-5279-11ea-9b6e-ef757575bcab,25e5678a-5279-11ea-b0fd-774ed83f5403
25e16a86-5279-11ea-8347-3bf479f104eb,25e5702c-5279-11ea-805a-d38e499cd461
25dfd068-5279-11ea-ac55-73f4fc764a08,25e57856-5279-11ea-aa12-8b3778b0d885
25e4ae4e-5279-11ea-8697-8fe5f0bf4edb,25e581b6-5279-11ea-95e3-137b10cef613
25e31610-5279-11ea-9535-8b5dd8a53f67,25e58f80-5279-11ea-9227-2b1ca4cbbdcd
25de9892-5279-11ea-80e1-fb53419eb328,25e59782-5279-11ea-8e76-07c6cd875de7
25e174ae-5279-11ea-a4d9-efb6f198cb37,25e5b2a8-5279-11ea-96af-f7ab07e2f8f1
25e3adc8-5279-11ea-8a96-5fc3998d7cb5,25e5c342-5279-11ea-bf4b-b34822e36a8a
25e46128-5279-11ea-a5ac-4b4202b73e6e,25e5bc62-5279-11ea-be05-bfec96f1500e
25e01c1c-5279-11ea-9aac-03b34e5bb175,25e5cbbc-5279-11ea-aff7-03e6764639b5
25dfd3b0-5279-11ea-ae9b-dfe365b75d30,25e5d652-5279-11ea-9277-bf578542cce4
25e22be2-5279-11ea-ae49-77820bf6ea2b,25e5e02a-5279-11ea-aeca-c30e6402c3a7
25e5d652-5279-11ea-9277-bf578542cce4,25e5e85e-5279-11ea-bb53-5f7bc1047c57
25e2232c-5279-11ea-bda9-bb6e9f1447e4,25e5f434-5279-11ea-a798-234e5296a0bd
25e5e02a-5279-11ea-aeca-c30e6402c3a7,25e60de8-5279-11ea-9da5-fbbcc83a1335
25e09250-5279-11ea-aa70-d7ff74578e61,25e61e50-5279-11ea-80a8-8b11da7d1054
25e1335e-5279-11ea-ac99-cb00a99abe17,25e6263e-5279-11ea-a22c-8fecc0c629b0
25e18e30-5279-11ea-bd81-6766225e2bf6,25e62e9a-5279-11ea-81cb-bf5a91f34a67
25e419ac-5279-11ea-aab7-638594b6c761,25e63714-5279-11ea-b860-af04aad9fa08
25e33e6a-5279-11ea-8e9f-bb200faf46cb,25e640d8-5279-11ea-8b23-e78451fb659e
25e5e85e-5279-11ea-bb53-5f7bc1047c57,25e64902-5279-11ea-950a-5b20727ea36e
25e234c0-5279-11ea-8c8d-4bf9817e2556,25e650b4-5279-11ea-95d6-b3f207d74e44
25ded2bc-5279-11ea-8ce7-9f4c4ba66af2,25e66590-5279-11ea-b107-039f744520dc
25e5cbbc-5279-11ea-aff7-03e6764639b5,25e68246-5279-11ea-a834-537f4e681ac1
25e450d4-5279-11ea-9084-8f8102dfeb8f,25e68c96-5279-11ea-bbe6-5f137adcf67a
25deef54-5279-11ea-8e10-d33e319dd4d1,25e6a8e8-5279-11ea-93b5-d7112c7a717d
25e26044-5279-11ea-8cf4-539053243458,25e6b1e4-5279-11ea-8eb9-fb4d8ec40709
25e02b8a-5279-11ea-815b-2b171a9a5fdb,25e6b982-5279-11ea-91b4-935f0c5d0044
25e1f672-5279-11ea-9ba4-db5ed4f49f2b,25e6c486-5279-11ea-982f-47ba821b8ad0
25e002a4-5279-11ea-98b7-e7a79bd0e349,25e6d1ba-5279-11ea-a76a-3f41e4bfd6f3
25e46128-5279-11ea-a5ac-4b4202b73e6e,25e6df20-5279-11ea-8aec-1b71a883ced7
25e06e1a-5279-11ea-a2e8-fb1b2a79ebcb,25e6eb0a-5279-11ea-a668-c3b61c206c9e
25e6c486-5279-11ea-982f-47ba821b8ad0,25e6fc12-5279-11ea-a014-cbc8a8e4436f
25e62e9a-5279-11ea-81cb-bf5a91f34a67,25e70860-5279-11ea-a0ed-071ff112cfa7
25e30e72-5279-11ea-a0da-67461a5ed65b,25e71224-5279-11ea-916b-c3e846f0bf03
25e2db5a-5279-11ea-9be1-6f1405a88c35,25e720e8-5279-11ea-b5f4-abc893f154f2
25e37790-5279-11ea-ab28-3b0c7f7770f2,25e734fc-5279-11ea-beb2-633bc8888643
25e63714-5279-11ea-b860-af04aad9fa08,25e72cfa-5279-11ea-ae61-d7c7e0c1a455
25e21a1c-5279-11ea-ad2e-b74771b164cb,25e73ea2-5279-11ea-9083-4fe59149853b
25e1ddae-5279-11ea-ac7f-17163facb826,25e7546e-5279-11ea-9804-e7449211b02b
25e27fc0-5279-11ea-ba5e-f78aa6dd4c0d,25e75ec8-5279-11ea-aa6c-231118bb9c7a
25deef54-5279-11ea-8e10-d33e319dd4d1,25e76788-5279-11ea-b91b-a3d884a8451a
25e2c804-5279-11ea-93cc-172c4c814c00,25e771ec-5279-11ea-9029-b30b91854a96
25de9964-5279-11ea-bf75-07d54aebafce,25e77ef8-5279-11ea-8873-8fb27e4acca7
25e6b1e4-5279-11ea-8eb9-fb4d8ec40709,25e788e4-5279-11ea-b830-57e8ccbd38c4
25e002a4-5279-11ea-98b7-e7a79bd0e349,25e79992-5279-11ea-9b4e-df68c06d5d09
25e04566-5279-11ea-9012-6fa87b988f76,25e7a036-5279-11ea-9362-dba604652907
25e13ba6-5279-11ea-bcd9-7b0eb6204905,25e7a978-5279-11ea-815b-f76a84e671c3
25deb0ca-5279-11ea-8a4a-1fea24fadb45,25e7b454-5279-11ea-86c6-9fd39d9d1731
25e06e1a-5279-11ea-a2e8-fb1b2a79ebcb,25e7bed6-5279-11ea-b40c-db8b8bdfaff1
25e09b4c-5279-11ea-a158-5395a91693c5,25e7cdae-5279-11ea-b856-5b8d99c4af80
25e3e3b0-5279-11ea-8858-b363424aaa0c,25e7d858-5279-11ea-8051-978dc8fb1e45
25e174ae-5279-11ea-a4d9-efb6f198cb37,25e7e7f8-5279-11ea-baf1-930c6897cb58
25df9314-5279-11ea-b649-d7812dab4376,25e7f68a-5279-11ea-ae55-af56ef09bb4d
25e2b6ca-5279-11ea-8997-2746865e6320,25e808b4-5279-11ea-ba91-c3e9c18622b9
25e19722-5279-11ea-a4b5-6bb0d40a5ffc,25e7ff4a-5279-11ea-8c34-abe85092c513
25e7f68a-5279-11ea-ae55-af56ef09bb4d,25e810c0-5279-11ea-8c9a-9f56690fc5fa
25de74d4-5279-11ea-9f77-7ffe149b936d,25e81cc8-5279-11ea-a9df-3f073b9dc07d
25e48bee-5279-11ea-a2c0-3bd91ccc27b4,25e82998-5279-11ea-854c-e756b96802e4
25e3bd54-5279-11ea-aa31-c7c8c1c6942f,25e83776-5279-11ea-907d-27fd87c660e5
25e09250-5279-11ea-aa70-d7ff74578e61,25e844dc-5279-11ea-b3cf-db39081afd14
25e0123a-5279-11ea-a9f9-833e7fb92900,25e85152-5279-11ea-9b34-23d974231e55
25e4f5b6-5279-11ea-9770-978993281432,25e85ecc-5279-11ea-bf0f-e7de28339e14
25e1203a-5279-11ea-8b98-776c3bb91ca4,25e86a34-5279-11ea-ab96-0b6fbe88ccca
25e3b4da-5279-11ea-ad81-3720fd58a230,25e87600-5279-11ea-8fe1-47ea74aa0c94
25e30e72-5279-11ea-a0da-67461a5ed65b,25e893a6-5279-11ea-a8c0-0b1d08980fce
25e48bee-5279-11ea-a2c0-3bd91ccc27b4,25e8a0b2-5279-11ea-85e9-8748e76ce2cb
25df9314-5279-11ea-b649-d7812dab4376,25e8b2dc-5279-11ea-b6a1-bf28e1c92cdf
25e24a78-5279-11ea-9b87-3355d6fb64db,25e8c498-5279-11ea-bb7a-2fffbba813f9
25e5702c-5279-11ea-805a-d38e499cd461,25e8d686-5279-11ea-a918-3762140e856b
25e26044-5279-11ea-8cf4-539053243458,25e8ce70-5279-11ea-8923-af810438a74f
25e85152-5279-11ea-9b34-23d974231e55,25e8e16c-5279-11ea-8327-bbb51678d949
25e26044-5279-11ea-8cf4-539053243458,25e8e978-5279-11ea-8db8-7fc164c58d5b
25e7ff4a-5279-11ea-8c34-abe85092c513,25e8f2e2-5279-11ea-aab2-630b1e5028b8
25e6fc12-5279-11ea-a014-cbc8a8e4436f,25e90228-5279-11ea-a7e2-33e46adde0c9
25e1203a-5279-11ea-8b98-776c3bb91ca4,25e92212-5279-11ea-be48-a7773b28d109
25e86a34-5279-11ea-ab96-0b6fbe88ccca,25e9346e-5279-11ea-99d7-6f3fe14c4c2d
25de8712-5279-11ea-ac2c-b7da0f0d9938,25e93bf8-5279-11ea-8144-5f0634584cc9
25e2db5a-5279-11ea-9be1-6f1405a88c35,25e944ae-5279-11ea-80ab-575595fb4665
25e63714-5279-11ea-b860-af04aad9fa08,25e956b0-5279-11ea-8bd8-f387b36809de
25e7f68a-5279-11ea-ae55-af56ef09bb4d,25e94df0-5279-11ea-8dd1-5383272db23b
25e26044-5279-11ea-8cf4-539053243458,25e95f70-5279-11ea-b309-a7a82a623166
25e7cdae-5279-11ea-b856-5b8d99c4af80,25e967b8-5279-11ea-947d-5fd40d2a9871
25e06e1a-5279-11ea-a2e8-fb1b2a79ebcb,25e98450-5279-11ea-ad91-93cc32b50121
25e6b1e4-5279-11ea-8eb9-fb4d8ec40709,25e99e18-5279-11ea-986d-6b1cd8a3e967
25df1dda-5279-11ea-b2be-a795f0ce2105,25e9ac1e-5279-11ea-8a5a-2bdb22d3fbad
25e05dda-5279-11ea-b063-43895989fb2a,25e9bc40-5279-11ea-a90a-c308b76823e6
25e956b0-5279-11ea-8bd8-f387b36809de,25e9c5b4-5279-11ea-824b-cbe3f60d9210
25e98450-5279-11ea-ad91-93cc32b50121,25e9d1ee-5279-11ea-b2be-db9105abb871
25e50ab0-5279-11ea-8e1f-1b9684e5d6b5,25e9da36-5279-11ea-a73f-97f6c01c40f9
25e18160-5279-11ea-b0d9-b73990268e40,25e9f020-5279-11ea-bbcc-8b9ca56f370b
25e71224-5279-11ea-916b-c3e846f0bf03,25e9fc32-5279-11ea-a684-ef711636b17e
25e06e1a-5279-11ea-a2e8-fb1b2a79ebcb,25ea0b8c-5279-11ea-9573-4387f4536587
25e650b4-5279-11ea-95d6-b3f207d74e44,25ea1d16-5279-11ea-87ac-87e54a337b5f
25e7ff4a-5279-11ea-8c34-abe85092c513,25ea310c-5279-11ea-b786-bf5cffc0bc1f
25e2ea78-5279-11ea-baf4-e3ea069fa174,25ea3ba2-5279-11ea-9ba7-331991b944f9
25e71224-5279-11ea-916b-c3e846f0bf03,25ea5bc8-5279-11ea-9341-5327a06a8cad
25e21a1c-5279-11ea-ad2e-b74771b164cb,25ea6352-5279-11ea-b92b-9b5626c65db4
25de8712-5279-11ea-ac2c-b7da0f0d9938,25ea76da-5279-11ea-916d-73fe373b8621
25df0d54-5279-11ea-9c4b-8b1c3ddeb9a2,25ea8346-5279-11ea-91c6-d3d136bbbc74
25ea76da-5279-11ea-916d-73fe373b8621,25ea8b84-5279-11ea-b5ff-734e669db73b
25e95f70-5279-11ea-b309-a7a82a623166,25ea946c-5279-11ea-b520-73841677b132
25e8e978-5279-11ea-8db8-7fc164c58d5b,25eaa0ec-5279-11ea-b431-eb35bf9ab605
25e7a978-5279-11ea-815b-f76a84e671c3,25eab8de-5279-11ea-99d2-831b7911c8f3
25e55e3e-5279-11ea-bb81-ef3814fd8608,25eac270-5279-11ea-b608-eb1ed5f6e79a
25df1dda-5279-11ea-b2be-a795f0ce2105,25ead3fa-5279-11ea-863f-fbef6a1bcce7
25e419ac-5279-11ea-aab7-638594b6c761,25eadd28-5279-11ea-9614-bb48e8572f98
25e2232c-5279-11ea-bda9-bb6e9f1447e4,25eaf2d6-5279-11ea-a2cb-278e30736892
25e8e16c-5279-11ea-8327-bbb51678d949,25eaea52-5279-11ea-b303-1bd1322d8fc5
25e8ce70-5279-11ea-8923-af810438a74f,25eafb28-5279-11ea-9bfd-c32fceedfe4e
25e48220-5279-11ea-a2fb-bf3b35e7d953,25eb0f1e-5279-11ea-8b11-4370f4df64e3
25e3ff62-5279-11ea-b497-1b122b9156f4,25eb1c66-5279-11ea-a7a9-03775878d933
25e6df20-5279-11ea-8aec-1b71a883ced7,25eb27ba-5279-11ea-ae80-9ffb6595f47b
25eb1c66-5279-11ea-a7a9-03775878d933,25eb39b2-5279-11ea-9e5c-4bb33a53446a
25e95f70-5279-11ea-b309-a7a82a623166,25eb4484-5279-11ea-972e-f32560f2ca92
25e3adc8-5279-11ea-8a96-5fc3998d7cb5,25eb547e-5279-11ea-80b7-2332c6f7ed39
25e85152-5279-11ea-9b34-23d974231e55,25eb5e38-5279-11ea-a689-df9664b98ed8
25e7f68a-5279-11ea-ae55-af56ef09bb4d,25eb66d0-5279-11ea-a47f-33ccba89ce30
25e77ef8-5279-11ea-8873-8fb27e4acca7,25eb7ec2-5279-11ea-96c2-2f8798648a1a
25e31610-5279-11ea-9535-8b5dd8a53f67,25eb7576-5279-11ea-bb73-fb1edd3784fa
25df0d54-5279-11ea-9c4b-8b1c3ddeb9a2,25eb9196-5279-11ea-9656-df63ff691c10
25e2d10a-5279-11ea-95de-03427e712f1f,25ebb400-5279-11ea-96c0-cbf04d301f05
25e8ce70-5279-11ea-8923-af810438a74f,25ebbfd6-5279-11ea-965e-07bd2f10dd86
25e581b6-5279-11ea-95e3-137b10cef613,25ebc904-5279-11ea-ac69-ffb1f9576495
25e5e02a-5279-11ea-aeca-c30e6402c3a7,25ebd61a-5279-11ea-8ac0-cf16eb97866a
25e6d1ba-5279-11ea-a76a-3f41e4bfd6f3,25ebdfde-5279-11ea-b9e7-27b86eeadcc5
25e734fc-5279-11ea-beb2-633bc8888643,25ebed6c-5279-11ea-81e3-b33ed63ddb10
25e7e7f8-5279-11ea-baf1-930c6897cb58,25ebf780-5279-11ea-b04a-579edb130257
25df1dda-5279-11ea-b2be-a795f0ce2105,25ec1ba2-5279-11ea-aeb4-3ff65adfc55e
25e99e18-5279-11ea-986d-6b1cd8a3e967,25ec2e44-5279-11ea-a4ab-63a8c423fb51
25e893a6-5279-11ea-a8c0-0b1d08980fce,25ec45b4-5279-11ea-b2bc-3b01ed87b28e
25e85ecc-5279-11ea-bf0f-e7de28339e14,25ec5004-5279-11ea-8d3b-9b9ed9307e16
25e1012c-5279-11ea-9fb6-67b29bb7fca5,25ec5c98-5279-11ea-8a89-4774500a1060
25e4ff8e-5279-11ea-a819-cb90a63b3e4d,25ec6cec-5279-11ea-a9f2-7733c386a7a2
25e71224-5279-11ea-916b-c3e846f0bf03,25ec773c-5279-11ea-b83d-83f643d1eb72
25e09b4c-5279-11ea-a158-5395a91693c5,25ec83da-5279-11ea-b7aa-1f6b5773df58
25e02400-5279-11ea-80de-4795d9f42ee7,25eca8c4-5279-11ea-ab08-37c6b86a6c7f
25e71224-5279-11ea-916b-c3e846f0bf03,25ecbc88-5279-11ea-a2b5-73fb4e871d22
25ea1d16-5279-11ea-87ac-87e54a337b5f,25eccbec-5279-11ea-8ba9-93cbcf7de6a1
25e7f68a-5279-11ea-ae55-af56ef09bb4d,25ecd9ca-5279-11ea-938b-d3ddc8f746bc
25e4c2b2-5279-11ea-ac96-8fa693f263b5,25ece80c-5279-11ea-bf5d-475957ef29d9
25de9892-5279-11ea-80e1-fb53419eb328,25ecf266-5279-11ea-8bd3-1bb67c001124
25e60de8-5279-11ea-9da5-fbbcc83a1335,25ed0fb2-5279-11ea-9e12-dfd91960afd0
25e83776-5279-11ea-907d-27fd87c660e5,25ed2240-5279-11ea-adb8-13c031ce1037
25e8d686-5279-11ea-a918-3762140e856b,25ed3050-5279-11ea-bf56-6f5ce00d4ff6
25e24a78-5279-11ea-9b87-3355d6fb64db,25ed3a96-5279-11ea-b8c5-c36dda8cc807
25e90228-5279-11ea-a7e2-33e46adde0c9,25ed463a-5279-11ea-863f-0f55827723ff
25e3885c-5279-11ea-a799-bbd9261faaab,25ed518e-5279-11ea-85c1-7f270622d94d
25e2070c-5279-11ea-a85b-f718fca008a4,25ed71aa-5279-11ea-a476-b7a6effa7d1c
25e471d6-5279-11ea-ba71-877b7bfe27d8,25ed96bc-5279-11ea-913f-13c175f17abd
25e33e6a-5279-11ea-8e9f-bb200faf46cb,25eda85a-5279-11ea-b488-6f64316e6bb8
25e4ae4e-5279-11ea-8697-8fe5f0bf4edb,25edc376-5279-11ea-b704-c73996c802f7
25e76788-5279-11ea-b91b-a3d884a8451a,25edca92-5279-11ea-ad9c-8be37f517d70
25eb9196-5279-11ea-9656-df63ff691c10,25edf044-5279-11ea-9a32-5f544e7b95cf
25eb7ec2-5279-11ea-96c2-2f8798648a1a,25edf9ae-5279-11ea-8f87-1b66d29cb33b
25e3e3b0-5279-11ea-8858-b363424aaa0c,25ee0368-5279-11ea-b8f7-37ecbc52ae38
25e6fc12-5279-11ea-a014-cbc8a8e4436f,25ee1128-5279-11ea-8425-ab948362b17f
25e4ae4e-5279-11ea-8697-8fe5f0bf4edb,25ee1ca4-5279-11ea-b893-bf8b2a20484c
25e45944-5279-11ea-9d34-ab5801616512,25ee2686-5279-11ea-9dbd-fb992ad5210f
25e02400-5279-11ea-80de-4795d9f42ee7,25ee3248-5279-11ea-b6a9-db9a0002a2ea
25df9314-5279-11ea-b649-d7812dab4376,25ee5502-5279-11ea-aa7c-fb882f29ccc8
25e02400-5279-11ea-80de-4795d9f42ee7,25ee7500-5279-11ea-8998-27d2e4f87102
25e1447a-5279-11ea-8498-6b2b8266d68a,25ee7db6-5279-11ea-aa33-fb49d2ae7cba
25e3bd54-5279-11ea-aa31-c7c8c1c6942f,25ee87fc-5279-11ea-be98-ff822bd897df
25e9fc32-5279-11ea-a684-ef711636b17e,25ee91a2-5279-11ea-aaca-af52ee94adb1
25e85ecc-5279-11ea-bf0f-e7de28339e14,25ee9ad0-5279-11ea-936c-1b6cbf365017
25ee2686-5279-11ea-9dbd-fb992ad5210f,25eea886-5279-11ea-bb59-cb8d4ed1e237
25df73ac-5279-11ea-b103-fb789cd2bef8,25eec7da-5279-11ea-9d51-079317d8206e
25df6bc8-5279-11ea-95b4-bb8fd7f07666,25eee206-5279-11ea-bdd0-0fda1633c90b
25e6a8e8-5279-11ea-93b5-d7112c7a717d,25eeef3a-5279-11ea-b9f8-ff61454b5a85
25e6eb0a-5279-11ea-a668-c3b61c206c9e,25eef8a4-5279-11ea-91c1-a35c1034395e
25e3ff62-5279-11ea-b497-1b122b9156f4,25ef08a8-5279-11ea-9ea7-d74ded8fe9a6
25e3bd54-5279-11ea-aa31-c7c8c1c6942f,25ef11d6-5279-11ea-ad6e-d39b65133e47
25eadd28-5279-11ea-9614-bb48e8572f98,25ef1cda-5279-11ea-b9bc-0b1f41d71b9e
25e6c486-5279-11ea-982f-47ba821b8ad0,25ef273e-5279-11ea-9b6b-9792205685d4
25e5702c-5279-11ea-805a-d38e499cd461,25ef446c-5279-11ea-bcd4-e7134936d807
25e53102-5279-11ea-8703-bf669680261a,25ef511e-5279-11ea-a735-47dbaa3cb43a
25e14e7a-5279-11ea-abd6-33c2c32c1f9e,25ef662c-5279-11ea-8d82-9ba1c2a7582b
25e9f020-5279-11ea-bbcc-8b9ca56f370b,25ef76f8-5279-11ea-a743-c360cd16fada
25e39cde-5279-11ea-b9c5-dfc803e4eb9a,25ef8210-5279-11ea-999b-6b717aebe37a
25ef446c-5279-11ea-bcd4-e7134936d807,25ef9b24-5279-11ea-a1c9-bbffd5ac1a84
25e31610-5279-11ea-9535-8b5dd8a53f67,25efa7e0-5279-11ea-96f7-bb8449753f4b
25e08120-5279-11ea-9577-77d63342e786,25efb122-5279-11ea-9b6d-0b9370e9f230
25e12ae4-5279-11ea-84e1-df0fa2f7ba57,25efc130-5279-11ea-9305-c3b93f85510c
25df433c-5279-11ea-ad6b-63a2366d2557,25efce5a-5279-11ea-a3e8-87e70ea71fa8
25e2ad60-5279-11ea-b26c-bf51e620a588,25efda9e-5279-11ea-a453-c764e412ee17
25ecf266-5279-11ea-8bd3-1bb67c001124,25efe44e-5279-11ea-bbb4-57ea74408102
25dfd068-5279-11ea-ac55-73f4fc764a08,25eff7f4-5279-11ea-bc14-4f565bcc4e15
25e4111e-5279-11ea-a017-2339586fcabc,25f0049c-5279-11ea-871a-87c7f2ba6663
25e1f672-5279-11ea-9ba4-db5ed4f49f2b,25f0182e-5279-11ea-88df-cb1e417de8af
25ec6cec-5279-11ea-a9f2-7733c386a7a2,25f02490-5279-11ea-8f35-bf474efdfe66
25ec5c98-5279-11ea-8a89-4774500a1060,25f0308e-5279-11ea-9de3-cb1f69e5f9ed
25e61e50-5279-11ea-80a8-8b11da7d1054,25f04268-5279-11ea-a429-efacf4ef8030
25eb0f1e-5279-11ea-8b11-4370f4df64e3,25f04ed4-5279-11ea-b756-abef9c45ff50
25e94df0-5279-11ea-8dd1-5383272db23b,25f057f8-5279-11ea-ae53-bfbff099acaf
25f057f8-5279-11ea-ae53-bfbff099acaf,25f07058-5279-11ea-b4cf-738d0e8f5625
25e3bd54-5279-11ea-aa31-c7c8c1c6942f,25f07d64-5279-11ea-8d77-bb1ef7cbd87b
25f04ed4-5279-11ea-b756-abef9c45ff50,25f09060-5279-11ea-8f37-afccda18f64d
25ec83da-5279-11ea-b7aa-1f6b5773df58,25f09628-5279-11ea-8fc5-c317a6ecce45
25e31610-5279-11ea-9535-8b5dd8a53f67,25f0a6c2-5279-11ea-a9e8-1fb3be7eec09
25e50ab0-5279-11ea-8e1f-1b9684e5d6b5,25f0c148-5279-11ea-97bb-6b47b7aaeab4
25ec83da-5279-11ea-b7aa-1f6b5773df58,25f0d8ea-5279-11ea-b750-5b0eda15ffa9
25e93bf8-5279-11ea-8144-5f0634584cc9,25f0e40c-5279-11ea-9e88-87dc2d29a49b
25ee5502-5279-11ea-aa7c-fb882f29ccc8,25f0f078-5279-11ea-a993-2322a22873a1
25ebed6c-5279-11ea-81e3-b33ed63ddb10,25f0fbfe-5279-11ea-877f-ab871fc03da6
25e788e4-5279-11ea-b830-57e8ccbd38c4,25f107a2-5279-11ea-865b-0f2b38ba1271
25eafb28-5279-11ea-9bfd-c32fceedfe4e,25f1115c-5279-11ea-9dd4-6be80a82f79f
25eaa0ec-5279-11ea-b431-eb35bf9ab605,25f11a3a-5279-11ea-8469-fb970ce485f0
25e174ae-5279-11ea-a4d9-efb6f198cb37,25f14082-5279-11ea-aa33-2f0a8f70f947
25e234c0-5279-11ea-8c8d-4bf9817e2556,25f156e4-5279-11ea-8ec5-c3b32554f765
25e3adc8-5279-11ea-8a96-5fc3998d7cb5,25f15ff4-5279-11ea-af75-3334338db58d
25e39cde-5279-11ea-b9c5-dfc803e4eb9a,25f16a3a-5279-11ea-8070-9f6f2a9bceaa
25f0f078-5279-11ea-a993-2322a22873a1,25f17660-5279-11ea-a196-77c06ade9e29
25e34608-5279-11ea-853f-0794036cdd8a,25f17ef8-5279-11ea-addf-1fb4357be270
25efe44e-5279-11ea-bbb4-57ea74408102,25f1877c-5279-11ea-a96b-c72e72acab5f
25e09250-5279-11ea-aa70-d7ff74578e61,25f191c2-5279-11ea-93a4-d70cf2db78bf
25e83776-5279-11ea-907d-27fd87c660e5,25f19d8e-5279-11ea-9e5b-7f33d10927fe
25df6bc8-5279-11ea-95b4-bb8fd7f07666,25f1ae28-5279-11ea-bb94-5ff19ee89ef7
25e4ceec-5279-11ea-9a2d-0bbb402b4ea6,25f1c23c-5279-11ea-9e36-4702ae49be55
25ece80c-5279-11ea-bf5d-475957ef29d9,25f1ccdc-5279-11ea-9cdb-9b6d0c77b1cd
25eb39b2-5279-11ea-9e5c-4bb33a53446a,25f1d90c-5279-11ea-968d-b313a71f721c
25f0049c-5279-11ea-871a-87c7f2ba6663,25f1e488-5279-11ea-8c40-b3372e899390
25efb122-5279-11ea-9b6d-0b9370e9f230,25f1ecd0-5279-11ea-a3b8-4bf71906e8be
25e37790-5279-11ea-ab28-3b0c7f7770f2,25f1f8ba-5279-11ea-a535-b37460b935f0
25e6b982-5279-11ea-91b4-935f0c5d0044,25f200f8-5279-11ea-88b3-b3100e34fa65
25df73ac-5279-11ea-b103-fb789cd2bef8,25f20c92-5279-11ea-88d0-9feced675dcf
25e73ea2-5279-11ea-9083-4fe59149853b,25f21b06-5279-11ea-b9f7-83a256e27238
25e650b4-5279-11ea-95d6-b3f207d74e44,25f23b36-5279-11ea-bc27-63f82de3ee39
25e79992-5279-11ea-9b4e-df68c06d5d09,25f2436a-5279-11ea-91cb-fb8ba9dcbc44
25ea76da-5279-11ea-916d-73fe373b8621,25f24dec-5279-11ea-a869-0769b458f684
25e1203a-5279-11ea-8b98-776c3bb91ca4,25f2588c-5279-11ea-b953-57c49ce08b4a
25e7e7f8-5279-11ea-baf1-930c6897cb58,25f260de-5279-11ea-95a2-7f26a4910590
25e448b4-5279-11ea-bcf0-5fc9da0f658e,25f268e0-5279-11ea-91ed-ffb31d1d4c3a
25e5b2a8-5279-11ea-96af-f7ab07e2f8f1,25f272e0-5279-11ea-b57f-4b7459148c45
25eef8a4-5279-11ea-91c1-a35c1034395e,25f27af6-5279-11ea-a0bb-8fd05321cda5
25e2070c-5279-11ea-a85b-f718fca008a4,25f29a4a-5279-11ea-89c3-a3f6e91990e5
25ee7500-5279-11ea-8998-27d2e4f87102,25f2aba2-5279-11ea-9887-a725b23694c9
25e39cde-5279-11ea-b9c5-dfc803e4eb9a,25f2b480-5279-11ea-896a-0be7aad2bd2c
25f1115c-5279-11ea-9dd4-6be80a82f79f,25f2c178-5279-11ea-b2a1-5754b2101b1f
25eac270-5279-11ea-b608-eb1ed5f6e79a,25f2cd58-5279-11ea-9d23-47f0cb317e2a
25e08120-5279-11ea-9577-77d63342e786,25f2dc4e-5279-11ea-97fb-0f676b479179
25e5702c-5279-11ea-805a-d38e499cd461,25f2e590-5279-11ea-8013-e7462fe58523
25e234c0-5279-11ea-8c8d-4bf9817e2556,25f3039a-5279-11ea-ad7f-13d14c756718
25f1f8ba-5279-11ea-a535-b37460b935f0,25f310b0-5279-11ea-8732-0f6f886b25da
25e26044-5279-11ea-8cf4-539053243458,25f325be-5279-11ea-877c-1b138707eaef
25f17660-5279-11ea-a196-77c06ade9e29,25f33284-5279-11ea-9c06-9f34519fd7ae
25f1f8ba-5279-11ea-a535-b37460b935f0,25f33c8e-5279-11ea-b7f3-570d7879162e
25e7cdae-5279-11ea-b856-5b8d99c4af80,25f379ba-5279-11ea-b697-e789828b8ecd
25e22be2-5279-11ea-ae49-77820bf6ea2b,25f38586-5279-11ea-9a38-870aac8c4819
25e3ef90-5279-11ea-b75a-c705a3ba24c7,25f39846-5279-11ea-bd08-9bfaca399b8f
25e2becc-5279-11ea-910b-7793425fa245,25f38ee6-5279-11ea-bfbe-5b2cc0c1dcaa
25df0d54-5279-11ea-9c4b-8b1c3ddeb9a2,25f3b6fa-5279-11ea-b128-d3ba2522986a
25f09628-5279-11ea-8fc5-c317a6ecce45,25f3c3ac-5279-11ea-a286-3fe727e90bd9
25ebc904-5279-11ea-ac69-ffb1f9576495,25f3cf50-5279-11ea-a09a-2f5607238a31
25e7a978-5279-11ea-815b-f76a84e671c3,25f3d734-5279-11ea-863c-83fddc773973
25f1877c-5279-11ea-a96b-c72e72acab5f,25f3e01c-5279-11ea-8407-677a8a8bb40a
25e6eb0a-5279-11ea-a668-c3b61c206c9e,25f3f2dc-5279-11ea-b2f9-6b03f5d46dd2
25f19d8e-5279-11ea-9e5b-7f33d10927fe,25f400ce-5279-11ea-8f50-4f023035e575
25e8ce70-5279-11ea-8923-af810438a74f,25f40c72-5279-11ea-8713-6be74b52b36b
25df5cc8-5279-11ea-9164-7b8cf93a070a,25f41f46-5279-11ea-acbf-634662c833a2
25def864-5279-11ea-ad9a-a33fd2496d01,25f42efa-5279-11ea-93a6-5bab4c6298df
25ef76f8-5279-11ea-a743-c360cd16fada,25f43aa8-5279-11ea-99a6-972974928578
25e2070c-5279-11ea-a85b-f718fca008a4,25f44cc8-5279-11ea-8877-33d2b897d9c6
25ed3050-5279-11ea-bf56-6f5ce00d4ff6,25f4543e-5279-11ea-a0b5-2f6bd1a02811
25e85152-5279-11ea-9b34-23d974231e55,25f45cd6-5279-11ea-9241-0bfb6493a807
25f3c3ac-5279-11ea-a286-3fe727e90bd9,25f47388-5279-11ea-aa82-1bd6f8928eab
25f42efa-5279-11ea-93a6-5bab4c6298df,25f46b90-5279-11ea-858b-5f954dd3d25f
25e2ea78-5279-11ea-baf4-e3ea069fa174,25f4a0ec-5279-11ea-9d27-67c0f33a634d
25e68c96-5279-11ea-bbe6-5f137adcf67a,25f4b2ee-5279-11ea-bde9-87db14ca8e41
25e7b454-5279-11ea-86c6-9fd39d9d1731,25f4c220-5279-11ea-904b-ef0f504b51ba
25f4a0ec-5279-11ea-9d27-67c0f33a634d,25f4d04e-5279-11ea-bdc7-c3a5ca003c5d
25eef8a4-5279-11ea-91c1-a35c1034395e,25f4da62-5279-11ea-b2f1-1f4a1f24658d
25e650b4-5279-11ea-95d6-b3f207d74e44,25f4e39a-5279-11ea-b241-7f1e461445e4
25de9964-5279-11ea-bf75-07d54aebafce,25f4ec78-5279-11ea-b53d-abf48b0b2c94
25e1012c-5279-11ea-9fb6-67b29bb7fca5,25f4f6be-5279-11ea-a5b7-ffa1ab33655b
25eee206-5279-11ea-bdd0-0fda1633c90b,25f508fc-5279-11ea-bb96-3311e1761b91
25e0bb68-5279-11ea-aa4b-d7c22aa551b5,25f51784-5279-11ea-94af-273590685c5c
25f40c72-5279-11ea-8713-6be74b52b36b,25f5236e-5279-11ea-b485-6bc4399166e5
25e9c5b4-5279-11ea-824b-cbe3f60d9210,25f537be-5279-11ea-88b9-671cc969952e
25f3e01c-5279-11ea-8407-677a8a8bb40a,25f55118-5279-11ea-b090-4f57fcde81e6
25df8338-5279-11ea-83dc-4b2844c98dc6,25f559f6-5279-11ea-a782-9745554aa8a6
25ea946c-5279-11ea-b520-73841677b132,25f5648c-5279-11ea-8d01-c7ce691316ca
25df9ea4-5279-11ea-bf67-57d4659ff162,25f56d42-5279-11ea-8e79-d705a7ff3864
25ed71aa-5279-11ea-a476-b7a6effa7d1c,25f5763e-5279-11ea-b25c-8fab73960bfa
25e48220-5279-11ea-a2fb-bf3b35e7d953,25f58124-5279-11ea-bdde-2f708fb7f3d3
25ee7db6-5279-11ea-aa33-fb49d2ae7cba,25f58b1a-5279-11ea-9353-e751c02c8eea
25e8e978-5279-11ea-8db8-7fc164c58d5b,25f59b82-5279-11ea-93a7-d3f5bc474753
25e1012c-5279-11ea-9fb6-67b29bb7fca5,25f5bee6-5279-11ea-8217-9b3a091434fd
25f4c220-5279-11ea-904b-ef0f504b51ba,25f5b5e0-5279-11ea-8704-b77082fde4c6
25deef54-5279-11ea-8e10-d33e319dd4d1,25f5d53e-5279-11ea-8c26-1fcd85cde79c
25de74d4-5279-11ea-9f77-7ffe149b936d,25f5f028-5279-11ea-9c7a-bb279cd9a8db
25e581b6-5279-11ea-95e3-137b10cef613,25f5fc58-5279-11ea-9ee5-9f1d109683ae
25e4111e-5279-11ea-a017-2339586fcabc,25f6066c-5279-11ea-88e7-b3f5bee21f3f
25de7d44-5279-11ea-89fd-f7564f67a3b0,25f60ef0-5279-11ea-9051-97bc86b3a556
25f09628-5279-11ea-8fc5-c317a6ecce45,25f61986-5279-11ea-91d1-c7a5d4189123
25e8b2dc-5279-11ea-b6a1-bf28e1c92cdf,25f62cbe-5279-11ea-bcd0-27e2779e7f8f
25f3e01c-5279-11ea-8407-677a8a8bb40a,25f625de-5279-11ea-95c2-8f9b32d5a28d
25ed0fb2-5279-11ea-9e12-dfd91960afd0,25f6372c-5279-11ea-8374-e31d5d0070ad
25f07d64-5279-11ea-8d77-bb1ef7cbd87b,25f650fe-5279-11ea-92a3-a3f267b627e3
25e7ff4a-5279-11ea-8c34-abe85092c513,25f65d42-5279-11ea-a977-b3f2bec3762a
25ed518e-5279-11ea-85c1-7f270622d94d,25f66954-5279-11ea-9fd6-379fdb90877d
25f38ee6-5279-11ea-bfbe-5b2cc0c1dcaa,25f6752a-5279-11ea-9699-9f2237f6ef6e
25f3b6fa-5279-11ea-b128-d3ba2522986a,25f68542-5279-11ea-a898-ef19499fe779
25ecd9ca-5279-11ea-938b-d3ddc8f746bc,25f6906e-5279-11ea-afce-e33cd3961f7b
25eec7da-5279-11ea-9d51-079317d8206e,25f698d4-5279-11ea-942a-935853af2fd0
25eee206-5279-11ea-bdd0-0fda1633c90b,25f6a0ea-5279-11ea-9448-7bd4edf9f76c
25f2dc4e-5279-11ea-97fb-0f676b479179,25f6b328-5279-11ea-8402-2761b8446061
25e4a458-5279-11ea-8663-efda73a6dcbe,25f6c37c-5279-11ea-a0b5-af0b6a3c0370
25e808b4-5279-11ea-ba91-c3e9c18622b9,25f6cdfe-5279-11ea-b201-3720eb868d0c
25f698d4-5279-11ea-942a-935853af2fd0,25f6da60-5279-11ea-a385-83d5f578a23d
25f20c92-5279-11ea-88d0-9feced675dcf,25f6f860-5279-11ea-aa23-07bbd07b7922
25e2ea78-5279-11ea-baf4-e3ea069fa174,25f70274-5279-11ea-ba04-df70f25b7759
25e3885c-5279-11ea-a799-bbd9261faaab,25f70b5c-5279-11ea-af8a-bfcf86e630fa
25e2ad60-5279-11ea-b26c-bf51e620a588,25f717e6-5279-11ea-991a-67bc80df490d
25e844dc-5279-11ea-b3cf-db39081afd14,25f72754-5279-11ea-9695-afd0bff6c612
25f2dc4e-5279-11ea-97fb-0f676b479179,25f73618-5279-11ea-8dd1-0b4c2da440a4
25ee7500-5279-11ea-8998-27d2e4f87102,25f74360-5279-11ea-8563-9f9db031dc1d
25e03940-5279-11ea-98fa-23efe3403f89,25f74cac-5279-11ea-a6b9-0f2a097556db
25e85ecc-5279-11ea-bf0f-e7de28339e14,25f7646c-5279-11ea-a474-c7b3ad6f340c
25e5f434-5279-11ea-a798-234e5296a0bd,25f77420-5279-11ea-84e5-3bcecd89e685
25e7f68a-5279-11ea-ae55-af56ef09bb4d,25f77d80-5279-11ea-af73-53cf10090ea1
25e5f434-5279-11ea-a798-234e5296a0bd,25f78ba4-5279-11ea-b303-8b1ea4dc415b
25f6372c-5279-11ea-8374-e31d5d0070ad,25f794c8-5279-11ea-8fea-07f0788d8940
25dea4a4-5279-11ea-9699-2b04226817e1,25f7aa08-5279-11ea-a164-174459ff5e83
25f70b5c-5279-11ea-af8a-bfcf86e630fa,25f7b278-5279-11ea-b1f3-5f6ea0930990
25f6b328-5279-11ea-8402-2761b8446061,25f7bb74-5279-11ea-a86c-6b26a2bc4d28
25ec45b4-5279-11ea-b2bc-3b01ed87b28e,25f7ccf4-5279-11ea-ba4e-8b1ebf364111
25e6df20-5279-11ea-8aec-1b71a883ced7,25f7dc58-5279-11ea-bce9-2b7f16204c99
25f16a3a-5279-11ea-8070-9f6f2a9bceaa,25f7e8ba-5279-11ea-a25d-8325c92cff2e
25f4c220-5279-11ea-904b-ef0f504b51ba,25f7ffc6-5279-11ea-afc7-5fbfff3419a9
25e1012c-5279-11ea-9fb6-67b29bb7fca5,25f808cc-5279-11ea-90e2-df59b766b6ef
25e1fd98-5279-11ea-a1d8-0b110a6717e7,25f81510-5279-11ea-a11b-03ccc518a278
25dfd068-5279-11ea-ac55-73f4fc764a08,25f8215e-5279-11ea-8cd2-5b6a9778f236
25de9964-5279-11ea-bf75-07d54aebafce,25f83360-5279-11ea-ba29-3372d4fa8576
25e640d8-5279-11ea-8b23-e78451fb659e,25f83cc0-5279-11ea-96e1-4f282e8e53bc
25ea6352-5279-11ea-b92b-9b5626c65db4,25f851f6-5279-11ea-a779-abee54fae144
25f6906e-5279-11ea-afce-e33cd3961f7b,25f85a3e-5279-11ea-b206-7b4da726b289
25f38ee6-5279-11ea-bfbe-5b2cc0c1dcaa,25f8751e-5279-11ea-a873-eb898dd9dafb
25df5cc8-5279-11ea-9164-7b8cf93a070a,25f87d20-5279-11ea-ae70-2bc93f35a7d7
25e95f70-5279-11ea-b309-a7a82a623166,25f88b6c-5279-11ea-892e-271aacaabfe4
25f4e39a-5279-11ea-b241-7f1e461445e4,25f892c4-5279-11ea-9d6b-d7e98ef90b0d
25e61e50-5279-11ea-80a8-8b11da7d1054,25f89c2e-5279-11ea-b23f-8f4b39499623
25eb39b2-5279-11ea-9e5c-4bb33a53446a,25f8b952-5279-11ea-b46f-57722ac91e58
25f17ef8-5279-11ea-addf-1fb4357be270,25f8a520-5279-11ea-9a60-f7a620dc9e66
25e4ceec-5279-11ea-9a2d-0bbb402b4ea6,25f8c280-5279-11ea-82dd-a719733c7fb4
25ea1d16-5279-11ea-87ac-87e54a337b5f,25f8db58-5279-11ea-ae1a-8368bd3a60f0
25f20c92-5279-11ea-88d0-9feced675dcf,25f8e6de-5279-11ea-a7dc-3338c6b8c259
25ee87fc-5279-11ea-be98-ff822bd897df,25f90560-5279-11ea-ae91-fb0395c8ae68
25e5f434-5279-11ea-a798-234e5296a0bd,25f8fd22-5279-11ea-b4ef-d708a81c0f5f
25e3bd54-5279-11ea-aa31-c7c8c1c6942f,25f90f6a-5279-11ea-aad5-efe9ac546303
25e287ea-5279-11ea-9e1f-832ad0f2b984,25f91e9c-5279-11ea-b938-2fc8e9ea2ab9
25e79992-5279-11ea-9b4e-df68c06d5d09,25f92860-5279-11ea-85e1-ff1127634000
25f0182e-5279-11ea-88df-cb1e417de8af,25f930b2-5279-11ea-b675-5fc3aed748fb
25ea310c-5279-11ea-b786-bf5cffc0bc1f,25f945b6-5279-11ea-b8b6-57171cfafe3b
25e771ec-5279-11ea-9029-b30b91854a96,25f95434-5279-11ea-a524-57d2ebca420e
25e0ce8c-5279-11ea-9fbf-870d4bca2511,25f96b2c-5279-11ea-a1ae-af9c5e16c050
25f3d734-5279-11ea-863c-83fddc773973,25f97554-5279-11ea-ad6a-67a19fb79b4f
25ed2240-5279-11ea-adb8-13c031ce1037,25f97fa4-5279-11ea-b1bf-1351abbf6ec2
25ec773c-5279-11ea-b83d-83f643d1eb72,25f98a94-5279-11ea-a12f-c3bde6899811
25f66954-5279-11ea-9fd6-379fdb90877d,25f998ea-5279-11ea-ae79-37442e7e3d02
25ec5004-5279-11ea-8d3b-9b9ed9307e16,25f9a466-5279-11ea-b114-63c77479e6a9
25f808cc-5279-11ea-90e2-df59b766b6ef,25f9b8b6-5279-11ea-b492-2ba27b18c679
25e1f672-5279-11ea-9ba4-db5ed4f49f2b,25f9cee6-5279-11ea-97aa-73e38bcedbe6
25ef8210-5279-11ea-999b-6b717aebe37a,25f9c95a-5279-11ea-87fa-4ffd720041d3
25e61e50-5279-11ea-80a8-8b11da7d1054,25f9e43a-5279-11ea-a6ca-df7c297ce9f1
25ed96bc-5279-11ea-913f-13c175f17abd,25f9f650-5279-11ea-b5e2-9f4ddfdcc9b7
25e68246-5279-11ea-a834-537f4e681ac1,25f9fec0-5279-11ea-a576-67624b29a1ab
25e34e82-5279-11ea-84cd-a7191b01fe48,25fa0f28-5279-11ea-b90a-5bc792fa2694
25e893a6-5279-11ea-a8c0-0b1d08980fce,25fa1c16-5279-11ea-9711-1f3d03730b00
25e73ea2-5279-11ea-9083-4fe59149853b,25fa2670-5279-11ea-a845-4f6d71893424
25e5c342-5279-11ea-bf4b-b34822e36a8a,25fa34c6-5279-11ea-833e-9fda39098c4d
25eb7576-5279-11ea-bb73-fb1edd3784fa,25fa3d40-5279-11ea-9066-f3fcc5461746
25eee206-5279-11ea-bdd0-0fda1633c90b,25fa4970-5279-11ea-ab7b-5f0dbef8c957
25f8751e-5279-11ea-a873-eb898dd9dafb,25fa6540-5279-11ea-ac17-7fe631ee61d7
25e27fc0-5279-11ea-ba5e-f78aa6dd4c0d,25fa7652-5279-11ea-8ac2-972a5140c451
25e0ce8c-5279-11ea-9fbf-870d4bca2511,25fa774c-5279-11ea-9786-8badb61fd6c1
25e1fd98-5279-11ea-a1d8-0b110a6717e7,25fa84bc-5279-11ea-8bd6-4bd8459ec589
25f85a3e-5279-11ea-b206-7b4da726b289,25fa906a-5279-11ea-a176-f3dc39b04bef
25ee1128-5279-11ea-8425-ab948362b17f,25faa0dc-5279-11ea-af93-c7304f5ac53e
25e98450-5279-11ea-ad91-93cc32b50121,25faaf5a-5279-11ea-82b6-7b79031bee33
25f95434-5279-11ea-a524-57d2ebca420e,25fabc48-5279-11ea-8f3e-67b21e63c53b
25e8b2dc-5279-11ea-b6a1-bf28e1c92cdf,25fad9c6-5279-11ea-8a87-2b0909841e7c
25f5bee6-5279-11ea-8217-9b3a091434fd,25fae4a2-5279-11ea-acf6-17fc0450d6ea
25e55e3e-5279-11ea-bb81-ef3814fd8608,25faed76-5279-11ea-9a63-2b9794996045
25e8d686-5279-11ea-a918-3762140e856b,25fafde8-5279-11ea-ad47-df9c163d8b03
25df4e4a-5279-11ea-9d2a-4f9e2e2aede0,25fb05fe-5279-11ea-8232-c3061aa47be8
25eb7ec2-5279-11ea-96c2-2f8798648a1a,25fb0f7c-5279-11ea-af8f-6fa932af2bd7
25f057f8-5279-11ea-ae53-bfbff099acaf,25fb1a26-5279-11ea-89e4-87532f0f8f91
25eca8c4-5279-11ea-ab08-37c6b86a6c7f,25fb26ce-5279-11ea-8ed0-33864a7fb80d
25e810c0-5279-11ea-8c9a-9f56690fc5fa,25fb4230-5279-11ea-858c-eb84ba2d27d9
25faa0dc-5279-11ea-af93-c7304f5ac53e,25fb4f64-5279-11ea-815f-dbf4a832a289
25df1dda-5279-11ea-b2be-a795f0ce2105,25fb621a-5279-11ea-abb4-43af59c64c97
25ed3050-5279-11ea-bf56-6f5ce00d4ff6,25fb6d28-5279-11ea-ad3e-5b99031abe7e
25f5d53e-5279-11ea-8c26-1fcd85cde79c,25fb78c2-5279-11ea-9169-1339b105b622
25e95f70-5279-11ea-b309-a7a82a623166,25fb8204-5279-11ea-881a-a7f2838aca88
25f8db58-5279-11ea-ae1a-8368bd3a60f0,25fb8a92-5279-11ea-8ade-6f6c3074cfb5
25f44cc8-5279-11ea-8877-33d2b897d9c6,25fb979e-5279-11ea-a107-a7f8aa2697cc
25e5d652-5279-11ea-9277-bf578542cce4,25fbb5bc-5279-11ea-bdee-37661f4cd327
25e0795a-5279-11ea-9a5f-0b9a4dd5f803,25fbc34a-5279-11ea-9a1c-6fca81c8d905
25fb979e-5279-11ea-a107-a7f8aa2697cc,25fbdcb8-5279-11ea-8e3c-8380a5497a95
25f21b06-5279-11ea-b9f7-83a256e27238,25fbed02-5279-11ea-a7a8-27d46564b82e
25fabc48-5279-11ea-8f3e-67b21e63c53b,25fbf6bc-5279-11ea-87e6-7bac0785d390
25eadd28-5279-11ea-9614-bb48e8572f98,25fc02f6-5279-11ea-a6b6-931b7ea7468b
25f2b480-5279-11ea-896a-0be7aad2bd2c,25fc11d8-5279-11ea-8de0-0fcacc08b3ca
25ebdfde-5279-11ea-b9e7-27b86eeadcc5,25fc1d90-5279-11ea-aed6-37b53af245c9
25ea76da-5279-11ea-916d-73fe373b8621,25fc3636-5279-11ea-b5b5-4770b12b0e74
25df9ea4-5279-11ea-bf67-57d4659ff162,25fc4298-5279-11ea-bf98-bbc97ac350ee
25e0123a-5279-11ea-a9f9-833e7fb92900,25fc58d2-5279-11ea-a119-1f9e2eaa8761
25f41f46-5279-11ea-acbf-634662c833a2,25fc69da-5279-11ea-b5c8-e7fb4af5d01c
25e63714-5279-11ea-b860-af04aad9fa08,25fc7358-5279-11ea-930e-2777a6448b42
25def864-5279-11ea-ad9a-a33fd2496d01,25fc7c72-5279-11ea-b3b9-bfcfc8d1e804
25e157a8-5279-11ea-8947-df7ccc136114,25fc867c-5279-11ea-a517-7745295b378b
25e0f542-5279-11ea-b1a1-237317aa048a,25fc8f32-5279-11ea-ba4b-a3d1ca9717f7
25eb4484-5279-11ea-972e-f32560f2ca92,25fc9fd6-5279-11ea-b7f9-7b19617537b1
25df9ea4-5279-11ea-bf67-57d4659ff162,25fcbc64-5279-11ea-8460-8bd2fcc03462
25f47388-5279-11ea-aa82-1bd6f8928eab,25fcc902-5279-11ea-956f-43619642839f
25f4f6be-5279-11ea-a5b7-ffa1ab33655b,25fcd230-5279-11ea-b2fa-3fdaec7c5fc2
25f7e8ba-5279-11ea-a25d-8325c92cff2e,25fcdf50-5279-11ea-aef3-134a7435c05b
25f97fa4-5279-11ea-b1bf-1351abbf6ec2,25fcede2-5279-11ea-812c-f75ac0d973e5
25f2cd58-5279-11ea-9d23-47f0cb317e2a,25fcfe22-5279-11ea-87c8-87e9f13f49ea
25e14e7a-5279-11ea-abd6-33c2c32c1f9e,25fd0aa2-5279-11ea-b7ae-932bb883d9d2
25f4ec78-5279-11ea-b53d-abf48b0b2c94,25fd2c62-5279-11ea-abe4-831f680a79ab
25fbc34a-5279-11ea-9a1c-6fca81c8d905,25fd3644-5279-11ea-95ee-3f2e68f27d29
25def864-5279-11ea-ad9a-a33fd2496d01,25fd4828-5279-11ea-ba3b-17d714718c05
25e002a4-5279-11ea-98b7-e7a79bd0e349,25fd5aa2-5279-11ea-ad79-97b43726ef87
25f8c280-5279-11ea-82dd-a719733c7fb4,25fd6c86-5279-11ea-8944-9fa3c1f43198
25eff7f4-5279-11ea-bc14-4f565bcc4e15,25fd7726-5279-11ea-af62-bf060de65588
25e0123a-5279-11ea-a9f9-833e7fb92900,25fd9800-5279-11ea-9d27-a735fca59421
25ea3ba2-5279-11ea-9ba7-331991b944f9,25fda6ba-5279-11ea-9ce4-b77a9af73092
25e46128-5279-11ea-a5ac-4b4202b73e6e,25fdba4c-5279-11ea-b483-d32c5993b0e7
25e788e4-5279-11ea-b830-57e8ccbd38c4,25fdc686-5279-11ea-8ca9-7b5146070b17
25e83776-5279-11ea-907d-27fd87c660e5,25fdcf32-5279-11ea-9786-7fcea5411526
25e48bee-5279-11ea-a2c0-3bd91ccc27b4,25fdd89c-5279-11ea-9767-a74782d26909
25e73ea2-5279-11ea-9083-4fe59149853b,25fde242-5279-11ea-bb59-dfd135ed3b44
25f72754-5279-11ea-9695-afd0bff6c612,25fdeb7a-5279-11ea-aced-d388b7cfbf5a
25f1d90c-5279-11ea-968d-b313a71f721c,25fe04d4-5279-11ea-9b6c-8f7bd26afa5c
25fd9800-5279-11ea-9d27-a735fca59421,25fe0e16-5279-11ea-adf6-97d9937a0b0f
25e8e16c-5279-11ea-8327-bbb51678d949,25fe1eec-5279-11ea-82df-c7285c8a9def
25f5236e-5279-11ea-b485-6bc4399166e5,25fe2c34-5279-11ea-b053-f314946d46a2
25fb621a-5279-11ea-abb4-43af59c64c97,25fe37c4-5279-11ea-b3e7-4f39ad8c08c7
25fe0e16-5279-11ea-adf6-97d9937a0b0f,25fe444e-5279-11ea-8e06-938d0e6e58ef
25fc8f32-5279-11ea-ba4b-a3d1ca9717f7,25fe4c64-5279-11ea-99d5-2358438c4c43
25eea886-5279-11ea-bb59-cb8d4ed1e237,25fe5650-5279-11ea-b465-8b89f46fd9c6
25dfd3b0-5279-11ea-ae9b-dfe365b75d30,25fe6a50-5279-11ea-9c9a-17fa6e4d34fa
25f3f2dc-5279-11ea-b2f9-6b03f5d46dd2,25fe7a18-5279-11ea-9330-dfa6cd52c809
25f14082-5279-11ea-aa33-2f0a8f70f947,25fe89cc-5279-11ea-ad9b-eb8ada4b9555
25ee1ca4-5279-11ea-b893-bf8b2a20484c,25fe966a-5279-11ea-9a85-aff585be9ee4
25f4a0ec-5279-11ea-9d27-67c0f33a634d,25fea916-5279-11ea-8d88-1baf781de5e2
25e9ac1e-5279-11ea-8a5a-2bdb22d3fbad,25feb708-5279-11ea-a3a4-8f8cc4373eda
25e4974c-5279-11ea-8c5d-4b1ffb742ee9,25fec310-5279-11ea-979d-e76fb4827f56
25f20c92-5279-11ea-88d0-9feced675dcf,25fece8c-5279-11ea-a75b-53c40345f6eb
25fb0f7c-5279-11ea-af8f-6fa932af2bd7,25fedb66-5279-11ea-9422-433bfe956401
25e6b982-5279-11ea-91b4-935f0c5d0044,25fee80e-5279-11ea-93cb-1365a7869569
25fdcf32-5279-11ea-9786-7fcea5411526,25fef75e-5279-11ea-82d9-93c42ae8fa3c
25efda9e-5279-11ea-a453-c764e412ee17,25ff0294-5279-11ea-9c50-3b4e45db07b0
25ef1cda-5279-11ea-b9bc-0b1f41d71b9e,25ff120c-5279-11ea-8cd7-d37f8aef0d48
25f40c72-5279-11ea-8713-6be74b52b36b,25ff2468-5279-11ea-9f04-e31463f0d234
25ed96bc-5279-11ea-913f-13c175f17abd,25ff2fa8-5279-11ea-ad2f-ab693ae8cce1
25fe444e-5279-11ea-8e06-938d0e6e58ef,25ff4272-5279-11ea-980d-df0ef640f84b
25e9da36-5279-11ea-a73f-97f6c01c40f9,25ff503c-5279-11ea-844f-d7f15ee54015
25f650fe-5279-11ea-92a3-a3f267b627e3,25ff57da-5279-11ea-9774-7f8440fd65fb
25e21a1c-5279-11ea-ad2e-b74771b164cb,25ff65e0-5279-11ea-8efb-6f9134af9bff
25e8c498-5279-11ea-bb7a-2fffbba813f9,25ff7152-5279-11ea-9def-9f164066519e
25e60de8-5279-11ea-9da5-fbbcc83a1335,25ff7c24-5279-11ea-af16-1b1097d293c9
25e7ff4a-5279-11ea-8c34-abe85092c513,25ff8bf6-5279-11ea-a7f3-bf2838979fc2
25faed76-5279-11ea-9a63-2b9794996045,25ff9e8e-5279-11ea-80fb-5b21531329ac
25e234c0-5279-11ea-8c8d-4bf9817e2556,25ffb3e2-5279-11ea-bdf4-437dd8328ee2
25f200f8-5279-11ea-88b3-b3100e34fa65,25ffbc7a-5279-11ea-8f2a-33b8c105136f
25e287ea-5279-11ea-9e1f-832ad0f2b984,25ffcc42-5279-11ea-b102-f7500a9bb440
25fbdcb8-5279-11ea-8e3c-8380a5497a95,25ffd7e6-5279-11ea-83f0-db0628a6cb74
25f5648c-5279-11ea-8d01-c7ce691316ca,25ffe6d2-5279-11ea-83d7-3fe44ce76ebb
25e6eb0a-5279-11ea-a668-c3b61c206c9e,25fff5aa-5279-11ea-a9d9-73d47c224431
25e3e3b0-5279-11ea-8858-b363424aaa0c,25fffee2-5279-11ea-8ef6-57558b84f03d
25e3cd4e-5279-11ea-b65d-ab73fb103c26,26000d6a-5279-11ea-914b-9b75802d4e46
25f2cd58-5279-11ea-9d23-47f0cb317e2a,26002002-5279-11ea-a976-db61b0294a13
25df73ac-5279-11ea-b103-fb789cd2bef8,26002bf6-5279-11ea-b0f8-77114247a657
25e5e85e-5279-11ea-bb53-5f7bc1047c57,26003858-5279-11ea-a576-fb46590f8fc4
25fc7c72-5279-11ea-b3b9-bfcfc8d1e804,26004460-5279-11ea-8006-4381156c680a
25f5763e-5279-11ea-b25c-8fab73960bfa,26005464-5279-11ea-a3dc-d7d161878ddb
25e86a34-5279-11ea-ab96-0b6fbe88ccca,26006602-5279-11ea-80b1-27c71ecc9a7c
25e7a036-5279-11ea-9362-dba604652907,26007304-5279-11ea-9ac8-3b410458cc7f
25e01c1c-5279-11ea-9aac-03b34e5bb175,26007fe8-5279-11ea-bc3c-33d4841c5b79
25e287ea-5279-11ea-9e1f-832ad0f2b984,26008dda-5279-11ea-9ab6-e33767a2a43b
25f7e8ba-5279-11ea-a25d-8325c92cff2e,260096f4-5279-11ea-9cf1-fffdaa19ba19
25e18160-5279-11ea-b0d9-b73990268e40,2600a9e6-5279-11ea-9957-83835da001ae
25fb4f64-5279-11ea-815f-dbf4a832a289,2600c19c-5279-11ea-a211-e3e2a88cab22
25ef76f8-5279-11ea-a743-c360cd16fada,2600b8c8-5279-11ea-a168-07cda635dc05
25e7bed6-5279-11ea-b40c-db8b8bdfaff1,2600d86c-5279-11ea-8f5b-cb45f171d05f
25e70860-5279-11ea-a0ed-071ff112cfa7,2600e0b4-5279-11ea-9a58-df10789068d6
25f83cc0-5279-11ea-96e1-4f282e8e53bc,2600ecc6-5279-11ea-acf5-d76b37ac3299
25e2c804-5279-11ea-93cc-172c4c814c00,2600f9aa-5279-11ea-9663-b34fcb7d6138
25f04268-5279-11ea-a429-efacf4ef8030,26010788-5279-11ea-a86b-9bfdc5e0871c
25e7bed6-5279-11ea-b40c-db8b8bdfaff1,260118ae-5279-11ea-94d4-7b2a8b69333b
25f33284-5279-11ea-9c06-9f34519fd7ae,2601270e-5279-11ea-bfe6-bb8f3efbc0c8
25e31610-5279-11ea-9535-8b5dd8a53f67,26012ee8-5279-11ea-a0d7-4f2b24ae8b4c
25f625de-5279-11ea-95c2-8f9b32d5a28d,260144e6-5279-11ea-bb77-5f7e078b6c19
25e60de8-5279-11ea-9da5-fbbcc83a1335,260154ea-5279-11ea-a87d-c7abd3b7baff
25fd4828-5279-11ea-ba3b-17d714718c05,2601607a-5279-11ea-9ab9-0fdf3f672275
25e771ec-5279-11ea-9029-b30b91854a96,26016886-5279-11ea-8985-53cf7776d444
25fa34c6-5279-11ea-833e-9fda39098c4d,26017cf4-5279-11ea-9b1c-0fb317b66898
260096f4-5279-11ea-9cf1-fffdaa19ba19,260189ce-5279-11ea-8ec4-27b4ba568ec4
25f9b8b6-5279-11ea-b492-2ba27b18c679,26019202-5279-11ea-94c9-87480b7c1249
25ebed6c-5279-11ea-81e3-b33ed63ddb10,26019a68-5279-11ea-a0a5-83c7f4c2a134
25fb78c2-5279-11ea-9169-1339b105b622,2601ae72-5279-11ea-8602-af20092a4fbc
25f9c95a-5279-11ea-87fa-4ffd720041d3,2601bb10-5279-11ea-aa29-77ab730747a5
25f559f6-5279-11ea-a782-9745554aa8a6,2601caf6-5279-11ea-89e2-df965924ccc8
25f90f6a-5279-11ea-aad5-efe9ac546303,2601d622-5279-11ea-aefb-479e9c48084d
25fb0f7c-5279-11ea-af8f-6fa932af2bd7,2601f026-5279-11ea-ae66-b3a83752eeea
25fffee2-5279-11ea-8ef6-57558b84f03d,2601f940-5279-11ea-96d2-fb04cc4f2f16
25ef1cda-5279-11ea-b9bc-0b1f41d71b9e,260204a8-5279-11ea-ac65-ffb31ad03ff6
25fbdcb8-5279-11ea-8e3c-8380a5497a95,26021132-5279-11ea-9256-6bab3b4d6b1c
260118ae-5279-11ea-94d4-7b2a8b69333b,26021d4e-5279-11ea-ad30-9b84c83b7f83
25eb4484-5279-11ea-972e-f32560f2ca92,2602258c-5279-11ea-91f9-7beb28d1963a
25e4ed3c-5279-11ea-b3bc-c76d64e69ca3,26023414-5279-11ea-ac6e-9fc2d35732fc
2602258c-5279-11ea-91f9-7beb28d1963a,26024e68-5279-11ea-b99f-5f744f4a5785
25e640d8-5279-11ea-8b23-e78451fb659e,260259c6-5279-11ea-857a-1f2dc06f60b6
2600a9e6-5279-11ea-9957-83835da001ae,260270b4-5279-11ea-9f41-67887acdf00f
25e3319a-5279-11ea-9e82-4ffaafc55387,26027f1e-5279-11ea-a9b8-0b8dcece4921
25fe2c34-5279-11ea-b053-f314946d46a2,260287ac-5279-11ea-8419-9327109eb745
25f3f2dc-5279-11ea-b2f9-6b03f5d46dd2,2602933c-5279-11ea-8e77-877c8232a807
25e234c0-5279-11ea-8c8d-4bf9817e2556,26029d78-5279-11ea-80a3-2f71992b1fab
25fedb66-5279-11ea-9422-433bfe956401,2602a804-5279-11ea-8b85-a76edcdb54e8
25e75ec8-5279-11ea-aa6c-231118bb9c7a,2602b84e-5279-11ea-892c-d3030b75b77e
25fef75e-5279-11ea-82d9-93c42ae8fa3c,2602ca46-5279-11ea-a22e-bf3461279f87
25f17660-5279-11ea-a196-77c06ade9e29,2602d6a8-5279-11ea-965f-fb2c7f5d5c7e
25f2cd58-5279-11ea-9d23-47f0cb317e2a,2602e17a-5279-11ea-842c-13acd35b5129
25e6fc12-5279-11ea-a014-cbc8a8e4436f,2602f19c-5279-11ea-aeb4-bb1eba76807a
26019202-5279-11ea-94c9-87480b7c1249,26030196-5279-11ea-b8b3-ab938f2a2322
25ec2e44-5279-11ea-a4ab-63a8c423fb51,26030dda-5279-11ea-b542-df3510c0eb2c
25fb0f7c-5279-11ea-af8f-6fa932af2bd7,26031a0a-5279-11ea-bce5-03d813f11601
26023414-5279-11ea-ac6e-9fc2d35732fc,26032ab8-5279-11ea-934f-1b354dc6445c
25e62e9a-5279-11ea-81cb-bf5a91f34a67,26033d78-5279-11ea-b538-d3a4d60bf1a7
26019202-5279-11ea-94c9-87480b7c1249,2603464c-5279-11ea-a5b1-9bd40afaf96e
25deb0ca-5279-11ea-8a4a-1fea24fadb45,260355ec-5279-11ea-85ba-873accb069cd
25ebf780-5279-11ea-b04a-579edb130257,26035fa6-5279-11ea-bced-2f936d96f42d
25e46128-5279-11ea-a5ac-4b4202b73e6e,2603736a-5279-11ea-8d19-e77a4fac2259
25f44cc8-5279-11ea-8877-33d2b897d9c6,26037bee-5279-11ea-86d9-a32db34982b2
25e58f80-5279-11ea-9227-2b1ca4cbbdcd,26038968-5279-11ea-8dc3-b3a6d1c166e0
25f81510-5279-11ea-a11b-03ccc518a278,260399e4-5279-11ea-87dc-fb1973dfa0dc
25fa1c16-5279-11ea-9711-1f3d03730b00,2603ac04-5279-11ea-af09-5f5e69aa5f99
25faed76-5279-11ea-9a63-2b9794996045,2603ba28-5279-11ea-b7bf-8b81b51e2c18
25f3cf50-5279-11ea-a09a-2f5607238a31,2603c8a6-5279-11ea-bd95-233c6104fc47
25fffee2-5279-11ea-8ef6-57558b84f03d,2603d472-5279-11ea-aa0e-ff250e82e4f1
25f6066c-5279-11ea-88e7-b3f5bee21f3f,2603e142-5279-11ea-8a09-774b660cdd62
25edf9ae-5279-11ea-8f87-1b66d29cb33b,2603f394-5279-11ea-b0e4-47d32a5e8e9b
25f0e40c-5279-11ea-9e88-87dc2d29a49b,260403c0-5279-11ea-b560-e3f6955b55e2
25ed3a96-5279-11ea-b8c5-c36dda8cc807,260417d4-5279-11ea-befa-f3ed06f86e83
25e02400-5279-11ea-80de-4795d9f42ee7,260435c0-5279-11ea-ac5a-9b0fa1e6979b
25e3a5e4-5279-11ea-8612-ff6ccb64f206,2604415a-5279-11ea-ad62-33538e7abdba
25e9da36-5279-11ea-a73f-97f6c01c40f9,26044ac4-5279-11ea-a3ad-6fcad1767c5b
25eab8de-5279-11ea-99d2-831b7911c8f3,26045352-5279-11ea-b910-57c4e4764806
26004460-5279-11ea-8006-4381156c680a,26045cc6-5279-11ea-acb8-cb5664524b1e
25f5b5e0-5279-11ea-8704-b77082fde4c6,2604691e-5279-11ea-a9d8-d3fc92b7934c
25e2b6ca-5279-11ea-8997-2746865e6320,26046fe0-5279-11ea-bd64-3f74749fdcb0
25f62cbe-5279-11ea-bcd0-27e2779e7f8f,26047bca-5279-11ea-bcb5-a71d1a3d964d
25ff57da-5279-11ea-9774-7f8440fd65fb,26049a56-5279-11ea-8e62-bbc1f17b8e4e
25e363e0-5279-11ea-94bd-6f8bd9ab6463,2604b018-5279-11ea-8397-c764901e4fc2
25ece80c-5279-11ea-bf5d-475957ef29d9,2604bedc-5279-11ea-8f79-cfd6c2b3b75e
25f7e8ba-5279-11ea-a25d-8325c92cff2e,2604cc92-5279-11ea-853d-c3d15f39600b
25ff7152-5279-11ea-9def-9f164066519e,2604d494-5279-11ea-acf9-cf5f113c8777
2600e0b4-5279-11ea-9a58-df10789068d6,2604de4e-5279-11ea-8bc5-77a87cca559c
25deb0ca-5279-11ea-8a4a-1fea24fadb45,2604e6aa-5279-11ea-9c3f-d3a11c1e58fc
26007304-5279-11ea-9ac8-3b410458cc7f,2604ef1a-5279-11ea-ad12-834195bf5c1d
25fc69da-5279-11ea-b5c8-e7fb4af5d01c,26050ca2-5279-11ea-94d2-8731eee94c49
25f58124-5279-11ea-bdde-2f708fb7f3d3,26051b20-5279-11ea-8150-8f9b5b1f3cf0
25eb7ec2-5279-11ea-96c2-2f8798648a1a,260530a6-5279-11ea-b1d4-33b4991a5e93
25eadd28-5279-11ea-9614-bb48e8572f98,26053fc4-5279-11ea-98a1-13d9bdc10f65
26016886-5279-11ea-8985-53cf7776d444,26054ae6-5279-11ea-940c-9bed1a3a0494
2600b8c8-5279-11ea-a168-07cda635dc05,26055324-5279-11ea-b81c-a7e4687c0dce
25f400ce-5279-11ea-8f50-4f023035e575,260564b8-5279-11ea-8c5d-af030aa693d4
25e1335e-5279-11ea-ac99-cb00a99abe17,26055bf8-5279-11ea-8f6c-17ee0397b209
25e33e6a-5279-11ea-8e9f-bb200faf46cb,2605720a-5279-11ea-bb84-b7e8b19c2e0a
25f9e43a-5279-11ea-a6ca-df7c297ce9f1,26059442-5279-11ea-81f9-23ff0ab418fd
2603f394-5279-11ea-b0e4-47d32a5e8e9b,260588da-5279-11ea-a2a8-4bd3790c964a
25e5702c-5279-11ea-805a-d38e499cd461,2605aef0-5279-11ea-bfe2-a38d2de595d4
25df433c-5279-11ea-ad6b-63a2366d2557,2605c1ec-5279-11ea-96c8-dbecb77b6115
25f68542-5279-11ea-a898-ef19499fe779,2605cbc4-5279-11ea-bcb4-f377a3ab14d5
25eea886-5279-11ea-bb59-cb8d4ed1e237,2605d51a-5279-11ea-b16d-33380ab45c8f
25ffe6d2-5279-11ea-83d7-3fe44ce76ebb,2605ddd0-5279-11ea-b5ca-3ba3ec903cf2
25ea310c-5279-11ea-b786-bf5cffc0bc1f,2605e802-5279-11ea-a915-839a4abb0168
25ebc904-5279-11ea-ac69-ffb1f9576495,26060184-5279-11ea-a395-6f7b9b9313c0
25f4b2ee-5279-11ea-bde9-87db14ca8e41,26060a94-5279-11ea-b768-77cbc5f6b60b
25fedb66-5279-11ea-9422-433bfe956401,2606218c-5279-11ea-9a1b-8ff9e1fddb55
25dfb9a2-5279-11ea-83e0-0b04a7678964,26063b72-5279-11ea-8a67-87a26b6a4c2e
25ef08a8-5279-11ea-9ea7-d74ded8fe9a6,26064414-5279-11ea-9b04-e7bf5c25c5ad
25f5b5e0-5279-11ea-8704-b77082fde4c6,26064cfc-5279-11ea-aad7-bb8030d1878d
25e72cfa-5279-11ea-ae61-d7c7e0c1a455,2606599a-5279-11ea-8028-33aae8078e55
25e06e1a-5279-11ea-a2e8-fb1b2a79ebcb,260666e2-5279-11ea-8c20-871b20a9336f
25f19d8e-5279-11ea-9e5b-7f33d10927fe,26067254-5279-11ea-a45a-cf36720b1683
25ec5004-5279-11ea-8d3b-9b9ed9307e16,26067ad8-5279-11ea-bbfb-a70d69d9c345
25f73618-5279-11ea-8dd1-0b4c2da440a4,26069838-5279-11ea-8bf5-5fe10468ab03
25f9b8b6-5279-11ea-b492-2ba27b18c679,2606a594-5279-11ea-b0c9-43ec3e39d40a
26006602-5279-11ea-80b1-27c71ecc9a7c,2606b282-5279-11ea-aede-475d9b76431a
25ff57da-5279-11ea-9774-7f8440fd65fb,2606bbec-5279-11ea-8872-fb2b75771a69
25f83360-5279-11ea-ba29-3372d4fa8576,2606d712-5279-11ea-a58f-43f7e03cf162
25fdcf32-5279-11ea-9786-7fcea5411526,2606e18a-5279-11ea-afa3-3b2f1d1da826
25fbb5bc-5279-11ea-bdee-37661f4cd327,2606eacc-5279-11ea-b3cd-f312e3bd69de
25e5702c-5279-11ea-805a-d38e499cd461,2606f382-5279-11ea-8797-ff0d0c49eb60
25f8fd22-5279-11ea-b4ef-d708a81c0f5f,26070e62-5279-11ea-8c5b-9bee2eec377e
25fc69da-5279-11ea-b5c8-e7fb4af5d01c,260719e8-5279-11ea-88dc-8f8a798dcb9b
25fc9fd6-5279-11ea-b7f9-7b19617537b1,26072226-5279-11ea-81e0-8bdefe8751c1
26055bf8-5279-11ea-8f6c-17ee0397b209,26072eba-5279-11ea-912c-8b2899e963bb
25df5d86-5279-11ea-84bd-7f5cb85513b7,2607445e-5279-11ea-b2d7-bf55ce099c2a
25eb1c66-5279-11ea-a7a9-03775878d933,2607517e-5279-11ea-8367-033d6c4b0764
25f07058-5279-11ea-b4cf-738d0e8f5625,26075a3e-5279-11ea-a287-1b1159c506ab
25e5bc62-5279-11ea-be05-bfec96f1500e,26076b82-5279-11ea-870f-177c7f5fd30d
25e4b66e-5279-11ea-adf5-e75ebe00adcf,26077be0-5279-11ea-93ae-e33985a5841e
25fb05fe-5279-11ea-8232-c3061aa47be8,26078a36-5279-11ea-8452-c3173281983e
25ea76da-5279-11ea-916d-73fe373b8621,2607979c-5279-11ea-bc3b-df9d45147c91
25f89c2e-5279-11ea-b23f-8f4b39499623,2607a50c-5279-11ea-a4cb-778925e85000
25dee2ac-5279-11ea-9b6e-ef757575bcab,2607b70e-5279-11ea-be23-730c9aa461b2
25f38ee6-5279-11ea-bfbe-5b2cc0c1dcaa,2607c708-5279-11ea-91d5-67a8d9256b14
25dfd3b0-5279-11ea-ae9b-dfe365b75d30,2607d144-5279-11ea-afe7-934a24248e6a
25e174ae-5279-11ea-a4d9-efb6f198cb37,2607dc34-5279-11ea-b41d-67b41412e176
25e810c0-5279-11ea-8c9a-9f56690fc5fa,2607eb70-5279-11ea-9709-b33aaa3fdd2e
25f4ec78-5279-11ea-b53d-abf48b0b2c94,2608016e-5279-11ea-9c50-af2282a1e06e
25ff57da-5279-11ea-9774-7f8440fd65fb,26081366-5279-11ea-a058-5b29694f1675
25e66590-5279-11ea-b107-039f744520dc,26081ed8-5279-11ea-9891-4fc7fe4bf78b
25f057f8-5279-11ea-ae53-bfbff099acaf,26083094-5279-11ea-9c6c-d36760f30b31
25e5f434-5279-11ea-a798-234e5296a0bd,260840f2-5279-11ea-9dcf-33f46eec19c8
26059442-5279-11ea-81f9-23ff0ab418fd,2608496c-5279-11ea-b60d-53d21fd7b98f
26033d78-5279-11ea-b538-d3a4d60bf1a7,260852f4-5279-11ea-9e1c-9fe666d8f878
26019a68-5279-11ea-a0a5-83c7f4c2a134,26086118-5279-11ea-8004-cb9f1379a2ed
2600c19c-5279-11ea-a211-e3e2a88cab22,260876a8-5279-11ea-96f3-47b218e9d9c4
25f6f860-5279-11ea-aa23-07bbd07b7922,26088a76-5279-11ea-981f-c3e42397a2c0
2602f19c-5279-11ea-aeb4-bb1eba76807a,26089840-5279-11ea-b69a-6f652c63456a
2602a804-5279-11ea-8b85-a76edcdb54e8,2608a402-5279-11ea-ae40-f37ed9ae195a
25f9cee6-5279-11ea-97aa-73e38bcedbe6,2608b79e-5279-11ea-b000-afb403685ca1
25e04566-5279-11ea-9012-6fa87b988f76,2608c1c6-5279-11ea-ba04-c3866dde8a58
25de9892-5279-11ea-80e1-fb53419eb328,2608cb4e-5279-11ea-8d71-27e6ed28bd4a
25ea5bc8-5279-11ea-9341-5327a06a8cad,2608da26-5279-11ea-8921-2f2a7665d98a
2606b282-5279-11ea-aede-475d9b76431a,2608e3ea-5279-11ea-814e-cf0f900270ac
25e7546e-5279-11ea-9804-e7449211b02b,2608f6aa-5279-11ea-b386-37635f6ef9e8
25e8e16c-5279-11ea-8327-bbb51678d949,26090bd6-5279-11ea-b2fb-ef1403bab818
25fbb5bc-5279-11ea-bdee-37661f4cd327,26091cca-5279-11ea-8d05-5baff7a2e503
25e5d652-5279-11ea-9277-bf578542cce4,26092b5c-5279-11ea-a90a-9f4311e22cf5
26024e68-5279-11ea-b99f-5f744f4a5785,2609391c-5279-11ea-9b72-83097468a8f5
25f698d4-5279-11ea-942a-935853af2fd0,2609424a-5279-11ea-b105-3b3893401054
25eccbec-5279-11ea-8ba9-93cbcf7de6a1,26094f9c-5279-11ea-a744-cf68d197c836
25e3319a-5279-11ea-9e82-4ffaafc55387,26095a8c-5279-11ea-8e7a-b3cda22c7b98
25ebc904-5279-11ea-ac69-ffb1f9576495,2609687e-5279-11ea-9658-e3a7909f9530
2606bbec-5279-11ea-8872-fb2b75771a69,26098318-5279-11ea-9d08-274fbc42fe25
25f6752a-5279-11ea-9699-9f2237f6ef6e,26099e02-5279-11ea-8158-a75a3ac468db
25fa6540-5279-11ea-ac17-7fe631ee61d7,2609ad84-5279-11ea-8ae3-13c4625f3159
25ecd9ca-5279-11ea-938b-d3ddc8f746bc,2609b82e-5279-11ea-aa54-5725da3bf0fc
25ef08a8-5279-11ea-9ea7-d74ded8fe9a6,2609c3b4-5279-11ea-aff9-3fc83118c687
25f7aa08-5279-11ea-a164-174459ff5e83,2609cc06-5279-11ea-8c75-3f8ff3e58625
25f6906e-5279-11ea-afce-e33cd3961f7b,2609d8fe-5279-11ea-a272-23ea2be199cd
25e6a8e8-5279-11ea-93b5-d7112c7a717d,2609e29a-5279-11ea-9abe-9f1700a05397
25e234c0-5279-11ea-8c8d-4bf9817e2556,2609ee34-5279-11ea-82f9-2f21ae3e073f
25f70274-5279-11ea-ba04-df70f25b7759,260a07b6-5279-11ea-bd0f-53def089a0f9
25f272e0-5279-11ea-b57f-4b7459148c45,260a1ab2-5279-11ea-86ae-274733d4f1fb
25e2570c-5279-11ea-ae01-b7b155f82c66,260a28ae-5279-11ea-aace-13f4fa3db65c
2606a594-5279-11ea-b0c9-43ec3e39d40a,260a3718-5279-11ea-a643-33e66a999ddf
25e79992-5279-11ea-9b4e-df68c06d5d09,260a4078-5279-11ea-a3ae-4f94ecf4507b
25e4ae4e-5279-11ea-8697-8fe5f0bf4edb,260a4a8c-5279-11ea-b0f3-230caa44086c
2607b70e-5279-11ea-be23-730c9aa461b2,260a57b6-5279-11ea-ba13-cf849300fa90
25e27642-5279-11ea-bebb-53a25bc00c1c,260a61fc-5279-11ea-bc11-db8f7013d5f2
25f6cdfe-5279-11ea-b201-3720eb868d0c,260a7b9c-5279-11ea-a832-9fc51c08b8dd
260588da-5279-11ea-a2a8-4bd3790c964a,260a889e-5279-11ea-845c-83ef97f4c3cf
25f8b952-5279-11ea-b46f-57722ac91e58,260a9b22-5279-11ea-9978-dbacce0e8622
25f81510-5279-11ea-a11b-03ccc518a278,260aa50e-5279-11ea-aac9-4f86c469e81b
25e58f80-5279-11ea-9227-2b1ca4cbbdcd,260ab80a-5279-11ea-9b1e-83430289460d
25ebed6c-5279-11ea-81e3-b33ed63ddb10,260acb2e-5279-11ea-a72a-9f0e5656b6cb
2605720a-5279-11ea-bb84-b7e8b19c2e0a,260ac174-5279-11ea-b14d-0f35a97b1ed9
25ee5502-5279-11ea-aa7c-fb882f29ccc8,260adb78-5279-11ea-b700-f340095a7c2b
25ec5004-5279-11ea-8d3b-9b9ed9307e16,260ae604-5279-11ea-8844-0b9e0ddb03ea
260a61fc-5279-11ea-bc11-db8f7013d5f2,260af874-5279-11ea-8f8a-432fb825de28
25e86a34-5279-11ea-ab96-0b6fbe88ccca,260b0f26-5279-11ea-90c9-f383a11aea88
25f7dc58-5279-11ea-bce9-2b7f16204c99,260b17b4-5279-11ea-a1cb-93afe52f61a4
2607eb70-5279-11ea-9709-b33aaa3fdd2e,260b2556-5279-11ea-ad7a-f3181be7053e
25f6906e-5279-11ea-afce-e33cd3961f7b,260b3366-5279-11ea-84c2-d38dc32074a6
25f29a4a-5279-11ea-89c3-a3f6e91990e5,260b4388-5279-11ea-addd-4359d2f5e8ff
25df9ea4-5279-11ea-bf67-57d4659ff162,260b5058-5279-11ea-a5ff-0f5a636bd5a2
25e77ef8-5279-11ea-8873-8fb27e4acca7,260b595e-5279-11ea-93c0-ffac564cf40e
25f2e590-5279-11ea-8013-e7462fe58523,260b670a-5279-11ea-86b7-63c93dee731f
25eca8c4-5279-11ea-ab08-37c6b86a6c7f,260b8366-5279-11ea-89c9-17508e95960d
25fd6c86-5279-11ea-8944-9fa3c1f43198,260b8cb2-5279-11ea-8d5f-eb4e6a7fb98e
25e2db5a-5279-11ea-9be1-6f1405a88c35,260b961c-5279-11ea-a122-1b8fb12e9f75
25ea0b8c-5279-11ea-9573-4387f4536587,260babde-5279-11ea-9681-8b80622827ab
25f6f860-5279-11ea-aa23-07bbd07b7922,260bb89a-5279-11ea-ab58-cbed983a8f72
25f83cc0-5279-11ea-96e1-4f282e8e53bc,260bc7cc-5279-11ea-87ad-7305988531c9
25ee1ca4-5279-11ea-b893-bf8b2a20484c,260bd654-5279-11ea-9714-5f34d87585b7
26038968-5279-11ea-8dc3-b3a6d1c166e0,260be2c0-5279-11ea-b649-ffcb0ff5ff19
25e1fd98-5279-11ea-a1d8-0b110a6717e7,260bf008-5279-11ea-9281-07e092361c9a
25fc11d8-5279-11ea-8de0-0fcacc08b3ca,260bfca6-5279-11ea-b347-576a6286d534
25f8751e-5279-11ea-a873-eb898dd9dafb,260c05c0-5279-11ea-80d1-ab8bfebed4bf
260154ea-5279-11ea-a87d-c7abd3b7baff,260c1b5a-5279-11ea-b467-5736e11b3cb7
25edca92-5279-11ea-ad9c-8be37f517d70,260c2ab4-5279-11ea-b779-abcc9394007f
2601d622-5279-11ea-aefb-479e9c48084d,260c3996-5279-11ea-86a7-87fbc838f1c8
25f5236e-5279-11ea-b485-6bc4399166e5,260c48e6-5279-11ea-bb69-6f921ec0c985
25f5f028-5279-11ea-9c7a-bb279cd9a8db,260c5624-5279-11ea-864f-a301c2a39f65
26032ab8-5279-11ea-934f-1b354dc6445c,260c62d6-5279-11ea-a5cd-0336244aff06
2609d8fe-5279-11ea-a272-23ea2be199cd,260c6bd2-5279-11ea-9746-9bdc14af7470
260a28ae-5279-11ea-aace-13f4fa3db65c,260c7988-5279-11ea-85c0-3ffaf3bb6021
25eb4484-5279-11ea-972e-f32560f2ca92,260c87ca-5279-11ea-8b3d-cfdc3107108a
25e3ff62-5279-11ea-b497-1b122b9156f4,260c9d64-5279-11ea-a996-9f12cb317cce
25eb7ec2-5279-11ea-96c2-2f8798648a1a,260cb128-5279-11ea-a9ab-1b5ff134018b
25df0d54-5279-11ea-9c4b-8b1c3ddeb9a2,260cbdda-5279-11ea-a893-cf0dac2c1b67
260154ea-5279-11ea-a87d-c7abd3b7baff,260ccc80-5279-11ea-a23f-978a5ae74e0b
25fea916-5279-11ea-8d88-1baf781de5e2,260cd8c4-5279-11ea-a11b-bf7dceb95bac
25e6d1ba-5279-11ea-a76a-3f41e4bfd6f3,260ce256-5279-11ea-bc36-432c5ee1624d
25fece8c-5279-11ea-a75b-53c40345f6eb,260cebac-5279-11ea-be67-c3b7ce0df6ab
25e4ceec-5279-11ea-9a2d-0bbb402b4ea6,260cf57a-5279-11ea-a14a-8bec205dc35b
25e21a1c-5279-11ea-ad2e-b74771b164cb,260d0920-5279-11ea-9636-279b84dd73ea
25e12ae4-5279-11ea-84e1-df0fa2f7ba57,260d1a96-5279-11ea-ac0d-1759ccf05541
25f3b6fa-5279-11ea-b128-d3ba2522986a,260d2a0e-5279-11ea-b3de-9f26e25baa8b
25ea5bc8-5279-11ea-9341-5327a06a8cad,260d4444-5279-11ea-9d70-8b83bf944496
25e7b454-5279-11ea-86c6-9fd39d9d1731,260d4fac-5279-11ea-822b-abe16b42875c
2602e17a-5279-11ea-842c-13acd35b5129,260d5a6a-5279-11ea-9187-af81f5212f05
26072226-5279-11ea-81e0-8bdefe8751c1,260d68e8-5279-11ea-97a3-e7d117d16a07
260154ea-5279-11ea-a87d-c7abd3b7baff,260d725c-5279-11ea-8e2b-5b45f3c70af8
25ee9ad0-5279-11ea-936c-1b6cbf365017,260d7b3a-5279-11ea-9de9-b7bf2d8d026b
25f4e39a-5279-11ea-b241-7f1e461445e4,260d853a-5279-11ea-866d-93520bf1fa24
25f5f028-5279-11ea-9c7a-bb279cd9a8db,260d99d0-5279-11ea-b571-b37fc0000915
25fb78c2-5279-11ea-9169-1339b105b622,260db532-5279-11ea-b7d5-e3b0e851cedf
25f74360-5279-11ea-8563-9f9db031dc1d,260dc216-5279-11ea-8b6c-ffabc0580376
260b2556-5279-11ea-ad7a-f3181be7053e,260dd148-5279-11ea-bbc1-a7f44df2874a
25e61e50-5279-11ea-80a8-8b11da7d1054,260ddf26-5279-11ea-8bdd-e75abb05054e
25f68542-5279-11ea-a898-ef19499fe779,260dea98-5279-11ea-b29b-17ff488d7c3c
26045cc6-5279-11ea-acb8-cb5664524b1e,260df434-5279-11ea-a0d1-739335381eac
2601607a-5279-11ea-9ab9-0fdf3f672275,260dfe3e-5279-11ea-9d23-afb3a01bcd80
25f09060-5279-11ea-8f37-afccda18f64d,260e0c6c-5279-11ea-b6e4-db17040903a6
25fb8a92-5279-11ea-8ade-6f6c3074cfb5,260e1b3a-5279-11ea-a7cb-1f25dc240489
25e7bed6-5279-11ea-b40c-db8b8bdfaff1,260e3836-5279-11ea-8e41-dff25c44beb8
25f04268-5279-11ea-a429-efacf4ef8030,260e4a06-5279-11ea-8469-4f6b08b1a16b
25f68542-5279-11ea-a898-ef19499fe779,260e5c80-5279-11ea-a0ff-93c455f6de60
25eee206-5279-11ea-bdd0-0fda1633c90b,260e6f22-5279-11ea-ba0a-e3d5b345228a
26055324-5279-11ea-b81c-a7e4687c0dce,260e7a9e-5279-11ea-9bfa-bbc40b2bc190
25f04268-5279-11ea-a429-efacf4ef8030,260e844e-5279-11ea-9294-3f77c91b2c49
26076b82-5279-11ea-870f-177c7f5fd30d,260e8cd2-5279-11ea-9515-83a6124169c6
25df5d86-5279-11ea-84bd-7f5cb85513b7,260e96b4-5279-11ea-a42e-132f9d43356e
26038968-5279-11ea-8dc3-b3a6d1c166e0,260ea5a0-5279-11ea-9f39-d71ff3101624
26021d4e-5279-11ea-ad30-9b84c83b7f83,260eaf00-5279-11ea-9485-bf0908f19741
25e5e85e-5279-11ea-bb53-5f7bc1047c57,260ebffe-5279-11ea-ba27-8fbe2b2dae27
2600ecc6-5279-11ea-acf5-d76b37ac3299,260edca0-5279-11ea-a651-371de8f3e520
25f0e40c-5279-11ea-9e88-87dc2d29a49b,260eec2c-5279-11ea-b1a4-0b5194877591
25e77ef8-5279-11ea-8873-8fb27e4acca7,260efa50-5279-11ea-9f65-a3d81d3f6526
25df5cc8-5279-11ea-9164-7b8cf93a070a,260f037e-5279-11ea-8de2-dbac8b97ab07
25ff2fa8-5279-11ea-ad2f-ab693ae8cce1,260f0bda-5279-11ea-a872-e7eab4f1bff4
260e5c80-5279-11ea-a0ff-93c455f6de60,260f185a-5279-11ea-ad23-f7639f364881
25e66590-5279-11ea-b107-039f744520dc,260f2ac0-5279-11ea-b744-f34287a6076a
25e287ea-5279-11ea-9e1f-832ad0f2b984,260f2138-5279-11ea-bf0e-9b29a1ff3fe1
25e02b8a-5279-11ea-815b-2b171a9a5fdb,260f47c6-5279-11ea-ac9c-aff2509e2c61
2603ba28-5279-11ea-b7bf-8b81b51e2c18,260f5612-5279-11ea-a26e-dfa720b6239d
25e4974c-5279-11ea-8c5d-4b1ffb742ee9,260f6ae4-5279-11ea-acd6-2bfea17c2faf
25e55e3e-5279-11ea-bb81-ef3814fd8608,260f7476-5279-11ea-a782-cf3cdd6b1180
2604d494-5279-11ea-acf9-cf5f113c8777,260f7dfe-5279-11ea-a1c0-efbf37dfabfa
25f8fd22-5279-11ea-b4ef-d708a81c0f5f,260f8862-5279-11ea-9ad2-eb2a9d50a3fb
26081ed8-5279-11ea-9891-4fc7fe4bf78b,260f9190-5279-11ea-9f53-0787e2b5f7fe
25e8e16c-5279-11ea-8327-bbb51678d949,260f9b0e-5279-11ea-bcf0-276ec0d6050e
25f6f860-5279-11ea-aa23-07bbd07b7922,260fb544-5279-11ea-81b3-0fc5554c3646
2606a594-5279-11ea-b0c9-43ec3e39d40a,260fc3a4-5279-11ea-81a7-7f3938304de1
25f46b90-5279-11ea-858b-5f954dd3d25f,260fdaa6-5279-11ea-b2fd-37e636ed8573
25ff65e0-5279-11ea-8efb-6f9134af9bff,260fe4a6-5279-11ea-a507-3fe060a47358
26000d6a-5279-11ea-914b-9b75802d4e46,260fee6a-5279-11ea-a60f-7f343bee2acc
25e7ff4a-5279-11ea-8c34-abe85092c513,260fff18-5279-11ea-a9cc-0311c48aaf97
25f70274-5279-11ea-ba04-df70f25b7759,26100bde-5279-11ea-b69b-47b297aeb331
25de74d4-5279-11ea-9f77-7ffe149b936d,26101642-5279-11ea-9ef1-b376244e9491
25f794c8-5279-11ea-8fea-07f0788d8940,26102efc-5279-11ea-9dfc-77bc94a4bfd3
2609ad84-5279-11ea-8ae3-13c4625f3159,26103b72-5279-11ea-94d3-6f28a801557b
25e01c1c-5279-11ea-9aac-03b34e5bb175,2610493c-5279-11ea-b4a1-2bb9824e97e6
25f5d53e-5279-11ea-8c26-1fcd85cde79c,26105ac6-5279-11ea-9c73-efa6511300a3
260a61fc-5279-11ea-bc11-db8f7013d5f2,2610649e-5279-11ea-ac8d-5746eb24c530
260a1ab2-5279-11ea-86ae-274733d4f1fb,26106e4e-5279-11ea-91c0-5f9793cc5d15
26070e62-5279-11ea-8c5b-9bee2eec377e,261082ee-5279-11ea-8ff6-c72e325abfcd
25f5648c-5279-11ea-8d01-c7ce691316ca,26108c62-5279-11ea-8652-df7c98aff98d
25e2becc-5279-11ea-910b-7793425fa245,26109de2-5279-11ea-8812-c385bddc8a8e
260a07b6-5279-11ea-bd0f-53def089a0f9,2610b642-5279-11ea-bc11-030d47cf3401
25e1b28e-5279-11ea-a95b-b3d79cd27797,2610bfca-5279-11ea-9e39-2fdd01fd8737
25e581b6-5279-11ea-95e3-137b10cef613,2610d0aa-5279-11ea-9f1e-0b179e112679
25f1115c-5279-11ea-9dd4-6be80a82f79f,2610db18-5279-11ea-ae6e-ff8caf49fcfc
25f2588c-5279-11ea-b953-57c49ce08b4a,2610e46e-5279-11ea-b392-8fa3940af496
25efe44e-5279-11ea-bbb4-57ea74408102,2610f490-5279-11ea-9712-1f49777edd34
25f3b6fa-5279-11ea-b128-d3ba2522986a,2610fd96-5279-11ea-9e0d-63d2dd426fd9
25ef9b24-5279-11ea-a1c9-bbffd5ac1a84,26110b6a-5279-11ea-becf-ff130a4ebbea
25f4543e-5279-11ea-a0b5-2f6bd1a02811,26112c4e-5279-11ea-ac24-8b2b8597da4e
25e77ef8-5279-11ea-8873-8fb27e4acca7,261141b6-5279-11ea-9a3c-e378172ea9c5
25e51582-5279-11ea-a23b-ffe5b4b7ff24,26114f30-5279-11ea-bac1-4fe2263c3593
25e640d8-5279-11ea-8b23-e78451fb659e,261159da-5279-11ea-b141-33097d1b5df5
2600d86c-5279-11ea-8f5b-cb45f171d05f,2611642a-5279-11ea-b6c2-8358dd94443b
2607dc34-5279-11ea-b41d-67b41412e176,26116dee-5279-11ea-92e9-67420feb1848
25f72754-5279-11ea-9695-afd0bff6c612,26117794-5279-11ea-b6cd-5b8a008bd4b5
25eea886-5279-11ea-bb59-cb8d4ed1e237,26118108-5279-11ea-bc7d-8f56b2ec3c19
25f2436a-5279-11ea-91cb-fb8ba9dcbc44,26118f5e-5279-11ea-a63d-935c8b854ec6
25f0f078-5279-11ea-a993-2322a22873a1,2611ab88-5279-11ea-b1f7-3ff5d881d624
25e8e978-5279-11ea-8db8-7fc164c58d5b,2611bf88-5279-11ea-ba06-27cb694a0394
25f9e43a-5279-11ea-a6ca-df7c297ce9f1,2611cc26-5279-11ea-a6ba-4724ccb8148d
261082ee-5279-11ea-8ff6-c72e325abfcd,2611daea-5279-11ea-a5c8-7f8ed45d2f06
260f6ae4-5279-11ea-acd6-2bfea17c2faf,2611e4a4-5279-11ea-a197-5b9072d9eaee
25f87d20-5279-11ea-ae70-2bc93f35a7d7,2611f250-5279-11ea-ada8-bf5e2cc2af59
25f91e9c-5279-11ea-b938-2fc8e9ea2ab9,26120114-5279-11ea-95c3-337ffcb7b214
25e450d4-5279-11ea-9084-8f8102dfeb8f,26120ace-5279-11ea-8013-5b094787526e
26094f9c-5279-11ea-a744-cf68d197c836,261220ea-5279-11ea-9092-fb37343e9da9
25e0e0de-5279-11ea-ad71-efe39e63306c,26123314-5279-11ea-814a-ab1420c902c5
25efb122-5279-11ea-9b6d-0b9370e9f230,261240c0-5279-11ea-b3f9-6b8a8a5e1efb
25e581b6-5279-11ea-95e3-137b10cef613,2612520e-5279-11ea-87c0-bb7caa87914f
25ff503c-5279-11ea-844f-d7f15ee54015,261267c6-5279-11ea-9007-dfce4a1af67c
25ea76da-5279-11ea-916d-73fe373b8621,2612731a-5279-11ea-98c6-dfc767bb6516
25ea8346-5279-11ea-91c6-d3d136bbbc74,26127b76-5279-11ea-ba3c-ebafccb77322
25e5f434-5279-11ea-a798-234e5296a0bd,261287c4-5279-11ea-8e70-47ee6f76049b
25ebd61a-5279-11ea-8ac0-cf16eb97866a,261291ec-5279-11ea-b221-a3ed1a5521d1
26010788-5279-11ea-a86b-9bfdc5e0871c,2612a876-5279-11ea-a949-2b193b3636ea
25fc9fd6-5279-11ea-b7f9-7b19617537b1,2612b212-5279-11ea-8db2-e31a0a1d7eca
25e62e9a-5279-11ea-81cb-bf5a91f34a67,2612c4e6-5279-11ea-b4e9-ff19da4e204f
26010788-5279-11ea-a86b-9bfdc5e0871c,2612e822-5279-11ea-8ba5-47961c9715f1
25fd5aa2-5279-11ea-ad79-97b43726ef87,2612f178-5279-11ea-957e-8f03e4e88d0c
2605ddd0-5279-11ea-b5ca-3ba3ec903cf2,2612fa92-5279-11ea-931b-5bcfcad717d7
2612c4e6-5279-11ea-b4e9-ff19da4e204f,26130262-5279-11ea-b257-df0137469565
2602a804-5279-11ea-8b85-a76edcdb54e8,26130bd6-5279-11ea-b191-b71198e730f9
25f58124-5279-11ea-bdde-2f708fb7f3d3,26131b08-5279-11ea-85af-37b85b94f3f1
260154ea-5279-11ea-a87d-c7abd3b7baff,261324b8-5279-11ea-9b9c-ab450d971c6a
25ea5bc8-5279-11ea-9341-5327a06a8cad,2613370a-5279-11ea-8a1e-cbfe077f2f86
2612f178-5279-11ea-957e-8f03e4e88d0c,2613597e-5279-11ea-bb41-876b987a1ef8
26088a76-5279-11ea-981f-c3e42397a2c0,26136af4-5279-11ea-81a4-c770ac0ba705
25f8751e-5279-11ea-a873-eb898dd9dafb,26137616-5279-11ea-8ec1-93e3444194fa
25e9346e-5279-11ea-99d7-6f3fe14c4c2d,261380f2-5279-11ea-944f-73e499bbd6c3
25fdeb7a-5279-11ea-aced-d388b7cfbf5a,26138bce-5279-11ea-99e0-f7082aca0887
25f0f078-5279-11ea-a993-2322a22873a1,261395b0-5279-11ea-ba07-bb755f9250c7
260f2ac0-5279-11ea-b744-f34287a6076a,26139f88-5279-11ea-a9b9-33c9e2d5d2d2
25f6906e-5279-11ea-afce-e33cd3961f7b,2613ae88-5279-11ea-a186-73c481d403c3
25f6a0ea-5279-11ea-9448-7bd4edf9f76c,2613caf8-5279-11ea-90e7-6f264a3285b5
260f8862-5279-11ea-9ad2-eb2a9d50a3fb,2613e0ec-5279-11ea-869a-e339137d80e9
260acb2e-5279-11ea-a72a-9f0e5656b6cb,2613ea4c-5279-11ea-aafb-57274dfe43b6
25f5236e-5279-11ea-b485-6bc4399166e5,2613f8f2-5279-11ea-bb59-a77f08095de8
25f58b1a-5279-11ea-9353-e751c02c8eea,26140216-5279-11ea-b9a9-87c4279e59f8
26055324-5279-11ea-b81c-a7e4687c0dce,26140fa4-5279-11ea-a620-17fcfab5149f
25fcdf50-5279-11ea-aef3-134a7435c05b,26141f4e-5279-11ea-8c19-23296e1b765f
2612c4e6-5279-11ea-b4e9-ff19da4e204f,26142caa-5279-11ea-8e40-279f90ef7647
25ee2686-5279-11ea-9dbd-fb992ad5210f,261441f4-5279-11ea-8fc4-c31253088f78
25df3536-5279-11ea-a1ce-53cca53308cd,261458ec-5279-11ea-bbe5-8329d9874604
25efce5a-5279-11ea-a3e8-87e70ea71fa8,261463fa-5279-11ea-8261-1b0ffcc5020e
25fcdf50-5279-11ea-aef3-134a7435c05b,2614720a-5279-11ea-ae5e-9b051459ec96
2610e46e-5279-11ea-b392-8fa3940af496,26147c28-5279-11ea-af5f-5b72170d28dc
25e9f020-5279-11ea-bbcc-8b9ca56f370b,26148fd8-5279-11ea-bc2d-f344dbdfffce
2604415a-5279-11ea-ad62-33538e7abdba,26149a5a-5279-11ea-b782-77e495628faa
25f4543e-5279-11ea-a0b5-2f6bd1a02811,2614a82e-5279-11ea-ad0c-3348140cd20a
26139f88-5279-11ea-a9b9-33c9e2d5d2d2,2614bdfa-5279-11ea-b5d5-ef07986366da
26147c28-5279-11ea-af5f-5b72170d28dc,2614cd4a-5279-11ea-9bef-e3e954c305fe
25e8d686-5279-11ea-a918-3762140e856b,2614dd12-5279-11ea-8e60-bf96bf1ded5f
260e8cd2-5279-11ea-9515-83a6124169c6,2614eafa-5279-11ea-9a88-879735db4bb7
25e82998-5279-11ea-854c-e756b96802e4,2614f842-5279-11ea-a959-83ea24120b82
25e7f68a-5279-11ea-ae55-af56ef09bb4d,26150dbe-5279-11ea-9f83-2736338ce04c
25f5fc58-5279-11ea-9ee5-9f1d109683ae,26151868-5279-11ea-8e16-6bc3824c7e53
2613ae88-5279-11ea-a186-73c481d403c3,2615305a-5279-11ea-ae48-4f8a7ccdaea8
2614bdfa-5279-11ea-b5d5-ef07986366da,26154112-5279-11ea-b315-67bdff2db306
26112c4e-5279-11ea-ac24-8b2b8597da4e,26154b8a-5279-11ea-8b46-c3116ea2313c
25e66590-5279-11ea-b107-039f744520dc,26155df0-5279-11ea-847b-eb8e9102ca31
25e70860-5279-11ea-a0ed-071ff112cfa7,26156dfe-5279-11ea-8484-030395f7815c
25fb621a-5279-11ea-abb4-43af59c64c97,26157880-5279-11ea-9115-6328e6e29991
2600c19c-5279-11ea-a211-e3e2a88cab22,26158294-5279-11ea-bba3-23a7ecf904b8
25ee91a2-5279-11ea-aaca-af52ee94adb1,261593ec-5279-11ea-9fcc-439b2dd25c63
25e234c0-5279-11ea-8c8d-4bf9817e2556,2615b78c-5279-11ea-9207-7ffe5acba316
25e4ae4e-5279-11ea-8697-8fe5f0bf4edb,2615c1e6-5279-11ea-b9a7-ff880a822818
25f191c2-5279-11ea-93a4-d70cf2db78bf,2615cb64-5279-11ea-a8ef-af1809032f25
25df2c6c-5279-11ea-b64e-dbb358439026,2615d9ce-5279-11ea-89b2-cb6208f3a5f1
260dd148-5279-11ea-bbc1-a7f44df2874a,2615e7b6-5279-11ea-8f3b-abfec95e5f70
26007304-5279-11ea-9ac8-3b410458cc7f,2615f512-5279-11ea-a627-674f9ad1bfb1
26032ab8-5279-11ea-934f-1b354dc6445c,2615ffda-5279-11ea-a2f9-1fdbbea11dcf
25f83cc0-5279-11ea-96e1-4f282e8e53bc,26161646-5279-11ea-a323-2b888fc7ed49
26069838-5279-11ea-8bf5-5fe10468ab03,261632e8-5279-11ea-8075-2fcc141599f6
25e85ecc-5279-11ea-bf0f-e7de28339e14,26163f40-5279-11ea-8280-e3d4a560e3f6
25e62e9a-5279-11ea-81cb-bf5a91f34a67,261648be-5279-11ea-8389-bfe9cdfbd17d
25eda85a-5279-11ea-b488-6f64316e6bb8,2616594e-5279-11ea-9661-c7deab308695
25eb547e-5279-11ea-80b7-2332c6f7ed39,26166308-5279-11ea-9e16-c3e43227e72e
25dfb9a2-5279-11ea-83e0-0b04a7678964,26166cea-5279-11ea-8d1b-3790be8087b2
26091cca-5279-11ea-8d05-5baff7a2e503,261677b2-5279-11ea-886c-93adb78ca416
25e788e4-5279-11ea-b830-57e8ccbd38c4,261686b2-5279-11ea-beb1-47ab6baf9489
25f65d42-5279-11ea-a977-b3f2bec3762a,2616aa7a-5279-11ea-a8f3-5f7cc311684a
26016886-5279-11ea-8985-53cf7776d444,2616b84e-5279-11ea-99b9-c34db7861c67
2608b79e-5279-11ea-b000-afb403685ca1,2616c640-5279-11ea-8298-43a3887b127a
261593ec-5279-11ea-9fcc-439b2dd25c63,2616e404-5279-11ea-88df-4bc418662da2
2606eacc-5279-11ea-b3cd-f312e3bd69de,2616ef30-5279-11ea-88ff-9748e0a4b1eb
25e39cde-5279-11ea-b9c5-dfc803e4eb9a,2616f8e0-5279-11ea-ba01-8ba56f26d6f1
25e4b66e-5279-11ea-adf5-e75ebe00adcf,261702d6-5279-11ea-833b-f706d3abbf47
2611cc26-5279-11ea-a6ba-4724ccb8148d,26170d12-5279-11ea-b885-37792fea763d
25f5f028-5279-11ea-9c7a-bb279cd9a8db,261725d6-5279-11ea-94bc-af5041866ce9
26059442-5279-11ea-81f9-23ff0ab418fd,26173166-5279-11ea-888f-77166dc50c7e
260f9190-5279-11ea-9f53-0787e2b5f7fe,26173bb6-5279-11ea-bb30-b36b8b713c04
25e68246-5279-11ea-a834-537f4e681ac1,261762e4-5279-11ea-9e53-fb531b201ee9
25e2232c-5279-11ea-bda9-bb6e9f1447e4,26176dd4-5279-11ea-b8e7-f7411cdbaee5
25fc9fd6-5279-11ea-b7f9-7b19617537b1,2617777a-5279-11ea-95ee-cfa2c4d29275
25ebb400-5279-11ea-96c0-cbf04d301f05,261784b8-5279-11ea-9617-978a5d849376
26029d78-5279-11ea-80a3-2f71992b1fab,26178ee0-5279-11ea-8f17-9f0f1f093d48
2615e7b6-5279-11ea-8f3b-abfec95e5f70,2617aae2-5279-11ea-bb41-27e48cb791ac
25ef662c-5279-11ea-8d82-9ba1c2a7582b,2617b5a0-5279-11ea-ad5f-bf010926951b
26151868-5279-11ea-8e16-6bc3824c7e53,2617bf78-5279-11ea-8fc8-b7475ab5b1ee
260af874-5279-11ea-8f8a-432fb825de28,2617dd64-5279-11ea-8ede-a7c6219ef959
25fe04d4-5279-11ea-9b6c-8f7bd26afa5c,2617e7f0-5279-11ea-a5a1-8b89b25f8759
2603464c-5279-11ea-a5b1-9bd40afaf96e,2617f236-5279-11ea-ac46-87870adf64d8
25ec83da-5279-11ea-b7aa-1f6b5773df58,26180064-5279-11ea-b9a8-338a04225f73
260144e6-5279-11ea-bb77-5f7e078b6c19,26180ef6-5279-11ea-8f26-b3b1c4655378
25ee9ad0-5279-11ea-936c-1b6cbf365017,26181e32-5279-11ea-ac1a-0fc4685f9d0c
25f325be-5279-11ea-877c-1b138707eaef,2618307a-5279-11ea-91ef-7b10c505f662
2612a876-5279-11ea-a949-2b193b3636ea,26183b42-5279-11ea-ae94-9388c644bf5c
25f56d42-5279-11ea-8e79-d705a7ff3864,26185de8-5279-11ea-be32-77b0d1740cbc
26147c28-5279-11ea-af5f-5b72170d28dc,26186770-5279-11ea-a099-23c1c9afd7b2
260ddf26-5279-11ea-8bdd-e75abb05054e,261871b6-5279-11ea-b7dd-6362c8e877c1
25e7bed6-5279-11ea-b40c-db8b8bdfaff1,26188070-5279-11ea-8977-ebe4e37a9a93
25e19722-5279-11ea-a4b5-6bb0d40a5ffc,26188e30-5279-11ea-808d-67604f4a6986
25e4c2b2-5279-11ea-ac96-8fa693f263b5,26189b64-5279-11ea-859b-5314ae73b850
