RunID,Tick,AllAgents,Active,Inactive
run-2020-2-18-18-4-46.460547924,0,14,13,1
run-2020-2-18-18-4-46.460547924,1,17,14,3
run-2020-2-18-18-4-46.460547924,2,24,17,7
run-2020-2-18-18-4-46.460547924,3,27,15,12
run-2020-2-18-18-4-46.460547924,4,31,15,16
run-2020-2-18-18-4-46.460547924,5,33,16,17
run-2020-2-18-18-4-46.460547924,6,36,18,18
run-2020-2-18-18-4-46.460547924,7,38,16,22
run-2020-2-18-18-4-46.460547924,8,44,19,25
run-2020-2-18-18-4-46.460547924,9,47,19,28
run-2020-2-18-18-4-46.460547924,10,51,19,32
run-2020-2-18-18-4-46.460547924,11,56,21,35
run-2020-2-18-18-4-46.460547924,12,62,25,37
run-2020-2-18-18-4-46.460547924,13,71,32,39
run-2020-2-18-18-4-46.460547924,14,75,32,43
run-2020-2-18-18-4-46.460547924,15,80,30,50
run-2020-2-18-18-4-46.460547924,16,83,29,54
run-2020-2-18-18-4-46.460547924,17,84,28,56
run-2020-2-18-18-4-46.460547924,18,86,27,59
run-2020-2-18-18-4-46.460547924,19,86,25,61
run-2020-2-18-18-4-46.460547924,20,87,24,63
run-2020-2-18-18-4-46.460547924,21,91,26,65
run-2020-2-18-18-4-46.460547924,22,97,31,66
run-2020-2-18-18-4-46.460547924,23,105,35,70
run-2020-2-18-18-4-46.460547924,24,108,36,72
run-2020-2-18-18-4-46.460547924,25,114,39,75
run-2020-2-18-18-4-46.460547924,26,119,38,81
run-2020-2-18-18-4-46.460547924,27,122,38,84
run-2020-2-18-18-4-46.460547924,28,124,35,89
run-2020-2-18-18-4-46.460547924,29,127,36,91
run-2020-2-18-18-4-46.460547924,30,128,36,92
run-2020-2-18-18-4-46.460547924,31,132,38,94
run-2020-2-18-18-4-46.460547924,32,134,40,94
run-2020-2-18-18-4-46.460547924,33,138,41,97
run-2020-2-18-18-4-46.460547924,34,143,42,101
run-2020-2-18-18-4-46.460547924,35,144,39,105
run-2020-2-18-18-4-46.460547924,36,146,40,106
run-2020-2-18-18-4-46.460547924,37,152,44,108
run-2020-2-18-18-4-46.460547924,38,160,49,111
run-2020-2-18-18-4-46.460547924,39,164,48,116
run-2020-2-18-18-4-46.460547924,40,167,47,120
run-2020-2-18-18-4-46.460547924,41,171,51,120
run-2020-2-18-18-4-46.460547924,42,173,48,125
run-2020-2-18-18-4-46.460547924,43,174,47,127
run-2020-2-18-18-4-46.460547924,44,176,49,127
run-2020-2-18-18-4-46.460547924,45,177,45,132
run-2020-2-18-18-4-46.460547924,46,182,49,133
run-2020-2-18-18-4-46.460547924,47,185,47,138
run-2020-2-18-18-4-46.460547924,48,191,52,139
run-2020-2-18-18-4-46.460547924,49,196,55,141
run-2020-2-18-18-4-46.460547924,50,197,50,147
run-2020-2-18-18-4-46.460547924,51,199,49,150
run-2020-2-18-18-4-46.460547924,52,204,52,152
run-2020-2-18-18-4-46.460547924,53,212,56,156
run-2020-2-18-18-4-46.460547924,54,217,55,162
run-2020-2-18-18-4-46.460547924,55,223,60,163
run-2020-2-18-18-4-46.460547924,56,225,54,171
run-2020-2-18-18-4-46.460547924,57,230,55,175
run-2020-2-18-18-4-46.460547924,58,233,53,180
run-2020-2-18-18-4-46.460547924,59,235,51,184
run-2020-2-18-18-4-46.460547924,60,241,54,187
run-2020-2-18-18-4-46.460547924,61,243,51,192
run-2020-2-18-18-4-46.460547924,62,245,48,197
run-2020-2-18-18-4-46.460547924,63,246,48,198
run-2020-2-18-18-4-46.460547924,64,250,51,199
run-2020-2-18-18-4-46.460547924,65,254,53,201
run-2020-2-18-18-4-46.460547924,66,259,54,205
run-2020-2-18-18-4-46.460547924,67,260,55,205
run-2020-2-18-18-4-46.460547924,68,265,54,211
run-2020-2-18-18-4-46.460547924,69,266,51,215
run-2020-2-18-18-4-46.460547924,70,270,51,219
run-2020-2-18-18-4-46.460547924,71,272,50,222
run-2020-2-18-18-4-46.460547924,72,277,54,223
run-2020-2-18-18-4-46.460547924,73,282,54,228
run-2020-2-18-18-4-46.460547924,74,286,55,231
run-2020-2-18-18-4-46.460547924,75,290,55,235
run-2020-2-18-18-4-46.460547924,76,299,61,238
run-2020-2-18-18-4-46.460547924,77,300,59,241
run-2020-2-18-18-4-46.460547924,78,305,60,245
run-2020-2-18-18-4-46.460547924,79,310,57,253
run-2020-2-18-18-4-46.460547924,80,315,55,260
run-2020-2-18-18-4-46.460547924,81,321,57,264
run-2020-2-18-18-4-46.460547924,82,326,57,269
run-2020-2-18-18-4-46.460547924,83,334,61,273
run-2020-2-18-18-4-46.460547924,84,338,60,278
run-2020-2-18-18-4-46.460547924,85,346,61,285
run-2020-2-18-18-4-46.460547924,86,346,56,290
run-2020-2-18-18-4-46.460547924,87,351,57,294
run-2020-2-18-18-4-46.460547924,88,356,58,298
run-2020-2-18-18-4-46.460547924,89,363,60,303
run-2020-2-18-18-4-46.460547924,90,366,62,304
run-2020-2-18-18-4-46.460547924,91,367,63,304
run-2020-2-18-18-4-46.460547924,92,369,62,307
run-2020-2-18-18-4-46.460547924,93,372,58,314
run-2020-2-18-18-4-46.460547924,94,377,60,317
run-2020-2-18-18-4-46.460547924,95,382,60,322
run-2020-2-18-18-4-46.460547924,96,384,60,324
run-2020-2-18-18-4-46.460547924,97,388,62,326
run-2020-2-18-18-4-46.460547924,98,392,60,332
run-2020-2-18-18-4-46.460547924,99,397,56,341
