Source,Target
9325f226-51af-11ea-9ff7-f34581ec607e,932706e8-51af-11ea-aed3-0313eecf5782
9325f226-51af-11ea-9ff7-f34581ec607e,932709e0-51af-11ea-b7dd-bbbc993611aa
9326b6fc-51af-11ea-8604-c7dc0bd7fbd9,93270d14-51af-11ea-baf1-3bd5509763b6
93265ee6-51af-11ea-89de-4337f4c882b6,93271020-51af-11ea-a1d3-137609dc3324
93271020-51af-11ea-a1d3-137609dc3324,932756b6-51af-11ea-b0f4-4709b4441804
93263c04-51af-11ea-b664-c7fb6b63d4ef,93277bbe-51af-11ea-a9dc-0f7cfd42b8f4
93270d14-51af-11ea-baf1-3bd5509763b6,9327837a-51af-11ea-9a12-4711a0a0877a
9327837a-51af-11ea-9a12-4711a0a0877a,9327d88e-51af-11ea-a9ab-0303cb71f0c9
9326b6fc-51af-11ea-8604-c7dc0bd7fbd9,9327d3de-51af-11ea-bfbf-5b9c1172ecfc
9327837a-51af-11ea-9a12-4711a0a0877a,9327f328-51af-11ea-b50e-b74d4422dd97
93270436-51af-11ea-92b6-d758ca920dbc,93281448-51af-11ea-ae40-0fc1fd682697
9325f226-51af-11ea-9ff7-f34581ec607e,9328672c-51af-11ea-98dc-83e5516979be
93270436-51af-11ea-92b6-d758ca920dbc,932872e4-51af-11ea-8745-8f3fc1986a1f
9325eeca-51af-11ea-b671-5348c538a7ec,932876d6-51af-11ea-b502-53148ec4fc23
93281448-51af-11ea-ae40-0fc1fd682697,932888b0-51af-11ea-8295-cb05a9e79734
93277bbe-51af-11ea-a9dc-0f7cfd42b8f4,9328b8a8-51af-11ea-bf16-630a51333667
93270436-51af-11ea-92b6-d758ca920dbc,9328c17c-51af-11ea-b6bc-9f4b1ef3149d
9325f5a0-51af-11ea-90c8-c338062b0a21,9328fb6a-51af-11ea-825b-3f88687a2285
9325f226-51af-11ea-9ff7-f34581ec607e,93290128-51af-11ea-9a1a-8bee1156b852
932888b0-51af-11ea-8295-cb05a9e79734,9328f9a8-51af-11ea-8c63-4fdc605b82ba
9325e678-51af-11ea-9eec-8f6c8a4a82ff,93290d08-51af-11ea-bf0a-6fc5aee5563f
9327f328-51af-11ea-b50e-b74d4422dd97,932951c8-51af-11ea-ad9c-bf715ca7e6ab
932888b0-51af-11ea-8295-cb05a9e79734,9329561e-51af-11ea-8b47-d3dee2932196
93270436-51af-11ea-92b6-d758ca920dbc,932959c0-51af-11ea-a708-1fb40c0a6129
9326ceee-51af-11ea-b295-e3da89f10717,93295cea-51af-11ea-87ce-17405ea7cde2
9328fb6a-51af-11ea-825b-3f88687a2285,93299f98-51af-11ea-b7aa-4b025a0d848b
9326b9a4-51af-11ea-a43a-bb52321b3a67,9329a90c-51af-11ea-98a1-efc547039851
9326ceee-51af-11ea-b295-e3da89f10717,9329ad3a-51af-11ea-a6be-87bfb7811f02
932888b0-51af-11ea-8295-cb05a9e79734,9329afce-51af-11ea-8b4b-8fe4e88b4dc2
9326ceee-51af-11ea-b295-e3da89f10717,9329fc9a-51af-11ea-b473-3f36183388d1
9325eeca-51af-11ea-b671-5348c538a7ec,932a06a4-51af-11ea-85b7-0f1bf934b064
9326ceee-51af-11ea-b295-e3da89f10717,932a2314-51af-11ea-8a45-870d7e604ecf
9329561e-51af-11ea-8b47-d3dee2932196,932a5e38-51af-11ea-b483-ab0146893689
9327f328-51af-11ea-b50e-b74d4422dd97,932a6680-51af-11ea-a474-b31b1ee7d662
9327f328-51af-11ea-b50e-b74d4422dd97,932a8cbe-51af-11ea-bd82-f7e1eea37618
93290128-51af-11ea-9a1a-8bee1156b852,932a9d1c-51af-11ea-a39f-0bee340f66e1
9325f226-51af-11ea-9ff7-f34581ec607e,932ace9a-51af-11ea-970d-7782d6f0c16e
9329a90c-51af-11ea-98a1-efc547039851,932accd8-51af-11ea-ad19-2786b91728bf
9325eeca-51af-11ea-b671-5348c538a7ec,932ae66e-51af-11ea-aca5-db384d4f523c
932a8cbe-51af-11ea-bd82-f7e1eea37618,932afcb2-51af-11ea-a686-9f2cd9234b34
932a9d1c-51af-11ea-a39f-0bee340f66e1,932b26d8-51af-11ea-abf1-0fd4f491db41
9329fc9a-51af-11ea-b473-3f36183388d1,932b2dd6-51af-11ea-9ff6-eb65b58c99f8
9325e678-51af-11ea-9eec-8f6c8a4a82ff,932b430c-51af-11ea-9b38-9bc148e627dc
932ae66e-51af-11ea-aca5-db384d4f523c,932b46fe-51af-11ea-b153-17404a592cd1
932a5e38-51af-11ea-b483-ab0146893689,932b62d8-51af-11ea-938b-3bcec9d9f229
932b2dd6-51af-11ea-9ff6-eb65b58c99f8,932b7cdc-51af-11ea-8e2d-274bbba6cef5
9329afce-51af-11ea-8b4b-8fe4e88b4dc2,932ba69e-51af-11ea-a249-3721af0536cd
9326b9a4-51af-11ea-a43a-bb52321b3a67,932badc4-51af-11ea-be1c-93401ae34f8f
932accd8-51af-11ea-ad19-2786b91728bf,932bc80e-51af-11ea-8d73-9f653136fb58
93290d08-51af-11ea-bf0a-6fc5aee5563f,932bdff6-51af-11ea-936b-a3d5795f4a6e
9328672c-51af-11ea-98dc-83e5516979be,932bf068-51af-11ea-911a-3394bf4923e7
932b62d8-51af-11ea-938b-3bcec9d9f229,932c08fa-51af-11ea-9f8f-a3453bd682da
932afcb2-51af-11ea-a686-9f2cd9234b34,932c1eda-51af-11ea-8a83-dfa84828157b
9327d88e-51af-11ea-a9ab-0303cb71f0c9,932c3e92-51af-11ea-99d7-6f58c6c14af8
93263c04-51af-11ea-b664-c7fb6b63d4ef,932c5af8-51af-11ea-806b-d71ffed269b3
932badc4-51af-11ea-be1c-93401ae34f8f,932c95f4-51af-11ea-bca1-0bf6268ec990
9327837a-51af-11ea-9a12-4711a0a0877a,932c9b62-51af-11ea-b380-1b88b089d15e
9329561e-51af-11ea-8b47-d3dee2932196,932ca8f0-51af-11ea-985a-2bba53e15547
932b430c-51af-11ea-9b38-9bc148e627dc,932cd050-51af-11ea-b27c-a3f31b601acd
932a8cbe-51af-11ea-bd82-f7e1eea37618,932cf9b8-51af-11ea-b7a4-d75f15d3d18b
93281448-51af-11ea-ae40-0fc1fd682697,932cfdfa-51af-11ea-a61d-3704d7d035a7
9328b8a8-51af-11ea-bf16-630a51333667,932d5520-51af-11ea-b1dd-af9acf5ef4c7
932a06a4-51af-11ea-85b7-0f1bf934b064,932d7078-51af-11ea-ab69-875c77944d3c
932ca8f0-51af-11ea-985a-2bba53e15547,932d7eba-51af-11ea-b63a-c33df102a9f8
932ace9a-51af-11ea-970d-7782d6f0c16e,932d8e1e-51af-11ea-a319-5348910e3d83
932cf9b8-51af-11ea-b7a4-d75f15d3d18b,932dc852-51af-11ea-8c5a-eb5aa9d4e983
9326ceee-51af-11ea-b295-e3da89f10717,932dd9fa-51af-11ea-87e5-4fc3a1d4a98b
932a9d1c-51af-11ea-a39f-0bee340f66e1,932ddd1a-51af-11ea-910e-a793dbe9282f
9328f9a8-51af-11ea-8c63-4fdc605b82ba,932de21a-51af-11ea-a0db-97c13ad136ae
9328c17c-51af-11ea-b6bc-9f4b1ef3149d,932e2d56-51af-11ea-a4ad-d33eeec4c9ef
93295cea-51af-11ea-87ce-17405ea7cde2,932e365c-51af-11ea-88ef-977cdba134ba
932706e8-51af-11ea-aed3-0313eecf5782,932e315c-51af-11ea-8405-5bba061c0900
932c08fa-51af-11ea-9f8f-a3453bd682da,932e3b5c-51af-11ea-a747-0bddc4823673
9329561e-51af-11ea-8b47-d3dee2932196,932e7f4a-51af-11ea-93c6-47181783436e
93281448-51af-11ea-ae40-0fc1fd682697,932e90f2-51af-11ea-a6fa-f36b40d0a84b
932afcb2-51af-11ea-a686-9f2cd9234b34,932eb9f6-51af-11ea-a6c5-ff41afd1a412
93270d14-51af-11ea-baf1-3bd5509763b6,932ed10c-51af-11ea-8b64-c31ca15f6d6d
932d7eba-51af-11ea-b63a-c33df102a9f8,932ef1aa-51af-11ea-a9da-db0e12b8b099
932cd050-51af-11ea-b27c-a3f31b601acd,932efa92-51af-11ea-8b04-efbdd1ff72f6
9327d3de-51af-11ea-bfbf-5b9c1172ecfc,932f08d4-51af-11ea-b779-7b61d440d6f9
9327837a-51af-11ea-9a12-4711a0a0877a,932f118a-51af-11ea-a759-53c8bd74f856
932d7eba-51af-11ea-b63a-c33df102a9f8,932f4e16-51af-11ea-b389-6f9215a25b04
932f08d4-51af-11ea-b779-7b61d440d6f9,932f59ba-51af-11ea-acfb-57b431967db9
932e7f4a-51af-11ea-93c6-47181783436e,932f6d74-51af-11ea-a226-5f07168f3880
9327837a-51af-11ea-9a12-4711a0a0877a,932f9f06-51af-11ea-b0f0-4b09329cd0a0
9326b6fc-51af-11ea-8604-c7dc0bd7fbd9,932fc1d4-51af-11ea-9f88-83344e1c9f94
932f6d74-51af-11ea-a226-5f07168f3880,932fd0c0-51af-11ea-aa06-8fc74fcbb51a
932bdff6-51af-11ea-936b-a3d5795f4a6e,932fdfe8-51af-11ea-bcfe-43f867cd35aa
9328b8a8-51af-11ea-bf16-630a51333667,93300432-51af-11ea-aa35-4f1176bab333
93300432-51af-11ea-aa35-4f1176bab333,93302fd4-51af-11ea-8071-cfa69b3b1369
932b2dd6-51af-11ea-9ff6-eb65b58c99f8,93303fe2-51af-11ea-8979-6b92ebec219c
932e90f2-51af-11ea-a6fa-f36b40d0a84b,93304fe6-51af-11ea-861d-af4cdf730ebd
932951c8-51af-11ea-ad9c-bf715ca7e6ab,9330717e-51af-11ea-850a-03bd13304b8e
932e315c-51af-11ea-8405-5bba061c0900,93308182-51af-11ea-a1de-3b13d1253dc5
932c1eda-51af-11ea-8a83-dfa84828157b,93309172-51af-11ea-8791-a3db2f45798c
932d5520-51af-11ea-b1dd-af9acf5ef4c7,9330ace8-51af-11ea-8ee5-8f79447d7202
932cfdfa-51af-11ea-a61d-3704d7d035a7,9330ca8e-51af-11ea-bcc5-37e7a49e72d4
932ed10c-51af-11ea-8b64-c31ca15f6d6d,9330f6bc-51af-11ea-a8ed-17fa5cf6d68d
932ed10c-51af-11ea-8b64-c31ca15f6d6d,93311066-51af-11ea-b790-7fe3bee43641
932f6d74-51af-11ea-a226-5f07168f3880,93312de4-51af-11ea-a392-6731d18d8089
932bf068-51af-11ea-911a-3394bf4923e7,93315378-51af-11ea-b1cc-8f8b55289395
9329561e-51af-11ea-8b47-d3dee2932196,93317a24-51af-11ea-8a50-a3895089f1b5
932fdfe8-51af-11ea-bcfe-43f867cd35aa,93318dfc-51af-11ea-878c-e79fa7a755eb
93300432-51af-11ea-aa35-4f1176bab333,9331f314-51af-11ea-90c8-9313a648b618
93277bbe-51af-11ea-a9dc-0f7cfd42b8f4,93320dc2-51af-11ea-b02c-7bd5bd85a3ed
9329561e-51af-11ea-8b47-d3dee2932196,9331fe36-51af-11ea-85f9-a3e22671d148
932afcb2-51af-11ea-a686-9f2cd9234b34,93321a2e-51af-11ea-881e-5bad187850f6
932d8e1e-51af-11ea-a319-5348910e3d83,9332517e-51af-11ea-bb3e-cb35a9a0333c
932e7f4a-51af-11ea-93c6-47181783436e,933268d0-51af-11ea-a1ad-e3ba2e2e322c
932d8e1e-51af-11ea-a319-5348910e3d83,93328b9e-51af-11ea-a380-532809abfa6c
9329a90c-51af-11ea-98a1-efc547039851,9332959e-51af-11ea-aa49-ff50a5debbe0
9328f9a8-51af-11ea-8c63-4fdc605b82ba,9332ca5a-51af-11ea-9073-fbc5ef534ce7
932f9f06-51af-11ea-b0f0-4b09329cd0a0,9332d19e-51af-11ea-964c-4f444c601af8
9331f314-51af-11ea-90c8-9313a648b618,9332fae8-51af-11ea-b4fe-3be1b4b62894
932b26d8-51af-11ea-abf1-0fd4f491db41,93332c0c-51af-11ea-8558-fbdeca0a264d
9331fe36-51af-11ea-85f9-a3e22671d148,933340f2-51af-11ea-8a43-5bdebb9e2c5b
933268d0-51af-11ea-a1ad-e3ba2e2e322c,933355ba-51af-11ea-9e50-2fcdb44bc8df
932f6d74-51af-11ea-a226-5f07168f3880,933351fa-51af-11ea-aad6-9bb59d39cdb5
932a8cbe-51af-11ea-bd82-f7e1eea37618,9333932c-51af-11ea-93aa-03275256e3ba
9329ad3a-51af-11ea-a6be-87bfb7811f02,93339ae8-51af-11ea-969f-470baaf0d072
9328fb6a-51af-11ea-825b-3f88687a2285,9333d120-51af-11ea-8509-075fa0a9bb93
9328f9a8-51af-11ea-8c63-4fdc605b82ba,9333d7ba-51af-11ea-8aa2-bfef88855aa2
9328672c-51af-11ea-98dc-83e5516979be,9333ef20-51af-11ea-81d7-f716aeee1b79
932756b6-51af-11ea-b0f4-4709b4441804,93340dac-51af-11ea-8718-37a6b44dda35
932888b0-51af-11ea-8295-cb05a9e79734,93342a44-51af-11ea-bb57-b7c26ad6b649
9327d88e-51af-11ea-a9ab-0303cb71f0c9,93344f56-51af-11ea-8dd8-c3e94ae43f70
932badc4-51af-11ea-be1c-93401ae34f8f,933466e4-51af-11ea-b9a1-83fa5bf59f66
932888b0-51af-11ea-8295-cb05a9e79734,93348a5c-51af-11ea-bee8-2b08063f8f57
932c1eda-51af-11ea-8a83-dfa84828157b,9334af8c-51af-11ea-9d09-5b9b05ef80c5
9328672c-51af-11ea-98dc-83e5516979be,9334c012-51af-11ea-978b-fff1f63bc3d8
932706e8-51af-11ea-aed3-0313eecf5782,9334cd6e-51af-11ea-9cba-8f1e944cc796
932e315c-51af-11ea-8405-5bba061c0900,9334e7a4-51af-11ea-af65-ff4e0638b77b
9334af8c-51af-11ea-9d09-5b9b05ef80c5,93351ac6-51af-11ea-93f1-fb18815606d1
9331fe36-51af-11ea-85f9-a3e22671d148,93353d80-51af-11ea-8aaa-f3e73930f8ee
9331fe36-51af-11ea-85f9-a3e22671d148,93354172-51af-11ea-bf58-035a2c35e57d
932f6d74-51af-11ea-a226-5f07168f3880,93355216-51af-11ea-90ec-8f2803a38de8
932b7cdc-51af-11ea-8e2d-274bbba6cef5,9335bad0-51af-11ea-975e-d34ebb668cb4
932a5e38-51af-11ea-b483-ab0146893689,9335c048-51af-11ea-973e-3300b83efb0f
93303fe2-51af-11ea-8979-6b92ebec219c,93360350-51af-11ea-b362-7b04cc1d80f0
9332fae8-51af-11ea-b4fe-3be1b4b62894,9335f374-51af-11ea-ba69-c37c66ccdfd4
93299f98-51af-11ea-b7aa-4b025a0d848b,933651f2-51af-11ea-8f36-37e9e66d4b26
9332fae8-51af-11ea-b4fe-3be1b4b62894,933635fa-51af-11ea-9943-57ea4d7019d8
9329fc9a-51af-11ea-b473-3f36183388d1,933698b0-51af-11ea-b08a-cb634da662b1
933355ba-51af-11ea-9e50-2fcdb44bc8df,9336a9d6-51af-11ea-95c8-8fc938bf05eb
9329a90c-51af-11ea-98a1-efc547039851,9336db18-51af-11ea-9db9-73690767bd84
932c95f4-51af-11ea-bca1-0bf6268ec990,9336fddc-51af-11ea-90f4-076d7145f0cd
932f9f06-51af-11ea-b0f0-4b09329cd0a0,93370ab6-51af-11ea-8357-3fa694388df0
932a06a4-51af-11ea-85b7-0f1bf934b064,93372ef6-51af-11ea-9130-2b49fd29b40f
932b430c-51af-11ea-9b38-9bc148e627dc,93374224-51af-11ea-8724-4f618ce8069b
932ba69e-51af-11ea-a249-3721af0536cd,933763d0-51af-11ea-a621-33a2e5dd8bb4
9335bad0-51af-11ea-975e-d34ebb668cb4,93378aae-51af-11ea-9a2a-d78c0b566a82
9334cd6e-51af-11ea-9cba-8f1e944cc796,93379ae4-51af-11ea-bc0d-878e415d5db6
93370ab6-51af-11ea-8357-3fa694388df0,9337981e-51af-11ea-a0d7-d7697ae5f994
93353d80-51af-11ea-8aaa-f3e73930f8ee,9337e95e-51af-11ea-a8e7-17391893411a
933340f2-51af-11ea-8a43-5bdebb9e2c5b,9337ee9a-51af-11ea-bdc8-7bbf21aef5be
932a8cbe-51af-11ea-bd82-f7e1eea37618,93381ce4-51af-11ea-a66b-1347a79044c3
9329ad3a-51af-11ea-a6be-87bfb7811f02,933812b2-51af-11ea-8af2-a77584d49a13
9325eeca-51af-11ea-b671-5348c538a7ec,93385272-51af-11ea-be00-f7c75c967e61
932e90f2-51af-11ea-a6fa-f36b40d0a84b,93388148-51af-11ea-9296-7b10065999af
932e3b5c-51af-11ea-a747-0bddc4823673,933897e6-51af-11ea-bede-d79f25b36cc5
932f08d4-51af-11ea-b779-7b61d440d6f9,9338a8f8-51af-11ea-86e9-2fb50f2b4fe0
932b26d8-51af-11ea-abf1-0fd4f491db41,9338e4a8-51af-11ea-890e-13e90dc64e50
932d8e1e-51af-11ea-a319-5348910e3d83,9338f4d4-51af-11ea-82df-2fdc7aa26ae4
9336db18-51af-11ea-9db9-73690767bd84,9339116c-51af-11ea-93a0-c7380ca05f53
932cfdfa-51af-11ea-a61d-3704d7d035a7,933917b6-51af-11ea-98f4-17c18be281c4
9329afce-51af-11ea-8b4b-8fe4e88b4dc2,93394c72-51af-11ea-97f5-6702a61f5216
93360350-51af-11ea-b362-7b04cc1d80f0,93396162-51af-11ea-b79b-5733c3ca8ca9
932f08d4-51af-11ea-b779-7b61d440d6f9,933975bc-51af-11ea-92d5-5ff7ae7560b3
9328c17c-51af-11ea-b6bc-9f4b1ef3149d,93397aa8-51af-11ea-aa8c-37245ec882ae
9327d88e-51af-11ea-a9ab-0303cb71f0c9,9339bcf2-51af-11ea-9b70-ef080e8d145d
93396162-51af-11ea-b79b-5733c3ca8ca9,9339bfea-51af-11ea-a70b-bb95278a3b8f
9325f5a0-51af-11ea-90c8-c338062b0a21,9339dba6-51af-11ea-a6c0-7f19f2c039f3
9334e7a4-51af-11ea-af65-ff4e0638b77b,933a1b98-51af-11ea-a6ac-e38322b6f63d
932efa92-51af-11ea-8b04-efbdd1ff72f6,933a25f2-51af-11ea-97f7-fbc06deb6c79
932e365c-51af-11ea-88ef-977cdba134ba,933a2818-51af-11ea-a999-0bfc9fc09f92
9338a8f8-51af-11ea-86e9-2fb50f2b4fe0,933a64ae-51af-11ea-9d50-a7aba1f249b0
932fd0c0-51af-11ea-aa06-8fc74fcbb51a,933a705c-51af-11ea-97ba-771148b34502
932cd050-51af-11ea-b27c-a3f31b601acd,933a74d0-51af-11ea-b50c-df1943d343d1
9331fe36-51af-11ea-85f9-a3e22671d148,933aa0fe-51af-11ea-93e9-874615cbd630
93300432-51af-11ea-aa35-4f1176bab333,933aaf22-51af-11ea-bd81-2baed9b60cc1
932c3e92-51af-11ea-99d7-6f58c6c14af8,933abae4-51af-11ea-8734-137080086ea3
932ef1aa-51af-11ea-a9da-db0e12b8b099,933aed70-51af-11ea-96dd-2b96122953e2
932c5af8-51af-11ea-806b-d71ffed269b3,933b0f6c-51af-11ea-a4b3-1b27eee806f0
9332ca5a-51af-11ea-9073-fbc5ef534ce7,933afb8a-51af-11ea-a98c-db9fdb655219
9333d120-51af-11ea-8509-075fa0a9bb93,933b2574-51af-11ea-aac5-831a44d1d52e
933a705c-51af-11ea-97ba-771148b34502,933b58aa-51af-11ea-9264-df1778dbab81
933340f2-51af-11ea-8a43-5bdebb9e2c5b,933b6cbe-51af-11ea-9857-2f03e0ce356d
932e365c-51af-11ea-88ef-977cdba134ba,933b8b40-51af-11ea-b9df-8740d5a72a4b
9326b9a4-51af-11ea-a43a-bb52321b3a67,933ba0a8-51af-11ea-b015-eff5b1ff611a
932c08fa-51af-11ea-9f8f-a3453bd682da,933bb692-51af-11ea-a51b-db56b3fe04b3
933b2574-51af-11ea-aac5-831a44d1d52e,933bc272-51af-11ea-8fa8-8ff043478ab7
9330ace8-51af-11ea-8ee5-8f79447d7202,933bd78a-51af-11ea-8946-a35e1443e5b5
93332c0c-51af-11ea-8558-fbdeca0a264d,933c0b06-51af-11ea-ab9c-27d5cfa42350
932c1eda-51af-11ea-8a83-dfa84828157b,933c5750-51af-11ea-be1e-eba07a8027c0
932709e0-51af-11ea-b7dd-bbbc993611aa,933c3a04-51af-11ea-a748-030ca3df02e6
932959c0-51af-11ea-a708-1fb40c0a6129,933c6218-51af-11ea-8c09-7b5c9d7e38f8
9332d19e-51af-11ea-964c-4f444c601af8,933cb254-51af-11ea-a78b-c3fde3c39405
93299f98-51af-11ea-b7aa-4b025a0d848b,933cbf2e-51af-11ea-b17c-7f72a98cdf83
93315378-51af-11ea-b1cc-8f8b55289395,933cba92-51af-11ea-b8cf-bba8a3794600
933aaf22-51af-11ea-bd81-2baed9b60cc1,933cf37c-51af-11ea-a65d-e3e09336936f
933917b6-51af-11ea-98f4-17c18be281c4,933d2126-51af-11ea-a565-33664fed9037
932872e4-51af-11ea-8745-8f3fc1986a1f,933d2874-51af-11ea-a0fd-cfaebc64783f
93299f98-51af-11ea-b7aa-4b025a0d848b,933d2496-51af-11ea-bb6d-db2513ba4a6b
93340dac-51af-11ea-8718-37a6b44dda35,933d7090-51af-11ea-aabf-97501f897662
932e7f4a-51af-11ea-93c6-47181783436e,933d7f90-51af-11ea-9469-f3fb3312b264
932e90f2-51af-11ea-a6fa-f36b40d0a84b,933da34e-51af-11ea-9aee-1f284d5377fe
93397aa8-51af-11ea-aa8c-37245ec882ae,933da7ae-51af-11ea-ba86-33d45bb7a0f3
9339dba6-51af-11ea-a6c0-7f19f2c039f3,933dc7de-51af-11ea-9ec8-1b48eb9057a3
932fd0c0-51af-11ea-aa06-8fc74fcbb51a,933de69c-51af-11ea-8319-63bb86c0f92f
933a1b98-51af-11ea-a6ac-e38322b6f63d,933df7b8-51af-11ea-8576-ebaaea79dac8
93317a24-51af-11ea-8a50-a3895089f1b5,933e238c-51af-11ea-afa7-4fb1e3fbbae0
932e365c-51af-11ea-88ef-977cdba134ba,933e30ca-51af-11ea-bbdc-7bbb8db0ac3c
933635fa-51af-11ea-9943-57ea4d7019d8,933e5e56-51af-11ea-9737-abd9c68be894
9329561e-51af-11ea-8b47-d3dee2932196,933e7bc0-51af-11ea-92bd-83bb364e0c96
93290d08-51af-11ea-bf0a-6fc5aee5563f,933eba40-51af-11ea-8663-2f140d3ee20e
932b62d8-51af-11ea-938b-3bcec9d9f229,933eb7f2-51af-11ea-ab8c-e3d2cc9198b7
933de69c-51af-11ea-8319-63bb86c0f92f,933eb16c-51af-11ea-859f-9f840a401879
9325f5a0-51af-11ea-90c8-c338062b0a21,933ecba2-51af-11ea-b8ee-6bb416ad787c
9333ef20-51af-11ea-81d7-f716aeee1b79,933f0072-51af-11ea-862d-0fd30ec58974
932afcb2-51af-11ea-a686-9f2cd9234b34,933f0892-51af-11ea-bec5-23b8d678393e
9325f5a0-51af-11ea-90c8-c338062b0a21,933f122e-51af-11ea-ad13-f3bea72364a5
9330f6bc-51af-11ea-a8ed-17fa5cf6d68d,933f21f6-51af-11ea-9124-c357f1df6627
933698b0-51af-11ea-b08a-cb634da662b1,933f52fc-51af-11ea-ae0a-2f41899887b8
933d7090-51af-11ea-aabf-97501f897662,933f6f4e-51af-11ea-b650-53a8b5cf723a
932959c0-51af-11ea-a708-1fb40c0a6129,933f81a0-51af-11ea-b90d-43ef6b250c40
932dc852-51af-11ea-8c5a-eb5aa9d4e983,933f95c8-51af-11ea-8d78-03542c8ed0f5
933bb692-51af-11ea-a51b-db56b3fe04b3,933fca34-51af-11ea-a85b-4fac43b996df
93290d08-51af-11ea-bf0a-6fc5aee5563f,933fdb6e-51af-11ea-8e6f-9731f0cd9c65
9337ee9a-51af-11ea-bdc8-7bbf21aef5be,93401610-51af-11ea-8554-3740e5abd05c
932e315c-51af-11ea-8405-5bba061c0900,93404c52-51af-11ea-9e38-1b9ee039abd2
9331f314-51af-11ea-90c8-9313a648b618,93405c6a-51af-11ea-804b-2b44ef0bc205
932e315c-51af-11ea-8405-5bba061c0900,934067fa-51af-11ea-91f5-3fb43aa8fc45
93381ce4-51af-11ea-a66b-1347a79044c3,9340bfde-51af-11ea-9fc8-ab84f072c1a5
93405c6a-51af-11ea-804b-2b44ef0bc205,9340d4ba-51af-11ea-bfb9-b7a104524e24
933ecba2-51af-11ea-b8ee-6bb416ad787c,9340e310-51af-11ea-888c-9f301156606e
932d7078-51af-11ea-ab69-875c77944d3c,9341098a-51af-11ea-a6ff-03ccaf4ebf1c
933355ba-51af-11ea-9e50-2fcdb44bc8df,934137de-51af-11ea-9e6e-7b27e3fbf505
933aed70-51af-11ea-96dd-2b96122953e2,934145c6-51af-11ea-b339-47fb6d3b069a
933d2126-51af-11ea-a565-33664fed9037,93417be0-51af-11ea-9cfa-cbe32c0c2c08
932dc852-51af-11ea-8c5a-eb5aa9d4e983,93419c38-51af-11ea-ad83-a3f844bf6f6b
93300432-51af-11ea-aa35-4f1176bab333,9341c398-51af-11ea-9786-2f9ae64442f0
932c9b62-51af-11ea-b380-1b88b089d15e,9341d342-51af-11ea-97f8-d75b4a077ec5
933e7bc0-51af-11ea-92bd-83bb364e0c96,9341fdea-51af-11ea-9837-af518482ab81
9337ee9a-51af-11ea-bdc8-7bbf21aef5be,9341f85e-51af-11ea-9822-43d28fffc085
933da34e-51af-11ea-9aee-1f284d5377fe,93421bf4-51af-11ea-92a9-4bbec997a07e
9326ceee-51af-11ea-b295-e3da89f10717,93428170-51af-11ea-864d-af02f398476f
9335c048-51af-11ea-973e-3300b83efb0f,93427cfc-51af-11ea-af5f-ffe463fc7dba
932b46fe-51af-11ea-b153-17404a592cd1,93428850-51af-11ea-a1b3-1f814f465c7d
933466e4-51af-11ea-b9a1-83fa5bf59f66,93428c24-51af-11ea-bfe0-bb1a919c5098
933bd78a-51af-11ea-8946-a35e1443e5b5,9342e638-51af-11ea-bd62-37ce3ad17fe3
933f95c8-51af-11ea-8d78-03542c8ed0f5,9342f380-51af-11ea-818a-8ba6289a074e
9325e678-51af-11ea-9eec-8f6c8a4a82ff,93430a82-51af-11ea-982a-3f73afe6f048
9335bad0-51af-11ea-975e-d34ebb668cb4,934323be-51af-11ea-93e9-638d577cc463
93270d14-51af-11ea-baf1-3bd5509763b6,934350dc-51af-11ea-912a-e74d0c81ce8c
93340dac-51af-11ea-8718-37a6b44dda35,9343d1c4-51af-11ea-996c-432bf085ea22
93342a44-51af-11ea-bb57-b7c26ad6b649,9343ce0e-51af-11ea-9b55-2f9003d8d771
932a06a4-51af-11ea-85b7-0f1bf934b064,9343e83a-51af-11ea-ba00-b7eba83cb942
932ba69e-51af-11ea-a249-3721af0536cd,934450cc-51af-11ea-bee3-e35df91d774e
933b58aa-51af-11ea-9264-df1778dbab81,93445d60-51af-11ea-9724-3b61bc141a90
932b46fe-51af-11ea-b153-17404a592cd1,93448d8a-51af-11ea-8e36-479e231a66c1
932ef1aa-51af-11ea-a9da-db0e12b8b099,9344df38-51af-11ea-8084-dba4de373947
933b0f6c-51af-11ea-a4b3-1b27eee806f0,93450e7c-51af-11ea-a981-5328142d1872
933d7090-51af-11ea-aabf-97501f897662,93452132-51af-11ea-a3c3-87068fb73d3d
93430a82-51af-11ea-982a-3f73afe6f048,93453564-51af-11ea-85a2-1ff7e965da51
933b0f6c-51af-11ea-a4b3-1b27eee806f0,93456c28-51af-11ea-a28b-8bf0c633b9c0
93430a82-51af-11ea-982a-3f73afe6f048,93459734-51af-11ea-bf55-c3fd42b93e08
9330f6bc-51af-11ea-a8ed-17fa5cf6d68d,9345b73c-51af-11ea-a540-dfe9428a26ff
933f95c8-51af-11ea-8d78-03542c8ed0f5,9345c178-51af-11ea-8861-d7af34d37ade
93445d60-51af-11ea-9724-3b61bc141a90,93460804-51af-11ea-9a5f-8b9d384ae071
93265ee6-51af-11ea-89de-4337f4c882b6,9345f3aa-51af-11ea-96c5-3ff6adaaa277
932e2d56-51af-11ea-a4ad-d33eeec4c9ef,9346322a-51af-11ea-b148-b7ae811f212c
933763d0-51af-11ea-a621-33a2e5dd8bb4,93464936-51af-11ea-b6bf-9f84f628d5e5
93397aa8-51af-11ea-aa8c-37245ec882ae,934683ec-51af-11ea-9528-a39ea9869a25
93427cfc-51af-11ea-af5f-ffe463fc7dba,93467c3a-51af-11ea-a15c-47e87dbb0d98
93348a5c-51af-11ea-bee8-2b08063f8f57,93468f90-51af-11ea-a9a0-4b19ae514751
9337ee9a-51af-11ea-bdc8-7bbf21aef5be,93470416-51af-11ea-9a20-4bbce60a4e21
933f0072-51af-11ea-862d-0fd30ec58974,9347167c-51af-11ea-addf-a7bd07bf82e8
933eb16c-51af-11ea-859f-9f840a401879,93470736-51af-11ea-b2cc-27587dddba85
9345f3aa-51af-11ea-96c5-3ff6adaaa277,934778c4-51af-11ea-8dcb-37af86c6c7b7
9339bcf2-51af-11ea-9b70-ef080e8d145d,9347662c-51af-11ea-940a-9f0f13774133
933340f2-51af-11ea-8a43-5bdebb9e2c5b,934760be-51af-11ea-8da3-3774fba02370
9340e310-51af-11ea-888c-9f301156606e,934784ae-51af-11ea-a1d8-03f15f8f884f
9333932c-51af-11ea-93aa-03275256e3ba,9347fc9a-51af-11ea-868a-f38d8b45d34e
933f81a0-51af-11ea-b90d-43ef6b250c40,9347eae8-51af-11ea-8435-67372e3a5230
933897e6-51af-11ea-bede-d79f25b36cc5,9348378c-51af-11ea-b91d-27846fe5d824
9329afce-51af-11ea-8b4b-8fe4e88b4dc2,934824cc-51af-11ea-81bf-471616ece376
93339ae8-51af-11ea-969f-470baaf0d072,93486c52-51af-11ea-86e7-0784bfc2a1b3
9341f85e-51af-11ea-9822-43d28fffc085,93489092-51af-11ea-aae1-bf13694bab8f
93270436-51af-11ea-92b6-d758ca920dbc,9348bd9c-51af-11ea-b356-cf76ab3600d4
932c08fa-51af-11ea-9f8f-a3453bd682da,9348e1a0-51af-11ea-8c73-ab37ad5fe725
9325f226-51af-11ea-9ff7-f34581ec607e,9348f802-51af-11ea-96c2-a3caa7bd008e
93342a44-51af-11ea-bb57-b7c26ad6b649,93490b26-51af-11ea-9aab-aba8a73d2ad9
9332d19e-51af-11ea-964c-4f444c601af8,9349497e-51af-11ea-9c01-f7a2b337407b
932a6680-51af-11ea-a474-b31b1ee7d662,93495608-51af-11ea-b187-ab7997dd4899
9335c048-51af-11ea-973e-3300b83efb0f,9349656c-51af-11ea-9df3-a7eff6aeab51
9333d7ba-51af-11ea-8aa2-bfef88855aa2,93499f14-51af-11ea-b021-8b115b2cadee
93453564-51af-11ea-85a2-1ff7e965da51,9349d5ba-51af-11ea-930c-279ae0f133e6
933d2874-51af-11ea-a0fd-cfaebc64783f,93499ac8-51af-11ea-95f3-43ea931516a1
933f52fc-51af-11ea-ae0a-2f41899887b8,9349db32-51af-11ea-a911-ffe5efbfcb2d
93397aa8-51af-11ea-aa8c-37245ec882ae,934a35d2-51af-11ea-9982-bfb6e2bfb863
93309172-51af-11ea-8791-a3db2f45798c,934a67dc-51af-11ea-afad-77b40c409d81
93448d8a-51af-11ea-8e36-479e231a66c1,934a6b92-51af-11ea-9ce6-d36f613db948
932badc4-51af-11ea-be1c-93401ae34f8f,934abb10-51af-11ea-b6b2-a7ad279b45f0
93388148-51af-11ea-9296-7b10065999af,934ab610-51af-11ea-a7ec-3794a6cb1c7d
93309172-51af-11ea-8791-a3db2f45798c,934ae78e-51af-11ea-ab1d-87fa15a38dce
932ddd1a-51af-11ea-910e-a793dbe9282f,934b175e-51af-11ea-91c3-0fa57944af6d
933bb692-51af-11ea-a51b-db56b3fe04b3,934b22da-51af-11ea-a4b1-e36542d2fce2
932b2dd6-51af-11ea-9ff6-eb65b58c99f8,934b532c-51af-11ea-a326-b3808c566d32
932efa92-51af-11ea-8b04-efbdd1ff72f6,934bb074-51af-11ea-872b-3f7542230651
9327837a-51af-11ea-9a12-4711a0a0877a,934be436-51af-11ea-aa4e-774ff76fc7b1
93277bbe-51af-11ea-a9dc-0f7cfd42b8f4,934be788-51af-11ea-8cec-63f1de547a11
93428850-51af-11ea-a1b3-1f814f465c7d,934bdd06-51af-11ea-bc65-ff3b497d86b6
932d8e1e-51af-11ea-a319-5348910e3d83,934c33aa-51af-11ea-962c-9bd9edbdcfff
934a35d2-51af-11ea-9982-bfb6e2bfb863,934c46b0-51af-11ea-a62e-c7db189b47cf
933355ba-51af-11ea-9e50-2fcdb44bc8df,934c630c-51af-11ea-8fee-8f0a9e7c1733
932756b6-51af-11ea-b0f4-4709b4441804,934ca1fa-51af-11ea-80b5-6ba537133105
93304fe6-51af-11ea-861d-af4cdf730ebd,934ccef0-51af-11ea-9af7-3b99037f28fc
933c5750-51af-11ea-be1e-eba07a8027c0,934ceb7e-51af-11ea-b637-573f884cf3dd
933ba0a8-51af-11ea-b015-eff5b1ff611a,934d102c-51af-11ea-a4ba-a7b868ed3528
934a67dc-51af-11ea-afad-77b40c409d81,934d5ef6-51af-11ea-b0aa-372e4111d491
933cba92-51af-11ea-b8cf-bba8a3794600,934d8980-51af-11ea-8904-434b0b8a51d2
932d8e1e-51af-11ea-a319-5348910e3d83,934d98da-51af-11ea-82d8-23d21f017fc4
932cd050-51af-11ea-b27c-a3f31b601acd,934da5a0-51af-11ea-9c82-5be2a80d16ad
93460804-51af-11ea-9a5f-8b9d384ae071,934db798-51af-11ea-a1fe-632aacf72dcb
9327d3de-51af-11ea-bfbf-5b9c1172ecfc,934df776-51af-11ea-a140-2f6144b8260e
932fdfe8-51af-11ea-bcfe-43f867cd35aa,934e261a-51af-11ea-9b06-5b31d080cbd8
933eb16c-51af-11ea-859f-9f840a401879,934e6d46-51af-11ea-8f9b-fb53c5bd7969
93499f14-51af-11ea-b021-8b115b2cadee,934e61c0-51af-11ea-8320-9325d8ae5e0b
934ae78e-51af-11ea-ab1d-87fa15a38dce,934ea28e-51af-11ea-90d7-f77ee9503fed
933651f2-51af-11ea-8f36-37e9e66d4b26,934ea7de-51af-11ea-aa7a-8fdcadd1f5af
932756b6-51af-11ea-b0f4-4709b4441804,934ed6dc-51af-11ea-9b65-87dbde143e74
932a8cbe-51af-11ea-bd82-f7e1eea37618,934f3ee2-51af-11ea-9372-0b53e465b957
9349d5ba-51af-11ea-930c-279ae0f133e6,934f5d3c-51af-11ea-9fbd-7b058db958a2
93308182-51af-11ea-a1de-3b13d1253dc5,934f6a8e-51af-11ea-98d5-9753da028fcd
93499ac8-51af-11ea-95f3-43ea931516a1,934f788a-51af-11ea-b4f1-afec3fd1cc2b
93388148-51af-11ea-9296-7b10065999af,934fdf28-51af-11ea-a9b3-47697285b4ed
933eb7f2-51af-11ea-ab8c-e3d2cc9198b7,934fe27a-51af-11ea-a473-e727d55a59fb
9328672c-51af-11ea-98dc-83e5516979be,934ff242-51af-11ea-98e9-236eae2ded0d
93397aa8-51af-11ea-aa8c-37245ec882ae,934fe950-51af-11ea-9438-1f1541dfc1e3
93308182-51af-11ea-a1de-3b13d1253dc5,93502960-51af-11ea-9342-ff1917c00dc4
93312de4-51af-11ea-a392-6731d18d8089,9350a0ca-51af-11ea-84d1-fb2d80af84bc
934a67dc-51af-11ea-afad-77b40c409d81,9350929c-51af-11ea-9da9-978a69310ee9
932f08d4-51af-11ea-b779-7b61d440d6f9,9350c3f2-51af-11ea-bafd-af0bce8356c3
93396162-51af-11ea-b79b-5733c3ca8ca9,9350b088-51af-11ea-956c-df1348dc2246
933340f2-51af-11ea-8a43-5bdebb9e2c5b,9350fed0-51af-11ea-8b57-dbd63809dc67
9325e678-51af-11ea-9eec-8f6c8a4a82ff,93511e1a-51af-11ea-a595-53057ccf99a8
93490b26-51af-11ea-9aab-aba8a73d2ad9,935117bc-51af-11ea-9a2e-4f7f6360a349
934f3ee2-51af-11ea-9372-0b53e465b957,9351897c-51af-11ea-876f-7b994c732f8d
93354172-51af-11ea-bf58-035a2c35e57d,93518d0a-51af-11ea-9757-03f54d688d93
934d5ef6-51af-11ea-b0aa-372e4111d491,9351accc-51af-11ea-8df0-ab5aab101f1e
9340d4ba-51af-11ea-bfb9-b7a104524e24,9351fbd2-51af-11ea-95da-232e7f1de435
93321a2e-51af-11ea-881e-5bad187850f6,93520e1a-51af-11ea-b931-ebe55f34456b
933c0b06-51af-11ea-ab9c-27d5cfa42350,935223d2-51af-11ea-b139-ff95005fc3c2
934f788a-51af-11ea-b4f1-afec3fd1cc2b,935238c2-51af-11ea-bf24-f7ec9ea71031
933466e4-51af-11ea-b9a1-83fa5bf59f66,9352a0d2-51af-11ea-a001-37eeaf4aebeb
933abae4-51af-11ea-8734-137080086ea3,93528980-51af-11ea-bf2a-e7cee8c1d467
9329561e-51af-11ea-8b47-d3dee2932196,9352c8b4-51af-11ea-bb60-0337e1c010c6
933fca34-51af-11ea-a85b-4fac43b996df,9352f50a-51af-11ea-a233-0f90589f441d
93428850-51af-11ea-a1b3-1f814f465c7d,93534064-51af-11ea-a90a-e76d4b38fcbf
933340f2-51af-11ea-8a43-5bdebb9e2c5b,93534c76-51af-11ea-958d-ff7dab87c520
93396162-51af-11ea-b79b-5733c3ca8ca9,93539ff0-51af-11ea-9db3-1bfc6c5f0ea1
932d7eba-51af-11ea-b63a-c33df102a9f8,9353b3dc-51af-11ea-a8d1-b397f0eae25f
932f118a-51af-11ea-a759-53c8bd74f856,93539712-51af-11ea-bec9-97815544d6ce
93489092-51af-11ea-aae1-bf13694bab8f,935408be-51af-11ea-a2ef-077dd2a4828d
93381ce4-51af-11ea-a66b-1347a79044c3,93542394-51af-11ea-9916-a3e9f29e02a2
932ae66e-51af-11ea-aca5-db384d4f523c,93544478-51af-11ea-8e3b-0fa161929f95
932f08d4-51af-11ea-b779-7b61d440d6f9,93548816-51af-11ea-95a3-dfcf5ce0cffa
9337981e-51af-11ea-a0d7-d7697ae5f994,93549734-51af-11ea-ad3f-9bf17e150a7b
93348a5c-51af-11ea-bee8-2b08063f8f57,9354d758-51af-11ea-8de7-5f46a4dc0068
9349db32-51af-11ea-a911-ffe5efbfcb2d,9354d398-51af-11ea-9d06-9b8f6bda66d0
9352c8b4-51af-11ea-bb60-0337e1c010c6,9354eb9e-51af-11ea-bc4d-c7bbfb3eb2cb
93445d60-51af-11ea-9724-3b61bc141a90,93551d94-51af-11ea-8d00-237584d9c0aa
93388148-51af-11ea-9296-7b10065999af,935535cc-51af-11ea-9872-9b0602584379
933c0b06-51af-11ea-ab9c-27d5cfa42350,93555110-51af-11ea-aa6e-ab9254c8d515
932afcb2-51af-11ea-a686-9f2cd9234b34,93555548-51af-11ea-8358-a723e9be1928
932a8cbe-51af-11ea-bd82-f7e1eea37618,9355a796-51af-11ea-bcd5-13bbcd46987b
93308182-51af-11ea-a1de-3b13d1253dc5,9355bf74-51af-11ea-b988-bfac728c7539
933aaf22-51af-11ea-bd81-2baed9b60cc1,9355c4d8-51af-11ea-b14e-372ff3c84b53
932fc1d4-51af-11ea-9f88-83344e1c9f94,9355f7b4-51af-11ea-8812-0723489626a6
934ceb7e-51af-11ea-b637-573f884cf3dd,9355fb9c-51af-11ea-9639-933e60bded15
932ca8f0-51af-11ea-985a-2bba53e15547,93561104-51af-11ea-a39f-5365985cfc6c
935238c2-51af-11ea-bf24-f7ec9ea71031,93564200-51af-11ea-b415-8ba1b82422b0
9355c4d8-51af-11ea-b14e-372ff3c84b53,93564714-51af-11ea-813a-37d98baf558d
9333d7ba-51af-11ea-8aa2-bfef88855aa2,9356536c-51af-11ea-9b52-3710eb8d7e3a
93555548-51af-11ea-8358-a723e9be1928,93569af2-51af-11ea-8c61-c7018e1e1ac0
932706e8-51af-11ea-aed3-0313eecf5782,9356b69a-51af-11ea-bd85-370d24e6e2bc
932c5af8-51af-11ea-806b-d71ffed269b3,9356c50e-51af-11ea-a889-ab9e68ed9328
934f3ee2-51af-11ea-9372-0b53e465b957,9356ce3c-51af-11ea-84f3-6b2544f27e98
93555110-51af-11ea-aa6e-ab9254c8d515,9357113a-51af-11ea-8cab-7389bff52142
933bb692-51af-11ea-a51b-db56b3fe04b3,9357226a-51af-11ea-98af-3b94e7d32f6b
934e61c0-51af-11ea-8320-9325d8ae5e0b,935734bc-51af-11ea-b07e-97c68569ff35
93539712-51af-11ea-bec9-97815544d6ce,93574574-51af-11ea-98f4-6f6eda68f959
933d2126-51af-11ea-a565-33664fed9037,935791b4-51af-11ea-a5b6-a33537b4450d
93534c76-51af-11ea-958d-ff7dab87c520,9357b112-51af-11ea-93ea-d31423c52fb3
93304fe6-51af-11ea-861d-af4cdf730ebd,9357c724-51af-11ea-9b47-27a489ac11a3
934bdd06-51af-11ea-bc65-ff3b497d86b6,9357bbb2-51af-11ea-8375-0bb57ac6238c
932ed10c-51af-11ea-8b64-c31ca15f6d6d,9357f974-51af-11ea-8397-277dc3b145d0
932709e0-51af-11ea-b7dd-bbbc993611aa,93581878-51af-11ea-ab06-fbe1936d93ff
9349656c-51af-11ea-9df3-a7eff6aeab51,935824c6-51af-11ea-a15c-67b741450dd8
93290128-51af-11ea-9a1a-8bee1156b852,9358339e-51af-11ea-a302-3363c8fd99b2
932efa92-51af-11ea-8b04-efbdd1ff72f6,93588b3c-51af-11ea-a263-dbabc634a34f
932b26d8-51af-11ea-abf1-0fd4f491db41,9358a086-51af-11ea-ad9f-2f65a73405e0
9342f380-51af-11ea-818a-8ba6289a074e,9358a522-51af-11ea-80b9-93d76c8ddfd6
932a2314-51af-11ea-8a45-870d7e604ecf,9358ad42-51af-11ea-8f6f-23ceba097778
9345c178-51af-11ea-8861-d7af34d37ade,9358fa72-51af-11ea-b1cf-077943b406c5
935535cc-51af-11ea-9872-9b0602584379,93592a88-51af-11ea-b6ad-b79cad38535a
9348378c-51af-11ea-b91d-27846fe5d824,9359303c-51af-11ea-8053-8fab2ff31550
934a67dc-51af-11ea-afad-77b40c409d81,9359581e-51af-11ea-bc72-a3918e2539e6
93549734-51af-11ea-ad3f-9bf17e150a7b,93596034-51af-11ea-bbf0-6fececd2bc76
933aed70-51af-11ea-96dd-2b96122953e2,93598aa0-51af-11ea-9690-4fd9ebcd04e7
93548816-51af-11ea-95a3-dfcf5ce0cffa,93598fa0-51af-11ea-9a89-1f146b013534
93312de4-51af-11ea-a392-6731d18d8089,9359b84a-51af-11ea-a447-f384d3acd9e0
932dc852-51af-11ea-8c5a-eb5aa9d4e983,9359e072-51af-11ea-b9ea-bf41cb2e4811
933355ba-51af-11ea-9e50-2fcdb44bc8df,935a06ec-51af-11ea-bdd7-f79438654e99
932b7cdc-51af-11ea-8e2d-274bbba6cef5,935a2dde-51af-11ea-9126-f31ce1218856
935734bc-51af-11ea-b07e-97c68569ff35,935a4742-51af-11ea-ab47-83743374af2c
93401610-51af-11ea-8554-3740e5abd05c,935a56c4-51af-11ea-b3dc-83790836c3ed
932756b6-51af-11ea-b0f4-4709b4441804,935a5cbe-51af-11ea-bfbb-7f23323fae8b
934db798-51af-11ea-a1fe-632aacf72dcb,935a81d0-51af-11ea-bb8f-8704a9d87a2b
932e365c-51af-11ea-88ef-977cdba134ba,935aa16a-51af-11ea-98c3-efd193e009ad
935408be-51af-11ea-a2ef-077dd2a4828d,935ae666-51af-11ea-86ca-a384244ecf61
93464936-51af-11ea-b6bf-9f84f628d5e5,935af912-51af-11ea-9fed-d7bfe83b40aa
933d2496-51af-11ea-bb6d-db2513ba4a6b,935b0506-51af-11ea-8882-3f0ac11b8aeb
933d2496-51af-11ea-bb6d-db2513ba4a6b,935b37e2-51af-11ea-a8f3-a39a226e76e9
9333d120-51af-11ea-8509-075fa0a9bb93,935b5d08-51af-11ea-b519-1744a9410eeb
93396162-51af-11ea-b79b-5733c3ca8ca9,935b7554-51af-11ea-a7d6-aba320e179f5
9357bbb2-51af-11ea-8375-0bb57ac6238c,935b7f90-51af-11ea-ac6c-f77af0733fb8
932e315c-51af-11ea-8405-5bba061c0900,935b91b0-51af-11ea-bd72-5fcc1fd84145
934c630c-51af-11ea-8fee-8f0a9e7c1733,935bc950-51af-11ea-a54b-438c36f1b34d
9351897c-51af-11ea-876f-7b994c732f8d,935bd7b0-51af-11ea-8838-bbf87aacd4c4
934da5a0-51af-11ea-9c82-5be2a80d16ad,935bdb98-51af-11ea-93c6-6b687f2588d6
9330717e-51af-11ea-850a-03bd13304b8e,935c030c-51af-11ea-8355-672fcdd55785
9350929c-51af-11ea-9da9-978a69310ee9,935c3322-51af-11ea-8e38-ab8903b9464c
934f6a8e-51af-11ea-98d5-9753da028fcd,935c4f9c-51af-11ea-bcda-cfff82808886
933c0b06-51af-11ea-ab9c-27d5cfa42350,935c59b0-51af-11ea-a41b-4f433b22ef18
93428170-51af-11ea-864d-af02f398476f,935c8fac-51af-11ea-9357-377956fb7af1
93534c76-51af-11ea-958d-ff7dab87c520,935cc454-51af-11ea-be4c-13aa544c26f9
934a6b92-51af-11ea-9ce6-d36f613db948,935d1274-51af-11ea-b601-23fe2fe4904d
93339ae8-51af-11ea-969f-470baaf0d072,935d1b5c-51af-11ea-93c5-932418d056b4
935791b4-51af-11ea-a5b6-a33537b4450d,935d2c3c-51af-11ea-90a1-a37c630f67bd
93598aa0-51af-11ea-9690-4fd9ebcd04e7,935d5f90-51af-11ea-9c0a-cb610bdcbf23
93518d0a-51af-11ea-9757-03f54d688d93,935d64ae-51af-11ea-96e1-cb36a083ebf5
9345b73c-51af-11ea-a540-dfe9428a26ff,935d875e-51af-11ea-982e-f7d9f17e861d
935223d2-51af-11ea-b139-ff95005fc3c2,935d9f8c-51af-11ea-9c66-1b8e631af93d
935b37e2-51af-11ea-a8f3-a39a226e76e9,935dc386-51af-11ea-8025-d729c6dffe27
93277bbe-51af-11ea-a9dc-0f7cfd42b8f4,935df360-51af-11ea-befc-8fe8862324f5
93428850-51af-11ea-a1b3-1f814f465c7d,935e1c00-51af-11ea-8a44-efff67c7ea54
93598aa0-51af-11ea-9690-4fd9ebcd04e7,935e42f2-51af-11ea-8757-63b2b9af8a64
935a4742-51af-11ea-ab47-83743374af2c,935e47ac-51af-11ea-a4de-7b5555c7cf88
934d8980-51af-11ea-8904-434b0b8a51d2,935e4db0-51af-11ea-bdc2-9f19701fdd28
935b5d08-51af-11ea-b519-1744a9410eeb,935e991e-51af-11ea-ab4e-3f4cddd9d71b
933a74d0-51af-11ea-b50c-df1943d343d1,935eb138-51af-11ea-8235-333ab3d00f95
93549734-51af-11ea-ad3f-9bf17e150a7b,935eb43a-51af-11ea-918a-b35231fd432a
932b26d8-51af-11ea-abf1-0fd4f491db41,935ec83a-51af-11ea-93a4-c3ec94be3ceb
9329fc9a-51af-11ea-b473-3f36183388d1,935f2fdc-51af-11ea-9776-f72dd15a24cd
932efa92-51af-11ea-8b04-efbdd1ff72f6,935f4eea-51af-11ea-a3c8-279ebf303538
93490b26-51af-11ea-9aab-aba8a73d2ad9,935f5ad4-51af-11ea-9d1b-cf3856d1cdab
932de21a-51af-11ea-a0db-97c13ad136ae,935f7d34-51af-11ea-97e4-f7af3404b2ed
93489092-51af-11ea-aae1-bf13694bab8f,935f81da-51af-11ea-848c-5f294594ed2f
93549734-51af-11ea-ad3f-9bf17e150a7b,935fc8e8-51af-11ea-b3b0-cb3b7e6f6d3e
93551d94-51af-11ea-8d00-237584d9c0aa,935fddec-51af-11ea-b66b-bbf8a5e3bdd0
933afb8a-51af-11ea-a98c-db9fdb655219,935ff8e0-51af-11ea-9816-3bb86081d9ce
93396162-51af-11ea-b79b-5733c3ca8ca9,93600862-51af-11ea-9a6c-5363f5b6c433
93428c24-51af-11ea-bfe0-bb1a919c5098,936022b6-51af-11ea-9eab-13a23d0d7766
93340dac-51af-11ea-8718-37a6b44dda35,936066ea-51af-11ea-910c-0b2eb0ccb3ba
932de21a-51af-11ea-a0db-97c13ad136ae,936077b6-51af-11ea-ad08-abb8943184ad
93271020-51af-11ea-a1d3-137609dc3324,93608aee-51af-11ea-b80c-8fd68029eb67
932bc80e-51af-11ea-8d73-9f653136fb58,93609b88-51af-11ea-8f93-4b8483c69e21
933a1b98-51af-11ea-a6ac-e38322b6f63d,9360ba8c-51af-11ea-9f31-53041f910491
935df360-51af-11ea-befc-8fe8862324f5,9360d42c-51af-11ea-8d2c-933482240358
935b91b0-51af-11ea-bd72-5fcc1fd84145,9361139c-51af-11ea-bee3-f32a1ab0d12e
9352a0d2-51af-11ea-a001-37eeaf4aebeb,93612076-51af-11ea-a745-6700112cbfa1
9344df38-51af-11ea-8084-dba4de373947,93613200-51af-11ea-aec2-23ece6b27b6c
934760be-51af-11ea-8da3-3774fba02370,93613796-51af-11ea-a455-b7563833fe5d
9327837a-51af-11ea-9a12-4711a0a0877a,9361990c-51af-11ea-bd43-5f693b64ff1e
9345c178-51af-11ea-8861-d7af34d37ade,93619c90-51af-11ea-bd46-d3857c3b4f8e
934e6d46-51af-11ea-8f9b-fb53c5bd7969,9361a276-51af-11ea-9dbd-d35f85c6d0f1
9352f50a-51af-11ea-a233-0f90589f441d,93619538-51af-11ea-838d-0f180f01d482
9331fe36-51af-11ea-85f9-a3e22671d148,9361f05a-51af-11ea-849d-87e19b2134c3
93388148-51af-11ea-9296-7b10065999af,93621864-51af-11ea-871e-ab951f136363
935d5f90-51af-11ea-9c0a-cb610bdcbf23,93622174-51af-11ea-8d02-9f63d29cfc6c
9329afce-51af-11ea-8b4b-8fe4e88b4dc2,9362301a-51af-11ea-a142-4b31c2d9e612
93281448-51af-11ea-ae40-0fc1fd682697,93626c4c-51af-11ea-9f73-6fdfe0a863bc
935ff8e0-51af-11ea-9816-3bb86081d9ce,936288a8-51af-11ea-b77c-eb8b682f2f96
9351fbd2-51af-11ea-95da-232e7f1de435,9362a1b2-51af-11ea-b488-5bb37557441e
935238c2-51af-11ea-bf24-f7ec9ea71031,9362a6b2-51af-11ea-b9c6-cb75d2b566f8
935f5ad4-51af-11ea-9d1b-cf3856d1cdab,9362f7e8-51af-11ea-9c65-2756d220f71b
933aed70-51af-11ea-96dd-2b96122953e2,9362fe00-51af-11ea-b62a-937e5810f3c7
9354d398-51af-11ea-9d06-9b8f6bda66d0,93631ba6-51af-11ea-aab3-bb541081ae80
933268d0-51af-11ea-a1ad-e3ba2e2e322c,93634c3e-51af-11ea-a8c9-f79159baca1b
93401610-51af-11ea-8554-3740e5abd05c,9363577e-51af-11ea-af1a-2f38557e6ac1
9352c8b4-51af-11ea-bb60-0337e1c010c6,9363803c-51af-11ea-a3c6-7b09b6ed0fbb
932d7078-51af-11ea-ab69-875c77944d3c,9363a4a4-51af-11ea-929b-fbf20b0efa72
932cf9b8-51af-11ea-b7a4-d75f15d3d18b,9363c092-51af-11ea-9ae5-eb822f0f9b9c
934f5d3c-51af-11ea-9fbd-7b058db958a2,9363c60a-51af-11ea-869d-df8e821cb95c
934ae78e-51af-11ea-ab1d-87fa15a38dce,9363d488-51af-11ea-86eb-4f595ee501d8
9357113a-51af-11ea-8cab-7389bff52142,9363f40e-51af-11ea-b3b0-e3890c1c701f
935a56c4-51af-11ea-b3dc-83790836c3ed,93641268-51af-11ea-80de-ebd7c86e6ead
9327f328-51af-11ea-b50e-b74d4422dd97,9364264a-51af-11ea-bfbe-db5c0a109f83
93397aa8-51af-11ea-aa8c-37245ec882ae,93644a62-51af-11ea-bcdb-37c6c11e2292
9362fe00-51af-11ea-b62a-937e5810f3c7,93644e72-51af-11ea-bf7d-cb2c022efe19
93609b88-51af-11ea-8f93-4b8483c69e21,93648770-51af-11ea-a046-cf0e1623b976
935791b4-51af-11ea-a5b6-a33537b4450d,93648e5a-51af-11ea-8341-e706d60c7dbd
933d2874-51af-11ea-a0fd-cfaebc64783f,9364c4a6-51af-11ea-b925-0f96a66ec886
933897e6-51af-11ea-bede-d79f25b36cc5,9364cfa0-51af-11ea-8ed3-9b2b48b4f550
9334af8c-51af-11ea-9d09-5b9b05ef80c5,9364e0b2-51af-11ea-bd1e-a76f2dbc1070
9349497e-51af-11ea-9c01-f7a2b337407b,93651758-51af-11ea-9176-7761ebf776b3
934c630c-51af-11ea-8fee-8f0a9e7c1733,93654462-51af-11ea-8c2e-6f7f15be4ad8
93569af2-51af-11ea-8c61-c7018e1e1ac0,936548ea-51af-11ea-a5af-df832dbb9b3b
9351fbd2-51af-11ea-95da-232e7f1de435,93655178-51af-11ea-86ec-f393f3db4855
9333d7ba-51af-11ea-8aa2-bfef88855aa2,936594d0-51af-11ea-88d6-73146c115f4b
935cc454-51af-11ea-be4c-13aa544c26f9,9365a664-51af-11ea-80d6-2b97a0ed59ed
934e61c0-51af-11ea-8320-9325d8ae5e0b,93660050-51af-11ea-b5e6-c74f431f523d
9364cfa0-51af-11ea-8ed3-9b2b48b4f550,936603ca-51af-11ea-84f4-6b8724ab5a71
9332ca5a-51af-11ea-9073-fbc5ef534ce7,93661964-51af-11ea-8d2f-8fd9ac30e04c
9362f7e8-51af-11ea-9c65-2756d220f71b,93663200-51af-11ea-a895-a7014144aaba
933897e6-51af-11ea-bede-d79f25b36cc5,936666f8-51af-11ea-94fe-b7865831ea84
93598fa0-51af-11ea-9a89-1f146b013534,93667b20-51af-11ea-976b-eb661955b357
933bc272-51af-11ea-8fa8-8ff043478ab7,93668ed0-51af-11ea-a051-47eb96a6496c
9350c3f2-51af-11ea-bafd-af0bce8356c3,9366a47e-51af-11ea-95f0-5bdff9ac4b6f
936594d0-51af-11ea-88d6-73146c115f4b,9366cab2-51af-11ea-bdb2-7f921b83586d
932c9b62-51af-11ea-b380-1b88b089d15e,9366e7a4-51af-11ea-a522-87e9c46ffbb7
934323be-51af-11ea-93e9-638d577cc463,9366e3a8-51af-11ea-bfcf-b38a276e593e
935d1274-51af-11ea-b601-23fe2fe4904d,93672110-51af-11ea-b929-f36e790224a2
934c630c-51af-11ea-8fee-8f0a9e7c1733,9367676a-51af-11ea-a36a-b36612820ecc
9348bd9c-51af-11ea-b356-cf76ab3600d4,93677ff2-51af-11ea-9eb0-afad8c8f7b2b
934350dc-51af-11ea-912a-e74d0c81ce8c,936793e8-51af-11ea-b065-cf7bc21e4fe9
935eb43a-51af-11ea-918a-b35231fd432a,9367d718-51af-11ea-8341-8325bcd14502
932cf9b8-51af-11ea-b7a4-d75f15d3d18b,9367f8ec-51af-11ea-aef2-87a9a213f99a
934ceb7e-51af-11ea-b637-573f884cf3dd,93682128-51af-11ea-bd77-874d69eaa261
93315378-51af-11ea-b1cc-8f8b55289395,93685684-51af-11ea-97bc-77835fa2f575
933f0072-51af-11ea-862d-0fd30ec58974,93683d98-51af-11ea-8901-d33cd3eb8214
93564200-51af-11ea-b415-8ba1b82422b0,9368a120-51af-11ea-9dc1-037381078116
9366cab2-51af-11ea-bdb2-7f921b83586d,9368ba66-51af-11ea-a5e0-5ff031214880
932a06a4-51af-11ea-85b7-0f1bf934b064,9368e284-51af-11ea-970c-0f10bd77e238
933eb16c-51af-11ea-859f-9f840a401879,93693d1a-51af-11ea-b4b3-0bec6352652e
935fddec-51af-11ea-b66b-bbf8a5e3bdd0,93695e80-51af-11ea-b23d-3f520d02c8b9
9334e7a4-51af-11ea-af65-ff4e0638b77b,93696c90-51af-11ea-ab19-1300cfc4dc4b
934abb10-51af-11ea-b6b2-a7ad279b45f0,9369714a-51af-11ea-ac39-4f52a72fccb4
933b6cbe-51af-11ea-9857-2f03e0ce356d,9369c6fe-51af-11ea-87e8-37dcfe8b6e4d
9348e1a0-51af-11ea-8c73-ab37ad5fe725,936a081c-51af-11ea-8121-5fc35db58277
9325f5a0-51af-11ea-90c8-c338062b0a21,936a270c-51af-11ea-8be4-8797c0e5c64c
93613796-51af-11ea-a455-b7563833fe5d,936a5f9c-51af-11ea-87e1-ab7751cc4ea2
93394c72-51af-11ea-97f5-6702a61f5216,936a6dac-51af-11ea-b339-f388b38e40c9
935bd7b0-51af-11ea-8838-bbf87aacd4c4,936a9a02-51af-11ea-bad0-e3e6bcd83401
93342a44-51af-11ea-bb57-b7c26ad6b649,936ad2a6-51af-11ea-96d5-b3dcd4fb50d1
93317a24-51af-11ea-8a50-a3895089f1b5,936aec28-51af-11ea-80e3-6bfeef9ce889
9332517e-51af-11ea-bb3e-cb35a9a0333c,936ac6c6-51af-11ea-acfe-7b461bcb7dab
93534c76-51af-11ea-958d-ff7dab87c520,936b3f70-51af-11ea-8f11-ebd9c4e9778c
9335c048-51af-11ea-973e-3300b83efb0f,936b50be-51af-11ea-aeeb-0367b41cfabd
9355a796-51af-11ea-bcd5-13bbcd46987b,936b88d6-51af-11ea-8b8d-f7dd844de778
933da7ae-51af-11ea-ba86-33d45bb7a0f3,936bc6b6-51af-11ea-b42d-13c8bb479949
933812b2-51af-11ea-8af2-a77584d49a13,936be2b8-51af-11ea-9eda-434ba133ac7a
932cf9b8-51af-11ea-b7a4-d75f15d3d18b,936bd8d6-51af-11ea-a50c-172059399261
932872e4-51af-11ea-8745-8f3fc1986a1f,936c040a-51af-11ea-b00d-b73fc1793319
93655178-51af-11ea-86ec-f393f3db4855,936c3da8-51af-11ea-906d-b3aecf7f1362
9338e4a8-51af-11ea-890e-13e90dc64e50,936c9d2a-51af-11ea-9eb2-b3d826e93a3a
9359303c-51af-11ea-8053-8fab2ff31550,936c9258-51af-11ea-b885-eff3493dc81d
9326b6fc-51af-11ea-8604-c7dc0bd7fbd9,936cb0d0-51af-11ea-b2ce-cb2df5876474
9327d3de-51af-11ea-bfbf-5b9c1172ecfc,936d0bd4-51af-11ea-a1da-3fbef5792a11
93569af2-51af-11ea-8c61-c7018e1e1ac0,936d45c2-51af-11ea-9b08-63505a14f5f0
93308182-51af-11ea-a1de-3b13d1253dc5,936d3cd0-51af-11ea-8de6-9bc2287c7804
93695e80-51af-11ea-b23d-3f520d02c8b9,936d5b2a-51af-11ea-86da-1b0a61049442
93378aae-51af-11ea-9a2a-d78c0b566a82,936d720e-51af-11ea-aa8e-53e4718d5e67
933466e4-51af-11ea-b9a1-83fa5bf59f66,936db570-51af-11ea-8e5f-b7f8cc1a9404
93661964-51af-11ea-8d2f-8fd9ac30e04c,936dfb7a-51af-11ea-bd8e-cf4243121b98
93470736-51af-11ea-b2cc-27587dddba85,936dffda-51af-11ea-9d42-5f6b8c621516
9354d758-51af-11ea-8de7-5f46a4dc0068,936e02fa-51af-11ea-a58c-0b34594dce35
9325f226-51af-11ea-9ff7-f34581ec607e,936e4f8a-51af-11ea-9cf9-1f0141a74238
934778c4-51af-11ea-8dcb-37af86c6c7b7,936e7500-51af-11ea-9bf1-bb057618e6d7
932b26d8-51af-11ea-abf1-0fd4f491db41,936e869e-51af-11ea-a087-67d6c1bf0a7f
9356b69a-51af-11ea-bd85-370d24e6e2bc,936e9d28-51af-11ea-8b6c-af084a2bf43a
934e61c0-51af-11ea-8320-9325d8ae5e0b,936ebe7a-51af-11ea-a247-8f7fc40c99e1
93421bf4-51af-11ea-92a9-4bbec997a07e,936f22f2-51af-11ea-acfa-6f7a5add3407
936ad2a6-51af-11ea-96d5-b3dcd4fb50d1,936f268a-51af-11ea-86ed-93c140b55fdb
932badc4-51af-11ea-be1c-93401ae34f8f,936f4c8c-51af-11ea-a946-6fcf6e137821
935a06ec-51af-11ea-bdd7-f79438654e99,936f4fe8-51af-11ea-a654-3ffc8114ff2c
9353b3dc-51af-11ea-a8d1-b397f0eae25f,936f6e56-51af-11ea-af2f-cfd56c6ea4d5
934db798-51af-11ea-a1fe-632aacf72dcb,936f9908-51af-11ea-b9b1-bb0e61763c55
9348378c-51af-11ea-b91d-27846fe5d824,936fc8b0-51af-11ea-92f6-ffb9889dffd3
93355216-51af-11ea-90ec-8f2803a38de8,936ff308-51af-11ea-ac72-0ff1db04c5d8
9357113a-51af-11ea-8cab-7389bff52142,936ff84e-51af-11ea-a3f8-ff60e4438b7c
93332c0c-51af-11ea-8558-fbdeca0a264d,93700226-51af-11ea-b0d7-876e2c4da56c
933651f2-51af-11ea-8f36-37e9e66d4b26,93701e32-51af-11ea-b6da-b708ab656e41
934f5d3c-51af-11ea-9fbd-7b058db958a2,93704f60-51af-11ea-aab7-db2a56545b04
9363c60a-51af-11ea-869d-df8e821cb95c,9370659a-51af-11ea-bde1-53f7dc9d30de
9364cfa0-51af-11ea-8ed3-9b2b48b4f550,937070bc-51af-11ea-a93a-ebedf3940ef0
9357226a-51af-11ea-98af-3b94e7d32f6b,93708dae-51af-11ea-af7c-bf95555d687f
932bf068-51af-11ea-911a-3394bf4923e7,9370a7b2-51af-11ea-9ebb-a3ad4311437a
9351accc-51af-11ea-8df0-ab5aab101f1e,9370dc00-51af-11ea-bb30-9b906031cd30
936066ea-51af-11ea-910c-0b2eb0ccb3ba,9370ead8-51af-11ea-a81c-afa9071fa08e
936c040a-51af-11ea-b00d-b73fc1793319,937115ee-51af-11ea-a05d-4f182df4129e
933f81a0-51af-11ea-b90d-43ef6b250c40,93712318-51af-11ea-ade6-8737d2a2fc02
93708dae-51af-11ea-af7c-bf95555d687f,93718498-51af-11ea-81a4-e39b9a36fefb
93609b88-51af-11ea-8f93-4b8483c69e21,93719884-51af-11ea-af3b-832445bfc841
933635fa-51af-11ea-9943-57ea4d7019d8,93719f28-51af-11ea-b7f4-d34a08f3f6de
935aa16a-51af-11ea-98c3-efd193e009ad,9371aeb4-51af-11ea-8f6b-1b0615fd1fe6
936e869e-51af-11ea-a087-67d6c1bf0a7f,9371d7f4-51af-11ea-bbc6-a35a45d557c0
9343ce0e-51af-11ea-9b55-2f9003d8d771,937246f8-51af-11ea-ace9-ff7062d7b21d
933eb7f2-51af-11ea-ab8c-e3d2cc9198b7,93725904-51af-11ea-9ad0-973077eaafa4
936a081c-51af-11ea-8121-5fc35db58277,93725cba-51af-11ea-b621-57399cae6719
9350a0ca-51af-11ea-84d1-fb2d80af84bc,9372607a-51af-11ea-aa99-73c493e87537
93428850-51af-11ea-a1b3-1f814f465c7d,9372d014-51af-11ea-9757-b3c027a5725c
932fd0c0-51af-11ea-aa06-8fc74fcbb51a,9372dbd6-51af-11ea-a54d-a383eb6e94da
932b46fe-51af-11ea-b153-17404a592cd1,9372dff0-51af-11ea-9d09-df69cbad754c
935734bc-51af-11ea-b07e-97c68569ff35,93730b6a-51af-11ea-b984-9b33d449b2cc
934abb10-51af-11ea-b6b2-a7ad279b45f0,937326e0-51af-11ea-a9b9-9f4faa0a68a5
936603ca-51af-11ea-84f4-6b8724ab5a71,93735192-51af-11ea-b34a-6fe3050ac9f8
9354d758-51af-11ea-8de7-5f46a4dc0068,93738d10-51af-11ea-86c0-bffa8b7cc570
933f21f6-51af-11ea-9124-c357f1df6627,93739eb8-51af-11ea-ac07-c31a8bac1411
933da7ae-51af-11ea-ba86-33d45bb7a0f3,9373bcfe-51af-11ea-b760-6bd1970a812d
936cb0d0-51af-11ea-b2ce-cb2df5876474,9373dba8-51af-11ea-bdf0-7b54cc2e3e7e
9372dff0-51af-11ea-9d09-df69cbad754c,9373df36-51af-11ea-b192-fb27b8ceb82f
932b430c-51af-11ea-9b38-9bc148e627dc,93741dc0-51af-11ea-aecd-4b208175b83c
933e30ca-51af-11ea-bbdc-7bbb8db0ac3c,93743198-51af-11ea-9295-37d25838a2f4
93394c72-51af-11ea-97f5-6702a61f5216,937466c2-51af-11ea-8c1a-63e1f975d150
932872e4-51af-11ea-8745-8f3fc1986a1f,9374633e-51af-11ea-90ba-17dc41d9520e
93428170-51af-11ea-864d-af02f398476f,9374a722-51af-11ea-8026-bbb884ff586c
9354d398-51af-11ea-9d06-9b8f6bda66d0,9374e476-51af-11ea-8391-1724e9d0c448
93328b9e-51af-11ea-a380-532809abfa6c,9374e804-51af-11ea-b219-6f8293807940
93619c90-51af-11ea-bd46-d3857c3b4f8e,93750244-51af-11ea-83ff-ff0bc432d1a4
93613200-51af-11ea-aec2-23ece6b27b6c,9375459c-51af-11ea-9dfe-1b2a2a43ccea
933c3a04-51af-11ea-a748-030ca3df02e6,93756162-51af-11ea-a09d-135f74baf6df
93428c24-51af-11ea-bfe0-bb1a919c5098,937567de-51af-11ea-be5a-5369b1ddf266
9368e284-51af-11ea-970c-0f10bd77e238,93759e8e-51af-11ea-adcf-0bdd8c1b1c69
934c630c-51af-11ea-8fee-8f0a9e7c1733,9375ca12-51af-11ea-8dfe-5f69da2ff0da
936c3da8-51af-11ea-906d-b3aecf7f1362,9375d08e-51af-11ea-9552-53b9d6d5e6cf
93613200-51af-11ea-aec2-23ece6b27b6c,9375fbcc-51af-11ea-9d53-efe49ef48cff
933d2496-51af-11ea-bb6d-db2513ba4a6b,9376250c-51af-11ea-ae68-13140c1c8e77
936ff308-51af-11ea-ac72-0ff1db04c5d8,93762052-51af-11ea-89e5-87da5da6fa8e
9375ca12-51af-11ea-8dfe-5f69da2ff0da,9376514e-51af-11ea-93c9-9bcbbd3dc37a
936e4f8a-51af-11ea-9cf9-1f0141a74238,9376b59e-51af-11ea-a675-c7a427725760
9367d718-51af-11ea-8341-8325bcd14502,9376b8dc-51af-11ea-b8fc-bb9921036611
93596034-51af-11ea-bbf0-6fececd2bc76,9376bc88-51af-11ea-ba65-172d4c5bbe2c
9336fddc-51af-11ea-90f4-076d7145f0cd,93770e04-51af-11ea-9fca-0b57a4951a25
933ecba2-51af-11ea-b8ee-6bb416ad787c,93771188-51af-11ea-89b9-3f9db29d5cf2
932b62d8-51af-11ea-938b-3bcec9d9f229,93771a0c-51af-11ea-b0b1-a78a94dd264e
93370ab6-51af-11ea-8357-3fa694388df0,9377576a-51af-11ea-b65e-133b1ebd3485
93564714-51af-11ea-813a-37d98baf558d,937765a2-51af-11ea-833d-ff03b30fe7d7
935c3322-51af-11ea-8e38-ab8903b9464c,93778726-51af-11ea-9bbe-73cbfc164ee7
9370ead8-51af-11ea-a81c-afa9071fa08e,9377aaee-51af-11ea-8a35-07bc313c20f3
93569af2-51af-11ea-8c61-c7018e1e1ac0,9377bb24-51af-11ea-b4f2-a33d7eb5e0a7
93300432-51af-11ea-aa35-4f1176bab333,93780340-51af-11ea-b01d-cf83d8a00151
9374633e-51af-11ea-90ba-17dc41d9520e,93781682-51af-11ea-9e21-eba86b917d62
9345f3aa-51af-11ea-96c5-3ff6adaaa277,937826ea-51af-11ea-be12-57941797cb19
9329afce-51af-11ea-8b4b-8fe4e88b4dc2,93786434-51af-11ea-beda-eb7cabfb2b30
933de69c-51af-11ea-8319-63bb86c0f92f,93787384-51af-11ea-92ea-6b2b705c51a1
935c59b0-51af-11ea-a41b-4f433b22ef18,9378850e-51af-11ea-9223-d317a55858c2
9371d7f4-51af-11ea-bbc6-a35a45d557c0,9378cdc0-51af-11ea-b509-53b546574e74
933651f2-51af-11ea-8f36-37e9e66d4b26,9378f584-51af-11ea-8e8d-4b564b730c3b
9342e638-51af-11ea-bd62-37ce3ad17fe3,93792374-51af-11ea-8010-e30e138d0e6a
934b175e-51af-11ea-91c3-0fa57944af6d,937937f6-51af-11ea-a2bc-af2a6c541529
9352a0d2-51af-11ea-a001-37eeaf4aebeb,937951d2-51af-11ea-829f-a7882d6bd8a5
932706e8-51af-11ea-aed3-0313eecf5782,9379a7f4-51af-11ea-9a56-b38f77c1eb83
9359303c-51af-11ea-8053-8fab2ff31550,9379d648-51af-11ea-bbde-7bb06a5afa85
935af912-51af-11ea-9fed-d7bfe83b40aa,9379c3d8-51af-11ea-908a-73268578a85a
93450e7c-51af-11ea-a981-5328142d1872,9379c7ac-51af-11ea-b607-ffade9d5de8d
935a4742-51af-11ea-ab47-83743374af2c,937a34bc-51af-11ea-ab86-5b12e9b1af9c
932c3e92-51af-11ea-99d7-6f58c6c14af8,937a5d70-51af-11ea-87d2-931f946993af
933bd78a-51af-11ea-8946-a35e1443e5b5,937a59d8-51af-11ea-9a15-5f4bb0d74c49
9345f3aa-51af-11ea-96c5-3ff6adaaa277,937a9362-51af-11ea-8645-7b9496dfc8fc
9340e310-51af-11ea-888c-9f301156606e,937ac85a-51af-11ea-b6a8-eb5a00652884
935bdb98-51af-11ea-93c6-6b687f2588d6,937aec7c-51af-11ea-b11f-7f6397f6fb47
935a4742-51af-11ea-ab47-83743374af2c,937b3768-51af-11ea-9f18-b32d969be1e2
935b7f90-51af-11ea-ac6c-f77af0733fb8,937b412c-51af-11ea-83fc-d38840ff2322
93641268-51af-11ea-80de-ebd7c86e6ead,937b4ef6-51af-11ea-8ba8-0bf8d6e03417
9331fe36-51af-11ea-85f9-a3e22671d148,937b4e9c-51af-11ea-b05e-d755def22439
933eba40-51af-11ea-8663-2f140d3ee20e,937b9564-51af-11ea-928b-0721db4837af
935f5ad4-51af-11ea-9d1b-cf3856d1cdab,937bb968-51af-11ea-a368-a7ea14ebe23e
932efa92-51af-11ea-8b04-efbdd1ff72f6,937be136-51af-11ea-a0cf-073bae404f44
9343d1c4-51af-11ea-996c-432bf085ea22,937bd6f0-51af-11ea-b270-bb9c472c8332
9351897c-51af-11ea-876f-7b994c732f8d,937c2ace-51af-11ea-ac4f-578b1db54434
93738d10-51af-11ea-86c0-bffa8b7cc570,937c4824-51af-11ea-9283-6ff31e471918
9330f6bc-51af-11ea-a8ed-17fa5cf6d68d,937c68fe-51af-11ea-8d2a-9b1f29dc344f
93374224-51af-11ea-8724-4f618ce8069b,937c6c5a-51af-11ea-a7e2-e7905792be6c
935223d2-51af-11ea-b139-ff95005fc3c2,937cc290-51af-11ea-9688-07e5ae0c96e5
932ae66e-51af-11ea-aca5-db384d4f523c,937cc6e6-51af-11ea-bdbf-57eb3fd9dde3
93339ae8-51af-11ea-969f-470baaf0d072,937ccea2-51af-11ea-9e81-77f0219a3240
9367f8ec-51af-11ea-aef2-87a9a213f99a,937d1a88-51af-11ea-90e2-9b272d9310ad
9358a086-51af-11ea-ad9f-2f65a73405e0,937d2a0a-51af-11ea-ae18-17ddd4abac10
934a6b92-51af-11ea-9ce6-d36f613db948,937d3cac-51af-11ea-a14f-c70f24b6b16b
9357bbb2-51af-11ea-8375-0bb57ac6238c,937d4b98-51af-11ea-9d78-4734ceb7463e
932afcb2-51af-11ea-a686-9f2cd9234b34,937d80d6-51af-11ea-92b4-b39e0238a893
93360350-51af-11ea-b362-7b04cc1d80f0,937da368-51af-11ea-96bd-2bccf23e835a
93405c6a-51af-11ea-804b-2b44ef0bc205,937dc17c-51af-11ea-925b-83be41b82d76
9337e95e-51af-11ea-a8e7-17391893411a,937dced8-51af-11ea-b4fe-9ba48f55d5d7
9334e7a4-51af-11ea-af65-ff4e0638b77b,937e0466-51af-11ea-ad43-ef67cf616224
9344df38-51af-11ea-8084-dba4de373947,937e155a-51af-11ea-9d78-87244e097301
935c59b0-51af-11ea-a41b-4f433b22ef18,937e245a-51af-11ea-90ab-e7dfe24fed86
936b50be-51af-11ea-aeeb-0367b41cfabd,937e2946-51af-11ea-8f1e-bf74ec44368d
935bd7b0-51af-11ea-8838-bbf87aacd4c4,937e55d8-51af-11ea-9fb1-131e3ccb0dad
933651f2-51af-11ea-8f36-37e9e66d4b26,937e8d1e-51af-11ea-9b2f-77e9c70e77fc
93654462-51af-11ea-8c2e-6f7f15be4ad8,937ea20e-51af-11ea-9963-374cd9505bdb
9372dff0-51af-11ea-9d09-df69cbad754c,937eb06e-51af-11ea-8231-7397daf73af1
9362fe00-51af-11ea-b62a-937e5810f3c7,937f09ec-51af-11ea-9c43-d35f98fa4f8d
933763d0-51af-11ea-a621-33a2e5dd8bb4,937f11da-51af-11ea-a1e0-fbda3d7cfdd7
932a6680-51af-11ea-a474-b31b1ee7d662,937f15b8-51af-11ea-99d3-e7d22e11becd
93770e04-51af-11ea-9fca-0b57a4951a25,937f6518-51af-11ea-adb3-f36bb62eeb21
93701e32-51af-11ea-b6da-b708ab656e41,937f6964-51af-11ea-84ff-7b5f2de33880
9352c8b4-51af-11ea-bb60-0337e1c010c6,937f8cc8-51af-11ea-8ccf-871500e382b3
93448d8a-51af-11ea-8e36-479e231a66c1,937f9dd0-51af-11ea-a7df-afabca6bb5d9
937246f8-51af-11ea-ace9-ff7062d7b21d,937fd430-51af-11ea-8e59-6770292e58fc
93490b26-51af-11ea-9aab-aba8a73d2ad9,937feee8-51af-11ea-884d-3f2cbc70d3c1
936793e8-51af-11ea-b065-cf7bc21e4fe9,937fd19c-51af-11ea-acb6-9ffa3ccf3b37
93355216-51af-11ea-90ec-8f2803a38de8,93802f16-51af-11ea-9d5e-6b25b6890ef0
937c68fe-51af-11ea-8d2a-9b1f29dc344f,93803f92-51af-11ea-810c-a3d9db090845
937e2946-51af-11ea-8f1e-bf74ec44368d,93805afe-51af-11ea-988c-5b5699182590
9356c50e-51af-11ea-a889-ab9e68ed9328,9380766a-51af-11ea-900b-4768b1544cd3
933a1b98-51af-11ea-a6ac-e38322b6f63d,9380b648-51af-11ea-81cb-235a7d175198
9370ead8-51af-11ea-a81c-afa9071fa08e,9380c6c4-51af-11ea-a459-2fcbe0811268
936ac6c6-51af-11ea-acfe-7b461bcb7dab,9380d678-51af-11ea-94d0-ef815e7839f0
933bb692-51af-11ea-a51b-db56b3fe04b3,9380d38a-51af-11ea-9e2d-8b09d559f9ae
9353b3dc-51af-11ea-a8d1-b397f0eae25f,93812290-51af-11ea-af36-cbd464dbab1d
9374633e-51af-11ea-90ba-17dc41d9520e,938179e8-51af-11ea-9634-5b91947217ef
932b26d8-51af-11ea-abf1-0fd4f491db41,93818096-51af-11ea-b961-7bc0c7eb40cf
936594d0-51af-11ea-88d6-73146c115f4b,93818500-51af-11ea-9807-cbfe4c7ea207
9326b9a4-51af-11ea-a43a-bb52321b3a67,938188e8-51af-11ea-9323-ff4992c05ee8
9335c048-51af-11ea-973e-3300b83efb0f,938200b6-51af-11ea-9e2b-7b551f032142
935734bc-51af-11ea-b07e-97c68569ff35,93823266-51af-11ea-8a30-7fb0f3aad139
9377aaee-51af-11ea-8a35-07bc313c20f3,93822d8e-51af-11ea-8e8c-6b50b38893af
9354d758-51af-11ea-8de7-5f46a4dc0068,93823702-51af-11ea-ad54-f352d342d598
934a35d2-51af-11ea-9982-bfb6e2bfb863,938291a2-51af-11ea-9616-d367a702faab
9376b8dc-51af-11ea-b8fc-bb9921036611,9382ae9e-51af-11ea-b364-3bb335a26aaa
9362a6b2-51af-11ea-b9c6-cb75d2b566f8,9382c140-51af-11ea-acbf-f3bd561c09ec
935238c2-51af-11ea-bf24-f7ec9ea71031,9382f106-51af-11ea-bf39-476b9bf13abe
9333d7ba-51af-11ea-8aa2-bfef88855aa2,938317da-51af-11ea-a160-839159d17ed3
934d98da-51af-11ea-82d8-23d21f017fc4,938339f4-51af-11ea-a860-b7901bf1c18a
934c46b0-51af-11ea-a62e-c7db189b47cf,93834962-51af-11ea-8a06-0f8ffdaf0b8a
937b412c-51af-11ea-83fc-d38840ff2322,93835600-51af-11ea-ac50-03e51c3cff7c
9334af8c-51af-11ea-9d09-5b9b05ef80c5,9383d26a-51af-11ea-9fcb-43b36bcb1d6a
9354eb9e-51af-11ea-bc4d-c7bbfb3eb2cb,9383ea5c-51af-11ea-a315-6bf44f198ff1
9364c4a6-51af-11ea-b925-0f96a66ec886,9383f72c-51af-11ea-a096-9b40dc092007
93551d94-51af-11ea-8d00-237584d9c0aa,93840992-51af-11ea-b4c7-9bab4a2a83ec
9329ad3a-51af-11ea-a6be-87bfb7811f02,93846888-51af-11ea-8984-e76a169033a1
9337e95e-51af-11ea-a8e7-17391893411a,93846e1e-51af-11ea-8eef-cb5adfe3c200
9328b8a8-51af-11ea-bf16-630a51333667,9384785a-51af-11ea-83a3-3b9bc0715ecf
934a6b92-51af-11ea-9ce6-d36f613db948,9384c3b4-51af-11ea-b73a-a31d80a7d284
93725904-51af-11ea-9ad0-973077eaafa4,9384ef2e-51af-11ea-b786-3bd4841371d2
9372d014-51af-11ea-9757-b3c027a5725c,9384f73a-51af-11ea-826e-8b9fe4fec24c
933e7bc0-51af-11ea-92bd-83bb364e0c96,9384fd02-51af-11ea-a13f-7fe8f488b835
9363d488-51af-11ea-86eb-4f595ee501d8,93853cc2-51af-11ea-b9c8-9308b79d5c16
9375fbcc-51af-11ea-9d53-efe49ef48cff,9385545a-51af-11ea-adf3-cf1f97e4ad51
937be136-51af-11ea-a0cf-073bae404f44,93857d54-51af-11ea-a5eb-cfb48938da46
938317da-51af-11ea-a160-839159d17ed3,9385923a-51af-11ea-b752-0b315f19a5d3
937f8cc8-51af-11ea-8ccf-871500e382b3,9385ae3c-51af-11ea-9127-7f7ab68ea00d
934f5d3c-51af-11ea-9fbd-7b058db958a2,9385b990-51af-11ea-b83f-4f48f92cbc60
9359581e-51af-11ea-bc72-a3918e2539e6,9385fb9e-51af-11ea-a2da-b33f16ae64de
93340dac-51af-11ea-8718-37a6b44dda35,938613f4-51af-11ea-adb4-e77cfa2ca384
937d1a88-51af-11ea-90e2-9b272d9310ad,9386194e-51af-11ea-abcd-17b00124d0a2
93332c0c-51af-11ea-8558-fbdeca0a264d,938627b8-51af-11ea-a7ea-07984d71ec18
934db798-51af-11ea-a1fe-632aacf72dcb,9386896a-51af-11ea-8986-93e3d3a78829
93309172-51af-11ea-8791-a3db2f45798c,93868f46-51af-11ea-9c16-33060ef9b7dc
937a34bc-51af-11ea-ab86-5b12e9b1af9c,93869c66-51af-11ea-83f6-cb4381cd0d57
9357b112-51af-11ea-93ea-d31423c52fb3,9386a7e2-51af-11ea-805f-6b7914c6ad3f
932cf9b8-51af-11ea-b7a4-d75f15d3d18b,9386f620-51af-11ea-a055-63700a610e65
934b22da-51af-11ea-a4b1-e36542d2fce2,9386fe4a-51af-11ea-9443-bb68e2a49530
932bdff6-51af-11ea-936b-a3d5795f4a6e,93871218-51af-11ea-90e0-0fc7b74ebf4c
936e9d28-51af-11ea-8b6c-af084a2bf43a,93872316-51af-11ea-8062-cf65be306eb3
9368a120-51af-11ea-9dc1-037381078116,938773a2-51af-11ea-8944-47299678301d
9355c4d8-51af-11ea-b14e-372ff3c84b53,9387a61a-51af-11ea-8196-8f98dd82911a
9368ba66-51af-11ea-a5e0-5ff031214880,9387cdde-51af-11ea-98b4-a3b7291979b3
935c030c-51af-11ea-8355-672fcdd55785,9387d306-51af-11ea-81bc-8f497937c573
9334cd6e-51af-11ea-9cba-8f1e944cc796,9387d9e6-51af-11ea-b07f-a3c44675d412
932ca8f0-51af-11ea-985a-2bba53e15547,93881e38-51af-11ea-ba06-578995db9b70
93613796-51af-11ea-a455-b7563833fe5d,93884a02-51af-11ea-a4d1-83d2c4c3c3cb
93489092-51af-11ea-aae1-bf13694bab8f,93886550-51af-11ea-8f60-63d74b1fc04f
93622174-51af-11ea-8d02-9f63d29cfc6c,93886ad2-51af-11ea-9d73-5b855549af27
936dfb7a-51af-11ea-bd8e-cf4243121b98,9388b910-51af-11ea-a140-532d690071aa
93812290-51af-11ea-af36-cbd464dbab1d,9388ccf2-51af-11ea-be1c-7b7b2b4fb9af
9340e310-51af-11ea-888c-9f301156606e,9388ed5e-51af-11ea-9450-67b2438b7142
935117bc-51af-11ea-9a2e-4f7f6360a349,938925da-51af-11ea-8436-4fbc5eb5feb0
932a9d1c-51af-11ea-a39f-0bee340f66e1,93894754-51af-11ea-bcb8-93187fb95603
93300432-51af-11ea-aa35-4f1176bab333,93898534-51af-11ea-a931-5f6140dbbcf0
933cbf2e-51af-11ea-b17c-7f72a98cdf83,93899ae2-51af-11ea-9b54-0b2f96a4eb29
93770e04-51af-11ea-9fca-0b57a4951a25,9389b392-51af-11ea-b81b-87b1908005e0
933aed70-51af-11ea-96dd-2b96122953e2,9389c1de-51af-11ea-a0a4-3b9df94d04ca
93677ff2-51af-11ea-9eb0-afad8c8f7b2b,9389f80c-51af-11ea-95a3-5b0b7120d09d
9352c8b4-51af-11ea-bb60-0337e1c010c6,938a0914-51af-11ea-a3f0-7b7b05149a64
93428850-51af-11ea-a1b3-1f814f465c7d,938a13d2-51af-11ea-9172-b7489bf9ddac
93598aa0-51af-11ea-9690-4fd9ebcd04e7,938a35d8-51af-11ea-bb77-37299f0743af
935a56c4-51af-11ea-b3dc-83790836c3ed,938a6dc8-51af-11ea-bf02-1387d3387c16
93654462-51af-11ea-8c2e-6f7f15be4ad8,938a7642-51af-11ea-ad81-dfb06a6bb081
9357b112-51af-11ea-93ea-d31423c52fb3,938a86fa-51af-11ea-b473-072f33e0c0da
932c3e92-51af-11ea-99d7-6f58c6c14af8,938ab1d4-51af-11ea-8592-3f6ff641a402
932dc852-51af-11ea-8c5a-eb5aa9d4e983,938aded4-51af-11ea-a15f-2f010afa75c1
938a0914-51af-11ea-a3f0-7b7b05149a64,938b0152-51af-11ea-b1c5-6b0c68c8365b
932a6680-51af-11ea-a474-b31b1ee7d662,938b08f0-51af-11ea-a177-63963be1d3a1
9350929c-51af-11ea-9da9-978a69310ee9,938b5f12-51af-11ea-a429-171f99ba0c8a
9384fd02-51af-11ea-a13f-7fe8f488b835,938b7182-51af-11ea-9b59-b3fe2cbf9b31
93660050-51af-11ea-b5e6-c74f431f523d,938b89f6-51af-11ea-b15d-cf2d54c47fc5
9388ed5e-51af-11ea-9450-67b2438b7142,938b8f3c-51af-11ea-b27f-13699676fc80
932e365c-51af-11ea-88ef-977cdba134ba,938bdb5e-51af-11ea-b5e0-879960682b80
93834962-51af-11ea-8a06-0f8ffdaf0b8a,938be748-51af-11ea-ad64-d7316dbdf39f
93846e1e-51af-11ea-8eef-cb5adfe3c200,938bf51c-51af-11ea-b284-5b874d7bf82d
93300432-51af-11ea-aa35-4f1176bab333,938c0836-51af-11ea-b3f8-bb4356ff0f6e
935bd7b0-51af-11ea-8838-bbf87aacd4c4,938c4c60-51af-11ea-9270-97def9c5946e
935a5cbe-51af-11ea-bfbb-7f23323fae8b,938c6aec-51af-11ea-a662-27a5d85dd0a6
9329ad3a-51af-11ea-a6be-87bfb7811f02,938c9986-51af-11ea-95c4-1fc3fb1d4142
932ae66e-51af-11ea-aca5-db384d4f523c,938cb920-51af-11ea-a43c-9ffee0b8b538
93397aa8-51af-11ea-aa8c-37245ec882ae,938cc672-51af-11ea-b07e-ff696e10a8c2
93564714-51af-11ea-813a-37d98baf558d,938cce4c-51af-11ea-ac25-1b3c284de792
934f5d3c-51af-11ea-9fbd-7b058db958a2,938d1532-51af-11ea-852d-8fbafcff98df
9386f620-51af-11ea-a055-63700a610e65,938d240a-51af-11ea-84c3-638c59d22748
932b7cdc-51af-11ea-8e2d-274bbba6cef5,938d434a-51af-11ea-ac95-ef8202da55a4
9363c092-51af-11ea-9ae5-eb822f0f9b9c,938d815c-51af-11ea-b10e-336e3eb962dd
93544478-51af-11ea-8e3b-0fa161929f95,938db32a-51af-11ea-8003-33433cc9f504
935eb138-51af-11ea-8235-333ab3d00f95,938daf10-51af-11ea-b040-1f718fc35b0d
937dc17c-51af-11ea-925b-83be41b82d76,938e0988-51af-11ea-a885-2b603c45babc
9366e3a8-51af-11ea-bfcf-b38a276e593e,938e0d0c-51af-11ea-9c8b-bf8df986d028
937f09ec-51af-11ea-9c43-d35f98fa4f8d,938e303e-51af-11ea-b9e6-6b0e251d5e0e
932709e0-51af-11ea-b7dd-bbbc993611aa,938e3f66-51af-11ea-9842-abee8f9bc84c
935c59b0-51af-11ea-a41b-4f433b22ef18,938e8340-51af-11ea-bbfa-3f4906818f1d
9358a522-51af-11ea-80b9-93d76c8ddfd6,938e9394-51af-11ea-801a-e768a54cc4ac
9380d678-51af-11ea-94d0-ef815e7839f0,938ebf36-51af-11ea-99f2-fbaef65d7b77
936e869e-51af-11ea-a087-67d6c1bf0a7f,938ed084-51af-11ea-995b-670db4f59ec3
9332517e-51af-11ea-bb3e-cb35a9a0333c,938ef2b2-51af-11ea-9402-138592686295
93353d80-51af-11ea-8aaa-f3e73930f8ee,938f338a-51af-11ea-91a7-43aaa376e560
9356c50e-51af-11ea-a889-ab9e68ed9328,938f51bc-51af-11ea-a62d-fffe0f828a11
932876d6-51af-11ea-b502-53148ec4fc23,938f5edc-51af-11ea-b380-07482d59e303
937c6c5a-51af-11ea-a7e2-e7905792be6c,938f7af2-51af-11ea-b154-c7d622c42a95
93631ba6-51af-11ea-aab3-bb541081ae80,938fa5e0-51af-11ea-a330-138f67f3e9f8
937ac85a-51af-11ea-b6a8-eb5a00652884,938fb210-51af-11ea-ad68-c3329d62fbb6
9383d26a-51af-11ea-9fcb-43b36bcb1d6a,938fc520-51af-11ea-bec7-abaf110ae8ff
937567de-51af-11ea-be5a-5369b1ddf266,938ff52c-51af-11ea-8bff-9ba42bfc7707
93388148-51af-11ea-9296-7b10065999af,93901d0e-51af-11ea-a7ea-5b304f36b290
936a270c-51af-11ea-8be4-8797c0e5c64c,93902a60-51af-11ea-b6ff-13fa87038a6a
937f9dd0-51af-11ea-a7df-afabca6bb5d9,93902fce-51af-11ea-8073-c3a8d48ab394
936c9258-51af-11ea-b885-eff3493dc81d,939073ee-51af-11ea-afe3-2bc2cda19dbf
938d1532-51af-11ea-852d-8fbafcff98df,93909b30-51af-11ea-bdec-17a69ed0283c
9350b088-51af-11ea-956c-df1348dc2246,9390b91c-51af-11ea-b254-ab772dbecf8f
9339bcf2-51af-11ea-9b70-ef080e8d145d,9390f800-51af-11ea-83d9-df28433ed750
9379d648-51af-11ea-bbde-7bb06a5afa85,93911254-51af-11ea-9f1b-c7a55534b8d4
936d3cd0-51af-11ea-8de6-9bc2287c7804,93913162-51af-11ea-902b-ffd70bb42bb6
934760be-51af-11ea-8da3-3774fba02370,939135fe-51af-11ea-a00b-6f976681ee92
934ae78e-51af-11ea-ab1d-87fa15a38dce,939161aa-51af-11ea-b9e6-0f5d2c2f0d8c
93300432-51af-11ea-aa35-4f1176bab333,9391bc7c-51af-11ea-be27-67ded8d92cb2
938ab1d4-51af-11ea-8592-3f6ff641a402,9391c03c-51af-11ea-8c20-c3d87e99f7a3
938925da-51af-11ea-8436-4fbc5eb5feb0,9391d50e-51af-11ea-84e1-5fc811246f77
936288a8-51af-11ea-b77c-eb8b682f2f96,9391e800-51af-11ea-9fd5-7fa2acbcec51
9356536c-51af-11ea-9b52-3710eb8d7e3a,939238b4-51af-11ea-a254-db8372c30fd1
932afcb2-51af-11ea-a686-9f2cd9234b34,939257e0-51af-11ea-8a72-833b4653967e
932badc4-51af-11ea-be1c-93401ae34f8f,93926ae6-51af-11ea-948a-57039304adac
93803f92-51af-11ea-810c-a3d9db090845,93927df6-51af-11ea-b275-67e5bf600ae5
934d8980-51af-11ea-8904-434b0b8a51d2,9392c5a4-51af-11ea-bc2c-4b07fc304706
935f2fdc-51af-11ea-9776-f72dd15a24cd,9392d116-51af-11ea-b674-974796d36ae2
9365a664-51af-11ea-80d6-2b97a0ed59ed,9392d97c-51af-11ea-93a4-1380fd4453a6
933aa0fe-51af-11ea-93e9-874615cbd630,9392dd28-51af-11ea-adc1-c37163b7724f
935a06ec-51af-11ea-bdd7-f79438654e99,93931af4-51af-11ea-aed1-d7d258bc65e2
93655178-51af-11ea-86ec-f393f3db4855,93932594-51af-11ea-89a1-5b3aeb0a591c
933c5750-51af-11ea-be1e-eba07a8027c0,9393533e-51af-11ea-851c-4f62063d8a22
9386f620-51af-11ea-a055-63700a610e65,939349e8-51af-11ea-adfb-7fc50a73f608
9332ca5a-51af-11ea-9073-fbc5ef534ce7,93939efc-51af-11ea-899b-0be34739f8ae
93564200-51af-11ea-b415-8ba1b82422b0,9393a226-51af-11ea-8ab1-3b302adc66fe
93263c04-51af-11ea-b664-c7fb6b63d4ef,9393d17e-51af-11ea-856b-b7de032ea6e7
934be436-51af-11ea-aa4e-774ff76fc7b1,9393dba6-51af-11ea-8aff-bb0b4740c902
93321a2e-51af-11ea-881e-5bad187850f6,93942e80-51af-11ea-8d05-77dd987bdc80
93348a5c-51af-11ea-bee8-2b08063f8f57,939447b2-51af-11ea-a18b-c340bec575ab
9336fddc-51af-11ea-90f4-076d7145f0cd,9394572a-51af-11ea-adb1-bb5073802ed0
936066ea-51af-11ea-910c-0b2eb0ccb3ba,939491d6-51af-11ea-b1bc-cf0b554bc50c
93913162-51af-11ea-902b-ffd70bb42bb6,9394b36e-51af-11ea-995f-efe9dab1904d
93528980-51af-11ea-bf2a-e7cee8c1d467,9394e460-51af-11ea-b84a-9f6135b4a39f
9349656c-51af-11ea-9df3-a7eff6aeab51,9394f37e-51af-11ea-87a3-1753a2cd5e3c
933340f2-51af-11ea-8a43-5bdebb9e2c5b,93952b64-51af-11ea-9d12-474f470cb93e
9379a7f4-51af-11ea-9a56-b38f77c1eb83,93954d60-51af-11ea-9a92-8375b9710603
937f8cc8-51af-11ea-8ccf-871500e382b3,9395517a-51af-11ea-a970-f774249a3f88
9349d5ba-51af-11ea-930c-279ae0f133e6,93958cf8-51af-11ea-bf9e-278fac8b90bd
934f6a8e-51af-11ea-98d5-9753da028fcd,9395a620-51af-11ea-94cb-77a3536601a9
934c33aa-51af-11ea-962c-9bd9edbdcfff,9395c466-51af-11ea-9ee1-937a2237a645
934ed6dc-51af-11ea-9b65-87dbde143e74,9395fa58-51af-11ea-8013-0f95d28ba3f0
932a06a4-51af-11ea-85b7-0f1bf934b064,93960912-51af-11ea-adca-e31a51853992
936f9908-51af-11ea-b9b1-bb0e61763c55,93963590-51af-11ea-a34b-5b0431414d52
935a4742-51af-11ea-ab47-83743374af2c,93967f50-51af-11ea-b599-fb4bc1816739
935408be-51af-11ea-a2ef-077dd2a4828d,93968a54-51af-11ea-9e5f-eb3569dbbcad
9342e638-51af-11ea-bd62-37ce3ad17fe3,939669f2-51af-11ea-8373-2f9fb3ecbb65
93708dae-51af-11ea-af7c-bf95555d687f,9396a9d0-51af-11ea-adfb-5bec049145cd
9372dbd6-51af-11ea-a54d-a383eb6e94da,9396e40e-51af-11ea-acec-672db367ba58
936e7500-51af-11ea-9bf1-bb057618e6d7,9396f7dc-51af-11ea-9fc9-df6e7e545b8c
938339f4-51af-11ea-a860-b7901bf1c18a,93970330-51af-11ea-a130-57b6c7a46a61
933e238c-51af-11ea-afa7-4fb1e3fbbae0,93970768-51af-11ea-bb25-8f5d002df345
9337ee9a-51af-11ea-bdc8-7bbf21aef5be,939766f4-51af-11ea-bb3a-3714c3d51413
936c9d2a-51af-11ea-9eb2-b3d826e93a3a,9397849a-51af-11ea-84dc-83186ec53e30
9366e3a8-51af-11ea-bfcf-b38a276e593e,93978814-51af-11ea-82a9-23a7bcda824c
93738d10-51af-11ea-86c0-bffa8b7cc570,9397cc2a-51af-11ea-81ef-7b013b144651
93926ae6-51af-11ea-948a-57039304adac,93980aa0-51af-11ea-8f0d-7b405711e4d8
933bb692-51af-11ea-a51b-db56b3fe04b3,93981964-51af-11ea-8145-d7415853db3d
933dc7de-51af-11ea-9ec8-1b48eb9057a3,939821de-51af-11ea-a4ba-8f492c33bc95
9328b8a8-51af-11ea-bf16-630a51333667,939827b0-51af-11ea-ac59-5bd2736dfc12
9393533e-51af-11ea-851c-4f62063d8a22,93987710-51af-11ea-927f-9b45eae74de2
932dc852-51af-11ea-8c5a-eb5aa9d4e983,939881b0-51af-11ea-bd04-43988b5f915a
93894754-51af-11ea-bcb8-93187fb95603,93988fca-51af-11ea-8dc4-b712af2419d3
9374e804-51af-11ea-b219-6f8293807940,9398e7f4-51af-11ea-89da-ab8ae58568ef
93342a44-51af-11ea-bb57-b7c26ad6b649,939901b2-51af-11ea-b36a-0795bb658373
9377aaee-51af-11ea-8a35-07bc313c20f3,9398f4b0-51af-11ea-bd45-b7c1cceb0818
93486c52-51af-11ea-86e7-0784bfc2a1b3,9398ff78-51af-11ea-9f80-275650d08aa8
9361139c-51af-11ea-bee3-f32a1ab0d12e,9399766a-51af-11ea-a8a0-d3fdee385f06
9325f5a0-51af-11ea-90c8-c338062b0a21,9399857e-51af-11ea-93bc-fbf8d1bf890e
936ad2a6-51af-11ea-96d5-b3dcd4fb50d1,9399a752-51af-11ea-a82a-4bb1bc4bddce
93700226-51af-11ea-b0d7-876e2c4da56c,9399b2ec-51af-11ea-a1d0-4b13724f8911
934df776-51af-11ea-a140-2f6144b8260e,9399faea-51af-11ea-a0a4-bb297b8ccf4d
9326b6fc-51af-11ea-8604-c7dc0bd7fbd9,939a2f38-51af-11ea-ac05-cbb39834f463
93654462-51af-11ea-8c2e-6f7f15be4ad8,939a3ff0-51af-11ea-a48d-474408f0740b
932a6680-51af-11ea-a474-b31b1ee7d662,939a5026-51af-11ea-95ea-0b5bace89a29
9348f802-51af-11ea-96c2-a3caa7bd008e,939a7a24-51af-11ea-9b1e-cfaf206f3aee
93981964-51af-11ea-8145-d7415853db3d,939ab232-51af-11ea-9518-d32fb1acbeb6
9391e800-51af-11ea-9fd5-7fa2acbcec51,939ae018-51af-11ea-a237-7b8ab6a01e91
933c5750-51af-11ea-be1e-eba07a8027c0,939af92c-51af-11ea-8002-f3a41bb4af78
9343e83a-51af-11ea-ba00-b7eba83cb942,939afcc4-51af-11ea-8d99-bb62f48fb2da
93739eb8-51af-11ea-ac07-c31a8bac1411,939b2e74-51af-11ea-9f2f-f7fbb9e94743
932b26d8-51af-11ea-abf1-0fd4f491db41,939b54da-51af-11ea-a350-63242a089adf
936cb0d0-51af-11ea-b2ce-cb2df5876474,939b72d0-51af-11ea-a8e0-9b8641615101
93894754-51af-11ea-bcb8-93187fb95603,939b76d6-51af-11ea-8795-ab6f3240167c
93596034-51af-11ea-bbf0-6fececd2bc76,939b9ed6-51af-11ea-ad32-17de95a6aed9
936ff308-51af-11ea-ac72-0ff1db04c5d8,939bd158-51af-11ea-a2e0-9fb479c7b0b2
935e991e-51af-11ea-ab4e-3f4cddd9d71b,939c151e-51af-11ea-8fd0-d393c7707974
936db570-51af-11ea-8e5f-b7f8cc1a9404,939c33aa-51af-11ea-a141-ef75511e5885
9384c3b4-51af-11ea-b73a-a31d80a7d284,939c44bc-51af-11ea-848a-f745105efda6
935b5d08-51af-11ea-b519-1744a9410eeb,939c854e-51af-11ea-8bdb-83cd59f87d6e
9391d50e-51af-11ea-84e1-5fc811246f77,939c8c56-51af-11ea-8653-87840d018a45
933351fa-51af-11ea-aad6-9bb59d39cdb5,939caf56-51af-11ea-a640-1fb11717641f
933f21f6-51af-11ea-9124-c357f1df6627,939cc9d2-51af-11ea-97da-5fd65c89a270
9391bc7c-51af-11ea-be27-67ded8d92cb2,939cf93e-51af-11ea-8ead-f37ca4e94da7
932dc852-51af-11ea-8c5a-eb5aa9d4e983,939d06a4-51af-11ea-80f2-e71d4540ce3b
938cce4c-51af-11ea-ac25-1b3c284de792,939d104a-51af-11ea-88b7-fb95983c3c94
9389f80c-51af-11ea-95a3-5b0b7120d09d,939d413c-51af-11ea-b5fd-77b0f998635f
9362f7e8-51af-11ea-9c65-2756d220f71b,939d7102-51af-11ea-9d6d-3faf2c724101
932872e4-51af-11ea-8745-8f3fc1986a1f,939d7f62-51af-11ea-963e-571a1ea2bdfb
9380d678-51af-11ea-94d0-ef815e7839f0,939d83b8-51af-11ea-903a-7769bfdc13da
9385fb9e-51af-11ea-a2da-b33f16ae64de,939da6d6-51af-11ea-a9b8-0bf50da10439
93952b64-51af-11ea-9d12-474f470cb93e,939df8f2-51af-11ea-a286-97b255d04a43
939d7102-51af-11ea-9d6d-3faf2c724101,939e0e28-51af-11ea-8152-2b8b926ebce1
935ff8e0-51af-11ea-9816-3bb86081d9ce,939e20ca-51af-11ea-b9ef-573accb18a96
933aa0fe-51af-11ea-93e9-874615cbd630,939e30b0-51af-11ea-9c18-6f685d330643
93654462-51af-11ea-8c2e-6f7f15be4ad8,939e7da4-51af-11ea-a660-57df59e61f23
93902fce-51af-11ea-8073-c3a8d48ab394,939e829a-51af-11ea-9493-979942e15fee
93963590-51af-11ea-a34b-5b0431414d52,939e9a6e-51af-11ea-891a-9fc27192c856
9329ad3a-51af-11ea-a6be-87bfb7811f02,939ec002-51af-11ea-a0e8-c7ab5ec96bb2
935a81d0-51af-11ea-bb8f-8704a9d87a2b,939eda74-51af-11ea-9049-dbce4b677630
9376250c-51af-11ea-ae68-13140c1c8e77,939ef950-51af-11ea-ab7c-ffd271a567d1
933dc7de-51af-11ea-9ec8-1b48eb9057a3,939f4626-51af-11ea-a3db-e7459b97ca77
935eb138-51af-11ea-8235-333ab3d00f95,939f4f68-51af-11ea-8478-372cedeb7c8f
935fc8e8-51af-11ea-b3b0-cb3b7e6f6d3e,939f5418-51af-11ea-a41f-87de1caa6313
932efa92-51af-11ea-8b04-efbdd1ff72f6,939faca6-51af-11ea-814e-933877bcd0e4
936077b6-51af-11ea-ad08-abb8943184ad,939fc1b4-51af-11ea-bc9d-8bb578c741f4
934b532c-51af-11ea-a326-b3808c566d32,939ffcec-51af-11ea-813d-eb93a6f17898
936594d0-51af-11ea-88d6-73146c115f4b,93a00502-51af-11ea-ae04-4357668a36b0
93682128-51af-11ea-bd77-874d69eaa261,93a01dee-51af-11ea-bfd7-7b85ef0df9c4
939d83b8-51af-11ea-903a-7769bfdc13da,93a06ca4-51af-11ea-ba40-ab7e41f50e1e
93644e72-51af-11ea-bf7d-cb2c022efe19,93a081c6-51af-11ea-8202-2f078541d2b1
93534064-51af-11ea-a90a-e76d4b38fcbf,93a08d7e-51af-11ea-9670-2bf01316e793
9395517a-51af-11ea-a970-f774249a3f88,93a09134-51af-11ea-8d74-13637004668b
93927df6-51af-11ea-b275-67e5bf600ae5,93a1038a-51af-11ea-b47f-0f64aa4d76c7
936f6e56-51af-11ea-af2f-cfd56c6ea4d5,93a10d1c-51af-11ea-ab2b-5307a904d63c
93539ff0-51af-11ea-9db3-1bfc6c5f0ea1,93a1092a-51af-11ea-8725-7b39dbf9d9d0
93981964-51af-11ea-8145-d7415853db3d,93a12234-51af-11ea-b9e3-83b462cfdd58
9339dba6-51af-11ea-a6c0-7f19f2c039f3,93a15a06-51af-11ea-83f9-8f2bf40e58cb
932cd050-51af-11ea-b27c-a3f31b601acd,93a18bca-51af-11ea-a428-637a2787162e
93a10d1c-51af-11ea-ab2b-5307a904d63c,93a1907a-51af-11ea-903a-771f1413a8ad
93644e72-51af-11ea-bf7d-cb2c022efe19,93a1a3f8-51af-11ea-8e24-4353903778b4
93901d0e-51af-11ea-a7ea-5b304f36b290,93a20186-51af-11ea-a90a-53605f386b10
93872316-51af-11ea-8062-cf65be306eb3,93a21dec-51af-11ea-a17a-035a35ee1377
9393533e-51af-11ea-851c-4f62063d8a22,93a23cfa-51af-11ea-9a92-b70d2180cd69
9362fe00-51af-11ea-b62a-937e5810f3c7,93a243c6-51af-11ea-98d9-cb1710eb515e
938e3f66-51af-11ea-9842-abee8f9bc84c,93a29358-51af-11ea-b45e-2f97caf993b6
934fe950-51af-11ea-9438-1f1541dfc1e3,93a2b748-51af-11ea-8b27-a79e7f48f0ab
93609b88-51af-11ea-8f93-4b8483c69e21,93a2d00c-51af-11ea-b65f-773b4302ecd0
93869c66-51af-11ea-83f6-cb4381cd0d57,93a2d4d0-51af-11ea-b642-8737e3084578
939827b0-51af-11ea-ac59-5bd2736dfc12,93a3217e-51af-11ea-81c8-377f4eb9e739
93315378-51af-11ea-b1cc-8f8b55289395,93a33fb0-51af-11ea-ba21-9bcf35292be3
93696c90-51af-11ea-ab19-1300cfc4dc4b,93a345f0-51af-11ea-93b3-6fefaf8b53a1
93421bf4-51af-11ea-92a9-4bbec997a07e,93a35bbc-51af-11ea-ab18-731e45b06056
933eb16c-51af-11ea-859f-9f840a401879,93a3a77a-51af-11ea-a40c-3fc8de44b27c
933dc7de-51af-11ea-9ec8-1b48eb9057a3,93a3b544-51af-11ea-93d7-97594bba3a90
937d1a88-51af-11ea-90e2-9b272d9310ad,93a3ca20-51af-11ea-8dcd-e7d72a9c6fc6
9386f620-51af-11ea-a055-63700a610e65,93a3cfb6-51af-11ea-80b9-87299f7e705e
937be136-51af-11ea-a0cf-073bae404f44,93a42948-51af-11ea-95f4-43eb4fab13d3
93780340-51af-11ea-b01d-cf83d8a00151,93a437b2-51af-11ea-8f50-37d90d67ab04
932e2d56-51af-11ea-a4ad-d33eeec4c9ef,93a43f78-51af-11ea-acf1-533d684d3442
9382ae9e-51af-11ea-b364-3bb335a26aaa,93a490c2-51af-11ea-bf28-176a7a6c59f0
9329afce-51af-11ea-8b4b-8fe4e88b4dc2,93a4a10c-51af-11ea-bb34-975ba3e129b1
939e30b0-51af-11ea-9c18-6f685d330643,93a4d51e-51af-11ea-a1ac-9be7477baad6
9380b648-51af-11ea-81cb-235a7d175198,93a4d1ea-51af-11ea-b113-4ba74863acfe
9386f620-51af-11ea-a055-63700a610e65,93a4fa30-51af-11ea-a34d-4b7e034c7d2b
9386f620-51af-11ea-a055-63700a610e65,93a515a6-51af-11ea-98fc-1338546365b3
937ea20e-51af-11ea-9963-374cd9505bdb,93a5485a-51af-11ea-a22a-0f074a869935
934f788a-51af-11ea-b4f1-afec3fd1cc2b,93a55a84-51af-11ea-b1a0-1b706cc9ba08
936ac6c6-51af-11ea-acfe-7b461bcb7dab,93a573fc-51af-11ea-9d2b-7f0b4c87a9f5
93644a62-51af-11ea-bcdb-37c6c11e2292,93a5c6cc-51af-11ea-9601-ffa6d2b84528
93344f56-51af-11ea-8dd8-c3e94ae43f70,93a5e0e4-51af-11ea-b562-3780a39c5c4d
938613f4-51af-11ea-adb4-e77cfa2ca384,93a612c6-51af-11ea-b0d2-f79e5aa82e45
93619c90-51af-11ea-bd46-d3857c3b4f8e,93a61d52-51af-11ea-9e4c-ebd71ecd0f91
938fb210-51af-11ea-ad68-c3329d62fbb6,93a62b6c-51af-11ea-9406-e787e389ed57
9341098a-51af-11ea-a6ff-03ccaf4ebf1c,93a65560-51af-11ea-8f17-e3171fed3e2a
937567de-51af-11ea-be5a-5369b1ddf266,93a6a574-51af-11ea-9413-c3fc0b0eae62
93704f60-51af-11ea-aab7-db2a56545b04,93a6ba5a-51af-11ea-8288-dbeca000a6ab
937f6518-51af-11ea-adb3-f36bb62eeb21,93a6be9c-51af-11ea-b39b-ffbfc5d5f6b8
936077b6-51af-11ea-ad08-abb8943184ad,93a6d0c6-51af-11ea-9ff0-8b59a06df147
933df7b8-51af-11ea-8576-ebaaea79dac8,93a71bb2-51af-11ea-ad13-a38e356f6979
9360d42c-51af-11ea-8d2c-933482240358,93a733d6-51af-11ea-ace8-0f531937d04c
934d8980-51af-11ea-8904-434b0b8a51d2,93a743e4-51af-11ea-a1d1-175f8edb2a2a
