RunID,Tick,ActiveAgentsPerTick
run-2020-2-28-10-36-4.750814914,0,12
run-2020-2-28-10-36-4.750814914,1,17
run-2020-2-28-10-36-4.750814914,2,17
run-2020-2-28-10-36-4.750814914,3,15
run-2020-2-28-10-36-4.750814914,4,20
run-2020-2-28-10-36-4.750814914,5,23
run-2020-2-28-10-36-4.750814914,6,17
run-2020-2-28-10-36-4.750814914,7,18
run-2020-2-28-10-36-4.750814914,8,20
run-2020-2-28-10-36-4.750814914,9,21
run-2020-2-28-10-36-4.750814914,10,23
run-2020-2-28-10-36-4.750814914,11,23
run-2020-2-28-10-36-4.750814914,12,26
run-2020-2-28-10-36-4.750814914,13,23
run-2020-2-28-10-36-4.750814914,14,27
run-2020-2-28-10-36-4.750814914,15,28
run-2020-2-28-10-36-4.750814914,16,30
run-2020-2-28-10-36-4.750814914,17,32
run-2020-2-28-10-36-4.750814914,18,35
run-2020-2-28-10-36-4.750814914,19,39
run-2020-2-28-10-36-4.750814914,20,39
run-2020-2-28-10-36-4.750814914,21,40
run-2020-2-28-10-36-4.750814914,22,40
run-2020-2-28-10-36-4.750814914,23,39
run-2020-2-28-10-36-4.750814914,24,36
run-2020-2-28-10-36-4.750814914,25,38
run-2020-2-28-10-36-4.750814914,26,39
run-2020-2-28-10-36-4.750814914,27,37
run-2020-2-28-10-36-4.750814914,28,38
run-2020-2-28-10-36-4.750814914,29,38
run-2020-2-28-10-36-4.750814914,30,39
run-2020-2-28-10-36-4.750814914,31,41
run-2020-2-28-10-36-4.750814914,32,45
run-2020-2-28-10-36-4.750814914,33,44
run-2020-2-28-10-36-4.750814914,34,46
run-2020-2-28-10-36-4.750814914,35,47
run-2020-2-28-10-36-4.750814914,36,50
run-2020-2-28-10-36-4.750814914,37,48
run-2020-2-28-10-36-4.750814914,38,43
run-2020-2-28-10-36-4.750814914,39,49
run-2020-2-28-10-36-4.750814914,40,50
run-2020-2-28-10-36-4.750814914,41,51
run-2020-2-28-10-36-4.750814914,42,53
run-2020-2-28-10-36-4.750814914,43,51
run-2020-2-28-10-36-4.750814914,44,53
run-2020-2-28-10-36-4.750814914,45,50
run-2020-2-28-10-36-4.750814914,46,48
run-2020-2-28-10-36-4.750814914,47,46
run-2020-2-28-10-36-4.750814914,48,43
run-2020-2-28-10-36-4.750814914,49,49
run-2020-2-28-10-36-4.750814914,50,51
run-2020-2-28-10-36-4.750814914,51,53
run-2020-2-28-10-36-4.750814914,52,54
run-2020-2-28-10-36-4.750814914,53,53
run-2020-2-28-10-36-4.750814914,54,57
run-2020-2-28-10-36-4.750814914,55,57
run-2020-2-28-10-36-4.750814914,56,53
run-2020-2-28-10-36-4.750814914,57,57
run-2020-2-28-10-36-4.750814914,58,56
run-2020-2-28-10-36-4.750814914,59,57
run-2020-2-28-10-36-4.750814914,60,56
run-2020-2-28-10-36-4.750814914,61,57
run-2020-2-28-10-36-4.750814914,62,59
run-2020-2-28-10-36-4.750814914,63,63
run-2020-2-28-10-36-4.750814914,64,64
run-2020-2-28-10-36-4.750814914,65,66
run-2020-2-28-10-36-4.750814914,66,60
run-2020-2-28-10-36-4.750814914,67,65
run-2020-2-28-10-36-4.750814914,68,67
run-2020-2-28-10-36-4.750814914,69,68
run-2020-2-28-10-36-4.750814914,70,68
run-2020-2-28-10-36-4.750814914,71,67
run-2020-2-28-10-36-4.750814914,72,62
run-2020-2-28-10-36-4.750814914,73,59
run-2020-2-28-10-36-4.750814914,74,57
run-2020-2-28-10-36-4.750814914,75,55
run-2020-2-28-10-36-4.750814914,76,59
run-2020-2-28-10-36-4.750814914,77,62
run-2020-2-28-10-36-4.750814914,78,59
run-2020-2-28-10-36-4.750814914,79,54
run-2020-2-28-10-36-4.750814914,80,55
run-2020-2-28-10-36-4.750814914,81,55
run-2020-2-28-10-36-4.750814914,82,54
run-2020-2-28-10-36-4.750814914,83,55
run-2020-2-28-10-36-4.750814914,84,55
run-2020-2-28-10-36-4.750814914,85,51
run-2020-2-28-10-36-4.750814914,86,53
run-2020-2-28-10-36-4.750814914,87,56
run-2020-2-28-10-36-4.750814914,88,60
run-2020-2-28-10-36-4.750814914,89,59
run-2020-2-28-10-36-4.750814914,90,57
run-2020-2-28-10-36-4.750814914,91,56
run-2020-2-28-10-36-4.750814914,92,58
run-2020-2-28-10-36-4.750814914,93,61
run-2020-2-28-10-36-4.750814914,94,61
run-2020-2-28-10-36-4.750814914,95,62
run-2020-2-28-10-36-4.750814914,96,60
run-2020-2-28-10-36-4.750814914,97,59
run-2020-2-28-10-36-4.750814914,98,62
run-2020-2-28-10-36-4.750814914,99,63
run-2020-2-28-10-36-4.750814914,100,62
