RunID,Agent,Age,Created,Inactive,Resources,Reputation,Ability,Que
run-2020-2-28-10-20-25.625283002,AGENT#ef7c6b38-5a13-11ea-98d6-7b772f611433,0,0,0,10,1.0,1.0,0
run-2020-2-28-10-20-25.625283002,AGENT#ef7c6e3a-5a13-11ea-bd97-9b1311a0625b,0,0,0,10,1.0,1.0,0
run-2020-2-28-10-20-25.625283002,AGENT#ef7c6232-5a13-11ea-99a3-63f393ad87e5,1,0,1,10,1.0,1.0,0
run-2020-2-28-10-20-25.625283002,AGENT#ef7c6534-5a13-11ea-a891-e708a139aaba,1,0,1,10,1.0,1.0,0
run-2020-2-28-10-20-25.625283002,AGENT#ef7c6840-5a13-11ea-9754-0b0868106581,1,0,1,10,1.0,1.0,0
run-2020-2-28-10-20-25.625283002,AGENT#ef7cba2a-5a13-11ea-a704-d726344f3b33,1,0,1,10,1.0,1.0,0
run-2020-2-28-10-20-25.625283002,AGENT#ef7c5562-5a13-11ea-950b-1323e14bddb7,3,0,3,10,1.0,1.0,0
run-2020-2-28-10-20-25.625283002,AGENT#ef7c5bca-5a13-11ea-93fd-3fb4c16a785f,3,0,3,10,1.0,1.0,0
run-2020-2-28-10-20-25.625283002,AGENT#ef7cbd9a-5a13-11ea-854b-8b1263772483,3,0,3,10,1.0,1.0,0
run-2020-2-28-10-20-25.625283002,AGENT#ef7d0bec-5a13-11ea-9484-f7147d056111,2,1,3,10,1.0,1.0,0
run-2020-2-28-10-20-25.625283002,AGENT#ef7d4cec-5a13-11ea-bc41-5bd5c8897455,1,2,3,10,1.0,1.0,0
run-2020-2-28-10-20-25.625283002,AGENT#ef7c58a0-5a13-11ea-a694-9f5d9eea1575,4,0,4,10,1.0,1.0,0
run-2020-2-28-10-20-25.625283002,AGENT#ef7c5ee0-5a13-11ea-b0dd-5f9064ddb037,4,0,4,10,1.0,1.0,0
run-2020-2-28-10-20-25.625283002,AGENT#ef7d45bc-5a13-11ea-bd28-5b052d1a0d25,2,2,4,10,1.0,1.0,0
run-2020-2-28-10-20-25.625283002,AGENT#ef7d494a-5a13-11ea-9fb6-93f81a1cb318,4,2,6,10,1.0,1.0,0
run-2020-2-28-10-20-25.625283002,AGENT#ef7d9f1c-5a13-11ea-8e2c-83e2e91b28b2,3,3,6,10,1.0,1.0,0
run-2020-2-28-10-20-25.625283002,AGENT#ef7e4714-5a13-11ea-aefd-fbdf0fd8a2ff,1,5,6,10,1.0,1.0,0
run-2020-2-28-10-20-25.625283002,AGENT#ef7d5052-5a13-11ea-a1ba-13d7de2cebfd,5,2,7,10,1.0,1.0,0
run-2020-2-28-10-20-25.625283002,AGENT#ef7dfc46-5a13-11ea-976d-87a90e40d83e,3,4,7,10,1.0,1.0,0
run-2020-2-28-10-20-25.625283002,AGENT#ef7d9800-5a13-11ea-afe1-3b9eef112ca9,5,3,8,10,1.0,1.0,0
run-2020-2-28-10-20-25.625283002,AGENT#ef7d9bb6-5a13-11ea-ba2e-1b01ee47645d,5,3,8,10,1.0,1.0,0
run-2020-2-28-10-20-25.625283002,AGENT#ef7df5ac-5a13-11ea-8d60-87bb7a7fef83,4,4,8,10,1.0,1.0,0
run-2020-2-28-10-20-25.625283002,AGENT#ef7e42e6-5a13-11ea-8f2f-af35092a5e63,3,5,8,10,1.0,1.0,0
run-2020-2-28-10-20-25.625283002,AGENT#ef7dee72-5a13-11ea-9234-c318e7f0c037,5,4,9,10,1.0,1.0,0
run-2020-2-28-10-20-25.625283002,AGENT#ef7e4aac-5a13-11ea-ad50-e757f2229241,4,5,9,10,1.0,1.0,0
run-2020-2-28-10-20-25.625283002,AGENT#ef7f80c0-5a13-11ea-ada3-fff44c9866b6,4,9,13,10,1.0,1.0,0
run-2020-2-28-10-20-25.625283002,AGENT#ef804b18-5a13-11ea-968b-5397e0487897,1,12,13,10,1.0,1.0,0
run-2020-2-28-10-20-25.625283002,AGENT#ef7fff46-5a13-11ea-b150-cbfe72bd4b15,3,11,14,10,1.0,1.0,0
run-2020-2-28-10-20-25.625283002,AGENT#ef80444c-5a13-11ea-8822-fbf783e7335e,2,12,14,10,1.0,1.0,0
run-2020-2-28-10-20-25.625283002,AGENT#ef8098ca-5a13-11ea-a9e3-4b85af97136d,1,13,14,10,1.0,1.0,0
run-2020-2-28-10-20-25.625283002,AGENT#ef809294-5a13-11ea-9332-b37ae643668f,2,13,15,10,1.0,1.0,0
run-2020-2-28-10-20-25.625283002,AGENT#ef80e21c-5a13-11ea-b4e6-b76cd4b936ef,1,14,15,10,1.0,1.0,0
run-2020-2-28-10-20-25.625283002,AGENT#ef80e55a-5a13-11ea-9079-875a5bee0e54,1,14,15,10,1.0,1.0,0
run-2020-2-28-10-20-25.625283002,AGENT#ef812cf4-5a13-11ea-9368-63ab4ad06fb1,1,15,16,10,1.0,1.0,0
run-2020-2-28-10-20-25.625283002,AGENT#ef813384-5a13-11ea-9623-f773260821f3,1,15,16,10,1.0,1.0,0
run-2020-2-28-10-20-25.625283002,AGENT#ef8047e4-5a13-11ea-a11f-6b828b45f4b3,5,12,17,10,1.0,1.0,0
run-2020-2-28-10-20-25.625283002,AGENT#ef808ef2-5a13-11ea-9439-1f95bd96b092,4,13,17,10,1.0,1.0,0
run-2020-2-28-10-20-25.625283002,AGENT#ef81367c-5a13-11ea-b90f-1b98d2b3806e,3,15,18,10,1.0,1.0,0
run-2020-2-28-10-20-25.625283002,AGENT#ef817948-5a13-11ea-906d-6bf2188c672f,2,16,18,10,1.0,1.0,0
run-2020-2-28-10-20-25.625283002,AGENT#ef821826-5a13-11ea-aeae-b33ba7afb9c4,1,18,19,10,1.0,1.0,0
run-2020-2-28-10-20-25.625283002,AGENT#ef821b32-5a13-11ea-a20e-97056c15fddd,1,18,19,10,1.0,1.0,0
run-2020-2-28-10-20-25.625283002,AGENT#ef81c4b6-5a13-11ea-bdad-8f7756faef75,3,17,20,10,1.0,1.0,0
run-2020-2-28-10-20-25.625283002,AGENT#ef820f66-5a13-11ea-8a92-ab46a09e7a7a,2,18,20,10,1.0,1.0,0
run-2020-2-28-10-20-25.625283002,AGENT#ef821254-5a13-11ea-a16a-bbbd6855ae65,2,18,20,10,1.0,1.0,0
run-2020-2-28-10-20-25.625283002,AGENT#ef817cd6-5a13-11ea-b204-ebe7d379fd50,5,16,21,10,1.0,1.0,0
run-2020-2-28-10-20-25.625283002,AGENT#ef82152e-5a13-11ea-9e64-a79fdc17c9c4,3,18,21,10,1.0,1.0,0
run-2020-2-28-10-20-25.625283002,AGENT#ef820c46-5a13-11ea-a254-039bfd14476e,4,18,22,10,1.0,1.0,0
run-2020-2-28-10-20-25.625283002,AGENT#ef826808-5a13-11ea-a1cf-ab4bcdf4f945,3,19,22,10,1.0,1.0,0
run-2020-2-28-10-20-25.625283002,AGENT#ef8313a2-5a13-11ea-b00a-a70200976dcc,2,21,23,10,1.0,1.0,0
run-2020-2-28-10-20-25.625283002,AGENT#ef835d58-5a13-11ea-a1b5-f761143cb43f,1,22,23,10,1.0,1.0,0
run-2020-2-28-10-20-25.625283002,AGENT#ef83b4a6-5a13-11ea-b855-cbf19a94cba3,1,23,24,10,1.0,1.0,0
run-2020-2-28-10-20-25.625283002,AGENT#ef82c0aa-5a13-11ea-9b8b-073ba5dcfac4,5,20,25,10,1.0,1.0,0
run-2020-2-28-10-20-25.625283002,AGENT#ef83ba96-5a13-11ea-b0e0-e35037910a34,3,23,26,10,1.0,1.0,0
run-2020-2-28-10-20-25.625283002,AGENT#ef841928-5a13-11ea-9e5b-8f7aca116e9e,2,24,26,10,1.0,1.0,0
run-2020-2-28-10-20-25.625283002,AGENT#ef852408-5a13-11ea-999d-f3c0a08cc199,1,27,28,10,1.0,1.0,0
run-2020-2-28-10-20-25.625283002,AGENT#ef83bd70-5a13-11ea-9a10-83b037e62c90,6,23,29,10,1.0,1.0,0
run-2020-2-28-10-20-25.625283002,AGENT#ef84726a-5a13-11ea-9949-3b4986adc12d,4,25,29,10,1.0,1.0,0
run-2020-2-28-10-20-25.625283002,AGENT#ef84cb7a-5a13-11ea-bac6-db2355957a66,3,26,29,10,1.0,1.0,0
run-2020-2-28-10-20-25.625283002,AGENT#ef85271e-5a13-11ea-a2e9-a3ad7a38d0cc,2,27,29,10,1.0,1.0,0
run-2020-2-28-10-20-25.625283002,AGENT#ef852a20-5a13-11ea-949d-73002e3aa081,3,27,30,10,1.0,1.0,0
run-2020-2-28-10-20-25.625283002,AGENT#ef84ceea-5a13-11ea-ac66-177f4bf21f39,5,26,31,10,1.0,1.0,0
run-2020-2-28-10-20-25.625283002,AGENT#ef85874a-5a13-11ea-9b27-fb30ece2f5e7,3,28,31,10,1.0,1.0,0
run-2020-2-28-10-20-25.625283002,AGENT#ef864144-5a13-11ea-9828-b37e4ea28ea5,1,30,31,10,1.0,1.0,0
run-2020-2-28-10-20-25.625283002,AGENT#ef7ea77c-5a13-11ea-a340-2fa4eb915444,26,6,32,10,1.0,1.0,0
run-2020-2-28-10-20-25.625283002,AGENT#ef7df246-5a13-11ea-b6cc-6b4930ba3b87,30,4,34,10,1.0,1.0,0
run-2020-2-28-10-20-25.625283002,AGENT#ef877c76-5a13-11ea-84ce-7b722943a198,1,33,34,10,1.0,1.0,0
run-2020-2-28-10-20-25.625283002,AGENT#ef878284-5a13-11ea-be18-776653bac9b1,1,33,34,10,1.0,1.0,0
run-2020-2-28-10-20-25.625283002,AGENT#ef864734-5a13-11ea-9100-17b06950be7c,5,30,35,10,1.0,1.0,0
run-2020-2-28-10-20-25.625283002,AGENT#ef871fc4-5a13-11ea-9c2c-579517225c68,3,32,35,10,1.0,1.0,0
run-2020-2-28-10-20-25.625283002,AGENT#ef8363ac-5a13-11ea-b2bf-77d66c8a7aac,14,22,36,10,1.0,1.0,0
run-2020-2-28-10-20-25.625283002,AGENT#ef86b71e-5a13-11ea-8456-f3bed4280e3b,5,31,36,10,1.0,1.0,0
run-2020-2-28-10-20-25.625283002,AGENT#ef83c612-5a13-11ea-a052-1f04ede2e583,14,23,37,10,1.0,1.0,0
run-2020-2-28-10-20-25.625283002,AGENT#ef877f96-5a13-11ea-a14f-e78bbb107716,4,33,37,10,1.0,1.0,0
run-2020-2-28-10-20-25.625283002,AGENT#ef87e788-5a13-11ea-bdb5-270d124116a4,3,34,37,10,1.0,1.0,0
run-2020-2-28-10-20-25.625283002,AGENT#ef87eae4-5a13-11ea-831a-5fb214f68e7e,4,34,38,10,1.0,1.0,0
run-2020-2-28-10-20-25.625283002,AGENT#ef87edf0-5a13-11ea-9916-0f0056916b51,4,34,38,10,1.0,1.0,0
run-2020-2-28-10-20-25.625283002,AGENT#ef88c022-5a13-11ea-93c1-f323969b5377,2,36,38,10,1.0,1.0,0
run-2020-2-28-10-20-25.625283002,AGENT#ef88c2fc-5a13-11ea-894e-6b935358aadb,2,36,38,10,1.0,1.0,0
run-2020-2-28-10-20-25.625283002,AGENT#ef8853bc-5a13-11ea-b1d6-7f12f7dda45b,4,35,39,10,1.0,1.0,0
run-2020-2-28-10-20-25.625283002,AGENT#ef892576-5a13-11ea-acef-b7784e1c705f,2,37,39,10,1.0,1.0,0
run-2020-2-28-10-20-25.625283002,AGENT#ef89963c-5a13-11ea-99e2-871718677900,1,38,39,10,1.0,1.0,0
run-2020-2-28-10-20-25.625283002,AGENT#ef88c5d6-5a13-11ea-8a6c-bfcd0eb4b7e5,4,36,40,10,1.0,1.0,0
run-2020-2-28-10-20-25.625283002,AGENT#ef89299a-5a13-11ea-a2d0-233bfccb11fd,3,37,40,10,1.0,1.0,0
run-2020-2-28-10-20-25.625283002,AGENT#ef892cb0-5a13-11ea-b4be-bf16b6b988dc,3,37,40,10,1.0,1.0,0
run-2020-2-28-10-20-25.625283002,AGENT#ef89fe74-5a13-11ea-81bd-eb804ff12735,1,39,40,10,1.0,1.0,0
run-2020-2-28-10-20-25.625283002,AGENT#ef8a723c-5a13-11ea-923c-d7fa77eab7f3,1,40,41,10,1.0,1.0,0
run-2020-2-28-10-20-25.625283002,AGENT#ef800324-5a13-11ea-97c0-2b1e0b68bf19,31,11,42,10,1.0,1.0,0
run-2020-2-28-10-20-25.625283002,AGENT#ef89934e-5a13-11ea-8816-9f955e9888fa,4,38,42,10,1.0,1.0,0
run-2020-2-28-10-20-25.625283002,AGENT#ef8adb50-5a13-11ea-b214-9bc87548b073,2,41,43,10,1.0,1.0,0
run-2020-2-28-10-20-25.625283002,AGENT#ef8b3d34-5a13-11ea-b8ca-6fd4ff5b9846,1,42,43,10,1.0,1.0,0
run-2020-2-28-10-20-25.625283002,AGENT#ef8b402c-5a13-11ea-ab6b-c3e5b19565b1,1,42,43,10,1.0,1.0,0
run-2020-2-28-10-20-25.625283002,AGENT#ef8b42d4-5a13-11ea-839a-738e624e5505,1,42,43,10,1.0,1.0,0
run-2020-2-28-10-20-25.625283002,AGENT#ef89fbc2-5a13-11ea-808c-abb1ab36718b,5,39,44,10,1.0,1.0,0
run-2020-2-28-10-20-25.625283002,AGENT#ef8a013a-5a13-11ea-8d62-bbd36b8912a1,5,39,44,10,1.0,1.0,0
run-2020-2-28-10-20-25.625283002,AGENT#ef8a6c06-5a13-11ea-b92e-33345210fad8,4,40,44,10,1.0,1.0,0
run-2020-2-28-10-20-25.625283002,AGENT#ef7c51de-5a13-11ea-ad53-f38aa2c875d3,45,0,45,10,1.0,1.0,0
run-2020-2-28-10-20-25.625283002,AGENT#ef8a6f6c-5a13-11ea-862b-6f035ecf327f,5,40,45,10,1.0,1.0,0
run-2020-2-28-10-20-25.625283002,AGENT#ef8b3a50-5a13-11ea-812e-6b97e73075be,3,42,45,10,1.0,1.0,0
run-2020-2-28-10-20-25.625283002,AGENT#ef8c1006-5a13-11ea-ac4c-7b6d124a15e2,1,44,45,10,1.0,1.0,0
run-2020-2-28-10-20-25.625283002,AGENT#ef8c15d8-5a13-11ea-8bc9-57c8b0d9473b,1,44,45,10,1.0,1.0,0
run-2020-2-28-10-20-25.625283002,AGENT#ef8c18a8-5a13-11ea-8fc8-03c94f15c78c,1,44,45,10,1.0,1.0,0
run-2020-2-28-10-20-25.625283002,AGENT#ef7cb674-5a13-11ea-a867-474064d528fe,46,0,46,10,1.0,1.0,0
run-2020-2-28-10-20-25.625283002,AGENT#ef8ad808-5a13-11ea-b313-17e256b37146,5,41,46,10,1.0,1.0,0
run-2020-2-28-10-20-25.625283002,AGENT#ef8ba6f2-5a13-11ea-b847-1384b1b0803a,3,43,46,10,1.0,1.0,0
run-2020-2-28-10-20-25.625283002,AGENT#ef8c80cc-5a13-11ea-9c77-cffdf6ba22fd,1,45,46,10,1.0,1.0,0
run-2020-2-28-10-20-25.625283002,AGENT#ef8c12fe-5a13-11ea-9098-5ff643ddf062,3,44,47,10,1.0,1.0,0
run-2020-2-28-10-20-25.625283002,AGENT#ef8c7b5e-5a13-11ea-86e6-934bd2bbecd0,2,45,47,10,1.0,1.0,0
run-2020-2-28-10-20-25.625283002,AGENT#ef7d080e-5a13-11ea-98c5-4faec3b4f8ac,47,1,48,10,1.0,1.0,0
run-2020-2-28-10-20-25.625283002,AGENT#ef8c7e2e-5a13-11ea-b94c-8b49d55e0104,3,45,48,10,1.0,1.0,0
run-2020-2-28-10-20-25.625283002,AGENT#ef8cf26e-5a13-11ea-911c-3b7d91ccf93b,2,46,48,10,1.0,1.0,0
run-2020-2-28-10-20-25.625283002,AGENT#ef8d76c6-5a13-11ea-bf54-77b9295654c2,1,47,48,10,1.0,1.0,0
run-2020-2-28-10-20-25.625283002,AGENT#ef7df908-5a13-11ea-9274-b73dec2213fd,45,4,49,10,1.0,1.0,0
run-2020-2-28-10-20-25.625283002,AGENT#ef8cf7aa-5a13-11ea-9983-5b81e560d93b,3,46,49,10,1.0,1.0,0
run-2020-2-28-10-20-25.625283002,AGENT#ef8cfcd2-5a13-11ea-bd7e-d3cc1623f801,3,46,49,10,1.0,1.0,0
run-2020-2-28-10-20-25.625283002,AGENT#ef8d73ba-5a13-11ea-97f9-7f5d4f77ce6d,2,47,49,10,1.0,1.0,0
run-2020-2-28-10-20-25.625283002,AGENT#ef8dee26-5a13-11ea-a187-373afe41e8f7,1,48,49,10,1.0,1.0,0
run-2020-2-28-10-20-25.625283002,AGENT#ef8e583e-5a13-11ea-bdab-07a5547c2598,1,49,50,10,1.0,1.0,0
run-2020-2-28-10-20-25.625283002,AGENT#ef8cf502-5a13-11ea-8de4-778720fd556b,5,46,51,10,1.0,1.0,0
run-2020-2-28-10-20-25.625283002,AGENT#ef8ec7e2-5a13-11ea-a7d3-f3ed738765f9,1,50,51,10,1.0,1.0,0
run-2020-2-28-10-20-25.625283002,AGENT#ef8de37c-5a13-11ea-b3e8-4beba9f6a78e,4,48,52,10,1.0,1.0,0
run-2020-2-28-10-20-25.625283002,AGENT#ef8f354c-5a13-11ea-ac3d-5fc1b2dd1ba5,1,51,52,10,1.0,1.0,0
run-2020-2-28-10-20-25.625283002,AGENT#ef8f3a74-5a13-11ea-ae68-df76d9b8da20,1,51,52,10,1.0,1.0,0
run-2020-2-28-10-20-25.625283002,AGENT#ef7eefac-5a13-11ea-8e47-1f8035ecd26c,46,7,53,10,1.0,1.0,0
run-2020-2-28-10-20-25.625283002,AGENT#ef8fa9a0-5a13-11ea-8fca-67f152cdf3f8,1,52,53,10,1.0,1.0,0
run-2020-2-28-10-20-25.625283002,AGENT#ef8fb4d6-5a13-11ea-a2a1-83f2596fbf10,1,52,53,10,1.0,1.0,0
run-2020-2-28-10-20-25.625283002,AGENT#ef7f3494-5a13-11ea-8b7f-eb7e776eb43e,46,8,54,10,1.0,1.0,0
run-2020-2-28-10-20-25.625283002,AGENT#ef8f3f88-5a13-11ea-af08-ff36ffbff03d,3,51,54,10,1.0,1.0,0
run-2020-2-28-10-20-25.625283002,AGENT#ef8fb260-5a13-11ea-8425-4f9b58be0435,2,52,54,10,1.0,1.0,0
run-2020-2-28-10-20-25.625283002,AGENT#ef90227c-5a13-11ea-bc20-b3964b592b85,1,53,54,10,1.0,1.0,0
run-2020-2-28-10-20-25.625283002,AGENT#ef90251a-5a13-11ea-9955-0b2d823777a6,1,53,54,10,1.0,1.0,0
run-2020-2-28-10-20-25.625283002,AGENT#ef7f384a-5a13-11ea-9775-2b51f3e8f308,48,8,56,10,1.0,1.0,0
run-2020-2-28-10-20-25.625283002,AGENT#ef81c164-5a13-11ea-b79d-43fb3ec79b77,39,17,56,10,1.0,1.0,0
run-2020-2-28-10-20-25.625283002,AGENT#ef8a750c-5a13-11ea-bb7e-7b95ca3f4207,16,40,56,10,1.0,1.0,0
run-2020-2-28-10-20-25.625283002,AGENT#ef8f2cc8-5a13-11ea-9575-6b5d7dbc8af2,5,51,56,10,1.0,1.0,0
run-2020-2-28-10-20-25.625283002,AGENT#ef908d2a-5a13-11ea-a713-2bdac03d7380,2,54,56,10,1.0,1.0,0
run-2020-2-28-10-20-25.625283002,AGENT#ef809c08-5a13-11ea-bba7-3b0d64c24a5b,44,13,57,10,1.0,1.0,0
run-2020-2-28-10-20-25.625283002,AGENT#ef908aa0-5a13-11ea-b354-7f86a71834ff,3,54,57,10,1.0,1.0,0
run-2020-2-28-10-20-25.625283002,AGENT#ef916290-5a13-11ea-a626-53874e34c039,1,56,57,10,1.0,1.0,0
run-2020-2-28-10-20-25.625283002,AGENT#ef916b14-5a13-11ea-819a-d3e5feecbcde,1,56,57,10,1.0,1.0,0
run-2020-2-28-10-20-25.625283002,AGENT#ef916d8a-5a13-11ea-8e06-d70f1de61bfc,1,56,57,10,1.0,1.0,0
run-2020-2-28-10-20-25.625283002,AGENT#ef8095b4-5a13-11ea-98cb-778a1efeda20,45,13,58,10,1.0,1.0,0
run-2020-2-28-10-20-25.625283002,AGENT#ef8719c0-5a13-11ea-bcd7-d7f216ee6c43,26,32,58,10,1.0,1.0,0
run-2020-2-28-10-20-25.625283002,AGENT#ef90f134-5a13-11ea-9e38-ef7d3bb625cf,3,55,58,10,1.0,1.0,0
run-2020-2-28-10-20-25.625283002,AGENT#ef91dc84-5a13-11ea-bdac-372eef5e6027,1,57,58,10,1.0,1.0,0
run-2020-2-28-10-20-25.625283002,AGENT#ef8ba9ea-5a13-11ea-ad52-57e09057cf71,17,43,60,10,1.0,1.0,0
run-2020-2-28-10-20-25.625283002,AGENT#ef9243cc-5a13-11ea-8f66-73b66663d266,2,58,60,10,1.0,1.0,0
run-2020-2-28-10-20-25.625283002,AGENT#ef91d9be-5a13-11ea-8f44-fb209bf83be1,4,57,61,10,1.0,1.0,0
run-2020-2-28-10-20-25.625283002,AGENT#ef9316da-5a13-11ea-b3a3-bb3274fa5f47,1,60,61,10,1.0,1.0,0
run-2020-2-28-10-20-25.625283002,AGENT#ef81303c-5a13-11ea-85e6-13a1b6e4b85d,47,15,62,10,1.0,1.0,0
run-2020-2-28-10-20-25.625283002,AGENT#ef92a6a0-5a13-11ea-84e2-5b52b0dc2b9c,3,59,62,10,1.0,1.0,0
run-2020-2-28-10-20-25.625283002,AGENT#ef938a48-5a13-11ea-9dac-f3ca61f0df93,1,61,62,10,1.0,1.0,0
run-2020-2-28-10-20-25.625283002,AGENT#ef92a93e-5a13-11ea-a578-5b949f6fc498,4,59,63,10,1.0,1.0,0
run-2020-2-28-10-20-25.625283002,AGENT#ef93f816-5a13-11ea-8122-2b886c255a15,1,62,63,10,1.0,1.0,0
run-2020-2-28-10-20-25.625283002,AGENT#ef821e20-5a13-11ea-b4bc-670b42b720b5,46,18,64,10,1.0,1.0,0
run-2020-2-28-10-20-25.625283002,AGENT#ef946a6c-5a13-11ea-9bd9-3f059182be76,1,63,64,10,1.0,1.0,0
run-2020-2-28-10-20-25.625283002,AGENT#ef9471b0-5a13-11ea-ad53-8fd772889f76,1,63,64,10,1.0,1.0,0
run-2020-2-28-10-20-25.625283002,AGENT#ef8208d6-5a13-11ea-b11f-6b4c48b29487,47,18,65,10,1.0,1.0,0
run-2020-2-28-10-20-25.625283002,AGENT#ef931414-5a13-11ea-ae7d-336dd1aba6a5,5,60,65,10,1.0,1.0,0
run-2020-2-28-10-20-25.625283002,AGENT#ef94fb44-5a13-11ea-a7a8-8358a1aee918,1,64,65,10,1.0,1.0,0
run-2020-2-28-10-20-25.625283002,AGENT#ef830cfe-5a13-11ea-b982-67b15bf5ec02,45,21,66,10,1.0,1.0,0
run-2020-2-28-10-20-25.625283002,AGENT#ef901fac-5a13-11ea-ae45-93d684f3d9a4,13,53,66,10,1.0,1.0,0
run-2020-2-28-10-20-25.625283002,AGENT#ef93fa8c-5a13-11ea-91b5-d30f6109e790,4,62,66,10,1.0,1.0,0
run-2020-2-28-10-20-25.625283002,AGENT#ef957088-5a13-11ea-b3e4-7358170b319b,1,65,66,10,1.0,1.0,0
run-2020-2-28-10-20-25.625283002,AGENT#ef831050-5a13-11ea-8cc4-83abb2089f69,46,21,67,10,1.0,1.0,0
run-2020-2-28-10-20-25.625283002,AGENT#ef8360a0-5a13-11ea-b9cd-638b34895999,45,22,67,10,1.0,1.0,0
run-2020-2-28-10-20-25.625283002,AGENT#ef9467d8-5a13-11ea-9757-fbfcfd609b87,4,63,67,10,1.0,1.0,0
run-2020-2-28-10-20-25.625283002,AGENT#ef946f4e-5a13-11ea-8c45-df21f7a5559b,4,63,67,10,1.0,1.0,0
run-2020-2-28-10-20-25.625283002,AGENT#ef95734e-5a13-11ea-9dc2-f7bed77e9592,2,65,67,10,1.0,1.0,0
run-2020-2-28-10-20-25.625283002,AGENT#ef95e2e8-5a13-11ea-8256-4b245ee0120d,1,66,67,10,1.0,1.0,0
run-2020-2-28-10-20-25.625283002,AGENT#ef95e7de-5a13-11ea-b963-ffc4cc16ef27,1,66,67,10,1.0,1.0,0
run-2020-2-28-10-20-25.625283002,AGENT#ef82bd3a-5a13-11ea-a6b4-5f11189cc8bc,48,20,68,10,1.0,1.0,0
run-2020-2-28-10-20-25.625283002,AGENT#ef83b7b2-5a13-11ea-a3e5-471df5ce3a94,45,23,68,10,1.0,1.0,0
run-2020-2-28-10-20-25.625283002,AGENT#ef83c324-5a13-11ea-b6bf-0725d200ccbf,45,23,68,10,1.0,1.0,0
run-2020-2-28-10-20-25.625283002,AGENT#ef83c8e2-5a13-11ea-9b23-1b91b0d641ea,45,23,68,10,1.0,1.0,0
run-2020-2-28-10-20-25.625283002,AGENT#ef947692-5a13-11ea-a2f5-cf36cdcd6d30,5,63,68,10,1.0,1.0,0
run-2020-2-28-10-20-25.625283002,AGENT#ef956ab6-5a13-11ea-ba93-6f4cd11a9699,3,65,68,10,1.0,1.0,0
run-2020-2-28-10-20-25.625283002,AGENT#ef965ff2-5a13-11ea-a494-133f1323c6a5,1,67,68,10,1.0,1.0,0
run-2020-2-28-10-20-25.625283002,AGENT#ef946ce2-5a13-11ea-85c5-fbf3d3990fbc,6,63,69,10,1.0,1.0,0
run-2020-2-28-10-20-25.625283002,AGENT#ef94f8ec-5a13-11ea-93a6-2fe6fea7fba1,5,64,69,10,1.0,1.0,0
run-2020-2-28-10-20-25.625283002,AGENT#ef96624a-5a13-11ea-a01b-275436b6b5d8,2,67,69,10,1.0,1.0,0
run-2020-2-28-10-20-25.625283002,AGENT#ef9664a2-5a13-11ea-8320-07375a45f6cd,2,67,69,10,1.0,1.0,0
run-2020-2-28-10-20-25.625283002,AGENT#ef89f8a2-5a13-11ea-81c9-3fc902b0eca7,31,39,70,10,1.0,1.0,0
run-2020-2-28-10-20-25.625283002,AGENT#ef96e774-5a13-11ea-ad3e-7786bf95f40e,2,68,70,10,1.0,1.0,0
run-2020-2-28-10-20-25.625283002,AGENT#ef84d1ce-5a13-11ea-b5f9-cb53a6717949,45,26,71,10,1.0,1.0,0
run-2020-2-28-10-20-25.625283002,AGENT#ef965aa2-5a13-11ea-88e5-131dd839780c,4,67,71,10,1.0,1.0,0
run-2020-2-28-10-20-25.625283002,AGENT#ef96e4b8-5a13-11ea-8fbf-478e32fae0c5,3,68,71,10,1.0,1.0,0
run-2020-2-28-10-20-25.625283002,AGENT#ef96e9fe-5a13-11ea-9d5c-fb1aef7ea40d,3,68,71,10,1.0,1.0,0
run-2020-2-28-10-20-25.625283002,AGENT#ef96ec74-5a13-11ea-ad7d-67726ed4c565,3,68,71,10,1.0,1.0,0
run-2020-2-28-10-20-25.625283002,AGENT#ef9766fe-5a13-11ea-8937-d74aaef57f24,2,69,71,10,1.0,1.0,0
run-2020-2-28-10-20-25.625283002,AGENT#ef97ecd2-5a13-11ea-8bfd-6f8aed280fc9,1,70,71,10,1.0,1.0,0
run-2020-2-28-10-20-25.625283002,AGENT#ef841c3e-5a13-11ea-83d8-e784e59c2ca6,48,24,72,10,1.0,1.0,0
run-2020-2-28-10-20-25.625283002,AGENT#ef947426-5a13-11ea-a9a1-5b71eb952398,9,63,72,10,1.0,1.0,0
run-2020-2-28-10-20-25.625283002,AGENT#ef94f644-5a13-11ea-8817-03b3131c2f45,8,64,72,10,1.0,1.0,0
run-2020-2-28-10-20-25.625283002,AGENT#ef97ea34-5a13-11ea-9a05-978f1dcde87c,2,70,72,10,1.0,1.0,0
run-2020-2-28-10-20-25.625283002,AGENT#ef83c054-5a13-11ea-bab3-a3ea8a7e6310,50,23,73,10,1.0,1.0,0
run-2020-2-28-10-20-25.625283002,AGENT#ef98eb5a-5a13-11ea-8109-c3af3b488425,1,72,73,10,1.0,1.0,0
run-2020-2-28-10-20-25.625283002,AGENT#ef98f050-5a13-11ea-ba70-c325f9365a9f,1,72,73,10,1.0,1.0,0
run-2020-2-28-10-20-25.625283002,AGENT#ef85e0a0-5a13-11ea-9bd1-1f7d2d435676,45,29,74,10,1.0,1.0,0
run-2020-2-28-10-20-25.625283002,AGENT#ef98e8e4-5a13-11ea-8554-577ed1c1019f,2,72,74,10,1.0,1.0,0
run-2020-2-28-10-20-25.625283002,AGENT#ef98edc6-5a13-11ea-9e26-33d615e625d4,2,72,74,10,1.0,1.0,0
run-2020-2-28-10-20-25.625283002,AGENT#ef996a94-5a13-11ea-b680-13781428bf8f,1,73,74,10,1.0,1.0,0
run-2020-2-28-10-20-25.625283002,AGENT#ef996dbe-5a13-11ea-b5af-a3e241618529,1,73,74,10,1.0,1.0,0
run-2020-2-28-10-20-25.625283002,AGENT#ef863b72-5a13-11ea-87ed-23a349198d87,45,30,75,10,1.0,1.0,0
run-2020-2-28-10-20-25.625283002,AGENT#ef863e7e-5a13-11ea-bdd2-db6f92c5e445,45,30,75,10,1.0,1.0,0
run-2020-2-28-10-20-25.625283002,AGENT#ef864432-5a13-11ea-8e6d-af7e79bb9cf9,45,30,75,10,1.0,1.0,0
run-2020-2-28-10-20-25.625283002,AGENT#ef864a0e-5a13-11ea-bc4c-57ec377b7c77,45,30,75,10,1.0,1.0,0
run-2020-2-28-10-20-25.625283002,AGENT#ef99681e-5a13-11ea-a8df-f7724d9c9dc8,2,73,75,10,1.0,1.0,0
run-2020-2-28-10-20-25.625283002,AGENT#ef997354-5a13-11ea-8bdd-7345490ee8be,2,73,75,10,1.0,1.0,0
run-2020-2-28-10-20-25.625283002,AGENT#ef99f2fc-5a13-11ea-91c4-13144811f4a6,1,74,75,10,1.0,1.0,0
run-2020-2-28-10-20-25.625283002,AGENT#ef986658-5a13-11ea-85d2-374a2fad7ff9,5,71,76,10,1.0,1.0,0
run-2020-2-28-10-20-25.625283002,AGENT#ef9970a2-5a13-11ea-a5dd-6f284399658d,3,73,76,10,1.0,1.0,0
run-2020-2-28-10-20-25.625283002,AGENT#ef9a7510-5a13-11ea-a9fc-27d4f0e92c1e,1,75,76,10,1.0,1.0,0
run-2020-2-28-10-20-25.625283002,AGENT#ef86ba7a-5a13-11ea-8c0b-0f218e2c1cf0,46,31,77,10,1.0,1.0,0
run-2020-2-28-10-20-25.625283002,AGENT#ef98f2b2-5a13-11ea-8295-c74590a44e9a,5,72,77,10,1.0,1.0,0
run-2020-2-28-10-20-25.625283002,AGENT#ef9a71dc-5a13-11ea-8fbd-7b0b2ecf9d69,2,75,77,10,1.0,1.0,0
run-2020-2-28-10-20-25.625283002,AGENT#ef9af170-5a13-11ea-8874-a32905e75b6e,1,76,77,10,1.0,1.0,0
run-2020-2-28-10-20-25.625283002,AGENT#ef871cc2-5a13-11ea-8d8a-ab824573f2a4,46,32,78,10,1.0,1.0,0
run-2020-2-28-10-20-25.625283002,AGENT#ef931e3c-5a13-11ea-80c8-77477c4c4046,18,60,78,10,1.0,1.0,0
run-2020-2-28-10-20-25.625283002,AGENT#ef99ed5c-5a13-11ea-a482-2bbafb20bf36,4,74,78,10,1.0,1.0,0
run-2020-2-28-10-20-25.625283002,AGENT#ef99f040-5a13-11ea-8ec5-3b7d64d5b462,4,74,78,10,1.0,1.0,0
run-2020-2-28-10-20-25.625283002,AGENT#ef9afbd4-5a13-11ea-b9ba-23558a9d3d03,2,76,78,10,1.0,1.0,0
run-2020-2-28-10-20-25.625283002,AGENT#ef9b760e-5a13-11ea-83da-a3e0f740ab77,1,77,78,10,1.0,1.0,0
run-2020-2-28-10-20-25.625283002,AGENT#ef863802-5a13-11ea-895a-73a64ee59d89,49,30,79,10,1.0,1.0,0
run-2020-2-28-10-20-25.625283002,AGENT#ef9bfad4-5a13-11ea-b4eb-9b5169e2606a,1,78,79,10,1.0,1.0,0
run-2020-2-28-10-20-25.625283002,AGENT#ef8722bc-5a13-11ea-bb15-734666f4042d,48,32,80,10,1.0,1.0,0
run-2020-2-28-10-20-25.625283002,AGENT#ef9af422-5a13-11ea-9abd-5bd5ecb5d0d9,4,76,80,10,1.0,1.0,0
run-2020-2-28-10-20-25.625283002,AGENT#ef9bf548-5a13-11ea-ad7f-07a88e92fa3d,2,78,80,10,1.0,1.0,0
run-2020-2-28-10-20-25.625283002,AGENT#ef9c8170-5a13-11ea-bde4-f35c29f8582f,2,79,81,10,1.0,1.0,0
run-2020-2-28-10-20-25.625283002,AGENT#ef9d0e42-5a13-11ea-a89b-bf9ce2a840da,1,80,81,10,1.0,1.0,0
run-2020-2-28-10-20-25.625283002,AGENT#ef9d1108-5a13-11ea-b794-27a5f46c0787,1,80,81,10,1.0,1.0,0
run-2020-2-28-10-20-25.625283002,AGENT#ef9b7334-5a13-11ea-a9eb-e39290a64ea2,5,77,82,10,1.0,1.0,0
run-2020-2-28-10-20-25.625283002,AGENT#ef9bffe8-5a13-11ea-8376-6b0273fd9cc2,4,78,82,10,1.0,1.0,0
run-2020-2-28-10-20-25.625283002,AGENT#ef88bcb2-5a13-11ea-81b9-0bb5731e64fa,47,36,83,10,1.0,1.0,0
run-2020-2-28-10-20-25.625283002,AGENT#ef9c8404-5a13-11ea-9339-5789cc178894,4,79,83,10,1.0,1.0,0
run-2020-2-28-10-20-25.625283002,AGENT#ef9e11c0-5a13-11ea-a3a3-cb84d5303c53,1,82,83,10,1.0,1.0,0
run-2020-2-28-10-20-25.625283002,AGENT#ef9e1490-5a13-11ea-ad30-2f7519ed0ab2,1,82,83,10,1.0,1.0,0
run-2020-2-28-10-20-25.625283002,AGENT#ef9e199a-5a13-11ea-8b90-5f4b3072dfee,1,82,83,10,1.0,1.0,0
run-2020-2-28-10-20-25.625283002,AGENT#ef916844-5a13-11ea-a8e9-1b6bd5d8caf3,28,56,84,10,1.0,1.0,0
run-2020-2-28-10-20-25.625283002,AGENT#ef9e1710-5a13-11ea-b1b2-af527ce60cff,2,82,84,10,1.0,1.0,0
run-2020-2-28-10-20-25.625283002,AGENT#ef9ea20c-5a13-11ea-83c7-bf4d103391f0,1,83,84,10,1.0,1.0,0
run-2020-2-28-10-20-25.625283002,AGENT#ef899038-5a13-11ea-bc2a-ab84546cf40a,47,38,85,10,1.0,1.0,0
run-2020-2-28-10-20-25.625283002,AGENT#ef8a77b4-5a13-11ea-9f2b-1fc2d1507617,45,40,85,10,1.0,1.0,0
run-2020-2-28-10-20-25.625283002,AGENT#ef9d925e-5a13-11ea-aa8f-5b699e7b5722,4,81,85,10,1.0,1.0,0
run-2020-2-28-10-20-25.625283002,AGENT#ef9d94fc-5a13-11ea-a689-c77b9535b493,4,81,85,10,1.0,1.0,0
run-2020-2-28-10-20-25.625283002,AGENT#ef9e9f32-5a13-11ea-8774-979dedb7bed4,2,83,85,10,1.0,1.0,0
run-2020-2-28-10-20-25.625283002,AGENT#ef9d8cbe-5a13-11ea-b20d-1376c49f1e29,6,81,87,10,1.0,1.0,0
run-2020-2-28-10-20-25.625283002,AGENT#ef9f25ba-5a13-11ea-97bc-07f3dff0dda2,3,84,87,10,1.0,1.0,0
run-2020-2-28-10-20-25.625283002,AGENT#efa03518-5a13-11ea-a044-a35748024ae0,1,86,87,10,1.0,1.0,0
run-2020-2-28-10-20-25.625283002,AGENT#efa037ac-5a13-11ea-8e27-8b312adc876c,1,86,87,10,1.0,1.0,0
run-2020-2-28-10-20-25.625283002,AGENT#ef9f29d4-5a13-11ea-9ebf-ebaf5a8cf04d,4,84,88,10,1.0,1.0,0
run-2020-2-28-10-20-25.625283002,AGENT#ef9faf80-5a13-11ea-a0a2-63be4efd4682,3,85,88,10,1.0,1.0,0
run-2020-2-28-10-20-25.625283002,AGENT#ef8ba418-5a13-11ea-99dc-93139afe23e3,46,43,89,10,1.0,1.0,0
run-2020-2-28-10-20-25.625283002,AGENT#ef9f20b0-5a13-11ea-bec0-fb83233f1ea9,5,84,89,10,1.0,1.0,0
run-2020-2-28-10-20-25.625283002,AGENT#ef9fac9c-5a13-11ea-b97f-ffd8ddfa0e7b,4,85,89,10,1.0,1.0,0
run-2020-2-28-10-20-25.625283002,AGENT#efa0cc30-5a13-11ea-93db-533e4af04e79,2,87,89,10,1.0,1.0,0
run-2020-2-28-10-20-25.625283002,AGENT#efa0d0cc-5a13-11ea-9274-1781e91fdb60,2,87,89,10,1.0,1.0,0
run-2020-2-28-10-20-25.625283002,AGENT#efa14f7a-5a13-11ea-b08c-6b175772a248,1,88,89,10,1.0,1.0,0
run-2020-2-28-10-20-25.625283002,AGENT#efa0c2d0-5a13-11ea-a5a5-071eb201d065,3,87,90,10,1.0,1.0,0
run-2020-2-28-10-20-25.625283002,AGENT#efa0c9ce-5a13-11ea-b4ae-7354476c2b79,3,87,90,10,1.0,1.0,0
run-2020-2-28-10-20-25.625283002,AGENT#efa15466-5a13-11ea-9974-97b0e35ba4f0,2,88,90,10,1.0,1.0,0
run-2020-2-28-10-20-25.625283002,AGENT#ef8ceb7a-5a13-11ea-b20f-e7d9c124cdfd,45,46,91,10,1.0,1.0,0
run-2020-2-28-10-20-25.625283002,AGENT#ef8cef30-5a13-11ea-94ac-eb296196b9a6,45,46,91,10,1.0,1.0,0
run-2020-2-28-10-20-25.625283002,AGENT#ef8f37e0-5a13-11ea-8440-236af33e6ec0,40,51,91,10,1.0,1.0,0
run-2020-2-28-10-20-25.625283002,AGENT#efa0c046-5a13-11ea-9145-e3cc0bb9c541,4,87,91,10,1.0,1.0,0
run-2020-2-28-10-20-25.625283002,AGENT#efa0c528-5a13-11ea-b2b1-f7e8763ea124,4,87,91,10,1.0,1.0,0
run-2020-2-28-10-20-25.625283002,AGENT#efa0c780-5a13-11ea-af44-4bab98a1eb8b,4,87,91,10,1.0,1.0,0
run-2020-2-28-10-20-25.625283002,AGENT#efa15204-5a13-11ea-9667-db5a2b4f80cf,3,88,91,10,1.0,1.0,0
run-2020-2-28-10-20-25.625283002,AGENT#ef8deba6-5a13-11ea-89ec-7bfe7ed78389,45,48,93,10,1.0,1.0,0
run-2020-2-28-10-20-25.625283002,AGENT#efa14cdc-5a13-11ea-9126-e766a159a2b6,5,88,93,10,1.0,1.0,0
run-2020-2-28-10-20-25.625283002,AGENT#efa300e0-5a13-11ea-91de-2b1e498cf5fa,2,91,93,10,1.0,1.0,0
run-2020-2-28-10-20-25.625283002,AGENT#ef8de8f4-5a13-11ea-a22b-f7b8d8c8b9d4,46,48,94,10,1.0,1.0,0
run-2020-2-28-10-20-25.625283002,AGENT#ef9d8fb6-5a13-11ea-985e-531ddcbf5aae,13,81,94,10,1.0,1.0,0
run-2020-2-28-10-20-25.625283002,AGENT#efa1e1ba-5a13-11ea-83cc-df85f0586109,5,89,94,10,1.0,1.0,0
run-2020-2-28-10-20-25.625283002,AGENT#efa2f528-5a13-11ea-b25c-c3a38502d1dd,3,91,94,10,1.0,1.0,0
run-2020-2-28-10-20-25.625283002,AGENT#ef94f108-5a13-11ea-9748-37cb9c196e10,31,64,95,10,1.0,1.0,0
run-2020-2-28-10-20-25.625283002,AGENT#efa2fc44-5a13-11ea-b39c-8b71001929a2,4,91,95,10,1.0,1.0,0
run-2020-2-28-10-20-25.625283002,AGENT#efa413ae-5a13-11ea-8cb7-e33ea58f9023,2,93,95,10,1.0,1.0,0
run-2020-2-28-10-20-25.625283002,AGENT#ef8cfa3e-5a13-11ea-b499-737407053ca8,50,46,96,10,1.0,1.0,0
run-2020-2-28-10-20-25.625283002,AGENT#ef8de656-5a13-11ea-9c4c-e71cf81e8ea8,48,48,96,10,1.0,1.0,0
run-2020-2-28-10-20-25.625283002,AGENT#ef9af95e-5a13-11ea-9f8e-8f4f40a2d04b,20,76,96,10,1.0,1.0,0
run-2020-2-28-10-20-25.625283002,AGENT#efa2fe92-5a13-11ea-a397-277ace5d3dbf,5,91,96,10,1.0,1.0,0
run-2020-2-28-10-20-25.625283002,AGENT#efa532ac-5a13-11ea-ae5f-87d141d4d16b,1,95,96,10,1.0,1.0,0
run-2020-2-28-10-20-25.625283002,AGENT#efa5378e-5a13-11ea-b3e3-2794f2b33a99,1,95,96,10,1.0,1.0,0
run-2020-2-28-10-20-25.625283002,AGENT#ef8f3272-5a13-11ea-891d-1b3dba889afd,46,51,97,10,1.0,1.0,0
run-2020-2-28-10-20-25.625283002,AGENT#ef8f3d08-5a13-11ea-939e-632be2e3bf35,46,51,97,10,1.0,1.0,0
run-2020-2-28-10-20-25.625283002,AGENT#ef8fafe0-5a13-11ea-93bd-e37085097fd9,45,52,97,10,1.0,1.0,0
run-2020-2-28-10-20-25.625283002,AGENT#ef91659c-5a13-11ea-8099-271671d9f943,41,56,97,10,1.0,1.0,0
run-2020-2-28-10-20-25.625283002,AGENT#efa382c2-5a13-11ea-b44b-ebc708982311,5,92,97,10,1.0,1.0,0
run-2020-2-28-10-20-25.625283002,AGENT#efa53522-5a13-11ea-87b4-9bc8bf4ca3d5,2,95,97,10,1.0,1.0,0
run-2020-2-28-10-20-25.625283002,AGENT#efa4161a-5a13-11ea-bbd9-8bbb6b450ab5,5,93,98,10,1.0,1.0,0
run-2020-2-28-10-20-25.625283002,AGENT#efa5c500-5a13-11ea-b5ed-73ed06370d09,2,96,98,10,1.0,1.0,0
run-2020-2-28-10-20-25.625283002,AGENT#efa5c9a6-5a13-11ea-b25d-6fce5e48e58b,2,96,98,10,1.0,1.0,0
run-2020-2-28-10-20-25.625283002,AGENT#efa66500-5a13-11ea-aa4e-eba056b27ccd,1,97,98,10,1.0,1.0,0
run-2020-2-28-10-20-25.625283002,AGENT#ef8fad24-5a13-11ea-a640-27e9da6a04c5,47,52,99,10,1.0,1.0,0
run-2020-2-28-10-20-25.625283002,AGENT#ef90880c-5a13-11ea-bc04-67110f58ecdd,45,54,99,10,1.0,1.0,0
run-2020-2-28-10-20-25.625283002,AGENT#ef908f96-5a13-11ea-8ce2-47d0d6451de1,45,54,99,10,1.0,1.0,0
run-2020-2-28-10-20-25.625283002,AGENT#efa5cbe0-5a13-11ea-9406-47d1d8f49d89,3,96,99,10,1.0,1.0,0
run-2020-2-28-10-20-25.625283002,AGENT#efa66a8c-5a13-11ea-802a-f3dda41ae9d1,2,97,99,10,1.0,1.0,0
run-2020-2-28-10-20-25.625283002,AGENT#efa6f650-5a13-11ea-9b20-bf0b19df9027,1,98,99,10,1.0,1.0,0
