RunID,Tick,ActiveAgentsPerTick
run-2020-2-29-9-27-17.440627098,0,13
run-2020-2-29-9-27-17.440627098,1,17
run-2020-2-29-9-27-17.440627098,2,17
run-2020-2-29-9-27-17.440627098,3,19
run-2020-2-29-9-27-17.440627098,4,23
run-2020-2-29-9-27-17.440627098,5,20
run-2020-2-29-9-27-17.440627098,6,16
run-2020-2-29-9-27-17.440627098,7,18
run-2020-2-29-9-27-17.440627098,8,24
run-2020-2-29-9-27-17.440627098,9,26
run-2020-2-29-9-27-17.440627098,10,26
run-2020-2-29-9-27-17.440627098,11,27
run-2020-2-29-9-27-17.440627098,12,30
run-2020-2-29-9-27-17.440627098,13,32
run-2020-2-29-9-27-17.440627098,14,31
run-2020-2-29-9-27-17.440627098,15,33
run-2020-2-29-9-27-17.440627098,16,39
run-2020-2-29-9-27-17.440627098,17,40
run-2020-2-29-9-27-17.440627098,18,38
run-2020-2-29-9-27-17.440627098,19,38
run-2020-2-29-9-27-17.440627098,20,41
run-2020-2-29-9-27-17.440627098,21,42
run-2020-2-29-9-27-17.440627098,22,46
run-2020-2-29-9-27-17.440627098,23,46
run-2020-2-29-9-27-17.440627098,24,50
run-2020-2-29-9-27-17.440627098,25,54
run-2020-2-29-9-27-17.440627098,26,53
run-2020-2-29-9-27-17.440627098,27,55
run-2020-2-29-9-27-17.440627098,28,53
run-2020-2-29-9-27-17.440627098,29,52
run-2020-2-29-9-27-17.440627098,30,52
run-2020-2-29-9-27-17.440627098,31,56
run-2020-2-29-9-27-17.440627098,32,59
run-2020-2-29-9-27-17.440627098,33,58
run-2020-2-29-9-27-17.440627098,34,60
run-2020-2-29-9-27-17.440627098,35,62
run-2020-2-29-9-27-17.440627098,36,62
run-2020-2-29-9-27-17.440627098,37,59
run-2020-2-29-9-27-17.440627098,38,58
run-2020-2-29-9-27-17.440627098,39,59
run-2020-2-29-9-27-17.440627098,40,60
run-2020-2-29-9-27-17.440627098,41,60
run-2020-2-29-9-27-17.440627098,42,62
run-2020-2-29-9-27-17.440627098,43,66
run-2020-2-29-9-27-17.440627098,44,69
run-2020-2-29-9-27-17.440627098,45,68
run-2020-2-29-9-27-17.440627098,46,69
run-2020-2-29-9-27-17.440627098,47,66
run-2020-2-29-9-27-17.440627098,48,60
run-2020-2-29-9-27-17.440627098,49,58
run-2020-2-29-9-27-17.440627098,50,59
run-2020-2-29-9-27-17.440627098,51,58
run-2020-2-29-9-27-17.440627098,52,58
run-2020-2-29-9-27-17.440627098,53,59
run-2020-2-29-9-27-17.440627098,54,61
run-2020-2-29-9-27-17.440627098,55,60
run-2020-2-29-9-27-17.440627098,56,57
run-2020-2-29-9-27-17.440627098,57,57
run-2020-2-29-9-27-17.440627098,58,53
run-2020-2-29-9-27-17.440627098,59,51
run-2020-2-29-9-27-17.440627098,60,52
run-2020-2-29-9-27-17.440627098,61,55
run-2020-2-29-9-27-17.440627098,62,59
run-2020-2-29-9-27-17.440627098,63,61
run-2020-2-29-9-27-17.440627098,64,59
run-2020-2-29-9-27-17.440627098,65,62
run-2020-2-29-9-27-17.440627098,66,61
run-2020-2-29-9-27-17.440627098,67,62
run-2020-2-29-9-27-17.440627098,68,65
run-2020-2-29-9-27-17.440627098,69,68
run-2020-2-29-9-27-17.440627098,70,69
run-2020-2-29-9-27-17.440627098,71,68
run-2020-2-29-9-27-17.440627098,72,67
run-2020-2-29-9-27-17.440627098,73,63
run-2020-2-29-9-27-17.440627098,74,63
run-2020-2-29-9-27-17.440627098,75,63
run-2020-2-29-9-27-17.440627098,76,62
run-2020-2-29-9-27-17.440627098,77,60
run-2020-2-29-9-27-17.440627098,78,64
run-2020-2-29-9-27-17.440627098,79,63
run-2020-2-29-9-27-17.440627098,80,62
run-2020-2-29-9-27-17.440627098,81,61
run-2020-2-29-9-27-17.440627098,82,58
run-2020-2-29-9-27-17.440627098,83,60
run-2020-2-29-9-27-17.440627098,84,58
run-2020-2-29-9-27-17.440627098,85,58
run-2020-2-29-9-27-17.440627098,86,58
run-2020-2-29-9-27-17.440627098,87,59
run-2020-2-29-9-27-17.440627098,88,60
run-2020-2-29-9-27-17.440627098,89,59
run-2020-2-29-9-27-17.440627098,90,57
run-2020-2-29-9-27-17.440627098,91,62
run-2020-2-29-9-27-17.440627098,92,65
run-2020-2-29-9-27-17.440627098,93,63
run-2020-2-29-9-27-17.440627098,94,68
run-2020-2-29-9-27-17.440627098,95,72
run-2020-2-29-9-27-17.440627098,96,72
run-2020-2-29-9-27-17.440627098,97,66
run-2020-2-29-9-27-17.440627098,98,68
run-2020-2-29-9-27-17.440627098,99,67
run-2020-2-29-9-27-17.440627098,100,60
