RunID,Agent,Age,Created,Inactive,Resources,Reputation,Ability,Que
run-2020-2-28-10-32-17.005812883,AGENT#978179da-5a15-11ea-9914-abf92b9b9185,0,0,0,10,1.0,1.0,0
run-2020-2-28-10-32-17.005812883,AGENT#97818c86-5a15-11ea-bca2-77e6aa0f0191,0,0,0,10,1.0,1.0,0
run-2020-2-28-10-32-17.005812883,AGENT#97817692-5a15-11ea-91c6-d71c9f612d90,1,0,1,10,1.0,1.0,0
run-2020-2-28-10-32-17.005812883,AGENT#97956e54-5a15-11ea-8e99-eb35a4ba72a4,1,2,3,10,1.0,1.0,0
run-2020-2-28-10-32-17.005812883,AGENT#97957796-5a15-11ea-8f5a-5b7ff23ec8ac,1,2,3,10,1.0,1.0,0
run-2020-2-28-10-32-17.005812883,AGENT#978172d2-5a15-11ea-b45c-d745b0911e40,4,0,4,10,1.0,1.0,0
run-2020-2-28-10-32-17.005812883,AGENT#9781834e-5a15-11ea-ba08-dba60c8f0079,4,0,4,10,1.0,1.0,0
run-2020-2-28-10-32-17.005812883,AGENT#9781865a-5a15-11ea-b256-b33eeb617d60,4,0,4,10,1.0,1.0,0
run-2020-2-28-10-32-17.005812883,AGENT#97818f88-5a15-11ea-b3d0-532079189a04,4,0,4,10,1.0,1.0,0
run-2020-2-28-10-32-17.005812883,AGENT#979574da-5a15-11ea-8510-630bbbb41433,2,2,4,10,1.0,1.0,0
run-2020-2-28-10-32-17.005812883,AGENT#979571d8-5a15-11ea-8907-5be6538e1996,3,2,5,10,1.0,1.0,0
run-2020-2-28-10-32-17.005812883,AGENT#978bfffe-5a15-11ea-9add-5b65ef19c78b,5,1,6,10,1.0,1.0,0
run-2020-2-28-10-32-17.005812883,AGENT#979f0e8c-5a15-11ea-8600-377bbd1d7dd5,3,3,6,10,1.0,1.0,0
run-2020-2-28-10-32-17.005812883,AGENT#97b33b82-5a15-11ea-9bed-935d4c1259bf,1,5,6,10,1.0,1.0,0
run-2020-2-28-10-32-17.005812883,AGENT#97957a70-5a15-11ea-98f5-b344718de81d,5,2,7,10,1.0,1.0,0
run-2020-2-28-10-32-17.005812883,AGENT#97b32eee-5a15-11ea-953e-efe1ead02e5b,3,5,8,10,1.0,1.0,0
run-2020-2-28-10-32-17.005812883,AGENT#97b33830-5a15-11ea-a818-2fbc4a820b7f,3,5,8,10,1.0,1.0,0
run-2020-2-28-10-32-17.005812883,AGENT#97e25408-5a15-11ea-ba6f-97809a115f33,2,6,8,10,1.0,1.0,0
run-2020-2-28-10-32-17.005812883,AGENT#980e033c-5a15-11ea-bb61-5bafa916b3bb,1,7,8,10,1.0,1.0,0
run-2020-2-28-10-32-17.005812883,AGENT#980e06f2-5a15-11ea-a6cd-0f8425057c79,2,7,9,10,1.0,1.0,0
run-2020-2-28-10-32-17.005812883,AGENT#980e09a4-5a15-11ea-b836-6fc7fa5469ef,2,7,9,10,1.0,1.0,0
run-2020-2-28-10-32-17.005812883,AGENT#98366dcc-5a15-11ea-a0eb-4b55d4c4c5ec,1,8,9,10,1.0,1.0,0
run-2020-2-28-10-32-17.005812883,AGENT#985af9da-5a15-11ea-9528-c32501473ea1,1,9,10,10,1.0,1.0,0
run-2020-2-28-10-32-17.005812883,AGENT#987bb3be-5a15-11ea-9634-07f7a66fb2f8,1,10,11,10,1.0,1.0,0
run-2020-2-28-10-32-17.005812883,AGENT#987bb634-5a15-11ea-9b63-afe83ff04864,1,10,11,10,1.0,1.0,0
run-2020-2-28-10-32-17.005812883,AGENT#983670e2-5a15-11ea-8a2f-03eba4c0c928,4,8,12,10,1.0,1.0,0
run-2020-2-28-10-32-17.005812883,AGENT#98abbf5a-5a15-11ea-8281-17f21846b086,1,11,12,10,1.0,1.0,0
run-2020-2-28-10-32-17.005812883,AGENT#98367376-5a15-11ea-99bd-bbaf9e4ae61a,5,8,13,10,1.0,1.0,0
run-2020-2-28-10-32-17.005812883,AGENT#987ba842-5a15-11ea-8582-f72f6b252d0d,3,10,13,10,1.0,1.0,0
run-2020-2-28-10-32-17.005812883,AGENT#987babbc-5a15-11ea-8ee8-c7226de35824,3,10,13,10,1.0,1.0,0
run-2020-2-28-10-32-17.005812883,AGENT#98abc52c-5a15-11ea-8d1d-f3ff6d5900aa,2,11,13,10,1.0,1.0,0
run-2020-2-28-10-32-17.005812883,AGENT#99039644-5a15-11ea-8b82-7b754ff36f85,1,13,14,10,1.0,1.0,0
run-2020-2-28-10-32-17.005812883,AGENT#99039356-5a15-11ea-b147-8bbcf90889b5,2,13,15,10,1.0,1.0,0
run-2020-2-28-10-32-17.005812883,AGENT#992a9cbc-5a15-11ea-85fb-b3c640282ac1,1,14,15,10,1.0,1.0,0
run-2020-2-28-10-32-17.005812883,AGENT#992a9442-5a15-11ea-bc50-bfe71a300c45,2,14,16,10,1.0,1.0,0
run-2020-2-28-10-32-17.005812883,AGENT#994e2146-5a15-11ea-9a0f-936bce6deb75,1,15,16,10,1.0,1.0,0
run-2020-2-28-10-32-17.005812883,AGENT#992a9744-5a15-11ea-ac47-6b5322427496,3,14,17,10,1.0,1.0,0
run-2020-2-28-10-32-17.005812883,AGENT#996ca986-5a15-11ea-848e-53dceb5d5a6d,1,16,17,10,1.0,1.0,0
run-2020-2-28-10-32-17.005812883,AGENT#996cac42-5a15-11ea-9040-af9780175aaf,1,16,17,10,1.0,1.0,0
run-2020-2-28-10-32-17.005812883,AGENT#999c0550-5a15-11ea-879c-ef81c8ff8ec3,1,17,18,10,1.0,1.0,0
run-2020-2-28-10-32-17.005812883,AGENT#999c083e-5a15-11ea-8ab5-8fa7ce45f601,1,17,18,10,1.0,1.0,0
run-2020-2-28-10-32-17.005812883,AGENT#987bb8a0-5a15-11ea-b4f8-270d58bf7a56,9,10,19,10,1.0,1.0,0
run-2020-2-28-10-32-17.005812883,AGENT#996cb4e4-5a15-11ea-adb1-e3cf1c8406e6,3,16,19,10,1.0,1.0,0
run-2020-2-28-10-32-17.005812883,AGENT#999c0aaa-5a15-11ea-a171-0fac96804bd2,3,17,20,10,1.0,1.0,0
run-2020-2-28-10-32-17.005812883,AGENT#99f915ec-5a15-11ea-b903-1fd4ab486bdf,1,19,20,10,1.0,1.0,0
run-2020-2-28-10-32-17.005812883,AGENT#996ca0b2-5a15-11ea-b83e-1f7a6d639ae4,5,16,21,10,1.0,1.0,0
run-2020-2-28-10-32-17.005812883,AGENT#99c99c54-5a15-11ea-bcb8-cbe3cef9109d,3,18,21,10,1.0,1.0,0
run-2020-2-28-10-32-17.005812883,AGENT#9a22baf0-5a15-11ea-b68c-8b543d3ddd4f,1,20,21,10,1.0,1.0,0
run-2020-2-28-10-32-17.005812883,AGENT#9a491cd6-5a15-11ea-a029-9b22f0b98a88,1,21,22,10,1.0,1.0,0
run-2020-2-28-10-32-17.005812883,AGENT#99c9a0f0-5a15-11ea-9924-cfccabd7e63a,5,18,23,10,1.0,1.0,0
run-2020-2-28-10-32-17.005812883,AGENT#9a22c3ba-5a15-11ea-9627-c387215ce348,4,20,24,10,1.0,1.0,0
run-2020-2-28-10-32-17.005812883,AGENT#9a4920a0-5a15-11ea-be85-0bb882e20d7e,3,21,24,10,1.0,1.0,0
run-2020-2-28-10-32-17.005812883,AGENT#9a4923b6-5a15-11ea-8061-db5b5dd9d522,5,21,26,10,1.0,1.0,0
run-2020-2-28-10-32-17.005812883,AGENT#9a69d3c2-5a15-11ea-8c42-afa85555a5c6,4,22,26,10,1.0,1.0,0
run-2020-2-28-10-32-17.005812883,AGENT#9a69d700-5a15-11ea-a7b9-c706957cb1e6,4,22,26,10,1.0,1.0,0
run-2020-2-28-10-32-17.005812883,AGENT#9aa1e398-5a15-11ea-b923-5b18a0ff4251,3,23,26,10,1.0,1.0,0
run-2020-2-28-10-32-17.005812883,AGENT#9adad37e-5a15-11ea-a3a5-570950185a1d,2,24,26,10,1.0,1.0,0
run-2020-2-28-10-32-17.005812883,AGENT#9b073b62-5a15-11ea-8dd9-2fa2d2182868,1,25,26,10,1.0,1.0,0
run-2020-2-28-10-32-17.005812883,AGENT#9aa1da24-5a15-11ea-a7d2-e3feb18a4c55,4,23,27,10,1.0,1.0,0
run-2020-2-28-10-32-17.005812883,AGENT#9adad82e-5a15-11ea-8d20-aff8ca331c34,3,24,27,10,1.0,1.0,0
run-2020-2-28-10-32-17.005812883,AGENT#9aa1e0aa-5a15-11ea-8aac-5b0e0e0d6d45,5,23,28,10,1.0,1.0,0
run-2020-2-28-10-32-17.005812883,AGENT#9aa1ed48-5a15-11ea-92b9-bb3738d48900,5,23,28,10,1.0,1.0,0
run-2020-2-28-10-32-17.005812883,AGENT#9b073220-5a15-11ea-8614-8b2a03bfdbf2,3,25,28,10,1.0,1.0,0
run-2020-2-28-10-32-17.005812883,AGENT#9b073888-5a15-11ea-9b1f-2b27e9d164b7,3,25,28,10,1.0,1.0,0
run-2020-2-28-10-32-17.005812883,AGENT#9b32325e-5a15-11ea-888c-93ebf0c42557,2,26,28,10,1.0,1.0,0
run-2020-2-28-10-32-17.005812883,AGENT#9b5bb6ec-5a15-11ea-8a34-e7dfc5eea286,1,27,28,10,1.0,1.0,0
run-2020-2-28-10-32-17.005812883,AGENT#9b073522-5a15-11ea-9726-d316933ed16b,4,25,29,10,1.0,1.0,0
run-2020-2-28-10-32-17.005812883,AGENT#9b85c284-5a15-11ea-a2c8-ef678c3ccc07,1,28,29,10,1.0,1.0,0
run-2020-2-28-10-32-17.005812883,AGENT#9b85d2d8-5a15-11ea-8706-3b52a2a87c29,1,28,29,10,1.0,1.0,0
run-2020-2-28-10-32-17.005812883,AGENT#9b072e92-5a15-11ea-8475-2b23cc4c7f29,5,25,30,10,1.0,1.0,0
run-2020-2-28-10-32-17.005812883,AGENT#9b85be2e-5a15-11ea-9905-873274edd7d4,2,28,30,10,1.0,1.0,0
run-2020-2-28-10-32-17.005812883,AGENT#9bf3aff6-5a15-11ea-8179-ab03528f7ccd,2,30,32,10,1.0,1.0,0
run-2020-2-28-10-32-17.005812883,AGENT#9c20f0a6-5a15-11ea-9283-7b58965ee6cb,1,31,32,10,1.0,1.0,0
run-2020-2-28-10-32-17.005812883,AGENT#9c20f9f2-5a15-11ea-958e-23ad28eea446,1,31,32,10,1.0,1.0,0
run-2020-2-28-10-32-17.005812883,AGENT#999c0f96-5a15-11ea-879d-a31a7f12c1e6,16,17,33,10,1.0,1.0,0
run-2020-2-28-10-32-17.005812883,AGENT#9b85c5e0-5a15-11ea-9bd4-070379917d93,5,28,33,10,1.0,1.0,0
run-2020-2-28-10-32-17.005812883,AGENT#9bc036da-5a15-11ea-975a-675e9bf76880,4,29,33,10,1.0,1.0,0
run-2020-2-28-10-32-17.005812883,AGENT#9bf3ac72-5a15-11ea-8e6d-9fcf2f9d0a36,3,30,33,10,1.0,1.0,0
run-2020-2-28-10-32-17.005812883,AGENT#996cb106-5a15-11ea-9761-7b0699391f25,18,16,34,10,1.0,1.0,0
run-2020-2-28-10-32-17.005812883,AGENT#9bf3a8a8-5a15-11ea-bdbd-3ff772886ea7,4,30,34,10,1.0,1.0,0
run-2020-2-28-10-32-17.005812883,AGENT#9c20ea02-5a15-11ea-a036-571c852b38b6,3,31,34,10,1.0,1.0,0
run-2020-2-28-10-32-17.005812883,AGENT#9c73189a-5a15-11ea-914b-174bd5dad335,1,33,34,10,1.0,1.0,0
run-2020-2-28-10-32-17.005812883,AGENT#9bf3b32a-5a15-11ea-88fb-0b687f0f41f1,5,30,35,10,1.0,1.0,0
run-2020-2-28-10-32-17.005812883,AGENT#9c20ed4a-5a15-11ea-92bd-ef1b1a852c03,4,31,35,10,1.0,1.0,0
run-2020-2-28-10-32-17.005812883,AGENT#9c964b62-5a15-11ea-acf9-ef717a640a09,1,34,35,10,1.0,1.0,0
run-2020-2-28-10-32-17.005812883,AGENT#9c20f3da-5a15-11ea-978a-d372d2643296,5,31,36,10,1.0,1.0,0
run-2020-2-28-10-32-17.005812883,AGENT#9c731bec-5a15-11ea-8fb8-eb9df891f2fc,3,33,36,10,1.0,1.0,0
run-2020-2-28-10-32-17.005812883,AGENT#9c964e50-5a15-11ea-91fb-3748e8a2cc2e,3,34,37,10,1.0,1.0,0
run-2020-2-28-10-32-17.005812883,AGENT#9ce4fc3a-5a15-11ea-b254-0b12d4622824,1,36,37,10,1.0,1.0,0
run-2020-2-28-10-32-17.005812883,AGENT#9ce5023e-5a15-11ea-8f1b-3fcdcbb1e381,1,36,37,10,1.0,1.0,0
run-2020-2-28-10-32-17.005812883,AGENT#97818984-5a15-11ea-80ac-7b16586418d7,38,0,38,10,1.0,1.0,0
run-2020-2-28-10-32-17.005812883,AGENT#9c731476-5a15-11ea-9256-3b1ec25e18b2,5,33,38,10,1.0,1.0,0
run-2020-2-28-10-32-17.005812883,AGENT#9c9647ac-5a15-11ea-a3ed-67477480dfbb,4,34,38,10,1.0,1.0,0
run-2020-2-28-10-32-17.005812883,AGENT#9ce4ff64-5a15-11ea-bb6d-1b051a48f0e5,2,36,38,10,1.0,1.0,0
run-2020-2-28-10-32-17.005812883,AGENT#9d127c1e-5a15-11ea-a91b-bbf5b50f7797,1,37,38,10,1.0,1.0,0
run-2020-2-28-10-32-17.005812883,AGENT#9d128dbc-5a15-11ea-9e5e-7bf373bb2ef5,2,37,39,10,1.0,1.0,0
run-2020-2-28-10-32-17.005812883,AGENT#9d3c5e26-5a15-11ea-b8ef-73d69796e006,1,38,39,10,1.0,1.0,0
run-2020-2-28-10-32-17.005812883,AGENT#9d1281a0-5a15-11ea-95f5-67c8259995fd,3,37,40,10,1.0,1.0,0
run-2020-2-28-10-32-17.005812883,AGENT#9d3c643e-5a15-11ea-bee1-7f1d1550c774,2,38,40,10,1.0,1.0,0
run-2020-2-28-10-32-17.005812883,AGENT#987bae78-5a15-11ea-8d54-0b9c11592f4e,31,10,41,10,1.0,1.0,0
run-2020-2-28-10-32-17.005812883,AGENT#9d128ad8-5a15-11ea-96a9-0f48b23f476d,5,37,42,10,1.0,1.0,0
run-2020-2-28-10-32-17.005812883,AGENT#9d3c6164-5a15-11ea-9dc8-a78a81a53724,4,38,42,10,1.0,1.0,0
run-2020-2-28-10-32-17.005812883,AGENT#9d877e92-5a15-11ea-af5d-a7a80f286706,2,40,42,10,1.0,1.0,0
run-2020-2-28-10-32-17.005812883,AGENT#9d8783ce-5a15-11ea-b449-4b683c0fa835,2,40,42,10,1.0,1.0,0
run-2020-2-28-10-32-17.005812883,AGENT#9d62b710-5a15-11ea-b4c1-8f4fc850ba9c,4,39,43,10,1.0,1.0,0
run-2020-2-28-10-32-17.005812883,AGENT#9d877be0-5a15-11ea-b226-c33b0e1d4ccc,3,40,43,10,1.0,1.0,0
run-2020-2-28-10-32-17.005812883,AGENT#9d878144-5a15-11ea-9c10-63facad4f01c,4,40,44,10,1.0,1.0,0
run-2020-2-28-10-32-17.005812883,AGENT#9df2eb64-5a15-11ea-b432-5f87656d2840,1,43,44,10,1.0,1.0,0
run-2020-2-28-10-32-17.005812883,AGENT#9df2e59c-5a15-11ea-8fe6-cb2271482ba6,2,43,45,10,1.0,1.0,0
run-2020-2-28-10-32-17.005812883,AGENT#9df2e8da-5a15-11ea-8780-f7521e34339b,2,43,45,10,1.0,1.0,0
run-2020-2-28-10-32-17.005812883,AGENT#97817d04-5a15-11ea-b118-d34d47864b40,46,0,46,10,1.0,1.0,0
run-2020-2-28-10-32-17.005812883,AGENT#9dc712e6-5a15-11ea-bd4e-53e4a9bdf2d2,4,42,46,10,1.0,1.0,0
run-2020-2-28-10-32-17.005812883,AGENT#9e1dd482-5a15-11ea-9106-cf9041f5f796,2,44,46,10,1.0,1.0,0
run-2020-2-28-10-32-17.005812883,AGENT#9e1dd73e-5a15-11ea-b3f5-a76af3830d4a,2,44,46,10,1.0,1.0,0
run-2020-2-28-10-32-17.005812883,AGENT#9e1ddc7a-5a15-11ea-b237-e75d912fa42e,2,44,46,10,1.0,1.0,0
run-2020-2-28-10-32-17.005812883,AGENT#9e4543d2-5a15-11ea-ba5e-9b85a6e6e5f6,1,45,46,10,1.0,1.0,0
run-2020-2-28-10-32-17.005812883,AGENT#9e454f76-5a15-11ea-92a8-039594e24475,1,45,46,10,1.0,1.0,0
run-2020-2-28-10-32-17.005812883,AGENT#9e1dd11c-5a15-11ea-a4ea-c7203aa4998b,3,44,47,10,1.0,1.0,0
run-2020-2-28-10-32-17.005812883,AGENT#9e6c329e-5a15-11ea-b7bf-17b1bc21eba9,1,46,47,10,1.0,1.0,0
run-2020-2-28-10-32-17.005812883,AGENT#97818042-5a15-11ea-96b0-0b6e499bcd4b,48,0,48,10,1.0,1.0,0
run-2020-2-28-10-32-17.005812883,AGENT#978c03b4-5a15-11ea-bf83-1786b7e37cc4,47,1,48,10,1.0,1.0,0
run-2020-2-28-10-32-17.005812883,AGENT#9e455214-5a15-11ea-ab65-cfd9bef1b3ce,3,45,48,10,1.0,1.0,0
run-2020-2-28-10-32-17.005812883,AGENT#9e6c353c-5a15-11ea-afcd-536674efe579,2,46,48,10,1.0,1.0,0
run-2020-2-28-10-32-17.005812883,AGENT#97a8e704-5a15-11ea-b328-87f74422cb91,45,4,49,10,1.0,1.0,0
run-2020-2-28-10-32-17.005812883,AGENT#996cb886-5a15-11ea-a2f9-4f52c814186d,33,16,49,10,1.0,1.0,0
run-2020-2-28-10-32-17.005812883,AGENT#9e1ddefa-5a15-11ea-94f3-07b4aa07e06a,5,44,49,10,1.0,1.0,0
run-2020-2-28-10-32-17.005812883,AGENT#9e454cba-5a15-11ea-8866-530951432e34,4,45,49,10,1.0,1.0,0
run-2020-2-28-10-32-17.005812883,AGENT#9e8e56da-5a15-11ea-8265-1f6bc78bb980,2,47,49,10,1.0,1.0,0
run-2020-2-28-10-32-17.005812883,AGENT#9e8e59a0-5a15-11ea-a2f4-279d2bf261e4,2,47,49,10,1.0,1.0,0
run-2020-2-28-10-32-17.005812883,AGENT#979f0b58-5a15-11ea-8cf3-b712e847b3bd,47,3,50,10,1.0,1.0,0
run-2020-2-28-10-32-17.005812883,AGENT#97b3339e-5a15-11ea-85d6-a36fc58a4fee,45,5,50,10,1.0,1.0,0
run-2020-2-28-10-32-17.005812883,AGENT#9e45472e-5a15-11ea-8c50-17c1351adbe4,5,45,50,10,1.0,1.0,0
run-2020-2-28-10-32-17.005812883,AGENT#9e8e5c3e-5a15-11ea-9ae3-37ba88f423cd,3,47,50,10,1.0,1.0,0
run-2020-2-28-10-32-17.005812883,AGENT#97b33eb6-5a15-11ea-9832-a7e40854a72a,46,5,51,10,1.0,1.0,0
run-2020-2-28-10-32-17.005812883,AGENT#97e24b2a-5a15-11ea-b4bf-07580227de11,45,6,51,10,1.0,1.0,0
run-2020-2-28-10-32-17.005812883,AGENT#97e25142-5a15-11ea-8f24-8bff8ab83762,45,6,51,10,1.0,1.0,0
run-2020-2-28-10-32-17.005812883,AGENT#9ef633e0-5a15-11ea-8727-b7e8fbdc11ce,1,50,51,10,1.0,1.0,0
run-2020-2-28-10-32-17.005812883,AGENT#9e8e5388-5a15-11ea-a947-4f25cee5f62e,5,47,52,10,1.0,1.0,0
run-2020-2-28-10-32-17.005812883,AGENT#9eadb37c-5a15-11ea-997f-b702a1c22418,4,48,52,10,1.0,1.0,0
run-2020-2-28-10-32-17.005812883,AGENT#97e24e86-5a15-11ea-bfd1-9f9fdd742692,47,6,53,10,1.0,1.0,0
run-2020-2-28-10-32-17.005812883,AGENT#9f228e2c-5a15-11ea-80be-9f2a52cc4fdf,2,51,53,10,1.0,1.0,0
run-2020-2-28-10-32-17.005812883,AGENT#9f50fe24-5a15-11ea-92cb-d34daa6696f5,1,52,53,10,1.0,1.0,0
run-2020-2-28-10-32-17.005812883,AGENT#9eca6850-5a15-11ea-9f5f-aff70af6aa77,5,49,54,10,1.0,1.0,0
run-2020-2-28-10-32-17.005812883,AGENT#9f228508-5a15-11ea-8121-cf0b751a7a3f,3,51,54,10,1.0,1.0,0
run-2020-2-28-10-32-17.005812883,AGENT#9f781d4c-5a15-11ea-ace4-cf6969f0ddb6,1,53,54,10,1.0,1.0,0
run-2020-2-28-10-32-17.005812883,AGENT#9ef639ee-5a15-11ea-942f-73078589ddf7,5,50,55,10,1.0,1.0,0
run-2020-2-28-10-32-17.005812883,AGENT#9f51045a-5a15-11ea-8209-832f64cf2528,3,52,55,10,1.0,1.0,0
run-2020-2-28-10-32-17.005812883,AGENT#9f781644-5a15-11ea-bdfe-2ff5f595b8bb,2,53,55,10,1.0,1.0,0
run-2020-2-28-10-32-17.005812883,AGENT#9f7822ba-5a15-11ea-9c0e-ab2b67847e74,2,53,55,10,1.0,1.0,0
run-2020-2-28-10-32-17.005812883,AGENT#9f782b98-5a15-11ea-96b4-0b12353896ca,2,53,55,10,1.0,1.0,0
run-2020-2-28-10-32-17.005812883,AGENT#987bb116-5a15-11ea-8303-e79ae5a2f886,46,10,56,10,1.0,1.0,0
run-2020-2-28-10-32-17.005812883,AGENT#98abc2ac-5a15-11ea-beee-abeab6bc9c4b,45,11,56,10,1.0,1.0,0
run-2020-2-28-10-32-17.005812883,AGENT#9f22914c-5a15-11ea-8d6e-5b7e0027bd60,5,51,56,10,1.0,1.0,0
run-2020-2-28-10-32-17.005812883,AGENT#9f510c48-5a15-11ea-9ed8-9ba7aa30cee1,4,52,56,10,1.0,1.0,0
run-2020-2-28-10-32-17.005812883,AGENT#9f782756-5a15-11ea-9f87-0751040e4805,3,53,56,10,1.0,1.0,0
run-2020-2-28-10-32-17.005812883,AGENT#9f510176-5a15-11ea-8b78-031e9185b0cd,5,52,57,10,1.0,1.0,0
run-2020-2-28-10-32-17.005812883,AGENT#9f5109a0-5a15-11ea-bc8c-674b48a22a8c,5,52,57,10,1.0,1.0,0
run-2020-2-28-10-32-17.005812883,AGENT#9f9ebe70-5a15-11ea-b2de-afdbe3196528,3,54,57,10,1.0,1.0,0
run-2020-2-28-10-32-17.005812883,AGENT#9fe4efd0-5a15-11ea-b489-cbb5f202f226,1,56,57,10,1.0,1.0,0
run-2020-2-28-10-32-17.005812883,AGENT#9fe500ec-5a15-11ea-a56f-6fc675647265,1,56,57,10,1.0,1.0,0
run-2020-2-28-10-32-17.005812883,AGENT#9f7812d4-5a15-11ea-9619-47709007ff1d,5,53,58,10,1.0,1.0,0
run-2020-2-28-10-32-17.005812883,AGENT#9fc2b0dc-5a15-11ea-b74f-4b5debf959f3,3,55,58,10,1.0,1.0,0
run-2020-2-28-10-32-17.005812883,AGENT#9fc2b6fe-5a15-11ea-8b2b-1be42a59e0cd,3,55,58,10,1.0,1.0,0
run-2020-2-28-10-32-17.005812883,AGENT#9fe4f606-5a15-11ea-b61d-63d01da517d7,2,56,58,10,1.0,1.0,0
run-2020-2-28-10-32-17.005812883,AGENT#a01ee2ee-5a15-11ea-9504-b70441424cd3,1,57,58,10,1.0,1.0,0
run-2020-2-28-10-32-17.005812883,AGENT#992a99e2-5a15-11ea-9c8f-3b69740d5c0e,45,14,59,10,1.0,1.0,0
run-2020-2-28-10-32-17.005812883,AGENT#9f9ebb46-5a15-11ea-8db2-2361bfd6c757,5,54,59,10,1.0,1.0,0
run-2020-2-28-10-32-17.005812883,AGENT#a01eed8e-5a15-11ea-b2c4-f30eae6dfad9,2,57,59,10,1.0,1.0,0
run-2020-2-28-10-32-17.005812883,AGENT#a0548e1c-5a15-11ea-b355-17555c5d987d,1,58,59,10,1.0,1.0,0
run-2020-2-28-10-32-17.005812883,AGENT#a0549420-5a15-11ea-a146-03a7f2333397,1,58,59,10,1.0,1.0,0
run-2020-2-28-10-32-17.005812883,AGENT#9ef6373c-5a15-11ea-ad7b-9774b9450dd6,10,50,60,10,1.0,1.0,0
run-2020-2-28-10-32-17.005812883,AGENT#9fe4eaf8-5a15-11ea-82d0-83cfdda2fa99,4,56,60,10,1.0,1.0,0
run-2020-2-28-10-32-17.005812883,AGENT#a01ee62c-5a15-11ea-8b96-1fbe55317479,3,57,60,10,1.0,1.0,0
run-2020-2-28-10-32-17.005812883,AGENT#a0547d82-5a15-11ea-946b-0b53e6415eb5,2,58,60,10,1.0,1.0,0
run-2020-2-28-10-32-17.005812883,AGENT#a0548192-5a15-11ea-b8b0-cb33cb703f20,2,58,60,10,1.0,1.0,0
run-2020-2-28-10-32-17.005812883,AGENT#a0548502-5a15-11ea-8627-1b1a0908ab2b,2,58,60,10,1.0,1.0,0
run-2020-2-28-10-32-17.005812883,AGENT#a0548b2e-5a15-11ea-b8ef-bf44c21efe1c,2,58,60,10,1.0,1.0,0
run-2020-2-28-10-32-17.005812883,AGENT#a054913c-5a15-11ea-96cc-c34ebd6ff7c8,2,58,60,10,1.0,1.0,0
run-2020-2-28-10-32-17.005812883,AGENT#996ca5ee-5a15-11ea-b1e2-b72ada156ee8,45,16,61,10,1.0,1.0,0
run-2020-2-28-10-32-17.005812883,AGENT#9fe4fb4c-5a15-11ea-95dc-331ff65dc100,5,56,61,10,1.0,1.0,0
run-2020-2-28-10-32-17.005812883,AGENT#994e1dd6-5a15-11ea-b2ca-5359d5298319,47,15,62,10,1.0,1.0,0
run-2020-2-28-10-32-17.005812883,AGENT#999c0d02-5a15-11ea-a9ab-bb248b1c94d4,45,17,62,10,1.0,1.0,0
run-2020-2-28-10-32-17.005812883,AGENT#999c1202-5a15-11ea-9f84-9756a7dede88,45,17,62,10,1.0,1.0,0
run-2020-2-28-10-32-17.005812883,AGENT#a01ee96a-5a15-11ea-bc34-bf76d6b1bcfe,5,57,62,10,1.0,1.0,0
run-2020-2-28-10-32-17.005812883,AGENT#a0ad5b28-5a15-11ea-87e2-8fb9945baa48,2,60,62,10,1.0,1.0,0
run-2020-2-28-10-32-17.005812883,AGENT#a0ad651e-5a15-11ea-8736-8bca5a6ccb46,2,60,62,10,1.0,1.0,0
run-2020-2-28-10-32-17.005812883,AGENT#a0ad70ea-5a15-11ea-b385-27cb2f5fd37f,2,60,62,10,1.0,1.0,0
run-2020-2-28-10-32-17.005812883,AGENT#9f510702-5a15-11ea-a6ce-9fb16e44e4d4,11,52,63,10,1.0,1.0,0
run-2020-2-28-10-32-17.005812883,AGENT#a054882c-5a15-11ea-9349-2b8645261442,5,58,63,10,1.0,1.0,0
run-2020-2-28-10-32-17.005812883,AGENT#a0ad6172-5a15-11ea-8470-eb5df819e7b2,3,60,63,10,1.0,1.0,0
run-2020-2-28-10-32-17.005812883,AGENT#a0d4ec1a-5a15-11ea-b6a5-6b983bda3915,2,61,63,10,1.0,1.0,0
run-2020-2-28-10-32-17.005812883,AGENT#a0fac426-5a15-11ea-88b7-a3f664092510,1,62,63,10,1.0,1.0,0
run-2020-2-28-10-32-17.005812883,AGENT#a0face58-5a15-11ea-91aa-97f9b74013fd,1,62,63,10,1.0,1.0,0
run-2020-2-28-10-32-17.005812883,AGENT#9f2289cc-5a15-11ea-90ca-bf4842d06e30,13,51,64,10,1.0,1.0,0
run-2020-2-28-10-32-17.005812883,AGENT#a0ad5772-5a15-11ea-bbd9-e7f677924497,4,60,64,10,1.0,1.0,0
run-2020-2-28-10-32-17.005812883,AGENT#a0ad6b2c-5a15-11ea-ae50-2f91459d6e62,4,60,64,10,1.0,1.0,0
run-2020-2-28-10-32-17.005812883,AGENT#a0fabfb2-5a15-11ea-b73f-97283918dc52,2,62,64,10,1.0,1.0,0
run-2020-2-28-10-32-17.005812883,AGENT#a0fac7b4-5a15-11ea-96f4-931cb1c1af07,2,62,64,10,1.0,1.0,0
run-2020-2-28-10-32-17.005812883,AGENT#a11fc1a4-5a15-11ea-88e7-cb961f5db903,1,63,64,10,1.0,1.0,0
run-2020-2-28-10-32-17.005812883,AGENT#99c996fa-5a15-11ea-b6ea-db7a865c41eb,47,18,65,10,1.0,1.0,0
run-2020-2-28-10-32-17.005812883,AGENT#99f91272-5a15-11ea-9e7b-eb12abfb8b74,46,19,65,10,1.0,1.0,0
run-2020-2-28-10-32-17.005812883,AGENT#a0facb38-5a15-11ea-879e-7762c91d21a5,3,62,65,10,1.0,1.0,0
run-2020-2-28-10-32-17.005812883,AGENT#a1538818-5a15-11ea-a0ce-4b023c38bbf8,1,64,65,10,1.0,1.0,0
run-2020-2-28-10-32-17.005812883,AGENT#a1538b24-5a15-11ea-9f8f-3be39d33bd98,1,64,65,10,1.0,1.0,0
run-2020-2-28-10-32-17.005812883,AGENT#a0fad178-5a15-11ea-9204-631d049157db,4,62,66,10,1.0,1.0,0
run-2020-2-28-10-32-17.005812883,AGENT#a11fbc22-5a15-11ea-a791-8fbd24c0f23e,3,63,66,10,1.0,1.0,0
run-2020-2-28-10-32-17.005812883,AGENT#a15390ba-5a15-11ea-9111-9b185aa6a9c0,2,64,66,10,1.0,1.0,0
run-2020-2-28-10-32-17.005812883,AGENT#9a22bfb4-5a15-11ea-9b83-cbbb47c1637a,47,20,67,10,1.0,1.0,0
run-2020-2-28-10-32-17.005812883,AGENT#a11fcbea-5a15-11ea-885b-5fed33d3ebd6,4,63,67,10,1.0,1.0,0
run-2020-2-28-10-32-17.005812883,AGENT#a1808840-5a15-11ea-9d05-dbf4aea0ff32,2,65,67,10,1.0,1.0,0
run-2020-2-28-10-32-17.005812883,AGENT#a11fc730-5a15-11ea-a57a-6bf5e2365a07,5,63,68,10,1.0,1.0,0
run-2020-2-28-10-32-17.005812883,AGENT#a1a9572a-5a15-11ea-be5f-2f046f419a1a,2,66,68,10,1.0,1.0,0
run-2020-2-28-10-32-17.005812883,AGENT#a1a961b6-5a15-11ea-87af-83a39a732938,2,66,68,10,1.0,1.0,0
run-2020-2-28-10-32-17.005812883,AGENT#a1cea4da-5a15-11ea-8e62-7fae6a0c173e,1,67,68,10,1.0,1.0,0
run-2020-2-28-10-32-17.005812883,AGENT#a1cea750-5a15-11ea-a0cf-178d979e3ab3,1,67,68,10,1.0,1.0,0
run-2020-2-28-10-32-17.005812883,AGENT#a15384d0-5a15-11ea-abf9-fb1a8898e13b,5,64,69,10,1.0,1.0,0
run-2020-2-28-10-32-17.005812883,AGENT#a1a95c98-5a15-11ea-9093-17e340c22fc7,3,66,69,10,1.0,1.0,0
run-2020-2-28-10-32-17.005812883,AGENT#a1ce9d46-5a15-11ea-a09a-7b79a40168a0,2,67,69,10,1.0,1.0,0
run-2020-2-28-10-32-17.005812883,AGENT#a1f289a4-5a15-11ea-aa20-3ff560ce1f1a,1,68,69,10,1.0,1.0,0
run-2020-2-28-10-32-17.005812883,AGENT#a1f29c1e-5a15-11ea-b5d6-1fe98f710f10,1,68,69,10,1.0,1.0,0
run-2020-2-28-10-32-17.005812883,AGENT#9aa1ddb2-5a15-11ea-be31-c76afd91e93a,47,23,70,10,1.0,1.0,0
run-2020-2-28-10-32-17.005812883,AGENT#a18084c6-5a15-11ea-821f-b30fe93f2803,5,65,70,10,1.0,1.0,0
run-2020-2-28-10-32-17.005812883,AGENT#a1a953a6-5a15-11ea-85e8-f3be838dffc4,4,66,70,10,1.0,1.0,0
run-2020-2-28-10-32-17.005812883,AGENT#a1a9642c-5a15-11ea-878a-f7e7bc68bd86,4,66,70,10,1.0,1.0,0
run-2020-2-28-10-32-17.005812883,AGENT#a2138a14-5a15-11ea-85b0-4bddc1afa825,1,69,70,10,1.0,1.0,0
run-2020-2-28-10-32-17.005812883,AGENT#a1cea264-5a15-11ea-acdf-9722d009036d,4,67,71,10,1.0,1.0,0
run-2020-2-28-10-32-17.005812883,AGENT#a1f284b8-5a15-11ea-b6ad-2720eaf3cccc,3,68,71,10,1.0,1.0,0
run-2020-2-28-10-32-17.005812883,AGENT#a1f292fa-5a15-11ea-b05f-b3e212dd5d0c,4,68,72,10,1.0,1.0,0
run-2020-2-28-10-32-17.005812883,AGENT#9b5bb372-5a15-11ea-9dde-2fee55caf9ec,46,27,73,10,1.0,1.0,0
run-2020-2-28-10-32-17.005812883,AGENT#9cb58590-5a15-11ea-9fce-63916c9c4205,38,35,73,10,1.0,1.0,0
run-2020-2-28-10-32-17.005812883,AGENT#a01eda92-5a15-11ea-8961-1bbe03126d64,16,57,73,10,1.0,1.0,0
run-2020-2-28-10-32-17.005812883,AGENT#a1ce9a9e-5a15-11ea-b9d3-b319b02660fc,6,67,73,10,1.0,1.0,0
run-2020-2-28-10-32-17.005812883,AGENT#a213835c-5a15-11ea-ab50-9f95982e7f9c,4,69,73,10,1.0,1.0,0
run-2020-2-28-10-32-17.005812883,AGENT#a2885498-5a15-11ea-953e-67b976ebfaad,1,72,73,10,1.0,1.0,0
run-2020-2-28-10-32-17.005812883,AGENT#9b85cd9c-5a15-11ea-b0c5-f7b37e0b3d47,46,28,74,10,1.0,1.0,0
run-2020-2-28-10-32-17.005812883,AGENT#a230329a-5a15-11ea-ac6e-83f884d78e2f,4,70,74,10,1.0,1.0,0
run-2020-2-28-10-32-17.005812883,AGENT#a28857d6-5a15-11ea-8200-87b4d14435dd,2,72,74,10,1.0,1.0,0
run-2020-2-28-10-32-17.005812883,AGENT#a2afea4e-5a15-11ea-b200-7bc7c796c047,1,73,74,10,1.0,1.0,0
run-2020-2-28-10-32-17.005812883,AGENT#9f9eb862-5a15-11ea-9e9f-4725aaaea07b,21,54,75,10,1.0,1.0,0
run-2020-2-28-10-32-17.005812883,AGENT#9f9ec12c-5a15-11ea-813d-87ef37f11344,21,54,75,10,1.0,1.0,0
run-2020-2-28-10-32-17.005812883,AGENT#a2885a74-5a15-11ea-a305-3769b9d17b84,3,72,75,10,1.0,1.0,0
run-2020-2-28-10-32-17.005812883,AGENT#a2d38ad0-5a15-11ea-82e4-9bbc044714a3,1,74,75,10,1.0,1.0,0
run-2020-2-28-10-32-17.005812883,AGENT#a25c4da8-5a15-11ea-a8b7-a79cd535c4b6,5,71,76,10,1.0,1.0,0
run-2020-2-28-10-32-17.005812883,AGENT#a2f60e5c-5a15-11ea-b18c-cfbf733753eb,1,75,76,10,1.0,1.0,0
run-2020-2-28-10-32-17.005812883,AGENT#9e6c2f74-5a15-11ea-9603-1f6088995df0,31,46,77,10,1.0,1.0,0
run-2020-2-28-10-32-17.005812883,AGENT#a2f617b2-5a15-11ea-9b61-a3d94f49e708,2,75,77,10,1.0,1.0,0
run-2020-2-28-10-32-17.005812883,AGENT#a315ff6e-5a15-11ea-858d-03736c3e26d8,1,76,77,10,1.0,1.0,0
run-2020-2-28-10-32-17.005812883,AGENT#a31604aa-5a15-11ea-af82-efd4131157dd,1,76,77,10,1.0,1.0,0
run-2020-2-28-10-32-17.005812883,AGENT#a2f61424-5a15-11ea-b9e0-ff1bd40ac9c7,3,75,78,10,1.0,1.0,0
run-2020-2-28-10-32-17.005812883,AGENT#a315fa5a-5a15-11ea-a251-1f24787641e7,2,76,78,10,1.0,1.0,0
run-2020-2-28-10-32-17.005812883,AGENT#a315fcf8-5a15-11ea-ac42-0b15fba498b6,2,76,78,10,1.0,1.0,0
run-2020-2-28-10-32-17.005812883,AGENT#a331ac32-5a15-11ea-af8b-837d7f4ffc34,1,77,78,10,1.0,1.0,0
run-2020-2-28-10-32-17.005812883,AGENT#a331be3e-5a15-11ea-9313-d3052118d733,1,77,78,10,1.0,1.0,0
run-2020-2-28-10-32-17.005812883,AGENT#9c20e5e8-5a15-11ea-934e-ef1321f41f9d,48,31,79,10,1.0,1.0,0
run-2020-2-28-10-32-17.005812883,AGENT#9c20f6e6-5a15-11ea-b094-bf7e246ec4bb,48,31,79,10,1.0,1.0,0
run-2020-2-28-10-32-17.005812883,AGENT#9c731f20-5a15-11ea-ae05-f7e4c0be4d88,46,33,79,10,1.0,1.0,0
run-2020-2-28-10-32-17.005812883,AGENT#a2d38d8c-5a15-11ea-8cd1-c3dbeea44556,5,74,79,10,1.0,1.0,0
run-2020-2-28-10-32-17.005812883,AGENT#a2f61a8c-5a15-11ea-b87b-fb4ad249cb21,4,75,79,10,1.0,1.0,0
run-2020-2-28-10-32-17.005812883,AGENT#a34aff2a-5a15-11ea-8bdb-7f08fb3e8bd8,2,78,80,10,1.0,1.0,0
run-2020-2-28-10-32-17.005812883,AGENT#a34b01dc-5a15-11ea-89a0-afb60a3e64ff,2,78,80,10,1.0,1.0,0
run-2020-2-28-10-32-17.005812883,AGENT#a3625d64-5a15-11ea-96c7-f7a887559849,1,79,80,10,1.0,1.0,0
run-2020-2-28-10-32-17.005812883,AGENT#a331aebc-5a15-11ea-b5e9-2799e07e048c,4,77,81,10,1.0,1.0,0
run-2020-2-28-10-32-17.005812883,AGENT#a331b150-5a15-11ea-a559-675ae67925b8,4,77,81,10,1.0,1.0,0
run-2020-2-28-10-32-17.005812883,AGENT#a34afcaa-5a15-11ea-be4f-4fb2ca10c32e,3,78,81,10,1.0,1.0,0
run-2020-2-28-10-32-17.005812883,AGENT#a362607a-5a15-11ea-b64f-c7f2a4a9f9f7,2,79,81,10,1.0,1.0,0
run-2020-2-28-10-32-17.005812883,AGENT#9d128790-5a15-11ea-b2a1-7b445538fe1b,45,37,82,10,1.0,1.0,0
run-2020-2-28-10-32-17.005812883,AGENT#a331b984-5a15-11ea-a25d-a782baeb8857,5,77,82,10,1.0,1.0,0
run-2020-2-28-10-32-17.005812883,AGENT#a388636a-5a15-11ea-997a-2bd4f04a8ed8,1,81,82,10,1.0,1.0,0
run-2020-2-28-10-32-17.005812883,AGENT#a34af9ee-5a15-11ea-8185-db757786a3d5,5,78,83,10,1.0,1.0,0
run-2020-2-28-10-32-17.005812883,AGENT#a375d52e-5a15-11ea-a19e-03b05355fc15,3,80,83,10,1.0,1.0,0
run-2020-2-28-10-32-17.005812883,AGENT#a375d808-5a15-11ea-b506-132dd199aa95,3,80,83,10,1.0,1.0,0
run-2020-2-28-10-32-17.005812883,AGENT#a2d3883c-5a15-11ea-af3c-ef8a57a06112,10,74,84,10,1.0,1.0,0
run-2020-2-28-10-32-17.005812883,AGENT#a396ba0a-5a15-11ea-bbeb-7786a7a38763,2,82,84,10,1.0,1.0,0
run-2020-2-28-10-32-17.005812883,AGENT#9d8778c0-5a15-11ea-89d3-2f398b77ba01,45,40,85,10,1.0,1.0,0
run-2020-2-28-10-32-17.005812883,AGENT#a315f708-5a15-11ea-a0a2-6b56f92a9e4e,9,76,85,10,1.0,1.0,0
run-2020-2-28-10-32-17.005812883,AGENT#a375d286-5a15-11ea-bd89-4fea202694f7,5,80,85,10,1.0,1.0,0
run-2020-2-28-10-32-17.005812883,AGENT#a3ac6e0e-5a15-11ea-84ba-4fce17f0c0c5,1,84,85,10,1.0,1.0,0
run-2020-2-28-10-32-17.005812883,AGENT#a1538142-5a15-11ea-ae1b-b3e6328b3353,22,64,86,10,1.0,1.0,0
run-2020-2-28-10-32-17.005812883,AGENT#a3160716-5a15-11ea-9d71-d725c43051fe,10,76,86,10,1.0,1.0,0
run-2020-2-28-10-32-17.005812883,AGENT#a3a1a3ca-5a15-11ea-9279-2b1713c9e560,3,83,86,10,1.0,1.0,0
run-2020-2-28-10-32-17.005812883,AGENT#a3a1a758-5a15-11ea-ae40-37e00d0fbcc6,3,83,86,10,1.0,1.0,0
run-2020-2-28-10-32-17.005812883,AGENT#a3b56306-5a15-11ea-85a8-1b1e86f7d049,1,85,86,10,1.0,1.0,0
run-2020-2-28-10-32-17.005812883,AGENT#9d62b3be-5a15-11ea-b4e0-d7f9b8463d8c,48,39,87,10,1.0,1.0,0
run-2020-2-28-10-32-17.005812883,AGENT#a396b33e-5a15-11ea-a066-1f75097fa782,5,82,87,10,1.0,1.0,0
run-2020-2-28-10-32-17.005812883,AGENT#a396b708-5a15-11ea-a419-6bc9e10798a3,5,82,87,10,1.0,1.0,0
run-2020-2-28-10-32-17.005812883,AGENT#a3ac76ec-5a15-11ea-9c4b-df5057c730b8,3,84,87,10,1.0,1.0,0
run-2020-2-28-10-32-17.005812883,AGENT#a3b5668a-5a15-11ea-858e-77cee75b6ca0,2,85,87,10,1.0,1.0,0
run-2020-2-28-10-32-17.005812883,AGENT#9da8587e-5a15-11ea-ae1d-a373df045f4e,47,41,88,10,1.0,1.0,0
run-2020-2-28-10-32-17.005812883,AGENT#9dc70f62-5a15-11ea-a32d-43115ec28ec6,46,42,88,10,1.0,1.0,0
run-2020-2-28-10-32-17.005812883,AGENT#a3bb7c8c-5a15-11ea-88ab-cb2fd67228b1,2,86,88,10,1.0,1.0,0
run-2020-2-28-10-32-17.005812883,AGENT#a0827322-5a15-11ea-8a07-db90de97575e,30,59,89,10,1.0,1.0,0
run-2020-2-28-10-32-17.005812883,AGENT#a3ac72f0-5a15-11ea-a72d-9ff9297fc128,5,84,89,10,1.0,1.0,0
run-2020-2-28-10-32-17.005812883,AGENT#a3e25d98-5a15-11ea-b39c-5f6f1ac2b2f7,2,87,89,10,1.0,1.0,0
run-2020-2-28-10-32-17.005812883,AGENT#9e4549ea-5a15-11ea-93d9-93e3f286bbff,45,45,90,10,1.0,1.0,0
run-2020-2-28-10-32-17.005812883,AGENT#a3bb82d6-5a15-11ea-80bf-f3c014df362d,4,86,90,10,1.0,1.0,0
run-2020-2-28-10-32-17.005812883,AGENT#a425ba02-5a15-11ea-bce5-2b040446b807,1,89,90,10,1.0,1.0,0
run-2020-2-28-10-32-17.005812883,AGENT#9e1dd9f0-5a15-11ea-b718-23e55e91a45d,47,44,91,10,1.0,1.0,0
run-2020-2-28-10-32-17.005812883,AGENT#a1808eee-5a15-11ea-9fe7-db2199391433,26,65,91,10,1.0,1.0,0
run-2020-2-28-10-32-17.005812883,AGENT#a4044318-5a15-11ea-b9ee-eb9a0c9685dd,3,88,91,10,1.0,1.0,0
run-2020-2-28-10-32-17.005812883,AGENT#a425b566-5a15-11ea-9c82-f728ebb0c4e8,2,89,91,10,1.0,1.0,0
run-2020-2-28-10-32-17.005812883,AGENT#a443c984-5a15-11ea-ba00-0f832c4b450e,1,90,91,10,1.0,1.0,0
run-2020-2-28-10-32-17.005812883,AGENT#a3e26018-5a15-11ea-8682-9fcc11ab7ef0,5,87,92,10,1.0,1.0,0
run-2020-2-28-10-32-17.005812883,AGENT#9eadad46-5a15-11ea-bae9-a3a4eb60cb42,45,48,93,10,1.0,1.0,0
run-2020-2-28-10-32-17.005812883,AGENT#9eadb0a2-5a15-11ea-aaaf-b3771f34221c,45,48,93,10,1.0,1.0,0
run-2020-2-28-10-32-17.005812883,AGENT#a443cf7e-5a15-11ea-8f98-efb55a40cbbd,3,90,93,10,1.0,1.0,0
run-2020-2-28-10-32-17.005812883,AGENT#a443d230-5a15-11ea-9098-ab9b2b5e2b8c,3,90,93,10,1.0,1.0,0
run-2020-2-28-10-32-17.005812883,AGENT#a477d580-5a15-11ea-ad31-5f31d5d3b8cd,1,92,93,10,1.0,1.0,0
run-2020-2-28-10-32-17.005812883,AGENT#a477d92c-5a15-11ea-9ba4-cf19a916acbb,1,92,93,10,1.0,1.0,0
run-2020-2-28-10-32-17.005812883,AGENT#9eca6bf2-5a15-11ea-9128-7fdd82755928,45,49,94,10,1.0,1.0,0
run-2020-2-28-10-32-17.005812883,AGENT#a443ccd6-5a15-11ea-9050-47547255f4bc,4,90,94,10,1.0,1.0,0
run-2020-2-28-10-32-17.005812883,AGENT#9e8e5f04-5a15-11ea-b768-8b567e5bf6fc,48,47,95,10,1.0,1.0,0
run-2020-2-28-10-32-17.005812883,AGENT#a3ac67a6-5a15-11ea-94af-673358e3080f,11,84,95,10,1.0,1.0,0
run-2020-2-28-10-32-17.005812883,AGENT#a45e9dae-5a15-11ea-a3ce-536a39dea942,4,91,95,10,1.0,1.0,0
run-2020-2-28-10-32-17.005812883,AGENT#a3e25852-5a15-11ea-8cd3-731e69dac137,9,87,96,10,1.0,1.0,0
run-2020-2-28-10-32-17.005812883,AGENT#a4a5b1ee-5a15-11ea-b2e5-7f6963075860,2,94,96,10,1.0,1.0,0
run-2020-2-28-10-32-17.005812883,AGENT#a4c9a856-5a15-11ea-b171-1b089f1b9c80,2,95,97,10,1.0,1.0,0
run-2020-2-28-10-32-17.005812883,AGENT#a4ed5f4e-5a15-11ea-a4d9-db3c23efdcaf,1,96,97,10,1.0,1.0,0
run-2020-2-28-10-32-17.005812883,AGENT#9f781978-5a15-11ea-ba5a-1f4c085dacce,45,53,98,10,1.0,1.0,0
run-2020-2-28-10-32-17.005812883,AGENT#a4c9ab80-5a15-11ea-b6af-53a81ca1f906,3,95,98,10,1.0,1.0,0
run-2020-2-28-10-32-17.005812883,AGENT#a50df132-5a15-11ea-b7be-bb4b360e77f8,1,97,98,10,1.0,1.0,0
run-2020-2-28-10-32-17.005812883,AGENT#9f9eb510-5a15-11ea-85f0-cb1008ffa1cc,45,54,99,10,1.0,1.0,0
run-2020-2-28-10-32-17.005812883,AGENT#9f9ec3de-5a15-11ea-8c06-0fb9c7972db2,45,54,99,10,1.0,1.0,0
run-2020-2-28-10-32-17.005812883,AGENT#9f9ec85c-5a15-11ea-bb23-53f2d4cd6cd9,45,54,99,10,1.0,1.0,0
run-2020-2-28-10-32-17.005812883,AGENT#a3626322-5a15-11ea-a32d-e3ef23f985f9,20,79,99,10,1.0,1.0,0
run-2020-2-28-10-32-17.005812883,AGENT#a4a5bb08-5a15-11ea-8e28-fb0b53f8fdcc,5,94,99,10,1.0,1.0,0
