run-2020-6-11-13-20-42.389780044,0,1
run-2020-6-11-13-20-42.389780044,1,0
run-2020-6-11-13-20-42.389780044,2,1
run-2020-6-11-13-20-42.389780044,3,0
run-2020-6-11-13-20-42.389780044,4,0
run-2020-6-11-13-20-42.389780044,5,0
run-2020-6-11-13-20-42.389780044,6,0
run-2020-6-11-13-20-42.389780044,7,0
run-2020-6-11-13-20-42.389780044,8,0
run-2020-6-11-13-20-42.389780044,9,0
run-2020-6-11-13-20-42.389780044,10,0
run-2020-6-11-13-20-42.389780044,11,0
run-2020-6-11-13-20-42.389780044,12,0
run-2020-6-11-13-20-42.389780044,13,0
run-2020-6-11-13-20-42.389780044,14,0
run-2020-6-11-13-20-42.389780044,15,0
run-2020-6-11-13-20-42.389780044,16,0
run-2020-6-11-13-20-42.389780044,17,0
run-2020-6-11-13-20-42.389780044,18,0
run-2020-6-11-13-20-42.389780044,19,0
run-2020-6-11-13-20-42.389780044,20,0
run-2020-6-11-13-20-42.389780044,21,0
run-2020-6-11-13-20-42.389780044,22,0
run-2020-6-11-13-20-42.389780044,23,0
run-2020-6-11-13-20-42.389780044,24,0
run-2020-6-11-13-20-42.389780044,25,0
run-2020-6-11-13-20-42.389780044,26,0
run-2020-6-11-13-20-42.389780044,27,0
run-2020-6-11-13-20-42.389780044,28,0
run-2020-6-11-13-20-42.389780044,29,0
run-2020-6-11-13-20-42.389780044,30,0
run-2020-6-11-13-20-42.389780044,31,0
run-2020-6-11-13-20-42.389780044,32,0
run-2020-6-11-13-20-42.389780044,33,0
run-2020-6-11-13-20-42.389780044,34,0
run-2020-6-11-13-20-42.389780044,35,0
run-2020-6-11-13-20-42.389780044,36,0
run-2020-6-11-13-20-42.389780044,37,0
run-2020-6-11-13-20-42.389780044,38,0
run-2020-6-11-13-20-42.389780044,39,0
run-2020-6-11-13-20-42.389780044,40,0
run-2020-6-11-13-20-42.389780044,41,0
run-2020-6-11-13-20-42.389780044,42,0
run-2020-6-11-13-20-42.389780044,43,0
run-2020-6-11-13-20-42.389780044,44,0
run-2020-6-11-13-20-42.389780044,45,0
run-2020-6-11-13-20-42.389780044,46,0
run-2020-6-11-13-20-42.389780044,47,0
run-2020-6-11-13-20-42.389780044,48,0
run-2020-6-11-13-20-42.389780044,49,0
run-2020-6-11-13-20-42.389780044,50,0
run-2020-6-11-13-20-42.389780044,51,0
run-2020-6-11-13-20-42.389780044,52,0
run-2020-6-11-13-20-42.389780044,53,0
run-2020-6-11-13-20-42.389780044,54,0
run-2020-6-11-13-20-42.389780044,55,0
run-2020-6-11-13-20-42.389780044,56,0
run-2020-6-11-13-20-42.389780044,57,0
run-2020-6-11-13-20-42.389780044,58,0
run-2020-6-11-13-20-42.389780044,59,0
run-2020-6-11-13-20-42.389780044,60,0
run-2020-6-11-13-20-42.389780044,61,0
run-2020-6-11-13-20-42.389780044,62,0
run-2020-6-11-13-20-42.389780044,63,0
run-2020-6-11-13-20-42.389780044,64,0
run-2020-6-11-13-20-42.389780044,65,0
run-2020-6-11-13-20-42.389780044,66,0
run-2020-6-11-13-20-42.389780044,67,0
run-2020-6-11-13-20-42.389780044,68,0
run-2020-6-11-13-20-42.389780044,69,0
run-2020-6-11-13-20-42.389780044,70,0
run-2020-6-11-13-20-42.389780044,71,0
run-2020-6-11-13-20-42.389780044,72,0
run-2020-6-11-13-20-42.389780044,73,0
run-2020-6-11-13-20-42.389780044,74,0
run-2020-6-11-13-20-42.389780044,75,0
run-2020-6-11-13-20-42.389780044,76,0
run-2020-6-11-13-20-42.389780044,77,0
run-2020-6-11-13-20-42.389780044,78,0
run-2020-6-11-13-20-42.389780044,79,0
run-2020-6-11-13-20-42.389780044,80,0
run-2020-6-11-13-20-42.389780044,81,0
run-2020-6-11-13-20-42.389780044,82,0
run-2020-6-11-13-20-42.389780044,83,0
run-2020-6-11-13-20-42.389780044,84,0
run-2020-6-11-13-20-42.389780044,85,0
run-2020-6-11-13-20-42.389780044,86,0
run-2020-6-11-13-20-42.389780044,87,0
run-2020-6-11-13-20-42.389780044,88,0
run-2020-6-11-13-20-42.389780044,89,0
run-2020-6-11-13-20-42.389780044,90,0
run-2020-6-11-13-20-42.389780044,91,0
run-2020-6-11-13-20-42.389780044,92,0
run-2020-6-11-13-20-42.389780044,93,0
run-2020-6-11-13-20-42.389780044,94,0
run-2020-6-11-13-20-42.389780044,95,0
run-2020-6-11-13-20-42.389780044,96,0
run-2020-6-11-13-20-42.389780044,97,0
run-2020-6-11-13-20-42.389780044,98,0
run-2020-6-11-13-20-42.389780044,99,0
run-2020-6-11-13-20-42.389780044,100,0
run-2020-6-11-13-20-42.389780044,101,24
