Source,Target
684d5a5e-519a-11ea-a41e-93d6f5537bfa,684ef90e-519a-11ea-850d-77a53da5d78d
684d7d90-519a-11ea-b1f0-ab5eb582d288,684f0b7e-519a-11ea-b8d6-5b2bb95101dd
684d5a5e-519a-11ea-a41e-93d6f5537bfa,684f1ea2-519a-11ea-9e4e-9b377761b022
684e0a08-519a-11ea-929a-33e7ea9db6cc,684f3176-519a-11ea-a5e3-33a7d2f2c5ed
684e68ea-519a-11ea-9d15-93eb7de914ac,684f5200-519a-11ea-9be1-ef716873f90e
684f5200-519a-11ea-9be1-ef716873f90e,684fab6a-519a-11ea-b182-e30c615a3ff3
684e7998-519a-11ea-b1d9-d3324393aa4f,684fbec0-519a-11ea-a7e5-077e7eac9823
684d5a5e-519a-11ea-a41e-93d6f5537bfa,684fe7ba-519a-11ea-a84b-dbd6aad0f24f
684d7d90-519a-11ea-b1f0-ab5eb582d288,685002c2-519a-11ea-9131-5378cb32d807
684ef90e-519a-11ea-850d-77a53da5d78d,6850388c-519a-11ea-be43-5b15351914b8
684e41bc-519a-11ea-8bc6-87ea7baf2229,68504cf0-519a-11ea-b077-1fe3dd43295c
684f3176-519a-11ea-a5e3-33a7d2f2c5ed,6850692e-519a-11ea-907b-2f4fd84ea7bb
684fe7ba-519a-11ea-a84b-dbd6aad0f24f,685094bc-519a-11ea-9b34-3b012b789c7a
6850388c-519a-11ea-be43-5b15351914b8,6850aaba-519a-11ea-8567-97ea89754dbb
68504cf0-519a-11ea-b077-1fe3dd43295c,6850c6d0-519a-11ea-bfe4-e35881957dd2
6850388c-519a-11ea-be43-5b15351914b8,68514998-519a-11ea-9f8c-83d958286429
6850388c-519a-11ea-be43-5b15351914b8,6851366a-519a-11ea-aec9-3b827b9a4a13
684fbec0-519a-11ea-a7e5-077e7eac9823,68518110-519a-11ea-a8c9-03cf60d83dca
6850692e-519a-11ea-907b-2f4fd84ea7bb,68519f2e-519a-11ea-81ba-ab09b5b6b24c
684e68ea-519a-11ea-9d15-93eb7de914ac,6851ec18-519a-11ea-acd1-eff51522afee
68514998-519a-11ea-9f8c-83d958286429,685245aa-519a-11ea-b851-4f4f7985fa6b
684f1ea2-519a-11ea-9e4e-9b377761b022,6852561c-519a-11ea-bfc0-df5f34a9fd58
685245aa-519a-11ea-b851-4f4f7985fa6b,68526f6c-519a-11ea-9963-0f16b9096aa5
684ef90e-519a-11ea-850d-77a53da5d78d,68527eb2-519a-11ea-9e69-7faf6c4ffd50
6850aaba-519a-11ea-8567-97ea89754dbb,6852a6f8-519a-11ea-8a0f-57eeddcc6136
68518110-519a-11ea-a8c9-03cf60d83dca,68530148-519a-11ea-ab84-ef7b2e5a10eb
684e68ea-519a-11ea-9d15-93eb7de914ac,68532a10-519a-11ea-bd85-d3de07044ea3
68530148-519a-11ea-ab84-ef7b2e5a10eb,68534dd8-519a-11ea-9c0b-bb92417fad3f
684ef90e-519a-11ea-850d-77a53da5d78d,68537808-519a-11ea-a42c-4f36a929a371
68526f6c-519a-11ea-9963-0f16b9096aa5,68538a8c-519a-11ea-96f0-53985c0c5147
6851366a-519a-11ea-aec9-3b827b9a4a13,6853a6ac-519a-11ea-9dad-abd39ea6abee
684d4ba4-519a-11ea-b9a2-1f545085631a,6853dfa0-519a-11ea-954f-ffdb6a5a2d91
685245aa-519a-11ea-b851-4f4f7985fa6b,685425a0-519a-11ea-b402-d7ce85101969
68504cf0-519a-11ea-b077-1fe3dd43295c,685460ba-519a-11ea-aedd-3756207b114d
6850692e-519a-11ea-907b-2f4fd84ea7bb,6854816c-519a-11ea-b0c4-5be385c3837a
68537808-519a-11ea-a42c-4f36a929a371,6854a1a6-519a-11ea-8616-27af77c0ef68
68537808-519a-11ea-a42c-4f36a929a371,6854c6e0-519a-11ea-828a-af6adda1bd1d
684e68ea-519a-11ea-9d15-93eb7de914ac,68550362-519a-11ea-825f-8fabce3322a6
6853dfa0-519a-11ea-954f-ffdb6a5a2d91,68552630-519a-11ea-8fa8-3322c2485496
685425a0-519a-11ea-b402-d7ce85101969,68553bfc-519a-11ea-b8b2-6f087f0b6d8b
6852561c-519a-11ea-bfc0-df5f34a9fd58,685557d6-519a-11ea-87a1-33025c60a8c2
68514998-519a-11ea-9f8c-83d958286429,685580c6-519a-11ea-b86e-7b598ad7cd52
6853dfa0-519a-11ea-954f-ffdb6a5a2d91,6855a286-519a-11ea-9e88-ff33df7149d3
684ee84c-519a-11ea-b536-838d5aa7d231,6855b37a-519a-11ea-8c18-a3c6c6ef66c9
68514998-519a-11ea-9f8c-83d958286429,68560f96-519a-11ea-84a4-cfad771164f6
6854c6e0-519a-11ea-828a-af6adda1bd1d,685622c4-519a-11ea-aa94-8b33ba4a7da1
6853dfa0-519a-11ea-954f-ffdb6a5a2d91,68565eb0-519a-11ea-ada2-2357d86fbfff
685580c6-519a-11ea-b86e-7b598ad7cd52,6856c3a0-519a-11ea-8a0a-4383562a6e3c
684d4ba4-519a-11ea-b9a2-1f545085631a,6856ab7c-519a-11ea-9318-47cd594791f8
68532a10-519a-11ea-bd85-d3de07044ea3,6856dc28-519a-11ea-9939-9776e7bae2fd
684f1ea2-519a-11ea-9e4e-9b377761b022,68573664-519a-11ea-bdfb-6b0c5206debe
684e41bc-519a-11ea-8bc6-87ea7baf2229,68576260-519a-11ea-97c4-df8110902d69
68504cf0-519a-11ea-b077-1fe3dd43295c,68574ed8-519a-11ea-a437-7b3cb8205cd9
684f1ea2-519a-11ea-9e4e-9b377761b022,6857e442-519a-11ea-a039-0bea964c5780
685460ba-519a-11ea-aedd-3756207b114d,6857c570-519a-11ea-a3bb-db621175960d
68565eb0-519a-11ea-ada2-2357d86fbfff,6857f504-519a-11ea-b506-ff4804d2f6fe
6851ec18-519a-11ea-acd1-eff51522afee,68580db4-519a-11ea-8841-cbff3ce3d83a
6855a286-519a-11ea-9e88-ff33df7149d3,68587ca4-519a-11ea-9584-778340f11e12
68527eb2-519a-11ea-9e69-7faf6c4ffd50,6858a8b4-519a-11ea-ac79-87df193859bc
684fe7ba-519a-11ea-a84b-dbd6aad0f24f,6858d708-519a-11ea-8677-ef035a6d5565
684e1b10-519a-11ea-9e2f-63da8b544d9d,6858ee78-519a-11ea-8a01-838ddc367282
684fab6a-519a-11ea-b182-e30c615a3ff3,68596c72-519a-11ea-939f-cb85d48eb6bf
6855b37a-519a-11ea-8c18-a3c6c6ef66c9,68598c98-519a-11ea-ae87-27b57745c87b
684f3176-519a-11ea-a5e3-33a7d2f2c5ed,6859ba24-519a-11ea-9dad-27f47d14dca4
685460ba-519a-11ea-aedd-3756207b114d,6859e5ee-519a-11ea-82c6-570738689d1a
6858ee78-519a-11ea-8a01-838ddc367282,6859f6c4-519a-11ea-83d1-83dd1d5f40c8
6857f504-519a-11ea-b506-ff4804d2f6fe,685a3706-519a-11ea-b45c-8fdfafdc3b80
684e41bc-519a-11ea-8bc6-87ea7baf2229,685a9d2c-519a-11ea-94ab-734702ebc9d5
68560f96-519a-11ea-84a4-cfad771164f6,685acb08-519a-11ea-9c87-cb7f6204afac
6855a286-519a-11ea-9e88-ff33df7149d3,685ab168-519a-11ea-af57-c739a44eaf5d
685557d6-519a-11ea-87a1-33025c60a8c2,685b10c2-519a-11ea-98f4-83296b8dad79
684d4ba4-519a-11ea-b9a2-1f545085631a,685b2864-519a-11ea-89a6-1b6858bed85d
6856c3a0-519a-11ea-8a0a-4383562a6e3c,685b5384-519a-11ea-8f09-f33d8414e22e
6851366a-519a-11ea-aec9-3b827b9a4a13,685b3d9a-519a-11ea-b5f1-47de2eb70799
685acb08-519a-11ea-9c87-cb7f6204afac,685bfe9c-519a-11ea-9a02-13c3afb2c7fa
684d7d90-519a-11ea-b1f0-ab5eb582d288,685c3132-519a-11ea-9540-f700c2e7a6d5
68534dd8-519a-11ea-9c0b-bb92417fad3f,685c49c4-519a-11ea-84d2-83d4659e6d6b
684e7998-519a-11ea-b1d9-d3324393aa4f,685c7df4-519a-11ea-aaa4-0ba360b75c20
684f5200-519a-11ea-9be1-ef716873f90e,685c98ca-519a-11ea-9112-ef4d6873fd12
685002c2-519a-11ea-9131-5378cb32d807,685cb15c-519a-11ea-886f-53528e4b32d8
6854a1a6-519a-11ea-8616-27af77c0ef68,685cff90-519a-11ea-ac76-0bd0af0e66f2
68574ed8-519a-11ea-a437-7b3cb8205cd9,685d16c4-519a-11ea-8049-e77c82d150f3
6859ba24-519a-11ea-9dad-27f47d14dca4,685d2b3c-519a-11ea-9883-eb162c0a335e
6853dfa0-519a-11ea-954f-ffdb6a5a2d91,685d427a-519a-11ea-a999-6712877363ac
6857f504-519a-11ea-b506-ff4804d2f6fe,685d770e-519a-11ea-a341-db11109a8097
6856ab7c-519a-11ea-9318-47cd594791f8,685dcefc-519a-11ea-b814-ab84b29052f2
6850c6d0-519a-11ea-bfe4-e35881957dd2,685ddeb0-519a-11ea-8a5c-dbcc2b6be3d2
6855b37a-519a-11ea-8c18-a3c6c6ef66c9,685df1e8-519a-11ea-a628-07cdce50886a
6859f6c4-519a-11ea-83d1-83dd1d5f40c8,685e2ce4-519a-11ea-b689-47fe24111e3d
6856ab7c-519a-11ea-9318-47cd594791f8,685e65c4-519a-11ea-8908-63b681341736
684f5200-519a-11ea-9be1-ef716873f90e,685e8c8e-519a-11ea-988d-ff14dcfd16d6
68504cf0-519a-11ea-b077-1fe3dd43295c,685e9b84-519a-11ea-86e4-8723ac7cd04b
68532a10-519a-11ea-bd85-d3de07044ea3,685ee0ee-519a-11ea-aa62-07cc1b9a2cb9
6851366a-519a-11ea-aec9-3b827b9a4a13,685f0ad8-519a-11ea-a2ac-5bf9ee17c9d8
6853dfa0-519a-11ea-954f-ffdb6a5a2d91,685ef35e-519a-11ea-b5e6-bb5ef59daf84
684fbec0-519a-11ea-a7e5-077e7eac9823,685f3760-519a-11ea-8b8a-f30cd315123f
684e1b10-519a-11ea-9e2f-63da8b544d9d,685f967e-519a-11ea-8c6d-3bf5c3f2cb5d
68587ca4-519a-11ea-9584-778340f11e12,685fb370-519a-11ea-a2a2-cbe53ec68969
68550362-519a-11ea-825f-8fabce3322a6,685fdf94-519a-11ea-9e57-cf874c0094b2
685cff90-519a-11ea-ac76-0bd0af0e66f2,68600a0a-519a-11ea-9787-93ed9ce93918
684d7d90-519a-11ea-b1f0-ab5eb582d288,68601c20-519a-11ea-ac9a-df9db2ebf5ec
6858a8b4-519a-11ea-ac79-87df193859bc,68606004-519a-11ea-a120-c73e247291c9
6857f504-519a-11ea-b506-ff4804d2f6fe,6860889a-519a-11ea-be16-d30a2734e357
6857f504-519a-11ea-b506-ff4804d2f6fe,68609952-519a-11ea-816c-c35be8ec3caa
68587ca4-519a-11ea-9584-778340f11e12,6860d494-519a-11ea-8eb1-a71c604d5894
684fe7ba-519a-11ea-a84b-dbd6aad0f24f,6860e9a2-519a-11ea-ba55-57e508614469
68553bfc-519a-11ea-b8b2-6f087f0b6d8b,686164fe-519a-11ea-9e3a-e75e5d96728e
685d770e-519a-11ea-a341-db11109a8097,686178d6-519a-11ea-a9b6-5f9d80887222
68514998-519a-11ea-9f8c-83d958286429,6861905a-519a-11ea-9457-a73cda7c648a
685b3d9a-519a-11ea-b5f1-47de2eb70799,6861ab4e-519a-11ea-9a48-1b90eccabf4c
685e65c4-519a-11ea-8908-63b681341736,6861ea64-519a-11ea-b744-ab23478fd0d4
685e65c4-519a-11ea-8908-63b681341736,68621bba-519a-11ea-843c-2bbf6143437f
6859e5ee-519a-11ea-82c6-570738689d1a,68628352-519a-11ea-b2a5-37e95d05cfc1
685622c4-519a-11ea-aa94-8b33ba4a7da1,6862afb2-519a-11ea-8c57-fbbf49b71fad
6861ab4e-519a-11ea-9a48-1b90eccabf4c,6862af12-519a-11ea-a892-039a4e77491c
68606004-519a-11ea-a120-c73e247291c9,6862c394-519a-11ea-abd2-6b2d34706e4a
68574ed8-519a-11ea-a437-7b3cb8205cd9,68630db8-519a-11ea-a0c7-4ff906e0845a
685c98ca-519a-11ea-9112-ef4d6873fd12,68634d32-519a-11ea-b55f-738e8fc1b473
685d2b3c-519a-11ea-9883-eb162c0a335e,686382b6-519a-11ea-a216-072019f91455
6857e442-519a-11ea-a039-0bea964c5780,6863a4d0-519a-11ea-92cc-e7ccaf79d18a
685460ba-519a-11ea-aedd-3756207b114d,6863c3f2-519a-11ea-bf6c-0bf995b38c38
68504cf0-519a-11ea-b077-1fe3dd43295c,6863ee72-519a-11ea-b44c-138380573e3c
68532a10-519a-11ea-bd85-d3de07044ea3,68641438-519a-11ea-875e-1788cc3e44c4
68504cf0-519a-11ea-b077-1fe3dd43295c,68646780-519a-11ea-b293-a7bcae55cc90
6856c3a0-519a-11ea-8a0a-4383562a6e3c,6864bb22-519a-11ea-abba-c733ec74d811
6858ee78-519a-11ea-8a01-838ddc367282,6864fc9a-519a-11ea-a7ec-fbd2e2599ce3
6862c394-519a-11ea-abd2-6b2d34706e4a,6864ea48-519a-11ea-9215-bf0abb6ac48e
68598c98-519a-11ea-ae87-27b57745c87b,68653bd8-519a-11ea-8556-2b66ef1a42ba
685a3706-519a-11ea-b45c-8fdfafdc3b80,68654f60-519a-11ea-bd9f-2b69bfa78ac7
6854a1a6-519a-11ea-8616-27af77c0ef68,6865841c-519a-11ea-8592-8f22217b5f1b
685bfe9c-519a-11ea-9a02-13c3afb2c7fa,6865f4a6-519a-11ea-9a0b-7ff757df68d4
6863ee72-519a-11ea-b44c-138380573e3c,68661788-519a-11ea-86bc-5377f6bfb617
6863a4d0-519a-11ea-92cc-e7ccaf79d18a,68662bc4-519a-11ea-b3b9-e73ee11a8588
6855a286-519a-11ea-9e88-ff33df7149d3,686681b4-519a-11ea-b1cf-8758e110d734
6862af12-519a-11ea-a892-039a4e77491c,6866acde-519a-11ea-8b94-3b35da6dc0c5
68630db8-519a-11ea-a0c7-4ff906e0845a,6866f928-519a-11ea-91ff-cf4cea647444
6862c394-519a-11ea-abd2-6b2d34706e4a,68673906-519a-11ea-8b2d-e3b2f7c3cc13
68653bd8-519a-11ea-8556-2b66ef1a42ba,68674f68-519a-11ea-a1df-efaef3797a0b
6865f4a6-519a-11ea-9a0b-7ff757df68d4,68676b42-519a-11ea-a2c0-6bc579dd9b6f
685b5384-519a-11ea-8f09-f33d8414e22e,68679284-519a-11ea-9ba5-87f87fe58a4f
685c98ca-519a-11ea-9112-ef4d6873fd12,6867e658-519a-11ea-9fda-8facaecdf4c0
6853dfa0-519a-11ea-954f-ffdb6a5a2d91,6867fff8-519a-11ea-9bed-7b4f38d408d3
684d7d90-519a-11ea-b1f0-ab5eb582d288,686834be-519a-11ea-ba06-df4df4ca0308
68552630-519a-11ea-8fa8-3322c2485496,68684cce-519a-11ea-91a2-930b2bc8235d
685ef35e-519a-11ea-b5e6-bb5ef59daf84,6868d522-519a-11ea-b8ca-3be4f00c7714
685fdf94-519a-11ea-9e57-cf874c0094b2,6868ec92-519a-11ea-8a2c-0b3dd6d14777
684e1b10-519a-11ea-9e2f-63da8b544d9d,686906fa-519a-11ea-bb53-130ae8b657d6
685a9d2c-519a-11ea-94ab-734702ebc9d5,68696a82-519a-11ea-b984-d3047364f5f4
68646780-519a-11ea-b293-a7bcae55cc90,6869817a-519a-11ea-93a0-b7be6ed328cb
6865841c-519a-11ea-8592-8f22217b5f1b,6869adf8-519a-11ea-b10f-03916913b636
68653bd8-519a-11ea-8556-2b66ef1a42ba,6869dee0-519a-11ea-a8e1-83edd73dfc3b
685df1e8-519a-11ea-a628-07cdce50886a,6869f8a8-519a-11ea-a734-0f759d7f32a0
6869817a-519a-11ea-93a0-b7be6ed328cb,686a1112-519a-11ea-a1d4-2b20097006e2
6867e658-519a-11ea-9fda-8facaecdf4c0,686a4b0a-519a-11ea-8f54-f7554e5035b9
68630db8-519a-11ea-a0c7-4ff906e0845a,686a9aba-519a-11ea-9e45-b7038dafecc1
6860889a-519a-11ea-be16-d30a2734e357,686ac422-519a-11ea-a7a4-87539443b795
6869817a-519a-11ea-93a0-b7be6ed328cb,686add0e-519a-11ea-8906-cb108ceb497e
68674f68-519a-11ea-a1df-efaef3797a0b,686af276-519a-11ea-ae2b-1302e1917bbb
686a4b0a-519a-11ea-8f54-f7554e5035b9,686b5838-519a-11ea-abfe-f76e73762354
68514998-519a-11ea-9f8c-83d958286429,686b8010-519a-11ea-9ab3-0b27bfc3f9d1
685d16c4-519a-11ea-8049-e77c82d150f3,686bbe54-519a-11ea-a56a-e786d7333094
684fe7ba-519a-11ea-a84b-dbd6aad0f24f,686bdc36-519a-11ea-9260-970e8986d926
6869f8a8-519a-11ea-a734-0f759d7f32a0,686c3fd2-519a-11ea-ba1e-47d5881268a3
685dcefc-519a-11ea-b814-ab84b29052f2,686c71a0-519a-11ea-a896-57a0b419b57e
68565eb0-519a-11ea-ada2-2357d86fbfff,686c58f0-519a-11ea-a4c2-67d5cce40e8a
6861ea64-519a-11ea-b744-ab23478fd0d4,686ca008-519a-11ea-bc21-77561f55c3d1
685d2b3c-519a-11ea-9883-eb162c0a335e,686cf6fc-519a-11ea-ab6f-f3851ed1c922
68621bba-519a-11ea-843c-2bbf6143437f,686ce306-519a-11ea-8049-eb64437e9514
68537808-519a-11ea-a42c-4f36a929a371,686d54c6-519a-11ea-bbfc-2336868418f7
685d427a-519a-11ea-a999-6712877363ac,686d68bc-519a-11ea-a9d2-2f08914ff92a
6869817a-519a-11ea-93a0-b7be6ed328cb,686d7bae-519a-11ea-9d3a-37e5f6ae3104
685b5384-519a-11ea-8f09-f33d8414e22e,686da61a-519a-11ea-b4bd-1f7682a48591
6865f4a6-519a-11ea-9a0b-7ff757df68d4,686dee9a-519a-11ea-a62f-8304703bf1a8
686da61a-519a-11ea-b4bd-1f7682a48591,686e443a-519a-11ea-9085-6f1aba0510e0
6862c394-519a-11ea-abd2-6b2d34706e4a,686e7248-519a-11ea-8fb1-e76b2d035630
684f1ea2-519a-11ea-9e4e-9b377761b022,686e8d00-519a-11ea-acf9-bbd57295da61
6861ea64-519a-11ea-b744-ab23478fd0d4,686ea402-519a-11ea-aa54-b7efcaa16046
684f0b7e-519a-11ea-b8d6-5b2bb95101dd,686f0b4a-519a-11ea-91b4-07a56aa46b19
68560f96-519a-11ea-84a4-cfad771164f6,686eef8e-519a-11ea-8a27-03853ecf7470
685df1e8-519a-11ea-a628-07cdce50886a,686f6fea-519a-11ea-bc8b-1be870337949
686d68bc-519a-11ea-a9d2-2f08914ff92a,686f9bfa-519a-11ea-8358-9b25f8b85324
685ab168-519a-11ea-af57-c739a44eaf5d,686fc3c8-519a-11ea-be80-53be8861cbf4
685fb370-519a-11ea-a2a2-cbe53ec68969,686fd85e-519a-11ea-b577-c356288a5bff
686d68bc-519a-11ea-a9d2-2f08914ff92a,687015b2-519a-11ea-8679-231d7b55dde3
684e7998-519a-11ea-b1d9-d3324393aa4f,68703b8c-519a-11ea-b194-e3930b632835
685c98ca-519a-11ea-9112-ef4d6873fd12,68705acc-519a-11ea-a4ec-171dffce7513
684fe7ba-519a-11ea-a84b-dbd6aad0f24f,68707a20-519a-11ea-878e-17215b5b640d
686834be-519a-11ea-ba06-df4df4ca0308,6870a842-519a-11ea-bf32-cfaceff470aa
6850692e-519a-11ea-907b-2f4fd84ea7bb,6870c08e-519a-11ea-8abf-e7681ae25958
68574ed8-519a-11ea-a437-7b3cb8205cd9,6870d4f2-519a-11ea-a730-3b3c5b8cc7bb
6858d708-519a-11ea-8677-ef035a6d5565,6870edd4-519a-11ea-a08f-1f1de1549a41
685c98ca-519a-11ea-9112-ef4d6873fd12,687147ca-519a-11ea-89d2-937ef6fea259
6862afb2-519a-11ea-8c57-fbbf49b71fad,687158a0-519a-11ea-b11b-1fc2fa273b6a
6856dc28-519a-11ea-9939-9776e7bae2fd,687169f8-519a-11ea-ab9f-eb21b7acc74a
685cff90-519a-11ea-ac76-0bd0af0e66f2,68717d1c-519a-11ea-aeb7-13216384b165
686add0e-519a-11ea-8906-cb108ceb497e,6871eb58-519a-11ea-868e-8f1db5f2836a
6850c6d0-519a-11ea-bfe4-e35881957dd2,68721f4c-519a-11ea-a2b6-c34a7956ba36
686bdc36-519a-11ea-9260-970e8986d926,6872451c-519a-11ea-85e6-db29fb3eab96
685460ba-519a-11ea-aedd-3756207b114d,687275e6-519a-11ea-8d14-83fc439a1c73
68530148-519a-11ea-ab84-ef7b2e5a10eb,687260f6-519a-11ea-bd29-97ba1f19d0fc
685f0ad8-519a-11ea-a2ac-5bf9ee17c9d8,6872c5c8-519a-11ea-be78-23f2f44e625c
6862af12-519a-11ea-a892-039a4e77491c,6873155a-519a-11ea-a7b1-d7c5e35e4186
68634d32-519a-11ea-b55f-738e8fc1b473,68732cde-519a-11ea-b3fe-43175409f5c1
684fbec0-519a-11ea-a7e5-077e7eac9823,687354ca-519a-11ea-9360-4f9666ea1b11
6861ea64-519a-11ea-b744-ab23478fd0d4,687380a8-519a-11ea-b313-5741d0975770
685f3760-519a-11ea-8b8a-f30cd315123f,6873be4c-519a-11ea-ae42-7b7eafc28f95
685f967e-519a-11ea-8c6d-3bf5c3f2cb5d,6873dd8c-519a-11ea-9834-8b9d271f3be4
6864ea48-519a-11ea-9215-bf0abb6ac48e,6873ef48-519a-11ea-9e62-275a0e91f8f8
6858d708-519a-11ea-8677-ef035a6d5565,68743142-519a-11ea-b487-3bcc4f196e6c
686164fe-519a-11ea-9e3a-e75e5d96728e,68744aba-519a-11ea-9c75-9f35e6b2dca0
685e9b84-519a-11ea-86e4-8723ac7cd04b,68745c3a-519a-11ea-9c50-0fde772cb463
6865f4a6-519a-11ea-9a0b-7ff757df68d4,68747166-519a-11ea-9fa3-5f9708dbc2ee
68601c20-519a-11ea-ac9a-df9db2ebf5ec,6874c788-519a-11ea-90b4-977158b0b948
686bdc36-519a-11ea-9260-970e8986d926,68753060-519a-11ea-a592-cf4fcba8fdd7
685f0ad8-519a-11ea-a2ac-5bf9ee17c9d8,68754a78-519a-11ea-ac84-d790d8888dc0
685ddeb0-519a-11ea-8a5c-dbcc2b6be3d2,68758254-519a-11ea-a21f-2fc7cd007053
68596c72-519a-11ea-939f-cb85d48eb6bf,687594ec-519a-11ea-b03c-eb08c078faed
685580c6-519a-11ea-b86e-7b598ad7cd52,68760418-519a-11ea-a7aa-cbc171d92199
685cb15c-519a-11ea-886f-53528e4b32d8,68760dbe-519a-11ea-a70e-f3891fc9a4c2
684e41bc-519a-11ea-8bc6-87ea7baf2229,68761f66-519a-11ea-951e-37c8afa2a1fe
686834be-519a-11ea-ba06-df4df4ca0308,68763a6e-519a-11ea-94db-e3d41b18f0d0
68646780-519a-11ea-b293-a7bcae55cc90,6876aa62-519a-11ea-b775-2352fe6f35e1
6873be4c-519a-11ea-ae42-7b7eafc28f95,6876bcf0-519a-11ea-bd6a-9f2b03c20fd6
68696a82-519a-11ea-b984-d3047364f5f4,6876cd4e-519a-11ea-82d9-6b13aec1497c
6869f8a8-519a-11ea-a734-0f759d7f32a0,6876dd34-519a-11ea-b944-c707faf740c6
6871eb58-519a-11ea-868e-8f1db5f2836a,687740bc-519a-11ea-8c2c-239f71f5c2b7
6850aaba-519a-11ea-8567-97ea89754dbb,687758f4-519a-11ea-ab7a-ef19e30cf9a1
6852a6f8-519a-11ea-8a0f-57eeddcc6136,68776b46-519a-11ea-b9a4-17ce8776d881
68537808-519a-11ea-a42c-4f36a929a371,68777cd0-519a-11ea-8f51-f717e9171f2f
686b8010-519a-11ea-9ab3-0b27bfc3f9d1,6877d68a-519a-11ea-950e-6b46efdf32d3
685245aa-519a-11ea-b851-4f4f7985fa6b,6877e936-519a-11ea-953a-13434e6e51b9
68598c98-519a-11ea-ae87-27b57745c87b,6877f94e-519a-11ea-ac2c-3378b534831b
687147ca-519a-11ea-89d2-937ef6fea259,68786514-519a-11ea-85fe-ef10ea7ac876
6860d494-519a-11ea-8eb1-a71c604d5894,687879a0-519a-11ea-a634-470550ce7ece
685fdf94-519a-11ea-9e57-cf874c0094b2,687889ea-519a-11ea-85bf-47a717d9da48
6857c570-519a-11ea-a3bb-db621175960d,6878a9f2-519a-11ea-85dd-ab7fdd969d61
68565eb0-519a-11ea-ada2-2357d86fbfff,6878e188-519a-11ea-85e8-9f6d53dbe558
685a9d2c-519a-11ea-94ab-734702ebc9d5,68791108-519a-11ea-b25c-f34eb2470ebf
68646780-519a-11ea-b293-a7bcae55cc90,68792cb0-519a-11ea-b177-3f9d3cdb7145
6863ee72-519a-11ea-b44c-138380573e3c,68793d0e-519a-11ea-8668-ef58b18c095b
687879a0-519a-11ea-a634-470550ce7ece,68794ec0-519a-11ea-bc80-d35323f037a7
68705acc-519a-11ea-a4ec-171dffce7513,6879aca8-519a-11ea-96a8-6b277b4647d6
687758f4-519a-11ea-ab7a-ef19e30cf9a1,6879c0da-519a-11ea-a86a-63f43e92a802
6857c570-519a-11ea-a3bb-db621175960d,6879df0c-519a-11ea-8575-c3517094b05e
68530148-519a-11ea-ab84-ef7b2e5a10eb,6879ef2e-519a-11ea-b287-473c41e62b34
686dee9a-519a-11ea-a62f-8304703bf1a8,687a15c6-519a-11ea-ae46-23d17b13c2a6
686c3fd2-519a-11ea-ba1e-47d5881268a3,687a888a-519a-11ea-a2f2-ffafd29f7691
6868d522-519a-11ea-b8ca-3be4f00c7714,687a695e-519a-11ea-aa68-e38416f245e8
685580c6-519a-11ea-b86e-7b598ad7cd52,687acd04-519a-11ea-955a-c3c0661e1b3d
68587ca4-519a-11ea-9584-778340f11e12,687aba9e-519a-11ea-8cf8-ebf952647d80
684e0a08-519a-11ea-929a-33e7ea9db6cc,687b2e0c-519a-11ea-9653-57cb67bb11ab
6873ef48-519a-11ea-9e62-275a0e91f8f8,687b43ce-519a-11ea-a75d-fb496af32102
686c58f0-519a-11ea-a4c2-67d5cce40e8a,687b58fa-519a-11ea-b08b-8fd2fe374a99
68653bd8-519a-11ea-8556-2b66ef1a42ba,687b7380-519a-11ea-bc4c-b732efc8ff6c
68601c20-519a-11ea-ac9a-df9db2ebf5ec,687ba6c0-519a-11ea-8da7-0ba29192ca4b
6866acde-519a-11ea-8b94-3b35da6dc0c5,687bbf20-519a-11ea-8f49-7725e6b0eba5
686382b6-519a-11ea-a216-072019f91455,687bd104-519a-11ea-b251-d317d5f63a18
6856ab7c-519a-11ea-9318-47cd594791f8,687c31c6-519a-11ea-acc7-bb76f4457181
68550362-519a-11ea-825f-8fabce3322a6,687c49ae-519a-11ea-8769-fb4d191d2ac4
68641438-519a-11ea-875e-1788cc3e44c4,687ca41c-519a-11ea-8ef3-2fb8da01fdc1
68758254-519a-11ea-a21f-2fc7cd007053,687cbae2-519a-11ea-8dec-27d782ca92fb
687380a8-519a-11ea-b313-5741d0975770,687cf52a-519a-11ea-bf4d-5fec507a2589
686a4b0a-519a-11ea-8f54-f7554e5035b9,687d4142-519a-11ea-a4fb-4f9a237ea130
6858a8b4-519a-11ea-ac79-87df193859bc,687d5272-519a-11ea-aa45-23479a5e2d9b
6863c3f2-519a-11ea-bf6c-0bf995b38c38,687d932c-519a-11ea-974d-e3910976cf8a
685f0ad8-519a-11ea-a2ac-5bf9ee17c9d8,687dc11c-519a-11ea-8268-87b4af3e7edf
6860e9a2-519a-11ea-ba55-57e508614469,687e0302-519a-11ea-a233-6be9a2821fd7
6866f928-519a-11ea-91ff-cf4cea647444,687e1694-519a-11ea-84cd-db23fd73ae87
6872451c-519a-11ea-85e6-db29fb3eab96,687e2814-519a-11ea-b93d-5325e3082762
686ac422-519a-11ea-a7a4-87539443b795,687e9fb0-519a-11ea-8ff6-f36f9aef249a
68530148-519a-11ea-ab84-ef7b2e5a10eb,687ebb3a-519a-11ea-bafd-777223cc1165
686f0b4a-519a-11ea-91b4-07a56aa46b19,687ed07a-519a-11ea-93f0-9f79b5429a88
6877d68a-519a-11ea-950e-6b46efdf32d3,687ee5f6-519a-11ea-aa9a-7764dc0ac0bd
68598c98-519a-11ea-ae87-27b57745c87b,687f46a4-519a-11ea-9731-2b1c13acf93a
6878e188-519a-11ea-85e8-9f6d53dbe558,687f5af4-519a-11ea-b6e0-93f098dd2fcb
687b58fa-519a-11ea-b08b-8fd2fe374a99,687f7598-519a-11ea-850b-ffd7878dcebb
687758f4-519a-11ea-ab7a-ef19e30cf9a1,687fd33a-519a-11ea-a412-73cd813bfab8
6870edd4-519a-11ea-a08f-1f1de1549a41,687fe6fe-519a-11ea-9ee9-e744a4bb90d5
6872c5c8-519a-11ea-be78-23f2f44e625c,687ff694-519a-11ea-bbb1-a3085ab61b1a
6850388c-519a-11ea-be43-5b15351914b8,6880137c-519a-11ea-928a-5705e64013ec
6862af12-519a-11ea-a892-039a4e77491c,68804482-519a-11ea-84fb-c7abd24e8bca
68601c20-519a-11ea-ac9a-df9db2ebf5ec,688076fa-519a-11ea-a5de-13b215c42bb3
685ef35e-519a-11ea-b5e6-bb5ef59daf84,68808622-519a-11ea-8042-fb88b910627d
684f3176-519a-11ea-a5e3-33a7d2f2c5ed,68809fcc-519a-11ea-8c93-c7b034fa92c5
68560f96-519a-11ea-84a4-cfad771164f6,6880bf02-519a-11ea-a6f8-a7f2621e83fc
684d5a5e-519a-11ea-a41e-93d6f5537bfa,68810caa-519a-11ea-8db8-8b911f186dae
687d932c-519a-11ea-974d-e3910976cf8a,68811f10-519a-11ea-a95d-ef6f460ee36f
685e65c4-519a-11ea-8908-63b681341736,68814da0-519a-11ea-96c5-7f13ad674057
687ed07a-519a-11ea-93f0-9f79b5429a88,68816920-519a-11ea-a32d-5bcd7217a529
68537808-519a-11ea-a42c-4f36a929a371,6881809a-519a-11ea-8771-9f81d7d2ef61
685002c2-519a-11ea-9131-5378cb32d807,68819170-519a-11ea-aef6-efff559e04ee
6869817a-519a-11ea-93a0-b7be6ed328cb,688218e8-519a-11ea-8759-f7fdf5391e13
6853a6ac-519a-11ea-9dad-abd39ea6abee,6882289c-519a-11ea-921f-1f20b0a90e49
6877e936-519a-11ea-953a-13434e6e51b9,688239ea-519a-11ea-a658-0b81da70737d
68550362-519a-11ea-825f-8fabce3322a6,68824ea8-519a-11ea-b7d4-7fbf052e1355
684f1ea2-519a-11ea-9e4e-9b377761b022,688295d4-519a-11ea-ae59-53bb43f0bbb4
6854816c-519a-11ea-b0c4-5be385c3837a,6882b398-519a-11ea-ba91-ffee5e0444bd
686a4b0a-519a-11ea-8f54-f7554e5035b9,6882edea-519a-11ea-a568-b3fc2ef00173
68761f66-519a-11ea-951e-37c8afa2a1fe,68830b04-519a-11ea-aaf9-5b68d490ffe2
685a3706-519a-11ea-b45c-8fdfafdc3b80,68834344-519a-11ea-b779-4742418fd5fb
6882edea-519a-11ea-a568-b3fc2ef00173,6883b41e-519a-11ea-bd22-dfe0e6b82325
686906fa-519a-11ea-bb53-130ae8b657d6,6883c652-519a-11ea-86e0-73022981256b
684d4ba4-519a-11ea-b9a2-1f545085631a,68842a34-519a-11ea-8f28-ab7330aa5e02
6873dd8c-519a-11ea-9834-8b9d271f3be4,68841846-519a-11ea-ae6e-c3f39d72c223
6855a286-519a-11ea-9e88-ff33df7149d3,6884636e-519a-11ea-aa40-0b670c5ffbf2
684e41bc-519a-11ea-8bc6-87ea7baf2229,68849a28-519a-11ea-b1e3-3f3bf74f8b81
685c49c4-519a-11ea-84d2-83d4659e6d6b,6884cd90-519a-11ea-acf3-5b9056b54879
685e9b84-519a-11ea-86e4-8723ac7cd04b,6884de98-519a-11ea-9a3e-73d44fe37d15
68553bfc-519a-11ea-b8b2-6f087f0b6d8b,6884fb9e-519a-11ea-8007-27287288e981
6882b398-519a-11ea-ba91-ffee5e0444bd,688558a0-519a-11ea-a21b-c787c702beae
6880bf02-519a-11ea-a6f8-a7f2621e83fc,68856b56-519a-11ea-8a44-9fafa3696c0d
6879ef2e-519a-11ea-b287-473c41e62b34,68857952-519a-11ea-8903-635135a8d74e
68606004-519a-11ea-a120-c73e247291c9,6885982e-519a-11ea-adf7-1bdddf04394f
684f0b7e-519a-11ea-b8d6-5b2bb95101dd,6885b48a-519a-11ea-a4e9-e70cd80a8be2
6862af12-519a-11ea-a892-039a4e77491c,6885e23e-519a-11ea-9381-c354ceb812a7
6869817a-519a-11ea-93a0-b7be6ed328cb,6885f1f2-519a-11ea-9629-7f5bd118e40b
684fe7ba-519a-11ea-a84b-dbd6aad0f24f,6886449a-519a-11ea-a1cb-6b2712f34daa
68621bba-519a-11ea-843c-2bbf6143437f,68865dfe-519a-11ea-b6cd-fff7379914d8
686a9aba-519a-11ea-9e45-b7038dafecc1,6886719a-519a-11ea-abf9-7f9dd82597f1
684e41bc-519a-11ea-8bc6-87ea7baf2229,688695b2-519a-11ea-88db-eb172297ef10
685002c2-519a-11ea-9131-5378cb32d807,6886f232-519a-11ea-928f-f7213bada1f7
685580c6-519a-11ea-b86e-7b598ad7cd52,68872446-519a-11ea-a4b1-4f03eace87bc
68504cf0-519a-11ea-b077-1fe3dd43295c,68873760-519a-11ea-8799-d70655137112
6863ee72-519a-11ea-b44c-138380573e3c,6887605a-519a-11ea-8301-eb3fe3ad004b
686681b4-519a-11ea-b1cf-8758e110d734,68877bd0-519a-11ea-a1cb-0f5dbaf15169
685ddeb0-519a-11ea-8a5c-dbcc2b6be3d2,6887f31c-519a-11ea-b0c6-ffaf4cc9dcf7
68877bd0-519a-11ea-a1cb-0f5dbaf15169,68880744-519a-11ea-819d-63910bc5c360
686e8d00-519a-11ea-acf9-bbd57295da61,688827b0-519a-11ea-b49c-e311d81d33ee
68565eb0-519a-11ea-ada2-2357d86fbfff,68884bd2-519a-11ea-8d6d-933ba44d6842
68538a8c-519a-11ea-96f0-53985c0c5147,68888372-519a-11ea-aba6-332041c556b2
68653bd8-519a-11ea-8556-2b66ef1a42ba,688897ea-519a-11ea-9686-cf6275b898d6
6881809a-519a-11ea-8771-9f81d7d2ef61,6888aa00-519a-11ea-8955-03eddeafca42
685dcefc-519a-11ea-b814-ab84b29052f2,6888cdb4-519a-11ea-957f-df7c365fe5ae
684d7d90-519a-11ea-b1f0-ab5eb582d288,688915e4-519a-11ea-b107-a3b00e940951
68641438-519a-11ea-875e-1788cc3e44c4,68895144-519a-11ea-878e-0fed9ff72ee1
685d427a-519a-11ea-a999-6712877363ac,68897926-519a-11ea-92f3-6352acffe8b1
687260f6-519a-11ea-bd29-97ba1f19d0fc,68896aa8-519a-11ea-a280-43ecaae6362e
6873be4c-519a-11ea-ae42-7b7eafc28f95,68898d6c-519a-11ea-8670-dbf4a3475000
686f0b4a-519a-11ea-91b4-07a56aa46b19,6889fb30-519a-11ea-87f4-271640727f0a
687d4142-519a-11ea-a4fb-4f9a237ea130,688a1368-519a-11ea-894a-abcd516294fb
684e7998-519a-11ea-b1d9-d3324393aa4f,688a27b8-519a-11ea-b4bb-7f2d6df9cdd7
685622c4-519a-11ea-aa94-8b33ba4a7da1,688a3f00-519a-11ea-ba5e-b36382df0413
6867fff8-519a-11ea-9bed-7b4f38d408d3,688aa8b4-519a-11ea-b5e4-ef68bb3cc7c8
685f0ad8-519a-11ea-a2ac-5bf9ee17c9d8,688abd90-519a-11ea-a390-b71c55866f98
6860889a-519a-11ea-be16-d30a2734e357,688ada28-519a-11ea-885d-b792d811562c
6863c3f2-519a-11ea-bf6c-0bf995b38c38,688b02aa-519a-11ea-ad26-8fb446a15bed
68641438-519a-11ea-875e-1788cc3e44c4,688b4e7c-519a-11ea-aa87-abeaa8e6ddc7
684d5a5e-519a-11ea-a41e-93d6f5537bfa,688b7942-519a-11ea-aa76-339a477b70d5
684e41bc-519a-11ea-8bc6-87ea7baf2229,688b9986-519a-11ea-b564-875c3d1349d2
686ac422-519a-11ea-a7a4-87539443b795,688bc9ce-519a-11ea-aab0-df47e22bbf84
68532a10-519a-11ea-bd85-d3de07044ea3,688c27b6-519a-11ea-847f-3ba4b8a24561
685ee0ee-519a-11ea-aa62-07cc1b9a2cb9,688c5484-519a-11ea-9715-d73cc40b89ad
6884de98-519a-11ea-9a3e-73d44fe37d15,688c763a-519a-11ea-be85-5f8e02f8efaf
686e7248-519a-11ea-8fb1-e76b2d035630,688ca42a-519a-11ea-9885-2f3c88e6768b
686d68bc-519a-11ea-a9d2-2f08914ff92a,688cd35a-519a-11ea-b050-ffc2e5b04694
686ca008-519a-11ea-bc21-77561f55c3d1,688d1b58-519a-11ea-91e4-5b1ac7f8a3e9
6860889a-519a-11ea-be16-d30a2734e357,688d3692-519a-11ea-a36d-6b1138513010
685d2b3c-519a-11ea-9883-eb162c0a335e,688d560e-519a-11ea-8c05-c71166d9ba79
685f0ad8-519a-11ea-a2ac-5bf9ee17c9d8,688dcd6e-519a-11ea-9b0d-1f3c0207b5ef
68747166-519a-11ea-9fa3-5f9708dbc2ee,688dfa32-519a-11ea-8ff7-4f4315a9eec9
68732cde-519a-11ea-b3fe-43175409f5c1,688e994c-519a-11ea-9ce9-7b47976117a9
68621bba-519a-11ea-843c-2bbf6143437f,688ee0be-519a-11ea-85ca-1b56525457b8
68526f6c-519a-11ea-9963-0f16b9096aa5,688ebe68-519a-11ea-9531-7baf3d3cfec7
68763a6e-519a-11ea-94db-e3d41b18f0d0,688f6200-519a-11ea-866e-538d985d1221
68532a10-519a-11ea-bd85-d3de07044ea3,688f7e84-519a-11ea-94ae-df88b9fedded
6887605a-519a-11ea-8301-eb3fe3ad004b,688fba48-519a-11ea-ba14-5700d3515540
68641438-519a-11ea-875e-1788cc3e44c4,688fe414-519a-11ea-9a1c-bf0b519a831a
685cff90-519a-11ea-ac76-0bd0af0e66f2,68900070-519a-11ea-aacf-df5146c828aa
6852a6f8-519a-11ea-8a0f-57eeddcc6136,68904a9e-519a-11ea-bdb2-a706c0575fe0
6853a6ac-519a-11ea-9dad-abd39ea6abee,68907438-519a-11ea-8450-f75aeeb2e54a
688915e4-519a-11ea-b107-a3b00e940951,6890936e-519a-11ea-b408-47a1ba0e1655
686c58f0-519a-11ea-a4c2-67d5cce40e8a,68910b14-519a-11ea-a174-f7e9b3fa4e16
686fc3c8-519a-11ea-be80-53be8861cbf4,68913c60-519a-11ea-a558-ffc39c528cdf
6885f1f2-519a-11ea-9629-7f5bd118e40b,689165aa-519a-11ea-85da-7f5d3cb61875
684e7998-519a-11ea-b1d9-d3324393aa4f,6891a2ae-519a-11ea-92f4-1770b95cf07d
688fba48-519a-11ea-ba14-5700d3515540,6891c860-519a-11ea-a3fa-d7e9a840f98c
687acd04-519a-11ea-955a-c3c0661e1b3d,68922d96-519a-11ea-8854-93da42fa2e04
68600a0a-519a-11ea-9787-93ed9ce93918,6892556e-519a-11ea-b727-ff07f4b021dd
687ee5f6-519a-11ea-aa9a-7764dc0ac0bd,68926de2-519a-11ea-bf15-ab8978021099
688f7e84-519a-11ea-94ae-df88b9fedded,68929ff6-519a-11ea-b834-63acdd6d6fe4
6863a4d0-519a-11ea-92cc-e7ccaf79d18a,6892ddae-519a-11ea-87c9-1f0e52adc6e8
68791108-519a-11ea-b25c-f34eb2470ebf,689330ce-519a-11ea-ab25-efa2036f61b7
686382b6-519a-11ea-a216-072019f91455,68934be0-519a-11ea-b170-178ff8ffe7df
68907438-519a-11ea-8450-f75aeeb2e54a,68937ce6-519a-11ea-a41c-2b9c3c85cf31
688218e8-519a-11ea-8759-f7fdf5391e13,6893683c-519a-11ea-9047-ebabeb3f4b14
685acb08-519a-11ea-9c87-cb7f6204afac,68943636-519a-11ea-a59d-3b1f3bb23693
68824ea8-519a-11ea-b7d4-7fbf052e1355,68945d28-519a-11ea-9151-5b286d4eb736
68532a10-519a-11ea-bd85-d3de07044ea3,689484ba-519a-11ea-9245-431dfeba64d9
684d4ba4-519a-11ea-b9a2-1f545085631a,6894a8b4-519a-11ea-a80d-f78c8933525f
685d2b3c-519a-11ea-9883-eb162c0a335e,689579ce-519a-11ea-82a5-87b23748ff2a
6876cd4e-519a-11ea-82d9-6b13aec1497c,6895b75e-519a-11ea-89b2-23491a85f381
6884cd90-519a-11ea-acf3-5b9056b54879,6895f50c-519a-11ea-a952-9bff96454e6e
686a9aba-519a-11ea-9e45-b7038dafecc1,68961b9a-519a-11ea-bb64-0bb3e5f4f5e2
687ebb3a-519a-11ea-bafd-777223cc1165,6896f600-519a-11ea-880d-37b8d669b582
6870c08e-519a-11ea-8abf-e7681ae25958,68972774-519a-11ea-96e4-b30cbe118022
68898d6c-519a-11ea-8670-dbf4a3475000,689743c6-519a-11ea-aa0a-d7a2caf6cb5e
68904a9e-519a-11ea-bdb2-a706c0575fe0,6897604a-519a-11ea-a8c9-833de65fc9dc
685fb370-519a-11ea-a2a2-cbe53ec68969,6897fe38-519a-11ea-aeae-c796ada660ec
6884fb9e-519a-11ea-8007-27287288e981,68981ad0-519a-11ea-933e-9ba9700282e0
6867e658-519a-11ea-9fda-8facaecdf4c0,6898677e-519a-11ea-83d2-9303e95c9f87
687b58fa-519a-11ea-b08b-8fd2fe374a99,6898827c-519a-11ea-b872-1bf7e62cc16b
6876aa62-519a-11ea-b775-2352fe6f35e1,6898ec6c-519a-11ea-9bfa-ab289d0827af
6861905a-519a-11ea-9457-a73cda7c648a,68991052-519a-11ea-84c1-0b6c6dd4bc89
688e994c-519a-11ea-9ce9-7b47976117a9,68995062-519a-11ea-8a79-cf3f471ca4f6
687260f6-519a-11ea-bd29-97ba1f19d0fc,6899bfd4-519a-11ea-aecf-a702834fbeda
68514998-519a-11ea-9f8c-83d958286429,68999cc0-519a-11ea-b280-c7ae0697f0ec
685ab168-519a-11ea-af57-c739a44eaf5d,689a1dc6-519a-11ea-9466-276b971d4c38
68609952-519a-11ea-816c-c35be8ec3caa,689a53d6-519a-11ea-9cee-17f7ccbb12ef
68937ce6-519a-11ea-a41c-2b9c3c85cf31,689a6ba0-519a-11ea-8500-b3b69b3dc8c1
68841846-519a-11ea-ae6e-c3f39d72c223,689a802c-519a-11ea-83d4-d3ab0a507df3
685580c6-519a-11ea-b86e-7b598ad7cd52,689ac744-519a-11ea-8c43-63700ad214cc
6884de98-519a-11ea-9a3e-73d44fe37d15,689afae8-519a-11ea-b925-f30a4245c2cb
685245aa-519a-11ea-b851-4f4f7985fa6b,689b5ea2-519a-11ea-873d-4b37493e1a9f
6885982e-519a-11ea-adf7-1bdddf04394f,689b775c-519a-11ea-bd3d-5f33b8dae1ed
6861905a-519a-11ea-9457-a73cda7c648a,689c0960-519a-11ea-8120-3bb7bf196186
688076fa-519a-11ea-a5de-13b215c42bb3,689c2bca-519a-11ea-97da-5bbdd1eb218d
686ea402-519a-11ea-aa54-b7efcaa16046,689c4056-519a-11ea-bb19-53a244b58bc2
6866acde-519a-11ea-8b94-3b35da6dc0c5,689c587a-519a-11ea-adfa-7f44281a95ee
689c0960-519a-11ea-8120-3bb7bf196186,689ca050-519a-11ea-8e20-43fb22b2dd8b
685c49c4-519a-11ea-84d2-83d4659e6d6b,689ce268-519a-11ea-8143-cfb09834badc
685ddeb0-519a-11ea-8a5c-dbcc2b6be3d2,689cf5f0-519a-11ea-a8b1-8f7a47650a5c
688558a0-519a-11ea-a21b-c787c702beae,689d16ca-519a-11ea-bd85-23981fede370
6867e658-519a-11ea-9fda-8facaecdf4c0,689d4078-519a-11ea-9901-ff5099016e4c
688897ea-519a-11ea-9686-cf6275b898d6,689da19e-519a-11ea-a313-5f2bb412ad31
687e1694-519a-11ea-84cd-db23fd73ae87,689db530-519a-11ea-a241-237d5ffb6e86
688ca42a-519a-11ea-9885-2f3c88e6768b,689ddb14-519a-11ea-bf4e-bf3b4b64a58e
685fdf94-519a-11ea-9e57-cf874c0094b2,689df180-519a-11ea-bfca-2727730958d2
685cff90-519a-11ea-ac76-0bd0af0e66f2,689e7740-519a-11ea-b04c-d3e8cfd159c9
6897604a-519a-11ea-a8c9-833de65fc9dc,689e90c2-519a-11ea-8a90-9fc57524c1ba
6864fc9a-519a-11ea-a7ec-fbd2e2599ce3,689edfb4-519a-11ea-84ce-d76700f31ceb
68900070-519a-11ea-aacf-df5146c828aa,689ef08a-519a-11ea-986c-6b756f01c24a
68945d28-519a-11ea-9151-5b286d4eb736,689f2b40-519a-11ea-bbb2-430ab4a3a162
686b8010-519a-11ea-9ab3-0b27bfc3f9d1,689f4a6c-519a-11ea-8be9-779ca27ce1c1
68929ff6-519a-11ea-b834-63acdd6d6fe4,689f6556-519a-11ea-afad-070057b2aab2
688c763a-519a-11ea-be85-5f8e02f8efaf,689f7c58-519a-11ea-961b-1bdac576d3e2
68514998-519a-11ea-9f8c-83d958286429,689fec06-519a-11ea-8aab-8bf33efe2849
6853dfa0-519a-11ea-954f-ffdb6a5a2d91,68a01046-519a-11ea-b8a6-0f660b909996
688b4e7c-519a-11ea-aa87-abeaa8e6ddc7,68a0281a-519a-11ea-b149-ab06bd351eb1
688076fa-519a-11ea-a5de-13b215c42bb3,68a0897c-519a-11ea-9e00-d31b5f26538f
68573664-519a-11ea-bdfb-6b0c5206debe,68a0a42a-519a-11ea-aea1-0b2ec3d55bdb
689ca050-519a-11ea-8e20-43fb22b2dd8b,68a0c8f6-519a-11ea-95de-4b542721387e
688cd35a-519a-11ea-b050-ffc2e5b04694,68a0db52-519a-11ea-909f-934765c4768e
6872451c-519a-11ea-85e6-db29fb3eab96,68a119c8-519a-11ea-9ced-6b1d812d3a72
68717d1c-519a-11ea-aeb7-13216384b165,68a130fc-519a-11ea-ac63-c75745c5b70d
685c49c4-519a-11ea-84d2-83d4659e6d6b,68a163c4-519a-11ea-bdae-8f89a1a1c8ad
68553bfc-519a-11ea-b8b2-6f087f0b6d8b,68a17efe-519a-11ea-9f1e-9f4cc914f5b6
687fe6fe-519a-11ea-9ee9-e744a4bb90d5,68a1ce36-519a-11ea-b342-3b8ede89b72e
6863c3f2-519a-11ea-bf6c-0bf995b38c38,68a1e11e-519a-11ea-bce4-ff9f1af2e737
6852561c-519a-11ea-bfc0-df5f34a9fd58,68a1fd7a-519a-11ea-9a77-dfe147790c5b
689ca050-519a-11ea-8e20-43fb22b2dd8b,68a227c8-519a-11ea-a33e-afc677225242
685e65c4-519a-11ea-8908-63b681341736,68a27818-519a-11ea-b687-23b715d034cf
685e65c4-519a-11ea-8908-63b681341736,68a28cf4-519a-11ea-ab1b-1b39e21b0f22
685c49c4-519a-11ea-84d2-83d4659e6d6b,68a2a374-519a-11ea-8ff8-b38891fdae8f
687594ec-519a-11ea-b03c-eb08c078faed,68a33a6e-519a-11ea-ad52-c78c33780967
68532a10-519a-11ea-bd85-d3de07044ea3,68a3515c-519a-11ea-9f70-1389e5528343
6876aa62-519a-11ea-b775-2352fe6f35e1,68a368d6-519a-11ea-b296-53d9f88d22a1
68808622-519a-11ea-8042-fb88b910627d,68a3793e-519a-11ea-80aa-af7c3f0504a2
685f3760-519a-11ea-8b8a-f30cd315123f,68a3f4cc-519a-11ea-9430-1b161602260c
6891a2ae-519a-11ea-92f4-1770b95cf07d,68a41894-519a-11ea-b0bd-6348d8dea69b
685e2ce4-519a-11ea-b689-47fe24111e3d,68a42b86-519a-11ea-933a-e3a250746098
6850c6d0-519a-11ea-bfe4-e35881957dd2,68a43eb4-519a-11ea-aca1-03a6443d2253
68877bd0-519a-11ea-a1cb-0f5dbaf15169,68a49490-519a-11ea-b97e-679593687e2e
6852561c-519a-11ea-bfc0-df5f34a9fd58,68a4a6e2-519a-11ea-b102-83d353e3722c
68814da0-519a-11ea-96c5-7f13ad674057,68a4b768-519a-11ea-9bd2-574602e329c2
6890936e-519a-11ea-b408-47a1ba0e1655,68a4c988-519a-11ea-9545-f392e27decab
685e8c8e-519a-11ea-988d-ff14dcfd16d6,68a53454-519a-11ea-a5ce-9f08ce5a57b3
6876bcf0-519a-11ea-bd6a-9f2b03c20fd6,68a55da8-519a-11ea-ad98-ffe23a86ebd5
687dc11c-519a-11ea-8268-87b4af3e7edf,68a581c0-519a-11ea-ae06-33550a9bd38b
6870d4f2-519a-11ea-a730-3b3c5b8cc7bb,68a5a768-519a-11ea-b721-57a924d3edd3
689fec06-519a-11ea-8aab-8bf33efe2849,68a5d5a8-519a-11ea-8b00-f704d2a19d93
68884bd2-519a-11ea-8d6d-933ba44d6842,68a6364c-519a-11ea-9b77-474f95a0204a
688b7942-519a-11ea-aa76-339a477b70d5,68a649f2-519a-11ea-bd5c-07dc17b66655
68808622-519a-11ea-8042-fb88b910627d,68a65c30-519a-11ea-971b-6389e1888f82
685002c2-519a-11ea-9131-5378cb32d807,68a6738c-519a-11ea-a046-bf72d57b833b
68a119c8-519a-11ea-9ced-6b1d812d3a72,68a6d494-519a-11ea-aad8-afa902067662
685425a0-519a-11ea-b402-d7ce85101969,68a6f2e4-519a-11ea-9430-d3c1af5bd818
68674f68-519a-11ea-a1df-efaef3797a0b,68a709fa-519a-11ea-afda-1b77fb442c4c
689fec06-519a-11ea-8aab-8bf33efe2849,68a7339e-519a-11ea-9193-83382943ff82
685002c2-519a-11ea-9131-5378cb32d807,68a781d2-519a-11ea-97c7-3f3713856dde
6861ab4e-519a-11ea-9a48-1b90eccabf4c,68a7ecc6-519a-11ea-9d96-331ff717d35c
6887f31c-519a-11ea-b0c6-ffaf4cc9dcf7,68a80c9c-519a-11ea-a8b9-1f365b38499d
689579ce-519a-11ea-82a5-87b23748ff2a,68a83d16-519a-11ea-b319-3be28d5ada89
6876aa62-519a-11ea-b775-2352fe6f35e1,68a84a54-519a-11ea-93f3-c36eef9b484d
6892556e-519a-11ea-b727-ff07f4b021dd,68a8f76a-519a-11ea-91ff-13335791cb05
68760418-519a-11ea-a7aa-cbc171d92199,68a91a9c-519a-11ea-af97-e394716173c3
6877e936-519a-11ea-953a-13434e6e51b9,68a93798-519a-11ea-a108-f78d9b68f649
68792cb0-519a-11ea-b177-3f9d3cdb7145,68a952a0-519a-11ea-8f0f-e3b023e99637
68654f60-519a-11ea-bd9f-2b69bfa78ac7,68a9f6c4-519a-11ea-9026-4b913159cbde
688ee0be-519a-11ea-85ca-1b56525457b8,68aa21f8-519a-11ea-88e6-7f15462f41ce
688a1368-519a-11ea-894a-abcd516294fb,68aa4200-519a-11ea-9e52-abed924abc25
684d4ba4-519a-11ea-b9a2-1f545085631a,68aa6fd2-519a-11ea-b4c8-7f500da1f2c6
686c3fd2-519a-11ea-ba1e-47d5881268a3,68aabc8a-519a-11ea-bc8d-1f4dd7a7aa53
689330ce-519a-11ea-ab25-efa2036f61b7,68ab6fc2-519a-11ea-bdb6-2718695e06ea
684d7d90-519a-11ea-b1f0-ab5eb582d288,68ab940c-519a-11ea-ad38-374e5b46c070
689f2b40-519a-11ea-bbb2-430ab4a3a162,68abad02-519a-11ea-8947-d3d51508c502
6897fe38-519a-11ea-aeae-c796ada660ec,68abc10c-519a-11ea-8b88-6f852eacc76c
687acd04-519a-11ea-955a-c3c0661e1b3d,68ac0914-519a-11ea-9f5e-d3ef1e9f6819
687740bc-519a-11ea-8c2c-239f71f5c2b7,68ac1e54-519a-11ea-a8b8-93fa804b0f0a
68630db8-519a-11ea-a0c7-4ff906e0845a,68ac2f84-519a-11ea-bc33-57ddf4c990d9
6899bfd4-519a-11ea-aecf-a702834fbeda,68ac79ee-519a-11ea-9e91-2332f256cedd
686a1112-519a-11ea-a1d4-2b20097006e2,68accac0-519a-11ea-9f20-73656fad8c50
689f2b40-519a-11ea-bbb2-430ab4a3a162,68acdf88-519a-11ea-914c-e3181549eaf1
689ce268-519a-11ea-8143-cfb09834badc,68acf3ec-519a-11ea-9621-dbc7c402fe70
6886449a-519a-11ea-a1cb-6b2712f34daa,68ad4af4-519a-11ea-9ea8-dfee79d0ec8e
686b5838-519a-11ea-abfe-f76e73762354,68ad661a-519a-11ea-b197-cb30586e8bc6
68760418-519a-11ea-a7aa-cbc171d92199,68ad982e-519a-11ea-a9a7-ebae760342b6
68a65c30-519a-11ea-971b-6389e1888f82,68adb796-519a-11ea-a318-cb8de87e985b
68732cde-519a-11ea-b3fe-43175409f5c1,68ae18bc-519a-11ea-9b01-a354233894b0
6879ef2e-519a-11ea-b287-473c41e62b34,68ae33b0-519a-11ea-ba76-3785313e0c87
684d7d90-519a-11ea-b1f0-ab5eb582d288,68ae4594-519a-11ea-8b62-f30583e08c3f
6883c652-519a-11ea-86e0-73022981256b,68ae567e-519a-11ea-ab1c-1b8fb2bc7eb5
685f967e-519a-11ea-8c6d-3bf5c3f2cb5d,68aeb178-519a-11ea-88ff-6792a77515a9
685d427a-519a-11ea-a999-6712877363ac,68aec6ea-519a-11ea-a675-23339fe4ff51
68880744-519a-11ea-819d-63910bc5c360,68aed748-519a-11ea-92d0-4f12228b2460
685a9d2c-519a-11ea-94ab-734702ebc9d5,68aef41c-519a-11ea-aae4-f3e01e64b8c1
686af276-519a-11ea-ae2b-1302e1917bbb,68af25c2-519a-11ea-85d1-83792e080161
6858ee78-519a-11ea-8a01-838ddc367282,68af829c-519a-11ea-8026-4b807e413b8b
68961b9a-519a-11ea-bb64-0bb3e5f4f5e2,68af9a2a-519a-11ea-a103-fb58870e762d
6864fc9a-519a-11ea-a7ec-fbd2e2599ce3,68affb1e-519a-11ea-9c6b-4f53bb5b70b6
68a6d494-519a-11ea-aad8-afa902067662,68b0247c-519a-11ea-bc69-9338f9c004ba
6877f94e-519a-11ea-ac2c-3378b534831b,68b058ac-519a-11ea-ba9c-7b4f40ca92d2
685245aa-519a-11ea-b851-4f4f7985fa6b,68b092a4-519a-11ea-b3f0-f7cd69883c3f
687f5af4-519a-11ea-b6e0-93f098dd2fcb,68b0b626-519a-11ea-8179-ef044e9a54d6
686cf6fc-519a-11ea-ab6f-f3851ed1c922,68b0fda2-519a-11ea-8c39-4b5a0e782ad5
68793d0e-519a-11ea-8668-ef58b18c095b,68b11602-519a-11ea-a75e-4fe185436171
685622c4-519a-11ea-aa94-8b33ba4a7da1,68b147bc-519a-11ea-a115-fb31e928cd65
687594ec-519a-11ea-b03c-eb08c078faed,68b186b4-519a-11ea-8a8c-d329f36aa7e6
6862c394-519a-11ea-abd2-6b2d34706e4a,68b1a040-519a-11ea-864e-ebe88c3e0fa1
687260f6-519a-11ea-bd29-97ba1f19d0fc,68b2045e-519a-11ea-b121-2f0b3d6232e6
68696a82-519a-11ea-b984-d3047364f5f4,68b21f48-519a-11ea-a05f-dba26a37a706
6864bb22-519a-11ea-abba-c733ec74d811,68b236fe-519a-11ea-b81d-a715eb9b3d2a
68a952a0-519a-11ea-8f0f-e3b023e99637,68b24da6-519a-11ea-8c2e-b7af6c50c433
687d932c-519a-11ea-974d-e3910976cf8a,68b2f4ea-519a-11ea-a08c-cb09768acaf9
688dfa32-519a-11ea-8ff7-4f4315a9eec9,68b33284-519a-11ea-9319-532d995cfd5a
68accac0-519a-11ea-9f20-73656fad8c50,68b35570-519a-11ea-b099-bf6450f844f3
68674f68-519a-11ea-a1df-efaef3797a0b,68b386da-519a-11ea-8d35-efef1e14e50c
68b092a4-519a-11ea-b3f0-f7cd69883c3f,68b3cfbe-519a-11ea-94a7-579a87f8dfa1
6879df0c-519a-11ea-8575-c3517094b05e,68b40e70-519a-11ea-9ac7-63cd5ea4281d
68532a10-519a-11ea-bd85-d3de07044ea3,68b42612-519a-11ea-8e8f-27cfe1701691
68808622-519a-11ea-8042-fb88b910627d,68b4408e-519a-11ea-b8cf-c381c15e3da2
689ac744-519a-11ea-8c43-63700ad214cc,68b4ab82-519a-11ea-a7e4-23bb0620cf92
6850aaba-519a-11ea-8567-97ea89754dbb,68b4c284-519a-11ea-ac1f-8bb5b84c4d7f
6894a8b4-519a-11ea-a80d-f78c8933525f,68b4e0ca-519a-11ea-b29f-e34783c44b5b
68acdf88-519a-11ea-914c-e3181549eaf1,68b52300-519a-11ea-8174-af77ab490e1a
684d6d00-519a-11ea-822b-73d525fb4ce5,68b5451a-519a-11ea-881e-c3f7bd4a4b58
689a6ba0-519a-11ea-8500-b3b69b3dc8c1,68b5f488-519a-11ea-a01d-e71e631e150b
68703b8c-519a-11ea-b194-e3930b632835,68b5e02e-519a-11ea-8378-2b8dac23d16e
68895144-519a-11ea-878e-0fed9ff72ee1,68b60d9c-519a-11ea-bba1-67975795c23c
687e0302-519a-11ea-a233-6be9a2821fd7,68b61f30-519a-11ea-b7fd-f3436d162573
687f7598-519a-11ea-850b-ffd7878dcebb,68b6b2d8-519a-11ea-89ab-975d195a6c72
689afae8-519a-11ea-b925-f30a4245c2cb,68b6df92-519a-11ea-a9a9-4f97bf9b036e
6861ab4e-519a-11ea-9a48-1b90eccabf4c,68b6f9f0-519a-11ea-9681-cb3ec5134c50
684f5200-519a-11ea-9be1-ef716873f90e,68b73104-519a-11ea-be9c-3bf47e63b329
6855b37a-519a-11ea-8c18-a3c6c6ef66c9,68b78b18-519a-11ea-bee9-7b8ef8be058c
686e443a-519a-11ea-9085-6f1aba0510e0,68b79ff4-519a-11ea-9c7c-6f90e6d12da6
68972774-519a-11ea-96e4-b30cbe118022,68b7b2fa-519a-11ea-b971-27c4bb1af549
6850aaba-519a-11ea-8567-97ea89754dbb,68b7c7fe-519a-11ea-9cd7-2b1ba97066a0
6891c860-519a-11ea-a3fa-d7e9a840f98c,68b84bf2-519a-11ea-a657-7b7c16d126e2
68a6738c-519a-11ea-a046-bf72d57b833b,68b8792e-519a-11ea-8268-cf50a6571c00
688b7942-519a-11ea-aa76-339a477b70d5,68b88c0c-519a-11ea-b194-072a655ff63e
6854a1a6-519a-11ea-8616-27af77c0ef68,68b8b2fe-519a-11ea-8509-3760feb18110
685f967e-519a-11ea-8c6d-3bf5c3f2cb5d,68b8d496-519a-11ea-97b1-73dd368933c8
6869dee0-519a-11ea-a8e1-83edd73dfc3b,68b92428-519a-11ea-a3bf-6f447ef7adec
6874c788-519a-11ea-90b4-977158b0b948,68b93a1c-519a-11ea-b97a-03ea6e5a2149
68705acc-519a-11ea-a4ec-171dffce7513,68b983d2-519a-11ea-a811-47b6e577fff3
689cf5f0-519a-11ea-a8b1-8f7a47650a5c,68b99a0c-519a-11ea-82bc-839553b631f3
68865dfe-519a-11ea-b6cd-fff7379914d8,68ba2b20-519a-11ea-9016-3f45f8230100
68865dfe-519a-11ea-b6cd-fff7379914d8,68ba4448-519a-11ea-ab8b-9f03554457dd
6859f6c4-519a-11ea-83d1-83dd1d5f40c8,68ba64c8-519a-11ea-9180-3f7f10e87783
68a6738c-519a-11ea-a046-bf72d57b833b,68baf370-519a-11ea-a794-3b0131b3a6ce
686178d6-519a-11ea-a9b6-5f9d80887222,68bb2692-519a-11ea-94ac-a3e3a2ed414d
68816920-519a-11ea-a32d-5bcd7217a529,68bb6ed6-519a-11ea-ad8a-d70085e8fa67
684d7d90-519a-11ea-b1f0-ab5eb582d288,68bbd920-519a-11ea-8c12-b374d61ceb59
68857952-519a-11ea-8903-635135a8d74e,68bc0a58-519a-11ea-84b1-c74a923f509d
6884cd90-519a-11ea-acf3-5b9056b54879,68bc290c-519a-11ea-a114-c36f643bb65f
68760dbe-519a-11ea-a70e-f3891fc9a4c2,68bc6714-519a-11ea-acbc-ff6f84442564
68a4a6e2-519a-11ea-b102-83d353e3722c,68bce46e-519a-11ea-a328-ebc1560d4f81
686fd85e-519a-11ea-b577-c356288a5bff,68bd20f0-519a-11ea-af0f-57ee189ae67d
6863ee72-519a-11ea-b44c-138380573e3c,68bd6632-519a-11ea-978e-ff684c4dbc2d
68673906-519a-11ea-8b2d-e3b2f7c3cc13,68bd7e06-519a-11ea-8d14-535706a26ceb
689e7740-519a-11ea-b04c-d3e8cfd159c9,68bd9b52-519a-11ea-879f-c3ab1781a677
689c587a-519a-11ea-adfa-7f44281a95ee,68bde4f4-519a-11ea-9642-63e9db412e8e
686f0b4a-519a-11ea-91b4-07a56aa46b19,68be0510-519a-11ea-801b-e770a7290a38
68a649f2-519a-11ea-bd5c-07dc17b66655,68be1b2c-519a-11ea-b476-972517ac13f3
6879aca8-519a-11ea-96a8-6b277b4647d6,68be31f2-519a-11ea-b636-2f704e90dc00
6855b37a-519a-11ea-8c18-a3c6c6ef66c9,68be6c6c-519a-11ea-b2a5-7ba027350006
6872451c-519a-11ea-85e6-db29fb3eab96,68beba46-519a-11ea-ac5c-03d3c3b3ea10
68937ce6-519a-11ea-a41c-2b9c3c85cf31,68bedc1a-519a-11ea-ba0c-0f563aae97e7
68bd9b52-519a-11ea-879f-c3ab1781a677,68beec46-519a-11ea-a425-f34d8e893236
68b33284-519a-11ea-9319-532d995cfd5a,68bf0384-519a-11ea-b10d-d3f29162c877
68b92428-519a-11ea-a3bf-6f447ef7adec,68bf6252-519a-11ea-a2ac-77c116746670
68a1e11e-519a-11ea-bce4-ff9f1af2e737,68bf7cce-519a-11ea-b9bf-cb7712db5973
687bd104-519a-11ea-b251-d317d5f63a18,68bf902e-519a-11ea-9d4c-3f8892924d33
68ac1e54-519a-11ea-a8b8-93fa804b0f0a,68bfa0dc-519a-11ea-9347-835fcbc4451a
68621bba-519a-11ea-843c-2bbf6143437f,68c04e42-519a-11ea-8b01-6301d32bf014
687e2814-519a-11ea-b93d-5325e3082762,68c06cf6-519a-11ea-910d-7768d8cff0fc
6891c860-519a-11ea-a3fa-d7e9a840f98c,68c076e2-519a-11ea-a501-1f76a21b371d
684f5200-519a-11ea-9be1-ef716873f90e,68c0b300-519a-11ea-8341-03878835a27a
6860e9a2-519a-11ea-ba55-57e508614469,68c127ea-519a-11ea-997c-53129342f53e
68a49490-519a-11ea-b97e-679593687e2e,68c14086-519a-11ea-ba09-03f6c2f2dfb7
68880744-519a-11ea-819d-63910bc5c360,68c15332-519a-11ea-b87f-a7d6e3dd1aed
68793d0e-519a-11ea-8668-ef58b18c095b,68c1b5b6-519a-11ea-a714-dff5ef551246
68a83d16-519a-11ea-b319-3be28d5ada89,68c1986a-519a-11ea-b199-bf5c02c9aa0d
6867e658-519a-11ea-9fda-8facaecdf4c0,68c1c920-519a-11ea-b712-0313ea1d953f
68b42612-519a-11ea-8e8f-27cfe1701691,68c2372a-519a-11ea-ae82-1b7c95b98ca8
68a649f2-519a-11ea-bd5c-07dc17b66655,68c24f26-519a-11ea-99bf-e7e32414aa52
68705acc-519a-11ea-a4ec-171dffce7513,68c2610a-519a-11ea-bbb3-0b4c40fd0bb6
6852561c-519a-11ea-bfc0-df5f34a9fd58,68c274b0-519a-11ea-8d52-9bd6cb551b31
6866f928-519a-11ea-91ff-cf4cea647444,68c2f138-519a-11ea-8031-5b69ac500327
685b10c2-519a-11ea-98f4-83296b8dad79,68c30722-519a-11ea-abd3-c7617fb1d6d4
68824ea8-519a-11ea-b7d4-7fbf052e1355,68c33968-519a-11ea-9736-f31d08b510c8
687dc11c-519a-11ea-8268-87b4af3e7edf,68c38a76-519a-11ea-b33b-5ffe6871a204
6863a4d0-519a-11ea-92cc-e7ccaf79d18a,68c39e3a-519a-11ea-9f48-af4bdf1f9e08
6855a286-519a-11ea-9e88-ff33df7149d3,68c3af56-519a-11ea-b50b-9375013ea57e
6870c08e-519a-11ea-8abf-e7681ae25958,68c3dc60-519a-11ea-8293-e724d205520c
6880bf02-519a-11ea-a6f8-a7f2621e83fc,68c4772e-519a-11ea-b7d9-0f9f0811627c
6871eb58-519a-11ea-868e-8f1db5f2836a,68c48e1c-519a-11ea-93f1-ef753d66a038
68a8f76a-519a-11ea-91ff-13335791cb05,68c4a01e-519a-11ea-af39-13f657758860
685425a0-519a-11ea-b402-d7ce85101969,68c4b734-519a-11ea-aa2d-df9cfc5213bb
68a49490-519a-11ea-b97e-679593687e2e,68c4f762-519a-11ea-8a67-0fd884338393
688076fa-519a-11ea-a5de-13b215c42bb3,68c51684-519a-11ea-89ab-1f597d1163cf
68842a34-519a-11ea-8f28-ab7330aa5e02,68c558ec-519a-11ea-9fec-3bb003f11b9a
689579ce-519a-11ea-82a5-87b23748ff2a,68c56dc8-519a-11ea-ab16-3bf47c60dbcb
68bedc1a-519a-11ea-ba0c-0f563aae97e7,68c5bef4-519a-11ea-a1d8-43b27a2dd92c
685e9b84-519a-11ea-86e4-8723ac7cd04b,68c5d15a-519a-11ea-a458-eb96663c2cfe
68c2610a-519a-11ea-bbb3-0b4c40fd0bb6,68c5fb30-519a-11ea-997c-030a22e1f055
68760dbe-519a-11ea-a70e-f3891fc9a4c2,68c61976-519a-11ea-bb3f-cf122b5d31a7
687740bc-519a-11ea-8c2c-239f71f5c2b7,68c65a1c-519a-11ea-b8df-533a5e7860ce
684f1ea2-519a-11ea-9e4e-9b377761b022,68c6ccea-519a-11ea-8c7a-ab42309122cc
687dc11c-519a-11ea-8268-87b4af3e7edf,68c6ddf2-519a-11ea-ab01-ebc3543abe81
68a0a42a-519a-11ea-aea1-0b2ec3d55bdb,68c6f2b0-519a-11ea-a925-73932bfce7e7
68b983d2-519a-11ea-a811-47b6e577fff3,68c7154c-519a-11ea-a103-97d86f129c41
687f46a4-519a-11ea-9731-2b1c13acf93a,68c756a6-519a-11ea-b720-dfd2625bd741
689c2bca-519a-11ea-97da-5bbdd1eb218d,68c77d84-519a-11ea-afe8-e732fbff17f6
687740bc-519a-11ea-8c2c-239f71f5c2b7,68c7adae-519a-11ea-abd9-ff64c1dd37a5
68705acc-519a-11ea-a4ec-171dffce7513,68c7bef2-519a-11ea-ab09-8fc338a0ee55
68c5d15a-519a-11ea-a458-eb96663c2cfe,68c81fe6-519a-11ea-81f5-3b6232c9d985
68be1b2c-519a-11ea-b476-972517ac13f3,68c83094-519a-11ea-9eb3-b3373bdb1570
688abd90-519a-11ea-a390-b71c55866f98,68c848a4-519a-11ea-a937-07722cc07700
688b9986-519a-11ea-b564-875c3d1349d2,68c858bc-519a-11ea-93ac-53ee5b99cfa3
68bc0a58-519a-11ea-84b1-c74a923f509d,68c8b23a-519a-11ea-bdd4-876c31c4b1b1
684d6d00-519a-11ea-822b-73d525fb4ce5,68c8f420-519a-11ea-829b-cb4650b27a77
684f5200-519a-11ea-9be1-ef716873f90e,68c93228-519a-11ea-9eaf-8b25b897768d
6861905a-519a-11ea-9457-a73cda7c648a,68c94b50-519a-11ea-8791-7fe01f731b77
6869f8a8-519a-11ea-a734-0f759d7f32a0,68c95c9e-519a-11ea-8f9f-33f5a0755e90
689e7740-519a-11ea-b04c-d3e8cfd159c9,68c973fa-519a-11ea-ac67-9b1e74ceda38
68ae33b0-519a-11ea-ba76-3785313e0c87,68c9ea56-519a-11ea-ad17-836a552deb27
685b2864-519a-11ea-89a6-1b6858bed85d,68c9fdd4-519a-11ea-ad6d-57417944b337
687147ca-519a-11ea-89d2-937ef6fea259,68ca2ff2-519a-11ea-919b-4f4da71dfc8a
68aed748-519a-11ea-92d0-4f12228b2460,68ca456e-519a-11ea-99e9-835423fae6fb
68c8b23a-519a-11ea-bdd4-876c31c4b1b1,68ca921c-519a-11ea-a3ad-6bda15807d11
685acb08-519a-11ea-9c87-cb7f6204afac,68cad1a0-519a-11ea-b72f-f7218477326e
6870c08e-519a-11ea-8abf-e7681ae25958,68cb1124-519a-11ea-baf7-2fd8566de8a9
6899bfd4-519a-11ea-aecf-a702834fbeda,68cb3be0-519a-11ea-b39e-d714800e9833
687ba6c0-519a-11ea-8da7-0ba29192ca4b,68cb7a92-519a-11ea-b0f3-af606d1512a1
68be0510-519a-11ea-801b-e770a7290a38,68cb8e42-519a-11ea-9e68-871120df3238
68aec6ea-519a-11ea-a675-23339fe4ff51,68cba88c-519a-11ea-9020-8fecb1e63a61
68b79ff4-519a-11ea-9c7c-6f90e6d12da6,68cbef86-519a-11ea-9262-73b44e6f32a6
68907438-519a-11ea-8450-f75aeeb2e54a,68cc20a0-519a-11ea-ab86-bf6a63156dda
6881809a-519a-11ea-8771-9f81d7d2ef61,68cc350e-519a-11ea-be0b-8301b4e7f877
687ebb3a-519a-11ea-bafd-777223cc1165,68cc4706-519a-11ea-8e6d-974de47415de
68514998-519a-11ea-9f8c-83d958286429,68ccba06-519a-11ea-9511-17bffc3b3111
685e2ce4-519a-11ea-b689-47fe24111e3d,68ccdb58-519a-11ea-a6e4-230eea9149f2
68af829c-519a-11ea-8026-4b807e413b8b,68cceed6-519a-11ea-bde6-7f9c021855a8
685cb15c-519a-11ea-886f-53528e4b32d8,68cd0da8-519a-11ea-a4e5-ab4849b92a0b
688ee0be-519a-11ea-85ca-1b56525457b8,68cda6dc-519a-11ea-8c0a-c743bac7b74b
68634d32-519a-11ea-b55f-738e8fc1b473,68cdbef6-519a-11ea-9d6e-4f40d4945e6f
688abd90-519a-11ea-a390-b71c55866f98,68cdeb42-519a-11ea-b0fa-bffa1888b30a
688076fa-519a-11ea-a5de-13b215c42bb3,68ce1234-519a-11ea-a9ea-b7b4eb6013d0
6860e9a2-519a-11ea-ba55-57e508614469,68ce76b6-519a-11ea-afdf-cbe787f58630
687a888a-519a-11ea-a2f2-ffafd29f7691,68cedf20-519a-11ea-8858-d79eb23db23e
68a3f4cc-519a-11ea-9430-1b161602260c,68cf0144-519a-11ea-b5e8-3f29e92656e3
689e7740-519a-11ea-b04c-d3e8cfd159c9,68cf252a-519a-11ea-a898-7f43cf94b644
68a1e11e-519a-11ea-bce4-ff9f1af2e737,68cf44b0-519a-11ea-bb46-7312ef020b38
68703b8c-519a-11ea-b194-e3930b632835,68cf8812-519a-11ea-ae77-a7fcbf698c4c
68b6df92-519a-11ea-a9a9-4f97bf9b036e,68cff7f2-519a-11ea-bc06-37fda4e224f7
68c61976-519a-11ea-bb3f-cf122b5d31a7,68d003d2-519a-11ea-9227-c36b8470ee62
685e65c4-519a-11ea-8908-63b681341736,68d045ae-519a-11ea-871e-eb4636444e83
689f2b40-519a-11ea-bbb2-430ab4a3a162,68d07312-519a-11ea-b9a5-3fc180a41a63
6852561c-519a-11ea-bfc0-df5f34a9fd58,68d0b660-519a-11ea-8707-e34f54dafc7d
68a6364c-519a-11ea-9b77-474f95a0204a,68d0d33e-519a-11ea-9813-6b839a84951e
685e65c4-519a-11ea-8908-63b681341736,68d12c80-519a-11ea-8273-bfd6118a2abf
68beec46-519a-11ea-a425-f34d8e893236,68d14882-519a-11ea-b2d3-536690a354d3
689743c6-519a-11ea-aa0a-d7a2caf6cb5e,68d19bf2-519a-11ea-970b-7f3a924b09df
68763a6e-519a-11ea-94db-e3d41b18f0d0,68d1bc0e-519a-11ea-8b2e-8f66671d13a8
6853a6ac-519a-11ea-9dad-abd39ea6abee,68d23008-519a-11ea-9359-af96be59b9de
68a17efe-519a-11ea-9f1e-9f4cc914f5b6,68d25060-519a-11ea-a265-1f480fcd7301
68598c98-519a-11ea-ae87-27b57745c87b,68d26ad2-519a-11ea-9194-73d40cf1c316
6851ec18-519a-11ea-acd1-eff51522afee,68d2849a-519a-11ea-bb5b-9b176f5e0a62
68b11602-519a-11ea-a75e-4fe185436171,68d2e61a-519a-11ea-b9f0-d3a97dd52dae
68907438-519a-11ea-8450-f75aeeb2e54a,68d2ff42-519a-11ea-a968-9ff3d5275186
688a3f00-519a-11ea-ba5e-b36382df0413,68d31c3e-519a-11ea-964a-f3b972f44537
6858ee78-519a-11ea-8a01-838ddc367282,68d384da-519a-11ea-9fa3-f7bb1a07a1ae
68cdbef6-519a-11ea-9d6e-4f40d4945e6f,68d3a7e4-519a-11ea-9a4d-db04d955e099
6870c08e-519a-11ea-8abf-e7681ae25958,68d435b0-519a-11ea-b021-13a8df66852a
68b33284-519a-11ea-9319-532d995cfd5a,68d45338-519a-11ea-abe5-4bb0df8cfb78
687cf52a-519a-11ea-bf4d-5fec507a2589,68d46f9e-519a-11ea-9adb-2f5a7c04a55f
68880744-519a-11ea-819d-63910bc5c360,68d48b96-519a-11ea-aa8d-3f39222ace9d
68cdeb42-519a-11ea-b0fa-bffa1888b30a,68d50c10-519a-11ea-be10-4b166f5b8254
6862c394-519a-11ea-abd2-6b2d34706e4a,68d52088-519a-11ea-8beb-0b7843070187
685580c6-519a-11ea-b86e-7b598ad7cd52,68d539ec-519a-11ea-b510-6326fc5119df
685df1e8-519a-11ea-a628-07cdce50886a,68d5adf0-519a-11ea-a279-171fbb59c3ad
684fbec0-519a-11ea-a7e5-077e7eac9823,68d5dbe0-519a-11ea-880c-c34a6b6f6838
68a9f6c4-519a-11ea-9026-4b913159cbde,68d60084-519a-11ea-b5f3-93c309fd66c8
68865dfe-519a-11ea-b6cd-fff7379914d8,68d613ee-519a-11ea-bfe5-af433f6c0359
68b7b2fa-519a-11ea-b971-27c4bb1af549,68d678fc-519a-11ea-810f-a7aa0b6b913d
6870edd4-519a-11ea-a08f-1f1de1549a41,68d69a08-519a-11ea-8126-130fd599c1a7
68721f4c-519a-11ea-a2b6-c34a7956ba36,68d6af0c-519a-11ea-bad4-c7fbbdc53ee0
6886f232-519a-11ea-928f-f7213bada1f7,68d6bf9c-519a-11ea-b9a9-df89d44d5a2b
686e8d00-519a-11ea-acf9-bbd57295da61,68d7351c-519a-11ea-93a3-ffd5d3e3bedb
688ebe68-519a-11ea-9531-7baf3d3cfec7,68d748d6-519a-11ea-aa7b-6b7c16cbe6c5
68d003d2-519a-11ea-9227-c36b8470ee62,68d761b8-519a-11ea-93fd-d3a6e54caeeb
68884bd2-519a-11ea-8d6d-933ba44d6842,68d771c6-519a-11ea-a317-83bf4eee5680
6877e936-519a-11ea-953a-13434e6e51b9,68d7b8c0-519a-11ea-9cbf-43bd1e597c51
68b8b2fe-519a-11ea-8509-3760feb18110,68d7f7ea-519a-11ea-a843-bbba64e343ab
68574ed8-519a-11ea-a437-7b3cb8205cd9,68d81766-519a-11ea-8e47-93907a2fbd54
687e2814-519a-11ea-b93d-5325e3082762,68d82e9a-519a-11ea-8aea-330e48d0a246
68cff7f2-519a-11ea-bc06-37fda4e224f7,68d8b018-519a-11ea-ad70-df6f034f2fc4
68d48b96-519a-11ea-aa8d-3f39222ace9d,68d8c800-519a-11ea-9280-3b005fb25d76
688fe414-519a-11ea-9a1c-bf0b519a831a,68d8db74-519a-11ea-af7d-676ec17eab5f
688b4e7c-519a-11ea-aa87-abeaa8e6ddc7,68d8f5f0-519a-11ea-b24a-6b07a595d8b0
687758f4-519a-11ea-ab7a-ef19e30cf9a1,68d94ec4-519a-11ea-b805-c7a99b6de628
686a9aba-519a-11ea-9e45-b7038dafecc1,68d99172-519a-11ea-9285-17f9e034bec7
68c9fdd4-519a-11ea-ad6d-57417944b337,68d9a75c-519a-11ea-b349-f7b2c9b54d4c
68cceed6-519a-11ea-bde6-7f9c021855a8,68d9b832-519a-11ea-b98f-4b535ed9e065
68cb3be0-519a-11ea-b39e-d714800e9833,68da1a8e-519a-11ea-877d-7792443509fc
686ac422-519a-11ea-a7a4-87539443b795,68da402c-519a-11ea-ada7-2fbe87be9fd0
68c558ec-519a-11ea-9fec-3bb003f11b9a,68da7c0e-519a-11ea-9580-6386eb18a1da
68a3f4cc-519a-11ea-9430-1b161602260c,68da8ba4-519a-11ea-b2c5-bb80dfa55a96
688b4e7c-519a-11ea-aa87-abeaa8e6ddc7,68daab84-519a-11ea-9eac-df036222c221
688f6200-519a-11ea-866e-538d985d1221,68daee78-519a-11ea-86fd-e362b6cf1190
685e65c4-519a-11ea-8908-63b681341736,68db1f1a-519a-11ea-bfc0-77c8976a3fe5
687758f4-519a-11ea-ab7a-ef19e30cf9a1,68db340a-519a-11ea-a110-57eb3bf90e7d
6886449a-519a-11ea-a1cb-6b2712f34daa,68db7122-519a-11ea-a329-c74e0618e432
687fd33a-519a-11ea-a412-73cd813bfab8,68db938c-519a-11ea-b02f-f753815b635b
68d0d33e-519a-11ea-9813-6b839a84951e,68dbadae-519a-11ea-a3ab-1732aacc5943
68934be0-519a-11ea-b170-178ff8ffe7df,68dbee54-519a-11ea-8ade-efafa1327d92
68504cf0-519a-11ea-b077-1fe3dd43295c,68dc2996-519a-11ea-b706-f3b70632084e
6891a2ae-519a-11ea-92f4-1770b95cf07d,68dc501a-519a-11ea-81b5-673c410af6a2
687cbae2-519a-11ea-8dec-27d782ca92fb,68dc6eba-519a-11ea-8ff3-6f4b9702d985
68c1c920-519a-11ea-b712-0313ea1d953f,68dcbd20-519a-11ea-a9c0-776dd1001cf1
687d4142-519a-11ea-a4fb-4f9a237ea130,68dd0672-519a-11ea-adf4-334a1d4534e5
68707a20-519a-11ea-878e-17215b5b640d,68dd1982-519a-11ea-82eb-e39855ad24b4
6879c0da-519a-11ea-a86a-63f43e92a802,68dd4a88-519a-11ea-8b27-b7f8c95dbb68
68da1a8e-519a-11ea-877d-7792443509fc,68dd6e0a-519a-11ea-9f45-ef484b614812
68598c98-519a-11ea-ae87-27b57745c87b,68ddcbca-519a-11ea-989d-fb5acfc0c726
687b43ce-519a-11ea-a75d-fb496af32102,68ddde4e-519a-11ea-9c9a-d381e3f2a431
68cb1124-519a-11ea-baf7-2fd8566de8a9,68de1b66-519a-11ea-a080-539f6da0691b
68c6f2b0-519a-11ea-a925-73932bfce7e7,68de3dee-519a-11ea-8927-77b624771a4e
6888cdb4-519a-11ea-957f-df7c365fe5ae,68deb2d8-519a-11ea-88c5-c72a8caf3916
6898677e-519a-11ea-83d2-9303e95c9f87,68decd68-519a-11ea-8e39-37aa4737da0e
68a649f2-519a-11ea-bd5c-07dc17b66655,68df1642-519a-11ea-b79b-33886f691583
68ad661a-519a-11ea-b197-cb30586e8bc6,68def194-519a-11ea-9c02-573e179e53dd
686d7bae-519a-11ea-9d3a-37e5f6ae3104,68dfaa4e-519a-11ea-948a-4b8e49568972
68dd6e0a-519a-11ea-9f45-ef484b614812,68dfccf4-519a-11ea-9e01-2786b5047837
687260f6-519a-11ea-bd29-97ba1f19d0fc,68dfed92-519a-11ea-8e02-936f93f43b53
687d4142-519a-11ea-a4fb-4f9a237ea130,68e01aec-519a-11ea-94c4-8fc8b700c26b
68ae33b0-519a-11ea-ba76-3785313e0c87,68e074d8-519a-11ea-a7d6-d3fef17d32d9
68c274b0-519a-11ea-8d52-9bd6cb551b31,68e08c48-519a-11ea-a0a8-7f9fdbbb3e61
685ee0ee-519a-11ea-aa62-07cc1b9a2cb9,68e0c42e-519a-11ea-bb7d-0329936f64c9
689484ba-519a-11ea-9245-431dfeba64d9,68e0e198-519a-11ea-8447-4fe599411425
68760418-519a-11ea-a7aa-cbc171d92199,68e19444-519a-11ea-938a-ff2bc4b12c5d
68d07312-519a-11ea-b9a5-3fc180a41a63,68e1697e-519a-11ea-a9a9-975d6618ea43
689da19e-519a-11ea-a313-5f2bb412ad31,68e1b5f0-519a-11ea-b3fd-43c0c889ed30
6873ef48-519a-11ea-9e62-275a0e91f8f8,68e275b2-519a-11ea-8f16-13328f35c046
68da402c-519a-11ea-ada7-2fbe87be9fd0,68e29326-519a-11ea-99c5-6376c54a57d0
687b43ce-519a-11ea-a75d-fb496af32102,68e2d50c-519a-11ea-aa98-6f62d6a62513
6850aaba-519a-11ea-8567-97ea89754dbb,68e2ee0c-519a-11ea-b81f-5320787c242c
68587ca4-519a-11ea-9584-778340f11e12,68e34726-519a-11ea-8344-5f3007411b4a
6857f504-519a-11ea-b506-ff4804d2f6fe,68e35d38-519a-11ea-a462-1f8e32ae19db
6865f4a6-519a-11ea-9a0b-7ff757df68d4,68e3a2f2-519a-11ea-806a-67af3d1822ac
68b7b2fa-519a-11ea-b971-27c4bb1af549,68e3b526-519a-11ea-a98d-2b992dda787b
686e7248-519a-11ea-8fb1-e76b2d035630,68e3e17c-519a-11ea-965e-3f8f9d49fb58
6866acde-519a-11ea-8b94-3b35da6dc0c5,68e3f7a2-519a-11ea-9093-cfd562dbe43a
68c1b5b6-519a-11ea-a714-dff5ef551246,68e437c6-519a-11ea-b20d-5f2a42aeeac9
688b4e7c-519a-11ea-aa87-abeaa8e6ddc7,68e45e0e-519a-11ea-96a3-7f1d044adfb8
6873ef48-519a-11ea-9e62-275a0e91f8f8,68e4736c-519a-11ea-91d6-4f6ccf169b9f
684e68ea-519a-11ea-9d15-93eb7de914ac,68e4bd9a-519a-11ea-b7fd-dfadc5d17b87
68a3f4cc-519a-11ea-9430-1b161602260c,68e4f1a2-519a-11ea-befe-e3777795d4b4
686a4b0a-519a-11ea-8f54-f7554e5035b9,68e50ce6-519a-11ea-863c-c7961be2877a
68580db4-519a-11ea-8841-cbff3ce3d83a,68e53806-519a-11ea-9d12-679bf01ff004
687c49ae-519a-11ea-8769-fb4d191d2ac4,68e56556-519a-11ea-b420-6fca962c5b7b
68e4bd9a-519a-11ea-b7fd-dfadc5d17b87,68e5e242-519a-11ea-aaf8-4b3e4a3ef1e9
6857c570-519a-11ea-a3bb-db621175960d,68e601aa-519a-11ea-915f-2bd09f9df6a1
68a93798-519a-11ea-a108-f78d9b68f649,68e62e64-519a-11ea-b0ef-dfc65e150e68
687dc11c-519a-11ea-8268-87b4af3e7edf,68e651f0-519a-11ea-b41c-93a45de19433
68d5adf0-519a-11ea-a279-171fbb59c3ad,68e6b8a2-519a-11ea-a647-230b76009068
68db1f1a-519a-11ea-bfc0-77c8976a3fe5,68e6cc3e-519a-11ea-a724-0ffd44ab8923
68daee78-519a-11ea-86fd-e362b6cf1190,68e6ebec-519a-11ea-a460-a3c56ba0913a
68e34726-519a-11ea-8344-5f3007411b4a,68e76716-519a-11ea-a7e6-73253cdb86d9
684e7998-519a-11ea-b1d9-d3324393aa4f,68e78980-519a-11ea-8be7-a77a51bc80d9
68c61976-519a-11ea-bb3f-cf122b5d31a7,68e79eca-519a-11ea-b256-9f225cad8212
68cdbef6-519a-11ea-9d6e-4f40d4945e6f,68e7d78c-519a-11ea-af81-ef86038d2378
68a6738c-519a-11ea-a046-bf72d57b833b,68e7fa0a-519a-11ea-b965-971732920011
68b4ab82-519a-11ea-a7e4-23bb0620cf92,68e81a94-519a-11ea-9c9c-2b0a253173c7
6852a6f8-519a-11ea-8a0f-57eeddcc6136,68e847e4-519a-11ea-86eb-932d99e925b5
6851ec18-519a-11ea-acd1-eff51522afee,68e88ccc-519a-11ea-96ef-83479b73955d
68ad661a-519a-11ea-b197-cb30586e8bc6,68e89f64-519a-11ea-84e7-0729c66e2be8
6888cdb4-519a-11ea-957f-df7c365fe5ae,68e8b10c-519a-11ea-a8a1-0fddf09e8bfe
68e2d50c-519a-11ea-aa98-6f62d6a62513,68e8c976-519a-11ea-aaf3-6fe0297a92ad
689da19e-519a-11ea-a313-5f2bb412ad31,68e91f0c-519a-11ea-81e9-4f30efba84a4
68d678fc-519a-11ea-810f-a7aa0b6b913d,68e93898-519a-11ea-a4b2-07cfac48b623
68dbee54-519a-11ea-8ade-efafa1327d92,68e94d24-519a-11ea-aae8-53027b0f01b3
684fab6a-519a-11ea-b182-e30c615a3ff3,68e9709c-519a-11ea-8bc9-6ff46532f099
686af276-519a-11ea-ae2b-1302e1917bbb,68e9d6cc-519a-11ea-8dc6-6f0759d9da38
68b4ab82-519a-11ea-a7e4-23bb0620cf92,68e9fd28-519a-11ea-84d9-d713315cbb67
68affb1e-519a-11ea-9c6b-4f53bb5b70b6,68e9ea36-519a-11ea-b9a5-bb27b6a8a07f
688aa8b4-519a-11ea-b5e4-ef68bb3cc7c8,68ea1074-519a-11ea-90ca-0b687a53a1df
68760dbe-519a-11ea-a70e-f3891fc9a4c2,68ea48a0-519a-11ea-a663-3baff5946db2
68d748d6-519a-11ea-aa7b-6b7c16cbe6c5,68eaaf3e-519a-11ea-bbb6-4b78d75192ab
68bf0384-519a-11ea-b10d-d3f29162c877,68ea94f4-519a-11ea-937b-cfff24fcc227
688a27b8-519a-11ea-b4bb-7f2d6df9cdd7,68eac776-519a-11ea-b6f0-7f7cdc40221a
68dc501a-519a-11ea-81b5-673c410af6a2,68eafd04-519a-11ea-807b-7fbde88493cb
685f0ad8-519a-11ea-a2ac-5bf9ee17c9d8,68eb5326-519a-11ea-aeb4-bb38b81eb14d
689cf5f0-519a-11ea-a8b1-8f7a47650a5c,68eb687a-519a-11ea-9991-4700e141c86b
685a9d2c-519a-11ea-94ab-734702ebc9d5,68eb7f18-519a-11ea-9f9f-7f55c8b279c4
6879c0da-519a-11ea-a86a-63f43e92a802,68eb95e8-519a-11ea-bfcd-33b2f5c501d0
688295d4-519a-11ea-ae59-53bb43f0bbb4,68ec1ca2-519a-11ea-a59a-2f0e850700e6
689d4078-519a-11ea-9901-ff5099016e4c,68ec2f12-519a-11ea-b3cf-1b45c3c65ac1
687e0302-519a-11ea-a233-6be9a2821fd7,68ec3ff2-519a-11ea-94f5-57569dc045b6
68a581c0-519a-11ea-ae06-33550a9bd38b,68ec5226-519a-11ea-83bd-177189144f1c
68d5adf0-519a-11ea-a279-171fbb59c3ad,68ecbcca-519a-11ea-b41e-f75639d01677
68900070-519a-11ea-aacf-df5146c828aa,68ecd8cc-519a-11ea-b811-cfbd588add70
685b5384-519a-11ea-8f09-f33d8414e22e,68ecec18-519a-11ea-a983-db541d6b2847
68bf902e-519a-11ea-9d4c-3f8892924d33,68ed298a-519a-11ea-b8f4-abd9f5add983
6885b48a-519a-11ea-a4e9-e70cd80a8be2,68ed8a06-519a-11ea-9f02-777890b83374
6891a2ae-519a-11ea-92f4-1770b95cf07d,68ed996a-519a-11ea-95c0-57834b40ce81
6897fe38-519a-11ea-aeae-c796ada660ec,68ede7ee-519a-11ea-a22d-1f26a3b17315
68c973fa-519a-11ea-ac67-9b1e74ceda38,68edfb1c-519a-11ea-937a-a761f7b33bac
68c15332-519a-11ea-b87f-a7d6e3dd1aed,68ee2f06-519a-11ea-90a8-035655dc209b
687f7598-519a-11ea-850b-ffd7878dcebb,68ee5454-519a-11ea-8898-8f2ea52e00d4
685bfe9c-519a-11ea-9a02-13c3afb2c7fa,68eead1e-519a-11ea-a455-6bf969b910aa
689e90c2-519a-11ea-8a90-9fc57524c1ba,68eee040-519a-11ea-b24f-7fce9cf6b9a7
686b8010-519a-11ea-9ab3-0b27bfc3f9d1,68eef3e6-519a-11ea-8202-7fda450a08d9
68792cb0-519a-11ea-b177-3f9d3cdb7145,68ef1844-519a-11ea-a3a1-fff9d490c373
68e275b2-519a-11ea-8f16-13328f35c046,68ef570a-519a-11ea-9584-9bfc077d8652
689cf5f0-519a-11ea-a8b1-8f7a47650a5c,68ef71c2-519a-11ea-8bf0-ab9163919498
68ae4594-519a-11ea-8b62-f30583e08c3f,68efc4ba-519a-11ea-ac5b-e77163d3003a
684f1ea2-519a-11ea-9e4e-9b377761b022,68efdb9e-519a-11ea-a844-d772c115da6a
68b0fda2-519a-11ea-8c39-4b5a0e782ad5,68efef3a-519a-11ea-8663-b3b7e4e8f15d
68865dfe-519a-11ea-b6cd-fff7379914d8,68f001be-519a-11ea-9494-4f537aa2670f
685c3132-519a-11ea-9540-f700c2e7a6d5,68f07c0c-519a-11ea-b7d6-ef933e65eeae
68dd0672-519a-11ea-adf4-334a1d4534e5,68f06b54-519a-11ea-8fab-db9aba7727ec
68621bba-519a-11ea-843c-2bbf6143437f,68f0928c-519a-11ea-9045-afc8e0657b0a
689c2bca-519a-11ea-97da-5bbdd1eb218d,68f0bb2c-519a-11ea-9aea-ef00ffdfd0c7
6859f6c4-519a-11ea-83d1-83dd1d5f40c8,68f10244-519a-11ea-86c3-0f30b48e5770
68ccba06-519a-11ea-9511-17bffc3b3111,68f11e5a-519a-11ea-90aa-9fd0a4e39709
68596c72-519a-11ea-939f-cb85d48eb6bf,68f13228-519a-11ea-a31e-53d3fb2415d7
68929ff6-519a-11ea-b834-63acdd6d6fe4,68f1896c-519a-11ea-a601-abef616f8289
68cc20a0-519a-11ea-ab86-bf6a63156dda,68f19cea-519a-11ea-a47a-c3cb4a1e38ce
68edfb1c-519a-11ea-937a-a761f7b33bac,68f1be78-519a-11ea-90d8-6f6a7973f7c3
68db938c-519a-11ea-b02f-f753815b635b,68f1de3a-519a-11ea-99cc-b3996ae33c70
68e4f1a2-519a-11ea-befe-e3777795d4b4,68f22822-519a-11ea-a6c6-77dc647b207b
68b186b4-519a-11ea-8a8c-d329f36aa7e6,68f2401e-519a-11ea-a2f8-7b57fb3150b6
688827b0-519a-11ea-b49c-e311d81d33ee,68f2685a-519a-11ea-9db6-3f49fba466a2
685cb15c-519a-11ea-886f-53528e4b32d8,68f27d54-519a-11ea-aee5-d36279f67193
68cf252a-519a-11ea-a898-7f43cf94b644,68f2a95a-519a-11ea-98ad-b74618f9ed3a
68910b14-519a-11ea-a174-f7e9b3fa4e16,68f2ebcc-519a-11ea-a6db-bb1837454338
68efef3a-519a-11ea-8663-b3b7e4e8f15d,68f3003a-519a-11ea-af9d-6ba16e941200
68999cc0-519a-11ea-b280-c7ae0697f0ec,68f3108e-519a-11ea-94a9-1319f0161513
685002c2-519a-11ea-9131-5378cb32d807,68f38082-519a-11ea-a52b-4ffdc64085bf
685622c4-519a-11ea-aa94-8b33ba4a7da1,68f39108-519a-11ea-8eff-db4feba409ff
68b52300-519a-11ea-8174-af77ab490e1a,68f3ac88-519a-11ea-b101-9bd00be4f71a
68efdb9e-519a-11ea-a844-d772c115da6a,68f3eba8-519a-11ea-bf80-d77d71e17a1c
68d7f7ea-519a-11ea-a843-bbba64e343ab,68f42776-519a-11ea-88a9-1b1c165edf9a
68a3515c-519a-11ea-9f70-1389e5528343,68f43c70-519a-11ea-abf5-430d9d0d5fc0
68b92428-519a-11ea-a3bf-6f447ef7adec,68f4609c-519a-11ea-ab04-a331dd2f385c
68e6cc3e-519a-11ea-a724-0ffd44ab8923,68f49d3c-519a-11ea-933c-ebbc9168baca
68c9ea56-519a-11ea-ad17-836a552deb27,68f4c85c-519a-11ea-8a92-9bc58264596e
6860d494-519a-11ea-8eb1-a71c604d5894,68f5054c-519a-11ea-8c63-cfdec46601f1
685ab168-519a-11ea-af57-c739a44eaf5d,68f519ba-519a-11ea-aaac-73614ea1d7fa
68a0c8f6-519a-11ea-95de-4b542721387e,68f56780-519a-11ea-b24c-674b3d18e951
68a33a6e-519a-11ea-ad52-c78c33780967,68f57b58-519a-11ea-b9c9-e7831e4c767d
68e62e64-519a-11ea-b0ef-dfc65e150e68,68f5be60-519a-11ea-9f0b-eba70098500c
689b775c-519a-11ea-bd3d-5f33b8dae1ed,68f5dd50-519a-11ea-9384-fb190464508e
68ec2f12-519a-11ea-b3cf-1b45c3c65ac1,68f5f0f6-519a-11ea-b718-a7b1100f64f2
6885b48a-519a-11ea-a4e9-e70cd80a8be2,68f654f6-519a-11ea-b06b-6b44ee46a026
68b186b4-519a-11ea-8a8c-d329f36aa7e6,68f667e8-519a-11ea-88bc-0fecf705f009
689ac744-519a-11ea-8c43-63700ad214cc,68f67922-519a-11ea-b954-c7533850d634
68a368d6-519a-11ea-b296-53d9f88d22a1,68f6e04c-519a-11ea-84dd-8389cc414963
68af25c2-519a-11ea-85d1-83792e080161,68f7527a-519a-11ea-bbe3-9751c27d64af
68ccdb58-519a-11ea-a6e4-230eea9149f2,68f76594-519a-11ea-b6ca-770e5d446fc8
68bce46e-519a-11ea-a328-ebc1560d4f81,68f77a5c-519a-11ea-9c38-8ff33e6804da
68995062-519a-11ea-8a79-cf3f471ca4f6,68f791c2-519a-11ea-a6c6-eb4fbd288467
68ab6fc2-519a-11ea-bdb6-2718695e06ea,68f80134-519a-11ea-9ed3-037dd820ad89
68530148-519a-11ea-ab84-ef7b2e5a10eb,68f8144e-519a-11ea-86fa-ebfb7a67c525
6859f6c4-519a-11ea-83d1-83dd1d5f40c8,68f82696-519a-11ea-b4f0-a78d75805ce8
686dee9a-519a-11ea-a62f-8304703bf1a8,68f85b70-519a-11ea-8d1d-33625345cb35
68a1e11e-519a-11ea-bce4-ff9f1af2e737,68f8c45c-519a-11ea-a5cc-87d33a608376
68edfb1c-519a-11ea-937a-a761f7b33bac,68f8d8a2-519a-11ea-a4b7-0fb5515b79f8
68f3108e-519a-11ea-94a9-1319f0161513,68f8e914-519a-11ea-a183-5fa7db001765
68bf0384-519a-11ea-b10d-d3f29162c877,68f90732-519a-11ea-8315-2b158415c239
68c2372a-519a-11ea-ae82-1b7c95b98ca8,68f96e2a-519a-11ea-9c95-1f80d550f914
68880744-519a-11ea-819d-63910bc5c360,68f97f5a-519a-11ea-ac4e-132d74a0fca8
68f49d3c-519a-11ea-933c-ebbc9168baca,68f98fe0-519a-11ea-8537-1b62be7bf126
68b88c0c-519a-11ea-b194-072a655ff63e,68f9eabc-519a-11ea-85cb-2b6d89ead264
68ecbcca-519a-11ea-b41e-f75639d01677,68fa0524-519a-11ea-9a33-8393b0e6706d
68d678fc-519a-11ea-810f-a7aa0b6b913d,68fa22fc-519a-11ea-991f-dfa68902b815
68d26ad2-519a-11ea-9194-73d40cf1c316,68fa3558-519a-11ea-830b-33268787e699
68717d1c-519a-11ea-aeb7-13216384b165,68fa88a0-519a-11ea-822a-9f87a1c846aa
687cf52a-519a-11ea-bf4d-5fec507a2589,68fab9e2-519a-11ea-b67d-77bb8053a41a
689a802c-519a-11ea-83d4-d3ab0a507df3,68facdba-519a-11ea-b11f-7fd0b8554b92
68c3dc60-519a-11ea-8293-e724d205520c,68faeeb2-519a-11ea-8eeb-0310164340e8
689afae8-519a-11ea-b925-f30a4245c2cb,68fb583e-519a-11ea-9888-3b4bc7198e08
68b0fda2-519a-11ea-8c39-4b5a0e782ad5,68fb6aea-519a-11ea-af14-ebd5bc383111
6851366a-519a-11ea-aec9-3b827b9a4a13,68fb8dcc-519a-11ea-b22c-ab68640a3c8d
68e3b526-519a-11ea-a98d-2b992dda787b,68fbb720-519a-11ea-b7c5-df55f999a398
689f4a6c-519a-11ea-8be9-779ca27ce1c1,68fbfafa-519a-11ea-af7b-87f1db7e7f17
68f97f5a-519a-11ea-ac4e-132d74a0fca8,68fc103a-519a-11ea-835c-9b4420435909
68a27818-519a-11ea-b687-23b715d034cf,68fc5acc-519a-11ea-b81e-57c26566f4c3
687e2814-519a-11ea-b93d-5325e3082762,68fc6cce-519a-11ea-96a9-93e69cf4d17f
68d045ae-519a-11ea-871e-eb4636444e83,68fcc976-519a-11ea-be67-8bb6f1ba0317
68f6e04c-519a-11ea-84dd-8389cc414963,68fcf950-519a-11ea-ae63-83ac0924fa2a
6863ee72-519a-11ea-b44c-138380573e3c,68fd0cd8-519a-11ea-a55c-0b177a62ba42
68e0e198-519a-11ea-8447-4fe599411425,68fd1d68-519a-11ea-982a-f3ab166c7452
68732cde-519a-11ea-b3fe-43175409f5c1,68fda260-519a-11ea-b065-c34cf05ab22d
68fc5acc-519a-11ea-b81e-57c26566f4c3,68fd934c-519a-11ea-bb47-0f48fdeefe3e
68e5e242-519a-11ea-aaf8-4b3e4a3ef1e9,68fdb480-519a-11ea-8da3-7bab5cac93ce
68ea94f4-519a-11ea-937b-cfff24fcc227,68fde1bc-519a-11ea-9550-37c7a824fe1f
68b0b626-519a-11ea-8179-ef044e9a54d6,68fe3932-519a-11ea-ba51-2f6c0046e2ac
686ea402-519a-11ea-aa54-b7efcaa16046,68fe4e40-519a-11ea-8243-b38726124f10
685e2ce4-519a-11ea-b689-47fe24111e3d,68fe606a-519a-11ea-b690-a3ba3996900c
68c6f2b0-519a-11ea-a925-73932bfce7e7,68fe85f4-519a-11ea-96aa-4f1420b9efe3
6888cdb4-519a-11ea-957f-df7c365fe5ae,68fedd4c-519a-11ea-a26e-4ff8e509931b
68c0b300-519a-11ea-8341-03878835a27a,68ff0be6-519a-11ea-800a-cbb3852dd982
6857e442-519a-11ea-a039-0bea964c5780,68ff21da-519a-11ea-812f-df57b59f49b7
689a1dc6-519a-11ea-9466-276b971d4c38,68ff31e8-519a-11ea-99ed-d3227fd63459
684f5200-519a-11ea-9be1-ef716873f90e,68ff973c-519a-11ea-a5c9-87da7fe9a452
686834be-519a-11ea-ba06-df4df4ca0308,68ffb190-519a-11ea-9ce7-2b7910838cb6
68d14882-519a-11ea-b2d3-536690a354d3,68ffc43c-519a-11ea-8700-17d346b28e11
68f3ac88-519a-11ea-b101-9bd00be4f71a,690009c4-519a-11ea-b916-bb34dde6120b
6854c6e0-519a-11ea-828a-af6adda1bd1d,690056f4-519a-11ea-83fc-93952c198b26
68b7c7fe-519a-11ea-9cd7-2b1ba97066a0,69006b8a-519a-11ea-aeeb-bbca1925a7b4
68f56780-519a-11ea-b24c-674b3d18e951,69008ef8-519a-11ea-aba9-7bc316d643ca
68c33968-519a-11ea-9736-f31d08b510c8,6900a014-519a-11ea-b9bf-7f4aa5ec0e3b
68814da0-519a-11ea-96c5-7f13ad674057,6900da20-519a-11ea-9da0-339855a8f90a
689e90c2-519a-11ea-8a90-9fc57524c1ba,6900fef6-519a-11ea-8b34-334435324ddc
68c14086-519a-11ea-ba09-03f6c2f2dfb7,690113be-519a-11ea-8a01-7702218ecb0c
688b4e7c-519a-11ea-aa87-abeaa8e6ddc7,69012b06-519a-11ea-80d1-f78697082c97
68896aa8-519a-11ea-a280-43ecaae6362e,69015810-519a-11ea-a0f0-ef58748adacb
68c4772e-519a-11ea-b7d9-0f9f0811627c,690196fe-519a-11ea-a374-a371cef001e3
68794ec0-519a-11ea-bc80-d35323f037a7,6901b404-519a-11ea-880b-bb2a4a52e4d7
684fe7ba-519a-11ea-a84b-dbd6aad0f24f,6901eaaa-519a-11ea-9993-4311b3c6ed19
690009c4-519a-11ea-b916-bb34dde6120b,69020774-519a-11ea-95dd-ffd1474c8412
68e651f0-519a-11ea-b41c-93a45de19433,690261c4-519a-11ea-ba45-b396848a3ae5
68ec3ff2-519a-11ea-94f5-57569dc045b6,69027704-519a-11ea-ba2c-f7332816ef4c
68a33a6e-519a-11ea-ad52-c78c33780967,6902a206-519a-11ea-8d79-0798e9b735e0
6852561c-519a-11ea-bfc0-df5f34a9fd58,6902ec84-519a-11ea-a984-2b1240fae83b
68754a78-519a-11ea-ac84-d790d8888dc0,69030ac0-519a-11ea-8231-5f60b239f84c
68e50ce6-519a-11ea-863c-c7961be2877a,690326cc-519a-11ea-be76-eb2e63b1b509
68da8ba4-519a-11ea-b2c5-bb80dfa55a96,69034364-519a-11ea-a143-df02909dc336
690113be-519a-11ea-8a01-7702218ecb0c,6903a502-519a-11ea-b321-5b1c76f9a4e4
68527eb2-519a-11ea-9e69-7faf6c4ffd50,6903d20c-519a-11ea-bced-c37ae7538a37
68fb583e-519a-11ea-9888-3b4bc7198e08,6903ead0-519a-11ea-af99-9fe401059665
68676b42-519a-11ea-a2c0-6bc579dd9b6f,69040830-519a-11ea-9763-c384eba3aad8
685a3706-519a-11ea-b45c-8fdfafdc3b80,690433dc-519a-11ea-bc8e-570e8d71b3dc
68e3e17c-519a-11ea-965e-3f8f9d49fb58,690490c0-519a-11ea-b9a3-178d3188988f
68a53454-519a-11ea-a5ce-9f08ce5a57b3,6904a6b4-519a-11ea-a5f7-a3cab046f17d
68ad661a-519a-11ea-b197-cb30586e8bc6,6904b76c-519a-11ea-8876-8307a6d6ee64
68532a10-519a-11ea-bd85-d3de07044ea3,6904ea48-519a-11ea-bd3d-c7d1738a79fc
68accac0-519a-11ea-9f20-73656fad8c50,69050abe-519a-11ea-b0f9-d75457f75cf4
6851ec18-519a-11ea-acd1-eff51522afee,69054150-519a-11ea-a786-c7392b700d25
6880137c-519a-11ea-928a-5705e64013ec,69059bd2-519a-11ea-8392-9fb5c0fbe1d2
6883c652-519a-11ea-86e0-73022981256b,6905af14-519a-11ea-8848-b7877d6bc327
6898677e-519a-11ea-83d2-9303e95c9f87,6905d142-519a-11ea-a24c-ff566e36bc4c
6857f504-519a-11ea-b506-ff4804d2f6fe,6905f276-519a-11ea-bb97-cb7dd65f7dda
6882edea-519a-11ea-a568-b3fc2ef00173,69067e80-519a-11ea-84ba-c335271c799f
68e1b5f0-519a-11ea-b3fd-43c0c889ed30,69069230-519a-11ea-8516-0f1728d5461f
68c81fe6-519a-11ea-81f5-3b6232c9d985,6906a400-519a-11ea-ad52-7bc6896feb8d
68f57b58-519a-11ea-b9c9-e7831e4c767d,6906c67e-519a-11ea-9384-bf62c4bd6b28
68f5be60-519a-11ea-9f0b-eba70098500c,6906f450-519a-11ea-ba76-83257993fd7d
68f7527a-519a-11ea-bbe3-9751c27d64af,690713fe-519a-11ea-9548-7b9f31996d45
68cba88c-519a-11ea-9020-8fecb1e63a61,69074df6-519a-11ea-950b-1325c605080e
68534dd8-519a-11ea-9c0b-bb92417fad3f,690772c2-519a-11ea-9532-e3653780bde1
68cb8e42-519a-11ea-9e68-871120df3238,69078852-519a-11ea-8206-cf19d45dc100
68dd1982-519a-11ea-82eb-e39855ad24b4,69079874-519a-11ea-8634-d3fa7fb83bdd
68ca2ff2-519a-11ea-919b-4f4da71dfc8a,69081718-519a-11ea-a40c-e3ddd5b709f6
686fd85e-519a-11ea-b577-c356288a5bff,690836ee-519a-11ea-b558-abbe94a0bbdb
6903ead0-519a-11ea-af99-9fe401059665,69084b3e-519a-11ea-90d1-5323d7209b76
685e9b84-519a-11ea-86e4-8723ac7cd04b,69086754-519a-11ea-b643-3bd0fb8056d7
68bf7cce-519a-11ea-b9bf-cb7712db5973,6908bef2-519a-11ea-8c4e-1b7a9252a484
6884636e-519a-11ea-aa40-0b670c5ffbf2,6908d2f2-519a-11ea-83b3-9b0aa6cb2698
6870d4f2-519a-11ea-a730-3b3c5b8cc7bb,6908f73c-519a-11ea-9c93-875b22866700
68e62e64-519a-11ea-b0ef-dfc65e150e68,69093846-519a-11ea-b0a9-1368a6360db4
6861905a-519a-11ea-9457-a73cda7c648a,690964b0-519a-11ea-81c9-0f688ca3f6d1
687e9fb0-519a-11ea-8ff6-f36f9aef249a,69098ba2-519a-11ea-8748-e34e2aa4f782
6873be4c-519a-11ea-ae42-7b7eafc28f95,6909c9b4-519a-11ea-a990-97426d49e055
688f6200-519a-11ea-866e-538d985d1221,6909dc60-519a-11ea-a544-db8ea309ca8f
68ec2f12-519a-11ea-b3cf-1b45c3c65ac1,690a203a-519a-11ea-83f0-47365afe4d26
68aa6fd2-519a-11ea-b4c8-7f500da1f2c6,690a4394-519a-11ea-9006-ff14b05cf2c8
6864ea48-519a-11ea-9215-bf0abb6ac48e,690a88f4-519a-11ea-bb8a-d78c31c7a384
68a0281a-519a-11ea-b149-ab06bd351eb1,690aafc8-519a-11ea-bd59-9f1ec6b0daab
68574ed8-519a-11ea-a437-7b3cb8205cd9,690ac7ec-519a-11ea-a215-f3c29d568f54
68c7adae-519a-11ea-abd9-ff64c1dd37a5,690adbec-519a-11ea-9bdd-5f264ed2af9b
686681b4-519a-11ea-b1cf-8758e110d734,690b3056-519a-11ea-a927-6f7a6c51136f
684d5a5e-519a-11ea-a41e-93d6f5537bfa,690b5c20-519a-11ea-9405-0306414e4792
68811f10-519a-11ea-a95d-ef6f460ee36f,690b70d4-519a-11ea-a3a2-13d73fecad3c
6903d20c-519a-11ea-bced-c37ae7538a37,690b8132-519a-11ea-a12f-efd75427757f
