RunID,Agent,Age,Created,Inactive,Resources,Reputation,Ability,Que
run-2020-2-25-14-51-28.149491071,AGENT#bbeb1a58-57de-11ea-90b0-d742efc8cd04,0,0,0,10,1.0,1.0,0
run-2020-2-25-14-51-28.149491071,AGENT#bbeb27d2-57de-11ea-9a69-ab07673f93f3,0,0,0,10,1.0,1.0,0
run-2020-2-25-14-51-28.149491071,AGENT#bbeb13be-57de-11ea-a6ea-970d92fbe6b2,1,0,1,10,1.0,1.0,0
run-2020-2-25-14-51-28.149491071,AGENT#bbeb1fd0-57de-11ea-ba23-7f8f70522ed3,3,0,3,10,1.0,1.0,0
run-2020-2-25-14-51-28.149491071,AGENT#bbeb2516-57de-11ea-9504-0f2bd39aa3d2,3,0,3,10,1.0,1.0,0
run-2020-2-25-14-51-28.149491071,AGENT#bd12bad0-57de-11ea-8758-6fecd8626285,2,1,3,10,1.0,1.0,0
run-2020-2-25-14-51-28.149491071,AGENT#bd12c2d2-57de-11ea-bee8-cbb4328158c3,2,1,3,10,1.0,1.0,0
run-2020-2-25-14-51-28.149491071,AGENT#bbeb2278-57de-11ea-b4db-0bc4b5883f4a,4,0,4,10,1.0,1.0,0
run-2020-2-25-14-51-28.149491071,AGENT#bd12c99e-57de-11ea-b0ee-3f6d400fee80,3,1,4,10,1.0,1.0,0
run-2020-2-25-14-51-28.149491071,AGENT#bd2c330c-57de-11ea-a910-4b48695dfa8b,2,2,4,10,1.0,1.0,0
run-2020-2-25-14-51-28.149491071,AGENT#bd3d871a-57de-11ea-a1c9-f3c2af8b3868,1,3,4,10,1.0,1.0,0
run-2020-2-25-14-51-28.149491071,AGENT#bbeb1d28-57de-11ea-a5a2-03e3fb57de94,5,0,5,10,1.0,1.0,0
run-2020-2-25-14-51-28.149491071,AGENT#bbeb7d86-57de-11ea-a4c5-e769f5c2b25a,5,0,5,10,1.0,1.0,0
run-2020-2-25-14-51-28.149491071,AGENT#bd12bf1c-57de-11ea-8d56-cb8054a54f1a,4,1,5,10,1.0,1.0,0
run-2020-2-25-14-51-28.149491071,AGENT#bd3d74d2-57de-11ea-b0d4-6bd7c1f9f3f3,2,3,5,10,1.0,1.0,0
run-2020-2-25-14-51-28.149491071,AGENT#bd4952f2-57de-11ea-b815-db3e4a42f967,2,4,6,10,1.0,1.0,0
run-2020-2-25-14-51-28.149491071,AGENT#bd52654a-57de-11ea-a69e-db02d4343142,1,5,6,10,1.0,1.0,0
run-2020-2-25-14-51-28.149491071,AGENT#bd2c30a0-57de-11ea-9565-cb573b759a28,5,2,7,10,1.0,1.0,0
run-2020-2-25-14-51-28.149491071,AGENT#bd5261e4-57de-11ea-975f-9bf4b2f55816,2,5,7,10,1.0,1.0,0
run-2020-2-25-14-51-28.149491071,AGENT#bd494ea6-57de-11ea-8f87-bf5c3deaf023,4,4,8,10,1.0,1.0,0
run-2020-2-25-14-51-28.149491071,AGENT#bd595e04-57de-11ea-9923-cf4658104fbf,2,6,8,10,1.0,1.0,0
run-2020-2-25-14-51-28.149491071,AGENT#bd596a16-57de-11ea-9cbc-4b4905dd027a,2,6,8,10,1.0,1.0,0
run-2020-2-25-14-51-28.149491071,AGENT#bd5ea99a-57de-11ea-abc7-c762b1f34e7b,1,7,8,10,1.0,1.0,0
run-2020-2-25-14-51-28.149491071,AGENT#bd494802-57de-11ea-83a8-df050fccdde6,5,4,9,10,1.0,1.0,0
run-2020-2-25-14-51-28.149491071,AGENT#bd494b40-57de-11ea-b1d4-83c652773e31,5,4,9,10,1.0,1.0,0
run-2020-2-25-14-51-28.149491071,AGENT#bd52569a-57de-11ea-b622-bb179ef3295f,4,5,9,10,1.0,1.0,0
run-2020-2-25-14-51-28.149491071,AGENT#bd525b68-57de-11ea-8724-9b8bc2f1eef0,4,5,9,10,1.0,1.0,0
run-2020-2-25-14-51-28.149491071,AGENT#bd595a8a-57de-11ea-9a7d-8be20abeb7af,3,6,9,10,1.0,1.0,0
run-2020-2-25-14-51-28.149491071,AGENT#bd636282-57de-11ea-9503-a7cfddb0a369,2,8,10,10,1.0,1.0,0
run-2020-2-25-14-51-28.149491071,AGENT#bd6793de-57de-11ea-900d-cfdf14123e5f,1,9,10,10,1.0,1.0,0
run-2020-2-25-14-51-28.149491071,AGENT#bd67964a-57de-11ea-aaf8-9be554b331c4,1,9,10,10,1.0,1.0,0
run-2020-2-25-14-51-28.149491071,AGENT#bd678ede-57de-11ea-b91c-db1fb549b503,2,9,11,10,1.0,1.0,0
run-2020-2-25-14-51-28.149491071,AGENT#bd679f6e-57de-11ea-bef9-13123510a41e,2,9,11,10,1.0,1.0,0
run-2020-2-25-14-51-28.149491071,AGENT#bd6bab54-57de-11ea-9243-9782be8cf07a,1,10,11,10,1.0,1.0,0
run-2020-2-25-14-51-28.149491071,AGENT#bd2c2d8a-57de-11ea-b5db-073cae56e11a,10,2,12,10,1.0,1.0,0
run-2020-2-25-14-51-28.149491071,AGENT#bd5ea684-57de-11ea-9b09-232dfb1cdf19,5,7,12,10,1.0,1.0,0
run-2020-2-25-14-51-28.149491071,AGENT#bd679172-57de-11ea-b210-630b76a4db08,3,9,12,10,1.0,1.0,0
run-2020-2-25-14-51-28.149491071,AGENT#bd6ba3de-57de-11ea-98f7-87b5300ec5c7,2,10,12,10,1.0,1.0,0
run-2020-2-25-14-51-28.149491071,AGENT#bd6f94da-57de-11ea-aaf8-73a9c7b05de6,1,11,12,10,1.0,1.0,0
run-2020-2-25-14-51-28.149491071,AGENT#bd6f99ee-57de-11ea-ad66-6f33ae8ed12c,1,11,12,10,1.0,1.0,0
run-2020-2-25-14-51-28.149491071,AGENT#bd6798a2-57de-11ea-97bc-f3d022a40467,4,9,13,10,1.0,1.0,0
run-2020-2-25-14-51-28.149491071,AGENT#bd6badb6-57de-11ea-964d-f7b52112115a,3,10,13,10,1.0,1.0,0
run-2020-2-25-14-51-28.149491071,AGENT#bd6ba136-57de-11ea-92ca-1ff8722359fb,4,10,14,10,1.0,1.0,0
run-2020-2-25-14-51-28.149491071,AGENT#bd6ba8e8-57de-11ea-817d-ebde52fc662e,4,10,14,10,1.0,1.0,0
run-2020-2-25-14-51-28.149491071,AGENT#bd6fa128-57de-11ea-9ec8-6f2bb471649b,3,11,14,10,1.0,1.0,0
run-2020-2-25-14-51-28.149491071,AGENT#bd6fa39e-57de-11ea-a6d3-4feb663b1372,3,11,14,10,1.0,1.0,0
run-2020-2-25-14-51-28.149491071,AGENT#bd73645c-57de-11ea-8bcf-ef1c5dba23f1,2,12,14,10,1.0,1.0,0
run-2020-2-25-14-51-28.149491071,AGENT#bd736722-57de-11ea-aa39-f388474dc1e8,3,12,15,10,1.0,1.0,0
run-2020-2-25-14-51-28.149491071,AGENT#bd736998-57de-11ea-9679-6b86afe8f5bd,3,12,15,10,1.0,1.0,0
run-2020-2-25-14-51-28.149491071,AGENT#bd7b3a24-57de-11ea-9fcf-272c3ad83c60,1,14,15,10,1.0,1.0,0
run-2020-2-25-14-51-28.149491071,AGENT#bd7b3c7c-57de-11ea-b97e-674d21d94771,1,14,15,10,1.0,1.0,0
run-2020-2-25-14-51-28.149491071,AGENT#bd495c66-57de-11ea-9e05-3bd5b3cdf080,12,4,16,10,1.0,1.0,0
run-2020-2-25-14-51-28.149491071,AGENT#bd7b2f2a-57de-11ea-96b1-c3764d4642a8,3,14,17,10,1.0,1.0,0
run-2020-2-25-14-51-28.149491071,AGENT#bd7b3524-57de-11ea-8402-0314884f4db7,3,14,17,10,1.0,1.0,0
run-2020-2-25-14-51-28.149491071,AGENT#bd7f2ed6-57de-11ea-a3de-dfce84270c65,2,15,17,10,1.0,1.0,0
run-2020-2-25-14-51-28.149491071,AGENT#bd831d3e-57de-11ea-be58-4b5d56baa59d,1,16,17,10,1.0,1.0,0
run-2020-2-25-14-51-28.149491071,AGENT#bd7b3790-57de-11ea-a1c1-9fc572936234,4,14,18,10,1.0,1.0,0
run-2020-2-25-14-51-28.149491071,AGENT#bd831528-57de-11ea-901a-6b9ffe049e49,2,16,18,10,1.0,1.0,0
run-2020-2-25-14-51-28.149491071,AGENT#bd8709d0-57de-11ea-bcbd-cf07a3237004,1,17,18,10,1.0,1.0,0
run-2020-2-25-14-51-28.149491071,AGENT#bd870c82-57de-11ea-a19c-43c58c2303e6,2,17,19,10,1.0,1.0,0
run-2020-2-25-14-51-28.149491071,AGENT#bd3d8a80-57de-11ea-b74d-c3d9ad139250,17,3,20,10,1.0,1.0,0
run-2020-2-25-14-51-28.149491071,AGENT#bd831a82-57de-11ea-ba42-0b5996099992,4,16,20,10,1.0,1.0,0
run-2020-2-25-14-51-28.149491071,AGENT#bd8706e2-57de-11ea-a38d-1fc192a05b4c,3,17,20,10,1.0,1.0,0
run-2020-2-25-14-51-28.149491071,AGENT#bd8ae21c-57de-11ea-9a51-cbc39d725391,2,18,20,10,1.0,1.0,0
run-2020-2-25-14-51-28.149491071,AGENT#bd8f0766-57de-11ea-b6e5-fb9bd4a500d9,2,19,21,10,1.0,1.0,0
run-2020-2-25-14-51-28.149491071,AGENT#bd96f0de-57de-11ea-ab76-dbc5e4779b28,1,21,22,10,1.0,1.0,0
run-2020-2-25-14-51-28.149491071,AGENT#bd96f3fe-57de-11ea-a333-f7f3f5865c85,1,21,22,10,1.0,1.0,0
run-2020-2-25-14-51-28.149491071,AGENT#bd96f930-57de-11ea-9338-af119f0aa9f5,1,21,22,10,1.0,1.0,0
run-2020-2-25-14-51-28.149491071,AGENT#bd596430-57de-11ea-9777-e726226bacef,18,6,24,10,1.0,1.0,0
run-2020-2-25-14-51-28.149491071,AGENT#bd6f9eb2-57de-11ea-89d2-fb348f77503a,13,11,24,10,1.0,1.0,0
run-2020-2-25-14-51-28.149491071,AGENT#bd7f31b0-57de-11ea-9f0e-c7361b4e4729,9,15,24,10,1.0,1.0,0
run-2020-2-25-14-51-28.149491071,AGENT#bd96f69c-57de-11ea-8005-9f0615d35731,3,21,24,10,1.0,1.0,0
run-2020-2-25-14-51-28.149491071,AGENT#bd9b1f60-57de-11ea-94dc-ab2cdf6d2134,2,22,24,10,1.0,1.0,0
run-2020-2-25-14-51-28.149491071,AGENT#bd9b221c-57de-11ea-9e37-1f2484afe947,2,22,24,10,1.0,1.0,0
run-2020-2-25-14-51-28.149491071,AGENT#bd9f2150-57de-11ea-a060-7b10d5e93d5d,1,23,24,10,1.0,1.0,0
run-2020-2-25-14-51-28.149491071,AGENT#bd92ff60-57de-11ea-8f70-cf4881612ee3,5,20,25,10,1.0,1.0,0
run-2020-2-25-14-51-28.149491071,AGENT#bbeb2a70-57de-11ea-afc8-c38e3563e643,26,0,26,10,1.0,1.0,0
run-2020-2-25-14-51-28.149491071,AGENT#bd6f9c50-57de-11ea-b701-8b05cf0ae4f4,15,11,26,10,1.0,1.0,0
run-2020-2-25-14-51-28.149491071,AGENT#bd9b1c36-57de-11ea-9a4c-ebed08d3a580,4,22,26,10,1.0,1.0,0
run-2020-2-25-14-51-28.149491071,AGENT#bd9f2664-57de-11ea-ab89-dbb7fff2ac1a,3,23,26,10,1.0,1.0,0
run-2020-2-25-14-51-28.149491071,AGENT#bda32b92-57de-11ea-8429-6728df478973,3,24,27,10,1.0,1.0,0
run-2020-2-25-14-51-28.149491071,AGENT#bd12c642-57de-11ea-ae5c-67146dbcda1e,27,1,28,10,1.0,1.0,0
run-2020-2-25-14-51-28.149491071,AGENT#bdab1a1e-57de-11ea-8bc3-9fe2363b2062,2,26,28,10,1.0,1.0,0
run-2020-2-25-14-51-28.149491071,AGENT#bd2c26a0-57de-11ea-a7df-e7bd18113aff,27,2,29,10,1.0,1.0,0
run-2020-2-25-14-51-28.149491071,AGENT#bda323e0-57de-11ea-a5e5-978bca902264,5,24,29,10,1.0,1.0,0
run-2020-2-25-14-51-28.149491071,AGENT#bda326a6-57de-11ea-9903-f3306e6586a2,5,24,29,10,1.0,1.0,0
run-2020-2-25-14-51-28.149491071,AGENT#bda32930-57de-11ea-a478-a7df1f251b15,5,24,29,10,1.0,1.0,0
run-2020-2-25-14-51-28.149491071,AGENT#bdab0cc2-57de-11ea-bc83-234b8e645ead,3,26,29,10,1.0,1.0,0
run-2020-2-25-14-51-28.149491071,AGENT#bdab0ff6-57de-11ea-8f36-e7be2e42a48c,3,26,29,10,1.0,1.0,0
run-2020-2-25-14-51-28.149491071,AGENT#bdab12c6-57de-11ea-b5dc-07dc441e5a6b,3,26,29,10,1.0,1.0,0
run-2020-2-25-14-51-28.149491071,AGENT#bdab17b2-57de-11ea-b32d-8bd13d81fed8,3,26,29,10,1.0,1.0,0
run-2020-2-25-14-51-28.149491071,AGENT#bdaf0bce-57de-11ea-bbfc-cf8e14f13fbc,2,27,29,10,1.0,1.0,0
run-2020-2-25-14-51-28.149491071,AGENT#bdb2ef50-57de-11ea-9d83-0f8fc36644b9,1,28,29,10,1.0,1.0,0
run-2020-2-25-14-51-28.149491071,AGENT#bdb2ec94-57de-11ea-8fc7-0b4accb6114e,2,28,30,10,1.0,1.0,0
run-2020-2-25-14-51-28.149491071,AGENT#bdb6d782-57de-11ea-a92c-d3aa87fa71bc,2,29,31,10,1.0,1.0,0
run-2020-2-25-14-51-28.149491071,AGENT#bdb6d4a8-57de-11ea-a4b0-9b9b982503af,3,29,32,10,1.0,1.0,0
run-2020-2-25-14-51-28.149491071,AGENT#bdbac6f8-57de-11ea-94e1-4fa824ca044e,2,30,32,10,1.0,1.0,0
run-2020-2-25-14-51-28.149491071,AGENT#bdbebe2a-57de-11ea-96fd-f30655f2581e,1,31,32,10,1.0,1.0,0
run-2020-2-25-14-51-28.149491071,AGENT#bd6f9764-57de-11ea-85dd-770edbaf7ae9,22,11,33,10,1.0,1.0,0
run-2020-2-25-14-51-28.149491071,AGENT#bdc33446-57de-11ea-8d66-5f902b9cff38,1,32,33,10,1.0,1.0,0
run-2020-2-25-14-51-28.149491071,AGENT#bbeb2d9a-57de-11ea-87f0-c3e1b0da3293,34,0,34,10,1.0,1.0,0
run-2020-2-25-14-51-28.149491071,AGENT#bd6367f0-57de-11ea-bd00-5beb0ad9f7ef,26,8,34,10,1.0,1.0,0
run-2020-2-25-14-51-28.149491071,AGENT#bdbec898-57de-11ea-8322-8b6b3468a68b,3,31,34,10,1.0,1.0,0
run-2020-2-25-14-51-28.149491071,AGENT#bdc331c6-57de-11ea-aeda-6792eed6e245,2,32,34,10,1.0,1.0,0
run-2020-2-25-14-51-28.149491071,AGENT#bdc3398c-57de-11ea-b994-63a8091d8ded,2,32,34,10,1.0,1.0,0
run-2020-2-25-14-51-28.149491071,AGENT#bdcb6efe-57de-11ea-90e1-9b6b46a4cdc9,1,34,35,10,1.0,1.0,0
run-2020-2-25-14-51-28.149491071,AGENT#bd2c356e-57de-11ea-aca8-a7ea798656a1,34,2,36,10,1.0,1.0,0
run-2020-2-25-14-51-28.149491071,AGENT#bdc33702-57de-11ea-8004-5bcf78bbd38f,4,32,36,10,1.0,1.0,0
run-2020-2-25-14-51-28.149491071,AGENT#bdcf6310-57de-11ea-9a99-df3dc304ee18,1,35,36,10,1.0,1.0,0
run-2020-2-25-14-51-28.149491071,AGENT#bdc32ee2-57de-11ea-9b75-93a0588ada5b,5,32,37,10,1.0,1.0,0
run-2020-2-25-14-51-28.149491071,AGENT#bdcf6888-57de-11ea-8bcc-d7e85daf10aa,2,35,37,10,1.0,1.0,0
run-2020-2-25-14-51-28.149491071,AGENT#bdd35042-57de-11ea-b0d8-37c06200071f,1,36,37,10,1.0,1.0,0
run-2020-2-25-14-51-28.149491071,AGENT#bdd35524-57de-11ea-a63c-aba11e722b77,1,36,37,10,1.0,1.0,0
run-2020-2-25-14-51-28.149491071,AGENT#bd9f23e4-57de-11ea-b98e-c7981c944405,15,23,38,10,1.0,1.0,0
run-2020-2-25-14-51-28.149491071,AGENT#bdcf6af4-57de-11ea-b3e9-2b7ae1f2ed66,3,35,38,10,1.0,1.0,0
run-2020-2-25-14-51-28.149491071,AGENT#bdd34dd6-57de-11ea-94b8-2be41a06bdde,2,36,38,10,1.0,1.0,0
run-2020-2-25-14-51-28.149491071,AGENT#bdd357ae-57de-11ea-a367-1f8bc33408b9,2,36,38,10,1.0,1.0,0
run-2020-2-25-14-51-28.149491071,AGENT#bdd75110-57de-11ea-a4d6-4fd9c5bd198f,1,37,38,10,1.0,1.0,0
run-2020-2-25-14-51-28.149491071,AGENT#bdb2f1d0-57de-11ea-afdf-73d450ad660d,11,28,39,10,1.0,1.0,0
run-2020-2-25-14-51-28.149491071,AGENT#bdcf6d74-57de-11ea-8299-3ffc87b674ae,4,35,39,10,1.0,1.0,0
run-2020-2-25-14-51-28.149491071,AGENT#bdd34b42-57de-11ea-974d-df720f1e2772,3,36,39,10,1.0,1.0,0
run-2020-2-25-14-51-28.149491071,AGENT#bdd74670-57de-11ea-aa73-9f073492b132,2,37,39,10,1.0,1.0,0
run-2020-2-25-14-51-28.149491071,AGENT#bddb396a-57de-11ea-a868-2b74e3d05499,1,38,39,10,1.0,1.0,0
run-2020-2-25-14-51-28.149491071,AGENT#bddb3eba-57de-11ea-abdb-bfd00479bb0b,1,38,39,10,1.0,1.0,0
run-2020-2-25-14-51-28.149491071,AGENT#bd8317ee-57de-11ea-96ad-9b1146afc66e,24,16,40,10,1.0,1.0,0
run-2020-2-25-14-51-28.149491071,AGENT#bdd352cc-57de-11ea-983f-1f6f76792fdf,4,36,40,10,1.0,1.0,0
run-2020-2-25-14-51-28.149491071,AGENT#bdd74e40-57de-11ea-9b96-f7566ae000fb,3,37,40,10,1.0,1.0,0
run-2020-2-25-14-51-28.149491071,AGENT#bddb3c44-57de-11ea-ad44-e7705be05871,2,38,40,10,1.0,1.0,0
run-2020-2-25-14-51-28.149491071,AGENT#bddb432e-57de-11ea-a84c-b32e371e6275,2,38,40,10,1.0,1.0,0
run-2020-2-25-14-51-28.149491071,AGENT#bddf5e14-57de-11ea-8cb9-9315efe6aaaf,1,39,40,10,1.0,1.0,0
run-2020-2-25-14-51-28.149491071,AGENT#bddf6116-57de-11ea-a26c-9f63cfd01b26,1,39,40,10,1.0,1.0,0
run-2020-2-25-14-51-28.149491071,AGENT#bd92fc86-57de-11ea-8622-cfa6644c49a2,21,20,41,10,1.0,1.0,0
run-2020-2-25-14-51-28.149491071,AGENT#bddf54be-57de-11ea-a81b-736cb6921c0e,2,39,41,10,1.0,1.0,0
run-2020-2-25-14-51-28.149491071,AGENT#bdbec12c-57de-11ea-b1fe-5b6607380c6d,11,31,42,10,1.0,1.0,0
run-2020-2-25-14-51-28.149491071,AGENT#bddb45f4-57de-11ea-9698-abfa35711ae1,4,38,42,10,1.0,1.0,0
run-2020-2-25-14-51-28.149491071,AGENT#bddb487e-57de-11ea-bb38-f3624ca65774,4,38,42,10,1.0,1.0,0
run-2020-2-25-14-51-28.149491071,AGENT#bde73b02-57de-11ea-9e9a-ff150119543a,1,41,42,10,1.0,1.0,0
run-2020-2-25-14-51-28.149491071,AGENT#bddf51a8-57de-11ea-9b51-536f6fb90bf7,4,39,43,10,1.0,1.0,0
run-2020-2-25-14-51-28.149491071,AGENT#bdcf6608-57de-11ea-b5c0-cf16345dda39,9,35,44,10,1.0,1.0,0
run-2020-2-25-14-51-28.149491071,AGENT#bddf59d2-57de-11ea-92db-efafcc2f1dbc,5,39,44,10,1.0,1.0,0
run-2020-2-25-14-51-28.149491071,AGENT#bdeb4116-57de-11ea-af73-d7bd8e693ef9,2,42,44,10,1.0,1.0,0
run-2020-2-25-14-51-28.149491071,AGENT#bdef56f2-57de-11ea-9616-6b66b34943b6,1,43,44,10,1.0,1.0,0
run-2020-2-25-14-51-28.149491071,AGENT#bdef5f1c-57de-11ea-a4c0-cfac6620d269,1,43,44,10,1.0,1.0,0
run-2020-2-25-14-51-28.149491071,AGENT#bdef66ec-57de-11ea-a77e-2b96a10cda52,1,43,44,10,1.0,1.0,0
run-2020-2-25-14-51-28.149491071,AGENT#bbeb7638-57de-11ea-8ad5-9f01e58f6c76,45,0,45,10,1.0,1.0,0
run-2020-2-25-14-51-28.149491071,AGENT#bde349a2-57de-11ea-84ab-cf220357a020,5,40,45,10,1.0,1.0,0
run-2020-2-25-14-51-28.149491071,AGENT#bdeb3932-57de-11ea-a6a5-bb37078fede7,3,42,45,10,1.0,1.0,0
run-2020-2-25-14-51-28.149491071,AGENT#bdf3810a-57de-11ea-aa9a-8307496cf5b6,1,44,45,10,1.0,1.0,0
run-2020-2-25-14-51-28.149491071,AGENT#bdf38380-57de-11ea-b2e4-3765c5a95cb8,1,44,45,10,1.0,1.0,0
run-2020-2-25-14-51-28.149491071,AGENT#bbeb177e-57de-11ea-a5d8-a7accdd1186f,46,0,46,10,1.0,1.0,0
run-2020-2-25-14-51-28.149491071,AGENT#bdeb3644-57de-11ea-b431-f3f0cb9702b9,4,42,46,10,1.0,1.0,0
run-2020-2-25-14-51-28.149491071,AGENT#bdeb3e28-57de-11ea-b91e-b7c91596ff76,4,42,46,10,1.0,1.0,0
run-2020-2-25-14-51-28.149491071,AGENT#bdef61e2-57de-11ea-a2b3-7ffc60894e64,3,43,46,10,1.0,1.0,0
run-2020-2-25-14-51-28.149491071,AGENT#bdf385ce-57de-11ea-a05a-c3525c054b62,2,44,46,10,1.0,1.0,0
run-2020-2-25-14-51-28.149491071,AGENT#bdf7d016-57de-11ea-ae30-4f3fec08fb70,1,45,46,10,1.0,1.0,0
run-2020-2-25-14-51-28.149491071,AGENT#bdeb3bbc-57de-11ea-aab2-63364ea90187,5,42,47,10,1.0,1.0,0
run-2020-2-25-14-51-28.149491071,AGENT#bdeb4378-57de-11ea-8d3e-1ba96ccbfd57,5,42,47,10,1.0,1.0,0
run-2020-2-25-14-51-28.149491071,AGENT#bdef59e0-57de-11ea-80bf-83214784b15f,4,43,47,10,1.0,1.0,0
run-2020-2-25-14-51-28.149491071,AGENT#bdf37c32-57de-11ea-889c-4ba3dac11e53,3,44,47,10,1.0,1.0,0
run-2020-2-25-14-51-28.149491071,AGENT#bbeb7994-57de-11ea-8f00-cb1f03a77e93,48,0,48,10,1.0,1.0,0
run-2020-2-25-14-51-28.149491071,AGENT#bd12cd9a-57de-11ea-ad04-e337e7ecc61c,47,1,48,10,1.0,1.0,0
run-2020-2-25-14-51-28.149491071,AGENT#bd2c2a92-57de-11ea-b8e9-7f2e12982d6f,46,2,48,10,1.0,1.0,0
run-2020-2-25-14-51-28.149491071,AGENT#bd3d7be4-57de-11ea-adb4-73391e2efed5,45,3,48,10,1.0,1.0,0
run-2020-2-25-14-51-28.149491071,AGENT#bd525eb0-57de-11ea-abf2-4b8626007178,43,5,48,10,1.0,1.0,0
run-2020-2-25-14-51-28.149491071,AGENT#bdf37e9e-57de-11ea-a7f8-6fd85fd4f44b,4,44,48,10,1.0,1.0,0
run-2020-2-25-14-51-28.149491071,AGENT#bd736bfa-57de-11ea-893f-339688380640,37,12,49,10,1.0,1.0,0
run-2020-2-25-14-51-28.149491071,AGENT#bdb6deda-57de-11ea-b1ae-271160631a60,20,29,49,10,1.0,1.0,0
run-2020-2-25-14-51-28.149491071,AGENT#bdf3881c-57de-11ea-82bc-d3f0cfebe41c,5,44,49,10,1.0,1.0,0
run-2020-2-25-14-51-28.149491071,AGENT#bdfbf524-57de-11ea-b776-4b93505823d0,3,46,49,10,1.0,1.0,0
run-2020-2-25-14-51-28.149491071,AGENT#be003ec2-57de-11ea-9a11-7b17922e33f9,2,47,49,10,1.0,1.0,0
run-2020-2-25-14-51-28.149491071,AGENT#be004142-57de-11ea-b1cf-23fe33240c3b,2,47,49,10,1.0,1.0,0
run-2020-2-25-14-51-28.149491071,AGENT#be004412-57de-11ea-b2fc-a7d20a0b48c8,2,47,49,10,1.0,1.0,0
run-2020-2-25-14-51-28.149491071,AGENT#be046f24-57de-11ea-8cef-b345a8101b86,1,48,49,10,1.0,1.0,0
run-2020-2-25-14-51-28.149491071,AGENT#bd49575c-57de-11ea-9e54-677eeffe7930,46,4,50,10,1.0,1.0,0
run-2020-2-25-14-51-28.149491071,AGENT#bdf7d49e-57de-11ea-9a69-0b18f6ec1c16,5,45,50,10,1.0,1.0,0
run-2020-2-25-14-51-28.149491071,AGENT#bdf7d8b8-57de-11ea-8d7b-eb480b2f6c2a,5,45,50,10,1.0,1.0,0
run-2020-2-25-14-51-28.149491071,AGENT#be087bb4-57de-11ea-a4fb-bffc8c5b005a,1,49,50,10,1.0,1.0,0
run-2020-2-25-14-51-28.149491071,AGENT#bd5960f2-57de-11ea-b69a-9b28dce5d810,45,6,51,10,1.0,1.0,0
run-2020-2-25-14-51-28.149491071,AGENT#bd596714-57de-11ea-bcb1-3380bcc82764,45,6,51,10,1.0,1.0,0
run-2020-2-25-14-51-28.149491071,AGENT#be0036d4-57de-11ea-a8ed-27da300cccf8,4,47,51,10,1.0,1.0,0
run-2020-2-25-14-51-28.149491071,AGENT#be003c60-57de-11ea-a62c-8f8dc8e011bc,5,47,52,10,1.0,1.0,0
run-2020-2-25-14-51-28.149491071,AGENT#be047546-57de-11ea-8632-eb9156587ad7,4,48,52,10,1.0,1.0,0
run-2020-2-25-14-51-28.149491071,AGENT#be0873c6-57de-11ea-b9a7-cb4020562ba0,3,49,52,10,1.0,1.0,0
run-2020-2-25-14-51-28.149491071,AGENT#be10939e-57de-11ea-889e-8f48721f78cd,1,51,52,10,1.0,1.0,0
run-2020-2-25-14-51-28.149491071,AGENT#bd63653e-57de-11ea-9fd7-d76439099544,45,8,53,10,1.0,1.0,0
run-2020-2-25-14-51-28.149491071,AGENT#be087934-57de-11ea-9afe-83a7e4864bae,4,49,53,10,1.0,1.0,0
run-2020-2-25-14-51-28.149491071,AGENT#be10913c-57de-11ea-8f28-5ff84a08399b,2,51,53,10,1.0,1.0,0
run-2020-2-25-14-51-28.149491071,AGENT#be149804-57de-11ea-8efc-eb37f29f94a6,1,52,53,10,1.0,1.0,0
run-2020-2-25-14-51-28.149491071,AGENT#bd679d0c-57de-11ea-a0e6-07344f50104b,45,9,54,10,1.0,1.0,0
run-2020-2-25-14-51-28.149491071,AGENT#bd3d81fc-57de-11ea-9ef9-130b94bcc847,52,3,55,10,1.0,1.0,0
run-2020-2-25-14-51-28.149491071,AGENT#bd6ba672-57de-11ea-b503-1b8a2de39cb3,45,10,55,10,1.0,1.0,0
run-2020-2-25-14-51-28.149491071,AGENT#be14955c-57de-11ea-9624-5f9c760479de,3,52,55,10,1.0,1.0,0
run-2020-2-25-14-51-28.149491071,AGENT#bd6b9a42-57de-11ea-8f75-433e11ac1fc6,46,10,56,10,1.0,1.0,0
run-2020-2-25-14-51-28.149491071,AGENT#bd6b9db2-57de-11ea-adc1-b75e135c7cef,46,10,56,10,1.0,1.0,0
run-2020-2-25-14-51-28.149491071,AGENT#be18a606-57de-11ea-b5d9-cf9908cbe321,4,53,57,10,1.0,1.0,0
run-2020-2-25-14-51-28.149491071,AGENT#be18acd2-57de-11ea-82f0-af341bebc1fa,4,53,57,10,1.0,1.0,0
run-2020-2-25-14-51-28.149491071,AGENT#be1cc9c0-57de-11ea-bf14-d707b128de27,3,54,57,10,1.0,1.0,0
run-2020-2-25-14-51-28.149491071,AGENT#be24cf94-57de-11ea-861a-7b5f54f61e50,1,56,57,10,1.0,1.0,0
run-2020-2-25-14-51-28.149491071,AGENT#be18a8e0-57de-11ea-ac54-efccac5d871d,5,53,58,10,1.0,1.0,0
run-2020-2-25-14-51-28.149491071,AGENT#be1cc466-57de-11ea-bdad-9b0174ba8a1b,4,54,58,10,1.0,1.0,0
run-2020-2-25-14-51-28.149491071,AGENT#bd7b31f0-57de-11ea-866d-3bf3143d0321,45,14,59,10,1.0,1.0,0
run-2020-2-25-14-51-28.149491071,AGENT#bd6f9188-57de-11ea-a7a0-d7828fe885d9,49,11,60,10,1.0,1.0,0
run-2020-2-25-14-51-28.149491071,AGENT#bd77586e-57de-11ea-95d8-971b2b20a446,47,13,60,10,1.0,1.0,0
run-2020-2-25-14-51-28.149491071,AGENT#be28edf4-57de-11ea-bfc8-ef8bdcc5c2c0,3,57,60,10,1.0,1.0,0
run-2020-2-25-14-51-28.149491071,AGENT#be28f344-57de-11ea-b52e-33ce75d2527f,3,57,60,10,1.0,1.0,0
run-2020-2-25-14-51-28.149491071,AGENT#be2d3102-57de-11ea-b709-ebf6edbbb5cc,2,58,60,10,1.0,1.0,0
run-2020-2-25-14-51-28.149491071,AGENT#be2d368e-57de-11ea-b755-37c0b641afe9,2,58,60,10,1.0,1.0,0
run-2020-2-25-14-51-28.149491071,AGENT#be31fed0-57de-11ea-85ae-d7d3c54c6c06,2,59,61,10,1.0,1.0,0
run-2020-2-25-14-51-28.149491071,AGENT#be363b30-57de-11ea-86fa-d35969bd02bd,1,60,61,10,1.0,1.0,0
run-2020-2-25-14-51-28.149491071,AGENT#be364684-57de-11ea-9e37-9b0e0b03d8f9,1,60,61,10,1.0,1.0,0
run-2020-2-25-14-51-28.149491071,AGENT#be2d2e14-57de-11ea-b168-3773becc11e4,4,58,62,10,1.0,1.0,0
run-2020-2-25-14-51-28.149491071,AGENT#be3643f0-57de-11ea-b91d-d79512f30319,2,60,62,10,1.0,1.0,0
run-2020-2-25-14-51-28.149491071,AGENT#be3a51a2-57de-11ea-a3a8-2b2217b049cf,1,61,62,10,1.0,1.0,0
run-2020-2-25-14-51-28.149491071,AGENT#bd7b2c32-57de-11ea-a015-ab1614306de3,49,14,63,10,1.0,1.0,0
run-2020-2-25-14-51-28.149491071,AGENT#bdcb71d8-57de-11ea-9615-bf2410f93a97,29,34,63,10,1.0,1.0,0
run-2020-2-25-14-51-28.149491071,AGENT#be3a4c84-57de-11ea-9171-4fe7ff832ced,2,61,63,10,1.0,1.0,0
run-2020-2-25-14-51-28.149491071,AGENT#be3a4f22-57de-11ea-ace2-778fec921c17,2,61,63,10,1.0,1.0,0
run-2020-2-25-14-51-28.149491071,AGENT#be3e5f5e-57de-11ea-a39d-2378f17bd572,1,62,63,10,1.0,1.0,0
run-2020-2-25-14-51-28.149491071,AGENT#bd8ae85c-57de-11ea-b834-4f83e7728410,46,18,64,10,1.0,1.0,0
run-2020-2-25-14-51-28.149491071,AGENT#bd8f03ce-57de-11ea-9e2e-5b5b568c66ee,46,19,65,10,1.0,1.0,0
run-2020-2-25-14-51-28.149491071,AGENT#be363e28-57de-11ea-b116-d31651af2a2b,6,60,66,10,1.0,1.0,0
run-2020-2-25-14-51-28.149491071,AGENT#be3e61fc-57de-11ea-83f9-472b03c9d5b5,4,62,66,10,1.0,1.0,0
run-2020-2-25-14-51-28.149491071,AGENT#be46b94c-57de-11ea-8353-67adce7007ac,2,64,66,10,1.0,1.0,0
run-2020-2-25-14-51-28.149491071,AGENT#bd9f1e4e-57de-11ea-93ae-db91d4063089,45,23,68,10,1.0,1.0,0
run-2020-2-25-14-51-28.149491071,AGENT#be428c82-57de-11ea-9f13-8f6d9860460e,5,63,68,10,1.0,1.0,0
run-2020-2-25-14-51-28.149491071,AGENT#be4294ca-57de-11ea-a716-ff7ea2e225d6,5,63,68,10,1.0,1.0,0
run-2020-2-25-14-51-28.149491071,AGENT#bd9f28e4-57de-11ea-ad11-0f051f6d2233,46,23,69,10,1.0,1.0,0
run-2020-2-25-14-51-28.149491071,AGENT#be4abba0-57de-11ea-83a8-5f2aceb80597,4,65,69,10,1.0,1.0,0
run-2020-2-25-14-51-28.149491071,AGENT#be530b52-57de-11ea-a9a8-6bdd99a5cc9f,2,67,69,10,1.0,1.0,0
run-2020-2-25-14-51-28.149491071,AGENT#be5766fc-57de-11ea-a83f-4fc166a82c32,1,68,69,10,1.0,1.0,0
run-2020-2-25-14-51-28.149491071,AGENT#be4ed992-57de-11ea-827f-23e0680d65be,4,66,70,10,1.0,1.0,0
run-2020-2-25-14-51-28.149491071,AGENT#be4edbf4-57de-11ea-aea2-13cbc35fd3c4,4,66,70,10,1.0,1.0,0
run-2020-2-25-14-51-28.149491071,AGENT#be53085a-57de-11ea-9008-df5ba0a71aa9,3,67,70,10,1.0,1.0,0
run-2020-2-25-14-51-28.149491071,AGENT#be576102-57de-11ea-a867-b71bf56dc913,2,68,70,10,1.0,1.0,0
run-2020-2-25-14-51-28.149491071,AGENT#be5be754-57de-11ea-93ca-4f765a7d4142,1,69,70,10,1.0,1.0,0
run-2020-2-25-14-51-28.149491071,AGENT#bdab1546-57de-11ea-93f2-33c96ca868fc,45,26,71,10,1.0,1.0,0
run-2020-2-25-14-51-28.149491071,AGENT#be4ed442-57de-11ea-812a-67c1c0de5e48,5,66,71,10,1.0,1.0,0
run-2020-2-25-14-51-28.149491071,AGENT#be5769e0-57de-11ea-bdda-cbb946408ce0,3,68,71,10,1.0,1.0,0
run-2020-2-25-14-51-28.149491071,AGENT#be602daa-57de-11ea-8cb5-2ff24b508015,1,70,71,10,1.0,1.0,0
run-2020-2-25-14-51-28.149491071,AGENT#be57642c-57de-11ea-a45d-bb0c34133797,4,68,72,10,1.0,1.0,0
run-2020-2-25-14-51-28.149491071,AGENT#bdbac428-57de-11ea-98a5-8f8df5bac41a,43,30,73,10,1.0,1.0,0
run-2020-2-25-14-51-28.149491071,AGENT#be0876b4-57de-11ea-b7e1-6ba3796fb6e8,24,49,73,10,1.0,1.0,0
run-2020-2-25-14-51-28.149491071,AGENT#be68a87c-57de-11ea-8772-fb4b8355053c,1,72,73,10,1.0,1.0,0
run-2020-2-25-14-51-28.149491071,AGENT#bdb6e13c-57de-11ea-873b-23fbf055a0d7,45,29,74,10,1.0,1.0,0
run-2020-2-25-14-51-28.149491071,AGENT#be644c14-57de-11ea-8e6d-afe977077a3a,3,71,74,10,1.0,1.0,0
run-2020-2-25-14-51-28.149491071,AGENT#be68ad72-57de-11ea-b043-d7f21cbfbf32,2,72,74,10,1.0,1.0,0
run-2020-2-25-14-51-28.149491071,AGENT#be6cc682-57de-11ea-a430-5f12b3e84821,1,73,74,10,1.0,1.0,0
run-2020-2-25-14-51-28.149491071,AGENT#be6cc902-57de-11ea-8fe7-7ba263d2bc35,1,73,74,10,1.0,1.0,0
run-2020-2-25-14-51-28.149491071,AGENT#be70eac8-57de-11ea-9021-2772b7a16184,1,74,75,10,1.0,1.0,0
run-2020-2-25-14-51-28.149491071,AGENT#bdb6d9ee-57de-11ea-abf8-0fec1a1075e5,47,29,76,10,1.0,1.0,0
run-2020-2-25-14-51-28.149491071,AGENT#be644ee4-57de-11ea-8d59-6397914587ee,5,71,76,10,1.0,1.0,0
run-2020-2-25-14-51-28.149491071,AGENT#be70e7c6-57de-11ea-b2be-d3c90ee806dc,2,74,76,10,1.0,1.0,0
run-2020-2-25-14-51-28.149491071,AGENT#be70f1d0-57de-11ea-9dcc-db645c831ea3,2,74,76,10,1.0,1.0,0
run-2020-2-25-14-51-28.149491071,AGENT#bdbec398-57de-11ea-ab16-8f576c07217e,46,31,77,10,1.0,1.0,0
run-2020-2-25-14-51-28.149491071,AGENT#bdbec640-57de-11ea-8323-f7d0b5ddbd43,46,31,77,10,1.0,1.0,0
run-2020-2-25-14-51-28.149491071,AGENT#be70ef78-57de-11ea-b3c2-7f6fd1fdbd11,3,74,77,10,1.0,1.0,0
run-2020-2-25-14-51-28.149491071,AGENT#be7943e4-57de-11ea-81ee-97974f193d0f,1,76,77,10,1.0,1.0,0
run-2020-2-25-14-51-28.149491071,AGENT#bdb6dc50-57de-11ea-8f78-03ff7fd2fbbc,49,29,78,10,1.0,1.0,0
run-2020-2-25-14-51-28.149491071,AGENT#be6ccba0-57de-11ea-9f6c-7fa4d5e6ce63,5,73,78,10,1.0,1.0,0
run-2020-2-25-14-51-28.149491071,AGENT#be7da9de-57de-11ea-a4fe-67be33e1e74b,1,77,78,10,1.0,1.0,0
run-2020-2-25-14-51-28.149491071,AGENT#be1cc754-57de-11ea-a3d2-f7ddd9e38b08,25,54,79,10,1.0,1.0,0
run-2020-2-25-14-51-28.149491071,AGENT#be7514ae-57de-11ea-99ad-1f7a432cde45,5,75,80,10,1.0,1.0,0
run-2020-2-25-14-51-28.149491071,AGENT#be81c19a-57de-11ea-8062-1bb9d22a924c,2,78,80,10,1.0,1.0,0
run-2020-2-25-14-51-28.149491071,AGENT#be794114-57de-11ea-96d7-5b1614e8f60c,5,76,81,10,1.0,1.0,0
run-2020-2-25-14-51-28.149491071,AGENT#be81bec0-57de-11ea-846a-97cadc44c5a7,3,78,81,10,1.0,1.0,0
run-2020-2-25-14-51-28.149491071,AGENT#bdd74bca-57de-11ea-b95c-7b01d521d762,45,37,82,10,1.0,1.0,0
run-2020-2-25-14-51-28.149491071,AGENT#be8e5a40-57de-11ea-b1aa-bb64530c3e61,1,81,82,10,1.0,1.0,0
run-2020-2-25-14-51-28.149491071,AGENT#be8e5fcc-57de-11ea-831f-f3c791626070,1,81,82,10,1.0,1.0,0
run-2020-2-25-14-51-28.149491071,AGENT#bdd7494a-57de-11ea-b1d6-f7cdb91862dc,46,37,83,10,1.0,1.0,0
run-2020-2-25-14-51-28.149491071,AGENT#be8e5d56-57de-11ea-89c6-2bd17de2c323,2,81,83,10,1.0,1.0,0
run-2020-2-25-14-51-28.149491071,AGENT#be85edce-57de-11ea-a8b5-33ae0454b4bc,5,79,84,10,1.0,1.0,0
run-2020-2-25-14-51-28.149491071,AGENT#be8a17aa-57de-11ea-baee-e3c8ad35e445,4,80,84,10,1.0,1.0,0
run-2020-2-25-14-51-28.149491071,AGENT#be96eea8-57de-11ea-bb67-db74c625ff7d,1,83,84,10,1.0,1.0,0
run-2020-2-25-14-51-28.149491071,AGENT#bde346dc-57de-11ea-929f-efd118af5bb9,45,40,85,10,1.0,1.0,0
run-2020-2-25-14-51-28.149491071,AGENT#be8a12f0-57de-11ea-a28d-dfd61f2e0cc8,5,80,85,10,1.0,1.0,0
run-2020-2-25-14-51-28.149491071,AGENT#be928df4-57de-11ea-9796-dbcaf4f6b8a1,3,82,85,10,1.0,1.0,0
run-2020-2-25-14-51-28.149491071,AGENT#be96f6f0-57de-11ea-8786-67f46f9c124f,2,83,85,10,1.0,1.0,0
run-2020-2-25-14-51-28.149491071,AGENT#be9b3972-57de-11ea-8e16-c3fc86152a4f,1,84,85,10,1.0,1.0,0
run-2020-2-25-14-51-28.149491071,AGENT#be96f45c-57de-11ea-b2c7-dbabe78d5531,3,83,86,10,1.0,1.0,0
run-2020-2-25-14-51-28.149491071,AGENT#bde73ddc-57de-11ea-92ac-a37d94a71bc2,46,41,87,10,1.0,1.0,0
run-2020-2-25-14-51-28.149491071,AGENT#be24ccb0-57de-11ea-9193-ebfde7e5738a,31,56,87,10,1.0,1.0,0
run-2020-2-25-14-51-28.149491071,AGENT#be42975e-57de-11ea-838d-779574f6491a,24,63,87,10,1.0,1.0,0
run-2020-2-25-14-51-28.149491071,AGENT#be9b3bca-57de-11ea-91fe-0317d0bacfac,3,84,87,10,1.0,1.0,0
run-2020-2-25-14-51-28.149491071,AGENT#bdef5c92-57de-11ea-bb1e-4b161fd944ef,45,43,88,10,1.0,1.0,0
run-2020-2-25-14-51-28.149491071,AGENT#bdef6462-57de-11ea-b87e-4322d4e80d64,45,43,88,10,1.0,1.0,0
run-2020-2-25-14-51-28.149491071,AGENT#be9b31d4-57de-11ea-b52a-8b077139c905,5,84,89,10,1.0,1.0,0
run-2020-2-25-14-51-28.149491071,AGENT#bea41a38-57de-11ea-845e-6b61b2513d8f,3,86,89,10,1.0,1.0,0
run-2020-2-25-14-51-28.149491071,AGENT#bea42550-57de-11ea-ae4b-03783ec0825f,3,86,89,10,1.0,1.0,0
run-2020-2-25-14-51-28.149491071,AGENT#bea86dc2-57de-11ea-ba18-eb3fe0443ab7,2,87,89,10,1.0,1.0,0
run-2020-2-25-14-51-28.149491071,AGENT#be68a3e0-57de-11ea-8472-dbe4c6d11468,18,72,90,10,1.0,1.0,0
run-2020-2-25-14-51-28.149491071,AGENT#bea422da-57de-11ea-9d47-3bb042090ea1,4,86,90,10,1.0,1.0,0
run-2020-2-25-14-51-28.149491071,AGENT#bdfbf268-57de-11ea-8b0f-7360f5db31c2,45,46,91,10,1.0,1.0,0
run-2020-2-25-14-51-28.149491071,AGENT#bdef6962-57de-11ea-bdea-ab9ff6ad1761,49,43,92,10,1.0,1.0,0
run-2020-2-25-14-51-28.149491071,AGENT#bdf37976-57de-11ea-b493-f7f44be08cab,48,44,92,10,1.0,1.0,0
run-2020-2-25-14-51-28.149491071,AGENT#be0039ae-57de-11ea-80f0-e302e5e10a54,45,47,92,10,1.0,1.0,0
run-2020-2-25-14-51-28.149491071,AGENT#be68ab06-57de-11ea-9ee0-5b73aa134242,20,72,92,10,1.0,1.0,0
run-2020-2-25-14-51-28.149491071,AGENT#beb9c36a-57de-11ea-af23-4bcd3397ce7e,1,91,92,10,1.0,1.0,0
run-2020-2-25-14-51-28.149491071,AGENT#bdfbf81c-57de-11ea-a2ea-3b08a58a586f,47,46,93,10,1.0,1.0,0
run-2020-2-25-14-51-28.149491071,AGENT#be0472bc-57de-11ea-84cf-2fe61201828a,45,48,93,10,1.0,1.0,0
run-2020-2-25-14-51-28.149491071,AGENT#be75172e-57de-11ea-999a-cf26d432fd9b,18,75,93,10,1.0,1.0,0
run-2020-2-25-14-51-28.149491071,AGENT#be96ec28-57de-11ea-b749-3b0292e85039,11,83,94,10,1.0,1.0,0
run-2020-2-25-14-51-28.149491071,AGENT#beb57954-57de-11ea-a9b5-c7447ee44a32,4,90,94,10,1.0,1.0,0
run-2020-2-25-14-51-28.149491071,AGENT#be28f0ce-57de-11ea-8f9e-6fbc377ed2bd,38,57,95,10,1.0,1.0,0
run-2020-2-25-14-51-28.149491071,AGENT#beb9c66c-57de-11ea-b508-a3c0cc918195,4,91,95,10,1.0,1.0,0
run-2020-2-25-14-51-28.149491071,AGENT#bec26696-57de-11ea-9513-1bf91f91211d,2,93,95,10,1.0,1.0,0
run-2020-2-25-14-51-28.149491071,AGENT#bec6bcf0-57de-11ea-91b5-e3a87b01294f,1,94,95,10,1.0,1.0,0
run-2020-2-25-14-51-28.149491071,AGENT#bec6c1c8-57de-11ea-b901-37c4b364d43e,1,94,95,10,1.0,1.0,0
run-2020-2-25-14-51-28.149491071,AGENT#be0c7bd8-57de-11ea-88d1-675b2beac800,46,50,96,10,1.0,1.0,0
run-2020-2-25-14-51-28.149491071,AGENT#be108dfe-57de-11ea-abc7-d7f3639236a9,45,51,96,10,1.0,1.0,0
run-2020-2-25-14-51-28.149491071,AGENT#beb9cb80-57de-11ea-8db3-1f578bc25761,5,91,96,10,1.0,1.0,0
run-2020-2-25-14-51-28.149491071,AGENT#bebe22a2-57de-11ea-b957-f3a4c81c71cd,4,92,96,10,1.0,1.0,0
run-2020-2-25-14-51-28.149491071,AGENT#becb1fe8-57de-11ea-a941-c7253ac15fa8,1,95,96,10,1.0,1.0,0
run-2020-2-25-14-51-28.149491071,AGENT#be0c7e9e-57de-11ea-8ff7-4f032cfd58dd,47,50,97,10,1.0,1.0,0
run-2020-2-25-14-51-28.149491071,AGENT#be108b4c-57de-11ea-bcb5-8fe36641c9ab,46,51,97,10,1.0,1.0,0
run-2020-2-25-14-51-28.149491071,AGENT#bec6ba70-57de-11ea-bc23-73751de7be6c,3,94,97,10,1.0,1.0,0
run-2020-2-25-14-51-28.149491071,AGENT#becb1d7c-57de-11ea-be5d-fbe780eb34b0,2,95,97,10,1.0,1.0,0
run-2020-2-25-14-51-28.149491071,AGENT#becf6544-57de-11ea-a684-67661babb9db,2,96,98,10,1.0,1.0,0
