Source,Target
4841fb98-519a-11ea-a3fb-6f358b325635,4842c212-519a-11ea-ad12-979499a19118
48414c98-519a-11ea-975d-8bd9e1d9fbc3,4842e30a-519a-11ea-a589-9ff5c42a4b93
484159c2-519a-11ea-b9e4-9714fa0bb4ac,4842cd66-519a-11ea-bf01-6f2daa879a89
4841fb98-519a-11ea-a3fb-6f358b325635,4842d84c-519a-11ea-b23c-1b4876186263
4841f468-519a-11ea-9bf8-abd4685f3844,48434430-519a-11ea-84d9-1f7840e2a977
48421812-519a-11ea-ae20-b36b7541f9fc,4843513c-519a-11ea-8416-37576db002ca
48414c98-519a-11ea-975d-8bd9e1d9fbc3,48437f54-519a-11ea-8079-7ba47fa6ac9c
4842e30a-519a-11ea-a589-9ff5c42a4b93,4843879c-519a-11ea-9c8b-27eeb663cf51
4842d84c-519a-11ea-b23c-1b4876186263,4843a416-519a-11ea-9890-432463f19265
4841f468-519a-11ea-9bf8-abd4685f3844,4843ba82-519a-11ea-a484-cf79edd5b64b
4842d84c-519a-11ea-b23c-1b4876186263,4843deae-519a-11ea-8019-77c2b5f00529
4841fb98-519a-11ea-a3fb-6f358b325635,4843fac4-519a-11ea-a7fa-0327a5d0b43a
4843ba82-519a-11ea-a484-cf79edd5b64b,48440956-519a-11ea-954b-5f9b2b90993c
4842e30a-519a-11ea-a589-9ff5c42a4b93,484412b6-519a-11ea-93a3-d7931e6ad78c
4842a2a0-519a-11ea-b790-03605792cff2,4844369c-519a-11ea-8094-afcfab03ffa2
48440956-519a-11ea-954b-5f9b2b90993c,48445212-519a-11ea-9e3d-e34ba771d3a8
4843deae-519a-11ea-8019-77c2b5f00529,48446dc4-519a-11ea-915f-9f329394f59b
4843deae-519a-11ea-8019-77c2b5f00529,4844760c-519a-11ea-a6e2-3756d4995b2a
4843fac4-519a-11ea-a7fa-0327a5d0b43a,48449a1a-519a-11ea-8b33-37337311f9eb
484412b6-519a-11ea-93a3-d7931e6ad78c,4844b2fc-519a-11ea-8688-1b93a3e11f98
48414c98-519a-11ea-975d-8bd9e1d9fbc3,4844c2ce-519a-11ea-b95e-af32a4bdf03a
4844760c-519a-11ea-a6e2-3756d4995b2a,4844cae4-519a-11ea-9b53-dbc537ea2b4a
4843fac4-519a-11ea-a7fa-0327a5d0b43a,4844e59c-519a-11ea-91ec-8f10a46c7f76
4842cd66-519a-11ea-bf01-6f2daa879a89,4845112a-519a-11ea-8094-bf8bde07102d
4844b2fc-519a-11ea-8688-1b93a3e11f98,48451ddc-519a-11ea-9dbb-0f79a08bcd7c
4844e59c-519a-11ea-91ec-8f10a46c7f76,48454230-519a-11ea-9572-23192c405334
4843fac4-519a-11ea-a7fa-0327a5d0b43a,484554b4-519a-11ea-a95b-13678b7c2119
48451ddc-519a-11ea-9dbb-0f79a08bcd7c,48456760-519a-11ea-b1be-93dfdacdb420
4842a2a0-519a-11ea-b790-03605792cff2,4845761a-519a-11ea-905e-634ee3c82ad2
4843a416-519a-11ea-9890-432463f19265,484590f0-519a-11ea-8793-7bb5ab94125e
4844369c-519a-11ea-8094-afcfab03ffa2,4845e1b8-519a-11ea-beeb-d3437391b8cc
4844c2ce-519a-11ea-b95e-af32a4bdf03a,4845ea00-519a-11ea-a99a-3f042abb9c86
484159c2-519a-11ea-b9e4-9714fa0bb4ac,4845f2de-519a-11ea-b578-7f900f8be47f
4844369c-519a-11ea-8094-afcfab03ffa2,48460af8-519a-11ea-9bd3-8b0244e26d77
4842e30a-519a-11ea-a589-9ff5c42a4b93,4846562a-519a-11ea-874e-5320a8f6bd0f
48414c98-519a-11ea-975d-8bd9e1d9fbc3,48467506-519a-11ea-ae5d-4359e7d36ab6
48421812-519a-11ea-ae20-b36b7541f9fc,48468d70-519a-11ea-afea-a368e833c527
4841644e-519a-11ea-9a0c-cbe12b5e8be8,4846a58a-519a-11ea-bf04-af1e71228b99
484554b4-519a-11ea-a95b-13678b7c2119,484705ac-519a-11ea-85d9-eb7841fa5230
48467506-519a-11ea-ae5d-4359e7d36ab6,48471754-519a-11ea-8b3b-e7cf1ffeb331
48456760-519a-11ea-b1be-93dfdacdb420,48471fc4-519a-11ea-a79f-a719b2336b95
4841fb98-519a-11ea-a3fb-6f358b325635,484732ca-519a-11ea-8d7f-5b383738a354
48434430-519a-11ea-84d9-1f7840e2a977,4847755a-519a-11ea-9abf-d767e6b5444a
4845e1b8-519a-11ea-beeb-d3437391b8cc,4847a660-519a-11ea-8f14-4f845140b890
484554b4-519a-11ea-a95b-13678b7c2119,4847bcae-519a-11ea-80a6-8787a255af36
48445212-519a-11ea-9e3d-e34ba771d3a8,4847c7b2-519a-11ea-927b-d3994251a4d1
4842b5b0-519a-11ea-a752-67ffa4ce00a8,48481c76-519a-11ea-8a0f-5b7beab78c14
48454230-519a-11ea-9572-23192c405334,48483468-519a-11ea-8e7f-0b6475fa5255
48434430-519a-11ea-84d9-1f7840e2a977,48484606-519a-11ea-869c-f756e0f83f7e
48460af8-519a-11ea-9bd3-8b0244e26d77,4848539e-519a-11ea-b2c9-7712c89ba107
4847a660-519a-11ea-8f14-4f845140b890,484891d8-519a-11ea-be8b-537dd8870814
4845e1b8-519a-11ea-beeb-d3437391b8cc,4848b42e-519a-11ea-a029-4f6b699b3ff1
48413d0c-519a-11ea-b45f-d7b53e95098f,4848c112-519a-11ea-b884-0b8bdbcd2e30
4844cae4-519a-11ea-9b53-dbc537ea2b4a,48490118-519a-11ea-baf9-a7810a806f9d
48449a1a-519a-11ea-8b33-37337311f9eb,48493804-519a-11ea-8843-039a8daa1385
4847c7b2-519a-11ea-927b-d3994251a4d1,484944a2-519a-11ea-b1c7-43dc01b812dd
4843ba82-519a-11ea-a484-cf79edd5b64b,48498282-519a-11ea-9276-1394aae74e5d
4844369c-519a-11ea-8094-afcfab03ffa2,48499d58-519a-11ea-ac0b-2f3eac0db224
4842d84c-519a-11ea-b23c-1b4876186263,4849a74e-519a-11ea-8f85-df9d5bf64f7f
48499d58-519a-11ea-ac0b-2f3eac0db224,4849ee98-519a-11ea-9204-9bc90c113ef3
4845761a-519a-11ea-905e-634ee3c82ad2,484a144a-519a-11ea-abe8-837049805378
4842c212-519a-11ea-ad12-979499a19118,484a3326-519a-11ea-a3bd-a78f36bca3b2
4842a2a0-519a-11ea-b790-03605792cff2,484a45c8-519a-11ea-b87e-a3b867a8033d
48421812-519a-11ea-ae20-b36b7541f9fc,484a8d44-519a-11ea-8fae-33bf175c2c61
4843ba82-519a-11ea-a484-cf79edd5b64b,484abb20-519a-11ea-82cf-ab6d521eff44
48434430-519a-11ea-84d9-1f7840e2a977,484ac5a2-519a-11ea-8a75-6b7ed8695b7d
4842c212-519a-11ea-ad12-979499a19118,484ad434-519a-11ea-9558-cf212aec1269
4845112a-519a-11ea-8094-bf8bde07102d,484b0ab2-519a-11ea-88e0-93772147cfeb
4845761a-519a-11ea-905e-634ee3c82ad2,484b243e-519a-11ea-acf3-1bf1ab5ec20a
484a45c8-519a-11ea-b87e-a3b867a8033d,484b358c-519a-11ea-97be-0334a8691ad3
48446dc4-519a-11ea-915f-9f329394f59b,484b51a2-519a-11ea-98a1-036c513c7d3a
4843deae-519a-11ea-8019-77c2b5f00529,484ba95e-519a-11ea-830c-1370f5388a42
484b358c-519a-11ea-97be-0334a8691ad3,484bb3f4-519a-11ea-9035-1758404ef3ab
4849ee98-519a-11ea-9204-9bc90c113ef3,484bcdb2-519a-11ea-9903-6381c54cb519
4848c112-519a-11ea-b884-0b8bdbcd2e30,484bec02-519a-11ea-abac-f7d85423c844
4841fb98-519a-11ea-a3fb-6f358b325635,484c1a06-519a-11ea-a607-8b2021d4b785
4844760c-519a-11ea-a6e2-3756d4995b2a,484c237a-519a-11ea-9462-c3e384e75956
484590f0-519a-11ea-8793-7bb5ab94125e,484c648e-519a-11ea-a770-efa49aa39934
484a144a-519a-11ea-abe8-837049805378,484c7e6a-519a-11ea-854d-27397b7799ef
484b243e-519a-11ea-acf3-1bf1ab5ec20a,484cb088-519a-11ea-8872-775fdc942419
484c237a-519a-11ea-9462-c3e384e75956,484ce7ba-519a-11ea-8412-a34bd59f5f7f
4848b42e-519a-11ea-a029-4f6b699b3ff1,484cf926-519a-11ea-afa6-2307be53b95e
484abb20-519a-11ea-82cf-ab6d521eff44,484d03bc-519a-11ea-9d07-7faa0ade89cb
4842c212-519a-11ea-ad12-979499a19118,484d0aec-519a-11ea-9405-5b8d13f5dca4
4844760c-519a-11ea-a6e2-3756d4995b2a,484d6a50-519a-11ea-ad3d-7b77fa370762
484c7e6a-519a-11ea-854d-27397b7799ef,484d9d7c-519a-11ea-8aa9-e70019981e1f
4842d84c-519a-11ea-b23c-1b4876186263,484da7b8-519a-11ea-b144-4f3c2fa6f332
484ba95e-519a-11ea-830c-1370f5388a42,484de052-519a-11ea-92fa-ef9e5565c38c
4843ba82-519a-11ea-a484-cf79edd5b64b,484e1892-519a-11ea-be84-9386384210b3
4844369c-519a-11ea-8094-afcfab03ffa2,484e24d6-519a-11ea-b1d0-7f6291806211
4843fac4-519a-11ea-a7fa-0327a5d0b43a,484e3e6c-519a-11ea-8660-17a911ee1a80
48471754-519a-11ea-8b3b-e7cf1ffeb331,484e60ae-519a-11ea-8ef0-072aef35ee07
48468d70-519a-11ea-afea-a368e833c527,484e803e-519a-11ea-8d7c-bfb1f74dc418
4848c112-519a-11ea-b884-0b8bdbcd2e30,484e9cf4-519a-11ea-9de1-0b3b317ff3c4
48493804-519a-11ea-8843-039a8daa1385,484ed124-519a-11ea-891b-571d387e2aab
48499d58-519a-11ea-ac0b-2f3eac0db224,484edd5e-519a-11ea-a52d-2f24028b7865
4849ee98-519a-11ea-9204-9bc90c113ef3,484f0a90-519a-11ea-af7b-dbc83701520e
4845ea00-519a-11ea-a99a-3f042abb9c86,484f2232-519a-11ea-9140-774702e98cc5
484bb3f4-519a-11ea-9035-1758404ef3ab,484f7516-519a-11ea-9cde-a35beb57203e
48484606-519a-11ea-869c-f756e0f83f7e,484f845c-519a-11ea-a627-8f5a8e689bf4
4841644e-519a-11ea-9a0c-cbe12b5e8be8,484f8f60-519a-11ea-97a2-f72e7027dc1c
484c237a-519a-11ea-9462-c3e384e75956,484fbefe-519a-11ea-a9bf-db50a1c959d4
48468d70-519a-11ea-afea-a368e833c527,484fd4ac-519a-11ea-94b9-63777a52c8b1
4849ee98-519a-11ea-9204-9bc90c113ef3,485010c0-519a-11ea-afb0-bf7abcf33f66
484b243e-519a-11ea-acf3-1bf1ab5ec20a,4850373a-519a-11ea-b38a-279e6b304e49
4842e30a-519a-11ea-a589-9ff5c42a4b93,48504356-519a-11ea-8c7e-7bd1da06176e
484a8d44-519a-11ea-8fae-33bf175c2c61,48504c8e-519a-11ea-92a3-2f7c85f7f48e
48504c8e-519a-11ea-92a3-2f7c85f7f48e,48509d2e-519a-11ea-9627-bb95afcba07b
4843fac4-519a-11ea-a7fa-0327a5d0b43a,4850a9c2-519a-11ea-b23e-238ea71ed0f5
484e24d6-519a-11ea-b1d0-7f6291806211,4850e2d4-519a-11ea-b9c8-a3bad56af07e
48451ddc-519a-11ea-9dbb-0f79a08bcd7c,48512050-519a-11ea-b5d1-27c655cb6499
484ed124-519a-11ea-891b-571d387e2aab,48512b18-519a-11ea-ad8a-8b4f58234ee5
484f7516-519a-11ea-9cde-a35beb57203e,48514648-519a-11ea-9034-abebfd267bf3
4847bcae-519a-11ea-80a6-8787a255af36,4851811c-519a-11ea-b3a3-c78e13a82493
484fbefe-519a-11ea-a9bf-db50a1c959d4,48519a26-519a-11ea-807b-7f35bde58b6f
484412b6-519a-11ea-93a3-d7931e6ad78c,4851a52a-519a-11ea-97f3-131a135ab265
4849ee98-519a-11ea-9204-9bc90c113ef3,4851c1ae-519a-11ea-8b55-6b5d67468055
4842c212-519a-11ea-ad12-979499a19118,4851eeae-519a-11ea-ace2-e3abf580ae02
484a144a-519a-11ea-abe8-837049805378,4851fba6-519a-11ea-b95c-b3f9c447d595
4847bcae-519a-11ea-80a6-8787a255af36,48520c72-519a-11ea-8213-07cd36cc3df3
484c237a-519a-11ea-9462-c3e384e75956,485255d8-519a-11ea-94d7-d78ec36d72fd
484edd5e-519a-11ea-a52d-2f24028b7865,48525e7a-519a-11ea-96f1-17d679127bc2
48468d70-519a-11ea-afea-a368e833c527,485267ee-519a-11ea-bc92-e31dfabf7c6d
4844e59c-519a-11ea-91ec-8f10a46c7f76,4852af60-519a-11ea-a9d3-834d70e831b9
4842c212-519a-11ea-ad12-979499a19118,4852bb18-519a-11ea-ab1c-6709d8efc331
4846a58a-519a-11ea-bf04-af1e71228b99,4853060e-519a-11ea-8388-6b2c3afb28aa
484fd4ac-519a-11ea-94b9-63777a52c8b1,48531e1e-519a-11ea-bbef-cbb79d44dd13
484d0aec-519a-11ea-9405-5b8d13f5dca4,48532800-519a-11ea-82c5-e3f59094cee8
4851fba6-519a-11ea-b95c-b3f9c447d595,485365c2-519a-11ea-a8c1-c791457bf491
4847755a-519a-11ea-9abf-d767e6b5444a,48536e64-519a-11ea-8c7b-a3ca89deff74
484ed124-519a-11ea-891b-571d387e2aab,48538e26-519a-11ea-bcdb-d75f61f5bf20
484590f0-519a-11ea-8793-7bb5ab94125e,48539718-519a-11ea-a54c-cf1e0ec42be7
484705ac-519a-11ea-85d9-eb7841fa5230,4853bf90-519a-11ea-b614-bbebfb1da7ee
484c648e-519a-11ea-a770-efa49aa39934,4853cf1c-519a-11ea-81bf-9b4686b8c2bd
4851eeae-519a-11ea-ace2-e3abf580ae02,4853ed58-519a-11ea-951b-f33994f553bc
48531e1e-519a-11ea-bbef-cbb79d44dd13,48543862-519a-11ea-83a1-dbaae1b48551
4845761a-519a-11ea-905e-634ee3c82ad2,48544276-519a-11ea-a8cb-b38946b24678
484a3326-519a-11ea-a3bd-a78f36bca3b2,485478a4-519a-11ea-bcc7-73cd6f1dc572
484f0a90-519a-11ea-af7b-dbc83701520e,4854a5ea-519a-11ea-91ec-ab14175cbb6c
484c1a06-519a-11ea-a607-8b2021d4b785,4854b076-519a-11ea-b1b2-6fba6aab3918
484e3e6c-519a-11ea-8660-17a911ee1a80,4854d128-519a-11ea-b572-1b4abde4af6a
4847a660-519a-11ea-8f14-4f845140b890,48550634-519a-11ea-95fe-a7b57f5b1680
4848539e-519a-11ea-b2c9-7712c89ba107,4855114c-519a-11ea-bbdb-b75c432b0027
4842cd66-519a-11ea-bf01-6f2daa879a89,48553af0-519a-11ea-9a01-3765a325bf75
4854d128-519a-11ea-b572-1b4abde4af6a,48558744-519a-11ea-9196-0bd6e4309fe8
4844c2ce-519a-11ea-b95e-af32a4bdf03a,48558e9c-519a-11ea-968b-f330989ac6e1
484f0a90-519a-11ea-af7b-dbc83701520e,4855a54e-519a-11ea-aaac-cbf72a796ae3
4841fb98-519a-11ea-a3fb-6f358b325635,4855dbae-519a-11ea-82ea-63de6efd4923
48493804-519a-11ea-8843-039a8daa1385,485607e6-519a-11ea-8d5a-53d6b3f74bab
4845e1b8-519a-11ea-beeb-d3437391b8cc,485611d2-519a-11ea-85fd-5b21757a5ace
48538e26-519a-11ea-bcdb-d75f61f5bf20,48564706-519a-11ea-92c4-ab81182194a3
484abb20-519a-11ea-82cf-ab6d521eff44,48566fd8-519a-11ea-a412-035915a04538
4843fac4-519a-11ea-a7fa-0327a5d0b43a,485679ba-519a-11ea-8723-bbf9214a3857
4851fba6-519a-11ea-b95c-b3f9c447d595,485699e0-519a-11ea-b3ef-9b90819505f0
4847755a-519a-11ea-9abf-d767e6b5444a,4856d9b4-519a-11ea-b100-c793180020f4
484159c2-519a-11ea-b9e4-9714fa0bb4ac,4856e512-519a-11ea-b3e7-eb593997645c
484944a2-519a-11ea-b1c7-43dc01b812dd,48570d08-519a-11ea-b16b-2362fb85e2df
4842cd66-519a-11ea-bf01-6f2daa879a89,48572194-519a-11ea-9cb7-935b50378e77
4855dbae-519a-11ea-82ea-63de6efd4923,48574cd2-519a-11ea-9459-b753740829de
484c237a-519a-11ea-9462-c3e384e75956,48576f78-519a-11ea-b5d6-2bdeec790336
48493804-519a-11ea-8843-039a8daa1385,485784ea-519a-11ea-8ef6-13cb58f2ac76
485478a4-519a-11ea-bcc7-73cd6f1dc572,48579b6a-519a-11ea-98fb-5747252b4508
484e803e-519a-11ea-8d7c-bfb1f74dc418,4857c69e-519a-11ea-9a89-cb931cd281ed
4843fac4-519a-11ea-a7fa-0327a5d0b43a,48581932-519a-11ea-b8bb-1b86c5859d09
484de052-519a-11ea-92fa-ef9e5565c38c,4858558c-519a-11ea-b349-2370d2e4857e
4843a416-519a-11ea-9890-432463f19265,485889c6-519a-11ea-ae49-afba395f2e26
48498282-519a-11ea-9276-1394aae74e5d,4858afa0-519a-11ea-87f0-efc1b2f56ccf
4854b076-519a-11ea-b1b2-6fba6aab3918,4858c544-519a-11ea-ab2f-9bdca735a60c
484e1892-519a-11ea-be84-9386384210b3,4858e1fa-519a-11ea-bff2-13dd0f95d62a
48566fd8-519a-11ea-a412-035915a04538,4858fd2a-519a-11ea-8a43-db656db7248c
484c1a06-519a-11ea-a607-8b2021d4b785,485955c2-519a-11ea-98b4-5b68f4c3e32f
484de052-519a-11ea-92fa-ef9e5565c38c,48596134-519a-11ea-af43-f7deefa6665c
48514648-519a-11ea-9034-abebfd267bf3,48597b92-519a-11ea-bc52-cf7cb33d9a33
4856e512-519a-11ea-b3e7-eb593997645c,485988bc-519a-11ea-b2ec-4b1676b6acb5
48558e9c-519a-11ea-968b-f330989ac6e1,4859a8e2-519a-11ea-afff-63c8aa962ff2
48440956-519a-11ea-954b-5f9b2b90993c,4859d100-519a-11ea-a9a8-8fa936641233
4847755a-519a-11ea-9abf-d767e6b5444a,4859fa40-519a-11ea-946f-cf95cce97716
484a45c8-519a-11ea-b87e-a3b867a8033d,485a0c6a-519a-11ea-b9a7-3b648d256ac5
484bb3f4-519a-11ea-9035-1758404ef3ab,485a2696-519a-11ea-bb22-c7e2377ac983
4851c1ae-519a-11ea-8b55-6b5d67468055,485a3898-519a-11ea-a644-93dc709aa154
484cf926-519a-11ea-afa6-2307be53b95e,485a9180-519a-11ea-bb42-3fc31e158841
484944a2-519a-11ea-b1c7-43dc01b812dd,485a9d4c-519a-11ea-9af2-a3f0849bb84a
4842a2a0-519a-11ea-b790-03605792cff2,485aa94a-519a-11ea-a8d9-074cc314933e
484cf926-519a-11ea-afa6-2307be53b95e,485ad104-519a-11ea-b10a-5f23b245af1e
484d0aec-519a-11ea-9405-5b8d13f5dca4,485af972-519a-11ea-88b5-a7844acef6e4
4842816c-519a-11ea-9ad4-b33efdc64359,485b113c-519a-11ea-8cfd-afc40101d031
4852bb18-519a-11ea-ab1c-6709d8efc331,485b7f64-519a-11ea-a192-8ba8b3c5c3c8
4842c212-519a-11ea-ad12-979499a19118,485b90ee-519a-11ea-985f-d34dfe4a98cb
48579b6a-519a-11ea-98fb-5747252b4508,485ba250-519a-11ea-8056-6f039c52a69b
4858558c-519a-11ea-b349-2370d2e4857e,485bb434-519a-11ea-814c-e7488dc07d6a
485699e0-519a-11ea-b3ef-9b90819505f0,485be76a-519a-11ea-b7e3-c312c23fc174
484da7b8-519a-11ea-b144-4f3c2fa6f332,485c0dee-519a-11ea-983e-97b21ee551ce
484ba95e-519a-11ea-830c-1370f5388a42,485c37e2-519a-11ea-9dc4-27deaa7f7476
48449a1a-519a-11ea-8b33-37337311f9eb,485c4b92-519a-11ea-be4c-570504c08f68
48499d58-519a-11ea-ac0b-2f3eac0db224,485c5c04-519a-11ea-ae3d-c78341e0855d
48437f54-519a-11ea-8079-7ba47fa6ac9c,485c7cde-519a-11ea-941f-5323f4131695
485a2696-519a-11ea-bb22-c7e2377ac983,485c9f3e-519a-11ea-ab23-9327fab45842
485010c0-519a-11ea-afb0-bf7abcf33f66,485cd364-519a-11ea-b7ad-732ae7c3afdd
4845761a-519a-11ea-905e-634ee3c82ad2,485cf466-519a-11ea-b2fc-f77ba36c8870
485478a4-519a-11ea-bcc7-73cd6f1dc572,485d1414-519a-11ea-9568-27adc794ed2c
4858fd2a-519a-11ea-8a43-db656db7248c,485d38e0-519a-11ea-9196-5b0e4640d507
4858afa0-519a-11ea-87f0-efc1b2f56ccf,485d94ca-519a-11ea-ad94-bf0cb3273fe8
484da7b8-519a-11ea-b144-4f3c2fa6f332,485d8b24-519a-11ea-8cdf-03acb85ee684
484e60ae-519a-11ea-8ef0-072aef35ee07,485da726-519a-11ea-8935-a7f301cc40c9
485889c6-519a-11ea-ae49-afba395f2e26,485db126-519a-11ea-adab-a718a2e65e0a
484e803e-519a-11ea-8d7c-bfb1f74dc418,485df30c-519a-11ea-939b-b3bfd9bc091a
4842a2a0-519a-11ea-b790-03605792cff2,485dfd66-519a-11ea-9172-5331d856d8c8
4846562a-519a-11ea-874e-5320a8f6bd0f,485e0874-519a-11ea-a14b-27869e36c38f
4842cd66-519a-11ea-bf01-6f2daa879a89,485e1e72-519a-11ea-82a8-c3b4278a7a64
484ac5a2-519a-11ea-8a75-6b7ed8695b7d,485e5d74-519a-11ea-90b2-3f27156b1235
484f2232-519a-11ea-9140-774702e98cc5,485e8024-519a-11ea-9ac8-1fc5fadac158
484412b6-519a-11ea-93a3-d7931e6ad78c,485ee834-519a-11ea-a753-0f481d99740e
4854a5ea-519a-11ea-91ec-ab14175cbb6c,485ef428-519a-11ea-b503-bf3dcc9d21fb
48434430-519a-11ea-84d9-1f7840e2a977,485f06ca-519a-11ea-a5d7-0bfebde4b394
484cf926-519a-11ea-afa6-2307be53b95e,485f4f22-519a-11ea-8c3e-eb30213a9074
485c4b92-519a-11ea-be4c-570504c08f68,485f64b2-519a-11ea-b2e0-5f2e28bb3eec
485da726-519a-11ea-8935-a7f301cc40c9,485f9fcc-519a-11ea-a392-b7b3fe3395b2
485c4b92-519a-11ea-be4c-570504c08f68,485fb020-519a-11ea-8eed-137e81c7dfe8
485b7f64-519a-11ea-a192-8ba8b3c5c3c8,485fff94-519a-11ea-8930-533a62926a5b
485a0c6a-519a-11ea-b9a7-3b648d256ac5,48602ad2-519a-11ea-9328-6bc59e6e4f77
48525e7a-519a-11ea-96f1-17d679127bc2,486035c2-519a-11ea-964d-db854d15f300
4848c112-519a-11ea-b884-0b8bdbcd2e30,486041e8-519a-11ea-aff4-8bf9dbe39b03
484e60ae-519a-11ea-8ef0-072aef35ee07,48606880-519a-11ea-8f1e-1bd19fb7d09f
484891d8-519a-11ea-be8b-537dd8870814,4860a2a0-519a-11ea-a4bb-a73c5aa1b2d2
48498282-519a-11ea-9276-1394aae74e5d,4860d716-519a-11ea-a4ef-bf9fbe555424
485a0c6a-519a-11ea-b9a7-3b648d256ac5,4860e134-519a-11ea-896c-eb4b970c73da
485c7cde-519a-11ea-941f-5323f4131695,48611c3a-519a-11ea-8fba-0fa8a985f998
4853ed58-519a-11ea-951b-f33994f553bc,48613422-519a-11ea-ba8f-b70aab1326e8
484e3e6c-519a-11ea-8660-17a911ee1a80,48614412-519a-11ea-b3ad-3b7e1fcfc982
4850e2d4-519a-11ea-b9c8-a3bad56af07e,48615506-519a-11ea-8192-dbbb37890a6d
4848539e-519a-11ea-b2c9-7712c89ba107,4861c2f2-519a-11ea-bb5b-dbd0f7034f6b
485bb434-519a-11ea-814c-e7488dc07d6a,4861d134-519a-11ea-a8a6-bbb1d293a0fb
485e8024-519a-11ea-9ac8-1fc5fadac158,4861e9f8-519a-11ea-9801-0bc9ac2bb671
4851eeae-519a-11ea-ace2-e3abf580ae02,48621216-519a-11ea-83f8-b36b02bd6450
484ce7ba-519a-11ea-8412-a34bd59f5f7f,48623e76-519a-11ea-a48c-5f989d7751cb
4845f2de-519a-11ea-b578-7f900f8be47f,486247c2-519a-11ea-b1df-bb5747b462d8
48611c3a-519a-11ea-8fba-0fa8a985f998,486275c6-519a-11ea-acf1-ef80535ddb46
48514648-519a-11ea-9034-abebfd267bf3,486291d2-519a-11ea-b4d3-ab846f1b2850
4859a8e2-519a-11ea-afff-63c8aa962ff2,4862c256-519a-11ea-8667-431facd5d3ff
48468d70-519a-11ea-afea-a368e833c527,4862cc6a-519a-11ea-b0a9-2be995c6a843
485a9d4c-519a-11ea-9af2-a3f0849bb84a,4862e5ec-519a-11ea-b373-63879cf3a6fb
48483468-519a-11ea-8e7f-0b6475fa5255,4862fd84-519a-11ea-93b7-dfd1f8a731ef
4852af60-519a-11ea-a9d3-834d70e831b9,48636cce-519a-11ea-a42b-f339fb388237
48467506-519a-11ea-ae5d-4359e7d36ab6,4863778c-519a-11ea-a0a1-b7a5def7403c
485a9180-519a-11ea-bb42-3fc31e158841,4863a7e8-519a-11ea-ace9-5b4596e2e78b
4844760c-519a-11ea-a6e2-3756d4995b2a,4863c9bc-519a-11ea-a7c4-e31ed8f45de9
484c7e6a-519a-11ea-854d-27397b7799ef,4863e096-519a-11ea-a0e9-aba766d5c095
485c5c04-519a-11ea-ae3d-c78341e0855d,48641d7c-519a-11ea-b474-f3906ac29f24
484d9d7c-519a-11ea-8aa9-e70019981e1f,48644de2-519a-11ea-b694-9b2f907dcc6f
48460af8-519a-11ea-9bd3-8b0244e26d77,486483fc-519a-11ea-9205-57975f56ce15
485f4f22-519a-11ea-8c3e-eb30213a9074,486491e4-519a-11ea-bab5-a30abe308a20
4854b076-519a-11ea-b1b2-6fba6aab3918,48649e8c-519a-11ea-a198-9fca720cfcf0
484da7b8-519a-11ea-b144-4f3c2fa6f332,4864b2fa-519a-11ea-9db5-976f3f36cf87
4858fd2a-519a-11ea-8a43-db656db7248c,48650c28-519a-11ea-8eba-935170bc961c
48421812-519a-11ea-ae20-b36b7541f9fc,48651682-519a-11ea-b385-4b154180b221
48553af0-519a-11ea-9a01-3765a325bf75,4865028c-519a-11ea-9d5c-1b85bd079247
48570d08-519a-11ea-b16b-2362fb85e2df,486544c2-519a-11ea-b230-3349d4094a78
484b243e-519a-11ea-acf3-1bf1ab5ec20a,4865926a-519a-11ea-8f1a-8bd668760b40
48574cd2-519a-11ea-9459-b753740829de,4865a660-519a-11ea-adfa-0b5d1773b475
4859a8e2-519a-11ea-afff-63c8aa962ff2,4865bfc4-519a-11ea-a772-b398749bd0f0
485ee834-519a-11ea-a753-0f481d99740e,4865e558-519a-11ea-850c-5382b4b87417
485c37e2-519a-11ea-9dc4-27deaa7f7476,48661492-519a-11ea-aa62-e7e096df7094
48615506-519a-11ea-8192-dbbb37890a6d,48662dc4-519a-11ea-9450-ab5fbc01ea40
48421812-519a-11ea-ae20-b36b7541f9fc,486644e4-519a-11ea-84c1-77da09ffed44
4861c2f2-519a-11ea-bb5b-dbd0f7034f6b,486657fe-519a-11ea-9c90-d72119977b7c
485f64b2-519a-11ea-b2e0-5f2e28bb3eec,486680da-519a-11ea-a350-53ef9968aa6f
485ad104-519a-11ea-b10a-5f23b245af1e,4866d648-519a-11ea-bf04-fbd87656f2ec
48538e26-519a-11ea-bcdb-d75f61f5bf20,48671716-519a-11ea-8eb4-93917d86defa
48576f78-519a-11ea-b5d6-2bdeec790336,48672c24-519a-11ea-82e2-bf4937d879e8
4858afa0-519a-11ea-87f0-efc1b2f56ccf,48673926-519a-11ea-acbb-8be0c5c89f09
4858fd2a-519a-11ea-8a43-db656db7248c,48674510-519a-11ea-8119-43a462ae7b49
48572194-519a-11ea-9cb7-935b50378e77,4867b0ae-519a-11ea-a466-4f554a82435e
48651682-519a-11ea-b385-4b154180b221,4867d7e6-519a-11ea-8d96-6349f87db1f0
4847bcae-519a-11ea-80a6-8787a255af36,4867e272-519a-11ea-a993-f7d7dfcdfabf
4842816c-519a-11ea-9ad4-b33efdc64359,4867ec90-519a-11ea-bb08-23d4136bf39b
4843879c-519a-11ea-9c8b-27eeb663cf51,486834d4-519a-11ea-8bb9-7be20232491a
4854a5ea-519a-11ea-91ec-ab14175cbb6c,4868818c-519a-11ea-b021-2f4dcf03a217
485889c6-519a-11ea-ae49-afba395f2e26,486893b6-519a-11ea-b2fc-8f146eb8e0b3
48613422-519a-11ea-ba8f-b70aab1326e8,48689d2a-519a-11ea-b564-e7d1231e9875
4850e2d4-519a-11ea-b9c8-a3bad56af07e,4868b1d4-519a-11ea-b109-9f73c8c3467a
485c9f3e-519a-11ea-ab23-9327fab45842,48691ba6-519a-11ea-8729-7f41574109c0
48649e8c-519a-11ea-a198-9fca720cfcf0,48692a60-519a-11ea-87b1-477408834921
4857c69e-519a-11ea-9a89-cb931cd281ed,48693424-519a-11ea-8363-0b8ae1af04ea
486247c2-519a-11ea-b1df-bb5747b462d8,486948ce-519a-11ea-bc26-3b1b4d0dbbab
4849ee98-519a-11ea-9204-9bc90c113ef3,4869996e-519a-11ea-a8a7-e7910ac75315
4845112a-519a-11ea-8094-bf8bde07102d,4869a4ea-519a-11ea-98de-3bf8b6db50b4
485b7f64-519a-11ea-a192-8ba8b3c5c3c8,4869af3a-519a-11ea-b8d0-3b813fbdd2c4
4845ea00-519a-11ea-a99a-3f042abb9c86,4869e28e-519a-11ea-b4de-33cf168cb362
4843fac4-519a-11ea-a7fa-0327a5d0b43a,486a1664-519a-11ea-bd68-bf570879d2f7
485607e6-519a-11ea-8d5a-53d6b3f74bab,486a1ee8-519a-11ea-a70c-aba84fd4d484
485784ea-519a-11ea-8ef6-13cb58f2ac76,486a28f2-519a-11ea-b121-8f02a92456d7
484944a2-519a-11ea-b1c7-43dc01b812dd,486a6d3a-519a-11ea-a127-974973c09ae0
4854b076-519a-11ea-b1b2-6fba6aab3918,486a967a-519a-11ea-917f-2fcad34a4dee
4843deae-519a-11ea-8019-77c2b5f00529,486aab60-519a-11ea-8ffb-efafa3075f17
48566fd8-519a-11ea-a412-035915a04538,486abc86-519a-11ea-ade2-3735d7fe4220
48446dc4-519a-11ea-915f-9f329394f59b,486acc08-519a-11ea-aefe-dff1b2d5ba5b
4869af3a-519a-11ea-b8d0-3b813fbdd2c4,486b23d8-519a-11ea-8b42-4344e866f2d0
4855a54e-519a-11ea-aaac-cbf72a796ae3,486b0bd2-519a-11ea-8ff1-4f4c00e4592b
484a45c8-519a-11ea-b87e-a3b867a8033d,486b16cc-519a-11ea-a55e-0b075c425e0f
485dfd66-519a-11ea-9172-5331d856d8c8,486b8c24-519a-11ea-a3d1-c39122b29e9f
485be76a-519a-11ea-b7e3-c312c23fc174,486b9548-519a-11ea-8220-0baaf17a3c16
48614412-519a-11ea-b3ad-3b7e1fcfc982,486b9f70-519a-11ea-a977-cfea76ed372d
4842d84c-519a-11ea-b23c-1b4876186263,486bef98-519a-11ea-b412-b3cea7292459
485bb434-519a-11ea-814c-e7488dc07d6a,486bfa2e-519a-11ea-b3ac-cff1f1fb0f3d
48456760-519a-11ea-b1be-93dfdacdb420,486c399e-519a-11ea-bd97-57cc5297a8f3
486b0bd2-519a-11ea-8ff1-4f4c00e4592b,486c445c-519a-11ea-aeb1-b7d9d6f39e24
48650c28-519a-11ea-8eba-935170bc961c,486ca104-519a-11ea-8191-af78d24fd600
48672c24-519a-11ea-82e2-bf4937d879e8,486cb496-519a-11ea-a31d-6f08354627ae
484c237a-519a-11ea-9462-c3e384e75956,486cd610-519a-11ea-8aac-8fbcee978c65
48621216-519a-11ea-83f8-b36b02bd6450,486cfa46-519a-11ea-b6da-6feb9719f845
484159c2-519a-11ea-b9e4-9714fa0bb4ac,486d5810-519a-11ea-bf00-ffc7b38f9cf1
4865e558-519a-11ea-850c-5382b4b87417,486d622e-519a-11ea-a6df-ef0c3f3ff588
48483468-519a-11ea-8e7f-0b6475fa5255,486d8f60-519a-11ea-b035-e31f8cb9ea13
486bef98-519a-11ea-b412-b3cea7292459,486db274-519a-11ea-a338-233e032bf3f6
485af972-519a-11ea-88b5-a7844acef6e4,486dc6a6-519a-11ea-bfba-ab202c43fb0a
48539718-519a-11ea-a54c-cf1e0ec42be7,486dd2c2-519a-11ea-bc87-735fc7db75ad
4848539e-519a-11ea-b2c9-7712c89ba107,486e1f98-519a-11ea-a1f5-7f476da855fe
486893b6-519a-11ea-b2fc-8f146eb8e0b3,486e2ae2-519a-11ea-a02f-1f0a51a78cc6
486a6d3a-519a-11ea-a127-974973c09ae0,486e34d8-519a-11ea-a83d-db51d3912173
48493804-519a-11ea-8843-039a8daa1385,486e41ee-519a-11ea-9148-0b38e69a56e7
48481c76-519a-11ea-8a0f-5b7beab78c14,486ec09c-519a-11ea-bdac-8340139865e9
485a9180-519a-11ea-bb42-3fc31e158841,486ee306-519a-11ea-a09e-53294f563539
48440956-519a-11ea-954b-5f9b2b90993c,486f23d4-519a-11ea-b951-5ba571f00d04
484b51a2-519a-11ea-98a1-036c513c7d3a,486f67d6-519a-11ea-b015-9ba2a1f3a673
485679ba-519a-11ea-8723-bbf9214a3857,486f75dc-519a-11ea-b252-d7397240f837
48481c76-519a-11ea-8a0f-5b7beab78c14,486f945e-519a-11ea-a4f0-3707e49d89d5
4852af60-519a-11ea-a9d3-834d70e831b9,486fa5ca-519a-11ea-b000-b3eabb4a6779
48579b6a-519a-11ea-98fb-5747252b4508,486fc686-519a-11ea-bdb1-2f2fc05a362d
4843879c-519a-11ea-9c8b-27eeb663cf51,48702b1c-519a-11ea-b926-972ddd39624b
485e5d74-519a-11ea-90b2-3f27156b1235,487036ca-519a-11ea-a886-1f8a0ced465f
486a28f2-519a-11ea-b121-8f02a92456d7,48703ff8-519a-11ea-811a-2316ba57a7ae
485699e0-519a-11ea-b3ef-9b90819505f0,48704bd8-519a-11ea-abde-e78ce438d9dd
48674510-519a-11ea-8119-43a462ae7b49,48709638-519a-11ea-8ceb-ab672b403dc9
485bb434-519a-11ea-814c-e7488dc07d6a,4870c86a-519a-11ea-9b6b-0707efb87e5b
486893b6-519a-11ea-b2fc-8f146eb8e0b3,4870d26a-519a-11ea-a63d-cfea92a474e5
484e24d6-519a-11ea-b1d0-7f6291806211,4870f1b4-519a-11ea-b515-83076d997204
484bb3f4-519a-11ea-9035-1758404ef3ab,48713390-519a-11ea-89d3-6b9db8d0fd8f
48525e7a-519a-11ea-96f1-17d679127bc2,48713d9a-519a-11ea-9b4f-f3c3a29627e1
48636cce-519a-11ea-a42b-f339fb388237,48718c32-519a-11ea-abb6-33820a71be5b
4852bb18-519a-11ea-ab1c-6709d8efc331,4871ca44-519a-11ea-9212-9fc0025863a5
48621216-519a-11ea-83f8-b36b02bd6450,4871d412-519a-11ea-89b8-a388aae98d0b
484d0aec-519a-11ea-9405-5b8d13f5dca4,4871e7cc-519a-11ea-a25c-c7d43c2e7d20
484d03bc-519a-11ea-9d07-7faa0ade89cb,48726e68-519a-11ea-9f25-ab5923108ce0
4848c112-519a-11ea-b884-0b8bdbcd2e30,48727a16-519a-11ea-b6df-4b9341ad828f
486ca104-519a-11ea-8191-af78d24fd600,48728bc8-519a-11ea-8f9e-731faac962b3
485c5c04-519a-11ea-ae3d-c78341e0855d,4872c02a-519a-11ea-bf40-d30b8f89a60c
4865e558-519a-11ea-850c-5382b4b87417,4872e7c6-519a-11ea-8af7-7f626ebefca0
486b9f70-519a-11ea-a977-cfea76ed372d,4872f4f0-519a-11ea-8c9d-5fdb79b92723
485d8b24-519a-11ea-8cdf-03acb85ee684,48730652-519a-11ea-8e61-cf94cc24d66c
484e9cf4-519a-11ea-9de1-0b3b317ff3c4,487316ce-519a-11ea-bf23-13a69bc6386a
48693424-519a-11ea-8363-0b8ae1af04ea,48737bb4-519a-11ea-a636-07080605db79
484412b6-519a-11ea-93a3-d7931e6ad78c,487396c6-519a-11ea-9746-4bdc75f16140
485ee834-519a-11ea-a753-0f481d99740e,4873a0d0-519a-11ea-9bf1-2bc71f400464
4843879c-519a-11ea-9c8b-27eeb663cf51,4873b0ac-519a-11ea-8e9b-a73699ff8892
4841f468-519a-11ea-9bf8-abd4685f3844,4873f706-519a-11ea-9961-9f27b6a3517b
485699e0-519a-11ea-b3ef-9b90819505f0,487418e4-519a-11ea-a5b9-9f7c2c3a913d
4849ee98-519a-11ea-9204-9bc90c113ef3,48744a4e-519a-11ea-b7b9-1b10b4677be2
48454230-519a-11ea-9572-23192c405334,487458fe-519a-11ea-99d2-97d8ad672432
485889c6-519a-11ea-ae49-afba395f2e26,48748388-519a-11ea-83ca-479e9898671e
4844e59c-519a-11ea-91ec-8f10a46c7f76,487490bc-519a-11ea-a7ec-73101306c5f4
48504356-519a-11ea-8c7e-7bd1da06176e,4874b808-519a-11ea-aca7-e39b4f849b77
486e2ae2-519a-11ea-a02f-1f0a51a78cc6,4874df18-519a-11ea-b427-a750f3a34eb7
484f8f60-519a-11ea-97a2-f72e7027dc1c,487534ae-519a-11ea-b721-83e0a1e265ad
485cf466-519a-11ea-b2fc-f77ba36c8870,487529e6-519a-11ea-a362-b710f881943e
486483fc-519a-11ea-9205-57975f56ce15,487543ea-519a-11ea-8d98-037ffcdaa6b6
484fbefe-519a-11ea-a9bf-db50a1c959d4,48754cf0-519a-11ea-bf32-631fe040b2b4
48553af0-519a-11ea-9a01-3765a325bf75,4875cfcc-519a-11ea-90ed-3b5ca9282b2f
4869a4ea-519a-11ea-98de-3bf8b6db50b4,4875dd64-519a-11ea-b5f3-7b4f31f94d08
484bec02-519a-11ea-abac-f7d85423c844,487602ee-519a-11ea-9ffa-23db5f944ec9
48689d2a-519a-11ea-b564-e7d1231e9875,48760d20-519a-11ea-84b9-a396de469303
48525e7a-519a-11ea-96f1-17d679127bc2,4876722e-519a-11ea-b621-97e5834bd1c4
48504c8e-519a-11ea-92a3-2f7c85f7f48e,48767efe-519a-11ea-b585-03243cc60a14
486d8f60-519a-11ea-b035-e31f8cb9ea13,48769452-519a-11ea-9475-7756f5834976
4867b0ae-519a-11ea-a466-4f554a82435e,4876a528-519a-11ea-a7b0-672761d1e1d2
4847bcae-519a-11ea-80a6-8787a255af36,4876d426-519a-11ea-952d-b7d3399d58e0
4874b808-519a-11ea-aca7-e39b4f849b77,48770752-519a-11ea-aadb-4ba571907af2
48674510-519a-11ea-8119-43a462ae7b49,48776224-519a-11ea-9f69-c71fb415e827
48614412-519a-11ea-b3ad-3b7e1fcfc982,48776eae-519a-11ea-a760-77df5adcd0c5
48674510-519a-11ea-8119-43a462ae7b49,4877a338-519a-11ea-9aff-6b36c981d7e2
48467506-519a-11ea-ae5d-4359e7d36ab6,4877cade-519a-11ea-81a6-ff157b08def1
487490bc-519a-11ea-a7ec-73101306c5f4,48780652-519a-11ea-8e64-2314a3e46057
48581932-519a-11ea-b8bb-1b86c5859d09,487813c2-519a-11ea-80d5-2b3dd3c0d667
485e1e72-519a-11ea-82a8-c3b4278a7a64,4878648a-519a-11ea-8cda-530ba13487f6
487458fe-519a-11ea-99d2-97d8ad672432,48786f84-519a-11ea-9352-c73aae4f4f8f
4861c2f2-519a-11ea-bb5b-dbd0f7034f6b,4878a8c8-519a-11ea-b192-2ffd4f093ba1
4863778c-519a-11ea-a0a1-b7a5def7403c,4878bafc-519a-11ea-ad70-f3a5d433d3da
48613422-519a-11ea-ba8f-b70aab1326e8,4878c6be-519a-11ea-add2-573c1f05f68d
4845112a-519a-11ea-8094-bf8bde07102d,4878e43c-519a-11ea-83ef-fb5976069902
486c399e-519a-11ea-bd97-57cc5297a8f3,4879274e-519a-11ea-a9b7-6f8aacf96baf
484c1a06-519a-11ea-a607-8b2021d4b785,48793e28-519a-11ea-ae96-87ad883979a1
48493804-519a-11ea-8843-039a8daa1385,48795a34-519a-11ea-b322-bf4fb4cf0406
485f06ca-519a-11ea-a5d7-0bfebde4b394,48799512-519a-11ea-99e4-d3bf915437da
4865a660-519a-11ea-adfa-0b5d1773b475,4879d7ac-519a-11ea-af98-bb9cfba46fcd
486e1f98-519a-11ea-a1f5-7f476da855fe,4879febc-519a-11ea-9f82-e7e30452dba8
4844b2fc-519a-11ea-8688-1b93a3e11f98,487a2a72-519a-11ea-b7dd-ab5d8a6c0912
486948ce-519a-11ea-bc26-3b1b4d0dbbab,487a595c-519a-11ea-b224-0324009a92b3
486e41ee-519a-11ea-9148-0b38e69a56e7,487a651e-519a-11ea-9977-0f206e949178
485bb434-519a-11ea-814c-e7488dc07d6a,487ac3b0-519a-11ea-bf7d-cb3e927d3c18
4842c212-519a-11ea-ad12-979499a19118,487ad13e-519a-11ea-b88e-0b8a35c9a71b
4854a5ea-519a-11ea-91ec-ab14175cbb6c,487af704-519a-11ea-a079-a3c96dcd9421
4876722e-519a-11ea-b621-97e5834bd1c4,487b213e-519a-11ea-aba3-4f62ca29596c
4867ec90-519a-11ea-bb08-23d4136bf39b,487b36ce-519a-11ea-a419-8721b55f7308
484a8d44-519a-11ea-8fae-33bf175c2c61,487b5f1e-519a-11ea-8c3d-3beffc56bbab
486fa5ca-519a-11ea-b000-b3eabb4a6779,487ba00a-519a-11ea-b7f5-ef8423076eb5
4846a58a-519a-11ea-bf04-af1e71228b99,487bd4d0-519a-11ea-a81f-7b6aeb5b9d01
4844c2ce-519a-11ea-b95e-af32a4bdf03a,487be1aa-519a-11ea-a470-db5e573fc32a
4870c86a-519a-11ea-9b6b-0707efb87e5b,487c011c-519a-11ea-b50c-b7fe6f56eec0
486aab60-519a-11ea-8ffb-efafa3075f17,487c0f40-519a-11ea-974a-27f462bb1568
484590f0-519a-11ea-8793-7bb5ab94125e,487c76ec-519a-11ea-9f7f-23363244aa02
484944a2-519a-11ea-b1c7-43dc01b812dd,487c81be-519a-11ea-bccf-c71208a36372
484ad434-519a-11ea-9558-cf212aec1269,487c92da-519a-11ea-9175-6bcb8ca6131f
4859a8e2-519a-11ea-afff-63c8aa962ff2,487caf4a-519a-11ea-add4-cb1bb4ba533f
48692a60-519a-11ea-87b1-477408834921,487d31b8-519a-11ea-bc16-f7c09098e8c7
48702b1c-519a-11ea-b926-972ddd39624b,487d2362-519a-11ea-bcf8-1f8bc8e76ec9
485cd364-519a-11ea-b7ad-732ae7c3afdd,487d5f44-519a-11ea-8194-dbdec1712ad9
484f8f60-519a-11ea-97a2-f72e7027dc1c,487d760a-519a-11ea-bcde-972397e9f5f2
4870f1b4-519a-11ea-b515-83076d997204,487dac92-519a-11ea-b027-573f4526a4d1
4852af60-519a-11ea-a9d3-834d70e831b9,487de0fe-519a-11ea-863d-efc4b56ce013
487ba00a-519a-11ea-b7f5-ef8423076eb5,487dea5e-519a-11ea-95c0-27b3b506bd0e
48576f78-519a-11ea-b5d6-2bdeec790336,487e2870-519a-11ea-a3ba-cf7b08bbee3c
48651682-519a-11ea-b385-4b154180b221,487e3d38-519a-11ea-b905-db0ac92d738a
4873b0ac-519a-11ea-8e9b-a73699ff8892,487e96ca-519a-11ea-85ac-63e00f252f48
48536e64-519a-11ea-8c7b-a3ca89deff74,487ea7dc-519a-11ea-82d2-df30aebc6b1f
487534ae-519a-11ea-b721-83e0a1e265ad,487ee152-519a-11ea-b902-6721d28ec2a8
486275c6-519a-11ea-acf1-ef80535ddb46,487f03bc-519a-11ea-92cf-4b7394cf1294
484a3326-519a-11ea-a3bd-a78f36bca3b2,487f22fc-519a-11ea-8d1d-d7dafd932e10
48793e28-519a-11ea-ae96-87ad883979a1,487f52c2-519a-11ea-9048-bb500f31b770
486680da-519a-11ea-a350-53ef9968aa6f,487f8670-519a-11ea-b355-0fc7c7df6690
48644de2-519a-11ea-b694-9b2f907dcc6f,487f9462-519a-11ea-b0f5-e72d065930ba
48490118-519a-11ea-baf9-a7810a806f9d,487faede-519a-11ea-af0f-c751d2a920ed
4844369c-519a-11ea-8094-afcfab03ffa2,487fc054-519a-11ea-bd2a-bfcebf083df7
4845e1b8-519a-11ea-beeb-d3437391b8cc,488035de-519a-11ea-a896-3b022cd63fa2
486b9548-519a-11ea-8220-0baaf17a3c16,4880600e-519a-11ea-b3cc-8f47c06373a1
4871ca44-519a-11ea-9212-9fc0025863a5,488068ba-519a-11ea-8965-fbf57caa0a28
487458fe-519a-11ea-99d2-97d8ad672432,48807314-519a-11ea-9f3d-0fc33509eebc
487c0f40-519a-11ea-974a-27f462bb1568,4880aa28-519a-11ea-866d-8bc5ed30df31
486e1f98-519a-11ea-a1f5-7f476da855fe,4880ca76-519a-11ea-9402-5bd1429abdbb
48434430-519a-11ea-84d9-1f7840e2a977,4880d3f4-519a-11ea-8464-d787515224e0
48576f78-519a-11ea-b5d6-2bdeec790336,4880fea6-519a-11ea-977f-1783fdf80ed1
48519a26-519a-11ea-807b-7f35bde58b6f,48813024-519a-11ea-b232-17e6ef4becd6
485f64b2-519a-11ea-b2e0-5f2e28bb3eec,48814410-519a-11ea-b564-a7c491c33a5d
4851c1ae-519a-11ea-8b55-6b5d67468055,48818ae2-519a-11ea-a4cc-47f51d82c568
4851c1ae-519a-11ea-8b55-6b5d67468055,4881999c-519a-11ea-8f3a-17b27d8f799f
484ce7ba-519a-11ea-8412-a34bd59f5f7f,4881a5a4-519a-11ea-835b-f3fd3cc7c33e
48490118-519a-11ea-baf9-a7810a806f9d,4881af2c-519a-11ea-8365-cb472689e41c
48769452-519a-11ea-9475-7756f5834976,48822272-519a-11ea-8c0e-d7cc32a15188
48579b6a-519a-11ea-98fb-5747252b4508,48824aae-519a-11ea-89c6-dfffe6586164
484a144a-519a-11ea-abe8-837049805378,48826868-519a-11ea-92ed-27883c516107
485c9f3e-519a-11ea-ab23-9327fab45842,48829388-519a-11ea-949d-bf8a8f025612
486d622e-519a-11ea-a6df-ef0c3f3ff588,4882a42c-519a-11ea-969a-8b4e3e043bea
48614412-519a-11ea-b3ad-3b7e1fcfc982,4882d78a-519a-11ea-a1fe-df2282a54721
487caf4a-519a-11ea-add4-cb1bb4ba533f,488308b8-519a-11ea-aae9-1f5d5dc3768d
4852bb18-519a-11ea-ab1c-6709d8efc331,4883233e-519a-11ea-ab78-47012494cda3
487316ce-519a-11ea-bf23-13a69bc6386a,48839ce2-519a-11ea-9119-9b3d49ab4d5a
4861e9f8-519a-11ea-9801-0bc9ac2bb671,4883a822-519a-11ea-adc3-43e9d06f234b
487ee152-519a-11ea-b902-6721d28ec2a8,4883cab4-519a-11ea-8e7d-dbe7e09f1ebc
485f64b2-519a-11ea-b2e0-5f2e28bb3eec,4883df4a-519a-11ea-b512-a7854e5575b0
485699e0-519a-11ea-b3ef-9b90819505f0,48843ef4-519a-11ea-9120-0bd8b204fcff
48769452-519a-11ea-9475-7756f5834976,48844bc4-519a-11ea-8256-379dbcb924c8
486cfa46-519a-11ea-b6da-6feb9719f845,4884728e-519a-11ea-a9ec-d7638660dd28
487490bc-519a-11ea-a7ec-73101306c5f4,4884abbe-519a-11ea-accc-4f936465862c
4880600e-519a-11ea-b3cc-8f47c06373a1,4884b672-519a-11ea-b3ec-236a0cab861f
4842d84c-519a-11ea-b23c-1b4876186263,4884c84c-519a-11ea-9830-9bebdd0351f2
48536e64-519a-11ea-8c7b-a3ca89deff74,4884d7b0-519a-11ea-be73-77df1396a075
4871ca44-519a-11ea-9212-9fc0025863a5,4885380e-519a-11ea-90a4-ff1f098cc171
4881a5a4-519a-11ea-835b-f3fd3cc7c33e,4885488a-519a-11ea-910f-4758d82706dc
48770752-519a-11ea-aadb-4ba571907af2,4885538e-519a-11ea-90c6-eb02247df670
486834d4-519a-11ea-8bb9-7be20232491a,4885a000-519a-11ea-892f-bbd87b693634
4879d7ac-519a-11ea-af98-bb9cfba46fcd,4885ab68-519a-11ea-99e8-f3dead701549
4848b42e-519a-11ea-a029-4f6b699b3ff1,4885f51e-519a-11ea-ae4c-738e8984638c
485a3898-519a-11ea-a644-93dc709aa154,48860234-519a-11ea-a124-97dd107af12b
4877cade-519a-11ea-81a6-ff157b08def1,48860e6e-519a-11ea-94f4-73f0cd694dc8
486491e4-519a-11ea-bab5-a30abe308a20,48865e64-519a-11ea-8665-f72a53c68842
4845e1b8-519a-11ea-beeb-d3437391b8cc,48867fc0-519a-11ea-ab4f-17c062ad623e
485ad104-519a-11ea-b10a-5f23b245af1e,48868f10-519a-11ea-97b5-1f9042733fa8
484d03bc-519a-11ea-9d07-7faa0ade89cb,48869bd6-519a-11ea-b0e1-47fff9b82c9c
48613422-519a-11ea-ba8f-b70aab1326e8,488715b6-519a-11ea-8713-ab6745cd497e
48702b1c-519a-11ea-b926-972ddd39624b,48872e70-519a-11ea-959f-dfcda9e03f50
484fd4ac-519a-11ea-94b9-63777a52c8b1,4887399c-519a-11ea-8697-632d51b98537
4885538e-519a-11ea-90c6-eb02247df670,4887454a-519a-11ea-aa12-37021d977078
487e2870-519a-11ea-a3ba-cf7b08bbee3c,4887b73c-519a-11ea-b500-5309674edb4b
48451ddc-519a-11ea-9dbb-0f79a08bcd7c,4887d0aa-519a-11ea-ad21-134019c746c7
484abb20-519a-11ea-82cf-ab6d521eff44,48882334-519a-11ea-bac6-cb416c08f7a0
4872c02a-519a-11ea-bf40-d30b8f89a60c,488837ac-519a-11ea-91ca-8f57b52fb45d
485255d8-519a-11ea-94d7-d78ec36d72fd,488894ea-519a-11ea-9af8-031979ad9c4b
485af972-519a-11ea-88b5-a7844acef6e4,4888eb3e-519a-11ea-8696-33a92b864658
48623e76-519a-11ea-a48c-5f989d7751cb,48890ae2-519a-11ea-9799-0f08af8ad91c
485955c2-519a-11ea-98b4-5b68f4c3e32f,48891a28-519a-11ea-8b0e-df0a5b026b68
48673926-519a-11ea-acbb-8be0c5c89f09,48895a6a-519a-11ea-98c0-5f368009d0e1
484fbefe-519a-11ea-a9bf-db50a1c959d4,488968b6-519a-11ea-bdc4-cbf10a66875c
4876722e-519a-11ea-b621-97e5834bd1c4,4889b14a-519a-11ea-a1f9-af12639a33f6
4863c9bc-519a-11ea-a7c4-e31ed8f45de9,4889cf40-519a-11ea-b884-43864b702cfc
48596134-519a-11ea-af43-f7deefa6665c,488a2ab2-519a-11ea-ba46-4b365c50ef14
488068ba-519a-11ea-8965-fbf57caa0a28,488a3bb0-519a-11ea-bf10-07c591b98ebe
4865bfc4-519a-11ea-a772-b398749bd0f0,488a64aa-519a-11ea-b0f7-eb018345c0da
484732ca-519a-11ea-8d7f-5b383738a354,488ac63e-519a-11ea-a9eb-77f8a02167b3
486e1f98-519a-11ea-a1f5-7f476da855fe,488ae5a6-519a-11ea-93dc-0fcdd1c21b38
484f2232-519a-11ea-9140-774702e98cc5,488af6d6-519a-11ea-b369-b3ad54d8a1d7
4880ca76-519a-11ea-9402-5bd1429abdbb,488b4a0a-519a-11ea-ab6f-236b4a69c791
48869bd6-519a-11ea-b0e1-47fff9b82c9c,488bad10-519a-11ea-ba83-270cb4c6bffe
484891d8-519a-11ea-be8b-537dd8870814,488bc9bc-519a-11ea-bbd9-eb4bfb18d948
4884b672-519a-11ea-b3ec-236a0cab861f,488bd59c-519a-11ea-be48-dfe411a6103f
4865e558-519a-11ea-850c-5382b4b87417,488c0472-519a-11ea-9841-3f75890ff147
48421812-519a-11ea-ae20-b36b7541f9fc,488c4356-519a-11ea-885b-bf53c09ad090
488894ea-519a-11ea-9af8-031979ad9c4b,488c62dc-519a-11ea-ad2e-5f4e78586ec6
486a1664-519a-11ea-bd68-bf570879d2f7,488c6f20-519a-11ea-b2b7-4b4b1bf4a641
486cd610-519a-11ea-8aac-8fbcee978c65,488cb75a-519a-11ea-8bf9-5f53a62c6dac
48822272-519a-11ea-8c0e-d7cc32a15188,488cfc7e-519a-11ea-a492-d39baf2664c0
484f8f60-519a-11ea-97a2-f72e7027dc1c,488d1894-519a-11ea-a564-4fb08e31225b
487b5f1e-519a-11ea-8c3d-3beffc56bbab,488d2adc-519a-11ea-b764-db67f7154673
485be76a-519a-11ea-b7e3-c312c23fc174,488d9cec-519a-11ea-8d22-8b4e846f021d
484ad434-519a-11ea-9558-cf212aec1269,488dccc6-519a-11ea-95c1-27aa509c6076
4850373a-519a-11ea-b38a-279e6b304e49,488def62-519a-11ea-b32e-4f5b00eb44a3
48891a28-519a-11ea-8b0e-df0a5b026b68,488e0722-519a-11ea-b557-ab349aa9673e
486b23d8-519a-11ea-8b42-4344e866f2d0,488e3602-519a-11ea-90fc-ebd636e509bc
485d8b24-519a-11ea-8cdf-03acb85ee684,488e93cc-519a-11ea-98b9-4381547e4e8d
485e0874-519a-11ea-a14b-27869e36c38f,488ec0cc-519a-11ea-bd43-f70ba296176b
4844c2ce-519a-11ea-b95e-af32a4bdf03a,488ef394-519a-11ea-a964-2ba6b269f7ae
485611d2-519a-11ea-85fd-5b21757a5ace,488f02da-519a-11ea-b46b-bf3bb273c472
4863c9bc-519a-11ea-a7c4-e31ed8f45de9,488f1e32-519a-11ea-b1b8-c7406207b64b
48544276-519a-11ea-a8cb-b38946b24678,488f68f6-519a-11ea-92d0-537d2924f621
48843ef4-519a-11ea-9120-0bd8b204fcff,488f93b2-519a-11ea-8766-b7362d00ed29
487534ae-519a-11ea-b721-83e0a1e265ad,488fc198-519a-11ea-9bad-b759cfccce04
486f945e-519a-11ea-a4f0-3707e49d89d5,488fcbfc-519a-11ea-b4bc-e3b2f3d0d13c
48471754-519a-11ea-8b3b-e7cf1ffeb331,488ff8c0-519a-11ea-a60a-ff2011b8210d
487490bc-519a-11ea-a7ec-73101306c5f4,48901a80-519a-11ea-ae7e-b75e460813d7
487d760a-519a-11ea-bcde-972397e9f5f2,48906102-519a-11ea-a0f7-ab80cbe2ba86
4883a822-519a-11ea-adc3-43e9d06f234b,4890712e-519a-11ea-b540-97ca62d29ed7
4884b672-519a-11ea-b3ec-236a0cab861f,48907a16-519a-11ea-abbb-0f558804ab15
48579b6a-519a-11ea-98fb-5747252b4508,4890cda4-519a-11ea-87f5-d3a1adee85d5
487f9462-519a-11ea-b0f5-e72d065930ba,48910ca6-519a-11ea-af5d-b797ede9861d
487396c6-519a-11ea-9746-4bdc75f16140,48913988-519a-11ea-8c07-8f78ce84fdea
485ef428-519a-11ea-b503-bf3dcc9d21fb,48915c60-519a-11ea-82c3-f3e8c155d21d
48454230-519a-11ea-9572-23192c405334,4891a6f2-519a-11ea-8422-e724aebfc196
48484606-519a-11ea-869c-f756e0f83f7e,4891b156-519a-11ea-a11c-f3e15ffe69ca
4873f706-519a-11ea-9961-9f27b6a3517b,4891e68a-519a-11ea-a908-330f68be10a0
48512050-519a-11ea-b5d1-27c655cb6499,48923a9a-519a-11ea-9bbe-b34a2fbb82ef
4881a5a4-519a-11ea-835b-f3fd3cc7c33e,48925dc2-519a-11ea-bbd3-f7aae500e15a
48891a28-519a-11ea-8b0e-df0a5b026b68,48924616-519a-11ea-bac1-db76c9b68c75
488035de-519a-11ea-a896-3b022cd63fa2,4892b1f0-519a-11ea-b569-f3f72f5d3068
48754cf0-519a-11ea-bf32-631fe040b2b4,4892fd22-519a-11ea-a372-438f2d44455c
4872c02a-519a-11ea-bf40-d30b8f89a60c,4893135c-519a-11ea-8052-97a5d26b8a7d
48576f78-519a-11ea-b5d6-2bdeec790336,4893470a-519a-11ea-962b-27ea777c19f7
486ca104-519a-11ea-8191-af78d24fd600,489360e6-519a-11ea-b525-af58bb9222d3
48868f10-519a-11ea-97b5-1f9042733fa8,4893809e-519a-11ea-8f85-a322f97e0f11
4851a52a-519a-11ea-97f3-131a135ab265,48939a0c-519a-11ea-afe4-dfc488f4639a
48672c24-519a-11ea-82e2-bf4937d879e8,4893b67c-519a-11ea-9c27-23d83e6dbe91
484944a2-519a-11ea-b1c7-43dc01b812dd,4893f6be-519a-11ea-8f12-bf28d6f319b9
4860d716-519a-11ea-a4ef-bf9fbe555424,48940f0a-519a-11ea-947d-d3bb9eaba543
487396c6-519a-11ea-9746-4bdc75f16140,48941b62-519a-11ea-a1f3-671876ab5980
4885f51e-519a-11ea-ae4c-738e8984638c,489472f6-519a-11ea-92b9-bb7b54d73e0e
484e3e6c-519a-11ea-8660-17a911ee1a80,489488cc-519a-11ea-ad79-57f0a9e0a047
485a2696-519a-11ea-bb22-c7e2377ac983,4894b856-519a-11ea-a431-775048eb71fd
48644de2-519a-11ea-b694-9b2f907dcc6f,4894f384-519a-11ea-b18d-af010841b70f
484bcdb2-519a-11ea-9903-6381c54cb519,489519f4-519a-11ea-a878-5bf1a09454c8
486035c2-519a-11ea-964d-db854d15f300,48952d90-519a-11ea-9366-134d50032287
487036ca-519a-11ea-a886-1f8a0ced465f,48953c4a-519a-11ea-8cc4-67434b1dd272
4887d0aa-519a-11ea-ad21-134019c746c7,48958c22-519a-11ea-8423-634fa5d98b78
4861d134-519a-11ea-a8a6-bbb1d293a0fb,4895b7f6-519a-11ea-861c-c7120d6745b7
48744a4e-519a-11ea-b7b9-1b10b4677be2,4895c458-519a-11ea-9ad0-0fc4f13ebe02
48468d70-519a-11ea-afea-a368e833c527,48961de0-519a-11ea-a1b1-f72ec5af90ed
485d38e0-519a-11ea-9196-5b0e4640d507,48963334-519a-11ea-9e6b-4b5ebe03dddc
484e24d6-519a-11ea-b1d0-7f6291806211,489676c8-519a-11ea-ad68-cf2befb73131
488ff8c0-519a-11ea-a60a-ff2011b8210d,4896941e-519a-11ea-a387-836a5785e10a
488cfc7e-519a-11ea-a492-d39baf2664c0,48971894-519a-11ea-86ce-6f596d44e785
48869bd6-519a-11ea-b0e1-47fff9b82c9c,48970d7c-519a-11ea-b98d-6faa847fd26a
48454230-519a-11ea-9572-23192c405334,48972492-519a-11ea-a55c-03887401c09c
48451ddc-519a-11ea-9dbb-0f79a08bcd7c,48974a26-519a-11ea-89f2-7365d499cdd1
48621216-519a-11ea-83f8-b36b02bd6450,4897c578-519a-11ea-9dc9-bf39f157d99a
486b16cc-519a-11ea-a55e-0b075c425e0f,4897d3ba-519a-11ea-9afa-db116b6ac410
484ad434-519a-11ea-9558-cf212aec1269,48981cda-519a-11ea-b5a9-03cc7717c121
4872c02a-519a-11ea-bf40-d30b8f89a60c,489829c8-519a-11ea-a0e1-47a440a3f011
48754cf0-519a-11ea-bf32-631fe040b2b4,489835c6-519a-11ea-b909-c7441a0f512b
48843ef4-519a-11ea-9120-0bd8b204fcff,4898444e-519a-11ea-83a8-affc2a7b6234
485f64b2-519a-11ea-b2e0-5f2e28bb3eec,48989e26-519a-11ea-b7e2-abf1523f902b
484b51a2-519a-11ea-98a1-036c513c7d3a,4898d116-519a-11ea-9d09-438efc884f1e
485679ba-519a-11ea-8723-bbf9214a3857,4898fe8e-519a-11ea-9220-0788c72cd2f5
4853cf1c-519a-11ea-81bf-9b4686b8c2bd,48990d5c-519a-11ea-9638-ef7d18855a74
4851fba6-519a-11ea-b95c-b3f9c447d595,4899178e-519a-11ea-96b3-4bf8f6a6a60d
4865bfc4-519a-11ea-a772-b398749bd0f0,48996db0-519a-11ea-9eb4-a7bdbc77e641
485784ea-519a-11ea-8ef6-13cb58f2ac76,48997ac6-519a-11ea-8df4-2bd7535295f2
487c81be-519a-11ea-bccf-c71208a36372,48998502-519a-11ea-84ef-c38eae06754f
485e5d74-519a-11ea-90b2-3f27156b1235,48999e98-519a-11ea-bd18-3f0a43ca270f
4885488a-519a-11ea-910f-4758d82706dc,489a207a-519a-11ea-bfc8-8fdaacf25ccf
484944a2-519a-11ea-b1c7-43dc01b812dd,489a3146-519a-11ea-b698-27ee45956fa5
48520c72-519a-11ea-8213-07cd36cc3df3,489a4cd0-519a-11ea-93a3-e7462d810a83
485c4b92-519a-11ea-be4c-570504c08f68,489a6a30-519a-11ea-bcac-8790b82c8823
48483468-519a-11ea-8e7f-0b6475fa5255,489ac8b8-519a-11ea-9030-033d87bd1376
48672c24-519a-11ea-82e2-bf4937d879e8,489ae924-519a-11ea-b4fe-0f01c6e6dab1
4843fac4-519a-11ea-a7fa-0327a5d0b43a,489b0800-519a-11ea-9ce7-53da6a880b3c
48713d9a-519a-11ea-9b4f-f3c3a29627e1,489b1584-519a-11ea-b873-bbd3f6de8c45
48532800-519a-11ea-82c5-e3f59094cee8,489b521a-519a-11ea-8503-37404ac4a7f3
4842c212-519a-11ea-ad12-979499a19118,489b7196-519a-11ea-accc-57fe46aee95a
4848c112-519a-11ea-b884-0b8bdbcd2e30,489bbbf6-519a-11ea-822c-6ba865ff5e45
48636cce-519a-11ea-a42b-f339fb388237,489baf12-519a-11ea-9090-a74d0aaaf7e4
485b90ee-519a-11ea-985f-d34dfe4a98cb,489c2122-519a-11ea-84bd-bf8072f08570
48727a16-519a-11ea-b6df-4b9341ad828f,489c5ac0-519a-11ea-b4bb-87ce16a41bc8
487543ea-519a-11ea-8d98-037ffcdaa6b6,489c93b4-519a-11ea-8ca7-773888ed435f
4852af60-519a-11ea-a9d3-834d70e831b9,489ca106-519a-11ea-9b54-a3ea5e51d0d5
4872f4f0-519a-11ea-8c9d-5fdb79b92723,489cdd2e-519a-11ea-aba0-df33167990b4
488cb75a-519a-11ea-8bf9-5f53a62c6dac,489d0bfa-519a-11ea-8367-dffe0322b97f
4880d3f4-519a-11ea-8464-d787515224e0,489d9084-519a-11ea-a3b2-0751d9a2afe4
489a6a30-519a-11ea-bcac-8790b82c8823,489d9fd4-519a-11ea-b904-cba3cd87ce03
489c5ac0-519a-11ea-b4bb-87ce16a41bc8,489dd1b6-519a-11ea-a769-f34c15f8dd92
484edd5e-519a-11ea-a52d-2f24028b7865,489e079e-519a-11ea-9207-73e6814372ec
487dac92-519a-11ea-b027-573f4526a4d1,489e411e-519a-11ea-abbe-6b38da1e1a27
484412b6-519a-11ea-93a3-d7931e6ad78c,489e8516-519a-11ea-a609-8f9b5362eaed
485c0dee-519a-11ea-983e-97b21ee551ce,489e9272-519a-11ea-a13a-7b4fbfcca542
486cb496-519a-11ea-a31d-6f08354627ae,489ea258-519a-11ea-a14a-876036573cb5
48867fc0-519a-11ea-ab4f-17c062ad623e,489f0824-519a-11ea-978a-eb1e544e994a
48915c60-519a-11ea-82c3-f3e8c155d21d,489f2548-519a-11ea-80fd-234b93e6a34a
48691ba6-519a-11ea-8729-7f41574109c0,489f5388-519a-11ea-8331-c36cbed9646e
4884d7b0-519a-11ea-be73-77df1396a075,489f66ca-519a-11ea-ab0c-2736ee7cf5d3
485889c6-519a-11ea-ae49-afba395f2e26,48a0067a-519a-11ea-a27a-a36624873d73
48576f78-519a-11ea-b5d6-2bdeec790336,48a0335c-519a-11ea-8f1e-c7f1f7897006
48972492-519a-11ea-a55c-03887401c09c,48a06dfe-519a-11ea-89f1-978e2435563d
487e3d38-519a-11ea-b905-db0ac92d738a,48a0bd18-519a-11ea-882d-2f4447ff6d06
486d622e-519a-11ea-a6df-ef0c3f3ff588,48a0eacc-519a-11ea-8eeb-cf1749627213
48704bd8-519a-11ea-abde-e78ce438d9dd,48a11538-519a-11ea-ba36-63c784bd2a24
4883a822-519a-11ea-adc3-43e9d06f234b,48a14dbe-519a-11ea-b933-63540c312e52
484b0ab2-519a-11ea-88e0-93772147cfeb,48a1e3c8-519a-11ea-a75d-a790d810fa11
487b213e-519a-11ea-aba3-4f62ca29596c,48a1f5d4-519a-11ea-a502-ab9a7c88dc78
484e60ae-519a-11ea-8ef0-072aef35ee07,48a206e6-519a-11ea-819f-338ac34a72b2
485699e0-519a-11ea-b3ef-9b90819505f0,48a217f8-519a-11ea-872e-a724d1759364
4848c112-519a-11ea-b884-0b8bdbcd2e30,48a2a43e-519a-11ea-81d4-9fe1047d2745
487d5f44-519a-11ea-8194-dbdec1712ad9,48a2f362-519a-11ea-841c-cb2b90bd5874
4871e7cc-519a-11ea-a25c-c7d43c2e7d20,48a3044c-519a-11ea-b172-237c5a938496
48543862-519a-11ea-83a1-dbaae1b48551,48a31414-519a-11ea-8adc-e7500efbb8f4
486dc6a6-519a-11ea-bfba-ab202c43fb0a,48a3943e-519a-11ea-8c4f-ff4dfc6ba98d
4870f1b4-519a-11ea-b515-83076d997204,48a3a488-519a-11ea-9562-2b1f66907c0e
48872e70-519a-11ea-959f-dfcda9e03f50,48a3b63a-519a-11ea-9abf-eb77d0b1a2c8
48769452-519a-11ea-9475-7756f5834976,48a42f02-519a-11ea-85f7-dff49b829252
486041e8-519a-11ea-aff4-8bf9dbe39b03,48a4a16c-519a-11ea-ba1f-3ff4e023b398
48940f0a-519a-11ea-947d-d3bb9eaba543,48a4b152-519a-11ea-b1f4-a7589a33ef18
48958c22-519a-11ea-8423-634fa5d98b78,48a4f900-519a-11ea-8204-6305a1a632f4
4846562a-519a-11ea-874e-5320a8f6bd0f,48a52506-519a-11ea-8cb9-2725a10c088f
487e3d38-519a-11ea-b905-db0ac92d738a,48a560c0-519a-11ea-a177-63913ea5ea43
486cd610-519a-11ea-8aac-8fbcee978c65,48a5a026-519a-11ea-a01c-b7783386b86e
487e3d38-519a-11ea-b905-db0ac92d738a,48a5cf2e-519a-11ea-b700-a37428ac581f
48512b18-519a-11ea-ad8a-8b4f58234ee5,48a60c32-519a-11ea-a22e-0fafb97e0bf5
4884728e-519a-11ea-a9ec-d7638660dd28,48a67cc6-519a-11ea-9290-17e4ed622bbb
4880d3f4-519a-11ea-8464-d787515224e0,48a6de64-519a-11ea-acb2-5fd53a61ab0d
489bbbf6-519a-11ea-822c-6ba865ff5e45,48a6f48a-519a-11ea-8943-8315f2370669
4842d84c-519a-11ea-b23c-1b4876186263,48a71fc8-519a-11ea-9b16-138415c0a1a6
4865926a-519a-11ea-8f1a-8bd668760b40,48a77d24-519a-11ea-a5fd-3f7d944809d6
48519a26-519a-11ea-807b-7f35bde58b6f,48a7a90c-519a-11ea-aad2-f3c175dcd46c
484732ca-519a-11ea-8d7f-5b383738a354,48a7f95c-519a-11ea-af2f-2b7fe100c04d
486cd610-519a-11ea-8aac-8fbcee978c65,48a85028-519a-11ea-8966-9bad190b5072
48860e6e-519a-11ea-94f4-73f0cd694dc8,48a86a4a-519a-11ea-942c-13e92010e1f7
4855dbae-519a-11ea-82ea-63de6efd4923,48a89e20-519a-11ea-9a73-d7b4180aa46c
485255d8-519a-11ea-94d7-d78ec36d72fd,48a933f8-519a-11ea-aa60-eb1fe8c0559e
4882d78a-519a-11ea-a1fe-df2282a54721,48a945fa-519a-11ea-9d5a-dba4e574eb94
4843ba82-519a-11ea-a484-cf79edd5b64b,48a974da-519a-11ea-9643-d34955c82ca9
4853ed58-519a-11ea-951b-f33994f553bc,48a98754-519a-11ea-9ded-c7b03f10d7fd
4851eeae-519a-11ea-ace2-e3abf580ae02,48aa42ac-519a-11ea-97ec-ffcf3e8b32e8
485a0c6a-519a-11ea-b9a7-3b648d256ac5,48aa5ff8-519a-11ea-ba9b-a33b1e54eda3
4867ec90-519a-11ea-bb08-23d4136bf39b,48aa7272-519a-11ea-abdb-6b09db1c30a9
48726e68-519a-11ea-9f25-ab5923108ce0,48aaa616-519a-11ea-91ba-dfd72980e46b
486a1ee8-519a-11ea-a70c-aba84fd4d484,48ab2438-519a-11ea-933c-7b1ca197fbc7
486483fc-519a-11ea-9205-57975f56ce15,48ab6b14-519a-11ea-8c86-6bc57876b9fc
487d5f44-519a-11ea-8194-dbdec1712ad9,48ab9f80-519a-11ea-a2d0-cbc10f3ff0f6
4873a0d0-519a-11ea-9bf1-2bc71f400464,48abc0a0-519a-11ea-b559-27e417ff27fb
4863778c-519a-11ea-a0a1-b7a5def7403c,48ac261c-519a-11ea-8ae4-9ba28c9919c9
486d622e-519a-11ea-a6df-ef0c3f3ff588,48ac5326-519a-11ea-b38b-9bc01ecf0562
4854b076-519a-11ea-b1b2-6fba6aab3918,48ac7ad6-519a-11ea-8497-33e11b0946a0
48574cd2-519a-11ea-9459-b753740829de,48ad0f1e-519a-11ea-b35e-e384d13f2cde
4845112a-519a-11ea-8094-bf8bde07102d,48ad23dc-519a-11ea-993d-3b274f409720
4858c544-519a-11ea-ab2f-9bdca735a60c,48ad3070-519a-11ea-a5f6-8bff5b61e503
485a9d4c-519a-11ea-9af2-a3f0849bb84a,48ad6d7e-519a-11ea-8173-e34d2763ba6b
489d9084-519a-11ea-a3b2-0751d9a2afe4,48adc7ba-519a-11ea-a0af-4f2a06136132
48952d90-519a-11ea-9366-134d50032287,48add80e-519a-11ea-a398-87733e89b4f1
48512050-519a-11ea-b5d1-27c655cb6499,48ae0a22-519a-11ea-9bcb-a7a404ffe907
4852af60-519a-11ea-a9d3-834d70e831b9,48ae9fb4-519a-11ea-bef0-43d8d212dd1a
486d8f60-519a-11ea-b035-e31f8cb9ea13,48aeb184-519a-11ea-9f09-1369bb53056d
48826868-519a-11ea-92ed-27883c516107,48aeef14-519a-11ea-87a6-8b8958daa78b
484b358c-519a-11ea-97be-0334a8691ad3,48aefd88-519a-11ea-a841-6774cb952409
487caf4a-519a-11ea-add4-cb1bb4ba533f,48af81e0-519a-11ea-a509-47eb8d9d755e
4895b7f6-519a-11ea-861c-c7120d6745b7,48af93ce-519a-11ea-8a79-1feba6bcc51f
4861e9f8-519a-11ea-9801-0bc9ac2bb671,48afb66a-519a-11ea-bc25-677bb0e0eb4f
48839ce2-519a-11ea-9119-9b3d49ab4d5a,48afe3e2-519a-11ea-b78c-b376457dfcda
487602ee-519a-11ea-9ffa-23db5f944ec9,48b050e8-519a-11ea-ad17-2fea0051b5bf
4850e2d4-519a-11ea-b9c8-a3bad56af07e,48b0cb54-519a-11ea-a6c1-b7e987b70aac
48512b18-519a-11ea-ad8a-8b4f58234ee5,48b0f3c2-519a-11ea-8fca-9f77c89cb391
487036ca-519a-11ea-a886-1f8a0ced465f,48b106e6-519a-11ea-9216-0bbb7b15aea5
484b0ab2-519a-11ea-88e0-93772147cfeb,48b1c784-519a-11ea-91f3-9b1f2be7d6ed
4845ea00-519a-11ea-a99a-3f042abb9c86,48b1b60e-519a-11ea-aba3-bfad8712b006
4885538e-519a-11ea-90c6-eb02247df670,48b1d9c2-519a-11ea-95e0-9bf9b0ea64dc
488bd59c-519a-11ea-be48-dfe411a6103f,48b2460a-519a-11ea-8873-8bb8b3592762
48a0335c-519a-11ea-8f1e-c7f1f7897006,48b2b27a-519a-11ea-aa8b-6b1d5cd5ad6c
48449a1a-519a-11ea-8b33-37337311f9eb,48b2cb3e-519a-11ea-8395-dba0c5d8407a
487f22fc-519a-11ea-8d1d-d7dafd932e10,48b33236-519a-11ea-98fc-2ffe4bbda982
48a2f362-519a-11ea-841c-cb2b90bd5874,48b362b0-519a-11ea-a732-db8a8c1c6737
486ec09c-519a-11ea-bdac-8340139865e9,48b344a6-519a-11ea-bb7e-4745ecf15276
484e9cf4-519a-11ea-9de1-0b3b317ff3c4,48b3a3c4-519a-11ea-802e-e3ca62ed3e9e
4859fa40-519a-11ea-946f-cf95cce97716,48b3de0c-519a-11ea-afc1-db7387715f9d
4842c212-519a-11ea-ad12-979499a19118,48b44676-519a-11ea-9451-3732315e22bf
488e93cc-519a-11ea-98b9-4381547e4e8d,48b477cc-519a-11ea-b6a1-9ba24ab2f4ca
487bd4d0-519a-11ea-a81f-7b6aeb5b9d01,48b48f96-519a-11ea-a683-83ca795a53a0
4890712e-519a-11ea-b540-97ca62d29ed7,48b52532-519a-11ea-ab79-2f54bca7628d
488d2adc-519a-11ea-b764-db67f7154673,48b59cd8-519a-11ea-8818-a307cf86a784
4861e9f8-519a-11ea-9801-0bc9ac2bb671,48b5b3f8-519a-11ea-95cf-ffd2d0abe9a2
488837ac-519a-11ea-91ca-8f57b52fb45d,48b5a9da-519a-11ea-8390-fb158e3336f8
4869e28e-519a-11ea-b4de-33cf168cb362,48b62b58-519a-11ea-bd50-a76901afc091
48972492-519a-11ea-a55c-03887401c09c,48b66ee2-519a-11ea-801d-e36a45ba6aca
485d8b24-519a-11ea-8cdf-03acb85ee684,48b69566-519a-11ea-8449-3be21a25ae7a
4883df4a-519a-11ea-b512-a7854e5575b0,48b6ea8e-519a-11ea-8a48-0765ad7dcb6f
4891b156-519a-11ea-a11c-f3e15ffe69ca,48b709e2-519a-11ea-80e2-afe82b5f410a
487f22fc-519a-11ea-8d1d-d7dafd932e10,48b71982-519a-11ea-a221-671698b56f87
4884b672-519a-11ea-b3ec-236a0cab861f,48b761ee-519a-11ea-b112-ebde9bd7b303
485a3898-519a-11ea-a644-93dc709aa154,48b79b96-519a-11ea-b511-4f3a0c0529a7
486f945e-519a-11ea-a4f0-3707e49d89d5,48b814f4-519a-11ea-ac17-8bb4cce5b857
48aefd88-519a-11ea-a841-6774cb952409,48b822d2-519a-11ea-95e5-f79340018888
48413d0c-519a-11ea-b45f-d7b53e95098f,48b853ec-519a-11ea-b268-43a38569e4d7
48a974da-519a-11ea-9643-d34955c82ca9,48b8653a-519a-11ea-8719-27e061b6513d
486b0bd2-519a-11ea-8ff1-4f4c00e4592b,48b90792-519a-11ea-a5af-b3f6cfe4a5ce
4862c256-519a-11ea-8667-431facd5d3ff,48b925d8-519a-11ea-be08-6bd981fda9d7
489b521a-519a-11ea-8503-37404ac4a7f3,48b93bea-519a-11ea-965a-9fb1f9bb6950
4887399c-519a-11ea-8697-632d51b98537,48b94a86-519a-11ea-a922-2bf8502eb25e
48767efe-519a-11ea-b585-03243cc60a14,48b9f134-519a-11ea-9356-1f59f3a79713
48b1c784-519a-11ea-91f3-9b1f2be7d6ed,48ba0f3e-519a-11ea-ba73-ef8f581217e0
48481c76-519a-11ea-8a0f-5b7beab78c14,48ba235c-519a-11ea-80bf-07772b6cd495
487a651e-519a-11ea-9977-0f206e949178,48ba3d9c-519a-11ea-9e8e-b3fcc358465d
48998502-519a-11ea-84ef-c38eae06754f,48baed46-519a-11ea-8d86-3b8cfbfbe6e8
48558744-519a-11ea-9196-0bd6e4309fe8,48bb2130-519a-11ea-a97a-f7558574c28f
4891e68a-519a-11ea-a908-330f68be10a0,48bafd9a-519a-11ea-b0e6-1f9a9d3a808f
486db274-519a-11ea-a338-233e032bf3f6,48bb0e2a-519a-11ea-b91c-a7a3c5fa946f
48730652-519a-11ea-8e61-cf94cc24d66c,48bb9e4e-519a-11ea-b56e-f780f775e061
4853ed58-519a-11ea-951b-f33994f553bc,48bbce8c-519a-11ea-893d-8f415742ca3d
48780652-519a-11ea-8e64-2314a3e46057,48bbdd82-519a-11ea-98cd-8fafe7f00db4
484590f0-519a-11ea-8793-7bb5ab94125e,48bbf1b4-519a-11ea-98c6-ffe07b6d8072
48a0eacc-519a-11ea-8eeb-cf1749627213,48bc9aba-519a-11ea-91a0-e779ebe7025c
485c9f3e-519a-11ea-ab23-9327fab45842,48bccd3c-519a-11ea-81be-4b0626a1e47a
486bfa2e-519a-11ea-b3ac-cff1f1fb0f3d,48bcef92-519a-11ea-b525-fbcad5da1950
48aaa616-519a-11ea-91ba-dfd72980e46b,48bcdfd4-519a-11ea-806d-87a058c69201
484c648e-519a-11ea-a770-efa49aa39934,48bd609e-519a-11ea-a076-eb77abf92f4c
48941b62-519a-11ea-a1f3-671876ab5980,48bd9f8c-519a-11ea-b6fd-4f0cf0ea0acf
48434430-519a-11ea-84d9-1f7840e2a977,48bdc58e-519a-11ea-9ced-3b1629312546
484e1892-519a-11ea-be84-9386384210b3,48bdd56a-519a-11ea-b4b9-6f35085a6715
488035de-519a-11ea-a896-3b022cd63fa2,48beb336-519a-11ea-af27-8f7772d1bc2d
48650c28-519a-11ea-8eba-935170bc961c,48bec628-519a-11ea-a19b-8ff9d0ccfd91
487a651e-519a-11ea-9977-0f206e949178,48bee7de-519a-11ea-9f34-0f0d43e4fedf
4842a2a0-519a-11ea-b790-03605792cff2,48bf0a3e-519a-11ea-b18c-9309646592ae
48a1e3c8-519a-11ea-a75d-a790d810fa11,48bf8950-519a-11ea-a21b-a75db35d7deb
484c1a06-519a-11ea-a607-8b2021d4b785,48bfa5ca-519a-11ea-bdec-1f97d92a405f
488308b8-519a-11ea-aae9-1f5d5dc3768d,48bfbd62-519a-11ea-9f8d-cb230fc33164
48704bd8-519a-11ea-abde-e78ce438d9dd,48bfcc44-519a-11ea-b90a-47de87e05757
486abc86-519a-11ea-ade2-3735d7fe4220,48c0bb18-519a-11ea-8e45-67c7b7685c7a
486834d4-519a-11ea-8bb9-7be20232491a,48c0a222-519a-11ea-b638-6fd0d891e8c2
487ea7dc-519a-11ea-82d2-df30aebc6b1f,48c0ccfc-519a-11ea-a7dc-abf8642e5185
48445212-519a-11ea-9e3d-e34ba771d3a8,48c0ec8c-519a-11ea-b5b9-cbfda02cefb7
488f68f6-519a-11ea-92d0-537d2924f621,48c18138-519a-11ea-ad05-8b3e6fbc9aa1
4863a7e8-519a-11ea-ace9-5b4596e2e78b,48c1b270-519a-11ea-bd5e-d71e0b3b5306
48b3a3c4-519a-11ea-802e-e3ca62ed3e9e,48c1c080-519a-11ea-ad78-5bd0002dfa12
48644de2-519a-11ea-b694-9b2f907dcc6f,48c23484-519a-11ea-93f7-93cb8254e694
48bee7de-519a-11ea-9f34-0f0d43e4fedf,48c29514-519a-11ea-b8ec-d357a818d546
487f9462-519a-11ea-b0f5-e72d065930ba,48c2aaea-519a-11ea-a0ae-2be464f027a2
48a974da-519a-11ea-9643-d34955c82ca9,48c2d6aa-519a-11ea-91f9-3be69cbbad00
487a595c-519a-11ea-b224-0324009a92b3,48c2e7f8-519a-11ea-a50e-cb6f1c7976c9
4847755a-519a-11ea-9abf-d767e6b5444a,48c33d70-519a-11ea-8ffc-a730f1ad1664
48a85028-519a-11ea-8966-9bad190b5072,48c3657a-519a-11ea-9c7f-cbec38980558
4860e134-519a-11ea-896c-eb4b970c73da,48c383fc-519a-11ea-b724-a3cd9683b030
48a3b63a-519a-11ea-9abf-eb77d0b1a2c8,48c40d18-519a-11ea-80fd-0b72373ef6a9
48adc7ba-519a-11ea-a0af-4f2a06136132,48c469c0-519a-11ea-9aae-eb748542c981
4884728e-519a-11ea-a9ec-d7638660dd28,48c49cb0-519a-11ea-bdd7-0347da0031e7
486834d4-519a-11ea-8bb9-7be20232491a,48c4ab74-519a-11ea-b092-3b7722285af4
48a5cf2e-519a-11ea-b700-a37428ac581f,48c4ed46-519a-11ea-9445-7fef71de4bf1
4873b0ac-519a-11ea-8e9b-a73699ff8892,48c56172-519a-11ea-9f38-8b34ee54c27b
486a967a-519a-11ea-917f-2fcad34a4dee,48c5501a-519a-11ea-a4a6-07faca4ead8d
48b44676-519a-11ea-9451-3732315e22bf,48c5baf0-519a-11ea-a3dc-cf22a930504c
489baf12-519a-11ea-9090-a74d0aaaf7e4,48c5e340-519a-11ea-89c9-ef2ce77e8d53
489ca106-519a-11ea-9b54-a3ea5e51d0d5,48c63c6e-519a-11ea-be8e-eb0d2a0130b2
4885380e-519a-11ea-90a4-ff1f098cc171,48c67abc-519a-11ea-83f9-7f2a0eaac93b
484e803e-519a-11ea-8d7c-bfb1f74dc418,48c6a37a-519a-11ea-b806-f73ed3b6bdc2
4869e28e-519a-11ea-b4de-33cf168cb362,48c6d0d4-519a-11ea-b82b-530232b33949
48493804-519a-11ea-8843-039a8daa1385,48c715b2-519a-11ea-81b4-c783b9a0a75f
4843879c-519a-11ea-9c8b-27eeb663cf51,48c76986-519a-11ea-a911-3be04108fdbe
484d9d7c-519a-11ea-8aa9-e70019981e1f,48c7cfa2-519a-11ea-84a5-dffabc225d5c
4893470a-519a-11ea-962b-27ea777c19f7,48c80b48-519a-11ea-b1b0-cb23d1155bc3
48c383fc-519a-11ea-b724-a3cd9683b030,48c83a5a-519a-11ea-8ef9-cb9347a0f1c2
487036ca-519a-11ea-a886-1f8a0ced465f,48c82a4c-519a-11ea-a6e5-73144dcc8258
489e079e-519a-11ea-9207-73e6814372ec,48c8bf02-519a-11ea-8617-db3378331fc0
486948ce-519a-11ea-bc26-3b1b4d0dbbab,48c8cbf0-519a-11ea-b78a-5f5c4ee2891d
487490bc-519a-11ea-a7ec-73101306c5f4,48c8fd82-519a-11ea-8c4b-a741ba25ca8e
48952d90-519a-11ea-9366-134d50032287,48c8fddc-519a-11ea-9d93-670a1aac3090
48822272-519a-11ea-8c0e-d7cc32a15188,48c98cd4-519a-11ea-b4df-efe747733dc8
48550634-519a-11ea-95fe-a7b57f5b1680,48c9dd4c-519a-11ea-bd13-73c8bc009cf0
48c0ccfc-519a-11ea-a7dc-abf8642e5185,48c9f8e0-519a-11ea-b01f-ff8ab260d0bc
4853bf90-519a-11ea-b614-bbebfb1da7ee,48ca59ca-519a-11ea-98b5-3754fa612eb3
48799512-519a-11ea-99e4-d3bf915437da,48ca7a18-519a-11ea-bcae-e734aab67d49
487e2870-519a-11ea-a3ba-cf7b08bbee3c,48cacbc6-519a-11ea-82e3-4fab23c99f1c
4875cfcc-519a-11ea-90ed-3b5ca9282b2f,48cae1c4-519a-11ea-b2cf-37714115912f
48c7cfa2-519a-11ea-84a5-dffabc225d5c,48cb889a-519a-11ea-b02d-8fcfcbc21a7b
4854a5ea-519a-11ea-91ec-ab14175cbb6c,48cbbe14-519a-11ea-9ba5-ffdfac015d49
4898444e-519a-11ea-83a8-affc2a7b6234,48cbd2aa-519a-11ea-b1c9-830c0f773209
487d31b8-519a-11ea-bc16-f7c09098e8c7,48cbe2cc-519a-11ea-80dd-dfc1c6791080
48b79b96-519a-11ea-b511-4f3a0c0529a7,48cc3362-519a-11ea-83d4-8bda5284b2d8
48b2b27a-519a-11ea-aa8b-6b1d5cd5ad6c,48cd0c1a-519a-11ea-b0f2-ab737f7a0dbc
48728bc8-519a-11ea-8f9e-731faac962b3,48cd2286-519a-11ea-b8bd-0327686a04e3
484bb3f4-519a-11ea-9035-1758404ef3ab,48cd3974-519a-11ea-91fc-a35ca0fcf987
48767efe-519a-11ea-b585-03243cc60a14,48cd5cd8-519a-11ea-8270-4b02cd6260f9
48445212-519a-11ea-9e3d-e34ba771d3a8,48cde338-519a-11ea-9879-d75fd0615802
48b79b96-519a-11ea-b511-4f3a0c0529a7,48cdf486-519a-11ea-8601-2b5dbb9457bb
48c83a5a-519a-11ea-8ef9-cb9347a0f1c2,48ce0b74-519a-11ea-ad08-27c8ed41deb8
48543862-519a-11ea-83a1-dbaae1b48551,48ce1fec-519a-11ea-80b9-37dba08f2c89
48b59cd8-519a-11ea-8818-a307cf86a784,48cef0fc-519a-11ea-b730-531ae6fdcb88
4885a000-519a-11ea-892f-bbd87b693634,48cf144c-519a-11ea-83cb-0f081608b7da
4884c84c-519a-11ea-9830-9bebdd0351f2,48cf0326-519a-11ea-ba19-4bcdd161fdd2
48999e98-519a-11ea-bd18-3f0a43ca270f,48cf3792-519a-11ea-8fc1-afd6a52672f8
48c63c6e-519a-11ea-be8e-eb0d2a0130b2,48cfd828-519a-11ea-ad1b-4f682b0c4ef5
4880fea6-519a-11ea-977f-1783fdf80ed1,48cfeb6a-519a-11ea-bf07-775751e8fc4e
48525e7a-519a-11ea-96f1-17d679127bc2,48cfff9c-519a-11ea-af67-bfa2aaa66c6a
486a1ee8-519a-11ea-a70c-aba84fd4d484,48d00f82-519a-11ea-b271-e79679c14190
485f4f22-519a-11ea-8c3e-eb30213a9074,48d0d84a-519a-11ea-8d96-c7fc3164975e
485c37e2-519a-11ea-9dc4-27deaa7f7476,48d0ed94-519a-11ea-a32d-0f00e0c502d1
485a9d4c-519a-11ea-9af2-a3f0849bb84a,48d10608-519a-11ea-9a98-13f305c60a66
485a3898-519a-11ea-a644-93dc709aa154,48d11e0e-519a-11ea-a2a5-b34627f5b234
48910ca6-519a-11ea-af5d-b797ede9861d,48d1c53e-519a-11ea-9e6b-1bf61953946a
48726e68-519a-11ea-9f25-ab5923108ce0,48d1d614-519a-11ea-8784-ff07f7505519
486e41ee-519a-11ea-9148-0b38e69a56e7,48d1e60e-519a-11ea-891f-6ff56fd02797
48a217f8-519a-11ea-872e-a724d1759364,48d1f810-519a-11ea-aed8-a787bd9ead87
48c6a37a-519a-11ea-b806-f73ed3b6bdc2,48d2828a-519a-11ea-a264-e328fd665316
4892b1f0-519a-11ea-b569-f3f72f5d3068,48d2a97c-519a-11ea-9465-e7cfde889770
485e1e72-519a-11ea-82a8-c3b4278a7a64,48d31e70-519a-11ea-9781-2f46afa38edd
48cbd2aa-519a-11ea-b1c9-830c0f773209,48d337c0-519a-11ea-b04f-c799ba1fcf37
489f0824-519a-11ea-978a-eb1e544e994a,48d35624-519a-11ea-9bfd-7f2e10217d00
485b7f64-519a-11ea-a192-8ba8b3c5c3c8,48d3f08e-519a-11ea-b287-f310711c1494
48bfcc44-519a-11ea-b90a-47de87e05757,48d3ff52-519a-11ea-a37d-b398c6c8b96a
48839ce2-519a-11ea-9119-9b3d49ab4d5a,48d41226-519a-11ea-8329-3b12c8076275
4863778c-519a-11ea-a0a1-b7a5def7403c,48d46d20-519a-11ea-9efc-1bbed7b1e4ec
48bb9e4e-519a-11ea-b56e-f780f775e061,48d48440-519a-11ea-8803-17d8796259f2
48b853ec-519a-11ea-b268-43a38569e4d7,48d4a25e-519a-11ea-a9e8-43f721c01500
48aa42ac-519a-11ea-97ec-ffcf3e8b32e8,48d50b86-519a-11ea-ba5c-3310e60fda95
4858fd2a-519a-11ea-8a43-db656db7248c,48d53bc4-519a-11ea-a7ce-f342d7735e3e
48574cd2-519a-11ea-9459-b753740829de,48d548ee-519a-11ea-a9b5-0b3914d61f57
48d10608-519a-11ea-9a98-13f305c60a66,48d58a84-519a-11ea-b458-0ba5287a6f42
486d8f60-519a-11ea-b035-e31f8cb9ea13,48d614f4-519a-11ea-b620-7b130320a104
485da726-519a-11ea-8935-a7f301cc40c9,48d65504-519a-11ea-92b0-ab3c01fffbfd
48c1c080-519a-11ea-ad78-5bd0002dfa12,48d667ec-519a-11ea-b2e1-2f84f51ad195
484b0ab2-519a-11ea-88e0-93772147cfeb,48d6456e-519a-11ea-963f-1fb1cd2f8247
4865bfc4-519a-11ea-a772-b398749bd0f0,48d6efb4-519a-11ea-9d32-4f4833c669d9
489519f4-519a-11ea-a878-5bf1a09454c8,48d7042c-519a-11ea-a1de-8ba218ed0155
48b59cd8-519a-11ea-8818-a307cf86a784,48d711f6-519a-11ea-858c-1b2628bb13dd
4871e7cc-519a-11ea-a25c-c7d43c2e7d20,48d7239e-519a-11ea-8083-7b4fbc872274
485c9f3e-519a-11ea-ab23-9327fab45842,48d7c524-519a-11ea-83ac-ef0ceb5ef3ec
48822272-519a-11ea-8c0e-d7cc32a15188,48d7f31e-519a-11ea-9da2-9b1c145c8ae3
4847a660-519a-11ea-8f14-4f845140b890,48d8046c-519a-11ea-b8b1-8bdf7a8f8594
48c49cb0-519a-11ea-bdd7-0347da0031e7,48d83f90-519a-11ea-a71a-e79ded375108
485d1414-519a-11ea-9568-27adc794ed2c,48d893c8-519a-11ea-b7ea-e79511e3a012
484891d8-519a-11ea-be8b-537dd8870814,48d8a480-519a-11ea-97f6-7736f0a8b0b3
486948ce-519a-11ea-bc26-3b1b4d0dbbab,48d8cd98-519a-11ea-8d70-b7592dd197c7
48a6f48a-519a-11ea-8943-8315f2370669,48d93e90-519a-11ea-934b-d34f07fee0ee
487a595c-519a-11ea-b224-0324009a92b3,48d95646-519a-11ea-87f9-331705e4b132
48a4f900-519a-11ea-8204-6305a1a632f4,48d9c04a-519a-11ea-a1d4-57ac2b26d1db
4890cda4-519a-11ea-87f5-d3a1adee85d5,48da1c52-519a-11ea-ad81-235d10c05a8d
48d8046c-519a-11ea-b8b1-8bdf7a8f8594,48da2f80-519a-11ea-9188-9be40a6f9739
485955c2-519a-11ea-98b4-5b68f4c3e32f,48da7dc8-519a-11ea-8bb6-0b4ff5d3b613
48ad6d7e-519a-11ea-8173-e34d2763ba6b,48daa7bc-519a-11ea-a4ad-bbf192d79e92
48c469c0-519a-11ea-9aae-eb748542c981,48dad8a4-519a-11ea-993a-bfd75272715e
48692a60-519a-11ea-87b1-477408834921,48dafb54-519a-11ea-a5d3-e3a8caba5574
484554b4-519a-11ea-a95b-13678b7c2119,48db90be-519a-11ea-a5d0-432c95c94e02
4866d648-519a-11ea-bf04-fbd87656f2ec,48dba5b8-519a-11ea-8d3c-4fba3747c375
486680da-519a-11ea-a350-53ef9968aa6f,48dbb896-519a-11ea-9b67-e3b3f6881040
4843deae-519a-11ea-8019-77c2b5f00529,48dbebe0-519a-11ea-9852-7b34ee5e8920
485f06ca-519a-11ea-a5d7-0bfebde4b394,48dca062-519a-11ea-b1aa-37e1daef4a3e
487d2362-519a-11ea-bcf8-1f8bc8e76ec9,48dcb458-519a-11ea-8646-133699c130a5
4892fd22-519a-11ea-a372-438f2d44455c,48dcf1ca-519a-11ea-baab-c7ce9a319d83
485d94ca-519a-11ea-ad94-bf0cb3273fe8,48dd0426-519a-11ea-849c-97b4af2032c3
48c7cfa2-519a-11ea-84a5-dffabc225d5c,48dd9f1c-519a-11ea-aef0-b343b31643fc
4877cade-519a-11ea-81a6-ff157b08def1,48de0574-519a-11ea-b139-b72e5a27e9ec
487396c6-519a-11ea-9746-4bdc75f16140,48ddf3d6-519a-11ea-8dd3-2f67b77699b1
4898d116-519a-11ea-9d09-438efc884f1e,48de4354-519a-11ea-b112-6f941c223df4
48538e26-519a-11ea-bcdb-d75f61f5bf20,48def862-519a-11ea-8f05-e7403093bfaa
485f06ca-519a-11ea-a5d7-0bfebde4b394,48df0a6e-519a-11ea-8f7a-1fc91b516989
48d1d614-519a-11ea-8784-ff07f7505519,48df1e1e-519a-11ea-94e1-a7719e5b868d
48467506-519a-11ea-ae5d-4359e7d36ab6,48df32aa-519a-11ea-8dcf-97fcde24cc14
484d03bc-519a-11ea-9d07-7faa0ade89cb,48e03272-519a-11ea-bf88-738c5e410867
48d8a480-519a-11ea-97f6-7736f0a8b0b3,48e0479e-519a-11ea-bb3a-5fab30d9b9f7
48c2aaea-519a-11ea-a0ae-2be464f027a2,48e05978-519a-11ea-a283-6f506c1c004d
486657fe-519a-11ea-9c90-d72119977b7c,48e06ff8-519a-11ea-956b-838fb1c19981
4865a660-519a-11ea-adfa-0b5d1773b475,48e14de2-519a-11ea-bfba-4387fc825d89
484bb3f4-519a-11ea-9035-1758404ef3ab,48e13c3a-519a-11ea-9cc9-f311e8708416
48a85028-519a-11ea-8966-9bad190b5072,48e18906-519a-11ea-818c-4f157e20ccc5
48674510-519a-11ea-8119-43a462ae7b49,48e19af4-519a-11ea-adaa-8f141e975239
48689d2a-519a-11ea-b564-e7d1231e9875,48e1f116-519a-11ea-bf3a-33eb92bf0e60
4889cf40-519a-11ea-b884-43864b702cfc,48e214ca-519a-11ea-ab8b-d7d5e8e0ad3a
4891e68a-519a-11ea-a908-330f68be10a0,48e27ae6-519a-11ea-a576-47cfb301de11
48aeb184-519a-11ea-9f09-1369bb53056d,48e2a732-519a-11ea-a95e-9f03ad0e06a7
48882334-519a-11ea-bac6-cb416c08f7a0,48e2ddf6-519a-11ea-8167-fb419c52aed3
48532800-519a-11ea-82c5-e3f59094cee8,48e3af6a-519a-11ea-bac3-930b9021f185
487e3d38-519a-11ea-b905-db0ac92d738a,48e3baf0-519a-11ea-a310-9328b351f65a
489f0824-519a-11ea-978a-eb1e544e994a,48e423c8-519a-11ea-9e1d-139171784704
48641d7c-519a-11ea-b474-f3906ac29f24,48e44eac-519a-11ea-9991-e7b2651bd00b
4882a42c-519a-11ea-969a-8b4e3e043bea,48e46518-519a-11ea-8e4a-cf53a9556efd
485fff94-519a-11ea-8930-533a62926a5b,48e48138-519a-11ea-8e74-ebafd38db859
48691ba6-519a-11ea-8729-7f41574109c0,48e52ad4-519a-11ea-a9cf-f37a2c1abdf9
487b5f1e-519a-11ea-8c3d-3beffc56bbab,48e540aa-519a-11ea-8783-cfbca6f6601e
48aeb184-519a-11ea-9f09-1369bb53056d,48e559aa-519a-11ea-bc59-efa8726914cf
4859a8e2-519a-11ea-afff-63c8aa962ff2,48e5dbaa-519a-11ea-8166-63bfa548e01f
4844cae4-519a-11ea-9b53-dbc537ea2b4a,48e60d64-519a-11ea-b42b-9bd59e812527
48cde338-519a-11ea-9879-d75fd0615802,48e63078-519a-11ea-ba45-6b5adc4c04f1
484891d8-519a-11ea-be8b-537dd8870814,48e69afe-519a-11ea-b208-b74ccb7ff990
489e079e-519a-11ea-9207-73e6814372ec,48e6bed0-519a-11ea-8a8e-dbb40845c591
48566fd8-519a-11ea-a412-035915a04538,48e70a0c-519a-11ea-ac41-f303cd4efab7
486657fe-519a-11ea-9c90-d72119977b7c,48e764ac-519a-11ea-a502-33a6c85dd28f
487ee152-519a-11ea-b902-6721d28ec2a8,48e7ef62-519a-11ea-b7d2-a71b8a61fbb5
48d83f90-519a-11ea-a71a-e79ded375108,48e80268-519a-11ea-a975-dfee527b6fbb
48538e26-519a-11ea-bcdb-d75f61f5bf20,48e80fce-519a-11ea-814c-5febde85caf7
48865e64-519a-11ea-8665-f72a53c68842,48e849a8-519a-11ea-8baa-0b63d534d191
48cbbe14-519a-11ea-9ba5-ffdfac015d49,48e8cd6a-519a-11ea-8140-cb8221175e88
48b33236-519a-11ea-98fc-2ffe4bbda982,48e8f57e-519a-11ea-b967-934bcdf3d853
4885a000-519a-11ea-892f-bbd87b693634,48e8de90-519a-11ea-a8ae-8b6561ae448c
485a9d4c-519a-11ea-9af2-a3f0849bb84a,48e90456-519a-11ea-9898-43850fb7bee0
487396c6-519a-11ea-9746-4bdc75f16140,48e9b8c4-519a-11ea-8200-1fe12ab9d257
489b1584-519a-11ea-b873-bbd3f6de8c45,48e9cd32-519a-11ea-80ab-a7c023ae05d6
48544276-519a-11ea-a8cb-b38946b24678,48e9e628-519a-11ea-9ff1-eb889d296ac3
484f0a90-519a-11ea-af7b-dbc83701520e,48ea0cb6-519a-11ea-8878-4fc1c1579c4c
4878a8c8-519a-11ea-b192-2ffd4f093ba1,48eaaf36-519a-11ea-a6fd-d3d70c7daf69
48b90792-519a-11ea-a5af-b3f6cfe4a5ce,48eac3fe-519a-11ea-a651-0f59b1838954
486657fe-519a-11ea-9c90-d72119977b7c,48eb0c38-519a-11ea-b6cf-4b7f2671cb9d
488f68f6-519a-11ea-92d0-537d2924f621,48eb1cc8-519a-11ea-a4fc-377d251b2f56
48839ce2-519a-11ea-9119-9b3d49ab4d5a,48eb52f6-519a-11ea-a45c-3ba9d79c260f
485f64b2-519a-11ea-b2e0-5f2e28bb3eec,48ebba98-519a-11ea-b3a5-7315a8eee9c7
486e2ae2-519a-11ea-a02f-1f0a51a78cc6,48eba45e-519a-11ea-b619-1b7f40421528
48c33d70-519a-11ea-8ffc-a730f1ad1664,48ec3464-519a-11ea-8316-37bbe4eb97e5
48807314-519a-11ea-9f3d-0fc33509eebc,48ec6704-519a-11ea-8e6f-afcc3b842b00
48d83f90-519a-11ea-a71a-e79ded375108,48ecb196-519a-11ea-8b85-1343adbddaab
48998502-519a-11ea-84ef-c38eae06754f,48ecc776-519a-11ea-9c60-8397702c59f4
48aa5ff8-519a-11ea-ba9b-a33b1e54eda3,48ed39e0-519a-11ea-930a-7b8ff8c56570
487be1aa-519a-11ea-a470-db5e573fc32a,48ed9926-519a-11ea-afd6-bb0641a7b9a1
48d35624-519a-11ea-9bfd-7f2e10217d00,48edb488-519a-11ea-8831-97c6ac202204
48cd0c1a-519a-11ea-b0f2-ab737f7a0dbc,48edccf2-519a-11ea-8466-a386b20d37b3
4851c1ae-519a-11ea-8b55-6b5d67468055,48ee44e8-519a-11ea-b469-e7b25d13df35
486e2ae2-519a-11ea-a02f-1f0a51a78cc6,48ee8e12-519a-11ea-b9aa-0f80ca8d0a29
488b4a0a-519a-11ea-ab6f-236b4a69c791,48eeb40a-519a-11ea-ab37-87070a845f4b
487f22fc-519a-11ea-8d1d-d7dafd932e10,48eed71e-519a-11ea-abc7-6701946db742
48615506-519a-11ea-8192-dbbb37890a6d,48ef72a0-519a-11ea-9ab4-e3677d2b1e65
48cd5cd8-519a-11ea-8270-4b02cd6260f9,48ef865a-519a-11ea-92cb-07dbe17e9deb
4882a42c-519a-11ea-969a-8b4e3e043bea,48f00bd4-519a-11ea-98ee-2fa483829def
48eac3fe-519a-11ea-a651-0f59b1838954,48f06d68-519a-11ea-a304-9f960f00f143
489cdd2e-519a-11ea-aba0-df33167990b4,48f08294-519a-11ea-9a95-3385e442f20c
4899178e-519a-11ea-96b3-4bf8f6a6a60d,48f0dd16-519a-11ea-9a35-e3d5ea0d78b9
485010c0-519a-11ea-afb0-bf7abcf33f66,48f0ebc6-519a-11ea-95b4-a7868e69acf4
48c5baf0-519a-11ea-a3dc-cf22a930504c,48f15174-519a-11ea-b871-dfb725204e72
487a651e-519a-11ea-9977-0f206e949178,48f19b66-519a-11ea-baea-5f1535a3c72c
48ac261c-519a-11ea-8ae4-9ba28c9919c9,48f1e1b6-519a-11ea-aa65-e7b8f65f4160
485c37e2-519a-11ea-9dc4-27deaa7f7476,48f1ee54-519a-11ea-a42c-ef2592991a31
48d35624-519a-11ea-9bfd-7f2e10217d00,48f25c36-519a-11ea-8d04-574eb2c10bfd
4884b672-519a-11ea-b3ec-236a0cab861f,48f293f4-519a-11ea-9a99-cba90c5da8e4
4851811c-519a-11ea-b3a3-c78e13a82493,48f2af10-519a-11ea-a527-b7a92d95e182
48eaaf36-519a-11ea-a6fd-d3d70c7daf69,48f2dcec-519a-11ea-8e74-ff5904e9224d
48c9f8e0-519a-11ea-b01f-ff8ab260d0bc,48f3ead8-519a-11ea-afc4-bf5d7d3c9078
48cc3362-519a-11ea-83d4-8bda5284b2d8,48f3fc4e-519a-11ea-9f24-b7ca7c3a3983
484944a2-519a-11ea-b1c7-43dc01b812dd,48f40cfc-519a-11ea-aab1-77d4650d62ed
484e60ae-519a-11ea-8ef0-072aef35ee07,48f41f62-519a-11ea-982c-47fe30d5cc97
48844bc4-519a-11ea-8256-379dbcb924c8,48f4e00a-519a-11ea-9773-93b896cd4fc8
48c4ed46-519a-11ea-9445-7fef71de4bf1,48f4fdd8-519a-11ea-8452-e3085d01e48a
48cacbc6-519a-11ea-82e3-4fab23c99f1c,48f50ce2-519a-11ea-9706-23c8d9e6d5ab
48483468-519a-11ea-8e7f-0b6475fa5255,48f596c6-519a-11ea-8eed-7febeedfe3a0
48d3ff52-519a-11ea-a37d-b398c6c8b96a,48f5ee00-519a-11ea-97d7-87935a9cff56
484a144a-519a-11ea-abe8-837049805378,48f62be0-519a-11ea-90f7-33f0499a0a3a
486db274-519a-11ea-a338-233e032bf3f6,48f66772-519a-11ea-99a3-33033e86fa20
4894f384-519a-11ea-b18d-af010841b70f,48f6a53e-519a-11ea-941a-d3832b480751
484a3326-519a-11ea-a3bd-a78f36bca3b2,48f703c6-519a-11ea-8dc7-6bd53629b36e
48e80268-519a-11ea-a975-dfee527b6fbb,48f743f4-519a-11ea-a372-c3cf710e531d
48d7239e-519a-11ea-8083-7b4fbc872274,48f7572c-519a-11ea-8698-afe3d591e268
4863e096-519a-11ea-a0e9-aba766d5c095,48f7a7b8-519a-11ea-a89a-8f94b1f7d421
485010c0-519a-11ea-afb0-bf7abcf33f66,48f80e42-519a-11ea-b519-674b188bed14
48c2aaea-519a-11ea-a0ae-2be464f027a2,48f82d1e-519a-11ea-a0fb-cfa713dd073e
48b66ee2-519a-11ea-801d-e36a45ba6aca,48f85050-519a-11ea-9902-d3b38c7d6761
48940f0a-519a-11ea-947d-d3bb9eaba543,48f8a2ee-519a-11ea-a91c-77a65778f6c3
4885538e-519a-11ea-90c6-eb02247df670,48f8d368-519a-11ea-a3c9-d3255982fd68
484f845c-519a-11ea-a627-8f5a8e689bf4,48f8f58c-519a-11ea-843a-5faf591ca8f9
487e2870-519a-11ea-a3ba-cf7b08bbee3c,48f92aa2-519a-11ea-b55f-67d697bb000c
48b3a3c4-519a-11ea-802e-e3ca62ed3e9e,48f9b6c0-519a-11ea-98b9-3b6a13d7f20b
48bd609e-519a-11ea-a076-eb77abf92f4c,48f9e4d8-519a-11ea-a653-83f0334c03c9
48a77d24-519a-11ea-a5fd-3f7d944809d6,48fa3e1a-519a-11ea-816d-275974d75968
486fa5ca-519a-11ea-b000-b3eabb4a6779,48fa7376-519a-11ea-81d9-ef7fbfedf8a6
485478a4-519a-11ea-bcc7-73cd6f1dc572,48fae9f0-519a-11ea-b6c2-972fd6fa4fd8
4894b856-519a-11ea-a431-775048eb71fd,48faf90e-519a-11ea-a60a-bb250424d23f
48484606-519a-11ea-869c-f756e0f83f7e,48fb1f60-519a-11ea-9d97-c7ec5b24567a
488fcbfc-519a-11ea-b4bc-e3b2f3d0d13c,48fb9ab2-519a-11ea-8c3c-73fc1a985562
48d31e70-519a-11ea-9781-2f46afa38edd,48fbe620-519a-11ea-9395-3f670a0f64c3
48d83f90-519a-11ea-a71a-e79ded375108,48fbf340-519a-11ea-874a-5fb024a445f9
4878bafc-519a-11ea-ad70-f3a5d433d3da,48fc2630-519a-11ea-8124-b79a25840a6a
48e9cd32-519a-11ea-80ab-a7c023ae05d6,48fc3cec-519a-11ea-b7c2-3370074b0bf8
4853bf90-519a-11ea-b614-bbebfb1da7ee,48fcf416-519a-11ea-99d5-8b8b9b898fe4
4873f706-519a-11ea-9961-9f27b6a3517b,48fd271a-519a-11ea-9055-4b93bc3ad518
48a3b63a-519a-11ea-9abf-eb77d0b1a2c8,48fd3ee4-519a-11ea-8d9d-7708c57d5ec5
4849a74e-519a-11ea-8f85-df9d5bf64f7f,48fd643c-519a-11ea-b83f-a38fbd3eb438
4858e1fa-519a-11ea-bff2-13dd0f95d62a,48fdc742-519a-11ea-b325-a70240610226
48d41226-519a-11ea-8329-3b12c8076275,48fdfaf0-519a-11ea-b402-1be25e590686
48728bc8-519a-11ea-8f9e-731faac962b3,48fe2336-519a-11ea-8ae6-8f40caf7baf0
4880600e-519a-11ea-b3cc-8f47c06373a1,48fe70de-519a-11ea-9903-f3f91c430622
489835c6-519a-11ea-b909-c7441a0f512b,48feeb9a-519a-11ea-ac87-5fcc349cb27b
484d6a50-519a-11ea-ad3d-7b77fa370762,48ff060c-519a-11ea-8c43-7bf02f9de391
487a651e-519a-11ea-9977-0f206e949178,48ff2538-519a-11ea-94ca-b779fb05395e
48beb336-519a-11ea-af27-8f7772d1bc2d,48ff594a-519a-11ea-ae97-bf381c2bcca3
