RunID,Agent,Age,Created,Inactive,Resources,Reputation,Ability,Que
run-2020-2-18-13-46-10.376940965,AGENT#057ee580-5255-11ea-8c2b-6fffdb47f0bb,0,0,0,10,1.0,1.0,0
run-2020-2-18-13-46-10.376940965,AGENT#057ef8fe-5255-11ea-9fa4-77e0b057c36e,0,0,0,10,1.0,1.0,0
run-2020-2-18-13-46-10.376940965,AGENT#057efeee-5255-11ea-afa9-932ef7c6bf33,0,0,0,10,1.0,1.0,0
run-2020-2-18-13-46-10.376940965,AGENT#057ee8e6-5255-11ea-b12c-d77230555439,1,0,1,10,1.0,1.0,0
run-2020-2-18-13-46-10.376940965,AGENT#057ef2f0-5255-11ea-90a0-a7478921bf62,1,0,1,10,1.0,1.0,0
run-2020-2-18-13-46-10.376940965,AGENT#057f3e0e-5255-11ea-ad50-13ae0b6810f0,1,0,1,10,1.0,1.0,0
run-2020-2-18-13-46-10.376940965,AGENT#057f441c-5255-11ea-b363-0fe2a1a388f2,1,0,1,10,1.0,1.0,0
run-2020-2-18-13-46-10.376940965,AGENT#057ef606-5255-11ea-98e9-8740b51192ba,2,0,2,10,1.0,1.0,0
run-2020-2-18-13-46-10.376940965,AGENT#057fcf22-5255-11ea-8ada-833edd9e3b90,1,1,2,10,1.0,1.0,0
run-2020-2-18-13-46-10.376940965,AGENT#057eefc6-5255-11ea-aadf-2798fa160bff,3,0,3,10,1.0,1.0,0
run-2020-2-18-13-46-10.376940965,AGENT#057eec74-5255-11ea-8929-ff395accb4bf,4,0,4,10,1.0,1.0,0
run-2020-2-18-13-46-10.376940965,AGENT#0580c44a-5255-11ea-9939-43dcf84fadbf,1,4,5,10,1.0,1.0,0
run-2020-2-18-13-46-10.376940965,AGENT#05802f1c-5255-11ea-b96d-8bb8389400b0,4,2,6,10,1.0,1.0,0
run-2020-2-18-13-46-10.376940965,AGENT#05812cbe-5255-11ea-b10b-3f21d235d95d,1,6,7,10,1.0,1.0,0
run-2020-2-18-13-46-10.376940965,AGENT#0580f898-5255-11ea-a6a4-ab38b10d5931,3,5,8,10,1.0,1.0,0
run-2020-2-18-13-46-10.376940965,AGENT#058129c6-5255-11ea-bec1-872030e1cfcb,2,6,8,10,1.0,1.0,0
run-2020-2-18-13-46-10.376940965,AGENT#05812340-5255-11ea-9b5c-97d443f4d7ee,3,6,9,10,1.0,1.0,0
run-2020-2-18-13-46-10.376940965,AGENT#05815c5c-5255-11ea-9764-b7fbd40532c0,2,7,9,10,1.0,1.0,0
run-2020-2-18-13-46-10.376940965,AGENT#0581a8ec-5255-11ea-8828-6f5b9a2ef198,1,8,9,10,1.0,1.0,0
run-2020-2-18-13-46-10.376940965,AGENT#0581e910-5255-11ea-bc1c-17ea8e4d3b87,1,9,10,10,1.0,1.0,0
run-2020-2-18-13-46-10.376940965,AGENT#058126b0-5255-11ea-b31e-d3d58b4dd940,5,6,11,10,1.0,1.0,0
run-2020-2-18-13-46-10.376940965,AGENT#05815f5e-5255-11ea-bc43-8798a40de2c6,4,7,11,10,1.0,1.0,0
run-2020-2-18-13-46-10.376940965,AGENT#0581a28e-5255-11ea-ae3a-53e7feedc10c,3,8,11,10,1.0,1.0,0
run-2020-2-18-13-46-10.376940965,AGENT#0581abee-5255-11ea-b31e-b71b70b5e89a,3,8,11,10,1.0,1.0,0
run-2020-2-18-13-46-10.376940965,AGENT#0581efaa-5255-11ea-a0a8-d33d65cadf5a,2,9,11,10,1.0,1.0,0
run-2020-2-18-13-46-10.376940965,AGENT#05816256-5255-11ea-84a2-3ff8f50fe732,5,7,12,10,1.0,1.0,0
run-2020-2-18-13-46-10.376940965,AGENT#0581ec4e-5255-11ea-87b9-831f1de3010a,3,9,12,10,1.0,1.0,0
run-2020-2-18-13-46-10.376940965,AGENT#0581f2d4-5255-11ea-9d0e-4b157446a79e,3,9,12,10,1.0,1.0,0
run-2020-2-18-13-46-10.376940965,AGENT#0582342e-5255-11ea-b898-33e1cd06ae29,2,10,12,10,1.0,1.0,0
run-2020-2-18-13-46-10.376940965,AGENT#05827556-5255-11ea-add6-f74d10fe5d14,1,11,12,10,1.0,1.0,0
run-2020-2-18-13-46-10.376940965,AGENT#05823096-5255-11ea-b77f-6390f9099ea4,3,10,13,10,1.0,1.0,0
run-2020-2-18-13-46-10.376940965,AGENT#0582371c-5255-11ea-a594-2fbe3d13e256,3,10,13,10,1.0,1.0,0
run-2020-2-18-13-46-10.376940965,AGENT#0582b05c-5255-11ea-abe1-9ff2ce883979,2,12,14,10,1.0,1.0,0
run-2020-2-18-13-46-10.376940965,AGENT#05832f64-5255-11ea-bbf5-834a2cc3853b,2,14,16,10,1.0,1.0,0
run-2020-2-18-13-46-10.376940965,AGENT#058381f8-5255-11ea-b5ab-b71fb5bc63d7,1,15,16,10,1.0,1.0,0
run-2020-2-18-13-46-10.376940965,AGENT#05833586-5255-11ea-8467-6f78d961b8eb,3,14,17,10,1.0,1.0,0
run-2020-2-18-13-46-10.376940965,AGENT#05842ff4-5255-11ea-b2aa-cb0ba9c771dc,1,17,18,10,1.0,1.0,0
run-2020-2-18-13-46-10.376940965,AGENT#05847d7e-5255-11ea-96e2-7bed60d584c6,1,18,19,10,1.0,1.0,0
run-2020-2-18-13-46-10.376940965,AGENT#058482e2-5255-11ea-8caf-874fa8a89361,1,18,19,10,1.0,1.0,0
run-2020-2-18-13-46-10.376940965,AGENT#05848030-5255-11ea-a41c-f3e9954ccc88,2,18,20,10,1.0,1.0,0
run-2020-2-18-13-46-10.376940965,AGENT#0584e3b8-5255-11ea-b46e-e74c4abac445,1,19,20,10,1.0,1.0,0
run-2020-2-18-13-46-10.376940965,AGENT#0584e67e-5255-11ea-87c7-33206731a4fb,1,19,20,10,1.0,1.0,0
run-2020-2-18-13-46-10.376940965,AGENT#05842716-5255-11ea-996c-a7315686c6d6,4,17,21,10,1.0,1.0,0
run-2020-2-18-13-46-10.376940965,AGENT#05842a68-5255-11ea-94b6-0b1b1e2be837,4,17,21,10,1.0,1.0,0
run-2020-2-18-13-46-10.376940965,AGENT#058477ac-5255-11ea-9d89-9b9bc3279af2,3,18,21,10,1.0,1.0,0
run-2020-2-18-13-46-10.376940965,AGENT#05847ab8-5255-11ea-b74d-37882818abaa,3,18,21,10,1.0,1.0,0
run-2020-2-18-13-46-10.376940965,AGENT#0584e08e-5255-11ea-bdb7-937f78f8b38f,2,19,21,10,1.0,1.0,0
run-2020-2-18-13-46-10.376940965,AGENT#05841e2e-5255-11ea-aa8a-5bedca3e5e29,5,17,22,10,1.0,1.0,0
run-2020-2-18-13-46-10.376940965,AGENT#05808728-5255-11ea-b16c-8b01fd554c0a,20,3,23,10,1.0,1.0,0
run-2020-2-18-13-46-10.376940965,AGENT#0585a974-5255-11ea-b229-2795fe563e39,2,21,23,10,1.0,1.0,0
run-2020-2-18-13-46-10.376940965,AGENT#058656d0-5255-11ea-881d-b387618d1781,1,23,24,10,1.0,1.0,0
run-2020-2-18-13-46-10.376940965,AGENT#05865cac-5255-11ea-b804-77aad655c5b3,1,23,24,10,1.0,1.0,0
run-2020-2-18-13-46-10.376940965,AGENT#05866224-5255-11ea-a92f-e71187fa4748,1,23,24,10,1.0,1.0,0
run-2020-2-18-13-46-10.376940965,AGENT#05853e26-5255-11ea-9964-83758f67a189,5,20,25,10,1.0,1.0,0
run-2020-2-18-13-46-10.376940965,AGENT#0585a06e-5255-11ea-8288-bb59708c20ad,4,21,25,10,1.0,1.0,0
run-2020-2-18-13-46-10.376940965,AGENT#05865f5e-5255-11ea-bb33-7bc4e6d74861,2,23,25,10,1.0,1.0,0
run-2020-2-18-13-46-10.376940965,AGENT#058664ea-5255-11ea-aa9e-d34703fed9e3,3,23,26,10,1.0,1.0,0
run-2020-2-18-13-46-10.376940965,AGENT#057efbf6-5255-11ea-8131-db70c7ba8fe9,27,0,27,10,1.0,1.0,0
run-2020-2-18-13-46-10.376940965,AGENT#0586bed6-5255-11ea-b72b-0b7fd3f375a1,4,24,28,10,1.0,1.0,0
run-2020-2-18-13-46-10.376940965,AGENT#0587ddca-5255-11ea-bc25-63bd62a2d72b,1,27,28,10,1.0,1.0,0
run-2020-2-18-13-46-10.376940965,AGENT#0587e14e-5255-11ea-9c74-b34f913b976a,1,27,28,10,1.0,1.0,0
run-2020-2-18-13-46-10.376940965,AGENT#05884c88-5255-11ea-8142-b344be54ab98,1,28,29,10,1.0,1.0,0
run-2020-2-18-13-46-10.376940965,AGENT#0587e48c-5255-11ea-a961-7762db12c494,3,27,30,10,1.0,1.0,0
run-2020-2-18-13-46-10.376940965,AGENT#0588a89a-5255-11ea-aded-6b2e20f80954,1,29,30,10,1.0,1.0,0
run-2020-2-18-13-46-10.376940965,AGENT#0588ab9c-5255-11ea-99fb-6b32e0906f6b,2,29,31,10,1.0,1.0,0
run-2020-2-18-13-46-10.376940965,AGENT#0589115e-5255-11ea-a4a1-9f786eb19290,1,30,31,10,1.0,1.0,0
run-2020-2-18-13-46-10.376940965,AGENT#0589199c-5255-11ea-9ec0-c7595fb1f33b,1,30,31,10,1.0,1.0,0
run-2020-2-18-13-46-10.376940965,AGENT#05891eba-5255-11ea-907f-7bf10e0aace6,1,30,31,10,1.0,1.0,0
run-2020-2-18-13-46-10.376940965,AGENT#0588b132-5255-11ea-a581-c729913e7257,3,29,32,10,1.0,1.0,0
run-2020-2-18-13-46-10.376940965,AGENT#0588ae76-5255-11ea-9a76-a3f0ae2bf2b0,4,29,33,10,1.0,1.0,0
run-2020-2-18-13-46-10.376940965,AGENT#05891456-5255-11ea-8227-072bdbeda7b0,3,30,33,10,1.0,1.0,0
run-2020-2-18-13-46-10.376940965,AGENT#05898d0a-5255-11ea-84ca-8bbed1d57ad1,2,31,33,10,1.0,1.0,0
run-2020-2-18-13-46-10.376940965,AGENT#0589fc68-5255-11ea-a119-ff4b10d12319,1,32,33,10,1.0,1.0,0
run-2020-2-18-13-46-10.376940965,AGENT#05898a76-5255-11ea-b19f-83815ee84a8e,3,31,34,10,1.0,1.0,0
run-2020-2-18-13-46-10.376940965,AGENT#058a0488-5255-11ea-a8fe-1bfd1e343ca5,2,32,34,10,1.0,1.0,0
run-2020-2-18-13-46-10.376940965,AGENT#058916f4-5255-11ea-b543-975b83a897d5,5,30,35,10,1.0,1.0,0
run-2020-2-18-13-46-10.376940965,AGENT#058a073a-5255-11ea-9f25-c7fe8975e40f,3,32,35,10,1.0,1.0,0
run-2020-2-18-13-46-10.376940965,AGENT#058af79e-5255-11ea-a867-b3265a43d2c3,1,34,35,10,1.0,1.0,0
run-2020-2-18-13-46-10.376940965,AGENT#058b8074-5255-11ea-a424-ff0537e21b2f,1,35,36,10,1.0,1.0,0
run-2020-2-18-13-46-10.376940965,AGENT#058a01fe-5255-11ea-bce7-43fafed38a5a,5,32,37,10,1.0,1.0,0
run-2020-2-18-13-46-10.376940965,AGENT#058af0a0-5255-11ea-a125-6303c36805ac,3,34,37,10,1.0,1.0,0
run-2020-2-18-13-46-10.376940965,AGENT#058b82e0-5255-11ea-ad66-cfb18b6bf971,2,35,37,10,1.0,1.0,0
run-2020-2-18-13-46-10.376940965,AGENT#058b856a-5255-11ea-8d7b-a710087d8ec0,2,35,37,10,1.0,1.0,0
run-2020-2-18-13-46-10.376940965,AGENT#058bf0cc-5255-11ea-a32f-0f0accc862b8,1,36,37,10,1.0,1.0,0
run-2020-2-18-13-46-10.376940965,AGENT#058af500-5255-11ea-9394-5b7f7c6fdecb,4,34,38,10,1.0,1.0,0
run-2020-2-18-13-46-10.376940965,AGENT#058b7d9a-5255-11ea-a082-f31fe6d8a56c,3,35,38,10,1.0,1.0,0
run-2020-2-18-13-46-10.376940965,AGENT#058afb90-5255-11ea-a1ac-27e57cb3aff0,5,34,39,10,1.0,1.0,0
run-2020-2-18-13-46-10.376940965,AGENT#058bfd38-5255-11ea-a655-638e1e4924ae,3,36,39,10,1.0,1.0,0
run-2020-2-18-13-46-10.376940965,AGENT#058b7b10-5255-11ea-bf60-e732a46ab9ff,5,35,40,10,1.0,1.0,0
run-2020-2-18-13-46-10.376940965,AGENT#058bfad6-5255-11ea-9046-83a84a89784d,4,36,40,10,1.0,1.0,0
run-2020-2-18-13-46-10.376940965,AGENT#058c06ca-5255-11ea-98af-4746b38c04a1,4,36,40,10,1.0,1.0,0
run-2020-2-18-13-46-10.376940965,AGENT#058bf86a-5255-11ea-866b-7f38e27cdb45,5,36,41,10,1.0,1.0,0
run-2020-2-18-13-46-10.376940965,AGENT#0585a3ca-5255-11ea-876e-1bb5d3a0bd21,21,21,42,10,1.0,1.0,0
run-2020-2-18-13-46-10.376940965,AGENT#058e5c2c-5255-11ea-bbb9-6f5b5d7e9186,1,41,42,10,1.0,1.0,0
run-2020-2-18-13-46-10.376940965,AGENT#058e63c0-5255-11ea-8f00-078c34320584,1,41,42,10,1.0,1.0,0
run-2020-2-18-13-46-10.376940965,AGENT#058d7690-5255-11ea-a0f2-cb7b1e002159,4,39,43,10,1.0,1.0,0
run-2020-2-18-13-46-10.376940965,AGENT#058edee0-5255-11ea-a0ff-d71c022b876c,1,42,43,10,1.0,1.0,0
run-2020-2-18-13-46-10.376940965,AGENT#058dec38-5255-11ea-afd8-4fa7a9390e41,4,40,44,10,1.0,1.0,0
run-2020-2-18-13-46-10.376940965,AGENT#058ee3ea-5255-11ea-9c73-e7242c174910,2,42,44,10,1.0,1.0,0
run-2020-2-18-13-46-10.376940965,AGENT#058f7e72-5255-11ea-8d81-d393377b1c3f,1,43,44,10,1.0,1.0,0
run-2020-2-18-13-46-10.376940965,AGENT#057ee166-5255-11ea-83d5-ffc96ffbfbcf,45,0,45,10,1.0,1.0,0
run-2020-2-18-13-46-10.376940965,AGENT#057f40fc-5255-11ea-add7-2346245e96f1,45,0,45,10,1.0,1.0,0
run-2020-2-18-13-46-10.376940965,AGENT#058540ec-5255-11ea-9037-b7b1813190b1,25,20,45,10,1.0,1.0,0
run-2020-2-18-13-46-10.376940965,AGENT#058f7b20-5255-11ea-a51f-df70b2a5765f,2,43,45,10,1.0,1.0,0
run-2020-2-18-13-46-10.376940965,AGENT#05901eb8-5255-11ea-b947-67dc23ef1b22,1,44,45,10,1.0,1.0,0
run-2020-2-18-13-46-10.376940965,AGENT#058e5ee8-5255-11ea-9b7f-abd44c1e5e5f,5,41,46,10,1.0,1.0,0
run-2020-2-18-13-46-10.376940965,AGENT#058ee17e-5255-11ea-b411-c7806cbbe860,5,42,47,10,1.0,1.0,0
run-2020-2-18-13-46-10.376940965,AGENT#058f8174-5255-11ea-badf-071981e35435,4,43,47,10,1.0,1.0,0
run-2020-2-18-13-46-10.376940965,AGENT#059134ce-5255-11ea-bf72-1792d05643db,1,46,47,10,1.0,1.0,0
run-2020-2-18-13-46-10.376940965,AGENT#0591ad6e-5255-11ea-979e-6329bd7e1c88,1,47,48,10,1.0,1.0,0
run-2020-2-18-13-46-10.376940965,AGENT#05929f58-5255-11ea-8204-43fb19f6e514,1,49,50,10,1.0,1.0,0
run-2020-2-18-13-46-10.376940965,AGENT#0580f55a-5255-11ea-b055-db6bc40606ef,46,5,51,10,1.0,1.0,0
run-2020-2-18-13-46-10.376940965,AGENT#0591aac6-5255-11ea-82da-1756b64ecfba,4,47,51,10,1.0,1.0,0
run-2020-2-18-13-46-10.376940965,AGENT#0591b20a-5255-11ea-81d5-7f53084f041f,4,47,51,10,1.0,1.0,0
run-2020-2-18-13-46-10.376940965,AGENT#05929d0a-5255-11ea-a510-ebd7e353f9c2,2,49,51,10,1.0,1.0,0
run-2020-2-18-13-46-10.376940965,AGENT#05815932-5255-11ea-a1ae-2ff09a0d7120,45,7,52,10,1.0,1.0,0
run-2020-2-18-13-46-10.376940965,AGENT#05838bf8-5255-11ea-a142-4b50f329c2db,37,15,52,10,1.0,1.0,0
run-2020-2-18-13-46-10.376940965,AGENT#05929814-5255-11ea-b065-6b405d8c249f,3,49,52,10,1.0,1.0,0
run-2020-2-18-13-46-10.376940965,AGENT#0593a038-5255-11ea-8ff6-abef8c5de41d,1,51,52,10,1.0,1.0,0
run-2020-2-18-13-46-10.376940965,AGENT#0581a5cc-5255-11ea-9b64-a75c7562d924,45,8,53,10,1.0,1.0,0
run-2020-2-18-13-46-10.376940965,AGENT#05929ab2-5255-11ea-bdf1-77aba45015d1,4,49,53,10,1.0,1.0,0
run-2020-2-18-13-46-10.376940965,AGENT#0593a9a2-5255-11ea-a248-235ad0f2df5f,2,51,53,10,1.0,1.0,0
run-2020-2-18-13-46-10.376940965,AGENT#059441aa-5255-11ea-b12e-8f3532a62844,1,52,53,10,1.0,1.0,0
run-2020-2-18-13-46-10.376940965,AGENT#05816882-5255-11ea-aea4-9fc797976cd1,47,7,54,10,1.0,1.0,0
run-2020-2-18-13-46-10.376940965,AGENT#0581f5ae-5255-11ea-9b2f-c343876edb45,45,9,54,10,1.0,1.0,0
run-2020-2-18-13-46-10.376940965,AGENT#0582ad46-5255-11ea-926f-437484077d80,42,12,54,10,1.0,1.0,0
run-2020-2-18-13-46-10.376940965,AGENT#059445a6-5255-11ea-97e3-271e763345bc,2,52,54,10,1.0,1.0,0
run-2020-2-18-13-46-10.376940965,AGENT#0594fea6-5255-11ea-bdd2-cbee20dc2317,1,53,54,10,1.0,1.0,0
run-2020-2-18-13-46-10.376940965,AGENT#05816562-5255-11ea-bee3-bb24c95592e3,48,7,55,10,1.0,1.0,0
run-2020-2-18-13-46-10.376940965,AGENT#0593a74a-5255-11ea-921e-8be348fa2b35,4,51,55,10,1.0,1.0,0
run-2020-2-18-13-46-10.376940965,AGENT#0594493e-5255-11ea-ae6a-9732297409ea,3,52,55,10,1.0,1.0,0
run-2020-2-18-13-46-10.376940965,AGENT#05827236-5255-11ea-bbe1-233408cfbc6f,45,11,56,10,1.0,1.0,0
run-2020-2-18-13-46-10.376940965,AGENT#0595063a-5255-11ea-a386-7793b9b2e001,3,53,56,10,1.0,1.0,0
run-2020-2-18-13-46-10.376940965,AGENT#058b780e-5255-11ea-a3db-dbe3a39981b3,22,35,57,10,1.0,1.0,0
run-2020-2-18-13-46-10.376940965,AGENT#05943df4-5255-11ea-8a63-af4d28e2afaf,5,52,57,10,1.0,1.0,0
run-2020-2-18-13-46-10.376940965,AGENT#0596185e-5255-11ea-9628-47413717473e,2,55,57,10,1.0,1.0,0
run-2020-2-18-13-46-10.376940965,AGENT#05961ac0-5255-11ea-ac57-3b6ea8d76604,2,55,57,10,1.0,1.0,0
run-2020-2-18-13-46-10.376940965,AGENT#058bf5f4-5255-11ea-b9e8-1f1afe5a01c1,22,36,58,10,1.0,1.0,0
run-2020-2-18-13-46-10.376940965,AGENT#059503c4-5255-11ea-bb9e-773cc928191c,5,53,58,10,1.0,1.0,0
run-2020-2-18-13-46-10.376940965,AGENT#05969eaa-5255-11ea-a392-dbfb60d20c97,2,56,58,10,1.0,1.0,0
run-2020-2-18-13-46-10.376940965,AGENT#05973838-5255-11ea-8083-4fd475162988,1,57,58,10,1.0,1.0,0
run-2020-2-18-13-46-10.376940965,AGENT#05973d56-5255-11ea-a295-0794569f8bb5,1,57,58,10,1.0,1.0,0
run-2020-2-18-13-46-10.376940965,AGENT#059699be-5255-11ea-be89-37b722c03ae7,3,56,59,10,1.0,1.0,0
run-2020-2-18-13-46-10.376940965,AGENT#05969c66-5255-11ea-9460-df66f44c8846,3,56,59,10,1.0,1.0,0
run-2020-2-18-13-46-10.376940965,AGENT#0596a0da-5255-11ea-9e76-37cf7c7aeedc,3,56,59,10,1.0,1.0,0
run-2020-2-18-13-46-10.376940965,AGENT#05973af4-5255-11ea-ab5a-0779a16eab75,2,57,59,10,1.0,1.0,0
run-2020-2-18-13-46-10.376940965,AGENT#0597d20c-5255-11ea-b7dd-2f8ddad63868,1,58,59,10,1.0,1.0,0
run-2020-2-18-13-46-10.376940965,AGENT#0597d48c-5255-11ea-bfd7-e70fefa09756,1,58,59,10,1.0,1.0,0
run-2020-2-18-13-46-10.376940965,AGENT#0582b37c-5255-11ea-800e-0bf404aa9a2f,48,12,60,10,1.0,1.0,0
run-2020-2-18-13-46-10.376940965,AGENT#0583328e-5255-11ea-bf8c-bfd53d564ab5,46,14,60,10,1.0,1.0,0
run-2020-2-18-13-46-10.376940965,AGENT#05833856-5255-11ea-a39d-af5bfe813206,46,14,60,10,1.0,1.0,0
run-2020-2-18-13-46-10.376940965,AGENT#05837e4c-5255-11ea-9de6-57e9fc01eded,45,15,60,10,1.0,1.0,0
run-2020-2-18-13-46-10.376940965,AGENT#0583850e-5255-11ea-850c-1f150107c561,45,15,60,10,1.0,1.0,0
run-2020-2-18-13-46-10.376940965,AGENT#058388c4-5255-11ea-891b-a3a7aaa1b81e,45,15,60,10,1.0,1.0,0
run-2020-2-18-13-46-10.376940965,AGENT#0597cb0e-5255-11ea-b40d-ab9948b8f115,2,58,60,10,1.0,1.0,0
run-2020-2-18-13-46-10.376940965,AGENT#059874fa-5255-11ea-b635-37f57ca32051,1,59,60,10,1.0,1.0,0
run-2020-2-18-13-46-10.376940965,AGENT#0598773e-5255-11ea-98a9-6f8cca3c298e,1,59,60,10,1.0,1.0,0
run-2020-2-18-13-46-10.376940965,AGENT#05832c1c-5255-11ea-9b01-bb0f4ff167a1,47,14,61,10,1.0,1.0,0
run-2020-2-18-13-46-10.376940965,AGENT#0584243c-5255-11ea-9024-2706e4287356,45,17,62,10,1.0,1.0,0
run-2020-2-18-13-46-10.376940965,AGENT#05842d1a-5255-11ea-99e6-474d8f80d848,45,17,62,10,1.0,1.0,0
run-2020-2-18-13-46-10.376940965,AGENT#0582f3e6-5255-11ea-b2b1-f32467fce3be,50,13,63,10,1.0,1.0,0
run-2020-2-18-13-46-10.376940965,AGENT#05842162-5255-11ea-8d1b-e709628a397b,46,17,63,10,1.0,1.0,0
run-2020-2-18-13-46-10.376940965,AGENT#0584885a-5255-11ea-b09a-af288f6c878c,45,18,63,10,1.0,1.0,0
run-2020-2-18-13-46-10.376940965,AGENT#05950888-5255-11ea-adce-afa62ec367d9,10,53,63,10,1.0,1.0,0
run-2020-2-18-13-46-10.376940965,AGENT#05999524-5255-11ea-b27b-9f7ae711835e,2,61,63,10,1.0,1.0,0
run-2020-2-18-13-46-10.376940965,AGENT#059997c2-5255-11ea-a8f0-cb91203aa132,2,61,63,10,1.0,1.0,0
run-2020-2-18-13-46-10.376940965,AGENT#0584859e-5255-11ea-bfe2-8f859dd0add2,46,18,64,10,1.0,1.0,0
run-2020-2-18-13-46-10.376940965,AGENT#058bf374-5255-11ea-8205-afe130625445,28,36,64,10,1.0,1.0,0
run-2020-2-18-13-46-10.376940965,AGENT#05990e56-5255-11ea-a2be-bb6dd45bb038,4,60,64,10,1.0,1.0,0
run-2020-2-18-13-46-10.376940965,AGENT#059ae12c-5255-11ea-8614-37bb481f7c96,1,63,64,10,1.0,1.0,0
run-2020-2-18-13-46-10.376940965,AGENT#05853b10-5255-11ea-b4bb-bb2635ade2cc,45,20,65,10,1.0,1.0,0
run-2020-2-18-13-46-10.376940965,AGENT#05990bae-5255-11ea-930b-0b3bb97cb3da,5,60,65,10,1.0,1.0,0
run-2020-2-18-13-46-10.376940965,AGENT#059a42d0-5255-11ea-92db-c7ee4e8bf8dc,3,62,65,10,1.0,1.0,0
run-2020-2-18-13-46-10.376940965,AGENT#059ae3f2-5255-11ea-886a-8b99e16f8231,2,63,65,10,1.0,1.0,0
run-2020-2-18-13-46-10.376940965,AGENT#059b7c40-5255-11ea-a28b-b70f4330bb90,1,64,65,10,1.0,1.0,0
run-2020-2-18-13-46-10.376940965,AGENT#0583dc0c-5255-11ea-ab6d-f344bc917c4d,50,16,66,10,1.0,1.0,0
run-2020-2-18-13-46-10.376940965,AGENT#059ae64a-5255-11ea-959e-57b2e61966b7,3,63,66,10,1.0,1.0,0
run-2020-2-18-13-46-10.376940965,AGENT#059b79e8-5255-11ea-82cc-c70593349dcb,2,64,66,10,1.0,1.0,0
run-2020-2-18-13-46-10.376940965,AGENT#059c0980-5255-11ea-b3d1-5383567b2e80,1,65,66,10,1.0,1.0,0
run-2020-2-18-13-46-10.376940965,AGENT#059c0bf6-5255-11ea-bcec-234fc87fa6e4,1,65,66,10,1.0,1.0,0
run-2020-2-18-13-46-10.376940965,AGENT#059c12e0-5255-11ea-b535-93f629d31891,1,65,66,10,1.0,1.0,0
run-2020-2-18-13-46-10.376940965,AGENT#059cbb32-5255-11ea-99ba-f740d7348bb4,1,66,67,10,1.0,1.0,0
run-2020-2-18-13-46-10.376940965,AGENT#058f779c-5255-11ea-aa95-f3e6efb917cc,25,43,68,10,1.0,1.0,0
run-2020-2-18-13-46-10.376940965,AGENT#0593a506-5255-11ea-8132-8f72f9968568,17,51,68,10,1.0,1.0,0
run-2020-2-18-13-46-10.376940965,AGENT#059b7542-5255-11ea-bb16-1b4588325a45,4,64,68,10,1.0,1.0,0
run-2020-2-18-13-46-10.376940965,AGENT#059c0e3a-5255-11ea-a198-e7daa4c6a0a5,3,65,68,10,1.0,1.0,0
run-2020-2-18-13-46-10.376940965,AGENT#058659dc-5255-11ea-a131-33f4fcdb40e4,46,23,69,10,1.0,1.0,0
run-2020-2-18-13-46-10.376940965,AGENT#059dee62-5255-11ea-9233-3b2a7d9d92fd,1,68,69,10,1.0,1.0,0
run-2020-2-18-13-46-10.376940965,AGENT#059c183a-5255-11ea-a9be-5bee280524e6,5,65,70,10,1.0,1.0,0
run-2020-2-18-13-46-10.376940965,AGENT#059df2ea-5255-11ea-a873-fb3a5dcff0ae,2,68,70,10,1.0,1.0,0
run-2020-2-18-13-46-10.376940965,AGENT#059cb8d0-5255-11ea-8931-df7858ecffd9,5,66,71,10,1.0,1.0,0
run-2020-2-18-13-46-10.376940965,AGENT#059d4a66-5255-11ea-83c0-fbde6d4e82db,4,67,71,10,1.0,1.0,0
run-2020-2-18-13-46-10.376940965,AGENT#0585a6a4-5255-11ea-8974-d7c68e1572fe,51,21,72,10,1.0,1.0,0
run-2020-2-18-13-46-10.376940965,AGENT#05877092-5255-11ea-a34f-f387967bc352,46,26,72,10,1.0,1.0,0
run-2020-2-18-13-46-10.376940965,AGENT#05987270-5255-11ea-a624-ab28cd697b44,13,59,72,10,1.0,1.0,0
run-2020-2-18-13-46-10.376940965,AGENT#059de908-5255-11ea-b38b-ff8dad91c348,4,68,72,10,1.0,1.0,0
run-2020-2-18-13-46-10.376940965,AGENT#059e94b6-5255-11ea-8c54-6b10ab4c2aab,3,69,72,10,1.0,1.0,0
run-2020-2-18-13-46-10.376940965,AGENT#059f33da-5255-11ea-9c6d-ab66ef861d34,2,70,72,10,1.0,1.0,0
run-2020-2-18-13-46-10.376940965,AGENT#059f3d44-5255-11ea-9bd3-6f4d391c4245,2,70,72,10,1.0,1.0,0
run-2020-2-18-13-46-10.376940965,AGENT#059f3150-5255-11ea-9c82-fbb2049faced,3,70,73,10,1.0,1.0,0
run-2020-2-18-13-46-10.376940965,AGENT#059fe3d4-5255-11ea-ab71-1737f8a0462c,2,71,73,10,1.0,1.0,0
run-2020-2-18-13-46-10.376940965,AGENT#059fed5c-5255-11ea-b120-5bfe5a7435be,2,71,73,10,1.0,1.0,0
run-2020-2-18-13-46-10.376940965,AGENT#0587e798-5255-11ea-b477-17963345d36d,47,27,74,10,1.0,1.0,0
run-2020-2-18-13-46-10.376940965,AGENT#05884fc6-5255-11ea-894f-97b471188df8,46,28,74,10,1.0,1.0,0
run-2020-2-18-13-46-10.376940965,AGENT#059f3b1e-5255-11ea-a379-d34a2124ed46,4,70,74,10,1.0,1.0,0
run-2020-2-18-13-46-10.376940965,AGENT#05a0a3b4-5255-11ea-8757-e385d691cc7a,2,72,74,10,1.0,1.0,0
run-2020-2-18-13-46-10.376940965,AGENT#05a14efe-5255-11ea-a743-af33f88b41d0,1,73,74,10,1.0,1.0,0
run-2020-2-18-13-46-10.376940965,AGENT#05a15408-5255-11ea-9f56-0fbacc8636ae,1,73,74,10,1.0,1.0,0
run-2020-2-18-13-46-10.376940965,AGENT#05892144-5255-11ea-9e30-172535da825c,45,30,75,10,1.0,1.0,0
run-2020-2-18-13-46-10.376940965,AGENT#058923d8-5255-11ea-84b4-e7eabdc8ce80,45,30,75,10,1.0,1.0,0
run-2020-2-18-13-46-10.376940965,AGENT#059fe65e-5255-11ea-a11c-676d35af2007,4,71,75,10,1.0,1.0,0
run-2020-2-18-13-46-10.376940965,AGENT#059feb0e-5255-11ea-b650-c32611b36c3a,4,71,75,10,1.0,1.0,0
run-2020-2-18-13-46-10.376940965,AGENT#05a15192-5255-11ea-8577-cb78f2d4ef15,2,73,75,10,1.0,1.0,0
run-2020-2-18-13-46-10.376940965,AGENT#05a15656-5255-11ea-933e-6f1db48e2de7,2,73,75,10,1.0,1.0,0
run-2020-2-18-13-46-10.376940965,AGENT#058987a6-5255-11ea-b4b8-27411a781347,45,31,76,10,1.0,1.0,0
run-2020-2-18-13-46-10.376940965,AGENT#058cfbd4-5255-11ea-a7aa-073213f74846,38,38,76,10,1.0,1.0,0
run-2020-2-18-13-46-10.376940965,AGENT#05898fa8-5255-11ea-ba5b-031ddaabf750,46,31,77,10,1.0,1.0,0
run-2020-2-18-13-46-10.376940965,AGENT#05899228-5255-11ea-a388-ffccf3164f69,46,31,77,10,1.0,1.0,0
run-2020-2-18-13-46-10.376940965,AGENT#05a0a602-5255-11ea-9e67-2f8995d1b975,5,72,77,10,1.0,1.0,0
run-2020-2-18-13-46-10.376940965,AGENT#05a205ce-5255-11ea-bdaf-f7756a04213d,3,74,77,10,1.0,1.0,0
run-2020-2-18-13-46-10.376940965,AGENT#05a3456a-5255-11ea-9d80-77d6323a2653,1,76,77,10,1.0,1.0,0
run-2020-2-18-13-46-10.376940965,AGENT#05891c1c-5255-11ea-8e14-e776f543ad60,48,30,78,10,1.0,1.0,0
run-2020-2-18-13-46-10.376940965,AGENT#0589ff42-5255-11ea-9864-e3172fdfd67f,46,32,78,10,1.0,1.0,0
run-2020-2-18-13-46-10.376940965,AGENT#0597ceb0-5255-11ea-a835-8b77bef7d176,20,58,78,10,1.0,1.0,0
run-2020-2-18-13-46-10.376940965,AGENT#05a3e268-5255-11ea-a04b-d7ea61bc5094,2,77,79,10,1.0,1.0,0
run-2020-2-18-13-46-10.376940965,AGENT#05a3e4d4-5255-11ea-aa6a-1b5068858138,2,77,79,10,1.0,1.0,0
run-2020-2-18-13-46-10.376940965,AGENT#05a3ebb4-5255-11ea-ab29-b3f58c2fb208,2,77,79,10,1.0,1.0,0
run-2020-2-18-13-46-10.376940965,AGENT#059de6a6-5255-11ea-a61c-f7e006cca70f,12,68,80,10,1.0,1.0,0
run-2020-2-18-13-46-10.376940965,AGENT#058c0206-5255-11ea-b1a2-2b97c9e1b181,45,36,81,10,1.0,1.0,0
run-2020-2-18-13-46-10.376940965,AGENT#058c0468-5255-11ea-b92f-13c071647a42,45,36,81,10,1.0,1.0,0
run-2020-2-18-13-46-10.376940965,AGENT#05a3e74a-5255-11ea-ac48-2737f1da33de,4,77,81,10,1.0,1.0,0
run-2020-2-18-13-46-10.376940965,AGENT#05a3e98e-5255-11ea-8426-a3d17bb898b0,4,77,81,10,1.0,1.0,0
run-2020-2-18-13-46-10.376940965,AGENT#05a3ede4-5255-11ea-8e5e-9b8df6fb6451,4,77,81,10,1.0,1.0,0
run-2020-2-18-13-46-10.376940965,AGENT#05a52628-5255-11ea-97d6-7f4cd99363c7,2,79,81,10,1.0,1.0,0
run-2020-2-18-13-46-10.376940965,AGENT#05a52d6c-5255-11ea-a3a0-37712d6c951f,2,79,81,10,1.0,1.0,0
run-2020-2-18-13-46-10.376940965,AGENT#05a5d096-5255-11ea-ab42-ff5032e5399e,1,80,81,10,1.0,1.0,0
run-2020-2-18-13-46-10.376940965,AGENT#05a52b32-5255-11ea-8540-17a459b665cf,3,79,82,10,1.0,1.0,0
run-2020-2-18-13-46-10.376940965,AGENT#05a528a8-5255-11ea-a758-d79a0f057a8e,4,79,83,10,1.0,1.0,0
run-2020-2-18-13-46-10.376940965,AGENT#05a5ce2a-5255-11ea-b863-4b9bc640b6dc,3,80,83,10,1.0,1.0,0
run-2020-2-18-13-46-10.376940965,AGENT#05a6b204-5255-11ea-bdcf-bf0e681adef8,2,81,83,10,1.0,1.0,0
run-2020-2-18-13-46-10.376940965,AGENT#05a77de2-5255-11ea-8636-17d0f7163ab0,1,82,83,10,1.0,1.0,0
run-2020-2-18-13-46-10.376940965,AGENT#058bff90-5255-11ea-b266-ab144088a037,48,36,84,10,1.0,1.0,0
run-2020-2-18-13-46-10.376940965,AGENT#05a52fba-5255-11ea-8217-570c3742b2c5,5,79,84,10,1.0,1.0,0
run-2020-2-18-13-46-10.376940965,AGENT#05a6ae58-5255-11ea-b3f4-679c468cc80d,3,81,84,10,1.0,1.0,0
run-2020-2-18-13-46-10.376940965,AGENT#05a6b542-5255-11ea-940c-e3dfa2c2cbb7,3,81,84,10,1.0,1.0,0
run-2020-2-18-13-46-10.376940965,AGENT#05a2ae48-5255-11ea-af99-03be31fdeee0,10,75,85,10,1.0,1.0,0
run-2020-2-18-13-46-10.376940965,AGENT#058de95e-5255-11ea-a9f4-cf07a827a235,46,40,86,10,1.0,1.0,0
run-2020-2-18-13-46-10.376940965,AGENT#058e614a-5255-11ea-a791-0bf82371a016,45,41,86,10,1.0,1.0,0
run-2020-2-18-13-46-10.376940965,AGENT#05a83e12-5255-11ea-a0cd-2b745e4ce828,3,83,86,10,1.0,1.0,0
run-2020-2-18-13-46-10.376940965,AGENT#05a8d00c-5255-11ea-8e2a-bf20e25d00c5,2,84,86,10,1.0,1.0,0
run-2020-2-18-13-46-10.376940965,AGENT#05a96d96-5255-11ea-afb6-2776db6852be,1,85,86,10,1.0,1.0,0
run-2020-2-18-13-46-10.376940965,AGENT#05a97584-5255-11ea-a1d3-7badf3299064,2,85,87,10,1.0,1.0,0
run-2020-2-18-13-46-10.376940965,AGENT#05a8d9a8-5255-11ea-92c1-db450a98af62,4,84,88,10,1.0,1.0,0
run-2020-2-18-13-46-10.376940965,AGENT#05a97016-5255-11ea-a6c2-7b5a8de6f790,3,85,88,10,1.0,1.0,0
run-2020-2-18-13-46-10.376940965,AGENT#05aa1f98-5255-11ea-aad8-6fabfb98d1d2,2,86,88,10,1.0,1.0,0
run-2020-2-18-13-46-10.376940965,AGENT#05aaf21a-5255-11ea-b2f9-279446634755,1,87,88,10,1.0,1.0,0
run-2020-2-18-13-46-10.376940965,AGENT#059021e2-5255-11ea-bf29-df4c6371f191,45,44,89,10,1.0,1.0,0
run-2020-2-18-13-46-10.376940965,AGENT#0597d950-5255-11ea-8117-e3d0a652dca2,31,58,89,10,1.0,1.0,0
run-2020-2-18-13-46-10.376940965,AGENT#05aaeb08-5255-11ea-af94-dba4218100ee,2,87,89,10,1.0,1.0,0
run-2020-2-18-13-46-10.376940965,AGENT#05abd93c-5255-11ea-b326-2bacd2ddd1e9,1,88,89,10,1.0,1.0,0
run-2020-2-18-13-46-10.376940965,AGENT#05a9725a-5255-11ea-8cd1-b382b9e139fe,5,85,90,10,1.0,1.0,0
run-2020-2-18-13-46-10.376940965,AGENT#05aae702-5255-11ea-bb98-a769c74142ac,3,87,90,10,1.0,1.0,0
run-2020-2-18-13-46-10.376940965,AGENT#05901b5c-5255-11ea-ada9-7b97640bde32,47,44,91,10,1.0,1.0,0
run-2020-2-18-13-46-10.376940965,AGENT#059024e4-5255-11ea-bcf6-4391e2909953,47,44,91,10,1.0,1.0,0
run-2020-2-18-13-46-10.376940965,AGENT#059137a8-5255-11ea-b09d-abca9ea7765a,45,46,91,10,1.0,1.0,0
run-2020-2-18-13-46-10.376940965,AGENT#059b7e70-5255-11ea-93f5-03a073a777b3,27,64,91,10,1.0,1.0,0
run-2020-2-18-13-46-10.376940965,AGENT#05acb0f0-5255-11ea-9e34-e72f36102fbe,2,89,91,10,1.0,1.0,0
run-2020-2-18-13-46-10.376940965,AGENT#0591b462-5255-11ea-9330-13d2a73148bb,45,47,92,10,1.0,1.0,0
run-2020-2-18-13-46-10.376940965,AGENT#05a8d282-5255-11ea-ae8b-2343a5d75a74,8,84,92,10,1.0,1.0,0
run-2020-2-18-13-46-10.376940965,AGENT#05aae2ca-5255-11ea-b00a-b7a2b38629e5,5,87,92,10,1.0,1.0,0
run-2020-2-18-13-46-10.376940965,AGENT#05acab78-5255-11ea-aebe-0bd612e5cf87,3,89,92,10,1.0,1.0,0
run-2020-2-18-13-46-10.376940965,AGENT#05ad5870-5255-11ea-a1be-9f000a455c84,2,90,92,10,1.0,1.0,0
run-2020-2-18-13-46-10.376940965,AGENT#0591afc6-5255-11ea-86f2-536caf6ac1e9,46,47,93,10,1.0,1.0,0
run-2020-2-18-13-46-10.376940965,AGENT#059de3b8-5255-11ea-9d5a-e72e4a307849,25,68,93,10,1.0,1.0,0
run-2020-2-18-13-46-10.376940965,AGENT#05aec908-5255-11ea-a4ca-8f1bee2748a7,1,92,93,10,1.0,1.0,0
run-2020-2-18-13-46-10.376940965,AGENT#05aecb6a-5255-11ea-8f3c-d774d08a4f31,1,92,93,10,1.0,1.0,0
run-2020-2-18-13-46-10.376940965,AGENT#05aecdb8-5255-11ea-ba9c-fbf5bc8f8750,1,92,93,10,1.0,1.0,0
run-2020-2-18-13-46-10.376940965,AGENT#0595973a-5255-11ea-a4fe-53403bf593b3,40,54,94,10,1.0,1.0,0
run-2020-2-18-13-46-10.376940965,AGENT#05acae48-5255-11ea-9ef0-03463b70c7ba,5,89,94,10,1.0,1.0,0
run-2020-2-18-13-46-10.376940965,AGENT#05ae14ae-5255-11ea-9645-47bb5a0a3194,3,91,94,10,1.0,1.0,0
run-2020-2-18-13-46-10.376940965,AGENT#05ad55f0-5255-11ea-8e33-db9a168b11f4,5,90,95,10,1.0,1.0,0
run-2020-2-18-13-46-10.376940965,AGENT#05ad5d16-5255-11ea-9285-774375e17bc8,5,90,95,10,1.0,1.0,0
run-2020-2-18-13-46-10.376940965,AGENT#05ad5f3c-5255-11ea-9657-531d71d98f13,5,90,95,10,1.0,1.0,0
run-2020-2-18-13-46-10.376940965,AGENT#05af8e92-5255-11ea-b492-3f19b4728896,2,93,95,10,1.0,1.0,0
run-2020-2-18-13-46-10.376940965,AGENT#05af90d6-5255-11ea-a3e6-5b63caf3d082,2,93,95,10,1.0,1.0,0
run-2020-2-18-13-46-10.376940965,AGENT#05aec624-5255-11ea-ac66-036f0a723c5f,4,92,96,10,1.0,1.0,0
run-2020-2-18-13-46-10.376940965,AGENT#05aed268-5255-11ea-89ca-e3deacd49da0,4,92,96,10,1.0,1.0,0
run-2020-2-18-13-46-10.376940965,AGENT#05af8c62-5255-11ea-a4ab-6f929057df33,3,93,96,10,1.0,1.0,0
run-2020-2-18-13-46-10.376940965,AGENT#05aed01a-5255-11ea-9ea1-6bf580ae2624,5,92,97,10,1.0,1.0,0
run-2020-2-18-13-46-10.376940965,AGENT#05af8528-5255-11ea-9f09-2b19f36fba03,4,93,97,10,1.0,1.0,0
run-2020-2-18-13-46-10.376940965,AGENT#05af87b2-5255-11ea-ae0d-330daa50957a,4,93,97,10,1.0,1.0,0
run-2020-2-18-13-46-10.376940965,AGENT#05b246d2-5255-11ea-bea2-d79a747419db,1,96,97,10,1.0,1.0,0
run-2020-2-18-13-46-10.376940965,AGENT#0593a2b8-5255-11ea-adff-33d0e54ef20e,47,51,98,10,1.0,1.0,0
run-2020-2-18-13-46-10.376940965,AGENT#0595014e-5255-11ea-924d-bf704f13a693,45,53,98,10,1.0,1.0,0
run-2020-2-18-13-46-10.376940965,AGENT#059c109c-5255-11ea-a135-379783776190,33,65,98,10,1.0,1.0,0
run-2020-2-18-13-46-10.376940965,AGENT#05af8a14-5255-11ea-91ee-4f8b77b6600e,5,93,98,10,1.0,1.0,0
run-2020-2-18-13-46-10.376940965,AGENT#05b14fde-5255-11ea-8329-bfcf1f513d1a,3,95,98,10,1.0,1.0,0
run-2020-2-18-13-46-10.376940965,AGENT#05b4487e-5255-11ea-bcef-9b58015e476f,1,98,99,10,1.0,1.0,0
