RunID,Tick,ActiveAgentsPerTick
run-2020-2-18-12-30-24.723423957,0,11
run-2020-2-18-12-30-24.723423957,1,7
run-2020-2-18-12-30-24.723423957,2,12
run-2020-2-18-12-30-24.723423957,3,15
run-2020-2-18-12-30-24.723423957,4,18
run-2020-2-18-12-30-24.723423957,5,18
run-2020-2-18-12-30-24.723423957,6,21
run-2020-2-18-12-30-24.723423957,7,19
run-2020-2-18-12-30-24.723423957,8,17
run-2020-2-18-12-30-24.723423957,9,16
run-2020-2-18-12-30-24.723423957,10,16
run-2020-2-18-12-30-24.723423957,11,22
run-2020-2-18-12-30-24.723423957,12,24
run-2020-2-18-12-30-24.723423957,13,26
run-2020-2-18-12-30-24.723423957,14,31
run-2020-2-18-12-30-24.723423957,15,31
run-2020-2-18-12-30-24.723423957,16,29
run-2020-2-18-12-30-24.723423957,17,29
run-2020-2-18-12-30-24.723423957,18,30
run-2020-2-18-12-30-24.723423957,19,27
run-2020-2-18-12-30-24.723423957,20,31
run-2020-2-18-12-30-24.723423957,21,37
run-2020-2-18-12-30-24.723423957,22,39
run-2020-2-18-12-30-24.723423957,23,39
run-2020-2-18-12-30-24.723423957,24,38
run-2020-2-18-12-30-24.723423957,25,37
run-2020-2-18-12-30-24.723423957,26,36
run-2020-2-18-12-30-24.723423957,27,38
run-2020-2-18-12-30-24.723423957,28,40
run-2020-2-18-12-30-24.723423957,29,34
run-2020-2-18-12-30-24.723423957,30,33
run-2020-2-18-12-30-24.723423957,31,34
run-2020-2-18-12-30-24.723423957,32,36
run-2020-2-18-12-30-24.723423957,33,39
run-2020-2-18-12-30-24.723423957,34,38
run-2020-2-18-12-30-24.723423957,35,39
run-2020-2-18-12-30-24.723423957,36,43
run-2020-2-18-12-30-24.723423957,37,45
run-2020-2-18-12-30-24.723423957,38,44
run-2020-2-18-12-30-24.723423957,39,41
run-2020-2-18-12-30-24.723423957,40,43
run-2020-2-18-12-30-24.723423957,41,42
run-2020-2-18-12-30-24.723423957,42,49
run-2020-2-18-12-30-24.723423957,43,50
run-2020-2-18-12-30-24.723423957,44,50
run-2020-2-18-12-30-24.723423957,45,51
run-2020-2-18-12-30-24.723423957,46,50
run-2020-2-18-12-30-24.723423957,47,49
run-2020-2-18-12-30-24.723423957,48,47
run-2020-2-18-12-30-24.723423957,49,44
run-2020-2-18-12-30-24.723423957,50,46
run-2020-2-18-12-30-24.723423957,51,46
run-2020-2-18-12-30-24.723423957,52,44
run-2020-2-18-12-30-24.723423957,53,43
run-2020-2-18-12-30-24.723423957,54,45
run-2020-2-18-12-30-24.723423957,55,48
run-2020-2-18-12-30-24.723423957,56,47
run-2020-2-18-12-30-24.723423957,57,44
run-2020-2-18-12-30-24.723423957,58,43
run-2020-2-18-12-30-24.723423957,59,46
run-2020-2-18-12-30-24.723423957,60,44
run-2020-2-18-12-30-24.723423957,61,45
run-2020-2-18-12-30-24.723423957,62,48
run-2020-2-18-12-30-24.723423957,63,51
run-2020-2-18-12-30-24.723423957,64,50
run-2020-2-18-12-30-24.723423957,65,48
run-2020-2-18-12-30-24.723423957,66,48
run-2020-2-18-12-30-24.723423957,67,47
run-2020-2-18-12-30-24.723423957,68,41
run-2020-2-18-12-30-24.723423957,69,45
run-2020-2-18-12-30-24.723423957,70,50
run-2020-2-18-12-30-24.723423957,71,52
run-2020-2-18-12-30-24.723423957,72,47
run-2020-2-18-12-30-24.723423957,73,45
run-2020-2-18-12-30-24.723423957,74,45
run-2020-2-18-12-30-24.723423957,75,47
run-2020-2-18-12-30-24.723423957,76,47
run-2020-2-18-12-30-24.723423957,77,50
run-2020-2-18-12-30-24.723423957,78,50
run-2020-2-18-12-30-24.723423957,79,51
run-2020-2-18-12-30-24.723423957,80,51
run-2020-2-18-12-30-24.723423957,81,49
run-2020-2-18-12-30-24.723423957,82,50
run-2020-2-18-12-30-24.723423957,83,53
run-2020-2-18-12-30-24.723423957,84,56
run-2020-2-18-12-30-24.723423957,85,55
run-2020-2-18-12-30-24.723423957,86,54
run-2020-2-18-12-30-24.723423957,87,59
run-2020-2-18-12-30-24.723423957,88,61
run-2020-2-18-12-30-24.723423957,89,58
run-2020-2-18-12-30-24.723423957,90,61
run-2020-2-18-12-30-24.723423957,91,59
run-2020-2-18-12-30-24.723423957,92,58
run-2020-2-18-12-30-24.723423957,93,58
run-2020-2-18-12-30-24.723423957,94,60
run-2020-2-18-12-30-24.723423957,95,62
run-2020-2-18-12-30-24.723423957,96,64
run-2020-2-18-12-30-24.723423957,97,69
run-2020-2-18-12-30-24.723423957,98,65
run-2020-2-18-12-30-24.723423957,99,65
run-2020-2-18-12-30-24.723423957,100,61
