RunID,Tick,ActiveAgentsPerTick
run-2020-2-18-16-41-50.479746103,0,12
run-2020-2-18-16-41-50.479746103,1,11
run-2020-2-18-16-41-50.479746103,2,14
run-2020-2-18-16-41-50.479746103,3,15
run-2020-2-18-16-41-50.479746103,4,19
run-2020-2-18-16-41-50.479746103,5,25
run-2020-2-18-16-41-50.479746103,6,29
run-2020-2-18-16-41-50.479746103,7,26
run-2020-2-18-16-41-50.479746103,8,25
run-2020-2-18-16-41-50.479746103,9,30
run-2020-2-18-16-41-50.479746103,10,30
run-2020-2-18-16-41-50.479746103,11,30
run-2020-2-18-16-41-50.479746103,12,32
run-2020-2-18-16-41-50.479746103,13,34
run-2020-2-18-16-41-50.479746103,14,36
run-2020-2-18-16-41-50.479746103,15,36
run-2020-2-18-16-41-50.479746103,16,39
run-2020-2-18-16-41-50.479746103,17,37
run-2020-2-18-16-41-50.479746103,18,37
run-2020-2-18-16-41-50.479746103,19,38
run-2020-2-18-16-41-50.479746103,20,38
run-2020-2-18-16-41-50.479746103,21,40
run-2020-2-18-16-41-50.479746103,22,40
run-2020-2-18-16-41-50.479746103,23,41
run-2020-2-18-16-41-50.479746103,24,41
run-2020-2-18-16-41-50.479746103,25,43
run-2020-2-18-16-41-50.479746103,26,42
run-2020-2-18-16-41-50.479746103,27,44
run-2020-2-18-16-41-50.479746103,28,46
run-2020-2-18-16-41-50.479746103,29,47
run-2020-2-18-16-41-50.479746103,30,45
run-2020-2-18-16-41-50.479746103,31,42
run-2020-2-18-16-41-50.479746103,32,42
run-2020-2-18-16-41-50.479746103,33,44
run-2020-2-18-16-41-50.479746103,34,51
run-2020-2-18-16-41-50.479746103,35,54
run-2020-2-18-16-41-50.479746103,36,53
run-2020-2-18-16-41-50.479746103,37,52
run-2020-2-18-16-41-50.479746103,38,53
run-2020-2-18-16-41-50.479746103,39,51
run-2020-2-18-16-41-50.479746103,40,53
run-2020-2-18-16-41-50.479746103,41,55
run-2020-2-18-16-41-50.479746103,42,56
run-2020-2-18-16-41-50.479746103,43,55
run-2020-2-18-16-41-50.479746103,44,55
run-2020-2-18-16-41-50.479746103,45,56
run-2020-2-18-16-41-50.479746103,46,59
run-2020-2-18-16-41-50.479746103,47,62
run-2020-2-18-16-41-50.479746103,48,67
run-2020-2-18-16-41-50.479746103,49,68
run-2020-2-18-16-41-50.479746103,50,66
run-2020-2-18-16-41-50.479746103,51,64
run-2020-2-18-16-41-50.479746103,52,66
run-2020-2-18-16-41-50.479746103,53,68
run-2020-2-18-16-41-50.479746103,54,66
run-2020-2-18-16-41-50.479746103,55,69
run-2020-2-18-16-41-50.479746103,56,72
run-2020-2-18-16-41-50.479746103,57,68
run-2020-2-18-16-41-50.479746103,58,70
run-2020-2-18-16-41-50.479746103,59,66
run-2020-2-18-16-41-50.479746103,60,65
run-2020-2-18-16-41-50.479746103,61,62
run-2020-2-18-16-41-50.479746103,62,64
run-2020-2-18-16-41-50.479746103,63,65
run-2020-2-18-16-41-50.479746103,64,69
run-2020-2-18-16-41-50.479746103,65,69
run-2020-2-18-16-41-50.479746103,66,64
run-2020-2-18-16-41-50.479746103,67,61
run-2020-2-18-16-41-50.479746103,68,64
run-2020-2-18-16-41-50.479746103,69,66
run-2020-2-18-16-41-50.479746103,70,69
run-2020-2-18-16-41-50.479746103,71,69
run-2020-2-18-16-41-50.479746103,72,66
run-2020-2-18-16-41-50.479746103,73,69
run-2020-2-18-16-41-50.479746103,74,71
run-2020-2-18-16-41-50.479746103,75,73
run-2020-2-18-16-41-50.479746103,76,78
run-2020-2-18-16-41-50.479746103,77,79
run-2020-2-18-16-41-50.479746103,78,79
run-2020-2-18-16-41-50.479746103,79,74
run-2020-2-18-16-41-50.479746103,80,69
run-2020-2-18-16-41-50.479746103,81,70
run-2020-2-18-16-41-50.479746103,82,70
run-2020-2-18-16-41-50.479746103,83,70
run-2020-2-18-16-41-50.479746103,84,70
run-2020-2-18-16-41-50.479746103,85,71
run-2020-2-18-16-41-50.479746103,86,72
run-2020-2-18-16-41-50.479746103,87,68
run-2020-2-18-16-41-50.479746103,88,71
run-2020-2-18-16-41-50.479746103,89,72
run-2020-2-18-16-41-50.479746103,90,65
run-2020-2-18-16-41-50.479746103,91,68
run-2020-2-18-16-41-50.479746103,92,70
run-2020-2-18-16-41-50.479746103,93,69
run-2020-2-18-16-41-50.479746103,94,65
run-2020-2-18-16-41-50.479746103,95,62
run-2020-2-18-16-41-50.479746103,96,60
run-2020-2-18-16-41-50.479746103,97,64
run-2020-2-18-16-41-50.479746103,98,60
run-2020-2-18-16-41-50.479746103,99,61
run-2020-2-18-16-41-50.479746103,100,60
