RunID,Tick,ActiveAgentsPerTick
run-2020-2-18-14-9-33.793675899,0,11
run-2020-2-18-14-9-33.793675899,1,12
run-2020-2-18-14-9-33.793675899,2,16
run-2020-2-18-14-9-33.793675899,3,19
run-2020-2-18-14-9-33.793675899,4,21
run-2020-2-18-14-9-33.793675899,5,22
run-2020-2-18-14-9-33.793675899,6,24
run-2020-2-18-14-9-33.793675899,7,23
run-2020-2-18-14-9-33.793675899,8,22
run-2020-2-18-14-9-33.793675899,9,25
run-2020-2-18-14-9-33.793675899,10,24
run-2020-2-18-14-9-33.793675899,11,24
run-2020-2-18-14-9-33.793675899,12,24
run-2020-2-18-14-9-33.793675899,13,27
run-2020-2-18-14-9-33.793675899,14,27
run-2020-2-18-14-9-33.793675899,15,29
run-2020-2-18-14-9-33.793675899,16,24
run-2020-2-18-14-9-33.793675899,17,24
run-2020-2-18-14-9-33.793675899,18,23
run-2020-2-18-14-9-33.793675899,19,24
run-2020-2-18-14-9-33.793675899,20,29
run-2020-2-18-14-9-33.793675899,21,26
run-2020-2-18-14-9-33.793675899,22,29
run-2020-2-18-14-9-33.793675899,23,31
run-2020-2-18-14-9-33.793675899,24,35
run-2020-2-18-14-9-33.793675899,25,35
run-2020-2-18-14-9-33.793675899,26,41
run-2020-2-18-14-9-33.793675899,27,44
run-2020-2-18-14-9-33.793675899,28,44
run-2020-2-18-14-9-33.793675899,29,48
run-2020-2-18-14-9-33.793675899,30,50
run-2020-2-18-14-9-33.793675899,31,46
run-2020-2-18-14-9-33.793675899,32,50
run-2020-2-18-14-9-33.793675899,33,54
run-2020-2-18-14-9-33.793675899,34,50
run-2020-2-18-14-9-33.793675899,35,51
run-2020-2-18-14-9-33.793675899,36,49
run-2020-2-18-14-9-33.793675899,37,51
run-2020-2-18-14-9-33.793675899,38,51
run-2020-2-18-14-9-33.793675899,39,53
run-2020-2-18-14-9-33.793675899,40,56
run-2020-2-18-14-9-33.793675899,41,61
run-2020-2-18-14-9-33.793675899,42,64
run-2020-2-18-14-9-33.793675899,43,68
run-2020-2-18-14-9-33.793675899,44,64
run-2020-2-18-14-9-33.793675899,45,57
run-2020-2-18-14-9-33.793675899,46,53
run-2020-2-18-14-9-33.793675899,47,52
run-2020-2-18-14-9-33.793675899,48,54
run-2020-2-18-14-9-33.793675899,49,58
run-2020-2-18-14-9-33.793675899,50,61
run-2020-2-18-14-9-33.793675899,51,65
run-2020-2-18-14-9-33.793675899,52,68
run-2020-2-18-14-9-33.793675899,53,64
run-2020-2-18-14-9-33.793675899,54,67
run-2020-2-18-14-9-33.793675899,55,62
run-2020-2-18-14-9-33.793675899,56,60
run-2020-2-18-14-9-33.793675899,57,63
run-2020-2-18-14-9-33.793675899,58,64
run-2020-2-18-14-9-33.793675899,59,62
run-2020-2-18-14-9-33.793675899,60,59
run-2020-2-18-14-9-33.793675899,61,57
run-2020-2-18-14-9-33.793675899,62,58
run-2020-2-18-14-9-33.793675899,63,63
run-2020-2-18-14-9-33.793675899,64,66
run-2020-2-18-14-9-33.793675899,65,68
run-2020-2-18-14-9-33.793675899,66,65
run-2020-2-18-14-9-33.793675899,67,66
run-2020-2-18-14-9-33.793675899,68,67
run-2020-2-18-14-9-33.793675899,69,58
run-2020-2-18-14-9-33.793675899,70,53
run-2020-2-18-14-9-33.793675899,71,54
run-2020-2-18-14-9-33.793675899,72,58
run-2020-2-18-14-9-33.793675899,73,52
run-2020-2-18-14-9-33.793675899,74,50
run-2020-2-18-14-9-33.793675899,75,53
run-2020-2-18-14-9-33.793675899,76,53
run-2020-2-18-14-9-33.793675899,77,55
run-2020-2-18-14-9-33.793675899,78,51
run-2020-2-18-14-9-33.793675899,79,53
run-2020-2-18-14-9-33.793675899,80,54
run-2020-2-18-14-9-33.793675899,81,48
run-2020-2-18-14-9-33.793675899,82,50
run-2020-2-18-14-9-33.793675899,83,51
run-2020-2-18-14-9-33.793675899,84,53
run-2020-2-18-14-9-33.793675899,85,55
run-2020-2-18-14-9-33.793675899,86,55
run-2020-2-18-14-9-33.793675899,87,56
run-2020-2-18-14-9-33.793675899,88,59
run-2020-2-18-14-9-33.793675899,89,54
run-2020-2-18-14-9-33.793675899,90,55
run-2020-2-18-14-9-33.793675899,91,55
run-2020-2-18-14-9-33.793675899,92,54
run-2020-2-18-14-9-33.793675899,93,56
run-2020-2-18-14-9-33.793675899,94,55
run-2020-2-18-14-9-33.793675899,95,57
run-2020-2-18-14-9-33.793675899,96,63
run-2020-2-18-14-9-33.793675899,97,67
run-2020-2-18-14-9-33.793675899,98,66
run-2020-2-18-14-9-33.793675899,99,64
run-2020-2-18-14-9-33.793675899,100,58
