RunID,Tick,ActiveAgentsPerTick
run-2020-2-29-9-28-2.615966796,0,12
run-2020-2-29-9-28-2.615966796,1,16
run-2020-2-29-9-28-2.615966796,2,20
run-2020-2-29-9-28-2.615966796,3,20
run-2020-2-29-9-28-2.615966796,4,22
run-2020-2-29-9-28-2.615966796,5,21
run-2020-2-29-9-28-2.615966796,6,19
run-2020-2-29-9-28-2.615966796,7,23
run-2020-2-29-9-28-2.615966796,8,24
run-2020-2-29-9-28-2.615966796,9,26
run-2020-2-29-9-28-2.615966796,10,26
run-2020-2-29-9-28-2.615966796,11,28
run-2020-2-29-9-28-2.615966796,12,30
run-2020-2-29-9-28-2.615966796,13,29
run-2020-2-29-9-28-2.615966796,14,32
run-2020-2-29-9-28-2.615966796,15,35
run-2020-2-29-9-28-2.615966796,16,36
run-2020-2-29-9-28-2.615966796,17,29
run-2020-2-29-9-28-2.615966796,18,33
run-2020-2-29-9-28-2.615966796,19,35
run-2020-2-29-9-28-2.615966796,20,35
run-2020-2-29-9-28-2.615966796,21,38
run-2020-2-29-9-28-2.615966796,22,39
run-2020-2-29-9-28-2.615966796,23,40
run-2020-2-29-9-28-2.615966796,24,40
run-2020-2-29-9-28-2.615966796,25,41
run-2020-2-29-9-28-2.615966796,26,35
run-2020-2-29-9-28-2.615966796,27,40
run-2020-2-29-9-28-2.615966796,28,42
run-2020-2-29-9-28-2.615966796,29,48
run-2020-2-29-9-28-2.615966796,30,44
run-2020-2-29-9-28-2.615966796,31,42
run-2020-2-29-9-28-2.615966796,32,39
run-2020-2-29-9-28-2.615966796,33,45
run-2020-2-29-9-28-2.615966796,34,43
run-2020-2-29-9-28-2.615966796,35,42
run-2020-2-29-9-28-2.615966796,36,44
run-2020-2-29-9-28-2.615966796,37,45
run-2020-2-29-9-28-2.615966796,38,46
run-2020-2-29-9-28-2.615966796,39,45
run-2020-2-29-9-28-2.615966796,40,51
run-2020-2-29-9-28-2.615966796,41,55
run-2020-2-29-9-28-2.615966796,42,55
run-2020-2-29-9-28-2.615966796,43,60
run-2020-2-29-9-28-2.615966796,44,56
run-2020-2-29-9-28-2.615966796,45,56
run-2020-2-29-9-28-2.615966796,46,52
run-2020-2-29-9-28-2.615966796,47,53
run-2020-2-29-9-28-2.615966796,48,52
run-2020-2-29-9-28-2.615966796,49,48
run-2020-2-29-9-28-2.615966796,50,49
run-2020-2-29-9-28-2.615966796,51,52
run-2020-2-29-9-28-2.615966796,52,49
run-2020-2-29-9-28-2.615966796,53,54
run-2020-2-29-9-28-2.615966796,54,56
run-2020-2-29-9-28-2.615966796,55,51
run-2020-2-29-9-28-2.615966796,56,49
run-2020-2-29-9-28-2.615966796,57,45
run-2020-2-29-9-28-2.615966796,58,46
run-2020-2-29-9-28-2.615966796,59,49
run-2020-2-29-9-28-2.615966796,60,50
run-2020-2-29-9-28-2.615966796,61,50
run-2020-2-29-9-28-2.615966796,62,47
run-2020-2-29-9-28-2.615966796,63,48
run-2020-2-29-9-28-2.615966796,64,53
run-2020-2-29-9-28-2.615966796,65,55
run-2020-2-29-9-28-2.615966796,66,54
run-2020-2-29-9-28-2.615966796,67,52
run-2020-2-29-9-28-2.615966796,68,54
run-2020-2-29-9-28-2.615966796,69,49
run-2020-2-29-9-28-2.615966796,70,53
run-2020-2-29-9-28-2.615966796,71,58
run-2020-2-29-9-28-2.615966796,72,56
run-2020-2-29-9-28-2.615966796,73,54
run-2020-2-29-9-28-2.615966796,74,53
run-2020-2-29-9-28-2.615966796,75,55
run-2020-2-29-9-28-2.615966796,76,56
run-2020-2-29-9-28-2.615966796,77,58
run-2020-2-29-9-28-2.615966796,78,54
run-2020-2-29-9-28-2.615966796,79,49
run-2020-2-29-9-28-2.615966796,80,51
run-2020-2-29-9-28-2.615966796,81,53
run-2020-2-29-9-28-2.615966796,82,54
run-2020-2-29-9-28-2.615966796,83,49
run-2020-2-29-9-28-2.615966796,84,48
run-2020-2-29-9-28-2.615966796,85,50
run-2020-2-29-9-28-2.615966796,86,46
run-2020-2-29-9-28-2.615966796,87,45
run-2020-2-29-9-28-2.615966796,88,48
run-2020-2-29-9-28-2.615966796,89,48
run-2020-2-29-9-28-2.615966796,90,48
run-2020-2-29-9-28-2.615966796,91,45
run-2020-2-29-9-28-2.615966796,92,48
run-2020-2-29-9-28-2.615966796,93,52
run-2020-2-29-9-28-2.615966796,94,53
run-2020-2-29-9-28-2.615966796,95,53
run-2020-2-29-9-28-2.615966796,96,51
run-2020-2-29-9-28-2.615966796,97,51
run-2020-2-29-9-28-2.615966796,98,54
run-2020-2-29-9-28-2.615966796,99,52
run-2020-2-29-9-28-2.615966796,100,45
