RunID,Agent,Age,Created,Inactive,Resources,Reputation,Ability,Que
run-2020-2-18-13-57-54.062100887,AGENT#a97a7b12-5256-11ea-8ae6-c38374ac35fe,0,0,0,10,1.0,1.0,0
run-2020-2-18-13-57-54.062100887,AGENT#a97a833c-5256-11ea-9348-c7eeff701ab0,0,0,0,10,1.0,1.0,0
run-2020-2-18-13-57-54.062100887,AGENT#a97a6d52-5256-11ea-8ab4-d38d2c0d9f44,1,0,1,10,1.0,1.0,0
run-2020-2-18-13-57-54.062100887,AGENT#a97a784c-5256-11ea-bdfe-a7fa7395585b,1,0,1,10,1.0,1.0,0
run-2020-2-18-13-57-54.062100887,AGENT#a97a7dc4-5256-11ea-ae10-0377e413dad8,3,0,3,10,1.0,1.0,0
run-2020-2-18-13-57-54.062100887,AGENT#a99328c4-5256-11ea-817b-e7da11c71861,1,2,3,10,1.0,1.0,0
run-2020-2-18-13-57-54.062100887,AGENT#a993301c-5256-11ea-9f5b-233598e5e7e3,1,2,3,10,1.0,1.0,0
run-2020-2-18-13-57-54.062100887,AGENT#a97a7568-5256-11ea-9f08-03d8bfcf281b,4,0,4,10,1.0,1.0,0
run-2020-2-18-13-57-54.062100887,AGENT#a97ac586-5256-11ea-a58b-8b22e1868afa,4,0,4,10,1.0,1.0,0
run-2020-2-18-13-57-54.062100887,AGENT#a9932dc4-5256-11ea-85dc-cf087c2f97ec,2,2,4,10,1.0,1.0,0
run-2020-2-18-13-57-54.062100887,AGENT#a99386ca-5256-11ea-8697-93d8b7f54c6a,1,3,4,10,1.0,1.0,0
run-2020-2-18-13-57-54.062100887,AGENT#a9932306-5256-11ea-967c-c7d47710b790,4,2,6,10,1.0,1.0,0
run-2020-2-18-13-57-54.062100887,AGENT#a9932b3a-5256-11ea-bfd9-7f2c478dcd7d,4,2,6,10,1.0,1.0,0
run-2020-2-18-13-57-54.062100887,AGENT#a993894a-5256-11ea-8176-5ffd14f659c5,3,3,6,10,1.0,1.0,0
run-2020-2-18-13-57-54.062100887,AGENT#a9938ba2-5256-11ea-b7ae-9f821351952c,3,3,6,10,1.0,1.0,0
run-2020-2-18-13-57-54.062100887,AGENT#a993e4f8-5256-11ea-b63b-d3e3fcf30fab,2,4,6,10,1.0,1.0,0
run-2020-2-18-13-57-54.062100887,AGENT#a9932630-5256-11ea-92f7-83c7d519db78,5,2,7,10,1.0,1.0,0
run-2020-2-18-13-57-54.062100887,AGENT#a994bbda-5256-11ea-879b-ab0adbacbf7d,1,6,7,10,1.0,1.0,0
run-2020-2-18-13-57-54.062100887,AGENT#a9944524-5256-11ea-8185-bb01b8cdd149,3,5,8,10,1.0,1.0,0
run-2020-2-18-13-57-54.062100887,AGENT#a994b360-5256-11ea-bbc5-9752b009c96e,2,6,8,10,1.0,1.0,0
run-2020-2-18-13-57-54.062100887,AGENT#a994b694-5256-11ea-9fc7-0b016fc292ae,2,6,8,10,1.0,1.0,0
run-2020-2-18-13-57-54.062100887,AGENT#a99442ea-5256-11ea-9c3f-a3dcdf5bb9b0,4,5,9,10,1.0,1.0,0
run-2020-2-18-13-57-54.062100887,AGENT#a994b96e-5256-11ea-ab65-2f44a834484e,3,6,9,10,1.0,1.0,0
run-2020-2-18-13-57-54.062100887,AGENT#a994be1e-5256-11ea-b2ca-5b107b600eae,3,6,9,10,1.0,1.0,0
run-2020-2-18-13-57-54.062100887,AGENT#a9952908-5256-11ea-8576-07f42f47a31d,2,7,9,10,1.0,1.0,0
run-2020-2-18-13-57-54.062100887,AGENT#a9958d1c-5256-11ea-8713-e32875552b72,1,8,9,10,1.0,1.0,0
run-2020-2-18-13-57-54.062100887,AGENT#a994409c-5256-11ea-8ab1-efa77d58bca8,5,5,10,10,1.0,1.0,0
run-2020-2-18-13-57-54.062100887,AGENT#a995efc8-5256-11ea-a70e-037aed3cac44,1,9,10,10,1.0,1.0,0
run-2020-2-18-13-57-54.062100887,AGENT#a9965b66-5256-11ea-88b7-6339d2ca575c,1,10,11,10,1.0,1.0,0
run-2020-2-18-13-57-54.062100887,AGENT#a9966106-5256-11ea-96f3-33939bcf58d4,1,10,11,10,1.0,1.0,0
run-2020-2-18-13-57-54.062100887,AGENT#a99526a6-5256-11ea-bb78-53a2aa44b321,5,7,12,10,1.0,1.0,0
run-2020-2-18-13-57-54.062100887,AGENT#a9965e86-5256-11ea-9ea6-b71c04b649af,2,10,12,10,1.0,1.0,0
run-2020-2-18-13-57-54.062100887,AGENT#a996d69a-5256-11ea-92ee-97ccc8e9cbf0,1,11,12,10,1.0,1.0,0
run-2020-2-18-13-57-54.062100887,AGENT#a9966372-5256-11ea-844b-53181e783762,3,10,13,10,1.0,1.0,0
run-2020-2-18-13-57-54.062100887,AGENT#a99665d4-5256-11ea-be8f-aff9ad391a0e,3,10,13,10,1.0,1.0,0
run-2020-2-18-13-57-54.062100887,AGENT#a997ba9c-5256-11ea-85cc-2f21e851667e,1,13,14,10,1.0,1.0,0
run-2020-2-18-13-57-54.062100887,AGENT#a996d15e-5256-11ea-b6ac-53569132a9d4,4,11,15,10,1.0,1.0,0
run-2020-2-18-13-57-54.062100887,AGENT#a996d42e-5256-11ea-99ce-f70161871f74,4,11,15,10,1.0,1.0,0
run-2020-2-18-13-57-54.062100887,AGENT#a9974f30-5256-11ea-b710-a36fdc614924,3,12,15,10,1.0,1.0,0
run-2020-2-18-13-57-54.062100887,AGENT#a997b2cc-5256-11ea-b8c4-5b1d18b0c2f6,2,13,15,10,1.0,1.0,0
run-2020-2-18-13-57-54.062100887,AGENT#a997b650-5256-11ea-b763-bbfaae6e2f52,2,13,15,10,1.0,1.0,0
run-2020-2-18-13-57-54.062100887,AGENT#a997bdd0-5256-11ea-9f72-63bbaa08caa7,2,13,15,10,1.0,1.0,0
run-2020-2-18-13-57-54.062100887,AGENT#a998317a-5256-11ea-9105-e3e37c7f6721,1,14,15,10,1.0,1.0,0
run-2020-2-18-13-57-54.062100887,AGENT#a9974c38-5256-11ea-b9d7-232ccc9f870d,4,12,16,10,1.0,1.0,0
run-2020-2-18-13-57-54.062100887,AGENT#a997afa2-5256-11ea-89fd-f718c3050ecb,3,13,16,10,1.0,1.0,0
run-2020-2-18-13-57-54.062100887,AGENT#a9982824-5256-11ea-9280-9b01c025eb91,2,14,16,10,1.0,1.0,0
run-2020-2-18-13-57-54.062100887,AGENT#a997497c-5256-11ea-96ba-43db3ce369bf,5,12,17,10,1.0,1.0,0
run-2020-2-18-13-57-54.062100887,AGENT#a99825e0-5256-11ea-abc7-ffa45b7e6e12,3,14,17,10,1.0,1.0,0
run-2020-2-18-13-57-54.062100887,AGENT#a9982a68-5256-11ea-b674-83444738d89f,3,14,17,10,1.0,1.0,0
run-2020-2-18-13-57-54.062100887,AGENT#a9982ca2-5256-11ea-b3a1-8f97883bcde4,4,14,18,10,1.0,1.0,0
run-2020-2-18-13-57-54.062100887,AGENT#a9982f40-5256-11ea-add0-4f6487a086f5,5,14,19,10,1.0,1.0,0
run-2020-2-18-13-57-54.062100887,AGENT#a9991c02-5256-11ea-8e78-47d8ed633c8b,4,16,20,10,1.0,1.0,0
run-2020-2-18-13-57-54.062100887,AGENT#a9991e78-5256-11ea-8187-874374958ae0,4,16,20,10,1.0,1.0,0
run-2020-2-18-13-57-54.062100887,AGENT#a99a7f8e-5256-11ea-b144-1bec2b28b7fc,1,19,20,10,1.0,1.0,0
run-2020-2-18-13-57-54.062100887,AGENT#a99a8d3a-5256-11ea-b197-13db1dea1003,1,19,20,10,1.0,1.0,0
run-2020-2-18-13-57-54.062100887,AGENT#a99a95dc-5256-11ea-89ec-0b311c93786e,1,19,20,10,1.0,1.0,0
run-2020-2-18-13-57-54.062100887,AGENT#a995243a-5256-11ea-9c1c-2b4651604dfa,14,7,21,10,1.0,1.0,0
run-2020-2-18-13-57-54.062100887,AGENT#a9999150-5256-11ea-9c27-7ff111625587,4,17,21,10,1.0,1.0,0
run-2020-2-18-13-57-54.062100887,AGENT#a99a0a5e-5256-11ea-9301-7beb3479a8c6,3,18,21,10,1.0,1.0,0
run-2020-2-18-13-57-54.062100887,AGENT#a99b14da-5256-11ea-ac21-a3c48fd10c0a,1,20,21,10,1.0,1.0,0
run-2020-2-18-13-57-54.062100887,AGENT#a99a0d6a-5256-11ea-937c-6b17203afae9,4,18,22,10,1.0,1.0,0
run-2020-2-18-13-57-54.062100887,AGENT#a99a8aec-5256-11ea-8862-8b9f412e2957,3,19,22,10,1.0,1.0,0
run-2020-2-18-13-57-54.062100887,AGENT#a99b121e-5256-11ea-bacf-d78b87039d2d,2,20,22,10,1.0,1.0,0
run-2020-2-18-13-57-54.062100887,AGENT#a99b8bb8-5256-11ea-81ab-8f533275a599,1,21,22,10,1.0,1.0,0
run-2020-2-18-13-57-54.062100887,AGENT#a99bfdc8-5256-11ea-88c7-cbabc5d88ade,1,22,23,10,1.0,1.0,0
run-2020-2-18-13-57-54.062100887,AGENT#a99c025a-5256-11ea-9305-8fafc44df3e6,1,22,23,10,1.0,1.0,0
run-2020-2-18-13-57-54.062100887,AGENT#a99c0926-5256-11ea-8104-ef051c6b6647,1,22,23,10,1.0,1.0,0
run-2020-2-18-13-57-54.062100887,AGENT#a99a8682-5256-11ea-829c-1fddfa79f5e6,5,19,24,10,1.0,1.0,0
run-2020-2-18-13-57-54.062100887,AGENT#a99a88bc-5256-11ea-b5a0-2fd48fa412c9,5,19,24,10,1.0,1.0,0
run-2020-2-18-13-57-54.062100887,AGENT#a99c0020-5256-11ea-8f36-a376432518bc,3,22,25,10,1.0,1.0,0
run-2020-2-18-13-57-54.062100887,AGENT#a99c8a22-5256-11ea-a5ed-7709224673f5,2,23,25,10,1.0,1.0,0
run-2020-2-18-13-57-54.062100887,AGENT#a99920ee-5256-11ea-9e20-47cc5ec19084,10,16,26,10,1.0,1.0,0
run-2020-2-18-13-57-54.062100887,AGENT#a99c04a8-5256-11ea-99de-575638c6d4b7,4,22,26,10,1.0,1.0,0
run-2020-2-18-13-57-54.062100887,AGENT#a99d1866-5256-11ea-bb61-7f3a7bc1c795,3,24,27,10,1.0,1.0,0
run-2020-2-18-13-57-54.062100887,AGENT#a99d1abe-5256-11ea-9261-d3305b1d1ef9,3,24,27,10,1.0,1.0,0
run-2020-2-18-13-57-54.062100887,AGENT#a99d1d0c-5256-11ea-87fc-3f3b61720961,4,24,28,10,1.0,1.0,0
run-2020-2-18-13-57-54.062100887,AGENT#a99d1f46-5256-11ea-b4ed-a74650704e01,4,24,28,10,1.0,1.0,0
run-2020-2-18-13-57-54.062100887,AGENT#a99eaeba-5256-11ea-ac22-430ba5f97cfd,1,27,28,10,1.0,1.0,0
run-2020-2-18-13-57-54.062100887,AGENT#a99ea58c-5256-11ea-86c2-8bea62ef913e,2,27,29,10,1.0,1.0,0
run-2020-2-18-13-57-54.062100887,AGENT#a99eac80-5256-11ea-b555-b718d1c514fd,2,27,29,10,1.0,1.0,0
run-2020-2-18-13-57-54.062100887,AGENT#a99eb0f4-5256-11ea-a931-f3e0f6ab9767,2,27,29,10,1.0,1.0,0
run-2020-2-18-13-57-54.062100887,AGENT#a9992346-5256-11ea-ba47-67b959b93cb7,14,16,30,10,1.0,1.0,0
run-2020-2-18-13-57-54.062100887,AGENT#a99d9c46-5256-11ea-87cb-af9866e2fd21,5,25,30,10,1.0,1.0,0
run-2020-2-18-13-57-54.062100887,AGENT#a99da114-5256-11ea-aaad-3ba14ff95719,5,25,30,10,1.0,1.0,0
run-2020-2-18-13-57-54.062100887,AGENT#a99e2472-5256-11ea-be82-13c5200eb4a4,4,26,30,10,1.0,1.0,0
run-2020-2-18-13-57-54.062100887,AGENT#a99eaa3c-5256-11ea-80f9-63592f7f0efc,3,27,30,10,1.0,1.0,0
run-2020-2-18-13-57-54.062100887,AGENT#a99f4988-5256-11ea-aef4-3f5616f48bb1,2,28,30,10,1.0,1.0,0
run-2020-2-18-13-57-54.062100887,AGENT#a99fcf84-5256-11ea-95ec-87014451a953,1,29,30,10,1.0,1.0,0
run-2020-2-18-13-57-54.062100887,AGENT#a998add0-5256-11ea-a29f-d309f6a81b16,17,15,32,10,1.0,1.0,0
run-2020-2-18-13-57-54.062100887,AGENT#a99f4712-5256-11ea-9fec-1fed459e1688,4,28,32,10,1.0,1.0,0
run-2020-2-18-13-57-54.062100887,AGENT#a99fcd04-5256-11ea-8772-2f50e3d504ea,4,29,33,10,1.0,1.0,0
run-2020-2-18-13-57-54.062100887,AGENT#a9a07d9e-5256-11ea-b53f-13c38d124e1a,3,30,33,10,1.0,1.0,0
run-2020-2-18-13-57-54.062100887,AGENT#a9a07ff6-5256-11ea-9092-5b000e1e0d75,3,30,33,10,1.0,1.0,0
run-2020-2-18-13-57-54.062100887,AGENT#a9a1082c-5256-11ea-8334-d763d560542f,2,31,33,10,1.0,1.0,0
run-2020-2-18-13-57-54.062100887,AGENT#a9a196f2-5256-11ea-9c8e-0b531cc1edf9,1,32,33,10,1.0,1.0,0
run-2020-2-18-13-57-54.062100887,AGENT#a9a10598-5256-11ea-b99d-0b04fd7283ff,3,31,34,10,1.0,1.0,0
run-2020-2-18-13-57-54.062100887,AGENT#a9a19274-5256-11ea-b620-579238b8f111,2,32,34,10,1.0,1.0,0
run-2020-2-18-13-57-54.062100887,AGENT#a9a235da-5256-11ea-bd90-0f3cb233eb77,1,33,34,10,1.0,1.0,0
run-2020-2-18-13-57-54.062100887,AGENT#a9a2381e-5256-11ea-adcb-afba50c8f2f6,1,33,34,10,1.0,1.0,0
run-2020-2-18-13-57-54.062100887,AGENT#a9a18ffe-5256-11ea-b0b7-0f531de8b51e,3,32,35,10,1.0,1.0,0
run-2020-2-18-13-57-54.062100887,AGENT#a9a19b48-5256-11ea-95c8-9799cdc145eb,3,32,35,10,1.0,1.0,0
run-2020-2-18-13-57-54.062100887,AGENT#a9a19d6e-5256-11ea-a8fa-53c66ff468e4,3,32,35,10,1.0,1.0,0
run-2020-2-18-13-57-54.062100887,AGENT#a9a23a8a-5256-11ea-972e-6b8743a03048,2,33,35,10,1.0,1.0,0
run-2020-2-18-13-57-54.062100887,AGENT#a9a2c996-5256-11ea-8285-4f6efbd0810b,1,34,35,10,1.0,1.0,0
run-2020-2-18-13-57-54.062100887,AGENT#a9a194ae-5256-11ea-87e5-cf932ba838f1,5,32,37,10,1.0,1.0,0
run-2020-2-18-13-57-54.062100887,AGENT#a9a23382-5256-11ea-a7f3-874eaf359337,4,33,37,10,1.0,1.0,0
run-2020-2-18-13-57-54.062100887,AGENT#a9a407ca-5256-11ea-8b3a-83f295a67ed1,1,36,37,10,1.0,1.0,0
run-2020-2-18-13-57-54.062100887,AGENT#a9a3616c-5256-11ea-8061-ff47b7cbe063,3,35,38,10,1.0,1.0,0
run-2020-2-18-13-57-54.062100887,AGENT#a9a404fa-5256-11ea-be05-c7558997f9fb,2,36,38,10,1.0,1.0,0
run-2020-2-18-13-57-54.062100887,AGENT#a9939052-5256-11ea-a996-4b86e1bbdf7a,36,3,39,10,1.0,1.0,0
run-2020-2-18-13-57-54.062100887,AGENT#a9a35ef6-5256-11ea-96ae-2b56c0985c15,4,35,39,10,1.0,1.0,0
run-2020-2-18-13-57-54.062100887,AGENT#a9a527ae-5256-11ea-a91a-9b447c331f00,1,38,39,10,1.0,1.0,0
run-2020-2-18-13-57-54.062100887,AGENT#a9a52a06-5256-11ea-9f21-9f327ad376e6,1,38,39,10,1.0,1.0,0
run-2020-2-18-13-57-54.062100887,AGENT#a97a808a-5256-11ea-a911-ef0da0fd80b5,40,0,40,10,1.0,1.0,0
run-2020-2-18-13-57-54.062100887,AGENT#a99587f4-5256-11ea-8a69-cff5b9a28a05,32,8,40,10,1.0,1.0,0
run-2020-2-18-13-57-54.062100887,AGENT#a9a52542-5256-11ea-b6c1-1371dc18f121,2,38,40,10,1.0,1.0,0
run-2020-2-18-13-57-54.062100887,AGENT#a9a65f8e-5256-11ea-a37f-c7b9fd41e6f1,1,40,41,10,1.0,1.0,0
run-2020-2-18-13-57-54.062100887,AGENT#a9a664c0-5256-11ea-9b99-4716affe1f1c,1,40,41,10,1.0,1.0,0
run-2020-2-18-13-57-54.062100887,AGENT#a9a52268-5256-11ea-b278-370f576491f1,4,38,42,10,1.0,1.0,0
run-2020-2-18-13-57-54.062100887,AGENT#a9a71370-5256-11ea-9cd5-cbddd77c0dcf,1,41,42,10,1.0,1.0,0
run-2020-2-18-13-57-54.062100887,AGENT#a9a6625e-5256-11ea-9d29-e76aebf65d35,3,40,43,10,1.0,1.0,0
run-2020-2-18-13-57-54.062100887,AGENT#a9a6697a-5256-11ea-bb17-33b0b8ca4ba3,3,40,43,10,1.0,1.0,0
run-2020-2-18-13-57-54.062100887,AGENT#a9a7114a-5256-11ea-8b62-274359c2a2af,2,41,43,10,1.0,1.0,0
run-2020-2-18-13-57-54.062100887,AGENT#a99da358-5256-11ea-9104-fb869e15973b,19,25,44,10,1.0,1.0,0
run-2020-2-18-13-57-54.062100887,AGENT#a9a5c470-5256-11ea-b1e3-3f069fd54297,5,39,44,10,1.0,1.0,0
run-2020-2-18-13-57-54.062100887,AGENT#a9a5c9b6-5256-11ea-af0f-27eeae7b2ab2,5,39,44,10,1.0,1.0,0
run-2020-2-18-13-57-54.062100887,AGENT#a9a70ef2-5256-11ea-b09e-47b03a77657d,3,41,44,10,1.0,1.0,0
run-2020-2-18-13-57-54.062100887,AGENT#a97a7216-5256-11ea-be13-5b8b1a9d3ab8,45,0,45,10,1.0,1.0,0
run-2020-2-18-13-57-54.062100887,AGENT#a97a888c-5256-11ea-994a-6371f647fafc,45,0,45,10,1.0,1.0,0
run-2020-2-18-13-57-54.062100887,AGENT#a9a7db0c-5256-11ea-886f-5f71a150d1c8,3,42,45,10,1.0,1.0,0
run-2020-2-18-13-57-54.062100887,AGENT#a9a9e500-5256-11ea-b399-83282bb4d0b0,1,44,45,10,1.0,1.0,0
run-2020-2-18-13-57-54.062100887,AGENT#a97a85e4-5256-11ea-b066-9b222ca99030,46,0,46,10,1.0,1.0,0
run-2020-2-18-13-57-54.062100887,AGENT#a9a70c86-5256-11ea-8377-93f7d2821cea,5,41,46,10,1.0,1.0,0
run-2020-2-18-13-57-54.062100887,AGENT#a9a9e168-5256-11ea-ab0e-4f9c153d7164,2,44,46,10,1.0,1.0,0
run-2020-2-18-13-57-54.062100887,AGENT#a99bfb52-5256-11ea-ae7e-03cc3aa794f1,25,22,47,10,1.0,1.0,0
run-2020-2-18-13-57-54.062100887,AGENT#a99d158c-5256-11ea-9d6d-8b0136310267,23,24,47,10,1.0,1.0,0
run-2020-2-18-13-57-54.062100887,AGENT#a9a230ee-5256-11ea-bd45-377a640e3065,14,33,47,10,1.0,1.0,0
run-2020-2-18-13-57-54.062100887,AGENT#a9a8d61a-5256-11ea-bdc4-2f94807caec6,4,43,47,10,1.0,1.0,0
run-2020-2-18-13-57-54.062100887,AGENT#a9a9e884-5256-11ea-93b1-cf8c8af839bc,3,44,47,10,1.0,1.0,0
run-2020-2-18-13-57-54.062100887,AGENT#a9aae31a-5256-11ea-b466-b7a292be57f4,2,45,47,10,1.0,1.0,0
run-2020-2-18-13-57-54.062100887,AGENT#a9a9d9d4-5256-11ea-a167-1f02dc981e31,4,44,48,10,1.0,1.0,0
run-2020-2-18-13-57-54.062100887,AGENT#a9abd1e4-5256-11ea-b9a1-a70682125731,2,46,48,10,1.0,1.0,0
run-2020-2-18-13-57-54.062100887,AGENT#a9acde22-5256-11ea-862f-279803d7346d,1,47,48,10,1.0,1.0,0
run-2020-2-18-13-57-54.062100887,AGENT#a9ace57a-5256-11ea-8f76-871d6041c006,2,47,49,10,1.0,1.0,0
run-2020-2-18-13-57-54.062100887,AGENT#a9aced0e-5256-11ea-82a3-6fe5216ad132,2,47,49,10,1.0,1.0,0
run-2020-2-18-13-57-54.062100887,AGENT#a9add9bc-5256-11ea-bf86-3f59ef97a608,1,48,49,10,1.0,1.0,0
run-2020-2-18-13-57-54.062100887,AGENT#a993e782-5256-11ea-8551-bb2bb4b5ed74,46,4,50,10,1.0,1.0,0
run-2020-2-18-13-57-54.062100887,AGENT#a99a842a-5256-11ea-8a73-0fd53b4e1505,31,19,50,10,1.0,1.0,0
run-2020-2-18-13-57-54.062100887,AGENT#a9ace962-5256-11ea-9100-3f25c84bb91e,3,47,50,10,1.0,1.0,0
run-2020-2-18-13-57-54.062100887,AGENT#a9938dfa-5256-11ea-9f96-eb9dda5644a1,48,3,51,10,1.0,1.0,0
run-2020-2-18-13-57-54.062100887,AGENT#a9943df4-5256-11ea-a3fc-97bf7065c576,46,5,51,10,1.0,1.0,0
run-2020-2-18-13-57-54.062100887,AGENT#a994c076-5256-11ea-a36a-8bec1c295825,45,6,51,10,1.0,1.0,0
run-2020-2-18-13-57-54.062100887,AGENT#a9acf088-5256-11ea-b566-17a25b3546b0,4,47,51,10,1.0,1.0,0
run-2020-2-18-13-57-54.062100887,AGENT#a9afb46c-5256-11ea-bb8c-374c2a3b9f0f,1,50,51,10,1.0,1.0,0
run-2020-2-18-13-57-54.062100887,AGENT#a993840e-5256-11ea-8e57-fb939d3e14bd,49,3,52,10,1.0,1.0,0
run-2020-2-18-13-57-54.062100887,AGENT#a993e9da-5256-11ea-a07e-7fd07cc3040c,48,4,52,10,1.0,1.0,0
run-2020-2-18-13-57-54.062100887,AGENT#a9ade0ba-5256-11ea-8f6f-2b3485809b69,4,48,52,10,1.0,1.0,0
run-2020-2-18-13-57-54.062100887,AGENT#a9aece26-5256-11ea-8ec7-67f2dff6b70d,3,49,52,10,1.0,1.0,0
run-2020-2-18-13-57-54.062100887,AGENT#a9a7df58-5256-11ea-94fd-a7bfc615e651,11,42,53,10,1.0,1.0,0
run-2020-2-18-13-57-54.062100887,AGENT#a9aed1e6-5256-11ea-9cd6-bf71eb8f8282,4,49,53,10,1.0,1.0,0
run-2020-2-18-13-57-54.062100887,AGENT#a9b0ab6a-5256-11ea-98f7-5b99adbf0bb0,2,51,53,10,1.0,1.0,0
run-2020-2-18-13-57-54.062100887,AGENT#a9b0af98-5256-11ea-8349-87c2fa34ec98,2,51,53,10,1.0,1.0,0
run-2020-2-18-13-57-54.062100887,AGENT#a9b0b376-5256-11ea-9e32-07627702b249,2,51,53,10,1.0,1.0,0
run-2020-2-18-13-57-54.062100887,AGENT#a995219c-5256-11ea-b7b4-2b89c9e3ad73,47,7,54,10,1.0,1.0,0
run-2020-2-18-13-57-54.062100887,AGENT#a9958ab0-5256-11ea-9745-f7f891fef623,46,8,54,10,1.0,1.0,0
run-2020-2-18-13-57-54.062100887,AGENT#a9b28c82-5256-11ea-8bd1-b31ccbada9c3,1,53,54,10,1.0,1.0,0
run-2020-2-18-13-57-54.062100887,AGENT#a9afb7dc-5256-11ea-8561-db85e74b78fa,5,50,55,10,1.0,1.0,0
run-2020-2-18-13-57-54.062100887,AGENT#a9b28994-5256-11ea-b5af-afa8838ef8b3,2,53,55,10,1.0,1.0,0
run-2020-2-18-13-57-54.062100887,AGENT#a9b3647c-5256-11ea-80fb-9f241cbe2b89,1,54,55,10,1.0,1.0,0
run-2020-2-18-13-57-54.062100887,AGENT#a9b1ae0c-5256-11ea-82a1-0b85f5bd43cf,4,52,56,10,1.0,1.0,0
run-2020-2-18-13-57-54.062100887,AGENT#a9b44d1a-5256-11ea-9035-6bdd7ecf073a,1,55,56,10,1.0,1.0,0
run-2020-2-18-13-57-54.062100887,AGENT#a9b28368-5256-11ea-bf9c-2737d436ef91,4,53,57,10,1.0,1.0,0
run-2020-2-18-13-57-54.062100887,AGENT#a9b36ed6-5256-11ea-a523-9fb31e6362f4,3,54,57,10,1.0,1.0,0
run-2020-2-18-13-57-54.062100887,AGENT#a9b446f8-5256-11ea-9f60-877150418f1c,2,55,57,10,1.0,1.0,0
run-2020-2-18-13-57-54.062100887,AGENT#a9a6672c-5256-11ea-b503-633cb89c630f,18,40,58,10,1.0,1.0,0
run-2020-2-18-13-57-54.062100887,AGENT#a9b2800c-5256-11ea-931b-a3898be78ea9,5,53,58,10,1.0,1.0,0
run-2020-2-18-13-57-54.062100887,AGENT#a9b368b4-5256-11ea-877f-0726d9892fc4,4,54,58,10,1.0,1.0,0
run-2020-2-18-13-57-54.062100887,AGENT#a9b521a4-5256-11ea-9ce6-0f1f2b68fc34,2,56,58,10,1.0,1.0,0
run-2020-2-18-13-57-54.062100887,AGENT#a998232e-5256-11ea-96bf-4fd7c325f517,45,14,59,10,1.0,1.0,0
run-2020-2-18-13-57-54.062100887,AGENT#a9b35f68-5256-11ea-bec4-9ff6d9d46463,5,54,59,10,1.0,1.0,0
run-2020-2-18-13-57-54.062100887,AGENT#a9b44a36-5256-11ea-8fe1-2368849341e3,4,55,59,10,1.0,1.0,0
run-2020-2-18-13-57-54.062100887,AGENT#a9b7cd50-5256-11ea-8dae-b3fee0db348a,1,59,60,10,1.0,1.0,0
run-2020-2-18-13-57-54.062100887,AGENT#a9b524f6-5256-11ea-a70c-67fd3d3ab519,5,56,61,10,1.0,1.0,0
run-2020-2-18-13-57-54.062100887,AGENT#a9b89b18-5256-11ea-8ac8-2fa3b6bec1c6,1,60,61,10,1.0,1.0,0
run-2020-2-18-13-57-54.062100887,AGENT#a9b89de8-5256-11ea-9f1a-c3c148cae609,1,60,61,10,1.0,1.0,0
run-2020-2-18-13-57-54.062100887,AGENT#a9b8a0e0-5256-11ea-9fab-c7d9fac39b89,1,60,61,10,1.0,1.0,0
run-2020-2-18-13-57-54.062100887,AGENT#a999190a-5256-11ea-b582-57f96f7a5846,46,16,62,10,1.0,1.0,0
run-2020-2-18-13-57-54.062100887,AGENT#a9b6142e-5256-11ea-ba66-671e2d0c8e10,5,57,62,10,1.0,1.0,0
run-2020-2-18-13-57-54.062100887,AGENT#a9b70262-5256-11ea-8f3e-df1419facc06,5,58,63,10,1.0,1.0,0
run-2020-2-18-13-57-54.062100887,AGENT#a9b97128-5256-11ea-9dd5-af16ad6f532d,2,61,63,10,1.0,1.0,0
run-2020-2-18-13-57-54.062100887,AGENT#a9b97682-5256-11ea-b141-53ce911de950,2,61,63,10,1.0,1.0,0
run-2020-2-18-13-57-54.062100887,AGENT#a9b97934-5256-11ea-86a5-5733a99904dc,2,61,63,10,1.0,1.0,0
run-2020-2-18-13-57-54.062100887,AGENT#a9b97bd2-5256-11ea-b8b9-97fcc457a6e9,2,61,63,10,1.0,1.0,0
run-2020-2-18-13-57-54.062100887,AGENT#a9ba5f8e-5256-11ea-b6a6-8b7a33a3f7af,1,62,63,10,1.0,1.0,0
run-2020-2-18-13-57-54.062100887,AGENT#a99a0fcc-5256-11ea-877a-bb2bac20a081,46,18,64,10,1.0,1.0,0
run-2020-2-18-13-57-54.062100887,AGENT#a99a7d0e-5256-11ea-b1b5-c7b712dc7779,45,19,64,10,1.0,1.0,0
run-2020-2-18-13-57-54.062100887,AGENT#a99a81dc-5256-11ea-abf5-3b9854edb0b3,45,19,64,10,1.0,1.0,0
run-2020-2-18-13-57-54.062100887,AGENT#a9b8979e-5256-11ea-9949-6776fce2e205,4,60,64,10,1.0,1.0,0
run-2020-2-18-13-57-54.062100887,AGENT#a9bb4110-5256-11ea-9e3f-df3a2f52bdde,1,63,64,10,1.0,1.0,0
run-2020-2-18-13-57-54.062100887,AGENT#a9bc1612-5256-11ea-b317-b37ae502df83,1,64,65,10,1.0,1.0,0
run-2020-2-18-13-57-54.062100887,AGENT#a9a9d628-5256-11ea-9856-9726dce3eeb8,22,44,66,10,1.0,1.0,0
run-2020-2-18-13-57-54.062100887,AGENT#a9b973c6-5256-11ea-882e-372bb564f941,5,61,66,10,1.0,1.0,0
run-2020-2-18-13-57-54.062100887,AGENT#a9bcf56e-5256-11ea-8f2f-df676bd893b0,1,65,66,10,1.0,1.0,0
run-2020-2-18-13-57-54.062100887,AGENT#a99c06f6-5256-11ea-851f-c74c2901c94f,45,22,67,10,1.0,1.0,0
run-2020-2-18-13-57-54.062100887,AGENT#a9bdf158-5256-11ea-9547-ff78cf60b54f,1,66,67,10,1.0,1.0,0
run-2020-2-18-13-57-54.062100887,AGENT#a99c0b60-5256-11ea-aa5c-2324c52487ac,46,22,68,10,1.0,1.0,0
run-2020-2-18-13-57-54.062100887,AGENT#a99c0da4-5256-11ea-a968-f78f0c05b019,46,22,68,10,1.0,1.0,0
run-2020-2-18-13-57-54.062100887,AGENT#a99c8798-5256-11ea-9e94-073792bb7a64,45,23,68,10,1.0,1.0,0
run-2020-2-18-13-57-54.062100887,AGENT#a9bb3b3e-5256-11ea-9678-e3b5e8687bc4,5,63,68,10,1.0,1.0,0
run-2020-2-18-13-57-54.062100887,AGENT#a9bc10d6-5256-11ea-92af-03bc9fd831bf,4,64,68,10,1.0,1.0,0
run-2020-2-18-13-57-54.062100887,AGENT#a9bce9a2-5256-11ea-8abe-f7500934a3a3,3,65,68,10,1.0,1.0,0
run-2020-2-18-13-57-54.062100887,AGENT#a9bcedbc-5256-11ea-8abb-139269d6be81,3,65,68,10,1.0,1.0,0
run-2020-2-18-13-57-54.062100887,AGENT#a9bcf172-5256-11ea-8dd7-cba68bbe3493,3,65,68,10,1.0,1.0,0
run-2020-2-18-13-57-54.062100887,AGENT#a9bedec4-5256-11ea-8766-43d6fb0478f6,1,67,68,10,1.0,1.0,0
run-2020-2-18-13-57-54.062100887,AGENT#a9a07b28-5256-11ea-8090-3f4f1809d938,39,30,69,10,1.0,1.0,0
run-2020-2-18-13-57-54.062100887,AGENT#a9bc1374-5256-11ea-a1c9-e7bb5cda22c6,5,64,69,10,1.0,1.0,0
run-2020-2-18-13-57-54.062100887,AGENT#a9bfddf6-5256-11ea-855b-efde6b6a62fa,1,68,69,10,1.0,1.0,0
run-2020-2-18-13-57-54.062100887,AGENT#a9b6ff42-5256-11ea-a2b2-17df52aa40fc,12,58,70,10,1.0,1.0,0
run-2020-2-18-13-57-54.062100887,AGENT#a9c0a542-5256-11ea-94e2-47e0e48a260f,1,69,70,10,1.0,1.0,0
run-2020-2-18-13-57-54.062100887,AGENT#a9b527e4-5256-11ea-b2a0-5f48ea4228a5,15,56,71,10,1.0,1.0,0
run-2020-2-18-13-57-54.062100887,AGENT#a9beda6e-5256-11ea-bbce-1b0cded9c066,4,67,71,10,1.0,1.0,0
run-2020-2-18-13-57-54.062100887,AGENT#a9bfe0bc-5256-11ea-a8f0-3310bc59848a,3,68,71,10,1.0,1.0,0
run-2020-2-18-13-57-54.062100887,AGENT#a9c0a7c2-5256-11ea-a93f-fff6a5bb7a21,2,69,71,10,1.0,1.0,0
run-2020-2-18-13-57-54.062100887,AGENT#a99d9ec6-5256-11ea-988d-afb06276f04d,47,25,72,10,1.0,1.0,0
run-2020-2-18-13-57-54.062100887,AGENT#a9c19470-5256-11ea-b695-5376c95cabc9,2,70,72,10,1.0,1.0,0
run-2020-2-18-13-57-54.062100887,AGENT#a99ea2f8-5256-11ea-8aff-3b9f8434dc14,46,27,73,10,1.0,1.0,0
run-2020-2-18-13-57-54.062100887,AGENT#a99ea7e4-5256-11ea-81b9-aff29a86732b,46,27,73,10,1.0,1.0,0
run-2020-2-18-13-57-54.062100887,AGENT#a99f444c-5256-11ea-a6ef-0b79932b45f3,45,28,73,10,1.0,1.0,0
run-2020-2-18-13-57-54.062100887,AGENT#a9bfdb30-5256-11ea-aad9-5fc02d6fdc8f,5,68,73,10,1.0,1.0,0
run-2020-2-18-13-57-54.062100887,AGENT#a9c0a2cc-5256-11ea-969a-0f786a658525,4,69,73,10,1.0,1.0,0
run-2020-2-18-13-57-54.062100887,AGENT#a9c47de8-5256-11ea-afbe-638742c7df8f,1,73,74,10,1.0,1.0,0
run-2020-2-18-13-57-54.062100887,AGENT#a9a075ec-5256-11ea-bb45-d35a433fb75a,45,30,75,10,1.0,1.0,0
run-2020-2-18-13-57-54.062100887,AGENT#a9a078b2-5256-11ea-93d2-ab381599f5b9,45,30,75,10,1.0,1.0,0
run-2020-2-18-13-57-54.062100887,AGENT#a9a08262-5256-11ea-b8a8-8fafe3fe4ced,45,30,75,10,1.0,1.0,0
run-2020-2-18-13-57-54.062100887,AGENT#a9c3a58a-5256-11ea-b3f6-679cfd347b81,3,72,75,10,1.0,1.0,0
run-2020-2-18-13-57-54.062100887,AGENT#a9c473f2-5256-11ea-a1e7-7f516a0ead78,2,73,75,10,1.0,1.0,0
run-2020-2-18-13-57-54.062100887,AGENT#a9c47938-5256-11ea-af5e-671769a3e50b,2,73,75,10,1.0,1.0,0
run-2020-2-18-13-57-54.062100887,AGENT#a9c47b9a-5256-11ea-8255-ebfc281db272,2,73,75,10,1.0,1.0,0
run-2020-2-18-13-57-54.062100887,AGENT#a9c545a2-5256-11ea-8e9b-db4643b22496,1,74,75,10,1.0,1.0,0
run-2020-2-18-13-57-54.062100887,AGENT#a9c48036-5256-11ea-83e8-33a232fa2a22,3,73,76,10,1.0,1.0,0
run-2020-2-18-13-57-54.062100887,AGENT#a9c60ca8-5256-11ea-8e2f-0fa6b657b7ee,1,75,76,10,1.0,1.0,0
run-2020-2-18-13-57-54.062100887,AGENT#a9c476c2-5256-11ea-8094-3360bfdae7ff,4,73,77,10,1.0,1.0,0
run-2020-2-18-13-57-54.062100887,AGENT#a9c611a8-5256-11ea-a175-c7e740794ec5,2,75,77,10,1.0,1.0,0
run-2020-2-18-13-57-54.062100887,AGENT#a9c0a024-5256-11ea-a03d-87f17cc3f96f,9,69,78,10,1.0,1.0,0
run-2020-2-18-13-57-54.062100887,AGENT#a9a19918-5256-11ea-a26b-0fda6376d6f0,47,32,79,10,1.0,1.0,0
run-2020-2-18-13-57-54.062100887,AGENT#a9c851de-5256-11ea-8652-f317eeea25ac,1,78,79,10,1.0,1.0,0
run-2020-2-18-13-57-54.062100887,AGENT#a9c854ae-5256-11ea-adf0-7f213014b94d,2,78,80,10,1.0,1.0,0
run-2020-2-18-13-57-54.062100887,AGENT#a9c79e42-5256-11ea-83e6-234ee9c5ee78,4,77,81,10,1.0,1.0,0
run-2020-2-18-13-57-54.062100887,AGENT#a9c9c942-5256-11ea-9cfe-6781e8eca908,1,80,81,10,1.0,1.0,0
run-2020-2-18-13-57-54.062100887,AGENT#a9c9cc08-5256-11ea-8de8-331e4796d3fc,1,80,81,10,1.0,1.0,0
run-2020-2-18-13-57-54.062100887,AGENT#a9c79b7c-5256-11ea-85a3-f36a10ce9604,5,77,82,10,1.0,1.0,0
run-2020-2-18-13-57-54.062100887,AGENT#a9c90eb2-5256-11ea-b6de-4338c793441e,3,79,82,10,1.0,1.0,0
run-2020-2-18-13-57-54.062100887,AGENT#a9a51fd4-5256-11ea-9b92-cf27bff33ee0,45,38,83,10,1.0,1.0,0
run-2020-2-18-13-57-54.062100887,AGENT#a9a8da66-5256-11ea-820c-db672e7926e0,40,43,83,10,1.0,1.0,0
run-2020-2-18-13-57-54.062100887,AGENT#a9ca92be-5256-11ea-a373-ef772e5c0c9d,2,81,83,10,1.0,1.0,0
run-2020-2-18-13-57-54.062100887,AGENT#a9cb797c-5256-11ea-bc32-4bc05c9c711a,1,82,83,10,1.0,1.0,0
run-2020-2-18-13-57-54.062100887,AGENT#a9cb7bc0-5256-11ea-84bb-bb5b3a5f8182,1,82,83,10,1.0,1.0,0
run-2020-2-18-13-57-54.062100887,AGENT#a9cb7e18-5256-11ea-91c5-9342152b7dc0,1,82,83,10,1.0,1.0,0
run-2020-2-18-13-57-54.062100887,AGENT#a9a35c62-5256-11ea-aae5-a7c56f62f086,49,35,84,10,1.0,1.0,0
run-2020-2-18-13-57-54.062100887,AGENT#a9c9d07c-5256-11ea-bd54-1f806441719d,4,80,84,10,1.0,1.0,0
run-2020-2-18-13-57-54.062100887,AGENT#a9ca902a-5256-11ea-9739-d78c4e003834,3,81,84,10,1.0,1.0,0
run-2020-2-18-13-57-54.062100887,AGENT#a9cc5144-5256-11ea-9a9c-0bf10de940cd,1,83,84,10,1.0,1.0,0
run-2020-2-18-13-57-54.062100887,AGENT#a9a5c722-5256-11ea-a347-fb05d4322431,46,39,85,10,1.0,1.0,0
run-2020-2-18-13-57-54.062100887,AGENT#a9c3a88c-5256-11ea-98a8-3703a475aa58,14,72,86,10,1.0,1.0,0
run-2020-2-18-13-57-54.062100887,AGENT#a9cdf468-5256-11ea-99ad-2fb6e67590db,1,85,86,10,1.0,1.0,0
run-2020-2-18-13-57-54.062100887,AGENT#a9a7e322-5256-11ea-92bf-23b92041bfee,45,42,87,10,1.0,1.0,0
run-2020-2-18-13-57-54.062100887,AGENT#a9cb7724-5256-11ea-813d-072657a8ed45,5,82,87,10,1.0,1.0,0
run-2020-2-18-13-57-54.062100887,AGENT#a9cb805c-5256-11ea-a5fa-eb3983811c4f,5,82,87,10,1.0,1.0,0
run-2020-2-18-13-57-54.062100887,AGENT#a9cdf22e-5256-11ea-a224-ef600ae1c200,3,85,88,10,1.0,1.0,0
run-2020-2-18-13-57-54.062100887,AGENT#a9cdf972-5256-11ea-9898-7b1212b152b8,3,85,88,10,1.0,1.0,0
run-2020-2-18-13-57-54.062100887,AGENT#a9a8de12-5256-11ea-bca3-c7ce9992a296,46,43,89,10,1.0,1.0,0
run-2020-2-18-13-57-54.062100887,AGENT#a9a9d218-5256-11ea-9f32-077223f02891,45,44,89,10,1.0,1.0,0
run-2020-2-18-13-57-54.062100887,AGENT#a9cd201a-5256-11ea-b075-d354a926ad6d,5,84,89,10,1.0,1.0,0
run-2020-2-18-13-57-54.062100887,AGENT#a9cecba4-5256-11ea-aa84-33df2ffdd390,3,86,89,10,1.0,1.0,0
run-2020-2-18-13-57-54.062100887,AGENT#a9d11166-5256-11ea-84f1-b77ece0c9ec0,1,88,89,10,1.0,1.0,0
run-2020-2-18-13-57-54.062100887,AGENT#a9a9ddbc-5256-11ea-8b8a-0b8f2dc7fa7b,46,44,90,10,1.0,1.0,0
run-2020-2-18-13-57-54.062100887,AGENT#a9aadf3c-5256-11ea-82ab-1fd67f32233a,45,45,90,10,1.0,1.0,0
run-2020-2-18-13-57-54.062100887,AGENT#a9cfdc9c-5256-11ea-a132-833c43518b69,3,87,90,10,1.0,1.0,0
run-2020-2-18-13-57-54.062100887,AGENT#a9abd5ea-5256-11ea-8162-1b9ef4044257,45,46,91,10,1.0,1.0,0
run-2020-2-18-13-57-54.062100887,AGENT#a9d1153a-5256-11ea-a50a-47035d5d44e1,3,88,91,10,1.0,1.0,0
run-2020-2-18-13-57-54.062100887,AGENT#a9cdf6fc-5256-11ea-99b3-6b8999452fc5,7,85,92,10,1.0,1.0,0
run-2020-2-18-13-57-54.062100887,AGENT#a9cfd850-5256-11ea-ad4a-27b563bb0cdf,5,87,92,10,1.0,1.0,0
run-2020-2-18-13-57-54.062100887,AGENT#a9d3ff3e-5256-11ea-89ea-137f7eef4a58,1,91,92,10,1.0,1.0,0
run-2020-2-18-13-57-54.062100887,AGENT#a9addd5e-5256-11ea-a245-977febde4006,45,48,93,10,1.0,1.0,0
run-2020-2-18-13-57-54.062100887,AGENT#a9d32208-5256-11ea-9a08-0f6374c2cd00,3,90,93,10,1.0,1.0,0
run-2020-2-18-13-57-54.062100887,AGENT#a9acf3ee-5256-11ea-a8a3-e3abbdaf185f,47,47,94,10,1.0,1.0,0
run-2020-2-18-13-57-54.062100887,AGENT#a9aeca48-5256-11ea-8fbc-8b31783d16a4,45,49,94,10,1.0,1.0,0
run-2020-2-18-13-57-54.062100887,AGENT#a9d32488-5256-11ea-97e2-3b2299abd278,4,90,94,10,1.0,1.0,0
run-2020-2-18-13-57-54.062100887,AGENT#a9cd22f4-5256-11ea-8d65-9b1dfb797189,11,84,95,10,1.0,1.0,0
run-2020-2-18-13-57-54.062100887,AGENT#a9d6d646-5256-11ea-b14c-375462196aeb,1,94,95,10,1.0,1.0,0
run-2020-2-18-13-57-54.062100887,AGENT#a9d6da1a-5256-11ea-ba33-574142e079e3,1,94,95,10,1.0,1.0,0
run-2020-2-18-13-57-54.062100887,AGENT#a9cded2e-5256-11ea-b31e-0b2465225463,11,85,96,10,1.0,1.0,0
run-2020-2-18-13-57-54.062100887,AGENT#a9d3fce6-5256-11ea-bcd7-cbc2d41c7e31,5,91,96,10,1.0,1.0,0
run-2020-2-18-13-57-54.062100887,AGENT#a9b1a722-5256-11ea-8f60-83e909d9281f,45,52,97,10,1.0,1.0,0
run-2020-2-18-13-57-54.062100887,AGENT#a9b1aaba-5256-11ea-b707-739e6291c7bc,45,52,97,10,1.0,1.0,0
run-2020-2-18-13-57-54.062100887,AGENT#a9d7fe2c-5256-11ea-aa1c-335f8d27e5d3,2,95,97,10,1.0,1.0,0
run-2020-2-18-13-57-54.062100887,AGENT#a9b28688-5256-11ea-97a6-df9b5cc76aed,45,53,98,10,1.0,1.0,0
run-2020-2-18-13-57-54.062100887,AGENT#a9d90718-5256-11ea-b5a5-7bb5d5dfd3fa,3,96,99,10,1.0,1.0,0
run-2020-2-18-13-57-54.062100887,AGENT#a9d90cd6-5256-11ea-98e8-5343bacb071a,3,96,99,10,1.0,1.0,0
run-2020-2-18-13-57-54.062100887,AGENT#a9d912bc-5256-11ea-a3c3-d30c9c83d044,3,96,99,10,1.0,1.0,0
run-2020-2-18-13-57-54.062100887,AGENT#a9dad048-5256-11ea-9f6e-8b9ae53bace2,1,98,99,10,1.0,1.0,0
run-2020-2-18-13-57-54.062100887,AGENT#a9dad2dc-5256-11ea-b2a4-bf198d4f98f7,1,98,99,10,1.0,1.0,0
