RunID,Tick,ActiveAgentsPerTick
run-2020-2-18-12-30-10.02967,0,17
run-2020-2-18-12-30-10.02967,1,19
run-2020-2-18-12-30-10.02967,2,22
run-2020-2-18-12-30-10.02967,3,23
run-2020-2-18-12-30-10.02967,4,25
run-2020-2-18-12-30-10.02967,5,23
run-2020-2-18-12-30-10.02967,6,22
run-2020-2-18-12-30-10.02967,7,21
run-2020-2-18-12-30-10.02967,8,21
run-2020-2-18-12-30-10.02967,9,26
run-2020-2-18-12-30-10.02967,10,24
run-2020-2-18-12-30-10.02967,11,26
run-2020-2-18-12-30-10.02967,12,26
run-2020-2-18-12-30-10.02967,13,31
run-2020-2-18-12-30-10.02967,14,33
run-2020-2-18-12-30-10.02967,15,34
run-2020-2-18-12-30-10.02967,16,36
run-2020-2-18-12-30-10.02967,17,38
run-2020-2-18-12-30-10.02967,18,41
run-2020-2-18-12-30-10.02967,19,45
run-2020-2-18-12-30-10.02967,20,44
run-2020-2-18-12-30-10.02967,21,47
run-2020-2-18-12-30-10.02967,22,48
run-2020-2-18-12-30-10.02967,23,44
run-2020-2-18-12-30-10.02967,24,42
run-2020-2-18-12-30-10.02967,25,45
run-2020-2-18-12-30-10.02967,26,47
run-2020-2-18-12-30-10.02967,27,46
run-2020-2-18-12-30-10.02967,28,48
run-2020-2-18-12-30-10.02967,29,48
run-2020-2-18-12-30-10.02967,30,53
run-2020-2-18-12-30-10.02967,31,52
run-2020-2-18-12-30-10.02967,32,51
run-2020-2-18-12-30-10.02967,33,51
run-2020-2-18-12-30-10.02967,34,48
run-2020-2-18-12-30-10.02967,35,47
run-2020-2-18-12-30-10.02967,36,50
run-2020-2-18-12-30-10.02967,37,50
run-2020-2-18-12-30-10.02967,38,47
run-2020-2-18-12-30-10.02967,39,49
run-2020-2-18-12-30-10.02967,40,52
run-2020-2-18-12-30-10.02967,41,52
run-2020-2-18-12-30-10.02967,42,52
run-2020-2-18-12-30-10.02967,43,50
run-2020-2-18-12-30-10.02967,44,50
run-2020-2-18-12-30-10.02967,45,50
run-2020-2-18-12-30-10.02967,46,52
run-2020-2-18-12-30-10.02967,47,57
run-2020-2-18-12-30-10.02967,48,60
run-2020-2-18-12-30-10.02967,49,53
run-2020-2-18-12-30-10.02967,50,52
run-2020-2-18-12-30-10.02967,51,47
run-2020-2-18-12-30-10.02967,52,50
run-2020-2-18-12-30-10.02967,53,51
run-2020-2-18-12-30-10.02967,54,51
run-2020-2-18-12-30-10.02967,55,52
run-2020-2-18-12-30-10.02967,56,53
run-2020-2-18-12-30-10.02967,57,52
run-2020-2-18-12-30-10.02967,58,55
run-2020-2-18-12-30-10.02967,59,58
run-2020-2-18-12-30-10.02967,60,58
run-2020-2-18-12-30-10.02967,61,57
run-2020-2-18-12-30-10.02967,62,60
run-2020-2-18-12-30-10.02967,63,59
run-2020-2-18-12-30-10.02967,64,60
run-2020-2-18-12-30-10.02967,65,63
run-2020-2-18-12-30-10.02967,66,63
run-2020-2-18-12-30-10.02967,67,63
run-2020-2-18-12-30-10.02967,68,62
run-2020-2-18-12-30-10.02967,69,58
run-2020-2-18-12-30-10.02967,70,60
run-2020-2-18-12-30-10.02967,71,62
run-2020-2-18-12-30-10.02967,72,64
run-2020-2-18-12-30-10.02967,73,64
run-2020-2-18-12-30-10.02967,74,62
run-2020-2-18-12-30-10.02967,75,61
run-2020-2-18-12-30-10.02967,76,57
run-2020-2-18-12-30-10.02967,77,57
run-2020-2-18-12-30-10.02967,78,62
run-2020-2-18-12-30-10.02967,79,61
run-2020-2-18-12-30-10.02967,80,61
run-2020-2-18-12-30-10.02967,81,63
run-2020-2-18-12-30-10.02967,82,64
run-2020-2-18-12-30-10.02967,83,67
run-2020-2-18-12-30-10.02967,84,71
run-2020-2-18-12-30-10.02967,85,72
run-2020-2-18-12-30-10.02967,86,75
run-2020-2-18-12-30-10.02967,87,72
run-2020-2-18-12-30-10.02967,88,68
run-2020-2-18-12-30-10.02967,89,65
run-2020-2-18-12-30-10.02967,90,65
run-2020-2-18-12-30-10.02967,91,68
run-2020-2-18-12-30-10.02967,92,71
run-2020-2-18-12-30-10.02967,93,68
run-2020-2-18-12-30-10.02967,94,67
run-2020-2-18-12-30-10.02967,95,68
run-2020-2-18-12-30-10.02967,96,67
run-2020-2-18-12-30-10.02967,97,66
run-2020-2-18-12-30-10.02967,98,65
run-2020-2-18-12-30-10.02967,99,67
run-2020-2-18-12-30-10.02967,100,63
