Source,Target
a4d8ba24-5a44-11ea-9ca2-e396b11b099e,a4d8eb16-5a44-11ea-b8e1-3f8ce5c7fe70
a4d8db6c-5a44-11ea-a1f6-1f016a15386f,a4d90812-5a44-11ea-957f-371026e2a256
a4d90812-5a44-11ea-957f-371026e2a256,a4d91d48-5a44-11ea-8eeb-3be29eb92937
a4d896f2-5a44-11ea-907a-17dadf67e8b0,a4d92ebe-5a44-11ea-8c5d-537d59637f87
a4d90812-5a44-11ea-957f-371026e2a256,a4d940ca-5a44-11ea-aaaf-af65ba0f1712
a4d92ebe-5a44-11ea-8c5d-537d59637f87,a4d952a4-5a44-11ea-8c05-7701618e879b
a4d90812-5a44-11ea-957f-371026e2a256,a4d96474-5a44-11ea-80f9-6f109401c5a4
