Source,Target
LAW6503e0ae-ba0c-11ea-bfe7-9fb0bd839e46,LAW650440da-ba0c-11ea-89cb-0b3b7ae02f68
LAW6503e0ae-ba0c-11ea-bfe7-9fb0bd839e46,LAW6504418e-ba0c-11ea-bf12-8fe6edb6dca7
LAW6503dfaa-ba0c-11ea-8fcf-e3be0b489ab7,LAW650441a2-ba0c-11ea-aa77-9b304568b91b
LAW6503e586-ba0c-11ea-a233-4b5040428910,LAW6504415c-ba0c-11ea-9f1d-073eafaaad30
LAW6503e586-ba0c-11ea-a233-4b5040428910,LAW650441fc-ba0c-11ea-93f8-ff75221c40a4
LAW6503e5f4-ba0c-11ea-a1aa-dfec56fb5f76,LAW6504431e-ba0c-11ea-ac06-5b2df8c51968
LAW6503ac92-ba0c-11ea-8ea2-f78054360706,LAW650441c0-ba0c-11ea-8b89-734cc136bcea
LAW6503ddde-ba0c-11ea-9e59-67c135c0fcd6,LAW650442f6-ba0c-11ea-9abf-e73460dfe512
LAW6503e586-ba0c-11ea-a233-4b5040428910,LAW65047136-ba0c-11ea-9882-536e0ec47a48
LAW6503e5f4-ba0c-11ea-a1aa-dfec56fb5f76,LAW6504730c-ba0c-11ea-9520-0f675a5875f3
LAW6504431e-ba0c-11ea-ac06-5b2df8c51968,LAW6504735c-ba0c-11ea-804a-8f108c20cc3f
LAW6503e5f4-ba0c-11ea-a1aa-dfec56fb5f76,LAW6504735c-ba0c-11ea-aeda-437c89799b14
LAW6503e2b6-ba0c-11ea-a933-3f749a947598,LAW650474d8-ba0c-11ea-8514-57941b377895
LAW65047136-ba0c-11ea-9882-536e0ec47a48,LAW65047406-ba0c-11ea-99a0-cf61b3dd37d9
LAW6503e766-ba0c-11ea-9974-4b49e199fba1,LAW650474ec-ba0c-11ea-ad70-37d499f25c3c
LAW6504415c-ba0c-11ea-9f1d-073eafaaad30,LAW65047406-ba0c-11ea-9221-473a938b8caa
LAW650440da-ba0c-11ea-89cb-0b3b7ae02f68,LAW6504780c-ba0c-11ea-b630-7b10fed73ce4
LAW65047136-ba0c-11ea-9882-536e0ec47a48,LAW65047992-ba0c-11ea-bbd1-47b0f34e535f
LAW650441a2-ba0c-11ea-aa77-9b304568b91b,LAW65047b04-ba0c-11ea-863d-5f49e51f13e5
LAW6503aab2-ba0c-11ea-b9b3-e72a59386624,LAW65047be0-ba0c-11ea-8e48-1babefda8dcc
LAW6503e766-ba0c-11ea-9974-4b49e199fba1,LAW65047c44-ba0c-11ea-9153-8f8dc6357c23
LAW6503df8c-ba0c-11ea-9c31-133a2e750fc1,LAW65047c3a-ba0c-11ea-a71f-27c2132e7c47
LAW6503e400-ba0c-11ea-9821-2b70ddf0f316,LAW65047c76-ba0c-11ea-b5d8-33f75dbf4655
LAW6504431e-ba0c-11ea-ac06-5b2df8c51968,LAW65047c76-ba0c-11ea-be94-f7f891070980
LAW6504415c-ba0c-11ea-9f1d-073eafaaad30,LAW65047e9c-ba0c-11ea-ae2e-2754e0c28e24
LAW65047c44-ba0c-11ea-9153-8f8dc6357c23,LAW65048040-ba0c-11ea-a9d8-d732b974225e
LAW6503aab2-ba0c-11ea-880e-1fa6c09b36a2,LAW65048342-ba0c-11ea-ba98-4bbb74fa7ef6
LAW6503e766-ba0c-11ea-9974-4b49e199fba1,LAW650483e2-ba0c-11ea-8db2-6bc9a8aeddb9
LAW65047406-ba0c-11ea-9221-473a938b8caa,LAW650483ec-ba0c-11ea-92ce-3722aac982c2
LAW650442f6-ba0c-11ea-9abf-e73460dfe512,LAW65048414-ba0c-11ea-a668-2f17969a5d62
LAW6503aa62-ba0c-11ea-abf5-87ab0fcde4a4,LAW650484f0-ba0c-11ea-8e1a-17bba9065353
LAW6503e400-ba0c-11ea-9821-2b70ddf0f316,LAW65048414-ba0c-11ea-a55c-c71132d8f744
LAW6503aab2-ba0c-11ea-94d5-47fa0cf701e6,LAW650485b8-ba0c-11ea-b55e-3f38682b3280
LAW6503aab2-ba0c-11ea-94d5-47fa0cf701e6,LAW6504870c-ba0c-11ea-a9e3-bb79e5bc7574
LAW65048040-ba0c-11ea-a9d8-d732b974225e,LAW65048a18-ba0c-11ea-9b40-678adff0fbe0
LAW65047406-ba0c-11ea-9221-473a938b8caa,LAW65048bbc-ba0c-11ea-88c2-73798c4741f3
LAW6503aeea-ba0c-11ea-bd36-1b691caef473,LAW65048c52-ba0c-11ea-b584-33abe9d80b04
LAW6503ab52-ba0c-11ea-b4ee-e380c1ee55c2,LAW65048d6a-ba0c-11ea-87fb-776175713c30
LAW65047c3a-ba0c-11ea-a71f-27c2132e7c47,LAW65048ce8-ba0c-11ea-a723-d39b1dc17f64
LAW65047b04-ba0c-11ea-863d-5f49e51f13e5,LAW65048d42-ba0c-11ea-8403-8bff4c5319b7
