RunID,Tick,ActiveAgentsPerTick
run-2020-2-18-13-54-41.880145072,0,15
run-2020-2-18-13-54-41.880145072,1,14
run-2020-2-18-13-54-41.880145072,2,15
run-2020-2-18-13-54-41.880145072,3,15
run-2020-2-18-13-54-41.880145072,4,17
run-2020-2-18-13-54-41.880145072,5,18
run-2020-2-18-13-54-41.880145072,6,19
run-2020-2-18-13-54-41.880145072,7,22
run-2020-2-18-13-54-41.880145072,8,21
run-2020-2-18-13-54-41.880145072,9,19
run-2020-2-18-13-54-41.880145072,10,22
run-2020-2-18-13-54-41.880145072,11,24
run-2020-2-18-13-54-41.880145072,12,23
run-2020-2-18-13-54-41.880145072,13,22
run-2020-2-18-13-54-41.880145072,14,27
run-2020-2-18-13-54-41.880145072,15,32
run-2020-2-18-13-54-41.880145072,16,37
run-2020-2-18-13-54-41.880145072,17,37
run-2020-2-18-13-54-41.880145072,18,37
run-2020-2-18-13-54-41.880145072,19,40
run-2020-2-18-13-54-41.880145072,20,38
run-2020-2-18-13-54-41.880145072,21,37
run-2020-2-18-13-54-41.880145072,22,37
run-2020-2-18-13-54-41.880145072,23,43
run-2020-2-18-13-54-41.880145072,24,42
run-2020-2-18-13-54-41.880145072,25,42
run-2020-2-18-13-54-41.880145072,26,42
run-2020-2-18-13-54-41.880145072,27,43
run-2020-2-18-13-54-41.880145072,28,42
run-2020-2-18-13-54-41.880145072,29,45
run-2020-2-18-13-54-41.880145072,30,45
run-2020-2-18-13-54-41.880145072,31,46
run-2020-2-18-13-54-41.880145072,32,50
run-2020-2-18-13-54-41.880145072,33,48
run-2020-2-18-13-54-41.880145072,34,47
run-2020-2-18-13-54-41.880145072,35,48
run-2020-2-18-13-54-41.880145072,36,47
run-2020-2-18-13-54-41.880145072,37,48
run-2020-2-18-13-54-41.880145072,38,48
run-2020-2-18-13-54-41.880145072,39,47
run-2020-2-18-13-54-41.880145072,40,48
run-2020-2-18-13-54-41.880145072,41,48
run-2020-2-18-13-54-41.880145072,42,50
run-2020-2-18-13-54-41.880145072,43,52
run-2020-2-18-13-54-41.880145072,44,53
run-2020-2-18-13-54-41.880145072,45,54
run-2020-2-18-13-54-41.880145072,46,53
run-2020-2-18-13-54-41.880145072,47,56
run-2020-2-18-13-54-41.880145072,48,49
run-2020-2-18-13-54-41.880145072,49,52
run-2020-2-18-13-54-41.880145072,50,49
run-2020-2-18-13-54-41.880145072,51,49
run-2020-2-18-13-54-41.880145072,52,49
run-2020-2-18-13-54-41.880145072,53,50
run-2020-2-18-13-54-41.880145072,54,53
run-2020-2-18-13-54-41.880145072,55,53
run-2020-2-18-13-54-41.880145072,56,53
run-2020-2-18-13-54-41.880145072,57,53
run-2020-2-18-13-54-41.880145072,58,55
run-2020-2-18-13-54-41.880145072,59,55
run-2020-2-18-13-54-41.880145072,60,59
run-2020-2-18-13-54-41.880145072,61,61
run-2020-2-18-13-54-41.880145072,62,63
run-2020-2-18-13-54-41.880145072,63,62
run-2020-2-18-13-54-41.880145072,64,60
run-2020-2-18-13-54-41.880145072,65,56
run-2020-2-18-13-54-41.880145072,66,55
run-2020-2-18-13-54-41.880145072,67,54
run-2020-2-18-13-54-41.880145072,68,57
run-2020-2-18-13-54-41.880145072,69,56
run-2020-2-18-13-54-41.880145072,70,55
run-2020-2-18-13-54-41.880145072,71,49
run-2020-2-18-13-54-41.880145072,72,47
run-2020-2-18-13-54-41.880145072,73,47
run-2020-2-18-13-54-41.880145072,74,52
run-2020-2-18-13-54-41.880145072,75,52
run-2020-2-18-13-54-41.880145072,76,51
run-2020-2-18-13-54-41.880145072,77,51
run-2020-2-18-13-54-41.880145072,78,52
run-2020-2-18-13-54-41.880145072,79,52
run-2020-2-18-13-54-41.880145072,80,49
run-2020-2-18-13-54-41.880145072,81,52
run-2020-2-18-13-54-41.880145072,82,53
run-2020-2-18-13-54-41.880145072,83,52
run-2020-2-18-13-54-41.880145072,84,56
run-2020-2-18-13-54-41.880145072,85,54
run-2020-2-18-13-54-41.880145072,86,55
run-2020-2-18-13-54-41.880145072,87,56
run-2020-2-18-13-54-41.880145072,88,52
run-2020-2-18-13-54-41.880145072,89,54
run-2020-2-18-13-54-41.880145072,90,55
run-2020-2-18-13-54-41.880145072,91,59
run-2020-2-18-13-54-41.880145072,92,59
run-2020-2-18-13-54-41.880145072,93,60
run-2020-2-18-13-54-41.880145072,94,57
run-2020-2-18-13-54-41.880145072,95,59
run-2020-2-18-13-54-41.880145072,96,57
run-2020-2-18-13-54-41.880145072,97,56
run-2020-2-18-13-54-41.880145072,98,54
run-2020-2-18-13-54-41.880145072,99,57
run-2020-2-18-13-54-41.880145072,100,55
