RunID,Tick,ActiveAgentsPerTick
run-2020-2-17-18-28-4.672365903,0,15
run-2020-2-17-18-28-4.672365903,1,21
run-2020-2-17-18-28-4.672365903,2,21
run-2020-2-17-18-28-4.672365903,3,19
run-2020-2-17-18-28-4.672365903,4,21
run-2020-2-17-18-28-4.672365903,5,21
run-2020-2-17-18-28-4.672365903,6,23
run-2020-2-17-18-28-4.672365903,7,26
run-2020-2-17-18-28-4.672365903,8,31
run-2020-2-17-18-28-4.672365903,9,27
run-2020-2-17-18-28-4.672365903,10,30
run-2020-2-17-18-28-4.672365903,11,35
run-2020-2-17-18-28-4.672365903,12,36
run-2020-2-17-18-28-4.672365903,13,38
run-2020-2-17-18-28-4.672365903,14,34
run-2020-2-17-18-28-4.672365903,15,41
run-2020-2-17-18-28-4.672365903,16,42
run-2020-2-17-18-28-4.672365903,17,43
run-2020-2-17-18-28-4.672365903,18,42
run-2020-2-17-18-28-4.672365903,19,39
run-2020-2-17-18-28-4.672365903,20,36
run-2020-2-17-18-28-4.672365903,21,39
run-2020-2-17-18-28-4.672365903,22,36
run-2020-2-17-18-28-4.672365903,23,40
run-2020-2-17-18-28-4.672365903,24,39
run-2020-2-17-18-28-4.672365903,25,40
run-2020-2-17-18-28-4.672365903,26,43
run-2020-2-17-18-28-4.672365903,27,48
run-2020-2-17-18-28-4.672365903,28,54
run-2020-2-17-18-28-4.672365903,29,51
run-2020-2-17-18-28-4.672365903,30,51
run-2020-2-17-18-28-4.672365903,31,51
run-2020-2-17-18-28-4.672365903,32,50
run-2020-2-17-18-28-4.672365903,33,49
run-2020-2-17-18-28-4.672365903,34,46
run-2020-2-17-18-28-4.672365903,35,46
run-2020-2-17-18-28-4.672365903,36,50
run-2020-2-17-18-28-4.672365903,37,50
run-2020-2-17-18-28-4.672365903,38,47
run-2020-2-17-18-28-4.672365903,39,51
run-2020-2-17-18-28-4.672365903,40,58
run-2020-2-17-18-28-4.672365903,41,61
run-2020-2-17-18-28-4.672365903,42,57
run-2020-2-17-18-28-4.672365903,43,59
run-2020-2-17-18-28-4.672365903,44,59
run-2020-2-17-18-28-4.672365903,45,58
run-2020-2-17-18-28-4.672365903,46,58
run-2020-2-17-18-28-4.672365903,47,59
run-2020-2-17-18-28-4.672365903,48,57
run-2020-2-17-18-28-4.672365903,49,51
run-2020-2-17-18-28-4.672365903,50,53
run-2020-2-17-18-28-4.672365903,51,56
run-2020-2-17-18-28-4.672365903,52,60
run-2020-2-17-18-28-4.672365903,53,60
run-2020-2-17-18-28-4.672365903,54,60
run-2020-2-17-18-28-4.672365903,55,60
run-2020-2-17-18-28-4.672365903,56,58
run-2020-2-17-18-28-4.672365903,57,54
run-2020-2-17-18-28-4.672365903,58,57
run-2020-2-17-18-28-4.672365903,59,58
run-2020-2-17-18-28-4.672365903,60,59
run-2020-2-17-18-28-4.672365903,61,64
run-2020-2-17-18-28-4.672365903,62,59
run-2020-2-17-18-28-4.672365903,63,59
run-2020-2-17-18-28-4.672365903,64,60
run-2020-2-17-18-28-4.672365903,65,62
run-2020-2-17-18-28-4.672365903,66,60
run-2020-2-17-18-28-4.672365903,67,56
run-2020-2-17-18-28-4.672365903,68,56
run-2020-2-17-18-28-4.672365903,69,58
run-2020-2-17-18-28-4.672365903,70,58
run-2020-2-17-18-28-4.672365903,71,55
run-2020-2-17-18-28-4.672365903,72,51
run-2020-2-17-18-28-4.672365903,73,51
run-2020-2-17-18-28-4.672365903,74,50
run-2020-2-17-18-28-4.672365903,75,51
run-2020-2-17-18-28-4.672365903,76,52
run-2020-2-17-18-28-4.672365903,77,50
run-2020-2-17-18-28-4.672365903,78,51
run-2020-2-17-18-28-4.672365903,79,52
run-2020-2-17-18-28-4.672365903,80,50
run-2020-2-17-18-28-4.672365903,81,47
run-2020-2-17-18-28-4.672365903,82,48
run-2020-2-17-18-28-4.672365903,83,48
run-2020-2-17-18-28-4.672365903,84,47
run-2020-2-17-18-28-4.672365903,85,50
run-2020-2-17-18-28-4.672365903,86,50
run-2020-2-17-18-28-4.672365903,87,50
run-2020-2-17-18-28-4.672365903,88,48
run-2020-2-17-18-28-4.672365903,89,49
run-2020-2-17-18-28-4.672365903,90,48
run-2020-2-17-18-28-4.672365903,91,48
run-2020-2-17-18-28-4.672365903,92,47
run-2020-2-17-18-28-4.672365903,93,45
run-2020-2-17-18-28-4.672365903,94,48
run-2020-2-17-18-28-4.672365903,95,47
run-2020-2-17-18-28-4.672365903,96,45
run-2020-2-17-18-28-4.672365903,97,47
run-2020-2-17-18-28-4.672365903,98,46
run-2020-2-17-18-28-4.672365903,99,45
run-2020-2-17-18-28-4.672365903,100,40
