Source,Target
3ceeb8e4-51b3-11ea-9002-b715bb43b6a3,3cefb4ec-51b3-11ea-b615-ff2554d59ff0
3cee7168-51b3-11ea-94b4-b705581456a9,3cefdb98-51b3-11ea-adb5-9bd7048e2a39
3cee507a-51b3-11ea-8c1a-07798ba76200,3cefc144-51b3-11ea-a429-6f434f0c084c
3cee5d40-51b3-11ea-83d3-4f6d64468c4a,3cefcf2c-51b3-11ea-a9f5-576a060e10da
3cefc144-51b3-11ea-a429-6f434f0c084c,3cf04d30-51b3-11ea-90d6-9b81686f5fdb
3cefb4ec-51b3-11ea-b615-ff2554d59ff0,3cf0425e-51b3-11ea-a2f2-f7638a7f6870
3cf04d30-51b3-11ea-90d6-9b81686f5fdb,3cf08070-51b3-11ea-9e3e-671e5b72ee0b
3cee6830-51b3-11ea-b007-eb9910e0981a,3cf0a7e4-51b3-11ea-bb21-ebd21ebce83a
3cf08070-51b3-11ea-9e3e-671e5b72ee0b,3cf0b1a8-51b3-11ea-8d8a-63ee9334abdf
3cee6830-51b3-11ea-b007-eb9910e0981a,3cf0d1ce-51b3-11ea-af99-47439bbfc198
3cee6830-51b3-11ea-b007-eb9910e0981a,3cf0dbce-51b3-11ea-81f2-0bcdaa52a555
3cee7168-51b3-11ea-94b4-b705581456a9,3cf10a86-51b3-11ea-94c0-8733dab0920e
3cee7168-51b3-11ea-94b4-b705581456a9,3cf13056-51b3-11ea-8b90-df3e39a9d077
3cf0a7e4-51b3-11ea-bb21-ebd21ebce83a,3cf14fa0-51b3-11ea-bea7-17092f8ce4fa
3cef3544-51b3-11ea-8a7a-ff853526872d,3cf15a54-51b3-11ea-8d3b-47c4f271030e
3cefacea-51b3-11ea-918f-5bb884b97a73,3cf1cee4-51b3-11ea-acdd-a7e6c95049d1
3cef3544-51b3-11ea-8a7a-ff853526872d,3cf1e726-51b3-11ea-a48f-3795f04ca77f
3cee5d40-51b3-11ea-83d3-4f6d64468c4a,3cf1dba0-51b3-11ea-a67d-6f45b26c44f9
3cefb4ec-51b3-11ea-b615-ff2554d59ff0,3cf1f252-51b3-11ea-ba2e-d3ba013814ae
3cf14fa0-51b3-11ea-bea7-17092f8ce4fa,3cf24ffe-51b3-11ea-8878-bbbe1714d5c7
3cefcf2c-51b3-11ea-a9f5-576a060e10da,3cf293ce-51b3-11ea-ae70-afdd71fe4baa
3cef3544-51b3-11ea-8a7a-ff853526872d,3cf28a50-51b3-11ea-b865-335c2135b4f8
3cefacea-51b3-11ea-918f-5bb884b97a73,3cf30a20-51b3-11ea-8f78-1325cfadab1e
3cf0425e-51b3-11ea-a2f2-f7638a7f6870,3cf32578-51b3-11ea-a6e5-87059ec3bdea
3cf24ffe-51b3-11ea-8878-bbbe1714d5c7,3cf38b3a-51b3-11ea-9df2-07250638c71d
3cefcf2c-51b3-11ea-a9f5-576a060e10da,3cf37e74-51b3-11ea-8d96-bf8869341194
3cef1258-51b3-11ea-9613-6f08fd0cfd58,3cf3d0ea-51b3-11ea-9ca6-773f74aec95a
3cf1cee4-51b3-11ea-acdd-a7e6c95049d1,3cf3eeae-51b3-11ea-bd43-b7a5bfd1dbff
3cef1258-51b3-11ea-9613-6f08fd0cfd58,3cf3fe80-51b3-11ea-8aa3-5f9967b7654a
3cf08070-51b3-11ea-9e3e-671e5b72ee0b,3cf4110e-51b3-11ea-af89-ffdfece28365
3cefb4ec-51b3-11ea-b615-ff2554d59ff0,3cf46ea6-51b3-11ea-922d-d7c8f4bd2a66
3cefc144-51b3-11ea-a429-6f434f0c084c,3cf47ad6-51b3-11ea-854c-4bdde2310ff8
3cefdb98-51b3-11ea-adb5-9bd7048e2a39,3cf48882-51b3-11ea-8a22-5f3800f4d1d2
3cf0b1a8-51b3-11ea-8d8a-63ee9334abdf,3cf4ae8e-51b3-11ea-9d5a-8b8ea900ebdc
3cef1b04-51b3-11ea-b163-17913bb0c5e3,3cf5116c-51b3-11ea-8435-5f0029b46c45
3cef450c-51b3-11ea-bc24-83017ea8be6e,3cf52576-51b3-11ea-afd0-f308dc6086f5
3cf3fe80-51b3-11ea-8aa3-5f9967b7654a,3cf55f1e-51b3-11ea-942a-134841d6c393
3cf0b1a8-51b3-11ea-8d8a-63ee9334abdf,3cf59d9e-51b3-11ea-babe-6bbe9208ca28
3cefb4ec-51b3-11ea-b615-ff2554d59ff0,3cf5a924-51b3-11ea-8c42-03d4a5ea6174
3ceeb8e4-51b3-11ea-9002-b715bb43b6a3,3cf592cc-51b3-11ea-a2fe-0b0c313897a9
3cf1dba0-51b3-11ea-a67d-6f45b26c44f9,3cf61d50-51b3-11ea-ab21-e3c1078a299d
3cf3eeae-51b3-11ea-bd43-b7a5bfd1dbff,3cf603c4-51b3-11ea-9aad-6bf5f4552aea
3cf0a7e4-51b3-11ea-bb21-ebd21ebce83a,3cf65ae0-51b3-11ea-a27d-875288f1de49
3cefc144-51b3-11ea-a429-6f434f0c084c,3cf67cf0-51b3-11ea-88bd-c36c72b00b65
3cf3d0ea-51b3-11ea-9ca6-773f74aec95a,3cf69096-51b3-11ea-bc2f-eb926c5f35fb
3cf0a7e4-51b3-11ea-bb21-ebd21ebce83a,3cf6aafe-51b3-11ea-be1c-f365d4847f2d
3cf5116c-51b3-11ea-8435-5f0029b46c45,3cf6cf98-51b3-11ea-9afc-838e8aa26bcf
3cf0a7e4-51b3-11ea-bb21-ebd21ebce83a,3cf70d82-51b3-11ea-9261-cb19e513658b
3cee6830-51b3-11ea-b007-eb9910e0981a,3cf720e2-51b3-11ea-bd2c-13d86be59898
3cf3d0ea-51b3-11ea-9ca6-773f74aec95a,3cf7347e-51b3-11ea-bf6d-27061ba4c9d2
3cf0d1ce-51b3-11ea-af99-47439bbfc198,3cf77a10-51b3-11ea-b977-2396287daa2f
3cf1cee4-51b3-11ea-acdd-a7e6c95049d1,3cf791b2-51b3-11ea-919b-eb478c740099
3cf592cc-51b3-11ea-a2fe-0b0c313897a9,3cf7c0f6-51b3-11ea-b760-d769eadf2b0e
3cee507a-51b3-11ea-8c1a-07798ba76200,3cf7fd82-51b3-11ea-bff9-ef3061f08427
3cf0a7e4-51b3-11ea-bb21-ebd21ebce83a,3cf80bf6-51b3-11ea-9994-f73642e824ea
3cf13056-51b3-11ea-8b90-df3e39a9d077,3cf867c2-51b3-11ea-8b93-4f4fa4168140
3cf32578-51b3-11ea-a6e5-87059ec3bdea,3cf8cd8e-51b3-11ea-8dd1-fbf898b0826c
3cf24ffe-51b3-11ea-8878-bbbe1714d5c7,3cf8e026-51b3-11ea-8cb5-63e05e005a8d
3cee7168-51b3-11ea-94b4-b705581456a9,3cf8ebca-51b3-11ea-9604-2f4a9cfed216
3cf10a86-51b3-11ea-94c0-8733dab0920e,3cf91bd6-51b3-11ea-b941-6bba1c4c51c3
3cf32578-51b3-11ea-a6e5-87059ec3bdea,3cf98396-51b3-11ea-a9e0-3bb8aac8c197
3cf38b3a-51b3-11ea-9df2-07250638c71d,3cf97748-51b3-11ea-8c2d-eb58648a0f91
3cf37e74-51b3-11ea-8d96-bf8869341194,3cf98f80-51b3-11ea-93f3-bb2d63bad17f
3cf592cc-51b3-11ea-a2fe-0b0c313897a9,3cf9b852-51b3-11ea-b75a-63a6278295ac
3cf867c2-51b3-11ea-8b93-4f4fa4168140,3cfa290e-51b3-11ea-938a-db45ef8ee5a6
3cefb4ec-51b3-11ea-b615-ff2554d59ff0,3cfa44de-51b3-11ea-8b79-f3773d71f57f
3cf30a20-51b3-11ea-8f78-1325cfadab1e,3cfa35ac-51b3-11ea-ac44-3f4d570a1035
3cefcf2c-51b3-11ea-a9f5-576a060e10da,3cfa8746-51b3-11ea-acf8-63796a2c5a77
3cf52576-51b3-11ea-afd0-f308dc6086f5,3cfac404-51b3-11ea-9832-d3278c495812
3cefacea-51b3-11ea-918f-5bb884b97a73,3cfae2c2-51b3-11ea-84b4-731b16663db3
3cef3544-51b3-11ea-8a7a-ff853526872d,3cfaf15e-51b3-11ea-a35c-9f8533f440df
3cf65ae0-51b3-11ea-a27d-875288f1de49,3cfb6e9a-51b3-11ea-ba7e-93f4d9d5a576
3cf1e726-51b3-11ea-a48f-3795f04ca77f,3cfb9280-51b3-11ea-9451-631c616ba56d
3cf1e726-51b3-11ea-a48f-3795f04ca77f,3cfb857e-51b3-11ea-8816-9baa291fdbd6
3cf38b3a-51b3-11ea-9df2-07250638c71d,3cfbeb54-51b3-11ea-94f2-970dfefa0905
3cf9b852-51b3-11ea-b75a-63a6278295ac,3cfbe0d2-51b3-11ea-946c-27e2365c931e
3cf13056-51b3-11ea-8b90-df3e39a9d077,3cfc42de-51b3-11ea-9b71-077060b5483f
3cf08070-51b3-11ea-9e3e-671e5b72ee0b,3cfc91b2-51b3-11ea-b94f-47e4864489de
3cf8ebca-51b3-11ea-9604-2f4a9cfed216,3cfca68e-51b3-11ea-8a2c-f30d86595464
3cefcf2c-51b3-11ea-a9f5-576a060e10da,3cfc9d2e-51b3-11ea-924c-efa4b3fb3eee
3cf91bd6-51b3-11ea-b941-6bba1c4c51c3,3cfcbf48-51b3-11ea-bb72-b30bfe1484d7
3cef1258-51b3-11ea-9613-6f08fd0cfd58,3cfd1628-51b3-11ea-b21e-93833a369f14
3cf08070-51b3-11ea-9e3e-671e5b72ee0b,3cfd3d6a-51b3-11ea-a9d2-2b99b008131f
3cf8e026-51b3-11ea-8cb5-63e05e005a8d,3cfd63a8-51b3-11ea-ac50-774a0e13d6d4
3cf867c2-51b3-11ea-8b93-4f4fa4168140,3cfd749c-51b3-11ea-a06d-039a691cc985
3cfae2c2-51b3-11ea-84b4-731b16663db3,3cfdefa8-51b3-11ea-a781-9bfef24e4bc6
3cf7fd82-51b3-11ea-bff9-ef3061f08427,3cfde490-51b3-11ea-8a84-13d583cf3095
3cf46ea6-51b3-11ea-922d-d7c8f4bd2a66,3cfe1d34-51b3-11ea-9818-8bfd05958c63
3cf3eeae-51b3-11ea-bd43-b7a5bfd1dbff,3cfe2c2a-51b3-11ea-9259-2b7dcad47947
3cfc91b2-51b3-11ea-b94f-47e4864489de,3cfe6b04-51b3-11ea-bb07-d36e2d8d1952
3cf7fd82-51b3-11ea-bff9-ef3061f08427,3cfec13a-51b3-11ea-ac6e-07c90dd193a3
3cfe1d34-51b3-11ea-9818-8bfd05958c63,3cfeff4c-51b3-11ea-b0a0-478fa35048be
3cf1cee4-51b3-11ea-acdd-a7e6c95049d1,3cff083e-51b3-11ea-b347-63a289330a0e
3cf7fd82-51b3-11ea-bff9-ef3061f08427,3cff1464-51b3-11ea-9ec5-4388ae862a56
3cf7347e-51b3-11ea-bf6d-27061ba4c9d2,3cff731e-51b3-11ea-969f-2396763b9164
3cf14fa0-51b3-11ea-bea7-17092f8ce4fa,3cff9844-51b3-11ea-b827-2b52c241dde1
3cf867c2-51b3-11ea-8b93-4f4fa4168140,3cffec4a-51b3-11ea-a368-a791a7e685c0
3cfc42de-51b3-11ea-9b71-077060b5483f,3cfff726-51b3-11ea-89db-ff8ac618d757
3cfbeb54-51b3-11ea-94f2-970dfefa0905,3d003114-51b3-11ea-a8b6-075c20d777bd
3cf1e726-51b3-11ea-a48f-3795f04ca77f,3d004514-51b3-11ea-b323-9787fa264c6c
3cee6830-51b3-11ea-b007-eb9910e0981a,3d007aca-51b3-11ea-92ed-97fd1c891b4b
3cf6aafe-51b3-11ea-be1c-f365d4847f2d,3d0070fc-51b3-11ea-92c3-d77073f903e0
3ceeb8e4-51b3-11ea-9002-b715bb43b6a3,3d0114da-51b3-11ea-830f-3fc964354a5d
3cefacea-51b3-11ea-918f-5bb884b97a73,3d010832-51b3-11ea-9966-339d40fa60b6
3cf70d82-51b3-11ea-9261-cb19e513658b,3d012222-51b3-11ea-9b30-9b7a1713d76c
3cf70d82-51b3-11ea-9261-cb19e513658b,3d01ac92-51b3-11ea-8b53-b71caee83ca6
3cf67cf0-51b3-11ea-88bd-c36c72b00b65,3d01bcc8-51b3-11ea-a6d6-ef75ea6b3934
3cffec4a-51b3-11ea-a368-a791a7e685c0,3d01f80a-51b3-11ea-81c4-c725bae0c2c7
3cf6cf98-51b3-11ea-9afc-838e8aa26bcf,3d020a16-51b3-11ea-a645-f361f3a6daeb
3cfb9280-51b3-11ea-9451-631c616ba56d,3d025a52-51b3-11ea-8d0a-3b87dfa0751e
3d012222-51b3-11ea-9b30-9b7a1713d76c,3d027320-51b3-11ea-8ebe-dbec97816b89
3d025a52-51b3-11ea-8d0a-3b87dfa0751e,3d02a0b6-51b3-11ea-8554-a345070beffe
3cf1dba0-51b3-11ea-a67d-6f45b26c44f9,3d02ea12-51b3-11ea-95eb-d39f0e5d0b02
3d020a16-51b3-11ea-a645-f361f3a6daeb,3d02f548-51b3-11ea-bb8d-438848f52e88
3cf0dbce-51b3-11ea-81f2-0bcdaa52a555,3d035240-51b3-11ea-a463-d74bd280d0e0
3cee507a-51b3-11ea-8c1a-07798ba76200,3d0348b8-51b3-11ea-8239-43f18eae32d8
3cf32578-51b3-11ea-a6e5-87059ec3bdea,3d03bdac-51b3-11ea-abbc-db3531329de3
3cfdefa8-51b3-11ea-a781-9bfef24e4bc6,3d03e1b0-51b3-11ea-863d-e75d7ac6f74c
3d025a52-51b3-11ea-8d0a-3b87dfa0751e,3d041d1a-51b3-11ea-89c9-2bb4f422ab79
3cfe1d34-51b3-11ea-9818-8bfd05958c63,3d0449ac-51b3-11ea-a5ab-dbe36d173ce6
3cf38b3a-51b3-11ea-9df2-07250638c71d,3d0457c6-51b3-11ea-88c9-efdb3557666a
3cfc9d2e-51b3-11ea-924c-efa4b3fb3eee,3d048d5e-51b3-11ea-809f-f71e7167c416
3cf32578-51b3-11ea-a6e5-87059ec3bdea,3d04fae6-51b3-11ea-88a7-476c8d698d32
3cf1e726-51b3-11ea-a48f-3795f04ca77f,3d04df48-51b3-11ea-a48a-cb281420d093
3cfb857e-51b3-11ea-8816-9baa291fdbd6,3d0512a6-51b3-11ea-a1a2-d717a5994013
3cf59d9e-51b3-11ea-babe-6bbe9208ca28,3d054398-51b3-11ea-84fe-7726fc5aa18f
3cf67cf0-51b3-11ea-88bd-c36c72b00b65,3d05ba1c-51b3-11ea-b2a3-77ae8f2270bf
3cef1258-51b3-11ea-9613-6f08fd0cfd58,3d05c66a-51b3-11ea-9962-6fa559956c1d
3cf98396-51b3-11ea-a9e0-3bb8aac8c197,3d05cfac-51b3-11ea-aab0-83318b486769
3cfa290e-51b3-11ea-938a-db45ef8ee5a6,3d05dbc8-51b3-11ea-8b17-c77d032d4acb
3cf80bf6-51b3-11ea-9994-f73642e824ea,3d0646da-51b3-11ea-9f35-bf9b69e080f7
3d02ea12-51b3-11ea-95eb-d39f0e5d0b02,3d064fe0-51b3-11ea-96c6-7356e69d8a6f
3cef1b04-51b3-11ea-b163-17913bb0c5e3,3d068b22-51b3-11ea-8256-ab42135d0427
3d0646da-51b3-11ea-9f35-bf9b69e080f7,3d069608-51b3-11ea-863d-77209c0a7c66
3cfc9d2e-51b3-11ea-924c-efa4b3fb3eee,3d06bd72-51b3-11ea-8ffe-97f51399fa11
3cf04d30-51b3-11ea-90d6-9b81686f5fdb,3d06e432-51b3-11ea-a0dd-0f449c1fdb1a
3cefdb98-51b3-11ea-adb5-9bd7048e2a39,3d06f62a-51b3-11ea-aa43-3fb1dae928d5
3d0449ac-51b3-11ea-a5ab-dbe36d173ce6,3d0700c0-51b3-11ea-9892-176656e911e9
3cf3eeae-51b3-11ea-bd43-b7a5bfd1dbff,3d07765e-51b3-11ea-ada2-bb79156b9ddd
3cf32578-51b3-11ea-a6e5-87059ec3bdea,3d0794d6-51b3-11ea-9553-d360580984dd
3cfec13a-51b3-11ea-ac6e-07c90dd193a3,3d07a14c-51b3-11ea-a00f-e7c183b32e1e
3cf0b1a8-51b3-11ea-8d8a-63ee9334abdf,3d07e4d6-51b3-11ea-be77-6bce1b6bb668
3d054398-51b3-11ea-84fe-7726fc5aa18f,3d080470-51b3-11ea-8141-8b8ca0fc9356
3d04fae6-51b3-11ea-88a7-476c8d698d32,3d0817e4-51b3-11ea-86db-53e975ad896b
3cfdefa8-51b3-11ea-a781-9bfef24e4bc6,3d08615e-51b3-11ea-96d1-2b1fa8f1836e
3cf24ffe-51b3-11ea-8878-bbbe1714d5c7,3d089836-51b3-11ea-9ae8-5f8211fe7702
3cff083e-51b3-11ea-b347-63a289330a0e,3d08ac04-51b3-11ea-9aeb-c7127f63e36f
3d06f62a-51b3-11ea-aa43-3fb1dae928d5,3d08e14c-51b3-11ea-9465-6b7e7b4f26a5
3cf4110e-51b3-11ea-af89-ffdfece28365,3d091fe0-51b3-11ea-9264-83b0038e4ac9
3cf55f1e-51b3-11ea-942a-134841d6c393,3d091374-51b3-11ea-8bf8-2b1ae5c1eba7
3cf28a50-51b3-11ea-b865-335c2135b4f8,3d093034-51b3-11ea-83f7-2b1fe5265480
3d08e14c-51b3-11ea-9465-6b7e7b4f26a5,3d0979c2-51b3-11ea-8c69-3f2e26d78152
3cff731e-51b3-11ea-969f-2396763b9164,3d09bf40-51b3-11ea-a977-87b722c4d0e5
3cf9b852-51b3-11ea-b75a-63a6278295ac,3d09ebf0-51b3-11ea-a56d-a709f55ada11
3cf0dbce-51b3-11ea-81f2-0bcdaa52a555,3d09f8fc-51b3-11ea-becb-e3c2b4e14375
3cefdb98-51b3-11ea-adb5-9bd7048e2a39,3d0a1814-51b3-11ea-83ad-272a959f0620
3d05cfac-51b3-11ea-aab0-83318b486769,3d0a8010-51b3-11ea-b636-935f8ee61890
3cf7347e-51b3-11ea-bf6d-27061ba4c9d2,3d0a7548-51b3-11ea-af5c-83505fc6541d
3d0512a6-51b3-11ea-a1a2-d717a5994013,3d0a6a62-51b3-11ea-a62c-2797b91efc2d
3d06f62a-51b3-11ea-aa43-3fb1dae928d5,3d0a8b46-51b3-11ea-91f5-87f5a2773ac2
3cf10a86-51b3-11ea-94c0-8733dab0920e,3d0b1a66-51b3-11ea-b056-a3a05c3e4468
3cf77a10-51b3-11ea-b977-2396287daa2f,3d0b0d28-51b3-11ea-9c41-67f3b4f7dbbf
3cf10a86-51b3-11ea-94c0-8733dab0920e,3d0b7074-51b3-11ea-b3b1-332c11c7d4e0
3cee7168-51b3-11ea-94b4-b705581456a9,3d0bc36c-51b3-11ea-98f3-038716aba7ee
3d007aca-51b3-11ea-92ed-97fd1c891b4b,3d0bd0dc-51b3-11ea-9d40-a75bfa8fba12
3d0a6a62-51b3-11ea-a62c-2797b91efc2d,3d0c1894-51b3-11ea-aa6b-fb9830075235
3cf4ae8e-51b3-11ea-9d5a-8b8ea900ebdc,3d0c08ea-51b3-11ea-993b-63649821da28
3d035240-51b3-11ea-a463-d74bd280d0e0,3d0cc906-51b3-11ea-aea4-03ca17772f33
3d025a52-51b3-11ea-8d0a-3b87dfa0751e,3d0cd3e2-51b3-11ea-b25a-33cc771ac871
3cf5116c-51b3-11ea-8435-5f0029b46c45,3d0cdf0e-51b3-11ea-9aa2-9b13fb7e0fce
3cf91bd6-51b3-11ea-b941-6bba1c4c51c3,3d0d0358-51b3-11ea-8bce-1328bcb808a0
3d07e4d6-51b3-11ea-be77-6bce1b6bb668,3d0d8ff8-51b3-11ea-b29d-4b7e92abdb07
3cf603c4-51b3-11ea-9aad-6bf5f4552aea,3d0d9fa2-51b3-11ea-878f-230c9150558e
3cf13056-51b3-11ea-8b90-df3e39a9d077,3d0dbdf2-51b3-11ea-8d0a-2f6cc4613e71
3cff1464-51b3-11ea-9ec5-4388ae862a56,3d0ddc60-51b3-11ea-b2e8-035f2dfbfa32
3d07e4d6-51b3-11ea-be77-6bce1b6bb668,3d0e3c46-51b3-11ea-b69c-078936b0356a
3cf7fd82-51b3-11ea-bff9-ef3061f08427,3d0e73a0-51b3-11ea-92b9-8f092184bfe6
3cf603c4-51b3-11ea-9aad-6bf5f4552aea,3d0ea334-51b3-11ea-8f46-678cf92ea5ae
3d0d8ff8-51b3-11ea-b29d-4b7e92abdb07,3d0ebe28-51b3-11ea-b156-5bbba48effe5
3cf46ea6-51b3-11ea-922d-d7c8f4bd2a66,3d0f6698-51b3-11ea-b4f2-0f0bb76ed2e5
3d089836-51b3-11ea-9ae8-5f8211fe7702,3d0f86b4-51b3-11ea-9b6c-1fe5467b3d9d
3d091374-51b3-11ea-8bf8-2b1ae5c1eba7,3d0f75b6-51b3-11ea-a8ea-57b8ed183ce7
3d08ac04-51b3-11ea-9aeb-c7127f63e36f,3d0fb1d4-51b3-11ea-8191-ff3c0c1d91c0
3cfcbf48-51b3-11ea-bb72-b30bfe1484d7,3d1021e6-51b3-11ea-aec8-7b82c9af6ed5
3d0114da-51b3-11ea-830f-3fc964354a5d,3d10ceb6-51b3-11ea-a5f6-b769047d5f0f
3d0979c2-51b3-11ea-8c69-3f2e26d78152,3d10b868-51b3-11ea-9b8f-dbc4c97677a1
3cf80bf6-51b3-11ea-9994-f73642e824ea,3d1115f6-51b3-11ea-98da-a710b654d065
3cf0d1ce-51b3-11ea-af99-47439bbfc198,3d11557a-51b3-11ea-bd51-0f0bad72792c
3cf0b1a8-51b3-11ea-8d8a-63ee9334abdf,3d119c24-51b3-11ea-af68-93dbcd7c33c4
3cf8e026-51b3-11ea-8cb5-63e05e005a8d,3d11e878-51b3-11ea-a802-cf0c6fa54667
3cee6830-51b3-11ea-b007-eb9910e0981a,3d12313e-51b3-11ea-9ce5-cff195e603f5
3cffec4a-51b3-11ea-a368-a791a7e685c0,3d121708-51b3-11ea-9e36-f736068efeba
3d03e1b0-51b3-11ea-863d-e75d7ac6f74c,3d123cec-51b3-11ea-8329-a30266d1f46c
3cf7347e-51b3-11ea-bf6d-27061ba4c9d2,3d127450-51b3-11ea-9aba-e32fc5c10c6a
3cfde490-51b3-11ea-8a84-13d583cf3095,3d12b4ce-51b3-11ea-909b-07e9984cc9dd
3d01ac92-51b3-11ea-8b53-b71caee83ca6,3d12fc68-51b3-11ea-9852-bb4b67057fc1
3cf720e2-51b3-11ea-bd2c-13d86be59898,3d1361d0-51b3-11ea-993d-7f3c974ec944
3cef450c-51b3-11ea-bc24-83017ea8be6e,3d134c36-51b3-11ea-a1e1-4f4614c6ced9
3cf0d1ce-51b3-11ea-af99-47439bbfc198,3d135866-51b3-11ea-90be-cf68b44d7447
3cf70d82-51b3-11ea-9261-cb19e513658b,3d137602-51b3-11ea-9f7d-8bc8e507d3dd
3cf14fa0-51b3-11ea-bea7-17092f8ce4fa,3d13e2fe-51b3-11ea-9823-130ddee23490
3d0fb1d4-51b3-11ea-8191-ff3c0c1d91c0,3d13ec0e-51b3-11ea-92f1-af1e49e11a04
3cf0d1ce-51b3-11ea-af99-47439bbfc198,3d140ff4-51b3-11ea-b601-4f1f761899fb
3cef450c-51b3-11ea-bc24-83017ea8be6e,3d1430c4-51b3-11ea-b249-43ae3379378a
3cf3d0ea-51b3-11ea-9ca6-773f74aec95a,3d148a9c-51b3-11ea-9c84-136b80a27328
3cf8cd8e-51b3-11ea-8dd1-fbf898b0826c,3d14a6a8-51b3-11ea-a772-63eeb2b4068d
3d08615e-51b3-11ea-96d1-2b1fa8f1836e,3d1494ce-51b3-11ea-99c3-b788d353c6a7
3cfd749c-51b3-11ea-a06d-039a691cc985,3d14b1ac-51b3-11ea-b507-9766829916a5
3d01f80a-51b3-11ea-81c4-c725bae0c2c7,3d1533f2-51b3-11ea-b88e-27788e49d50b
3d0f86b4-51b3-11ea-9b6c-1fe5467b3d9d,3d1560d4-51b3-11ea-8650-dfddfacc77ac
3cff1464-51b3-11ea-9ec5-4388ae862a56,3d157786-51b3-11ea-b9ab-bb1ff0642fa8
3cfb9280-51b3-11ea-9451-631c616ba56d,3d159edc-51b3-11ea-9693-cba2d80d04c1
3d0f6698-51b3-11ea-b4f2-0f0bb76ed2e5,3d15ba34-51b3-11ea-8c63-9be7e566091a
3d0ddc60-51b3-11ea-b2e8-035f2dfbfa32,3d161326-51b3-11ea-aa55-efc78ade9bda
3cf867c2-51b3-11ea-8b93-4f4fa4168140,3d15fe54-51b3-11ea-b198-f3a690477ed4
3cf52576-51b3-11ea-afd0-f308dc6086f5,3d161dbc-51b3-11ea-8da4-f759481a6f3e
3cfff726-51b3-11ea-89db-ff8ac618d757,3d1641ca-51b3-11ea-abc5-e72674cb014a
3d0a8010-51b3-11ea-b636-935f8ee61890,3d170b00-51b3-11ea-a37f-4b6e610a9bc5
3d0a7548-51b3-11ea-af5c-83505fc6541d,3d1701d2-51b3-11ea-83f1-4fc1873487ad
3cfd749c-51b3-11ea-a06d-039a691cc985,3d173224-51b3-11ea-ac75-8351f447d76f
3d02ea12-51b3-11ea-95eb-d39f0e5d0b02,3d1717a8-51b3-11ea-8b8d-f7040c05e82e
3cf720e2-51b3-11ea-bd2c-13d86be59898,3d178116-51b3-11ea-8ce0-7f9689e3eec8
3d140ff4-51b3-11ea-b601-4f1f761899fb,3d17a376-51b3-11ea-96d1-53663744361e
3cf0dbce-51b3-11ea-81f2-0bcdaa52a555,3d17c2de-51b3-11ea-a79c-ef173c133866
3d13e2fe-51b3-11ea-9823-130ddee23490,3d17af24-51b3-11ea-8d23-7b01c3bc52c6
3d1361d0-51b3-11ea-993d-7f3c974ec944,3d182260-51b3-11ea-9eb1-7fae9c33b981
3cff9844-51b3-11ea-b827-2b52c241dde1,3d182b48-51b3-11ea-85d8-bfa9db256e5e
3d0b7074-51b3-11ea-b3b1-332c11c7d4e0,3d186a7c-51b3-11ea-98f0-a75be69aed25
3d05ba1c-51b3-11ea-b2a3-77ae8f2270bf,3d18756c-51b3-11ea-b7c2-f33475394d47
3cf37e74-51b3-11ea-8d96-bf8869341194,3d18ecc2-51b3-11ea-978e-4b368c40fb48
3d15fe54-51b3-11ea-b198-f3a690477ed4,3d18fd48-51b3-11ea-841d-2b66f8e84f8e
3cefdb98-51b3-11ea-adb5-9bd7048e2a39,3d192624-51b3-11ea-a674-ef811cedb022
3cfd3d6a-51b3-11ea-a9d2-2b99b008131f,3d191b84-51b3-11ea-a025-9b94d33710ff
3d1361d0-51b3-11ea-993d-7f3c974ec944,3d195144-51b3-11ea-9150-1bc68fdfac1a
3cf8ebca-51b3-11ea-9604-2f4a9cfed216,3d198696-51b3-11ea-b22a-1340fc20e887
3d0cc906-51b3-11ea-aea4-03ca17772f33,3d19919a-51b3-11ea-9af6-0f13a652bd54
3cf15a54-51b3-11ea-8d3b-47c4f271030e,3d19b332-51b3-11ea-a7ed-7bda04b44e08
3d0449ac-51b3-11ea-a5ab-dbe36d173ce6,3d1a0a9e-51b3-11ea-b56c-2fd0a7ebab3c
3d0c08ea-51b3-11ea-993b-63649821da28,3d1a3532-51b3-11ea-91f5-633297d30189
3cf1dba0-51b3-11ea-a67d-6f45b26c44f9,3d1a4770-51b3-11ea-ac8d-3bffeef21511
3d0794d6-51b3-11ea-9553-d360580984dd,3d1a59c2-51b3-11ea-92bc-4b0e97269664
3cf720e2-51b3-11ea-bd2c-13d86be59898,3d1af120-51b3-11ea-90a1-135a308764f1
3d06f62a-51b3-11ea-aa43-3fb1dae928d5,3d1b0ff2-51b3-11ea-bed7-87faebe1843d
3cf52576-51b3-11ea-afd0-f308dc6086f5,3d1b3716-51b3-11ea-a399-2b45ddb0e9d1
3cf98396-51b3-11ea-a9e0-3bb8aac8c197,3d1bc898-51b3-11ea-b280-1fc86940eff0
3d0e3c46-51b3-11ea-b69c-078936b0356a,3d1be490-51b3-11ea-8b37-8fce337e29e6
3d119c24-51b3-11ea-af68-93dbcd7c33c4,3d1c4534-51b3-11ea-87c7-a3af415caebc
3d0070fc-51b3-11ea-92c3-d77073f903e0,3d1c5916-51b3-11ea-a103-976bf900842e
3d0348b8-51b3-11ea-8239-43f18eae32d8,3d1c6c4e-51b3-11ea-8565-7775b83d5a99
3d182b48-51b3-11ea-85d8-bfa9db256e5e,3d1cd986-51b3-11ea-9560-039ef9c90d03
3d07e4d6-51b3-11ea-be77-6bce1b6bb668,3d1cf7ae-51b3-11ea-9f80-a7f1ca8dd580
3d03e1b0-51b3-11ea-863d-e75d7ac6f74c,3d1ce89a-51b3-11ea-b5e6-37f61825490e
3cf791b2-51b3-11ea-919b-eb478c740099,3d1d562c-51b3-11ea-b8d6-c722693853e0
3d0646da-51b3-11ea-9f35-bf9b69e080f7,3d1d6e5a-51b3-11ea-ab66-4bc53c137d1e
3d195144-51b3-11ea-9150-1bc68fdfac1a,3d1d80ca-51b3-11ea-bbf4-f7274ef78cea
3d054398-51b3-11ea-84fe-7726fc5aa18f,3d1d97e0-51b3-11ea-8f12-73eb022b54d1
3d03bdac-51b3-11ea-abbc-db3531329de3,3d1dfa28-51b3-11ea-a80a-479e42e5026a
3d068b22-51b3-11ea-8256-ab42135d0427,3d1e165c-51b3-11ea-b3d6-a3f02d6466bf
3d0cd3e2-51b3-11ea-b25a-33cc771ac871,3d1e54be-51b3-11ea-93e4-dfb8d3e2908a
3cfeff4c-51b3-11ea-b0a0-478fa35048be,3d1e4906-51b3-11ea-a368-df1ae82f57e1
3d069608-51b3-11ea-863d-77209c0a7c66,3d1e8f06-51b3-11ea-acee-177f8f55590b
3d0b7074-51b3-11ea-b3b1-332c11c7d4e0,3d1eda10-51b3-11ea-b799-6fcef7a2db82
3d178116-51b3-11ea-8ce0-7f9689e3eec8,3d1f1bec-51b3-11ea-b928-7bed7b357373
3cfd749c-51b3-11ea-a06d-039a691cc985,3d1f5c6a-51b3-11ea-98e6-97b79a0404f8
3cf55f1e-51b3-11ea-942a-134841d6c393,3d1fbf70-51b3-11ea-ac5e-bf612b050db7
3cf10a86-51b3-11ea-94c0-8733dab0920e,3d1fceac-51b3-11ea-b10d-dfaca8cec4bf
3cf91bd6-51b3-11ea-b941-6bba1c4c51c3,3d1fdcbc-51b3-11ea-812b-775d395be58a
3cf10a86-51b3-11ea-94c0-8733dab0920e,3d204d82-51b3-11ea-ba53-233c26b20a9f
3d1494ce-51b3-11ea-99c3-b788d353c6a7,3d208716-51b3-11ea-b3bf-0ba57cd4126c
3d0cdf0e-51b3-11ea-9aa2-9b13fb7e0fce,3d20c4ba-51b3-11ea-a574-633e91db5400
3cfae2c2-51b3-11ea-84b4-731b16663db3,3d20d022-51b3-11ea-b4cb-6bf01786d6ab
3cf4110e-51b3-11ea-af89-ffdfece28365,3d20f5ac-51b3-11ea-b72e-374c8c2664db
3cfa44de-51b3-11ea-8b79-f3773d71f57f,3d212c5c-51b3-11ea-8c98-831069bf5712
3d01ac92-51b3-11ea-8b53-b71caee83ca6,3d219336-51b3-11ea-b744-cf69addc4cea
3d17af24-51b3-11ea-8d23-7b01c3bc52c6,3d21d3dc-51b3-11ea-b23b-df41959b17a6
3d157786-51b3-11ea-b9ab-bb1ff0642fa8,3d21e1ba-51b3-11ea-8d9c-cf50be6398d5
3d18fd48-51b3-11ea-841d-2b66f8e84f8e,3d221af4-51b3-11ea-9420-b7664b39b3c8
3d0449ac-51b3-11ea-a5ab-dbe36d173ce6,3d2276de-51b3-11ea-9255-ff23f2ea2e7c
3d137602-51b3-11ea-9f7d-8bc8e507d3dd,3d228296-51b3-11ea-946f-43d0e883fb67
3cf592cc-51b3-11ea-a2fe-0b0c313897a9,3d22e948-51b3-11ea-80c5-536b2d4f655b
3d195144-51b3-11ea-9150-1bc68fdfac1a,3d22f726-51b3-11ea-a281-b30eaa091bfb
3d140ff4-51b3-11ea-b601-4f1f761899fb,3d230f04-51b3-11ea-be53-c3c5d0c19d5c
3d08ac04-51b3-11ea-9aeb-c7127f63e36f,3d2326b0-51b3-11ea-94e5-73aba6b29bae
3ceeb8e4-51b3-11ea-9002-b715bb43b6a3,3d2359b4-51b3-11ea-a28e-7f7b86f5cdaf
3d048d5e-51b3-11ea-809f-f71e7167c416,3d236f9e-51b3-11ea-8567-0f2c951c3616
3d19b332-51b3-11ea-a7ed-7bda04b44e08,3d2399c4-51b3-11ea-a16e-177c1b0a33f4
3d17c2de-51b3-11ea-a79c-ef173c133866,3d23d092-51b3-11ea-9f82-d750fab1d75d
3cf30a20-51b3-11ea-8f78-1325cfadab1e,3d240c7e-51b3-11ea-8358-9b20cffc2867
3d14b1ac-51b3-11ea-b507-9766829916a5,3d23fb12-51b3-11ea-a822-6785f3877d57
3cfec13a-51b3-11ea-ac6e-07c90dd193a3,3d24623c-51b3-11ea-b40e-abee9991eb6a
3d09bf40-51b3-11ea-a977-87b722c4d0e5,3d247e16-51b3-11ea-98f6-1f5bbc20ef57
3cf30a20-51b3-11ea-8f78-1325cfadab1e,3d24a530-51b3-11ea-b81e-77c1a4bbfd92
3cf97748-51b3-11ea-8c2d-eb58648a0f91,3d24c06a-51b3-11ea-8b41-77be0fa85e55
3cf59d9e-51b3-11ea-babe-6bbe9208ca28,3d25596c-51b3-11ea-bb97-c708d66266c0
3d03bdac-51b3-11ea-abbc-db3531329de3,3d257bd6-51b3-11ea-9820-4fe11f08c287
3cfff726-51b3-11ea-89db-ff8ac618d757,3d2590b2-51b3-11ea-94f4-9bf2b691b158
3d21e1ba-51b3-11ea-8d9c-cf50be6398d5,3d259eae-51b3-11ea-bb70-1f748aa1f4ca
3cf65ae0-51b3-11ea-a27d-875288f1de49,3d25ded2-51b3-11ea-8f33-bb959fb346ce
3d1bc898-51b3-11ea-b280-1fc86940eff0,3d25f43a-51b3-11ea-8302-8fb684d15a3c
3d161326-51b3-11ea-aa55-efc78ade9bda,3d260fce-51b3-11ea-9fcd-1f7f4a0a9ddf
3d161326-51b3-11ea-aa55-efc78ade9bda,3d2642b4-51b3-11ea-9547-7f632fb7bde0
3d0449ac-51b3-11ea-a5ab-dbe36d173ce6,3d266258-51b3-11ea-bc2e-b78ece7084f3
3d1e54be-51b3-11ea-93e4-dfb8d3e2908a,3d267cac-51b3-11ea-9a75-9fdee323ae90
3d21d3dc-51b3-11ea-b23b-df41959b17a6,3d26c25c-51b3-11ea-8294-335aa61a8a1e
3d25ded2-51b3-11ea-8f33-bb959fb346ce,3d26fdda-51b3-11ea-9a93-3336b3d78358
3d08615e-51b3-11ea-96d1-2b1fa8f1836e,3d2731a6-51b3-11ea-9114-fba7809183d5
3cf5116c-51b3-11ea-8435-5f0029b46c45,3d273d22-51b3-11ea-8fe4-03a471237cab
3d1cf7ae-51b3-11ea-9f80-a7f1ca8dd580,3d2748a8-51b3-11ea-8e24-a35c761d355f
3d09ebf0-51b3-11ea-a56d-a709f55ada11,3d27bda6-51b3-11ea-bf94-6bbe38f4304a
3cfaf15e-51b3-11ea-a35c-9f8533f440df,3d27afe6-51b3-11ea-8285-4b05cac00d98
3d05dbc8-51b3-11ea-8b17-c77d032d4acb,3d27c706-51b3-11ea-bc32-073eaf29017b
3d0348b8-51b3-11ea-8239-43f18eae32d8,3d27d9ee-51b3-11ea-9a0c-03cb6f358b7a
3cf1cee4-51b3-11ea-acdd-a7e6c95049d1,3d2828e0-51b3-11ea-9572-b3abc97a6b2f
3d04fae6-51b3-11ea-88a7-476c8d698d32,3d28502c-51b3-11ea-827d-37ea90a52ebe
3d0b7074-51b3-11ea-b3b1-332c11c7d4e0,3d286c92-51b3-11ea-9696-27a20fc5fa19
3cf8ebca-51b3-11ea-9604-2f4a9cfed216,3d288a10-51b3-11ea-873e-1f08293e5fd4
3d068b22-51b3-11ea-8256-ab42135d0427,3d289be0-51b3-11ea-b98a-13fdabfa4a02
3d09bf40-51b3-11ea-a977-87b722c4d0e5,3d28c3c2-51b3-11ea-8de6-7b4e134692c8
3cfb9280-51b3-11ea-9451-631c616ba56d,3d290abc-51b3-11ea-a9eb-9fa650748cb0
3ceeb8e4-51b3-11ea-9002-b715bb43b6a3,3d291a98-51b3-11ea-ab3d-6f98212be400
3d22f726-51b3-11ea-a281-b30eaa091bfb,3d29245c-51b3-11ea-9d01-57f9809d5bff
3d0bd0dc-51b3-11ea-9d40-a75bfa8fba12,3d296110-51b3-11ea-a4f2-879ab9a22d4e
3d041d1a-51b3-11ea-89c9-2bb4f422ab79,3d298942-51b3-11ea-8b37-2771f876dd21
3d0a8010-51b3-11ea-b636-935f8ee61890,3d29a24c-51b3-11ea-89fb-bb62a6bc6c29
3d28c3c2-51b3-11ea-8de6-7b4e134692c8,3d29cf74-51b3-11ea-be6a-2765911638cc
3d157786-51b3-11ea-b9ab-bb1ff0642fa8,3d29d8e8-51b3-11ea-a3d9-eb2763867cf4
3d240c7e-51b3-11ea-8358-9b20cffc2867,3d2a188a-51b3-11ea-94b3-e32beb9ada83
3d035240-51b3-11ea-a463-d74bd280d0e0,3d2a4f44-51b3-11ea-9e67-5fd16ed1f724
3d20c4ba-51b3-11ea-a574-633e91db5400,3d2a59f8-51b3-11ea-b1e4-47c59eda7875
3cfcbf48-51b3-11ea-bb72-b30bfe1484d7,3d2a963e-51b3-11ea-a43d-379e5601af4d
3d28502c-51b3-11ea-827d-37ea90a52ebe,3d2aa598-51b3-11ea-9c40-5f7272ac5c9c
3d148a9c-51b3-11ea-9c84-136b80a27328,3d2aec60-51b3-11ea-842c-b745ecc3ac22
3d035240-51b3-11ea-a463-d74bd280d0e0,3d2b4124-51b3-11ea-8449-5731d403228b
3d0457c6-51b3-11ea-88c9-efdb3557666a,3d2b46a6-51b3-11ea-8dec-579a31cbf9e0
3d17a376-51b3-11ea-96d1-53663744361e,3d2b61ae-51b3-11ea-a7ef-63414b7cb47e
3d13ec0e-51b3-11ea-92f1-af1e49e11a04,3d2b6a0a-51b3-11ea-a631-1f94853f5a44
3cee7168-51b3-11ea-94b4-b705581456a9,3d2bc13a-51b3-11ea-a019-c7ca65c6dfab
3cf08070-51b3-11ea-9e3e-671e5b72ee0b,3d2bdaf8-51b3-11ea-94b5-af4cc0f88002
3d15ba34-51b3-11ea-8c63-9be7e566091a,3d2be37c-51b3-11ea-9d99-8780477679f2
3d0e3c46-51b3-11ea-b69c-078936b0356a,3d2bf088-51b3-11ea-aee2-cbe69ffda4db
3d0ebe28-51b3-11ea-b156-5bbba48effe5,3d2c410a-51b3-11ea-b652-2ba94645b09b
3cf77a10-51b3-11ea-b977-2396287daa2f,3d2c5d02-51b3-11ea-96d3-9fae9d5f267a
3d12b4ce-51b3-11ea-909b-07e9984cc9dd,3d2c6784-51b3-11ea-8532-cfca00c6610f
3cfd3d6a-51b3-11ea-a9d2-2b99b008131f,3d2cb176-51b3-11ea-bdd2-6beaf5a7ecfe
3d064fe0-51b3-11ea-96c6-7356e69d8a6f,3d2ccbca-51b3-11ea-8d29-bfafd5f02c18
3d010832-51b3-11ea-9966-339d40fa60b6,3d2cd64c-51b3-11ea-a015-7bd357cc88e7
3d240c7e-51b3-11ea-8358-9b20cffc2867,3d2d0ff4-51b3-11ea-a7ca-4736b31b24bf
3d0d0358-51b3-11ea-8bce-1328bcb808a0,3d2d660c-51b3-11ea-b516-bb22e9b4a414
3d2bf088-51b3-11ea-aee2-cbe69ffda4db,3d2d7480-51b3-11ea-9a6e-57fec08f9501
3d1d6e5a-51b3-11ea-ab66-4bc53c137d1e,3d2d7f34-51b3-11ea-807c-e30c948f79fd
3d247e16-51b3-11ea-98f6-1f5bbc20ef57,3d2d9686-51b3-11ea-910e-a3dd5c1b8dce
3d1c5916-51b3-11ea-a103-976bf900842e,3d2e268c-51b3-11ea-8768-4f2aa614f78b
3cf30a20-51b3-11ea-8f78-1325cfadab1e,3d2e8078-51b3-11ea-8337-53407db562a6
3d05ba1c-51b3-11ea-b2a3-77ae8f2270bf,3d2ea7ec-51b3-11ea-b81c-3b70dba42edf
3d29a24c-51b3-11ea-89fb-bb62a6bc6c29,3d2ef044-51b3-11ea-9a6b-8b7c414a9289
3d17c2de-51b3-11ea-a79c-ef173c133866,3d2f0944-51b3-11ea-b372-d77da0e92775
3d1eda10-51b3-11ea-b799-6fcef7a2db82,3d2f297e-51b3-11ea-a133-5f29aa8aa59e
3cf28a50-51b3-11ea-b865-335c2135b4f8,3d2f35d6-51b3-11ea-b866-3ff906130aca
3d2590b2-51b3-11ea-94f4-9bf2b691b158,3d2f8d60-51b3-11ea-b1c9-eb950e2f8a14
3cf720e2-51b3-11ea-bd2c-13d86be59898,3d2fa87c-51b3-11ea-a772-775f20d78453
3d0fb1d4-51b3-11ea-8191-ff3c0c1d91c0,3d30052e-51b3-11ea-891e-0341e092645e
3cfa290e-51b3-11ea-938a-db45ef8ee5a6,3d305970-51b3-11ea-b9eb-4fa54b1f8532
3d2b61ae-51b3-11ea-a7ef-63414b7cb47e,3d308ada-51b3-11ea-a481-bf763150119c
3d1dfa28-51b3-11ea-a80a-479e42e5026a,3d3097be-51b3-11ea-9786-df04abf41def
3d1eda10-51b3-11ea-b799-6fcef7a2db82,3d313606-51b3-11ea-8849-6bc46fae7fcb
3d14b1ac-51b3-11ea-b507-9766829916a5,3d311f54-51b3-11ea-8e70-336c999b6fa7
3d26fdda-51b3-11ea-9a93-3336b3d78358,3d317652-51b3-11ea-9b52-77813bdf9d29
3cef3544-51b3-11ea-8a7a-ff853526872d,3d329d5c-51b3-11ea-851b-ffa7c3396ac1
3d2e8078-51b3-11ea-8337-53407db562a6,3d32aa90-51b3-11ea-87de-df438f554137
3d02f548-51b3-11ea-bb8d-438848f52e88,3d331354-51b3-11ea-94a0-8baadbe2d0b7
3d27d9ee-51b3-11ea-9a0c-03cb6f358b7a,3d33535a-51b3-11ea-969f-ef7e2ebe5b12
3d1494ce-51b3-11ea-99c3-b788d353c6a7,3d334612-51b3-11ea-b8d2-87886f2bc6b9
3d0070fc-51b3-11ea-92c3-d77073f903e0,3d337614-51b3-11ea-bc40-f7f5e60512ec
3d27d9ee-51b3-11ea-9a0c-03cb6f358b7a,3d3419ca-51b3-11ea-b245-c7a54aff9720
3d2d0ff4-51b3-11ea-a7ca-4736b31b24bf,3d3424c4-51b3-11ea-9fab-0fe686ccce8e
3d182260-51b3-11ea-9eb1-7fae9c33b981,3d34412a-51b3-11ea-85a1-533eb5fb06f9
3d1cd986-51b3-11ea-9560-039ef9c90d03,3d346dd0-51b3-11ea-8f01-eb35e49f6819
3cf04d30-51b3-11ea-90d6-9b81686f5fdb,3d35016e-51b3-11ea-87f0-93884f29f8a4
3d07e4d6-51b3-11ea-be77-6bce1b6bb668,3d350f24-51b3-11ea-aba6-93f05c99a6ee
3d0f86b4-51b3-11ea-9b6c-1fe5467b3d9d,3d351c58-51b3-11ea-9adb-ebd50d0e5f1d
3d308ada-51b3-11ea-a481-bf763150119c,3d3568a2-51b3-11ea-b6e0-3f65bb6dfa89
3d24a530-51b3-11ea-b81e-77c1a4bbfd92,3d35d92c-51b3-11ea-a583-c3d0e9b72da3
3d1eda10-51b3-11ea-b799-6fcef7a2db82,3d35e6a6-51b3-11ea-bf5a-4b23349c6ed0
3cf7347e-51b3-11ea-bf6d-27061ba4c9d2,3d360cc6-51b3-11ea-b33f-7f9ab8087239
3d2d9686-51b3-11ea-910e-a3dd5c1b8dce,3d363dc2-51b3-11ea-b7e5-67cd82f16a5c
3d0b1a66-51b3-11ea-b056-a3a05c3e4468,3d36ac08-51b3-11ea-9e7e-9b96af6c9150
3d1bc898-51b3-11ea-b280-1fc86940eff0,3d36b90a-51b3-11ea-bd2d-5bbe40cf42de
3d1e54be-51b3-11ea-93e4-dfb8d3e2908a,3d36efec-51b3-11ea-b0fb-37f1d29838fe
3d0c08ea-51b3-11ea-993b-63649821da28,3d37294e-51b3-11ea-a27f-dbbedb981134
3cfc91b2-51b3-11ea-b94f-47e4864489de,3d3755fe-51b3-11ea-a75f-e3a92597c54b
3d22e948-51b3-11ea-80c5-536b2d4f655b,3d37a1d0-51b3-11ea-8220-476a71c2107b
3cf32578-51b3-11ea-a6e5-87059ec3bdea,3d3812f0-51b3-11ea-b364-6f1f268bf55d
3cf77a10-51b3-11ea-b977-2396287daa2f,3d381ec6-51b3-11ea-9ba6-af145121e2b6
3cf8e026-51b3-11ea-8cb5-63e05e005a8d,3d384298-51b3-11ea-ac30-e326a155466b
3d29cf74-51b3-11ea-be6a-2765911638cc,3d38dd2a-51b3-11ea-a6d2-1fafd097f731
3d2b4124-51b3-11ea-8449-5731d403228b,3d38ced4-51b3-11ea-93bc-ef329f40cff9
3cf4ae8e-51b3-11ea-9d5a-8b8ea900ebdc,3d3947ba-51b3-11ea-880b-c72072cd0f15
3cf4ae8e-51b3-11ea-9d5a-8b8ea900ebdc,3d3955c0-51b3-11ea-972f-ffcc68bafc2b
3d0fb1d4-51b3-11ea-8191-ff3c0c1d91c0,3d39c028-51b3-11ea-b7cb-b39407f85bbb
3cf3eeae-51b3-11ea-bd43-b7a5bfd1dbff,3d39e4cc-51b3-11ea-8eeb-1391ac63341a
3d2f35d6-51b3-11ea-b866-3ff906130aca,3d3a0f10-51b3-11ea-a1ac-075050182842
3cf97748-51b3-11ea-8c2d-eb58648a0f91,3d3a36e8-51b3-11ea-b911-57319fc865db
3d351c58-51b3-11ea-9adb-ebd50d0e5f1d,3d3a7716-51b3-11ea-8fa3-17912851cc6c
3d29cf74-51b3-11ea-be6a-2765911638cc,3d3ab974-51b3-11ea-8509-d784d5bc7a65
3cf08070-51b3-11ea-9e3e-671e5b72ee0b,3d3af66e-51b3-11ea-851d-6fcfdde58b1f
3d2731a6-51b3-11ea-9114-fba7809183d5,3d3ae624-51b3-11ea-a5f1-03aa6be1d626
3cee7168-51b3-11ea-94b4-b705581456a9,3d3bf41a-51b3-11ea-97e5-671d7a1de9e0
3d161326-51b3-11ea-aa55-efc78ade9bda,3d3c0252-51b3-11ea-b293-f3a6fbf2a972
3d134c36-51b3-11ea-a1e1-4f4614c6ced9,3d3cbe4a-51b3-11ea-b921-c72d290e9893
3d191b84-51b3-11ea-a025-9b94d33710ff,3d3ccaca-51b3-11ea-8ce9-779fbe7cc0aa
3cf69096-51b3-11ea-bc2f-eb926c5f35fb,3d3cd556-51b3-11ea-8361-bb267bf05daa
3d23d092-51b3-11ea-9f82-d750fab1d75d,3d3cdd58-51b3-11ea-b0ca-1b2112ae0497
3d06f62a-51b3-11ea-aa43-3fb1dae928d5,3d3d37da-51b3-11ea-ad75-37e659db411c
3d035240-51b3-11ea-a463-d74bd280d0e0,3d3d4900-51b3-11ea-868a-175e917f97db
3d1e54be-51b3-11ea-93e4-dfb8d3e2908a,3d3e0dcc-51b3-11ea-889a-8becf208ac60
3d2d9686-51b3-11ea-910e-a3dd5c1b8dce,3d3e1b3c-51b3-11ea-b0b5-0bcf1fa4e21c
3d14b1ac-51b3-11ea-b507-9766829916a5,3d3e3f04-51b3-11ea-8619-b7472459413a
3d161dbc-51b3-11ea-8da4-f759481a6f3e,3d3e2974-51b3-11ea-bb46-af35e159baeb
3d38dd2a-51b3-11ea-a6d2-1fafd097f731,3d3ea8cc-51b3-11ea-8ab8-dbae6923ee2e
3d08615e-51b3-11ea-96d1-2b1fa8f1836e,3d3f3170-51b3-11ea-936e-93e7f322e352
3d3ea8cc-51b3-11ea-8ab8-dbae6923ee2e,3d3f5fb0-51b3-11ea-8b25-83098ef04750
3d27c706-51b3-11ea-bc32-073eaf29017b,3d3f5362-51b3-11ea-adc5-c322cbb861fa
3d13e2fe-51b3-11ea-9823-130ddee23490,3d3f91e2-51b3-11ea-b1d2-d3c1b89b7dfa
3d289be0-51b3-11ea-b98a-13fdabfa4a02,3d40094c-51b3-11ea-ba9f-6bfa6846abf4
3d25ded2-51b3-11ea-8f33-bb959fb346ce,3d401360-51b3-11ea-beb6-0f5f95012518
3d273d22-51b3-11ea-8fe4-03a471237cab,3d4043d0-51b3-11ea-aa0b-8345233e9f25
3d0d9fa2-51b3-11ea-878f-230c9150558e,3d406888-51b3-11ea-8e0d-6765ad64fdc9
3d2731a6-51b3-11ea-9114-fba7809183d5,3d40dcdc-51b3-11ea-9859-cfaec45ce13e
3d29cf74-51b3-11ea-be6a-2765911638cc,3d40e8bc-51b3-11ea-b65d-4b246c83eba4
3d0070fc-51b3-11ea-92c3-d77073f903e0,3d40f898-51b3-11ea-a32b-4f091725db7e
3cf55f1e-51b3-11ea-942a-134841d6c393,3d41293a-51b3-11ea-ad26-8f25dddbd88d
3d010832-51b3-11ea-9966-339d40fa60b6,3d41ac66-51b3-11ea-b3dc-cb216a01e138
3cefc144-51b3-11ea-a429-6f434f0c084c,3d41b5d0-51b3-11ea-a0ad-9bb983e0d78f
3cef1258-51b3-11ea-9613-6f08fd0cfd58,3d41d268-51b3-11ea-afeb-6b9809968d01
3d3a0f10-51b3-11ea-a1ac-075050182842,3d41ee92-51b3-11ea-94f4-d7408c500bed
3cfac404-51b3-11ea-9832-d3278c495812,3d421ab6-51b3-11ea-86f9-bb3c7d8403d4
3d3f5362-51b3-11ea-adc5-c322cbb861fa,3d424ba8-51b3-11ea-91dc-a3fbc6792955
3d13e2fe-51b3-11ea-9823-130ddee23490,3d4271f0-51b3-11ea-8f1a-cfaf73c76bf4
3d127450-51b3-11ea-9aba-e32fc5c10c6a,3d4291e4-51b3-11ea-a7ba-8fc807be9eda
3cf293ce-51b3-11ea-ae70-afdd71fe4baa,3d42a666-51b3-11ea-9e3a-b373e6657f71
3cf1cee4-51b3-11ea-acdd-a7e6c95049d1,3d42ce98-51b3-11ea-b39b-0b6f256f6d99
3d1533f2-51b3-11ea-b88e-27788e49d50b,3d4306c4-51b3-11ea-b18a-73bcac143a75
3d1e4906-51b3-11ea-a368-df1ae82f57e1,3d430f98-51b3-11ea-8a15-2bb03473cfab
3cf98396-51b3-11ea-a9e0-3bb8aac8c197,3d434d50-51b3-11ea-8136-4f9268590f1b
3d41d268-51b3-11ea-afeb-6b9809968d01,3d4369b6-51b3-11ea-aa91-53bee1a5e5ce
3d36ac08-51b3-11ea-9e7e-9b96af6c9150,3d43b2a4-51b3-11ea-a4ec-8f12bf4489f1
3d13e2fe-51b3-11ea-9823-130ddee23490,3d43c0dc-51b3-11ea-8fa3-bb7021b4144e
3d03bdac-51b3-11ea-abbc-db3531329de3,3d43cbae-51b3-11ea-a75f-9bbbf09fc336
3d0a8010-51b3-11ea-b636-935f8ee61890,3d440ac4-51b3-11ea-9cc4-ebb572afd789
3d2a188a-51b3-11ea-94b3-e32beb9ada83,3d4461a4-51b3-11ea-bc19-2b02315fe2c7
3d15ba34-51b3-11ea-8c63-9be7e566091a,3d446fbe-51b3-11ea-92eb-93ad771e95a3
3d2cb176-51b3-11ea-bdd2-6beaf5a7ecfe,3d449c6e-51b3-11ea-837b-5f3682a18302
3cf6aafe-51b3-11ea-be1c-f365d4847f2d,3d449066-51b3-11ea-9456-93579a977b65
3d2f35d6-51b3-11ea-b866-3ff906130aca,3d454664-51b3-11ea-97db-df1e8d552295
3d20c4ba-51b3-11ea-a574-633e91db5400,3d45573a-51b3-11ea-88cc-1b72901357be
3d2326b0-51b3-11ea-94e5-73aba6b29bae,3d456dce-51b3-11ea-95d8-33b2259b18ab
3d2c410a-51b3-11ea-b652-2ba94645b09b,3d4565c2-51b3-11ea-bcfe-cb0ad913f682
3d161326-51b3-11ea-aa55-efc78ade9bda,3d45c27e-51b3-11ea-966f-e372af0d3ce8
3d20d022-51b3-11ea-b4cb-6bf01786d6ab,3d45db06-51b3-11ea-9aca-6fdd68791a5f
3d311f54-51b3-11ea-8e70-336c999b6fa7,3d45e92a-51b3-11ea-8680-bfada9608f5f
3d381ec6-51b3-11ea-9ba6-af145121e2b6,3d460720-51b3-11ea-ab41-17993fdd45b3
3d20f5ac-51b3-11ea-b72e-374c8c2664db,3d46564e-51b3-11ea-a16b-ff66425d3fc6
3d219336-51b3-11ea-b744-cf69addc4cea,3d467642-51b3-11ea-9840-f7501a664b77
3d212c5c-51b3-11ea-8c98-831069bf5712,3d46816e-51b3-11ea-b029-479c84f8b0fa
3cefcf2c-51b3-11ea-a9f5-576a060e10da,3d46cf84-51b3-11ea-ab8e-c34794b72734
3d2d7480-51b3-11ea-9a6e-57fec08f9501,3d46ea00-51b3-11ea-88e0-17ec3a48a465
3d0d9fa2-51b3-11ea-878f-230c9150558e,3d4709a4-51b3-11ea-8b5d-af07a0eb1e91
3d460720-51b3-11ea-ab41-17993fdd45b3,3d4726be-51b3-11ea-abdd-7f9240258152
3d1a59c2-51b3-11ea-92bc-4b0e97269664,3d47833e-51b3-11ea-b946-9f806afcbd8e
3d42a666-51b3-11ea-9e3a-b373e6657f71,3d479798-51b3-11ea-9e8c-4375067e7d3c
3d3af66e-51b3-11ea-851d-6fcfdde58b1f,3d47aa1c-51b3-11ea-ba92-2b7bc039ac6b
3d161326-51b3-11ea-aa55-efc78ade9bda,3d4813d0-51b3-11ea-b84f-f7d65da8164e
3d208716-51b3-11ea-b3bf-0ba57cd4126c,3d48299c-51b3-11ea-bc4d-df40b35bcd7c
3d0cd3e2-51b3-11ea-b25a-33cc771ac871,3d484616-51b3-11ea-9d57-3f695ee9c395
3d07765e-51b3-11ea-ada2-bb79156b9ddd,3d4877ee-51b3-11ea-82ec-0faeca4be525
3d36b90a-51b3-11ea-bd2d-5bbe40cf42de,3d488360-51b3-11ea-8cd4-97adccb21a5b
3cf65ae0-51b3-11ea-a27d-875288f1de49,3d48e332-51b3-11ea-8a56-f362381a88af
3cf69096-51b3-11ea-bc2f-eb926c5f35fb,3d49128a-51b3-11ea-851f-93c23d30891a
3cfd3d6a-51b3-11ea-a9d2-2b99b008131f,3d493b20-51b3-11ea-b464-2349027a5bda
3d3097be-51b3-11ea-9786-df04abf41def,3d49476e-51b3-11ea-b5e1-af63dd7d449d
3d29245c-51b3-11ea-9d01-57f9809d5bff,3d49a754-51b3-11ea-b0b2-97429e3661a7
3cff731e-51b3-11ea-969f-2396763b9164,3d4a0b5e-51b3-11ea-acff-bb70eb54e633
3d29d8e8-51b3-11ea-a3d9-eb2763867cf4,3d4a1af4-51b3-11ea-95c6-eb2d6bf3268b
3d1d6e5a-51b3-11ea-ab66-4bc53c137d1e,3d4a37aa-51b3-11ea-afb4-03c80dedf7bd
3cefc144-51b3-11ea-a429-6f434f0c084c,3d4a55d2-51b3-11ea-af8e-8fb5e581763a
3d3c0252-51b3-11ea-b293-f3a6fbf2a972,3d4aa79e-51b3-11ea-aa89-53eac1d2c304
3d12b4ce-51b3-11ea-909b-07e9984cc9dd,3d4ac33c-51b3-11ea-b1f3-53e04c37bae0
3d273d22-51b3-11ea-8fe4-03a471237cab,3d4aedb2-51b3-11ea-bca0-8f482c867ebf
3d291a98-51b3-11ea-ab3d-6f98212be400,3d4afff0-51b3-11ea-876c-7b05ddc53b78
3cf1cee4-51b3-11ea-acdd-a7e6c95049d1,3d4b4668-51b3-11ea-95a8-9b10ec1f433f
3d07765e-51b3-11ea-ada2-bb79156b9ddd,3d4b601c-51b3-11ea-9b39-67881be5b38a
3d020a16-51b3-11ea-a645-f361f3a6daeb,3d4b865a-51b3-11ea-a0f3-3ff482bceb5f
3d421ab6-51b3-11ea-86f9-bb3c7d8403d4,3d4b9eba-51b3-11ea-a185-2f0d5aebc65c
3d3947ba-51b3-11ea-880b-c72072cd0f15,3d4bd858-51b3-11ea-bff6-7be6d5ee9aa8
3d186a7c-51b3-11ea-98f0-a75be69aed25,3d4c1232-51b3-11ea-bc49-3f013d8ee95a
3d161326-51b3-11ea-aa55-efc78ade9bda,3d4c3906-51b3-11ea-a973-674503066c12
3cf32578-51b3-11ea-a6e5-87059ec3bdea,3d4c443c-51b3-11ea-810c-7f9f5735a259
3d198696-51b3-11ea-b22a-1340fc20e887,3d4c7470-51b3-11ea-b7cc-47351792ff93
3d3f5362-51b3-11ea-adc5-c322cbb861fa,3d4c9edc-51b3-11ea-a7c5-c7bf25306c64
3d3097be-51b3-11ea-9786-df04abf41def,3d4cb00c-51b3-11ea-8f1c-975bfee02cdd
3d2748a8-51b3-11ea-8e24-a35c761d355f,3d4ce2ac-51b3-11ea-bf55-132aff7a1b4c
3d240c7e-51b3-11ea-8358-9b20cffc2867,3d4d2aaa-51b3-11ea-ae7e-03378cadc252
3d38dd2a-51b3-11ea-a6d2-1fafd097f731,3d4d3c66-51b3-11ea-9a30-6be3675bf87b
3d49128a-51b3-11ea-851f-93c23d30891a,3d4d5782-51b3-11ea-a9d5-d782e184b7e1
3cf0a7e4-51b3-11ea-bb21-ebd21ebce83a,3d4d7226-51b3-11ea-bd06-4f394a1feb75
3d35d92c-51b3-11ea-a583-c3d0e9b72da3,3d4d962a-51b3-11ea-93f7-27f5559f66d0
3d2359b4-51b3-11ea-a28e-7f7b86f5cdaf,3d4de260-51b3-11ea-bd83-7fae6ea0c2a6
3d40f898-51b3-11ea-a32b-4f091725db7e,3d4e0d44-51b3-11ea-9956-7f4c55a87187
3d2a963e-51b3-11ea-a43d-379e5601af4d,3d4e1906-51b3-11ea-996e-cfffd324941e
3d4bd858-51b3-11ea-bff6-7be6d5ee9aa8,3d4e3846-51b3-11ea-aa77-c35073086c38
3cfe6b04-51b3-11ea-bb07-d36e2d8d1952,3d4e4e08-51b3-11ea-bcd2-672b81c5a21c
3d2aa598-51b3-11ea-9c40-5f7272ac5c9c,3d4e7a40-51b3-11ea-a280-af846c57f816
3d259eae-51b3-11ea-bb70-1f748aa1f4ca,3d4ea75e-51b3-11ea-aa7d-2f62ea451632
3d054398-51b3-11ea-84fe-7726fc5aa18f,3d4eb7da-51b3-11ea-9827-c3d387ced664
3d0d0358-51b3-11ea-8bce-1328bcb808a0,3d4efff6-51b3-11ea-9629-9bb644b1085d
3d4e0d44-51b3-11ea-9956-7f4c55a87187,3d4f5596-51b3-11ea-b948-878b2fa83f54
3cf28a50-51b3-11ea-b865-335c2135b4f8,3d4f62de-51b3-11ea-baa5-a3a1ee786bf6
3d48e332-51b3-11ea-8a56-f362381a88af,3d4f7cb0-51b3-11ea-9f25-fbed994cb3ee
3cfa44de-51b3-11ea-8b79-f3773d71f57f,3d4fcaf8-51b3-11ea-b71e-9b072f30be32
3d48299c-51b3-11ea-bc4d-df40b35bcd7c,3d4ff096-51b3-11ea-901e-db8e704decf2
3cef3544-51b3-11ea-8a7a-ff853526872d,3d5035c4-51b3-11ea-ab05-4f6c46a0154b
3cf7c0f6-51b3-11ea-b760-d769eadf2b0e,3d509bae-51b3-11ea-b950-e34d28ed7908
3d25f43a-51b3-11ea-8302-8fb684d15a3c,3d50ad7e-51b3-11ea-b019-ef85517a3cc6
3d28502c-51b3-11ea-827d-37ea90a52ebe,3d50dbdc-51b3-11ea-b238-6747ac973238
3d38ced4-51b3-11ea-93bc-ef329f40cff9,3d510ddc-51b3-11ea-8ccc-278479aafba0
3d449066-51b3-11ea-9456-93579a977b65,3d519838-51b3-11ea-ae36-8776fb72029f
3cf6aafe-51b3-11ea-be1c-f365d4847f2d,3d51b66a-51b3-11ea-a05d-3f83a9668316
3d2e268c-51b3-11ea-8768-4f2aa614f78b,3d51a81e-51b3-11ea-98c7-4f66c48f69aa
3d4f7cb0-51b3-11ea-9f25-fbed994cb3ee,3d51dc44-51b3-11ea-83ed-27c75c2f4400
3d4a1af4-51b3-11ea-95c6-eb2d6bf3268b,3d5221a4-51b3-11ea-b54e-d3eb917b7127
3d0348b8-51b3-11ea-8239-43f18eae32d8,3d525bc4-51b3-11ea-8248-339d5c0fcff3
3cf6cf98-51b3-11ea-9afc-838e8aa26bcf,3d530556-51b3-11ea-9ee1-4377aa4c5401
3cff9844-51b3-11ea-b827-2b52c241dde1,3d531258-51b3-11ea-a7c1-0b7c5e932ff1
3d1533f2-51b3-11ea-b88e-27788e49d50b,3d532112-51b3-11ea-b264-ff052b247cdf
3d4e7a40-51b3-11ea-a280-af846c57f816,3d538bde-51b3-11ea-b3ab-bf309449d668
3ceeb8e4-51b3-11ea-9002-b715bb43b6a3,3d53ae8e-51b3-11ea-a1c0-3b47a0f5cca8
3cee507a-51b3-11ea-8c1a-07798ba76200,3d53d92c-51b3-11ea-aa24-9b1e8475dd68
3d135866-51b3-11ea-90be-cf68b44d7447,3d53fd8a-51b3-11ea-a29e-d7fcd491cc66
3d091374-51b3-11ea-8bf8-2b1ae5c1eba7,3d540e56-51b3-11ea-bb63-ef238670de1d
3d3a36e8-51b3-11ea-b911-57319fc865db,3d5466ee-51b3-11ea-94ed-0f044026f3cc
3d003114-51b3-11ea-a8b6-075c20d777bd,3d549312-51b3-11ea-82db-37e79debc36c
3d4de260-51b3-11ea-bd83-7fae6ea0c2a6,3d54759e-51b3-11ea-be8f-9760bbf18146
3d35d92c-51b3-11ea-a583-c3d0e9b72da3,3d54c77e-51b3-11ea-9458-b35b49859156
3d2ef044-51b3-11ea-9a6b-8b7c414a9289,3d5536dc-51b3-11ea-8677-73c571ced18f
3d4c443c-51b3-11ea-810c-7f9f5735a259,3d556364-51b3-11ea-9275-7fc7cf4e8817
3d28c3c2-51b3-11ea-8de6-7b4e134692c8,3d557c28-51b3-11ea-8e9c-c7f9bd1d3d33
3cfb857e-51b3-11ea-8816-9baa291fdbd6,3d557188-51b3-11ea-b213-9b09b808537e
3cfd1628-51b3-11ea-b21e-93833a369f14,3d55dc9a-51b3-11ea-a0f6-bb88f79c3287
3d2d9686-51b3-11ea-910e-a3dd5c1b8dce,3d55ecbc-51b3-11ea-bc38-67082b217c01
3d456dce-51b3-11ea-95d8-33b2259b18ab,3d561eb2-51b3-11ea-94f1-1322b5a90348
3d467642-51b3-11ea-9840-f7501a664b77,3d5629b6-51b3-11ea-a8e4-3f170a75c60b
3d140ff4-51b3-11ea-b601-4f1f761899fb,3d5657b0-51b3-11ea-a9a8-1343846e3ff5
3d36efec-51b3-11ea-b0fb-37f1d29838fe,3d567722-51b3-11ea-8398-0fd21ef7bcfa
3d4f7cb0-51b3-11ea-9f25-fbed994cb3ee,3d56c9b6-51b3-11ea-8f1d-8719c5a232ec
3d0cd3e2-51b3-11ea-b25a-33cc771ac871,3d56d438-51b3-11ea-9cb3-2be4b56fa096
3d421ab6-51b3-11ea-86f9-bb3c7d8403d4,3d56dd3e-51b3-11ea-ac3e-03380a06e7fa
3cf37e74-51b3-11ea-8d96-bf8869341194,3d56e996-51b3-11ea-914c-7b6eded2cd3d
3cf1dba0-51b3-11ea-a67d-6f45b26c44f9,3d576998-51b3-11ea-aaa3-df97e0fd246e
3d4bd858-51b3-11ea-bff6-7be6d5ee9aa8,3d577668-51b3-11ea-a2f0-c74cdfa5ef36
3d1fdcbc-51b3-11ea-812b-775d395be58a,3d578130-51b3-11ea-b18c-7319bcb9c915
3d40094c-51b3-11ea-ba9f-6bfa6846abf4,3d57cb18-51b3-11ea-9bc7-238e912d9715
3d305970-51b3-11ea-b9eb-4fa54b1f8532,3d5813f2-51b3-11ea-8c2b-cbf02df36b0e
3d1641ca-51b3-11ea-abc5-e72674cb014a,3d5837ce-51b3-11ea-91f0-43436b4d1e93
3d1021e6-51b3-11ea-aec8-7b82c9af6ed5,3d584458-51b3-11ea-8971-b7083f9dfa20
3d012222-51b3-11ea-9b30-9b7a1713d76c,3d5872f2-51b3-11ea-a26c-5b171182f85f
3d406888-51b3-11ea-8e0d-6765ad64fdc9,3d58d5a8-51b3-11ea-8827-e3983ad5b1e9
3d212c5c-51b3-11ea-8c98-831069bf5712,3d58e160-51b3-11ea-a8b7-6ba9f69fb647
3d212c5c-51b3-11ea-8c98-831069bf5712,3d58ed5e-51b3-11ea-8d26-23f312cf1dce
3d18fd48-51b3-11ea-841d-2b66f8e84f8e,3d58fef2-51b3-11ea-973a-cff818ce91ec
3cfd749c-51b3-11ea-a06d-039a691cc985,3d594c4a-51b3-11ea-a1b7-17756c7978f4
3d484616-51b3-11ea-9d57-3f695ee9c395,3d59a3a2-51b3-11ea-9738-07a7c4551ebe
3d0a8b46-51b3-11ea-91f5-87f5a2773ac2,3d59b216-51b3-11ea-add7-8bf07cab3987
3d1be490-51b3-11ea-8b37-8fce337e29e6,3d59c4cc-51b3-11ea-8b81-97b713f95a44
3d091374-51b3-11ea-8bf8-2b1ae5c1eba7,3d59fb18-51b3-11ea-b8aa-476d8b2014e5
3d170b00-51b3-11ea-a37f-4b6e610a9bc5,3d5a1af8-51b3-11ea-af78-ff11ca07992e
3d4ac33c-51b3-11ea-b1f3-53e04c37bae0,3d5a716a-51b3-11ea-953b-bf993951b9db
3d11e878-51b3-11ea-a802-cf0c6fa54667,3d5a7eda-51b3-11ea-93e3-3fa3077ef644
3d069608-51b3-11ea-863d-77209c0a7c66,3d5a62a6-51b3-11ea-b2f9-e73f83b3d585
3d0114da-51b3-11ea-830f-3fc964354a5d,3d5a8e98-51b3-11ea-a4be-4308e5011de7
3d4aa79e-51b3-11ea-aa89-53eac1d2c304,3d5b1b6a-51b3-11ea-baea-d34edec6d642
3d59fb18-51b3-11ea-b8aa-476d8b2014e5,3d5b2664-51b3-11ea-b29a-634a2086da5f
3d434d50-51b3-11ea-8136-4f9268590f1b,3d5b2fec-51b3-11ea-abdf-97792ed31418
3d3e3f04-51b3-11ea-8619-b7472459413a,3d5b39f6-51b3-11ea-911b-cba1816c8c67
3d2be37c-51b3-11ea-9d99-8780477679f2,3d5bb70a-51b3-11ea-af2b-f32d371509f2
3d51a81e-51b3-11ea-98c7-4f66c48f69aa,3d5bd488-51b3-11ea-9450-3fde7ef4cfb9
3d56c9b6-51b3-11ea-8f1d-8719c5a232ec,3d5c0548-51b3-11ea-9775-e7d6394bdf2d
3d170b00-51b3-11ea-a37f-4b6e610a9bc5,3d5c17cc-51b3-11ea-97dc-efd85fd66dba
3d0cd3e2-51b3-11ea-b25a-33cc771ac871,3d5c61b4-51b3-11ea-8b06-c7f7ccd00519
3cf15a54-51b3-11ea-8d3b-47c4f271030e,3d5c8da6-51b3-11ea-b058-9b14cbf1ad4f
3d36efec-51b3-11ea-b0fb-37f1d29838fe,3d5c981e-51b3-11ea-a7f9-3b880d8dba63
3d4afff0-51b3-11ea-876c-7b05ddc53b78,3d5cccf8-51b3-11ea-bd0d-93bd3986f773
3d24623c-51b3-11ea-b40e-abee9991eb6a,3d5d187a-51b3-11ea-8118-2bd88ff3569e
3d28502c-51b3-11ea-827d-37ea90a52ebe,3d5d2572-51b3-11ea-af53-936bb1ebd4f2
3d1361d0-51b3-11ea-993d-7f3c974ec944,3d5d7824-51b3-11ea-a133-73cdb5e0a80f
3d27d9ee-51b3-11ea-9a0c-03cb6f358b7a,3d5d85b2-51b3-11ea-b94c-afbbff1fed06
3d59c4cc-51b3-11ea-8b81-97b713f95a44,3d5d920a-51b3-11ea-82d7-e3417b673cba
3d58e160-51b3-11ea-a8b7-6ba9f69fb647,3d5db186-51b3-11ea-be0a-db60f9332b28
3d37294e-51b3-11ea-a27f-dbbedb981134,3d5e0370-51b3-11ea-8d80-376f647f563a
3d298942-51b3-11ea-8b37-2771f876dd21,3d5e3fb6-51b3-11ea-b7dc-db105cb9188e
3d360cc6-51b3-11ea-b33f-7f9ab8087239,3d5e7e36-51b3-11ea-a660-33093f06577a
3d13ec0e-51b3-11ea-92f1-af1e49e11a04,3d5ea99c-51b3-11ea-b958-9f7f7c26e3c7
3d4b601c-51b3-11ea-9b39-67881be5b38a,3d5eb7d4-51b3-11ea-9833-67e650928076
3d1a3532-51b3-11ea-91f5-633297d30189,3d5ee010-51b3-11ea-b7e4-9f8ea6abfad5
3cfe6b04-51b3-11ea-bb07-d36e2d8d1952,3d5f1882-51b3-11ea-a515-8f409e28aa95
3d32aa90-51b3-11ea-87de-df438f554137,3d5f2dae-51b3-11ea-94fc-dbfd76908334
3d09ebf0-51b3-11ea-a56d-a709f55ada11,3d5f5978-51b3-11ea-9149-079f40ea0b35
3d1af120-51b3-11ea-90a1-135a308764f1,3d5fb530-51b3-11ea-b113-6bc27b89cb73
3d0e73a0-51b3-11ea-92b9-8f092184bfe6,3d5fcdf4-51b3-11ea-bae7-1776c3e67e9f
3d5bd488-51b3-11ea-9450-3fde7ef4cfb9,3d5fc2dc-51b3-11ea-9bf2-df41484eefb0
3d4aedb2-51b3-11ea-bca0-8f482c867ebf,3d5fdccc-51b3-11ea-a02a-dbb450e7c0b3
3d228296-51b3-11ea-946f-43d0e883fb67,3d6052ba-51b3-11ea-9ea6-83af0ecbc7dc
3d58e160-51b3-11ea-a8b7-6ba9f69fb647,3d605d14-51b3-11ea-b69e-0f142287c301
3d5b2fec-51b3-11ea-abdf-97792ed31418,3d6070ec-51b3-11ea-847a-cbd41dae58e8
3d01f80a-51b3-11ea-81c4-c725bae0c2c7,3d60b70a-51b3-11ea-9c1f-d36cf967c5ca
3d119c24-51b3-11ea-af68-93dbcd7c33c4,3d60f3f0-51b3-11ea-9a8b-9b0d492e5646
3d119c24-51b3-11ea-af68-93dbcd7c33c4,3d611a06-51b3-11ea-9054-838c96b8e6c7
3d2d9686-51b3-11ea-910e-a3dd5c1b8dce,3d612640-51b3-11ea-9c2d-f79b38534f1c
3cf55f1e-51b3-11ea-942a-134841d6c393,3d615e26-51b3-11ea-ad5c-8fe94eb47186
3d5eb7d4-51b3-11ea-9833-67e650928076,3d619170-51b3-11ea-b8df-4fe1c276243f
3d5c981e-51b3-11ea-a7f9-3b880d8dba63,3d619dbe-51b3-11ea-b50a-e34483c893d6
3d30052e-51b3-11ea-891e-0341e092645e,3d61c460-51b3-11ea-8dc8-0ba6061609a4
3d5e3fb6-51b3-11ea-b7dc-db105cb9188e,3d6200e2-51b3-11ea-979a-1fb00acd81ad
3cf97748-51b3-11ea-8c2d-eb58648a0f91,3d6234cc-51b3-11ea-8828-53288a799b06
3d09f8fc-51b3-11ea-becb-e3c2b4e14375,3d627248-51b3-11ea-8815-5bd72cea5e84
3d384298-51b3-11ea-ac30-e326a155466b,3d627df6-51b3-11ea-8e4b-b3de8c177ecf
3cf37e74-51b3-11ea-8d96-bf8869341194,3d62bea6-51b3-11ea-8b58-efd9f3c6e081
3d0449ac-51b3-11ea-a5ab-dbe36d173ce6,3d62e2be-51b3-11ea-be9a-d31907487a06
3d21e1ba-51b3-11ea-8d9c-cf50be6398d5,3d633066-51b3-11ea-b53c-af5747f3ba4a
3d43b2a4-51b3-11ea-a4ec-8f12bf4489f1,3d633c0a-51b3-11ea-9b75-63bbf07097b5
3d4cb00c-51b3-11ea-8f1c-975bfee02cdd,3d635564-51b3-11ea-929f-57b74e86e80b
3d43cbae-51b3-11ea-a75f-9bbbf09fc336,3d63be64-51b3-11ea-965d-97c41ffc5f92
3d186a7c-51b3-11ea-98f0-a75be69aed25,3d63d854-51b3-11ea-a156-9b7ba7c01f54
3d089836-51b3-11ea-9ae8-5f8211fe7702,3d63eec0-51b3-11ea-a44a-2fb26e08ae51
3cf1f252-51b3-11ea-ba2e-d3ba013814ae,3d645b44-51b3-11ea-912b-9bf83dde0e8a
3cfde490-51b3-11ea-8a84-13d583cf3095,3d646a26-51b3-11ea-a543-0f68e40255a7
3d556364-51b3-11ea-9275-7fc7cf4e8817,3d649cb2-51b3-11ea-b701-932dbab544e4
3d298942-51b3-11ea-8b37-2771f876dd21,3d64b0d0-51b3-11ea-9b61-47107a4243e0
3d3a7716-51b3-11ea-8fa3-17912851cc6c,3d65049a-51b3-11ea-8fa9-87ab40520f2a
3d1d562c-51b3-11ea-b8d6-c722693853e0,3d6512f0-51b3-11ea-affb-8750eb88708b
3cf98f80-51b3-11ea-93f3-bb2d63bad17f,3d655210-51b3-11ea-b48b-bf2461026b4c
3d5a1af8-51b3-11ea-af78-ff11ca07992e,3d657ec0-51b3-11ea-94a6-27db7efae6ae
3d13e2fe-51b3-11ea-9823-130ddee23490,3d65a1e8-51b3-11ea-ac08-374ccd00d6ac
3d4e4e08-51b3-11ea-bcd2-672b81c5a21c,3d65b1ce-51b3-11ea-925d-d7da02f16b6a
3d2828e0-51b3-11ea-9572-b3abc97a6b2f,3d661eca-51b3-11ea-b46c-af3af643e63f
3d2e268c-51b3-11ea-8768-4f2aa614f78b,3d66300e-51b3-11ea-80fc-7baf1bedf2c3
3d5eb7d4-51b3-11ea-9833-67e650928076,3d6648c8-51b3-11ea-9c4e-5b687c74c821
3d212c5c-51b3-11ea-8c98-831069bf5712,3d6666d2-51b3-11ea-9fcd-a397750da42d
3d0e3c46-51b3-11ea-b69c-078936b0356a,3d66d8d8-51b3-11ea-8c9e-e3f034b53d23
3d40094c-51b3-11ea-ba9f-6bfa6846abf4,3d66e7d8-51b3-11ea-901b-fb39cd19a0cd
3d467642-51b3-11ea-9840-f7501a664b77,3d66f4bc-51b3-11ea-87d0-7fd3facfe651
3cef1b04-51b3-11ea-b163-17913bb0c5e3,3d66fde0-51b3-11ea-a841-b3380980c131
3d3bf41a-51b3-11ea-97e5-671d7a1de9e0,3d6794b2-51b3-11ea-ba86-4bdbfdd83d66
3d49476e-51b3-11ea-b5e1-af63dd7d449d,3d679f2a-51b3-11ea-ab16-fff099c7ec28
3d01f80a-51b3-11ea-81c4-c725bae0c2c7,3d67af7e-51b3-11ea-8034-3f9d74cbfd16
3d530556-51b3-11ea-9ee1-4377aa4c5401,3d67b988-51b3-11ea-9656-9ff324b8ca74
3d07a14c-51b3-11ea-a00f-e7c183b32e1e,3d68454c-51b3-11ea-8a6c-9b3d95d27002
3d010832-51b3-11ea-9966-339d40fa60b6,3d685118-51b3-11ea-8e98-3735259759d0
3d619dbe-51b3-11ea-b50a-e34483c893d6,3d687666-51b3-11ea-aa67-7fc7318bfe1e
3cf0a7e4-51b3-11ea-bb21-ebd21ebce83a,3d6880fc-51b3-11ea-9250-1b4820583e11
3d3419ca-51b3-11ea-b245-c7a54aff9720,3d68d39a-51b3-11ea-a59d-bba06a0b6756
3d5d920a-51b3-11ea-82d7-e3417b673cba,3d68f9e2-51b3-11ea-b4c0-83e2988ec071
3d577668-51b3-11ea-a2f0-c74cdfa5ef36,3d68ef60-51b3-11ea-9ed4-d7ca72c87583
3d212c5c-51b3-11ea-8c98-831069bf5712,3d69072a-51b3-11ea-998a-afaa027abf0c
3d192624-51b3-11ea-a674-ef811cedb022,3d696846-51b3-11ea-bb71-e7ae56fd9bd4
3d093034-51b3-11ea-83f7-2b1fe5265480,3d698484-51b3-11ea-8199-07669aab69af
3d2b61ae-51b3-11ea-a7ef-63414b7cb47e,3d69a194-51b3-11ea-aa7a-831fe79f5705
3d1560d4-51b3-11ea-8650-dfddfacc77ac,3d69adec-51b3-11ea-9359-4ffbce84c191
3d4d7226-51b3-11ea-bd06-4f394a1feb75,3d69fd2e-51b3-11ea-b036-c79e1aeb2f89
3d329d5c-51b3-11ea-851b-ffa7c3396ac1,3d6a213c-51b3-11ea-8afe-b34f1c8fb7d6
3d1361d0-51b3-11ea-993d-7f3c974ec944,3d6a2bbe-51b3-11ea-a039-7f5c88bb3a5e
3d1f5c6a-51b3-11ea-98e6-97b79a0404f8,3d6a45c2-51b3-11ea-8938-bbdaeb00e5d0
3d43b2a4-51b3-11ea-a4ec-8f12bf4489f1,3d6aa4ea-51b3-11ea-88f8-9b9d03093f8c
3cfaf15e-51b3-11ea-a35c-9f8533f440df,3d6aa4ea-51b3-11ea-8f6f-e7775815c145
3d29a24c-51b3-11ea-89fb-bb62a6bc6c29,3d6adb22-51b3-11ea-afb5-9b353af6a1f5
3d10b868-51b3-11ea-9b8f-dbc4c97677a1,3d6b0778-51b3-11ea-877b-e7936ef52c96
3d07765e-51b3-11ea-ada2-bb79156b9ddd,3d6b54f8-51b3-11ea-8af3-bffba2d5707d
3d35d92c-51b3-11ea-a583-c3d0e9b72da3,3d6b926a-51b3-11ea-8e6f-732da9d8977b
3d257bd6-51b3-11ea-9820-4fe11f08c287,3d6bcfdc-51b3-11ea-8d0e-cb3ab610d36d
3d305970-51b3-11ea-b9eb-4fa54b1f8532,3d6c0b5a-51b3-11ea-a85b-9b9ab49bff39
3cf1f252-51b3-11ea-ba2e-d3ba013814ae,3d6bfda4-51b3-11ea-873e-57ca694bf151
3d273d22-51b3-11ea-8fe4-03a471237cab,3d6c5920-51b3-11ea-865c-8346fa37f76b
3d1f5c6a-51b3-11ea-98e6-97b79a0404f8,3d6c92b4-51b3-11ea-bc15-4be76362ae3d
3d5d187a-51b3-11ea-8118-2bd88ff3569e,3d6ca1be-51b3-11ea-92f6-6fab78abd412
3cf3fe80-51b3-11ea-8aa3-5f9967b7654a,3d6cb7ee-51b3-11ea-b98e-ef6b58d50265
3d30052e-51b3-11ea-891e-0341e092645e,3d6cfe3e-51b3-11ea-aac8-7bfbf448ca8a
3d49a754-51b3-11ea-b0b2-97429e3661a7,3d6d49e8-51b3-11ea-aec9-c3f834be9891
3d2326b0-51b3-11ea-94e5-73aba6b29bae,3d6d55c8-51b3-11ea-9470-c7f016b86fb8
3d12313e-51b3-11ea-9ce5-cff195e603f5,3d6d7544-51b3-11ea-a5fc-0f5fc0f2c7e3
3d24c06a-51b3-11ea-8b41-77be0fa85e55,3d6de01a-51b3-11ea-87ae-332e932ba720
3cfa8746-51b3-11ea-acf8-63796a2c5a77,3d6df6c2-51b3-11ea-817c-2b42ba1f7cc5
3d56d438-51b3-11ea-9cb3-2be4b56fa096,3d6e03ce-51b3-11ea-9adb-5f55372c7f67
3d2bc13a-51b3-11ea-a019-c7ca65c6dfab,3d6e0ff4-51b3-11ea-8aab-7f2c7d73e7a7
3d0cd3e2-51b3-11ea-b25a-33cc771ac871,3d6e98f2-51b3-11ea-a312-db9b3697f7ef
3cf91bd6-51b3-11ea-b941-6bba1c4c51c3,3d6ea842-51b3-11ea-aaf1-53a1f55d0be1
3cf0d1ce-51b3-11ea-af99-47439bbfc198,3d6ebfbc-51b3-11ea-869c-2b7ddd1918cf
3d493b20-51b3-11ea-b464-2349027a5bda,3d6ef784-51b3-11ea-a7f6-3325a3bdd37b
3d02a0b6-51b3-11ea-8554-a345070beffe,3d6f2c0e-51b3-11ea-ae2c-9bccb1d31f8b
3cfbe0d2-51b3-11ea-946c-27e2365c931e,3d6f3ff0-51b3-11ea-a318-3b569079c3f0
3d619dbe-51b3-11ea-b50a-e34483c893d6,3d6f639a-51b3-11ea-806d-d3ac2dd0ea6b
3d5536dc-51b3-11ea-8677-73c571ced18f,3d6f927a-51b3-11ea-a06b-7b75f3e076ae
3d6b926a-51b3-11ea-8e6f-732da9d8977b,3d6fb7aa-51b3-11ea-8545-4fcda39f531a
3d121708-51b3-11ea-9e36-f736068efeba,3d6fe84c-51b3-11ea-a77e-c7f48995906a
3d5c61b4-51b3-11ea-8b06-c7f7ccd00519,3d7007f0-51b3-11ea-8393-5b98b5278b94
3d6794b2-51b3-11ea-ba86-4bdbfdd83d66,3d702e7e-51b3-11ea-bbdf-7baf45c78b6b
3cfcbf48-51b3-11ea-bb72-b30bfe1484d7,3d7064d4-51b3-11ea-93f6-078ab67ff5fe
3d230f04-51b3-11ea-be53-c3c5d0c19d5c,3d7084dc-51b3-11ea-9639-f7ddcaa7c475
3cffec4a-51b3-11ea-a368-a791a7e685c0,3d70a8ea-51b3-11ea-9106-57f6f9338084
3d1361d0-51b3-11ea-993d-7f3c974ec944,3d70d0ea-51b3-11ea-93d2-db0c58bbfd2f
3d157786-51b3-11ea-b9ab-bb1ff0642fa8,3d7128f6-51b3-11ea-8b68-5b07b10ac8ad
3cfeff4c-51b3-11ea-b0a0-478fa35048be,3d71434a-51b3-11ea-b698-cf75107d869e
3d3419ca-51b3-11ea-b245-c7a54aff9720,3d7150f6-51b3-11ea-af19-7b639bc027f2
3d3a36e8-51b3-11ea-b911-57319fc865db,3d71abd2-51b3-11ea-8416-ef0987a8cd74
3d6ea842-51b3-11ea-aaf1-53a1f55d0be1,3d71bcf8-51b3-11ea-8564-f78d84b2c5d8
3cf97748-51b3-11ea-8c2d-eb58648a0f91,3d71c96e-51b3-11ea-bf4d-37e96afa1657
3d4709a4-51b3-11ea-8b5d-af07a0eb1e91,3d72389a-51b3-11ea-905a-2fe7bbc70b77
3d317652-51b3-11ea-9b52-77813bdf9d29,3d7245a6-51b3-11ea-abb1-efcd3be19ef3
3d1d97e0-51b3-11ea-8f12-73eb022b54d1,3d725776-51b3-11ea-9428-ebcdf0f61409
3cf0a7e4-51b3-11ea-bb21-ebd21ebce83a,3d726126-51b3-11ea-a678-d732f4a1bc67
3d2399c4-51b3-11ea-a16e-177c1b0a33f4,3d72abcc-51b3-11ea-8065-e76054c701f6
3d612640-51b3-11ea-9c2d-f79b38534f1c,3d72b810-51b3-11ea-a230-6bad8260d45f
3d35016e-51b3-11ea-87f0-93884f29f8a4,3d72c3be-51b3-11ea-90ce-7fe2cfc46ff0
3d36efec-51b3-11ea-b0fb-37f1d29838fe,3d72f1fe-51b3-11ea-88ef-abfa7635621d
3d363dc2-51b3-11ea-b7e5-67cd82f16a5c,3d736616-51b3-11ea-90a4-9ba1b2c934bb
3d350f24-51b3-11ea-aba6-93f05c99a6ee,3d7377fa-51b3-11ea-9871-63ded84f854f
3d6fb7aa-51b3-11ea-8545-4fcda39f531a,3d738362-51b3-11ea-a726-bf2b88993522
3d66fde0-51b3-11ea-a841-b3380980c131,3d73a89c-51b3-11ea-ac3c-0f8b056b4388
3d5e0370-51b3-11ea-8d80-376f647f563a,3d7407ba-51b3-11ea-aa08-8f65d7be0a15
3cf8cd8e-51b3-11ea-8dd1-fbf898b0826c,3d741908-51b3-11ea-b23a-df41c7c38e1b
3d198696-51b3-11ea-b22a-1340fc20e887,3d742f6a-51b3-11ea-a763-ab405c05f28b
3d509bae-51b3-11ea-b950-e34d28ed7908,3d7487b2-51b3-11ea-aecd-0340235cd960
3d657ec0-51b3-11ea-94a6-27db7efae6ae,3d749446-51b3-11ea-b71f-efa3091ee78b
3d440ac4-51b3-11ea-9cc4-ebb572afd789,3d74b9b2-51b3-11ea-bec2-4f75e3f6bb96
3d594c4a-51b3-11ea-a1b7-17756c7978f4,3d74d9d8-51b3-11ea-91bd-c355dd112c03
3d50dbdc-51b3-11ea-b238-6747ac973238,3d755232-51b3-11ea-8dc7-1ba9f7c71942
3d2a59f8-51b3-11ea-b1e4-47c59eda7875,3d7565e2-51b3-11ea-b262-0bfd4c3bb620
3d25596c-51b3-11ea-bb97-c708d66266c0,3d75813a-51b3-11ea-9206-b3446b24118a
3d228296-51b3-11ea-946f-43d0e883fb67,3d75c55a-51b3-11ea-a62c-6799e3bcd43f
3d5657b0-51b3-11ea-a9a8-1343846e3ff5,3d75fa2a-51b3-11ea-a3cc-f36d21ea8cbe
3cf15a54-51b3-11ea-8d3b-47c4f271030e,3d76129e-51b3-11ea-a9e2-0b5cb82c0e6c
3d4c443c-51b3-11ea-810c-7f9f5735a259,3d761e60-51b3-11ea-a36f-03aea8083c68
3d26fdda-51b3-11ea-9a93-3336b3d78358,3d7639ae-51b3-11ea-a8ec-cf3f049e2fa3
3d4306c4-51b3-11ea-b18a-73bcac143a75,3d76bf8c-51b3-11ea-8391-df87d90548ee
3d6f2c0e-51b3-11ea-ae2c-9bccb1d31f8b,3d76cc2a-51b3-11ea-a267-f3bda13d8e36
3d645b44-51b3-11ea-912b-9bf83dde0e8a,3d76b672-51b3-11ea-aa4e-2bf4c7a3dff6
3d18fd48-51b3-11ea-841d-2b66f8e84f8e,3d7734da-51b3-11ea-8a53-0bc830f811b1
3d29a24c-51b3-11ea-89fb-bb62a6bc6c29,3d774998-51b3-11ea-89d4-df8af890978d
3d5fc2dc-51b3-11ea-9bf2-df41484eefb0,3d779506-51b3-11ea-97c9-7bdc44990035
3d75813a-51b3-11ea-9206-b3446b24118a,3d77d17e-51b3-11ea-a80b-976549ad4636
3d089836-51b3-11ea-9ae8-5f8211fe7702,3d77e222-51b3-11ea-8cd8-737890c59a3f
3d119c24-51b3-11ea-af68-93dbcd7c33c4,3d77f6a4-51b3-11ea-9767-8f1b51d87f59
3d63d854-51b3-11ea-a156-9b7ba7c01f54,3d7848f2-51b3-11ea-8151-07518849b93a
3d1e54be-51b3-11ea-93e4-dfb8d3e2908a,3d787084-51b3-11ea-bce3-0b7db7ac2241
3d61c460-51b3-11ea-8dc8-0ba6061609a4,3d789096-51b3-11ea-a413-7743f84667a9
3d742f6a-51b3-11ea-a763-ab405c05f28b,3d78b7f6-51b3-11ea-b6d5-efd6cf06ed50
3d2ea7ec-51b3-11ea-b81c-3b70dba42edf,3d78e46a-51b3-11ea-9529-135ee6ae3866
3d2a188a-51b3-11ea-94b3-e32beb9ada83,3d79191c-51b3-11ea-99fc-db9da44c582b
3d6b0778-51b3-11ea-877b-e7936ef52c96,3d7935fa-51b3-11ea-8d8a-2b59d5e576d0
3d012222-51b3-11ea-9b30-9b7a1713d76c,3d797402-51b3-11ea-a6ac-0f1e8bcc2f85
3d17af24-51b3-11ea-8d23-7b01c3bc52c6,3d797f4c-51b3-11ea-8188-a7207f5b30cb
3d5db186-51b3-11ea-be0a-db60f9332b28,3d79fbfc-51b3-11ea-837a-1b1eaee92bab
3d6512f0-51b3-11ea-affb-8750eb88708b,3d79efcc-51b3-11ea-9189-ab944871fd65
3d1e4906-51b3-11ea-a368-df1ae82f57e1,3d7a08c2-51b3-11ea-9c9b-2ff28abab552
3d0fb1d4-51b3-11ea-8191-ff3c0c1d91c0,3d7a1f74-51b3-11ea-ae13-571f761dfd69
3d1d97e0-51b3-11ea-8f12-73eb022b54d1,3d7a898c-51b3-11ea-8e04-47f385b7e2c1
3d33535a-51b3-11ea-969f-ef7e2ebe5b12,3d7abc68-51b3-11ea-8bd9-ff3ca6105ca7
3d2d9686-51b3-11ea-910e-a3dd5c1b8dce,3d7ac582-51b3-11ea-9f06-e79def2ca3b9
3d51dc44-51b3-11ea-83ed-27c75c2f4400,3d7af818-51b3-11ea-b844-c7294bfe71c1
3d797402-51b3-11ea-a6ac-0f1e8bcc2f85,3d7b23c4-51b3-11ea-a53b-afb2d452d330
3d159edc-51b3-11ea-9693-cba2d80d04c1,3d7b461a-51b3-11ea-a10a-e3d616a8168b
3d4306c4-51b3-11ea-b18a-73bcac143a75,3d7b5b50-51b3-11ea-89d2-cbdb9c4b1d9e
3d4e3846-51b3-11ea-aa77-c35073086c38,3d7b67a8-51b3-11ea-ac1c-bbbfaf0adcbf
3d584458-51b3-11ea-8971-b7083f9dfa20,3d7bd832-51b3-11ea-8454-b31895bc8db5
3d2f8d60-51b3-11ea-b1c9-eb950e2f8a14,3d7c0712-51b3-11ea-b13d-ab6443ebce0d
3d1a4770-51b3-11ea-ac8d-3bffeef21511,3d7c1270-51b3-11ea-ab29-4fd00b913851
3d0ebe28-51b3-11ea-b156-5bbba48effe5,3d7c314c-51b3-11ea-809e-93b3a6c4afa8
3d3cdd58-51b3-11ea-b0ca-1b2112ae0497,3d7c4448-51b3-11ea-a4e5-8f83adde7e0d
3d449c6e-51b3-11ea-837b-5f3682a18302,3d7ca9f6-51b3-11ea-bcfc-538dc53a5dff
3d25ded2-51b3-11ea-8f33-bb959fb346ce,3d7cb5ae-51b3-11ea-9b35-03d5efed221f
3d702e7e-51b3-11ea-bbdf-7baf45c78b6b,3d7cc044-51b3-11ea-bff8-530c7b79287c
3d09bf40-51b3-11ea-a977-87b722c4d0e5,3d7cd3cc-51b3-11ea-b474-03de84cf62a2
3d1d6e5a-51b3-11ea-ab66-4bc53c137d1e,3d7d2bc4-51b3-11ea-ae06-c725365e10fc
3cf1e726-51b3-11ea-a48f-3795f04ca77f,3d7d41c2-51b3-11ea-8315-1bcb53d7aa79
3d07765e-51b3-11ea-ada2-bb79156b9ddd,3d7d5fc2-51b3-11ea-9db1-93fff94e86f3
3d63eec0-51b3-11ea-a44a-2fb26e08ae51,3d7d6ec2-51b3-11ea-a311-1ff270b7d08b
3d3d37da-51b3-11ea-ad75-37e659db411c,3d7dc282-51b3-11ea-87b8-73abbdfb275a
3d02ea12-51b3-11ea-95eb-d39f0e5d0b02,3d7dd7f4-51b3-11ea-a616-fb70f96ea1e4
3d17af24-51b3-11ea-8d23-7b01c3bc52c6,3d7df630-51b3-11ea-95da-47dfe1cf1eb1
3d289be0-51b3-11ea-b98a-13fdabfa4a02,3d7e0dbe-51b3-11ea-a337-1f966e76fe97
3d40e8bc-51b3-11ea-b65d-4b246c83eba4,3d7e678c-51b3-11ea-b4a3-7377175d95bc
3d1cf7ae-51b3-11ea-9f80-a7f1ca8dd580,3d7e9554-51b3-11ea-8c8f-73873af22fc1
3cfae2c2-51b3-11ea-84b4-731b16663db3,3d7ec7ea-51b3-11ea-a61f-972c1d6f39e3
3cf3eeae-51b3-11ea-bd43-b7a5bfd1dbff,3d7eebe4-51b3-11ea-a8a4-3f1040267d8c
3d2cd64c-51b3-11ea-a015-7bd357cc88e7,3d7f0548-51b3-11ea-a01e-dbf3d82401d4
3d41d268-51b3-11ea-afeb-6b9809968d01,3d7f4f12-51b3-11ea-9220-bb3b80d75d0d
3cfcbf48-51b3-11ea-bb72-b30bfe1484d7,3d7f5be2-51b3-11ea-90ba-03742f735626
3cf9b852-51b3-11ea-b75a-63a6278295ac,3d7f8612-51b3-11ea-a51e-237047c09836
3d7e0dbe-51b3-11ea-a337-1f966e76fe97,3d7f9594-51b3-11ea-a5ca-178e428f604a
3d048d5e-51b3-11ea-809f-f71e7167c416,3d7fe8d2-51b3-11ea-8ed9-9f22e0b7fe4a
3d36efec-51b3-11ea-b0fb-37f1d29838fe,3d800f10-51b3-11ea-bb30-37efb47bf7cc
3d7d6ec2-51b3-11ea-a311-1ff270b7d08b,3d801ac8-51b3-11ea-82f3-abcf5292c569
3d738362-51b3-11ea-a726-bf2b88993522,3d803288-51b3-11ea-9a2f-8bf25183e4bb
3d0bd0dc-51b3-11ea-9d40-a75bfa8fba12,3d805d3a-51b3-11ea-abed-b30565360e10
3d148a9c-51b3-11ea-9c84-136b80a27328,3d8084cc-51b3-11ea-9241-9fda7d76c505
3d69072a-51b3-11ea-998a-afaa027abf0c,3d80c568-51b3-11ea-8ff0-63a152b187b2
3cfe1d34-51b3-11ea-9818-8bfd05958c63,3d80f420-51b3-11ea-9048-af186909dbbb
3cf38b3a-51b3-11ea-9df2-07250638c71d,3d810d52-51b3-11ea-811b-dfe4ea9cf6a8
3d4877ee-51b3-11ea-82ec-0faeca4be525,3d812120-51b3-11ea-956c-db0bb4bce128
3d069608-51b3-11ea-863d-77209c0a7c66,3d8161da-51b3-11ea-be71-2f419c107191
3d58ed5e-51b3-11ea-8d26-23f312cf1dce,3d81db88-51b3-11ea-be98-87d187f5b2a4
3d5d7824-51b3-11ea-a133-73cdb5e0a80f,3d81ebbe-51b3-11ea-b973-3b0b2e2d6cc4
3d337614-51b3-11ea-bc40-f7f5e60512ec,3d81c5ee-51b3-11ea-a287-cfcda6cd8da6
3d41b5d0-51b3-11ea-a0ad-9bb983e0d78f,3d821ddc-51b3-11ea-bb01-4396eee4394c
3d38ced4-51b3-11ea-93bc-ef329f40cff9,3d829744-51b3-11ea-a2dc-93931d3dae82
3cfb9280-51b3-11ea-9451-631c616ba56d,3d8287cc-51b3-11ea-aa5b-7b7360cce41d
3d1cd986-51b3-11ea-9560-039ef9c90d03,3d82a4b4-51b3-11ea-9bf4-3718ddcae94a
3d03bdac-51b3-11ea-abbc-db3531329de3,3d831818-51b3-11ea-9889-9fa94d895db1
3d71abd2-51b3-11ea-8416-ef0987a8cd74,3d834888-51b3-11ea-a7b0-7b3052f5809f
3d40e8bc-51b3-11ea-b65d-4b246c83eba4,3d835436-51b3-11ea-a854-2b4e06d802f7
3d30052e-51b3-11ea-891e-0341e092645e,3d839e5a-51b3-11ea-b981-876b13c4085a
3d2359b4-51b3-11ea-a28e-7f7b86f5cdaf,3d83b80e-51b3-11ea-bd83-c76fdb76afcf
3d221af4-51b3-11ea-9420-b7664b39b3c8,3d83fdaa-51b3-11ea-bec3-77fe9e240554
3d5536dc-51b3-11ea-8677-73c571ced18f,3d841592-51b3-11ea-85bd-d7d377510da3
3cf592cc-51b3-11ea-a2fe-0b0c313897a9,3d843356-51b3-11ea-9f13-8727aadaa5b9
3cf0d1ce-51b3-11ea-af99-47439bbfc198,3d8445a8-51b3-11ea-8188-dfd94116f680
3d5ea99c-51b3-11ea-b958-9f7f7c26e3c7,3d8474a6-51b3-11ea-88a8-0ffaf0c728fb
3cf592cc-51b3-11ea-a2fe-0b0c313897a9,3d849c06-51b3-11ea-8899-2bf69e1b5d5e
3cf30a20-51b3-11ea-8f78-1325cfadab1e,3d84aebc-51b3-11ea-b5e2-93a45685b717
3d6ca1be-51b3-11ea-92f6-6fab78abd412,3d84cb9a-51b3-11ea-9796-bf7c8669d526
3d182260-51b3-11ea-9eb1-7fae9c33b981,3d8553d0-51b3-11ea-a25f-577055fe3c23
3d41ac66-51b3-11ea-b3dc-cb216a01e138,3d855d26-51b3-11ea-9148-37798bced7af
3d702e7e-51b3-11ea-bbdf-7baf45c78b6b,3d857be4-51b3-11ea-9277-f78275c0ddf6
3d3955c0-51b3-11ea-972f-ffcc68bafc2b,3d85abc8-51b3-11ea-bde3-779eb2ec3829
3d7064d4-51b3-11ea-93f6-078ab67ff5fe,3d85e4e4-51b3-11ea-95b3-9bbe5dc1d921
3d5ea99c-51b3-11ea-b958-9f7f7c26e3c7,3d860e2e-51b3-11ea-bdc5-c36a4d35c632
3cf791b2-51b3-11ea-919b-eb478c740099,3d86311a-51b3-11ea-8d8d-9f46f963b651
3d2a59f8-51b3-11ea-b1e4-47c59eda7875,3d865532-51b3-11ea-9565-bf861da533e8
3d2642b4-51b3-11ea-9547-7f632fb7bde0,3d86862e-51b3-11ea-a1db-831850f9cd0a
3d7d5fc2-51b3-11ea-9db1-93fff94e86f3,3d8693ee-51b3-11ea-91f1-cbff28cdd0a4
3cefacea-51b3-11ea-918f-5bb884b97a73,3d86e452-51b3-11ea-be61-1bef2fe56fd1
3d43cbae-51b3-11ea-a75f-9bbbf09fc336,3d86fde8-51b3-11ea-b978-73692f7f236b
3d5fc2dc-51b3-11ea-9bf2-df41484eefb0,3d8713b4-51b3-11ea-8bfd-5f4acaedc90d
3d2bc13a-51b3-11ea-a019-c7ca65c6dfab,3d87433e-51b3-11ea-91ba-1fbd41110225
3d3419ca-51b3-11ea-b245-c7a54aff9720,3d87838a-51b3-11ea-9ce3-0fbeca72bb9c
3cf9b852-51b3-11ea-b75a-63a6278295ac,3d87a248-51b3-11ea-88e3-3b412118dc38
3d540e56-51b3-11ea-bb63-ef238670de1d,3d87cf70-51b3-11ea-8fdd-57b4089e3597
3d0e3c46-51b3-11ea-b69c-078936b0356a,3d87dae2-51b3-11ea-b2b9-97c59b9bc1af
3cee7168-51b3-11ea-94b4-b705581456a9,3d881804-51b3-11ea-9ea3-0bc5ab3b87bc
3cf46ea6-51b3-11ea-922d-d7c8f4bd2a66,3d88733a-51b3-11ea-a7d3-87ad61857635
3d2ef044-51b3-11ea-9a6b-8b7c414a9289,3d888dca-51b3-11ea-92b3-e3791ed24f62
3d4aedb2-51b3-11ea-bca0-8f482c867ebf,3d889a22-51b3-11ea-a5dc-cbcda3ba0647
3d7084dc-51b3-11ea-9639-f7ddcaa7c475,3d88cc4a-51b3-11ea-b4c2-f77c80dbbb00
3d2ef044-51b3-11ea-9a6b-8b7c414a9289,3d892294-51b3-11ea-8b46-934238559de4
3d3e2974-51b3-11ea-bb46-af35e159baeb,3d893b08-51b3-11ea-b752-23b0aafe4376
3cfd63a8-51b3-11ea-ac50-774a0e13d6d4,3d894792-51b3-11ea-8276-bb121719beac
3cf47ad6-51b3-11ea-854c-4bdde2310ff8,3d895c0a-51b3-11ea-a5a9-279fb5fcb600
3d29a24c-51b3-11ea-89fb-bb62a6bc6c29,3d89aade-51b3-11ea-8512-df25b55445a2
3d6d7544-51b3-11ea-a5fc-0f5fc0f2c7e3,3d89cc1c-51b3-11ea-8df6-f75c1c6e47e1
3d29a24c-51b3-11ea-89fb-bb62a6bc6c29,3d89ed46-51b3-11ea-b679-6768508a3664
3cfae2c2-51b3-11ea-84b4-731b16663db3,3d8a1f6e-51b3-11ea-8f96-93838ec2b6a4
3d2bc13a-51b3-11ea-a019-c7ca65c6dfab,3d8a45a2-51b3-11ea-a33c-13a36d032b6d
3d0d9fa2-51b3-11ea-878f-230c9150558e,3d8a6438-51b3-11ea-8979-ef6019ca5007
3d6cb7ee-51b3-11ea-b98e-ef6b58d50265,3d8a71a8-51b3-11ea-a6f6-cb825ae4186e
3d240c7e-51b3-11ea-8358-9b20cffc2867,3d8aacd6-51b3-11ea-b1ba-031066f9e6d0
3d7639ae-51b3-11ea-a8ec-cf3f049e2fa3,3d8af042-51b3-11ea-a228-67b13532f675
3d7f4f12-51b3-11ea-9220-bb3b80d75d0d,3d8b04c4-51b3-11ea-a2bf-e35bbd294648
3d10b868-51b3-11ea-9b8f-dbc4c97677a1,3d8b1d9c-51b3-11ea-b34b-7385e7358c22
3cf592cc-51b3-11ea-a2fe-0b0c313897a9,3d8b6e78-51b3-11ea-b941-cb83c043a834
3d7eebe4-51b3-11ea-a8a4-3f1040267d8c,3d8b8d04-51b3-11ea-880a-cb01f5b3bf9e
3d0ebe28-51b3-11ea-b156-5bbba48effe5,3d8bc972-51b3-11ea-a058-9f33bfbbdb1a
3d68d39a-51b3-11ea-a59d-bba06a0b6756,3d8bfe88-51b3-11ea-97a0-abb0f772646f
3d127450-51b3-11ea-9aba-e32fc5c10c6a,3d8c1ed6-51b3-11ea-8e86-ef179f86bc22
3d8af042-51b3-11ea-a228-67b13532f675,3d8c3e52-51b3-11ea-8923-1f67ebef30bc
3d003114-51b3-11ea-a8b6-075c20d777bd,3d8c6530-51b3-11ea-b8d5-f30d531c2cfe
3d2cb176-51b3-11ea-bdd2-6beaf5a7ecfe,3d8ca298-51b3-11ea-a9ee-0b2c5087a45b
3d6a2bbe-51b3-11ea-a039-7f5c88bb3a5e,3d8cc8d6-51b3-11ea-86ee-931b0e2f4134
3d892294-51b3-11ea-8b46-934238559de4,3d8cf5ea-51b3-11ea-af3c-b38630a3040d
3d56dd3e-51b3-11ea-ac3e-03380a06e7fa,3d8d1b4c-51b3-11ea-97aa-5fb6efefad26
3d484616-51b3-11ea-9d57-3f695ee9c395,3d8d76e6-51b3-11ea-9918-a7371906996f
3d80f420-51b3-11ea-9048-af186909dbbb,3d8d6124-51b3-11ea-9900-afdf45e7bae2
3cfe6b04-51b3-11ea-bb07-d36e2d8d1952,3d8db002-51b3-11ea-a888-7bd6765c9c32
3d2b61ae-51b3-11ea-a7ef-63414b7cb47e,3d8ddf82-51b3-11ea-bc94-2f794c1df3a0
3cfa44de-51b3-11ea-8b79-f3773d71f57f,3d8e0746-51b3-11ea-a2f0-ff2cfd9a9129
3d2590b2-51b3-11ea-94f4-9bf2b691b158,3d8e12b8-51b3-11ea-94ba-133a1b54511b
3d893b08-51b3-11ea-b752-23b0aafe4376,3d8e5a84-51b3-11ea-92bb-6becf41ad589
3d1dfa28-51b3-11ea-a80a-479e42e5026a,3d8e96a2-51b3-11ea-90c7-7709b9f0a788
3d493b20-51b3-11ea-b464-2349027a5bda,3d8eaf7a-51b3-11ea-93df-8fba9ba34ede
3d121708-51b3-11ea-9e36-f736068efeba,3d8ec8de-51b3-11ea-93fa-1bea4188f10f
3d8713b4-51b3-11ea-8bfd-5f4acaedc90d,3d8edf86-51b3-11ea-ac53-dba26d613899
3d35d92c-51b3-11ea-a583-c3d0e9b72da3,3d8f5c86-51b3-11ea-98a0-ef79a0fce03b
3d8e12b8-51b3-11ea-94ba-133a1b54511b,3d8f6960-51b3-11ea-a58f-d786eff336af
3d29a24c-51b3-11ea-89fb-bb62a6bc6c29,3d8f7482-51b3-11ea-80de-579ae516b063
3d430f98-51b3-11ea-8a15-2bb03473cfab,3d8f7e46-51b3-11ea-9d85-5f1a1dbbb848
3cf70d82-51b3-11ea-9261-cb19e513658b,3d8fed72-51b3-11ea-acd4-47f3371b7e18
3d49476e-51b3-11ea-b5e1-af63dd7d449d,3d900b22-51b3-11ea-bd9d-7b32563b330e
3d6b54f8-51b3-11ea-8af3-bffba2d5707d,3d90215c-51b3-11ea-88a7-bb12f372bb3b
3d298942-51b3-11ea-8b37-2771f876dd21,3d90515e-51b3-11ea-8e09-8ba626b3d3fa
3d5a716a-51b3-11ea-953b-bf993951b9db,3d90882c-51b3-11ea-bda5-f3bbc9499a67
3d8af042-51b3-11ea-a228-67b13532f675,3d90b1c6-51b3-11ea-af36-6f300ef8ca26
3d4a0b5e-51b3-11ea-acff-bb70eb54e633,3d90c2a6-51b3-11ea-92da-db63b32bb8e2
3d525bc4-51b3-11ea-8248-339d5c0fcff3,3d90d746-51b3-11ea-a6a3-4f9f0ba7ffee
3cf5116c-51b3-11ea-8435-5f0029b46c45,3d912e76-51b3-11ea-8609-27775e97035e
3d7084dc-51b3-11ea-9639-f7ddcaa7c475,3d9153b0-51b3-11ea-83f6-df07d7b2c996
3cfc42de-51b3-11ea-9b71-077060b5483f,3d91608a-51b3-11ea-ae22-43a483e2b0d5
3d6512f0-51b3-11ea-affb-8750eb88708b,3d91b97c-51b3-11ea-ad94-f3179f771ac5
3d89ed46-51b3-11ea-b679-6768508a3664,3d91c35e-51b3-11ea-b36b-7fe8c4687749
3cfe1d34-51b3-11ea-9818-8bfd05958c63,3d91e942-51b3-11ea-b76f-73a5511bd18a
3d2c5d02-51b3-11ea-96d3-9fae9d5f267a,3d924c7a-51b3-11ea-8fe5-73a5fbb6b066
3d0cc906-51b3-11ea-aea4-03ca17772f33,3d9256b6-51b3-11ea-bc03-bbf116fc7427
3d6aa4ea-51b3-11ea-88f8-9b9d03093f8c,3d927d12-51b3-11ea-91ad-4f281f59ba4f
3d02a0b6-51b3-11ea-8554-a345070beffe,3d929086-51b3-11ea-a02a-c770ac3dcf5a
3d47833e-51b3-11ea-b946-9f806afcbd8e,3d93030e-51b3-11ea-923a-6f166c2cf50b
3d646a26-51b3-11ea-a543-0f68e40255a7,3d931c4a-51b3-11ea-83df-db3150151804
3d3ea8cc-51b3-11ea-8ab8-dbae6923ee2e,3d933a90-51b3-11ea-8dbf-e7bcc1ace4e7
3d6c0b5a-51b3-11ea-a85b-9b9ab49bff39,3d9352c8-51b3-11ea-9d2e-d3faa64d5338
3d7c4448-51b3-11ea-a4e5-8f83adde7e0d,3d937924-51b3-11ea-b703-f37285b01c0c
3d71c96e-51b3-11ea-bf4d-37e96afa1657,3d93ae94-51b3-11ea-8d39-337d57bd07b8
3d2590b2-51b3-11ea-94f4-9bf2b691b158,3d93be0c-51b3-11ea-a485-f39c63823e7a
3d69fd2e-51b3-11ea-b036-c79e1aeb2f89,3d940934-51b3-11ea-8a27-0b6b3a1f9920
3d5e7e36-51b3-11ea-a660-33093f06577a,3d9432ce-51b3-11ea-b4ea-7b6fd330ea26
3cf98f80-51b3-11ea-93f3-bb2d63bad17f,3d9465b4-51b3-11ea-a88d-73554f508ff6
3d6e98f2-51b3-11ea-a312-db9b3697f7ef,3d949f02-51b3-11ea-a397-6738b1fbf8d4
3d7b23c4-51b3-11ea-a53b-afb2d452d330,3d94d094-51b3-11ea-8699-efa296a9035a
3d8a45a2-51b3-11ea-a33c-13a36d032b6d,3d94ea2a-51b3-11ea-a08f-7742521cc4a5
3d45c27e-51b3-11ea-966f-e372af0d3ce8,3d94f65a-51b3-11ea-b3db-27b8b7ba4f2b
3d797f4c-51b3-11ea-8188-a7207f5b30cb,3d953908-51b3-11ea-b371-a3f72f1c247c
3cef3544-51b3-11ea-8a7a-ff853526872d,3d959916-51b3-11ea-a374-7fa13908ae24
3d0457c6-51b3-11ea-88c9-efdb3557666a,3d958e12-51b3-11ea-86bb-8fbcee98a705
3d6e03ce-51b3-11ea-9adb-5f55372c7f67,3d95e33a-51b3-11ea-9f25-277cc7a32bbb
3d80f420-51b3-11ea-9048-af186909dbbb,3d95edd0-51b3-11ea-ac67-23b3936d76ba
3d895c0a-51b3-11ea-a5a9-279fb5fcb600,3d9630e2-51b3-11ea-85b2-7fc6026930c3
3d27afe6-51b3-11ea-8285-4b05cac00d98,3d96433e-51b3-11ea-aa73-7fe181c8ba42
3d488360-51b3-11ea-8cd4-97adccb21a5b,3d968358-51b3-11ea-a1f1-4f6c2693c484
3d76cc2a-51b3-11ea-a267-f3bda13d8e36,3d969154-51b3-11ea-9c21-b3da00709b94
3d7377fa-51b3-11ea-9871-63ded84f854f,3d96bb66-51b3-11ea-9960-a7d0b1a04458
3d6f927a-51b3-11ea-a06b-7b75f3e076ae,3d96c688-51b3-11ea-89a9-d3d4f07ef910
3d8f7e46-51b3-11ea-9d85-5f1a1dbbb848,3d9738ca-51b3-11ea-a275-f35c399fb709
3d696846-51b3-11ea-bb71-e7ae56fd9bd4,3d976728-51b3-11ea-a722-37cea2bc6a9e
3d7a08c2-51b3-11ea-9c9b-2ff28abab552,3d979540-51b3-11ea-8108-3fc9df1bce0b
3d03bdac-51b3-11ea-abbc-db3531329de3,3d97a0da-51b3-11ea-a5ae-cb52131413e4
3d68454c-51b3-11ea-8a6c-9b3d95d27002,3d97d190-51b3-11ea-9a95-0fbc51a7449d
3d1e54be-51b3-11ea-93e4-dfb8d3e2908a,3d97fa4e-51b3-11ea-904c-fb9b19bf28ac
3d0449ac-51b3-11ea-a5ab-dbe36d173ce6,3d982bf4-51b3-11ea-a464-efeb80a6af93
3d123cec-51b3-11ea-8329-a30266d1f46c,3d986862-51b3-11ea-9312-f7f988e357cc
3d7128f6-51b3-11ea-8b68-5b07b10ac8ad,3d988b8a-51b3-11ea-96af-eb36903eba94
3d2590b2-51b3-11ea-94f4-9bf2b691b158,3d98a692-51b3-11ea-8214-63aaf00f06d8
3d7407ba-51b3-11ea-aa08-8f65d7be0a15,3d98d202-51b3-11ea-9d14-6379435b9b5d
3d5e0370-51b3-11ea-8d80-376f647f563a,3d9925ae-51b3-11ea-bed3-3333bdca6c34
3d53fd8a-51b3-11ea-a29e-d7fcd491cc66,3d993e5e-51b3-11ea-bd5f-1fe85843d797
3d49476e-51b3-11ea-b5e1-af63dd7d449d,3d994f7a-51b3-11ea-98e5-8753ddc7a550
3d48299c-51b3-11ea-bc4d-df40b35bcd7c,3d997b1c-51b3-11ea-922a-0f776124a1f2
3d03bdac-51b3-11ea-abbc-db3531329de3,3d99e930-51b3-11ea-b7b5-5ffe953745ff
3d4d962a-51b3-11ea-93f7-27f5559f66d0,3d9a0398-51b3-11ea-94d7-e77c7eb58841
3d69072a-51b3-11ea-998a-afaa027abf0c,3d9a168a-51b3-11ea-ad1e-5f0485d4d72a
3d3812f0-51b3-11ea-b364-6f1f268bf55d,3d9a2a4e-51b3-11ea-8a26-270956107766
3d66fde0-51b3-11ea-a841-b3380980c131,3d9adc6e-51b3-11ea-931c-ab638dd8e775
3cef3544-51b3-11ea-8a7a-ff853526872d,3d9aeeb6-51b3-11ea-94cb-2f656bbeb86d
3d290abc-51b3-11ea-a9eb-9fa650748cb0,3d9afa96-51b3-11ea-936b-6f0883d7c5de
3d59a3a2-51b3-11ea-9738-07a7c4551ebe,3d9b0f54-51b3-11ea-b971-2bce8822cfa3
3d69072a-51b3-11ea-998a-afaa027abf0c,3d9b7d40-51b3-11ea-ac45-1752e2e8fc9c
3cf0dbce-51b3-11ea-81f2-0bcdaa52a555,3d9b91e0-51b3-11ea-844b-0f8cae3477c2
3d76129e-51b3-11ea-a9e2-0b5cb82c0e6c,3d9b9f00-51b3-11ea-a122-83bfe69b1850
3d85abc8-51b3-11ea-bde3-779eb2ec3829,3d9bf7e8-51b3-11ea-b4be-b7f550ff078f
3cf70d82-51b3-11ea-9261-cb19e513658b,3d9c0526-51b3-11ea-912a-df86afb13874
3d66300e-51b3-11ea-80fc-7baf1bedf2c3,3d9c473e-51b3-11ea-b519-2fc827a8c75c
3d56dd3e-51b3-11ea-ac3e-03380a06e7fa,3d9c54b8-51b3-11ea-8330-47e81cd71878
3d29d8e8-51b3-11ea-a3d9-eb2763867cf4,3d9c90c2-51b3-11ea-a675-0f0256e21dd7
3d2d9686-51b3-11ea-910e-a3dd5c1b8dce,3d9ce950-51b3-11ea-81a6-b7d8862a6588
3d267cac-51b3-11ea-9a75-9fdee323ae90,3d9cf2c4-51b3-11ea-8232-7b3132230644
3d949f02-51b3-11ea-a397-6738b1fbf8d4,3d9d193e-51b3-11ea-ab6a-4fd76f6a5b21
3d178116-51b3-11ea-8ce0-7f9689e3eec8,3d9d33d8-51b3-11ea-b8df-bf54ed516c1c
3d929086-51b3-11ea-a02a-c770ac3dcf5a,3d9d54c6-51b3-11ea-92e9-3b65e1c7acf7
3d5bd488-51b3-11ea-9450-3fde7ef4cfb9,3d9d986e-51b3-11ea-acc2-83a32ad7d729
3d10b868-51b3-11ea-9b8f-dbc4c97677a1,3d9dc97e-51b3-11ea-b4fc-dba16ac81f82
3d36b90a-51b3-11ea-bd2d-5bbe40cf42de,3d9decb0-51b3-11ea-8c77-eb1e966754d3
3d6f639a-51b3-11ea-806d-d3ac2dd0ea6b,3d9e2950-51b3-11ea-9010-b3ed8dbabb15
3d1cd986-51b3-11ea-9560-039ef9c90d03,3d9e37a6-51b3-11ea-bac9-ab886b96b3f4
3d6bcfdc-51b3-11ea-8d0e-cb3ab610d36d,3d9e750e-51b3-11ea-bd49-872b493668e7
3d36efec-51b3-11ea-b0fb-37f1d29838fe,3d9ea02e-51b3-11ea-a592-1fa89a8c1d35
3d4461a4-51b3-11ea-bc19-2b02315fe2c7,3d9ebab4-51b3-11ea-9998-d77a612bca78
3cf1f252-51b3-11ea-ba2e-d3ba013814ae,3d9f1568-51b3-11ea-846d-4fc57a200666
3d6880fc-51b3-11ea-9250-1b4820583e11,3d9f3232-51b3-11ea-b6da-ebd0cfb1c8cc
3d91c35e-51b3-11ea-b36b-7fe8c4687749,3d9f6a04-51b3-11ea-8976-db9fef644e4d
3d45db06-51b3-11ea-9aca-6fdd68791a5f,3d9f9c22-51b3-11ea-94e0-1747ea3bde24
3d84aebc-51b3-11ea-b5e2-93a45685b717,3d9fd0de-51b3-11ea-b650-337bf44f73d3
3cefdb98-51b3-11ea-adb5-9bd7048e2a39,3da0104e-51b3-11ea-a2b6-0376ad7186ec
3d23fb12-51b3-11ea-a822-6785f3877d57,3da01bd4-51b3-11ea-b164-9bbe3799e404
3d4877ee-51b3-11ea-82ec-0faeca4be525,3da0334e-51b3-11ea-aea0-0fd757d9a36f
3d66e7d8-51b3-11ea-901b-fb39cd19a0cd,3da0ad4c-51b3-11ea-84fa-17614f98d112
3d5a1af8-51b3-11ea-af78-ff11ca07992e,3da0e46a-51b3-11ea-ab5a-c7429fd33631
3d698484-51b3-11ea-8199-07669aab69af,3da0f0c2-51b3-11ea-8880-8b6eb3862eb8
3d8d1b4c-51b3-11ea-97aa-5fb6efefad26,3da11a34-51b3-11ea-9e8f-e38d4b26253f
3d240c7e-51b3-11ea-8358-9b20cffc2867,3da13ef6-51b3-11ea-98e0-f72b61e8a347
3d08615e-51b3-11ea-96d1-2b1fa8f1836e,3da16a66-51b3-11ea-b183-cb8b4fddea16
3d726126-51b3-11ea-a678-d732f4a1bc67,3da1c4b6-51b3-11ea-866f-fb406c9ef22d
3d53ae8e-51b3-11ea-a1c0-3b47a0f5cca8,3da1b6f6-51b3-11ea-8747-77c081625f72
3d4efff6-51b3-11ea-9629-9bb644b1085d,3da209ee-51b3-11ea-b213-e3a1d778785d
3d259eae-51b3-11ea-bb70-1f748aa1f4ca,3da217b8-51b3-11ea-93e7-df4badfe8e71
