Source,Target
38c059c4-5a11-11ea-a73e-f7bd4311c9d1,38c0aa32-5a11-11ea-900a-f3db506ef5ee
38c0aa32-5a11-11ea-900a-f3db506ef5ee,38c0b180-5a11-11ea-85d2-c7c65031e61f
38c06fe0-5a11-11ea-bfe4-231311f6db41,38c0c04e-5a11-11ea-a128-9f9c8066e8fb
38c0c04e-5a11-11ea-a128-9f9c8066e8fb,38c0dcf0-5a11-11ea-95d2-a3ed2af2e92a
38c065b8-5a11-11ea-b1ad-2b628507758c,38c0f244-5a11-11ea-89f3-13608dce3a95
38c0c04e-5a11-11ea-a128-9f9c8066e8fb,38c0fbc2-5a11-11ea-8f06-5b6db2dd0d2c
38c054c4-5a11-11ea-bca3-f3e5c9d83cd3,38c10acc-5a11-11ea-b8bc-97ff19d09d97
38c04f06-5a11-11ea-aed5-db7729b38869,38c1106c-5a11-11ea-ad21-477681cb14a3
38c059c4-5a11-11ea-a73e-f7bd4311c9d1,38c11882-5a11-11ea-88f5-c710915a1e30
38c11882-5a11-11ea-88f5-c710915a1e30,38c12a7a-5a11-11ea-9e04-437bf2599711
38c1106c-5a11-11ea-ad21-477681cb14a3,38c13d1c-5a11-11ea-b89c-4b602ce48dcf
38c065b8-5a11-11ea-b1ad-2b628507758c,38c14a5a-5a11-11ea-8d19-9358e4243a6b
38c06040-5a11-11ea-b7b6-4f365e2772bf,38c160ee-5a11-11ea-aa78-93e0ee324691
38c06fe0-5a11-11ea-bfe4-231311f6db41,38c1662a-5a11-11ea-bec4-5b631d071c69
38c04f06-5a11-11ea-aed5-db7729b38869,38c15b8a-5a11-11ea-b057-3bbbf74fe907
38c0dcf0-5a11-11ea-95d2-a3ed2af2e92a,38c17732-5a11-11ea-9793-5fa3f246dc3d
38c04f06-5a11-11ea-aed5-db7729b38869,38c18696-5a11-11ea-881c-5fa96a3efa1d
38c14a5a-5a11-11ea-8d19-9358e4243a6b,38c1adc4-5a11-11ea-a94f-7fbcbd271208
38c0f244-5a11-11ea-89f3-13608dce3a95,38c1a252-5a11-11ea-8a1b-63fbff3e438a
38c1adc4-5a11-11ea-a94f-7fbcbd271208,38c1ba26-5a11-11ea-83af-8f832718e91b
38c054c4-5a11-11ea-bca3-f3e5c9d83cd3,38c1be18-5a11-11ea-9686-a3bb09c1c5f5
38c06fe0-5a11-11ea-bfe4-231311f6db41,38c1c43a-5a11-11ea-aa62-b755b87bfbde
38c0fbc2-5a11-11ea-8f06-5b6db2dd0d2c,38c1c868-5a11-11ea-87c1-a3ec5449ca84
38c17732-5a11-11ea-9793-5fa3f246dc3d,38c1fd60-5a11-11ea-9e74-57501a36d0c9
38c0fbc2-5a11-11ea-8f06-5b6db2dd0d2c,38c201b6-5a11-11ea-863e-df45807117e5
38c0f244-5a11-11ea-89f3-13608dce3a95,38c208dc-5a11-11ea-ab2a-07dbd9a30b80
38c065b8-5a11-11ea-b1ad-2b628507758c,38c20d46-5a11-11ea-930f-8b8badc9d5eb
38c1adc4-5a11-11ea-a94f-7fbcbd271208,38c21c28-5a11-11ea-ad76-6f77a25d07a1
38c12a7a-5a11-11ea-9e04-437bf2599711,38c21822-5a11-11ea-b6b7-f3cfa9b07b82
38c1ba26-5a11-11ea-83af-8f832718e91b,38c214bc-5a11-11ea-af89-bb14fbafb138
38c11882-5a11-11ea-88f5-c710915a1e30,38c24496-5a11-11ea-bc7a-f7da29f8b9ee
38c06040-5a11-11ea-b7b6-4f365e2772bf,38c25580-5a11-11ea-a17d-b7f44b36b992
38c1c868-5a11-11ea-87c1-a3ec5449ca84,38c26868-5a11-11ea-b8a4-4b903c21b2dc
38c054c4-5a11-11ea-bca3-f3e5c9d83cd3,38c26cf0-5a11-11ea-8763-d710156444d8
38c18696-5a11-11ea-881c-5fa96a3efa1d,38c27178-5a11-11ea-b9d1-a72eedd21a1c
38c0a410-5a11-11ea-ac2b-438e676e24a8,38c27588-5a11-11ea-aa7d-6b34c8260b17
38c208dc-5a11-11ea-ab2a-07dbd9a30b80,38c27a10-5a11-11ea-90ea-a7f8a858ef00
38c059c4-5a11-11ea-a73e-f7bd4311c9d1,38c2876c-5a11-11ea-92a7-97df0fa1d26b
38c06040-5a11-11ea-b7b6-4f365e2772bf,38c29d24-5a11-11ea-8795-eb0bbfbcd00b
38c0b180-5a11-11ea-85d2-c7c65031e61f,38c2a224-5a11-11ea-a5df-7353fab913dc
38c0c04e-5a11-11ea-a128-9f9c8066e8fb,38c2bdae-5a11-11ea-be47-c3404049d61d
38c27a10-5a11-11ea-90ea-a7f8a858ef00,38c2c466-5a11-11ea-9dad-3b4ff1e81195
38c27178-5a11-11ea-b9d1-a72eedd21a1c,38c2c8d0-5a11-11ea-bc2e-b3c7b96c0c45
38c1c43a-5a11-11ea-aa62-b755b87bfbde,38c2ceca-5a11-11ea-b82c-978560dfe3b8
38c1adc4-5a11-11ea-a94f-7fbcbd271208,38c2d442-5a11-11ea-9c57-73f3cfe1ea22
38c26868-5a11-11ea-b8a4-4b903c21b2dc,38c2d866-5a11-11ea-9234-0f07dea6c4fb
38c18696-5a11-11ea-881c-5fa96a3efa1d,38c2ef7c-5a11-11ea-ac71-cb30da893a97
38c2c8d0-5a11-11ea-bc2e-b3c7b96c0c45,38c2f774-5a11-11ea-80a1-afc9233fb4bf
38c14a5a-5a11-11ea-8d19-9358e4243a6b,38c30c6e-5a11-11ea-8198-773f8b964fb5
38c2bdae-5a11-11ea-be47-c3404049d61d,38c31268-5a11-11ea-9e32-470c1874ac8a
38c1be18-5a11-11ea-9686-a3bb09c1c5f5,38c31772-5a11-11ea-97ca-974f382e1cd3
38c15b8a-5a11-11ea-b057-3bbbf74fe907,38c326fe-5a11-11ea-9018-cf868b53af98
38c1c868-5a11-11ea-87c1-a3ec5449ca84,38c347f6-5a11-11ea-9a14-7b33d7f4ed96
38c1662a-5a11-11ea-bec4-5b631d071c69,38c34120-5a11-11ea-93b2-0ff230aa7ad0
38c06040-5a11-11ea-b7b6-4f365e2772bf,38c34c38-5a11-11ea-9939-176e838a8c22
38c1c43a-5a11-11ea-aa62-b755b87bfbde,38c35f70-5a11-11ea-9bf0-3f38560474de
38c27a10-5a11-11ea-90ea-a7f8a858ef00,38c36510-5a11-11ea-98c2-07d7aad6481f
38c1ba26-5a11-11ea-83af-8f832718e91b,38c36f38-5a11-11ea-960a-2398a4de0ffd
38c160ee-5a11-11ea-aa78-93e0ee324691,38c36ace-5a11-11ea-add8-13b0c6d9531d
38c160ee-5a11-11ea-aa78-93e0ee324691,38c393dc-5a11-11ea-b373-7bb8aec5dcd9
38c393dc-5a11-11ea-b373-7bb8aec5dcd9,38c39990-5a11-11ea-9826-47cd41b9a063
38c1a252-5a11-11ea-8a1b-63fbff3e438a,38c39e5e-5a11-11ea-b30f-c7ee1185c159
38c04f06-5a11-11ea-aed5-db7729b38869,38c3b100-5a11-11ea-8821-cff5f70fa297
38c2bdae-5a11-11ea-be47-c3404049d61d,38c3b574-5a11-11ea-bd45-93b624c3af22
38c214bc-5a11-11ea-af89-bb14fbafb138,38c3be48-5a11-11ea-a918-33eb927e64cd
38c0aa32-5a11-11ea-900a-f3db506ef5ee,38c3cab4-5a11-11ea-8b81-7ba779c6301a
38c3b100-5a11-11ea-8821-cff5f70fa297,38c3e22e-5a11-11ea-9838-5f2f567a1a01
38c059c4-5a11-11ea-a73e-f7bd4311c9d1,38c3ea44-5a11-11ea-8691-dba30026bdb5
38c054c4-5a11-11ea-bca3-f3e5c9d83cd3,38c3fbce-5a11-11ea-b365-6b3b4e628cb7
38c15b8a-5a11-11ea-b057-3bbbf74fe907,38c40c18-5a11-11ea-99c2-1fb4c63e2650
38c09bc8-5a11-11ea-96be-77872d58386e,38c410e6-5a11-11ea-9d31-4be71d874c02
38c0aa32-5a11-11ea-900a-f3db506ef5ee,38c415be-5a11-11ea-9966-0bc28fa00d65
38c2ef7c-5a11-11ea-ac71-cb30da893a97,38c41a14-5a11-11ea-a366-9b630b71f002
38c29d24-5a11-11ea-8795-eb0bbfbcd00b,38c428d8-5a11-11ea-bc26-ab0b02fdeda9
38c0c04e-5a11-11ea-a128-9f9c8066e8fb,38c433c8-5a11-11ea-9fe2-8fd610c25a19
38c39990-5a11-11ea-9826-47cd41b9a063,38c44caa-5a11-11ea-ac02-4b9abddb5afc
38c21c28-5a11-11ea-ad76-6f77a25d07a1,38c45fec-5a11-11ea-a080-8b982f70e1f3
38c1c868-5a11-11ea-87c1-a3ec5449ca84,38c465c8-5a11-11ea-b286-fff53c4beb4b
38c06040-5a11-11ea-b7b6-4f365e2772bf,38c46f46-5a11-11ea-8fe2-2b65465d3ffb
38c12a7a-5a11-11ea-9e04-437bf2599711,38c47252-5a11-11ea-9f17-23a75c973733
38c0b180-5a11-11ea-85d2-c7c65031e61f,38c47ef0-5a11-11ea-8303-a712368a421e
38c13d1c-5a11-11ea-b89c-4b602ce48dcf,38c486e8-5a11-11ea-b9b9-4b0a634fdfa8
38c160ee-5a11-11ea-aa78-93e0ee324691,38c49e26-5a11-11ea-bb8c-bf72093d4021
38c36ace-5a11-11ea-add8-13b0c6d9531d,38c4b10e-5a11-11ea-bdb0-9ff7bd5b5d89
38c0c04e-5a11-11ea-a128-9f9c8066e8fb,38c4bcf8-5a11-11ea-b137-07d714e3692f
38c49e26-5a11-11ea-bb8c-bf72093d4021,38c4b870-5a11-11ea-8502-53528c014c29
38c27588-5a11-11ea-aa7d-6b34c8260b17,38c4c540-5a11-11ea-ab6d-d7b063a76f55
38c47252-5a11-11ea-9f17-23a75c973733,38c4defe-5a11-11ea-8cfa-33d3b9f19c15
38c31268-5a11-11ea-9e32-470c1874ac8a,38c4d44a-5a11-11ea-8b7d-276de5f8a511
38c2a224-5a11-11ea-a5df-7353fab913dc,38c501cc-5a11-11ea-93cc-3bf2b624321c
38c428d8-5a11-11ea-bc26-ab0b02fdeda9,38c50924-5a11-11ea-baf6-eb0488a2751a
38c428d8-5a11-11ea-bc26-ab0b02fdeda9,38c5150e-5a11-11ea-8fea-67b2f8c904f4
38c2d442-5a11-11ea-9c57-73f3cfe1ea22,38c50f64-5a11-11ea-9039-a3ab5d8a0416
