RunID,Tick,AllAgents,Active,Inactive
run-2020-2-18-11-35-26.009102106,0,11,10,1
run-2020-2-18-11-35-26.009102106,1,17,14,3
run-2020-2-18-11-35-26.009102106,2,24,19,5
run-2020-2-18-11-35-26.009102106,3,29,22,7
run-2020-2-18-11-35-26.009102106,4,33,23,10
run-2020-2-18-11-35-26.009102106,5,36,20,16
run-2020-2-18-11-35-26.009102106,6,40,21,19
run-2020-2-18-11-35-26.009102106,7,42,22,20
run-2020-2-18-11-35-26.009102106,8,47,23,24
run-2020-2-18-11-35-26.009102106,9,51,25,26
run-2020-2-18-11-35-26.009102106,10,54,27,27
run-2020-2-18-11-35-26.009102106,11,56,24,32
run-2020-2-18-11-35-26.009102106,12,63,30,33
run-2020-2-18-11-35-26.009102106,13,64,30,34
run-2020-2-18-11-35-26.009102106,14,66,29,37
run-2020-2-18-11-35-26.009102106,15,67,28,39
run-2020-2-18-11-35-26.009102106,16,68,28,40
run-2020-2-18-11-35-26.009102106,17,75,34,41
run-2020-2-18-11-35-26.009102106,18,82,39,43
run-2020-2-18-11-35-26.009102106,19,86,41,45
run-2020-2-18-11-35-26.009102106,20,89,41,48
run-2020-2-18-11-35-26.009102106,21,93,43,50
run-2020-2-18-11-35-26.009102106,22,98,45,53
run-2020-2-18-11-35-26.009102106,23,104,47,57
run-2020-2-18-11-35-26.009102106,24,105,42,63
run-2020-2-18-11-35-26.009102106,25,111,46,65
run-2020-2-18-11-35-26.009102106,26,113,46,67
run-2020-2-18-11-35-26.009102106,27,116,47,69
run-2020-2-18-11-35-26.009102106,28,120,47,73
run-2020-2-18-11-35-26.009102106,29,123,50,73
run-2020-2-18-11-35-26.009102106,30,130,53,77
run-2020-2-18-11-35-26.009102106,31,134,55,79
run-2020-2-18-11-35-26.009102106,32,135,52,83
run-2020-2-18-11-35-26.009102106,33,138,52,86
run-2020-2-18-11-35-26.009102106,34,141,52,89
run-2020-2-18-11-35-26.009102106,35,147,56,91
run-2020-2-18-11-35-26.009102106,36,151,53,98
run-2020-2-18-11-35-26.009102106,37,158,58,100
run-2020-2-18-11-35-26.009102106,38,161,57,104
run-2020-2-18-11-35-26.009102106,39,163,55,108
run-2020-2-18-11-35-26.009102106,40,164,53,111
run-2020-2-18-11-35-26.009102106,41,169,53,116
run-2020-2-18-11-35-26.009102106,42,170,53,117
run-2020-2-18-11-35-26.009102106,43,174,57,117
run-2020-2-18-11-35-26.009102106,44,181,61,120
run-2020-2-18-11-35-26.009102106,45,183,57,126
run-2020-2-18-11-35-26.009102106,46,191,60,131
run-2020-2-18-11-35-26.009102106,47,193,60,133
run-2020-2-18-11-35-26.009102106,48,194,60,134
run-2020-2-18-11-35-26.009102106,49,196,60,136
run-2020-2-18-11-35-26.009102106,50,202,62,140
run-2020-2-18-11-35-26.009102106,51,204,61,143
run-2020-2-18-11-35-26.009102106,52,207,63,144
run-2020-2-18-11-35-26.009102106,53,211,60,151
run-2020-2-18-11-35-26.009102106,54,213,59,154
run-2020-2-18-11-35-26.009102106,55,219,60,159
run-2020-2-18-11-35-26.009102106,56,226,65,161
run-2020-2-18-11-35-26.009102106,57,227,56,171
run-2020-2-18-11-35-26.009102106,58,228,54,174
run-2020-2-18-11-35-26.009102106,59,233,56,177
run-2020-2-18-11-35-26.009102106,60,236,57,179
run-2020-2-18-11-35-26.009102106,61,238,57,181
run-2020-2-18-11-35-26.009102106,62,243,54,189
run-2020-2-18-11-35-26.009102106,63,246,56,190
run-2020-2-18-11-35-26.009102106,64,247,55,192
run-2020-2-18-11-35-26.009102106,65,247,52,195
run-2020-2-18-11-35-26.009102106,66,251,54,197
run-2020-2-18-11-35-26.009102106,67,256,54,202
run-2020-2-18-11-35-26.009102106,68,258,53,205
run-2020-2-18-11-35-26.009102106,69,262,55,207
run-2020-2-18-11-35-26.009102106,70,267,53,214
run-2020-2-18-11-35-26.009102106,71,269,53,216
run-2020-2-18-11-35-26.009102106,72,270,53,217
run-2020-2-18-11-35-26.009102106,73,276,53,223
run-2020-2-18-11-35-26.009102106,74,277,50,227
run-2020-2-18-11-35-26.009102106,75,281,52,229
run-2020-2-18-11-35-26.009102106,76,283,50,233
run-2020-2-18-11-35-26.009102106,77,288,50,238
run-2020-2-18-11-35-26.009102106,78,292,48,244
run-2020-2-18-11-35-26.009102106,79,299,51,248
run-2020-2-18-11-35-26.009102106,80,303,49,254
run-2020-2-18-11-35-26.009102106,81,310,52,258
run-2020-2-18-11-35-26.009102106,82,315,54,261
run-2020-2-18-11-35-26.009102106,83,318,51,267
run-2020-2-18-11-35-26.009102106,84,322,52,270
run-2020-2-18-11-35-26.009102106,85,325,52,273
run-2020-2-18-11-35-26.009102106,86,329,52,277
run-2020-2-18-11-35-26.009102106,87,331,52,279
run-2020-2-18-11-35-26.009102106,88,331,47,284
run-2020-2-18-11-35-26.009102106,89,334,44,290
run-2020-2-18-11-35-26.009102106,90,341,50,291
run-2020-2-18-11-35-26.009102106,91,344,50,294
run-2020-2-18-11-35-26.009102106,92,347,50,297
run-2020-2-18-11-35-26.009102106,93,349,48,301
run-2020-2-18-11-35-26.009102106,94,354,52,302
run-2020-2-18-11-35-26.009102106,95,355,49,306
run-2020-2-18-11-35-26.009102106,96,361,50,311
run-2020-2-18-11-35-26.009102106,97,363,46,317
run-2020-2-18-11-35-26.009102106,98,368,45,323
run-2020-2-18-11-35-26.009102106,99,373,46,327
