RunID,Tick,AllAgents,Active,Inactive
run-2020-2-18-12-30-6.7068800920000005,0,13,12,1
run-2020-2-18-12-30-6.7068800920000005,1,19,16,3
run-2020-2-18-12-30-6.7068800920000005,2,24,19,5
run-2020-2-18-12-30-6.7068800920000005,3,29,21,8
run-2020-2-18-12-30-6.7068800920000005,4,33,19,14
run-2020-2-18-12-30-6.7068800920000005,5,36,17,19
run-2020-2-18-12-30-6.7068800920000005,6,37,15,22
run-2020-2-18-12-30-6.7068800920000005,7,41,17,24
run-2020-2-18-12-30-6.7068800920000005,8,44,16,28
run-2020-2-18-12-30-6.7068800920000005,9,50,19,31
run-2020-2-18-12-30-6.7068800920000005,10,51,18,33
run-2020-2-18-12-30-6.7068800920000005,11,54,20,34
run-2020-2-18-12-30-6.7068800920000005,12,57,23,34
run-2020-2-18-12-30-6.7068800920000005,13,61,22,39
run-2020-2-18-12-30-6.7068800920000005,14,64,23,41
run-2020-2-18-12-30-6.7068800920000005,15,65,23,42
run-2020-2-18-12-30-6.7068800920000005,16,69,26,43
run-2020-2-18-12-30-6.7068800920000005,17,73,28,45
run-2020-2-18-12-30-6.7068800920000005,18,76,30,46
run-2020-2-18-12-30-6.7068800920000005,19,79,31,48
run-2020-2-18-12-30-6.7068800920000005,20,82,33,49
run-2020-2-18-12-30-6.7068800920000005,21,85,30,55
run-2020-2-18-12-30-6.7068800920000005,22,87,30,57
run-2020-2-18-12-30-6.7068800920000005,23,91,29,62
run-2020-2-18-12-30-6.7068800920000005,24,95,31,64
run-2020-2-18-12-30-6.7068800920000005,25,100,31,69
run-2020-2-18-12-30-6.7068800920000005,26,104,31,73
run-2020-2-18-12-30-6.7068800920000005,27,109,34,75
run-2020-2-18-12-30-6.7068800920000005,28,116,38,78
run-2020-2-18-12-30-6.7068800920000005,29,123,40,83
run-2020-2-18-12-30-6.7068800920000005,30,123,34,89
run-2020-2-18-12-30-6.7068800920000005,31,131,39,92
run-2020-2-18-12-30-6.7068800920000005,32,135,42,93
run-2020-2-18-12-30-6.7068800920000005,33,138,41,97
run-2020-2-18-12-30-6.7068800920000005,34,146,46,100
run-2020-2-18-12-30-6.7068800920000005,35,151,45,106
run-2020-2-18-12-30-6.7068800920000005,36,154,47,107
run-2020-2-18-12-30-6.7068800920000005,37,162,52,110
run-2020-2-18-12-30-6.7068800920000005,38,168,54,114
run-2020-2-18-12-30-6.7068800920000005,39,172,55,117
run-2020-2-18-12-30-6.7068800920000005,40,177,59,118
run-2020-2-18-12-30-6.7068800920000005,41,180,60,120
run-2020-2-18-12-30-6.7068800920000005,42,183,61,122
run-2020-2-18-12-30-6.7068800920000005,43,187,61,126
run-2020-2-18-12-30-6.7068800920000005,44,191,60,131
run-2020-2-18-12-30-6.7068800920000005,45,192,59,133
run-2020-2-18-12-30-6.7068800920000005,46,197,61,136
run-2020-2-18-12-30-6.7068800920000005,47,199,58,141
run-2020-2-18-12-30-6.7068800920000005,48,204,63,141
run-2020-2-18-12-30-6.7068800920000005,49,205,61,144
run-2020-2-18-12-30-6.7068800920000005,50,211,64,147
run-2020-2-18-12-30-6.7068800920000005,51,214,63,151
run-2020-2-18-12-30-6.7068800920000005,52,215,63,152
run-2020-2-18-12-30-6.7068800920000005,53,218,62,156
run-2020-2-18-12-30-6.7068800920000005,54,222,60,162
run-2020-2-18-12-30-6.7068800920000005,55,226,63,163
run-2020-2-18-12-30-6.7068800920000005,56,232,65,167
run-2020-2-18-12-30-6.7068800920000005,57,240,66,174
run-2020-2-18-12-30-6.7068800920000005,58,241,66,175
run-2020-2-18-12-30-6.7068800920000005,59,247,66,181
run-2020-2-18-12-30-6.7068800920000005,60,250,65,185
run-2020-2-18-12-30-6.7068800920000005,61,256,65,191
run-2020-2-18-12-30-6.7068800920000005,62,263,68,195
run-2020-2-18-12-30-6.7068800920000005,63,267,67,200
run-2020-2-18-12-30-6.7068800920000005,64,270,67,203
run-2020-2-18-12-30-6.7068800920000005,65,274,66,208
run-2020-2-18-12-30-6.7068800920000005,66,277,66,211
run-2020-2-18-12-30-6.7068800920000005,67,279,65,214
run-2020-2-18-12-30-6.7068800920000005,68,280,64,216
run-2020-2-18-12-30-6.7068800920000005,69,285,65,220
run-2020-2-18-12-30-6.7068800920000005,70,287,63,224
run-2020-2-18-12-30-6.7068800920000005,71,289,63,226
run-2020-2-18-12-30-6.7068800920000005,72,294,66,228
run-2020-2-18-12-30-6.7068800920000005,73,298,65,233
run-2020-2-18-12-30-6.7068800920000005,74,301,63,238
run-2020-2-18-12-30-6.7068800920000005,75,307,65,242
run-2020-2-18-12-30-6.7068800920000005,76,308,59,249
run-2020-2-18-12-30-6.7068800920000005,77,312,60,252
run-2020-2-18-12-30-6.7068800920000005,78,314,56,258
run-2020-2-18-12-30-6.7068800920000005,79,319,60,259
run-2020-2-18-12-30-6.7068800920000005,80,325,59,266
run-2020-2-18-12-30-6.7068800920000005,81,328,58,270
run-2020-2-18-12-30-6.7068800920000005,82,330,58,272
run-2020-2-18-12-30-6.7068800920000005,83,332,56,276
run-2020-2-18-12-30-6.7068800920000005,84,333,53,280
run-2020-2-18-12-30-6.7068800920000005,85,339,55,284
run-2020-2-18-12-30-6.7068800920000005,86,343,58,285
run-2020-2-18-12-30-6.7068800920000005,87,346,59,287
run-2020-2-18-12-30-6.7068800920000005,88,349,56,293
run-2020-2-18-12-30-6.7068800920000005,89,353,57,296
run-2020-2-18-12-30-6.7068800920000005,90,354,56,298
run-2020-2-18-12-30-6.7068800920000005,91,357,56,301
run-2020-2-18-12-30-6.7068800920000005,92,360,58,302
run-2020-2-18-12-30-6.7068800920000005,93,361,57,304
run-2020-2-18-12-30-6.7068800920000005,94,366,59,307
run-2020-2-18-12-30-6.7068800920000005,95,372,63,309
run-2020-2-18-12-30-6.7068800920000005,96,376,62,314
run-2020-2-18-12-30-6.7068800920000005,97,381,61,320
run-2020-2-18-12-30-6.7068800920000005,98,382,59,323
run-2020-2-18-12-30-6.7068800920000005,99,383,56,327
