RunID,Tick,ActiveAgentsPerTick
run-2020-2-18-16-41-14.464731931,0,18
run-2020-2-18-16-41-14.464731931,1,20
run-2020-2-18-16-41-14.464731931,2,23
run-2020-2-18-16-41-14.464731931,3,24
run-2020-2-18-16-41-14.464731931,4,23
run-2020-2-18-16-41-14.464731931,5,28
run-2020-2-18-16-41-14.464731931,6,24
run-2020-2-18-16-41-14.464731931,7,26
run-2020-2-18-16-41-14.464731931,8,23
run-2020-2-18-16-41-14.464731931,9,20
run-2020-2-18-16-41-14.464731931,10,21
run-2020-2-18-16-41-14.464731931,11,25
run-2020-2-18-16-41-14.464731931,12,25
run-2020-2-18-16-41-14.464731931,13,22
run-2020-2-18-16-41-14.464731931,14,20
run-2020-2-18-16-41-14.464731931,15,28
run-2020-2-18-16-41-14.464731931,16,27
run-2020-2-18-16-41-14.464731931,17,26
run-2020-2-18-16-41-14.464731931,18,27
run-2020-2-18-16-41-14.464731931,19,31
run-2020-2-18-16-41-14.464731931,20,29
run-2020-2-18-16-41-14.464731931,21,34
run-2020-2-18-16-41-14.464731931,22,34
run-2020-2-18-16-41-14.464731931,23,37
run-2020-2-18-16-41-14.464731931,24,37
run-2020-2-18-16-41-14.464731931,25,35
run-2020-2-18-16-41-14.464731931,26,39
run-2020-2-18-16-41-14.464731931,27,37
run-2020-2-18-16-41-14.464731931,28,35
run-2020-2-18-16-41-14.464731931,29,34
run-2020-2-18-16-41-14.464731931,30,35
run-2020-2-18-16-41-14.464731931,31,34
run-2020-2-18-16-41-14.464731931,32,41
run-2020-2-18-16-41-14.464731931,33,42
run-2020-2-18-16-41-14.464731931,34,46
run-2020-2-18-16-41-14.464731931,35,54
run-2020-2-18-16-41-14.464731931,36,52
run-2020-2-18-16-41-14.464731931,37,50
run-2020-2-18-16-41-14.464731931,38,51
run-2020-2-18-16-41-14.464731931,39,50
run-2020-2-18-16-41-14.464731931,40,50
run-2020-2-18-16-41-14.464731931,41,49
run-2020-2-18-16-41-14.464731931,42,46
run-2020-2-18-16-41-14.464731931,43,45
run-2020-2-18-16-41-14.464731931,44,47
run-2020-2-18-16-41-14.464731931,45,48
run-2020-2-18-16-41-14.464731931,46,45
run-2020-2-18-16-41-14.464731931,47,46
run-2020-2-18-16-41-14.464731931,48,46
run-2020-2-18-16-41-14.464731931,49,52
run-2020-2-18-16-41-14.464731931,50,53
run-2020-2-18-16-41-14.464731931,51,54
run-2020-2-18-16-41-14.464731931,52,52
run-2020-2-18-16-41-14.464731931,53,52
run-2020-2-18-16-41-14.464731931,54,50
run-2020-2-18-16-41-14.464731931,55,53
run-2020-2-18-16-41-14.464731931,56,58
run-2020-2-18-16-41-14.464731931,57,62
run-2020-2-18-16-41-14.464731931,58,60
run-2020-2-18-16-41-14.464731931,59,59
run-2020-2-18-16-41-14.464731931,60,54
run-2020-2-18-16-41-14.464731931,61,53
run-2020-2-18-16-41-14.464731931,62,53
run-2020-2-18-16-41-14.464731931,63,58
run-2020-2-18-16-41-14.464731931,64,62
run-2020-2-18-16-41-14.464731931,65,58
run-2020-2-18-16-41-14.464731931,66,59
run-2020-2-18-16-41-14.464731931,67,56
run-2020-2-18-16-41-14.464731931,68,57
run-2020-2-18-16-41-14.464731931,69,55
run-2020-2-18-16-41-14.464731931,70,58
run-2020-2-18-16-41-14.464731931,71,67
run-2020-2-18-16-41-14.464731931,72,68
run-2020-2-18-16-41-14.464731931,73,66
run-2020-2-18-16-41-14.464731931,74,63
run-2020-2-18-16-41-14.464731931,75,58
run-2020-2-18-16-41-14.464731931,76,55
run-2020-2-18-16-41-14.464731931,77,54
run-2020-2-18-16-41-14.464731931,78,58
run-2020-2-18-16-41-14.464731931,79,60
run-2020-2-18-16-41-14.464731931,80,59
run-2020-2-18-16-41-14.464731931,81,60
run-2020-2-18-16-41-14.464731931,82,66
run-2020-2-18-16-41-14.464731931,83,63
run-2020-2-18-16-41-14.464731931,84,67
run-2020-2-18-16-41-14.464731931,85,68
run-2020-2-18-16-41-14.464731931,86,62
run-2020-2-18-16-41-14.464731931,87,57
run-2020-2-18-16-41-14.464731931,88,59
run-2020-2-18-16-41-14.464731931,89,63
run-2020-2-18-16-41-14.464731931,90,66
run-2020-2-18-16-41-14.464731931,91,62
run-2020-2-18-16-41-14.464731931,92,62
run-2020-2-18-16-41-14.464731931,93,61
run-2020-2-18-16-41-14.464731931,94,63
run-2020-2-18-16-41-14.464731931,95,63
run-2020-2-18-16-41-14.464731931,96,63
run-2020-2-18-16-41-14.464731931,97,61
run-2020-2-18-16-41-14.464731931,98,59
run-2020-2-18-16-41-14.464731931,99,61
run-2020-2-18-16-41-14.464731931,100,58
