RunID,Agent,Age,Created,Inactive,Resources,Reputation,Ability,Que
run-2020-2-17-18-3-3.229095935,AGENT#beb1a0c0-51af-11ea-9ffc-e7da3172b1e9,0,0,0,10,1.0,1.0,0
run-2020-2-17-18-3-3.229095935,AGENT#beb19df0-51af-11ea-bb8f-0b46e73d6496,1,0,1,10,1.0,1.0,0
run-2020-2-17-18-3-3.229095935,AGENT#beb1a390-51af-11ea-95c1-03f740e563da,1,0,1,10,1.0,1.0,0
run-2020-2-17-18-3-3.229095935,AGENT#beb1f994-51af-11ea-96ba-2fbe9e465e6f,2,0,2,10,1.0,1.0,0
run-2020-2-17-18-3-3.229095935,AGENT#beb19b0c-51af-11ea-8efd-bfdbdd3ac122,3,0,3,10,1.0,1.0,0
run-2020-2-17-18-3-3.229095935,AGENT#beb1a66a-51af-11ea-8349-abd176bbb8c4,3,0,3,10,1.0,1.0,0
run-2020-2-17-18-3-3.229095935,AGENT#beb1abec-51af-11ea-92bf-132f835dd03f,3,0,3,10,1.0,1.0,0
run-2020-2-17-18-3-3.229095935,AGENT#beb1aea8-51af-11ea-a543-f3e82206787b,3,0,3,10,1.0,1.0,0
run-2020-2-17-18-3-3.229095935,AGENT#beb1f6b0-51af-11ea-a2ca-5badcaa671cf,3,0,3,10,1.0,1.0,0
run-2020-2-17-18-3-3.229095935,AGENT#bebc3580-51af-11ea-aed2-173fae560619,1,2,3,10,1.0,1.0,0
run-2020-2-17-18-3-3.229095935,AGENT#bebc3b2a-51af-11ea-b20c-4f3e459ac881,3,2,5,10,1.0,1.0,0
run-2020-2-17-18-3-3.229095935,AGENT#bebc3dbe-51af-11ea-9c30-7f20c4de4ffa,3,2,5,10,1.0,1.0,0
run-2020-2-17-18-3-3.229095935,AGENT#bebc4066-51af-11ea-8061-4bfeef74167f,3,2,5,10,1.0,1.0,0
run-2020-2-17-18-3-3.229095935,AGENT#bebf1f84-51af-11ea-9f5a-af45a9e5823b,1,4,5,10,1.0,1.0,0
run-2020-2-17-18-3-3.229095935,AGENT#bebf21fa-51af-11ea-be5d-5bb407def4cf,1,4,5,10,1.0,1.0,0
run-2020-2-17-18-3-3.229095935,AGENT#bebc3878-51af-11ea-b836-a7ee5d11bc2d,4,2,6,10,1.0,1.0,0
run-2020-2-17-18-3-3.229095935,AGENT#bebf248e-51af-11ea-95c2-ab9a47d2fdb2,3,4,7,10,1.0,1.0,0
run-2020-2-17-18-3-3.229095935,AGENT#bec52816-51af-11ea-9ef1-6fb9760f23d9,1,6,7,10,1.0,1.0,0
run-2020-2-17-18-3-3.229095935,AGENT#bebd9b32-51af-11ea-bf24-e3015bff06eb,5,3,8,10,1.0,1.0,0
run-2020-2-17-18-3-3.229095935,AGENT#bec1ca22-51af-11ea-916f-93470e85545e,3,5,8,10,1.0,1.0,0
run-2020-2-17-18-3-3.229095935,AGENT#bec52aaa-51af-11ea-9081-9f89b0c9f340,2,6,8,10,1.0,1.0,0
run-2020-2-17-18-3-3.229095935,AGENT#bec94482-51af-11ea-9cca-57c7971d2f18,1,7,8,10,1.0,1.0,0
run-2020-2-17-18-3-3.229095935,AGENT#bec1c6c6-51af-11ea-8580-9f806b6be40d,4,5,9,10,1.0,1.0,0
run-2020-2-17-18-3-3.229095935,AGENT#bec52f46-51af-11ea-90fc-a38ff82680f6,3,6,9,10,1.0,1.0,0
run-2020-2-17-18-3-3.229095935,AGENT#bec9423e-51af-11ea-8ced-3b245c92b588,2,7,9,10,1.0,1.0,0
run-2020-2-17-18-3-3.229095935,AGENT#bec5233e-51af-11ea-bb4b-ab143894783c,4,6,10,10,1.0,1.0,0
run-2020-2-17-18-3-3.229095935,AGENT#bec525be-51af-11ea-8e2b-cf41a711cd14,4,6,10,10,1.0,1.0,0
run-2020-2-17-18-3-3.229095935,AGENT#bece3582-51af-11ea-af66-c702133f23e6,3,8,11,10,1.0,1.0,0
run-2020-2-17-18-3-3.229095935,AGENT#bed4587c-51af-11ea-a0aa-cb9ef93c0f23,2,9,11,10,1.0,1.0,0
run-2020-2-17-18-3-3.229095935,AGENT#bec93fd2-51af-11ea-ad78-cf1de7914be7,5,7,12,10,1.0,1.0,0
run-2020-2-17-18-3-3.229095935,AGENT#beda52a4-51af-11ea-b2ea-1babc1b253ed,2,10,12,10,1.0,1.0,0
run-2020-2-17-18-3-3.229095935,AGENT#beda5d80-51af-11ea-bc33-db50f7f0e223,2,10,12,10,1.0,1.0,0
run-2020-2-17-18-3-3.229095935,AGENT#bed451ec-51af-11ea-8286-371ad2343a87,4,9,13,10,1.0,1.0,0
run-2020-2-17-18-3-3.229095935,AGENT#bee51d42-51af-11ea-b9d4-df2208b82ccb,2,12,14,10,1.0,1.0,0
run-2020-2-17-18-3-3.229095935,AGENT#bee51f7c-51af-11ea-a146-9b4ff06b4c82,2,12,14,10,1.0,1.0,0
run-2020-2-17-18-3-3.229095935,AGENT#beeb80f6-51af-11ea-83aa-c3722f6774aa,1,13,14,10,1.0,1.0,0
run-2020-2-17-18-3-3.229095935,AGENT#befafcca-51af-11ea-b3ce-9fa423d7ffd6,1,15,16,10,1.0,1.0,0
run-2020-2-17-18-3-3.229095935,AGENT#beeb839e-51af-11ea-824d-5b56c61cff48,4,13,17,10,1.0,1.0,0
run-2020-2-17-18-3-3.229095935,AGENT#beeb886c-51af-11ea-98e4-e3e46e9da388,4,13,17,10,1.0,1.0,0
run-2020-2-17-18-3-3.229095935,AGENT#bef27834-51af-11ea-bb45-830cef218401,3,14,17,10,1.0,1.0,0
run-2020-2-17-18-3-3.229095935,AGENT#befafa0e-51af-11ea-b573-d30ef128e2ac,2,15,17,10,1.0,1.0,0
run-2020-2-17-18-3-3.229095935,AGENT#bef275a0-51af-11ea-8335-973d6209597d,4,14,18,10,1.0,1.0,0
run-2020-2-17-18-3-3.229095935,AGENT#befaf72a-51af-11ea-a9a2-039e00ac1274,3,15,18,10,1.0,1.0,0
run-2020-2-17-18-3-3.229095935,AGENT#befaff72-51af-11ea-83e6-e7093293d447,3,15,18,10,1.0,1.0,0
run-2020-2-17-18-3-3.229095935,AGENT#bf1bfdf8-51af-11ea-b26c-772e8877c20c,1,18,19,10,1.0,1.0,0
run-2020-2-17-18-3-3.229095935,AGENT#bf1c02ee-51af-11ea-a8ed-c76b50bc4065,1,18,19,10,1.0,1.0,0
run-2020-2-17-18-3-3.229095935,AGENT#bf1c078a-51af-11ea-8dc9-1305d541b949,1,18,19,10,1.0,1.0,0
run-2020-2-17-18-3-3.229095935,AGENT#bf313308-51af-11ea-926f-a739b411dc60,1,20,21,10,1.0,1.0,0
run-2020-2-17-18-3-3.229095935,AGENT#bf11f204-51af-11ea-8bab-a7cb94678c0f,5,17,22,10,1.0,1.0,0
run-2020-2-17-18-3-3.229095935,AGENT#bf11fbd2-51af-11ea-96ba-e7443ae7b2ca,5,17,22,10,1.0,1.0,0
run-2020-2-17-18-3-3.229095935,AGENT#bf1c0078-51af-11ea-a2eb-b3458658b028,4,18,22,10,1.0,1.0,0
run-2020-2-17-18-3-3.229095935,AGENT#bf1c053c-51af-11ea-9d6d-c305d02f8b5c,5,18,23,10,1.0,1.0,0
run-2020-2-17-18-3-3.229095935,AGENT#bf50fb2a-51af-11ea-95c5-4715f31ccbdf,1,22,23,10,1.0,1.0,0
run-2020-2-17-18-3-3.229095935,AGENT#bf510480-51af-11ea-9fac-83cdf0b1da35,1,22,23,10,1.0,1.0,0
run-2020-2-17-18-3-3.229095935,AGENT#bf510d4a-51af-11ea-b2e2-4bc9844e07a5,1,22,23,10,1.0,1.0,0
run-2020-2-17-18-3-3.229095935,AGENT#bf3135b0-51af-11ea-8256-9362a7276df6,4,20,24,10,1.0,1.0,0
run-2020-2-17-18-3-3.229095935,AGENT#bf50f58a-51af-11ea-8b7c-3bc346dc1c1f,2,22,24,10,1.0,1.0,0
run-2020-2-17-18-3-3.229095935,AGENT#bf511b96-51af-11ea-bd9e-3b64c485a876,2,22,24,10,1.0,1.0,0
run-2020-2-17-18-3-3.229095935,AGENT#bf61e430-51af-11ea-a39a-b38cf5c92d00,1,23,24,10,1.0,1.0,0
run-2020-2-17-18-3-3.229095935,AGENT#bf50ffc6-51af-11ea-b01e-9b4f6bd6561b,3,22,25,10,1.0,1.0,0
run-2020-2-17-18-3-3.229095935,AGENT#bf61e6e2-51af-11ea-8493-1b7bb52ba963,2,23,25,10,1.0,1.0,0
run-2020-2-17-18-3-3.229095935,AGENT#bf5108fe-51af-11ea-82b1-93fdd4b8dba7,4,22,26,10,1.0,1.0,0
run-2020-2-17-18-3-3.229095935,AGENT#bf61e14c-51af-11ea-9f60-97bae5f42a5c,3,23,26,10,1.0,1.0,0
run-2020-2-17-18-3-3.229095935,AGENT#bf73f99a-51af-11ea-bd02-3f4309849e80,2,24,26,10,1.0,1.0,0
run-2020-2-17-18-3-3.229095935,AGENT#bf842aea-51af-11ea-822d-3b4c0a1ef5c6,1,25,26,10,1.0,1.0,0
run-2020-2-17-18-3-3.229095935,AGENT#bf842dce-51af-11ea-b868-d7573edf0a8d,1,25,26,10,1.0,1.0,0
run-2020-2-17-18-3-3.229095935,AGENT#bec1cd42-51af-11ea-b126-0f333c9976ae,22,5,27,10,1.0,1.0,0
run-2020-2-17-18-3-3.229095935,AGENT#bf84236a-51af-11ea-b9a4-274e9d97040e,2,25,27,10,1.0,1.0,0
run-2020-2-17-18-3-3.229095935,AGENT#bf977ab4-51af-11ea-bf91-2f3297073d8f,1,26,27,10,1.0,1.0,0
run-2020-2-17-18-3-3.229095935,AGENT#bf977e74-51af-11ea-b312-1f3a40df02fd,2,26,28,10,1.0,1.0,0
run-2020-2-17-18-3-3.229095935,AGENT#bfc00894-51af-11ea-bac4-0354fa3c2066,1,28,29,10,1.0,1.0,0
run-2020-2-17-18-3-3.229095935,AGENT#beb1a930-51af-11ea-b833-efb74e07fd56,30,0,30,10,1.0,1.0,0
run-2020-2-17-18-3-3.229095935,AGENT#bf11f588-51af-11ea-bb48-33eceb825c2d,13,17,30,10,1.0,1.0,0
run-2020-2-17-18-3-3.229095935,AGENT#bfd1e6d6-51af-11ea-a341-472a88fe60a4,1,29,30,10,1.0,1.0,0
run-2020-2-17-18-3-3.229095935,AGENT#bfd1e9c4-51af-11ea-93fb-df1cf2cc24e2,2,29,31,10,1.0,1.0,0
run-2020-2-17-18-3-3.229095935,AGENT#bfe139b0-51af-11ea-9d09-df19fdb2ee95,1,30,31,10,1.0,1.0,0
run-2020-2-17-18-3-3.229095935,AGENT#bfd1ec76-51af-11ea-9941-3b7012725665,3,29,32,10,1.0,1.0,0
run-2020-2-17-18-3-3.229095935,AGENT#bfd1ef5a-51af-11ea-a7be-7f50c0b68878,3,29,32,10,1.0,1.0,0
run-2020-2-17-18-3-3.229095935,AGENT#bfe13712-51af-11ea-b310-f7ff1f8dfbfa,3,30,33,10,1.0,1.0,0
run-2020-2-17-18-3-3.229095935,AGENT#bff0841a-51af-11ea-9367-976d143614a3,2,31,33,10,1.0,1.0,0
run-2020-2-17-18-3-3.229095935,AGENT#c026c2b4-51af-11ea-a21c-db0bac95ac70,1,34,35,10,1.0,1.0,0
run-2020-2-17-18-3-3.229095935,AGENT#bff0808c-51af-11ea-b281-1b0f88f159dd,5,31,36,10,1.0,1.0,0
run-2020-2-17-18-3-3.229095935,AGENT#c0154642-51af-11ea-913d-2f38c7581205,3,33,36,10,1.0,1.0,0
run-2020-2-17-18-3-3.229095935,AGENT#c026bd32-51af-11ea-bce8-7b10646523a9,2,34,36,10,1.0,1.0,0
run-2020-2-17-18-3-3.229095935,AGENT#c0381e88-51af-11ea-b55f-23af24fdd797,1,35,36,10,1.0,1.0,0
run-2020-2-17-18-3-3.229095935,AGENT#bebf1cd2-51af-11ea-98c4-5b0ce4d9bf43,33,4,37,10,1.0,1.0,0
run-2020-2-17-18-3-3.229095935,AGENT#c0155560-51af-11ea-b81f-0bc508eb088c,4,33,37,10,1.0,1.0,0
run-2020-2-17-18-3-3.229095935,AGENT#c01551b4-51af-11ea-aea5-33a12b682c02,5,33,38,10,1.0,1.0,0
run-2020-2-17-18-3-3.229095935,AGENT#c0381b86-51af-11ea-a486-2bf5632d1532,3,35,38,10,1.0,1.0,0
run-2020-2-17-18-3-3.229095935,AGENT#c04a7b5a-51af-11ea-a390-e3dd7cb6331f,2,36,38,10,1.0,1.0,0
run-2020-2-17-18-3-3.229095935,AGENT#c05d42da-51af-11ea-8ee5-53c7d9d9597d,1,37,38,10,1.0,1.0,0
run-2020-2-17-18-3-3.229095935,AGENT#c026c552-51af-11ea-92f4-eb4fe7cae999,5,34,39,10,1.0,1.0,0
run-2020-2-17-18-3-3.229095935,AGENT#c0382162-51af-11ea-b8a6-aff79dae6cdc,4,35,39,10,1.0,1.0,0
run-2020-2-17-18-3-3.229095935,AGENT#c03826d0-51af-11ea-bc64-e71669c43066,4,35,39,10,1.0,1.0,0
run-2020-2-17-18-3-3.229095935,AGENT#c06f1b2c-51af-11ea-8366-ebc07265c54f,1,38,39,10,1.0,1.0,0
run-2020-2-17-18-3-3.229095935,AGENT#c0382428-51af-11ea-b26d-3bc502cd7b60,5,35,40,10,1.0,1.0,0
run-2020-2-17-18-3-3.229095935,AGENT#c04a7e70-51af-11ea-913c-03aa7d3fc818,4,36,40,10,1.0,1.0,0
run-2020-2-17-18-3-3.229095935,AGENT#c07d6c9a-51af-11ea-acfb-0387e6da5f01,1,39,40,10,1.0,1.0,0
run-2020-2-17-18-3-3.229095935,AGENT#c05d467c-51af-11ea-8cb4-bb0a6776a416,4,37,41,10,1.0,1.0,0
run-2020-2-17-18-3-3.229095935,AGENT#c08d1546-51af-11ea-874f-73c410e0f4a9,1,40,41,10,1.0,1.0,0
run-2020-2-17-18-3-3.229095935,AGENT#c06f2054-51af-11ea-87b6-6f79e5203429,4,38,42,10,1.0,1.0,0
run-2020-2-17-18-3-3.229095935,AGENT#c08d12b2-51af-11ea-b451-47fa9219baba,2,40,42,10,1.0,1.0,0
run-2020-2-17-18-3-3.229095935,AGENT#c09d0424-51af-11ea-aa40-03efabbd48eb,1,41,42,10,1.0,1.0,0
run-2020-2-17-18-3-3.229095935,AGENT#beb193c8-51af-11ea-aa36-d74112510abe,43,0,43,10,1.0,1.0,0
run-2020-2-17-18-3-3.229095935,AGENT#c07d6a2e-51af-11ea-891b-93eb8af5e758,4,39,43,10,1.0,1.0,0
run-2020-2-17-18-3-3.229095935,AGENT#c09d0942-51af-11ea-9218-d3caec43ae1c,2,41,43,10,1.0,1.0,0
run-2020-2-17-18-3-3.229095935,AGENT#c0abf934-51af-11ea-bf67-17f132058916,1,42,43,10,1.0,1.0,0
run-2020-2-17-18-3-3.229095935,AGENT#c0abfe02-51af-11ea-ae63-5343d7cbec7d,1,42,43,10,1.0,1.0,0
run-2020-2-17-18-3-3.229095935,AGENT#bfaf5bb6-51af-11ea-aef6-1702ac6aa37a,17,27,44,10,1.0,1.0,0
run-2020-2-17-18-3-3.229095935,AGENT#c08d0fce-51af-11ea-8a41-ff5b2e6b7f27,4,40,44,10,1.0,1.0,0
run-2020-2-17-18-3-3.229095935,AGENT#c09d06ae-51af-11ea-86fe-3b2132216464,3,41,44,10,1.0,1.0,0
run-2020-2-17-18-3-3.229095935,AGENT#c0abf40c-51af-11ea-a0c4-931367b29575,2,42,44,10,1.0,1.0,0
run-2020-2-17-18-3-3.229095935,AGENT#c0abf6dc-51af-11ea-a3ea-132930abeb9f,2,42,44,10,1.0,1.0,0
run-2020-2-17-18-3-3.229095935,AGENT#beb1f354-51af-11ea-b98a-5fe363c7224a,45,0,45,10,1.0,1.0,0
run-2020-2-17-18-3-3.229095935,AGENT#c09cfe66-51af-11ea-813d-c3c43131cff9,4,41,45,10,1.0,1.0,0
run-2020-2-17-18-3-3.229095935,AGENT#c09d0e1a-51af-11ea-88fb-17a3ea59e223,4,41,45,10,1.0,1.0,0
run-2020-2-17-18-3-3.229095935,AGENT#c0abf088-51af-11ea-a31e-172c04d0b382,3,42,45,10,1.0,1.0,0
run-2020-2-17-18-3-3.229095935,AGENT#beb197c4-51af-11ea-a808-877be0c0ddfd,46,0,46,10,1.0,1.0,0
run-2020-2-17-18-3-3.229095935,AGENT#beb1fc8c-51af-11ea-81cf-4bc3bcfb2175,46,0,46,10,1.0,1.0,0
run-2020-2-17-18-3-3.229095935,AGENT#c07d6ef2-51af-11ea-91cf-9b9cca6bc143,7,39,46,10,1.0,1.0,0
run-2020-2-17-18-3-3.229095935,AGENT#c0c943f4-51af-11ea-828e-7f77edbfa917,2,44,46,10,1.0,1.0,0
run-2020-2-17-18-3-3.229095935,AGENT#c0d992c2-51af-11ea-8b75-83d72d84985c,1,45,46,10,1.0,1.0,0
run-2020-2-17-18-3-3.229095935,AGENT#beba6552-51af-11ea-8f9a-d739cd80e207,46,1,47,10,1.0,1.0,0
run-2020-2-17-18-3-3.229095935,AGENT#c0ea39ec-51af-11ea-9fd5-f7c576536872,1,46,47,10,1.0,1.0,0
run-2020-2-17-18-3-3.229095935,AGENT#bebd9894-51af-11ea-b079-f368c8e2426d,45,3,48,10,1.0,1.0,0
run-2020-2-17-18-3-3.229095935,AGENT#c0c94688-51af-11ea-acf8-639993748751,4,44,48,10,1.0,1.0,0
run-2020-2-17-18-3-3.229095935,AGENT#c0d9961e-51af-11ea-944d-87c5c40aa51c,3,45,48,10,1.0,1.0,0
run-2020-2-17-18-3-3.229095935,AGENT#c0d9990c-51af-11ea-9860-23bf55a57000,3,45,48,10,1.0,1.0,0
run-2020-2-17-18-3-3.229095935,AGENT#c0ea3d02-51af-11ea-8320-9bc3f719ac23,2,46,48,10,1.0,1.0,0
run-2020-2-17-18-3-3.229095935,AGENT#c0fc7300-51af-11ea-85c1-978f5945b5c6,1,47,48,10,1.0,1.0,0
run-2020-2-17-18-3-3.229095935,AGENT#c0fc794a-51af-11ea-bd63-efca59b24941,1,47,48,10,1.0,1.0,0
run-2020-2-17-18-3-3.229095935,AGENT#c0fc6518-51af-11ea-bb90-f3262764050f,2,47,49,10,1.0,1.0,0
run-2020-2-17-18-3-3.229095935,AGENT#c10eecba-51af-11ea-b575-7b215b826616,1,48,49,10,1.0,1.0,0
run-2020-2-17-18-3-3.229095935,AGENT#c0fc6bee-51af-11ea-85b8-e73dfeee8724,3,47,50,10,1.0,1.0,0
run-2020-2-17-18-3-3.229095935,AGENT#bebd95b0-51af-11ea-a043-1ffb785702fd,48,3,51,10,1.0,1.0,0
run-2020-2-17-18-3-3.229095935,AGENT#bec52cf8-51af-11ea-97ff-e3d158c569df,45,6,51,10,1.0,1.0,0
run-2020-2-17-18-3-3.229095935,AGENT#c0ea3f96-51af-11ea-a442-8f134263c5cc,5,46,51,10,1.0,1.0,0
run-2020-2-17-18-3-3.229095935,AGENT#c0fc6f36-51af-11ea-a844-e744837b80cb,4,47,51,10,1.0,1.0,0
run-2020-2-17-18-3-3.229095935,AGENT#c10ee1ac-51af-11ea-8acb-fb6782fbc447,3,48,51,10,1.0,1.0,0
run-2020-2-17-18-3-3.229095935,AGENT#c1209bea-51af-11ea-b069-a349171b6d90,2,49,51,10,1.0,1.0,0
run-2020-2-17-18-3-3.229095935,AGENT#c0fc7648-51af-11ea-8335-8f1ba4dcbf96,5,47,52,10,1.0,1.0,0
run-2020-2-17-18-3-3.229095935,AGENT#c10ee846-51af-11ea-bbfa-e7b46636cfde,4,48,52,10,1.0,1.0,0
run-2020-2-17-18-3-3.229095935,AGENT#c120932a-51af-11ea-8e58-77993f322391,3,49,52,10,1.0,1.0,0
run-2020-2-17-18-3-3.229095935,AGENT#c120964a-51af-11ea-80a5-4f68bc4d5040,3,49,52,10,1.0,1.0,0
run-2020-2-17-18-3-3.229095935,AGENT#c131c578-51af-11ea-b310-0b5d15832293,2,50,52,10,1.0,1.0,0
run-2020-2-17-18-3-3.229095935,AGENT#c144fa94-51af-11ea-bfee-7ba030e1c886,1,51,52,10,1.0,1.0,0
run-2020-2-17-18-3-3.229095935,AGENT#c1209906-51af-11ea-be88-6b6114459b2a,4,49,53,10,1.0,1.0,0
run-2020-2-17-18-3-3.229095935,AGENT#c131c866-51af-11ea-b769-efc2cf527ca5,3,50,53,10,1.0,1.0,0
run-2020-2-17-18-3-3.229095935,AGENT#c1558620-51af-11ea-a198-0f0368b33c20,1,52,53,10,1.0,1.0,0
run-2020-2-17-18-3-3.229095935,AGENT#c1558ae4-51af-11ea-a35e-bf2a4adc5e7e,1,52,53,10,1.0,1.0,0
run-2020-2-17-18-3-3.229095935,AGENT#bec93d20-51af-11ea-bbbc-dfce7a76e98c,47,7,54,10,1.0,1.0,0
run-2020-2-17-18-3-3.229095935,AGENT#c131d14e-51af-11ea-84b4-27bcfa5142fb,4,50,54,10,1.0,1.0,0
run-2020-2-17-18-3-3.229095935,AGENT#c14501f6-51af-11ea-8076-ef451948d996,3,51,54,10,1.0,1.0,0
run-2020-2-17-18-3-3.229095935,AGENT#c1557c70-51af-11ea-b8e0-a7903f6d948c,2,52,54,10,1.0,1.0,0
run-2020-2-17-18-3-3.229095935,AGENT#c1557ee6-51af-11ea-b035-9b94c3aeec92,2,52,54,10,1.0,1.0,0
run-2020-2-17-18-3-3.229095935,AGENT#c1558148-51af-11ea-ba6f-131a69826e3d,2,52,54,10,1.0,1.0,0
run-2020-2-17-18-3-3.229095935,AGENT#beda5a7e-51af-11ea-9d68-971fb699c5cb,45,10,55,10,1.0,1.0,0
run-2020-2-17-18-3-3.229095935,AGENT#c1761cfa-51af-11ea-8361-5bc3c980998d,1,54,55,10,1.0,1.0,0
run-2020-2-17-18-3-3.229095935,AGENT#bed45570-51af-11ea-bf18-fb1624812966,47,9,56,10,1.0,1.0,0
run-2020-2-17-18-3-3.229095935,AGENT#beda56c8-51af-11ea-8bb9-e7423a20eafc,46,10,56,10,1.0,1.0,0
run-2020-2-17-18-3-3.229095935,AGENT#c145062e-51af-11ea-93ce-ef9104aa4bd8,5,51,56,10,1.0,1.0,0
run-2020-2-17-18-3-3.229095935,AGENT#c1450ac0-51af-11ea-af37-83a1bd8a5046,5,51,56,10,1.0,1.0,0
run-2020-2-17-18-3-3.229095935,AGENT#c165231e-51af-11ea-a83e-2b6b310df1fd,3,53,56,10,1.0,1.0,0
run-2020-2-17-18-3-3.229095935,AGENT#c185c5d8-51af-11ea-a4ba-33912273bbe6,1,55,56,10,1.0,1.0,0
run-2020-2-17-18-3-3.229095935,AGENT#bee5187e-51af-11ea-bc02-ef49d90f4de2,45,12,57,10,1.0,1.0,0
run-2020-2-17-18-3-3.229095935,AGENT#c15583d2-51af-11ea-be87-f3483def407d,5,52,57,10,1.0,1.0,0
run-2020-2-17-18-3-3.229095935,AGENT#c195d266-51af-11ea-84d9-27271374e702,1,56,57,10,1.0,1.0,0
run-2020-2-17-18-3-3.229095935,AGENT#c195d55e-51af-11ea-900e-4f3f63349e3a,2,56,58,10,1.0,1.0,0
run-2020-2-17-18-3-3.229095935,AGENT#c195d84c-51af-11ea-96ac-574cff351c6e,2,56,58,10,1.0,1.0,0
run-2020-2-17-18-3-3.229095935,AGENT#c195db58-51af-11ea-bd91-0b830d81509b,2,56,58,10,1.0,1.0,0
run-2020-2-17-18-3-3.229095935,AGENT#bff07cfe-51af-11ea-9dda-4fc094538749,28,31,59,10,1.0,1.0,0
run-2020-2-17-18-3-3.229095935,AGENT#c1a62968-51af-11ea-a8e5-6ba692e27da8,2,57,59,10,1.0,1.0,0
run-2020-2-17-18-3-3.229095935,AGENT#bee51af4-51af-11ea-9c39-2355b013ca5e,48,12,60,10,1.0,1.0,0
run-2020-2-17-18-3-3.229095935,AGENT#beeb860a-51af-11ea-b589-c37520011dc9,47,13,60,10,1.0,1.0,0
run-2020-2-17-18-3-3.229095935,AGENT#c185c8b2-51af-11ea-a1e0-7b23ea494db5,5,55,60,10,1.0,1.0,0
run-2020-2-17-18-3-3.229095935,AGENT#c1c92cba-51af-11ea-bf4e-338163c0e204,1,59,60,10,1.0,1.0,0
run-2020-2-17-18-3-3.229095935,AGENT#bf06c8d4-51af-11ea-aa4d-5fb8808dbd69,45,16,61,10,1.0,1.0,0
run-2020-2-17-18-3-3.229095935,AGENT#c1c923e6-51af-11ea-9bb8-b7af3638060e,2,59,61,10,1.0,1.0,0
run-2020-2-17-18-3-3.229095935,AGENT#c1d888a4-51af-11ea-ae8a-a363e0464f49,1,60,61,10,1.0,1.0,0
run-2020-2-17-18-3-3.229095935,AGENT#c1d88de0-51af-11ea-8637-93efb06549bc,1,60,61,10,1.0,1.0,0
run-2020-2-17-18-3-3.229095935,AGENT#bf11f8a8-51af-11ea-b898-efbdb6bb50b0,45,17,62,10,1.0,1.0,0
run-2020-2-17-18-3-3.229095935,AGENT#c026c016-51af-11ea-94c3-d34770799011,29,34,63,10,1.0,1.0,0
run-2020-2-17-18-3-3.229095935,AGENT#c15579be-51af-11ea-bb4b-63cb7c02b904,11,52,63,10,1.0,1.0,0
run-2020-2-17-18-3-3.229095935,AGENT#c1d88b74-51af-11ea-8a09-7fce518ae537,3,60,63,10,1.0,1.0,0
run-2020-2-17-18-3-3.229095935,AGENT#befb027e-51af-11ea-9690-4367a9e3579e,49,15,64,10,1.0,1.0,0
run-2020-2-17-18-3-3.229095935,AGENT#c1c926d4-51af-11ea-9cd2-1f29b3ab3f47,5,59,64,10,1.0,1.0,0
run-2020-2-17-18-3-3.229095935,AGENT#c20917bc-51af-11ea-8381-631547819726,1,63,64,10,1.0,1.0,0
run-2020-2-17-18-3-3.229095935,AGENT#bf26591a-51af-11ea-9ea3-c7317b42d388,46,19,65,10,1.0,1.0,0
run-2020-2-17-18-3-3.229095935,AGENT#bf265cf8-51af-11ea-ab06-57883cc20739,46,19,65,10,1.0,1.0,0
run-2020-2-17-18-3-3.229095935,AGENT#bf313826-51af-11ea-bcb2-23d1e46c6cdc,45,20,65,10,1.0,1.0,0
run-2020-2-17-18-3-3.229095935,AGENT#c1e7102c-51af-11ea-bb9f-1fe27942c123,4,61,65,10,1.0,1.0,0
run-2020-2-17-18-3-3.229095935,AGENT#c1f6e4de-51af-11ea-8636-a3573b3a668a,3,62,65,10,1.0,1.0,0
run-2020-2-17-18-3-3.229095935,AGENT#c1e707d0-51af-11ea-94ad-e39b932391d3,5,61,66,10,1.0,1.0,0
run-2020-2-17-18-3-3.229095935,AGENT#c218836e-51af-11ea-8ca7-37d4a144a58a,2,64,66,10,1.0,1.0,0
run-2020-2-17-18-3-3.229095935,AGENT#bf3f015e-51af-11ea-b45e-93f8299062a6,46,21,67,10,1.0,1.0,0
run-2020-2-17-18-3-3.229095935,AGENT#bf5116dc-51af-11ea-9ef9-0334f578dd86,45,22,67,10,1.0,1.0,0
run-2020-2-17-18-3-3.229095935,AGENT#c1c929d6-51af-11ea-91ec-afd554c7ec4c,9,59,68,10,1.0,1.0,0
run-2020-2-17-18-3-3.229095935,AGENT#bf511254-51af-11ea-b557-cbd4d2fe6b52,47,22,69,10,1.0,1.0,0
run-2020-2-17-18-3-3.229095935,AGENT#c23c50f0-51af-11ea-ac20-07168bd66958,3,66,69,10,1.0,1.0,0
run-2020-2-17-18-3-3.229095935,AGENT#c23c53fc-51af-11ea-9abe-3314480905b6,3,66,69,10,1.0,1.0,0
run-2020-2-17-18-3-3.229095935,AGENT#c24c343e-51af-11ea-b259-a7e85eeae85d,2,67,69,10,1.0,1.0,0
run-2020-2-17-18-3-3.229095935,AGENT#bf73f6a2-51af-11ea-bf4d-0b8b6e27161b,46,24,70,10,1.0,1.0,0
run-2020-2-17-18-3-3.229095935,AGENT#bf841f32-51af-11ea-81b6-d74304ad5d19,45,25,70,10,1.0,1.0,0
run-2020-2-17-18-3-3.229095935,AGENT#c25b8ede-51af-11ea-abc7-43e606d4965b,2,68,70,10,1.0,1.0,0
run-2020-2-17-18-3-3.229095935,AGENT#c26a8bd2-51af-11ea-8732-4b6785cf6709,1,69,70,10,1.0,1.0,0
run-2020-2-17-18-3-3.229095935,AGENT#c26a8970-51af-11ea-9a25-c72472d1f295,2,69,71,10,1.0,1.0,0
run-2020-2-17-18-3-3.229095935,AGENT#c27a6674-51af-11ea-8976-5f2d47dfb756,1,70,71,10,1.0,1.0,0
run-2020-2-17-18-3-3.229095935,AGENT#bf8427a2-51af-11ea-a111-43637de27f73,47,25,72,10,1.0,1.0,0
run-2020-2-17-18-3-3.229095935,AGENT#c25b93a2-51af-11ea-a6f8-6ffebb7b8473,4,68,72,10,1.0,1.0,0
run-2020-2-17-18-3-3.229095935,AGENT#bf9776e0-51af-11ea-8078-b73d17c53455,47,26,73,10,1.0,1.0,0
run-2020-2-17-18-3-3.229095935,AGENT#bfc00c2c-51af-11ea-afa4-87d9e3e5efbf,45,28,73,10,1.0,1.0,0
run-2020-2-17-18-3-3.229095935,AGENT#c289c61e-51af-11ea-b809-d37ef9431e1c,2,71,73,10,1.0,1.0,0
run-2020-2-17-18-3-3.229095935,AGENT#c289ccc2-51af-11ea-a615-bffc277e6a3b,2,71,73,10,1.0,1.0,0
run-2020-2-17-18-3-3.229095935,AGENT#c289cee8-51af-11ea-9aa7-d73088c7e1fd,2,71,73,10,1.0,1.0,0
run-2020-2-17-18-3-3.229095935,AGENT#c0abfbaa-51af-11ea-8a51-033788c244f8,32,42,74,10,1.0,1.0,0
run-2020-2-17-18-3-3.229095935,AGENT#c1d89038-51af-11ea-825d-6f1f210389ed,14,60,74,10,1.0,1.0,0
run-2020-2-17-18-3-3.229095935,AGENT#c26a870e-51af-11ea-a3c6-4b629c7c0d32,5,69,74,10,1.0,1.0,0
run-2020-2-17-18-3-3.229095935,AGENT#c289c858-51af-11ea-b674-c71b85a6c4c2,3,71,74,10,1.0,1.0,0
run-2020-2-17-18-3-3.229095935,AGENT#c2a8ab38-51af-11ea-94b0-efea0fc0357f,1,73,74,10,1.0,1.0,0
run-2020-2-17-18-3-3.229095935,AGENT#bfc00f74-51af-11ea-8470-0f9c70a3e283,47,28,75,10,1.0,1.0,0
run-2020-2-17-18-3-3.229095935,AGENT#c27a63c2-51af-11ea-b76d-97999d2e3d7e,5,70,75,10,1.0,1.0,0
run-2020-2-17-18-3-3.229095935,AGENT#c29987c0-51af-11ea-ba5e-3799603b4a78,3,72,75,10,1.0,1.0,0
run-2020-2-17-18-3-3.229095935,AGENT#c22aeba8-51af-11ea-ace1-3b633f84fa05,11,65,76,10,1.0,1.0,0
run-2020-2-17-18-3-3.229095935,AGENT#c2c6eb8e-51af-11ea-af5f-776d211142f8,1,75,76,10,1.0,1.0,0
run-2020-2-17-18-3-3.229095935,AGENT#c0045aa8-51af-11ea-9ddb-07ac4ab8ef97,46,32,78,10,1.0,1.0,0
run-2020-2-17-18-3-3.229095935,AGENT#c0154e08-51af-11ea-83e2-83380f13e16f,45,33,78,10,1.0,1.0,0
run-2020-2-17-18-3-3.229095935,AGENT#c165297c-51af-11ea-b3b4-ff71b86961e2,25,53,78,10,1.0,1.0,0
run-2020-2-17-18-3-3.229095935,AGENT#c2d91caa-51af-11ea-b8c1-07df23586080,2,76,78,10,1.0,1.0,0
run-2020-2-17-18-3-3.229095935,AGENT#bff078f8-51af-11ea-a8f2-635ad2b970c1,48,31,79,10,1.0,1.0,0
run-2020-2-17-18-3-3.229095935,AGENT#c2e93518-51af-11ea-9023-1f02cb49f3c5,2,77,79,10,1.0,1.0,0
run-2020-2-17-18-3-3.229095935,AGENT#c026c7c8-51af-11ea-a9a3-6fd45115ae26,46,34,80,10,1.0,1.0,0
run-2020-2-17-18-3-3.229095935,AGENT#c2e932ac-51af-11ea-9d08-1757b77e3463,3,77,80,10,1.0,1.0,0
run-2020-2-17-18-3-3.229095935,AGENT#c0154a5c-51af-11ea-8dcc-2f3373951545,48,33,81,10,1.0,1.0,0
run-2020-2-17-18-3-3.229095935,AGENT#c2f816f0-51af-11ea-a3f8-e3b2ab24152b,3,78,81,10,1.0,1.0,0
run-2020-2-17-18-3-3.229095935,AGENT#c317b348-51af-11ea-8b97-3bc4a8cec406,1,80,81,10,1.0,1.0,0
run-2020-2-17-18-3-3.229095935,AGENT#c317b884-51af-11ea-876e-c728bd859e08,1,80,81,10,1.0,1.0,0
run-2020-2-17-18-3-3.229095935,AGENT#c317b622-51af-11ea-a844-3328e8e613d6,2,80,82,10,1.0,1.0,0
run-2020-2-17-18-3-3.229095935,AGENT#c06f1de8-51af-11ea-80f6-bfd519a90257,45,38,83,10,1.0,1.0,0
run-2020-2-17-18-3-3.229095935,AGENT#c3078e00-51af-11ea-bbd9-33e2f78ddcea,4,79,83,10,1.0,1.0,0
run-2020-2-17-18-3-3.229095935,AGENT#c336b2f2-51af-11ea-8c91-0f9568424a45,1,82,83,10,1.0,1.0,0
run-2020-2-17-18-3-3.229095935,AGENT#c1651f54-51af-11ea-ba42-3f99e9be60b7,31,53,84,10,1.0,1.0,0
run-2020-2-17-18-3-3.229095935,AGENT#c218883c-51af-11ea-91f5-5b12400664d9,20,64,84,10,1.0,1.0,0
run-2020-2-17-18-3-3.229095935,AGENT#c345ec86-51af-11ea-89eb-1fb7cc6176e2,1,83,84,10,1.0,1.0,0
run-2020-2-17-18-3-3.229095935,AGENT#c345f3e8-51af-11ea-8e65-cf2062a64c74,1,83,84,10,1.0,1.0,0
run-2020-2-17-18-3-3.229095935,AGENT#c326e5ca-51af-11ea-9be6-f360c3ddf963,4,81,85,10,1.0,1.0,0
run-2020-2-17-18-3-3.229095935,AGENT#c345f000-51af-11ea-972c-13d926b5895c,2,83,85,10,1.0,1.0,0
run-2020-2-17-18-3-3.229095935,AGENT#c35569a4-51af-11ea-9a94-bb7942eb020f,1,84,85,10,1.0,1.0,0
run-2020-2-17-18-3-3.229095935,AGENT#c3556e9a-51af-11ea-85cd-83dcf64ed5ff,1,84,85,10,1.0,1.0,0
run-2020-2-17-18-3-3.229095935,AGENT#c09d0bae-51af-11ea-ac94-5f1c851cb63f,45,41,86,10,1.0,1.0,0
run-2020-2-17-18-3-3.229095935,AGENT#c336aa00-51af-11ea-a377-57bf6abe3653,4,82,86,10,1.0,1.0,0
run-2020-2-17-18-3-3.229095935,AGENT#c336b04a-51af-11ea-a118-a312150142b7,4,82,86,10,1.0,1.0,0
run-2020-2-17-18-3-3.229095935,AGENT#c06f22ac-51af-11ea-b3de-834746a31712,49,38,87,10,1.0,1.0,0
run-2020-2-17-18-3-3.229095935,AGENT#c3556c2e-51af-11ea-a063-2f9d5917c07b,3,84,87,10,1.0,1.0,0
run-2020-2-17-18-3-3.229095935,AGENT#c3768cc4-51af-11ea-85d5-77969e1741bd,1,86,87,10,1.0,1.0,0
run-2020-2-17-18-3-3.229095935,AGENT#c09d01a4-51af-11ea-bddf-ffddf5309555,47,41,88,10,1.0,1.0,0
run-2020-2-17-18-3-3.229095935,AGENT#c0bb1c66-51af-11ea-a938-3f4740dda821,45,43,88,10,1.0,1.0,0
run-2020-2-17-18-3-3.229095935,AGENT#c363f1a4-51af-11ea-99c7-77272d29056d,3,85,88,10,1.0,1.0,0
run-2020-2-17-18-3-3.229095935,AGENT#c38639da-51af-11ea-bf1f-971f080155f7,1,87,88,10,1.0,1.0,0
run-2020-2-17-18-3-3.229095935,AGENT#c3863c96-51af-11ea-b1e2-472ae18351f4,1,87,88,10,1.0,1.0,0
run-2020-2-17-18-3-3.229095935,AGENT#c363ef06-51af-11ea-be13-f37e07f8a98c,4,85,89,10,1.0,1.0,0
run-2020-2-17-18-3-3.229095935,AGENT#c376897c-51af-11ea-baf5-97459252e14e,3,86,89,10,1.0,1.0,0
run-2020-2-17-18-3-3.229095935,AGENT#c3768fbc-51af-11ea-aeba-b36f86fb3244,3,86,89,10,1.0,1.0,0
run-2020-2-17-18-3-3.229095935,AGENT#c3769322-51af-11ea-994b-0b75f74a4d91,3,86,89,10,1.0,1.0,0
run-2020-2-17-18-3-3.229095935,AGENT#c376961a-51af-11ea-8dc0-7755f59f30bc,3,86,89,10,1.0,1.0,0
run-2020-2-17-18-3-3.229095935,AGENT#c3a67ce0-51af-11ea-b97d-ebe4a323442b,1,89,90,10,1.0,1.0,0
run-2020-2-17-18-3-3.229095935,AGENT#c3a68226-51af-11ea-9d90-83e9c3ebc474,1,89,90,10,1.0,1.0,0
run-2020-2-17-18-3-3.229095935,AGENT#c3a6847e-51af-11ea-8980-bb2ef66a932d,1,89,90,10,1.0,1.0,0
run-2020-2-17-18-3-3.229095935,AGENT#c3a68eec-51af-11ea-848b-4b9e1ec5766f,1,89,90,10,1.0,1.0,0
run-2020-2-17-18-3-3.229095935,AGENT#c25b892a-51af-11ea-8699-8bd82a51921f,23,68,91,10,1.0,1.0,0
run-2020-2-17-18-3-3.229095935,AGENT#c26a843e-51af-11ea-b5b1-8f2feaa3add8,22,69,91,10,1.0,1.0,0
run-2020-2-17-18-3-3.229095935,AGENT#c394fc54-51af-11ea-ba12-77a68dc0ee3b,3,88,91,10,1.0,1.0,0
run-2020-2-17-18-3-3.229095935,AGENT#c394feac-51af-11ea-9323-771b9222161c,3,88,91,10,1.0,1.0,0
run-2020-2-17-18-3-3.229095935,AGENT#c3a68c1c-51af-11ea-aaf9-33f470cb1384,2,89,91,10,1.0,1.0,0
run-2020-2-17-18-3-3.229095935,AGENT#c0fc68ba-51af-11ea-b9f5-a342734c1467,46,47,93,10,1.0,1.0,0
run-2020-2-17-18-3-3.229095935,AGENT#c1e70c08-51af-11ea-ad2b-432b6481e2e6,32,61,93,10,1.0,1.0,0
run-2020-2-17-18-3-3.229095935,AGENT#c3a6911c-51af-11ea-85f3-174a32f169f1,4,89,93,10,1.0,1.0,0
run-2020-2-17-18-3-3.229095935,AGENT#c3d5fc22-51af-11ea-aef7-af75c06b81fb,1,92,93,10,1.0,1.0,0
run-2020-2-17-18-3-3.229095935,AGENT#c1209e7e-51af-11ea-a395-7f7b41a7c45d,45,49,94,10,1.0,1.0,0
run-2020-2-17-18-3-3.229095935,AGENT#c144fe22-51af-11ea-bc8e-6b7f2f9b6e8b,43,51,94,10,1.0,1.0,0
run-2020-2-17-18-3-3.229095935,AGENT#c3c5d1f8-51af-11ea-a87f-8b296852b150,3,91,94,10,1.0,1.0,0
run-2020-2-17-18-3-3.229095935,AGENT#c3d60082-51af-11ea-a549-b38897ba5172,2,92,94,10,1.0,1.0,0
run-2020-2-17-18-3-3.229095935,AGENT#c3f917ac-51af-11ea-aec3-eb3baba5e909,1,94,95,10,1.0,1.0,0
run-2020-2-17-18-3-3.229095935,AGENT#c3e9496c-51af-11ea-9317-5b694435728b,3,93,96,10,1.0,1.0,0
run-2020-2-17-18-3-3.229095935,AGENT#c3f91252-51af-11ea-a9e7-ef4cfe795153,2,94,96,10,1.0,1.0,0
run-2020-2-17-18-3-3.229095935,AGENT#c1558896-51af-11ea-b045-ebcbd15df295,45,52,97,10,1.0,1.0,0
run-2020-2-17-18-3-3.229095935,AGENT#c317bb18-51af-11ea-aad2-db508ef87720,17,80,97,10,1.0,1.0,0
run-2020-2-17-18-3-3.229095935,AGENT#c3d6046a-51af-11ea-88ea-0f452227ae66,5,92,97,10,1.0,1.0,0
run-2020-2-17-18-3-3.229095935,AGENT#c3f90fa0-51af-11ea-9229-ef93034c662b,3,94,97,10,1.0,1.0,0
run-2020-2-17-18-3-3.229095935,AGENT#c40c789c-51af-11ea-b50f-bf91682bf988,2,95,97,10,1.0,1.0,0
run-2020-2-17-18-3-3.229095935,AGENT#c1652684-51af-11ea-8e82-170efc4c237d,45,53,98,10,1.0,1.0,0
run-2020-2-17-18-3-3.229095935,AGENT#c40c7414-51af-11ea-984b-d7070cc14838,3,95,98,10,1.0,1.0,0
run-2020-2-17-18-3-3.229095935,AGENT#c40c83b4-51af-11ea-afdc-8bd0c5e44024,3,95,98,10,1.0,1.0,0
run-2020-2-17-18-3-3.229095935,AGENT#c42db110-51af-11ea-b959-6336584c2986,1,97,98,10,1.0,1.0,0
run-2020-2-17-18-3-3.229095935,AGENT#c42db44e-51af-11ea-b86b-e709c0855599,1,97,98,10,1.0,1.0,0
run-2020-2-17-18-3-3.229095935,AGENT#c131d3ec-51af-11ea-beba-5334a11b5955,49,50,99,10,1.0,1.0,0
run-2020-2-17-18-3-3.229095935,AGENT#c1652c6a-51af-11ea-81f9-bb05a953761f,46,53,99,10,1.0,1.0,0
run-2020-2-17-18-3-3.229095935,AGENT#c1761a0c-51af-11ea-b468-33f88fb2ccf8,45,54,99,10,1.0,1.0,0
run-2020-2-17-18-3-3.229095935,AGENT#c44137bc-51af-11ea-95b5-ff429914bda6,1,98,99,10,1.0,1.0,0
