RunID,Tick,AllAgents,Active,Inactive
run-2020-2-17-18-3-3.229095935,0,14,13,1
run-2020-2-17-18-3-3.229095935,1,15,12,3
run-2020-2-17-18-3-3.229095935,2,20,16,4
run-2020-2-17-18-3-3.229095935,3,23,13,10
run-2020-2-17-18-3-3.229095935,4,27,17,10
run-2020-2-17-18-3-3.229095935,5,30,15,15
run-2020-2-17-18-3-3.229095935,6,36,20,16
run-2020-2-17-18-3-3.229095935,7,40,22,18
run-2020-2-17-18-3-3.229095935,8,41,19,22
run-2020-2-17-18-3-3.229095935,9,44,19,25
run-2020-2-17-18-3-3.229095935,10,48,21,27
run-2020-2-17-18-3-3.229095935,11,48,19,29
run-2020-2-17-18-3-3.229095935,12,52,20,32
run-2020-2-17-18-3-3.229095935,13,56,23,33
run-2020-2-17-18-3-3.229095935,14,58,22,36
run-2020-2-17-18-3-3.229095935,15,63,27,36
run-2020-2-17-18-3-3.229095935,16,64,27,37
run-2020-2-17-18-3-3.229095935,17,68,27,41
run-2020-2-17-18-3-3.229095935,18,73,29,44
run-2020-2-17-18-3-3.229095935,19,75,28,47
run-2020-2-17-18-3-3.229095935,20,78,31,47
run-2020-2-17-18-3-3.229095935,21,79,31,48
run-2020-2-17-18-3-3.229095935,22,88,37,51
run-2020-2-17-18-3-3.229095935,23,91,36,55
run-2020-2-17-18-3-3.229095935,24,93,34,59
run-2020-2-17-18-3-3.229095935,25,98,37,61
run-2020-2-17-18-3-3.229095935,26,101,35,66
run-2020-2-17-18-3-3.229095935,27,102,33,69
run-2020-2-17-18-3-3.229095935,28,105,35,70
run-2020-2-17-18-3-3.229095935,29,109,38,71
run-2020-2-17-18-3-3.229095935,30,111,37,74
run-2020-2-17-18-3-3.229095935,31,115,39,76
run-2020-2-17-18-3-3.229095935,32,116,38,78
run-2020-2-17-18-3-3.229095935,33,121,41,80
run-2020-2-17-18-3-3.229095935,34,126,46,80
run-2020-2-17-18-3-3.229095935,35,131,50,81
run-2020-2-17-18-3-3.229095935,36,133,48,85
run-2020-2-17-18-3-3.229095935,37,135,48,87
run-2020-2-17-18-3-3.229095935,38,139,48,91
run-2020-2-17-18-3-3.229095935,39,142,47,95
run-2020-2-17-18-3-3.229095935,40,145,47,98
run-2020-2-17-18-3-3.229095935,41,152,52,100
run-2020-2-17-18-3-3.229095935,42,158,55,103
run-2020-2-17-18-3-3.229095935,43,159,51,108
run-2020-2-17-18-3-3.229095935,44,161,48,113
run-2020-2-17-18-3-3.229095935,45,164,47,117
run-2020-2-17-18-3-3.229095935,46,167,45,122
run-2020-2-17-18-3-3.229095935,47,174,50,124
run-2020-2-17-18-3-3.229095935,48,177,46,131
run-2020-2-17-18-3-3.229095935,49,182,49,133
run-2020-2-17-18-3-3.229095935,50,186,52,134
run-2020-2-17-18-3-3.229095935,51,191,51,140
run-2020-2-17-18-3-3.229095935,52,199,53,146
run-2020-2-17-18-3-3.229095935,53,204,54,150
run-2020-2-17-18-3-3.229095935,54,206,50,156
run-2020-2-17-18-3-3.229095935,55,208,50,158
run-2020-2-17-18-3-3.229095935,56,213,49,164
run-2020-2-17-18-3-3.229095935,57,214,47,167
run-2020-2-17-18-3-3.229095935,58,216,46,170
run-2020-2-17-18-3-3.229095935,59,222,50,172
run-2020-2-17-18-3-3.229095935,60,226,50,176
run-2020-2-17-18-3-3.229095935,61,229,49,180
run-2020-2-17-18-3-3.229095935,62,230,49,181
run-2020-2-17-18-3-3.229095935,63,232,48,184
run-2020-2-17-18-3-3.229095935,64,236,49,187
run-2020-2-17-18-3-3.229095935,65,238,46,192
run-2020-2-17-18-3-3.229095935,66,242,48,194
run-2020-2-17-18-3-3.229095935,67,244,48,196
run-2020-2-17-18-3-3.229095935,68,249,52,197
run-2020-2-17-18-3-3.229095935,69,253,52,201
run-2020-2-17-18-3-3.229095935,70,255,50,205
run-2020-2-17-18-3-3.229095935,71,262,55,207
run-2020-2-17-18-3-3.229095935,72,264,55,209
run-2020-2-17-18-3-3.229095935,73,265,51,214
run-2020-2-17-18-3-3.229095935,74,266,47,219
run-2020-2-17-18-3-3.229095935,75,268,46,222
run-2020-2-17-18-3-3.229095935,76,270,46,224
run-2020-2-17-18-3-3.229095935,77,273,49,224
run-2020-2-17-18-3-3.229095935,78,275,47,228
run-2020-2-17-18-3-3.229095935,79,277,47,230
run-2020-2-17-18-3-3.229095935,80,281,49,232
run-2020-2-17-18-3-3.229095935,81,282,46,236
run-2020-2-17-18-3-3.229095935,82,286,49,237
run-2020-2-17-18-3-3.229095935,83,290,50,240
run-2020-2-17-18-3-3.229095935,84,294,50,244
run-2020-2-17-18-3-3.229095935,85,296,48,248
run-2020-2-17-18-3-3.229095935,86,301,50,251
run-2020-2-17-18-3-3.229095935,87,305,51,254
run-2020-2-17-18-3-3.229095935,88,308,49,259
run-2020-2-17-18-3-3.229095935,89,316,52,264
run-2020-2-17-18-3-3.229095935,90,316,48,268
run-2020-2-17-18-3-3.229095935,91,317,44,273
run-2020-2-17-18-3-3.229095935,92,322,49,273
run-2020-2-17-18-3-3.229095935,93,324,47,277
run-2020-2-17-18-3-3.229095935,94,328,47,281
run-2020-2-17-18-3-3.229095935,95,333,51,282
run-2020-2-17-18-3-3.229095935,96,333,49,284
run-2020-2-17-18-3-3.229095935,97,337,48,289
run-2020-2-17-18-3-3.229095935,98,339,45,294
run-2020-2-17-18-3-3.229095935,99,343,45,298
