RunID,Tick,AllAgents,Active,Inactive
run-2020-2-18-18-4-47.987008094,0,16,14,2
run-2020-2-18-18-4-47.987008094,1,20,15,5
run-2020-2-18-18-4-47.987008094,2,24,17,7
run-2020-2-18-18-4-47.987008094,3,28,20,8
run-2020-2-18-18-4-47.987008094,4,32,17,15
run-2020-2-18-18-4-47.987008094,5,35,16,19
run-2020-2-18-18-4-47.987008094,6,39,18,21
run-2020-2-18-18-4-47.987008094,7,44,23,21
run-2020-2-18-18-4-47.987008094,8,51,28,23
run-2020-2-18-18-4-47.987008094,9,56,32,24
run-2020-2-18-18-4-47.987008094,10,58,29,29
run-2020-2-18-18-4-47.987008094,11,63,32,31
run-2020-2-18-18-4-47.987008094,12,67,34,33
run-2020-2-18-18-4-47.987008094,13,74,38,36
run-2020-2-18-18-4-47.987008094,14,77,38,39
run-2020-2-18-18-4-47.987008094,15,78,34,44
run-2020-2-18-18-4-47.987008094,16,82,37,45
run-2020-2-18-18-4-47.987008094,17,86,39,47
run-2020-2-18-18-4-47.987008094,18,90,42,48
run-2020-2-18-18-4-47.987008094,19,95,43,52
run-2020-2-18-18-4-47.987008094,20,98,42,56
run-2020-2-18-18-4-47.987008094,21,104,46,58
run-2020-2-18-18-4-47.987008094,22,112,51,61
run-2020-2-18-18-4-47.987008094,23,118,51,67
run-2020-2-18-18-4-47.987008094,24,120,50,70
run-2020-2-18-18-4-47.987008094,25,124,49,75
run-2020-2-18-18-4-47.987008094,26,126,49,77
run-2020-2-18-18-4-47.987008094,27,128,51,77
run-2020-2-18-18-4-47.987008094,28,129,51,78
run-2020-2-18-18-4-47.987008094,29,130,51,79
run-2020-2-18-18-4-47.987008094,30,133,49,84
run-2020-2-18-18-4-47.987008094,31,137,53,84
run-2020-2-18-18-4-47.987008094,32,142,57,85
run-2020-2-18-18-4-47.987008094,33,146,56,90
run-2020-2-18-18-4-47.987008094,34,150,56,94
run-2020-2-18-18-4-47.987008094,35,156,59,97
run-2020-2-18-18-4-47.987008094,36,158,59,99
run-2020-2-18-18-4-47.987008094,37,161,58,103
run-2020-2-18-18-4-47.987008094,38,163,58,105
run-2020-2-18-18-4-47.987008094,39,168,60,108
run-2020-2-18-18-4-47.987008094,40,170,60,110
run-2020-2-18-18-4-47.987008094,41,174,64,110
run-2020-2-18-18-4-47.987008094,42,178,67,111
run-2020-2-18-18-4-47.987008094,43,180,65,115
run-2020-2-18-18-4-47.987008094,44,185,67,118
run-2020-2-18-18-4-47.987008094,45,189,63,126
run-2020-2-18-18-4-47.987008094,46,194,64,130
run-2020-2-18-18-4-47.987008094,47,198,62,136
run-2020-2-18-18-4-47.987008094,48,204,64,140
run-2020-2-18-18-4-47.987008094,49,206,61,145
run-2020-2-18-18-4-47.987008094,50,213,65,148
run-2020-2-18-18-4-47.987008094,51,218,64,154
run-2020-2-18-18-4-47.987008094,52,222,66,156
run-2020-2-18-18-4-47.987008094,53,226,62,164
run-2020-2-18-18-4-47.987008094,54,232,64,168
run-2020-2-18-18-4-47.987008094,55,235,61,174
run-2020-2-18-18-4-47.987008094,56,236,59,177
run-2020-2-18-18-4-47.987008094,57,237,57,180
run-2020-2-18-18-4-47.987008094,58,242,59,183
run-2020-2-18-18-4-47.987008094,59,243,56,187
run-2020-2-18-18-4-47.987008094,60,247,57,190
run-2020-2-18-18-4-47.987008094,61,253,60,193
run-2020-2-18-18-4-47.987008094,62,259,60,199
run-2020-2-18-18-4-47.987008094,63,265,59,206
run-2020-2-18-18-4-47.987008094,64,267,54,213
run-2020-2-18-18-4-47.987008094,65,273,57,216
run-2020-2-18-18-4-47.987008094,66,274,54,220
run-2020-2-18-18-4-47.987008094,67,278,57,221
run-2020-2-18-18-4-47.987008094,68,281,56,225
run-2020-2-18-18-4-47.987008094,69,283,51,232
run-2020-2-18-18-4-47.987008094,70,289,53,236
run-2020-2-18-18-4-47.987008094,71,296,55,241
run-2020-2-18-18-4-47.987008094,72,297,54,243
run-2020-2-18-18-4-47.987008094,73,299,53,246
run-2020-2-18-18-4-47.987008094,74,303,56,247
run-2020-2-18-18-4-47.987008094,75,308,58,250
run-2020-2-18-18-4-47.987008094,76,312,59,253
run-2020-2-18-18-4-47.987008094,77,318,63,255
run-2020-2-18-18-4-47.987008094,78,320,61,259
run-2020-2-18-18-4-47.987008094,79,322,59,263
run-2020-2-18-18-4-47.987008094,80,326,58,268
run-2020-2-18-18-4-47.987008094,81,327,58,269
run-2020-2-18-18-4-47.987008094,82,329,57,272
run-2020-2-18-18-4-47.987008094,83,333,57,276
run-2020-2-18-18-4-47.987008094,84,335,57,278
run-2020-2-18-18-4-47.987008094,85,340,59,281
run-2020-2-18-18-4-47.987008094,86,343,59,284
run-2020-2-18-18-4-47.987008094,87,350,65,285
run-2020-2-18-18-4-47.987008094,88,355,66,289
run-2020-2-18-18-4-47.987008094,89,361,71,290
run-2020-2-18-18-4-47.987008094,90,362,66,296
run-2020-2-18-18-4-47.987008094,91,365,64,301
run-2020-2-18-18-4-47.987008094,92,366,58,308
run-2020-2-18-18-4-47.987008094,93,373,61,312
run-2020-2-18-18-4-47.987008094,94,379,62,317
run-2020-2-18-18-4-47.987008094,95,383,63,320
run-2020-2-18-18-4-47.987008094,96,386,62,324
run-2020-2-18-18-4-47.987008094,97,389,60,329
run-2020-2-18-18-4-47.987008094,98,394,60,334
run-2020-2-18-18-4-47.987008094,99,395,59,336
