Source,Target
a87e3e7c-5a46-11ea-9ed3-0ff5fbe12fb2,a87ee9a8-5a46-11ea-b394-03b6f0651c56
a87ee9a8-5a46-11ea-b394-03b6f0651c56,a87f12d4-5a46-11ea-a6c6-5b1ec55e1418
a87e1294-5a46-11ea-a983-6f54e833eabd,a87f3f66-5a46-11ea-a976-9fbc743c92e9
a87e6ad2-5a46-11ea-9afb-636410b76f00,a87f69fa-5a46-11ea-a91d-1764048e1117
a87f12d4-5a46-11ea-a6c6-5b1ec55e1418,a87f9128-5a46-11ea-be35-f3bf6f423e4c
a87ee9a8-5a46-11ea-b394-03b6f0651c56,a87fbcc0-5a46-11ea-8e47-0fcfec3f174d
a87f12d4-5a46-11ea-a6c6-5b1ec55e1418,a87fe8ee-5a46-11ea-ae8f-cfdb77772334
a87fbcc0-5a46-11ea-8e47-0fcfec3f174d,a8801300-5a46-11ea-837a-4356b9052a4c
a87e96ce-5a46-11ea-b626-8f5d669b0d6e,a8803cc2-5a46-11ea-9d7f-8b99bd0676cf
