RunID,Tick,ActiveAgentsPerTick
run-2020-2-18-11-35-18.187876939,0,12
run-2020-2-18-11-35-18.187876939,1,12
run-2020-2-18-11-35-18.187876939,2,11
run-2020-2-18-11-35-18.187876939,3,16
run-2020-2-18-11-35-18.187876939,4,17
run-2020-2-18-11-35-18.187876939,5,19
run-2020-2-18-11-35-18.187876939,6,15
run-2020-2-18-11-35-18.187876939,7,17
run-2020-2-18-11-35-18.187876939,8,21
run-2020-2-18-11-35-18.187876939,9,23
run-2020-2-18-11-35-18.187876939,10,28
run-2020-2-18-11-35-18.187876939,11,26
run-2020-2-18-11-35-18.187876939,12,25
run-2020-2-18-11-35-18.187876939,13,26
run-2020-2-18-11-35-18.187876939,14,29
run-2020-2-18-11-35-18.187876939,15,28
run-2020-2-18-11-35-18.187876939,16,26
run-2020-2-18-11-35-18.187876939,17,26
run-2020-2-18-11-35-18.187876939,18,29
run-2020-2-18-11-35-18.187876939,19,28
run-2020-2-18-11-35-18.187876939,20,27
run-2020-2-18-11-35-18.187876939,21,27
run-2020-2-18-11-35-18.187876939,22,33
run-2020-2-18-11-35-18.187876939,23,37
run-2020-2-18-11-35-18.187876939,24,40
run-2020-2-18-11-35-18.187876939,25,39
run-2020-2-18-11-35-18.187876939,26,41
run-2020-2-18-11-35-18.187876939,27,43
run-2020-2-18-11-35-18.187876939,28,47
run-2020-2-18-11-35-18.187876939,29,47
run-2020-2-18-11-35-18.187876939,30,46
run-2020-2-18-11-35-18.187876939,31,45
run-2020-2-18-11-35-18.187876939,32,41
run-2020-2-18-11-35-18.187876939,33,42
run-2020-2-18-11-35-18.187876939,34,45
run-2020-2-18-11-35-18.187876939,35,47
run-2020-2-18-11-35-18.187876939,36,49
run-2020-2-18-11-35-18.187876939,37,50
run-2020-2-18-11-35-18.187876939,38,49
run-2020-2-18-11-35-18.187876939,39,48
run-2020-2-18-11-35-18.187876939,40,51
run-2020-2-18-11-35-18.187876939,41,55
run-2020-2-18-11-35-18.187876939,42,61
run-2020-2-18-11-35-18.187876939,43,57
run-2020-2-18-11-35-18.187876939,44,57
run-2020-2-18-11-35-18.187876939,45,57
run-2020-2-18-11-35-18.187876939,46,57
run-2020-2-18-11-35-18.187876939,47,63
run-2020-2-18-11-35-18.187876939,48,68
run-2020-2-18-11-35-18.187876939,49,66
run-2020-2-18-11-35-18.187876939,50,60
run-2020-2-18-11-35-18.187876939,51,59
run-2020-2-18-11-35-18.187876939,52,57
run-2020-2-18-11-35-18.187876939,53,58
run-2020-2-18-11-35-18.187876939,54,62
run-2020-2-18-11-35-18.187876939,55,62
run-2020-2-18-11-35-18.187876939,56,62
run-2020-2-18-11-35-18.187876939,57,64
run-2020-2-18-11-35-18.187876939,58,61
run-2020-2-18-11-35-18.187876939,59,59
run-2020-2-18-11-35-18.187876939,60,59
run-2020-2-18-11-35-18.187876939,61,57
run-2020-2-18-11-35-18.187876939,62,57
run-2020-2-18-11-35-18.187876939,63,57
run-2020-2-18-11-35-18.187876939,64,50
run-2020-2-18-11-35-18.187876939,65,50
run-2020-2-18-11-35-18.187876939,66,51
run-2020-2-18-11-35-18.187876939,67,49
run-2020-2-18-11-35-18.187876939,68,47
run-2020-2-18-11-35-18.187876939,69,49
run-2020-2-18-11-35-18.187876939,70,47
run-2020-2-18-11-35-18.187876939,71,49
run-2020-2-18-11-35-18.187876939,72,52
run-2020-2-18-11-35-18.187876939,73,49
run-2020-2-18-11-35-18.187876939,74,43
run-2020-2-18-11-35-18.187876939,75,44
run-2020-2-18-11-35-18.187876939,76,42
run-2020-2-18-11-35-18.187876939,77,42
run-2020-2-18-11-35-18.187876939,78,40
run-2020-2-18-11-35-18.187876939,79,46
run-2020-2-18-11-35-18.187876939,80,47
run-2020-2-18-11-35-18.187876939,81,51
run-2020-2-18-11-35-18.187876939,82,48
run-2020-2-18-11-35-18.187876939,83,52
run-2020-2-18-11-35-18.187876939,84,50
run-2020-2-18-11-35-18.187876939,85,50
run-2020-2-18-11-35-18.187876939,86,51
run-2020-2-18-11-35-18.187876939,87,54
run-2020-2-18-11-35-18.187876939,88,57
run-2020-2-18-11-35-18.187876939,89,56
run-2020-2-18-11-35-18.187876939,90,57
run-2020-2-18-11-35-18.187876939,91,57
run-2020-2-18-11-35-18.187876939,92,55
run-2020-2-18-11-35-18.187876939,93,55
run-2020-2-18-11-35-18.187876939,94,53
run-2020-2-18-11-35-18.187876939,95,54
run-2020-2-18-11-35-18.187876939,96,61
run-2020-2-18-11-35-18.187876939,97,64
run-2020-2-18-11-35-18.187876939,98,57
run-2020-2-18-11-35-18.187876939,99,58
run-2020-2-18-11-35-18.187876939,100,54
