RunID,Tick,ActiveAgentsPerTick
run-2020-2-18-13-46-46.085563898,0,10
run-2020-2-18-13-46-46.085563898,1,10
run-2020-2-18-13-46-46.085563898,2,13
run-2020-2-18-13-46-46.085563898,3,13
run-2020-2-18-13-46-46.085563898,4,13
run-2020-2-18-13-46-46.085563898,5,14
run-2020-2-18-13-46-46.085563898,6,21
run-2020-2-18-13-46-46.085563898,7,24
run-2020-2-18-13-46-46.085563898,8,24
run-2020-2-18-13-46-46.085563898,9,23
run-2020-2-18-13-46-46.085563898,10,22
run-2020-2-18-13-46-46.085563898,11,27
run-2020-2-18-13-46-46.085563898,12,31
run-2020-2-18-13-46-46.085563898,13,31
run-2020-2-18-13-46-46.085563898,14,31
run-2020-2-18-13-46-46.085563898,15,33
run-2020-2-18-13-46-46.085563898,16,34
run-2020-2-18-13-46-46.085563898,17,30
run-2020-2-18-13-46-46.085563898,18,31
run-2020-2-18-13-46-46.085563898,19,32
run-2020-2-18-13-46-46.085563898,20,36
run-2020-2-18-13-46-46.085563898,21,35
run-2020-2-18-13-46-46.085563898,22,35
run-2020-2-18-13-46-46.085563898,23,37
run-2020-2-18-13-46-46.085563898,24,36
run-2020-2-18-13-46-46.085563898,25,40
run-2020-2-18-13-46-46.085563898,26,44
run-2020-2-18-13-46-46.085563898,27,41
run-2020-2-18-13-46-46.085563898,28,41
run-2020-2-18-13-46-46.085563898,29,42
run-2020-2-18-13-46-46.085563898,30,45
run-2020-2-18-13-46-46.085563898,31,46
run-2020-2-18-13-46-46.085563898,32,47
run-2020-2-18-13-46-46.085563898,33,49
run-2020-2-18-13-46-46.085563898,34,52
run-2020-2-18-13-46-46.085563898,35,52
run-2020-2-18-13-46-46.085563898,36,57
run-2020-2-18-13-46-46.085563898,37,61
run-2020-2-18-13-46-46.085563898,38,59
run-2020-2-18-13-46-46.085563898,39,61
run-2020-2-18-13-46-46.085563898,40,61
run-2020-2-18-13-46-46.085563898,41,59
run-2020-2-18-13-46-46.085563898,42,59
run-2020-2-18-13-46-46.085563898,43,58
run-2020-2-18-13-46-46.085563898,44,58
run-2020-2-18-13-46-46.085563898,45,57
run-2020-2-18-13-46-46.085563898,46,56
run-2020-2-18-13-46-46.085563898,47,56
run-2020-2-18-13-46-46.085563898,48,58
run-2020-2-18-13-46-46.085563898,49,58
run-2020-2-18-13-46-46.085563898,50,61
run-2020-2-18-13-46-46.085563898,51,57
run-2020-2-18-13-46-46.085563898,52,59
run-2020-2-18-13-46-46.085563898,53,59
run-2020-2-18-13-46-46.085563898,54,56
run-2020-2-18-13-46-46.085563898,55,52
run-2020-2-18-13-46-46.085563898,56,52
run-2020-2-18-13-46-46.085563898,57,52
run-2020-2-18-13-46-46.085563898,58,54
run-2020-2-18-13-46-46.085563898,59,55
run-2020-2-18-13-46-46.085563898,60,57
run-2020-2-18-13-46-46.085563898,61,53
run-2020-2-18-13-46-46.085563898,62,50
run-2020-2-18-13-46-46.085563898,63,49
run-2020-2-18-13-46-46.085563898,64,51
run-2020-2-18-13-46-46.085563898,65,53
run-2020-2-18-13-46-46.085563898,66,55
run-2020-2-18-13-46-46.085563898,67,55
run-2020-2-18-13-46-46.085563898,68,57
run-2020-2-18-13-46-46.085563898,69,60
run-2020-2-18-13-46-46.085563898,70,65
run-2020-2-18-13-46-46.085563898,71,65
run-2020-2-18-13-46-46.085563898,72,64
run-2020-2-18-13-46-46.085563898,73,63
run-2020-2-18-13-46-46.085563898,74,63
run-2020-2-18-13-46-46.085563898,75,61
run-2020-2-18-13-46-46.085563898,76,59
run-2020-2-18-13-46-46.085563898,77,56
run-2020-2-18-13-46-46.085563898,78,56
run-2020-2-18-13-46-46.085563898,79,57
run-2020-2-18-13-46-46.085563898,80,59
run-2020-2-18-13-46-46.085563898,81,59
run-2020-2-18-13-46-46.085563898,82,59
run-2020-2-18-13-46-46.085563898,83,60
run-2020-2-18-13-46-46.085563898,84,59
run-2020-2-18-13-46-46.085563898,85,54
run-2020-2-18-13-46-46.085563898,86,51
run-2020-2-18-13-46-46.085563898,87,51
run-2020-2-18-13-46-46.085563898,88,53
run-2020-2-18-13-46-46.085563898,89,55
run-2020-2-18-13-46-46.085563898,90,61
run-2020-2-18-13-46-46.085563898,91,65
run-2020-2-18-13-46-46.085563898,92,64
run-2020-2-18-13-46-46.085563898,93,61
run-2020-2-18-13-46-46.085563898,94,59
run-2020-2-18-13-46-46.085563898,95,58
run-2020-2-18-13-46-46.085563898,96,55
run-2020-2-18-13-46-46.085563898,97,55
run-2020-2-18-13-46-46.085563898,98,56
run-2020-2-18-13-46-46.085563898,99,59
run-2020-2-18-13-46-46.085563898,100,57
