RunID,Tick,ActiveAgentsPerTick
run-2020-2-18-13-46-2.656300067,0,13
run-2020-2-18-13-46-2.656300067,1,15
run-2020-2-18-13-46-2.656300067,2,15
run-2020-2-18-13-46-2.656300067,3,16
run-2020-2-18-13-46-2.656300067,4,16
run-2020-2-18-13-46-2.656300067,5,17
run-2020-2-18-13-46-2.656300067,6,19
run-2020-2-18-13-46-2.656300067,7,21
run-2020-2-18-13-46-2.656300067,8,22
run-2020-2-18-13-46-2.656300067,9,26
run-2020-2-18-13-46-2.656300067,10,30
run-2020-2-18-13-46-2.656300067,11,37
run-2020-2-18-13-46-2.656300067,12,36
run-2020-2-18-13-46-2.656300067,13,32
run-2020-2-18-13-46-2.656300067,14,33
run-2020-2-18-13-46-2.656300067,15,31
run-2020-2-18-13-46-2.656300067,16,32
run-2020-2-18-13-46-2.656300067,17,33
run-2020-2-18-13-46-2.656300067,18,35
run-2020-2-18-13-46-2.656300067,19,38
run-2020-2-18-13-46-2.656300067,20,41
run-2020-2-18-13-46-2.656300067,21,42
run-2020-2-18-13-46-2.656300067,22,40
run-2020-2-18-13-46-2.656300067,23,42
run-2020-2-18-13-46-2.656300067,24,42
run-2020-2-18-13-46-2.656300067,25,39
run-2020-2-18-13-46-2.656300067,26,36
run-2020-2-18-13-46-2.656300067,27,35
run-2020-2-18-13-46-2.656300067,28,37
run-2020-2-18-13-46-2.656300067,29,41
run-2020-2-18-13-46-2.656300067,30,41
run-2020-2-18-13-46-2.656300067,31,44
run-2020-2-18-13-46-2.656300067,32,44
run-2020-2-18-13-46-2.656300067,33,45
run-2020-2-18-13-46-2.656300067,34,42
run-2020-2-18-13-46-2.656300067,35,45
run-2020-2-18-13-46-2.656300067,36,45
run-2020-2-18-13-46-2.656300067,37,47
run-2020-2-18-13-46-2.656300067,38,46
run-2020-2-18-13-46-2.656300067,39,48
run-2020-2-18-13-46-2.656300067,40,44
run-2020-2-18-13-46-2.656300067,41,46
run-2020-2-18-13-46-2.656300067,42,48
run-2020-2-18-13-46-2.656300067,43,47
run-2020-2-18-13-46-2.656300067,44,46
run-2020-2-18-13-46-2.656300067,45,49
run-2020-2-18-13-46-2.656300067,46,50
run-2020-2-18-13-46-2.656300067,47,52
run-2020-2-18-13-46-2.656300067,48,50
run-2020-2-18-13-46-2.656300067,49,49
run-2020-2-18-13-46-2.656300067,50,51
run-2020-2-18-13-46-2.656300067,51,51
run-2020-2-18-13-46-2.656300067,52,48
run-2020-2-18-13-46-2.656300067,53,45
run-2020-2-18-13-46-2.656300067,54,47
run-2020-2-18-13-46-2.656300067,55,47
run-2020-2-18-13-46-2.656300067,56,46
run-2020-2-18-13-46-2.656300067,57,49
run-2020-2-18-13-46-2.656300067,58,48
run-2020-2-18-13-46-2.656300067,59,44
run-2020-2-18-13-46-2.656300067,60,45
run-2020-2-18-13-46-2.656300067,61,48
run-2020-2-18-13-46-2.656300067,62,48
run-2020-2-18-13-46-2.656300067,63,45
run-2020-2-18-13-46-2.656300067,64,47
run-2020-2-18-13-46-2.656300067,65,47
run-2020-2-18-13-46-2.656300067,66,50
run-2020-2-18-13-46-2.656300067,67,50
run-2020-2-18-13-46-2.656300067,68,49
run-2020-2-18-13-46-2.656300067,69,46
run-2020-2-18-13-46-2.656300067,70,47
run-2020-2-18-13-46-2.656300067,71,50
run-2020-2-18-13-46-2.656300067,72,51
run-2020-2-18-13-46-2.656300067,73,52
run-2020-2-18-13-46-2.656300067,74,52
run-2020-2-18-13-46-2.656300067,75,51
run-2020-2-18-13-46-2.656300067,76,54
run-2020-2-18-13-46-2.656300067,77,56
run-2020-2-18-13-46-2.656300067,78,58
run-2020-2-18-13-46-2.656300067,79,59
run-2020-2-18-13-46-2.656300067,80,63
run-2020-2-18-13-46-2.656300067,81,59
run-2020-2-18-13-46-2.656300067,82,62
run-2020-2-18-13-46-2.656300067,83,62
run-2020-2-18-13-46-2.656300067,84,61
run-2020-2-18-13-46-2.656300067,85,64
run-2020-2-18-13-46-2.656300067,86,66
run-2020-2-18-13-46-2.656300067,87,67
run-2020-2-18-13-46-2.656300067,88,61
run-2020-2-18-13-46-2.656300067,89,61
run-2020-2-18-13-46-2.656300067,90,64
run-2020-2-18-13-46-2.656300067,91,67
run-2020-2-18-13-46-2.656300067,92,68
run-2020-2-18-13-46-2.656300067,93,68
run-2020-2-18-13-46-2.656300067,94,66
run-2020-2-18-13-46-2.656300067,95,64
run-2020-2-18-13-46-2.656300067,96,67
run-2020-2-18-13-46-2.656300067,97,65
run-2020-2-18-13-46-2.656300067,98,65
run-2020-2-18-13-46-2.656300067,99,66
run-2020-2-18-13-46-2.656300067,100,60
