RunID,Tick,ActiveAgentsPerTick
run-2020-2-19-15-37-18.072444915,0,13
run-2020-2-19-15-37-18.072444915,1,17
run-2020-2-19-15-37-18.072444915,2,23
run-2020-2-19-15-37-18.072444915,3,23
run-2020-2-19-15-37-18.072444915,4,23
run-2020-2-19-15-37-18.072444915,5,20
run-2020-2-19-15-37-18.072444915,6,21
run-2020-2-19-15-37-18.072444915,7,20
run-2020-2-19-15-37-18.072444915,8,27
run-2020-2-19-15-37-18.072444915,9,24
run-2020-2-19-15-37-18.072444915,10,24
run-2020-2-19-15-37-18.072444915,11,25
run-2020-2-19-15-37-18.072444915,12,30
run-2020-2-19-15-37-18.072444915,13,31
run-2020-2-19-15-37-18.072444915,14,32
run-2020-2-19-15-37-18.072444915,15,35
run-2020-2-19-15-37-18.072444915,16,34
run-2020-2-19-15-37-18.072444915,17,33
run-2020-2-19-15-37-18.072444915,18,32
run-2020-2-19-15-37-18.072444915,19,31
run-2020-2-19-15-37-18.072444915,20,33
run-2020-2-19-15-37-18.072444915,21,34
run-2020-2-19-15-37-18.072444915,22,38
run-2020-2-19-15-37-18.072444915,23,41
run-2020-2-19-15-37-18.072444915,24,42
run-2020-2-19-15-37-18.072444915,25,46
run-2020-2-19-15-37-18.072444915,26,39
run-2020-2-19-15-37-18.072444915,27,39
run-2020-2-19-15-37-18.072444915,28,40
run-2020-2-19-15-37-18.072444915,29,41
run-2020-2-19-15-37-18.072444915,30,38
run-2020-2-19-15-37-18.072444915,31,36
run-2020-2-19-15-37-18.072444915,32,35
run-2020-2-19-15-37-18.072444915,33,33
run-2020-2-19-15-37-18.072444915,34,34
run-2020-2-19-15-37-18.072444915,35,34
run-2020-2-19-15-37-18.072444915,36,34
run-2020-2-19-15-37-18.072444915,37,36
run-2020-2-19-15-37-18.072444915,38,37
run-2020-2-19-15-37-18.072444915,39,39
run-2020-2-19-15-37-18.072444915,40,43
run-2020-2-19-15-37-18.072444915,41,43
run-2020-2-19-15-37-18.072444915,42,44
run-2020-2-19-15-37-18.072444915,43,46
run-2020-2-19-15-37-18.072444915,44,49
run-2020-2-19-15-37-18.072444915,45,51
run-2020-2-19-15-37-18.072444915,46,53
run-2020-2-19-15-37-18.072444915,47,53
run-2020-2-19-15-37-18.072444915,48,52
run-2020-2-19-15-37-18.072444915,49,51
run-2020-2-19-15-37-18.072444915,50,48
run-2020-2-19-15-37-18.072444915,51,49
run-2020-2-19-15-37-18.072444915,52,48
run-2020-2-19-15-37-18.072444915,53,44
run-2020-2-19-15-37-18.072444915,54,42
run-2020-2-19-15-37-18.072444915,55,44
run-2020-2-19-15-37-18.072444915,56,47
run-2020-2-19-15-37-18.072444915,57,47
run-2020-2-19-15-37-18.072444915,58,45
run-2020-2-19-15-37-18.072444915,59,49
run-2020-2-19-15-37-18.072444915,60,49
run-2020-2-19-15-37-18.072444915,61,46
run-2020-2-19-15-37-18.072444915,62,47
run-2020-2-19-15-37-18.072444915,63,43
run-2020-2-19-15-37-18.072444915,64,42
run-2020-2-19-15-37-18.072444915,65,38
run-2020-2-19-15-37-18.072444915,66,41
run-2020-2-19-15-37-18.072444915,67,42
run-2020-2-19-15-37-18.072444915,68,41
run-2020-2-19-15-37-18.072444915,69,43
run-2020-2-19-15-37-18.072444915,70,47
run-2020-2-19-15-37-18.072444915,71,50
run-2020-2-19-15-37-18.072444915,72,49
run-2020-2-19-15-37-18.072444915,73,47
run-2020-2-19-15-37-18.072444915,74,47
run-2020-2-19-15-37-18.072444915,75,44
run-2020-2-19-15-37-18.072444915,76,43
run-2020-2-19-15-37-18.072444915,77,44
run-2020-2-19-15-37-18.072444915,78,42
run-2020-2-19-15-37-18.072444915,79,44
run-2020-2-19-15-37-18.072444915,80,45
run-2020-2-19-15-37-18.072444915,81,44
run-2020-2-19-15-37-18.072444915,82,45
run-2020-2-19-15-37-18.072444915,83,45
run-2020-2-19-15-37-18.072444915,84,44
run-2020-2-19-15-37-18.072444915,85,43
run-2020-2-19-15-37-18.072444915,86,45
run-2020-2-19-15-37-18.072444915,87,50
run-2020-2-19-15-37-18.072444915,88,47
run-2020-2-19-15-37-18.072444915,89,47
run-2020-2-19-15-37-18.072444915,90,42
run-2020-2-19-15-37-18.072444915,91,44
run-2020-2-19-15-37-18.072444915,92,49
run-2020-2-19-15-37-18.072444915,93,53
run-2020-2-19-15-37-18.072444915,94,55
run-2020-2-19-15-37-18.072444915,95,51
run-2020-2-19-15-37-18.072444915,96,53
run-2020-2-19-15-37-18.072444915,97,48
run-2020-2-19-15-37-18.072444915,98,50
run-2020-2-19-15-37-18.072444915,99,50
run-2020-2-19-15-37-18.072444915,100,45
