RunID,Tick,AllAgents,Active,Inactive
run-2020-2-18-11-35-28.978672981,0,14,11,3
run-2020-2-18-11-35-28.978672981,1,17,10,7
run-2020-2-18-11-35-28.978672981,2,22,15,7
run-2020-2-18-11-35-28.978672981,3,22,10,12
run-2020-2-18-11-35-28.978672981,4,23,10,13
run-2020-2-18-11-35-28.978672981,5,27,13,14
run-2020-2-18-11-35-28.978672981,6,30,13,17
run-2020-2-18-11-35-28.978672981,7,35,15,20
run-2020-2-18-11-35-28.978672981,8,40,15,25
run-2020-2-18-11-35-28.978672981,9,43,17,26
run-2020-2-18-11-35-28.978672981,10,46,17,29
run-2020-2-18-11-35-28.978672981,11,49,19,30
run-2020-2-18-11-35-28.978672981,12,56,23,33
run-2020-2-18-11-35-28.978672981,13,59,24,35
run-2020-2-18-11-35-28.978672981,14,64,26,38
run-2020-2-18-11-35-28.978672981,15,71,31,40
run-2020-2-18-11-35-28.978672981,16,72,30,42
run-2020-2-18-11-35-28.978672981,17,72,27,45
run-2020-2-18-11-35-28.978672981,18,74,27,47
run-2020-2-18-11-35-28.978672981,19,76,27,49
run-2020-2-18-11-35-28.978672981,20,78,28,50
run-2020-2-18-11-35-28.978672981,21,78,27,51
run-2020-2-18-11-35-28.978672981,22,79,27,52
run-2020-2-18-11-35-28.978672981,23,82,29,53
run-2020-2-18-11-35-28.978672981,24,84,29,55
run-2020-2-18-11-35-28.978672981,25,85,28,57
run-2020-2-18-11-35-28.978672981,26,91,32,59
run-2020-2-18-11-35-28.978672981,27,94,31,63
run-2020-2-18-11-35-28.978672981,28,95,27,68
run-2020-2-18-11-35-28.978672981,29,100,30,70
run-2020-2-18-11-35-28.978672981,30,107,34,73
run-2020-2-18-11-35-28.978672981,31,109,31,78
run-2020-2-18-11-35-28.978672981,32,112,34,78
run-2020-2-18-11-35-28.978672981,33,116,34,82
run-2020-2-18-11-35-28.978672981,34,119,34,85
run-2020-2-18-11-35-28.978672981,35,120,32,88
run-2020-2-18-11-35-28.978672981,36,124,33,91
run-2020-2-18-11-35-28.978672981,37,128,36,92
run-2020-2-18-11-35-28.978672981,38,130,35,95
run-2020-2-18-11-35-28.978672981,39,131,35,96
run-2020-2-18-11-35-28.978672981,40,133,35,98
run-2020-2-18-11-35-28.978672981,41,135,37,98
run-2020-2-18-11-35-28.978672981,42,136,36,100
run-2020-2-18-11-35-28.978672981,43,140,38,102
run-2020-2-18-11-35-28.978672981,44,143,38,105
run-2020-2-18-11-35-28.978672981,45,146,38,108
run-2020-2-18-11-35-28.978672981,46,151,41,110
run-2020-2-18-11-35-28.978672981,47,153,40,113
run-2020-2-18-11-35-28.978672981,48,157,42,115
run-2020-2-18-11-35-28.978672981,49,163,44,119
run-2020-2-18-11-35-28.978672981,50,167,46,121
run-2020-2-18-11-35-28.978672981,51,172,49,123
run-2020-2-18-11-35-28.978672981,52,175,49,126
run-2020-2-18-11-35-28.978672981,53,180,46,134
run-2020-2-18-11-35-28.978672981,54,182,43,139
run-2020-2-18-11-35-28.978672981,55,186,44,142
run-2020-2-18-11-35-28.978672981,56,190,46,144
run-2020-2-18-11-35-28.978672981,57,194,47,147
run-2020-2-18-11-35-28.978672981,58,197,46,151
run-2020-2-18-11-35-28.978672981,59,198,43,155
run-2020-2-18-11-35-28.978672981,60,201,40,161
run-2020-2-18-11-35-28.978672981,61,204,37,167
run-2020-2-18-11-35-28.978672981,62,205,38,167
run-2020-2-18-11-35-28.978672981,63,207,38,169
run-2020-2-18-11-35-28.978672981,64,210,41,169
run-2020-2-18-11-35-28.978672981,65,215,41,174
run-2020-2-18-11-35-28.978672981,66,217,40,177
run-2020-2-18-11-35-28.978672981,67,220,42,178
run-2020-2-18-11-35-28.978672981,68,226,44,182
run-2020-2-18-11-35-28.978672981,69,227,43,184
run-2020-2-18-11-35-28.978672981,70,230,44,186
run-2020-2-18-11-35-28.978672981,71,235,47,188
run-2020-2-18-11-35-28.978672981,72,238,48,190
run-2020-2-18-11-35-28.978672981,73,241,48,193
run-2020-2-18-11-35-28.978672981,74,245,50,195
run-2020-2-18-11-35-28.978672981,75,247,48,199
run-2020-2-18-11-35-28.978672981,76,253,49,204
run-2020-2-18-11-35-28.978672981,77,258,52,206
run-2020-2-18-11-35-28.978672981,78,258,45,213
run-2020-2-18-11-35-28.978672981,79,262,46,216
run-2020-2-18-11-35-28.978672981,80,264,47,217
run-2020-2-18-11-35-28.978672981,81,269,46,223
run-2020-2-18-11-35-28.978672981,82,271,45,226
run-2020-2-18-11-35-28.978672981,83,273,43,230
run-2020-2-18-11-35-28.978672981,84,273,40,233
run-2020-2-18-11-35-28.978672981,85,275,38,237
run-2020-2-18-11-35-28.978672981,86,282,43,239
run-2020-2-18-11-35-28.978672981,87,284,45,239
run-2020-2-18-11-35-28.978672981,88,287,47,240
run-2020-2-18-11-35-28.978672981,89,294,51,243
run-2020-2-18-11-35-28.978672981,90,297,49,248
run-2020-2-18-11-35-28.978672981,91,299,50,249
run-2020-2-18-11-35-28.978672981,92,303,49,254
run-2020-2-18-11-35-28.978672981,93,304,48,256
run-2020-2-18-11-35-28.978672981,94,307,49,258
run-2020-2-18-11-35-28.978672981,95,308,47,261
run-2020-2-18-11-35-28.978672981,96,309,45,264
run-2020-2-18-11-35-28.978672981,97,313,47,266
run-2020-2-18-11-35-28.978672981,98,317,51,266
run-2020-2-18-11-35-28.978672981,99,318,48,270
