Source,Target
13a11b56-5a1b-11ea-8a98-9f0b5bc8d74f,13a2b60a-5a1b-11ea-bb76-c3ec488e0605
13a15260-5a1b-11ea-823e-0b8cd51765f1,13a2be2a-5a1b-11ea-b167-0b5262f1a6a9
13a1261e-5a1b-11ea-8753-6b4faeb9463c,13a2c992-5a1b-11ea-936b-178d15bcb6aa
13a2622c-5a1b-11ea-a838-37eee123736e,13a2d752-5a1b-11ea-be98-93a70b0eccb5
13a0bc6a-5a1b-11ea-857f-872704b9c145,13a2e59e-5a1b-11ea-9cc2-e3dc10a08a4a
13a11b56-5a1b-11ea-8a98-9f0b5bc8d74f,13a2f214-5a1b-11ea-adf4-d31322593de6
13a15cb0-5a1b-11ea-90aa-e3a1cbf75b22,13a2fdb8-5a1b-11ea-87cf-371903f785c4
13a0f658-5a1b-11ea-93bb-131c98c79e11,13a31140-5a1b-11ea-8046-d70b0b404805
13a1761e-5a1b-11ea-a175-976f22856c7a,13a31cbc-5a1b-11ea-88d3-dfb3eb97e28a
13a0fbd0-5a1b-11ea-b034-abd86ff2b6c4,13a322e8-5a1b-11ea-8b06-bbb3d29bcc0f
13a18b18-5a1b-11ea-8ba5-fb9530761dc9,13a32dd8-5a1b-11ea-9479-7fca152bc5cc
13a1ce66-5a1b-11ea-91f7-8fb5c1f42cf9,13a3356c-5a1b-11ea-a22f-1fa843098c38
13a31140-5a1b-11ea-8046-d70b0b404805,13a34624-5a1b-11ea-a8ea-7bf63e3671da
13a183e8-5a1b-11ea-bb22-5738b1304bc8,13a34dc2-5a1b-11ea-90ae-8f31f21474f9
13a31cbc-5a1b-11ea-88d3-dfb3eb97e28a,13a3581c-5a1b-11ea-ad59-771eb270a9e9
13a34624-5a1b-11ea-a8ea-7bf63e3671da,13a36c44-5a1b-11ea-b08b-5bd1758d3516
13a0a522-5a1b-11ea-9dad-bbcc0cdbc819,13a37f4a-5a1b-11ea-8b4e-0f75a0a74a37
13a1f7ce-5a1b-11ea-848e-9b24c58dd517,13a38b34-5a1b-11ea-ba70-b3d79d30eaa4
13a3581c-5a1b-11ea-ad59-771eb270a9e9,13a399da-5a1b-11ea-8784-8b733fc56bf0
13a0d3d0-5a1b-11ea-8a4b-9b0c3bce88e0,13a3a222-5a1b-11ea-b0c7-3fb10fab5388
13a10580-5a1b-11ea-8897-97d3547e5740,13a3aab0-5a1b-11ea-becf-ffa635939ffd
13a1ce66-5a1b-11ea-91f7-8fb5c1f42cf9,13a3b6c2-5a1b-11ea-9218-8774045638cb
13a0c854-5a1b-11ea-9094-e7f6311feb0e,13a3c482-5a1b-11ea-b237-2f8095f89736
13a089fc-5a1b-11ea-a88e-fbf11c8973da,13a3d828-5a1b-11ea-b083-eb29f682dc09
13a165fc-5a1b-11ea-a4d6-9744ac0ab0c3,13a3cb12-5a1b-11ea-8ddf-5f25446b121d
13a0fbd0-5a1b-11ea-b034-abd86ff2b6c4,13a3e638-5a1b-11ea-b4e4-53cfb78fde6c
13a1e734-5a1b-11ea-abf6-9fb63f04f859,13a3ff6a-5a1b-11ea-ab34-4b1cfc77d726
13a0e8f2-5a1b-11ea-abc2-f3f96da38dcd,13a3f6be-5a1b-11ea-97ff-5b643162e76b
13a3aab0-5a1b-11ea-becf-ffa635939ffd,13a42f26-5a1b-11ea-acfa-efac928334c2
13a081be-5a1b-11ea-9ee5-17085fe60df9,13a43d86-5a1b-11ea-acc6-671f27add5ae
13a31140-5a1b-11ea-8046-d70b0b404805,13a44722-5a1b-11ea-828a-5739d3b686fb
13a3a222-5a1b-11ea-b0c7-3fb10fab5388,13a4505a-5a1b-11ea-bd2b-d7863108bbae
13a15260-5a1b-11ea-823e-0b8cd51765f1,13a457b2-5a1b-11ea-bf19-bbb473466656
13a165fc-5a1b-11ea-a4d6-9744ac0ab0c3,13a45fa0-5a1b-11ea-9433-d75af4baedce
13a34624-5a1b-11ea-a8ea-7bf63e3671da,13a4664e-5a1b-11ea-b291-4fe6cf888b4a
13a0d3d0-5a1b-11ea-8a4b-9b0c3bce88e0,13a47148-5a1b-11ea-b148-1f414a9d932c
13a36c44-5a1b-11ea-b08b-5bd1758d3516,13a4823c-5a1b-11ea-95c5-e72a170aa62e
13a31cbc-5a1b-11ea-88d3-dfb3eb97e28a,13a495b0-5a1b-11ea-893a-1ba3ba22cc74
13a4823c-5a1b-11ea-95c5-e72a170aa62e,13a4a802-5a1b-11ea-9682-a792d3e50061
13a2d752-5a1b-11ea-be98-93a70b0eccb5,13a4b036-5a1b-11ea-85f6-2b9fb0c7671c
13a1bac0-5a1b-11ea-9d53-731e8648a9ed,13a4c526-5a1b-11ea-809a-eb2e92bfecdb
13a0734a-5a1b-11ea-a07b-2bb4a909f021,13a4cf44-5a1b-11ea-9e34-93565edcdfc3
13a31cbc-5a1b-11ea-88d3-dfb3eb97e28a,13a4d8f4-5a1b-11ea-85d9-17ff4fd496cc
13a37f4a-5a1b-11ea-8b4e-0f75a0a74a37,13a4e178-5a1b-11ea-8c36-874b921c2214
13a2537c-5a1b-11ea-8cf3-b3c066f79a57,13a4e754-5a1b-11ea-8d2e-03cbca0a3140
13a1e734-5a1b-11ea-abf6-9fb63f04f859,13a4f6fe-5a1b-11ea-bd47-e74962b4483a
13a090d2-5a1b-11ea-a7a3-7367b0f9c9de,13a504fa-5a1b-11ea-8e31-4b709ce1e58d
13a322e8-5a1b-11ea-8b06-bbb3d29bcc0f,13a5104e-5a1b-11ea-9410-f755b9dc9c95
13a47148-5a1b-11ea-b148-1f414a9d932c,13a526ec-5a1b-11ea-ba58-a389a9d8edf9
13a4f6fe-5a1b-11ea-bd47-e74962b4483a,13a5383a-5a1b-11ea-a76b-2788d62cf4fb
13a22bf4-5a1b-11ea-b787-5bc6d7fa6a75,13a54438-5a1b-11ea-aeaa-1b9f72e01097
13a17dee-5a1b-11ea-a990-c7f00e39527f,13a54b72-5a1b-11ea-a81a-b30b05537090
13a4b036-5a1b-11ea-85f6-2b9fb0c7671c,13a55bda-5a1b-11ea-af8f-8f7ef1e83cd6
13a3ff6a-5a1b-11ea-ab34-4b1cfc77d726,13a56eae-5a1b-11ea-97e4-53b340bce0f0
13a3e638-5a1b-11ea-b4e4-53cfb78fde6c,13a5787c-5a1b-11ea-bf22-3be27b2c5cc4
13a4e178-5a1b-11ea-8c36-874b921c2214,13a58010-5a1b-11ea-9794-dbbe53fb03e9
13a2e59e-5a1b-11ea-9cc2-e3dc10a08a4a,13a5868c-5a1b-11ea-8cfb-9f37e9526e75
13a5868c-5a1b-11ea-8cfb-9f37e9526e75,13a5a3f6-5a1b-11ea-a1fe-776dd985be4b
13a3c482-5a1b-11ea-b237-2f8095f89736,13a5af90-5a1b-11ea-a18b-53fdb5f16efd
13a11b56-5a1b-11ea-8a98-9f0b5bc8d74f,13a5b954-5a1b-11ea-81ad-d7777b967041
13a4cf44-5a1b-11ea-9e34-93565edcdfc3,13a5bfbc-5a1b-11ea-a047-7fe684920dcf
13a0fbd0-5a1b-11ea-b034-abd86ff2b6c4,13a5cc82-5a1b-11ea-9431-c30932dd0439
13a2477e-5a1b-11ea-8470-d78726fce4ca,13a5d93e-5a1b-11ea-b0da-1b294778d93e
13a43d86-5a1b-11ea-acc6-671f27add5ae,13a5e44c-5a1b-11ea-a5c8-0f2e32594a6f
13a2c992-5a1b-11ea-936b-178d15bcb6aa,13a5eb2c-5a1b-11ea-a468-9bb7308e9b3e
13a1a74c-5a1b-11ea-8744-4f5f3fa8678b,13a600ee-5a1b-11ea-a43c-fb4be9db1e5d
13a37f4a-5a1b-11ea-8b4e-0f75a0a74a37,13a6162e-5a1b-11ea-9f4d-6b7daaad25b2
13a23ffe-5a1b-11ea-82ab-9faad7dcbe45,13a623e4-5a1b-11ea-944a-63ea998d51bd
13a20750-5a1b-11ea-bddd-27bffebf4698,13a62902-5a1b-11ea-a859-ab0f5f0b8245
13a2af66-5a1b-11ea-9936-bf8058172fee,13a62f38-5a1b-11ea-92f2-e3e0abff0f8a
13a2f214-5a1b-11ea-adf4-d31322593de6,13a63a82-5a1b-11ea-bd84-53c1ae3f8039
13a38b34-5a1b-11ea-ba70-b3d79d30eaa4,13a64568-5a1b-11ea-b379-f36a464d7fe7
13a0fbd0-5a1b-11ea-b034-abd86ff2b6c4,13a64d4c-5a1b-11ea-bcdb-8316835af12e
13a2477e-5a1b-11ea-8470-d78726fce4ca,13a65d8c-5a1b-11ea-9135-3f9762f6da21
13a3581c-5a1b-11ea-ad59-771eb270a9e9,13a672fe-5a1b-11ea-b9c4-034cde5710bb
13a1f7ce-5a1b-11ea-848e-9b24c58dd517,13a681c2-5a1b-11ea-8ca8-1f5c6a711fd0
13a089fc-5a1b-11ea-a88e-fbf11c8973da,13a6923e-5a1b-11ea-be11-ef018810904a
13a38b34-5a1b-11ea-ba70-b3d79d30eaa4,13a69c84-5a1b-11ea-9a45-4f33fa922883
13a4c526-5a1b-11ea-809a-eb2e92bfecdb,13a6a788-5a1b-11ea-a69f-2bf779e9be4f
13a26e2a-5a1b-11ea-b1b6-7bb4fc4c20da,13a6b9a8-5a1b-11ea-b91f-0301d88cc1d3
13a183e8-5a1b-11ea-bb22-5738b1304bc8,13a6b2dc-5a1b-11ea-bbe4-e38d09c4fdfe
13a10fee-5a1b-11ea-bd3b-b78bd6df9a7f,13a6bff2-5a1b-11ea-8570-9f86263d4c56
13a32dd8-5a1b-11ea-9479-7fca152bc5cc,13a6d172-5a1b-11ea-a8b2-1f5e7faefc9d
13a1b02a-5a1b-11ea-9c9c-bff30e80242c,13a6ff30-5a1b-11ea-81b4-e37704221612
13a44722-5a1b-11ea-828a-5739d3b686fb,13a70c5a-5a1b-11ea-8318-0fbaaf16fbc1
13a4823c-5a1b-11ea-95c5-e72a170aa62e,13a7136c-5a1b-11ea-8dbd-23f80bd869de
13a1b02a-5a1b-11ea-9c9c-bff30e80242c,13a71dc6-5a1b-11ea-8333-17fe9c4bcbed
13a58010-5a1b-11ea-9794-dbbe53fb03e9,13a72528-5a1b-11ea-9eb1-073c98659024
13a2537c-5a1b-11ea-8cf3-b3c066f79a57,13a72c80-5a1b-11ea-9a6e-478f78ba6617
13a4e754-5a1b-11ea-8d2e-03cbca0a3140,13a7354a-5a1b-11ea-882e-17782fdd947a
13a72c80-5a1b-11ea-9a6e-478f78ba6617,13a73c98-5a1b-11ea-98b2-ab92190c6b89
13a3cb12-5a1b-11ea-8ddf-5f25446b121d,13a75ade-5a1b-11ea-bd8b-376b567e9264
13a095b4-5a1b-11ea-9bc6-035ea11157e7,13a76696-5a1b-11ea-a021-4bbb01976066
13a495b0-5a1b-11ea-893a-1ba3ba22cc74,13a7705a-5a1b-11ea-9797-0ba8ac5ade35
13a17dee-5a1b-11ea-a990-c7f00e39527f,13a77d2a-5a1b-11ea-a245-a7b65c2426b1
13a4cf44-5a1b-11ea-9e34-93565edcdfc3,13a78392-5a1b-11ea-93c4-b33ca75c3663
13a31140-5a1b-11ea-8046-d70b0b404805,13a789dc-5a1b-11ea-ae2b-6394762ed88d
13a36c44-5a1b-11ea-b08b-5bd1758d3516,13a79558-5a1b-11ea-8838-c7b8af553154
13a095b4-5a1b-11ea-9bc6-035ea11157e7,13a7a41c-5a1b-11ea-8671-9f4883a93f0f
13a5104e-5a1b-11ea-9410-f755b9dc9c95,13a7b678-5a1b-11ea-b747-f38b9b2cc244
13a081be-5a1b-11ea-9ee5-17085fe60df9,13a7c294-5a1b-11ea-8bad-470c547108e3
13a6b2dc-5a1b-11ea-bbe4-e38d09c4fdfe,13a7d838-5a1b-11ea-b91e-832cef03e2f4
13a5cc82-5a1b-11ea-9431-c30932dd0439,13a7e67a-5a1b-11ea-b9e6-e749bf4299f8
13a5a3f6-5a1b-11ea-a1fe-776dd985be4b,13a7f5f2-5a1b-11ea-9f44-d337df7b3ba3
13a34624-5a1b-11ea-a8ea-7bf63e3671da,13a7fcaa-5a1b-11ea-96aa-778785e5c97b
13a64568-5a1b-11ea-b379-f36a464d7fe7,13a8045c-5a1b-11ea-9abb-f3585ccdee91
13a5a3f6-5a1b-11ea-a1fe-776dd985be4b,13a810a0-5a1b-11ea-942b-c330d857c876
13a2d752-5a1b-11ea-be98-93a70b0eccb5,13a81e06-5a1b-11ea-b1bd-eb38ecf65bf8
13a72c80-5a1b-11ea-9a6e-478f78ba6617,13a83742-5a1b-11ea-89ae-77f91a0db60e
13a64d4c-5a1b-11ea-bcdb-8316835af12e,13a842be-5a1b-11ea-92ba-6b29110599b1
13a2994a-5a1b-11ea-a008-87ec28ec4c04,13a85768-5a1b-11ea-8e91-dfef51bdca3c
13a1f7ce-5a1b-11ea-848e-9b24c58dd517,13a8630c-5a1b-11ea-942d-372b31e14469
13a20750-5a1b-11ea-bddd-27bffebf4698,13a86938-5a1b-11ea-82cc-db675f1c54b3
13a65d8c-5a1b-11ea-9135-3f9762f6da21,13a86ff0-5a1b-11ea-b9e4-efd7223f080e
13a810a0-5a1b-11ea-942b-c330d857c876,13a87b58-5a1b-11ea-9c08-5353d34c484c
13a8045c-5a1b-11ea-9abb-f3585ccdee91,13a895f2-5a1b-11ea-8f86-c7e1e5afb53a
13a3aab0-5a1b-11ea-becf-ffa635939ffd,13a8a722-5a1b-11ea-b165-8b44826029d1
13a457b2-5a1b-11ea-bf19-bbb473466656,13a8b816-5a1b-11ea-a1b1-7b3b79d8e374
13a43d86-5a1b-11ea-acc6-671f27add5ae,13a8c568-5a1b-11ea-bdb6-5f691715f89c
13a10fee-5a1b-11ea-bd3b-b78bd6df9a7f,13a8d274-5a1b-11ea-b76e-1fbc70263aeb
13a6b9a8-5a1b-11ea-b91f-0301d88cc1d3,13a8dc60-5a1b-11ea-b7cb-7f5d6d88632b
13a5d93e-5a1b-11ea-b0da-1b294778d93e,13a8e3ae-5a1b-11ea-b38f-9f528ce64f2e
13a5b954-5a1b-11ea-81ad-d7777b967041,13a8e9b2-5a1b-11ea-aad3-5f5913a9d8df
13a32dd8-5a1b-11ea-9479-7fca152bc5cc,13a8f6dc-5a1b-11ea-9848-5b16e3cbede4
13a55bda-5a1b-11ea-af8f-8f7ef1e83cd6,13a90230-5a1b-11ea-b748-3bd677802da7
13a7a41c-5a1b-11ea-8671-9f4883a93f0f,13a92080-5a1b-11ea-877d-97d6550085bb
13a6bff2-5a1b-11ea-8570-9f86263d4c56,13a9280a-5a1b-11ea-a17a-a7893c1f560c
13a7136c-5a1b-11ea-8dbd-23f80bd869de,13a935b6-5a1b-11ea-a21c-5b2cce5a1142
13a79558-5a1b-11ea-8838-c7b8af553154,13a942b8-5a1b-11ea-952e-4bdcd98b22c7
13a45fa0-5a1b-11ea-9433-d75af4baedce,13a94f92-5a1b-11ea-8084-5f04bbf9edff
13a399da-5a1b-11ea-8784-8b733fc56bf0,13a959a6-5a1b-11ea-acc3-432c0f15559a
13a6b9a8-5a1b-11ea-b91f-0301d88cc1d3,13a963f6-5a1b-11ea-ac0a-63019e6e2110
13a3581c-5a1b-11ea-ad59-771eb270a9e9,13a969d2-5a1b-11ea-91a5-77a8742595c1
13a22bf4-5a1b-11ea-b787-5bc6d7fa6a75,13a97a6c-5a1b-11ea-9b22-6b2b02468c7d
13a23ffe-5a1b-11ea-82ab-9faad7dcbe45,13a98566-5a1b-11ea-a636-e3b17c27a66e
13a8c568-5a1b-11ea-bdb6-5f691715f89c,13a99466-5a1b-11ea-ab1a-a3ca0cc9b58d
13a2622c-5a1b-11ea-a838-37eee123736e,13a9a41a-5a1b-11ea-9c5a-d3243e442bd9
13a99466-5a1b-11ea-ab1a-a3ca0cc9b58d,13a9b842-5a1b-11ea-9c7d-af175a2219f7
13a5cc82-5a1b-11ea-9431-c30932dd0439,13a9cb66-5a1b-11ea-af13-3b283f243090
13a942b8-5a1b-11ea-952e-4bdcd98b22c7,13a9d87c-5a1b-11ea-bcfd-6f7aad1fbf19
13a99466-5a1b-11ea-ab1a-a3ca0cc9b58d,13a9e236-5a1b-11ea-b095-638391d10ce9
13a495b0-5a1b-11ea-893a-1ba3ba22cc74,13a9e9c0-5a1b-11ea-85fe-0b6534a167e2
13a43d86-5a1b-11ea-acc6-671f27add5ae,13a9f53c-5a1b-11ea-bf76-034083a146ce
13a94f92-5a1b-11ea-8084-5f04bbf9edff,13a9fa78-5a1b-11ea-83e6-9f98ae49d557
13a9a41a-5a1b-11ea-9c5a-d3243e442bd9,13aa0702-5a1b-11ea-b780-a3b8348af1ae
13a21416-5a1b-11ea-bf60-07ee2d420ad4,13aa1634-5a1b-11ea-9751-934d6f9b0120
13a7e67a-5a1b-11ea-b9e6-e749bf4299f8,13aa2a34-5a1b-11ea-89f4-fbade16399f5
13a5a3f6-5a1b-11ea-a1fe-776dd985be4b,13aa49c4-5a1b-11ea-a8ff-f3e3a9993b19
13a2a7be-5a1b-11ea-b138-abd6962b475c,13aa5284-5a1b-11ea-b7a1-3755b5ccf6a9
13a2e59e-5a1b-11ea-9cc2-e3dc10a08a4a,13aa5982-5a1b-11ea-97ad-33bff76f9afa
13a8630c-5a1b-11ea-942d-372b31e14469,13aa62e2-5a1b-11ea-b591-53e0b64c907f
13a8630c-5a1b-11ea-942d-372b31e14469,13aa6d28-5a1b-11ea-9fed-03c5045c9958
13a9d87c-5a1b-11ea-bcfd-6f7aad1fbf19,13aa7368-5a1b-11ea-bc9f-272f342c6bb9
13a8dc60-5a1b-11ea-b7cb-7f5d6d88632b,13aa7a5c-5a1b-11ea-89d1-3718e4c8a1bf
13a1261e-5a1b-11ea-8753-6b4faeb9463c,13aa8c72-5a1b-11ea-a6aa-2fea8e5f52ef
13a1261e-5a1b-11ea-8753-6b4faeb9463c,13aaa630-5a1b-11ea-88aa-371a90ebb7e8
13a87b58-5a1b-11ea-9c08-5353d34c484c,13aab5c6-5a1b-11ea-92b3-837909555059
13a895f2-5a1b-11ea-8f86-c7e1e5afb53a,13aac264-5a1b-11ea-acd1-47b20f9a404a
13a7a41c-5a1b-11ea-8671-9f4883a93f0f,13aacc1e-5a1b-11ea-a161-afa6ed986695
13a1ce66-5a1b-11ea-91f7-8fb5c1f42cf9,13aad20e-5a1b-11ea-b9a4-9f82dc6ea244
13a32dd8-5a1b-11ea-9479-7fca152bc5cc,13aae280-5a1b-11ea-ae0a-a3d96f3e1073
13a6b9a8-5a1b-11ea-b91f-0301d88cc1d3,13aae7da-5a1b-11ea-a8ba-dbe166b300ee
13a38b34-5a1b-11ea-ba70-b3d79d30eaa4,13aaef46-5a1b-11ea-ab01-f70192b40c64
13a90230-5a1b-11ea-b748-3bd677802da7,13ab027e-5a1b-11ea-8e37-2f33a4048b8c
13a2fdb8-5a1b-11ea-87cf-371903f785c4,13ab1458-5a1b-11ea-82dc-43316ef1df4b
13a9e236-5a1b-11ea-b095-638391d10ce9,13ab1fc0-5a1b-11ea-b7ae-b3ed755a7ac9
13a36c44-5a1b-11ea-b08b-5bd1758d3516,13ab2aba-5a1b-11ea-ba3f-1371c0bdf552
13a0fbd0-5a1b-11ea-b034-abd86ff2b6c4,13ab321c-5a1b-11ea-92b2-c336755df9f5
13a78392-5a1b-11ea-93c4-b33ca75c3663,13ab466c-5a1b-11ea-99e6-1709e6db3546
13a8f6dc-5a1b-11ea-9848-5b16e3cbede4,13ab52ce-5a1b-11ea-ae2f-8707f340905a
13a4f6fe-5a1b-11ea-bd47-e74962b4483a,13ab5d78-5a1b-11ea-bfd7-ab2b2402bc47
13a11b56-5a1b-11ea-8a98-9f0b5bc8d74f,13ab6476-5a1b-11ea-8830-e31472471974
13a959a6-5a1b-11ea-acc3-432c0f15559a,13ab74e8-5a1b-11ea-b87c-8ba4a80db4de
13a6923e-5a1b-11ea-be11-ef018810904a,13ab835c-5a1b-11ea-9b7a-0b2b956969a0
13a322e8-5a1b-11ea-8b06-bbb3d29bcc0f,13ab8ee2-5a1b-11ea-8178-cf9468c0f774
13a9f53c-5a1b-11ea-bf76-034083a146ce,13ab9608-5a1b-11ea-bce6-77728f91c0da
13a8c568-5a1b-11ea-bdb6-5f691715f89c,13aba710-5a1b-11ea-a58e-bb395c6084d8
13a4a802-5a1b-11ea-9682-a792d3e50061,13abb23c-5a1b-11ea-92f5-9ba8357ae573
13a681c2-5a1b-11ea-8ca8-1f5c6a711fd0,13abbe26-5a1b-11ea-af86-13346529a33f
13a78392-5a1b-11ea-93c4-b33ca75c3663,13abc8e4-5a1b-11ea-834e-af48bd4a35e9
13a64568-5a1b-11ea-b379-f36a464d7fe7,13abd528-5a1b-11ea-8dc8-8b6e7afe6910
13a22bf4-5a1b-11ea-b787-5bc6d7fa6a75,13abf198-5a1b-11ea-80f4-fb331cf5cc52
13a7c294-5a1b-11ea-8bad-470c547108e3,13abf896-5a1b-11ea-bf48-f7396b354cae
13a9a41a-5a1b-11ea-9c5a-d3243e442bd9,13ac002a-5a1b-11ea-99b5-f775275902be
13a6bff2-5a1b-11ea-8570-9f86263d4c56,13ac0e58-5a1b-11ea-a593-c3b6d6e801f0
13a31140-5a1b-11ea-8046-d70b0b404805,13ac14c0-5a1b-11ea-a29e-53fc9bd0efc8
13a6162e-5a1b-11ea-9f4d-6b7daaad25b2,13ac20aa-5a1b-11ea-8e33-2b21bc842de9
13a62902-5a1b-11ea-a859-ab0f5f0b8245,13ac2e38-5a1b-11ea-83d5-ff491b5603fc
13a2be2a-5a1b-11ea-b167-0b5262f1a6a9,13ac3ad6-5a1b-11ea-9b28-93f83546ecf7
13a34dc2-5a1b-11ea-90ae-8f31f21474f9,13ac52c8-5a1b-11ea-866e-07fba5961df8
13a672fe-5a1b-11ea-b9c4-034cde5710bb,13ac613c-5a1b-11ea-9846-c7a91cf78ea3
13a73c98-5a1b-11ea-98b2-ab92190c6b89,13ac6826-5a1b-11ea-b008-7f25528fb8ea
13a5af90-5a1b-11ea-a18b-53fdb5f16efd,13ac7ac8-5a1b-11ea-8db9-cbffd6420beb
13aacc1e-5a1b-11ea-a161-afa6ed986695,13ac72d0-5a1b-11ea-a232-63c9b6b736b9
13a9e236-5a1b-11ea-b095-638391d10ce9,13ac82b6-5a1b-11ea-9c46-e3142f379fc7
13a4a802-5a1b-11ea-9682-a792d3e50061,13acb63c-5a1b-11ea-a9f8-a39b116eb44a
13a0e8f2-5a1b-11ea-abc2-f3f96da38dcd,13acbec0-5a1b-11ea-9709-138a04ef6be2
13a7a41c-5a1b-11ea-8671-9f4883a93f0f,13acc622-5a1b-11ea-b506-e7e7c0011830
13aa1634-5a1b-11ea-9751-934d6f9b0120,13accdf2-5a1b-11ea-8f94-6782a6d8bfe1
13a0e8f2-5a1b-11ea-abc2-f3f96da38dcd,13acde78-5a1b-11ea-a60b-f7dace601eee
13a4823c-5a1b-11ea-95c5-e72a170aa62e,13ace63e-5a1b-11ea-b314-3f3841d4a913
13a1a74c-5a1b-11ea-8744-4f5f3fa8678b,13aced14-5a1b-11ea-99cd-c36a323369ca
13aa7a5c-5a1b-11ea-89d1-3718e4c8a1bf,13acf2a0-5a1b-11ea-ab3e-83e4481dba49
13a1e734-5a1b-11ea-abf6-9fb63f04f859,13ad1348-5a1b-11ea-b03f-6b8d2c1ebcb8
13a2fdb8-5a1b-11ea-87cf-371903f785c4,13ad202c-5a1b-11ea-8e2e-4b566d1d6973
13a2d752-5a1b-11ea-be98-93a70b0eccb5,13ad295a-5a1b-11ea-86c7-b363f39036d0
13a7d838-5a1b-11ea-b91e-832cef03e2f4,13ad3120-5a1b-11ea-a5f2-27b1a4e2ac05
13ac002a-5a1b-11ea-99b5-f775275902be,13ad3e7c-5a1b-11ea-96a6-fb42773745e4
13a97a6c-5a1b-11ea-9b22-6b2b02468c7d,13ad480e-5a1b-11ea-8bdd-d3e680595f7f
13a0f0a4-5a1b-11ea-aa2c-ebb9a693394a,13ad5038-5a1b-11ea-8d0c-67bd88a71ee1
13a26e2a-5a1b-11ea-b1b6-7bb4fc4c20da,13ad5826-5a1b-11ea-8fed-a73106428120
13aad20e-5a1b-11ea-b9a4-9f82dc6ea244,13ad7748-5a1b-11ea-98d9-077896827e3c
13a58010-5a1b-11ea-9794-dbbe53fb03e9,13ad8b98-5a1b-11ea-aca4-ab67d267008a
13aa1634-5a1b-11ea-9751-934d6f9b0120,13ada506-5a1b-11ea-84fe-23a34960009a
13aa7368-5a1b-11ea-bc9f-272f342c6bb9,13adad12-5a1b-11ea-b7a3-f7a516dc1074
13a0fbd0-5a1b-11ea-b034-abd86ff2b6c4,13adb6ae-5a1b-11ea-8805-93810f7cfd1a
13aae7da-5a1b-11ea-a8ba-dbe166b300ee,13adc0fe-5a1b-11ea-9819-376767b0e2a9
13acc622-5a1b-11ea-b506-e7e7c0011830,13adccc0-5a1b-11ea-a697-83f6298f2f93
13a5eb2c-5a1b-11ea-a468-9bb7308e9b3e,13add396-5a1b-11ea-9e0c-33836f460a6c
13a8a722-5a1b-11ea-b165-8b44826029d1,13ade70a-5a1b-11ea-9f7c-53eed4458a55
13aa8c72-5a1b-11ea-a6aa-2fea8e5f52ef,13adf56a-5a1b-11ea-9564-fff8d83f656f
13a90230-5a1b-11ea-b748-3bd677802da7,13ae0b18-5a1b-11ea-a3c3-a32e09cc09df
13a63a82-5a1b-11ea-bd84-53c1ae3f8039,13ae1158-5a1b-11ea-b568-731564361155
13a5e44c-5a1b-11ea-a5c8-0f2e32594a6f,13ae1b8a-5a1b-11ea-9880-97b80a031b82
13a8d274-5a1b-11ea-b76e-1fbc70263aeb,13ae262a-5a1b-11ea-9f75-eb4753178101
13a3c482-5a1b-11ea-b237-2f8095f89736,13ae3142-5a1b-11ea-9f90-8b103f7975a1
13a45fa0-5a1b-11ea-9433-d75af4baedce,13ae3f66-5a1b-11ea-bb86-47cecb2b0cf4
13a789dc-5a1b-11ea-ae2b-6394762ed88d,13ae4b5a-5a1b-11ea-a52b-ff4e5e536428
13abf896-5a1b-11ea-bf48-f7396b354cae,13ae5780-5a1b-11ea-8a9e-8fcef7d49569
13ad295a-5a1b-11ea-86c7-b363f39036d0,13ae6cd4-5a1b-11ea-8ced-df4a03fd329c
13a842be-5a1b-11ea-92ba-6b29110599b1,13ae77e2-5a1b-11ea-b35c-b7955da9dc08
13a15260-5a1b-11ea-823e-0b8cd51765f1,13ae8a52-5a1b-11ea-8c57-df54e2fbea57
13a8e3ae-5a1b-11ea-b38f-9f528ce64f2e,13ae907e-5a1b-11ea-ab56-97b47e8b3e6e
13aa1634-5a1b-11ea-9751-934d6f9b0120,13ae97c2-5a1b-11ea-82bd-53fb20598f59
13aa8c72-5a1b-11ea-a6aa-2fea8e5f52ef,13aea3fc-5a1b-11ea-9e5b-930311a1faec
13a399da-5a1b-11ea-8784-8b733fc56bf0,13aeae42-5a1b-11ea-ba4d-3f27a1b53963
13a526ec-5a1b-11ea-ba58-a389a9d8edf9,13aeb91e-5a1b-11ea-afe0-b3010f64026e
13ac2e38-5a1b-11ea-83d5-ff491b5603fc,13aed192-5a1b-11ea-9a09-4760fd9cfb08
13a21416-5a1b-11ea-bf60-07ee2d420ad4,13aedda4-5a1b-11ea-b4af-ab25bc73f09a
13aedda4-5a1b-11ea-b4af-ab25bc73f09a,13aef1ea-5a1b-11ea-a084-3fbaacee3c06
13a8c568-5a1b-11ea-bdb6-5f691715f89c,13aefc94-5a1b-11ea-a903-7fab08ee5fe4
13a5868c-5a1b-11ea-8cfb-9f37e9526e75,13af0766-5a1b-11ea-b8e5-ef80bfde4b46
13acb63c-5a1b-11ea-a9f8-a39b116eb44a,13af138c-5a1b-11ea-8640-67a7cee14022
13acf2a0-5a1b-11ea-ab3e-83e4481dba49,13af20a2-5a1b-11ea-9443-47b2d5d46f8d
13a600ee-5a1b-11ea-a43c-fb4be9db1e5d,13af3524-5a1b-11ea-b1aa-b7b31509581b
13a4b036-5a1b-11ea-85f6-2b9fb0c7671c,13af4410-5a1b-11ea-90b8-8b66933be7e3
13adad12-5a1b-11ea-b7a3-f7a516dc1074,13af3d4e-5a1b-11ea-9452-0b542f91f74e
13a6b9a8-5a1b-11ea-b91f-0301d88cc1d3,13af52a2-5a1b-11ea-9dd5-af5678eb2485
13aa7a5c-5a1b-11ea-89d1-3718e4c8a1bf,13af8a42-5a1b-11ea-8440-fb22f1dc9631
13a4d8f4-5a1b-11ea-85d9-17ff4fd496cc,13af9168-5a1b-11ea-a781-6b04e1e6a9d9
13af0766-5a1b-11ea-b8e5-ef80bfde4b46,13af9d2a-5a1b-11ea-b30b-9b33171b230e
13a5af90-5a1b-11ea-a18b-53fdb5f16efd,13afa48c-5a1b-11ea-a89b-b3edeba3b413
13a3f6be-5a1b-11ea-97ff-5b643162e76b,13afb09e-5a1b-11ea-8123-d770d369edfb
13aaa630-5a1b-11ea-88aa-371a90ebb7e8,13afb8e6-5a1b-11ea-bfbd-b3d2c09f0a80
13a3356c-5a1b-11ea-a22f-1fa843098c38,13afc17e-5a1b-11ea-8f48-273f4ad1762e
13aa1634-5a1b-11ea-9751-934d6f9b0120,13afecc6-5a1b-11ea-847c-2b4680c71e3a
13a4f6fe-5a1b-11ea-bd47-e74962b4483a,13aff6e4-5a1b-11ea-afbf-a7cba55d3b34
13a8045c-5a1b-11ea-9abb-f3585ccdee91,13b00116-5a1b-11ea-b1f8-8fb96f5882b7
13abb23c-5a1b-11ea-92f5-9ba8357ae573,13b00c38-5a1b-11ea-b3de-6fe247fac091
13a86938-5a1b-11ea-82cc-db675f1c54b3,13b01868-5a1b-11ea-9f55-d328bbaf004c
13a672fe-5a1b-11ea-b9c4-034cde5710bb,13b023e4-5a1b-11ea-aaa4-7b13015c8b52
13a1ce66-5a1b-11ea-91f7-8fb5c1f42cf9,13b02a88-5a1b-11ea-b018-4ba255989efd
13a3f6be-5a1b-11ea-97ff-5b643162e76b,13b03186-5a1b-11ea-a4ea-5f28613074b2
13afb8e6-5a1b-11ea-bfbd-b3d2c09f0a80,13b04efa-5a1b-11ea-9ffb-7b6a7eaef9c2
13ab8ee2-5a1b-11ea-8178-cf9468c0f774,13b05b34-5a1b-11ea-93ba-1f6b0e87f3ea
13a969d2-5a1b-11ea-91a5-77a8742595c1,13b0662e-5a1b-11ea-a0cc-8ffc9a6ee527
13af0766-5a1b-11ea-b8e5-ef80bfde4b46,13b071d2-5a1b-11ea-b783-47fd8a781dd6
13a8a722-5a1b-11ea-b165-8b44826029d1,13b080d2-5a1b-11ea-97c9-2f2b2b6fb9c0
13ae77e2-5a1b-11ea-b35c-b7955da9dc08,13b08fb4-5a1b-11ea-93e3-ebbaa5e648aa
13a0e8f2-5a1b-11ea-abc2-f3f96da38dcd,13b095e0-5a1b-11ea-803a-5728438839c4
13a2477e-5a1b-11ea-8470-d78726fce4ca,13b09c5c-5a1b-11ea-8616-078c5e42a04e
13a1b02a-5a1b-11ea-9c9c-bff30e80242c,13b0b674-5a1b-11ea-becc-5f4e2fbb3fc1
13a963f6-5a1b-11ea-ac0a-63019e6e2110,13b0d80c-5a1b-11ea-9602-6f12f87e0f96
13a4e754-5a1b-11ea-8d2e-03cbca0a3140,13b0e6e4-5a1b-11ea-bfda-73bf78e80d2b
13a76696-5a1b-11ea-a021-4bbb01976066,13b0f120-5a1b-11ea-ae55-cf4b735007c9
13a5af90-5a1b-11ea-a18b-53fdb5f16efd,13b10368-5a1b-11ea-8445-830ed16168df
13ab5d78-5a1b-11ea-bfd7-ab2b2402bc47,13b10d04-5a1b-11ea-9024-7bf18f4d38db
13ae6cd4-5a1b-11ea-8ced-df4a03fd329c,13b117cc-5a1b-11ea-9391-6bb5da68e53a
13a18b18-5a1b-11ea-8ba5-fb9530761dc9,13b1210e-5a1b-11ea-87a2-8331be5479ef
13b095e0-5a1b-11ea-803a-5728438839c4,13b1274e-5a1b-11ea-bc0f-4f1705dc4c6b
13b0f120-5a1b-11ea-ae55-cf4b735007c9,13b149ea-5a1b-11ea-a7e0-5756614953f7
13a4e754-5a1b-11ea-8d2e-03cbca0a3140,13b155ca-5a1b-11ea-8df3-df77dbd14763
13a2622c-5a1b-11ea-a838-37eee123736e,13b1648e-5a1b-11ea-ad4f-af66de5b7206
13a20750-5a1b-11ea-bddd-27bffebf4698,13b16ac4-5a1b-11ea-a818-a7552fb7b8ff
13aefc94-5a1b-11ea-a903-7fab08ee5fe4,13b17190-5a1b-11ea-a201-c3f90f080982
13a47148-5a1b-11ea-b148-1f414a9d932c,13b18eb4-5a1b-11ea-a58c-e7d5eae1bf0f
13add396-5a1b-11ea-9e0c-33836f460a6c,13b1bd6c-5a1b-11ea-9391-93412ffa6630
13adad12-5a1b-11ea-b7a3-f7a516dc1074,13b1c47e-5a1b-11ea-82e0-736fa90ff8d9
13ae97c2-5a1b-11ea-82bd-53fb20598f59,13b1cc8a-5a1b-11ea-8566-77e42d5bf635
13a1bac0-5a1b-11ea-9d53-731e8648a9ed,13b1da54-5a1b-11ea-8462-d36aa8123e98
13a526ec-5a1b-11ea-ba58-a389a9d8edf9,13b1d644-5a1b-11ea-be48-df1f0336683b
13a2537c-5a1b-11ea-8cf3-b3c066f79a57,13b1e0ee-5a1b-11ea-9268-b3f93645fde3
13a5cc82-5a1b-11ea-9431-c30932dd0439,13b1e99a-5a1b-11ea-9b0a-230d89ee1fb3
13ab9608-5a1b-11ea-bce6-77728f91c0da,13b2146a-5a1b-11ea-8452-9794ea1ee449
13ac613c-5a1b-11ea-9846-c7a91cf78ea3,13b233f0-5a1b-11ea-afc6-7388509000a8
13a44722-5a1b-11ea-828a-5739d3b686fb,13b23f26-5a1b-11ea-876d-ef7ea1580c37
13af0766-5a1b-11ea-b8e5-ef80bfde4b46,13b24aca-5a1b-11ea-ae3a-4b724e56858f
13a44722-5a1b-11ea-828a-5739d3b686fb,13b25218-5a1b-11ea-98ad-671623032e59
13a3cb12-5a1b-11ea-8ddf-5f25446b121d,13b25a10-5a1b-11ea-ba3d-7fe3e07525fb
13b1c47e-5a1b-11ea-82e0-736fa90ff8d9,13b27162-5a1b-11ea-8acd-23c0b674215f
13a4823c-5a1b-11ea-95c5-e72a170aa62e,13b27cca-5a1b-11ea-85e2-23ec03f1a5a4
13b023e4-5a1b-11ea-aaa4-7b13015c8b52,13b282b0-5a1b-11ea-8715-1f2b0f6a4d84
13a0f658-5a1b-11ea-93bb-131c98c79e11,13b29822-5a1b-11ea-b93d-c3b5fa65b19e
13a18b18-5a1b-11ea-8ba5-fb9530761dc9,13b2a542-5a1b-11ea-8b06-8b48f6c70a8a
13ac14c0-5a1b-11ea-a29e-53fc9bd0efc8,13b2b6e0-5a1b-11ea-b6d1-4354cfc41398
13ae3f66-5a1b-11ea-bb86-47cecb2b0cf4,13b2c2ac-5a1b-11ea-a636-5ba94b5f0ffe
13adccc0-5a1b-11ea-a697-83f6298f2f93,13b2d49a-5a1b-11ea-b3cc-e76cdf2b21b3
13add396-5a1b-11ea-9e0c-33836f460a6c,13b2dad0-5a1b-11ea-b5aa-6332a1b1d8f8
13ad3e7c-5a1b-11ea-96a6-fb42773745e4,13b2ea52-5a1b-11ea-8348-1b86671f8bf0
13a4b036-5a1b-11ea-85f6-2b9fb0c7671c,13b2fe2a-5a1b-11ea-beca-4f329020cf17
13abc8e4-5a1b-11ea-834e-af48bd4a35e9,13b309ba-5a1b-11ea-80bd-fb546a66b4c6
13b1210e-5a1b-11ea-87a2-8331be5479ef,13b30fbe-5a1b-11ea-af7b-e7206fe9ab65
13a4f6fe-5a1b-11ea-bd47-e74962b4483a,13b31ba8-5a1b-11ea-82a6-a743d8ebcdfa
13b2b6e0-5a1b-11ea-b6d1-4354cfc41398,13b327ce-5a1b-11ea-a295-a378c39c969d
13acb63c-5a1b-11ea-a9f8-a39b116eb44a,13b351fe-5a1b-11ea-bb6c-4b3584b2c306
13b1d644-5a1b-11ea-be48-df1f0336683b,13b36216-5a1b-11ea-b154-73cad3f66d32
13a399da-5a1b-11ea-8784-8b733fc56bf0,13b36d1a-5a1b-11ea-9de4-4f9f911487ef
13a095b4-5a1b-11ea-9bc6-035ea11157e7,13b37878-5a1b-11ea-9b9a-7fca604fb0b8
13aa6d28-5a1b-11ea-9fed-03c5045c9958,13b37eb8-5a1b-11ea-b458-af1f07439fd0
13a3f6be-5a1b-11ea-97ff-5b643162e76b,13b385d4-5a1b-11ea-84e8-afae38c77e80
13a21416-5a1b-11ea-bf60-07ee2d420ad4,13b38c82-5a1b-11ea-8151-1b25a4ff7d1a
13a97a6c-5a1b-11ea-9b22-6b2b02468c7d,13b39290-5a1b-11ea-8b57-f35f7badc163
13ab5d78-5a1b-11ea-bfd7-ab2b2402bc47,13b3b6b2-5a1b-11ea-9e50-4f1d0d8dc0d3
13a37f4a-5a1b-11ea-8b4e-0f75a0a74a37,13b3c864-5a1b-11ea-8f37-6f63ecb0b443
13b36216-5a1b-11ea-b154-73cad3f66d32,13b3d39a-5a1b-11ea-bd13-073609c26a03
13aba710-5a1b-11ea-a58e-bb395c6084d8,13b3e2f4-5a1b-11ea-a8f7-4b049b5cad51
13ac002a-5a1b-11ea-99b5-f775275902be,13b3ea1a-5a1b-11ea-aa17-37808762c164
13a64568-5a1b-11ea-b379-f36a464d7fe7,13b3f686-5a1b-11ea-b7e4-9b82b1dd6e6b
13b0e6e4-5a1b-11ea-bfda-73bf78e80d2b,13b407f2-5a1b-11ea-8e58-e3288d5f97a7
13a72c80-5a1b-11ea-9a6e-478f78ba6617,13b40f22-5a1b-11ea-aa28-e75c85eb741c
13a2c992-5a1b-11ea-936b-178d15bcb6aa,13b41ecc-5a1b-11ea-afe0-4b337eaee088
13b2146a-5a1b-11ea-8452-9794ea1ee449,13b437f4-5a1b-11ea-87c9-67f0f382e978
13ae1b8a-5a1b-11ea-9880-97b80a031b82,13b43d9e-5a1b-11ea-957a-1b2042cf7302
13b095e0-5a1b-11ea-803a-5728438839c4,13b4527a-5a1b-11ea-93b3-8fcd01e0c7c7
13a72528-5a1b-11ea-9eb1-073c98659024,13b45810-5a1b-11ea-b1e8-2f79db9eb5cb
13a2be2a-5a1b-11ea-b167-0b5262f1a6a9,13b45fe0-5a1b-11ea-be12-b7defcda3728
13a9cb66-5a1b-11ea-af13-3b283f243090,13b4702a-5a1b-11ea-8a3b-27e26c1c2653
13aff6e4-5a1b-11ea-afbf-a7cba55d3b34,13b477f0-5a1b-11ea-877d-93454b1bb576
13aef1ea-5a1b-11ea-a084-3fbaacee3c06,13b4842a-5a1b-11ea-b1a9-634b28833f7a
13a681c2-5a1b-11ea-8ca8-1f5c6a711fd0,13b4a59a-5a1b-11ea-8145-eff44ca128e5
13a5104e-5a1b-11ea-9410-f755b9dc9c95,13b4abc6-5a1b-11ea-abe1-5701fdf5d754
13ae6cd4-5a1b-11ea-8ced-df4a03fd329c,13b4bae4-5a1b-11ea-b71c-0b7c097ce92b
13b09c5c-5a1b-11ea-8616-078c5e42a04e,13b4c7c8-5a1b-11ea-b046-1f0efab4e040
13a64568-5a1b-11ea-b379-f36a464d7fe7,13b4d696-5a1b-11ea-bdbf-fb2bf50e0500
13af3d4e-5a1b-11ea-9452-0b542f91f74e,13b4de02-5a1b-11ea-9938-a387718f2815
13a7354a-5a1b-11ea-882e-17782fdd947a,13b4e8c0-5a1b-11ea-8c32-9b7eeaa3877f
13b36d1a-5a1b-11ea-9de4-4f9f911487ef,13b4f00e-5a1b-11ea-9e79-c7b04db0fed9
13b4842a-5a1b-11ea-b1a9-634b28833f7a,13b51c78-5a1b-11ea-8b0b-236baf6d6657
13a1c7cc-5a1b-11ea-b2fa-abe673dcc6ea,13b53438-5a1b-11ea-9f98-5f8fbd5556da
13a64d4c-5a1b-11ea-bcdb-8316835af12e,13b542c0-5a1b-11ea-80e6-270e63490321
13a6d172-5a1b-11ea-a8b2-1f5e7faefc9d,13b53c8a-5a1b-11ea-9424-4fa510947ac4
13a3a222-5a1b-11ea-b0c7-3fb10fab5388,13b54b4e-5a1b-11ea-adc4-9f0a87fefd17
13a28d38-5a1b-11ea-8a2f-834389587a11,13b554d6-5a1b-11ea-ae37-ab646c08c865
13a495b0-5a1b-11ea-893a-1ba3ba22cc74,13b56ef8-5a1b-11ea-aa8e-4ba043aa30cd
13a3e638-5a1b-11ea-b4e4-53cfb78fde6c,13b5698a-5a1b-11ea-a696-332cb3eb3ba0
13b2146a-5a1b-11ea-8452-9794ea1ee449,13b58154-5a1b-11ea-9b44-0fc78bf92382
13b2146a-5a1b-11ea-8452-9794ea1ee449,13b59978-5a1b-11ea-a4fb-b76e93b9b762
13acb63c-5a1b-11ea-a9f8-a39b116eb44a,13b5baca-5a1b-11ea-b1f2-a33b965e8ca6
13a44722-5a1b-11ea-828a-5739d3b686fb,13b5c0ce-5a1b-11ea-8b41-3f729b9a4071
13ab74e8-5a1b-11ea-b87c-8ba4a80db4de,13b5c858-5a1b-11ea-b0aa-0f2599d3a239
13b10368-5a1b-11ea-8445-830ed16168df,13b5d2b2-5a1b-11ea-baf6-c39971248f5b
13a8045c-5a1b-11ea-9abb-f3585ccdee91,13b5d8b6-5a1b-11ea-bd99-23377956efb9
13a3cb12-5a1b-11ea-8ddf-5f25446b121d,13b5ded8-5a1b-11ea-9505-6b3c2c8ec13d
13b53438-5a1b-11ea-9f98-5f8fbd5556da,13b5efc2-5a1b-11ea-b82f-cfd32448f824
13b3b6b2-5a1b-11ea-9e50-4f1d0d8dc0d3,13b5fd96-5a1b-11ea-ad90-13cb66b724df
13b24aca-5a1b-11ea-ae3a-4b724e56858f,13b62078-5a1b-11ea-8909-f332c961d679
13b0b674-5a1b-11ea-becc-5f4e2fbb3fc1,13b62cbc-5a1b-11ea-991e-5fa4a658ce1f
13a963f6-5a1b-11ea-ac0a-63019e6e2110,13b639aa-5a1b-11ea-8660-bf1785724942
13a457b2-5a1b-11ea-bf19-bbb473466656,13b64544-5a1b-11ea-87d8-1f7fcb5173ac
13a2d752-5a1b-11ea-be98-93a70b0eccb5,13b64bfc-5a1b-11ea-97ff-5ffb8b8fc3a3
13a45fa0-5a1b-11ea-9433-d75af4baedce,13b6546c-5a1b-11ea-a9fc-23aad63577a2
13a7e67a-5a1b-11ea-b9e6-e749bf4299f8,13b65c0a-5a1b-11ea-8159-83bff90b0f1a
13af0766-5a1b-11ea-b8e5-ef80bfde4b46,13b670aa-5a1b-11ea-9a81-3fee1bd18293
13b05b34-5a1b-11ea-93ba-1f6b0e87f3ea,13b687c0-5a1b-11ea-bbfe-e34fb14771aa
13a3e638-5a1b-11ea-b4e4-53cfb78fde6c,13b69382-5a1b-11ea-ada6-fb24cb8dd6d3
13a54b72-5a1b-11ea-a81a-b30b05537090,13b6a16a-5a1b-11ea-b9e3-df474161f9ba
13ae1b8a-5a1b-11ea-9880-97b80a031b82,13b6add6-5a1b-11ea-ac58-67f3ea339ca0
13b3c864-5a1b-11ea-8f37-6f63ecb0b443,13b6baba-5a1b-11ea-a2fd-d39a0eafbb00
13ae3142-5a1b-11ea-9f90-8b103f7975a1,13b6c9b0-5a1b-11ea-bfd2-630a6cf769d7
13b4d696-5a1b-11ea-bdbf-fb2bf50e0500,13b6cf3c-5a1b-11ea-8db2-83b79cf40602
13b4f00e-5a1b-11ea-9e79-c7b04db0fed9,13b6ebca-5a1b-11ea-a943-77cfe626f5bb
13a8e3ae-5a1b-11ea-b38f-9f528ce64f2e,13b6f368-5a1b-11ea-bdc5-9fee662c5c7d
13a495b0-5a1b-11ea-893a-1ba3ba22cc74,13b7059c-5a1b-11ea-a944-d7b6b1c555e7
13b5ded8-5a1b-11ea-9505-6b3c2c8ec13d,13b70ce0-5a1b-11ea-9c83-eb5c0d956e20
13a36c44-5a1b-11ea-b08b-5bd1758d3516,13b71492-5a1b-11ea-8317-273cdb6dbd22
13a4e754-5a1b-11ea-8d2e-03cbca0a3140,13b72194-5a1b-11ea-8ef5-bbb538f2d264
13a86ff0-5a1b-11ea-b9e4-efd7223f080e,13b73274-5a1b-11ea-94eb-47682bd1e9eb
13a9b842-5a1b-11ea-9c7d-af175a2219f7,13b75754-5a1b-11ea-a6e8-63d13cb2ccdf
13a32dd8-5a1b-11ea-9479-7fca152bc5cc,13b75c90-5a1b-11ea-81fb-bb8f09103002
13a7f5f2-5a1b-11ea-9f44-d337df7b3ba3,13b7630c-5a1b-11ea-921b-87b26cc0f868
13a165fc-5a1b-11ea-a4d6-9744ac0ab0c3,13b76dac-5a1b-11ea-82b2-fbec7eb2b3f5
13a3aab0-5a1b-11ea-becf-ffa635939ffd,13b77d6a-5a1b-11ea-bf6e-6b1caf76b25e
13a64d4c-5a1b-11ea-bcdb-8316835af12e,13b78314-5a1b-11ea-b6c5-97d0bac7afe4
13ae6cd4-5a1b-11ea-8ced-df4a03fd329c,13b7920a-5a1b-11ea-a4ba-f3dff2190180
13afa48c-5a1b-11ea-a89b-b3edeba3b413,13b7bc94-5a1b-11ea-8af3-cb2dc879f66c
13aacc1e-5a1b-11ea-a161-afa6ed986695,13b7c8ce-5a1b-11ea-90c7-8fa02c3e4f2f
13a0fbd0-5a1b-11ea-b034-abd86ff2b6c4,13b7cf40-5a1b-11ea-a410-f73e350f38b7
13ae1b8a-5a1b-11ea-9880-97b80a031b82,13b7d882-5a1b-11ea-95e7-53727340ef3f
13ab6476-5a1b-11ea-8830-e31472471974,13b7ea16-5a1b-11ea-9b4e-2f0af3f7afde
13af20a2-5a1b-11ea-9443-47b2d5d46f8d,13b7f97a-5a1b-11ea-af4d-8f903f597c6f
13a9fa78-5a1b-11ea-83e6-9f98ae49d557,13b81fc2-5a1b-11ea-905f-b7078ad57465
13a31140-5a1b-11ea-8046-d70b0b404805,13b826e8-5a1b-11ea-bda3-ebac52aa8efa
13a3aab0-5a1b-11ea-becf-ffa635939ffd,13b83444-5a1b-11ea-b5c6-9faf2346f083
13a526ec-5a1b-11ea-ba58-a389a9d8edf9,13b84024-5a1b-11ea-9b4b-13df84eae89d
13acf2a0-5a1b-11ea-ab3e-83e4481dba49,13b846be-5a1b-11ea-a6cf-ef4c8f7384b4
13aa5982-5a1b-11ea-97ad-33bff76f9afa,13b84ee8-5a1b-11ea-a293-ef6b42fc00ad
13a8e3ae-5a1b-11ea-b38f-9f528ce64f2e,13b854ba-5a1b-11ea-9e18-fb310bf5ec55
13b31ba8-5a1b-11ea-82a6-a743d8ebcdfa,13b85a6e-5a1b-11ea-ac0d-5bcc40346555
13aacc1e-5a1b-11ea-a161-afa6ed986695,13b88e1c-5a1b-11ea-9993-d796360ddb6b
13b29822-5a1b-11ea-b93d-c3b5fa65b19e,13b89e5c-5a1b-11ea-b7fb-dba8e723c0bd
13b6c9b0-5a1b-11ea-bfd2-630a6cf769d7,13b8b572-5a1b-11ea-945b-2ffa037b21e0
13a47148-5a1b-11ea-b148-1f414a9d932c,13b8bed2-5a1b-11ea-a3d8-5bbe1f414831
13b16ac4-5a1b-11ea-a818-a7552fb7b8ff,13b8c6b6-5a1b-11ea-8f86-175b5974814d
13a63a82-5a1b-11ea-bd84-53c1ae3f8039,13b8ab72-5a1b-11ea-8bb9-f3b7d264cfba
13b84024-5a1b-11ea-9b4b-13df84eae89d,13b8cc60-5a1b-11ea-87cf-539094fc9967
13aefc94-5a1b-11ea-a903-7fab08ee5fe4,13b8d25a-5a1b-11ea-9b2b-636058615628
13adb6ae-5a1b-11ea-8805-93810f7cfd1a,13b90dec-5a1b-11ea-b4dc-3706d5be8031
13a3581c-5a1b-11ea-ad59-771eb270a9e9,13b91396-5a1b-11ea-994e-3ff16c3eaa69
13a9a41a-5a1b-11ea-9c5a-d3243e442bd9,13b92138-5a1b-11ea-8ce0-2f2c55912b52
13b4702a-5a1b-11ea-8a3b-27e26c1c2653,13b929b2-5a1b-11ea-b67f-136dc1cc8d59
13adf56a-5a1b-11ea-9564-fff8d83f656f,13b935ba-5a1b-11ea-b2e9-975729ccff92
13a2fdb8-5a1b-11ea-87cf-371903f785c4,13b93c04-5a1b-11ea-8229-afa64223a543
13a3356c-5a1b-11ea-a22f-1fa843098c38,13b941f4-5a1b-11ea-8197-9bafc0770195
13a9f53c-5a1b-11ea-bf76-034083a146ce,13b94898-5a1b-11ea-b9e3-cf54e995db38
13a2994a-5a1b-11ea-a008-87ec28ec4c04,13b97354-5a1b-11ea-95b8-83bedd32b576
13a3d828-5a1b-11ea-b083-eb29f682dc09,13b97c14-5a1b-11ea-b36c-f78ad1e45762
13b8c6b6-5a1b-11ea-8f86-175b5974814d,13b98768-5a1b-11ea-aae5-cfc61762c3ab
13a0e8f2-5a1b-11ea-abc2-f3f96da38dcd,13b99370-5a1b-11ea-9d17-f7c52979057d
13ad8b98-5a1b-11ea-aca4-ab67d267008a,13b9a11c-5a1b-11ea-bdcb-ef917da7da68
13a4e178-5a1b-11ea-8c36-874b921c2214,13b9a6f8-5a1b-11ea-988a-7748648136a3
13a2f214-5a1b-11ea-adf4-d31322593de6,13b9ae00-5a1b-11ea-abbc-cb36d6c31b1c
13aff6e4-5a1b-11ea-afbf-a7cba55d3b34,13b9b42c-5a1b-11ea-943d-cb8f6843e5b6
13b1e99a-5a1b-11ea-9b0a-230d89ee1fb3,13b9d902-5a1b-11ea-8233-fffee936358b
13b3ea1a-5a1b-11ea-aa17-37808762c164,13b9e9d8-5a1b-11ea-8c15-67dec88b4178
13ae1158-5a1b-11ea-b568-731564361155,13b9f5b8-5a1b-11ea-9789-db0845d6bbac
13ab2aba-5a1b-11ea-ba3f-1371c0bdf552,13ba09c2-5a1b-11ea-8ca3-dfc74e0ac257
13a8630c-5a1b-11ea-942d-372b31e14469,13ba10ca-5a1b-11ea-9166-b34d2c0ff204
13a16d86-5a1b-11ea-9f84-47c31cadfec1,13ba193a-5a1b-11ea-83c4-cb37a035721b
13a9fa78-5a1b-11ea-83e6-9f98ae49d557,13ba1ffc-5a1b-11ea-8dc2-d795de8f9121
13b9f5b8-5a1b-11ea-9789-db0845d6bbac,13ba2628-5a1b-11ea-adc4-bb6f2f16b3eb
13a23702-5a1b-11ea-813a-9bca7bf30def,13ba3b68-5a1b-11ea-89c3-ffe3becc1b93
13b4842a-5a1b-11ea-b1a9-634b28833f7a,13ba5f1c-5a1b-11ea-81d7-b7c99744e325
13ad202c-5a1b-11ea-8e2e-4b566d1d6973,13ba733a-5a1b-11ea-b417-1fa1c034135b
13af8a42-5a1b-11ea-8440-fb22f1dc9631,13ba7c40-5a1b-11ea-9692-c7688f4016ef
13b095e0-5a1b-11ea-803a-5728438839c4,13ba899c-5a1b-11ea-9c42-074befb04b2f
13a081be-5a1b-11ea-9ee5-17085fe60df9,13ba9892-5a1b-11ea-b3af-6b409a7ccb8a
13ba899c-5a1b-11ea-9c42-074befb04b2f,13baa38c-5a1b-11ea-8f6a-9f95187dd778
13a15260-5a1b-11ea-823e-0b8cd51765f1,13baa8f0-5a1b-11ea-bc92-17ad882d7722
13a1261e-5a1b-11ea-8753-6b4faeb9463c,13ba9022-5a1b-11ea-ae9e-43c6e43205e2
13a5bfbc-5a1b-11ea-a047-7fe684920dcf,13baef4a-5a1b-11ea-a2cd-23cef9303ef1
13abd528-5a1b-11ea-8dc8-8b6e7afe6910,13baf6a2-5a1b-11ea-bab5-474ece67f151
13b4702a-5a1b-11ea-8a3b-27e26c1c2653,13baff80-5a1b-11ea-a2d7-9f827aaff6ee
13a90230-5a1b-11ea-b748-3bd677802da7,13bb05c0-5a1b-11ea-85b0-779206474176
13b2a542-5a1b-11ea-8b06-8b48f6c70a8a,13bb0dea-5a1b-11ea-9e37-ab72844e2fb0
13adccc0-5a1b-11ea-a697-83f6298f2f93,13bb1ae2-5a1b-11ea-995d-0fe8d466f457
13ba9022-5a1b-11ea-ae9e-43c6e43205e2,13bb20e6-5a1b-11ea-95a0-cf3b910956c1
13a4b036-5a1b-11ea-85f6-2b9fb0c7671c,13bb53b8-5a1b-11ea-ba7b-4bc08eafc79a
13a9fa78-5a1b-11ea-83e6-9f98ae49d557,13bb67d6-5a1b-11ea-882e-6f030ea07ef1
13a9e236-5a1b-11ea-b095-638391d10ce9,13bb7820-5a1b-11ea-9c63-c7e246562e20
13b149ea-5a1b-11ea-a7e0-5756614953f7,13bb7eb0-5a1b-11ea-a915-d31fb65e2139
13b8ab72-5a1b-11ea-8bb9-f3b7d264cfba,13bb88d8-5a1b-11ea-a8f3-23ed1ee3f4a4
13ac0e58-5a1b-11ea-a593-c3b6d6e801f0,13bb9a94-5a1b-11ea-9b03-9fcb8eeca804
13a4d8f4-5a1b-11ea-85d9-17ff4fd496cc,13bba386-5a1b-11ea-9730-bfd8faa32365
13baef4a-5a1b-11ea-a2cd-23cef9303ef1,13bba9a8-5a1b-11ea-ada9-278144d89a7f
13b4e8c0-5a1b-11ea-8c32-9b7eeaa3877f,13bbd9e6-5a1b-11ea-9347-db61df72e15a
13a089fc-5a1b-11ea-a88e-fbf11c8973da,13bbe756-5a1b-11ea-bed1-b3fc46d9c84b
13a2f214-5a1b-11ea-adf4-d31322593de6,13bbf548-5a1b-11ea-b4f1-471d78da6d4a
13a895f2-5a1b-11ea-8f86-c7e1e5afb53a,13bbcdb6-5a1b-11ea-9c22-1bc9dcefc1fb
13a16d86-5a1b-11ea-9f84-47c31cadfec1,13bbfcb4-5a1b-11ea-a1f8-9b8e7e3f8012
13b6cf3c-5a1b-11ea-8db2-83b79cf40602,13bc1212-5a1b-11ea-95e7-d748b4098e4b
13bba9a8-5a1b-11ea-ada9-278144d89a7f,13bc1a50-5a1b-11ea-ac77-475a25bcac66
13b477f0-5a1b-11ea-877d-93454b1bb576,13bc211c-5a1b-11ea-8555-ef3f0ecb344b
13b39290-5a1b-11ea-8b57-f35f7badc163,13bc6500-5a1b-11ea-b4e1-a7109c07ea65
13bbfcb4-5a1b-11ea-a1f8-9b8e7e3f8012,13bc5524-5a1b-11ea-bfc6-3b360de71c98
13b6cf3c-5a1b-11ea-8db2-83b79cf40602,13bc6c6c-5a1b-11ea-93b8-3b010e495b9e
13ba9892-5a1b-11ea-b3af-6b409a7ccb8a,13bc83d2-5a1b-11ea-97b7-9f8c789a7dd8
13a54b72-5a1b-11ea-a81a-b30b05537090,13bc9250-5a1b-11ea-810a-17f46f27e6d1
13b7920a-5a1b-11ea-a4ba-f3dff2190180,13bc98e0-5a1b-11ea-9821-8f4169d0708f
13a16d86-5a1b-11ea-9f84-47c31cadfec1,13bc9f20-5a1b-11ea-a76f-9300dc36741f
13b071d2-5a1b-11ea-b783-47fd8a781dd6,13bca510-5a1b-11ea-aa4e-9762ddb0cf66
13a10fee-5a1b-11ea-bd3b-b78bd6df9a7f,13bcc1b2-5a1b-11ea-b67d-5bbe30e973f9
13aae280-5a1b-11ea-ae0a-a3d96f3e1073,13bcd9a4-5a1b-11ea-8167-e3801fb456b3
13b6c9b0-5a1b-11ea-bfd2-630a6cf769d7,13bcdfda-5a1b-11ea-8e71-a360c62dd52c
13b77d6a-5a1b-11ea-bf6e-6b1caf76b25e,13bced04-5a1b-11ea-a1b3-f7ff6f02ab39
13ae0b18-5a1b-11ea-a3c3-a32e09cc09df,13bd0230-5a1b-11ea-91c0-730d4b20eabf
13a37f4a-5a1b-11ea-8b4e-0f75a0a74a37,13bd0fdc-5a1b-11ea-a74d-1f7e0912c4e3
13aa0702-5a1b-11ea-b780-a3b8348af1ae,13bd1b30-5a1b-11ea-be6e-3f5fd27c71d4
13a963f6-5a1b-11ea-ac0a-63019e6e2110,13bd3200-5a1b-11ea-913d-2fd3e3e5223c
13aea3fc-5a1b-11ea-9e5b-930311a1faec,13bd55b4-5a1b-11ea-b98e-fb4085353deb
13b5d2b2-5a1b-11ea-baf6-c39971248f5b,13bd6c98-5a1b-11ea-a431-dfca1c4c490d
13ba5f1c-5a1b-11ea-81d7-b7c99744e325,13bd73fa-5a1b-11ea-b3e3-1ba185a3a7e6
13a86ff0-5a1b-11ea-b9e4-efd7223f080e,13bd7e68-5a1b-11ea-ae0b-0bf5a0292d28
13ba899c-5a1b-11ea-9c42-074befb04b2f,13bda654-5a1b-11ea-8b1d-f7339e00456b
13b095e0-5a1b-11ea-803a-5728438839c4,13bdb02c-5a1b-11ea-85db-c30173b7cc9c
