RunID,Agent,Age,Created,Inactive,Resources,Reputation,Ability,Que
run-2020-2-18-18-4-14.840626001,AGENT#132790b4-5279-11ea-9eb3-139856b5d562,0,0,0,10,1.0,1.0,0
run-2020-2-18-18-4-14.840626001,AGENT#13279348-5279-11ea-a2d6-df5db7cdb325,0,0,0,10,1.0,1.0,0
run-2020-2-18-18-4-14.840626001,AGENT#1327e820-5279-11ea-8e32-679134aad935,1,0,1,10,1.0,1.0,0
run-2020-2-18-18-4-14.840626001,AGENT#1327efaa-5279-11ea-bfc2-83fff173b461,1,0,1,10,1.0,1.0,0
run-2020-2-18-18-4-14.840626001,AGENT#132795c8-5279-11ea-abae-e7babccce753,2,0,2,10,1.0,1.0,0
run-2020-2-18-18-4-14.840626001,AGENT#1327983e-5279-11ea-b64f-6b6f5e1de703,2,0,2,10,1.0,1.0,0
run-2020-2-18-18-4-14.840626001,AGENT#1327a004-5279-11ea-b018-fbc7dcd8cd29,2,0,2,10,1.0,1.0,0
run-2020-2-18-18-4-14.840626001,AGENT#133b65b2-5279-11ea-8fbe-07f9d31ab6a5,1,1,2,10,1.0,1.0,0
run-2020-2-18-18-4-14.840626001,AGENT#1327eab4-5279-11ea-a6a9-03a947abf53a,3,0,3,10,1.0,1.0,0
run-2020-2-18-18-4-14.840626001,AGENT#1327ed2a-5279-11ea-81ba-f78f3131cc33,3,0,3,10,1.0,1.0,0
run-2020-2-18-18-4-14.840626001,AGENT#13278d76-5279-11ea-af5f-8f3d109aa0ee,4,0,4,10,1.0,1.0,0
run-2020-2-18-18-4-14.840626001,AGENT#133b6382-5279-11ea-9a57-dfb5cea8ed32,3,1,4,10,1.0,1.0,0
run-2020-2-18-18-4-14.840626001,AGENT#13279d84-5279-11ea-8542-3794daba8aea,5,0,5,10,1.0,1.0,0
run-2020-2-18-18-4-14.840626001,AGENT#1344fd98-5279-11ea-b701-039930d5dad8,4,2,6,10,1.0,1.0,0
run-2020-2-18-18-4-14.840626001,AGENT#134504fa-5279-11ea-a22f-d7a34f33df31,4,2,6,10,1.0,1.0,0
run-2020-2-18-18-4-14.840626001,AGENT#1358c9d6-5279-11ea-86fa-13306e843737,1,5,6,10,1.0,1.0,0
run-2020-2-18-18-4-14.840626001,AGENT#1344f960-5279-11ea-abff-5353aefde3a3,5,2,7,10,1.0,1.0,0
run-2020-2-18-18-4-14.840626001,AGENT#134508ce-5279-11ea-9fd5-cf031fd15cb4,5,2,7,10,1.0,1.0,0
run-2020-2-18-18-4-14.840626001,AGENT#13534e66-5279-11ea-be78-b36bdba02d6b,3,4,7,10,1.0,1.0,0
run-2020-2-18-18-4-14.840626001,AGENT#135351ae-5279-11ea-ae02-5f8b290988f2,4,4,8,10,1.0,1.0,0
run-2020-2-18-18-4-14.840626001,AGENT#135d5578-5279-11ea-86c2-cfb4ec3b27f6,2,6,8,10,1.0,1.0,0
run-2020-2-18-18-4-14.840626001,AGENT#135d57e4-5279-11ea-934f-ef0d2376589d,2,6,8,10,1.0,1.0,0
run-2020-2-18-18-4-14.840626001,AGENT#135d5c44-5279-11ea-a708-9b06ea5b69f3,3,6,9,10,1.0,1.0,0
run-2020-2-18-18-4-14.840626001,AGENT#1366ecbe-5279-11ea-8a69-c7e16ce85664,2,9,11,10,1.0,1.0,0
run-2020-2-18-18-4-14.840626001,AGENT#1366f15a-5279-11ea-ab7f-3fa809552607,2,9,11,10,1.0,1.0,0
run-2020-2-18-18-4-14.840626001,AGENT#1360bd76-5279-11ea-8192-53883f0ffdec,5,7,12,10,1.0,1.0,0
run-2020-2-18-18-4-14.840626001,AGENT#1364572e-5279-11ea-a810-db961ccdc54d,4,8,12,10,1.0,1.0,0
run-2020-2-18-18-4-14.840626001,AGENT#136459d6-5279-11ea-980f-d78dcaf610a3,4,8,12,10,1.0,1.0,0
run-2020-2-18-18-4-14.840626001,AGENT#1366ea7a-5279-11ea-97f7-e32bb06cbea4,3,9,12,10,1.0,1.0,0
run-2020-2-18-18-4-14.840626001,AGENT#13695c92-5279-11ea-9883-ffb6623b6735,2,10,12,10,1.0,1.0,0
run-2020-2-18-18-4-14.840626001,AGENT#136b91d8-5279-11ea-a853-6b255c1de09e,1,11,12,10,1.0,1.0,0
run-2020-2-18-18-4-14.840626001,AGENT#1366e84a-5279-11ea-a83d-ebae2f1c0246,4,9,13,10,1.0,1.0,0
run-2020-2-18-18-4-14.840626001,AGENT#13714d58-5279-11ea-adcf-1714a3da73ca,1,14,15,10,1.0,1.0,0
run-2020-2-18-18-4-14.840626001,AGENT#1371418c-5279-11ea-8ea8-3fd3f80551cc,2,14,16,10,1.0,1.0,0
run-2020-2-18-18-4-14.840626001,AGENT#137149a2-5279-11ea-af3d-a74810ef314a,2,14,16,10,1.0,1.0,0
run-2020-2-18-18-4-14.840626001,AGENT#1366ef20-5279-11ea-8ff1-2bf4744a3ca7,9,9,18,10,1.0,1.0,0
run-2020-2-18-18-4-14.840626001,AGENT#1375c338-5279-11ea-b51a-bb6a66756920,2,16,18,10,1.0,1.0,0
run-2020-2-18-18-4-14.840626001,AGENT#1375c608-5279-11ea-a1dd-4776e10709dc,2,16,18,10,1.0,1.0,0
run-2020-2-18-18-4-14.840626001,AGENT#1375cb62-5279-11ea-ba15-470db73c0117,2,16,18,10,1.0,1.0,0
run-2020-2-18-18-4-14.840626001,AGENT#1377afa4-5279-11ea-812b-b3749c8c5d4f,1,17,18,10,1.0,1.0,0
run-2020-2-18-18-4-14.840626001,AGENT#1377bc2e-5279-11ea-8468-0fb41536303d,2,17,19,10,1.0,1.0,0
run-2020-2-18-18-4-14.840626001,AGENT#13796d58-5279-11ea-af86-cf3de24210d9,1,18,19,10,1.0,1.0,0
run-2020-2-18-18-4-14.840626001,AGENT#136954cc-5279-11ea-922b-d38a08bb8b72,10,10,20,10,1.0,1.0,0
run-2020-2-18-18-4-14.840626001,AGENT#1377b86e-5279-11ea-9203-1f4de1785afe,3,17,20,10,1.0,1.0,0
run-2020-2-18-18-4-14.840626001,AGENT#13797014-5279-11ea-b4af-5bd3293c602a,2,18,20,10,1.0,1.0,0
run-2020-2-18-18-4-14.840626001,AGENT#137b0762-5279-11ea-b0ce-f3b404ade9e1,1,19,20,10,1.0,1.0,0
run-2020-2-18-18-4-14.840626001,AGENT#137b0cee-5279-11ea-a5aa-17920d656a56,1,19,20,10,1.0,1.0,0
run-2020-2-18-18-4-14.840626001,AGENT#137b11a8-5279-11ea-955b-bbbfc515c25b,1,19,20,10,1.0,1.0,0
run-2020-2-18-18-4-14.840626001,AGENT#1377b490-5279-11ea-8db2-dbff461ab763,4,17,21,10,1.0,1.0,0
run-2020-2-18-18-4-14.840626001,AGENT#137b0f50-5279-11ea-9a53-dba48cd4cdae,2,19,21,10,1.0,1.0,0
run-2020-2-18-18-4-14.840626001,AGENT#137b13f6-5279-11ea-9cbb-7f435eaf9760,2,19,21,10,1.0,1.0,0
run-2020-2-18-18-4-14.840626001,AGENT#137b166c-5279-11ea-8a3f-9bcf07e82cfc,2,19,21,10,1.0,1.0,0
run-2020-2-18-18-4-14.840626001,AGENT#1377aa9a-5279-11ea-aef3-f3aafc68518f,5,17,22,10,1.0,1.0,0
run-2020-2-18-18-4-14.840626001,AGENT#137b0a5a-5279-11ea-a493-17984d57f4d9,3,19,22,10,1.0,1.0,0
run-2020-2-18-18-4-14.840626001,AGENT#137e274e-5279-11ea-bb21-dbc80b3d2644,1,21,22,10,1.0,1.0,0
run-2020-2-18-18-4-14.840626001,AGENT#137e224e-5279-11ea-86f4-a3c009a8b601,2,21,23,10,1.0,1.0,0
run-2020-2-18-18-4-14.840626001,AGENT#137e24f6-5279-11ea-9de3-c3a69e5ef705,2,21,23,10,1.0,1.0,0
run-2020-2-18-18-4-14.840626001,AGENT#137f7270-5279-11ea-a494-e367ee79378d,3,22,25,10,1.0,1.0,0
run-2020-2-18-18-4-14.840626001,AGENT#13820fe4-5279-11ea-9ce8-b7b1fdd5dafd,1,24,25,10,1.0,1.0,0
run-2020-2-18-18-4-14.840626001,AGENT#13820a9e-5279-11ea-b401-b78313ac811f,2,24,26,10,1.0,1.0,0
run-2020-2-18-18-4-14.840626001,AGENT#13821fb6-5279-11ea-8571-737c92d4b176,2,24,26,10,1.0,1.0,0
run-2020-2-18-18-4-14.840626001,AGENT#13844bd8-5279-11ea-b684-3f4da614a507,1,25,26,10,1.0,1.0,0
run-2020-2-18-18-4-14.840626001,AGENT#137f6fb4-5279-11ea-b69e-ab4ba011f834,5,22,27,10,1.0,1.0,0
run-2020-2-18-18-4-14.840626001,AGENT#1382123c-5279-11ea-894f-8fee0248d13f,3,24,27,10,1.0,1.0,0
run-2020-2-18-18-4-14.840626001,AGENT#138217aa-5279-11ea-ac15-67795a2193f1,3,24,27,10,1.0,1.0,0
run-2020-2-18-18-4-14.840626001,AGENT#13857e4a-5279-11ea-ab86-1fb152f4cf3d,1,26,27,10,1.0,1.0,0
run-2020-2-18-18-4-14.840626001,AGENT#13820d78-5279-11ea-af19-4f47028d2a0b,4,24,28,10,1.0,1.0,0
run-2020-2-18-18-4-14.840626001,AGENT#138214c6-5279-11ea-b647-2747ac4ef40e,4,24,28,10,1.0,1.0,0
run-2020-2-18-18-4-14.840626001,AGENT#138580d4-5279-11ea-bc37-afa183aeea15,2,26,28,10,1.0,1.0,0
run-2020-2-18-18-4-14.840626001,AGENT#1386a3b0-5279-11ea-bcf0-5f221bff00c9,1,27,28,10,1.0,1.0,0
run-2020-2-18-18-4-14.840626001,AGENT#1327a4fa-5279-11ea-8b24-c378e981e77b,30,0,30,10,1.0,1.0,0
run-2020-2-18-18-4-14.840626001,AGENT#1388f6e2-5279-11ea-b997-835110ff70e3,1,29,30,10,1.0,1.0,0
run-2020-2-18-18-4-14.840626001,AGENT#13857bd4-5279-11ea-8d60-8fd9e961fc7d,5,26,31,10,1.0,1.0,0
run-2020-2-18-18-4-14.840626001,AGENT#1385832c-5279-11ea-8cb2-c7f787a9fcfc,5,26,31,10,1.0,1.0,0
run-2020-2-18-18-4-14.840626001,AGENT#1386aac2-5279-11ea-a9e4-1b46b7e27b88,4,27,31,10,1.0,1.0,0
run-2020-2-18-18-4-14.840626001,AGENT#1388f1ba-5279-11ea-ba7d-0bd196473492,2,29,31,10,1.0,1.0,0
run-2020-2-18-18-4-14.840626001,AGENT#1375c8a6-5279-11ea-a1e0-371bfe92b621,16,16,32,10,1.0,1.0,0
run-2020-2-18-18-4-14.840626001,AGENT#138a0e56-5279-11ea-8398-334328864731,2,30,32,10,1.0,1.0,0
run-2020-2-18-18-4-14.840626001,AGENT#138b44ec-5279-11ea-80bb-47414d0bee0e,1,31,32,10,1.0,1.0,0
run-2020-2-18-18-4-14.840626001,AGENT#138b499c-5279-11ea-8cbe-43a653843307,1,31,32,10,1.0,1.0,0
run-2020-2-18-18-4-14.840626001,AGENT#1387c6be-5279-11ea-a87d-2f8aca307c5a,5,28,33,10,1.0,1.0,0
run-2020-2-18-18-4-14.840626001,AGENT#1387c95c-5279-11ea-b79f-9b1819f82ac4,5,28,33,10,1.0,1.0,0
run-2020-2-18-18-4-14.840626001,AGENT#138a0b5e-5279-11ea-aec4-6f278a5a9b4b,3,30,33,10,1.0,1.0,0
run-2020-2-18-18-4-14.840626001,AGENT#138d8bc6-5279-11ea-83cf-b311a65dce75,1,33,34,10,1.0,1.0,0
run-2020-2-18-18-4-14.840626001,AGENT#138d8e0a-5279-11ea-99a8-ebd5b10e0433,1,33,34,10,1.0,1.0,0
run-2020-2-18-18-4-14.840626001,AGENT#1358ce7c-5279-11ea-89e0-f33914d1836d,30,5,35,10,1.0,1.0,0
run-2020-2-18-18-4-14.840626001,AGENT#138c6cdc-5279-11ea-9caf-0378bc87aada,3,32,35,10,1.0,1.0,0
run-2020-2-18-18-4-14.840626001,AGENT#138f99ac-5279-11ea-96f0-73ca4d90a0ad,1,35,36,10,1.0,1.0,0
run-2020-2-18-18-4-14.840626001,AGENT#138f9d80-5279-11ea-af07-b3824259a290,2,35,37,10,1.0,1.0,0
run-2020-2-18-18-4-14.840626001,AGENT#138e80a8-5279-11ea-bf0f-bb7c6269a105,4,34,38,10,1.0,1.0,0
run-2020-2-18-18-4-14.840626001,AGENT#138f957e-5279-11ea-aefc-63f851302bbc,4,35,39,10,1.0,1.0,0
run-2020-2-18-18-4-14.840626001,AGENT#136f7dd4-5279-11ea-bdec-8be15c2893bb,27,13,40,10,1.0,1.0,0
run-2020-2-18-18-4-14.840626001,AGENT#1390af68-5279-11ea-8da1-4f9e9f680e87,4,36,40,10,1.0,1.0,0
run-2020-2-18-18-4-14.840626001,AGENT#1391c56a-5279-11ea-af31-9319923a1d82,3,37,40,10,1.0,1.0,0
run-2020-2-18-18-4-14.840626001,AGENT#1392d1b2-5279-11ea-aba4-27bb79ca2409,2,38,40,10,1.0,1.0,0
run-2020-2-18-18-4-14.840626001,AGENT#1392d41e-5279-11ea-bdbf-9b0f06f20b00,2,38,40,10,1.0,1.0,0
run-2020-2-18-18-4-14.840626001,AGENT#1392dd7e-5279-11ea-ab37-434613c62a59,2,38,40,10,1.0,1.0,0
run-2020-2-18-18-4-14.840626001,AGENT#1373c538-5279-11ea-bef1-c3edc1a5dc9c,26,15,41,10,1.0,1.0,0
run-2020-2-18-18-4-14.840626001,AGENT#1390aa4a-5279-11ea-bb9c-c3112af9a2b4,5,36,41,10,1.0,1.0,0
run-2020-2-18-18-4-14.840626001,AGENT#1390b1d4-5279-11ea-9c5a-47b5b99c041a,5,36,41,10,1.0,1.0,0
run-2020-2-18-18-4-14.840626001,AGENT#1390b42c-5279-11ea-b39d-6f4320002d31,5,36,41,10,1.0,1.0,0
run-2020-2-18-18-4-14.840626001,AGENT#1392cf1e-5279-11ea-87cf-97412c50c0b4,3,38,41,10,1.0,1.0,0
run-2020-2-18-18-4-14.840626001,AGENT#1390acf2-5279-11ea-a23d-278420c03328,6,36,42,10,1.0,1.0,0
run-2020-2-18-18-4-14.840626001,AGENT#1393f358-5279-11ea-8682-8fb369cadf5d,3,39,42,10,1.0,1.0,0
run-2020-2-18-18-4-14.840626001,AGENT#13961bce-5279-11ea-b37b-43f83b45244d,1,41,42,10,1.0,1.0,0
run-2020-2-18-18-4-14.840626001,AGENT#1392db3a-5279-11ea-ba0f-2ba027074ff6,5,38,43,10,1.0,1.0,0
run-2020-2-18-18-4-14.840626001,AGENT#139507f2-5279-11ea-aa6b-5386ef5ebab2,3,40,43,10,1.0,1.0,0
run-2020-2-18-18-4-14.840626001,AGENT#1396194e-5279-11ea-83f9-23939f04db09,2,41,43,10,1.0,1.0,0
run-2020-2-18-18-4-14.840626001,AGENT#13961e26-5279-11ea-907d-a390fd97a6e5,3,41,44,10,1.0,1.0,0
run-2020-2-18-18-4-14.840626001,AGENT#139726cc-5279-11ea-9a76-1342f65c70b6,2,42,44,10,1.0,1.0,0
run-2020-2-18-18-4-14.840626001,AGENT#1327e596-5279-11ea-8203-8f9bedd898f7,45,0,45,10,1.0,1.0,0
run-2020-2-18-18-4-14.840626001,AGENT#13982fb8-5279-11ea-9909-6b863bf9260a,2,43,45,10,1.0,1.0,0
run-2020-2-18-18-4-14.840626001,AGENT#13279ac8-5279-11ea-8910-272a039ce295,46,0,46,10,1.0,1.0,0
run-2020-2-18-18-4-14.840626001,AGENT#138d8982-5279-11ea-bc06-9fc04a464591,13,33,46,10,1.0,1.0,0
run-2020-2-18-18-4-14.840626001,AGENT#1396169c-5279-11ea-a1c6-a70373c2e50a,5,41,46,10,1.0,1.0,0
run-2020-2-18-18-4-14.840626001,AGENT#1396206a-5279-11ea-a3f0-7b9259e2ef09,5,41,46,10,1.0,1.0,0
run-2020-2-18-18-4-14.840626001,AGENT#13450162-5279-11ea-823c-ffbcbf7d23d6,45,2,47,10,1.0,1.0,0
run-2020-2-18-18-4-14.840626001,AGENT#139a4636-5279-11ea-bb36-0f27c974f908,2,45,47,10,1.0,1.0,0
run-2020-2-18-18-4-14.840626001,AGENT#139b2f10-5279-11ea-a0b6-673754b359f2,1,46,47,10,1.0,1.0,0
run-2020-2-18-18-4-14.840626001,AGENT#1327e2da-5279-11ea-ba07-970ae3d90648,48,0,48,10,1.0,1.0,0
run-2020-2-18-18-4-14.840626001,AGENT#134ceabc-5279-11ea-9028-3bdec4cdce7d,45,3,48,10,1.0,1.0,0
run-2020-2-18-18-4-14.840626001,AGENT#139948f8-5279-11ea-a208-3fd0972387d9,4,44,48,10,1.0,1.0,0
run-2020-2-18-18-4-14.840626001,AGENT#139b2a2e-5279-11ea-8da2-9f9c77bc12f2,2,46,48,10,1.0,1.0,0
run-2020-2-18-18-4-14.840626001,AGENT#139c48f0-5279-11ea-ae22-236663374838,1,47,48,10,1.0,1.0,0
run-2020-2-18-18-4-14.840626001,AGENT#139c5142-5279-11ea-b714-833f5cb1cacc,1,47,48,10,1.0,1.0,0
run-2020-2-18-18-4-14.840626001,AGENT#1327a270-5279-11ea-a805-a7f705aa8026,49,0,49,10,1.0,1.0,0
run-2020-2-18-18-4-14.840626001,AGENT#133b610c-5279-11ea-8e79-5f1785f2ba60,48,1,49,10,1.0,1.0,0
run-2020-2-18-18-4-14.840626001,AGENT#139a433e-5279-11ea-af5b-5bfb012b4b0f,4,45,49,10,1.0,1.0,0
run-2020-2-18-18-4-14.840626001,AGENT#139b2ca4-5279-11ea-8153-17c5e5ca07ae,3,46,49,10,1.0,1.0,0
run-2020-2-18-18-4-14.840626001,AGENT#139d9390-5279-11ea-9915-3bcf53b18fd0,1,48,49,10,1.0,1.0,0
run-2020-2-18-18-4-14.840626001,AGENT#139d962e-5279-11ea-99d8-9bf3551de5c0,2,48,50,10,1.0,1.0,0
run-2020-2-18-18-4-14.840626001,AGENT#139d98b8-5279-11ea-803e-b7af07c2248e,2,48,50,10,1.0,1.0,0
run-2020-2-18-18-4-14.840626001,AGENT#139c550c-5279-11ea-856a-c3f034b228f1,4,47,51,10,1.0,1.0,0
run-2020-2-18-18-4-14.840626001,AGENT#139d8e7c-5279-11ea-8179-9316e9937002,3,48,51,10,1.0,1.0,0
run-2020-2-18-18-4-14.840626001,AGENT#139ea1c2-5279-11ea-a428-ffd2e5a082f6,2,49,51,10,1.0,1.0,0
run-2020-2-18-18-4-14.840626001,AGENT#139f9636-5279-11ea-b397-8b2c126e3f26,1,50,51,10,1.0,1.0,0
run-2020-2-18-18-4-14.840626001,AGENT#1358cc2e-5279-11ea-8be7-b3cd663f2f7c,47,5,52,10,1.0,1.0,0
run-2020-2-18-18-4-14.840626001,AGENT#1360b89e-5279-11ea-b573-2be94e12c822,45,7,52,10,1.0,1.0,0
run-2020-2-18-18-4-14.840626001,AGENT#1360bb28-5279-11ea-ab12-a3d7fb34a577,45,7,52,10,1.0,1.0,0
run-2020-2-18-18-4-14.840626001,AGENT#139f98ca-5279-11ea-aab1-9b697c0be2f7,2,50,52,10,1.0,1.0,0
run-2020-2-18-18-4-14.840626001,AGENT#135d5a14-5279-11ea-a902-07779782ffab,47,6,53,10,1.0,1.0,0
run-2020-2-18-18-4-14.840626001,AGENT#139d9106-5279-11ea-89bd-5b864975ff62,5,48,53,10,1.0,1.0,0
run-2020-2-18-18-4-14.840626001,AGENT#139f9b54-5279-11ea-82ef-6723c489af6b,3,50,53,10,1.0,1.0,0
run-2020-2-18-18-4-14.840626001,AGENT#139fa20c-5279-11ea-a09b-eb9221cd08f8,3,50,53,10,1.0,1.0,0
run-2020-2-18-18-4-14.840626001,AGENT#139f9d8e-5279-11ea-83c6-3b0c09fa51be,4,50,54,10,1.0,1.0,0
run-2020-2-18-18-4-14.840626001,AGENT#13a099c8-5279-11ea-95b5-f373edfef18a,3,51,54,10,1.0,1.0,0
run-2020-2-18-18-4-14.840626001,AGENT#13a18f54-5279-11ea-be22-f721eb5d135b,2,52,54,10,1.0,1.0,0
run-2020-2-18-18-4-14.840626001,AGENT#13a18c0c-5279-11ea-be5b-1b11368cd0e0,3,52,55,10,1.0,1.0,0
run-2020-2-18-18-4-14.840626001,AGENT#13a193f0-5279-11ea-bb6b-6b79d9521574,3,52,55,10,1.0,1.0,0
run-2020-2-18-18-4-14.840626001,AGENT#13a3e0a6-5279-11ea-ac04-eb634c491d2c,1,54,55,10,1.0,1.0,0
run-2020-2-18-18-4-14.840626001,AGENT#136957a6-5279-11ea-8f23-2f277b8d827d,46,10,56,10,1.0,1.0,0
run-2020-2-18-18-4-14.840626001,AGENT#13a2ab6e-5279-11ea-897f-6f3fc649c0fa,3,53,56,10,1.0,1.0,0
run-2020-2-18-18-4-14.840626001,AGENT#1366e5de-5279-11ea-a07f-47fc91f5c59d,48,9,57,10,1.0,1.0,0
run-2020-2-18-18-4-14.840626001,AGENT#136b9494-5279-11ea-a2d2-43e4674ccd66,46,11,57,10,1.0,1.0,0
run-2020-2-18-18-4-14.840626001,AGENT#13a2a394-5279-11ea-9385-dfa051cfb2ef,4,53,57,10,1.0,1.0,0
run-2020-2-18-18-4-14.840626001,AGENT#13a2a664-5279-11ea-9796-43f1248c2287,4,53,57,10,1.0,1.0,0
run-2020-2-18-18-4-14.840626001,AGENT#13a3e56a-5279-11ea-a4e8-9f1d6a3735da,3,54,57,10,1.0,1.0,0
run-2020-2-18-18-4-14.840626001,AGENT#13a4e3b6-5279-11ea-be31-8fe551e2773d,2,55,57,10,1.0,1.0,0
run-2020-2-18-18-4-14.840626001,AGENT#136f7b72-5279-11ea-adcb-43d7ff367188,45,13,58,10,1.0,1.0,0
run-2020-2-18-18-4-14.840626001,AGENT#13a5e324-5279-11ea-8896-1b0818f456a0,2,56,58,10,1.0,1.0,0
run-2020-2-18-18-4-14.840626001,AGENT#136db396-5279-11ea-bc08-57c85dbbd731,47,12,59,10,1.0,1.0,0
run-2020-2-18-18-4-14.840626001,AGENT#13a3db9c-5279-11ea-bddd-0feb68ca58d9,5,54,59,10,1.0,1.0,0
run-2020-2-18-18-4-14.840626001,AGENT#13a3de30-5279-11ea-b092-0f6c7e2b5438,5,54,59,10,1.0,1.0,0
run-2020-2-18-18-4-14.840626001,AGENT#13695a3a-5279-11ea-bf50-8ba1eb9a21f7,50,10,60,10,1.0,1.0,0
run-2020-2-18-18-4-14.840626001,AGENT#137150e6-5279-11ea-a6ef-ef15f32d85a0,46,14,60,10,1.0,1.0,0
run-2020-2-18-18-4-14.840626001,AGENT#13a7d5f8-5279-11ea-8ed0-6b72a7ce62c8,2,58,60,10,1.0,1.0,0
run-2020-2-18-18-4-14.840626001,AGENT#13a8f82a-5279-11ea-8a46-eba58123cbff,1,59,60,10,1.0,1.0,0
run-2020-2-18-18-4-14.840626001,AGENT#136f78de-5279-11ea-9b78-abaf16596866,48,13,61,10,1.0,1.0,0
run-2020-2-18-18-4-14.840626001,AGENT#1386a630-5279-11ea-8085-6309dd6a68b1,34,27,61,10,1.0,1.0,0
run-2020-2-18-18-4-14.840626001,AGENT#13a5e5c2-5279-11ea-8de0-a34ef3cb105d,5,56,61,10,1.0,1.0,0
run-2020-2-18-18-4-14.840626001,AGENT#13a8f348-5279-11ea-907e-2f583ddbadef,2,59,61,10,1.0,1.0,0
run-2020-2-18-18-4-14.840626001,AGENT#137145ec-5279-11ea-bdcf-6b78d10a0236,48,14,62,10,1.0,1.0,0
run-2020-2-18-18-4-14.840626001,AGENT#1377a7a2-5279-11ea-9a15-f70fa6851430,45,17,62,10,1.0,1.0,0
run-2020-2-18-18-4-14.840626001,AGENT#13a7d0bc-5279-11ea-b0a6-3b6f87207ef6,4,58,62,10,1.0,1.0,0
run-2020-2-18-18-4-14.840626001,AGENT#13a9ec76-5279-11ea-befa-ab42e429405b,2,60,62,10,1.0,1.0,0
run-2020-2-18-18-4-14.840626001,AGENT#13aaea4a-5279-11ea-b178-abe8ffef2899,1,61,62,10,1.0,1.0,0
run-2020-2-18-18-4-14.840626001,AGENT#13aaeca2-5279-11ea-b341-dfbc391cdfa6,1,61,62,10,1.0,1.0,0
run-2020-2-18-18-4-14.840626001,AGENT#13a7d364-5279-11ea-b80a-fbfe468c54c5,5,58,63,10,1.0,1.0,0
run-2020-2-18-18-4-14.840626001,AGENT#13a9e500-5279-11ea-883c-c7fa83de73a0,3,60,63,10,1.0,1.0,0
run-2020-2-18-18-4-14.840626001,AGENT#13aae798-5279-11ea-b771-a71a050153e2,2,61,63,10,1.0,1.0,0
run-2020-2-18-18-4-14.840626001,AGENT#13ace872-5279-11ea-86b6-7f952446604a,1,63,64,10,1.0,1.0,0
run-2020-2-18-18-4-14.840626001,AGENT#13abd90a-5279-11ea-ab29-b72befc651a7,3,62,65,10,1.0,1.0,0
run-2020-2-18-18-4-14.840626001,AGENT#13abdbe4-5279-11ea-8c77-3320c7c0c10a,3,62,65,10,1.0,1.0,0
run-2020-2-18-18-4-14.840626001,AGENT#13abe076-5279-11ea-93a3-a77fa9ee7278,3,62,65,10,1.0,1.0,0
run-2020-2-18-18-4-14.840626001,AGENT#13aceaca-5279-11ea-95ce-3be1ffba7f59,2,63,65,10,1.0,1.0,0
run-2020-2-18-18-4-14.840626001,AGENT#13972410-5279-11ea-ba5f-03bea67a3b55,24,42,66,10,1.0,1.0,0
run-2020-2-18-18-4-14.840626001,AGENT#13aced0e-5279-11ea-99c3-535a0ee88e49,3,63,66,10,1.0,1.0,0
run-2020-2-18-18-4-14.840626001,AGENT#13ade128-5279-11ea-a400-6f38360cc6e1,2,64,66,10,1.0,1.0,0
run-2020-2-18-18-4-14.840626001,AGENT#137c9af0-5279-11ea-8e35-ff4609f7ab26,47,20,67,10,1.0,1.0,0
run-2020-2-18-18-4-14.840626001,AGENT#13aee5d2-5279-11ea-921a-879a808afd92,2,65,67,10,1.0,1.0,0
run-2020-2-18-18-4-14.840626001,AGENT#13aee866-5279-11ea-941e-cf58d3bb44f5,2,65,67,10,1.0,1.0,0
run-2020-2-18-18-4-14.840626001,AGENT#1380ac58-5279-11ea-9d89-a3653cb6add7,45,23,68,10,1.0,1.0,0
run-2020-2-18-18-4-14.840626001,AGENT#13adda34-5279-11ea-adab-a7fe1e191002,4,64,68,10,1.0,1.0,0
run-2020-2-18-18-4-14.840626001,AGENT#13aeeabe-5279-11ea-a06c-73a25ec2f1f6,3,65,68,10,1.0,1.0,0
run-2020-2-18-18-4-14.840626001,AGENT#13aff238-5279-11ea-a95b-d73ab1730377,2,66,68,10,1.0,1.0,0
run-2020-2-18-18-4-14.840626001,AGENT#13b0ef30-5279-11ea-8372-0b9f77ef15d3,1,67,68,10,1.0,1.0,0
run-2020-2-18-18-4-14.840626001,AGENT#13b0f408-5279-11ea-8728-7bd29bf68207,1,67,68,10,1.0,1.0,0
run-2020-2-18-18-4-14.840626001,AGENT#13b0f656-5279-11ea-bafa-4f1eaa8eccd7,1,67,68,10,1.0,1.0,0
run-2020-2-18-18-4-14.840626001,AGENT#13ade38a-5279-11ea-a744-03622acfcfc5,5,64,69,10,1.0,1.0,0
run-2020-2-18-18-4-14.840626001,AGENT#13b0f1b0-5279-11ea-b9f2-a3859683d2c5,2,67,69,10,1.0,1.0,0
run-2020-2-18-18-4-14.840626001,AGENT#13b1fe16-5279-11ea-9328-57e3f2122051,1,68,69,10,1.0,1.0,0
run-2020-2-18-18-4-14.840626001,AGENT#13b20500-5279-11ea-aeea-5324a7a62ba0,1,68,69,10,1.0,1.0,0
run-2020-2-18-18-4-14.840626001,AGENT#13844944-5279-11ea-827d-c7de4518eec7,45,25,70,10,1.0,1.0,0
run-2020-2-18-18-4-14.840626001,AGENT#13844e4e-5279-11ea-86e4-170590314d7c,45,25,70,10,1.0,1.0,0
run-2020-2-18-18-4-14.840626001,AGENT#13b0fb06-5279-11ea-8bd7-e7dab69da8a8,3,67,70,10,1.0,1.0,0
run-2020-2-18-18-4-14.840626001,AGENT#13b30c16-5279-11ea-80ae-ebbccde1018c,1,69,70,10,1.0,1.0,0
run-2020-2-18-18-4-14.840626001,AGENT#1380af64-5279-11ea-8cb3-0b6867e7904f,48,23,71,10,1.0,1.0,0
run-2020-2-18-18-4-14.840626001,AGENT#13b0f8a4-5279-11ea-aece-cf739ac134b1,4,67,71,10,1.0,1.0,0
run-2020-2-18-18-4-14.840626001,AGENT#13b309be-5279-11ea-9773-8389b1c0b65f,3,69,72,10,1.0,1.0,0
run-2020-2-18-18-4-14.840626001,AGENT#139f9fbe-5279-11ea-a31e-079e524edda0,23,50,73,10,1.0,1.0,0
run-2020-2-18-18-4-14.840626001,AGENT#13b1fb8c-5279-11ea-b34b-cb4fc46ed0a2,5,68,73,10,1.0,1.0,0
run-2020-2-18-18-4-14.840626001,AGENT#13b202c6-5279-11ea-88ac-27da7882eea6,5,68,73,10,1.0,1.0,0
run-2020-2-18-18-4-14.840626001,AGENT#13b30748-5279-11ea-9579-2f203fb2b2a9,4,69,73,10,1.0,1.0,0
run-2020-2-18-18-4-14.840626001,AGENT#13b5221c-5279-11ea-8bab-fbd853f7398d,2,71,73,10,1.0,1.0,0
run-2020-2-18-18-4-14.840626001,AGENT#13b526b8-5279-11ea-aaa8-87fce5748ee5,2,71,73,10,1.0,1.0,0
run-2020-2-18-18-4-14.840626001,AGENT#13b63364-5279-11ea-a2d5-63555306a9f9,1,72,73,10,1.0,1.0,0
run-2020-2-18-18-4-14.840626001,AGENT#13a2add0-5279-11ea-b6f6-bb41cd4289d1,21,53,74,10,1.0,1.0,0
run-2020-2-18-18-4-14.840626001,AGENT#13a3e2fe-5279-11ea-bfd1-5f24c6b8109a,20,54,74,10,1.0,1.0,0
run-2020-2-18-18-4-14.840626001,AGENT#13b31094-5279-11ea-a44a-7b869a6dcdb1,5,69,74,10,1.0,1.0,0
run-2020-2-18-18-4-14.840626001,AGENT#13b528f2-5279-11ea-bce5-b3f675fa16e4,3,71,74,10,1.0,1.0,0
run-2020-2-18-18-4-14.840626001,AGENT#13b62ea0-5279-11ea-bd2c-c7549f775bbb,2,72,74,10,1.0,1.0,0
run-2020-2-18-18-4-14.840626001,AGENT#139d8b98-5279-11ea-b246-2f917f6a2d6f,27,48,75,10,1.0,1.0,0
run-2020-2-18-18-4-14.840626001,AGENT#13b4148a-5279-11ea-bf57-bfb629e99f12,5,70,75,10,1.0,1.0,0
run-2020-2-18-18-4-14.840626001,AGENT#13b635e4-5279-11ea-bbd1-c38df81cacf3,3,72,75,10,1.0,1.0,0
run-2020-2-18-18-4-14.840626001,AGENT#13b855e0-5279-11ea-8818-ff99eafc16f2,1,74,75,10,1.0,1.0,0
run-2020-2-18-18-4-14.840626001,AGENT#138b4294-5279-11ea-844e-63e621706d7d,45,31,76,10,1.0,1.0,0
run-2020-2-18-18-4-14.840626001,AGENT#139e9f38-5279-11ea-91fd-83bbaa26f136,27,49,76,10,1.0,1.0,0
run-2020-2-18-18-4-14.840626001,AGENT#13b6310c-5279-11ea-8b15-a3b6f9173817,4,72,76,10,1.0,1.0,0
run-2020-2-18-18-4-14.840626001,AGENT#13b85360-5279-11ea-83d4-9ffa0119bf79,2,74,76,10,1.0,1.0,0
run-2020-2-18-18-4-14.840626001,AGENT#138b4be0-5279-11ea-984f-e3ca271bdc4c,46,31,77,10,1.0,1.0,0
run-2020-2-18-18-4-14.840626001,AGENT#13b86152-5279-11ea-9608-a724902a23c0,3,74,77,10,1.0,1.0,0
run-2020-2-18-18-4-14.840626001,AGENT#13b97330-5279-11ea-9b76-67f980a87b6e,2,75,77,10,1.0,1.0,0
run-2020-2-18-18-4-14.840626001,AGENT#13b975c4-5279-11ea-868c-2b914419b228,2,75,77,10,1.0,1.0,0
run-2020-2-18-18-4-14.840626001,AGENT#1388f44e-5279-11ea-b6b4-ff43df03939b,49,29,78,10,1.0,1.0,0
run-2020-2-18-18-4-14.840626001,AGENT#138b4744-5279-11ea-aaa9-1ff6ab448f4e,47,31,78,10,1.0,1.0,0
run-2020-2-18-18-4-14.840626001,AGENT#138d84be-5279-11ea-acb3-a73a08e3e0f2,45,33,78,10,1.0,1.0,0
run-2020-2-18-18-4-14.840626001,AGENT#138d873e-5279-11ea-8e2c-3b7471a95b6d,45,33,78,10,1.0,1.0,0
run-2020-2-18-18-4-14.840626001,AGENT#13b9783a-5279-11ea-bca3-b718e8a6bc53,4,75,79,10,1.0,1.0,0
run-2020-2-18-18-4-14.840626001,AGENT#13bb970a-5279-11ea-87c6-2f79df8018dc,2,77,79,10,1.0,1.0,0
run-2020-2-18-18-4-14.840626001,AGENT#13bba164-5279-11ea-9f9e-3f9a61efc64a,2,77,79,10,1.0,1.0,0
run-2020-2-18-18-4-14.840626001,AGENT#138d9076-5279-11ea-92c8-df57741747d7,47,33,80,10,1.0,1.0,0
run-2020-2-18-18-4-14.840626001,AGENT#138fa0e6-5279-11ea-a092-070ce3c335d1,45,35,80,10,1.0,1.0,0
run-2020-2-18-18-4-14.840626001,AGENT#13bcb676-5279-11ea-a7dc-fb42281ff0de,2,78,80,10,1.0,1.0,0
run-2020-2-18-18-4-14.840626001,AGENT#13bdc624-5279-11ea-8097-8725a4d1bf5d,1,79,80,10,1.0,1.0,0
run-2020-2-18-18-4-14.840626001,AGENT#13bdc8d6-5279-11ea-b725-2395deac7998,1,79,80,10,1.0,1.0,0
run-2020-2-18-18-4-14.840626001,AGENT#1386a874-5279-11ea-b2f8-43d889e86723,54,27,81,10,1.0,1.0,0
run-2020-2-18-18-4-14.840626001,AGENT#138e8328-5279-11ea-a595-f38e6fca427a,47,34,81,10,1.0,1.0,0
run-2020-2-18-18-4-14.840626001,AGENT#13b2008c-5279-11ea-bb65-97c09f3743ff,13,68,81,10,1.0,1.0,0
run-2020-2-18-18-4-14.840626001,AGENT#13bb9c1e-5279-11ea-89e5-bf83793b5bc2,4,77,81,10,1.0,1.0,0
run-2020-2-18-18-4-14.840626001,AGENT#13bed29e-5279-11ea-870c-6fc958390012,1,80,81,10,1.0,1.0,0
run-2020-2-18-18-4-14.840626001,AGENT#138c6f48-5279-11ea-8666-eb5816f0c912,50,32,82,10,1.0,1.0,0
run-2020-2-18-18-4-14.840626001,AGENT#13bb9ef8-5279-11ea-9141-1bfefa5563df,5,77,82,10,1.0,1.0,0
run-2020-2-18-18-4-14.840626001,AGENT#13bfe7ce-5279-11ea-84e1-1f85efbac25b,1,81,82,10,1.0,1.0,0
run-2020-2-18-18-4-14.840626001,AGENT#138b3f4c-5279-11ea-a28f-532945fd6ca1,52,31,83,10,1.0,1.0,0
run-2020-2-18-18-4-14.840626001,AGENT#1392d66c-5279-11ea-9fc4-c7d2e89b5925,45,38,83,10,1.0,1.0,0
run-2020-2-18-18-4-14.840626001,AGENT#13c0ea34-5279-11ea-b100-1f023f9b570f,1,82,83,10,1.0,1.0,0
run-2020-2-18-18-4-14.840626001,AGENT#13bfe558-5279-11ea-a6aa-27b970a3e57b,3,81,84,10,1.0,1.0,0
run-2020-2-18-18-4-14.840626001,AGENT#1392d8d8-5279-11ea-ae14-c7a3180a0a55,47,38,85,10,1.0,1.0,0
run-2020-2-18-18-4-14.840626001,AGENT#13a5e8c4-5279-11ea-91de-9797f4e49884,29,56,85,10,1.0,1.0,0
run-2020-2-18-18-4-14.840626001,AGENT#1395055e-5279-11ea-b7ee-172238ad452b,46,40,86,10,1.0,1.0,0
run-2020-2-18-18-4-14.840626001,AGENT#13bfe2ba-5279-11ea-9610-fb68584e9e2a,5,81,86,10,1.0,1.0,0
run-2020-2-18-18-4-14.840626001,AGENT#13c0ecaa-5279-11ea-87e2-937022eee48d,4,82,86,10,1.0,1.0,0
run-2020-2-18-18-4-14.840626001,AGENT#13c0ef48-5279-11ea-ac01-1f6b3fe9e63a,4,82,86,10,1.0,1.0,0
run-2020-2-18-18-4-14.840626001,AGENT#13c4122c-5279-11ea-aea9-cb6a5e67b591,1,85,86,10,1.0,1.0,0
run-2020-2-18-18-4-14.840626001,AGENT#13c1f42e-5279-11ea-a08b-af02c585ef95,4,83,87,10,1.0,1.0,0
run-2020-2-18-18-4-14.840626001,AGENT#13b85a86-5279-11ea-9347-ef0be9af728f,16,74,90,10,1.0,1.0,0
run-2020-2-18-18-4-14.840626001,AGENT#13c414b6-5279-11ea-93eb-7f7cab54a5e6,5,85,90,10,1.0,1.0,0
run-2020-2-18-18-4-14.840626001,AGENT#13c7171a-5279-11ea-977d-4bc4813dd42e,2,88,90,10,1.0,1.0,0
run-2020-2-18-18-4-14.840626001,AGENT#13c61d74-5279-11ea-b3a3-eb228aff56c1,4,87,91,10,1.0,1.0,0
run-2020-2-18-18-4-14.840626001,AGENT#13c71a08-5279-11ea-91a7-1f9192d5066a,3,88,91,10,1.0,1.0,0
run-2020-2-18-18-4-14.840626001,AGENT#13c952dc-5279-11ea-a1b7-7798c3fd309b,1,90,91,10,1.0,1.0,0
run-2020-2-18-18-4-14.840626001,AGENT#13c9553e-5279-11ea-a9e8-2bb9acdfe287,1,90,91,10,1.0,1.0,0
run-2020-2-18-18-4-14.840626001,AGENT#13c94b66-5279-11ea-a5bd-17746c07e235,2,90,92,10,1.0,1.0,0
run-2020-2-18-18-4-14.840626001,AGENT#13c843ec-5279-11ea-a3bf-1b7013666dc7,4,89,93,10,1.0,1.0,0
run-2020-2-18-18-4-14.840626001,AGENT#13c94de6-5279-11ea-a12a-03b32025a64e,3,90,93,10,1.0,1.0,0
run-2020-2-18-18-4-14.840626001,AGENT#139ea424-5279-11ea-97e9-633ca937f6ea,45,49,94,10,1.0,1.0,0
run-2020-2-18-18-4-14.840626001,AGENT#13ca8a62-5279-11ea-9ce1-3f1e2fab95cf,3,91,94,10,1.0,1.0,0
run-2020-2-18-18-4-14.840626001,AGENT#13ca8cf6-5279-11ea-aaf4-4b4500c876df,3,91,94,10,1.0,1.0,0
run-2020-2-18-18-4-14.840626001,AGENT#13cd0238-5279-11ea-959d-5f24969b8346,1,93,94,10,1.0,1.0,0
run-2020-2-18-18-4-14.840626001,AGENT#13c95070-5279-11ea-b1a6-0be517c23bc7,5,90,95,10,1.0,1.0,0
run-2020-2-18-18-4-14.840626001,AGENT#13ca8f4e-5279-11ea-bcf4-2388e9335ca0,4,91,95,10,1.0,1.0,0
run-2020-2-18-18-4-14.840626001,AGENT#13ca91b0-5279-11ea-b45a-cb9dc2c3896d,4,91,95,10,1.0,1.0,0
run-2020-2-18-18-4-14.840626001,AGENT#13cb9f38-5279-11ea-8665-e33b6e9df8dc,3,92,95,10,1.0,1.0,0
run-2020-2-18-18-4-14.840626001,AGENT#13ce5f16-5279-11ea-92b8-475dbbbd6a2e,1,94,95,10,1.0,1.0,0
run-2020-2-18-18-4-14.840626001,AGENT#13ce639e-5279-11ea-b16d-87ae931dc125,1,94,95,10,1.0,1.0,0
run-2020-2-18-18-4-14.840626001,AGENT#139c4d78-5279-11ea-8d67-6ffcd97b5d7e,49,47,96,10,1.0,1.0,0
run-2020-2-18-18-4-14.840626001,AGENT#13cd053a-5279-11ea-a84b-abde753d08ee,3,93,96,10,1.0,1.0,0
run-2020-2-18-18-4-14.840626001,AGENT#13cfa4ac-5279-11ea-ba8c-5bb1d4e892da,1,95,96,10,1.0,1.0,0
run-2020-2-18-18-4-14.840626001,AGENT#13a19198-5279-11ea-a9d2-0f9d09d572cf,45,52,97,10,1.0,1.0,0
run-2020-2-18-18-4-14.840626001,AGENT#13ccf216-5279-11ea-bb88-7771c226e274,4,93,97,10,1.0,1.0,0
run-2020-2-18-18-4-14.840626001,AGENT#13ccfed2-5279-11ea-b5f7-334c6087bb79,4,93,97,10,1.0,1.0,0
run-2020-2-18-18-4-14.840626001,AGENT#13ce57fa-5279-11ea-837e-4b77c006a023,3,94,97,10,1.0,1.0,0
run-2020-2-18-18-4-14.840626001,AGENT#13ce615a-5279-11ea-90e0-c3b455735e9b,3,94,97,10,1.0,1.0,0
run-2020-2-18-18-4-14.840626001,AGENT#13d0dbb0-5279-11ea-80ea-bfc27a10ee3e,1,96,97,10,1.0,1.0,0
run-2020-2-18-18-4-14.840626001,AGENT#13ce5a7a-5279-11ea-84a2-eb2b3e86a3ba,4,94,98,10,1.0,1.0,0
run-2020-2-18-18-4-14.840626001,AGENT#13d0de12-5279-11ea-a491-67356d83625e,2,96,98,10,1.0,1.0,0
run-2020-2-18-18-4-14.840626001,AGENT#13d209d6-5279-11ea-975c-17e1c20a683f,1,97,98,10,1.0,1.0,0
run-2020-2-18-18-4-14.840626001,AGENT#13a2a8d0-5279-11ea-8d9e-d317cc576e66,46,53,99,10,1.0,1.0,0
run-2020-2-18-18-4-14.840626001,AGENT#13ba8810-5279-11ea-b270-7f837fbf6c2d,23,76,99,10,1.0,1.0,0
run-2020-2-18-18-4-14.840626001,AGENT#13bcb3e2-5279-11ea-9997-dbbc290f19e5,21,78,99,10,1.0,1.0,0
run-2020-2-18-18-4-14.840626001,AGENT#13cf9fa2-5279-11ea-9a35-93801b3f3fbe,4,95,99,10,1.0,1.0,0
run-2020-2-18-18-4-14.840626001,AGENT#13d0d908-5279-11ea-9e2c-4fa89c3a4542,3,96,99,10,1.0,1.0,0
