RunID,Tick,ActiveAgentsPerTick
run-2020-2-17-18-28-22.326605081,0,11
run-2020-2-17-18-28-22.326605081,1,18
run-2020-2-17-18-28-22.326605081,2,21
run-2020-2-17-18-28-22.326605081,3,29
run-2020-2-17-18-28-22.326605081,4,30
run-2020-2-17-18-28-22.326605081,5,31
run-2020-2-17-18-28-22.326605081,6,28
run-2020-2-17-18-28-22.326605081,7,26
run-2020-2-17-18-28-22.326605081,8,25
run-2020-2-17-18-28-22.326605081,9,24
run-2020-2-17-18-28-22.326605081,10,29
run-2020-2-17-18-28-22.326605081,11,27
run-2020-2-17-18-28-22.326605081,12,30
run-2020-2-17-18-28-22.326605081,13,30
run-2020-2-17-18-28-22.326605081,14,32
run-2020-2-17-18-28-22.326605081,15,31
run-2020-2-17-18-28-22.326605081,16,34
run-2020-2-17-18-28-22.326605081,17,33
run-2020-2-17-18-28-22.326605081,18,37
run-2020-2-17-18-28-22.326605081,19,40
run-2020-2-17-18-28-22.326605081,20,39
run-2020-2-17-18-28-22.326605081,21,41
run-2020-2-17-18-28-22.326605081,22,40
run-2020-2-17-18-28-22.326605081,23,41
run-2020-2-17-18-28-22.326605081,24,41
run-2020-2-17-18-28-22.326605081,25,41
run-2020-2-17-18-28-22.326605081,26,42
run-2020-2-17-18-28-22.326605081,27,43
run-2020-2-17-18-28-22.326605081,28,48
run-2020-2-17-18-28-22.326605081,29,54
run-2020-2-17-18-28-22.326605081,30,49
run-2020-2-17-18-28-22.326605081,31,49
run-2020-2-17-18-28-22.326605081,32,55
run-2020-2-17-18-28-22.326605081,33,52
run-2020-2-17-18-28-22.326605081,34,54
run-2020-2-17-18-28-22.326605081,35,58
run-2020-2-17-18-28-22.326605081,36,57
run-2020-2-17-18-28-22.326605081,37,55
run-2020-2-17-18-28-22.326605081,38,57
run-2020-2-17-18-28-22.326605081,39,62
run-2020-2-17-18-28-22.326605081,40,62
run-2020-2-17-18-28-22.326605081,41,62
run-2020-2-17-18-28-22.326605081,42,63
run-2020-2-17-18-28-22.326605081,43,68
run-2020-2-17-18-28-22.326605081,44,70
run-2020-2-17-18-28-22.326605081,45,69
run-2020-2-17-18-28-22.326605081,46,65
run-2020-2-17-18-28-22.326605081,47,57
run-2020-2-17-18-28-22.326605081,48,58
run-2020-2-17-18-28-22.326605081,49,56
run-2020-2-17-18-28-22.326605081,50,55
run-2020-2-17-18-28-22.326605081,51,59
run-2020-2-17-18-28-22.326605081,52,60
run-2020-2-17-18-28-22.326605081,53,63
run-2020-2-17-18-28-22.326605081,54,64
run-2020-2-17-18-28-22.326605081,55,61
run-2020-2-17-18-28-22.326605081,56,65
run-2020-2-17-18-28-22.326605081,57,57
run-2020-2-17-18-28-22.326605081,58,58
run-2020-2-17-18-28-22.326605081,59,56
run-2020-2-17-18-28-22.326605081,60,57
run-2020-2-17-18-28-22.326605081,61,57
run-2020-2-17-18-28-22.326605081,62,56
run-2020-2-17-18-28-22.326605081,63,50
run-2020-2-17-18-28-22.326605081,64,52
run-2020-2-17-18-28-22.326605081,65,54
run-2020-2-17-18-28-22.326605081,66,50
run-2020-2-17-18-28-22.326605081,67,51
run-2020-2-17-18-28-22.326605081,68,55
run-2020-2-17-18-28-22.326605081,69,55
run-2020-2-17-18-28-22.326605081,70,52
run-2020-2-17-18-28-22.326605081,71,51
run-2020-2-17-18-28-22.326605081,72,48
run-2020-2-17-18-28-22.326605081,73,48
run-2020-2-17-18-28-22.326605081,74,49
run-2020-2-17-18-28-22.326605081,75,50
run-2020-2-17-18-28-22.326605081,76,50
run-2020-2-17-18-28-22.326605081,77,49
run-2020-2-17-18-28-22.326605081,78,49
run-2020-2-17-18-28-22.326605081,79,50
run-2020-2-17-18-28-22.326605081,80,48
run-2020-2-17-18-28-22.326605081,81,52
run-2020-2-17-18-28-22.326605081,82,54
run-2020-2-17-18-28-22.326605081,83,55
run-2020-2-17-18-28-22.326605081,84,58
run-2020-2-17-18-28-22.326605081,85,51
run-2020-2-17-18-28-22.326605081,86,45
run-2020-2-17-18-28-22.326605081,87,46
run-2020-2-17-18-28-22.326605081,88,45
run-2020-2-17-18-28-22.326605081,89,49
run-2020-2-17-18-28-22.326605081,90,53
run-2020-2-17-18-28-22.326605081,91,52
run-2020-2-17-18-28-22.326605081,92,51
run-2020-2-17-18-28-22.326605081,93,53
run-2020-2-17-18-28-22.326605081,94,55
run-2020-2-17-18-28-22.326605081,95,52
run-2020-2-17-18-28-22.326605081,96,49
run-2020-2-17-18-28-22.326605081,97,50
run-2020-2-17-18-28-22.326605081,98,44
run-2020-2-17-18-28-22.326605081,99,42
run-2020-2-17-18-28-22.326605081,100,41
