RunID,AgentID,Tick,Created,Ressources,Reputation,Ability,Que,Action
run-2020-6-11-13-20-45.088315963,AGENT785b0076-abe6-11ea-b5c2-20c9d0446113,136,135,10,1.0,0.9,0,funding
run-2020-6-11-13-20-45.088315963,AGENT785b0076-abe6-11ea-b5c2-20c9d0446113,138,135,22,1.0,0.9,0,funding
run-2020-6-11-13-20-45.088315963,AGENT785b0076-abe6-11ea-b5c2-20c9d0446113,140,135,20,1.0,0.9,3,experiment
run-2020-6-11-13-20-45.088315963,AGENT785b0076-abe6-11ea-b5c2-20c9d0446113,141,135,18,1.0,0.9,2,experiment
run-2020-6-11-13-20-45.088315963,AGENT785b0076-abe6-11ea-b5c2-20c9d0446113,142,135,16,1.0,0.9,1,experiment
