RunID,AgentID,Tick,Created,Ressources,Reputation,Ability,Que,Action
run-2020-6-11-13-20-45.088315963,AGENT6c905156-abe6-11ea-943b-20c9d0446113,101,100,20,1.0,0.5,0,funding
run-2020-6-11-13-20-45.088315963,AGENT6c905156-abe6-11ea-943b-20c9d0446113,103,100,18,1.0,0.5,4,experiment
run-2020-6-11-13-20-45.088315963,AGENT6c905156-abe6-11ea-943b-20c9d0446113,104,100,16,1.0,0.5,3,experiment
run-2020-6-11-13-20-45.088315963,AGENT6c905156-abe6-11ea-943b-20c9d0446113,105,100,15,1.0,0.5,2,experiment
run-2020-6-11-13-20-45.088315963,AGENT6c905156-abe6-11ea-943b-20c9d0446113,106,100,14,1.0,0.5,1,experiment
run-2020-6-11-13-20-45.088315963,AGENT6c905156-abe6-11ea-943b-20c9d0446113,107,100,12,1.0,0.5,0,experiment
run-2020-6-11-13-20-45.088315963,AGENT6c905156-abe6-11ea-943b-20c9d0446113,109,100,11,1.0,0.5,3,experiment
run-2020-6-11-13-20-45.088315963,AGENT6c905156-abe6-11ea-943b-20c9d0446113,110,100,10,1.0,0.5,2,experiment
run-2020-6-11-13-20-45.088315963,AGENT6c905156-abe6-11ea-943b-20c9d0446113,111,100,8,1.0,0.5,1,experiment
run-2020-6-11-13-20-45.088315963,AGENT6c905156-abe6-11ea-943b-20c9d0446113,112,100,7,1.0,0.5,0,experiment
run-2020-6-11-13-20-45.088315963,AGENT6c905156-abe6-11ea-943b-20c9d0446113,114,100,17,1.0,0.5,0,funding
run-2020-6-11-13-20-45.088315963,AGENT6c905156-abe6-11ea-943b-20c9d0446113,116,100,16,1.0,0.5,3,experiment
run-2020-6-11-13-20-45.088315963,AGENT6c905156-abe6-11ea-943b-20c9d0446113,117,100,14,1.0,0.5,2,experiment
run-2020-6-11-13-20-45.088315963,AGENT6c905156-abe6-11ea-943b-20c9d0446113,118,100,12,1.0,0.5,1,experiment
run-2020-6-11-13-20-45.088315963,AGENT6c905156-abe6-11ea-943b-20c9d0446113,119,100,10,1.0,0.5,0,experiment
run-2020-6-11-13-20-45.088315963,AGENT6c905156-abe6-11ea-943b-20c9d0446113,121,100,22,1.0,0.5,0,funding
run-2020-6-11-13-20-45.088315963,AGENT6c905156-abe6-11ea-943b-20c9d0446113,123,100,21,1.0,0.5,3,experiment
run-2020-6-11-13-20-45.088315963,AGENT6c905156-abe6-11ea-943b-20c9d0446113,124,100,19,1.0,0.5,2,experiment
run-2020-6-11-13-20-45.088315963,AGENT6c905156-abe6-11ea-943b-20c9d0446113,125,100,18,1.0,0.5,1,experiment
run-2020-6-11-13-20-45.088315963,AGENT6c905156-abe6-11ea-943b-20c9d0446113,126,100,16,1.0,0.5,0,experiment
run-2020-6-11-13-20-45.088315963,AGENT6c905156-abe6-11ea-943b-20c9d0446113,128,100,15,1.0,0.5,3,experiment
run-2020-6-11-13-20-45.088315963,AGENT6c905156-abe6-11ea-943b-20c9d0446113,129,100,14,1.0,0.5,2,experiment
run-2020-6-11-13-20-45.088315963,AGENT6c905156-abe6-11ea-943b-20c9d0446113,130,100,12,1.0,0.5,1,experiment
run-2020-6-11-13-20-45.088315963,AGENT6c905156-abe6-11ea-943b-20c9d0446113,131,100,10,1.0,0.5,0,experiment
run-2020-6-11-13-20-45.088315963,AGENT6c905156-abe6-11ea-943b-20c9d0446113,133,100,8,1.0,0.5,0,funding
run-2020-6-11-13-20-45.088315963,AGENT6c905156-abe6-11ea-943b-20c9d0446113,135,100,6,1.0,0.5,0,funding
run-2020-6-11-13-20-45.088315963,AGENT6c905156-abe6-11ea-943b-20c9d0446113,137,100,5,1.0,0.5,0,funding
run-2020-6-11-13-20-45.088315963,AGENT6c905156-abe6-11ea-943b-20c9d0446113,139,100,6,1.0,0.5,0,funding
run-2020-6-11-13-20-45.088315963,AGENT6c905156-abe6-11ea-943b-20c9d0446113,141,100,3,1.0,0.5,0,funding
run-2020-6-11-13-20-45.088315963,AGENT6c905156-abe6-11ea-943b-20c9d0446113,143,100,14,1.0,0.5,0,funding
