RunID,AgentID,Tick,Created,Ressources,Reputation,Ability,Que,Action
run-2020-6-11-13-20-45.088315963,AGENT705ee50e-abe6-11ea-af89-20c9d0446113,110,109,10,1.0,0.2,0,funding
run-2020-6-11-13-20-45.088315963,AGENT705ee50e-abe6-11ea-af89-20c9d0446113,112,109,12,1.0,0.2,0,funding
run-2020-6-11-13-20-45.088315963,AGENT705ee50e-abe6-11ea-af89-20c9d0446113,114,109,11,1.0,0.2,3,experiment
run-2020-6-11-13-20-45.088315963,AGENT705ee50e-abe6-11ea-af89-20c9d0446113,115,109,10,1.0,0.2,2,experiment
run-2020-6-11-13-20-45.088315963,AGENT705ee50e-abe6-11ea-af89-20c9d0446113,116,109,9,1.0,0.2,1,experiment
run-2020-6-11-13-20-45.088315963,AGENT705ee50e-abe6-11ea-af89-20c9d0446113,117,109,8,1.0,0.2,0,experiment
run-2020-6-11-13-20-45.088315963,AGENT705ee50e-abe6-11ea-af89-20c9d0446113,119,109,16,1.0,0.2,0,funding
run-2020-6-11-13-20-45.088315963,AGENT705ee50e-abe6-11ea-af89-20c9d0446113,121,109,14,1.0,0.2,4,experiment
run-2020-6-11-13-20-45.088315963,AGENT705ee50e-abe6-11ea-af89-20c9d0446113,122,109,13,1.0,0.2,3,experiment
run-2020-6-11-13-20-45.088315963,AGENT705ee50e-abe6-11ea-af89-20c9d0446113,123,109,11,1.0,0.2,2,experiment
run-2020-6-11-13-20-45.088315963,AGENT705ee50e-abe6-11ea-af89-20c9d0446113,124,109,10,1.0,0.2,1,experiment
run-2020-6-11-13-20-45.088315963,AGENT705ee50e-abe6-11ea-af89-20c9d0446113,125,109,8,1.0,0.2,0,experiment
run-2020-6-11-13-20-45.088315963,AGENT705ee50e-abe6-11ea-af89-20c9d0446113,127,109,16,1.0,0.2,0,funding
run-2020-6-11-13-20-45.088315963,AGENT705ee50e-abe6-11ea-af89-20c9d0446113,129,109,14,1.0,0.2,4,experiment
run-2020-6-11-13-20-45.088315963,AGENT705ee50e-abe6-11ea-af89-20c9d0446113,130,109,13,1.0,0.2,3,experiment
run-2020-6-11-13-20-45.088315963,AGENT705ee50e-abe6-11ea-af89-20c9d0446113,131,109,11,1.0,0.2,2,experiment
run-2020-6-11-13-20-45.088315963,AGENT705ee50e-abe6-11ea-af89-20c9d0446113,132,109,9,1.0,0.2,1,experiment
run-2020-6-11-13-20-45.088315963,AGENT705ee50e-abe6-11ea-af89-20c9d0446113,133,109,7,1.0,0.2,0,experiment
run-2020-6-11-13-20-45.088315963,AGENT705ee50e-abe6-11ea-af89-20c9d0446113,135,109,24,1.0,0.2,0,funding
run-2020-6-11-13-20-45.088315963,AGENT705ee50e-abe6-11ea-af89-20c9d0446113,137,109,23,1.0,0.2,2,experiment
run-2020-6-11-13-20-45.088315963,AGENT705ee50e-abe6-11ea-af89-20c9d0446113,138,109,22,1.0,0.2,1,experiment
run-2020-6-11-13-20-45.088315963,AGENT705ee50e-abe6-11ea-af89-20c9d0446113,139,109,20,1.0,0.2,0,experiment
run-2020-6-11-13-20-45.088315963,AGENT705ee50e-abe6-11ea-af89-20c9d0446113,141,109,18,1.0,0.2,4,experiment
run-2020-6-11-13-20-45.088315963,AGENT705ee50e-abe6-11ea-af89-20c9d0446113,142,109,16,1.0,0.2,3,experiment
