RunID,AgentID,Tick,Created,Ressources,Reputation,Ability,Que,Action
run-2020-6-11-13-20-45.088315963,AGENT70ea743e-abe6-11ea-b2e2-20c9d0446113,112,111,20,1.0,0.1,0,funding
run-2020-6-11-13-20-45.088315963,AGENT70ea743e-abe6-11ea-b2e2-20c9d0446113,114,111,18,1.0,0.1,2,experiment
run-2020-6-11-13-20-45.088315963,AGENT70ea743e-abe6-11ea-b2e2-20c9d0446113,115,111,16,1.0,0.1,1,experiment
run-2020-6-11-13-20-45.088315963,AGENT70ea743e-abe6-11ea-b2e2-20c9d0446113,116,111,15,1.0,0.1,0,experiment
run-2020-6-11-13-20-45.088315963,AGENT70ea743e-abe6-11ea-b2e2-20c9d0446113,118,111,13,1.0,0.1,4,experiment
run-2020-6-11-13-20-45.088315963,AGENT70ea743e-abe6-11ea-b2e2-20c9d0446113,119,111,11,1.0,0.1,3,experiment
run-2020-6-11-13-20-45.088315963,AGENT70ea743e-abe6-11ea-b2e2-20c9d0446113,120,111,10,1.0,0.1,2,experiment
run-2020-6-11-13-20-45.088315963,AGENT70ea743e-abe6-11ea-b2e2-20c9d0446113,121,111,9,1.0,0.1,1,experiment
run-2020-6-11-13-20-45.088315963,AGENT70ea743e-abe6-11ea-b2e2-20c9d0446113,122,111,8,1.0,0.1,0,experiment
run-2020-6-11-13-20-45.088315963,AGENT70ea743e-abe6-11ea-b2e2-20c9d0446113,124,111,15,1.0,0.1,0,funding
run-2020-6-11-13-20-45.088315963,AGENT70ea743e-abe6-11ea-b2e2-20c9d0446113,126,111,14,1.0,0.1,3,experiment
run-2020-6-11-13-20-45.088315963,AGENT70ea743e-abe6-11ea-b2e2-20c9d0446113,127,111,12,1.0,0.1,2,experiment
run-2020-6-11-13-20-45.088315963,AGENT70ea743e-abe6-11ea-b2e2-20c9d0446113,128,111,11,1.0,0.1,1,experiment
run-2020-6-11-13-20-45.088315963,AGENT70ea743e-abe6-11ea-b2e2-20c9d0446113,129,111,10,1.0,0.1,0,experiment
run-2020-6-11-13-20-45.088315963,AGENT70ea743e-abe6-11ea-b2e2-20c9d0446113,131,111,10,1.0,0.1,0,funding
run-2020-6-11-13-20-45.088315963,AGENT70ea743e-abe6-11ea-b2e2-20c9d0446113,133,111,14,1.0,0.1,0,funding
run-2020-6-11-13-20-45.088315963,AGENT70ea743e-abe6-11ea-b2e2-20c9d0446113,135,111,13,1.0,0.1,4,experiment
run-2020-6-11-13-20-45.088315963,AGENT70ea743e-abe6-11ea-b2e2-20c9d0446113,136,111,12,1.0,0.1,3,experiment
run-2020-6-11-13-20-45.088315963,AGENT70ea743e-abe6-11ea-b2e2-20c9d0446113,137,111,10,1.0,0.1,2,experiment
run-2020-6-11-13-20-45.088315963,AGENT70ea743e-abe6-11ea-b2e2-20c9d0446113,138,111,8,1.0,0.1,1,experiment
run-2020-6-11-13-20-45.088315963,AGENT70ea743e-abe6-11ea-b2e2-20c9d0446113,139,111,6,1.0,0.1,0,experiment
run-2020-6-11-13-20-45.088315963,AGENT70ea743e-abe6-11ea-b2e2-20c9d0446113,141,111,21,1.0,0.1,0,funding
