RunID,AgentID,Tick,Created,Ressources,Reputation,Ability,Que,Action
run-2020-6-11-13-20-45.088315963,AGENT7390580c-abe6-11ea-a3ce-20c9d0446113,122,121,10,1.0,0.8,0,funding
run-2020-6-11-13-20-45.088315963,AGENT7390580c-abe6-11ea-a3ce-20c9d0446113,124,121,14,1.0,0.8,0,funding
run-2020-6-11-13-20-45.088315963,AGENT7390580c-abe6-11ea-a3ce-20c9d0446113,126,121,13,1.0,0.8,4,experiment
run-2020-6-11-13-20-45.088315963,AGENT7390580c-abe6-11ea-a3ce-20c9d0446113,127,121,12,1.0,0.8,3,experiment
run-2020-6-11-13-20-45.088315963,AGENT7390580c-abe6-11ea-a3ce-20c9d0446113,128,121,10,1.0,0.8,2,experiment
run-2020-6-11-13-20-45.088315963,AGENT7390580c-abe6-11ea-a3ce-20c9d0446113,129,121,9,1.0,0.8,1,experiment
run-2020-6-11-13-20-45.088315963,AGENT7390580c-abe6-11ea-a3ce-20c9d0446113,130,121,8,1.0,0.8,0,experiment
run-2020-6-11-13-20-45.088315963,AGENT7390580c-abe6-11ea-a3ce-20c9d0446113,132,121,25,1.0,0.8,0,funding
run-2020-6-11-13-20-45.088315963,AGENT7390580c-abe6-11ea-a3ce-20c9d0446113,134,121,23,1.0,0.8,2,experiment
run-2020-6-11-13-20-45.088315963,AGENT7390580c-abe6-11ea-a3ce-20c9d0446113,135,121,22,1.0,0.8,1,experiment
run-2020-6-11-13-20-45.088315963,AGENT7390580c-abe6-11ea-a3ce-20c9d0446113,136,121,20,1.0,0.8,0,experiment
run-2020-6-11-13-20-45.088315963,AGENT7390580c-abe6-11ea-a3ce-20c9d0446113,138,121,18,1.0,0.8,3,experiment
run-2020-6-11-13-20-45.088315963,AGENT7390580c-abe6-11ea-a3ce-20c9d0446113,139,121,17,1.0,0.8,2,experiment
run-2020-6-11-13-20-45.088315963,AGENT7390580c-abe6-11ea-a3ce-20c9d0446113,140,121,16,1.0,0.8,1,experiment
run-2020-6-11-13-20-45.088315963,AGENT7390580c-abe6-11ea-a3ce-20c9d0446113,141,121,15,1.0,0.8,0,experiment
