RunID,AgentID,Tick,Created,Ressources,Reputation,Ability,Que,Action
run-2020-6-11-13-20-45.088315963,AGENT73de0bf6-abe6-11ea-8439-20c9d0446113,123,122,23,1.0,0.6,0,funding
run-2020-6-11-13-20-45.088315963,AGENT73de0bf6-abe6-11ea-8439-20c9d0446113,125,122,22,1.0,0.6,3,experiment
run-2020-6-11-13-20-45.088315963,AGENT73de0bf6-abe6-11ea-8439-20c9d0446113,126,122,21,1.0,0.6,2,experiment
run-2020-6-11-13-20-45.088315963,AGENT73de0bf6-abe6-11ea-8439-20c9d0446113,127,122,19,1.0,0.6,1,experiment
run-2020-6-11-13-20-45.088315963,AGENT73de0bf6-abe6-11ea-8439-20c9d0446113,128,122,18,1.0,0.6,0,experiment
run-2020-6-11-13-20-45.088315963,AGENT73de0bf6-abe6-11ea-8439-20c9d0446113,130,122,16,1.0,0.6,2,experiment
run-2020-6-11-13-20-45.088315963,AGENT73de0bf6-abe6-11ea-8439-20c9d0446113,131,122,14,1.0,0.6,1,experiment
run-2020-6-11-13-20-45.088315963,AGENT73de0bf6-abe6-11ea-8439-20c9d0446113,132,122,13,1.0,0.6,0,experiment
run-2020-6-11-13-20-45.088315963,AGENT73de0bf6-abe6-11ea-8439-20c9d0446113,134,122,12,1.0,0.6,2,experiment
run-2020-6-11-13-20-45.088315963,AGENT73de0bf6-abe6-11ea-8439-20c9d0446113,135,122,11,1.0,0.6,1,experiment
run-2020-6-11-13-20-45.088315963,AGENT73de0bf6-abe6-11ea-8439-20c9d0446113,136,122,10,1.0,0.6,0,experiment
run-2020-6-11-13-20-45.088315963,AGENT73de0bf6-abe6-11ea-8439-20c9d0446113,138,122,19,1.0,0.6,0,funding
run-2020-6-11-13-20-45.088315963,AGENT73de0bf6-abe6-11ea-8439-20c9d0446113,140,122,18,1.0,0.6,4,experiment
run-2020-6-11-13-20-45.088315963,AGENT73de0bf6-abe6-11ea-8439-20c9d0446113,141,122,16,1.0,0.6,3,experiment
run-2020-6-11-13-20-45.088315963,AGENT73de0bf6-abe6-11ea-8439-20c9d0446113,142,122,14,1.0,0.6,2,experiment
