RunID,AgentID,Tick,Created,Ressources,Reputation,Ability,Que,Action
run-2020-6-11-13-20-45.088315963,AGENT7859c0da-abe6-11ea-b099-20c9d0446113,136,135,6,1.0,0.9,0,funding
run-2020-6-11-13-20-45.088315963,AGENT7859c0da-abe6-11ea-b099-20c9d0446113,138,135,15,1.0,0.9,0,funding
run-2020-6-11-13-20-45.088315963,AGENT7859c0da-abe6-11ea-b099-20c9d0446113,140,135,14,1.0,0.9,2,experiment
run-2020-6-11-13-20-45.088315963,AGENT7859c0da-abe6-11ea-b099-20c9d0446113,141,135,12,1.0,0.9,1,experiment
run-2020-6-11-13-20-45.088315963,AGENT7859c0da-abe6-11ea-b099-20c9d0446113,142,135,10,1.0,0.9,0,experiment
