RunID,AgentID,Tick,Created,Ressources,Reputation,Ability,Que,Action
run-2020-6-11-13-20-45.088315963,AGENT6f273060-abe6-11ea-8c94-20c9d0446113,105,104,19,1.0,0.2,0,funding
run-2020-6-11-13-20-45.088315963,AGENT6f273060-abe6-11ea-8c94-20c9d0446113,107,104,17,1.0,0.2,2,experiment
run-2020-6-11-13-20-45.088315963,AGENT6f273060-abe6-11ea-8c94-20c9d0446113,108,104,16,1.0,0.2,1,experiment
run-2020-6-11-13-20-45.088315963,AGENT6f273060-abe6-11ea-8c94-20c9d0446113,109,104,15,1.0,0.2,0,experiment
run-2020-6-11-13-20-45.088315963,AGENT6f273060-abe6-11ea-8c94-20c9d0446113,111,104,14,1.0,0.2,2,experiment
run-2020-6-11-13-20-45.088315963,AGENT6f273060-abe6-11ea-8c94-20c9d0446113,112,104,12,1.0,0.2,1,experiment
run-2020-6-11-13-20-45.088315963,AGENT6f273060-abe6-11ea-8c94-20c9d0446113,113,104,11,1.0,0.2,0,experiment
run-2020-6-11-13-20-45.088315963,AGENT6f273060-abe6-11ea-8c94-20c9d0446113,115,104,9,1.0,0.2,2,experiment
run-2020-6-11-13-20-45.088315963,AGENT6f273060-abe6-11ea-8c94-20c9d0446113,116,104,8,1.0,0.2,1,experiment
run-2020-6-11-13-20-45.088315963,AGENT6f273060-abe6-11ea-8c94-20c9d0446113,117,104,7,1.0,0.2,0,experiment
run-2020-6-11-13-20-45.088315963,AGENT6f273060-abe6-11ea-8c94-20c9d0446113,119,104,14,1.0,0.2,0,funding
run-2020-6-11-13-20-45.088315963,AGENT6f273060-abe6-11ea-8c94-20c9d0446113,121,104,13,1.0,0.2,2,experiment
run-2020-6-11-13-20-45.088315963,AGENT6f273060-abe6-11ea-8c94-20c9d0446113,122,104,11,1.0,0.2,1,experiment
run-2020-6-11-13-20-45.088315963,AGENT6f273060-abe6-11ea-8c94-20c9d0446113,123,104,10,1.0,0.2,0,experiment
run-2020-6-11-13-20-45.088315963,AGENT6f273060-abe6-11ea-8c94-20c9d0446113,125,104,9,1.0,0.2,0,funding
run-2020-6-11-13-20-45.088315963,AGENT6f273060-abe6-11ea-8c94-20c9d0446113,127,104,22,1.0,0.2,0,funding
run-2020-6-11-13-20-45.088315963,AGENT6f273060-abe6-11ea-8c94-20c9d0446113,129,104,20,1.0,0.2,4,experiment
run-2020-6-11-13-20-45.088315963,AGENT6f273060-abe6-11ea-8c94-20c9d0446113,130,104,18,1.0,0.2,3,experiment
run-2020-6-11-13-20-45.088315963,AGENT6f273060-abe6-11ea-8c94-20c9d0446113,131,104,17,1.0,0.2,2,experiment
run-2020-6-11-13-20-45.088315963,AGENT6f273060-abe6-11ea-8c94-20c9d0446113,132,104,16,1.0,0.2,1,experiment
run-2020-6-11-13-20-45.088315963,AGENT6f273060-abe6-11ea-8c94-20c9d0446113,133,104,15,1.0,0.2,0,experiment
run-2020-6-11-13-20-45.088315963,AGENT6f273060-abe6-11ea-8c94-20c9d0446113,135,104,14,1.0,0.2,2,experiment
run-2020-6-11-13-20-45.088315963,AGENT6f273060-abe6-11ea-8c94-20c9d0446113,136,104,12,1.0,0.2,1,experiment
run-2020-6-11-13-20-45.088315963,AGENT6f273060-abe6-11ea-8c94-20c9d0446113,137,104,11,1.0,0.2,0,experiment
run-2020-6-11-13-20-45.088315963,AGENT6f273060-abe6-11ea-8c94-20c9d0446113,139,104,10,1.0,0.2,4,experiment
run-2020-6-11-13-20-45.088315963,AGENT6f273060-abe6-11ea-8c94-20c9d0446113,140,104,8,1.0,0.2,3,experiment
run-2020-6-11-13-20-45.088315963,AGENT6f273060-abe6-11ea-8c94-20c9d0446113,141,104,6,1.0,0.2,2,experiment
run-2020-6-11-13-20-45.088315963,AGENT6f273060-abe6-11ea-8c94-20c9d0446113,142,104,4,1.0,0.2,1,experiment
run-2020-6-11-13-20-45.088315963,AGENT6f273060-abe6-11ea-8c94-20c9d0446113,143,104,2,1.0,0.2,0,experiment
