RunID,AgentID,Tick,Created,Ressources,Reputation,Ability,Que,Action
run-2020-6-11-13-20-45.088315963,AGENT74b04ed6-abe6-11ea-9dda-20c9d0446113,126,125,13,1.0,0.8,0,funding
run-2020-6-11-13-20-45.088315963,AGENT74b04ed6-abe6-11ea-9dda-20c9d0446113,128,125,12,1.0,0.8,3,experiment
run-2020-6-11-13-20-45.088315963,AGENT74b04ed6-abe6-11ea-9dda-20c9d0446113,129,125,10,1.0,0.8,2,experiment
run-2020-6-11-13-20-45.088315963,AGENT74b04ed6-abe6-11ea-9dda-20c9d0446113,130,125,9,1.0,0.8,1,experiment
run-2020-6-11-13-20-45.088315963,AGENT74b04ed6-abe6-11ea-9dda-20c9d0446113,131,125,8,1.0,0.8,0,experiment
run-2020-6-11-13-20-45.088315963,AGENT74b04ed6-abe6-11ea-9dda-20c9d0446113,133,125,19,1.0,0.8,0,funding
run-2020-6-11-13-20-45.088315963,AGENT74b04ed6-abe6-11ea-9dda-20c9d0446113,135,125,18,1.0,0.8,4,experiment
run-2020-6-11-13-20-45.088315963,AGENT74b04ed6-abe6-11ea-9dda-20c9d0446113,136,125,17,1.0,0.8,3,experiment
run-2020-6-11-13-20-45.088315963,AGENT74b04ed6-abe6-11ea-9dda-20c9d0446113,137,125,16,1.0,0.8,2,experiment
run-2020-6-11-13-20-45.088315963,AGENT74b04ed6-abe6-11ea-9dda-20c9d0446113,138,125,14,1.0,0.8,1,experiment
run-2020-6-11-13-20-45.088315963,AGENT74b04ed6-abe6-11ea-9dda-20c9d0446113,139,125,12,1.0,0.8,0,experiment
run-2020-6-11-13-20-45.088315963,AGENT74b04ed6-abe6-11ea-9dda-20c9d0446113,141,125,10,1.0,0.8,3,experiment
run-2020-6-11-13-20-45.088315963,AGENT74b04ed6-abe6-11ea-9dda-20c9d0446113,142,125,9,1.0,0.8,2,experiment
