RunID,AgentID,Tick,Created,Ressources,Reputation,Ability,Que,Action
run-2020-6-11-13-20-45.088315963,AGENT72454066-abe6-11ea-ac31-20c9d0446113,117,116,10,1.0,0,0,funding
run-2020-6-11-13-20-45.088315963,AGENT72454066-abe6-11ea-ac31-20c9d0446113,119,116,11,1.0,0,0,funding
run-2020-6-11-13-20-45.088315963,AGENT72454066-abe6-11ea-ac31-20c9d0446113,121,116,10,1.0,0,3,experiment
run-2020-6-11-13-20-45.088315963,AGENT72454066-abe6-11ea-ac31-20c9d0446113,122,116,8,1.0,0,2,experiment
run-2020-6-11-13-20-45.088315963,AGENT72454066-abe6-11ea-ac31-20c9d0446113,123,116,6,1.0,0,1,experiment
run-2020-6-11-13-20-45.088315963,AGENT72454066-abe6-11ea-ac31-20c9d0446113,124,116,4,1.0,0,0,experiment
run-2020-6-11-13-20-45.088315963,AGENT72454066-abe6-11ea-ac31-20c9d0446113,126,116,2,1.0,0,0,funding
run-2020-6-11-13-20-45.088315963,AGENT72454066-abe6-11ea-ac31-20c9d0446113,128,116,13,1.0,0,0,funding
run-2020-6-11-13-20-45.088315963,AGENT72454066-abe6-11ea-ac31-20c9d0446113,130,116,12,1.0,0,2,experiment
run-2020-6-11-13-20-45.088315963,AGENT72454066-abe6-11ea-ac31-20c9d0446113,131,116,10,1.0,0,1,experiment
run-2020-6-11-13-20-45.088315963,AGENT72454066-abe6-11ea-ac31-20c9d0446113,132,116,9,1.0,0,0,experiment
run-2020-6-11-13-20-45.088315963,AGENT72454066-abe6-11ea-ac31-20c9d0446113,134,116,19,1.0,0,0,funding
run-2020-6-11-13-20-45.088315963,AGENT72454066-abe6-11ea-ac31-20c9d0446113,136,116,17,1.0,0,4,experiment
run-2020-6-11-13-20-45.088315963,AGENT72454066-abe6-11ea-ac31-20c9d0446113,137,116,16,1.0,0,3,experiment
run-2020-6-11-13-20-45.088315963,AGENT72454066-abe6-11ea-ac31-20c9d0446113,138,116,15,1.0,0,2,experiment
run-2020-6-11-13-20-45.088315963,AGENT72454066-abe6-11ea-ac31-20c9d0446113,139,116,14,1.0,0,1,experiment
run-2020-6-11-13-20-45.088315963,AGENT72454066-abe6-11ea-ac31-20c9d0446113,140,116,12,1.0,0,0,experiment
run-2020-6-11-13-20-45.088315963,AGENT72454066-abe6-11ea-ac31-20c9d0446113,142,116,11,1.0,0,2,experiment
