RunID,AgentID,Tick,Created,Ressources,Reputation,Ability,Que,Action
run-2020-6-11-13-20-45.088315963,AGENT79d7289e-abe6-11ea-b8c8-20c9d0446113,138,137,13,1.0,0.2,0,funding
run-2020-6-11-13-20-45.088315963,AGENT79d7289e-abe6-11ea-b8c8-20c9d0446113,140,137,11,1.0,0.2,4,experiment
run-2020-6-11-13-20-45.088315963,AGENT79d7289e-abe6-11ea-b8c8-20c9d0446113,141,137,10,1.0,0.2,3,experiment
run-2020-6-11-13-20-45.088315963,AGENT79d7289e-abe6-11ea-b8c8-20c9d0446113,142,137,9,1.0,0.2,2,experiment
