RunID,AgentID,Tick,Created,Ressources,Reputation,Ability,Que,Action
run-2020-6-11-13-20-45.088315963,AGENT72ca46a8-abe6-11ea-b385-20c9d0446113,119,118,9,1.0,0.1,0,funding
run-2020-6-11-13-20-45.088315963,AGENT72ca46a8-abe6-11ea-b385-20c9d0446113,121,118,23,1.0,0.1,0,funding
run-2020-6-11-13-20-45.088315963,AGENT72ca46a8-abe6-11ea-b385-20c9d0446113,123,118,21,1.0,0.1,3,experiment
run-2020-6-11-13-20-45.088315963,AGENT72ca46a8-abe6-11ea-b385-20c9d0446113,124,118,20,1.0,0.1,2,experiment
run-2020-6-11-13-20-45.088315963,AGENT72ca46a8-abe6-11ea-b385-20c9d0446113,125,118,18,1.0,0.1,1,experiment
run-2020-6-11-13-20-45.088315963,AGENT72ca46a8-abe6-11ea-b385-20c9d0446113,126,118,17,1.0,0.1,0,experiment
run-2020-6-11-13-20-45.088315963,AGENT72ca46a8-abe6-11ea-b385-20c9d0446113,128,118,15,1.0,0.1,2,experiment
run-2020-6-11-13-20-45.088315963,AGENT72ca46a8-abe6-11ea-b385-20c9d0446113,129,118,13,1.0,0.1,1,experiment
run-2020-6-11-13-20-45.088315963,AGENT72ca46a8-abe6-11ea-b385-20c9d0446113,130,118,12,1.0,0.1,0,experiment
run-2020-6-11-13-20-45.088315963,AGENT72ca46a8-abe6-11ea-b385-20c9d0446113,132,118,10,1.0,0.1,2,experiment
run-2020-6-11-13-20-45.088315963,AGENT72ca46a8-abe6-11ea-b385-20c9d0446113,133,118,9,1.0,0.1,1,experiment
run-2020-6-11-13-20-45.088315963,AGENT72ca46a8-abe6-11ea-b385-20c9d0446113,134,118,8,1.0,0.1,0,experiment
run-2020-6-11-13-20-45.088315963,AGENT72ca46a8-abe6-11ea-b385-20c9d0446113,136,118,21,1.0,0.1,0,funding
run-2020-6-11-13-20-45.088315963,AGENT72ca46a8-abe6-11ea-b385-20c9d0446113,138,118,19,1.0,0.1,4,experiment
run-2020-6-11-13-20-45.088315963,AGENT72ca46a8-abe6-11ea-b385-20c9d0446113,139,118,18,1.0,0.1,3,experiment
run-2020-6-11-13-20-45.088315963,AGENT72ca46a8-abe6-11ea-b385-20c9d0446113,140,118,17,1.0,0.1,2,experiment
run-2020-6-11-13-20-45.088315963,AGENT72ca46a8-abe6-11ea-b385-20c9d0446113,141,118,16,1.0,0.1,1,experiment
run-2020-6-11-13-20-45.088315963,AGENT72ca46a8-abe6-11ea-b385-20c9d0446113,142,118,14,1.0,0.1,0,experiment
