RunID,AgentID,Tick,Created,Ressources,Reputation,Ability,Que,Action
run-2020-6-11-13-20-45.088315963,AGENT6f9c27d0-abe6-11ea-812e-20c9d0446113,107,106,9,1.0,0.7,0,funding
run-2020-6-11-13-20-45.088315963,AGENT6f9c27d0-abe6-11ea-812e-20c9d0446113,109,106,21,1.0,0.7,0,funding
run-2020-6-11-13-20-45.088315963,AGENT6f9c27d0-abe6-11ea-812e-20c9d0446113,111,106,20,1.0,0.7,3,experiment
run-2020-6-11-13-20-45.088315963,AGENT6f9c27d0-abe6-11ea-812e-20c9d0446113,112,106,18,1.0,0.7,2,experiment
run-2020-6-11-13-20-45.088315963,AGENT6f9c27d0-abe6-11ea-812e-20c9d0446113,113,106,17,1.0,0.7,1,experiment
run-2020-6-11-13-20-45.088315963,AGENT6f9c27d0-abe6-11ea-812e-20c9d0446113,114,106,16,1.0,0.7,0,experiment
run-2020-6-11-13-20-45.088315963,AGENT6f9c27d0-abe6-11ea-812e-20c9d0446113,116,106,15,1.0,0.7,2,experiment
run-2020-6-11-13-20-45.088315963,AGENT6f9c27d0-abe6-11ea-812e-20c9d0446113,117,106,13,1.0,0.7,1,experiment
run-2020-6-11-13-20-45.088315963,AGENT6f9c27d0-abe6-11ea-812e-20c9d0446113,118,106,11,1.0,0.7,0,experiment
run-2020-6-11-13-20-45.088315963,AGENT6f9c27d0-abe6-11ea-812e-20c9d0446113,120,106,10,1.0,0.7,2,experiment
run-2020-6-11-13-20-45.088315963,AGENT6f9c27d0-abe6-11ea-812e-20c9d0446113,121,106,9,1.0,0.7,1,experiment
run-2020-6-11-13-20-45.088315963,AGENT6f9c27d0-abe6-11ea-812e-20c9d0446113,122,106,7,1.0,0.7,0,experiment
run-2020-6-11-13-20-45.088315963,AGENT6f9c27d0-abe6-11ea-812e-20c9d0446113,124,106,21,1.0,0.7,0,funding
run-2020-6-11-13-20-45.088315963,AGENT6f9c27d0-abe6-11ea-812e-20c9d0446113,126,106,20,1.0,0.7,2,experiment
run-2020-6-11-13-20-45.088315963,AGENT6f9c27d0-abe6-11ea-812e-20c9d0446113,127,106,18,1.0,0.7,1,experiment
run-2020-6-11-13-20-45.088315963,AGENT6f9c27d0-abe6-11ea-812e-20c9d0446113,128,106,17,1.0,0.7,0,experiment
run-2020-6-11-13-20-45.088315963,AGENT6f9c27d0-abe6-11ea-812e-20c9d0446113,130,106,16,1.0,0.7,2,experiment
run-2020-6-11-13-20-45.088315963,AGENT6f9c27d0-abe6-11ea-812e-20c9d0446113,131,106,15,1.0,0.7,1,experiment
run-2020-6-11-13-20-45.088315963,AGENT6f9c27d0-abe6-11ea-812e-20c9d0446113,132,106,13,1.0,0.7,0,experiment
run-2020-6-11-13-20-45.088315963,AGENT6f9c27d0-abe6-11ea-812e-20c9d0446113,134,106,11,1.0,0.7,3,experiment
run-2020-6-11-13-20-45.088315963,AGENT6f9c27d0-abe6-11ea-812e-20c9d0446113,135,106,10,1.0,0.7,2,experiment
run-2020-6-11-13-20-45.088315963,AGENT6f9c27d0-abe6-11ea-812e-20c9d0446113,136,106,9,1.0,0.7,1,experiment
run-2020-6-11-13-20-45.088315963,AGENT6f9c27d0-abe6-11ea-812e-20c9d0446113,137,106,8,1.0,0.7,0,experiment
run-2020-6-11-13-20-45.088315963,AGENT6f9c27d0-abe6-11ea-812e-20c9d0446113,139,106,26,1.0,0.7,0,funding
run-2020-6-11-13-20-45.088315963,AGENT6f9c27d0-abe6-11ea-812e-20c9d0446113,141,106,25,1.0,0.7,3,experiment
run-2020-6-11-13-20-45.088315963,AGENT6f9c27d0-abe6-11ea-812e-20c9d0446113,142,106,23,1.0,0.7,2,experiment
