RunID,AgentID,Tick,Created,Ressources,Reputation,Ability,Que,Action
run-2020-6-11-13-20-45.088315963,AGENT74b09ef4-abe6-11ea-ba6f-20c9d0446113,126,125,21,1.0,0.7,0,funding
run-2020-6-11-13-20-45.088315963,AGENT74b09ef4-abe6-11ea-ba6f-20c9d0446113,128,125,19,1.0,0.7,2,experiment
run-2020-6-11-13-20-45.088315963,AGENT74b09ef4-abe6-11ea-ba6f-20c9d0446113,129,125,17,1.0,0.7,1,experiment
run-2020-6-11-13-20-45.088315963,AGENT74b09ef4-abe6-11ea-ba6f-20c9d0446113,130,125,16,1.0,0.7,0,experiment
run-2020-6-11-13-20-45.088315963,AGENT74b09ef4-abe6-11ea-ba6f-20c9d0446113,132,125,15,1.0,0.7,3,experiment
run-2020-6-11-13-20-45.088315963,AGENT74b09ef4-abe6-11ea-ba6f-20c9d0446113,133,125,14,1.0,0.7,2,experiment
run-2020-6-11-13-20-45.088315963,AGENT74b09ef4-abe6-11ea-ba6f-20c9d0446113,134,125,12,1.0,0.7,1,experiment
run-2020-6-11-13-20-45.088315963,AGENT74b09ef4-abe6-11ea-ba6f-20c9d0446113,135,125,11,1.0,0.7,0,experiment
run-2020-6-11-13-20-45.088315963,AGENT74b09ef4-abe6-11ea-ba6f-20c9d0446113,137,125,10,1.0,0.7,2,experiment
run-2020-6-11-13-20-45.088315963,AGENT74b09ef4-abe6-11ea-ba6f-20c9d0446113,138,125,9,1.0,0.7,1,experiment
run-2020-6-11-13-20-45.088315963,AGENT74b09ef4-abe6-11ea-ba6f-20c9d0446113,139,125,8,1.0,0.7,0,experiment
run-2020-6-11-13-20-45.088315963,AGENT74b09ef4-abe6-11ea-ba6f-20c9d0446113,141,125,21,1.0,0.7,0,funding
