RunID,AgentID,Tick,Created,Ressources,Reputation,Ability,Que,Action
run-2020-6-11-13-20-45.088315963,AGENT6fd63272-abe6-11ea-b0ac-20c9d0446113,108,107,5,1.0,0.5,0,funding
run-2020-6-11-13-20-45.088315963,AGENT6fd63272-abe6-11ea-b0ac-20c9d0446113,110,107,9,1.0,0.5,0,funding
run-2020-6-11-13-20-45.088315963,AGENT6fd63272-abe6-11ea-b0ac-20c9d0446113,112,107,16,1.0,0.5,0,funding
run-2020-6-11-13-20-45.088315963,AGENT6fd63272-abe6-11ea-b0ac-20c9d0446113,114,107,15,1.0,0.5,4,experiment
run-2020-6-11-13-20-45.088315963,AGENT6fd63272-abe6-11ea-b0ac-20c9d0446113,115,107,13,1.0,0.5,3,experiment
run-2020-6-11-13-20-45.088315963,AGENT6fd63272-abe6-11ea-b0ac-20c9d0446113,116,107,12,1.0,0.5,2,experiment
run-2020-6-11-13-20-45.088315963,AGENT6fd63272-abe6-11ea-b0ac-20c9d0446113,117,107,10,1.0,0.5,1,experiment
run-2020-6-11-13-20-45.088315963,AGENT6fd63272-abe6-11ea-b0ac-20c9d0446113,118,107,8,1.0,0.5,0,experiment
run-2020-6-11-13-20-45.088315963,AGENT6fd63272-abe6-11ea-b0ac-20c9d0446113,120,107,13,1.0,0.5,0,funding
run-2020-6-11-13-20-45.088315963,AGENT6fd63272-abe6-11ea-b0ac-20c9d0446113,122,107,12,1.0,0.5,2,experiment
run-2020-6-11-13-20-45.088315963,AGENT6fd63272-abe6-11ea-b0ac-20c9d0446113,123,107,11,1.0,0.5,1,experiment
run-2020-6-11-13-20-45.088315963,AGENT6fd63272-abe6-11ea-b0ac-20c9d0446113,124,107,10,1.0,0.5,0,experiment
run-2020-6-11-13-20-45.088315963,AGENT6fd63272-abe6-11ea-b0ac-20c9d0446113,126,107,5,1.0,0.5,0,funding
run-2020-6-11-13-20-45.088315963,AGENT6fd63272-abe6-11ea-b0ac-20c9d0446113,128,107,15,1.0,0.5,0,funding
run-2020-6-11-13-20-45.088315963,AGENT6fd63272-abe6-11ea-b0ac-20c9d0446113,130,107,13,1.0,0.5,4,experiment
run-2020-6-11-13-20-45.088315963,AGENT6fd63272-abe6-11ea-b0ac-20c9d0446113,131,107,12,1.0,0.5,3,experiment
run-2020-6-11-13-20-45.088315963,AGENT6fd63272-abe6-11ea-b0ac-20c9d0446113,132,107,11,1.0,0.5,2,experiment
run-2020-6-11-13-20-45.088315963,AGENT6fd63272-abe6-11ea-b0ac-20c9d0446113,133,107,9,1.0,0.5,1,experiment
run-2020-6-11-13-20-45.088315963,AGENT6fd63272-abe6-11ea-b0ac-20c9d0446113,134,107,8,1.0,0.5,0,experiment
run-2020-6-11-13-20-45.088315963,AGENT6fd63272-abe6-11ea-b0ac-20c9d0446113,136,107,8,1.0,0.5,0,funding
run-2020-6-11-13-20-45.088315963,AGENT6fd63272-abe6-11ea-b0ac-20c9d0446113,138,107,27,1.0,0.5,0,funding
run-2020-6-11-13-20-45.088315963,AGENT6fd63272-abe6-11ea-b0ac-20c9d0446113,140,107,26,1.0,0.5,4,experiment
run-2020-6-11-13-20-45.088315963,AGENT6fd63272-abe6-11ea-b0ac-20c9d0446113,141,107,24,1.0,0.5,3,experiment
run-2020-6-11-13-20-45.088315963,AGENT6fd63272-abe6-11ea-b0ac-20c9d0446113,142,107,22,1.0,0.5,2,experiment
