RunID,AgentID,Tick,Created,Ressources,Reputation,Ability,Que,Action
run-2020-6-11-13-20-45.088315963,AGENT6cc05af4-abe6-11ea-adce-20c9d0446113,101,100,18,1.0,0,0,funding
run-2020-6-11-13-20-45.088315963,AGENT6cc05af4-abe6-11ea-adce-20c9d0446113,103,100,16,1.0,0,3,experiment
run-2020-6-11-13-20-45.088315963,AGENT6cc05af4-abe6-11ea-adce-20c9d0446113,104,100,14,1.0,0,2,experiment
run-2020-6-11-13-20-45.088315963,AGENT6cc05af4-abe6-11ea-adce-20c9d0446113,105,100,12,1.0,0,1,experiment
run-2020-6-11-13-20-45.088315963,AGENT6cc05af4-abe6-11ea-adce-20c9d0446113,106,100,10,1.0,0,0,experiment
run-2020-6-11-13-20-45.088315963,AGENT6cc05af4-abe6-11ea-adce-20c9d0446113,108,100,28,1.0,0,0,funding
run-2020-6-11-13-20-45.088315963,AGENT6cc05af4-abe6-11ea-adce-20c9d0446113,110,100,27,1.0,0,2,experiment
run-2020-6-11-13-20-45.088315963,AGENT6cc05af4-abe6-11ea-adce-20c9d0446113,111,100,26,1.0,0,1,experiment
run-2020-6-11-13-20-45.088315963,AGENT6cc05af4-abe6-11ea-adce-20c9d0446113,112,100,24,1.0,0,0,experiment
run-2020-6-11-13-20-45.088315963,AGENT6cc05af4-abe6-11ea-adce-20c9d0446113,114,100,23,1.0,0,4,experiment
run-2020-6-11-13-20-45.088315963,AGENT6cc05af4-abe6-11ea-adce-20c9d0446113,115,100,22,1.0,0,3,experiment
run-2020-6-11-13-20-45.088315963,AGENT6cc05af4-abe6-11ea-adce-20c9d0446113,116,100,20,1.0,0,2,experiment
run-2020-6-11-13-20-45.088315963,AGENT6cc05af4-abe6-11ea-adce-20c9d0446113,117,100,18,1.0,0,1,experiment
run-2020-6-11-13-20-45.088315963,AGENT6cc05af4-abe6-11ea-adce-20c9d0446113,118,100,16,1.0,0,0,experiment
run-2020-6-11-13-20-45.088315963,AGENT6cc05af4-abe6-11ea-adce-20c9d0446113,120,100,14,1.0,0,3,experiment
run-2020-6-11-13-20-45.088315963,AGENT6cc05af4-abe6-11ea-adce-20c9d0446113,121,100,13,1.0,0,2,experiment
run-2020-6-11-13-20-45.088315963,AGENT6cc05af4-abe6-11ea-adce-20c9d0446113,122,100,11,1.0,0,1,experiment
run-2020-6-11-13-20-45.088315963,AGENT6cc05af4-abe6-11ea-adce-20c9d0446113,123,100,9,1.0,0,0,experiment
run-2020-6-11-13-20-45.088315963,AGENT6cc05af4-abe6-11ea-adce-20c9d0446113,125,100,20,1.0,0,0,funding
run-2020-6-11-13-20-45.088315963,AGENT6cc05af4-abe6-11ea-adce-20c9d0446113,127,100,19,1.0,0,2,experiment
run-2020-6-11-13-20-45.088315963,AGENT6cc05af4-abe6-11ea-adce-20c9d0446113,128,100,18,1.0,0,1,experiment
run-2020-6-11-13-20-45.088315963,AGENT6cc05af4-abe6-11ea-adce-20c9d0446113,129,100,16,1.0,0,0,experiment
run-2020-6-11-13-20-45.088315963,AGENT6cc05af4-abe6-11ea-adce-20c9d0446113,131,100,15,1.0,0,3,experiment
run-2020-6-11-13-20-45.088315963,AGENT6cc05af4-abe6-11ea-adce-20c9d0446113,132,100,13,1.0,0,2,experiment
run-2020-6-11-13-20-45.088315963,AGENT6cc05af4-abe6-11ea-adce-20c9d0446113,133,100,12,1.0,0,1,experiment
run-2020-6-11-13-20-45.088315963,AGENT6cc05af4-abe6-11ea-adce-20c9d0446113,134,100,11,1.0,0,0,experiment
run-2020-6-11-13-20-45.088315963,AGENT6cc05af4-abe6-11ea-adce-20c9d0446113,136,100,9,1.0,0,4,experiment
run-2020-6-11-13-20-45.088315963,AGENT6cc05af4-abe6-11ea-adce-20c9d0446113,137,100,8,1.0,0,3,experiment
run-2020-6-11-13-20-45.088315963,AGENT6cc05af4-abe6-11ea-adce-20c9d0446113,138,100,7,1.0,0,2,experiment
run-2020-6-11-13-20-45.088315963,AGENT6cc05af4-abe6-11ea-adce-20c9d0446113,139,100,6,1.0,0,1,experiment
run-2020-6-11-13-20-45.088315963,AGENT6cc05af4-abe6-11ea-adce-20c9d0446113,140,100,5,1.0,0,0,experiment
run-2020-6-11-13-20-45.088315963,AGENT6cc05af4-abe6-11ea-adce-20c9d0446113,142,100,9,1.0,0,0,funding
