RunID,AgentID,Tick,Created,Ressources,Reputation,Ability,Que,Action
run-2020-6-11-13-20-45.088315963,AGENT7509579c-abe6-11ea-9e82-20c9d0446113,127,126,13,1.0,0.2,0,funding
run-2020-6-11-13-20-45.088315963,AGENT7509579c-abe6-11ea-9e82-20c9d0446113,129,126,11,1.0,0.2,4,experiment
run-2020-6-11-13-20-45.088315963,AGENT7509579c-abe6-11ea-9e82-20c9d0446113,130,126,10,1.0,0.2,3,experiment
run-2020-6-11-13-20-45.088315963,AGENT7509579c-abe6-11ea-9e82-20c9d0446113,131,126,9,1.0,0.2,2,experiment
run-2020-6-11-13-20-45.088315963,AGENT7509579c-abe6-11ea-9e82-20c9d0446113,132,126,8,1.0,0.2,1,experiment
run-2020-6-11-13-20-45.088315963,AGENT7509579c-abe6-11ea-9e82-20c9d0446113,133,126,7,1.0,0.2,0,experiment
run-2020-6-11-13-20-45.088315963,AGENT7509579c-abe6-11ea-9e82-20c9d0446113,135,126,19,1.0,0.2,0,funding
run-2020-6-11-13-20-45.088315963,AGENT7509579c-abe6-11ea-9e82-20c9d0446113,137,126,18,1.0,0.2,2,experiment
run-2020-6-11-13-20-45.088315963,AGENT7509579c-abe6-11ea-9e82-20c9d0446113,138,126,17,1.0,0.2,1,experiment
run-2020-6-11-13-20-45.088315963,AGENT7509579c-abe6-11ea-9e82-20c9d0446113,139,126,15,1.0,0.2,0,experiment
run-2020-6-11-13-20-45.088315963,AGENT7509579c-abe6-11ea-9e82-20c9d0446113,141,126,13,1.0,0.2,3,experiment
run-2020-6-11-13-20-45.088315963,AGENT7509579c-abe6-11ea-9e82-20c9d0446113,142,126,12,1.0,0.2,2,experiment
