RunID,AgentID,Tick,Created,Ressources,Reputation,Ability,Que,Action
run-2020-6-11-13-20-45.088315963,AGENT73de5cf0-abe6-11ea-aae4-20c9d0446113,123,122,18,1.0,0.5,0,funding
run-2020-6-11-13-20-45.088315963,AGENT73de5cf0-abe6-11ea-aae4-20c9d0446113,125,122,17,1.0,0.5,3,experiment
run-2020-6-11-13-20-45.088315963,AGENT73de5cf0-abe6-11ea-aae4-20c9d0446113,126,122,16,1.0,0.5,2,experiment
run-2020-6-11-13-20-45.088315963,AGENT73de5cf0-abe6-11ea-aae4-20c9d0446113,127,122,15,1.0,0.5,1,experiment
run-2020-6-11-13-20-45.088315963,AGENT73de5cf0-abe6-11ea-aae4-20c9d0446113,128,122,13,1.0,0.5,0,experiment
run-2020-6-11-13-20-45.088315963,AGENT73de5cf0-abe6-11ea-aae4-20c9d0446113,130,122,11,1.0,0.5,4,experiment
run-2020-6-11-13-20-45.088315963,AGENT73de5cf0-abe6-11ea-aae4-20c9d0446113,131,122,10,1.0,0.5,3,experiment
run-2020-6-11-13-20-45.088315963,AGENT73de5cf0-abe6-11ea-aae4-20c9d0446113,132,122,9,1.0,0.5,2,experiment
run-2020-6-11-13-20-45.088315963,AGENT73de5cf0-abe6-11ea-aae4-20c9d0446113,133,122,7,1.0,0.5,1,experiment
run-2020-6-11-13-20-45.088315963,AGENT73de5cf0-abe6-11ea-aae4-20c9d0446113,134,122,6,1.0,0.5,0,experiment
run-2020-6-11-13-20-45.088315963,AGENT73de5cf0-abe6-11ea-aae4-20c9d0446113,136,122,6,1.0,0.5,0,funding
run-2020-6-11-13-20-45.088315963,AGENT73de5cf0-abe6-11ea-aae4-20c9d0446113,138,122,5,1.0,0.5,0,funding
run-2020-6-11-13-20-45.088315963,AGENT73de5cf0-abe6-11ea-aae4-20c9d0446113,140,122,9,1.0,0.5,0,funding
run-2020-6-11-13-20-45.088315963,AGENT73de5cf0-abe6-11ea-aae4-20c9d0446113,142,122,7,1.0,0.5,0,funding
