RunID,Agent,Age,Created,Inactive,Resources,Reputation,Ability,Que
run-2020-2-18-13-54-45.183248043,AGENT#38a1d408-5256-11ea-a7bd-6fe7cb19a979,0,0,0,10,1.0,1.0,0
run-2020-2-18-13-54-45.183248043,AGENT#38a1d6ce-5256-11ea-a06d-dbdc87b9794c,1,0,1,10,1.0,1.0,0
run-2020-2-18-13-54-45.183248043,AGENT#38a1bcc0-5256-11ea-9a88-530dc5616b73,2,0,2,10,1.0,1.0,0
run-2020-2-18-13-54-45.183248043,AGENT#38a70734-5256-11ea-821e-bf7187c82c7a,1,1,2,10,1.0,1.0,0
run-2020-2-18-13-54-45.183248043,AGENT#38a1c62a-5256-11ea-b744-5356e49034bd,3,0,3,10,1.0,1.0,0
run-2020-2-18-13-54-45.183248043,AGENT#38a21896-5256-11ea-b7a7-67025b7cd704,3,0,3,10,1.0,1.0,0
run-2020-2-18-13-54-45.183248043,AGENT#38a70482-5256-11ea-a4db-cb66f0bf7d13,2,1,3,10,1.0,1.0,0
run-2020-2-18-13-54-45.183248043,AGENT#38a770fc-5256-11ea-8163-d7e6f37f7670,1,2,3,10,1.0,1.0,0
run-2020-2-18-13-54-45.183248043,AGENT#38a1c8f0-5256-11ea-9451-0b50269daa29,4,0,4,10,1.0,1.0,0
run-2020-2-18-13-54-45.183248043,AGENT#38a1cbb6-5256-11ea-afd6-33304e6ce3f9,4,0,4,10,1.0,1.0,0
run-2020-2-18-13-54-45.183248043,AGENT#38a1ce90-5256-11ea-aa50-bb140085c6b7,4,0,4,10,1.0,1.0,0
run-2020-2-18-13-54-45.183248043,AGENT#38a1d14c-5256-11ea-8932-df98625726bc,4,0,4,10,1.0,1.0,0
run-2020-2-18-13-54-45.183248043,AGENT#38a777b4-5256-11ea-94a7-a3f2345fedfc,2,2,4,10,1.0,1.0,0
run-2020-2-18-13-54-45.183248043,AGENT#38a7b346-5256-11ea-8c3f-c3825f4498f5,1,3,4,10,1.0,1.0,0
run-2020-2-18-13-54-45.183248043,AGENT#38a7be0e-5256-11ea-8743-cb77d930d592,1,3,4,10,1.0,1.0,0
run-2020-2-18-13-54-45.183248043,AGENT#38a21594-5256-11ea-ba00-9b3b8079e8b0,5,0,5,10,1.0,1.0,0
run-2020-2-18-13-54-45.183248043,AGENT#38a70a54-5256-11ea-9bd4-0f875a77ab1f,4,1,5,10,1.0,1.0,0
run-2020-2-18-13-54-45.183248043,AGENT#38a76dbe-5256-11ea-a6d9-d70f0ab75f1b,3,2,5,10,1.0,1.0,0
run-2020-2-18-13-54-45.183248043,AGENT#38a773cc-5256-11ea-9a58-43c369633d79,3,2,5,10,1.0,1.0,0
run-2020-2-18-13-54-45.183248043,AGENT#38a77aa2-5256-11ea-88af-0f3165994f8a,3,2,5,10,1.0,1.0,0
run-2020-2-18-13-54-45.183248043,AGENT#38a7b076-5256-11ea-bc32-bfeca3876a4c,2,3,5,10,1.0,1.0,0
run-2020-2-18-13-54-45.183248043,AGENT#38a7c0ca-5256-11ea-bf67-2fceeea75978,2,3,5,10,1.0,1.0,0
run-2020-2-18-13-54-45.183248043,AGENT#38a803e6-5256-11ea-99a3-33651849c49b,1,4,5,10,1.0,1.0,0
run-2020-2-18-13-54-45.183248043,AGENT#38a80684-5256-11ea-9ca1-032e740cdcaa,1,4,5,10,1.0,1.0,0
run-2020-2-18-13-54-45.183248043,AGENT#38a80940-5256-11ea-bc38-23f6b433e547,1,4,5,10,1.0,1.0,0
run-2020-2-18-13-54-45.183248043,AGENT#38a7ad88-5256-11ea-a4a1-5fb61004e9d4,3,3,6,10,1.0,1.0,0
run-2020-2-18-13-54-45.183248043,AGENT#38a7bb3e-5256-11ea-a58c-87d84d7d662d,3,3,6,10,1.0,1.0,0
run-2020-2-18-13-54-45.183248043,AGENT#38a881cc-5256-11ea-b690-373cf6139531,1,6,7,10,1.0,1.0,0
run-2020-2-18-13-54-45.183248043,AGENT#38a8879e-5256-11ea-a324-3365bfdfa6d1,1,6,7,10,1.0,1.0,0
run-2020-2-18-13-54-45.183248043,AGENT#38a7b8a0-5256-11ea-ba7c-db76f8087c5f,5,3,8,10,1.0,1.0,0
run-2020-2-18-13-54-45.183248043,AGENT#38a85364-5256-11ea-b6eb-8f1802ec3072,3,5,8,10,1.0,1.0,0
run-2020-2-18-13-54-45.183248043,AGENT#38a88a78-5256-11ea-bd0d-efd864632d55,2,6,8,10,1.0,1.0,0
run-2020-2-18-13-54-45.183248043,AGENT#38a8c8c6-5256-11ea-811b-830484865513,1,7,8,10,1.0,1.0,0
run-2020-2-18-13-54-45.183248043,AGENT#38a8cba0-5256-11ea-baf4-c3a71db77150,1,7,8,10,1.0,1.0,0
run-2020-2-18-13-54-45.183248043,AGENT#38a7b5f8-5256-11ea-af08-9787929f3b41,6,3,9,10,1.0,1.0,0
run-2020-2-18-13-54-45.183248043,AGENT#38a7fbd0-5256-11ea-b1af-57710e314bdc,5,4,9,10,1.0,1.0,0
run-2020-2-18-13-54-45.183248043,AGENT#38a7fe96-5256-11ea-a5c3-3f72f6e4ca71,5,4,9,10,1.0,1.0,0
run-2020-2-18-13-54-45.183248043,AGENT#38a80148-5256-11ea-b1c9-9b61d049bc03,5,4,9,10,1.0,1.0,0
run-2020-2-18-13-54-45.183248043,AGENT#38a88d20-5256-11ea-828b-d7d2b8ce4143,3,6,9,10,1.0,1.0,0
run-2020-2-18-13-54-45.183248043,AGENT#38a8c592-5256-11ea-a3d0-93daa50db06e,2,7,9,10,1.0,1.0,0
run-2020-2-18-13-54-45.183248043,AGENT#38a90714-5256-11ea-bfe5-afd0f4be73d2,1,8,9,10,1.0,1.0,0
run-2020-2-18-13-54-45.183248043,AGENT#38a90f0c-5256-11ea-812a-eb7c7d8ca32b,1,8,9,10,1.0,1.0,0
run-2020-2-18-13-54-45.183248043,AGENT#38a90160-5256-11ea-b50d-ab07f5b50a3e,2,8,10,10,1.0,1.0,0
run-2020-2-18-13-54-45.183248043,AGENT#38a909c6-5256-11ea-bfff-63876c2d09f1,3,8,11,10,1.0,1.0,0
run-2020-2-18-13-54-45.183248043,AGENT#38a94b66-5256-11ea-938d-c79b2cadb59c,2,9,11,10,1.0,1.0,0
run-2020-2-18-13-54-45.183248043,AGENT#38a94e36-5256-11ea-81ae-bbcf7474cf73,2,9,11,10,1.0,1.0,0
run-2020-2-18-13-54-45.183248043,AGENT#38a95390-5256-11ea-92f7-47d147b6b57d,2,9,11,10,1.0,1.0,0
run-2020-2-18-13-54-45.183248043,AGENT#38a99102-5256-11ea-a3f1-5b4703be17db,1,10,11,10,1.0,1.0,0
run-2020-2-18-13-54-45.183248043,AGENT#38a950f2-5256-11ea-a3fa-a3132c9e26a7,3,9,12,10,1.0,1.0,0
run-2020-2-18-13-54-45.183248043,AGENT#38a98b8a-5256-11ea-b6d3-f3b7abbd490f,2,10,12,10,1.0,1.0,0
run-2020-2-18-13-54-45.183248043,AGENT#38a95638-5256-11ea-b676-f7b8eb438b1e,4,9,13,10,1.0,1.0,0
run-2020-2-18-13-54-45.183248043,AGENT#38a998fa-5256-11ea-a003-43cb19aa3963,3,10,13,10,1.0,1.0,0
run-2020-2-18-13-54-45.183248043,AGENT#38a9d676-5256-11ea-b278-631e389381b5,2,11,13,10,1.0,1.0,0
run-2020-2-18-13-54-45.183248043,AGENT#38aa27a2-5256-11ea-b0b1-4fe87327865c,1,12,13,10,1.0,1.0,0
run-2020-2-18-13-54-45.183248043,AGENT#38a98e64-5256-11ea-9a08-af2fafe1ada9,4,10,14,10,1.0,1.0,0
run-2020-2-18-13-54-45.183248043,AGENT#38aa1f46-5256-11ea-b93c-47328580f187,2,12,14,10,1.0,1.0,0
run-2020-2-18-13-54-45.183248043,AGENT#38aa718a-5256-11ea-852d-3fc6099b57c3,1,13,14,10,1.0,1.0,0
run-2020-2-18-13-54-45.183248043,AGENT#38a9dbf8-5256-11ea-ac50-3b414d4becc6,4,11,15,10,1.0,1.0,0
run-2020-2-18-13-54-45.183248043,AGENT#38aa223e-5256-11ea-8a4b-7317f7ffd901,3,12,15,10,1.0,1.0,0
run-2020-2-18-13-54-45.183248043,AGENT#38a90462-5256-11ea-8bc4-27a23217441e,8,8,16,10,1.0,1.0,0
run-2020-2-18-13-54-45.183248043,AGENT#38a9d95a-5256-11ea-ae7e-77eb95d723d7,5,11,16,10,1.0,1.0,0
run-2020-2-18-13-54-45.183248043,AGENT#38aa7432-5256-11ea-b4d9-1331f53fd782,3,13,16,10,1.0,1.0,0
run-2020-2-18-13-54-45.183248043,AGENT#38aacb58-5256-11ea-9cb6-1bbb2a72d231,2,14,16,10,1.0,1.0,0
run-2020-2-18-13-54-45.183248043,AGENT#38ab123e-5256-11ea-85a0-032dd3580dbb,2,15,17,10,1.0,1.0,0
run-2020-2-18-13-54-45.183248043,AGENT#38aac39c-5256-11ea-87c6-ff4978909bb8,4,14,18,10,1.0,1.0,0
run-2020-2-18-13-54-45.183248043,AGENT#38aac8ce-5256-11ea-8fdf-ef6eb51ce842,5,14,19,10,1.0,1.0,0
run-2020-2-18-13-54-45.183248043,AGENT#38ab59c4-5256-11ea-a220-9b6937c2f5fa,3,16,19,10,1.0,1.0,0
run-2020-2-18-13-54-45.183248043,AGENT#38ab5c9e-5256-11ea-a4cd-37174605182a,3,16,19,10,1.0,1.0,0
run-2020-2-18-13-54-45.183248043,AGENT#38abfc62-5256-11ea-abce-cbf883699c03,1,18,19,10,1.0,1.0,0
run-2020-2-18-13-54-45.183248043,AGENT#38abffaa-5256-11ea-ac74-7bbb6c319184,1,18,19,10,1.0,1.0,0
run-2020-2-18-13-54-45.183248043,AGENT#38ac563a-5256-11ea-a0ab-0307e9848751,1,19,20,10,1.0,1.0,0
run-2020-2-18-13-54-45.183248043,AGENT#38ac5c5c-5256-11ea-a292-fb0d983128cd,1,19,20,10,1.0,1.0,0
run-2020-2-18-13-54-45.183248043,AGENT#38a6fe74-5256-11ea-a95b-e77b5a7db4c1,20,1,21,10,1.0,1.0,0
run-2020-2-18-13-54-45.183248043,AGENT#38ac5f04-5256-11ea-b31e-1bf4d71d74ca,2,19,21,10,1.0,1.0,0
run-2020-2-18-13-54-45.183248043,AGENT#38acbcce-5256-11ea-bf57-5f6271aa4ce1,1,20,21,10,1.0,1.0,0
run-2020-2-18-13-54-45.183248043,AGENT#38acbf44-5256-11ea-aa00-675808ef5efb,1,20,21,10,1.0,1.0,0
run-2020-2-18-13-54-45.183248043,AGENT#38a1bffe-5256-11ea-a320-e783028b5225,22,0,22,10,1.0,1.0,0
run-2020-2-18-13-54-45.183248043,AGENT#38aba690-5256-11ea-b03d-c7a7cd6dacda,5,17,22,10,1.0,1.0,0
run-2020-2-18-13-54-45.183248043,AGENT#38aba974-5256-11ea-a4a5-579d75c3fa49,5,17,22,10,1.0,1.0,0
run-2020-2-18-13-54-45.183248043,AGENT#38acafae-5256-11ea-8787-9ff4668c1caa,2,20,22,10,1.0,1.0,0
run-2020-2-18-13-54-45.183248043,AGENT#38acb27e-5256-11ea-8796-03a7fd14fd5a,2,20,22,10,1.0,1.0,0
run-2020-2-18-13-54-45.183248043,AGENT#38acba3a-5256-11ea-a253-ffce11d61b17,2,20,22,10,1.0,1.0,0
run-2020-2-18-13-54-45.183248043,AGENT#38acb79c-5256-11ea-840e-cbea0dfda08c,3,20,23,10,1.0,1.0,0
run-2020-2-18-13-54-45.183248043,AGENT#38ad12f0-5256-11ea-a2dc-df090ce10ff9,2,21,23,10,1.0,1.0,0
run-2020-2-18-13-54-45.183248043,AGENT#38adb642-5256-11ea-a41a-7b8553f925ff,1,23,24,10,1.0,1.0,0
run-2020-2-18-13-54-45.183248043,AGENT#38aac630-5256-11ea-9eb7-9b2753c922a9,12,14,26,10,1.0,1.0,0
run-2020-2-18-13-54-45.183248043,AGENT#38ad623c-5256-11ea-ba4f-974bd045f2e7,4,22,26,10,1.0,1.0,0
run-2020-2-18-13-54-45.183248043,AGENT#38ae61f0-5256-11ea-958b-7f8589ecbd3a,2,25,27,10,1.0,1.0,0
run-2020-2-18-13-54-45.183248043,AGENT#38ae6466-5256-11ea-b254-abacb06a381d,2,25,27,10,1.0,1.0,0
run-2020-2-18-13-54-45.183248043,AGENT#38adb39a-5256-11ea-a30a-b3f5e4942c8f,5,23,28,10,1.0,1.0,0
run-2020-2-18-13-54-45.183248043,AGENT#38ae0ee4-5256-11ea-a4e7-cb106ac8932a,4,24,28,10,1.0,1.0,0
run-2020-2-18-13-54-45.183248043,AGENT#38ae5be2-5256-11ea-8e56-637409a75c8d,3,25,28,10,1.0,1.0,0
run-2020-2-18-13-54-45.183248043,AGENT#38ae66d2-5256-11ea-a789-ffe010d09919,3,25,28,10,1.0,1.0,0
run-2020-2-18-13-54-45.183248043,AGENT#38ae6948-5256-11ea-8a0c-0f8727a016aa,3,25,28,10,1.0,1.0,0
run-2020-2-18-13-54-45.183248043,AGENT#38aebcae-5256-11ea-99bc-8738da4b7780,2,26,28,10,1.0,1.0,0
run-2020-2-18-13-54-45.183248043,AGENT#38af6898-5256-11ea-94a3-f31b43f079bf,1,28,29,10,1.0,1.0,0
run-2020-2-18-13-54-45.183248043,AGENT#38aeba10-5256-11ea-9037-1fe9f81d5e38,4,26,30,10,1.0,1.0,0
run-2020-2-18-13-54-45.183248043,AGENT#38afccb6-5256-11ea-bbeb-97f3028ad959,2,29,31,10,1.0,1.0,0
run-2020-2-18-13-54-45.183248043,AGENT#38b020bc-5256-11ea-a1da-2f9d861ab567,1,30,31,10,1.0,1.0,0
run-2020-2-18-13-54-45.183248043,AGENT#38b02328-5256-11ea-a161-2323d36081c3,1,30,31,10,1.0,1.0,0
run-2020-2-18-13-54-45.183248043,AGENT#38afc9dc-5256-11ea-b87d-b3bbe7aa9ab9,3,29,32,10,1.0,1.0,0
run-2020-2-18-13-54-45.183248043,AGENT#38b01e28-5256-11ea-9a3f-c7fad5e546aa,3,30,33,10,1.0,1.0,0
run-2020-2-18-13-54-45.183248043,AGENT#38b0da0c-5256-11ea-aaed-e7c5b1c8e16c,1,32,33,10,1.0,1.0,0
run-2020-2-18-13-54-45.183248043,AGENT#38b084a8-5256-11ea-abee-1746f95d55ca,3,31,34,10,1.0,1.0,0
run-2020-2-18-13-54-45.183248043,AGENT#38b01b6c-5256-11ea-8cbb-ebbe0cbf629e,5,30,35,10,1.0,1.0,0
run-2020-2-18-13-54-45.183248043,AGENT#38b14708-5256-11ea-889e-77bd11043987,2,33,35,10,1.0,1.0,0
run-2020-2-18-13-54-45.183248043,AGENT#38b1a6ee-5256-11ea-a753-33355261375b,1,34,35,10,1.0,1.0,0
run-2020-2-18-13-54-45.183248043,AGENT#38b1ac3e-5256-11ea-ac2b-6fdbd1c4385b,1,34,35,10,1.0,1.0,0
run-2020-2-18-13-54-45.183248043,AGENT#38b1ae96-5256-11ea-a3f8-1f0f82a0f94f,1,34,35,10,1.0,1.0,0
run-2020-2-18-13-54-45.183248043,AGENT#38b0dca0-5256-11ea-a31a-3b3e9cd1a63c,4,32,36,10,1.0,1.0,0
run-2020-2-18-13-54-45.183248043,AGENT#38b0df3e-5256-11ea-a450-4b643a0da262,4,32,36,10,1.0,1.0,0
run-2020-2-18-13-54-45.183248043,AGENT#38b1a9dc-5256-11ea-a7e5-9310197e492c,2,34,36,10,1.0,1.0,0
run-2020-2-18-13-54-45.183248043,AGENT#38ae5ee4-5256-11ea-9ec6-17d03a6d5af7,12,25,37,10,1.0,1.0,0
run-2020-2-18-13-54-45.183248043,AGENT#38b26b24-5256-11ea-bcc1-57d143b1c629,1,36,37,10,1.0,1.0,0
run-2020-2-18-13-54-45.183248043,AGENT#38b21174-5256-11ea-8adb-eb5f73f93651,3,35,38,10,1.0,1.0,0
run-2020-2-18-13-54-45.183248043,AGENT#38af65f0-5256-11ea-bb80-8bc3ee70e199,11,28,39,10,1.0,1.0,0
run-2020-2-18-13-54-45.183248043,AGENT#38b2c808-5256-11ea-9bca-db564f75fac1,4,37,41,10,1.0,1.0,0
run-2020-2-18-13-54-45.183248043,AGENT#38b3ea58-5256-11ea-a002-1f26dda4d970,1,40,41,10,1.0,1.0,0
run-2020-2-18-13-54-45.183248043,AGENT#38b3ed28-5256-11ea-a13a-c391bfc225c7,1,40,41,10,1.0,1.0,0
run-2020-2-18-13-54-45.183248043,AGENT#38b32fa0-5256-11ea-8af5-ff1fb9038165,5,38,43,10,1.0,1.0,0
run-2020-2-18-13-54-45.183248043,AGENT#38b3ef9e-5256-11ea-b2e7-07aac1ec0306,3,40,43,10,1.0,1.0,0
run-2020-2-18-13-54-45.183248043,AGENT#38b44e6c-5256-11ea-8622-dbb0cfec9747,2,41,43,10,1.0,1.0,0
run-2020-2-18-13-54-45.183248043,AGENT#38af6b0e-5256-11ea-afff-2752219ffe23,16,28,44,10,1.0,1.0,0
run-2020-2-18-13-54-45.183248043,AGENT#38b149e2-5256-11ea-8523-3f182b7b74db,11,33,44,10,1.0,1.0,0
run-2020-2-18-13-54-45.183248043,AGENT#38a1c346-5256-11ea-bef5-434ea30f8cb6,45,0,45,10,1.0,1.0,0
run-2020-2-18-13-54-45.183248043,AGENT#38b45358-5256-11ea-bdec-63762b51b97d,4,41,45,10,1.0,1.0,0
run-2020-2-18-13-54-45.183248043,AGENT#38a70d06-5256-11ea-8191-4765279e1738,45,1,46,10,1.0,1.0,0
run-2020-2-18-13-54-45.183248043,AGENT#38a70180-5256-11ea-9c4f-73d44c6a2ac9,46,1,47,10,1.0,1.0,0
run-2020-2-18-13-54-45.183248043,AGENT#38b4bf6e-5256-11ea-8c63-4bee9ec5627e,5,42,47,10,1.0,1.0,0
run-2020-2-18-13-54-45.183248043,AGENT#38b52a08-5256-11ea-aa43-a3f8da503ebf,4,43,47,10,1.0,1.0,0
run-2020-2-18-13-54-45.183248043,AGENT#38b58e3a-5256-11ea-ad12-0b748d75cd92,3,44,47,10,1.0,1.0,0
run-2020-2-18-13-54-45.183248043,AGENT#38b5f302-5256-11ea-bcf6-b38c0390b083,2,45,47,10,1.0,1.0,0
run-2020-2-18-13-54-45.183248043,AGENT#38b590ba-5256-11ea-8f0b-27de50fb58fe,4,44,48,10,1.0,1.0,0
run-2020-2-18-13-54-45.183248043,AGENT#38b66d82-5256-11ea-8736-1fcb336a0c78,2,46,48,10,1.0,1.0,0
run-2020-2-18-13-54-45.183248043,AGENT#38b7018e-5256-11ea-bdb7-2fca03a0d964,1,47,48,10,1.0,1.0,0
run-2020-2-18-13-54-45.183248043,AGENT#38b70986-5256-11ea-a3fa-f3f21d053dda,1,47,48,10,1.0,1.0,0
run-2020-2-18-13-54-45.183248043,AGENT#38b26db8-5256-11ea-9745-c73d1b54d459,13,36,49,10,1.0,1.0,0
run-2020-2-18-13-54-45.183248043,AGENT#38b5f712-5256-11ea-8241-db8f01a629d3,4,45,49,10,1.0,1.0,0
run-2020-2-18-13-54-45.183248043,AGENT#38b666b6-5256-11ea-8f04-e3a47c338ec3,3,46,49,10,1.0,1.0,0
run-2020-2-18-13-54-45.183248043,AGENT#38b79310-5256-11ea-9374-533c1eefa29e,1,48,49,10,1.0,1.0,0
run-2020-2-18-13-54-45.183248043,AGENT#38b79ae0-5256-11ea-bdeb-0f63855425b5,1,48,49,10,1.0,1.0,0
run-2020-2-18-13-54-45.183248043,AGENT#38b3327a-5256-11ea-9b54-83a8b3ad40b0,12,38,50,10,1.0,1.0,0
run-2020-2-18-13-54-45.183248043,AGENT#38b5fb40-5256-11ea-b56a-b79e75c94768,5,45,50,10,1.0,1.0,0
run-2020-2-18-13-54-45.183248043,AGENT#38b66904-5256-11ea-b7bf-bffae7e777bc,4,46,50,10,1.0,1.0,0
run-2020-2-18-13-54-45.183248043,AGENT#38b705b2-5256-11ea-9886-5fa593ff88af,3,47,50,10,1.0,1.0,0
run-2020-2-18-13-54-45.183248043,AGENT#38b78b9a-5256-11ea-8a61-e70ccf000158,2,48,50,10,1.0,1.0,0
run-2020-2-18-13-54-45.183248043,AGENT#38b847a6-5256-11ea-9545-1b1ff9222de1,1,49,50,10,1.0,1.0,0
run-2020-2-18-13-54-45.183248043,AGENT#38b66b48-5256-11ea-b860-c36fbd9cdce6,5,46,51,10,1.0,1.0,0
run-2020-2-18-13-54-45.183248043,AGENT#38b79f9a-5256-11ea-ab0f-23eeacf3da2d,3,48,51,10,1.0,1.0,0
run-2020-2-18-13-54-45.183248043,AGENT#38a7f8e2-5256-11ea-92dc-8b37fd1621ea,48,4,52,10,1.0,1.0,0
run-2020-2-18-13-54-45.183248043,AGENT#38a884c4-5256-11ea-9401-dffd8396ba3b,46,6,52,10,1.0,1.0,0
run-2020-2-18-13-54-45.183248043,AGENT#38b081f6-5256-11ea-acd3-2b6c68b6b7ec,21,31,52,10,1.0,1.0,0
run-2020-2-18-13-54-45.183248043,AGENT#38b97d1a-5256-11ea-840e-9bbe89834a75,1,51,52,10,1.0,1.0,0
run-2020-2-18-13-54-45.183248043,AGENT#38b8e698-5256-11ea-80af-df8485f57301,3,50,53,10,1.0,1.0,0
run-2020-2-18-13-54-45.183248043,AGENT#38b97158-5256-11ea-a8b1-53bd13545633,2,51,53,10,1.0,1.0,0
run-2020-2-18-13-54-45.183248043,AGENT#38b97982-5256-11ea-9b8d-7f60783d5f42,2,51,53,10,1.0,1.0,0
run-2020-2-18-13-54-45.183248043,AGENT#38a9485a-5256-11ea-a3b7-03d2fbcee85e,45,9,54,10,1.0,1.0,0
run-2020-2-18-13-54-45.183248043,AGENT#38b975cc-5256-11ea-b0d4-5b3db9de0e8e,3,51,54,10,1.0,1.0,0
run-2020-2-18-13-54-45.183248043,AGENT#38bac490-5256-11ea-ab2b-3786dbc570fd,1,53,54,10,1.0,1.0,0
run-2020-2-18-13-54-45.183248043,AGENT#38babf40-5256-11ea-8725-475b59e24047,2,53,55,10,1.0,1.0,0
run-2020-2-18-13-54-45.183248043,AGENT#38bac1de-5256-11ea-bdb8-d30a3112a418,2,53,55,10,1.0,1.0,0
run-2020-2-18-13-54-45.183248043,AGENT#38bb546e-5256-11ea-a4f2-033a3c820b3b,1,54,55,10,1.0,1.0,0
run-2020-2-18-13-54-45.183248043,AGENT#38bb56c6-5256-11ea-a33b-ff2e837925bb,1,54,55,10,1.0,1.0,0
run-2020-2-18-13-54-45.183248043,AGENT#38a90c64-5256-11ea-908c-13a2c472ab02,48,8,56,10,1.0,1.0,0
run-2020-2-18-13-54-45.183248043,AGENT#38a9965c-5256-11ea-95ba-a767d2c323b1,46,10,56,10,1.0,1.0,0
run-2020-2-18-13-54-45.183248043,AGENT#38ba2936-5256-11ea-8217-a31661f451b0,4,52,56,10,1.0,1.0,0
run-2020-2-18-13-54-45.183248043,AGENT#38babc20-5256-11ea-89a0-3bf6ebc79add,3,53,56,10,1.0,1.0,0
run-2020-2-18-13-54-45.183248043,AGENT#38a993c8-5256-11ea-961f-b3c8976b3e32,47,10,57,10,1.0,1.0,0
run-2020-2-18-13-54-45.183248043,AGENT#38bbd0b0-5256-11ea-89ca-6bd551498920,2,55,57,10,1.0,1.0,0
run-2020-2-18-13-54-45.183248043,AGENT#38bbd7ae-5256-11ea-af69-6bc4961fe960,2,55,57,10,1.0,1.0,0
run-2020-2-18-13-54-45.183248043,AGENT#38bbd9de-5256-11ea-87bf-63ec5a012f4e,2,55,57,10,1.0,1.0,0
run-2020-2-18-13-54-45.183248043,AGENT#38aa24fa-5256-11ea-883d-cb1388cde2e9,46,12,58,10,1.0,1.0,0
run-2020-2-18-13-54-45.183248043,AGENT#38bbd326-5256-11ea-a1c5-3b9b84d2beb6,3,55,58,10,1.0,1.0,0
run-2020-2-18-13-54-45.183248043,AGENT#38bcdd70-5256-11ea-9d50-dbdeef1b6334,1,57,58,10,1.0,1.0,0
run-2020-2-18-13-54-45.183248043,AGENT#38a9dee6-5256-11ea-ba52-0f4202ae089a,48,11,59,10,1.0,1.0,0
run-2020-2-18-13-54-45.183248043,AGENT#38bc5a94-5256-11ea-b4a1-b3bb78384dd1,3,56,59,10,1.0,1.0,0
run-2020-2-18-13-54-45.183248043,AGENT#38bce02c-5256-11ea-932c-4fab25f76476,2,57,59,10,1.0,1.0,0
run-2020-2-18-13-54-45.183248043,AGENT#38bd6b0a-5256-11ea-8e78-c740ca4fc9eb,1,58,59,10,1.0,1.0,0
run-2020-2-18-13-54-45.183248043,AGENT#38bd6d6c-5256-11ea-87d1-d7feac536175,1,58,59,10,1.0,1.0,0
run-2020-2-18-13-54-45.183248043,AGENT#38aa7716-5256-11ea-911e-c3d2c391e728,47,13,60,10,1.0,1.0,0
run-2020-2-18-13-54-45.183248043,AGENT#38aabe42-5256-11ea-ad0f-5fca355b148f,46,14,60,10,1.0,1.0,0
run-2020-2-18-13-54-45.183248043,AGENT#38bbd57e-5256-11ea-b8af-5309e521b108,5,55,60,10,1.0,1.0,0
run-2020-2-18-13-54-45.183248043,AGENT#38bdf6e2-5256-11ea-807b-235ec3a02271,1,59,60,10,1.0,1.0,0
run-2020-2-18-13-54-45.183248043,AGENT#38ab5f6e-5256-11ea-badb-7724aab7d21a,45,16,61,10,1.0,1.0,0
run-2020-2-18-13-54-45.183248043,AGENT#38bd688a-5256-11ea-80ee-6ff661cedf7b,3,58,61,10,1.0,1.0,0
run-2020-2-18-13-54-45.183248043,AGENT#38bded78-5256-11ea-82a5-bb578a5caf79,2,59,61,10,1.0,1.0,0
run-2020-2-18-13-54-45.183248043,AGENT#38be886e-5256-11ea-a2f5-03de458bca4e,1,60,61,10,1.0,1.0,0
run-2020-2-18-13-54-45.183248043,AGENT#38aa6e92-5256-11ea-9eca-8baae5ae3f9d,49,13,62,10,1.0,1.0,0
run-2020-2-18-13-54-45.183248043,AGENT#38aac0ea-5256-11ea-8b31-7b8dc49c2ac6,48,14,62,10,1.0,1.0,0
run-2020-2-18-13-54-45.183248043,AGENT#38bce2ac-5256-11ea-b54a-9738d306b905,5,57,62,10,1.0,1.0,0
run-2020-2-18-13-54-45.183248043,AGENT#38bd65b0-5256-11ea-8d52-0b7df7d302b7,4,58,62,10,1.0,1.0,0
run-2020-2-18-13-54-45.183248043,AGENT#38be8b70-5256-11ea-91e1-8379991b4f8d,2,60,62,10,1.0,1.0,0
run-2020-2-18-13-54-45.183248043,AGENT#38aabb40-5256-11ea-945e-3b158bdcd17c,49,14,63,10,1.0,1.0,0
run-2020-2-18-13-54-45.183248043,AGENT#38b66fd0-5256-11ea-b6d1-73f3cbe2e2c2,17,46,63,10,1.0,1.0,0
run-2020-2-18-13-54-45.183248043,AGENT#38b980b2-5256-11ea-889b-4fc71f9edf32,12,51,63,10,1.0,1.0,0
run-2020-2-18-13-54-45.183248043,AGENT#38bf510e-5256-11ea-a7eb-47f546e16f45,2,61,63,10,1.0,1.0,0
run-2020-2-18-13-54-45.183248043,AGENT#38bfda8e-5256-11ea-8cc2-034c757adacb,1,62,63,10,1.0,1.0,0
run-2020-2-18-13-54-45.183248043,AGENT#38bfdd40-5256-11ea-b263-ffb9b062a27f,1,62,63,10,1.0,1.0,0
run-2020-2-18-13-54-45.183248043,AGENT#38bf4ea2-5256-11ea-bcc9-13acee302a7e,3,61,64,10,1.0,1.0,0
run-2020-2-18-13-54-45.183248043,AGENT#38ac59b4-5256-11ea-836c-139136f1d7ad,46,19,65,10,1.0,1.0,0
run-2020-2-18-13-54-45.183248043,AGENT#38acb51c-5256-11ea-a0c6-ff9bc4a33569,45,20,65,10,1.0,1.0,0
run-2020-2-18-13-54-45.183248043,AGENT#38bd6312-5256-11ea-b649-b383f532e9ff,7,58,65,10,1.0,1.0,0
run-2020-2-18-13-54-45.183248043,AGENT#38c062b0-5256-11ea-a5d4-bbc61ab4575b,2,63,65,10,1.0,1.0,0
run-2020-2-18-13-54-45.183248043,AGENT#38c0e578-5256-11ea-9f2f-8719b8b40cee,1,64,65,10,1.0,1.0,0
run-2020-2-18-13-54-45.183248043,AGENT#38ad1020-5256-11ea-93a8-87291f8b01f7,45,21,66,10,1.0,1.0,0
run-2020-2-18-13-54-45.183248043,AGENT#38c05dc4-5256-11ea-aab5-9b5a6663270e,3,63,66,10,1.0,1.0,0
run-2020-2-18-13-54-45.183248043,AGENT#38c16e80-5256-11ea-a0ae-0bc2a35d1bd5,1,65,66,10,1.0,1.0,0
run-2020-2-18-13-54-45.183248043,AGENT#38c173bc-5256-11ea-895a-4bdee9918fb4,1,65,66,10,1.0,1.0,0
run-2020-2-18-13-54-45.183248043,AGENT#38c06058-5256-11ea-9628-0b4ed4b3b031,4,63,67,10,1.0,1.0,0
run-2020-2-18-13-54-45.183248043,AGENT#38c1fa44-5256-11ea-ac9f-df2405766c7f,1,66,67,10,1.0,1.0,0
run-2020-2-18-13-54-45.183248043,AGENT#38c1fca6-5256-11ea-ab38-0737197cb766,1,66,67,10,1.0,1.0,0
run-2020-2-18-13-54-45.183248043,AGENT#38adb0de-5256-11ea-953d-5777bcaa32a3,45,23,68,10,1.0,1.0,0
run-2020-2-18-13-54-45.183248043,AGENT#38b78e1a-5256-11ea-a75c-7f9e866e2ad3,20,48,68,10,1.0,1.0,0
run-2020-2-18-13-54-45.183248043,AGENT#38c0de02-5256-11ea-a525-3ba5c06948bd,4,64,68,10,1.0,1.0,0
run-2020-2-18-13-54-45.183248043,AGENT#38c28770-5256-11ea-9152-bf31ffbec81d,1,67,68,10,1.0,1.0,0
run-2020-2-18-13-54-45.183248043,AGENT#38c17146-5256-11ea-a5ce-cf26f1e3d2cc,4,65,69,10,1.0,1.0,0
run-2020-2-18-13-54-45.183248043,AGENT#38c1ff1c-5256-11ea-bd36-d735032930e0,3,66,69,10,1.0,1.0,0
run-2020-2-18-13-54-45.183248043,AGENT#38c1f512-5256-11ea-bde4-23e9ebf27f08,4,66,70,10,1.0,1.0,0
run-2020-2-18-13-54-45.183248043,AGENT#38c28a22-5256-11ea-a756-b73d3d8e92af,3,67,70,10,1.0,1.0,0
run-2020-2-18-13-54-45.183248043,AGENT#38b6720a-5256-11ea-aba0-7bc212747a27,25,46,71,10,1.0,1.0,0
run-2020-2-18-13-54-45.183248043,AGENT#38c1f7e2-5256-11ea-8d37-b345aae6ba93,5,66,71,10,1.0,1.0,0
run-2020-2-18-13-54-45.183248043,AGENT#38c28c8e-5256-11ea-a5ea-13800ecee6dc,4,67,71,10,1.0,1.0,0
run-2020-2-18-13-54-45.183248043,AGENT#38c3adbc-5256-11ea-b0ea-6bf5ff757e33,2,69,71,10,1.0,1.0,0
run-2020-2-18-13-54-45.183248043,AGENT#38c3aff6-5256-11ea-88c3-0f69660ed73d,2,69,71,10,1.0,1.0,0
run-2020-2-18-13-54-45.183248043,AGENT#38c3b23a-5256-11ea-88f3-b3f477992855,2,69,71,10,1.0,1.0,0
run-2020-2-18-13-54-45.183248043,AGENT#38af0e84-5256-11ea-9717-83d0365747cf,45,27,72,10,1.0,1.0,0
run-2020-2-18-13-54-45.183248043,AGENT#38c28f0e-5256-11ea-bf55-eb66cf699e40,5,67,72,10,1.0,1.0,0
run-2020-2-18-13-54-45.183248043,AGENT#38c44506-5256-11ea-acff-3365f840def1,2,70,72,10,1.0,1.0,0
run-2020-2-18-13-54-45.183248043,AGENT#38af6d84-5256-11ea-a19f-2bdf3252ee61,46,28,74,10,1.0,1.0,0
run-2020-2-18-13-54-45.183248043,AGENT#38c4475e-5256-11ea-b370-7f038d89c376,4,70,74,10,1.0,1.0,0
run-2020-2-18-13-54-45.183248043,AGENT#38c56bb6-5256-11ea-9aee-6b7c9bf76bce,2,72,74,10,1.0,1.0,0
run-2020-2-18-13-54-45.183248043,AGENT#38c5fb12-5256-11ea-9b53-5bd688e96ef6,1,73,74,10,1.0,1.0,0
run-2020-2-18-13-54-45.183248043,AGENT#38b0280a-5256-11ea-bf26-cb8fe1554d6b,45,30,75,10,1.0,1.0,0
run-2020-2-18-13-54-45.183248043,AGENT#38c5f8ce-5256-11ea-a559-0f4bac80bf96,2,73,75,10,1.0,1.0,0
run-2020-2-18-13-54-45.183248043,AGENT#38c5ffa4-5256-11ea-8c19-236843cd4142,2,73,75,10,1.0,1.0,0
run-2020-2-18-13-54-45.183248043,AGENT#38c6acec-5256-11ea-aa35-cb1b591a9f3b,1,74,75,10,1.0,1.0,0
run-2020-2-18-13-54-45.183248043,AGENT#38c4e380-5256-11ea-90a7-3f186a344c02,5,71,76,10,1.0,1.0,0
run-2020-2-18-13-54-45.183248043,AGENT#38c5f176-5256-11ea-ba97-6731841c7aa1,3,73,76,10,1.0,1.0,0
run-2020-2-18-13-54-45.183248043,AGENT#38c5fd60-5256-11ea-b5b6-4be8a884444f,3,73,76,10,1.0,1.0,0
run-2020-2-18-13-54-45.183248043,AGENT#38c6aa58-5256-11ea-8464-2360b7cccd6f,2,74,76,10,1.0,1.0,0
run-2020-2-18-13-54-45.183248043,AGENT#38c6b1a6-5256-11ea-9a7d-9325bcc89165,2,74,76,10,1.0,1.0,0
run-2020-2-18-13-54-45.183248043,AGENT#38c750c0-5256-11ea-b7b3-ff1ba979c53a,1,75,76,10,1.0,1.0,0
run-2020-2-18-13-54-45.183248043,AGENT#38b025a8-5256-11ea-a12b-bb5aa73e84a1,47,30,77,10,1.0,1.0,0
run-2020-2-18-13-54-45.183248043,AGENT#38b20ecc-5256-11ea-9e93-0f3eb09105a4,42,35,77,10,1.0,1.0,0
run-2020-2-18-13-54-45.183248043,AGENT#38b79568-5256-11ea-ae66-f3fc3b1e9d07,29,48,77,10,1.0,1.0,0
run-2020-2-18-13-54-45.183248043,AGENT#38c836e8-5256-11ea-966e-8fcdece160e4,1,76,77,10,1.0,1.0,0
run-2020-2-18-13-54-45.183248043,AGENT#38c83b0c-5256-11ea-ac4b-c7154c45aeda,3,76,79,10,1.0,1.0,0
run-2020-2-18-13-54-45.183248043,AGENT#38c9ee52-5256-11ea-9308-e32ffcf8a092,1,78,79,10,1.0,1.0,0
run-2020-2-18-13-54-45.183248043,AGENT#38b8e0ee-5256-11ea-8322-3b96088f6498,30,50,80,10,1.0,1.0,0
run-2020-2-18-13-54-45.183248043,AGENT#38c9e8e4-5256-11ea-b7cf-cb37ec3bfb4d,2,78,80,10,1.0,1.0,0
run-2020-2-18-13-54-45.183248043,AGENT#38c9f3d4-5256-11ea-b795-0f7ee90e95f1,2,78,80,10,1.0,1.0,0
run-2020-2-18-13-54-45.183248043,AGENT#38c842a0-5256-11ea-84de-5f5e9d1960b3,5,76,81,10,1.0,1.0,0
run-2020-2-18-13-54-45.183248043,AGENT#38c9f140-5256-11ea-b576-7f415dbcf9da,4,78,82,10,1.0,1.0,0
run-2020-2-18-13-54-45.183248043,AGENT#38cbfe40-5256-11ea-a5ec-f37f4ad06b7c,1,81,82,10,1.0,1.0,0
run-2020-2-18-13-54-45.183248043,AGENT#38c44268-5256-11ea-abc7-7b598568c16a,13,70,83,10,1.0,1.0,0
run-2020-2-18-13-54-45.183248043,AGENT#38c9e5ec-5256-11ea-af0b-fba4d754e5a3,5,78,83,10,1.0,1.0,0
run-2020-2-18-13-54-45.183248043,AGENT#38cc057a-5256-11ea-903c-a7c7b346df2e,2,81,83,10,1.0,1.0,0
run-2020-2-18-13-54-45.183248043,AGENT#38ccb7b8-5256-11ea-a928-d7b22b15c10b,1,82,83,10,1.0,1.0,0
run-2020-2-18-13-54-45.183248043,AGENT#38b38d4c-5256-11ea-bf80-3bc203e60b77,45,39,84,10,1.0,1.0,0
run-2020-2-18-13-54-45.183248043,AGENT#38cc00d4-5256-11ea-a739-070a5cfa349a,3,81,84,10,1.0,1.0,0
run-2020-2-18-13-54-45.183248043,AGENT#38cc032c-5256-11ea-8b30-379387cb26a0,3,81,84,10,1.0,1.0,0
run-2020-2-18-13-54-45.183248043,AGENT#38cc07c8-5256-11ea-9a62-6b06d4be0b08,3,81,84,10,1.0,1.0,0
run-2020-2-18-13-54-45.183248043,AGENT#38b52ca6-5256-11ea-bfcf-73bf1ffb3bba,42,43,85,10,1.0,1.0,0
run-2020-2-18-13-54-45.183248043,AGENT#38cc0a2a-5256-11ea-b8e5-a352e5ee31ed,4,81,85,10,1.0,1.0,0
run-2020-2-18-13-54-45.183248043,AGENT#38ccbca4-5256-11ea-9354-936fab3c8ff7,3,82,85,10,1.0,1.0,0
run-2020-2-18-13-54-45.183248043,AGENT#38b450ec-5256-11ea-a8ba-fbee318d9691,45,41,86,10,1.0,1.0,0
run-2020-2-18-13-54-45.183248043,AGENT#38cd8ab2-5256-11ea-a249-53b82da2272f,3,83,86,10,1.0,1.0,0
run-2020-2-18-13-54-45.183248043,AGENT#38ce4984-5256-11ea-99cd-f707235dd5b1,2,84,86,10,1.0,1.0,0
run-2020-2-18-13-54-45.183248043,AGENT#38cf0e32-5256-11ea-94a4-4fc211f4169c,1,85,86,10,1.0,1.0,0
run-2020-2-18-13-54-45.183248043,AGENT#38b4b9ec-5256-11ea-af86-03c8b091f61d,45,42,87,10,1.0,1.0,0
run-2020-2-18-13-54-45.183248043,AGENT#38b4bcd0-5256-11ea-9a6e-5fae7d23d353,45,42,87,10,1.0,1.0,0
run-2020-2-18-13-54-45.183248043,AGENT#38cf1134-5256-11ea-9a7c-7fb2f123a561,2,85,87,10,1.0,1.0,0
run-2020-2-18-13-54-45.183248043,AGENT#38cfe6b8-5256-11ea-8417-8bd5a1a8ca76,1,86,87,10,1.0,1.0,0
run-2020-2-18-13-54-45.183248043,AGENT#38c928b4-5256-11ea-b12c-53dc14e94137,11,77,88,10,1.0,1.0,0
run-2020-2-18-13-54-45.183248043,AGENT#38cfe3e8-5256-11ea-8e37-bf310d8eb3e7,2,86,88,10,1.0,1.0,0
run-2020-2-18-13-54-45.183248043,AGENT#38cfeb9a-5256-11ea-8116-c78a3f31b9b4,2,86,88,10,1.0,1.0,0
run-2020-2-18-13-54-45.183248043,AGENT#38d0d302-5256-11ea-bb7f-9ff1a75af7ca,1,87,88,10,1.0,1.0,0
run-2020-2-18-13-54-45.183248043,AGENT#38b6640e-5256-11ea-b1d7-37aebbafb390,43,46,89,10,1.0,1.0,0
run-2020-2-18-13-54-45.183248043,AGENT#38ce470e-5256-11ea-a201-6787c416953e,5,84,89,10,1.0,1.0,0
run-2020-2-18-13-54-45.183248043,AGENT#38ce4bd2-5256-11ea-8925-7b13424a3377,5,84,89,10,1.0,1.0,0
run-2020-2-18-13-54-45.183248043,AGENT#38ce4e20-5256-11ea-b38f-8fe6c9f7d0d8,5,84,89,10,1.0,1.0,0
run-2020-2-18-13-54-45.183248043,AGENT#38d2b5d2-5256-11ea-8ea6-37f4b952a04b,1,89,90,10,1.0,1.0,0
run-2020-2-18-13-54-45.183248043,AGENT#38d2b898-5256-11ea-95fc-6f9b72b31feb,1,89,90,10,1.0,1.0,0
run-2020-2-18-13-54-45.183248043,AGENT#38bc5814-5256-11ea-908f-837628fbecfb,35,56,91,10,1.0,1.0,0
run-2020-2-18-13-54-45.183248043,AGENT#38bdf264-5256-11ea-8506-f31ee0ae7666,32,59,91,10,1.0,1.0,0
run-2020-2-18-13-54-45.183248043,AGENT#38d1dd24-5256-11ea-97e2-af4bbb28cf1c,3,88,91,10,1.0,1.0,0
run-2020-2-18-13-54-45.183248043,AGENT#38b70d1e-5256-11ea-8287-eb194e0428f7,45,47,92,10,1.0,1.0,0
run-2020-2-18-13-54-45.183248043,AGENT#38d3835e-5256-11ea-8d91-f70260f7358a,2,90,92,10,1.0,1.0,0
run-2020-2-18-13-54-45.183248043,AGENT#38b7907c-5256-11ea-b309-4bdec13c65bb,45,48,93,10,1.0,1.0,0
run-2020-2-18-13-54-45.183248043,AGENT#38c5f68a-5256-11ea-ba64-9f105e744f46,20,73,93,10,1.0,1.0,0
run-2020-2-18-13-54-45.183248043,AGENT#38d37ba2-5256-11ea-8c25-0f3b2813c482,3,90,93,10,1.0,1.0,0
run-2020-2-18-13-54-45.183248043,AGENT#38d380e8-5256-11ea-9d2b-7b9adc5c7664,3,90,93,10,1.0,1.0,0
run-2020-2-18-13-54-45.183248043,AGENT#38d44ed8-5256-11ea-9254-df3fad738b88,2,91,93,10,1.0,1.0,0
run-2020-2-18-13-54-45.183248043,AGENT#38d526b4-5256-11ea-ba47-9f7376221140,1,92,93,10,1.0,1.0,0
run-2020-2-18-13-54-45.183248043,AGENT#38d44c44-5256-11ea-8739-2f99d861855c,3,91,94,10,1.0,1.0,0
run-2020-2-18-13-54-45.183248043,AGENT#38d64f8a-5256-11ea-a6f6-0b4a9b0dbb7c,1,93,94,10,1.0,1.0,0
run-2020-2-18-13-54-45.183248043,AGENT#38d65318-5256-11ea-8eaa-7b8d4c74836b,1,93,94,10,1.0,1.0,0
run-2020-2-18-13-54-45.183248043,AGENT#38b8e3c8-5256-11ea-8004-dfcd93de79aa,45,50,95,10,1.0,1.0,0
run-2020-2-18-13-54-45.183248043,AGENT#38d2bb2c-5256-11ea-afd7-ffec0ccfa736,6,89,95,10,1.0,1.0,0
run-2020-2-18-13-54-45.183248043,AGENT#38d6566a-5256-11ea-8d57-07ea67e7cac6,2,93,95,10,1.0,1.0,0
run-2020-2-18-13-54-45.183248043,AGENT#38d449a6-5256-11ea-b677-2fc95020bb95,5,91,96,10,1.0,1.0,0
run-2020-2-18-13-54-45.183248043,AGENT#38d767f8-5256-11ea-a94a-d386f675681d,2,94,96,10,1.0,1.0,0
run-2020-2-18-13-54-45.183248043,AGENT#38d84f92-5256-11ea-a943-0b614afd36ba,1,95,96,10,1.0,1.0,0
run-2020-2-18-13-54-45.183248043,AGENT#38d851d6-5256-11ea-9b76-f79698dfe278,1,95,96,10,1.0,1.0,0
run-2020-2-18-13-54-45.183248043,AGENT#38ba2fe4-5256-11ea-9b2e-0327917e96a9,45,52,97,10,1.0,1.0,0
run-2020-2-18-13-54-45.183248043,AGENT#38d52aec-5256-11ea-868f-f370fd5d1a08,5,92,97,10,1.0,1.0,0
run-2020-2-18-13-54-45.183248043,AGENT#38d84d1c-5256-11ea-9d49-079e1881077b,2,95,97,10,1.0,1.0,0
run-2020-2-18-13-54-45.183248043,AGENT#38d65cd2-5256-11ea-83c3-4ba7406fc770,5,93,98,10,1.0,1.0,0
run-2020-2-18-13-54-45.183248043,AGENT#38d847fe-5256-11ea-93cb-63381c022a32,3,95,98,10,1.0,1.0,0
run-2020-2-18-13-54-45.183248043,AGENT#38ba2cba-5256-11ea-b9e6-d34ae3c23291,47,52,99,10,1.0,1.0,0
run-2020-2-18-13-54-45.183248043,AGENT#38cfe92e-5256-11ea-a651-7b2c4068f61a,13,86,99,10,1.0,1.0,0
run-2020-2-18-13-54-45.183248043,AGENT#38d764e2-5256-11ea-a771-9f62736bbc7f,5,94,99,10,1.0,1.0,0
run-2020-2-18-13-54-45.183248043,AGENT#38d84aa6-5256-11ea-8d58-a7a3c4d383ed,4,95,99,10,1.0,1.0,0
run-2020-2-18-13-54-45.183248043,AGENT#38d92dfe-5256-11ea-9775-af9b6ca4e307,3,96,99,10,1.0,1.0,0
run-2020-2-18-13-54-45.183248043,AGENT#38d9fe32-5256-11ea-b8f2-3b0bdcbdc628,2,97,99,10,1.0,1.0,0
