RunID,Tick,AllAgents,Active,Inactive
run-2020-2-28-11-12-4.648382902,0,13,12,1
run-2020-2-28-11-12-4.648382902,1,17,15,2
run-2020-2-28-11-12-4.648382902,2,20,17,3
run-2020-2-28-11-12-4.648382902,3,25,18,7
run-2020-2-28-11-12-4.648382902,4,27,16,11
run-2020-2-28-11-12-4.648382902,5,29,16,13
run-2020-2-28-11-12-4.648382902,6,32,17,15
run-2020-2-28-11-12-4.648382902,7,37,20,17
run-2020-2-28-11-12-4.648382902,8,41,20,21
run-2020-2-28-11-12-4.648382902,9,46,23,23
run-2020-2-28-11-12-4.648382902,10,53,28,25
run-2020-2-28-11-12-4.648382902,11,55,28,27
run-2020-2-28-11-12-4.648382902,12,55,24,31
run-2020-2-28-11-12-4.648382902,13,61,27,34
run-2020-2-28-11-12-4.648382902,14,66,27,39
run-2020-2-28-11-12-4.648382902,15,70,31,39
run-2020-2-28-11-12-4.648382902,16,73,30,43
run-2020-2-28-11-12-4.648382902,17,77,28,49
run-2020-2-28-11-12-4.648382902,18,79,28,51
run-2020-2-28-11-12-4.648382902,19,82,29,53
run-2020-2-28-11-12-4.648382902,20,89,33,56
run-2020-2-28-11-12-4.648382902,21,93,32,61
run-2020-2-28-11-12-4.648382902,22,99,34,65
run-2020-2-28-11-12-4.648382902,23,102,33,69
run-2020-2-28-11-12-4.648382902,24,110,40,70
run-2020-2-28-11-12-4.648382902,25,110,37,73
run-2020-2-28-11-12-4.648382902,26,114,37,77
run-2020-2-28-11-12-4.648382902,27,120,41,79
run-2020-2-28-11-12-4.648382902,28,121,40,81
run-2020-2-28-11-12-4.648382902,29,121,38,83
run-2020-2-28-11-12-4.648382902,30,127,42,85
run-2020-2-28-11-12-4.648382902,31,130,42,88
run-2020-2-28-11-12-4.648382902,32,133,43,90
run-2020-2-28-11-12-4.648382902,33,134,43,91
run-2020-2-28-11-12-4.648382902,34,136,40,96
run-2020-2-28-11-12-4.648382902,35,138,41,97
run-2020-2-28-11-12-4.648382902,36,143,44,99
run-2020-2-28-11-12-4.648382902,37,146,45,101
run-2020-2-28-11-12-4.648382902,38,148,45,103
run-2020-2-28-11-12-4.648382902,39,153,49,104
run-2020-2-28-11-12-4.648382902,40,156,50,106
run-2020-2-28-11-12-4.648382902,41,158,50,108
run-2020-2-28-11-12-4.648382902,42,162,51,111
run-2020-2-28-11-12-4.648382902,43,166,51,115
run-2020-2-28-11-12-4.648382902,44,171,53,118
run-2020-2-28-11-12-4.648382902,45,178,56,122
run-2020-2-28-11-12-4.648382902,46,182,56,126
run-2020-2-28-11-12-4.648382902,47,192,61,131
run-2020-2-28-11-12-4.648382902,48,197,60,137
run-2020-2-28-11-12-4.648382902,49,203,60,143
run-2020-2-28-11-12-4.648382902,50,207,56,151
run-2020-2-28-11-12-4.648382902,51,213,56,157
run-2020-2-28-11-12-4.648382902,52,215,53,162
run-2020-2-28-11-12-4.648382902,53,217,49,168
run-2020-2-28-11-12-4.648382902,54,219,47,172
run-2020-2-28-11-12-4.648382902,55,222,45,177
run-2020-2-28-11-12-4.648382902,56,224,43,181
run-2020-2-28-11-12-4.648382902,57,228,47,181
run-2020-2-28-11-12-4.648382902,58,236,54,182
run-2020-2-28-11-12-4.648382902,59,243,55,188
run-2020-2-28-11-12-4.648382902,60,245,50,195
run-2020-2-28-11-12-4.648382902,61,252,53,199
run-2020-2-28-11-12-4.648382902,62,255,51,204
run-2020-2-28-11-12-4.648382902,63,256,50,206
run-2020-2-28-11-12-4.648382902,64,260,51,209
run-2020-2-28-11-12-4.648382902,65,264,50,214
run-2020-2-28-11-12-4.648382902,66,269,51,218
run-2020-2-28-11-12-4.648382902,67,271,50,221
run-2020-2-28-11-12-4.648382902,68,275,50,225
run-2020-2-28-11-12-4.648382902,69,277,46,231
run-2020-2-28-11-12-4.648382902,70,279,46,233
run-2020-2-28-11-12-4.648382902,71,279,44,235
run-2020-2-28-11-12-4.648382902,72,285,49,236
run-2020-2-28-11-12-4.648382902,73,291,51,240
run-2020-2-28-11-12-4.648382902,74,295,52,243
run-2020-2-28-11-12-4.648382902,75,299,51,248
run-2020-2-28-11-12-4.648382902,76,302,50,252
run-2020-2-28-11-12-4.648382902,77,310,54,256
run-2020-2-28-11-12-4.648382902,78,311,50,261
run-2020-2-28-11-12-4.648382902,79,313,49,264
run-2020-2-28-11-12-4.648382902,80,316,50,266
run-2020-2-28-11-12-4.648382902,81,320,51,269
run-2020-2-28-11-12-4.648382902,82,327,49,278
run-2020-2-28-11-12-4.648382902,83,332,48,284
run-2020-2-28-11-12-4.648382902,84,335,50,285
run-2020-2-28-11-12-4.648382902,85,337,51,286
run-2020-2-28-11-12-4.648382902,86,338,48,290
run-2020-2-28-11-12-4.648382902,87,341,47,294
run-2020-2-28-11-12-4.648382902,88,346,49,297
run-2020-2-28-11-12-4.648382902,89,348,50,298
run-2020-2-28-11-12-4.648382902,90,351,48,303
run-2020-2-28-11-12-4.648382902,91,355,49,306
run-2020-2-28-11-12-4.648382902,92,358,49,309
run-2020-2-28-11-12-4.648382902,93,366,55,311
run-2020-2-28-11-12-4.648382902,94,372,58,314
run-2020-2-28-11-12-4.648382902,95,373,54,319
run-2020-2-28-11-12-4.648382902,96,379,59,320
run-2020-2-28-11-12-4.648382902,97,385,58,327
run-2020-2-28-11-12-4.648382902,98,387,53,334
run-2020-2-28-11-12-4.648382902,99,393,57,336
