RunID,Agent,Age,Created,Inactive,Resources,Reputation,Ability,Que
run-2020-2-18-13-44-54.364584922,AGENT#d81d4528-5254-11ea-bb24-5335a1d9259f,0,0,0,10,1.0,1.0,0
run-2020-2-18-13-44-54.364584922,AGENT#d81d3fce-5254-11ea-983e-2b9f6a82d456,1,0,1,10,1.0,1.0,0
run-2020-2-18-13-44-54.364584922,AGENT#d81d47b2-5254-11ea-9782-cb75352b139a,1,0,1,10,1.0,1.0,0
run-2020-2-18-13-44-54.364584922,AGENT#d81d4f82-5254-11ea-9cd9-3fa1aa3f88c7,1,0,1,10,1.0,1.0,0
run-2020-2-18-13-44-54.364584922,AGENT#d81d9014-5254-11ea-9e2b-7fc5d0b9a6a2,1,0,1,10,1.0,1.0,0
run-2020-2-18-13-44-54.364584922,AGENT#d81d3d26-5254-11ea-944c-3313a5a9b859,2,0,2,10,1.0,1.0,0
run-2020-2-18-13-44-54.364584922,AGENT#d81d4276-5254-11ea-8991-f79045c141ce,2,0,2,10,1.0,1.0,0
run-2020-2-18-13-44-54.364584922,AGENT#d81d4cda-5254-11ea-a8a7-e7a0fbb12017,2,0,2,10,1.0,1.0,0
run-2020-2-18-13-44-54.364584922,AGENT#d81d92da-5254-11ea-9101-17c2a01d1557,2,0,2,10,1.0,1.0,0
run-2020-2-18-13-44-54.364584922,AGENT#d81e204c-5254-11ea-845b-5fff1850dff2,1,1,2,10,1.0,1.0,0
run-2020-2-18-13-44-54.364584922,AGENT#d81e24a2-5254-11ea-a64b-9b0bd950c818,1,1,2,10,1.0,1.0,0
run-2020-2-18-13-44-54.364584922,AGENT#d81e1bba-5254-11ea-a9b1-c747629596f6,2,1,3,10,1.0,1.0,0
run-2020-2-18-13-44-54.364584922,AGENT#d81e8334-5254-11ea-a195-efcfb8df2de1,1,2,3,10,1.0,1.0,0
run-2020-2-18-13-44-54.364584922,AGENT#d81d4a46-5254-11ea-b00d-ff388b474ab7,4,0,4,10,1.0,1.0,0
run-2020-2-18-13-44-54.364584922,AGENT#d81d9596-5254-11ea-8778-8720f7a73f62,4,0,4,10,1.0,1.0,0
run-2020-2-18-13-44-54.364584922,AGENT#d81e7de4-5254-11ea-9aac-8309d558d8fb,2,2,4,10,1.0,1.0,0
run-2020-2-18-13-44-54.364584922,AGENT#d81e920c-5254-11ea-b3e4-a3a6fded14f6,2,2,4,10,1.0,1.0,0
run-2020-2-18-13-44-54.364584922,AGENT#d81ef3e6-5254-11ea-b86e-a3d46be5a659,1,3,4,10,1.0,1.0,0
run-2020-2-18-13-44-54.364584922,AGENT#d81efcba-5254-11ea-9610-bb83669a160e,1,3,4,10,1.0,1.0,0
run-2020-2-18-13-44-54.364584922,AGENT#d81d3a6a-5254-11ea-a420-13d3c6ea957e,5,0,5,10,1.0,1.0,0
run-2020-2-18-13-44-54.364584922,AGENT#d81d8d58-5254-11ea-880b-8338061b8b0d,5,0,5,10,1.0,1.0,0
run-2020-2-18-13-44-54.364584922,AGENT#d81e88ca-5254-11ea-bd5c-07a63a445e6d,3,2,5,10,1.0,1.0,0
run-2020-2-18-13-44-54.364584922,AGENT#d81ef7ec-5254-11ea-8e66-57e7eefe6349,2,3,5,10,1.0,1.0,0
run-2020-2-18-13-44-54.364584922,AGENT#d81f41f2-5254-11ea-9271-b365ace2d4be,1,4,5,10,1.0,1.0,0
run-2020-2-18-13-44-54.364584922,AGENT#d81d8a88-5254-11ea-8dd7-ef49be635a16,6,0,6,10,1.0,1.0,0
run-2020-2-18-13-44-54.364584922,AGENT#d81eee32-5254-11ea-8bbe-7f40614b6f1f,3,3,6,10,1.0,1.0,0
run-2020-2-18-13-44-54.364584922,AGENT#d81f7564-5254-11ea-93c2-e75f2e0edb7b,1,5,6,10,1.0,1.0,0
run-2020-2-18-13-44-54.364584922,AGENT#d81f7e4c-5254-11ea-850b-ab1dfe8c57ba,1,5,6,10,1.0,1.0,0
run-2020-2-18-13-44-54.364584922,AGENT#d81fb5e2-5254-11ea-bb0a-af53745d7843,1,6,7,10,1.0,1.0,0
run-2020-2-18-13-44-54.364584922,AGENT#d81fbe70-5254-11ea-8729-bf5f8406e811,1,6,7,10,1.0,1.0,0
run-2020-2-18-13-44-54.364584922,AGENT#d81fc10e-5254-11ea-bb8d-372e492bab35,1,6,7,10,1.0,1.0,0
run-2020-2-18-13-44-54.364584922,AGENT#d81e8dde-5254-11ea-a9c4-4b9acb3d369e,6,2,8,10,1.0,1.0,0
run-2020-2-18-13-44-54.364584922,AGENT#d81fc3ca-5254-11ea-aead-3712a18ce1d3,2,6,8,10,1.0,1.0,0
run-2020-2-18-13-44-54.364584922,AGENT#d81ffd86-5254-11ea-86b9-f31a2416ed92,1,7,8,10,1.0,1.0,0
run-2020-2-18-13-44-54.364584922,AGENT#d820006a-5254-11ea-97e3-47472f147f5b,1,7,8,10,1.0,1.0,0
run-2020-2-18-13-44-54.364584922,AGENT#d81fb8ee-5254-11ea-9e4e-832d78a5345d,3,6,9,10,1.0,1.0,0
run-2020-2-18-13-44-54.364584922,AGENT#d81fbbc8-5254-11ea-8caf-23ccbd3f04fa,3,6,9,10,1.0,1.0,0
run-2020-2-18-13-44-54.364584922,AGENT#d820031c-5254-11ea-b91a-473e73c95220,2,7,9,10,1.0,1.0,0
run-2020-2-18-13-44-54.364584922,AGENT#d82005f6-5254-11ea-9e19-c3459e2e1ebf,2,7,9,10,1.0,1.0,0
run-2020-2-18-13-44-54.364584922,AGENT#d82045d4-5254-11ea-ad6d-33a0ecb4e9ab,1,8,9,10,1.0,1.0,0
run-2020-2-18-13-44-54.364584922,AGENT#d81f7b72-5254-11ea-8c4d-0bd26e6c245b,5,5,10,10,1.0,1.0,0
run-2020-2-18-13-44-54.364584922,AGENT#d820813e-5254-11ea-89ea-eb8030539a17,2,9,11,10,1.0,1.0,0
run-2020-2-18-13-44-54.364584922,AGENT#d82086de-5254-11ea-b44a-efc68312a20a,2,9,11,10,1.0,1.0,0
run-2020-2-18-13-44-54.364584922,AGENT#d820842c-5254-11ea-974e-47b1d4a8492a,3,9,12,10,1.0,1.0,0
run-2020-2-18-13-44-54.364584922,AGENT#d820f6a0-5254-11ea-b1fe-9355b235c29b,3,11,14,10,1.0,1.0,0
run-2020-2-18-13-44-54.364584922,AGENT#d8213746-5254-11ea-8649-83e88d53a7a5,2,12,14,10,1.0,1.0,0
run-2020-2-18-13-44-54.364584922,AGENT#d821756c-5254-11ea-b161-278d43b46fa6,1,13,14,10,1.0,1.0,0
run-2020-2-18-13-44-54.364584922,AGENT#d821348a-5254-11ea-8716-93938d8e2a61,3,12,15,10,1.0,1.0,0
run-2020-2-18-13-44-54.364584922,AGENT#d8217292-5254-11ea-9376-d35a587bc1d2,2,13,15,10,1.0,1.0,0
run-2020-2-18-13-44-54.364584922,AGENT#d820f9e8-5254-11ea-9532-1ba6ad1ea008,5,11,16,10,1.0,1.0,0
run-2020-2-18-13-44-54.364584922,AGENT#d8217832-5254-11ea-a0dc-c3f6b9fb7bca,3,13,16,10,1.0,1.0,0
run-2020-2-18-13-44-54.364584922,AGENT#d82227dc-5254-11ea-8ab5-77706aa5186f,2,15,17,10,1.0,1.0,0
run-2020-2-18-13-44-54.364584922,AGENT#d8221c42-5254-11ea-80a5-2bb8790edfe2,4,15,19,10,1.0,1.0,0
run-2020-2-18-13-44-54.364584922,AGENT#d822234a-5254-11ea-966c-3bba9fe4d278,4,15,19,10,1.0,1.0,0
run-2020-2-18-13-44-54.364584922,AGENT#d82284d4-5254-11ea-9de3-a7cbfb5890f5,3,16,19,10,1.0,1.0,0
run-2020-2-18-13-44-54.364584922,AGENT#d822d29a-5254-11ea-b24c-6368f5625dc0,2,17,19,10,1.0,1.0,0
run-2020-2-18-13-44-54.364584922,AGENT#d8233122-5254-11ea-862d-4714fd0d556d,1,18,19,10,1.0,1.0,0
run-2020-2-18-13-44-54.364584922,AGENT#d81d3736-5254-11ea-9a49-cbfe66516c89,20,0,20,10,1.0,1.0,0
run-2020-2-18-13-44-54.364584922,AGENT#d822cc00-5254-11ea-9ca7-b3531cd52295,3,17,20,10,1.0,1.0,0
run-2020-2-18-13-44-54.364584922,AGENT#d822d678-5254-11ea-aee7-77b77a2bca3e,3,17,20,10,1.0,1.0,0
run-2020-2-18-13-44-54.364584922,AGENT#d822dc0e-5254-11ea-8839-5ff741d1cd6f,3,17,20,10,1.0,1.0,0
run-2020-2-18-13-44-54.364584922,AGENT#d823346a-5254-11ea-8452-8346ede7812b,2,18,20,10,1.0,1.0,0
run-2020-2-18-13-44-54.364584922,AGENT#d8227e94-5254-11ea-b089-a7c55b920645,5,16,21,10,1.0,1.0,0
run-2020-2-18-13-44-54.364584922,AGENT#d823880c-5254-11ea-9b62-b78ff882f67c,2,19,21,10,1.0,1.0,0
run-2020-2-18-13-44-54.364584922,AGENT#d8238d7a-5254-11ea-8037-538b0e478b35,2,19,21,10,1.0,1.0,0
run-2020-2-18-13-44-54.364584922,AGENT#d823f51c-5254-11ea-8cb0-13fe387e23e4,1,20,21,10,1.0,1.0,0
run-2020-2-18-13-44-54.364584922,AGENT#d8238adc-5254-11ea-8593-7391e8f6dc7c,3,19,22,10,1.0,1.0,0
run-2020-2-18-13-44-54.364584922,AGENT#d823ef40-5254-11ea-a3b6-af8746b6f827,2,20,22,10,1.0,1.0,0
run-2020-2-18-13-44-54.364584922,AGENT#d823f210-5254-11ea-bc06-779d7afcbfb3,3,20,23,10,1.0,1.0,0
run-2020-2-18-13-44-54.364584922,AGENT#d82451ec-5254-11ea-970f-17fbb6ecb8ca,2,21,23,10,1.0,1.0,0
run-2020-2-18-13-44-54.364584922,AGENT#d824a62e-5254-11ea-b2c7-839f0c1fc526,2,22,24,10,1.0,1.0,0
run-2020-2-18-13-44-54.364584922,AGENT#d824a944-5254-11ea-a713-5312c4a1134a,2,22,24,10,1.0,1.0,0
run-2020-2-18-13-44-54.364584922,AGENT#d825022c-5254-11ea-893b-dbacc749aa23,1,23,24,10,1.0,1.0,0
run-2020-2-18-13-44-54.364584922,AGENT#d8239004-5254-11ea-b136-375f64066143,6,19,25,10,1.0,1.0,0
run-2020-2-18-13-44-54.364584922,AGENT#d8256d66-5254-11ea-896e-27da12abcdbe,1,24,25,10,1.0,1.0,0
run-2020-2-18-13-44-54.364584922,AGENT#d8257284-5254-11ea-9f02-3779e05529a8,1,24,25,10,1.0,1.0,0
run-2020-2-18-13-44-54.364584922,AGENT#d82504fc-5254-11ea-abee-239e20de5ee2,3,23,26,10,1.0,1.0,0
run-2020-2-18-13-44-54.364584922,AGENT#d82507a4-5254-11ea-a194-4f2ac90917cb,3,23,26,10,1.0,1.0,0
run-2020-2-18-13-44-54.364584922,AGENT#d8256aaa-5254-11ea-aa1f-bfb7c307f0c8,2,24,26,10,1.0,1.0,0
run-2020-2-18-13-44-54.364584922,AGENT#d825dd96-5254-11ea-8cef-c38af1556be7,1,25,26,10,1.0,1.0,0
run-2020-2-18-13-44-54.364584922,AGENT#d825e066-5254-11ea-b5d1-afeb61a3e17f,1,25,26,10,1.0,1.0,0
run-2020-2-18-13-44-54.364584922,AGENT#d825e32c-5254-11ea-af25-a37dfc06d7ed,1,25,26,10,1.0,1.0,0
run-2020-2-18-13-44-54.364584922,AGENT#d8250a24-5254-11ea-bf88-97aa248ed26f,4,23,27,10,1.0,1.0,0
run-2020-2-18-13-44-54.364584922,AGENT#d825778e-5254-11ea-9aa1-ff72b0df5764,3,24,27,10,1.0,1.0,0
run-2020-2-18-13-44-54.364584922,AGENT#d826466e-5254-11ea-bdf4-b731cefe52a2,1,26,27,10,1.0,1.0,0
run-2020-2-18-13-44-54.364584922,AGENT#d826492a-5254-11ea-8fc3-1b6f4777c3cc,1,26,27,10,1.0,1.0,0
run-2020-2-18-13-44-54.364584922,AGENT#d8264e3e-5254-11ea-9b72-af88f66634a0,1,26,27,10,1.0,1.0,0
run-2020-2-18-13-44-54.364584922,AGENT#d8264bc8-5254-11ea-8991-e35639b7c0a8,4,26,30,10,1.0,1.0,0
run-2020-2-18-13-44-54.364584922,AGENT#d826ab2c-5254-11ea-a375-afcad271be7b,3,27,30,10,1.0,1.0,0
run-2020-2-18-13-44-54.364584922,AGENT#d827046e-5254-11ea-b1b2-8792c5d9cd6d,2,28,30,10,1.0,1.0,0
run-2020-2-18-13-44-54.364584922,AGENT#d82706da-5254-11ea-ab25-b336453640ff,2,28,30,10,1.0,1.0,0
run-2020-2-18-13-44-54.364584922,AGENT#d8276936-5254-11ea-a45c-73aec6cef296,1,29,30,10,1.0,1.0,0
run-2020-2-18-13-44-54.364584922,AGENT#d8276b98-5254-11ea-b877-dbe704747365,1,29,30,10,1.0,1.0,0
run-2020-2-18-13-44-54.364584922,AGENT#d8277066-5254-11ea-811e-97eab7675cbe,1,29,30,10,1.0,1.0,0
run-2020-2-18-13-44-54.364584922,AGENT#d82701bc-5254-11ea-a19c-4b6cc608e531,3,28,31,10,1.0,1.0,0
run-2020-2-18-13-44-54.364584922,AGENT#d8276e0e-5254-11ea-a450-674dddd11ff9,2,29,31,10,1.0,1.0,0
run-2020-2-18-13-44-54.364584922,AGENT#d827ddb2-5254-11ea-af9a-9f414deb1210,1,30,31,10,1.0,1.0,0
run-2020-2-18-13-44-54.364584922,AGENT#d827e2f8-5254-11ea-bb50-1bedd593ee7a,1,30,31,10,1.0,1.0,0
run-2020-2-18-13-44-54.364584922,AGENT#d827e564-5254-11ea-8b87-ab115c0e37a9,1,30,31,10,1.0,1.0,0
run-2020-2-18-13-44-54.364584922,AGENT#d827ecb2-5254-11ea-85ab-575f660ec56a,1,30,31,10,1.0,1.0,0
run-2020-2-18-13-44-54.364584922,AGENT#d828558a-5254-11ea-8cb3-97350b063649,1,31,32,10,1.0,1.0,0
run-2020-2-18-13-44-54.364584922,AGENT#d827e05a-5254-11ea-ad0a-3b6c6a5b458a,3,30,33,10,1.0,1.0,0
run-2020-2-18-13-44-54.364584922,AGENT#d828bfca-5254-11ea-aa85-6302c05ee646,2,32,34,10,1.0,1.0,0
run-2020-2-18-13-44-54.364584922,AGENT#d828c268-5254-11ea-bc82-477104ed4e29,2,32,34,10,1.0,1.0,0
run-2020-2-18-13-44-54.364584922,AGENT#d828c9de-5254-11ea-b8bc-6f8378dccc81,2,32,34,10,1.0,1.0,0
run-2020-2-18-13-44-54.364584922,AGENT#d82131b0-5254-11ea-b749-9377a689b179,23,12,35,10,1.0,1.0,0
run-2020-2-18-13-44-54.364584922,AGENT#d827e7c6-5254-11ea-a62e-4b389068af92,5,30,35,10,1.0,1.0,0
run-2020-2-18-13-44-54.364584922,AGENT#d82933ba-5254-11ea-b08c-2bd2dd7be04d,2,33,35,10,1.0,1.0,0
run-2020-2-18-13-44-54.364584922,AGENT#d828c4de-5254-11ea-b003-5ba385f6d8af,5,32,37,10,1.0,1.0,0
run-2020-2-18-13-44-54.364584922,AGENT#d8293b12-5254-11ea-a2b6-07cc236a7718,4,33,37,10,1.0,1.0,0
run-2020-2-18-13-44-54.364584922,AGENT#d829b5c4-5254-11ea-b33e-77ec544b4aea,3,34,37,10,1.0,1.0,0
run-2020-2-18-13-44-54.364584922,AGENT#d82938a6-5254-11ea-849c-ab8b511a70a2,5,33,38,10,1.0,1.0,0
run-2020-2-18-13-44-54.364584922,AGENT#d82a3242-5254-11ea-a251-2b47a6dc1cd9,3,35,38,10,1.0,1.0,0
run-2020-2-18-13-44-54.364584922,AGENT#d82a3558-5254-11ea-b785-7b2e6c0f49c0,3,35,38,10,1.0,1.0,0
run-2020-2-18-13-44-54.364584922,AGENT#d82b2a8a-5254-11ea-8f3c-4b8038d90c1d,1,37,38,10,1.0,1.0,0
run-2020-2-18-13-44-54.364584922,AGENT#d82b230a-5254-11ea-92e5-ebce89b50d60,2,37,39,10,1.0,1.0,0
run-2020-2-18-13-44-54.364584922,AGENT#d82b2cec-5254-11ea-af69-ff8ea81e4ad8,2,37,39,10,1.0,1.0,0
run-2020-2-18-13-44-54.364584922,AGENT#d82be7f4-5254-11ea-8139-9b02f3907128,2,38,40,10,1.0,1.0,0
run-2020-2-18-13-44-54.364584922,AGENT#d82c9848-5254-11ea-9c1d-37fe0cc9c981,1,39,40,10,1.0,1.0,0
run-2020-2-18-13-44-54.364584922,AGENT#d82b2832-5254-11ea-9b88-7be06918bab4,4,37,41,10,1.0,1.0,0
run-2020-2-18-13-44-54.364584922,AGENT#d82c8e3e-5254-11ea-ac7b-b76e2cecfe9c,2,39,41,10,1.0,1.0,0
run-2020-2-18-13-44-54.364584922,AGENT#d82d388e-5254-11ea-a019-2b0221474a08,1,40,41,10,1.0,1.0,0
run-2020-2-18-13-44-54.364584922,AGENT#d82b1e1e-5254-11ea-bf76-ebbff28d6b6b,5,37,42,10,1.0,1.0,0
run-2020-2-18-13-44-54.364584922,AGENT#d82becb8-5254-11ea-a353-2f46be88fa49,4,38,42,10,1.0,1.0,0
run-2020-2-18-13-44-54.364584922,AGENT#d82beefc-5254-11ea-8a68-3347f43878c5,4,38,42,10,1.0,1.0,0
run-2020-2-18-13-44-54.364584922,AGENT#d82c91ae-5254-11ea-96a9-3f5c2fcc2ee9,3,39,42,10,1.0,1.0,0
run-2020-2-18-13-44-54.364584922,AGENT#d82c94ec-5254-11ea-a0d6-13dca9180bb9,3,39,42,10,1.0,1.0,0
run-2020-2-18-13-44-54.364584922,AGENT#d82dd640-5254-11ea-a8dd-838955291712,1,41,42,10,1.0,1.0,0
run-2020-2-18-13-44-54.364584922,AGENT#d823371c-5254-11ea-8607-6fb6fa40343a,25,18,43,10,1.0,1.0,0
run-2020-2-18-13-44-54.364584922,AGENT#d82be4e8-5254-11ea-b91c-a312e9d8bf07,5,38,43,10,1.0,1.0,0
run-2020-2-18-13-44-54.364584922,AGENT#d82bea4c-5254-11ea-bf9b-e30c83e006bf,5,38,43,10,1.0,1.0,0
run-2020-2-18-13-44-54.364584922,AGENT#d82d32c6-5254-11ea-ac32-2f82072de72a,3,40,43,10,1.0,1.0,0
run-2020-2-18-13-44-54.364584922,AGENT#d82dddca-5254-11ea-b724-afb945bc281e,2,41,43,10,1.0,1.0,0
run-2020-2-18-13-44-54.364584922,AGENT#d82d35dc-5254-11ea-a52c-b746f18bc5ed,4,40,44,10,1.0,1.0,0
run-2020-2-18-13-44-54.364584922,AGENT#d82ddb18-5254-11ea-a9b0-9f3fbff42b8b,3,41,44,10,1.0,1.0,0
run-2020-2-18-13-44-54.364584922,AGENT#d82e79d8-5254-11ea-9315-cbac26d8f0bf,3,42,45,10,1.0,1.0,0
run-2020-2-18-13-44-54.364584922,AGENT#d82f0c9a-5254-11ea-b45a-a3441629fa37,2,43,45,10,1.0,1.0,0
run-2020-2-18-13-44-54.364584922,AGENT#d81d9afa-5254-11ea-b967-4ba7a4497fc6,46,0,46,10,1.0,1.0,0
run-2020-2-18-13-44-54.364584922,AGENT#d81e27d6-5254-11ea-b541-f730cbf87035,45,1,46,10,1.0,1.0,0
run-2020-2-18-13-44-54.364584922,AGENT#d82dd8a2-5254-11ea-b7c3-43ba7c9444b8,5,41,46,10,1.0,1.0,0
run-2020-2-18-13-44-54.364584922,AGENT#d82de252-5254-11ea-9572-e7f952ff741f,5,41,46,10,1.0,1.0,0
run-2020-2-18-13-44-54.364584922,AGENT#d81e9540-5254-11ea-96e4-ab5e0a7074ca,45,2,47,10,1.0,1.0,0
run-2020-2-18-13-44-54.364584922,AGENT#d8250c9a-5254-11ea-a1f5-1f8753000af1,24,23,47,10,1.0,1.0,0
run-2020-2-18-13-44-54.364584922,AGENT#d81ef120-5254-11ea-9623-775f37dd8f80,45,3,48,10,1.0,1.0,0
run-2020-2-18-13-44-54.364584922,AGENT#d82f9be2-5254-11ea-ad45-eb3dfdb3a796,4,44,48,10,1.0,1.0,0
run-2020-2-18-13-44-54.364584922,AGENT#d81d9848-5254-11ea-af19-9bcc5b42711a,49,0,49,10,1.0,1.0,0
run-2020-2-18-13-44-54.364584922,AGENT#d8257504-5254-11ea-91ec-27a620bf9014,25,24,49,10,1.0,1.0,0
run-2020-2-18-13-44-54.364584922,AGENT#d82aae52-5254-11ea-b0e3-bf06c8389450,13,36,49,10,1.0,1.0,0
run-2020-2-18-13-44-54.364584922,AGENT#d831d43e-5254-11ea-9a75-83484db6a0cc,1,48,49,10,1.0,1.0,0
run-2020-2-18-13-44-54.364584922,AGENT#d831db96-5254-11ea-bcd5-9f29f2e51a3e,1,48,49,10,1.0,1.0,0
run-2020-2-18-13-44-54.364584922,AGENT#d831ddda-5254-11ea-88f5-2f06730ada34,1,48,49,10,1.0,1.0,0
run-2020-2-18-13-44-54.364584922,AGENT#d8314370-5254-11ea-a467-2b11760621bd,3,47,50,10,1.0,1.0,0
run-2020-2-18-13-44-54.364584922,AGENT#d831d04c-5254-11ea-92b5-cbc5f0d35d3b,2,48,50,10,1.0,1.0,0
run-2020-2-18-13-44-54.364584922,AGENT#d832684a-5254-11ea-9be3-5b0172a11a9e,1,49,50,10,1.0,1.0,0
run-2020-2-18-13-44-54.364584922,AGENT#d81faffc-5254-11ea-929c-63cafb8638c2,45,6,51,10,1.0,1.0,0
run-2020-2-18-13-44-54.364584922,AGENT#d81fb31c-5254-11ea-98bf-e76ca023efcd,45,6,51,10,1.0,1.0,0
run-2020-2-18-13-44-54.364584922,AGENT#d831d952-5254-11ea-a5bb-337076923c60,3,48,51,10,1.0,1.0,0
run-2020-2-18-13-44-54.364584922,AGENT#d832f5d0-5254-11ea-995c-377024648371,1,50,51,10,1.0,1.0,0
run-2020-2-18-13-44-54.364584922,AGENT#d81f7898-5254-11ea-9904-4faed6a4bdd9,47,5,52,10,1.0,1.0,0
run-2020-2-18-13-44-54.364584922,AGENT#d8314668-5254-11ea-98ab-dbf251944d7e,5,47,52,10,1.0,1.0,0
run-2020-2-18-13-44-54.364584922,AGENT#d829bace-5254-11ea-8cf5-d7c54a4cf74a,19,34,53,10,1.0,1.0,0
run-2020-2-18-13-44-54.364584922,AGENT#d831d70e-5254-11ea-9d18-3b107966f7e6,5,48,53,10,1.0,1.0,0
run-2020-2-18-13-44-54.364584922,AGENT#d83265ca-5254-11ea-8a46-170f0d97f414,4,49,53,10,1.0,1.0,0
run-2020-2-18-13-44-54.364584922,AGENT#d832f81e-5254-11ea-b634-4ba9e5eee290,3,50,53,10,1.0,1.0,0
run-2020-2-18-13-44-54.364584922,AGENT#d832f382-5254-11ea-bf78-a3264f4b4736,4,50,54,10,1.0,1.0,0
run-2020-2-18-13-44-54.364584922,AGENT#d832fa62-5254-11ea-bfd8-a325210d2b8a,5,50,55,10,1.0,1.0,0
run-2020-2-18-13-44-54.364584922,AGENT#d835adf2-5254-11ea-9a99-53e5ed9f7b41,1,54,55,10,1.0,1.0,0
run-2020-2-18-13-44-54.364584922,AGENT#d8207e28-5254-11ea-bd57-13c82f58d88a,47,9,56,10,1.0,1.0,0
run-2020-2-18-13-44-54.364584922,AGENT#d820bc4e-5254-11ea-b6e2-67fc9c32570f,46,10,56,10,1.0,1.0,0
run-2020-2-18-13-44-54.364584922,AGENT#d820c1f8-5254-11ea-b249-973d6ab45848,46,10,56,10,1.0,1.0,0
run-2020-2-18-13-44-54.364584922,AGENT#d835b0cc-5254-11ea-a959-07854eda5e0e,2,54,56,10,1.0,1.0,0
run-2020-2-18-13-44-54.364584922,AGENT#d8364aa0-5254-11ea-92f5-63f3188a39c8,1,55,56,10,1.0,1.0,0
run-2020-2-18-13-44-54.364584922,AGENT#d8364fa0-5254-11ea-8349-6b19036c1b76,1,55,56,10,1.0,1.0,0
run-2020-2-18-13-44-54.364584922,AGENT#d820bf32-5254-11ea-ab28-bb51f9584e97,47,10,57,10,1.0,1.0,0
run-2020-2-18-13-44-54.364584922,AGENT#d836f298-5254-11ea-9cf3-3324314e4d24,1,56,57,10,1.0,1.0,0
run-2020-2-18-13-44-54.364584922,AGENT#d820fc9a-5254-11ea-8327-536e816f32a9,47,11,58,10,1.0,1.0,0
run-2020-2-18-13-44-54.364584922,AGENT#d82f9e9e-5254-11ea-b9de-8fcb01b5fff6,14,44,58,10,1.0,1.0,0
run-2020-2-18-13-44-54.364584922,AGENT#d8365428-5254-11ea-94c5-ab8fed214f4c,3,55,58,10,1.0,1.0,0
run-2020-2-18-13-44-54.364584922,AGENT#d836f054-5254-11ea-a9fb-8fb8d0b86e6a,2,56,58,10,1.0,1.0,0
run-2020-2-18-13-44-54.364584922,AGENT#d821bcfc-5254-11ea-b566-4f0ab71bcde5,45,14,59,10,1.0,1.0,0
run-2020-2-18-13-44-54.364584922,AGENT#d83788f2-5254-11ea-838e-0fcb8bdafdde,2,57,59,10,1.0,1.0,0
run-2020-2-18-13-44-54.364584922,AGENT#d821c026-5254-11ea-82bd-6fda30c4cb81,46,14,60,10,1.0,1.0,0
run-2020-2-18-13-44-54.364584922,AGENT#d822154e-5254-11ea-a9c3-8b61cded2758,45,15,60,10,1.0,1.0,0
run-2020-2-18-13-44-54.364584922,AGENT#d8364d34-5254-11ea-8e78-83f3c36600b5,5,55,60,10,1.0,1.0,0
run-2020-2-18-13-44-54.364584922,AGENT#d83651ee-5254-11ea-9172-8fc6dd04e479,5,55,60,10,1.0,1.0,0
run-2020-2-18-13-44-54.364584922,AGENT#d836566c-5254-11ea-93c5-97d2745b03b9,5,55,60,10,1.0,1.0,0
run-2020-2-18-13-44-54.364584922,AGENT#d838253c-5254-11ea-9420-a3a019b9e16e,2,58,60,10,1.0,1.0,0
run-2020-2-18-13-44-54.364584922,AGENT#d822822c-5254-11ea-9cdd-77f09d9c8b17,45,16,61,10,1.0,1.0,0
run-2020-2-18-13-44-54.364584922,AGENT#d836e938-5254-11ea-8ab9-a73fecf81c05,5,56,61,10,1.0,1.0,0
run-2020-2-18-13-44-54.364584922,AGENT#d8382794-5254-11ea-8777-5fd5d7ce89d7,3,58,61,10,1.0,1.0,0
run-2020-2-18-13-44-54.364584922,AGENT#d8396e24-5254-11ea-8579-2bc45c5a5fad,1,60,61,10,1.0,1.0,0
run-2020-2-18-13-44-54.364584922,AGENT#d83970fe-5254-11ea-8e8f-a75beff0e055,1,60,61,10,1.0,1.0,0
run-2020-2-18-13-44-54.364584922,AGENT#d822c8ae-5254-11ea-bb87-c3bc45585894,45,17,62,10,1.0,1.0,0
run-2020-2-18-13-44-54.364584922,AGENT#d822d952-5254-11ea-9a19-b31b586cf56d,45,17,62,10,1.0,1.0,0
run-2020-2-18-13-44-54.364584922,AGENT#d83822b2-5254-11ea-871b-ff7816d9cd72,4,58,62,10,1.0,1.0,0
run-2020-2-18-13-44-54.364584922,AGENT#d838c97e-5254-11ea-b003-3730efc7652f,3,59,62,10,1.0,1.0,0
run-2020-2-18-13-44-54.364584922,AGENT#d839736a-5254-11ea-ba99-efa171235de8,2,60,62,10,1.0,1.0,0
run-2020-2-18-13-44-54.364584922,AGENT#d83a13e2-5254-11ea-a2a9-b7e4f329142c,1,61,62,10,1.0,1.0,0
run-2020-2-18-13-44-54.364584922,AGENT#d83a16a8-5254-11ea-9197-9f22ee7bff37,1,61,62,10,1.0,1.0,0
run-2020-2-18-13-44-54.364584922,AGENT#d83ac01c-5254-11ea-83ff-eb1020f8ab03,1,62,63,10,1.0,1.0,0
run-2020-2-18-13-44-54.364584922,AGENT#d823952c-5254-11ea-b3fa-bb9bbd1bca34,45,19,64,10,1.0,1.0,0
run-2020-2-18-13-44-54.364584922,AGENT#d838cdfc-5254-11ea-ac3f-bf6df8c4916f,5,59,64,10,1.0,1.0,0
run-2020-2-18-13-44-54.364584922,AGENT#d83ab90a-5254-11ea-b42e-8f74187b037d,2,62,64,10,1.0,1.0,0
run-2020-2-18-13-44-54.364584922,AGENT#d83b63dc-5254-11ea-aac0-3f26d4c0568d,1,63,64,10,1.0,1.0,0
run-2020-2-18-13-44-54.364584922,AGENT#d821b9fa-5254-11ea-84bc-8361d5df6955,51,14,65,10,1.0,1.0,0
run-2020-2-18-13-44-54.364584922,AGENT#d82be0ec-5254-11ea-9e29-0ffd50b69f5c,27,38,65,10,1.0,1.0,0
run-2020-2-18-13-44-54.364584922,AGENT#d83a1dd8-5254-11ea-8459-4b7d48c2e3a9,4,61,65,10,1.0,1.0,0
run-2020-2-18-13-44-54.364584922,AGENT#d83ac256-5254-11ea-8fce-af2d431fb73d,3,62,65,10,1.0,1.0,0
run-2020-2-18-13-44-54.364584922,AGENT#d83c1250-5254-11ea-9e7d-abd64f7567ed,1,64,65,10,1.0,1.0,0
run-2020-2-18-13-44-54.364584922,AGENT#d82392a2-5254-11ea-afb4-330273ff756c,47,19,66,10,1.0,1.0,0
run-2020-2-18-13-44-54.364584922,AGENT#d8244c4c-5254-11ea-b1d4-fb29ca67f3eb,45,21,66,10,1.0,1.0,0
run-2020-2-18-13-44-54.364584922,AGENT#d8245476-5254-11ea-9cce-3bd465b9de4a,45,21,66,10,1.0,1.0,0
run-2020-2-18-13-44-54.364584922,AGENT#d829364e-5254-11ea-b3de-9772e7640cbc,33,33,66,10,1.0,1.0,0
run-2020-2-18-13-44-54.364584922,AGENT#d83ab694-5254-11ea-9ec6-6f19d898eee9,4,62,66,10,1.0,1.0,0
run-2020-2-18-13-44-54.364584922,AGENT#d83c0d78-5254-11ea-9ca2-7b7f2745ed7d,2,64,66,10,1.0,1.0,0
run-2020-2-18-13-44-54.364584922,AGENT#d83b667a-5254-11ea-989d-0f3488e21514,4,63,67,10,1.0,1.0,0
run-2020-2-18-13-44-54.364584922,AGENT#d83cb46c-5254-11ea-8677-6f3d2bca59d1,2,65,67,10,1.0,1.0,0
run-2020-2-18-13-44-54.364584922,AGENT#d83cbbba-5254-11ea-adcf-3fb8a3366216,2,65,67,10,1.0,1.0,0
run-2020-2-18-13-44-54.364584922,AGENT#d8244f58-5254-11ea-96a6-6b62a06c2fb0,47,21,68,10,1.0,1.0,0
run-2020-2-18-13-44-54.364584922,AGENT#d824abec-5254-11ea-a8dc-5742c2d0f5f5,46,22,68,10,1.0,1.0,0
run-2020-2-18-13-44-54.364584922,AGENT#d83b6936-5254-11ea-8d59-8b580fe8f99a,5,63,68,10,1.0,1.0,0
run-2020-2-18-13-44-54.364584922,AGENT#d82e778a-5254-11ea-b6f1-4fd011291e4b,27,42,69,10,1.0,1.0,0
run-2020-2-18-13-44-54.364584922,AGENT#d83c0b0c-5254-11ea-b322-0323bc8bfbcb,5,64,69,10,1.0,1.0,0
run-2020-2-18-13-44-54.364584922,AGENT#d83d66f0-5254-11ea-b116-dbc07ff4115c,3,66,69,10,1.0,1.0,0
run-2020-2-18-13-44-54.364584922,AGENT#d83d6c40-5254-11ea-a7d6-97bfbeb9afc9,3,66,69,10,1.0,1.0,0
run-2020-2-18-13-44-54.364584922,AGENT#d83e01e6-5254-11ea-9855-c7dde2b4aa58,2,67,69,10,1.0,1.0,0
run-2020-2-18-13-44-54.364584922,AGENT#d83e0452-5254-11ea-bb61-d779a7d906cf,2,67,69,10,1.0,1.0,0
run-2020-2-18-13-44-54.364584922,AGENT#d83ea862-5254-11ea-81eb-473d62af3c87,1,68,69,10,1.0,1.0,0
run-2020-2-18-13-44-54.364584922,AGENT#d8250f06-5254-11ea-99f8-0f4915ab6899,47,23,70,10,1.0,1.0,0
run-2020-2-18-13-44-54.364584922,AGENT#d83cb6f6-5254-11ea-b111-c39bbaef725d,5,65,70,10,1.0,1.0,0
run-2020-2-18-13-44-54.364584922,AGENT#d83cb962-5254-11ea-8e40-17904a01b7e9,5,65,70,10,1.0,1.0,0
run-2020-2-18-13-44-54.364584922,AGENT#d83d69b6-5254-11ea-987a-dbdfe6f2a2a6,4,66,70,10,1.0,1.0,0
run-2020-2-18-13-44-54.364584922,AGENT#d83e092a-5254-11ea-aeec-7f880080bc5e,3,67,70,10,1.0,1.0,0
run-2020-2-18-13-44-54.364584922,AGENT#d8285ab2-5254-11ea-9eba-5bd38b3ea2d2,40,31,71,10,1.0,1.0,0
run-2020-2-18-13-44-54.364584922,AGENT#d83f8ee4-5254-11ea-aa99-77f1c3b614ec,2,69,71,10,1.0,1.0,0
run-2020-2-18-13-44-54.364584922,AGENT#d83f92ea-5254-11ea-9114-c797f32966af,2,69,71,10,1.0,1.0,0
run-2020-2-18-13-44-54.364584922,AGENT#d83fa082-5254-11ea-81b7-7bdb73abd2f1,2,69,71,10,1.0,1.0,0
run-2020-2-18-13-44-54.364584922,AGENT#d826a852-5254-11ea-af9a-c7e81996597d,45,27,72,10,1.0,1.0,0
run-2020-2-18-13-44-54.364584922,AGENT#d83fa37a-5254-11ea-a3eb-a39cac487876,3,69,72,10,1.0,1.0,0
run-2020-2-18-13-44-54.364584922,AGENT#d8257004-5254-11ea-9ed2-b3b0e6704fc9,49,24,73,10,1.0,1.0,0
run-2020-2-18-13-44-54.364584922,AGENT#d83eab0a-5254-11ea-8d12-8be58ac9fcdc,5,68,73,10,1.0,1.0,0
run-2020-2-18-13-44-54.364584922,AGENT#d83ead8a-5254-11ea-be19-43690417c6c4,5,68,73,10,1.0,1.0,0
run-2020-2-18-13-44-54.364584922,AGENT#d8407b56-5254-11ea-b583-2bb49ac40a47,3,70,73,10,1.0,1.0,0
run-2020-2-18-13-44-54.364584922,AGENT#d8413686-5254-11ea-aa25-3b465044995a,2,71,73,10,1.0,1.0,0
run-2020-2-18-13-44-54.364584922,AGENT#d8413e4c-5254-11ea-be7b-0379e5d3e4cf,2,71,73,10,1.0,1.0,0
run-2020-2-18-13-44-54.364584922,AGENT#d841f116-5254-11ea-b24b-438c59d79025,1,72,73,10,1.0,1.0,0
run-2020-2-18-13-44-54.364584922,AGENT#d8276418-5254-11ea-a8a0-bb6b321d8aa9,45,29,74,10,1.0,1.0,0
run-2020-2-18-13-44-54.364584922,AGENT#d82766a2-5254-11ea-8ccf-5f593590f555,45,29,74,10,1.0,1.0,0
run-2020-2-18-13-44-54.364584922,AGENT#d842a124-5254-11ea-8680-d3ffb9867cda,1,73,74,10,1.0,1.0,0
run-2020-2-18-13-44-54.364584922,AGENT#d841eebe-5254-11ea-b20f-cf5926a7085f,3,72,75,10,1.0,1.0,0
run-2020-2-18-13-44-54.364584922,AGENT#d842a3a4-5254-11ea-870a-67140baf1a02,2,73,75,10,1.0,1.0,0
run-2020-2-18-13-44-54.364584922,AGENT#d827612a-5254-11ea-8242-cb97322544aa,47,29,76,10,1.0,1.0,0
run-2020-2-18-13-44-54.364584922,AGENT#d827ea28-5254-11ea-a131-c36321f4f55c,46,30,76,10,1.0,1.0,0
run-2020-2-18-13-44-54.364584922,AGENT#d83f9a60-5254-11ea-8790-1f53af019019,7,69,76,10,1.0,1.0,0
run-2020-2-18-13-44-54.364584922,AGENT#d8413bcc-5254-11ea-9e9d-0b7590957712,5,71,76,10,1.0,1.0,0
run-2020-2-18-13-44-54.364584922,AGENT#d841ec52-5254-11ea-8568-7b31f73576a3,4,72,76,10,1.0,1.0,0
run-2020-2-18-13-44-54.364584922,AGENT#d843e106-5254-11ea-b37a-77c0edfafc05,1,75,76,10,1.0,1.0,0
run-2020-2-18-13-44-54.364584922,AGENT#d828c768-5254-11ea-8ee6-6f04d8ae8d52,45,32,77,10,1.0,1.0,0
run-2020-2-18-13-44-54.364584922,AGENT#d8447c06-5254-11ea-8fef-8b95ee1e7ca8,1,76,77,10,1.0,1.0,0
run-2020-2-18-13-44-54.364584922,AGENT#d8448110-5254-11ea-b17e-93bddae2721f,1,76,77,10,1.0,1.0,0
run-2020-2-18-13-44-54.364584922,AGENT#d829b312-5254-11ea-a2f9-fb9d1461a475,45,34,79,10,1.0,1.0,0
run-2020-2-18-13-44-54.364584922,AGENT#d829b826-5254-11ea-b830-77a74292d907,45,34,79,10,1.0,1.0,0
run-2020-2-18-13-44-54.364584922,AGENT#d82bdcb4-5254-11ea-a234-8b5d978f8ab9,41,38,79,10,1.0,1.0,0
run-2020-2-18-13-44-54.364584922,AGENT#d844857a-5254-11ea-a725-8708c5f82c05,3,76,79,10,1.0,1.0,0
run-2020-2-18-13-44-54.364584922,AGENT#d84528ae-5254-11ea-a1fe-1b519c4086c1,2,77,79,10,1.0,1.0,0
run-2020-2-18-13-44-54.364584922,AGENT#d845c8e0-5254-11ea-a9b8-c71a490ffebf,1,78,79,10,1.0,1.0,0
run-2020-2-18-13-44-54.364584922,AGENT#d8466cf0-5254-11ea-a4f4-4f832eb06b89,1,79,80,10,1.0,1.0,0
run-2020-2-18-13-44-54.364584922,AGENT#d8285828-5254-11ea-bd06-d326b70cbefc,50,31,81,10,1.0,1.0,0
run-2020-2-18-13-44-54.364584922,AGENT#d82b2558-5254-11ea-a6b2-ef5ddefa60cf,45,37,82,10,1.0,1.0,0
run-2020-2-18-13-44-54.364584922,AGENT#d836ee1a-5254-11ea-a06a-0718d86d653a,26,56,82,10,1.0,1.0,0
run-2020-2-18-13-44-54.364584922,AGENT#d847c6a4-5254-11ea-98a3-0f2298ced545,1,81,82,10,1.0,1.0,0
run-2020-2-18-13-44-54.364584922,AGENT#d83a196e-5254-11ea-8da6-c3ba878196fa,22,61,83,10,1.0,1.0,0
run-2020-2-18-13-44-54.364584922,AGENT#d8471c5e-5254-11ea-911f-afb5a2cfd4a5,3,80,83,10,1.0,1.0,0
run-2020-2-18-13-44-54.364584922,AGENT#d8471eca-5254-11ea-bc9a-0f8bce572c96,3,80,83,10,1.0,1.0,0
run-2020-2-18-13-44-54.364584922,AGENT#d82b20a8-5254-11ea-a54c-1be5942a7210,47,37,84,10,1.0,1.0,0
run-2020-2-18-13-44-54.364584922,AGENT#d8498674-5254-11ea-a4db-43723d95731c,1,83,84,10,1.0,1.0,0
run-2020-2-18-13-44-54.364584922,AGENT#d84719ac-5254-11ea-9704-4b97bceaca0b,5,80,85,10,1.0,1.0,0
run-2020-2-18-13-44-54.364584922,AGENT#d848835a-5254-11ea-bef2-1be612049ba4,3,82,85,10,1.0,1.0,0
run-2020-2-18-13-44-54.364584922,AGENT#d8498926-5254-11ea-ad05-63f9fde3fd53,2,83,85,10,1.0,1.0,0
run-2020-2-18-13-44-54.364584922,AGENT#d84a3f6a-5254-11ea-9a5f-d367fc60341f,1,84,85,10,1.0,1.0,0
run-2020-2-18-13-44-54.364584922,AGENT#d82d3d5c-5254-11ea-ba7f-db004db55135,46,40,86,10,1.0,1.0,0
run-2020-2-18-13-44-54.364584922,AGENT#d82d4072-5254-11ea-af24-2b61175c33de,46,40,86,10,1.0,1.0,0
run-2020-2-18-13-44-54.364584922,AGENT#d82de00e-5254-11ea-87f5-6b82835ee9ad,45,41,86,10,1.0,1.0,0
run-2020-2-18-13-44-54.364584922,AGENT#d82de4a0-5254-11ea-9d61-e3eff8c82e15,45,41,86,10,1.0,1.0,0
run-2020-2-18-13-44-54.364584922,AGENT#d847ca8c-5254-11ea-9dc5-93688a8856c3,5,81,86,10,1.0,1.0,0
run-2020-2-18-13-44-54.364584922,AGENT#d847cd7a-5254-11ea-a90e-5b94b1e6af95,5,81,86,10,1.0,1.0,0
run-2020-2-18-13-44-54.364584922,AGENT#d84a4208-5254-11ea-a864-979f505c1c02,2,84,86,10,1.0,1.0,0
run-2020-2-18-13-44-54.364584922,AGENT#d84a4488-5254-11ea-94d9-dff138b5af47,2,84,86,10,1.0,1.0,0
run-2020-2-18-13-44-54.364584922,AGENT#d84b06ca-5254-11ea-aa92-43e9c942b4e2,1,85,86,10,1.0,1.0,0
run-2020-2-18-13-44-54.364584922,AGENT#d82e72b2-5254-11ea-9c65-e7b3c67ff181,45,42,87,10,1.0,1.0,0
run-2020-2-18-13-44-54.364584922,AGENT#d82e751e-5254-11ea-95fb-fb9bf8974be4,45,42,87,10,1.0,1.0,0
run-2020-2-18-13-44-54.364584922,AGENT#d8497b34-5254-11ea-a081-bf5a6c43f75e,5,83,88,10,1.0,1.0,0
run-2020-2-18-13-44-54.364584922,AGENT#d84c661e-5254-11ea-8e69-bf6c4cbd1fd3,1,87,88,10,1.0,1.0,0
run-2020-2-18-13-44-54.364584922,AGENT#d84c6b00-5254-11ea-b549-a70c2ec911da,1,87,88,10,1.0,1.0,0
run-2020-2-18-13-44-54.364584922,AGENT#d84c73f2-5254-11ea-8c3d-a32b10db6c12,1,87,88,10,1.0,1.0,0
run-2020-2-18-13-44-54.364584922,AGENT#d82dd3a2-5254-11ea-bbfd-43c904e96f70,48,41,89,10,1.0,1.0,0
run-2020-2-18-13-44-54.364584922,AGENT#d84c71c2-5254-11ea-99bf-7fdd4ed01acd,2,87,89,10,1.0,1.0,0
run-2020-2-18-13-44-54.364584922,AGENT#d84d272a-5254-11ea-8ec7-578b76802103,1,88,89,10,1.0,1.0,0
run-2020-2-18-13-44-54.364584922,AGENT#d84d29be-5254-11ea-82cd-c7ed297ddb32,1,88,89,10,1.0,1.0,0
run-2020-2-18-13-44-54.364584922,AGENT#d84d30c6-5254-11ea-b2d8-b7d51d4fa389,1,88,89,10,1.0,1.0,0
run-2020-2-18-13-44-54.364584922,AGENT#d84c6f92-5254-11ea-aa41-df10dc98e55a,3,87,90,10,1.0,1.0,0
run-2020-2-18-13-44-54.364584922,AGENT#d830bb08-5254-11ea-9b00-0765582a59e5,45,46,91,10,1.0,1.0,0
run-2020-2-18-13-44-54.364584922,AGENT#d84de99e-5254-11ea-bf7f-cf5d130ea396,2,89,91,10,1.0,1.0,0
run-2020-2-18-13-44-54.364584922,AGENT#d84e9e0c-5254-11ea-a800-5f1006b15f76,1,90,91,10,1.0,1.0,0
run-2020-2-18-13-44-54.364584922,AGENT#d84ea28a-5254-11ea-ac4d-5fbe28706645,1,90,91,10,1.0,1.0,0
run-2020-2-18-13-44-54.364584922,AGENT#d84d2c16-5254-11ea-ad7e-8feed66a407a,4,88,92,10,1.0,1.0,0
run-2020-2-18-13-44-54.364584922,AGENT#d84d3300-5254-11ea-adfd-739670608aad,4,88,92,10,1.0,1.0,0
run-2020-2-18-13-44-54.364584922,AGENT#d84dec28-5254-11ea-a3c2-3300507f9a90,3,89,92,10,1.0,1.0,0
run-2020-2-18-13-44-54.364584922,AGENT#d84ea99c-5254-11ea-a0f6-b3bf39d16dfa,2,90,92,10,1.0,1.0,0
run-2020-2-18-13-44-54.364584922,AGENT#d83461fe-5254-11ea-ad06-ab4a1587025d,41,52,93,10,1.0,1.0,0
run-2020-2-18-13-44-54.364584922,AGENT#d84d2e6e-5254-11ea-b208-f354ab5cf9e4,5,88,93,10,1.0,1.0,0
run-2020-2-18-13-44-54.364584922,AGENT#d84dee94-5254-11ea-b6ad-a3d34ee7f260,4,89,93,10,1.0,1.0,0
run-2020-2-18-13-44-54.364584922,AGENT#d84e9b6e-5254-11ea-8a3b-db30798dc280,3,90,93,10,1.0,1.0,0
run-2020-2-18-13-44-54.364584922,AGENT#d850abde-5254-11ea-a03d-17b029883056,1,92,93,10,1.0,1.0,0
run-2020-2-18-13-44-54.364584922,AGENT#d847c398-5254-11ea-9d06-4fd6f0e29c95,13,81,94,10,1.0,1.0,0
run-2020-2-18-13-44-54.364584922,AGENT#d84ea046-5254-11ea-a17f-c30f2d45cbb5,4,90,94,10,1.0,1.0,0
run-2020-2-18-13-44-54.364584922,AGENT#d84ea4ba-5254-11ea-8c66-836464334bd7,4,90,94,10,1.0,1.0,0
run-2020-2-18-13-44-54.364584922,AGENT#d8521b72-5254-11ea-b0c0-478c8775c64f,1,94,95,10,1.0,1.0,0
run-2020-2-18-13-44-54.364584922,AGENT#d852225c-5254-11ea-879d-53df94b27725,1,94,95,10,1.0,1.0,0
run-2020-2-18-13-44-54.364584922,AGENT#d836ebb8-5254-11ea-ac0e-dfbcb12f2130,40,56,96,10,1.0,1.0,0
run-2020-2-18-13-44-54.364584922,AGENT#d8378bb8-5254-11ea-9675-c31f17866d7a,39,57,96,10,1.0,1.0,0
run-2020-2-18-13-44-54.364584922,AGENT#d8521db6-5254-11ea-b8b8-9fe41f0f8003,2,94,96,10,1.0,1.0,0
run-2020-2-18-13-44-54.364584922,AGENT#d852200e-5254-11ea-9d91-9fb5370961df,2,94,96,10,1.0,1.0,0
run-2020-2-18-13-44-54.364584922,AGENT#d852d364-5254-11ea-b0f4-0365db8f1d12,1,95,96,10,1.0,1.0,0
run-2020-2-18-13-44-54.364584922,AGENT#d8346596-5254-11ea-aab1-43cb5f7b2106,45,52,97,10,1.0,1.0,0
run-2020-2-18-13-44-54.364584922,AGENT#d83468c0-5254-11ea-bf05-37eff9dd442d,46,52,98,10,1.0,1.0,0
run-2020-2-18-13-44-54.364584922,AGENT#d8466a48-5254-11ea-adf7-b79da5b7ac76,19,79,98,10,1.0,1.0,0
