RunID,Tick,ActiveAgentsPerTick
run-2020-2-28-15-46-39.184267044,0,13
run-2020-2-28-15-46-39.184267044,1,10
run-2020-2-28-15-46-39.184267044,2,9
run-2020-2-28-15-46-39.184267044,3,13
run-2020-2-28-15-46-39.184267044,4,16
run-2020-2-28-15-46-39.184267044,5,14
run-2020-2-28-15-46-39.184267044,6,15
run-2020-2-28-15-46-39.184267044,7,17
run-2020-2-28-15-46-39.184267044,8,19
run-2020-2-28-15-46-39.184267044,9,18
run-2020-2-28-15-46-39.184267044,10,19
run-2020-2-28-15-46-39.184267044,11,20
run-2020-2-28-15-46-39.184267044,12,25
run-2020-2-28-15-46-39.184267044,13,26
run-2020-2-28-15-46-39.184267044,14,29
run-2020-2-28-15-46-39.184267044,15,31
run-2020-2-28-15-46-39.184267044,16,33
run-2020-2-28-15-46-39.184267044,17,32
run-2020-2-28-15-46-39.184267044,18,36
run-2020-2-28-15-46-39.184267044,19,36
run-2020-2-28-15-46-39.184267044,20,37
run-2020-2-28-15-46-39.184267044,21,38
run-2020-2-28-15-46-39.184267044,22,45
run-2020-2-28-15-46-39.184267044,23,41
run-2020-2-28-15-46-39.184267044,24,42
run-2020-2-28-15-46-39.184267044,25,40
run-2020-2-28-15-46-39.184267044,26,42
run-2020-2-28-15-46-39.184267044,27,43
run-2020-2-28-15-46-39.184267044,28,45
run-2020-2-28-15-46-39.184267044,29,40
run-2020-2-28-15-46-39.184267044,30,41
run-2020-2-28-15-46-39.184267044,31,44
run-2020-2-28-15-46-39.184267044,32,44
run-2020-2-28-15-46-39.184267044,33,44
run-2020-2-28-15-46-39.184267044,34,44
run-2020-2-28-15-46-39.184267044,35,45
run-2020-2-28-15-46-39.184267044,36,45
run-2020-2-28-15-46-39.184267044,37,47
run-2020-2-28-15-46-39.184267044,38,48
run-2020-2-28-15-46-39.184267044,39,47
run-2020-2-28-15-46-39.184267044,40,53
run-2020-2-28-15-46-39.184267044,41,53
run-2020-2-28-15-46-39.184267044,42,56
run-2020-2-28-15-46-39.184267044,43,56
run-2020-2-28-15-46-39.184267044,44,58
run-2020-2-28-15-46-39.184267044,45,53
run-2020-2-28-15-46-39.184267044,46,56
run-2020-2-28-15-46-39.184267044,47,56
run-2020-2-28-15-46-39.184267044,48,57
run-2020-2-28-15-46-39.184267044,49,60
run-2020-2-28-15-46-39.184267044,50,63
run-2020-2-28-15-46-39.184267044,51,63
run-2020-2-28-15-46-39.184267044,52,63
run-2020-2-28-15-46-39.184267044,53,61
run-2020-2-28-15-46-39.184267044,54,56
run-2020-2-28-15-46-39.184267044,55,52
run-2020-2-28-15-46-39.184267044,56,50
run-2020-2-28-15-46-39.184267044,57,50
run-2020-2-28-15-46-39.184267044,58,49
run-2020-2-28-15-46-39.184267044,59,51
run-2020-2-28-15-46-39.184267044,60,53
run-2020-2-28-15-46-39.184267044,61,49
run-2020-2-28-15-46-39.184267044,62,49
run-2020-2-28-15-46-39.184267044,63,57
run-2020-2-28-15-46-39.184267044,64,58
run-2020-2-28-15-46-39.184267044,65,53
run-2020-2-28-15-46-39.184267044,66,54
run-2020-2-28-15-46-39.184267044,67,54
run-2020-2-28-15-46-39.184267044,68,55
run-2020-2-28-15-46-39.184267044,69,57
run-2020-2-28-15-46-39.184267044,70,58
run-2020-2-28-15-46-39.184267044,71,60
run-2020-2-28-15-46-39.184267044,72,59
run-2020-2-28-15-46-39.184267044,73,58
run-2020-2-28-15-46-39.184267044,74,61
run-2020-2-28-15-46-39.184267044,75,62
run-2020-2-28-15-46-39.184267044,76,62
run-2020-2-28-15-46-39.184267044,77,69
run-2020-2-28-15-46-39.184267044,78,72
run-2020-2-28-15-46-39.184267044,79,71
run-2020-2-28-15-46-39.184267044,80,69
run-2020-2-28-15-46-39.184267044,81,70
run-2020-2-28-15-46-39.184267044,82,68
run-2020-2-28-15-46-39.184267044,83,67
run-2020-2-28-15-46-39.184267044,84,71
run-2020-2-28-15-46-39.184267044,85,70
run-2020-2-28-15-46-39.184267044,86,71
run-2020-2-28-15-46-39.184267044,87,67
run-2020-2-28-15-46-39.184267044,88,65
run-2020-2-28-15-46-39.184267044,89,67
run-2020-2-28-15-46-39.184267044,90,66
run-2020-2-28-15-46-39.184267044,91,67
run-2020-2-28-15-46-39.184267044,92,71
run-2020-2-28-15-46-39.184267044,93,70
run-2020-2-28-15-46-39.184267044,94,70
run-2020-2-28-15-46-39.184267044,95,73
run-2020-2-28-15-46-39.184267044,96,69
run-2020-2-28-15-46-39.184267044,97,68
run-2020-2-28-15-46-39.184267044,98,71
run-2020-2-28-15-46-39.184267044,99,72
run-2020-2-28-15-46-39.184267044,100,71
