RunID,Tick,ActiveAgentsPerTick
run-2020-2-29-9-27-8.616753339,0,13
run-2020-2-29-9-27-8.616753339,1,21
run-2020-2-29-9-27-8.616753339,2,27
run-2020-2-29-9-27-8.616753339,3,23
run-2020-2-29-9-27-8.616753339,4,23
run-2020-2-29-9-27-8.616753339,5,22
run-2020-2-29-9-27-8.616753339,6,20
run-2020-2-29-9-27-8.616753339,7,18
run-2020-2-29-9-27-8.616753339,8,20
run-2020-2-29-9-27-8.616753339,9,19
run-2020-2-29-9-27-8.616753339,10,18
run-2020-2-29-9-27-8.616753339,11,21
run-2020-2-29-9-27-8.616753339,12,25
run-2020-2-29-9-27-8.616753339,13,30
run-2020-2-29-9-27-8.616753339,14,29
run-2020-2-29-9-27-8.616753339,15,26
run-2020-2-29-9-27-8.616753339,16,27
run-2020-2-29-9-27-8.616753339,17,29
run-2020-2-29-9-27-8.616753339,18,31
run-2020-2-29-9-27-8.616753339,19,34
run-2020-2-29-9-27-8.616753339,20,33
run-2020-2-29-9-27-8.616753339,21,36
run-2020-2-29-9-27-8.616753339,22,33
run-2020-2-29-9-27-8.616753339,23,39
run-2020-2-29-9-27-8.616753339,24,40
run-2020-2-29-9-27-8.616753339,25,35
run-2020-2-29-9-27-8.616753339,26,35
run-2020-2-29-9-27-8.616753339,27,32
run-2020-2-29-9-27-8.616753339,28,34
run-2020-2-29-9-27-8.616753339,29,34
run-2020-2-29-9-27-8.616753339,30,37
run-2020-2-29-9-27-8.616753339,31,37
run-2020-2-29-9-27-8.616753339,32,38
run-2020-2-29-9-27-8.616753339,33,45
run-2020-2-29-9-27-8.616753339,34,43
run-2020-2-29-9-27-8.616753339,35,42
run-2020-2-29-9-27-8.616753339,36,41
run-2020-2-29-9-27-8.616753339,37,39
run-2020-2-29-9-27-8.616753339,38,39
run-2020-2-29-9-27-8.616753339,39,42
run-2020-2-29-9-27-8.616753339,40,40
run-2020-2-29-9-27-8.616753339,41,39
run-2020-2-29-9-27-8.616753339,42,36
run-2020-2-29-9-27-8.616753339,43,39
run-2020-2-29-9-27-8.616753339,44,40
run-2020-2-29-9-27-8.616753339,45,45
run-2020-2-29-9-27-8.616753339,46,45
run-2020-2-29-9-27-8.616753339,47,45
run-2020-2-29-9-27-8.616753339,48,43
run-2020-2-29-9-27-8.616753339,49,38
run-2020-2-29-9-27-8.616753339,50,36
run-2020-2-29-9-27-8.616753339,51,43
run-2020-2-29-9-27-8.616753339,52,47
run-2020-2-29-9-27-8.616753339,53,44
run-2020-2-29-9-27-8.616753339,54,44
run-2020-2-29-9-27-8.616753339,55,44
run-2020-2-29-9-27-8.616753339,56,47
run-2020-2-29-9-27-8.616753339,57,44
run-2020-2-29-9-27-8.616753339,58,41
run-2020-2-29-9-27-8.616753339,59,45
run-2020-2-29-9-27-8.616753339,60,45
run-2020-2-29-9-27-8.616753339,61,42
run-2020-2-29-9-27-8.616753339,62,42
run-2020-2-29-9-27-8.616753339,63,44
run-2020-2-29-9-27-8.616753339,64,41
run-2020-2-29-9-27-8.616753339,65,44
run-2020-2-29-9-27-8.616753339,66,46
run-2020-2-29-9-27-8.616753339,67,45
run-2020-2-29-9-27-8.616753339,68,43
run-2020-2-29-9-27-8.616753339,69,41
run-2020-2-29-9-27-8.616753339,70,42
run-2020-2-29-9-27-8.616753339,71,42
run-2020-2-29-9-27-8.616753339,72,35
run-2020-2-29-9-27-8.616753339,73,42
run-2020-2-29-9-27-8.616753339,74,44
run-2020-2-29-9-27-8.616753339,75,43
run-2020-2-29-9-27-8.616753339,76,40
run-2020-2-29-9-27-8.616753339,77,41
run-2020-2-29-9-27-8.616753339,78,38
run-2020-2-29-9-27-8.616753339,79,38
run-2020-2-29-9-27-8.616753339,80,37
run-2020-2-29-9-27-8.616753339,81,39
run-2020-2-29-9-27-8.616753339,82,41
run-2020-2-29-9-27-8.616753339,83,42
run-2020-2-29-9-27-8.616753339,84,47
run-2020-2-29-9-27-8.616753339,85,48
run-2020-2-29-9-27-8.616753339,86,49
run-2020-2-29-9-27-8.616753339,87,48
run-2020-2-29-9-27-8.616753339,88,47
run-2020-2-29-9-27-8.616753339,89,47
run-2020-2-29-9-27-8.616753339,90,44
run-2020-2-29-9-27-8.616753339,91,44
run-2020-2-29-9-27-8.616753339,92,45
run-2020-2-29-9-27-8.616753339,93,43
run-2020-2-29-9-27-8.616753339,94,44
run-2020-2-29-9-27-8.616753339,95,46
run-2020-2-29-9-27-8.616753339,96,49
run-2020-2-29-9-27-8.616753339,97,47
run-2020-2-29-9-27-8.616753339,98,45
run-2020-2-29-9-27-8.616753339,99,43
run-2020-2-29-9-27-8.616753339,100,42
