RunID,Agent,Age,Created,Inactive,Resources,Reputation,Ability,Que
run-2020-2-29-9-27-8.616753339,AGENT#a85318f2-5ad5-11ea-992d-ebd5a425b9ae,1,0,1,10,1.0,1.0,0
run-2020-2-29-9-27-8.616753339,AGENT#a8531cbc-5ad5-11ea-9450-e70a867f4180,1,0,1,10,1.0,1.0,0
run-2020-2-29-9-27-8.616753339,AGENT#a853199c-5ad5-11ea-a8e0-b3b1201df405,2,0,2,10,1.0,1.0,0
run-2020-2-29-9-27-8.616753339,AGENT#a8531b7c-5ad5-11ea-b2d2-efa85049132f,2,0,2,10,1.0,1.0,0
run-2020-2-29-9-27-8.616753339,AGENT#a8531dfc-5ad5-11ea-b7be-935f1124bc53,2,0,2,10,1.0,1.0,0
run-2020-2-29-9-27-8.616753339,AGENT#a85338f0-5ad5-11ea-b2fc-f78f3811da3b,2,0,2,10,1.0,1.0,0
run-2020-2-29-9-27-8.616753339,AGENT#a8577d02-5ad5-11ea-bf26-eb1861d9b5c2,1,1,2,10,1.0,1.0,0
run-2020-2-29-9-27-8.616753339,AGENT#a857807c-5ad5-11ea-bbef-ffcd93079037,1,1,2,10,1.0,1.0,0
run-2020-2-29-9-27-8.616753339,AGENT#a8531a46-5ad5-11ea-8d17-53275331fcbb,3,0,3,10,1.0,1.0,0
run-2020-2-29-9-27-8.616753339,AGENT#a8577e6a-5ad5-11ea-ad95-cb362ea32e7c,2,1,3,10,1.0,1.0,0
run-2020-2-29-9-27-8.616753339,AGENT#a8531ae6-5ad5-11ea-bc99-c37b67e90d9b,4,0,4,10,1.0,1.0,0
run-2020-2-29-9-27-8.616753339,AGENT#a853383c-5ad5-11ea-938a-2ff3cb61dbb6,4,0,4,10,1.0,1.0,0
run-2020-2-29-9-27-8.616753339,AGENT#a85bcbfa-5ad5-11ea-adc1-eb73920f787b,2,2,4,10,1.0,1.0,0
run-2020-2-29-9-27-8.616753339,AGENT#a85f8d3a-5ad5-11ea-a60a-8fcc748d7264,1,3,4,10,1.0,1.0,0
run-2020-2-29-9-27-8.616753339,AGENT#a8577c08-5ad5-11ea-a5a9-8b49af82c16f,4,1,5,10,1.0,1.0,0
run-2020-2-29-9-27-8.616753339,AGENT#a85bcb50-5ad5-11ea-ad7a-7373828ceb92,3,2,5,10,1.0,1.0,0
run-2020-2-29-9-27-8.616753339,AGENT#a85f8c40-5ad5-11ea-936a-b71d8efc7875,2,3,5,10,1.0,1.0,0
run-2020-2-29-9-27-8.616753339,AGENT#a8577db6-5ad5-11ea-aa0e-6f4bb870afb7,5,1,6,10,1.0,1.0,0
run-2020-2-29-9-27-8.616753339,AGENT#a85bcd4e-5ad5-11ea-86b9-1f4a02cc6223,4,2,6,10,1.0,1.0,0
run-2020-2-29-9-27-8.616753339,AGENT#a85bcdf8-5ad5-11ea-ba7c-dfa789a110cd,4,2,6,10,1.0,1.0,0
run-2020-2-29-9-27-8.616753339,AGENT#a86360ae-5ad5-11ea-873e-cf19f3451e70,2,4,6,10,1.0,1.0,0
run-2020-2-29-9-27-8.616753339,AGENT#a85bc8ee-5ad5-11ea-8f60-c3118f707be4,5,2,7,10,1.0,1.0,0
run-2020-2-29-9-27-8.616753339,AGENT#a85bcca4-5ad5-11ea-8ba2-c7db74a2f52d,5,2,7,10,1.0,1.0,0
run-2020-2-29-9-27-8.616753339,AGENT#a863619e-5ad5-11ea-a238-bfd376e6e26c,3,4,7,10,1.0,1.0,0
run-2020-2-29-9-27-8.616753339,AGENT#a86fae5e-5ad5-11ea-9b88-cb2564f3aa11,1,7,8,10,1.0,1.0,0
run-2020-2-29-9-27-8.616753339,AGENT#a8531d5c-5ad5-11ea-af35-7f986254bb2b,9,0,9,10,1.0,1.0,0
run-2020-2-29-9-27-8.616753339,AGENT#a8675ad8-5ad5-11ea-9cc9-a77bf31d3a8a,4,5,9,10,1.0,1.0,0
run-2020-2-29-9-27-8.616753339,AGENT#a86baf66-5ad5-11ea-9468-77be77e8c768,3,6,9,10,1.0,1.0,0
run-2020-2-29-9-27-8.616753339,AGENT#a873ba30-5ad5-11ea-920e-a7007faedc77,1,8,9,10,1.0,1.0,0
run-2020-2-29-9-27-8.616753339,AGENT#a8675a24-5ad5-11ea-a0df-f71b86a9801f,5,5,10,10,1.0,1.0,0
run-2020-2-29-9-27-8.616753339,AGENT#a873b71a-5ad5-11ea-a8c9-33781fb6928d,2,8,10,10,1.0,1.0,0
run-2020-2-29-9-27-8.616753339,AGENT#a873b986-5ad5-11ea-8c76-93b56da67af2,2,8,10,10,1.0,1.0,0
run-2020-2-29-9-27-8.616753339,AGENT#a87bc00e-5ad5-11ea-9ecb-3ba8918a428f,1,10,11,10,1.0,1.0,0
run-2020-2-29-9-27-8.616753339,AGENT#a87bc1b2-5ad5-11ea-b5a3-5bd7af037765,1,10,11,10,1.0,1.0,0
run-2020-2-29-9-27-8.616753339,AGENT#a87bc0fe-5ad5-11ea-ac67-c7aa72789f2a,2,10,12,10,1.0,1.0,0
run-2020-2-29-9-27-8.616753339,AGENT#a873b8dc-5ad5-11ea-930b-2f0b60d73a95,5,8,13,10,1.0,1.0,0
run-2020-2-29-9-27-8.616753339,AGENT#a8800b28-5ad5-11ea-98b5-6b95ba59e953,2,11,13,10,1.0,1.0,0
run-2020-2-29-9-27-8.616753339,AGENT#a884e1fc-5ad5-11ea-9cd7-eb81626e1df1,1,12,13,10,1.0,1.0,0
run-2020-2-29-9-27-8.616753339,AGENT#a884e3be-5ad5-11ea-a3b9-4758b61f8d75,1,12,13,10,1.0,1.0,0
run-2020-2-29-9-27-8.616753339,AGENT#a884e8d2-5ad5-11ea-9a2b-8f45fd38107e,1,12,13,10,1.0,1.0,0
run-2020-2-29-9-27-8.616753339,AGENT#a88008d0-5ad5-11ea-b479-63981847ad9d,3,11,14,10,1.0,1.0,0
run-2020-2-29-9-27-8.616753339,AGENT#a8800a24-5ad5-11ea-8ac4-1bfc405f5f5d,3,11,14,10,1.0,1.0,0
run-2020-2-29-9-27-8.616753339,AGENT#a8800d26-5ad5-11ea-ad2b-07d39163cd92,3,11,14,10,1.0,1.0,0
run-2020-2-29-9-27-8.616753339,AGENT#a88a2b44-5ad5-11ea-9bad-0b9f493d11ba,1,13,14,10,1.0,1.0,0
run-2020-2-29-9-27-8.616753339,AGENT#a8800e0c-5ad5-11ea-a4ea-e7104ff0001d,4,11,15,10,1.0,1.0,0
run-2020-2-29-9-27-8.616753339,AGENT#a88e9f58-5ad5-11ea-8d28-d750d5ab3e10,1,14,15,10,1.0,1.0,0
run-2020-2-29-9-27-8.616753339,AGENT#a88ea00c-5ad5-11ea-9aee-4b7fb7a3b355,1,14,15,10,1.0,1.0,0
run-2020-2-29-9-27-8.616753339,AGENT#a8800c22-5ad5-11ea-a687-f7af00c7b400,5,11,16,10,1.0,1.0,0
run-2020-2-29-9-27-8.616753339,AGENT#a88e9ea4-5ad5-11ea-af9d-573a2a90be0b,2,14,16,10,1.0,1.0,0
run-2020-2-29-9-27-8.616753339,AGENT#a884e4f4-5ad5-11ea-a2bb-3f0a6614a252,5,12,17,10,1.0,1.0,0
run-2020-2-29-9-27-8.616753339,AGENT#a88e9db4-5ad5-11ea-ae14-73df2ca966ec,3,14,17,10,1.0,1.0,0
run-2020-2-29-9-27-8.616753339,AGENT#a85bc9e8-5ad5-11ea-a9f6-8b9f8ee3dc5e,16,2,18,10,1.0,1.0,0
run-2020-2-29-9-27-8.616753339,AGENT#a892d622-5ad5-11ea-9dd7-5b743fbcb061,3,15,18,10,1.0,1.0,0
run-2020-2-29-9-27-8.616753339,AGENT#a896ea6e-5ad5-11ea-9660-ab133d58ec7a,2,16,18,10,1.0,1.0,0
run-2020-2-29-9-27-8.616753339,AGENT#a896ecf8-5ad5-11ea-994b-77512cf0d9ca,3,16,19,10,1.0,1.0,0
run-2020-2-29-9-27-8.616753339,AGENT#a89af1e0-5ad5-11ea-b10f-330b4c477e2d,2,17,19,10,1.0,1.0,0
run-2020-2-29-9-27-8.616753339,AGENT#a89efcc2-5ad5-11ea-8695-0fd088085b11,1,18,19,10,1.0,1.0,0
run-2020-2-29-9-27-8.616753339,AGENT#a896eb90-5ad5-11ea-8845-ef858c57b75b,4,16,20,10,1.0,1.0,0
run-2020-2-29-9-27-8.616753339,AGENT#a896ec4e-5ad5-11ea-a8d9-bb1a456d6262,4,16,20,10,1.0,1.0,0
run-2020-2-29-9-27-8.616753339,AGENT#a89af0f0-5ad5-11ea-a73c-1357b049f02b,3,17,20,10,1.0,1.0,0
run-2020-2-29-9-27-8.616753339,AGENT#a89efbbe-5ad5-11ea-8b0b-179e120c32d5,2,18,20,10,1.0,1.0,0
run-2020-2-29-9-27-8.616753339,AGENT#a8577fd2-5ad5-11ea-9925-db43c49c62ed,20,1,21,10,1.0,1.0,0
run-2020-2-29-9-27-8.616753339,AGENT#a89af294-5ad5-11ea-a6bb-97ad36c6242a,4,17,21,10,1.0,1.0,0
run-2020-2-29-9-27-8.616753339,AGENT#a89af348-5ad5-11ea-bf62-afd2e92b590f,4,17,21,10,1.0,1.0,0
run-2020-2-29-9-27-8.616753339,AGENT#a8a3001a-5ad5-11ea-a5f1-77eb803368a7,2,19,21,10,1.0,1.0,0
run-2020-2-29-9-27-8.616753339,AGENT#a8a6f986-5ad5-11ea-96a5-7bbb1753ae4e,1,20,21,10,1.0,1.0,0
run-2020-2-29-9-27-8.616753339,AGENT#a8ab04c2-5ad5-11ea-a4c8-1b964914ec07,1,21,22,10,1.0,1.0,0
run-2020-2-29-9-27-8.616753339,AGENT#a8ab0616-5ad5-11ea-9963-8f953e62ad2b,1,21,22,10,1.0,1.0,0
run-2020-2-29-9-27-8.616753339,AGENT#a884e7a6-5ad5-11ea-8560-7f22c9106d9f,11,12,23,10,1.0,1.0,0
run-2020-2-29-9-27-8.616753339,AGENT#a89efe20-5ad5-11ea-a713-c3be0f2b6de8,5,18,23,10,1.0,1.0,0
run-2020-2-29-9-27-8.616753339,AGENT#a8a2fed0-5ad5-11ea-942d-dfcb0410aa5d,4,19,23,10,1.0,1.0,0
run-2020-2-29-9-27-8.616753339,AGENT#a8af109e-5ad5-11ea-898f-178cb08fe177,1,22,23,10,1.0,1.0,0
run-2020-2-29-9-27-8.616753339,AGENT#a8a2fce6-5ad5-11ea-ae03-2700006ccbac,5,19,24,10,1.0,1.0,0
run-2020-2-29-9-27-8.616753339,AGENT#a8a2fe12-5ad5-11ea-800e-235d39229860,5,19,24,10,1.0,1.0,0
run-2020-2-29-9-27-8.616753339,AGENT#a8ab0274-5ad5-11ea-8384-ebd5e568119f,3,21,24,10,1.0,1.0,0
run-2020-2-29-9-27-8.616753339,AGENT#a8b315b8-5ad5-11ea-b1a9-fbc02f89e083,1,23,24,10,1.0,1.0,0
run-2020-2-29-9-27-8.616753339,AGENT#a8b3166c-5ad5-11ea-b8f7-0b0903cc6f75,1,23,24,10,1.0,1.0,0
run-2020-2-29-9-27-8.616753339,AGENT#a8b31a40-5ad5-11ea-b47d-771bcf1b94fa,1,23,24,10,1.0,1.0,0
run-2020-2-29-9-27-8.616753339,AGENT#a8ab0418-5ad5-11ea-a620-bf67173e68e3,4,21,25,10,1.0,1.0,0
run-2020-2-29-9-27-8.616753339,AGENT#a8b31450-5ad5-11ea-9f16-ef89762bd3b9,2,23,25,10,1.0,1.0,0
run-2020-2-29-9-27-8.616753339,AGENT#a8b31504-5ad5-11ea-be33-e3da652dfd0a,2,23,25,10,1.0,1.0,0
run-2020-2-29-9-27-8.616753339,AGENT#a8b31aea-5ad5-11ea-a54c-df3bfc3d671a,2,23,25,10,1.0,1.0,0
run-2020-2-29-9-27-8.616753339,AGENT#a8b73648-5ad5-11ea-9521-eb6de015c23b,1,24,25,10,1.0,1.0,0
run-2020-2-29-9-27-8.616753339,AGENT#a8533760-5ad5-11ea-a9bc-bbf1bd1b4dc5,26,0,26,10,1.0,1.0,0
run-2020-2-29-9-27-8.616753339,AGENT#a8ab0364-5ad5-11ea-9bec-cbb79ed0132b,5,21,26,10,1.0,1.0,0
run-2020-2-29-9-27-8.616753339,AGENT#a8af1198-5ad5-11ea-a333-0b7941c99a2b,4,22,26,10,1.0,1.0,0
run-2020-2-29-9-27-8.616753339,AGENT#a8b31982-5ad5-11ea-a362-db8a0f3f87ff,3,23,26,10,1.0,1.0,0
run-2020-2-29-9-27-8.616753339,AGENT#a8bf75b0-5ad5-11ea-830c-8bd578a55813,1,26,27,10,1.0,1.0,0
run-2020-2-29-9-27-8.616753339,AGENT#a8b7359e-5ad5-11ea-bca0-7ff85287e5a0,4,24,28,10,1.0,1.0,0
run-2020-2-29-9-27-8.616753339,AGENT#a8bf7650-5ad5-11ea-b03e-e3b0488bdfcf,2,26,28,10,1.0,1.0,0
run-2020-2-29-9-27-8.616753339,AGENT#a8c3ea14-5ad5-11ea-bec6-979a85e53ad3,1,27,28,10,1.0,1.0,0
run-2020-2-29-9-27-8.616753339,AGENT#a8bf7448-5ad5-11ea-950c-23b08e4979a7,4,26,30,10,1.0,1.0,0
run-2020-2-29-9-27-8.616753339,AGENT#a8c901a2-5ad5-11ea-8585-b7552dd8d675,2,28,30,10,1.0,1.0,0
run-2020-2-29-9-27-8.616753339,AGENT#a8ce25f6-5ad5-11ea-a546-77ce599f5556,1,29,30,10,1.0,1.0,0
run-2020-2-29-9-27-8.616753339,AGENT#a8c903fa-5ad5-11ea-8199-c7e381ed6cfd,3,28,31,10,1.0,1.0,0
run-2020-2-29-9-27-8.616753339,AGENT#a8ce24e8-5ad5-11ea-b7ce-d3cafdeb83e3,2,29,31,10,1.0,1.0,0
run-2020-2-29-9-27-8.616753339,AGENT#a8ce2362-5ad5-11ea-9761-6fb96e1682f3,3,29,32,10,1.0,1.0,0
run-2020-2-29-9-27-8.616753339,AGENT#a8c902f6-5ad5-11ea-89c3-7b93555aed46,5,28,33,10,1.0,1.0,0
run-2020-2-29-9-27-8.616753339,AGENT#a8d2e140-5ad5-11ea-b802-ff5724aa20bd,3,30,33,10,1.0,1.0,0
run-2020-2-29-9-27-8.616753339,AGENT#a8d6f38e-5ad5-11ea-b53a-e32a7d154a42,2,31,33,10,1.0,1.0,0
run-2020-2-29-9-27-8.616753339,AGENT#a8db00fa-5ad5-11ea-bb03-3b31ab9fea28,1,32,33,10,1.0,1.0,0
run-2020-2-29-9-27-8.616753339,AGENT#a8d6f28a-5ad5-11ea-abe2-e386007f09c0,3,31,34,10,1.0,1.0,0
run-2020-2-29-9-27-8.616753339,AGENT#a8d6f442-5ad5-11ea-9f1b-537decdf1014,3,31,34,10,1.0,1.0,0
run-2020-2-29-9-27-8.616753339,AGENT#a88a2f68-5ad5-11ea-8f9b-cbc2a7fbbf46,22,13,35,10,1.0,1.0,0
run-2020-2-29-9-27-8.616753339,AGENT#a8df0f42-5ad5-11ea-b7b8-ab0201676c28,2,33,35,10,1.0,1.0,0
run-2020-2-29-9-27-8.616753339,AGENT#a8df1136-5ad5-11ea-87bd-2fbb3507c5eb,2,33,35,10,1.0,1.0,0
run-2020-2-29-9-27-8.616753339,AGENT#a8db0032-5ad5-11ea-a728-83bfed13ea81,4,32,36,10,1.0,1.0,0
run-2020-2-29-9-27-8.616753339,AGENT#a8df0e84-5ad5-11ea-b2aa-cb21add98179,3,33,36,10,1.0,1.0,0
run-2020-2-29-9-27-8.616753339,AGENT#a8df11e0-5ad5-11ea-8ae8-9bb903b0b31a,3,33,36,10,1.0,1.0,0
run-2020-2-29-9-27-8.616753339,AGENT#a8df0fec-5ad5-11ea-bf75-232e4c00d56c,4,33,37,10,1.0,1.0,0
run-2020-2-29-9-27-8.616753339,AGENT#a8df108c-5ad5-11ea-a535-cf2ad7237fe6,4,33,37,10,1.0,1.0,0
run-2020-2-29-9-27-8.616753339,AGENT#a8e340c6-5ad5-11ea-bf43-1b4c056585de,3,34,37,10,1.0,1.0,0
run-2020-2-29-9-27-8.616753339,AGENT#a8df0d94-5ad5-11ea-bc3b-63b5f199c75d,5,33,38,10,1.0,1.0,0
run-2020-2-29-9-27-8.616753339,AGENT#a8e7338e-5ad5-11ea-8005-c7fc8d776268,3,35,38,10,1.0,1.0,0
run-2020-2-29-9-27-8.616753339,AGENT#a8e341ac-5ad5-11ea-89b2-1372e1a734db,5,34,39,10,1.0,1.0,0
run-2020-2-29-9-27-8.616753339,AGENT#a8eb72a0-5ad5-11ea-889a-9b45c73df6a9,3,36,39,10,1.0,1.0,0
run-2020-2-29-9-27-8.616753339,AGENT#a8f3d2d8-5ad5-11ea-a02d-b3a56dfb5f0c,1,38,39,10,1.0,1.0,0
run-2020-2-29-9-27-8.616753339,AGENT#a8eb71a6-5ad5-11ea-bb1d-37d59e3cb3b3,4,36,40,10,1.0,1.0,0
run-2020-2-29-9-27-8.616753339,AGENT#a8efcf4e-5ad5-11ea-9446-1fc2f7355acd,3,37,40,10,1.0,1.0,0
run-2020-2-29-9-27-8.616753339,AGENT#a8f7c7d0-5ad5-11ea-bfde-535f203b5b6d,1,39,40,10,1.0,1.0,0
run-2020-2-29-9-27-8.616753339,AGENT#a85bca9c-5ad5-11ea-a3ca-5f2869825647,39,2,41,10,1.0,1.0,0
run-2020-2-29-9-27-8.616753339,AGENT#a8ab056c-5ad5-11ea-85e9-6f58e1a7e49d,20,21,41,10,1.0,1.0,0
run-2020-2-29-9-27-8.616753339,AGENT#a8f3d1d4-5ad5-11ea-bf72-73096ea2b239,3,38,41,10,1.0,1.0,0
run-2020-2-29-9-27-8.616753339,AGENT#a8f3d382-5ad5-11ea-b86d-f3ba7cf6f648,3,38,41,10,1.0,1.0,0
run-2020-2-29-9-27-8.616753339,AGENT#a8f7c654-5ad5-11ea-b239-6b34d50054d7,2,39,41,10,1.0,1.0,0
run-2020-2-29-9-27-8.616753339,AGENT#a8f7c87a-5ad5-11ea-b22a-4f4dea0be823,2,39,41,10,1.0,1.0,0
run-2020-2-29-9-27-8.616753339,AGENT#a9040a9a-5ad5-11ea-89bf-4bdb0db47cd4,1,42,43,10,1.0,1.0,0
run-2020-2-29-9-27-8.616753339,AGENT#a9040c66-5ad5-11ea-a97d-533878acb997,2,42,44,10,1.0,1.0,0
run-2020-2-29-9-27-8.616753339,AGENT#a8531c1c-5ad5-11ea-9188-f354d6202e27,45,0,45,10,1.0,1.0,0
run-2020-2-29-9-27-8.616753339,AGENT#a90d8d90-5ad5-11ea-9bd5-0bc7e4b4f209,1,44,45,10,1.0,1.0,0
run-2020-2-29-9-27-8.616753339,AGENT#a8578130-5ad5-11ea-8793-532c4f0383b9,45,1,46,10,1.0,1.0,0
run-2020-2-29-9-27-8.616753339,AGENT#a8fff3e2-5ad5-11ea-b3e1-577e74413af4,5,41,46,10,1.0,1.0,0
run-2020-2-29-9-27-8.616753339,AGENT#a912a67c-5ad5-11ea-a758-4fe383f75de5,1,45,46,10,1.0,1.0,0
run-2020-2-29-9-27-8.616753339,AGENT#a912a884-5ad5-11ea-9855-d79558210be9,1,45,46,10,1.0,1.0,0
run-2020-2-29-9-27-8.616753339,AGENT#a9040ba8-5ad5-11ea-8f6b-9bec87d2b9f7,5,42,47,10,1.0,1.0,0
run-2020-2-29-9-27-8.616753339,AGENT#a9086072-5ad5-11ea-821f-d353a82cd3a4,4,43,47,10,1.0,1.0,0
run-2020-2-29-9-27-8.616753339,AGENT#a917760c-5ad5-11ea-9183-872efbf888e4,1,46,47,10,1.0,1.0,0
run-2020-2-29-9-27-8.616753339,AGENT#a8577f1e-5ad5-11ea-90be-9f79597a69a3,47,1,48,10,1.0,1.0,0
run-2020-2-29-9-27-8.616753339,AGENT#a8a6fa8a-5ad5-11ea-9243-7b07bf1f6def,28,20,48,10,1.0,1.0,0
run-2020-2-29-9-27-8.616753339,AGENT#a9085f28-5ad5-11ea-94a8-07da59eb2981,5,43,48,10,1.0,1.0,0
run-2020-2-29-9-27-8.616753339,AGENT#a91776fc-5ad5-11ea-a934-a704f07a7f69,2,46,48,10,1.0,1.0,0
run-2020-2-29-9-27-8.616753339,AGENT#a91b8cb0-5ad5-11ea-897c-673c7d2af964,1,47,48,10,1.0,1.0,0
run-2020-2-29-9-27-8.616753339,AGENT#a91b8f4e-5ad5-11ea-a147-838499b38f95,1,47,48,10,1.0,1.0,0
run-2020-2-29-9-27-8.616753339,AGENT#a90d8ef8-5ad5-11ea-b154-57cbf31dd3cb,5,44,49,10,1.0,1.0,0
run-2020-2-29-9-27-8.616753339,AGENT#a912a528-5ad5-11ea-b76c-1f19e959ec63,4,45,49,10,1.0,1.0,0
run-2020-2-29-9-27-8.616753339,AGENT#a912a78a-5ad5-11ea-8ac2-c7de21b974b6,4,45,49,10,1.0,1.0,0
run-2020-2-29-9-27-8.616753339,AGENT#a912a992-5ad5-11ea-95e2-3f6468de445b,4,45,49,10,1.0,1.0,0
run-2020-2-29-9-27-8.616753339,AGENT#a8675916-5ad5-11ea-8c55-9f315a218152,45,5,50,10,1.0,1.0,0
run-2020-2-29-9-27-8.616753339,AGENT#a8f7c4f6-5ad5-11ea-8154-eb5de5db2eab,12,39,51,10,1.0,1.0,0
run-2020-2-29-9-27-8.616753339,AGENT#a92406b0-5ad5-11ea-a420-17062c61dbfb,2,49,51,10,1.0,1.0,0
run-2020-2-29-9-27-8.616753339,AGENT#a9282f10-5ad5-11ea-bb90-a7845bb3a2b0,1,50,51,10,1.0,1.0,0
run-2020-2-29-9-27-8.616753339,AGENT#a86faf58-5ad5-11ea-82bc-ffc884b1bd91,45,7,52,10,1.0,1.0,0
run-2020-2-29-9-27-8.616753339,AGENT#a9282e16-5ad5-11ea-b95c-efad0d9c04bc,2,50,52,10,1.0,1.0,0
run-2020-2-29-9-27-8.616753339,AGENT#a92c4500-5ad5-11ea-971d-ab8a09a504a8,1,51,52,10,1.0,1.0,0
run-2020-2-29-9-27-8.616753339,AGENT#a92c4942-5ad5-11ea-b23c-4348e960d7dd,1,51,52,10,1.0,1.0,0
run-2020-2-29-9-27-8.616753339,AGENT#a873b81e-5ad5-11ea-b133-eb86f0ed23aa,45,8,53,10,1.0,1.0,0
run-2020-2-29-9-27-8.616753339,AGENT#a93059b0-5ad5-11ea-896d-e7c740c65d7a,1,52,53,10,1.0,1.0,0
run-2020-2-29-9-27-8.616753339,AGENT#a9305b04-5ad5-11ea-b364-a3549822bc56,1,52,53,10,1.0,1.0,0
run-2020-2-29-9-27-8.616753339,AGENT#a92c46a4-5ad5-11ea-b370-8fb84b630463,3,51,54,10,1.0,1.0,0
run-2020-2-29-9-27-8.616753339,AGENT#a92c48a2-5ad5-11ea-9db8-8b3db50404d4,3,51,54,10,1.0,1.0,0
run-2020-2-29-9-27-8.616753339,AGENT#a93057bc-5ad5-11ea-8084-13346aa8e94d,2,52,54,10,1.0,1.0,0
run-2020-2-29-9-27-8.616753339,AGENT#a9305910-5ad5-11ea-b968-b7f2414bf0ea,2,52,54,10,1.0,1.0,0
run-2020-2-29-9-27-8.616753339,AGENT#a9305a5a-5ad5-11ea-949b-7bce428b39d4,2,52,54,10,1.0,1.0,0
run-2020-2-29-9-27-8.616753339,AGENT#a938ac8c-5ad5-11ea-ba05-57122c20e222,1,54,55,10,1.0,1.0,0
run-2020-2-29-9-27-8.616753339,AGENT#a8ab06b6-5ad5-11ea-8927-37f46feb591f,35,21,56,10,1.0,1.0,0
run-2020-2-29-9-27-8.616753339,AGENT#a93056c2-5ad5-11ea-a150-b7b7d8ee0758,4,52,56,10,1.0,1.0,0
run-2020-2-29-9-27-8.616753339,AGENT#a938aaf2-5ad5-11ea-b02d-8f6959fa5259,2,54,56,10,1.0,1.0,0
run-2020-2-29-9-27-8.616753339,AGENT#a93cc1f0-5ad5-11ea-9393-4f64cd89fff9,1,55,56,10,1.0,1.0,0
run-2020-2-29-9-27-8.616753339,AGENT#a884e652-5ad5-11ea-8638-5f14d0f94e9e,45,12,57,10,1.0,1.0,0
run-2020-2-29-9-27-8.616753339,AGENT#a934854e-5ad5-11ea-91af-2b1530db8f81,4,53,57,10,1.0,1.0,0
run-2020-2-29-9-27-8.616753339,AGENT#a93cc100-5ad5-11ea-add1-ef5e64f7e048,2,55,57,10,1.0,1.0,0
run-2020-2-29-9-27-8.616753339,AGENT#a941193a-5ad5-11ea-a861-8f7a60252e41,1,56,57,10,1.0,1.0,0
run-2020-2-29-9-27-8.616753339,AGENT#a94119e4-5ad5-11ea-baba-f31907077250,1,56,57,10,1.0,1.0,0
run-2020-2-29-9-27-8.616753339,AGENT#a8531816-5ad5-11ea-88ef-b338c1965c35,58,0,58,10,1.0,1.0,0
run-2020-2-29-9-27-8.616753339,AGENT#a93cc42a-5ad5-11ea-9957-f3c4b838e505,3,55,58,10,1.0,1.0,0
run-2020-2-29-9-27-8.616753339,AGENT#a88a2e82-5ad5-11ea-86c4-9f39f755ce8f,46,13,59,10,1.0,1.0,0
run-2020-2-29-9-27-8.616753339,AGENT#a88a304e-5ad5-11ea-aac1-f3c1bd5923d0,46,13,59,10,1.0,1.0,0
run-2020-2-29-9-27-8.616753339,AGENT#a8d2e082-5ad5-11ea-a2d6-5327a2132cf0,29,30,59,10,1.0,1.0,0
run-2020-2-29-9-27-8.616753339,AGENT#a94555fe-5ad5-11ea-83ca-f3c7a5e91f75,2,57,59,10,1.0,1.0,0
run-2020-2-29-9-27-8.616753339,AGENT#a88a2ca2-5ad5-11ea-abb5-9707390ba976,47,13,60,10,1.0,1.0,0
run-2020-2-29-9-27-8.616753339,AGENT#a88a2d92-5ad5-11ea-95e2-d7dac8edd44c,47,13,60,10,1.0,1.0,0
run-2020-2-29-9-27-8.616753339,AGENT#a9411782-5ad5-11ea-b43e-c3cd335087db,4,56,60,10,1.0,1.0,0
run-2020-2-29-9-27-8.616753339,AGENT#a949523a-5ad5-11ea-9a9f-1be7320fb7a2,2,58,60,10,1.0,1.0,0
run-2020-2-29-9-27-8.616753339,AGENT#a94e21ac-5ad5-11ea-8f9b-cba429b19e86,1,59,60,10,1.0,1.0,0
run-2020-2-29-9-27-8.616753339,AGENT#a94e22b0-5ad5-11ea-bc28-f7d017cfabde,1,59,60,10,1.0,1.0,0
run-2020-2-29-9-27-8.616753339,AGENT#a8a2ff84-5ad5-11ea-88ce-e7979dceff92,42,19,61,10,1.0,1.0,0
run-2020-2-29-9-27-8.616753339,AGENT#a8bb6240-5ad5-11ea-875d-7f783ca55da9,36,25,61,10,1.0,1.0,0
run-2020-2-29-9-27-8.616753339,AGENT#a941187c-5ad5-11ea-9a81-a3330690ef51,5,56,61,10,1.0,1.0,0
run-2020-2-29-9-27-8.616753339,AGENT#a9539ae2-5ad5-11ea-8b13-8f10b38cf1c2,1,60,61,10,1.0,1.0,0
run-2020-2-29-9-27-8.616753339,AGENT#a8a300c4-5ad5-11ea-9907-6f6457a214c2,43,19,62,10,1.0,1.0,0
run-2020-2-29-9-27-8.616753339,AGENT#a912aa78-5ad5-11ea-8a1e-73d6b870f4e1,18,45,63,10,1.0,1.0,0
run-2020-2-29-9-27-8.616753339,AGENT#a94e2026-5ad5-11ea-b83e-4f769d56abfd,4,59,63,10,1.0,1.0,0
run-2020-2-29-9-27-8.616753339,AGENT#a94e2580-5ad5-11ea-812c-ab09370e9622,4,59,63,10,1.0,1.0,0
run-2020-2-29-9-27-8.616753339,AGENT#a9539bf0-5ad5-11ea-8f5d-a39fcac1120b,3,60,63,10,1.0,1.0,0
run-2020-2-29-9-27-8.616753339,AGENT#a9539d4e-5ad5-11ea-97ee-9780c7d50680,3,60,63,10,1.0,1.0,0
run-2020-2-29-9-27-8.616753339,AGENT#a9598542-5ad5-11ea-8458-cff757591484,2,61,63,10,1.0,1.0,0
run-2020-2-29-9-27-8.616753339,AGENT#a9598862-5ad5-11ea-a22e-9fb4f6fcdd86,2,61,63,10,1.0,1.0,0
run-2020-2-29-9-27-8.616753339,AGENT#a8d2df88-5ad5-11ea-b1ce-5fc036349c00,35,30,65,10,1.0,1.0,0
run-2020-2-29-9-27-8.616753339,AGENT#a9598718-5ad5-11ea-8e5c-f76314a80fde,4,61,65,10,1.0,1.0,0
run-2020-2-29-9-27-8.616753339,AGENT#a961c856-5ad5-11ea-9c02-fb886a3677a3,2,63,65,10,1.0,1.0,0
run-2020-2-29-9-27-8.616753339,AGENT#a961c914-5ad5-11ea-b87c-271cd7458bc4,2,63,65,10,1.0,1.0,0
run-2020-2-29-9-27-8.616753339,AGENT#a89efd76-5ad5-11ea-a16e-f75ea83902c3,48,18,66,10,1.0,1.0,0
run-2020-2-29-9-27-8.616753339,AGENT#a95dbd88-5ad5-11ea-a495-872ffe0a65e7,4,62,66,10,1.0,1.0,0
run-2020-2-29-9-27-8.616753339,AGENT#a961c75c-5ad5-11ea-a67e-c3d03fcc2d71,3,63,66,10,1.0,1.0,0
run-2020-2-29-9-27-8.616753339,AGENT#a965cd20-5ad5-11ea-ba0a-1b3c68875a33,2,64,66,10,1.0,1.0,0
run-2020-2-29-9-27-8.616753339,AGENT#a965cf82-5ad5-11ea-9694-afae0b761f31,2,64,66,10,1.0,1.0,0
run-2020-2-29-9-27-8.616753339,AGENT#a95dbbd0-5ad5-11ea-a6dc-ef72516367db,5,62,67,10,1.0,1.0,0
run-2020-2-29-9-27-8.616753339,AGENT#a965ced8-5ad5-11ea-acae-4fa0c48beda5,3,64,67,10,1.0,1.0,0
run-2020-2-29-9-27-8.616753339,AGENT#a96dfcfc-5ad5-11ea-97f4-672ab34a4048,1,66,67,10,1.0,1.0,0
run-2020-2-29-9-27-8.616753339,AGENT#a96dfe5a-5ad5-11ea-a8fd-93b050f00c10,1,66,67,10,1.0,1.0,0
run-2020-2-29-9-27-8.616753339,AGENT#a969e18a-5ad5-11ea-a38e-e3b50e82e0b2,3,65,68,10,1.0,1.0,0
run-2020-2-29-9-27-8.616753339,AGENT#a96dfc5c-5ad5-11ea-8a67-abcc98fa81fd,2,66,68,10,1.0,1.0,0
run-2020-2-29-9-27-8.616753339,AGENT#a9722d4a-5ad5-11ea-a141-8b58a9e480e9,1,67,68,10,1.0,1.0,0
run-2020-2-29-9-27-8.616753339,AGENT#a9722e3a-5ad5-11ea-9a1f-0f043a812e43,1,67,68,10,1.0,1.0,0
run-2020-2-29-9-27-8.616753339,AGENT#a8b73346-5ad5-11ea-891b-1f01e4a4341c,45,24,69,10,1.0,1.0,0
run-2020-2-29-9-27-8.616753339,AGENT#a965ce24-5ad5-11ea-a910-a7ca2f9d2791,5,64,69,10,1.0,1.0,0
run-2020-2-29-9-27-8.616753339,AGENT#a9722fac-5ad5-11ea-a9cd-0fd45c53889e,2,67,69,10,1.0,1.0,0
run-2020-2-29-9-27-8.616753339,AGENT#a976461e-5ad5-11ea-ba7a-7f5b3b3bb110,1,68,69,10,1.0,1.0,0
run-2020-2-29-9-27-8.616753339,AGENT#a8b734f4-5ad5-11ea-aefb-57a92b82268e,46,24,70,10,1.0,1.0,0
run-2020-2-29-9-27-8.616753339,AGENT#a94e2396-5ad5-11ea-a351-83c0c00ebaa0,11,59,70,10,1.0,1.0,0
run-2020-2-29-9-27-8.616753339,AGENT#a969e09a-5ad5-11ea-83ff-a3c32ae42924,5,65,70,10,1.0,1.0,0
run-2020-2-29-9-27-8.616753339,AGENT#a8b31356-5ad5-11ea-af20-e35e8acc85df,48,23,71,10,1.0,1.0,0
run-2020-2-29-9-27-8.616753339,AGENT#a8b73440-5ad5-11ea-bb05-db29b5ec9a6a,47,24,71,10,1.0,1.0,0
run-2020-2-29-9-27-8.616753339,AGENT#a8bf74fc-5ad5-11ea-bc4b-afbde63b0379,45,26,71,10,1.0,1.0,0
run-2020-2-29-9-27-8.616753339,AGENT#a8df1280-5ad5-11ea-b5e4-7b002f9ca300,38,33,71,10,1.0,1.0,0
run-2020-2-29-9-27-8.616753339,AGENT#a96dfb9e-5ad5-11ea-8b5c-e740ace01cd0,5,66,71,10,1.0,1.0,0
run-2020-2-29-9-27-8.616753339,AGENT#a9722ef8-5ad5-11ea-96f5-1baa5d7b66c9,4,67,71,10,1.0,1.0,0
run-2020-2-29-9-27-8.616753339,AGENT#a97e66be-5ad5-11ea-8b0a-fff8905c9633,1,70,71,10,1.0,1.0,0
run-2020-2-29-9-27-8.616753339,AGENT#a9764524-5ad5-11ea-99a4-57a088b0d250,4,68,72,10,1.0,1.0,0
run-2020-2-29-9-27-8.616753339,AGENT#a8bf7344-5ad5-11ea-982d-53455d2be0a3,47,26,73,10,1.0,1.0,0
run-2020-2-29-9-27-8.616753339,AGENT#a97a5e34-5ad5-11ea-a2f6-f36bf8a9f5fc,4,69,73,10,1.0,1.0,0
run-2020-2-29-9-27-8.616753339,AGENT#a97e660a-5ad5-11ea-aea3-1f8baffc1653,3,70,73,10,1.0,1.0,0
run-2020-2-29-9-27-8.616753339,AGENT#a92c49ec-5ad5-11ea-9089-47c753b076f4,23,51,74,10,1.0,1.0,0
run-2020-2-29-9-27-8.616753339,AGENT#a97a5d30-5ad5-11ea-be9c-dbba68859f24,5,69,74,10,1.0,1.0,0
run-2020-2-29-9-27-8.616753339,AGENT#a97e6768-5ad5-11ea-931e-5b10608f42b8,4,70,74,10,1.0,1.0,0
run-2020-2-29-9-27-8.616753339,AGENT#a98ade62-5ad5-11ea-8818-d744947e971e,1,73,74,10,1.0,1.0,0
run-2020-2-29-9-27-8.616753339,AGENT#a98adc1e-5ad5-11ea-956b-ab512ed4c0b8,2,73,75,10,1.0,1.0,0
run-2020-2-29-9-27-8.616753339,AGENT#a98adfac-5ad5-11ea-86cd-97dd442751e0,2,73,75,10,1.0,1.0,0
run-2020-2-29-9-27-8.616753339,AGENT#a98ae056-5ad5-11ea-9fdd-d7335b07b138,2,73,75,10,1.0,1.0,0
run-2020-2-29-9-27-8.616753339,AGENT#a98ef574-5ad5-11ea-a3f9-97b60e4551cc,1,74,75,10,1.0,1.0,0
run-2020-2-29-9-27-8.616753339,AGENT#a98ef628-5ad5-11ea-8060-47b2035714da,1,74,75,10,1.0,1.0,0
run-2020-2-29-9-27-8.616753339,AGENT#a98ef790-5ad5-11ea-8413-f752011a97a5,1,74,75,10,1.0,1.0,0
run-2020-2-29-9-27-8.616753339,AGENT#a8f7c726-5ad5-11ea-9c68-8b74c5d0236f,37,39,76,10,1.0,1.0,0
run-2020-2-29-9-27-8.616753339,AGENT#a98addb8-5ad5-11ea-b454-a7d7b7d6cb19,3,73,76,10,1.0,1.0,0
run-2020-2-29-9-27-8.616753339,AGENT#a8daff24-5ad5-11ea-a3b8-a34b917a5849,45,32,77,10,1.0,1.0,0
run-2020-2-29-9-27-8.616753339,AGENT#a98add0e-5ad5-11ea-939d-5f9953960bc6,4,73,77,10,1.0,1.0,0
run-2020-2-29-9-27-8.616753339,AGENT#a98ae0f6-5ad5-11ea-8f62-570582bdc1fb,4,73,77,10,1.0,1.0,0
run-2020-2-29-9-27-8.616753339,AGENT#a98ef47a-5ad5-11ea-9018-d3e144a5ed15,4,74,78,10,1.0,1.0,0
run-2020-2-29-9-27-8.616753339,AGENT#a99364c4-5ad5-11ea-bd0c-2759cb234f8f,3,75,78,10,1.0,1.0,0
run-2020-2-29-9-27-8.616753339,AGENT#a98ef6dc-5ad5-11ea-a341-47fb8daede2a,5,74,79,10,1.0,1.0,0
run-2020-2-29-9-27-8.616753339,AGENT#a99e44fc-5ad5-11ea-96b6-c73daffec984,2,77,79,10,1.0,1.0,0
run-2020-2-29-9-27-8.616753339,AGENT#a969e23e-5ad5-11ea-aeff-5ff4da9f1dc5,15,65,80,10,1.0,1.0,0
run-2020-2-29-9-27-8.616753339,AGENT#a9936276-5ad5-11ea-80b0-3baced2e2506,5,75,80,10,1.0,1.0,0
run-2020-2-29-9-27-8.616753339,AGENT#a9ab8824-5ad5-11ea-adda-274bae77e3d2,1,80,81,10,1.0,1.0,0
run-2020-2-29-9-27-8.616753339,AGENT#a9af9f90-5ad5-11ea-a3eb-077343309639,1,81,82,10,1.0,1.0,0
run-2020-2-29-9-27-8.616753339,AGENT#a9afa0ee-5ad5-11ea-b963-bfa1e1d6bcf3,1,81,82,10,1.0,1.0,0
run-2020-2-29-9-27-8.616753339,AGENT#a9b3b148-5ad5-11ea-ba4b-c302c08c63a2,1,82,83,10,1.0,1.0,0
run-2020-2-29-9-27-8.616753339,AGENT#a9a70c54-5ad5-11ea-b142-d7fca86b207d,5,79,84,10,1.0,1.0,0
run-2020-2-29-9-27-8.616753339,AGENT#a9afa04e-5ad5-11ea-becd-378a7d004335,3,81,84,10,1.0,1.0,0
run-2020-2-29-9-27-8.616753339,AGENT#a9b3b058-5ad5-11ea-9196-57ed6a724892,2,82,84,10,1.0,1.0,0
run-2020-2-29-9-27-8.616753339,AGENT#a9b7d412-5ad5-11ea-816b-3b90a5d3523f,1,83,84,10,1.0,1.0,0
run-2020-2-29-9-27-8.616753339,AGENT#a9b7d50c-5ad5-11ea-bc55-63c97aa0da49,1,83,84,10,1.0,1.0,0
run-2020-2-29-9-27-8.616753339,AGENT#a8fbc254-5ad5-11ea-a5b8-432aa8af1b3f,45,40,85,10,1.0,1.0,0
run-2020-2-29-9-27-8.616753339,AGENT#a93cc36c-5ad5-11ea-9537-0363cd33da5e,30,55,85,10,1.0,1.0,0
run-2020-2-29-9-27-8.616753339,AGENT#a96dfaae-5ad5-11ea-959c-8fda706c3d6d,19,66,85,10,1.0,1.0,0
run-2020-2-29-9-27-8.616753339,AGENT#a9b3b206-5ad5-11ea-80f3-2762919066ae,4,82,86,10,1.0,1.0,0
run-2020-2-29-9-27-8.616753339,AGENT#a9bc092e-5ad5-11ea-a2ef-83facf69728b,2,84,86,10,1.0,1.0,0
run-2020-2-29-9-27-8.616753339,AGENT#a9bc09e2-5ad5-11ea-8e60-13833b01ebaa,2,84,86,10,1.0,1.0,0
run-2020-2-29-9-27-8.616753339,AGENT#a9c02db0-5ad5-11ea-a67f-23797cfe8f3b,2,85,87,10,1.0,1.0,0
run-2020-2-29-9-27-8.616753339,AGENT#a9c030bc-5ad5-11ea-9149-f379b76e069d,3,85,88,10,1.0,1.0,0
run-2020-2-29-9-27-8.616753339,AGENT#a9c46a24-5ad5-11ea-89d8-4bcb4d17ae7a,2,86,88,10,1.0,1.0,0
run-2020-2-29-9-27-8.616753339,AGENT#a9c46b1e-5ad5-11ea-864b-3ffeb24502ea,2,86,88,10,1.0,1.0,0
run-2020-2-29-9-27-8.616753339,AGENT#a9c46bdc-5ad5-11ea-9e8f-8fcc302ce39e,2,86,88,10,1.0,1.0,0
run-2020-2-29-9-27-8.616753339,AGENT#a9bc0866-5ad5-11ea-a2ba-a303e0ef2e44,5,84,89,10,1.0,1.0,0
run-2020-2-29-9-27-8.616753339,AGENT#a9c02f68-5ad5-11ea-886d-a3d0531255f3,4,85,89,10,1.0,1.0,0
run-2020-2-29-9-27-8.616753339,AGENT#a9c0301c-5ad5-11ea-a2b0-4be7bdf25286,4,85,89,10,1.0,1.0,0
run-2020-2-29-9-27-8.616753339,AGENT#a9c03170-5ad5-11ea-ba27-13d899bbb486,4,85,89,10,1.0,1.0,0
run-2020-2-29-9-27-8.616753339,AGENT#a8fff4e6-5ad5-11ea-9e7c-57235b63cb69,49,41,90,10,1.0,1.0,0
run-2020-2-29-9-27-8.616753339,AGENT#a908616c-5ad5-11ea-b62f-0362199c3aeb,47,43,90,10,1.0,1.0,0
run-2020-2-29-9-27-8.616753339,AGENT#a9d0dcdc-5ad5-11ea-875f-dfb8015e4067,1,89,90,10,1.0,1.0,0
run-2020-2-29-9-27-8.616753339,AGENT#a9d0dd86-5ad5-11ea-9ad7-87be2e936558,1,89,90,10,1.0,1.0,0
run-2020-2-29-9-27-8.616753339,AGENT#a9c46c86-5ad5-11ea-a964-fb2da8ea0c7a,5,86,91,10,1.0,1.0,0
run-2020-2-29-9-27-8.616753339,AGENT#a91b8db4-5ad5-11ea-a445-8b7c41e83007,45,47,92,10,1.0,1.0,0
run-2020-2-29-9-27-8.616753339,AGENT#a9d4ffce-5ad5-11ea-a2da-73fc53151194,2,90,92,10,1.0,1.0,0
run-2020-2-29-9-27-8.616753339,AGENT#a91b8e9a-5ad5-11ea-b991-4366a987deed,46,47,93,10,1.0,1.0,0
run-2020-2-29-9-27-8.616753339,AGENT#a91fff48-5ad5-11ea-b7a0-57ffc2e42c32,45,48,93,10,1.0,1.0,0
run-2020-2-29-9-27-8.616753339,AGENT#a9df16ee-5ad5-11ea-ab58-d396d378f38f,1,92,93,10,1.0,1.0,0
run-2020-2-29-9-27-8.616753339,AGENT#a9d0dbd8-5ad5-11ea-9971-77ce2a5034ba,5,89,94,10,1.0,1.0,0
run-2020-2-29-9-27-8.616753339,AGENT#a9d9a768-5ad5-11ea-b41e-67e522ecc7ff,3,91,94,10,1.0,1.0,0
run-2020-2-29-9-27-8.616753339,AGENT#a9d9a86c-5ad5-11ea-b5ff-3b1d851df0c7,3,91,94,10,1.0,1.0,0
run-2020-2-29-9-27-8.616753339,AGENT#a9df1842-5ad5-11ea-8f58-f3565ab3d4d0,3,92,95,10,1.0,1.0,0
run-2020-2-29-9-27-8.616753339,AGENT#a9e8eaac-5ad5-11ea-bae2-4769048e4de4,1,94,95,10,1.0,1.0,0
run-2020-2-29-9-27-8.616753339,AGENT#a92c4758-5ad5-11ea-8618-7b886ee99af3,45,51,96,10,1.0,1.0,0
run-2020-2-29-9-27-8.616753339,AGENT#a92c47f8-5ad5-11ea-972a-6325db918b84,45,51,96,10,1.0,1.0,0
run-2020-2-29-9-27-8.616753339,AGENT#a9b7d5c0-5ad5-11ea-8e09-3fce68306d0f,13,83,96,10,1.0,1.0,0
run-2020-2-29-9-27-8.616753339,AGENT#a92c45f0-5ad5-11ea-b331-938dba0fdf98,46,51,97,10,1.0,1.0,0
run-2020-2-29-9-27-8.616753339,AGENT#a998f1be-5ad5-11ea-99cb-1fa69398edb7,21,76,97,10,1.0,1.0,0
run-2020-2-29-9-27-8.616753339,AGENT#a9e8e930-5ad5-11ea-848a-9bb29a241b7f,3,94,97,10,1.0,1.0,0
run-2020-2-29-9-27-8.616753339,AGENT#a9ecf73c-5ad5-11ea-8d08-b701fc385b5f,2,95,97,10,1.0,1.0,0
run-2020-2-29-9-27-8.616753339,AGENT#a9ecfa48-5ad5-11ea-9c6b-6fcc3bf1f234,2,95,97,10,1.0,1.0,0
run-2020-2-29-9-27-8.616753339,AGENT#a9f11d12-5ad5-11ea-ba0f-478eb816f634,1,96,97,10,1.0,1.0,0
run-2020-2-29-9-27-8.616753339,AGENT#a9f11dda-5ad5-11ea-9c9e-f7f4bb13c9e4,1,96,97,10,1.0,1.0,0
run-2020-2-29-9-27-8.616753339,AGENT#a95399a2-5ad5-11ea-8563-0fdb23f5509b,38,60,98,10,1.0,1.0,0
run-2020-2-29-9-27-8.616753339,AGENT#a9f11c22-5ad5-11ea-bd66-1f1b61c3a25f,2,96,98,10,1.0,1.0,0
run-2020-2-29-9-27-8.616753339,AGENT#a9f11f2e-5ad5-11ea-a5a7-d78080357c73,2,96,98,10,1.0,1.0,0
run-2020-2-29-9-27-8.616753339,AGENT#a9f539d8-5ad5-11ea-b9ee-8f579255ac3f,2,97,99,10,1.0,1.0,0
