RunID,Agent,Age,Created,Inactive,Resources,Reputation,Ability,Que
run-2020-2-18-13-44-28.928926944,AGENT#c9039bb4-5254-11ea-ba12-3f73672a9b36,0,0,0,10,1.0,1.0,0
run-2020-2-18-13-44-28.928926944,AGENT#c9039056-5254-11ea-a2ff-9719720d3c7c,1,0,1,10,1.0,1.0,0
run-2020-2-18-13-44-28.928926944,AGENT#c9039358-5254-11ea-ae21-0f5a7cee4811,1,0,1,10,1.0,1.0,0
run-2020-2-18-13-44-28.928926944,AGENT#c903e538-5254-11ea-b97d-8b6a4a376f45,1,0,1,10,1.0,1.0,0
run-2020-2-18-13-44-28.928926944,AGENT#c903e862-5254-11ea-8399-0bff5ea0180e,1,0,1,10,1.0,1.0,0
run-2020-2-18-13-44-28.928926944,AGENT#c903a122-5254-11ea-bf2a-a71475a94a5e,2,0,2,10,1.0,1.0,0
run-2020-2-18-13-44-28.928926944,AGENT#c903eb46-5254-11ea-854d-f35bcb020296,2,0,2,10,1.0,1.0,0
run-2020-2-18-13-44-28.928926944,AGENT#c903ee34-5254-11ea-88d7-270184077209,2,0,2,10,1.0,1.0,0
run-2020-2-18-13-44-28.928926944,AGENT#c9048696-5254-11ea-a4a2-7f826895b0e6,1,1,2,10,1.0,1.0,0
run-2020-2-18-13-44-28.928926944,AGENT#c903961e-5254-11ea-952e-c31689fd61d2,3,0,3,10,1.0,1.0,0
run-2020-2-18-13-44-28.928926944,AGENT#c9047aac-5254-11ea-a04a-cf7f5939366b,2,1,3,10,1.0,1.0,0
run-2020-2-18-13-44-28.928926944,AGENT#c90483a8-5254-11ea-915f-b7f2a260ced3,2,1,3,10,1.0,1.0,0
run-2020-2-18-13-44-28.928926944,AGENT#c904d556-5254-11ea-9a99-efe6c24442b7,1,2,3,10,1.0,1.0,0
run-2020-2-18-13-44-28.928926944,AGENT#c90398da-5254-11ea-b4f5-73dfae37a8d0,4,0,4,10,1.0,1.0,0
run-2020-2-18-13-44-28.928926944,AGENT#c903a3d4-5254-11ea-9004-37a4c6346f2f,4,0,4,10,1.0,1.0,0
run-2020-2-18-13-44-28.928926944,AGENT#c9039e66-5254-11ea-b51d-d34a5ee2c357,5,0,5,10,1.0,1.0,0
run-2020-2-18-13-44-28.928926944,AGENT#c903a6a4-5254-11ea-b094-0377091d96f8,5,0,5,10,1.0,1.0,0
run-2020-2-18-13-44-28.928926944,AGENT#c904d8c6-5254-11ea-b581-63dcaaa8960e,3,2,5,10,1.0,1.0,0
run-2020-2-18-13-44-28.928926944,AGENT#c9055e18-5254-11ea-8315-4759db94bc86,1,4,5,10,1.0,1.0,0
run-2020-2-18-13-44-28.928926944,AGENT#c904dbf0-5254-11ea-b75b-93d1000d636a,4,2,6,10,1.0,1.0,0
run-2020-2-18-13-44-28.928926944,AGENT#c9051a66-5254-11ea-9b0c-4ba6f939b74e,3,3,6,10,1.0,1.0,0
run-2020-2-18-13-44-28.928926944,AGENT#c90516d8-5254-11ea-8704-8f8cf8ce6131,4,3,7,10,1.0,1.0,0
run-2020-2-18-13-44-28.928926944,AGENT#c905daf0-5254-11ea-958e-53b1da66495f,1,6,7,10,1.0,1.0,0
run-2020-2-18-13-44-28.928926944,AGENT#c9051d9a-5254-11ea-a4e1-03deabe141bb,5,3,8,10,1.0,1.0,0
run-2020-2-18-13-44-28.928926944,AGENT#c9055800-5254-11ea-a2d0-a317c291b3e8,5,4,9,10,1.0,1.0,0
run-2020-2-18-13-44-28.928926944,AGENT#c905d51e-5254-11ea-a2a9-0fb9fa907153,3,6,9,10,1.0,1.0,0
run-2020-2-18-13-44-28.928926944,AGENT#c9052092-5254-11ea-bff6-9b62c57086a5,7,3,10,10,1.0,1.0,0
run-2020-2-18-13-44-28.928926944,AGENT#c905d1fe-5254-11ea-8696-f7c3cf10692c,5,6,11,10,1.0,1.0,0
run-2020-2-18-13-44-28.928926944,AGENT#c9064fee-5254-11ea-b4b2-f792c5e03a2f,4,8,12,10,1.0,1.0,0
run-2020-2-18-13-44-28.928926944,AGENT#c9074854-5254-11ea-a8e5-9b76372d3126,1,11,12,10,1.0,1.0,0
run-2020-2-18-13-44-28.928926944,AGENT#c9069346-5254-11ea-aeed-bbdfb88b311d,4,9,13,10,1.0,1.0,0
run-2020-2-18-13-44-28.928926944,AGENT#c906e53a-5254-11ea-b067-e723d195aec8,3,10,13,10,1.0,1.0,0
run-2020-2-18-13-44-28.928926944,AGENT#c906ec74-5254-11ea-a786-d310a3d8efcb,3,10,13,10,1.0,1.0,0
run-2020-2-18-13-44-28.928926944,AGENT#c907452a-5254-11ea-a05a-a74a6c078352,2,11,13,10,1.0,1.0,0
run-2020-2-18-13-44-28.928926944,AGENT#c906976a-5254-11ea-a5e8-af47e3d93418,5,9,14,10,1.0,1.0,0
run-2020-2-18-13-44-28.928926944,AGENT#c906f016-5254-11ea-a5f3-0747b1657eab,4,10,14,10,1.0,1.0,0
run-2020-2-18-13-44-28.928926944,AGENT#c9075196-5254-11ea-a5cb-6b600d325719,3,11,14,10,1.0,1.0,0
run-2020-2-18-13-44-28.928926944,AGENT#c907b8b6-5254-11ea-aadb-13123b31d68f,2,12,14,10,1.0,1.0,0
run-2020-2-18-13-44-28.928926944,AGENT#c90741e2-5254-11ea-afce-df57e2a20fa7,4,11,15,10,1.0,1.0,0
run-2020-2-18-13-44-28.928926944,AGENT#c9074b92-5254-11ea-b6eb-3303d540e6fc,4,11,15,10,1.0,1.0,0
run-2020-2-18-13-44-28.928926944,AGENT#c907a966-5254-11ea-8b58-e7ef6e7f3167,3,12,15,10,1.0,1.0,0
run-2020-2-18-13-44-28.928926944,AGENT#c907b2b2-5254-11ea-8fc3-b300c75f7aae,3,12,15,10,1.0,1.0,0
run-2020-2-18-13-44-28.928926944,AGENT#c907b5b4-5254-11ea-8a2e-cfa57d0987dd,3,12,15,10,1.0,1.0,0
run-2020-2-18-13-44-28.928926944,AGENT#c90883fe-5254-11ea-a4e1-33be6f5eda3f,1,14,15,10,1.0,1.0,0
run-2020-2-18-13-44-28.928926944,AGENT#c907afb0-5254-11ea-9ca9-4f1c96bfa8c0,4,12,16,10,1.0,1.0,0
run-2020-2-18-13-44-28.928926944,AGENT#c908f366-5254-11ea-a786-27852f36d7f3,1,15,16,10,1.0,1.0,0
run-2020-2-18-13-44-28.928926944,AGENT#c908ea56-5254-11ea-a17a-aff25c52fdc5,2,15,17,10,1.0,1.0,0
run-2020-2-18-13-44-28.928926944,AGENT#c908f064-5254-11ea-a02d-5f6706c7cee0,2,15,17,10,1.0,1.0,0
run-2020-2-18-13-44-28.928926944,AGENT#c9094500-5254-11ea-9598-b34bd9eadc1e,1,16,17,10,1.0,1.0,0
run-2020-2-18-13-44-28.928926944,AGENT#c9094af0-5254-11ea-a726-83acccfb4fc5,2,16,18,10,1.0,1.0,0
run-2020-2-18-13-44-28.928926944,AGENT#c9088836-5254-11ea-87e8-97bd2fb5e9ea,5,14,19,10,1.0,1.0,0
run-2020-2-18-13-44-28.928926944,AGENT#c908e6e6-5254-11ea-b36d-e364e1d79efb,4,15,19,10,1.0,1.0,0
run-2020-2-18-13-44-28.928926944,AGENT#c909a6bc-5254-11ea-92c4-bf8e07d947b5,2,17,19,10,1.0,1.0,0
run-2020-2-18-13-44-28.928926944,AGENT#c9074e8a-5254-11ea-98fc-1fc6bacf9545,9,11,20,10,1.0,1.0,0
run-2020-2-18-13-44-28.928926944,AGENT#c909a982-5254-11ea-bdf9-679b9234a85c,3,17,20,10,1.0,1.0,0
run-2020-2-18-13-44-28.928926944,AGENT#c909ac2a-5254-11ea-966b-778f1e8ff245,3,17,20,10,1.0,1.0,0
run-2020-2-18-13-44-28.928926944,AGENT#c90a63a4-5254-11ea-b107-5fb05c54aef3,1,19,20,10,1.0,1.0,0
run-2020-2-18-13-44-28.928926944,AGENT#c90a6688-5254-11ea-975d-53cdc04e839c,1,19,20,10,1.0,1.0,0
run-2020-2-18-13-44-28.928926944,AGENT#c909aed2-5254-11ea-b81f-c349d9824521,4,17,21,10,1.0,1.0,0
run-2020-2-18-13-44-28.928926944,AGENT#c90aced4-5254-11ea-a42a-cf6675bff864,1,20,21,10,1.0,1.0,0
run-2020-2-18-13-44-28.928926944,AGENT#c909a3e2-5254-11ea-a2e7-4bf6783a409a,5,17,22,10,1.0,1.0,0
run-2020-2-18-13-44-28.928926944,AGENT#c90a0828-5254-11ea-9bc2-cf26496ca37a,4,18,22,10,1.0,1.0,0
run-2020-2-18-13-44-28.928926944,AGENT#c90a6084-5254-11ea-8d56-3f860a56ea1b,3,19,22,10,1.0,1.0,0
run-2020-2-18-13-44-28.928926944,AGENT#c90b258c-5254-11ea-a05c-6bd55a6369e1,1,21,22,10,1.0,1.0,0
run-2020-2-18-13-44-28.928926944,AGENT#c90b2834-5254-11ea-8e59-97b31bc6704a,2,21,23,10,1.0,1.0,0
run-2020-2-18-13-44-28.928926944,AGENT#c90b2ad2-5254-11ea-99bb-3f053a750a2c,2,21,23,10,1.0,1.0,0
run-2020-2-18-13-44-28.928926944,AGENT#c90b3018-5254-11ea-97b7-1f02c7457e75,2,21,23,10,1.0,1.0,0
run-2020-2-18-13-44-28.928926944,AGENT#c90b22b2-5254-11ea-827a-67abfb2f72df,3,21,24,10,1.0,1.0,0
run-2020-2-18-13-44-28.928926944,AGENT#c90b8bbc-5254-11ea-9979-8bf84c9544bd,2,22,24,10,1.0,1.0,0
run-2020-2-18-13-44-28.928926944,AGENT#c90b8ea0-5254-11ea-af06-2b463e48aaa4,2,22,24,10,1.0,1.0,0
run-2020-2-18-13-44-28.928926944,AGENT#c90bf534-5254-11ea-98fd-134c8d4646f8,1,23,24,10,1.0,1.0,0
run-2020-2-18-13-44-28.928926944,AGENT#c90b915c-5254-11ea-b12a-abd5ad348fec,4,22,26,10,1.0,1.0,0
run-2020-2-18-13-44-28.928926944,AGENT#c90cb276-5254-11ea-9bcd-272f39c5cf8b,1,25,26,10,1.0,1.0,0
run-2020-2-18-13-44-28.928926944,AGENT#c90cc02c-5254-11ea-ad34-1717bc1cbae9,1,25,26,10,1.0,1.0,0
run-2020-2-18-13-44-28.928926944,AGENT#c90bf23c-5254-11ea-b2a6-37b3be0409f4,4,23,27,10,1.0,1.0,0
run-2020-2-18-13-44-28.928926944,AGENT#c90bf836-5254-11ea-b248-7b8bd226ad8a,4,23,27,10,1.0,1.0,0
run-2020-2-18-13-44-28.928926944,AGENT#c90c56dc-5254-11ea-9ff2-57ec90362ccc,4,24,28,10,1.0,1.0,0
run-2020-2-18-13-44-28.928926944,AGENT#c90df46a-5254-11ea-a720-af6e3757a666,1,28,29,10,1.0,1.0,0
run-2020-2-18-13-44-28.928926944,AGENT#c90d84a8-5254-11ea-a6de-97eb247256af,3,27,30,10,1.0,1.0,0
run-2020-2-18-13-44-28.928926944,AGENT#c90e01c6-5254-11ea-8611-e3f397b90e6b,2,28,30,10,1.0,1.0,0
run-2020-2-18-13-44-28.928926944,AGENT#c9059d60-5254-11ea-8f90-e335fb30aa8f,26,5,31,10,1.0,1.0,0
run-2020-2-18-13-44-28.928926944,AGENT#c90e7b2e-5254-11ea-96ee-63c5c5e14b40,2,29,31,10,1.0,1.0,0
run-2020-2-18-13-44-28.928926944,AGENT#c90e7dcc-5254-11ea-bce4-1bcfc4775464,2,29,31,10,1.0,1.0,0
run-2020-2-18-13-44-28.928926944,AGENT#c90ef4dc-5254-11ea-864f-27ed641cd5a2,1,30,31,10,1.0,1.0,0
run-2020-2-18-13-44-28.928926944,AGENT#c90df776-5254-11ea-8104-ff8683bb7c9e,4,28,32,10,1.0,1.0,0
run-2020-2-18-13-44-28.928926944,AGENT#c90dfa14-5254-11ea-9311-97778d692121,4,28,32,10,1.0,1.0,0
run-2020-2-18-13-44-28.928926944,AGENT#c90eef8c-5254-11ea-9c72-cbfeaa9c45b0,2,30,32,10,1.0,1.0,0
run-2020-2-18-13-44-28.928926944,AGENT#c90f739e-5254-11ea-a398-67a7e48dca22,1,31,32,10,1.0,1.0,0
run-2020-2-18-13-44-28.928926944,AGENT#c90e75ac-5254-11ea-9c22-1bfd7564a225,4,29,33,10,1.0,1.0,0
run-2020-2-18-13-44-28.928926944,AGENT#c904749e-5254-11ea-84ec-a32db82abdf9,33,1,34,10,1.0,1.0,0
run-2020-2-18-13-44-28.928926944,AGENT#c90f710a-5254-11ea-b1c8-57a575640fbc,3,31,34,10,1.0,1.0,0
run-2020-2-18-13-44-28.928926944,AGENT#c90fe554-5254-11ea-a23f-d398c626a4fb,2,32,34,10,1.0,1.0,0
run-2020-2-18-13-44-28.928926944,AGENT#c90fea9a-5254-11ea-8ff6-ef0e24be5e1b,3,32,35,10,1.0,1.0,0
run-2020-2-18-13-44-28.928926944,AGENT#c91068e4-5254-11ea-901e-d3ca265c3ab7,2,33,35,10,1.0,1.0,0
run-2020-2-18-13-44-28.928926944,AGENT#c9106dd0-5254-11ea-8286-4bd41a19aecf,3,33,36,10,1.0,1.0,0
run-2020-2-18-13-44-28.928926944,AGENT#c9107046-5254-11ea-bd4d-c3e3549b5342,3,33,36,10,1.0,1.0,0
run-2020-2-18-13-44-28.928926944,AGENT#c9106b5a-5254-11ea-bcb8-6bd7cb9b6b18,4,33,37,10,1.0,1.0,0
run-2020-2-18-13-44-28.928926944,AGENT#c910f57a-5254-11ea-8651-433495e93c67,3,34,37,10,1.0,1.0,0
run-2020-2-18-13-44-28.928926944,AGENT#c910faa2-5254-11ea-b5fc-f3fb073a0cb6,3,34,37,10,1.0,1.0,0
run-2020-2-18-13-44-28.928926944,AGENT#c9106330-5254-11ea-92b3-cb13a797d508,5,33,38,10,1.0,1.0,0
run-2020-2-18-13-44-28.928926944,AGENT#c910ffa2-5254-11ea-94a6-4b4f3b2bebae,4,34,38,10,1.0,1.0,0
run-2020-2-18-13-44-28.928926944,AGENT#c911818e-5254-11ea-abc5-17ddd5e40643,3,35,38,10,1.0,1.0,0
run-2020-2-18-13-44-28.928926944,AGENT#c9128476-5254-11ea-b59d-039e4246b265,1,37,38,10,1.0,1.0,0
run-2020-2-18-13-44-28.928926944,AGENT#c90d8d0e-5254-11ea-83ed-2fb0954c5ed8,12,27,39,10,1.0,1.0,0
run-2020-2-18-13-44-28.928926944,AGENT#c910f7fa-5254-11ea-bc9d-172e97ed72a7,5,34,39,10,1.0,1.0,0
run-2020-2-18-13-44-28.928926944,AGENT#c910fd18-5254-11ea-9132-ff21a7eb1649,5,34,39,10,1.0,1.0,0
run-2020-2-18-13-44-28.928926944,AGENT#c90e789a-5254-11ea-bfc9-373ac75718a7,11,29,40,10,1.0,1.0,0
run-2020-2-18-13-44-28.928926944,AGENT#c91395aa-5254-11ea-8001-5767a5f59cf2,2,39,41,10,1.0,1.0,0
run-2020-2-18-13-44-28.928926944,AGENT#c9141228-5254-11ea-86bb-fb2d81a325d5,1,40,41,10,1.0,1.0,0
run-2020-2-18-13-44-28.928926944,AGENT#c912819c-5254-11ea-87a7-ab99c1292738,5,37,42,10,1.0,1.0,0
run-2020-2-18-13-44-28.928926944,AGENT#c91286ec-5254-11ea-a7ee-63b390ce7e03,5,37,42,10,1.0,1.0,0
run-2020-2-18-13-44-28.928926944,AGENT#c9139064-5254-11ea-97da-7fe91f80c99b,3,39,42,10,1.0,1.0,0
run-2020-2-18-13-44-28.928926944,AGENT#c9149568-5254-11ea-a45a-77f67d71dc77,2,41,43,10,1.0,1.0,0
run-2020-2-18-13-44-28.928926944,AGENT#c9149004-5254-11ea-81f9-9f30d93d979a,3,41,44,10,1.0,1.0,0
run-2020-2-18-13-44-28.928926944,AGENT#c91591a2-5254-11ea-8b93-6b149c6afc3d,1,43,44,10,1.0,1.0,0
run-2020-2-18-13-44-28.928926944,AGENT#c9038d04-5254-11ea-88dc-97e57ac8153b,45,0,45,10,1.0,1.0,0
run-2020-2-18-13-44-28.928926944,AGENT#c903f118-5254-11ea-a0ce-6fc331a39156,45,0,45,10,1.0,1.0,0
run-2020-2-18-13-44-28.928926944,AGENT#c905ddfc-5254-11ea-b480-c7c3b9ae9b0f,39,6,45,10,1.0,1.0,0
run-2020-2-18-13-44-28.928926944,AGENT#c9151772-5254-11ea-8dc2-7b1348214124,3,42,45,10,1.0,1.0,0
run-2020-2-18-13-44-28.928926944,AGENT#c9160b00-5254-11ea-9098-33b13e16171d,1,44,45,10,1.0,1.0,0
run-2020-2-18-13-44-28.928926944,AGENT#c9161000-5254-11ea-a69b-f3a7035aff28,1,44,45,10,1.0,1.0,0
run-2020-2-18-13-44-28.928926944,AGENT#c9047d9a-5254-11ea-9d26-179959f5a744,45,1,46,10,1.0,1.0,0
run-2020-2-18-13-44-28.928926944,AGENT#c90480ce-5254-11ea-a60f-77ac6171b8e4,45,1,46,10,1.0,1.0,0
run-2020-2-18-13-44-28.928926944,AGENT#c9081450-5254-11ea-843d-5b190b95ef24,33,13,46,10,1.0,1.0,0
run-2020-2-18-13-44-28.928926944,AGENT#c9158f0e-5254-11ea-ae8e-5ff182babc3d,3,43,46,10,1.0,1.0,0
run-2020-2-18-13-44-28.928926944,AGENT#c916a24a-5254-11ea-b4be-13a03e8aabca,1,45,46,10,1.0,1.0,0
run-2020-2-18-13-44-28.928926944,AGENT#c90477be-5254-11ea-9d06-577e32a98a68,46,1,47,10,1.0,1.0,0
run-2020-2-18-13-44-28.928926944,AGENT#c90b2d84-5254-11ea-9500-538fa1d465e0,27,21,48,10,1.0,1.0,0
run-2020-2-18-13-44-28.928926944,AGENT#c90cbd48-5254-11ea-b660-6f0826fbf6fa,23,25,48,10,1.0,1.0,0
run-2020-2-18-13-44-28.928926944,AGENT#c91729d6-5254-11ea-a606-13016672d104,2,46,48,10,1.0,1.0,0
run-2020-2-18-13-44-28.928926944,AGENT#c9055af8-5254-11ea-8c82-572c199a6591,45,4,49,10,1.0,1.0,0
run-2020-2-18-13-44-28.928926944,AGENT#c91724e0-5254-11ea-8f59-7b8de5cb6ce5,3,46,49,10,1.0,1.0,0
run-2020-2-18-13-44-28.928926944,AGENT#c917276a-5254-11ea-b1ed-47c1bfb4d78e,3,46,49,10,1.0,1.0,0
run-2020-2-18-13-44-28.928926944,AGENT#c917aabe-5254-11ea-bf3b-7708ed12f2fc,2,47,49,10,1.0,1.0,0
run-2020-2-18-13-44-28.928926944,AGENT#c91840e6-5254-11ea-a4c4-d367c4d1c166,1,48,49,10,1.0,1.0,0
run-2020-2-18-13-44-28.928926944,AGENT#c90554c2-5254-11ea-af63-0f89abaaadc0,46,4,50,10,1.0,1.0,0
run-2020-2-18-13-44-28.928926944,AGENT#c90754c0-5254-11ea-b2b1-bf724a32ec9e,39,11,50,10,1.0,1.0,0
run-2020-2-18-13-44-28.928926944,AGENT#c9183b46-5254-11ea-8bbd-2bfa77f86da3,2,48,50,10,1.0,1.0,0
run-2020-2-18-13-44-28.928926944,AGENT#c918ea82-5254-11ea-b6b5-fb473c72817f,1,49,50,10,1.0,1.0,0
run-2020-2-18-13-44-28.928926944,AGENT#c90560fc-5254-11ea-8353-cb999ee65544,47,4,51,10,1.0,1.0,0
run-2020-2-18-13-44-28.928926944,AGENT#c9172e7c-5254-11ea-a729-0b2f804c3b8b,5,46,51,10,1.0,1.0,0
run-2020-2-18-13-44-28.928926944,AGENT#c9183e34-5254-11ea-b7c8-574305de744e,3,48,51,10,1.0,1.0,0
run-2020-2-18-13-44-28.928926944,AGENT#c918e4e2-5254-11ea-bd3c-2b54dd42dfa2,2,49,51,10,1.0,1.0,0
run-2020-2-18-13-44-28.928926944,AGENT#c918438e-5254-11ea-84f4-2f3bf4d3f9e1,4,48,52,10,1.0,1.0,0
run-2020-2-18-13-44-28.928926944,AGENT#c91a7276-5254-11ea-85ea-eb96f6401948,1,51,52,10,1.0,1.0,0
run-2020-2-18-13-44-28.928926944,AGENT#c905d802-5254-11ea-a924-cbcfdb6f7243,47,6,53,10,1.0,1.0,0
run-2020-2-18-13-44-28.928926944,AGENT#c90fe824-5254-11ea-bf79-63bafe5ddb40,21,32,53,10,1.0,1.0,0
run-2020-2-18-13-44-28.928926944,AGENT#c918ed2a-5254-11ea-ad85-a3b673e81c0b,4,49,53,10,1.0,1.0,0
run-2020-2-18-13-44-28.928926944,AGENT#c91a783e-5254-11ea-969c-17abde5a38a6,2,51,53,10,1.0,1.0,0
run-2020-2-18-13-44-28.928926944,AGENT#c91b0e20-5254-11ea-8226-4fee1bac2982,1,52,53,10,1.0,1.0,0
run-2020-2-18-13-44-28.928926944,AGENT#c9064cc4-5254-11ea-b1da-a7d2b7f076b0,46,8,54,10,1.0,1.0,0
run-2020-2-18-13-44-28.928926944,AGENT#c90652f0-5254-11ea-8d83-775b396f4d93,46,8,54,10,1.0,1.0,0
run-2020-2-18-13-44-28.928926944,AGENT#c918e7e4-5254-11ea-8b79-c35e899a7633,5,49,54,10,1.0,1.0,0
run-2020-2-18-13-44-28.928926944,AGENT#c91a6b46-5254-11ea-bc7d-4f8315bdc565,3,51,54,10,1.0,1.0,0
run-2020-2-18-13-44-28.928926944,AGENT#c9059a36-5254-11ea-96e5-ffa41f041403,50,5,55,10,1.0,1.0,0
run-2020-2-18-13-44-28.928926944,AGENT#c91b0b78-5254-11ea-897c-b3c2607ad9c0,3,52,55,10,1.0,1.0,0
run-2020-2-18-13-44-28.928926944,AGENT#c91c93da-5254-11ea-8490-d73d631b3924,1,54,55,10,1.0,1.0,0
run-2020-2-18-13-44-28.928926944,AGENT#c906e8dc-5254-11ea-91fa-332adb54e431,46,10,56,10,1.0,1.0,0
run-2020-2-18-13-44-28.928926944,AGENT#c906f3e0-5254-11ea-ac75-47d90814c07b,46,10,56,10,1.0,1.0,0
run-2020-2-18-13-44-28.928926944,AGENT#c90e0446-5254-11ea-8265-bb76f220ab7b,28,28,56,10,1.0,1.0,0
run-2020-2-18-13-44-28.928926944,AGENT#c91a7582-5254-11ea-83fb-6fb7907a9f84,5,51,56,10,1.0,1.0,0
run-2020-2-18-13-44-28.928926944,AGENT#c91b08a8-5254-11ea-80b6-8b2922edf779,4,52,56,10,1.0,1.0,0
run-2020-2-18-13-44-28.928926944,AGENT#c91c9952-5254-11ea-a868-1bc0e319258f,2,54,56,10,1.0,1.0,0
run-2020-2-18-13-44-28.928926944,AGENT#c907a5ec-5254-11ea-858b-975abe383e07,45,12,57,10,1.0,1.0,0
run-2020-2-18-13-44-28.928926944,AGENT#c91c9bb4-5254-11ea-8e47-5322f7588436,3,54,57,10,1.0,1.0,0
run-2020-2-18-13-44-28.928926944,AGENT#c91d2bec-5254-11ea-955c-7305b93fc804,2,55,57,10,1.0,1.0,0
run-2020-2-18-13-44-28.928926944,AGENT#c91d33e4-5254-11ea-841b-8766955ad880,2,55,57,10,1.0,1.0,0
run-2020-2-18-13-44-28.928926944,AGENT#c91dda56-5254-11ea-8577-fbaf817156fa,1,56,57,10,1.0,1.0,0
run-2020-2-18-13-44-28.928926944,AGENT#c906e12a-5254-11ea-aa99-1f6ac1f6fb29,48,10,58,10,1.0,1.0,0
run-2020-2-18-13-44-28.928926944,AGENT#c907ac7c-5254-11ea-9d69-fbe461912716,46,12,58,10,1.0,1.0,0
run-2020-2-18-13-44-28.928926944,AGENT#c90f6e4e-5254-11ea-a8c5-573937e67ddd,27,31,58,10,1.0,1.0,0
run-2020-2-18-13-44-28.928926944,AGENT#c9117ec8-5254-11ea-82e4-03fc2ca9b35c,23,35,58,10,1.0,1.0,0
run-2020-2-18-13-44-28.928926944,AGENT#c91c96dc-5254-11ea-8057-ab9251fee305,4,54,58,10,1.0,1.0,0
run-2020-2-18-13-44-28.928926944,AGENT#c91e7dda-5254-11ea-9ac7-17951d5dc7f4,1,57,58,10,1.0,1.0,0
run-2020-2-18-13-44-28.928926944,AGENT#c91e8046-5254-11ea-a711-bbddcb7a5f78,1,57,58,10,1.0,1.0,0
run-2020-2-18-13-44-28.928926944,AGENT#c91e851e-5254-11ea-8f2a-3bc66492b528,1,57,58,10,1.0,1.0,0
run-2020-2-18-13-44-28.928926944,AGENT#c91ddf06-5254-11ea-a511-4bc95480c17f,3,56,59,10,1.0,1.0,0
run-2020-2-18-13-44-28.928926944,AGENT#c91f2a64-5254-11ea-9fa1-27bbefd9daaf,1,58,59,10,1.0,1.0,0
run-2020-2-18-13-44-28.928926944,AGENT#c91f2d02-5254-11ea-aed9-8bb7653881b1,1,58,59,10,1.0,1.0,0
run-2020-2-18-13-44-28.928926944,AGENT#c91514de-5254-11ea-986b-77efb877edec,18,42,60,10,1.0,1.0,0
run-2020-2-18-13-44-28.928926944,AGENT#c91e7b28-5254-11ea-a7bb-0334d8e93185,3,57,60,10,1.0,1.0,0
run-2020-2-18-13-44-28.928926944,AGENT#c91fbe5c-5254-11ea-82c5-5ba8db4f4c58,1,59,60,10,1.0,1.0,0
run-2020-2-18-13-44-28.928926944,AGENT#c908ed62-5254-11ea-ba24-d3784baa128f,46,15,61,10,1.0,1.0,0
run-2020-2-18-13-44-28.928926944,AGENT#c9094820-5254-11ea-87c5-7fe67725e2b2,45,16,61,10,1.0,1.0,0
run-2020-2-18-13-44-28.928926944,AGENT#c9094da2-5254-11ea-8244-a703f9cbcc02,45,16,61,10,1.0,1.0,0
run-2020-2-18-13-44-28.928926944,AGENT#c9095086-5254-11ea-b8c4-ebdbcf470294,45,16,61,10,1.0,1.0,0
run-2020-2-18-13-44-28.928926944,AGENT#c91e8776-5254-11ea-8b32-df8d276d497b,4,57,61,10,1.0,1.0,0
run-2020-2-18-13-44-28.928926944,AGENT#c91fb92a-5254-11ea-b763-83e2293c6b54,2,59,61,10,1.0,1.0,0
run-2020-2-18-13-44-28.928926944,AGENT#c9205fe2-5254-11ea-8409-ef52a7ec0784,1,60,61,10,1.0,1.0,0
run-2020-2-18-13-44-28.928926944,AGENT#c91e82bc-5254-11ea-9302-231ef88fb1ac,5,57,62,10,1.0,1.0,0
run-2020-2-18-13-44-28.928926944,AGENT#c91fc0c8-5254-11ea-b0be-ff68faeaa970,3,59,62,10,1.0,1.0,0
run-2020-2-18-13-44-28.928926944,AGENT#c9205d76-5254-11ea-965e-8f423e9a30ab,2,60,62,10,1.0,1.0,0
run-2020-2-18-13-44-28.928926944,AGENT#c9205aec-5254-11ea-8ff8-7f2190a7000d,3,60,63,10,1.0,1.0,0
run-2020-2-18-13-44-28.928926944,AGENT#c909a090-5254-11ea-acfb-63d9fa5baad8,47,17,64,10,1.0,1.0,0
run-2020-2-18-13-44-28.928926944,AGENT#c90a6958-5254-11ea-8c7e-0b0c13d58db5,45,19,64,10,1.0,1.0,0
run-2020-2-18-13-44-28.928926944,AGENT#c91fc316-5254-11ea-b364-4b810a5a5151,5,59,64,10,1.0,1.0,0
run-2020-2-18-13-44-28.928926944,AGENT#c92283e4-5254-11ea-ab4f-df289a518d43,1,63,64,10,1.0,1.0,0
run-2020-2-18-13-44-28.928926944,AGENT#c9228fce-5254-11ea-8de7-bfa4fcd57a68,1,63,64,10,1.0,1.0,0
run-2020-2-18-13-44-28.928926944,AGENT#c90ef248-5254-11ea-8ad0-3737cb2dfb15,35,30,65,10,1.0,1.0,0
run-2020-2-18-13-44-28.928926944,AGENT#c92116e4-5254-11ea-b7d3-eb55a16b0850,4,61,65,10,1.0,1.0,0
run-2020-2-18-13-44-28.928926944,AGENT#c9237114-5254-11ea-a282-afe27363f60b,1,64,65,10,1.0,1.0,0
run-2020-2-18-13-44-28.928926944,AGENT#c92373a8-5254-11ea-b14c-5790b7108844,1,64,65,10,1.0,1.0,0
run-2020-2-18-13-44-28.928926944,AGENT#c90ac90c-5254-11ea-9b0f-ef5c24f0e733,46,20,66,10,1.0,1.0,0
run-2020-2-18-13-44-28.928926944,AGENT#c90acc22-5254-11ea-927e-eb5275d9a3ac,46,20,66,10,1.0,1.0,0
run-2020-2-18-13-44-28.928926944,AGENT#c9227e80-5254-11ea-95bb-eb60ca13bf9f,3,63,66,10,1.0,1.0,0
run-2020-2-18-13-44-28.928926944,AGENT#c9243716-5254-11ea-9b21-f7676ac91f85,1,65,66,10,1.0,1.0,0
run-2020-2-18-13-44-28.928926944,AGENT#c92439dc-5254-11ea-8253-932ebea0fa45,1,65,66,10,1.0,1.0,0
run-2020-2-18-13-44-28.928926944,AGENT#c90ef77a-5254-11ea-9687-e7e77615b83c,37,30,67,10,1.0,1.0,0
run-2020-2-18-13-44-28.928926944,AGENT#c922926c-5254-11ea-b8c0-8f7ce6b43b3b,4,63,67,10,1.0,1.0,0
run-2020-2-18-13-44-28.928926944,AGENT#c9244210-5254-11ea-b6b9-171217d95f8c,2,65,67,10,1.0,1.0,0
run-2020-2-18-13-44-28.928926944,AGENT#c924fac0-5254-11ea-8305-77a66727578a,1,66,67,10,1.0,1.0,0
run-2020-2-18-13-44-28.928926944,AGENT#c922890c-5254-11ea-b1ff-a719449fc39e,5,63,68,10,1.0,1.0,0
run-2020-2-18-13-44-28.928926944,AGENT#c9243c84-5254-11ea-aa13-9f4ed25a6bf6,3,65,68,10,1.0,1.0,0
run-2020-2-18-13-44-28.928926944,AGENT#c9243f0e-5254-11ea-a65e-03aa6d2f8692,3,65,68,10,1.0,1.0,0
run-2020-2-18-13-44-28.928926944,AGENT#c9169d36-5254-11ea-a74a-8f4452b6af76,24,45,69,10,1.0,1.0,0
run-2020-2-18-13-44-28.928926944,AGENT#c90cb55a-5254-11ea-9518-67f7d88372b4,45,25,70,10,1.0,1.0,0
run-2020-2-18-13-44-28.928926944,AGENT#c9184622-5254-11ea-8186-4b081fcc4af7,22,48,70,10,1.0,1.0,0
run-2020-2-18-13-44-28.928926944,AGENT#c91dd2b8-5254-11ea-9879-bbe11ffd8438,14,56,70,10,1.0,1.0,0
run-2020-2-18-13-44-28.928926944,AGENT#c926c058-5254-11ea-b91e-f30a36f5527f,1,69,70,10,1.0,1.0,0
run-2020-2-18-13-44-28.928926944,AGENT#c90d22ec-5254-11ea-a9f6-df86fb1769a9,45,26,71,10,1.0,1.0,0
run-2020-2-18-13-44-28.928926944,AGENT#c9106628-5254-11ea-ae2c-fbd1cdd1738e,38,33,71,10,1.0,1.0,0
run-2020-2-18-13-44-28.928926944,AGENT#c9276990-5254-11ea-b08d-1b1bd5f492d3,1,70,71,10,1.0,1.0,0
run-2020-2-18-13-44-28.928926944,AGENT#c92774c6-5254-11ea-853e-a3adf878eafc,2,70,72,10,1.0,1.0,0
run-2020-2-18-13-44-28.928926944,AGENT#c92853f0-5254-11ea-9394-f3562f707565,1,71,72,10,1.0,1.0,0
run-2020-2-18-13-44-28.928926944,AGENT#c9285d82-5254-11ea-96f5-a7088ea61314,1,71,72,10,1.0,1.0,0
run-2020-2-18-13-44-28.928926944,AGENT#c90d8a66-5254-11ea-863b-2fc30d326293,46,27,73,10,1.0,1.0,0
run-2020-2-18-13-44-28.928926944,AGENT#c90dfcc6-5254-11ea-9899-9fb2720e1f1c,45,28,73,10,1.0,1.0,0
run-2020-2-18-13-44-28.928926944,AGENT#c90dff50-5254-11ea-8027-dbbb672655ce,45,28,73,10,1.0,1.0,0
run-2020-2-18-13-44-28.928926944,AGENT#c9285710-5254-11ea-a94e-9be15257ec58,2,71,73,10,1.0,1.0,0
run-2020-2-18-13-44-28.928926944,AGENT#c9292596-5254-11ea-be03-c77644c2b278,1,72,73,10,1.0,1.0,0
run-2020-2-18-13-44-28.928926944,AGENT#c9292ab4-5254-11ea-9210-236a40c9617e,1,72,73,10,1.0,1.0,0
run-2020-2-18-13-44-28.928926944,AGENT#c90d25da-5254-11ea-a64a-0319ab1c0569,48,26,74,10,1.0,1.0,0
run-2020-2-18-13-44-28.928926944,AGENT#c90d87a0-5254-11ea-b416-b7b50ea6fb91,47,27,74,10,1.0,1.0,0
run-2020-2-18-13-44-28.928926944,AGENT#c9128bec-5254-11ea-a03e-631d73fbd089,37,37,74,10,1.0,1.0,0
run-2020-2-18-13-44-28.928926944,AGENT#c926c526-5254-11ea-a9b8-4395d2ac96c2,5,69,74,10,1.0,1.0,0
run-2020-2-18-13-44-28.928926944,AGENT#c927720a-5254-11ea-bcb3-0b2f5333164b,4,70,74,10,1.0,1.0,0
run-2020-2-18-13-44-28.928926944,AGENT#c927776e-5254-11ea-a8ae-57211cad7330,4,70,74,10,1.0,1.0,0
run-2020-2-18-13-44-28.928926944,AGENT#c9285a76-5254-11ea-a3a1-53743711122d,4,71,75,10,1.0,1.0,0
run-2020-2-18-13-44-28.928926944,AGENT#c929d68a-5254-11ea-b310-c366bebb44c1,2,73,75,10,1.0,1.0,0
run-2020-2-18-13-44-28.928926944,AGENT#c90cbab4-5254-11ea-8fef-d3f37b4a7bb5,51,25,76,10,1.0,1.0,0
run-2020-2-18-13-44-28.928926944,AGENT#c928508a-5254-11ea-bee8-b73542d3fe13,5,71,76,10,1.0,1.0,0
run-2020-2-18-13-44-28.928926944,AGENT#c929d8f6-5254-11ea-a5dc-3b9822442725,3,73,76,10,1.0,1.0,0
run-2020-2-18-13-44-28.928926944,AGENT#c929db44-5254-11ea-8713-b363e379a4b2,3,73,76,10,1.0,1.0,0
run-2020-2-18-13-44-28.928926944,AGENT#c9276df0-5254-11ea-8679-137d0b84190a,7,70,77,10,1.0,1.0,0
run-2020-2-18-13-44-28.928926944,AGENT#c92bd958-5254-11ea-9864-b70ffa8e1ad4,1,76,77,10,1.0,1.0,0
run-2020-2-18-13-44-28.928926944,AGENT#c92be2f4-5254-11ea-8b98-77b6ab5c56a9,1,76,77,10,1.0,1.0,0
run-2020-2-18-13-44-28.928926944,AGENT#c90cb802-5254-11ea-a4f7-07bd52acc211,53,25,78,10,1.0,1.0,0
run-2020-2-18-13-44-28.928926944,AGENT#c92bd656-5254-11ea-b50b-a30f75ddc3a1,2,76,78,10,1.0,1.0,0
run-2020-2-18-13-44-28.928926944,AGENT#c92bdbec-5254-11ea-b19f-63832ccdc67b,2,76,78,10,1.0,1.0,0
run-2020-2-18-13-44-28.928926944,AGENT#c92b3444-5254-11ea-b874-9b4e8f52c1b8,4,75,79,10,1.0,1.0,0
run-2020-2-18-13-44-28.928926944,AGENT#c92b371e-5254-11ea-ad34-272d57381e24,4,75,79,10,1.0,1.0,0
run-2020-2-18-13-44-28.928926944,AGENT#c92c8f42-5254-11ea-a564-4332389c951f,3,77,80,10,1.0,1.0,0
run-2020-2-18-13-44-28.928926944,AGENT#c92d396a-5254-11ea-b71d-53e3cb36c196,3,78,81,10,1.0,1.0,0
run-2020-2-18-13-44-28.928926944,AGENT#c92e9d78-5254-11ea-ad8f-c390d7d74fc4,1,80,81,10,1.0,1.0,0
run-2020-2-18-13-44-28.928926944,AGENT#c92de018-5254-11ea-879c-b3ef15a2931e,3,79,82,10,1.0,1.0,0
run-2020-2-18-13-44-28.928926944,AGENT#c9139320-5254-11ea-9b1c-b36715b47d0d,44,39,83,10,1.0,1.0,0
run-2020-2-18-13-44-28.928926944,AGENT#c92d36d6-5254-11ea-b224-ef5786ec7774,5,78,83,10,1.0,1.0,0
run-2020-2-18-13-44-28.928926944,AGENT#c92e974c-5254-11ea-880a-13d4ff34d07b,3,80,83,10,1.0,1.0,0
run-2020-2-18-13-44-28.928926944,AGENT#c92f5ea2-5254-11ea-8b6d-fba4d9e32583,2,81,83,10,1.0,1.0,0
run-2020-2-18-13-44-28.928926944,AGENT#c910f296-5254-11ea-acf9-c37bafc6769c,50,34,84,10,1.0,1.0,0
run-2020-2-18-13-44-28.928926944,AGENT#c9131738-5254-11ea-b330-8776487f9805,46,38,84,10,1.0,1.0,0
run-2020-2-18-13-44-28.928926944,AGENT#c9300f8c-5254-11ea-b899-c7cefbb19ad0,2,82,84,10,1.0,1.0,0
run-2020-2-18-13-44-28.928926944,AGENT#c930dbb0-5254-11ea-a0fa-37a2be689215,1,83,84,10,1.0,1.0,0
run-2020-2-18-13-44-28.928926944,AGENT#c91dd7cc-5254-11ea-b7ca-bb1c67041258,29,56,85,10,1.0,1.0,0
run-2020-2-18-13-44-28.928926944,AGENT#c930d8ae-5254-11ea-bfbb-a7f18473c3ff,2,83,85,10,1.0,1.0,0
run-2020-2-18-13-44-28.928926944,AGENT#c931a3e2-5254-11ea-aa3f-dfb47b781ffc,1,84,85,10,1.0,1.0,0
run-2020-2-18-13-44-28.928926944,AGENT#c912898a-5254-11ea-a040-ef503f0e5fb8,49,37,86,10,1.0,1.0,0
run-2020-2-18-13-44-28.928926944,AGENT#c93264c6-5254-11ea-9670-b723fea7353c,1,85,86,10,1.0,1.0,0
run-2020-2-18-13-44-28.928926944,AGENT#c930e07e-5254-11ea-870f-4fdffcd18dd1,4,83,87,10,1.0,1.0,0
run-2020-2-18-13-44-28.928926944,AGENT#c9325a80-5254-11ea-abf3-e3a2ee5f154a,2,85,87,10,1.0,1.0,0
run-2020-2-18-13-44-28.928926944,AGENT#c933f93a-5254-11ea-b4d2-236753e64a7a,1,87,88,10,1.0,1.0,0
run-2020-2-18-13-44-28.928926944,AGENT#c9160d94-5254-11ea-87c2-f75e8f2d1544,45,44,89,10,1.0,1.0,0
run-2020-2-18-13-44-28.928926944,AGENT#c933f21e-5254-11ea-8f2e-531dbc861407,2,87,89,10,1.0,1.0,0
run-2020-2-18-13-44-28.928926944,AGENT#c933f6d8-5254-11ea-8644-a79fe2082f34,2,87,89,10,1.0,1.0,0
run-2020-2-18-13-44-28.928926944,AGENT#c91492de-5254-11ea-9a11-87174e8a09b8,49,41,90,10,1.0,1.0,0
run-2020-2-18-13-44-28.928926944,AGENT#c9169a8e-5254-11ea-af9f-77e8454faa5f,45,45,90,10,1.0,1.0,0
run-2020-2-18-13-44-28.928926944,AGENT#c921d142-5254-11ea-b421-07d4e404cf38,28,62,90,10,1.0,1.0,0
run-2020-2-18-13-44-28.928926944,AGENT#c9332942-5254-11ea-9996-6f5be919ef85,4,86,90,10,1.0,1.0,0
run-2020-2-18-13-44-28.928926944,AGENT#c9169fd4-5254-11ea-bb0c-1717d9df17ed,46,45,91,10,1.0,1.0,0
run-2020-2-18-13-44-28.928926944,AGENT#c91e89ce-5254-11ea-9375-f3b71a0f2c39,34,57,91,10,1.0,1.0,0
run-2020-2-18-13-44-28.928926944,AGENT#c92de270-5254-11ea-8931-bfd86ee1b611,12,79,91,10,1.0,1.0,0
run-2020-2-18-13-44-28.928926944,AGENT#c933ef62-5254-11ea-bd2a-efc4f29c8d0d,4,87,91,10,1.0,1.0,0
run-2020-2-18-13-44-28.928926944,AGENT#c933f480-5254-11ea-9d80-f7463efdb0fe,4,87,91,10,1.0,1.0,0
run-2020-2-18-13-44-28.928926944,AGENT#c933fb9c-5254-11ea-8f59-7777642bc7a1,4,87,91,10,1.0,1.0,0
run-2020-2-18-13-44-28.928926944,AGENT#c934c61c-5254-11ea-b6f3-dbfd3dff4f3f,3,88,91,10,1.0,1.0,0
run-2020-2-18-13-44-28.928926944,AGENT#c934cd1a-5254-11ea-8a19-d71eedb53c7d,3,88,91,10,1.0,1.0,0
run-2020-2-18-13-44-28.928926944,AGENT#c935c576-5254-11ea-8b61-bb32c3d916c7,2,89,91,10,1.0,1.0,0
run-2020-2-18-13-44-28.928926944,AGENT#c935c9a4-5254-11ea-91f3-8b8329100e43,2,89,91,10,1.0,1.0,0
run-2020-2-18-13-44-28.928926944,AGENT#c917ad5c-5254-11ea-b1fd-e76cc93af8f7,45,47,92,10,1.0,1.0,0
run-2020-2-18-13-44-28.928926944,AGENT#c934c39c-5254-11ea-8566-af42c776b711,4,88,92,10,1.0,1.0,0
run-2020-2-18-13-44-28.928926944,AGENT#c9172c2e-5254-11ea-ab3b-474c292c2880,47,46,93,10,1.0,1.0,0
run-2020-2-18-13-44-28.928926944,AGENT#c935cd5a-5254-11ea-9246-13750219faec,4,89,93,10,1.0,1.0,0
run-2020-2-18-13-44-28.928926944,AGENT#c937d8fc-5254-11ea-b8e9-cf8f3dc30bba,2,91,93,10,1.0,1.0,0
run-2020-2-18-13-44-28.928926944,AGENT#c9389fd0-5254-11ea-a491-c36dfdf1ee3f,1,92,93,10,1.0,1.0,0
run-2020-2-18-13-44-28.928926944,AGENT#c937d406-5254-11ea-a52c-471c99d08313,3,91,94,10,1.0,1.0,0
run-2020-2-18-13-44-28.928926944,AGENT#c938a6a6-5254-11ea-9dd8-3b55223bbf0f,2,92,94,10,1.0,1.0,0
run-2020-2-18-13-44-28.928926944,AGENT#c9397ad6-5254-11ea-a9db-2707e1658402,1,93,94,10,1.0,1.0,0
run-2020-2-18-13-44-28.928926944,AGENT#c9398698-5254-11ea-9ff6-135e0e6624a1,1,93,94,10,1.0,1.0,0
run-2020-2-18-13-44-28.928926944,AGENT#c91848a2-5254-11ea-b839-1383e291909e,47,48,95,10,1.0,1.0,0
run-2020-2-18-13-44-28.928926944,AGENT#c919b854-5254-11ea-9aba-4b953d7b99f9,45,50,95,10,1.0,1.0,0
run-2020-2-18-13-44-28.928926944,AGENT#c919bcdc-5254-11ea-9e30-5f5a34c8a10c,45,50,95,10,1.0,1.0,0
run-2020-2-18-13-44-28.928926944,AGENT#c9262a76-5254-11ea-8ef3-6743e25260a4,27,68,95,10,1.0,1.0,0
run-2020-2-18-13-44-28.928926944,AGENT#c9326264-5254-11ea-88d1-fbb0557a2f99,10,85,95,10,1.0,1.0,0
run-2020-2-18-13-44-28.928926944,AGENT#c937d1b8-5254-11ea-b8cd-9f09c3dc521f,4,91,95,10,1.0,1.0,0
run-2020-2-18-13-44-28.928926944,AGENT#c938a46c-5254-11ea-a963-6b41fdeb3243,3,92,95,10,1.0,1.0,0
run-2020-2-18-13-44-28.928926944,AGENT#c9398210-5254-11ea-9a78-6f431b8a4e27,2,93,95,10,1.0,1.0,0
run-2020-2-18-13-44-28.928926944,AGENT#c93a664e-5254-11ea-84f1-ef2e484fb1d9,1,94,95,10,1.0,1.0,0
run-2020-2-18-13-44-28.928926944,AGENT#c938a908-5254-11ea-992a-5f0d9341dde9,4,92,96,10,1.0,1.0,0
run-2020-2-18-13-44-28.928926944,AGENT#c93988d2-5254-11ea-a992-2ff72eae4f5c,3,93,96,10,1.0,1.0,0
run-2020-2-18-13-44-28.928926944,AGENT#c9398b0c-5254-11ea-b341-ffcd76d1b1fa,3,93,96,10,1.0,1.0,0
run-2020-2-18-13-44-28.928926944,AGENT#c9397fc2-5254-11ea-b484-a3b01936c7b0,4,93,97,10,1.0,1.0,0
run-2020-2-18-13-44-28.928926944,AGENT#c939845e-5254-11ea-962b-5f250feb9bdc,4,93,97,10,1.0,1.0,0
run-2020-2-18-13-44-28.928926944,AGENT#c9397d74-5254-11ea-90f9-fb5fd9fb57f8,5,93,98,10,1.0,1.0,0
run-2020-2-18-13-44-28.928926944,AGENT#c93cf012-5254-11ea-a282-7301b46d59df,1,97,98,10,1.0,1.0,0
run-2020-2-18-13-44-28.928926944,AGENT#c93cf774-5254-11ea-9328-dbb4964e0dca,1,97,98,10,1.0,1.0,0
run-2020-2-18-13-44-28.928926944,AGENT#c93cfc42-5254-11ea-923c-5fcc15788ce1,1,97,98,10,1.0,1.0,0
run-2020-2-18-13-44-28.928926944,AGENT#c91be5e8-5254-11ea-b135-97300280a3da,46,53,99,10,1.0,1.0,0
run-2020-2-18-13-44-28.928926944,AGENT#c93c298e-5254-11ea-b16c-e345b94d1036,3,96,99,10,1.0,1.0,0
run-2020-2-18-13-44-28.928926944,AGENT#c93dda9a-5254-11ea-9e7b-f3e5fdca4224,1,98,99,10,1.0,1.0,0
