RunID,AgentID,Tick,Created,Ressources,Reputation,Ability,Que,Action
run-2020-6-30-8-37-49.77503705,AGENT02bc83aa-baad-11ea-9fed-338687c6765b,108,107,9,1.0,0.7,0,[]
run-2020-6-30-8-37-49.77503705,AGENT02bc83aa-baad-11ea-9fed-338687c6765b,110,107,8,1.0,0.7,0,[]
