RunID,AgentID,Tick,Created,Ressources,Reputation,Ability,Que,Action
run-2020-6-30-8-37-49.77503705,AGENT0358cfbc-baad-11ea-9de2-73241a4eda29,118,117,8,1.0,0.8,0,[]
run-2020-6-30-8-37-49.77503705,AGENT0358cfbc-baad-11ea-9de2-73241a4eda29,120,117,6,1.0,0.8,0,[]
run-2020-6-30-8-37-49.77503705,AGENT0358cfbc-baad-11ea-9de2-73241a4eda29,122,117,4,1.0,0.8,0,[]
run-2020-6-30-8-37-49.77503705,AGENT0358cfbc-baad-11ea-9de2-73241a4eda29,124,117,3,1.0,0.8,0,[]
run-2020-6-30-8-37-49.77503705,AGENT0358cfbc-baad-11ea-9de2-73241a4eda29,126,117,1,1.0,0.8,0,[]
run-2020-6-30-8-37-49.77503705,AGENT0358cfbc-baad-11ea-9de2-73241a4eda29,129,117,20,1.0,0.8,0,[]
run-2020-6-30-8-37-49.77503705,AGENT0358cfbc-baad-11ea-9de2-73241a4eda29,131,117,18,1.0,0.8,0,[]
