RunID,AgentID,Tick,Created,Ressources,Reputation,Ability,Que,Action
run-2020-6-30-8-37-49.77503705,AGENT02bdf5fa-baad-11ea-a020-e377965348b2,108,107,9,1.0,0.9,0,[]
run-2020-6-30-8-37-49.77503705,AGENT02bdf5fa-baad-11ea-a020-e377965348b2,110,107,8,1.0,0.9,0,[]
run-2020-6-30-8-37-49.77503705,AGENT02bdf5fa-baad-11ea-a020-e377965348b2,112,107,6,1.0,0.9,0,[]
run-2020-6-30-8-37-49.77503705,AGENT02bdf5fa-baad-11ea-a020-e377965348b2,114,107,5,1.0,0.9,0,[]
run-2020-6-30-8-37-49.77503705,AGENT02bdf5fa-baad-11ea-a020-e377965348b2,116,107,3,1.0,0.9,0,[]
run-2020-6-30-8-37-49.77503705,AGENT02bdf5fa-baad-11ea-a020-e377965348b2,118,107,2,1.0,0.9,0,[]
run-2020-6-30-8-37-49.77503705,AGENT02bdf5fa-baad-11ea-a020-e377965348b2,121,107,11,1.0,0.9,0,[]
run-2020-6-30-8-37-49.77503705,AGENT02bdf5fa-baad-11ea-a020-e377965348b2,123,107,9,1.0,0.9,0,[]
run-2020-6-30-8-37-49.77503705,AGENT02bdf5fa-baad-11ea-a020-e377965348b2,125,107,7,1.0,0.9,0,[]
run-2020-6-30-8-37-49.77503705,AGENT02bdf5fa-baad-11ea-a020-e377965348b2,127,107,5,1.0,0.9,0,[]
run-2020-6-30-8-37-49.77503705,AGENT02bdf5fa-baad-11ea-a020-e377965348b2,129,107,3,1.0,0.9,0,[]
run-2020-6-30-8-37-49.77503705,AGENT02bdf5fa-baad-11ea-a020-e377965348b2,131,107,1,1.0,0.9,0,[]
