RunID,AgentID,Tick,Created,Ressources,Reputation,Ability,Que,Action
run-2020-6-30-8-37-49.77503705,AGENT02bcd562-baad-11ea-8a83-17b77db51502,108,107,8,1.0,0.4,0,[]
run-2020-6-30-8-37-49.77503705,AGENT02bcd562-baad-11ea-8a83-17b77db51502,110,107,7,1.0,0.4,0,[]
run-2020-6-30-8-37-49.77503705,AGENT02bcd562-baad-11ea-8a83-17b77db51502,112,107,6,1.0,0.4,0,[]
run-2020-6-30-8-37-49.77503705,AGENT02bcd562-baad-11ea-8a83-17b77db51502,114,107,4,1.0,0.4,0,[]
run-2020-6-30-8-37-49.77503705,AGENT02bcd562-baad-11ea-8a83-17b77db51502,116,107,2,1.0,0.4,0,[]
run-2020-6-30-8-37-49.77503705,AGENT02bcd562-baad-11ea-8a83-17b77db51502,118,107,1,1.0,0.4,0,[]
run-2020-6-30-8-37-49.77503705,AGENT02bcd562-baad-11ea-8a83-17b77db51502,121,107,3,1.0,0.4,0,[]
run-2020-6-30-8-37-49.77503705,AGENT02bcd562-baad-11ea-8a83-17b77db51502,123,107,1,1.0,0.4,0,[]
run-2020-6-30-8-37-49.77503705,AGENT02bcd562-baad-11ea-8a83-17b77db51502,126,107,7,1.0,0.4,0,[]
run-2020-6-30-8-37-49.77503705,AGENT02bcd562-baad-11ea-8a83-17b77db51502,128,107,6,1.0,0.4,0,[]
run-2020-6-30-8-37-49.77503705,AGENT02bcd562-baad-11ea-8a83-17b77db51502,130,107,4,1.0,0.4,0,[]
run-2020-6-30-8-37-49.77503705,AGENT02bcd562-baad-11ea-8a83-17b77db51502,132,107,3,1.0,0.4,0,[]
