RunID,AgentID,Tick,Created,Ressources,Reputation,Ability,Que,Action
run-2020-6-30-8-37-49.77503705,AGENT03d7fde6-baad-11ea-aec8-2776c0a3ffd4,125,123,6,1.0,0.1,2,[]
run-2020-6-30-8-37-49.77503705,AGENT03d7fde6-baad-11ea-aec8-2776c0a3ffd4,126,123,4,1.0,0.1,1,[]
run-2020-6-30-8-37-49.77503705,AGENT03d7fde6-baad-11ea-aec8-2776c0a3ffd4,127,123,3,1.0,0.1,0,[]
