Source,Target
94ef5106-526d-11ea-befa-6ffc9130f695,94f601c2-526d-11ea-af37-83d23e18ddcb
94ee7754-526d-11ea-bfeb-af3d4cb8b39a,94f628f0-526d-11ea-bcd8-bf86c4e5a3ba
94f379d4-526d-11ea-beba-0f5c111baa50,94f65316-526d-11ea-bd66-83a610b8b225
94f1cab2-526d-11ea-b982-d7e925ed3f90,94f67904-526d-11ea-85d0-73209e105ec1
94f0ac54-526d-11ea-8bb7-57bb82345c5b,94f6a87a-526d-11ea-b623-ef9bcb835d84
94f4a7be-526d-11ea-921a-032e496f65e3,94f6cf6c-526d-11ea-8683-8ba14f86cbeb
94f07b94-526d-11ea-a7d6-7798bc380377,94f6f5aa-526d-11ea-a80f-73bf15526a70
94f304d6-526d-11ea-b1e7-4f09abe4c847,94f71e90-526d-11ea-81dc-4b4d3e1571e7
94f43392-526d-11ea-9878-eff5541ab835,94f74942-526d-11ea-a6e8-47d65b22a951
94f43392-526d-11ea-9878-eff5541ab835,94f76f4e-526d-11ea-844c-b345dc57b26f
94f217ec-526d-11ea-af7a-17a624a8bac5,94f799d8-526d-11ea-8165-e79c7a2df6ae
94ef5106-526d-11ea-befa-6ffc9130f695,94f7cebc-526d-11ea-99c8-5be0a51444d2
94f6cf6c-526d-11ea-8683-8ba14f86cbeb,94f80274-526d-11ea-aade-579eaa98ddde
94f2d88a-526d-11ea-857a-37cc32c1aad4,94f84ac2-526d-11ea-83a9-9326a875c98b
94f799d8-526d-11ea-8165-e79c7a2df6ae,94f87cfe-526d-11ea-8d6c-ff35df8ac705
94ef5106-526d-11ea-befa-6ffc9130f695,94f8b6ce-526d-11ea-ade9-47f2e56c1e93
94f57842-526d-11ea-8a48-339a7f4f3f1c,94f8f09e-526d-11ea-ae47-c7e8d7f63390
94f05542-526d-11ea-b590-fb31804d4092,94f92c9e-526d-11ea-9951-f7294a6fb173
94f0cfea-526d-11ea-b9b5-371ad94cd8f5,94f95f84-526d-11ea-8072-3f232b9b469b
94f14c9a-526d-11ea-9496-1be9a2c13c52,94f98b80-526d-11ea-8ddb-b765a2745cc9
94f6a87a-526d-11ea-b623-ef9bcb835d84,94f9b394-526d-11ea-be76-03b6fd347a37
94ee521a-526d-11ea-9871-f74be608eaae,94f9dfb8-526d-11ea-98ee-a3080300c504
94f628f0-526d-11ea-bcd8-bf86c4e5a3ba,94fa0920-526d-11ea-be0f-af6f19fef78a
94f87cfe-526d-11ea-8d6c-ff35df8ac705,94fa3562-526d-11ea-b752-1bb2b653bd67
94f74942-526d-11ea-a6e8-47d65b22a951,94fa5baa-526d-11ea-b290-5bb71f5501fc
94f43392-526d-11ea-9878-eff5541ab835,94fa8d64-526d-11ea-856c-3b7b65890696
94f98b80-526d-11ea-8ddb-b765a2745cc9,94fab7f8-526d-11ea-b3ff-3f7f6d6dab2a
94f71e90-526d-11ea-81dc-4b4d3e1571e7,94fae3fe-526d-11ea-a32a-2fe195ae288d
94f6f5aa-526d-11ea-a80f-73bf15526a70,94fb0f82-526d-11ea-bb41-3f639972bd6a
94edfdc4-526d-11ea-a5a3-f76845c6993c,94fb3336-526d-11ea-9ac7-433d0c42a2da
94f9dfb8-526d-11ea-98ee-a3080300c504,94fb5ef6-526d-11ea-ae1c-f31e04e18798
94f14c9a-526d-11ea-9496-1be9a2c13c52,94fb85f2-526d-11ea-b275-1fe341863219
94ee23bc-526d-11ea-8d92-ab7382e98d05,94fbae24-526d-11ea-9abf-9ba5a104566d
94ee9c98-526d-11ea-a6e8-8bbba5e27464,94fbd46c-526d-11ea-a035-9331b8df135c
94efc2b2-526d-11ea-9534-73abf939a97f,94fbfcb2-526d-11ea-ace8-b3e466083d4a
94f9b394-526d-11ea-be76-03b6fd347a37,94fc24a8-526d-11ea-98c3-bbda290531c0
94ef0098-526d-11ea-848e-2b95f76afebd,94fc4c9e-526d-11ea-932d-735b68d82736
94f3dc12-526d-11ea-9e6f-df5b9245978b,94fc7692-526d-11ea-bfc9-b7f450e1ea0f
94efc2b2-526d-11ea-9534-73abf939a97f,94fc9e42-526d-11ea-9410-c78e0911cf9d
94ef9ce2-526d-11ea-ba04-779152c296e6,94fcc84a-526d-11ea-8131-572c24b78bbe
94ee9c98-526d-11ea-a6e8-8bbba5e27464,94fcf89c-526d-11ea-a4fb-ef5ec6a35fd7
94f76f4e-526d-11ea-844c-b345dc57b26f,94fd3640-526d-11ea-8ff0-03a50c061fb5
94f0ac54-526d-11ea-8bb7-57bb82345c5b,94fd628c-526d-11ea-9e41-77d9d974ee5d
94fae3fe-526d-11ea-a32a-2fe195ae288d,94fd902c-526d-11ea-b474-1b11c2342139
94f84ac2-526d-11ea-83a9-9326a875c98b,94fdbdea-526d-11ea-a129-eb7eb9b03de4
94edae3c-526d-11ea-aca1-b3ab29317edc,94fde98c-526d-11ea-bd25-af33e5eaa86a
94f3dc12-526d-11ea-9e6f-df5b9245978b,94fe110a-526d-11ea-aa7d-2faa3a073ec5
94f00a92-526d-11ea-ac0a-1fbce8a38b3a,94fe3798-526d-11ea-a105-633241d9a8d1
94f4ce56-526d-11ea-8843-7f5989905565,94fe5bc4-526d-11ea-ada4-57625e6d50d8
94ef0098-526d-11ea-848e-2b95f76afebd,94fe8798-526d-11ea-a034-1fb515dc6d1c
94edfdc4-526d-11ea-a5a3-f76845c6993c,94feab88-526d-11ea-bd33-b3891a54eaf5
94feab88-526d-11ea-bd33-b3891a54eaf5,94fed202-526d-11ea-9359-e7e27361ba75
94ef7802-526d-11ea-98fb-6759330e7a50,94fef9d0-526d-11ea-a6b1-cf79691e5be1
94f799d8-526d-11ea-8165-e79c7a2df6ae,94ff2022-526d-11ea-87f3-d3a0e3a505f1
94efc2b2-526d-11ea-9534-73abf939a97f,94ff44b2-526d-11ea-a7e1-e33d114f5fcb
94f32b3c-526d-11ea-a263-9bdb4d9230ab,94ff7496-526d-11ea-9a41-5bda1529164b
94f51d70-526d-11ea-a742-d710f7cf32b2,94ffa308-526d-11ea-83ac-330d62f92756
94f9dfb8-526d-11ea-98ee-a3080300c504,94ffcb76-526d-11ea-88e1-3792c3eca9c5
94f1a1d6-526d-11ea-9cbc-337de264aeab,94fff240-526d-11ea-b1c7-177ed337445a
94f4073c-526d-11ea-952c-3f4ab16ab257,95001b08-526d-11ea-8706-c3df35c81843
94f4f552-526d-11ea-87f3-1f498b9e8c65,95004b6e-526d-11ea-9124-7fcd2ae64505
94ef9ce2-526d-11ea-ba04-779152c296e6,95007abc-526d-11ea-83f6-43b3a849db48
94fd628c-526d-11ea-9e41-77d9d974ee5d,9500a866-526d-11ea-9204-b779f2c51ec2
94fd902c-526d-11ea-b474-1b11c2342139,9500d160-526d-11ea-8dce-a757e8179ae0
94f26c10-526d-11ea-8586-5f3c3170431b,9500f91a-526d-11ea-bba4-574b324e0d36
94fd902c-526d-11ea-b474-1b11c2342139,95012214-526d-11ea-ab23-73589390a47c
94f57842-526d-11ea-8a48-339a7f4f3f1c,95015b9e-526d-11ea-8e03-b38307c79f80
94fc24a8-526d-11ea-98c3-bbda290531c0,95017908-526d-11ea-9424-3746fcdb2cca
94f07b94-526d-11ea-a7d6-7798bc380377,95019eba-526d-11ea-b7b8-c7cc12672910
94f11432-526d-11ea-8d91-dbfeaebbf22f,9501c354-526d-11ea-8f12-ab021a383b86
94f601c2-526d-11ea-af37-83d23e18ddcb,9501edca-526d-11ea-8b72-37a47d32d3c2
94fde98c-526d-11ea-bd25-af33e5eaa86a,95021124-526d-11ea-8cb7-a31c5d7b5577
94ffa308-526d-11ea-83ac-330d62f92756,95023456-526d-11ea-b9d8-6f75e4f4ddc4
94fa5baa-526d-11ea-b290-5bb71f5501fc,9502576a-526d-11ea-ae6f-57b5b1c74443
94fc9e42-526d-11ea-9410-c78e0911cf9d,95027b32-526d-11ea-9fda-2f458dac57d0
94ff7496-526d-11ea-9a41-5bda1529164b,95029dd8-526d-11ea-9f0b-83e263b569e0
94fc7692-526d-11ea-bfc9-b7f450e1ea0f,9502c4b6-526d-11ea-9477-d3d342dabd8d
9500d160-526d-11ea-8dce-a757e8179ae0,95030b4c-526d-11ea-89f4-ffa4dd655648
94f482de-526d-11ea-bfd2-cb366470fafb,95033c52-526d-11ea-a23d-27e5f31406a0
94ff2022-526d-11ea-87f3-d3a0e3a505f1,95036ab0-526d-11ea-929d-ff761212818e
94f65316-526d-11ea-bd66-83a610b8b225,95039698-526d-11ea-a564-d7b5f65fc8cf
94f4f552-526d-11ea-87f3-1f498b9e8c65,9503c2f8-526d-11ea-8025-531f0bbc42b5
94edfdc4-526d-11ea-a5a3-f76845c6993c,9503ec1a-526d-11ea-a462-0b7ea71e2d5d
95036ab0-526d-11ea-929d-ff761212818e,95041442-526d-11ea-9c24-872cdd9b7fb3
94fff240-526d-11ea-b1c7-177ed337445a,95043af8-526d-11ea-bf94-ab5252021829
94efe580-526d-11ea-bedf-3b69b2f193b8,95046690-526d-11ea-87a4-efb2afc48a72
94f031a2-526d-11ea-9a00-8bbe6f299277,950496e2-526d-11ea-b77c-7f27debf2202
94ee7754-526d-11ea-bfeb-af3d4cb8b39a,9504c270-526d-11ea-ac76-5b6733f9b9b3
95017908-526d-11ea-9424-3746fcdb2cca,9504e9b2-526d-11ea-a7f7-33f4f1de0ddc
94ee521a-526d-11ea-9871-f74be608eaae,9505119e-526d-11ea-8b55-17a05e443f5a
94f6f5aa-526d-11ea-a80f-73bf15526a70,95053ffc-526d-11ea-8f7a-47930ed18915
94fa5baa-526d-11ea-b290-5bb71f5501fc,9505710c-526d-11ea-be2f-b717f72e6839
94fd628c-526d-11ea-9e41-77d9d974ee5d,95059ba0-526d-11ea-a9f6-57aca72bf810
94f1cab2-526d-11ea-b982-d7e925ed3f90,9505c5d0-526d-11ea-9ee1-ebfb5a88cfa8
94feab88-526d-11ea-bd33-b3891a54eaf5,9505edee-526d-11ea-8f1e-9f8fd976f3c2
9502c4b6-526d-11ea-9477-d3d342dabd8d,95061c74-526d-11ea-ab34-f320e7695d5b
9505c5d0-526d-11ea-9ee1-ebfb5a88cfa8,95064910-526d-11ea-97e2-13ecf91941d9
94f628f0-526d-11ea-bcd8-bf86c4e5a3ba,950672aa-526d-11ea-a042-972f40da64b1
94ef5106-526d-11ea-befa-6ffc9130f695,95069b68-526d-11ea-8f1d-d335075dfc9a
94f95f84-526d-11ea-8072-3f232b9b469b,9506c444-526d-11ea-a950-2fa6135c5665
94f482de-526d-11ea-bfd2-cb366470fafb,9506ee92-526d-11ea-91e7-7b7ba27a8198
95019eba-526d-11ea-b7b8-c7cc12672910,950717c8-526d-11ea-bc31-5bac23e597f3
94fd902c-526d-11ea-b474-1b11c2342139,95074072-526d-11ea-b9db-eb60f5b82b80
94f4a7be-526d-11ea-921a-032e496f65e3,95077024-526d-11ea-a580-dbdeb87ade7c
94f4ce56-526d-11ea-8843-7f5989905565,95079f2c-526d-11ea-9fca-7f4e34bf1550
94f11432-526d-11ea-8d91-dbfeaebbf22f,9507cd94-526d-11ea-8168-cf2c22472527
94edfdc4-526d-11ea-a5a3-f76845c6993c,9507f814-526d-11ea-b2a2-7b3f31dac364
9507f814-526d-11ea-b2a2-7b3f31dac364,95082046-526d-11ea-9d1d-479ccccaa847
94ffa308-526d-11ea-83ac-330d62f92756,950849b8-526d-11ea-add5-b72ede9510a2
94f6cf6c-526d-11ea-8683-8ba14f86cbeb,95087596-526d-11ea-aaa6-036464059ea8
9504c270-526d-11ea-ac76-5b6733f9b9b3,95089d8c-526d-11ea-8dcd-0f8336990734
94f217ec-526d-11ea-af7a-17a624a8bac5,9508c5b4-526d-11ea-983b-5bcea33b7f80
94f4a7be-526d-11ea-921a-032e496f65e3,9508f070-526d-11ea-8b95-7f0b9d61e575
94fc9e42-526d-11ea-9410-c78e0911cf9d,95091a28-526d-11ea-a748-a3d9ed81c12e
9507cd94-526d-11ea-8168-cf2c22472527,95094386-526d-11ea-8445-1393f7399609
94f80274-526d-11ea-aade-579eaa98ddde,950975e0-526d-11ea-9851-b3d03c9bd23c
94f51d70-526d-11ea-a742-d710f7cf32b2,9509a5d8-526d-11ea-8c53-3be15c3d0b7e
9506ee92-526d-11ea-91e7-7b7ba27a8198,9509d26a-526d-11ea-957d-9b6c73c5e1f2
94f1cab2-526d-11ea-b982-d7e925ed3f90,9509fbf0-526d-11ea-bc53-97ac0d2d23a2
94f95f84-526d-11ea-8072-3f232b9b469b,950a3c82-526d-11ea-ba3a-df5ec60fcfcd
94efe580-526d-11ea-bedf-3b69b2f193b8,950a7f62-526d-11ea-9320-834c29cf0b30
94f92c9e-526d-11ea-9951-f7294a6fb173,950ab7f2-526d-11ea-8dcc-63d2c8c64cfb
94f07b94-526d-11ea-a7d6-7798bc380377,950aebdc-526d-11ea-b10b-2bc3bc807d05
94feab88-526d-11ea-bd33-b3891a54eaf5,950b19ae-526d-11ea-94cc-fff0340093df
94fdbdea-526d-11ea-a129-eb7eb9b03de4,950b458c-526d-11ea-9866-7f290847e1f6
94fcf89c-526d-11ea-a4fb-ef5ec6a35fd7,950b7160-526d-11ea-9079-23548d763b34
94f1a1d6-526d-11ea-9cbc-337de264aeab,950ba068-526d-11ea-b55a-9ba6633397fa
9500f91a-526d-11ea-bba4-574b324e0d36,950bd6b4-526d-11ea-beec-6fa9ab24196d
94efe580-526d-11ea-bedf-3b69b2f193b8,950c1520-526d-11ea-a49f-237fadfa2d88
94f4a7be-526d-11ea-921a-032e496f65e3,950c4324-526d-11ea-a932-8b71d977fe13
950aebdc-526d-11ea-b10b-2bc3bc807d05,950c7074-526d-11ea-87ca-df1e24e72bd4
950a3c82-526d-11ea-ba3a-df5ec60fcfcd,950ca206-526d-11ea-91f2-43d25c4fca35
94f1cab2-526d-11ea-b982-d7e925ed3f90,950ccb32-526d-11ea-b76e-074978d3363d
94f54f98-526d-11ea-8f9d-cbbd974fe299,950cf30a-526d-11ea-a8aa-3f42e47f96a1
95079f2c-526d-11ea-9fca-7f4e34bf1550,950d197a-526d-11ea-9719-9352babae4db
9509fbf0-526d-11ea-bc53-97ac0d2d23a2,950d4346-526d-11ea-89d9-7b6d5347de09
9508f070-526d-11ea-8b95-7f0b9d61e575,950d6a1a-526d-11ea-8f20-d34464773fe0
95064910-526d-11ea-97e2-13ecf91941d9,950d8f9a-526d-11ea-8c4e-87a86ef73a68
94f57842-526d-11ea-8a48-339a7f4f3f1c,950db592-526d-11ea-a969-171e6d125a0d
950b7160-526d-11ea-9079-23548d763b34,950ddab8-526d-11ea-b6ec-9b829e3f07b1
94eece5c-526d-11ea-971f-7fc90c44a239,950e061e-526d-11ea-80eb-a3b40fb66b4b
9507cd94-526d-11ea-8168-cf2c22472527,950e2b30-526d-11ea-916a-474f35b157ef
95069b68-526d-11ea-8f1d-d335075dfc9a,950e54f2-526d-11ea-bbb1-c7c5e14e6d13
95059ba0-526d-11ea-a9f6-57aca72bf810,950e7a90-526d-11ea-b8ae-4388492a907e
94f45c82-526d-11ea-94c6-8f6f36ebf224,950ea376-526d-11ea-9edc-6b2b7b9fce7d
9503ec1a-526d-11ea-a462-0b7ea71e2d5d,950ec93c-526d-11ea-ad45-d3a664f0dbd5
94f4073c-526d-11ea-952c-3f4ab16ab257,950ef24a-526d-11ea-9130-4ffbffdca667
95077024-526d-11ea-a580-dbdeb87ade7c,950f1856-526d-11ea-9c40-07b38b0325cc
94ef7802-526d-11ea-98fb-6759330e7a50,950f41a0-526d-11ea-8e79-af4811e25cd2
950d6a1a-526d-11ea-8f20-d34464773fe0,950f66e4-526d-11ea-88de-639a473cc539
950a7f62-526d-11ea-9320-834c29cf0b30,950f8e30-526d-11ea-8a50-8f03551992d6
94ef9ce2-526d-11ea-ba04-779152c296e6,950fb5ae-526d-11ea-8608-b7ee904766be
95039698-526d-11ea-a564-d7b5f65fc8cf,950fe312-526d-11ea-8991-67349b0c4500
95082046-526d-11ea-9d1d-479ccccaa847,95100b12-526d-11ea-af76-dbaff494130c
94fa3562-526d-11ea-b752-1bb2b653bd67,95102e1c-526d-11ea-a176-c3624ead8f36
94f4ce56-526d-11ea-8843-7f5989905565,95105392-526d-11ea-bd83-e7f2efa5b524
95019eba-526d-11ea-b7b8-c7cc12672910,95107868-526d-11ea-9b8a-43124d8a4a8e
95043af8-526d-11ea-bf94-ab5252021829,9510b2a6-526d-11ea-aa21-5f08381a242e
94fb5ef6-526d-11ea-ae1c-f31e04e18798,95111958-526d-11ea-8e46-0ff34ebda23b
95105392-526d-11ea-bd83-e7f2efa5b524,95111728-526d-11ea-bef8-b70fa6a3f378
94fa0920-526d-11ea-be0f-af6f19fef78a,95115328-526d-11ea-96e6-7fd2222a96ca
94f95f84-526d-11ea-8072-3f232b9b469b,95119e96-526d-11ea-87a6-3301fbb9770e
95039698-526d-11ea-a564-d7b5f65fc8cf,9511caf6-526d-11ea-9d12-372062185a5c
94f3dc12-526d-11ea-9e6f-df5b9245978b,9511f530-526d-11ea-b126-479a84420d3c
94ef0098-526d-11ea-848e-2b95f76afebd,9512206e-526d-11ea-9923-33a8d26ba890
94fc9e42-526d-11ea-9410-c78e0911cf9d,95124db4-526d-11ea-9be0-2b5e36afa383
94ff7496-526d-11ea-9a41-5bda1529164b,95127780-526d-11ea-8f6f-4763986f03ed
94fc4c9e-526d-11ea-932d-735b68d82736,9512a0fc-526d-11ea-98ee-cb43e9337b42
94f4f552-526d-11ea-87f3-1f498b9e8c65,9512d482-526d-11ea-a1e8-0b27f6c557cb
94f17706-526d-11ea-b771-2fbfab4539da,95130c86-526d-11ea-86d2-93cdcfd01f60
94f3ab2a-526d-11ea-8da7-dfdc8ef9c5d2,95133698-526d-11ea-9ef4-3fe9f9fef19e
95082046-526d-11ea-9d1d-479ccccaa847,9513612c-526d-11ea-bd6a-b7241ec63e2a
94f59df4-526d-11ea-8a1a-3baaaebc8cad,951388e6-526d-11ea-be46-8f4720cdbc74
94ff2022-526d-11ea-87f3-d3a0e3a505f1,9513b262-526d-11ea-b488-2752826445d5
94f11432-526d-11ea-8d91-dbfeaebbf22f,9513da3a-526d-11ea-b961-03d40eca4ac3
94edae3c-526d-11ea-aca1-b3ab29317edc,95140208-526d-11ea-95ae-13edd29beea4
95111728-526d-11ea-bef8-b70fa6a3f378,951428b4-526d-11ea-a62f-dffa346f74f6
950c1520-526d-11ea-a49f-237fadfa2d88,951451c2-526d-11ea-987c-6f2e2203eb1e
94f54f98-526d-11ea-8f9d-cbbd974fe299,9514794a-526d-11ea-9cea-5f7b630c2b64
94f07b94-526d-11ea-a7d6-7798bc380377,9514a32a-526d-11ea-8dd4-b369d14d3c4e
94f92c9e-526d-11ea-9951-f7294a6fb173,9514d3fe-526d-11ea-92b8-179658b672ba
94ffcb76-526d-11ea-88e1-3792c3eca9c5,9514fe38-526d-11ea-abb6-b7d853063d27
94f11432-526d-11ea-8d91-dbfeaebbf22f,95152b10-526d-11ea-aea9-f76b20c0b8ed
95074072-526d-11ea-b9db-eb60f5b82b80,951553d8-526d-11ea-8b89-7b74f6e83e7e
94fb3336-526d-11ea-9ac7-433d0c42a2da,95159ce4-526d-11ea-b5ff-0b4004f4c118
94fd3640-526d-11ea-8ff0-03a50c061fb5,9515ce44-526d-11ea-89a6-43b6d8a29635
94feab88-526d-11ea-bd33-b3891a54eaf5,9515faae-526d-11ea-88b8-8763904b7972
9514794a-526d-11ea-9cea-5f7b630c2b64,95162876-526d-11ea-9098-3b4d661d6ada
94f1a1d6-526d-11ea-9cbc-337de264aeab,95165dc8-526d-11ea-ab46-1f22abbcd7e5
95100b12-526d-11ea-af76-dbaff494130c,951699f0-526d-11ea-92c0-c743ea6840c4
94fbae24-526d-11ea-9abf-9ba5a104566d,9516cbbe-526d-11ea-8c8f-430b1d97b917
9505710c-526d-11ea-be2f-b717f72e6839,9516f9fe-526d-11ea-bf87-43d0b6e0450b
95105392-526d-11ea-bd83-e7f2efa5b524,95172aaa-526d-11ea-b158-afb0d474fa17
94fae3fe-526d-11ea-a32a-2fe195ae288d,95175dcc-526d-11ea-a231-8f4ad17ed949
95115328-526d-11ea-96e6-7fd2222a96ca,951788d8-526d-11ea-bac6-a364e9774373
94f74942-526d-11ea-a6e8-47d65b22a951,9517b2f4-526d-11ea-b8ac-835ece71c26a
9506c444-526d-11ea-a950-2fa6135c5665,9517deb4-526d-11ea-a737-0b61dcb2263c
94ef9ce2-526d-11ea-ba04-779152c296e6,95180d9e-526d-11ea-b0cb-a72a8a8a1391
950b19ae-526d-11ea-94cc-fff0340093df,951837e2-526d-11ea-9315-fbc9bbf621eb
95030b4c-526d-11ea-89f4-ffa4dd655648,95185ede-526d-11ea-ad66-7365d5d10d43
950ec93c-526d-11ea-ad45-d3a664f0dbd5,9518886e-526d-11ea-8ce9-470207ff93a1
950b19ae-526d-11ea-94cc-fff0340093df,9518b9ba-526d-11ea-86a6-9ffbf4fa72c9
94f217ec-526d-11ea-af7a-17a624a8bac5,9518e49e-526d-11ea-9087-e3704c477461
950496e2-526d-11ea-b77c-7f27debf2202,95190df2-526d-11ea-9314-9bfa704dcd4c
94f4f552-526d-11ea-87f3-1f498b9e8c65,951937b4-526d-11ea-99de-8b31ebab9630
95100b12-526d-11ea-af76-dbaff494130c,95195f8c-526d-11ea-aa1a-e3ca30553802
950496e2-526d-11ea-b77c-7f27debf2202,95198e1c-526d-11ea-8ebb-cb7d35e205a7
94ef0098-526d-11ea-848e-2b95f76afebd,9519b66c-526d-11ea-9a63-1fee8efa911a
95030b4c-526d-11ea-89f4-ffa4dd655648,9519df52-526d-11ea-ba3c-f7fc22535060
94edae3c-526d-11ea-aca1-b3ab29317edc,951a0fb8-526d-11ea-a2c3-5353b48f58af
9501c354-526d-11ea-8f12-ab021a383b86,951a377c-526d-11ea-8d78-9f0e3ff42aac
94f76f4e-526d-11ea-844c-b345dc57b26f,951a5edc-526d-11ea-815b-2be35efae897
94f6f5aa-526d-11ea-a80f-73bf15526a70,951a84ca-526d-11ea-9832-8791a38c84c6
94f8b6ce-526d-11ea-ade9-47f2e56c1e93,951aaad6-526d-11ea-9a17-a720c067c42d
950ccb32-526d-11ea-b76e-074978d3363d,951ad1be-526d-11ea-b1ab-2b96716f91dd
94feab88-526d-11ea-bd33-b3891a54eaf5,951af978-526d-11ea-8c3b-5fe4e6b660b0
950fb5ae-526d-11ea-8608-b7ee904766be,951b2b32-526d-11ea-a750-47bf9a946a71
951451c2-526d-11ea-987c-6f2e2203eb1e,951b6818-526d-11ea-b966-8f6ec2eee334
95021124-526d-11ea-8cb7-a31c5d7b5577,951ba472-526d-11ea-a946-13b2b2d81f16
94f2d88a-526d-11ea-857a-37cc32c1aad4,951bd320-526d-11ea-98c7-d737eabc8801
95111728-526d-11ea-bef8-b70fa6a3f378,951bfe22-526d-11ea-afeb-8770ff059965
94f51d70-526d-11ea-a742-d710f7cf32b2,951c29d8-526d-11ea-8854-83e57a99f148
9505119e-526d-11ea-8b55-17a05e443f5a,951c5688-526d-11ea-91df-1b88b626362e
9500a866-526d-11ea-9204-b779f2c51ec2,951c7cda-526d-11ea-b251-2b4522a2202d
95023456-526d-11ea-b9d8-6f75e4f4ddc4,951ca336-526d-11ea-830e-6f302b729410
94fa5baa-526d-11ea-b290-5bb71f5501fc,951cd1f8-526d-11ea-9436-9f473a12dcf5
9507f814-526d-11ea-b2a2-7b3f31dac364,951cfa20-526d-11ea-8668-93aecf5da16f
9518e49e-526d-11ea-9087-e3704c477461,951d246e-526d-11ea-8dc0-ef9bc4283858
9519df52-526d-11ea-ba3c-f7fc22535060,951d4fca-526d-11ea-a0f1-aba2a81bcd98
951af978-526d-11ea-8c3b-5fe4e6b660b0,951d7b08-526d-11ea-8aef-8755fc89107a
95087596-526d-11ea-aaa6-036464059ea8,951da27c-526d-11ea-b8c4-8bc7c1511da3
951c5688-526d-11ea-91df-1b88b626362e,951de390-526d-11ea-ada6-3b425f2a56bf
951cfa20-526d-11ea-8668-93aecf5da16f,951e1aea-526d-11ea-8ba9-6f737a611269
95180d9e-526d-11ea-b0cb-a72a8a8a1391,951e46aa-526d-11ea-8e2c-c304688e15a7
95012214-526d-11ea-ab23-73589390a47c,951e73fa-526d-11ea-b4fc-0fae9f0afbce
94f601c2-526d-11ea-af37-83d23e18ddcb,951ea1e0-526d-11ea-9486-4b3cea662819
951d7b08-526d-11ea-8aef-8755fc89107a,951ed552-526d-11ea-83bf-e31711d46ece
94f80274-526d-11ea-aade-579eaa98ddde,951f0a86-526d-11ea-9ae5-5b4a399619db
9516f9fe-526d-11ea-bf87-43d0b6e0450b,951f377c-526d-11ea-ac76-87ac8f51c9d4
9518886e-526d-11ea-8ce9-470207ff93a1,951f621a-526d-11ea-a1b2-5baf15d9437d
950b7160-526d-11ea-9079-23548d763b34,951f8d6c-526d-11ea-8fed-3b5851ef8f81
95127780-526d-11ea-8f6f-4763986f03ed,951fc0ac-526d-11ea-85ba-dffbd66baa19
9507cd94-526d-11ea-8168-cf2c22472527,951fea46-526d-11ea-b203-ff46dc83faea
95001b08-526d-11ea-8706-c3df35c81843,95201386-526d-11ea-86ff-b3f65d690b23
950ab7f2-526d-11ea-8dcc-63d2c8c64cfb,9520621e-526d-11ea-96a1-2f6de12bf760
9519df52-526d-11ea-ba3c-f7fc22535060,952077c2-526d-11ea-8baa-47e4fcb16749
9503c2f8-526d-11ea-8025-531f0bbc42b5,9520a008-526d-11ea-82ba-5ba7e3755960
95039698-526d-11ea-a564-d7b5f65fc8cf,9520c632-526d-11ea-8fd5-77967dbed0d5
9510b2a6-526d-11ea-aa21-5f08381a242e,9520f76a-526d-11ea-b945-57a18fbd1e1b
94fc24a8-526d-11ea-98c3-bbda290531c0,95211db2-526d-11ea-8a51-63868e55ba6e
9514d3fe-526d-11ea-92b8-179658b672ba,9521479c-526d-11ea-bf2c-73bf683171ed
950ec93c-526d-11ea-ad45-d3a664f0dbd5,95216f4c-526d-11ea-ac1e-2f414dd1d76b
94fd3640-526d-11ea-8ff0-03a50c061fb5,95219756-526d-11ea-b2b1-937a4290b0a3
9501edca-526d-11ea-8b72-37a47d32d3c2,9521c0e6-526d-11ea-8999-1f87dd4e1ff8
94fcf89c-526d-11ea-a4fb-ef5ec6a35fd7,9521e814-526d-11ea-aff3-37bb11c63892
9501edca-526d-11ea-8b72-37a47d32d3c2,95220fd8-526d-11ea-91ee-7b772cf10411
9520621e-526d-11ea-96a1-2f6de12bf760,952234d6-526d-11ea-ab34-c3b7b274573d
95053ffc-526d-11ea-8f7a-47930ed18915,95225eca-526d-11ea-8ad2-27cb9331aeee
950c7074-526d-11ea-87ca-df1e24e72bd4,9522b4ba-526d-11ea-b287-3759e99d6c32
95094386-526d-11ea-8445-1393f7399609,9522f89e-526d-11ea-bd5a-0ba4e9a69978
94fa3562-526d-11ea-b752-1bb2b653bd67,9523411e-526d-11ea-96c1-c3c38f4c6dfc
94f0cfea-526d-11ea-b9b5-371ad94cd8f5,95237756-526d-11ea-99bc-573856f73c3a
950d8f9a-526d-11ea-8c4e-87a86ef73a68,9523a50a-526d-11ea-a053-c3cd122acd80
9505c5d0-526d-11ea-9ee1-ebfb5a88cfa8,9523d76e-526d-11ea-83eb-ef3c2e18ba77
95111958-526d-11ea-8e46-0ff34ebda23b,95240f68-526d-11ea-a5e6-270bbfc19645
95001b08-526d-11ea-8706-c3df35c81843,95243e48-526d-11ea-9951-db7154605b91
9519b66c-526d-11ea-9a63-1fee8efa911a,95246972-526d-11ea-88f4-db4df694544a
94f601c2-526d-11ea-af37-83d23e18ddcb,95249294-526d-11ea-bafc-4b59f266a8f9
951b2b32-526d-11ea-a750-47bf9a946a71,9524bff8-526d-11ea-a8b0-17b120a791e6
94fbfcb2-526d-11ea-ace8-b3e466083d4a,9524e8f2-526d-11ea-835e-03d3ebc4f57c
94ef9ce2-526d-11ea-ba04-779152c296e6,95252498-526d-11ea-b1a9-b34600892f00
950a7f62-526d-11ea-9320-834c29cf0b30,9525503a-526d-11ea-98c8-bbf0ac7725ce
95162876-526d-11ea-9098-3b4d661d6ada,952580dc-526d-11ea-ab32-cfa018375987
94fd3640-526d-11ea-8ff0-03a50c061fb5,9525aba2-526d-11ea-af2d-93005f01e87e
94fa0920-526d-11ea-be0f-af6f19fef78a,9525d80c-526d-11ea-bbc2-9b6bf4ad4c19
94ef7802-526d-11ea-98fb-6759330e7a50,952602c8-526d-11ea-9627-a74edcb5060e
951b6818-526d-11ea-b966-8f6ec2eee334,9526313a-526d-11ea-8c3b-0b1d700b7efe
95023456-526d-11ea-b9d8-6f75e4f4ddc4,95265a70-526d-11ea-b7e3-1f953a8b216b
94f67904-526d-11ea-85d0-73209e105ec1,95268482-526d-11ea-9a25-cb6fdd255a02
951e73fa-526d-11ea-b4fc-0fae9f0afbce,9526acdc-526d-11ea-949d-ebdb9b69bb3e
950b19ae-526d-11ea-94cc-fff0340093df,9526d55e-526d-11ea-b764-87a8c5a5a3e5
95094386-526d-11ea-8445-1393f7399609,9526fdd6-526d-11ea-8289-afb7dbddb2a3
950ea376-526d-11ea-9edc-6b2b7b9fce7d,9527259a-526d-11ea-bdb0-335773cdc31f
95107868-526d-11ea-9b8a-43124d8a4a8e,95275330-526d-11ea-b063-47cbe520fa35
94fc7692-526d-11ea-bfc9-b7f450e1ea0f,95277b94-526d-11ea-bf5a-f37f11ed3144
951cd1f8-526d-11ea-9436-9f473a12dcf5,9527a416-526d-11ea-bf1e-9f2f42083395
9506ee92-526d-11ea-91e7-7b7ba27a8198,9527cdf6-526d-11ea-b449-a78ad26fc72b
9506ee92-526d-11ea-91e7-7b7ba27a8198,9527fa9c-526d-11ea-97e3-2f0466cb4042
950717c8-526d-11ea-bc31-5bac23e597f3,95282d50-526d-11ea-a94b-5bdb236fd220
94f242d0-526d-11ea-a12e-4f9ab4c75682,95286220-526d-11ea-83d9-87d16e4d0cfb
9502576a-526d-11ea-ae6f-57b5b1c74443,95288e94-526d-11ea-9256-935ed06a5f76
95059ba0-526d-11ea-a9f6-57aca72bf810,9528ba72-526d-11ea-a46e-8b49bd3ac888
9520c632-526d-11ea-8fd5-77967dbed0d5,9528eaec-526d-11ea-920f-fff6901054fe
95265a70-526d-11ea-b7e3-1f953a8b216b,95291b66-526d-11ea-abb2-f3b103e5f1a1
94f76f4e-526d-11ea-844c-b345dc57b26f,952945c8-526d-11ea-8261-e387feca8e0a
94edfdc4-526d-11ea-a5a3-f76845c6993c,95297458-526d-11ea-9b83-d75dcb9180bf
95277b94-526d-11ea-bf5a-f37f11ed3144,95299d2a-526d-11ea-865a-bff2c77e5105
9500f91a-526d-11ea-bba4-574b324e0d36,9529c96c-526d-11ea-b0e8-8f403e1a6fc4
9511caf6-526d-11ea-9d12-372062185a5c,9529f892-526d-11ea-9261-1baf8738f740
95124db4-526d-11ea-9be0-2b5e36afa383,952a2326-526d-11ea-aafd-5f6d30a72295
94f1a1d6-526d-11ea-9cbc-337de264aeab,952a4aae-526d-11ea-8fee-23f90cf606e4
95001b08-526d-11ea-8706-c3df35c81843,952a747a-526d-11ea-a6c7-1f44abbfbc75
95029dd8-526d-11ea-9f0b-83e263b569e0,952a9a7c-526d-11ea-9915-73ca08120ddc
95249294-526d-11ea-bafc-4b59f266a8f9,952ac588-526d-11ea-9caa-6fd08164d3c4
95064910-526d-11ea-97e2-13ecf91941d9,952aed42-526d-11ea-b8bd-ff58e375f948
94f217ec-526d-11ea-af7a-17a624a8bac5,952b1c40-526d-11ea-9545-ff9a429fad82
95111958-526d-11ea-8e46-0ff34ebda23b,952b4288-526d-11ea-a305-ffaed36ec7e6
9500d160-526d-11ea-8dce-a757e8179ae0,952b6b5a-526d-11ea-9a06-277e1317a2ad
94f628f0-526d-11ea-bcd8-bf86c4e5a3ba,952ba048-526d-11ea-8a4e-4368f63adcd8
95162876-526d-11ea-9098-3b4d661d6ada,952bc640-526d-11ea-9a40-a795b61fbd6c
951de390-526d-11ea-ada6-3b425f2a56bf,952bed1e-526d-11ea-83eb-a324064cc34e
9501c354-526d-11ea-8f12-ab021a383b86,952c11ea-526d-11ea-bed8-7f32a7d07f6c
951a377c-526d-11ea-8d78-9f0e3ff42aac,952c4066-526d-11ea-979d-f74c3008cee2
9507cd94-526d-11ea-8168-cf2c22472527,952c69b0-526d-11ea-9d5f-e3dc7c05aa26
950ea376-526d-11ea-9edc-6b2b7b9fce7d,952c9502-526d-11ea-aa87-5b2ed93d74f1
9529f892-526d-11ea-9261-1baf8738f740,952cbdac-526d-11ea-ac89-d3bad585f94c
9528ba72-526d-11ea-a46e-8b49bd3ac888,952ce746-526d-11ea-a6ca-5331f0660cf2
95277b94-526d-11ea-bf5a-f37f11ed3144,952d0f6e-526d-11ea-8a3e-2347ae0f8d00
951fc0ac-526d-11ea-85ba-dffbd66baa19,952d3b24-526d-11ea-9719-37d29def867b
951f8d6c-526d-11ea-8fed-3b5851ef8f81,952d614e-526d-11ea-a01c-cf56765cc421
9527a416-526d-11ea-bf1e-9f2f42083395,952d8930-526d-11ea-adc3-d3f9012756b7
95064910-526d-11ea-97e2-13ecf91941d9,952daf6e-526d-11ea-acdc-cb923db81683
9521479c-526d-11ea-bf2c-73bf683171ed,952de5d8-526d-11ea-9b0a-7385ccbc0019
950e061e-526d-11ea-80eb-a3b40fb66b4b,952e0aa4-526d-11ea-b8f6-0357ddc226ff
95064910-526d-11ea-97e2-13ecf91941d9,952e3a06-526d-11ea-835c-4b025fa901e0
952e3a06-526d-11ea-835c-4b025fa901e0,952e7b74-526d-11ea-98f5-2713c6f863f8
950849b8-526d-11ea-add5-b72ede9510a2,952eaa0e-526d-11ea-ae43-ef2710afeb59
95130c86-526d-11ea-86d2-93cdcfd01f60,952edbbe-526d-11ea-b038-4f7a706219bd
9526d55e-526d-11ea-b764-87a8c5a5a3e5,952f07ec-526d-11ea-b91f-3391595b210f
94fa5baa-526d-11ea-b290-5bb71f5501fc,952f356e-526d-11ea-9cd7-c35e777a0b40
95225eca-526d-11ea-8ad2-27cb9331aeee,952f60f2-526d-11ea-868d-cb963538f4e4
9527259a-526d-11ea-bdb0-335773cdc31f,952f8c3a-526d-11ea-aac9-ff5de63871e1
94fde98c-526d-11ea-bd25-af33e5eaa86a,952fb48a-526d-11ea-9549-630609b7318b
951451c2-526d-11ea-987c-6f2e2203eb1e,952ff3e6-526d-11ea-bcbc-bfafd1e406e7
951699f0-526d-11ea-92c0-c743ea6840c4,95301d3a-526d-11ea-b62c-fbb43a2b20ff
94f65316-526d-11ea-bd66-83a610b8b225,95304558-526d-11ea-9ae8-930ff2ec5408
950c4324-526d-11ea-a932-8b71d977fe13,95307d98-526d-11ea-8fbe-5760b5fd3b61
951c29d8-526d-11ea-8854-83e57a99f148,9530b056-526d-11ea-b33d-07d47f56b5bc
950ea376-526d-11ea-9edc-6b2b7b9fce7d,9530dbc6-526d-11ea-b5ec-8b4583bc5d1c
9511f530-526d-11ea-b126-479a84420d3c,9531054c-526d-11ea-95bc-d74fa2d3e8ae
952d3b24-526d-11ea-9719-37d29def867b,95313198-526d-11ea-9415-3ff7cfd9cd51
950ba068-526d-11ea-b55a-9ba6633397fa,95315754-526d-11ea-8b9c-5fc8768a1b11
952bed1e-526d-11ea-83eb-a324064cc34e,953180ee-526d-11ea-a309-63cdb5d10e72
94f1cab2-526d-11ea-b982-d7e925ed3f90,9531a9e8-526d-11ea-9797-cf7c354015f4
950ddab8-526d-11ea-b6ec-9b829e3f07b1,9531d210-526d-11ea-b6e7-e3e7f28224bb
9522f89e-526d-11ea-bd5a-0ba4e9a69978,9531fb1e-526d-11ea-b556-37595f9927a0
95091a28-526d-11ea-a748-a3d9ed81c12e,95322922-526d-11ea-bb9e-d70690306c73
95029dd8-526d-11ea-9f0b-83e263b569e0,953251cc-526d-11ea-ae26-8bbcba490f71
95195f8c-526d-11ea-aa1a-e3ca30553802,953279f4-526d-11ea-a7d1-df977501f3d3
950b7160-526d-11ea-9079-23548d763b34,9532a17c-526d-11ea-9f18-c37a29dd681e
95012214-526d-11ea-ab23-73589390a47c,9532c684-526d-11ea-b3b5-bb342860712a
950c7074-526d-11ea-87ca-df1e24e72bd4,9532eca4-526d-11ea-8df7-477794e57ad4
94f4a7be-526d-11ea-921a-032e496f65e3,95331436-526d-11ea-a729-0fddb3e8d9ad
952f8c3a-526d-11ea-aac9-ff5de63871e1,95333a2e-526d-11ea-b77a-f3dc03310fcd
94edd808-526d-11ea-a929-5306366a7586,953360a8-526d-11ea-812a-dfa479052c92
9520621e-526d-11ea-96a1-2f6de12bf760,953387e0-526d-11ea-aaf1-5be9f1ae2134
95277b94-526d-11ea-bf5a-f37f11ed3144,9533c1ec-526d-11ea-be4c-d7470e2f690f
9505119e-526d-11ea-8b55-17a05e443f5a,9533ec44-526d-11ea-9767-9b7f2bd69246
94f95f84-526d-11ea-8072-3f232b9b469b,953414d0-526d-11ea-9a8c-5f287503f4dd
951b2b32-526d-11ea-a750-47bf9a946a71,95345242-526d-11ea-ab46-9b8726d31a35
9506c444-526d-11ea-a950-2fa6135c5665,953482bc-526d-11ea-beb2-6f01f3bfa3e8
94f45c82-526d-11ea-94c6-8f6f36ebf224,9534bbd8-526d-11ea-b7a7-9f615696a09a
94f4f552-526d-11ea-87f3-1f498b9e8c65,9535034a-526d-11ea-8f34-fbed2dcf124b
95268482-526d-11ea-9a25-cb6fdd255a02,95353e0a-526d-11ea-8e1f-e3570093cfd3
95046690-526d-11ea-87a4-efb2afc48a72,95356e3e-526d-11ea-86e3-2f019cd10d3b
95190df2-526d-11ea-9314-9bfa704dcd4c,9535afb6-526d-11ea-a75c-dfc34a948d4f
94f8f09e-526d-11ea-ae47-c7e8d7f63390,9535e2ec-526d-11ea-a1df-23aecf46b726
9527a416-526d-11ea-bf1e-9f2f42083395,95361910-526d-11ea-8bff-c3e5db901fa2
94fbd46c-526d-11ea-a035-9331b8df135c,95364994-526d-11ea-9fab-ab92ab672d97
94ffcb76-526d-11ea-88e1-3792c3eca9c5,953676ee-526d-11ea-8b8f-ef97dd4183dc
95091a28-526d-11ea-a748-a3d9ed81c12e,9536a61e-526d-11ea-b9f5-67eca940ebba
950ea376-526d-11ea-9edc-6b2b7b9fce7d,9536cffe-526d-11ea-bb89-4716989fc52c
952a4aae-526d-11ea-8fee-23f90cf606e4,95370708-526d-11ea-9d4e-13f4d2e7418d
94f1cab2-526d-11ea-b982-d7e925ed3f90,95373156-526d-11ea-9ce8-2fdef9a7e24c
94f6f5aa-526d-11ea-a80f-73bf15526a70,95375960-526d-11ea-b871-8fe349fb4091
94fe5bc4-526d-11ea-ada4-57625e6d50d8,95378250-526d-11ea-96b8-0fb6f6f271c8
95111958-526d-11ea-8e46-0ff34ebda23b,9537aa8c-526d-11ea-b7c9-f31f378b2313
94f4f552-526d-11ea-87f3-1f498b9e8c65,9537d21e-526d-11ea-b9b6-cb3d4efff9c8
9536cffe-526d-11ea-bb89-4716989fc52c,9537fed8-526d-11ea-b6fd-3782e2a90b41
94ffcb76-526d-11ea-88e1-3792c3eca9c5,95382a98-526d-11ea-87c6-2302e7772d44
9529f892-526d-11ea-9261-1baf8738f740,95385388-526d-11ea-b7d8-6731beb045ba
951cfa20-526d-11ea-8668-93aecf5da16f,95387d68-526d-11ea-9b48-235741a0a7a3
9508f070-526d-11ea-8b95-7f0b9d61e575,9538a702-526d-11ea-871e-0764702fa79e
951f0a86-526d-11ea-9ae5-5b4a399619db,9538cef8-526d-11ea-bce8-0bfddf60a465
952edbbe-526d-11ea-b038-4f7a706219bd,9538f7c0-526d-11ea-bd3a-3fa7453a8fcf
952bc640-526d-11ea-9a40-a795b61fbd6c,95392178-526d-11ea-8a37-1f0d1e582a9c
95165dc8-526d-11ea-ab46-1f22abbcd7e5,95394b76-526d-11ea-a9a7-dfaf64bad353
95375960-526d-11ea-b871-8fe349fb4091,953971aa-526d-11ea-8850-fb94628e734e
95291b66-526d-11ea-abb2-f3b103e5f1a1,95399ef0-526d-11ea-a773-c712035682c5
95019eba-526d-11ea-b7b8-c7cc12672910,9539e374-526d-11ea-8820-ff2a3f005422
94fd628c-526d-11ea-9e41-77d9d974ee5d,953a35c2-526d-11ea-8fef-e76c41c415a5
94fed202-526d-11ea-9359-e7e27361ba75,953a6d26-526d-11ea-8b40-77431744c262
94f65316-526d-11ea-bd66-83a610b8b225,953aa016-526d-11ea-8478-d7c12c89778e
952a2326-526d-11ea-aafd-5f6d30a72295,953ad964-526d-11ea-a02d-53e6de3f2ac9
953676ee-526d-11ea-8b8f-ef97dd4183dc,953b0a92-526d-11ea-9f3b-bb87f2966663
951ea1e0-526d-11ea-9486-4b3cea662819,953b5740-526d-11ea-9774-7b4ec39a7db1
95198e1c-526d-11ea-8ebb-cb7d35e205a7,953b8e36-526d-11ea-8240-a783093174be
950a3c82-526d-11ea-ba3a-df5ec60fcfcd,953bbcf8-526d-11ea-88d4-2f5eaf99ba60
9521e814-526d-11ea-aff3-37bb11c63892,953bf0d8-526d-11ea-a413-635010b142ec
94f4a7be-526d-11ea-921a-032e496f65e3,953c2db4-526d-11ea-ad48-cbb6867451d1
95299d2a-526d-11ea-865a-bff2c77e5105,953c6658-526d-11ea-b920-b394134e231b
9527cdf6-526d-11ea-b449-a78ad26fc72b,953c959c-526d-11ea-8c6d-13642ecb5e87
95064910-526d-11ea-97e2-13ecf91941d9,953cbe8c-526d-11ea-a6f3-7f9a3794abc4
95288e94-526d-11ea-9256-935ed06a5f76,953ce998-526d-11ea-acbd-9f2874d9383f
9512d482-526d-11ea-a1e8-0b27f6c557cb,953d21ba-526d-11ea-abd2-1fe75d34c6e1
9529c96c-526d-11ea-b0e8-8f403e1a6fc4,953d4a46-526d-11ea-8b26-d393749fd88f
95079f2c-526d-11ea-9fca-7f4e34bf1550,953d7cdc-526d-11ea-8cbe-43001116da06
950b7160-526d-11ea-9079-23548d763b34,953da946-526d-11ea-a214-272a57b5759d
952b4288-526d-11ea-a305-ffaed36ec7e6,953dd11e-526d-11ea-9f2f-9faf2176d6ae
9505710c-526d-11ea-be2f-b717f72e6839,953dfd06-526d-11ea-8a04-9b846d1663cf
94edae3c-526d-11ea-aca1-b3ab29317edc,953e245c-526d-11ea-97fc-9f3dd5bd651f
9538cef8-526d-11ea-bce8-0bfddf60a465,953e5062-526d-11ea-9d9a-9b8b17aeaff8
9520a008-526d-11ea-82ba-5ba7e3755960,953e75ba-526d-11ea-bb05-4b1d6748f76b
953387e0-526d-11ea-aaf1-5be9f1ae2134,953ea3e6-526d-11ea-91f1-13ba508501b8
950d197a-526d-11ea-9719-9352babae4db,953ed000-526d-11ea-9d4f-379aff6998c9
95019eba-526d-11ea-b7b8-c7cc12672910,953f0458-526d-11ea-a3cb-63828ea559b0
9512d482-526d-11ea-a1e8-0b27f6c557cb,953f2c9e-526d-11ea-9760-3b26a189f680
950c4324-526d-11ea-a932-8b71d977fe13,953f58fe-526d-11ea-bd0b-cb46958697ed
95100b12-526d-11ea-af76-dbaff494130c,953f87e8-526d-11ea-acbf-6b04b3a15990
95216f4c-526d-11ea-ac1e-2f414dd1d76b,953faeda-526d-11ea-8da9-8bd60203a836
9500a866-526d-11ea-9204-b779f2c51ec2,953fdaea-526d-11ea-b49c-17dbbf2ae67a
94fe3798-526d-11ea-a105-633241d9a8d1,9540051a-526d-11ea-bf04-bf6581c8aac5
953414d0-526d-11ea-9a8c-5f287503f4dd,95403580-526d-11ea-b0b2-e3e0adb702c0
94fbd46c-526d-11ea-a035-9331b8df135c,9540612c-526d-11ea-9172-e7e979ac37cc
95029dd8-526d-11ea-9f0b-83e263b569e0,95408e4a-526d-11ea-ae5c-97708169997f
95029dd8-526d-11ea-9f0b-83e263b569e0,9540be6a-526d-11ea-819a-efe230c51513
952077c2-526d-11ea-8baa-47e4fcb16749,9540e430-526d-11ea-8fbb-3b188890fe02
9514a32a-526d-11ea-8dd4-b369d14d3c4e,954110b8-526d-11ea-ac86-7303e2d0df16
9531054c-526d-11ea-95bc-d74fa2d3e8ae,95413fca-526d-11ea-abe9-c3ff80eb0a18
953da946-526d-11ea-a214-272a57b5759d,95417170-526d-11ea-b4cd-d3092a188e41
95046690-526d-11ea-87a4-efb2afc48a72,9541a6ae-526d-11ea-b56c-5717b6a16e01
951e1aea-526d-11ea-8ba9-6f737a611269,9541e146-526d-11ea-8c8b-cf40598f8e9d
94ffcb76-526d-11ea-88e1-3792c3eca9c5,954211de-526d-11ea-9f64-5f6b8cfff067
953bbcf8-526d-11ea-88d4-2f5eaf99ba60,954242ee-526d-11ea-a7c5-17ce350de127
95094386-526d-11ea-8445-1393f7399609,95429398-526d-11ea-8347-db0a01b52878
95165dc8-526d-11ea-ab46-1f22abbcd7e5,9542cb60-526d-11ea-8583-5b7ea4969d1d
94f0ac54-526d-11ea-8bb7-57bb82345c5b,9542fd38-526d-11ea-b5c6-63dcdf598e36
9505edee-526d-11ea-8f1e-9f8fd976f3c2,954334ec-526d-11ea-bdee-032a092542fb
9513612c-526d-11ea-bd6a-b7241ec63e2a,954365b6-526d-11ea-b124-a346212f3e7b
9512a0fc-526d-11ea-98ee-cb43e9337b42,954392b6-526d-11ea-90fb-5fdc8059e31e
9505c5d0-526d-11ea-9ee1-ebfb5a88cfa8,9543ba84-526d-11ea-9f79-938731c70793
94f1a1d6-526d-11ea-9cbc-337de264aeab,9543e2de-526d-11ea-a118-3b7f3a7d9cb8
952a747a-526d-11ea-a6c7-1f44abbfbc75,9544109c-526d-11ea-86b1-b7288aef98ec
951e1aea-526d-11ea-8ba9-6f737a611269,954438ce-526d-11ea-87ef-0b51a09a5401
951a0fb8-526d-11ea-a2c3-5353b48f58af,95445ef8-526d-11ea-89e2-d30220f2f997
954211de-526d-11ea-9f64-5f6b8cfff067,9544870c-526d-11ea-9e51-1f11777783e4
950e2b30-526d-11ea-916a-474f35b157ef,9544ad7c-526d-11ea-ac37-778e202dbf25
954365b6-526d-11ea-b124-a346212f3e7b,9544d680-526d-11ea-9d7f-dff699a09d36
94f95f84-526d-11ea-8072-3f232b9b469b,9544ff2a-526d-11ea-b0a8-1388de4bfecb
950f8e30-526d-11ea-8a50-8f03551992d6,95452590-526d-11ea-aaa2-2795511a2348
9500d160-526d-11ea-8dce-a757e8179ae0,95454b92-526d-11ea-b0f2-1be3a03a4dfe
953676ee-526d-11ea-8b8f-ef97dd4183dc,954573ba-526d-11ea-bbc5-8bb0f5d052f8
953dd11e-526d-11ea-9f2f-9faf2176d6ae,9545a9ac-526d-11ea-a2cc-530c8e8a26bb
95059ba0-526d-11ea-a9f6-57aca72bf810,9545d13e-526d-11ea-b929-d75d9c4c270f
94fe110a-526d-11ea-aa7d-2faa3a073ec5,9545fd3a-526d-11ea-94d7-df5aa3da8b39
953faeda-526d-11ea-8da9-8bd60203a836,95462350-526d-11ea-abde-0b097997dff3
95345242-526d-11ea-ab46-9b8726d31a35,95464920-526d-11ea-a6e7-ffb0859ee18a
95382a98-526d-11ea-87c6-2302e7772d44,95467094-526d-11ea-981d-0fec84e73950
950ddab8-526d-11ea-b6ec-9b829e3f07b1,9546a488-526d-11ea-b271-7fd958f3eb65
95322922-526d-11ea-bb9e-d70690306c73,9546cdd2-526d-11ea-9582-a765df441c5b
94ef7802-526d-11ea-98fb-6759330e7a50,9546f906-526d-11ea-8106-9bee1cda5d3d
951451c2-526d-11ea-987c-6f2e2203eb1e,95472e62-526d-11ea-a968-1b1c8fb30305
95091a28-526d-11ea-a748-a3d9ed81c12e,95478178-526d-11ea-b158-0baf86b9fe19
953cbe8c-526d-11ea-a6f3-7f9a3794abc4,9547b486-526d-11ea-997a-13450c20df0e
94fc9e42-526d-11ea-9410-c78e0911cf9d,9547e474-526d-11ea-999b-77eb1772242b
953cbe8c-526d-11ea-a6f3-7f9a3794abc4,95480eb8-526d-11ea-8bb5-5bbfba195f16
952daf6e-526d-11ea-acdc-cb923db81683,9548489c-526d-11ea-b337-c7217fdc21cb
9505c5d0-526d-11ea-9ee1-ebfb5a88cfa8,95487510-526d-11ea-bd62-73aa6150403e
9545fd3a-526d-11ea-94d7-df5aa3da8b39,9548a616-526d-11ea-95d3-4708ed58efbc
952602c8-526d-11ea-9627-a74edcb5060e,9548d1f4-526d-11ea-bf69-d3d01919c65a
952edbbe-526d-11ea-b038-4f7a706219bd,9548fc60-526d-11ea-af3d-978b6c242419
952cbdac-526d-11ea-ac89-d3bad585f94c,954938a6-526d-11ea-be57-7f59f531d17a
951c5688-526d-11ea-91df-1b88b626362e,9549656a-526d-11ea-9173-eb82e1412c0a
950ab7f2-526d-11ea-8dcc-63d2c8c64cfb,954993be-526d-11ea-9c25-ebcc74437029
9548fc60-526d-11ea-af3d-978b6c242419,9549bca4-526d-11ea-aa3a-771754dd1ff9
950ea376-526d-11ea-9edc-6b2b7b9fce7d,9549e620-526d-11ea-ab4e-e768d6a09643
953e5062-526d-11ea-9d9a-9b8b17aeaff8,954a1438-526d-11ea-9776-13eed4446de0
94fd902c-526d-11ea-b474-1b11c2342139,954a4a5c-526d-11ea-a5c8-cf33314ddfbe
9503ec1a-526d-11ea-a462-0b7ea71e2d5d,954a75cc-526d-11ea-99da-b34ce7b9c8d7
9502c4b6-526d-11ea-9477-d3d342dabd8d,954a9e4e-526d-11ea-a3df-9fa216800d48
95216f4c-526d-11ea-ac1e-2f414dd1d76b,954acc7a-526d-11ea-9d85-f312fb66c294
950fb5ae-526d-11ea-8608-b7ee904766be,954af510-526d-11ea-9199-ebc35c102484
951ad1be-526d-11ea-b1ab-2b96716f91dd,954b1cf2-526d-11ea-9208-5710011bee4f
94fab7f8-526d-11ea-b3ff-3f7f6d6dab2a,954b4948-526d-11ea-92c1-8b96c40b253d
951d246e-526d-11ea-8dc0-ef9bc4283858,954b6fd6-526d-11ea-a57a-53a88c3e3b7b
9531054c-526d-11ea-95bc-d74fa2d3e8ae,954ba226-526d-11ea-a992-03c4b8253f6a
953b0a92-526d-11ea-9f3b-bb87f2966663,954bd5d4-526d-11ea-b5a8-e3c51e650a22
95130c86-526d-11ea-86d2-93cdcfd01f60,954c34ac-526d-11ea-9127-e3711ef0b0fb
954b4948-526d-11ea-92c1-8b96c40b253d,954c1bd4-526d-11ea-8d71-b346f8129ff3
952bc640-526d-11ea-9a40-a795b61fbd6c,954c6a9e-526d-11ea-af0c-ef011cf9ab44
9527a416-526d-11ea-bf1e-9f2f42083395,954c965e-526d-11ea-8cd3-4bd536adef47
9505c5d0-526d-11ea-9ee1-ebfb5a88cfa8,954cc340-526d-11ea-8f48-a746188d40fe
9512d482-526d-11ea-a1e8-0b27f6c557cb,954cf928-526d-11ea-9fd9-8f05b16dd58e
953251cc-526d-11ea-ae26-8bbcba490f71,954d495a-526d-11ea-a83a-8fb2c72160c9
9543ba84-526d-11ea-9f79-938731c70793,954d8172-526d-11ea-8b16-fbb9398372be
954b1cf2-526d-11ea-9208-5710011bee4f,954db46c-526d-11ea-ad0c-e30bf53fc1ee
9518e49e-526d-11ea-9087-e3704c477461,954de7ca-526d-11ea-80d6-1b7712d60d57
950fe312-526d-11ea-8991-67349b0c4500,954e1916-526d-11ea-8d4b-e3a4ad82e7f4
952ff3e6-526d-11ea-bcbc-bfafd1e406e7,954e4ed6-526d-11ea-a9a9-7f41fd3824f6
9513612c-526d-11ea-bd6a-b7241ec63e2a,954e7c12-526d-11ea-924b-6771ed73eb2f
951aaad6-526d-11ea-9a17-a720c067c42d,954ea8f4-526d-11ea-8238-43532bf15319
953dd11e-526d-11ea-9f2f-9faf2176d6ae,954ed69e-526d-11ea-8b6e-671bb004ee61
95286220-526d-11ea-83d9-87d16e4d0cfb,954f0042-526d-11ea-a967-7f3bf58a3f05
9508f070-526d-11ea-8b95-7f0b9d61e575,954f281a-526d-11ea-818c-035de3594078
951fc0ac-526d-11ea-85ba-dffbd66baa19,954f5a38-526d-11ea-8a99-47c94979889f
95185ede-526d-11ea-ad66-7365d5d10d43,954f83b4-526d-11ea-9d62-7f52ff4963e5
95275330-526d-11ea-b063-47cbe520fa35,954fad26-526d-11ea-9849-e391becc9205
950f66e4-526d-11ea-88de-639a473cc539,954fd864-526d-11ea-936a-0322463e4c7f
9515faae-526d-11ea-88b8-8763904b7972,955003e8-526d-11ea-b2fb-072ddc18094d
954d8172-526d-11ea-8b16-fbb9398372be,95502bc0-526d-11ea-a86b-9bd94a338bb9
9535034a-526d-11ea-8f34-fbed2dcf124b,95505280-526d-11ea-9f3f-b39e19abf5be
9520a008-526d-11ea-82ba-5ba7e3755960,95507fc6-526d-11ea-985e-578f57b98e11
95286220-526d-11ea-83d9-87d16e4d0cfb,9550aa32-526d-11ea-83e1-2fc35a23bc9c
9510b2a6-526d-11ea-aa21-5f08381a242e,9550d516-526d-11ea-b0c7-dbe8f550af4c
95240f68-526d-11ea-a5e6-270bbfc19645,9550ff32-526d-11ea-afc0-cbd95b85790d
95507fc6-526d-11ea-985e-578f57b98e11,955128cc-526d-11ea-aa40-df57d7f3413c
95240f68-526d-11ea-a5e6-270bbfc19645,95514f78-526d-11ea-9f38-f38689bf0598
9513612c-526d-11ea-bd6a-b7241ec63e2a,955176a6-526d-11ea-8205-fb26ee0090f9
94fc9e42-526d-11ea-9410-c78e0911cf9d,95519c3a-526d-11ea-b03d-eba81ddbbb29
95017908-526d-11ea-9424-3746fcdb2cca,9551c412-526d-11ea-8c16-cb7d0c04ec25
94f80274-526d-11ea-aade-579eaa98ddde,9551ea82-526d-11ea-9850-a3cdfbe3e963
954938a6-526d-11ea-be57-7f59f531d17a,955212b4-526d-11ea-bca0-d76629a89c5c
9538f7c0-526d-11ea-bd3a-3fa7453a8fcf,95523d2a-526d-11ea-bd52-2b31a6fab9e2
953360a8-526d-11ea-812a-dfa479052c92,95526188-526d-11ea-8bc4-7f27ce672ae7
954db46c-526d-11ea-ad0c-e30bf53fc1ee,955289c4-526d-11ea-b446-f31804216834
9507f814-526d-11ea-b2a2-7b3f31dac364,9552ba02-526d-11ea-b7e1-bb46749d7774
95061c74-526d-11ea-ab34-f320e7695d5b,9552e4e6-526d-11ea-b7b3-2b2a9804e41e
9532a17c-526d-11ea-9f18-c37a29dd681e,95530d54-526d-11ea-987e-47fe72e80811
95408e4a-526d-11ea-ae5c-97708169997f,95533a90-526d-11ea-b303-337306f214ca
94fe110a-526d-11ea-aa7d-2faa3a073ec5,95539f26-526d-11ea-b09f-f7dc0b7847b8
9532eca4-526d-11ea-8df7-477794e57ad4,9553d43c-526d-11ea-be2f-ab360b3498da
951d7b08-526d-11ea-8aef-8755fc89107a,95540830-526d-11ea-8ea1-8f2d1705533c
95064910-526d-11ea-97e2-13ecf91941d9,955445ca-526d-11ea-90f2-7fad097bcb97
95313198-526d-11ea-9415-3ff7cfd9cd51,9554817a-526d-11ea-95be-13336b9273e3
951e73fa-526d-11ea-b4fc-0fae9f0afbce,9554afd8-526d-11ea-8e29-abb37703120c
9512206e-526d-11ea-9923-33a8d26ba890,9554dc60-526d-11ea-a420-c7a46f311d19
9541a6ae-526d-11ea-b56c-5717b6a16e01,9555080c-526d-11ea-add7-bf5777e717ec
94edfdc4-526d-11ea-a5a3-f76845c6993c,95552f44-526d-11ea-98ff-9710840e27c3
951f8d6c-526d-11ea-8fed-3b5851ef8f81,955556c2-526d-11ea-ab47-23b8cb22781e
9552e4e6-526d-11ea-b7b3-2b2a9804e41e,95558d7c-526d-11ea-90e4-07683d781e29
94fde98c-526d-11ea-bd25-af33e5eaa86a,9555c44a-526d-11ea-9a63-2b69dc4fda16
9525aba2-526d-11ea-af2d-93005f01e87e,9555f488-526d-11ea-aa36-bb37f1fc7a67
95533a90-526d-11ea-b303-337306f214ca,95561cc4-526d-11ea-ac8e-236d1c92f848
94fcf89c-526d-11ea-a4fb-ef5ec6a35fd7,9556460e-526d-11ea-82a4-939102d104cc
94f8f09e-526d-11ea-ae47-c7e8d7f63390,95566fd0-526d-11ea-abd4-f74d8787c052
94fa8d64-526d-11ea-856c-3b7b65890696,95569622-526d-11ea-96c0-3ba0ec02cb27
9515ce44-526d-11ea-89a6-43b6d8a29635,9556beae-526d-11ea-97c4-7b7698c98095
954993be-526d-11ea-9c25-ebcc74437029,9556e988-526d-11ea-9369-7f83e499c552
953676ee-526d-11ea-8b8f-ef97dd4183dc,95570fa8-526d-11ea-932b-0f876070a1b3
951a84ca-526d-11ea-9832-8791a38c84c6,95573a46-526d-11ea-b1b5-db4db16fe386
95299d2a-526d-11ea-865a-bff2c77e5105,95575f9e-526d-11ea-bf28-d7faef03f923
9538f7c0-526d-11ea-bd3a-3fa7453a8fcf,95578a46-526d-11ea-89a1-f3dcd6e36c05
95015b9e-526d-11ea-8e03-b38307c79f80,9557b246-526d-11ea-9338-cb4551ecdd08
9522b4ba-526d-11ea-b287-3759e99d6c32,9557d938-526d-11ea-9b72-e30e22c40762
952c69b0-526d-11ea-9d5f-e3dc7c05aa26,9557ff44-526d-11ea-b6e0-370b9079f138
95237756-526d-11ea-99bc-573856f73c3a,95582460-526d-11ea-92fb-33dbc56fab1d
95299d2a-526d-11ea-865a-bff2c77e5105,95584c6a-526d-11ea-9f27-3ffb53e6e52c
94f0cfea-526d-11ea-b9b5-371ad94cd8f5,95587c1c-526d-11ea-8490-bfc85cf21dd0
950ab7f2-526d-11ea-8dcc-63d2c8c64cfb,9558b448-526d-11ea-8dad-07b5803e4308
950b458c-526d-11ea-9866-7f290847e1f6,9558d928-526d-11ea-8893-4f5c91179cac
9505edee-526d-11ea-8f1e-9f8fd976f3c2,95590c68-526d-11ea-ae2e-fb4c90fa8205
9552ba02-526d-11ea-b7e1-bb46749d7774,955937d8-526d-11ea-a278-5f59823cf90c
94f8f09e-526d-11ea-ae47-c7e8d7f63390,95595d94-526d-11ea-aefc-c738a993ca93
951bfe22-526d-11ea-afeb-8770ff059965,955984b8-526d-11ea-8cd4-bbc507e69ea0
954f5a38-526d-11ea-8a99-47c94979889f,9559ac18-526d-11ea-a6c1-1fb2ed0c1da0
951cfa20-526d-11ea-8668-93aecf5da16f,9559d9ea-526d-11ea-b68d-c73d0da0d81b
94fe8798-526d-11ea-a034-1fb515dc6d1c,955a01e0-526d-11ea-9f7e-87d7e137522a
9544870c-526d-11ea-9e51-1f11777783e4,955a38d6-526d-11ea-bdef-ab4ec2996277
9548489c-526d-11ea-b337-c7217fdc21cb,955a6c02-526d-11ea-84b2-c77c8eb789d1
9510b2a6-526d-11ea-aa21-5f08381a242e,955a993e-526d-11ea-9323-6b398e5e51ad
9509fbf0-526d-11ea-bc53-97ac0d2d23a2,955ad566-526d-11ea-88bc-f39cbc7478dd
954b1cf2-526d-11ea-9208-5710011bee4f,955b2516-526d-11ea-ab53-a3a55a6411d6
95385388-526d-11ea-b7d8-6731beb045ba,955b5d42-526d-11ea-a9a8-830900c589ec
9507cd94-526d-11ea-8168-cf2c22472527,955b8894-526d-11ea-9f17-130a2cea6fd7
94f8f09e-526d-11ea-ae47-c7e8d7f63390,955bb382-526d-11ea-9755-f7a28670686e
95102e1c-526d-11ea-a176-c3624ead8f36,955be294-526d-11ea-b9ed-6fea1ec439ee
9537fed8-526d-11ea-b6fd-3782e2a90b41,955c10e8-526d-11ea-b5d4-fb5297e0d2cc
95100b12-526d-11ea-af76-dbaff494130c,955c3992-526d-11ea-bcc3-f705f928e175
94f71e90-526d-11ea-81dc-4b4d3e1571e7,955c66ba-526d-11ea-bcde-131b213a5299
95077024-526d-11ea-a580-dbdeb87ade7c,955c8e2e-526d-11ea-9fb5-1b7fd9ab51ab
9556beae-526d-11ea-97c4-7b7698c98095,955cc2b8-526d-11ea-8ce8-d322df326183
952234d6-526d-11ea-ab34-c3b7b274573d,955ce90a-526d-11ea-99f4-7b14fd09d979
95115328-526d-11ea-96e6-7fd2222a96ca,955d10ba-526d-11ea-914f-6b960b0a0c12
95100b12-526d-11ea-af76-dbaff494130c,955d3a18-526d-11ea-95da-8b54789edad6
95185ede-526d-11ea-ad66-7365d5d10d43,955d7316-526d-11ea-957f-13ad2a936147
95190df2-526d-11ea-9314-9bfa704dcd4c,955d9e0e-526d-11ea-aad2-c7c5899cb47a
950d197a-526d-11ea-9719-9352babae4db,955dc3c0-526d-11ea-b115-8b05272dda33
95445ef8-526d-11ea-89e2-d30220f2f997,955de940-526d-11ea-8b5c-4b769bde5093
94ffcb76-526d-11ea-88e1-3792c3eca9c5,955e1b36-526d-11ea-91bd-776bf479b0f4
95387d68-526d-11ea-9b48-235741a0a7a3,955e455c-526d-11ea-a73a-1bba47800cac
952d3b24-526d-11ea-9719-37d29def867b,955e6ea6-526d-11ea-9999-b3c3563629d8
95322922-526d-11ea-bb9e-d70690306c73,955e96e2-526d-11ea-8e61-5f43ed2cbf4c
94f628f0-526d-11ea-bcd8-bf86c4e5a3ba,955ebcee-526d-11ea-9e9f-f3fd51e6ec78
9553d43c-526d-11ea-be2f-ab360b3498da,955ee160-526d-11ea-813e-13a3ed6b7d8d
953387e0-526d-11ea-aaf1-5be9f1ae2134,955f150e-526d-11ea-8390-432fa8d68502
9518e49e-526d-11ea-9087-e3704c477461,955f50be-526d-11ea-a403-3b6d36ea71c3
9530b056-526d-11ea-b33d-07d47f56b5bc,955f7f44-526d-11ea-8680-fffec336353a
954b1cf2-526d-11ea-9208-5710011bee4f,955fb770-526d-11ea-9d40-2bdb8abc7a17
9525503a-526d-11ea-98c8-bbf0ac7725ce,955fee0c-526d-11ea-853e-9bf64206bd37
95331436-526d-11ea-a729-0fddb3e8d9ad,95602ab6-526d-11ea-82ca-ab9353e3a767
95252498-526d-11ea-b1a9-b34600892f00,956052ca-526d-11ea-83d1-a3e7575a82a3
9520621e-526d-11ea-96a1-2f6de12bf760,95607a3e-526d-11ea-b445-d3da89e1da1a
94f6cf6c-526d-11ea-8683-8ba14f86cbeb,9560a112-526d-11ea-b1aa-531fa7e1dddc
9516f9fe-526d-11ea-bf87-43d0b6e0450b,9560c9ee-526d-11ea-bdd2-a3aced141247
9560c9ee-526d-11ea-bdd2-a3aced141247,9560fd6a-526d-11ea-b632-a76f641c860b
95530d54-526d-11ea-987e-47fe72e80811,956135a0-526d-11ea-9e01-571b4477c176
94f5c518-526d-11ea-bb94-532b311d3b61,956163a4-526d-11ea-9e19-0fc8e95f1de0
951937b4-526d-11ea-99de-8b31ebab9630,95619004-526d-11ea-b879-e7aca6e8dfb8
951837e2-526d-11ea-9315-fbc9bbf621eb,9561d6ae-526d-11ea-ad9b-17b657631d0e
9546a488-526d-11ea-b271-7fd958f3eb65,9561ef22-526d-11ea-85e4-43e56aba2f89
95394b76-526d-11ea-a9a7-dfaf64bad353,95622582-526d-11ea-8abb-53e68d1dad77
9555c44a-526d-11ea-9a63-2b69dc4fda16,956251ba-526d-11ea-b525-9f20bd275c6d
9526acdc-526d-11ea-949d-ebdb9b69bb3e,95627ef6-526d-11ea-8976-bbd69d08d9bf
95252498-526d-11ea-b1a9-b34600892f00,9562ac82-526d-11ea-8973-5ff9727a7581
9551c412-526d-11ea-8c16-cb7d0c04ec25,9562db6c-526d-11ea-a9c2-bfc724f7993d
950fb5ae-526d-11ea-8608-b7ee904766be,956304b6-526d-11ea-8fb7-63fcef3bd465
9513b262-526d-11ea-b488-2752826445d5,95632dec-526d-11ea-96bc-7b113066e2ab
951cfa20-526d-11ea-8668-93aecf5da16f,9563561e-526d-11ea-acea-9700a9799ab8
9532eca4-526d-11ea-8df7-477794e57ad4,95637e0a-526d-11ea-84a1-2fc35d65d063
951b2b32-526d-11ea-a750-47bf9a946a71,9563ac86-526d-11ea-8c7c-77c5299e651d
9537aa8c-526d-11ea-b7c9-f31f378b2313,9563d742-526d-11ea-ab8f-17917cf6d580
95392178-526d-11ea-8a37-1f0d1e582a9c,9564006e-526d-11ea-965f-4b359d086fd1
954f5a38-526d-11ea-8a99-47c94979889f,9564288c-526d-11ea-96ee-6f4045658f6f
951388e6-526d-11ea-be46-8f4720cdbc74,956453b6-526d-11ea-b677-efede9d49efa
94f95f84-526d-11ea-8072-3f232b9b469b,95647e2c-526d-11ea-b64a-c3fe9f64788a
94f74942-526d-11ea-a6e8-47d65b22a951,9564a8e8-526d-11ea-b850-2317d874933c
95454b92-526d-11ea-b0f2-1be3a03a4dfe,9564cf26-526d-11ea-a8a8-af5663e518dc
9520c632-526d-11ea-8fd5-77967dbed0d5,9564fb68-526d-11ea-92aa-bb118c703967
9535034a-526d-11ea-8f34-fbed2dcf124b,956522b4-526d-11ea-b78a-b3f50421e018
95216f4c-526d-11ea-ac1e-2f414dd1d76b,95657110-526d-11ea-a392-f70c8c6287c4
95464920-526d-11ea-a6e7-ffb0859ee18a,9565a69e-526d-11ea-bbcf-1f76f0229202
952c69b0-526d-11ea-9d5f-e3dc7c05aa26,9565d308-526d-11ea-880c-0ba043686307
954b6fd6-526d-11ea-a57a-53a88c3e3b7b,95660134-526d-11ea-96f7-13149493f170
95030b4c-526d-11ea-89f4-ffa4dd655648,95662e0c-526d-11ea-9dd5-63fb33a1f11d
95286220-526d-11ea-83d9-87d16e4d0cfb,95667fce-526d-11ea-9b47-b76753a28829
954993be-526d-11ea-9c25-ebcc74437029,95666ad4-526d-11ea-b0b0-63c91d9ed822
955d3a18-526d-11ea-95da-8b54789edad6,9566bf5c-526d-11ea-975f-cb774018b0ab
952c11ea-526d-11ea-bed8-7f32a7d07f6c,9567030e-526d-11ea-a062-7b22d40dd9b7
94f6a87a-526d-11ea-b623-ef9bcb835d84,9566d640-526d-11ea-afc1-df9015742ded
94f1f136-526d-11ea-b400-cfef4b3d71a5,95672bea-526d-11ea-b423-2fdf4382a60c
9503ec1a-526d-11ea-a462-0b7ea71e2d5d,9567585e-526d-11ea-96a3-d748153e3980
95195f8c-526d-11ea-aa1a-e3ca30553802,95678f36-526d-11ea-a98b-532bd12b9424
94f67904-526d-11ea-85d0-73209e105ec1,9567d414-526d-11ea-a1ca-ff7b5496e0d8
94f1f136-526d-11ea-b400-cfef4b3d71a5,956803f8-526d-11ea-b83e-2fc93526d8b4
95039698-526d-11ea-a564-d7b5f65fc8cf,95682ff4-526d-11ea-a71b-b75ab82b15f8
95159ce4-526d-11ea-b5ff-0b4004f4c118,956858a8-526d-11ea-b63b-f3140e5aa90a
952ba048-526d-11ea-8a4e-4368f63adcd8,956882ec-526d-11ea-b877-47534e3a8149
94fe3798-526d-11ea-a105-633241d9a8d1,9568b5aa-526d-11ea-9218-f7fb69f50cb2
954993be-526d-11ea-9c25-ebcc74437029,9568ea8e-526d-11ea-bb0b-0fdda6cdc9dd
9567d414-526d-11ea-a1ca-ff7b5496e0d8,95691496-526d-11ea-96ef-0323a30d82ff
951ad1be-526d-11ea-b1ab-2b96716f91dd,95693c0a-526d-11ea-b4a2-dfdcfab6343a
951ca336-526d-11ea-830e-6f302b729410,95696c7a-526d-11ea-9185-4f4a6906b702
95561cc4-526d-11ea-ac8e-236d1c92f848,95699452-526d-11ea-a9d7-0bbe11bf5ca6
954938a6-526d-11ea-be57-7f59f531d17a,9569be1e-526d-11ea-85f0-a7efc6a6ca86
951cd1f8-526d-11ea-9436-9f473a12dcf5,9569e5f6-526d-11ea-b245-3b090f569114
95478178-526d-11ea-b158-0baf86b9fe19,956a0eaa-526d-11ea-b4d5-dbf3aa222702
9546cdd2-526d-11ea-9582-a765df441c5b,956a37d6-526d-11ea-9fb7-17f8e22ee2c1
95660134-526d-11ea-96f7-13149493f170,956a5e6e-526d-11ea-9885-afbf393fc3c5
94fd628c-526d-11ea-9e41-77d9d974ee5d,956a8b0a-526d-11ea-8f35-17c5d8578e61
955be294-526d-11ea-b9ed-6fea1ec439ee,956ab878-526d-11ea-b4ff-77642f9445c4
954ea8f4-526d-11ea-8238-43532bf15319,956adf1a-526d-11ea-9485-af7ae2deb241
95175dcc-526d-11ea-a231-8f4ad17ed949,956b1336-526d-11ea-a67b-c76abec761f9
9534bbd8-526d-11ea-b7a7-9f615696a09a,956b5b84-526d-11ea-b113-4b1ce9822160
954f83b4-526d-11ea-9d62-7f52ff4963e5,956b8690-526d-11ea-b672-a380ceef5a25
950ea376-526d-11ea-9edc-6b2b7b9fce7d,956bd460-526d-11ea-8c71-bf782064cb7e
94f4073c-526d-11ea-952c-3f4ab16ab257,956c0f2a-526d-11ea-983c-a3cc355d4cee
94f4ce56-526d-11ea-8843-7f5989905565,956c56b0-526d-11ea-bfb4-53a903f5d6a0
9563ac86-526d-11ea-8c7c-77c5299e651d,956c8a04-526d-11ea-bceb-efb1bef9b31c
954acc7a-526d-11ea-9d85-f312fb66c294,956cd702-526d-11ea-89a8-373318ba570f
95268482-526d-11ea-9a25-cb6fdd255a02,956d142e-526d-11ea-a244-679ac5f35089
950ec93c-526d-11ea-ad45-d3a664f0dbd5,956d4426-526d-11ea-a9e1-07b050e81a41
94ee7754-526d-11ea-bfeb-af3d4cb8b39a,956d7b1c-526d-11ea-8b10-df2e613f46dc
95246972-526d-11ea-88f4-db4df694544a,956db848-526d-11ea-aa9a-63297880854d
9531054c-526d-11ea-95bc-d74fa2d3e8ae,956e037a-526d-11ea-a45a-0736a658250e
94f11432-526d-11ea-8d91-dbfeaebbf22f,956e468c-526d-11ea-9aee-bf57e66bcaa9
94f4073c-526d-11ea-952c-3f4ab16ab257,956e7b66-526d-11ea-8183-17c5a1d90fd4
952f8c3a-526d-11ea-aac9-ff5de63871e1,956ea8f2-526d-11ea-8da9-732863884f4b
95059ba0-526d-11ea-a9f6-57aca72bf810,956ee10a-526d-11ea-9605-a3aae75b7762
950b7160-526d-11ea-9079-23548d763b34,956f1ad0-526d-11ea-ac06-db8939854e20
95590c68-526d-11ea-ae2e-fb4c90fa8205,956f4ed8-526d-11ea-8560-3736d8939d74
955f50be-526d-11ea-a403-3b6d36ea71c3,956f7c3c-526d-11ea-8d54-630459affe0d
9505c5d0-526d-11ea-9ee1-ebfb5a88cfa8,956fa73e-526d-11ea-bf5b-bb9054e148b8
95566fd0-526d-11ea-abd4-f74d8787c052,956fd588-526d-11ea-84ec-1353b368f10e
950c1520-526d-11ea-a49f-237fadfa2d88,956ffdc4-526d-11ea-991a-7f0a28b9411d
94edd808-526d-11ea-a929-5306366a7586,95702b64-526d-11ea-afc3-8fce1b6be953
94f00a92-526d-11ea-ac0a-1fbce8a38b3a,95705710-526d-11ea-b6d0-73a0913c2a97
9559d9ea-526d-11ea-b68d-c73d0da0d81b,95707f42-526d-11ea-bd28-3fd48c18b49c
94f2d88a-526d-11ea-857a-37cc32c1aad4,9570a9b8-526d-11ea-893c-d35935eef4be
9507cd94-526d-11ea-8168-cf2c22472527,9570d3a2-526d-11ea-b103-af07a4f4cef7
95702b64-526d-11ea-afc3-8fce1b6be953,9570faf8-526d-11ea-89b9-97f384def061
95480eb8-526d-11ea-8bb5-5bbfba195f16,95712438-526d-11ea-8406-d7e62cfc24ff
95007abc-526d-11ea-83f6-43b3a849db48,95714a62-526d-11ea-b88c-a3075e6279cf
9517deb4-526d-11ea-a737-0b61dcb2263c,95717e60-526d-11ea-a4ab-078e17bb3f12
9548d1f4-526d-11ea-bf69-d3d01919c65a,9571adcc-526d-11ea-ba19-e3d163094f11
94f799d8-526d-11ea-8165-e79c7a2df6ae,9571ef58-526d-11ea-9c98-d342cad5dd0d
95705710-526d-11ea-b6d0-73a0913c2a97,957222a2-526d-11ea-b720-bb21a2b066dc
95077024-526d-11ea-a580-dbdeb87ade7c,95725074-526d-11ea-866f-135ccedcdf91
94ef5106-526d-11ea-befa-6ffc9130f695,95727a9a-526d-11ea-ab17-eb7ee651b30c
9505edee-526d-11ea-8f1e-9f8fd976f3c2,9572af06-526d-11ea-9e28-a734eab67c3b
9547b486-526d-11ea-997a-13450c20df0e,9572ea66-526d-11ea-a085-abc4f8bbe43b
955fee0c-526d-11ea-853e-9bf64206bd37,95731b4e-526d-11ea-82e5-b752f4274888
954110b8-526d-11ea-ac86-7303e2d0df16,95735118-526d-11ea-aa18-0f3383c971f9
955937d8-526d-11ea-a278-5f59823cf90c,95737ee0-526d-11ea-aca9-cb5f14390ecc
95662e0c-526d-11ea-9dd5-63fb33a1f11d,9573a8e8-526d-11ea-a348-cf940cffcdd6
956db848-526d-11ea-aa9a-63297880854d,9573d1b0-526d-11ea-a69a-6390da808a3e
95127780-526d-11ea-8f6f-4763986f03ed,9573fc1c-526d-11ea-b031-c7caea225fa3
9508f070-526d-11ea-8b95-7f0b9d61e575,957434c0-526d-11ea-9337-f7194869bad3
950672aa-526d-11ea-a042-972f40da64b1,95745d10-526d-11ea-8c55-df78b44da7be
94f92c9e-526d-11ea-9951-f7294a6fb173,9574895c-526d-11ea-a318-6b93dffa875b
95452590-526d-11ea-aaa2-2795511a2348,9574b486-526d-11ea-96a5-efafadfd5b62
95162876-526d-11ea-9098-3b4d661d6ada,9574de84-526d-11ea-ba32-c38768e4154f
954b6fd6-526d-11ea-a57a-53a88c3e3b7b,957506a2-526d-11ea-86fe-4f92a3ef6ee0
9548489c-526d-11ea-b337-c7217fdc21cb,957530e6-526d-11ea-9eab-0f44d947139b
953279f4-526d-11ea-a7d1-df977501f3d3,95755a58-526d-11ea-9688-6f951692b2cc
953a35c2-526d-11ea-8fef-e76c41c415a5,957584ba-526d-11ea-930c-ff1b9c256cd7
953dd11e-526d-11ea-9f2f-9faf2176d6ae,9575ae22-526d-11ea-bf2f-f34398aa52d4
951a0fb8-526d-11ea-a2c3-5353b48f58af,9575d578-526d-11ea-9a3d-3f6bd42c96e8
9544ad7c-526d-11ea-ac37-778e202dbf25,95760282-526d-11ea-aea4-837f5818ce5f
9505710c-526d-11ea-be2f-b717f72e6839,95762f6e-526d-11ea-a377-07acdb0b3608
954e7c12-526d-11ea-924b-6771ed73eb2f,95766bc8-526d-11ea-a30f-37c22def7a72
950cf30a-526d-11ea-a8aa-3f42e47f96a1,95769800-526d-11ea-a331-a3be34daa0ec
950672aa-526d-11ea-a042-972f40da64b1,9576c67c-526d-11ea-8af4-3bdb0b68ce11
95373156-526d-11ea-9ce8-2fdef9a7e24c,9576f30e-526d-11ea-b972-e7a0bbcf9a8b
95105392-526d-11ea-bd83-e7f2efa5b524,95773ad0-526d-11ea-a365-174aee7f74f3
951788d8-526d-11ea-bac6-a364e9774373,95776d84-526d-11ea-9b0f-b3c0171ed21c
95569622-526d-11ea-96c0-3ba0ec02cb27,9577d332-526d-11ea-bd98-9bc289a4cba9
95637e0a-526d-11ea-84a1-2fc35d65d063,9577d332-526d-11ea-8f52-fbe5bbc886f1
9527cdf6-526d-11ea-b449-a78ad26fc72b,957806cc-526d-11ea-bfd3-7b3e0a2c8a78
950f8e30-526d-11ea-8a50-8f03551992d6,957834b2-526d-11ea-b379-2bab52cf5ccd
950ca206-526d-11ea-91f2-43d25c4fca35,95789146-526d-11ea-871a-63b941555726
9554dc60-526d-11ea-a420-c7a46f311d19,95786478-526d-11ea-8ac4-4799d47bc8e8
95602ab6-526d-11ea-82ca-ab9353e3a767,9578be5a-526d-11ea-af59-0fa62c1a5bd9
951428b4-526d-11ea-a62f-dffa346f74f6,9578e6dc-526d-11ea-8aa2-0391304f1718
9576c67c-526d-11ea-8af4-3bdb0b68ce11,95791788-526d-11ea-a75d-471ec5d5da40
953c959c-526d-11ea-8c6d-13642ecb5e87,95794000-526d-11ea-afd6-eff407ec0962
94f4ce56-526d-11ea-8843-7f5989905565,95796ddc-526d-11ea-ba18-8bfced42f638
955c66ba-526d-11ea-bcde-131b213a5299,9579a13a-526d-11ea-9038-5b39f8bb5ab9
95745d10-526d-11ea-8c55-df78b44da7be,9579d268-526d-11ea-a1a4-bfeee895eb93
9500d160-526d-11ea-8dce-a757e8179ae0,9579fe5a-526d-11ea-8c28-37297d65200d
956ab878-526d-11ea-b4ff-77642f9445c4,957a3334-526d-11ea-8c8f-53901954e68a
956db848-526d-11ea-aa9a-63297880854d,957a63ae-526d-11ea-9a17-6376b4efd5cf
950ba068-526d-11ea-b55a-9ba6633397fa,957a9716-526d-11ea-b0d3-0f2ccc611413
95702b64-526d-11ea-afc3-8fce1b6be953,957ac3bc-526d-11ea-b72a-7f30e505f695
954392b6-526d-11ea-90fb-5fdc8059e31e,957af01c-526d-11ea-90c8-5f586959e011
95180d9e-526d-11ea-b0cb-a72a8a8a1391,957b1bdc-526d-11ea-bda8-93aa4ce740f0
9567d414-526d-11ea-a1ca-ff7b5496e0d8,957b4a9e-526d-11ea-beb7-bbb00da4e101
95162876-526d-11ea-9098-3b4d661d6ada,957b75e6-526d-11ea-898b-53eb35cd013b
9503c2f8-526d-11ea-8025-531f0bbc42b5,957ba0d4-526d-11ea-9f64-3ff9a2596a1d
955d10ba-526d-11ea-914f-6b960b0a0c12,957bcb0e-526d-11ea-819a-d70cb8d0765f
95755a58-526d-11ea-9688-6f951692b2cc,957bfeb2-526d-11ea-9476-230fcc4994f7
951b6818-526d-11ea-b966-8f6ec2eee334,957c2982-526d-11ea-b115-1b2e0015756d
951788d8-526d-11ea-bac6-a364e9774373,957c55a6-526d-11ea-a568-13f265508341
95755a58-526d-11ea-9688-6f951692b2cc,957c7c2a-526d-11ea-82e0-cf0df6b3c9c6
9522b4ba-526d-11ea-b287-3759e99d6c32,957ca60a-526d-11ea-a8d1-e78492674863
95627ef6-526d-11ea-8976-bbd69d08d9bf,957ccef0-526d-11ea-874e-dbaf6043ab56
95413fca-526d-11ea-abe9-c3ff80eb0a18,957cffba-526d-11ea-a146-8be4a01d8183
94edd808-526d-11ea-a929-5306366a7586,957d5172-526d-11ea-8a7b-9346b5a59094
94efc2b2-526d-11ea-9534-73abf939a97f,957d8dae-526d-11ea-bcfd-933951d2483e
95225eca-526d-11ea-8ad2-27cb9331aeee,957dca9e-526d-11ea-afdf-47bd4f8c87f1
9549e620-526d-11ea-ab4e-e768d6a09643,957e11ac-526d-11ea-8707-03be52fd8dc2
951788d8-526d-11ea-bac6-a364e9774373,957e653a-526d-11ea-ad37-efa811f1c65f
955f7f44-526d-11ea-8680-fffec336353a,957ebed6-526d-11ea-aff9-333b3c8b4a2b
95766bc8-526d-11ea-a30f-37c22def7a72,957eff68-526d-11ea-b41d-4f24dc77fb59
95502bc0-526d-11ea-a86b-9bd94a338bb9,957f2f10-526d-11ea-bc22-4f9b1963b9c0
95299d2a-526d-11ea-865a-bff2c77e5105,957f5e54-526d-11ea-a3ee-779391cdbf2c
95036ab0-526d-11ea-929d-ff761212818e,957f8ba4-526d-11ea-90f7-a7d383808576
9573a8e8-526d-11ea-a348-cf940cffcdd6,957fbfe8-526d-11ea-ae6d-4b88cbd36054
9531a9e8-526d-11ea-9797-cf7c354015f4,957fed24-526d-11ea-b04a-735e6c339308
954c1bd4-526d-11ea-8d71-b346f8129ff3,95801e2a-526d-11ea-8cf0-8ba91d2c123b
950d4346-526d-11ea-89d9-7b6d5347de09,95805016-526d-11ea-9a58-4fb4b9bf67a6
95023456-526d-11ea-b9d8-6f75e4f4ddc4,95807dfc-526d-11ea-b4c2-bfacba44b376
954573ba-526d-11ea-bbc5-8bb0f5d052f8,9580a84a-526d-11ea-803d-67db99ccd544
95769800-526d-11ea-a331-a3be34daa0ec,9580cf6e-526d-11ea-95e5-afef22149e64
9509fbf0-526d-11ea-bc53-97ac0d2d23a2,958101aa-526d-11ea-8817-3f3448bd58ba
951e1aea-526d-11ea-8ba9-6f737a611269,95812c2a-526d-11ea-9256-bfcd2178f5fc
9504c270-526d-11ea-ac76-5b6733f9b9b3,95815556-526d-11ea-af7f-6fd15d8b4c70
955176a6-526d-11ea-8205-fb26ee0090f9,95817c0c-526d-11ea-aa6f-13abe1245359
9566d640-526d-11ea-afc1-df9015742ded,9581a98e-526d-11ea-83e1-3361c9da2781
95737ee0-526d-11ea-aca9-cb5f14390ecc,9581d76a-526d-11ea-aca6-2b06cd34a43e
956052ca-526d-11ea-83d1-a3e7575a82a3,958200e6-526d-11ea-82c4-c32df9247921
953dfd06-526d-11ea-8a04-9b846d1663cf,95822c74-526d-11ea-9e36-3b47a72a8f59
9580a84a-526d-11ea-803d-67db99ccd544,95825244-526d-11ea-9fe1-379fefbc8804
9533ec44-526d-11ea-9767-9b7f2bd69246,95828ca0-526d-11ea-91fb-972e446455f7
95019eba-526d-11ea-b7b8-c7cc12672910,9582a1a4-526d-11ea-a668-074ff99c2ea3
9524bff8-526d-11ea-a8b0-17b120a791e6,9582c954-526d-11ea-bafc-8379206a2717
94fab7f8-526d-11ea-b3ff-3f7f6d6dab2a,9582ff64-526d-11ea-b955-17cc08233368
95413fca-526d-11ea-abe9-c3ff80eb0a18,95832610-526d-11ea-9840-47d5dd9f64b0
95760282-526d-11ea-aea4-837f5818ce5f,95835022-526d-11ea-bb9f-3782597b4421
94fa0920-526d-11ea-be0f-af6f19fef78a,958391f4-526d-11ea-a32e-b35902d64f3d
955cc2b8-526d-11ea-8ce8-d322df326183,9583c2be-526d-11ea-ab58-a7bb9354053c
952f8c3a-526d-11ea-aac9-ff5de63871e1,9583ebcc-526d-11ea-80ea-5ba747a29788
94ff44b2-526d-11ea-a7e1-e33d114f5fcb,95841b42-526d-11ea-83e2-bf4458f50399
95413fca-526d-11ea-abe9-c3ff80eb0a18,95844702-526d-11ea-ad5c-1bd21dc874b4
9572ea66-526d-11ea-a085-abc4f8bbe43b,95848640-526d-11ea-b01c-ffe7afa0e025
9508c5b4-526d-11ea-983b-5bcea33b7f80,9584b6ce-526d-11ea-ba6d-b757c01ea1c1
95540830-526d-11ea-8ea1-8f2d1705533c,9584e9dc-526d-11ea-a674-3b33c1ddf081
9568b5aa-526d-11ea-9218-f7fb69f50cb2,95851b0a-526d-11ea-a833-2bd7f5b48cba
94fed202-526d-11ea-9359-e7e27361ba75,95854710-526d-11ea-9ec1-139ff3ec57da
957434c0-526d-11ea-9337-f7194869bad3,958582ca-526d-11ea-b618-0736c54bee72
95004b6e-526d-11ea-9124-7fcd2ae64505,9585b722-526d-11ea-8bf3-6fa8cc9147db
9501c354-526d-11ea-8f12-ab021a383b86,9585ec10-526d-11ea-954e-ebac30ef7588
950d197a-526d-11ea-9719-9352babae4db,95863828-526d-11ea-8d3f-c3f6e67567c1
9521c0e6-526d-11ea-8999-1f87dd4e1ff8,95867806-526d-11ea-b74a-932fa17bbfe2
9564a8e8-526d-11ea-b850-2317d874933c,9586b690-526d-11ea-9a17-8befda7a9018
95607a3e-526d-11ea-b445-d3da89e1da1a,9586ee44-526d-11ea-b4c2-b3624b7c5b19
94ef2992-526d-11ea-ada0-df7d60ce6d18,95873d9a-526d-11ea-8332-b3d2d05f108b
951c29d8-526d-11ea-8854-83e57a99f148,95875596-526d-11ea-98ef-4fce14316eee
957bcb0e-526d-11ea-819a-d70cb8d0765f,958797ea-526d-11ea-bf2c-8bb67f8f131f
95201386-526d-11ea-86ff-b3f65d690b23,9587aec4-526d-11ea-84e3-931dac122c58
954365b6-526d-11ea-b124-a346212f3e7b,9587e60a-526d-11ea-a217-3fe4b036796d
95662e0c-526d-11ea-9dd5-63fb33a1f11d,9588118e-526d-11ea-b402-a382298e42bc
954ed69e-526d-11ea-8b6e-671bb004ee61,95883c5e-526d-11ea-8e09-3fe12cb1e834
950f66e4-526d-11ea-88de-639a473cc539,958865b2-526d-11ea-8e6d-4720522f7b5f
950fe312-526d-11ea-8991-67349b0c4500,958898c0-526d-11ea-baab-cbaab00fd3cb
957c55a6-526d-11ea-a568-13f265508341,9588c3f4-526d-11ea-b70a-ab9466607d4d
95399ef0-526d-11ea-a773-c712035682c5,9588ebd6-526d-11ea-8a9a-77273e87ef46
95875596-526d-11ea-98ef-4fce14316eee,958915d4-526d-11ea-bac4-73e6eda84e06
9570d3a2-526d-11ea-b103-af07a4f4cef7,95893d70-526d-11ea-a1df-db8f44bf3879
952c9502-526d-11ea-aa87-5b2ed93d74f1,9589639a-526d-11ea-b0b6-b35c9fcff82e
94ffcb76-526d-11ea-88e1-3792c3eca9c5,95898c94-526d-11ea-a667-477d2e0507f4
952c9502-526d-11ea-aa87-5b2ed93d74f1,9589b3b8-526d-11ea-b51a-7b6e64de98c9
950aebdc-526d-11ea-b10b-2bc3bc807d05,9589e0ea-526d-11ea-8134-5f92fff644c5
95252498-526d-11ea-b1a9-b34600892f00,958a5192-526d-11ea-a5ed-673bea63777c
94f57842-526d-11ea-8a48-339a7f4f3f1c,958aaf52-526d-11ea-8549-47698771eb53
95582460-526d-11ea-92fb-33dbc56fab1d,958ae92c-526d-11ea-ba90-47a102d52be1
952e0aa4-526d-11ea-b8f6-0357ddc226ff,958b2ba8-526d-11ea-b3da-af12e3c69a79
95252498-526d-11ea-b1a9-b34600892f00,958b6b36-526d-11ea-a4be-b398703a0072
95472e62-526d-11ea-a968-1b1c8fb30305,958ba236-526d-11ea-8f09-1fc7cac1aa65
9533ec44-526d-11ea-9767-9b7f2bd69246,958bd2d8-526d-11ea-886b-3376cb64b011
95413fca-526d-11ea-abe9-c3ff80eb0a18,958c03e8-526d-11ea-837a-53de0104ecf1
955e1b36-526d-11ea-91bd-776bf479b0f4,958c3a98-526d-11ea-8e79-2bf62a070c11
950e2b30-526d-11ea-916a-474f35b157ef,958c6f5e-526d-11ea-ac9d-cb023246a3dd
9585ec10-526d-11ea-954e-ebac30ef7588,958ca30c-526d-11ea-9436-ef37f0fa163e
95570fa8-526d-11ea-932b-0f876070a1b3,958cd368-526d-11ea-a3c1-77809cc65a02
95111728-526d-11ea-bef8-b70fa6a3f378,958d01f8-526d-11ea-89bd-8363afdbc825
94f32b3c-526d-11ea-a263-9bdb4d9230ab,958d3092-526d-11ea-8ca1-b378e10ff2cc
955ebcee-526d-11ea-9e9f-f3fd51e6ec78,958d8920-526d-11ea-aa15-931d33f731b3
95454b92-526d-11ea-b0f2-1be3a03a4dfe,958d7444-526d-11ea-95fc-cfa77103f1e7
9520621e-526d-11ea-96a1-2f6de12bf760,958dbe22-526d-11ea-a9ad-ff877ea42a30
95041442-526d-11ea-9c24-872cdd9b7fb3,958de866-526d-11ea-8496-bb1b51426e2f
9565a69e-526d-11ea-bbcf-1f76f0229202,958e17e6-526d-11ea-ad93-5708dd9583c0
958c6f5e-526d-11ea-ac9d-cb023246a3dd,958e44b4-526d-11ea-9f3e-7f629318825f
9501edca-526d-11ea-8b72-37a47d32d3c2,958e6b06-526d-11ea-b2c0-eb6c3ac6357e
9546a488-526d-11ea-b271-7fd958f3eb65,958e9432-526d-11ea-93e9-f75b617018a7
9524bff8-526d-11ea-a8b0-17b120a791e6,958ebc0a-526d-11ea-bb71-7f198c921453
955c66ba-526d-11ea-bcde-131b213a5299,958f0f2a-526d-11ea-9811-ff2d58d4e2a3
950a3c82-526d-11ea-ba3a-df5ec60fcfcd,958f462a-526d-11ea-89b0-5ba255e23a59
953bbcf8-526d-11ea-88d4-2f5eaf99ba60,958f7bcc-526d-11ea-a5e8-1b907d4ff658
957834b2-526d-11ea-b379-2bab52cf5ccd,958fb196-526d-11ea-9040-d7bfed6bc7ec
955e96e2-526d-11ea-8e61-5f43ed2cbf4c,958fe378-526d-11ea-8556-736ad8f8d1ee
954438ce-526d-11ea-87ef-0b51a09a5401,959018b6-526d-11ea-8b35-e3daf2b571d9
957bcb0e-526d-11ea-819a-d70cb8d0765f,9590455c-526d-11ea-a5b7-97c9a21eb175
9520621e-526d-11ea-96a1-2f6de12bf760,959086e8-526d-11ea-9d97-b3d618ead780
9530dbc6-526d-11ea-b5ec-8b4583bc5d1c,9590b4ec-526d-11ea-bfbd-a3cfb0c6f263
95023456-526d-11ea-b9d8-6f75e4f4ddc4,9590e0ca-526d-11ea-9d06-5b4ae3646840
955bb382-526d-11ea-9755-f7a28670686e,9591168a-526d-11ea-abdc-d3d49cf1e0cf
95004b6e-526d-11ea-9124-7fcd2ae64505,9591431c-526d-11ea-8719-bfe2f63d67e2
95030b4c-526d-11ea-89f4-ffa4dd655648,95918340-526d-11ea-adf5-43b79cce63fb
9531d210-526d-11ea-b6e7-e3e7f28224bb,9591b7b6-526d-11ea-bcec-3719e1f718b1
951ca336-526d-11ea-830e-6f302b729410,9591e36c-526d-11ea-9c29-af0b58e8be76
955445ca-526d-11ea-90f2-7fad097bcb97,95921224-526d-11ea-851b-1b18645b51fe
955d9e0e-526d-11ea-aad2-c7c5899cb47a,959240d2-526d-11ea-8f44-1bb4a9417c17
958c6f5e-526d-11ea-ac9d-cb023246a3dd,95926f30-526d-11ea-9622-c74d86dc1695
95162876-526d-11ea-9098-3b4d661d6ada,95929cee-526d-11ea-bf06-6f9a280561be
9548489c-526d-11ea-b337-c7217fdc21cb,9592cd86-526d-11ea-9d7b-83e8e392c82f
95356e3e-526d-11ea-86e3-2f019cd10d3b,9592f810-526d-11ea-8ce0-3342ef012a0e
9520c632-526d-11ea-8fd5-77967dbed0d5,959323e4-526d-11ea-963c-af7325fe027e
955ce90a-526d-11ea-99f4-7b14fd09d979,95934ffe-526d-11ea-a9eb-8f9955b81b13
951b6818-526d-11ea-b966-8f6ec2eee334,95937a88-526d-11ea-b01f-674bf141ff64
94efc2b2-526d-11ea-9534-73abf939a97f,9593a30a-526d-11ea-a5e6-47f6a49c9cf3
957f8ba4-526d-11ea-90f7-a7d383808576,9593ce52-526d-11ea-a259-03cd788d3a11
94f6cf6c-526d-11ea-8683-8ba14f86cbeb,9593fe0e-526d-11ea-b247-fbca9ec6ebbe
9513da3a-526d-11ea-b961-03d40eca4ac3,959429a6-526d-11ea-8998-e322708bc69c
950717c8-526d-11ea-bc31-5bac23e597f3,95945232-526d-11ea-87a6-9b26687f6ddf
953cbe8c-526d-11ea-a6f3-7f9a3794abc4,95947a82-526d-11ea-a5ea-0b00f1ea63e7
958bd2d8-526d-11ea-886b-3376cb64b011,9594a30e-526d-11ea-8aed-17121c1e55ff
95478178-526d-11ea-b158-0baf86b9fe19,9594cdd4-526d-11ea-bee1-f3a076c8a726
95791788-526d-11ea-a75d-471ec5d5da40,9594f91c-526d-11ea-b70b-df019b33c912
95540830-526d-11ea-8ea1-8f2d1705533c,95951f50-526d-11ea-b2e6-bf817d9262d9
9530b056-526d-11ea-b33d-07d47f56b5bc,95954958-526d-11ea-bdd9-4fb60ca52e63
9522f89e-526d-11ea-bd5a-0ba4e9a69978,95957f04-526d-11ea-9be6-afa31b989e6a
9567d414-526d-11ea-a1ca-ff7b5496e0d8,9595a72c-526d-11ea-8d2b-c761b1ad6f33
95373156-526d-11ea-9ce8-2fdef9a7e24c,9595cfcc-526d-11ea-ba4f-8f517dc32dec
953bf0d8-526d-11ea-a413-635010b142ec,9595f9f2-526d-11ea-ade4-dbd64904f125
95079f2c-526d-11ea-9fca-7f4e34bf1550,95962044-526d-11ea-b6fa-af2f29c94265
94f6a87a-526d-11ea-b623-ef9bcb835d84,959648c6-526d-11ea-a983-b7672ff8a6f9
9503ec1a-526d-11ea-a462-0b7ea71e2d5d,959688c2-526d-11ea-8e48-d71f84273e28
9578be5a-526d-11ea-af59-0fa62c1a5bd9,9596b996-526d-11ea-8e8e-8fe17c9bb183
953bbcf8-526d-11ea-88d4-2f5eaf99ba60,9596e902-526d-11ea-ade2-07e0925d56e3
952b6b5a-526d-11ea-9a06-277e1317a2ad,95971b0c-526d-11ea-8070-579ade8462ae
9518e49e-526d-11ea-9087-e3704c477461,95974e88-526d-11ea-b00b-e318e59a4f3c
94f4f552-526d-11ea-87f3-1f498b9e8c65,95977ebc-526d-11ea-9b15-dbcc51778778
952e3a06-526d-11ea-835c-4b025fa901e0,9597b3dc-526d-11ea-b6f5-a369ddf94a1b
9540e430-526d-11ea-8fbb-3b188890fe02,9597e2d0-526d-11ea-836d-c3e9b7067340
958582ca-526d-11ea-b618-0736c54bee72,959821f0-526d-11ea-a282-9746f3ab068e
952b1c40-526d-11ea-9545-ff9a429fad82,95984bda-526d-11ea-b718-2b3cf9264f64
951a5edc-526d-11ea-815b-2be35efae897,9598779a-526d-11ea-94cc-1719ceba964f
95602ab6-526d-11ea-82ca-ab9353e3a767,9598a83c-526d-11ea-b8b4-974e50fbd504
95566fd0-526d-11ea-abd4-f74d8787c052,9598d500-526d-11ea-a776-57adb04d08e1
95974e88-526d-11ea-b00b-e318e59a4f3c,95990232-526d-11ea-bfb8-8b3ec4cf9c25
952234d6-526d-11ea-ab34-c3b7b274573d,95992d16-526d-11ea-8b98-3bd8865e868e
9598d500-526d-11ea-a776-57adb04d08e1,959959c6-526d-11ea-adb5-ebc69f2859b5
955be294-526d-11ea-b9ed-6fea1ec439ee,959985d6-526d-11ea-b2ed-9b4a16f4e02f
950f41a0-526d-11ea-8e79-af4811e25cd2,9599bf10-526d-11ea-a1a0-ef19083d0e73
95159ce4-526d-11ea-b5ff-0b4004f4c118,9599ed00-526d-11ea-aae4-73875d5a9dde
953ce998-526d-11ea-acbd-9f2874d9383f,959a15dc-526d-11ea-8e39-2f0a141473b4
9562ac82-526d-11ea-8973-5ff9727a7581,959a42dc-526d-11ea-a5e2-273f5ac2548e
957d5172-526d-11ea-8a7b-9346b5a59094,959a6bc2-526d-11ea-9c29-9b54b62ca199
94ee521a-526d-11ea-9871-f74be608eaae,959a94e4-526d-11ea-a1f4-f7d0aaed0735
951d7b08-526d-11ea-8aef-8755fc89107a,959ac252-526d-11ea-8a60-3b523e851145
951cfa20-526d-11ea-8668-93aecf5da16f,959aeb74-526d-11ea-8da0-3313ef82d74a
9512206e-526d-11ea-9923-33a8d26ba890,959b15f4-526d-11ea-bd35-cb521c1732de
94f799d8-526d-11ea-8165-e79c7a2df6ae,959b3bd8-526d-11ea-9459-dff526d76030
9523d76e-526d-11ea-83eb-ef3c2e18ba77,959b611c-526d-11ea-af42-9b9e084094c0
955b5d42-526d-11ea-a9a8-830900c589ec,959b8e26-526d-11ea-8380-5b650b8b284e
956d7b1c-526d-11ea-8b10-df2e613f46dc,959bb36a-526d-11ea-b870-6314cb9f7036
94fb0f82-526d-11ea-bb41-3f639972bd6a,959befa6-526d-11ea-9d30-1b3d05fb86c7
955f7f44-526d-11ea-8680-fffec336353a,959c357e-526d-11ea-9dfe-e3a44fc25708
959b15f4-526d-11ea-bd35-cb521c1732de,959c6800-526d-11ea-9646-674a1b8deafe
9587aec4-526d-11ea-84e3-931dac122c58,959cae14-526d-11ea-9ba7-d3b031f4ec54
955d7316-526d-11ea-957f-13ad2a936147,959ce03c-526d-11ea-9e2f-2b854c579616
958ebc0a-526d-11ea-bb71-7f198c921453,959d0da0-526d-11ea-8e91-23b1b2d55920
95962044-526d-11ea-b6fa-af2f29c94265,959d4b6c-526d-11ea-b714-6f982a6b8f2b
95575f9e-526d-11ea-bf28-d7faef03f923,959d7ec0-526d-11ea-8092-eb06b08d0b3b
94ff7496-526d-11ea-9a41-5bda1529164b,959db41c-526d-11ea-9ca0-33f6dcdc0833
95595d94-526d-11ea-aefc-c738a993ca93,959ddf32-526d-11ea-a043-5bb03775f5d7
9573d1b0-526d-11ea-a69a-6390da808a3e,959e1222-526d-11ea-ad8a-8f1489da3364
95595d94-526d-11ea-aefc-c738a993ca93,959e43f0-526d-11ea-9871-276fbbd0458b
958e6b06-526d-11ea-b2c0-eb6c3ac6357e,959e6f10-526d-11ea-89f7-4bd858422c62
9533ec44-526d-11ea-9767-9b7f2bd69246,959e9e2c-526d-11ea-81f2-47838724391f
9502c4b6-526d-11ea-9477-d3d342dabd8d,959ec910-526d-11ea-a298-af6b2ca8699c
959d0da0-526d-11ea-8e91-23b1b2d55920,959ef502-526d-11ea-9ff7-c38d61b4bb24
953d7cdc-526d-11ea-8cbe-43001116da06,959f2a7c-526d-11ea-940f-bbfd4fd5c211
95590c68-526d-11ea-ae2e-fb4c90fa8205,959f5894-526d-11ea-b2d6-4f0233927567
95705710-526d-11ea-b6d0-73a0913c2a97,959f8e86-526d-11ea-a79b-e32429fdc357
9595a72c-526d-11ea-8d2b-c761b1ad6f33,959fba3c-526d-11ea-b01b-13a73be63769
959985d6-526d-11ea-b2ed-9b4a16f4e02f,959fe4bc-526d-11ea-b1de-7b18a50d6615
95225eca-526d-11ea-8ad2-27cb9331aeee,95a00cb2-526d-11ea-9bb5-83e3aeb6a1ee
95835022-526d-11ea-bb9f-3782597b4421,95a03fc0-526d-11ea-a326-cf4c1583a3e7
95180d9e-526d-11ea-b0cb-a72a8a8a1391,95a06892-526d-11ea-b2df-9bd8f35d6d1d
959018b6-526d-11ea-8b35-e3daf2b571d9,95a09326-526d-11ea-a078-b33ad24e1c82
952ba048-526d-11ea-8a4e-4368f63adcd8,95a0bb26-526d-11ea-ae48-733efcd1ff8e
95971b0c-526d-11ea-8070-579ade8462ae,95a0e664-526d-11ea-9503-8f66eebba713
9564006e-526d-11ea-965f-4b359d086fd1,95a10e14-526d-11ea-a7c7-df9ca5bcb504
954993be-526d-11ea-9c25-ebcc74437029,95a13416-526d-11ea-96ed-238b2bc9d63c
95526188-526d-11ea-8bc4-7f27ce672ae7,95a16170-526d-11ea-aab4-1bbd14f5bf76
958865b2-526d-11ea-8e6d-4720522f7b5f,95a18baa-526d-11ea-b5d3-9bddddaf1778
9525d80c-526d-11ea-bbc2-9b6bf4ad4c19,95a1b4a4-526d-11ea-b310-5b5357c6f4d5
959a42dc-526d-11ea-a5e2-273f5ac2548e,95a1dea2-526d-11ea-8e44-bfae8ac80470
94ef0098-526d-11ea-848e-2b95f76afebd,95a20aee-526d-11ea-bded-5bfce946b189
95929cee-526d-11ea-bf06-6f9a280561be,95a240f4-526d-11ea-8a00-87a1be343a5d
952daf6e-526d-11ea-acdc-cb923db81683,95a2747a-526d-11ea-94ea-ff5f533a9cf8
94ff44b2-526d-11ea-a7e1-e33d114f5fcb,95a2a4c2-526d-11ea-a4ac-7b6b91752513
956522b4-526d-11ea-b78a-b3f50421e018,95a2e1e4-526d-11ea-80d4-bf07def83c77
953da946-526d-11ea-a214-272a57b5759d,95a3273a-526d-11ea-9c63-33bc1a621b1d
951a84ca-526d-11ea-9832-8791a38c84c6,95a36b1e-526d-11ea-8d7f-9fabb2658ea0
959e6f10-526d-11ea-89f7-4bd858422c62,95a3a07a-526d-11ea-b0b2-bfd3a9ef8bdb
95159ce4-526d-11ea-b5ff-0b4004f4c118,95a3ce4c-526d-11ea-813c-678c0974ce3b
94f71e90-526d-11ea-81dc-4b4d3e1571e7,95a40f2e-526d-11ea-9bc7-97394f414c2c
9518886e-526d-11ea-8ce9-470207ff93a1,95a43ecc-526d-11ea-b795-634dc9dee512
9514fe38-526d-11ea-abb6-b7d853063d27,95a48030-526d-11ea-b7ea-4bc34bc9e283
95575f9e-526d-11ea-bf28-d7faef03f923,95a497be-526d-11ea-83c0-73a98e1b3c93
9595f9f2-526d-11ea-ade4-dbd64904f125,95a4c16c-526d-11ea-a1fb-dfb7058fcbf5
94f87cfe-526d-11ea-8d6c-ff35df8ac705,95a4f696-526d-11ea-b448-3f5f0cc5a01a
94fd3640-526d-11ea-8ff0-03a50c061fb5,95a5217a-526d-11ea-a4f8-1b79fd566358
9523411e-526d-11ea-96c1-c3c38f4c6dfc,95a54a4c-526d-11ea-8da6-7bb494ed4891
9577d332-526d-11ea-bd98-9bc289a4cba9,95a5736e-526d-11ea-ab9d-f3da89215592
95893d70-526d-11ea-a1df-db8f44bf3879,95a59fc4-526d-11ea-8def-53fdd9c1d0cd
955212b4-526d-11ea-bca0-d76629a89c5c,95a5cac6-526d-11ea-a07f-cbc6420ebb01
94f2d88a-526d-11ea-857a-37cc32c1aad4,95a5f898-526d-11ea-bffa-6f7277d8157b
95307d98-526d-11ea-8fbe-5760b5fd3b61,95a6212e-526d-11ea-bb44-df489a8a30f7
9512d482-526d-11ea-a1e8-0b27f6c557cb,95a64820-526d-11ea-b30b-a70a69592739
957806cc-526d-11ea-bfd3-7b3e0a2c8a78,95a6723c-526d-11ea-b395-d39c079cd9db
94f54f98-526d-11ea-8f9d-cbbd974fe299,95a6a1e4-526d-11ea-bbfc-c3e0ae585f3c
95502bc0-526d-11ea-a86b-9bd94a338bb9,95a6cb24-526d-11ea-a7da-1b5bc80d0bfa
952f356e-526d-11ea-9cd7-c35e777a0b40,95a6f130-526d-11ea-ab5b-c7753dd7093f
9508c5b4-526d-11ea-983b-5bcea33b7f80,95a71cdc-526d-11ea-b5ca-e3468b159ca8
95069b68-526d-11ea-8f1d-d335075dfc9a,95a75382-526d-11ea-9ab5-2b7c58056d22
95a3a07a-526d-11ea-b0b2-bfd3a9ef8bdb,95a780be-526d-11ea-bb5d-87c2e764561a
954d8172-526d-11ea-8b16-fbb9398372be,95a7c93e-526d-11ea-98be-d3fe35fa4777
95921224-526d-11ea-851b-1b18645b51fe,95a7f972-526d-11ea-b1e6-5bbc18a9eccd
94f95f84-526d-11ea-8072-3f232b9b469b,95a82a82-526d-11ea-ad2e-e3d70f966328
956cd702-526d-11ea-89a8-373318ba570f,95a857e6-526d-11ea-b56d-db5434a6660a
957b75e6-526d-11ea-898b-53eb35cd013b,95a88a0e-526d-11ea-a0c9-57a6dbb1ebbc
95413fca-526d-11ea-abe9-c3ff80eb0a18,95a8bcea-526d-11ea-88b7-2ff4f50796e6
958aaf52-526d-11ea-8549-47698771eb53,95a8ea12-526d-11ea-b18b-3b72e92b6f39
95937a88-526d-11ea-b01f-674bf141ff64,95a9179e-526d-11ea-ba89-df7eb477e943
95392178-526d-11ea-8a37-1f0d1e582a9c,95a94174-526d-11ea-a944-d7cd057ef448
953b0a92-526d-11ea-9f3b-bb87f2966663,95a96d7a-526d-11ea-819b-fb46e6ccdc35
95699452-526d-11ea-a9d7-0bbe11bf5ca6,95a99746-526d-11ea-8b2b-d32ec0a59f0a
94f2d88a-526d-11ea-857a-37cc32c1aad4,95a9d2f6-526d-11ea-8263-1b154cf4a0b5
9562ac82-526d-11ea-8973-5ff9727a7581,95aa07da-526d-11ea-a010-a30a10417348
9513da3a-526d-11ea-b961-03d40eca4ac3,95aa348a-526d-11ea-8591-b3b265f78d24
95467094-526d-11ea-981d-0fec84e73950,95aa613a-526d-11ea-b374-a37884d6b860
94f4f552-526d-11ea-87f3-1f498b9e8c65,95aa983a-526d-11ea-b11a-13ba15fb4fa5
95530d54-526d-11ea-987e-47fe72e80811,95aac896-526d-11ea-b5bb-0fa7c4f12479
95693c0a-526d-11ea-b4a2-dfdcfab6343a,95ab032e-526d-11ea-b693-d77271ea5cdf
