Source,Target
695da51a-524a-11ea-a82b-9fed3845f7f9,695dc5a4-524a-11ea-a53e-d7e2ce1b9a7e
695d9188-524a-11ea-af16-c39d7f130a2a,695dd792-524a-11ea-9d26-33a6eea24230
695c0ee4-524a-11ea-b353-bbe5cecca7fa,695dddfa-524a-11ea-aeaf-eb73846a4b9c
695dac54-524a-11ea-9fdb-a70290a842c7,695de822-524a-11ea-a1e1-63300752abc7
695d9188-524a-11ea-af16-c39d7f130a2a,695deeee-524a-11ea-8457-e353203c3ca2
695c771c-524a-11ea-9afb-b7daf84fdc4f,695df9de-524a-11ea-be28-97250a98302f
695deeee-524a-11ea-8457-e353203c3ca2,695e0028-524a-11ea-a267-6f7184301493
695c0ee4-524a-11ea-b353-bbe5cecca7fa,695e0758-524a-11ea-884a-2fc4500bbe9b
695d1aa0-524a-11ea-9f6e-33645154ef50,695e0e60-524a-11ea-bdde-7765268cafc2
695ce7f6-524a-11ea-9712-7f1479efd979,695e1b94-524a-11ea-a892-276017b1619d
695cf822-524a-11ea-8028-eb0a21ce2660,695e2206-524a-11ea-bbc3-13663e9603e5
695c3afe-524a-11ea-8d0e-e7301cc0fd5d,695e2eb8-524a-11ea-bd0d-3764d85a3f76
695dac54-524a-11ea-9fdb-a70290a842c7,695e34f8-524a-11ea-946f-7733cd21c0af
695d9bd8-524a-11ea-a891-930f1a91706d,695e41aa-524a-11ea-a27e-9f2475415a3e
695c354a-524a-11ea-ae7d-d34b54bdc021,695e4b64-524a-11ea-b38a-07480ad049e7
695c21fe-524a-11ea-9f84-ef149bb2dce6,695e5b9a-524a-11ea-b695-c3f95b55cd8d
695df9de-524a-11ea-be28-97250a98302f,695e5410-524a-11ea-aea0-0f39b7d76f9f
695c8a7c-524a-11ea-9b4a-3788ec582d4d,695e6216-524a-11ea-acca-1be2af3419de
695dac54-524a-11ea-9fdb-a70290a842c7,695e6982-524a-11ea-a3cc-3b65b9e24d9e
695d4548-524a-11ea-9a81-eb6b2225bcd2,695e7562-524a-11ea-bd92-df8534c41737
695c93b4-524a-11ea-b8af-1f7190d28364,695e8890-524a-11ea-9222-53197d45554d
695c8a7c-524a-11ea-9b4a-3788ec582d4d,695e8020-524a-11ea-88e4-abd368cba4f3
695ce7f6-524a-11ea-9712-7f1479efd979,695e95ec-524a-11ea-a8bd-1301b176105a
695c771c-524a-11ea-9afb-b7daf84fdc4f,695ea140-524a-11ea-9375-337a36fc09fe
695cc438-524a-11ea-aa91-2b3a03f77bd4,695ea78a-524a-11ea-9a93-d7f47e6323a8
695e6216-524a-11ea-acca-1be2af3419de,695eae38-524a-11ea-ae28-13a8bebdc437
695c771c-524a-11ea-9afb-b7daf84fdc4f,695eb518-524a-11ea-a9ac-2720d582db1c
695d1aa0-524a-11ea-9f6e-33645154ef50,695ebca2-524a-11ea-aad8-7bcf1be6bb59
695db9ba-524a-11ea-89f5-ff4200f3abbf,695ec5d0-524a-11ea-988b-a3c96372149e
695e41aa-524a-11ea-a27e-9f2475415a3e,695ecc92-524a-11ea-808e-dbd23a770362
695d61d6-524a-11ea-b53f-8b5405174875,695ed642-524a-11ea-bb88-2b23cd63a5dc
695d219e-524a-11ea-bbf7-cb3d72e4b9ef,695ee628-524a-11ea-b11e-0b9e7da8afc5
695ebca2-524a-11ea-aad8-7bcf1be6bb59,695eed1c-524a-11ea-b7c2-47818f6ad142
695c771c-524a-11ea-9afb-b7daf84fdc4f,695ef4ba-524a-11ea-b438-d36428b00a04
695cd9aa-524a-11ea-83fa-2bde24ddb22d,695eff82-524a-11ea-8904-eb3b561a3904
695e2eb8-524a-11ea-bd0d-3764d85a3f76,695f0950-524a-11ea-8afc-47bb2afd628b
695eb518-524a-11ea-a9ac-2720d582db1c,695f10ee-524a-11ea-a3e3-1f3087e4ff5f
695e95ec-524a-11ea-a8bd-1301b176105a,695f1a58-524a-11ea-82f9-f37f86bc1adb
695e8890-524a-11ea-9222-53197d45554d,695f2340-524a-11ea-bdca-57ce682e23c5
695d3d32-524a-11ea-89f8-3b16ed0351dd,695f2b06-524a-11ea-85b7-6baf9c91755b
695db30c-524a-11ea-b015-23d2df9ffdb2,695f3682-524a-11ea-95a9-4f0bb1b13359
695ccd98-524a-11ea-959e-1b242fa6210d,695f4154-524a-11ea-8557-139a27f3962c
695eff82-524a-11ea-8904-eb3b561a3904,695f4a82-524a-11ea-b8b3-33249bfb5a2e
695cf822-524a-11ea-8028-eb0a21ce2660,695f5540-524a-11ea-826b-175b36f1d1c4
695d0682-524a-11ea-b2f0-1b4491699961,695f6008-524a-11ea-b821-e79a66a733f5
695c93b4-524a-11ea-b8af-1f7190d28364,695f6684-524a-11ea-8bfa-57fad9a9a7bc
695f2340-524a-11ea-bdca-57ce682e23c5,695f6da0-524a-11ea-9cd5-632930a69b8a
695e1b94-524a-11ea-a892-276017b1619d,695f7426-524a-11ea-ad48-a781a9120329
695d1aa0-524a-11ea-9f6e-33645154ef50,695f8ad8-524a-11ea-98de-2b7e703a571f
695dd792-524a-11ea-9d26-33a6eea24230,695f9636-524a-11ea-8e89-abf195c907a4
695cffca-524a-11ea-bb78-6b3d63bfbcad,695f9d48-524a-11ea-849c-4f41104b53f9
695e6982-524a-11ea-a3cc-3b65b9e24d9e,695fa554-524a-11ea-a537-47e0b7525d96
695c771c-524a-11ea-9afb-b7daf84fdc4f,695faf0e-524a-11ea-9fff-03df96c7a7c0
695df9de-524a-11ea-be28-97250a98302f,695fb800-524a-11ea-be66-7be855a5f7e1
695da51a-524a-11ea-a82b-9fed3845f7f9,695fbe5e-524a-11ea-8bfe-fbad22d4276f
695c1b5a-524a-11ea-95bb-7bf8d0fb42e7,695fc5e8-524a-11ea-95f4-a76c887e003b
695dc5a4-524a-11ea-a53e-d7e2ce1b9a7e,695fd72c-524a-11ea-a0ec-97826f59b640
695ea78a-524a-11ea-9a93-d7f47e6323a8,695fe258-524a-11ea-b5bb-93ed92b24a27
695c21fe-524a-11ea-9f84-ef149bb2dce6,695fed7a-524a-11ea-bdc1-bfcf7b2a8838
695f6684-524a-11ea-8bfa-57fad9a9a7bc,695ff982-524a-11ea-a55b-7be94900e6da
695ef4ba-524a-11ea-b438-d36428b00a04,696000ee-524a-11ea-8be8-57d5c254a947
695bfa12-524a-11ea-9ccc-33e5d66dcda8,696009ea-524a-11ea-9699-9f1d97ab241c
695ff982-524a-11ea-a55b-7be94900e6da,696010d4-524a-11ea-8023-8fbd43e26ea9
695ebca2-524a-11ea-aad8-7bcf1be6bb59,69601854-524a-11ea-b721-ebcb10a93d80
695c6dd0-524a-11ea-8141-778f49d14822,696020d8-524a-11ea-b8ff-4b061d8a878c
696009ea-524a-11ea-9699-9f1d97ab241c,69602c36-524a-11ea-a918-af4fd9d8da17
695fd72c-524a-11ea-a0ec-97826f59b640,6960374e-524a-11ea-97a2-ffc0c420d275
69602c36-524a-11ea-a918-af4fd9d8da17,696044b4-524a-11ea-b135-b78fced18114
695f7426-524a-11ea-ad48-a781a9120329,69604efa-524a-11ea-a527-03c40d545566
695fe258-524a-11ea-b5bb-93ed92b24a27,69605760-524a-11ea-b7d6-3bd1784a3663
695e2eb8-524a-11ea-bd0d-3764d85a3f76,69606a84-524a-11ea-af25-87a1bfe9827e
695fb800-524a-11ea-be66-7be855a5f7e1,6960759c-524a-11ea-bdab-fbb351441d26
695c1b5a-524a-11ea-95bb-7bf8d0fb42e7,69607eb6-524a-11ea-9037-0727351a25cf
695db30c-524a-11ea-b015-23d2df9ffdb2,696085fa-524a-11ea-8851-8f2f64d1163a
695c1b5a-524a-11ea-95bb-7bf8d0fb42e7,696096b2-524a-11ea-9808-a3d036451cc7
695db9ba-524a-11ea-89f5-ff4200f3abbf,69609e1e-524a-11ea-bbec-5f89c189c375
695f6008-524a-11ea-b821-e79a66a733f5,6960ada0-524a-11ea-bb70-d3b009b9e806
695f6684-524a-11ea-8bfa-57fad9a9a7bc,6960bf48-524a-11ea-99b9-c7495d4cbec2
695d219e-524a-11ea-bbf7-cb3d72e4b9ef,6960cd4e-524a-11ea-9664-07e16717902e
695d7d38-524a-11ea-8d7b-f7b133c2c2b7,6960d79e-524a-11ea-a12c-4741bcc66297
695e7562-524a-11ea-bd92-df8534c41737,6960e392-524a-11ea-b94a-9bbb603a09d5
695c6dd0-524a-11ea-8141-778f49d14822,6960ece8-524a-11ea-b84e-ef454e871567
695d61d6-524a-11ea-b53f-8b5405174875,6960f7a6-524a-11ea-a918-e313b809181a
695f1a58-524a-11ea-82f9-f37f86bc1adb,6960ff6c-524a-11ea-8a1a-c30c471abc99
695c771c-524a-11ea-9afb-b7daf84fdc4f,69610746-524a-11ea-a05a-8bb50b0f1ade
695c354a-524a-11ea-ae7d-d34b54bdc021,69611d9e-524a-11ea-8fc5-4f1ce95679c0
695e5410-524a-11ea-aea0-0f39b7d76f9f,69612578-524a-11ea-92dc-63e9e3eab155
6960ece8-524a-11ea-b84e-ef454e871567,69612da2-524a-11ea-b631-3b9c6c4e1ce7
695bee6e-524a-11ea-8db8-3f691111512b,69613644-524a-11ea-ab05-0b9f1aa7ad85
695f7426-524a-11ea-ad48-a781a9120329,69613dec-524a-11ea-83bb-0746bbfd1de1
695e4b64-524a-11ea-b38a-07480ad049e7,69614972-524a-11ea-a7b4-ab9ba9647323
695eff82-524a-11ea-8904-eb3b561a3904,6961530e-524a-11ea-9593-4b2920bbcfa9
695da51a-524a-11ea-a82b-9fed3845f7f9,69615b1a-524a-11ea-9c42-731fcccf888e
695e0758-524a-11ea-884a-2fc4500bbe9b,69616d62-524a-11ea-8f19-5709c45a3b5b
