RunID,Agent,Age,Created,Inactive,Resources,Reputation,Ability,Que
run-2020-2-28-16-29-31.156668901,AGENT#7f45784e-5a47-11ea-9424-53961074d268,1,0,1,10,1.0,1.0,0
run-2020-2-28-16-29-31.156668901,AGENT#7f457b5a-5a47-11ea-86a3-278223d99452,1,0,1,10,1.0,1.0,0
run-2020-2-28-16-29-31.156668901,AGENT#7f45deba-5a47-11ea-8402-a3b8d7e526ec,1,0,1,10,1.0,1.0,0
run-2020-2-28-16-29-31.156668901,AGENT#7f45e23e-5a47-11ea-9554-7b318ee134e9,1,0,1,10,1.0,1.0,0
run-2020-2-28-16-29-31.156668901,AGENT#7f45e9f0-5a47-11ea-a8ed-ab75b764bf45,1,0,1,10,1.0,1.0,0
run-2020-2-28-16-29-31.156668901,AGENT#7f501920-5a47-11ea-b1d0-63c01a25ae76,1,1,2,10,1.0,1.0,0
run-2020-2-28-16-29-31.156668901,AGENT#7f501bf0-5a47-11ea-8904-5b96e71fbbb5,1,1,2,10,1.0,1.0,0
run-2020-2-28-16-29-31.156668901,AGENT#7f456b56-5a47-11ea-b489-c3253b7a56ae,3,0,3,10,1.0,1.0,0
run-2020-2-28-16-29-31.156668901,AGENT#7f501e84-5a47-11ea-88a0-b7f14d8b54fd,2,1,3,10,1.0,1.0,0
run-2020-2-28-16-29-31.156668901,AGENT#7f458186-5a47-11ea-8fdc-33948b4ab939,4,0,4,10,1.0,1.0,0
run-2020-2-28-16-29-31.156668901,AGENT#7f5a7aa0-5a47-11ea-b7be-03380e0dc45c,2,2,4,10,1.0,1.0,0
run-2020-2-28-16-29-31.156668901,AGENT#7f6594a8-5a47-11ea-9d5c-3f50cbcc055f,1,3,4,10,1.0,1.0,0
run-2020-2-28-16-29-31.156668901,AGENT#7f6599da-5a47-11ea-834d-932af01a0625,1,3,4,10,1.0,1.0,0
run-2020-2-28-16-29-31.156668901,AGENT#7f457e84-5a47-11ea-842d-077ac32804b1,5,0,5,10,1.0,1.0,0
run-2020-2-28-16-29-31.156668901,AGENT#7f45849c-5a47-11ea-81a9-ef34ba2e406a,5,0,5,10,1.0,1.0,0
run-2020-2-28-16-29-31.156668901,AGENT#7f6591a6-5a47-11ea-b808-5b6461cdeae2,2,3,5,10,1.0,1.0,0
run-2020-2-28-16-29-31.156668901,AGENT#7f65973c-5a47-11ea-91a2-27dc777b798a,2,3,5,10,1.0,1.0,0
run-2020-2-28-16-29-31.156668901,AGENT#7f71f3f6-5a47-11ea-bb36-ab0553480836,1,4,5,10,1.0,1.0,0
run-2020-2-28-16-29-31.156668901,AGENT#7f71f086-5a47-11ea-a500-cfb5d5f88ea9,2,4,6,10,1.0,1.0,0
run-2020-2-28-16-29-31.156668901,AGENT#7f85739a-5a47-11ea-b450-773050b2d649,2,5,7,10,1.0,1.0,0
run-2020-2-28-16-29-31.156668901,AGENT#7f8579bc-5a47-11ea-9e93-fb383bef5035,2,5,7,10,1.0,1.0,0
run-2020-2-28-16-29-31.156668901,AGENT#7f857c96-5a47-11ea-8e44-9762f744de5f,2,5,7,10,1.0,1.0,0
run-2020-2-28-16-29-31.156668901,AGENT#7f95371c-5a47-11ea-9dd3-2757a5f40512,1,6,7,10,1.0,1.0,0
run-2020-2-28-16-29-31.156668901,AGENT#7f659c64-5a47-11ea-a78c-938c63e64d3c,5,3,8,10,1.0,1.0,0
run-2020-2-28-16-29-31.156668901,AGENT#7f953dd4-5a47-11ea-b593-bfec85f0a8ed,2,6,8,10,1.0,1.0,0
run-2020-2-28-16-29-31.156668901,AGENT#7f9540e0-5a47-11ea-a60e-07eba3b8e16e,2,6,8,10,1.0,1.0,0
run-2020-2-28-16-29-31.156668901,AGENT#7fa30860-5a47-11ea-b0fc-c7a1b2386687,1,7,8,10,1.0,1.0,0
run-2020-2-28-16-29-31.156668901,AGENT#7fb0291e-5a47-11ea-a462-7ffa54e0ba1e,2,8,10,10,1.0,1.0,0
run-2020-2-28-16-29-31.156668901,AGENT#7fc28050-5a47-11ea-bf35-436ada85e411,1,9,10,10,1.0,1.0,0
run-2020-2-28-16-29-31.156668901,AGENT#7fa305a4-5a47-11ea-aaef-23c168e5b622,4,7,11,10,1.0,1.0,0
run-2020-2-28-16-29-31.156668901,AGENT#7fd25a66-5a47-11ea-8571-cfe9038be9e1,1,10,11,10,1.0,1.0,0
run-2020-2-28-16-29-31.156668901,AGENT#7fc27d44-5a47-11ea-aeab-fbe69ee4892e,3,9,12,10,1.0,1.0,0
run-2020-2-28-16-29-31.156668901,AGENT#7fc285e6-5a47-11ea-bca5-235c12060624,4,9,13,10,1.0,1.0,0
run-2020-2-28-16-29-31.156668901,AGENT#7fd25728-5a47-11ea-a7ac-f71ce2b03582,3,10,13,10,1.0,1.0,0
run-2020-2-28-16-29-31.156668901,AGENT#7fd260b0-5a47-11ea-b9ba-43202123c1b0,3,10,13,10,1.0,1.0,0
run-2020-2-28-16-29-31.156668901,AGENT#7fc279d4-5a47-11ea-b3aa-1b3ccfd03db8,5,9,14,10,1.0,1.0,0
run-2020-2-28-16-29-31.156668901,AGENT#7fd253f4-5a47-11ea-9f33-974719ec1b72,5,10,15,10,1.0,1.0,0
run-2020-2-28-16-29-31.156668901,AGENT#7fd25d9a-5a47-11ea-ad82-c3df73ef6da1,5,10,15,10,1.0,1.0,0
run-2020-2-28-16-29-31.156668901,AGENT#7fdf0c8e-5a47-11ea-b1cd-af04f7ce31a2,4,11,15,10,1.0,1.0,0
run-2020-2-28-16-29-31.156668901,AGENT#7fdf0fd6-5a47-11ea-8b9d-bbf771f59e29,4,11,15,10,1.0,1.0,0
run-2020-2-28-16-29-31.156668901,AGENT#7feae1b2-5a47-11ea-837f-3b6a2096f44f,3,12,15,10,1.0,1.0,0
run-2020-2-28-16-29-31.156668901,AGENT#800ec74e-5a47-11ea-92bd-839369c2eae1,1,14,15,10,1.0,1.0,0
run-2020-2-28-16-29-31.156668901,AGENT#800eceba-5a47-11ea-bfc0-c7bd250fc319,1,14,15,10,1.0,1.0,0
run-2020-2-28-16-29-31.156668901,AGENT#800ed194-5a47-11ea-9561-1be92666562d,1,14,15,10,1.0,1.0,0
run-2020-2-28-16-29-31.156668901,AGENT#800ecbb8-5a47-11ea-9dc1-0373ee7c274e,2,14,16,10,1.0,1.0,0
run-2020-2-28-16-29-31.156668901,AGENT#802135b4-5a47-11ea-9eb5-e71cc6d7143c,2,15,17,10,1.0,1.0,0
run-2020-2-28-16-29-31.156668901,AGENT#802138fc-5a47-11ea-bc75-6389a27d52f6,2,15,17,10,1.0,1.0,0
run-2020-2-28-16-29-31.156668901,AGENT#802fd876-5a47-11ea-9dc8-8f0031d1078e,1,16,17,10,1.0,1.0,0
run-2020-2-28-16-29-31.156668901,AGENT#7f953abe-5a47-11ea-ae95-1b04cb894c95,13,6,19,10,1.0,1.0,0
run-2020-2-28-16-29-31.156668901,AGENT#802fd4a2-5a47-11ea-83db-4f0d732ce17a,3,16,19,10,1.0,1.0,0
run-2020-2-28-16-29-31.156668901,AGENT#80468954-5a47-11ea-8864-535e342b3b0b,1,18,19,10,1.0,1.0,0
run-2020-2-28-16-29-31.156668901,AGENT#807122d6-5a47-11ea-bc0a-37163167926e,1,20,21,10,1.0,1.0,0
run-2020-2-28-16-29-31.156668901,AGENT#7fb021bc-5a47-11ea-a2c4-b3e09aa69c05,14,8,22,10,1.0,1.0,0
run-2020-2-28-16-29-31.156668901,AGENT#805e0f34-5a47-11ea-9601-77765597a88a,3,19,22,10,1.0,1.0,0
run-2020-2-28-16-29-31.156668901,AGENT#80711cdc-5a47-11ea-bae6-cbf41cfe4a60,2,20,22,10,1.0,1.0,0
run-2020-2-28-16-29-31.156668901,AGENT#808045ae-5a47-11ea-ab79-1b84b25d28d4,1,21,22,10,1.0,1.0,0
run-2020-2-28-16-29-31.156668901,AGENT#80468242-5a47-11ea-a828-9f0f7546b630,5,18,23,10,1.0,1.0,0
run-2020-2-28-16-29-31.156668901,AGENT#805e1272-5a47-11ea-a7e7-efcd2773cbca,4,19,23,10,1.0,1.0,0
run-2020-2-28-16-29-31.156668901,AGENT#80711610-5a47-11ea-a61d-bf29dbc75619,3,20,23,10,1.0,1.0,0
run-2020-2-28-16-29-31.156668901,AGENT#808f80a0-5a47-11ea-95b5-eb70dd0ecb92,1,22,23,10,1.0,1.0,0
run-2020-2-28-16-29-31.156668901,AGENT#808f8398-5a47-11ea-a635-af8718c79cb0,1,22,23,10,1.0,1.0,0
run-2020-2-28-16-29-31.156668901,AGENT#80803e10-5a47-11ea-98fd-47d250872992,3,21,24,10,1.0,1.0,0
run-2020-2-28-16-29-31.156668901,AGENT#808f77d6-5a47-11ea-8148-673ae277ee17,2,22,24,10,1.0,1.0,0
run-2020-2-28-16-29-31.156668901,AGENT#807125ba-5a47-11ea-bbdb-3ba49dd8987e,5,20,25,10,1.0,1.0,0
run-2020-2-28-16-29-31.156668901,AGENT#80804248-5a47-11ea-b408-030e3ce5c232,4,21,25,10,1.0,1.0,0
run-2020-2-28-16-29-31.156668901,AGENT#808f748e-5a47-11ea-9a2d-eb98fcfad047,3,22,25,10,1.0,1.0,0
run-2020-2-28-16-29-31.156668901,AGENT#809ec4ac-5a47-11ea-b983-0343fad450a4,2,23,25,10,1.0,1.0,0
run-2020-2-28-16-29-31.156668901,AGENT#80cbe61c-5a47-11ea-81fd-7375aaa97e42,1,25,26,10,1.0,1.0,0
run-2020-2-28-16-29-31.156668901,AGENT#7f457236-5a47-11ea-9566-7352eb79e9cf,27,0,27,10,1.0,1.0,0
run-2020-2-28-16-29-31.156668901,AGENT#7f45db04-5a47-11ea-9cd2-4b71158eb453,27,0,27,10,1.0,1.0,0
run-2020-2-28-16-29-31.156668901,AGENT#80cbd960-5a47-11ea-a7f1-dbd3f41845d5,2,25,27,10,1.0,1.0,0
run-2020-2-28-16-29-31.156668901,AGENT#80da847e-5a47-11ea-8657-af4b35cc990a,1,26,27,10,1.0,1.0,0
run-2020-2-28-16-29-31.156668901,AGENT#7fa302de-5a47-11ea-aa28-2352a27ba451,21,7,28,10,1.0,1.0,0
run-2020-2-28-16-29-31.156668901,AGENT#80cbe310-5a47-11ea-9c7c-3bd6f1ad5d59,3,25,28,10,1.0,1.0,0
run-2020-2-28-16-29-31.156668901,AGENT#80da90cc-5a47-11ea-9a7b-2bd7a388c66b,2,26,28,10,1.0,1.0,0
run-2020-2-28-16-29-31.156668901,AGENT#80e6682a-5a47-11ea-badd-eff85a1a001c,1,27,28,10,1.0,1.0,0
run-2020-2-28-16-29-31.156668901,AGENT#80e66e74-5a47-11ea-8848-afd6815be69b,1,27,28,10,1.0,1.0,0
run-2020-2-28-16-29-31.156668901,AGENT#7fb025b8-5a47-11ea-b2dc-8fe61e00c9b0,21,8,29,10,1.0,1.0,0
run-2020-2-28-16-29-31.156668901,AGENT#80b8b77c-5a47-11ea-beeb-4f4a8c5f138e,5,24,29,10,1.0,1.0,0
run-2020-2-28-16-29-31.156668901,AGENT#80e6716c-5a47-11ea-884e-47e2cb943d13,4,27,31,10,1.0,1.0,0
run-2020-2-28-16-29-31.156668901,AGENT#811bd604-5a47-11ea-b9b4-a3a0d2f97b0c,1,30,31,10,1.0,1.0,0
run-2020-2-28-16-29-31.156668901,AGENT#811bd9f6-5a47-11ea-9c94-e78fb2e752b4,1,30,31,10,1.0,1.0,0
run-2020-2-28-16-29-31.156668901,AGENT#8109c2fc-5a47-11ea-b6e9-c3b1a9418048,3,29,32,10,1.0,1.0,0
run-2020-2-28-16-29-31.156668901,AGENT#812a772c-5a47-11ea-822a-e3b4155c388f,1,31,32,10,1.0,1.0,0
run-2020-2-28-16-29-31.156668901,AGENT#811bdd70-5a47-11ea-8de4-e76f3896e02a,3,30,33,10,1.0,1.0,0
run-2020-2-28-16-29-31.156668901,AGENT#812a7038-5a47-11ea-bfb2-4b7382ad2e08,2,31,33,10,1.0,1.0,0
run-2020-2-28-16-29-31.156668901,AGENT#813929fc-5a47-11ea-8706-83e62bd6b5f1,1,32,33,10,1.0,1.0,0
run-2020-2-28-16-29-31.156668901,AGENT#812a6ce6-5a47-11ea-ab24-27a023b384a4,3,31,34,10,1.0,1.0,0
run-2020-2-28-16-29-31.156668901,AGENT#812a7402-5a47-11ea-bc3f-ef442bf9df46,3,31,34,10,1.0,1.0,0
run-2020-2-28-16-29-31.156668901,AGENT#81391e76-5a47-11ea-a9e6-5b404238c116,2,32,34,10,1.0,1.0,0
run-2020-2-28-16-29-31.156668901,AGENT#7feadee2-5a47-11ea-beb5-9bf69eff4dc6,23,12,35,10,1.0,1.0,0
run-2020-2-28-16-29-31.156668901,AGENT#81392736-5a47-11ea-a0fd-632400d26d21,3,32,35,10,1.0,1.0,0
run-2020-2-28-16-29-31.156668901,AGENT#80468616-5a47-11ea-b0ec-47bf267a8f3f,18,18,36,10,1.0,1.0,0
run-2020-2-28-16-29-31.156668901,AGENT#81391b10-5a47-11ea-bb6c-2bac9d8564e4,4,32,36,10,1.0,1.0,0
run-2020-2-28-16-29-31.156668901,AGENT#81459ee4-5a47-11ea-b908-a78fb14c63ac,3,33,36,10,1.0,1.0,0
run-2020-2-28-16-29-31.156668901,AGENT#817278ba-5a47-11ea-a4b6-2fcdaa6d029b,2,35,37,10,1.0,1.0,0
run-2020-2-28-16-29-31.156668901,AGENT#81813cc4-5a47-11ea-acd6-0ff6c0056636,1,36,37,10,1.0,1.0,0
run-2020-2-28-16-29-31.156668901,AGENT#7fa2fcb2-5a47-11ea-a129-ff1336347562,31,7,38,10,1.0,1.0,0
run-2020-2-28-16-29-31.156668901,AGENT#817274dc-5a47-11ea-9086-7351b1328117,3,35,38,10,1.0,1.0,0
run-2020-2-28-16-29-31.156668901,AGENT#81727bbc-5a47-11ea-b0c7-f7f907c8a52b,3,35,38,10,1.0,1.0,0
run-2020-2-28-16-29-31.156668901,AGENT#8181403e-5a47-11ea-998e-1b7c40f22f45,3,36,39,10,1.0,1.0,0
run-2020-2-28-16-29-31.156668901,AGENT#81997f8c-5a47-11ea-86cd-4f38061cac24,1,38,39,10,1.0,1.0,0
run-2020-2-28-16-29-31.156668901,AGENT#819985ea-5a47-11ea-9c66-77d5175d1dff,1,38,39,10,1.0,1.0,0
run-2020-2-28-16-29-31.156668901,AGENT#7f45752e-5a47-11ea-85b5-d79afbbc5e38,40,0,40,10,1.0,1.0,0
run-2020-2-28-16-29-31.156668901,AGENT#7fead852-5a47-11ea-9ae4-d3053e39095c,28,12,40,10,1.0,1.0,0
run-2020-2-28-16-29-31.156668901,AGENT#81b3a47a-5a47-11ea-86de-03c599010e0c,1,39,40,10,1.0,1.0,0
run-2020-2-28-16-29-31.156668901,AGENT#81997be0-5a47-11ea-9a05-0bd9871ea5ce,3,38,41,10,1.0,1.0,0
run-2020-2-28-16-29-31.156668901,AGENT#819982c0-5a47-11ea-88a5-2f8da2163579,3,38,41,10,1.0,1.0,0
run-2020-2-28-16-29-31.156668901,AGENT#81c7a380-5a47-11ea-a08b-538b1d10304a,1,40,41,10,1.0,1.0,0
run-2020-2-28-16-29-31.156668901,AGENT#7fa2ffe6-5a47-11ea-81de-37688b8ebea2,35,7,42,10,1.0,1.0,0
run-2020-2-28-16-29-31.156668901,AGENT#81b3a772-5a47-11ea-b0e9-6bca819aad0e,3,39,42,10,1.0,1.0,0
run-2020-2-28-16-29-31.156668901,AGENT#81d7521c-5a47-11ea-b947-9bf9110821aa,2,41,43,10,1.0,1.0,0
run-2020-2-28-16-29-31.156668901,AGENT#81e59da4-5a47-11ea-a1ca-4382630f1319,2,42,44,10,1.0,1.0,0
run-2020-2-28-16-29-31.156668901,AGENT#81f2a1f2-5a47-11ea-a0be-0b5d7e47e22b,1,43,44,10,1.0,1.0,0
run-2020-2-28-16-29-31.156668901,AGENT#7f45e626-5a47-11ea-af0f-6791df0e6c14,45,0,45,10,1.0,1.0,0
run-2020-2-28-16-29-31.156668901,AGENT#81c7a006-5a47-11ea-a927-e368439781de,5,40,45,10,1.0,1.0,0
run-2020-2-28-16-29-31.156668901,AGENT#81c7a696-5a47-11ea-928a-fb8a702518c2,5,40,45,10,1.0,1.0,0
run-2020-2-28-16-29-31.156668901,AGENT#7f4567a0-5a47-11ea-92d4-735f7ecee17f,46,0,46,10,1.0,1.0,0
run-2020-2-28-16-29-31.156668901,AGENT#81d757a8-5a47-11ea-9353-3bbb27ff7687,5,41,46,10,1.0,1.0,0
run-2020-2-28-16-29-31.156668901,AGENT#8222e556-5a47-11ea-bf8b-d7fe8aa3e18b,1,45,46,10,1.0,1.0,0
run-2020-2-28-16-29-31.156668901,AGENT#8222e862-5a47-11ea-baf4-a7a1d8534208,1,45,46,10,1.0,1.0,0
run-2020-2-28-16-29-31.156668901,AGENT#7f456f0c-5a47-11ea-b4a1-ffb0c6b5e9d1,47,0,47,10,1.0,1.0,0
run-2020-2-28-16-29-31.156668901,AGENT#8222eb32-5a47-11ea-843d-e3daf11b190c,3,45,48,10,1.0,1.0,0
run-2020-2-28-16-29-31.156668901,AGENT#82337cc2-5a47-11ea-adec-934bb44f7596,2,46,48,10,1.0,1.0,0
run-2020-2-28-16-29-31.156668901,AGENT#820da948-5a47-11ea-8480-b7ddcd82ac32,5,44,49,10,1.0,1.0,0
run-2020-2-28-16-29-31.156668901,AGENT#8222e18c-5a47-11ea-bcc0-33f0373bf2cc,4,45,49,10,1.0,1.0,0
run-2020-2-28-16-29-31.156668901,AGENT#823fe34a-5a47-11ea-acca-0be3d291b6d2,2,47,49,10,1.0,1.0,0
run-2020-2-28-16-29-31.156668901,AGENT#823fe6ba-5a47-11ea-9b56-77f6dfd4fc3e,2,47,49,10,1.0,1.0,0
run-2020-2-28-16-29-31.156668901,AGENT#824b9d52-5a47-11ea-95b1-b3c5c53b48ec,1,48,49,10,1.0,1.0,0
run-2020-2-28-16-29-31.156668901,AGENT#824b9668-5a47-11ea-9f68-e7559bc29896,2,48,50,10,1.0,1.0,0
run-2020-2-28-16-29-31.156668901,AGENT#824ba40a-5a47-11ea-9020-3b88eb1c5ad7,2,48,50,10,1.0,1.0,0
run-2020-2-28-16-29-31.156668901,AGENT#824ba720-5a47-11ea-9c30-0b3bc10a9669,2,48,50,10,1.0,1.0,0
run-2020-2-28-16-29-31.156668901,AGENT#7f8576e2-5a47-11ea-82da-8756b7cc5492,46,5,51,10,1.0,1.0,0
run-2020-2-28-16-29-31.156668901,AGENT#80da80fa-5a47-11ea-b87b-1b3241f94db9,25,26,51,10,1.0,1.0,0
run-2020-2-28-16-29-31.156668901,AGENT#8265d9ec-5a47-11ea-a130-5f0ad3c59b71,2,49,51,10,1.0,1.0,0
run-2020-2-28-16-29-31.156668901,AGENT#7fa2f938-5a47-11ea-b199-9792d8f3579c,45,7,52,10,1.0,1.0,0
run-2020-2-28-16-29-31.156668901,AGENT#81e5a9c0-5a47-11ea-b31a-8789245fe7e4,10,42,52,10,1.0,1.0,0
run-2020-2-28-16-29-31.156668901,AGENT#823fe9b2-5a47-11ea-9f84-a7092e304ea6,5,47,52,10,1.0,1.0,0
run-2020-2-28-16-29-31.156668901,AGENT#828a057e-5a47-11ea-b98c-7fbf587f5d00,1,51,52,10,1.0,1.0,0
run-2020-2-28-16-29-31.156668901,AGENT#828a08d0-5a47-11ea-87c3-9f45bf16fa49,2,51,53,10,1.0,1.0,0
run-2020-2-28-16-29-31.156668901,AGENT#808f7d9e-5a47-11ea-8a82-23d426537fa4,32,22,54,10,1.0,1.0,0
run-2020-2-28-16-29-31.156668901,AGENT#7fc282f8-5a47-11ea-8bc1-7fd2ba5b0af5,46,9,55,10,1.0,1.0,0
run-2020-2-28-16-29-31.156668901,AGENT#7fd25034-5a47-11ea-aee7-8363cf51cd7b,45,10,55,10,1.0,1.0,0
run-2020-2-28-16-29-31.156668901,AGENT#81b39ffc-5a47-11ea-9262-930d7c644d44,16,39,55,10,1.0,1.0,0
run-2020-2-28-16-29-31.156668901,AGENT#82c087c0-5a47-11ea-a759-435b7eada826,1,54,55,10,1.0,1.0,0
run-2020-2-28-16-29-31.156668901,AGENT#824b99f6-5a47-11ea-96fb-9b0bfa9a6313,8,48,56,10,1.0,1.0,0
run-2020-2-28-16-29-31.156668901,AGENT#828a0be6-5a47-11ea-a3b6-67787da3ac77,5,51,56,10,1.0,1.0,0
run-2020-2-28-16-29-31.156668901,AGENT#82c07f78-5a47-11ea-b8b8-a360e42ed2fa,2,54,56,10,1.0,1.0,0
run-2020-2-28-16-29-31.156668901,AGENT#82d53d50-5a47-11ea-ad40-e385a7c3b048,1,55,56,10,1.0,1.0,0
run-2020-2-28-16-29-31.156668901,AGENT#7feadc3a-5a47-11ea-b63f-6795d6e936da,45,12,57,10,1.0,1.0,0
run-2020-2-28-16-29-31.156668901,AGENT#82a54fb4-5a47-11ea-8a98-bb87f77be03b,4,53,57,10,1.0,1.0,0
run-2020-2-28-16-29-31.156668901,AGENT#82c0852c-5a47-11ea-9134-776823b1a93b,3,54,57,10,1.0,1.0,0
run-2020-2-28-16-29-31.156668901,AGENT#82e4b9e2-5a47-11ea-9cbe-6b99b75f0e9a,1,56,57,10,1.0,1.0,0
run-2020-2-28-16-29-31.156668901,AGENT#82d54188-5a47-11ea-8176-1f35ff95bed3,3,55,58,10,1.0,1.0,0
run-2020-2-28-16-29-31.156668901,AGENT#82e4d1d4-5a47-11ea-95c9-a7954f15860a,2,56,58,10,1.0,1.0,0
run-2020-2-28-16-29-31.156668901,AGENT#7fdf12ce-5a47-11ea-b523-6b36a4a5281c,48,11,59,10,1.0,1.0,0
run-2020-2-28-16-29-31.156668901,AGENT#7ff779cc-5a47-11ea-80b6-c7bee711cc23,46,13,59,10,1.0,1.0,0
run-2020-2-28-16-29-31.156668901,AGENT#82e4be24-5a47-11ea-be29-838306c9068f,3,56,59,10,1.0,1.0,0
run-2020-2-28-16-29-31.156668901,AGENT#82e4cec8-5a47-11ea-adb2-23652ba849b2,3,56,59,10,1.0,1.0,0
run-2020-2-28-16-29-31.156668901,AGENT#82e4d4ea-5a47-11ea-9b85-97e78ff7e6e6,3,56,59,10,1.0,1.0,0
run-2020-2-28-16-29-31.156668901,AGENT#823fef98-5a47-11ea-b584-9b6c9e609d49,13,47,60,10,1.0,1.0,0
run-2020-2-28-16-29-31.156668901,AGENT#82e4c4fa-5a47-11ea-89da-9b7b7d67af23,4,56,60,10,1.0,1.0,0
run-2020-2-28-16-29-31.156668901,AGENT#82e4c82e-5a47-11ea-bfa1-0bbd1f0279d5,4,56,60,10,1.0,1.0,0
run-2020-2-28-16-29-31.156668901,AGENT#802fdbf0-5a47-11ea-a627-db611f7d20c1,45,16,61,10,1.0,1.0,0
run-2020-2-28-16-29-31.156668901,AGENT#802fe24e-5a47-11ea-a170-bbc75e71fc4b,45,16,61,10,1.0,1.0,0
run-2020-2-28-16-29-31.156668901,AGENT#82e4cb9e-5a47-11ea-9271-1bc74ead6e98,5,56,61,10,1.0,1.0,0
run-2020-2-28-16-29-31.156668901,AGENT#82f17948-5a47-11ea-b20c-1f75b46c61b4,4,57,61,10,1.0,1.0,0
run-2020-2-28-16-29-31.156668901,AGENT#8315baec-5a47-11ea-8044-a3bd42f689d1,2,59,61,10,1.0,1.0,0
run-2020-2-28-16-29-31.156668901,AGENT#8315c9f6-5a47-11ea-8ad6-23f0979afdeb,2,59,61,10,1.0,1.0,0
run-2020-2-28-16-29-31.156668901,AGENT#8315be84-5a47-11ea-a0f0-e7e635a3539d,3,59,62,10,1.0,1.0,0
run-2020-2-28-16-29-31.156668901,AGENT#802fdf2e-5a47-11ea-aa06-df2ff063b182,47,16,63,10,1.0,1.0,0
run-2020-2-28-16-29-31.156668901,AGENT#808f7ad8-5a47-11ea-aeb9-6729c6062839,41,22,63,10,1.0,1.0,0
run-2020-2-28-16-29-31.156668901,AGENT#82d544a8-5a47-11ea-a8db-ff674f0e9b04,8,55,63,10,1.0,1.0,0
run-2020-2-28-16-29-31.156668901,AGENT#8315c744-5a47-11ea-8eb0-bf2a5882f51e,4,59,63,10,1.0,1.0,0
run-2020-2-28-16-29-31.156668901,AGENT#8315ccda-5a47-11ea-b81d-5f9a0b388265,4,59,63,10,1.0,1.0,0
run-2020-2-28-16-29-31.156668901,AGENT#8337f1fc-5a47-11ea-b6a4-9bfdb7af666e,2,61,63,10,1.0,1.0,0
run-2020-2-28-16-29-31.156668901,AGENT#8315c46a-5a47-11ea-b644-efa672daa7d5,5,59,64,10,1.0,1.0,0
run-2020-2-28-16-29-31.156668901,AGENT#8328c31c-5a47-11ea-a0b7-e3919ca9f31b,4,60,64,10,1.0,1.0,0
run-2020-2-28-16-29-31.156668901,AGENT#834665c0-5a47-11ea-b4e0-4b079bb55a32,2,62,64,10,1.0,1.0,0
run-2020-2-28-16-29-31.156668901,AGENT#803ba430-5a47-11ea-a229-bb033e46c330,48,17,65,10,1.0,1.0,0
run-2020-2-28-16-29-31.156668901,AGENT#807119d0-5a47-11ea-b938-ebfcc1ebf9fb,45,20,65,10,1.0,1.0,0
run-2020-2-28-16-29-31.156668901,AGENT#80711ffc-5a47-11ea-8982-b35f2d802cba,45,20,65,10,1.0,1.0,0
run-2020-2-28-16-29-31.156668901,AGENT#83538764-5a47-11ea-8850-83aa6321c9f4,2,63,65,10,1.0,1.0,0
run-2020-2-28-16-29-31.156668901,AGENT#836da64e-5a47-11ea-8711-a393518d44fc,1,64,65,10,1.0,1.0,0
run-2020-2-28-16-29-31.156668901,AGENT#836dae64-5a47-11ea-8e83-478cbc35092b,1,64,65,10,1.0,1.0,0
run-2020-2-28-16-29-31.156668901,AGENT#83465ca6-5a47-11ea-8b6d-ebce243ed083,4,62,66,10,1.0,1.0,0
run-2020-2-28-16-29-31.156668901,AGENT#808f9036-5a47-11ea-bab2-471bee2970ec,45,22,67,10,1.0,1.0,0
run-2020-2-28-16-29-31.156668901,AGENT#83819cbc-5a47-11ea-9001-e30907c7c495,2,65,67,10,1.0,1.0,0
run-2020-2-28-16-29-31.156668901,AGENT#83919428-5a47-11ea-905f-cb622cd600b2,1,66,67,10,1.0,1.0,0
run-2020-2-28-16-29-31.156668901,AGENT#81b3aaa6-5a47-11ea-a835-d33fef6d5735,29,39,68,10,1.0,1.0,0
run-2020-2-28-16-29-31.156668901,AGENT#83537c88-5a47-11ea-9fe4-2341003ce9d0,5,63,68,10,1.0,1.0,0
run-2020-2-28-16-29-31.156668901,AGENT#836da914-5a47-11ea-a11c-1b0bc40983f8,4,64,68,10,1.0,1.0,0
run-2020-2-28-16-29-31.156668901,AGENT#839e54ba-5a47-11ea-9218-e34752cd296e,2,67,69,10,1.0,1.0,0
run-2020-2-28-16-29-31.156668901,AGENT#839e5794-5a47-11ea-85af-97f781583a5f,2,67,69,10,1.0,1.0,0
run-2020-2-28-16-29-31.156668901,AGENT#80b8b4a2-5a47-11ea-a9a3-a39eac0d39b8,46,24,70,10,1.0,1.0,0
run-2020-2-28-16-29-31.156668901,AGENT#80cbdd20-5a47-11ea-9041-bb0b1bfd07a3,45,25,70,10,1.0,1.0,0
run-2020-2-28-16-29-31.156668901,AGENT#8381a040-5a47-11ea-894c-f71774e17835,5,65,70,10,1.0,1.0,0
run-2020-2-28-16-29-31.156668901,AGENT#839e5190-5a47-11ea-ae19-6fd554ec75a5,3,67,70,10,1.0,1.0,0
run-2020-2-28-16-29-31.156668901,AGENT#839e5a6e-5a47-11ea-aa0f-1bd124dff5d1,3,67,70,10,1.0,1.0,0
run-2020-2-28-16-29-31.156668901,AGENT#80da7a1a-5a47-11ea-9edb-47e319db59c2,45,26,71,10,1.0,1.0,0
run-2020-2-28-16-29-31.156668901,AGENT#80da7dda-5a47-11ea-9354-23efd558455b,45,26,71,10,1.0,1.0,0
run-2020-2-28-16-29-31.156668901,AGENT#80da8abe-5a47-11ea-8a80-97e7b8459985,45,26,71,10,1.0,1.0,0
run-2020-2-28-16-29-31.156668901,AGENT#80da8dd4-5a47-11ea-8990-a7cbfce56e31,45,26,71,10,1.0,1.0,0
run-2020-2-28-16-29-31.156668901,AGENT#839e4e20-5a47-11ea-a49f-d7adf4b4312e,4,67,71,10,1.0,1.0,0
run-2020-2-28-16-29-31.156668901,AGENT#83c3ad3c-5a47-11ea-990a-83a10e02a70e,2,69,71,10,1.0,1.0,0
run-2020-2-28-16-29-31.156668901,AGENT#83c3b0f2-5a47-11ea-bbad-b39ad9d443ee,2,69,71,10,1.0,1.0,0
run-2020-2-28-16-29-31.156668901,AGENT#80da87c6-5a47-11ea-842c-47e6011419f3,46,26,72,10,1.0,1.0,0
run-2020-2-28-16-29-31.156668901,AGENT#83c3b412-5a47-11ea-87f8-a755c950b434,3,69,72,10,1.0,1.0,0
run-2020-2-28-16-29-31.156668901,AGENT#83e63046-5a47-11ea-b320-b35aa6767f12,1,71,72,10,1.0,1.0,0
run-2020-2-28-16-29-31.156668901,AGENT#80b8b132-5a47-11ea-b494-4f9cba0f9097,49,24,73,10,1.0,1.0,0
run-2020-2-28-16-29-31.156668901,AGENT#80e66b86-5a47-11ea-84a5-5312c9e2a2a0,46,27,73,10,1.0,1.0,0
run-2020-2-28-16-29-31.156668901,AGENT#83f4e1c2-5a47-11ea-b747-abb416146e95,1,72,73,10,1.0,1.0,0
run-2020-2-28-16-29-31.156668901,AGENT#83d6a5a4-5a47-11ea-8641-c3f5f35a5113,4,70,74,10,1.0,1.0,0
run-2020-2-28-16-29-31.156668901,AGENT#83e637a8-5a47-11ea-b1bf-231c4723d530,3,71,74,10,1.0,1.0,0
run-2020-2-28-16-29-31.156668901,AGENT#83e63b18-5a47-11ea-9683-9fad75cf6afa,3,71,74,10,1.0,1.0,0
run-2020-2-28-16-29-31.156668901,AGENT#8402f42e-5a47-11ea-9891-e75503d132c1,1,73,74,10,1.0,1.0,0
run-2020-2-28-16-29-31.156668901,AGENT#8402f9f6-5a47-11ea-8404-43657d34a687,1,73,74,10,1.0,1.0,0
run-2020-2-28-16-29-31.156668901,AGENT#80cbe02c-5a47-11ea-b27e-9f70e8fe8d68,50,25,75,10,1.0,1.0,0
run-2020-2-28-16-29-31.156668901,AGENT#82fd14c4-5a47-11ea-a38f-9be430324221,17,58,75,10,1.0,1.0,0
run-2020-2-28-16-29-31.156668901,AGENT#83e63442-5a47-11ea-831c-ff1075ce6875,4,71,75,10,1.0,1.0,0
run-2020-2-28-16-29-31.156668901,AGENT#83f4e58c-5a47-11ea-8fa9-d74b232c8370,3,72,75,10,1.0,1.0,0
run-2020-2-28-16-29-31.156668901,AGENT#8402eb6e-5a47-11ea-bf58-eb245ed6d5c6,2,73,75,10,1.0,1.0,0
run-2020-2-28-16-29-31.156668901,AGENT#8410d7a6-5a47-11ea-ae03-876198d9fa5e,1,74,75,10,1.0,1.0,0
run-2020-2-28-16-29-31.156668901,AGENT#83e63eec-5a47-11ea-88b5-7bd6e1b1b047,5,71,76,10,1.0,1.0,0
run-2020-2-28-16-29-31.156668901,AGENT#8402f712-5a47-11ea-b4c4-1b1c5f62e22f,3,73,76,10,1.0,1.0,0
run-2020-2-28-16-29-31.156668901,AGENT#84315490-5a47-11ea-abaa-7ba24b808fe4,1,75,76,10,1.0,1.0,0
run-2020-2-28-16-29-31.156668901,AGENT#812a68fe-5a47-11ea-b47c-ef17f3975576,46,31,77,10,1.0,1.0,0
run-2020-2-28-16-29-31.156668901,AGENT#844b9e40-5a47-11ea-893a-d7a670cf0be0,1,76,77,10,1.0,1.0,0
run-2020-2-28-16-29-31.156668901,AGENT#813921aa-5a47-11ea-a356-cb52da653547,46,32,78,10,1.0,1.0,0
run-2020-2-28-16-29-31.156668901,AGENT#81392470-5a47-11ea-ae66-a332fe4a3b5b,46,32,78,10,1.0,1.0,0
run-2020-2-28-16-29-31.156668901,AGENT#8145a24a-5a47-11ea-8a1a-47735b29e5bd,45,33,78,10,1.0,1.0,0
run-2020-2-28-16-29-31.156668901,AGENT#82f1733a-5a47-11ea-88cb-cb2cfc262c34,21,57,78,10,1.0,1.0,0
run-2020-2-28-16-29-31.156668901,AGENT#8346597c-5a47-11ea-8383-e775204e6d28,16,62,78,10,1.0,1.0,0
run-2020-2-28-16-29-31.156668901,AGENT#8402ee84-5a47-11ea-ac63-1393de9f05b4,5,73,78,10,1.0,1.0,0
run-2020-2-28-16-29-31.156668901,AGENT#84314b4e-5a47-11ea-a718-0319b142868f,3,75,78,10,1.0,1.0,0
run-2020-2-28-16-29-31.156668901,AGENT#84315742-5a47-11ea-aa20-575aa8f57f9b,3,75,78,10,1.0,1.0,0
run-2020-2-28-16-29-31.156668901,AGENT#8109c694-5a47-11ea-80b1-476a38f6bc4c,50,29,79,10,1.0,1.0,0
run-2020-2-28-16-29-31.156668901,AGENT#8353800c-5a47-11ea-80c1-3fba1fa935d7,16,63,79,10,1.0,1.0,0
run-2020-2-28-16-29-31.156668901,AGENT#8410db48-5a47-11ea-b309-97c027db52bc,5,74,79,10,1.0,1.0,0
run-2020-2-28-16-29-31.156668901,AGENT#84314ec8-5a47-11ea-9b46-cb6918263a11,4,75,79,10,1.0,1.0,0
run-2020-2-28-16-29-31.156668901,AGENT#84643234-5a47-11ea-b699-bbfcacdef8f9,2,77,79,10,1.0,1.0,0
run-2020-2-28-16-29-31.156668901,AGENT#84643978-5a47-11ea-8555-cb47ea817fe5,2,77,79,10,1.0,1.0,0
run-2020-2-28-16-29-31.156668901,AGENT#8475a9ce-5a47-11ea-ae08-df97558b83d6,1,78,79,10,1.0,1.0,0
run-2020-2-28-16-29-31.156668901,AGENT#8145a57e-5a47-11ea-8128-27a8b37a4cbe,47,33,80,10,1.0,1.0,0
run-2020-2-28-16-29-31.156668901,AGENT#843151b6-5a47-11ea-868b-cf4aeb99070c,5,75,80,10,1.0,1.0,0
run-2020-2-28-16-29-31.156668901,AGENT#844ba1ba-5a47-11ea-8d7e-0306de4fa1a6,4,76,80,10,1.0,1.0,0
run-2020-2-28-16-29-31.156668901,AGENT#818138dc-5a47-11ea-a31f-07e1b1bc79f1,45,36,81,10,1.0,1.0,0
run-2020-2-28-16-29-31.156668901,AGENT#8475b4d2-5a47-11ea-ba5f-8bdaab9f440d,3,78,81,10,1.0,1.0,0
run-2020-2-28-16-29-31.156668901,AGENT#848fb95e-5a47-11ea-9d14-576c8ceb1484,1,80,81,10,1.0,1.0,0
run-2020-2-28-16-29-31.156668901,AGENT#815f3890-5a47-11ea-b77d-77e0cbbeea23,48,34,82,10,1.0,1.0,0
run-2020-2-28-16-29-31.156668901,AGENT#836dabbc-5a47-11ea-97e3-bf29ad4e9038,18,64,82,10,1.0,1.0,0
run-2020-2-28-16-29-31.156668901,AGENT#8475a604-5a47-11ea-8dd2-93d9c785ea97,4,78,82,10,1.0,1.0,0
run-2020-2-28-16-29-31.156668901,AGENT#849e7a2a-5a47-11ea-8010-438f62a15313,1,81,82,10,1.0,1.0,0
run-2020-2-28-16-29-31.156668901,AGENT#818d6468-5a47-11ea-855e-e7937d1b6c78,46,37,83,10,1.0,1.0,0
run-2020-2-28-16-29-31.156668901,AGENT#848fb602-5a47-11ea-b744-872d736218dd,3,80,83,10,1.0,1.0,0
run-2020-2-28-16-29-31.156668901,AGENT#84adf8b0-5a47-11ea-b24f-5fe72d643b94,1,82,83,10,1.0,1.0,0
run-2020-2-28-16-29-31.156668901,AGENT#84adfb94-5a47-11ea-9ded-1f5d93c6fa0f,1,82,83,10,1.0,1.0,0
run-2020-2-28-16-29-31.156668901,AGENT#84cf7dfa-5a47-11ea-a412-135da380e395,1,84,85,10,1.0,1.0,0
run-2020-2-28-16-29-31.156668901,AGENT#84e1642a-5a47-11ea-93ea-dbddd536ad8a,1,85,86,10,1.0,1.0,0
run-2020-2-28-16-29-31.156668901,AGENT#81e5a13c-5a47-11ea-8d2d-abfda9a5321e,45,42,87,10,1.0,1.0,0
run-2020-2-28-16-29-31.156668901,AGENT#84adf252-5a47-11ea-9ef8-d374836c6bcb,5,82,87,10,1.0,1.0,0
run-2020-2-28-16-29-31.156668901,AGENT#84cf77ce-5a47-11ea-9c8d-23cc231f4f70,3,84,87,10,1.0,1.0,0
run-2020-2-28-16-29-31.156668901,AGENT#84cf80f2-5a47-11ea-8eae-bb3da18dc20f,3,84,87,10,1.0,1.0,0
run-2020-2-28-16-29-31.156668901,AGENT#81e5a434-5a47-11ea-a0bf-3faa3bc13de7,46,42,88,10,1.0,1.0,0
run-2020-2-28-16-29-31.156668901,AGENT#84be6182-5a47-11ea-a1f2-8b132c3033d1,5,83,88,10,1.0,1.0,0
run-2020-2-28-16-29-31.156668901,AGENT#84cf7422-5a47-11ea-80e7-1f47f6441b07,4,84,88,10,1.0,1.0,0
run-2020-2-28-16-29-31.156668901,AGENT#84e16718-5a47-11ea-93c2-b7a4a5f4e801,3,85,88,10,1.0,1.0,0
run-2020-2-28-16-29-31.156668901,AGENT#85418094-5a47-11ea-9180-5721f48e69a6,1,87,88,10,1.0,1.0,0
run-2020-2-28-16-29-31.156668901,AGENT#81814372-5a47-11ea-8c91-6fd2a4fedc6d,53,36,89,10,1.0,1.0,0
run-2020-2-28-16-29-31.156668901,AGENT#81f29df6-5a47-11ea-809f-a36fff8e4876,46,43,89,10,1.0,1.0,0
run-2020-2-28-16-29-31.156668901,AGENT#8315c168-5a47-11ea-9348-8f43c9fdfa8a,30,59,89,10,1.0,1.0,0
run-2020-2-28-16-29-31.156668901,AGENT#85418774-5a47-11ea-9e6d-ef7a2d4ddc15,2,87,89,10,1.0,1.0,0
run-2020-2-28-16-29-31.156668901,AGENT#85418ada-5a47-11ea-85cc-af43b547cc20,2,87,89,10,1.0,1.0,0
run-2020-2-28-16-29-31.156668901,AGENT#84f4acd8-5a47-11ea-b39e-7b0f6cfaba19,4,86,90,10,1.0,1.0,0
run-2020-2-28-16-29-31.156668901,AGENT#85840d7e-5a47-11ea-b85a-b72e2698809b,2,88,90,10,1.0,1.0,0
run-2020-2-28-16-29-31.156668901,AGENT#85841094-5a47-11ea-97bb-dbba0bde7bde,2,88,90,10,1.0,1.0,0
run-2020-2-28-16-29-31.156668901,AGENT#823380b4-5a47-11ea-a16c-67735cd491ab,45,46,91,10,1.0,1.0,0
run-2020-2-28-16-29-31.156668901,AGENT#820dacb8-5a47-11ea-bb8d-8f705cf704a7,48,44,92,10,1.0,1.0,0
run-2020-2-28-16-29-31.156668901,AGENT#823fec96-5a47-11ea-b516-5bfca22bc9fd,45,47,92,10,1.0,1.0,0
run-2020-2-28-16-29-31.156668901,AGENT#85840a0e-5a47-11ea-ae76-1b2053b3a786,4,88,92,10,1.0,1.0,0
run-2020-2-28-16-29-31.156668901,AGENT#85ecd502-5a47-11ea-9baa-9364426708f6,2,90,92,10,1.0,1.0,0
run-2020-2-28-16-29-31.156668901,AGENT#81e5a6fa-5a47-11ea-a18e-8f8e6344b5ea,51,42,93,10,1.0,1.0,0
run-2020-2-28-16-29-31.156668901,AGENT#824ba0b8-5a47-11ea-bb0a-f325ce4614d9,45,48,93,10,1.0,1.0,0
run-2020-2-28-16-29-31.156668901,AGENT#84adfe6e-5a47-11ea-a06d-e3da6d8fac6f,11,82,93,10,1.0,1.0,0
run-2020-2-28-16-29-31.156668901,AGENT#85ecd250-5a47-11ea-b6eb-d35ae34720c8,3,90,93,10,1.0,1.0,0
run-2020-2-28-16-29-31.156668901,AGENT#86166386-5a47-11ea-8147-67e74f212819,2,91,93,10,1.0,1.0,0
run-2020-2-28-16-29-31.156668901,AGENT#863a49ae-5a47-11ea-b4a9-a3e991003043,2,92,94,10,1.0,1.0,0
run-2020-2-28-16-29-31.156668901,AGENT#861657e2-5a47-11ea-aad3-db42ce3ad879,4,91,95,10,1.0,1.0,0
run-2020-2-28-16-29-31.156668901,AGENT#867f9720-5a47-11ea-b564-b38d0f3e097f,2,93,95,10,1.0,1.0,0
run-2020-2-28-16-29-31.156668901,AGENT#86bfa6bc-5a47-11ea-aaf4-83ce558da469,1,94,95,10,1.0,1.0,0
run-2020-2-28-16-29-31.156668901,AGENT#86bfa946-5a47-11ea-b7f1-bbe713c5c9d9,1,94,95,10,1.0,1.0,0
run-2020-2-28-16-29-31.156668901,AGENT#828a0196-5a47-11ea-8a94-a380f985792f,45,51,96,10,1.0,1.0,0
run-2020-2-28-16-29-31.156668901,AGENT#84f4a94a-5a47-11ea-b701-03b970b81a4d,10,86,96,10,1.0,1.0,0
run-2020-2-28-16-29-31.156668901,AGENT#863a40ee-5a47-11ea-b767-4f1065930473,4,92,96,10,1.0,1.0,0
run-2020-2-28-16-29-31.156668901,AGENT#86bfa37e-5a47-11ea-bb53-ab292bde0c5f,2,94,96,10,1.0,1.0,0
run-2020-2-28-16-29-31.156668901,AGENT#86f9446c-5a47-11ea-8f45-375fd6f95abf,1,95,96,10,1.0,1.0,0
run-2020-2-28-16-29-31.156668901,AGENT#86f94714-5a47-11ea-8659-27810c8c4a18,1,95,96,10,1.0,1.0,0
run-2020-2-28-16-29-31.156668901,AGENT#86f949c6-5a47-11ea-a8de-0bca5e655a63,1,95,96,10,1.0,1.0,0
run-2020-2-28-16-29-31.156668901,AGENT#834662d2-5a47-11ea-95b9-e732425ad766,35,62,97,10,1.0,1.0,0
run-2020-2-28-16-29-31.156668901,AGENT#867f9c2a-5a47-11ea-8fdc-7318e240a330,4,93,97,10,1.0,1.0,0
run-2020-2-28-16-29-31.156668901,AGENT#86bfae5a-5a47-11ea-9ec6-0fba51121a68,3,94,97,10,1.0,1.0,0
run-2020-2-28-16-29-31.156668901,AGENT#87291ec6-5a47-11ea-85f8-df6570125ccc,1,96,97,10,1.0,1.0,0
run-2020-2-28-16-29-31.156668901,AGENT#861660ca-5a47-11ea-a13d-13ee054079a7,7,91,98,10,1.0,1.0,0
run-2020-2-28-16-29-31.156668901,AGENT#867f91da-5a47-11ea-bddf-cb133eb7c13e,5,93,98,10,1.0,1.0,0
run-2020-2-28-16-29-31.156668901,AGENT#82a55374-5a47-11ea-8ada-7f83959409a7,46,53,99,10,1.0,1.0,0
run-2020-2-28-16-29-31.156668901,AGENT#82a55676-5a47-11ea-9411-63bb5e2de7c1,46,53,99,10,1.0,1.0,0
run-2020-2-28-16-29-31.156668901,AGENT#82c0796a-5a47-11ea-98da-639ad290344c,45,54,99,10,1.0,1.0,0
run-2020-2-28-16-29-31.156668901,AGENT#82c08220-5a47-11ea-87bc-2f313b2b6761,45,54,99,10,1.0,1.0,0
run-2020-2-28-16-29-31.156668901,AGENT#8402f15e-5a47-11ea-b2c5-c32cf942c344,26,73,99,10,1.0,1.0,0
run-2020-2-28-16-29-31.156668901,AGENT#8779265a-5a47-11ea-84ed-e3ebca958329,1,98,99,10,1.0,1.0,0
