Tick,AgentsPerTick
1,5
2,6
3,6
4,6
5,7
6,8
7,9
8,9
9,10
10,11
11,12
12,11
13,11
14,12
15,8
16,9
17,8
18,8
19,8
20,9
21,9
22,10
23,8
24,8
25,9
26,10
27,10
28,10
29,9
30,9
31,9
32,9
33,8
34,9
35,10
36,9
37,8
38,9
39,8
40,8
41,9
42,10
43,10
44,9
45,8
46,7
47,8
48,8
49,6
50,7
51,8
52,9
53,10
54,11
55,11
56,10
57,11
58,11
59,10
60,10
61,10
62,10
63,10
64,10
65,11
66,12
67,11
68,11
69,12
70,12
71,11
72,11
73,9
74,10
75,8
76,8
77,8
78,8
79,8
80,9
81,10
82,8
83,8
84,9
85,8
86,8
87,9
88,8
89,7
90,7
91,8
92,6
93,7
94,7
95,6
96,7
97,7
98,8
99,8
100,8
101,7
102,7
103,8
104,8
105,7
106,6
107,6
108,6
109,5
110,6
111,5
112,6
113,6
114,6
115,6
116,5
117,5
118,5
119,5
120,6
121,5
122,5
123,5
124,6
125,7
126,8
127,8
128,8
129,6
130,6
131,6
132,7
133,8
134,8
135,7
136,8
137,9
138,10
139,9
140,8
141,8
142,6
143,6
144,6
145,6
146,6
147,5
148,6
149,7
150,8
151,9
152,10
153,10
154,10
155,11
156,11
157,9
158,7
159,6
160,6
161,6
162,6
163,6
164,6
165,5
166,6
167,6
168,6
169,5
170,5
171,5
172,4
173,5
174,6
175,6
176,7
177,8
178,8
179,7
180,6
181,6
182,6
183,4
184,3
185,4
186,4
187,3
188,4
189,4
190,5
191,6
192,6
193,7
194,8
195,7
196,7
197,7
198,7
199,6
200,6
