RunID,AgentID,Tick,Created,Ressources,Reputation,Ability,Que,Action
run-2020-7-14-14-26-54.234071969,AGENT3a6a56f6-c5de-11ea-8ee9-bbb02acf2f12,107,106,9,1.0,0.6,7,[]
run-2020-7-14-14-26-54.234071969,AGENT3a6a56f6-c5de-11ea-8ee9-bbb02acf2f12,110,106,5,1.0,0.6,4,[]
run-2020-7-14-14-26-54.234071969,AGENT3a6a56f6-c5de-11ea-8ee9-bbb02acf2f12,111,106,3,1.0,0.6,3,[]
run-2020-7-14-14-26-54.234071969,AGENT3a6a56f6-c5de-11ea-8ee9-bbb02acf2f12,112,106,2,1.0,0.6,2,[]
run-2020-7-14-14-26-54.234071969,AGENT3a6a56f6-c5de-11ea-8ee9-bbb02acf2f12,114,106,9,1.0,0.6,0,[]
run-2020-7-14-14-26-54.234071969,AGENT3a6a56f6-c5de-11ea-8ee9-bbb02acf2f12,116,106,7,1.0,0.6,3,[]
run-2020-7-14-14-26-54.234071969,AGENT3a6a56f6-c5de-11ea-8ee9-bbb02acf2f12,117,106,6,1.0,0.6,2,[]
run-2020-7-14-14-26-54.234071969,AGENT3a6a56f6-c5de-11ea-8ee9-bbb02acf2f12,118,106,5,1.0,0.6,1,[]
run-2020-7-14-14-26-54.234071969,AGENT3a6a56f6-c5de-11ea-8ee9-bbb02acf2f12,119,106,3,1.0,0.6,0,[]
run-2020-7-14-14-26-54.234071969,AGENT3a6a56f6-c5de-11ea-8ee9-bbb02acf2f12,121,106,2,1.0,0.6,3,[]
