RunID,AgentID,Tick,Created,Ressources,Reputation,Ability,Que,Action
run-2020-7-14-14-26-54.234071969,AGENT25f6be6c-c5de-11ea-97c9-73fb02b7a22f,101,100,9,1.0,0.9,0,[]
run-2020-7-14-14-26-54.234071969,AGENT25f6be6c-c5de-11ea-97c9-73fb02b7a22f,103,100,7,1.0,0.9,0,[]
