RunID,AgentID,Tick,Created,Ressources,Reputation,Ability,Que,Action
run-2020-7-14-14-26-54.234071969,AGENT3a3180b0-c5de-11ea-b88d-b334712341b3,106,105,9,1.0,0.4,0,[]
run-2020-7-14-14-26-54.234071969,AGENT3a3180b0-c5de-11ea-b88d-b334712341b3,108,105,7,1.0,0.4,0,[]
run-2020-7-14-14-26-54.234071969,AGENT3a3180b0-c5de-11ea-b88d-b334712341b3,110,105,6,1.0,0.4,0,[]
run-2020-7-14-14-26-54.234071969,AGENT3a3180b0-c5de-11ea-b88d-b334712341b3,112,105,5,1.0,0.4,0,[]
run-2020-7-14-14-26-54.234071969,AGENT3a3180b0-c5de-11ea-b88d-b334712341b3,114,105,3,1.0,0.4,0,[]
run-2020-7-14-14-26-54.234071969,AGENT3a3180b0-c5de-11ea-b88d-b334712341b3,116,105,2,1.0,0.4,0,[]
run-2020-7-14-14-26-54.234071969,AGENT3a3180b0-c5de-11ea-b88d-b334712341b3,118,105,1,1.0,0.4,0,[]
run-2020-7-14-14-26-54.234071969,AGENT3a3180b0-c5de-11ea-b88d-b334712341b3,121,105,18,1.0,0.4,0,[]
