RunID,AgentID,Tick,Created,Ressources,Reputation,Ability,Que,Action
run-2020-7-14-14-26-54.234071969,AGENT307ec294-c5de-11ea-9db8-f336667f43ea,104,103,9,1.0,0.2,0,[]
run-2020-7-14-14-26-54.234071969,AGENT307ec294-c5de-11ea-9db8-f336667f43ea,106,103,8,1.0,0.2,0,[]
run-2020-7-14-14-26-54.234071969,AGENT307ec294-c5de-11ea-9db8-f336667f43ea,108,103,6,1.0,0.2,0,[]
run-2020-7-14-14-26-54.234071969,AGENT307ec294-c5de-11ea-9db8-f336667f43ea,110,103,5,1.0,0.2,0,[]
run-2020-7-14-14-26-54.234071969,AGENT307ec294-c5de-11ea-9db8-f336667f43ea,112,103,4,1.0,0.2,0,[]
run-2020-7-14-14-26-54.234071969,AGENT307ec294-c5de-11ea-9db8-f336667f43ea,114,103,2,1.0,0.2,0,[]
run-2020-7-14-14-26-54.234071969,AGENT307ec294-c5de-11ea-9db8-f336667f43ea,117,103,16,1.0,0.2,0,[]
run-2020-7-14-14-26-54.234071969,AGENT307ec294-c5de-11ea-9db8-f336667f43ea,119,103,14,1.0,0.2,0,[]
run-2020-7-14-14-26-54.234071969,AGENT307ec294-c5de-11ea-9db8-f336667f43ea,121,103,13,1.0,0.2,0,[]
