RunID,Agent,Age,Created,Inactive,Resources,Reputation,Ability,Que
run-2020-2-18-13-55-59.330398082,AGENT#65d0d5be-5256-11ea-b22c-3f6fe42ef936,0,0,0,10,1.0,1.0,0
run-2020-2-18-13-55-59.330398082,AGENT#65d0e086-5256-11ea-a5ba-e7d1309def3c,0,0,0,10,1.0,1.0,0
run-2020-2-18-13-55-59.330398082,AGENT#65d0ec66-5256-11ea-90a0-5749fc7df373,0,0,0,10,1.0,1.0,0
run-2020-2-18-13-55-59.330398082,AGENT#65d0d1c2-5256-11ea-89a1-e7e91ce923d1,1,0,1,10,1.0,1.0,0
run-2020-2-18-13-55-59.330398082,AGENT#65d0d8e8-5256-11ea-8b85-d7b534c09c81,1,0,1,10,1.0,1.0,0
run-2020-2-18-13-55-59.330398082,AGENT#65d1363a-5256-11ea-a045-df7ad7edd6e9,1,0,1,10,1.0,1.0,0
run-2020-2-18-13-55-59.330398082,AGENT#65d0e978-5256-11ea-8592-c348deb686be,2,0,2,10,1.0,1.0,0
run-2020-2-18-13-55-59.330398082,AGENT#65d132e8-5256-11ea-9f9e-638f6ca28edd,2,0,2,10,1.0,1.0,0
run-2020-2-18-13-55-59.330398082,AGENT#65d13c5c-5256-11ea-9b88-67fd3c1bd024,2,0,2,10,1.0,1.0,0
run-2020-2-18-13-55-59.330398082,AGENT#65e2fc62-5256-11ea-9349-9bce982a5844,1,1,2,10,1.0,1.0,0
run-2020-2-18-13-55-59.330398082,AGENT#65e704ce-5256-11ea-8a97-6fb88721775c,1,2,3,10,1.0,1.0,0
run-2020-2-18-13-55-59.330398082,AGENT#65d0e3a6-5256-11ea-b7ad-7f124c2ab40a,4,0,4,10,1.0,1.0,0
run-2020-2-18-13-55-59.330398082,AGENT#65d0e68a-5256-11ea-83bc-fb86374430e2,4,0,4,10,1.0,1.0,0
run-2020-2-18-13-55-59.330398082,AGENT#65e2f2ee-5256-11ea-9d3a-3f0bb8cc41ca,3,1,4,10,1.0,1.0,0
run-2020-2-18-13-55-59.330398082,AGENT#65e2f960-5256-11ea-bf22-fba6a9f380bb,3,1,4,10,1.0,1.0,0
run-2020-2-18-13-55-59.330398082,AGENT#65e30234-5256-11ea-8b06-b3ada9309034,3,1,4,10,1.0,1.0,0
run-2020-2-18-13-55-59.330398082,AGENT#65e6f5a6-5256-11ea-b2cd-ef622a9ddd0c,2,2,4,10,1.0,1.0,0
run-2020-2-18-13-55-59.330398082,AGENT#65e6f8a8-5256-11ea-9a3a-27d2199e9582,2,2,4,10,1.0,1.0,0
run-2020-2-18-13-55-59.330398082,AGENT#65e701fe-5256-11ea-8acb-1768823be1d0,2,2,4,10,1.0,1.0,0
run-2020-2-18-13-55-59.330398082,AGENT#65e7749a-5256-11ea-9718-976a71d0ffca,1,3,4,10,1.0,1.0,0
run-2020-2-18-13-55-59.330398082,AGENT#65e77ac6-5256-11ea-9622-7bf731f7ba65,1,3,4,10,1.0,1.0,0
run-2020-2-18-13-55-59.330398082,AGENT#65d0dcc6-5256-11ea-ac20-d3d0c307acd1,5,0,5,10,1.0,1.0,0
run-2020-2-18-13-55-59.330398082,AGENT#65e2ff46-5256-11ea-ad70-2738498c5843,4,1,5,10,1.0,1.0,0
run-2020-2-18-13-55-59.330398082,AGENT#65e777c4-5256-11ea-926b-bf6392f4af07,2,3,5,10,1.0,1.0,0
run-2020-2-18-13-55-59.330398082,AGENT#65e2f636-5256-11ea-a438-979fdb01ca77,5,1,6,10,1.0,1.0,0
run-2020-2-18-13-55-59.330398082,AGENT#65e77df0-5256-11ea-905c-ef58ab09bfbe,3,3,6,10,1.0,1.0,0
run-2020-2-18-13-55-59.330398082,AGENT#65e6eee4-5256-11ea-b654-c7d12d0dc68b,5,2,7,10,1.0,1.0,0
run-2020-2-18-13-55-59.330398082,AGENT#65e85c3e-5256-11ea-a0b9-f34a375d1033,2,5,7,10,1.0,1.0,0
run-2020-2-18-13-55-59.330398082,AGENT#65e85f68-5256-11ea-b476-e3d3e6cafa59,2,5,7,10,1.0,1.0,0
run-2020-2-18-13-55-59.330398082,AGENT#65e7f442-5256-11ea-98b7-bb110c482a36,5,4,9,10,1.0,1.0,0
run-2020-2-18-13-55-59.330398082,AGENT#65ea94ea-5256-11ea-8071-0b5c1083046e,1,10,11,10,1.0,1.0,0
run-2020-2-18-13-55-59.330398082,AGENT#65e950b2-5256-11ea-bdc3-df588468ba68,5,7,12,10,1.0,1.0,0
run-2020-2-18-13-55-59.330398082,AGENT#65e9bafc-5256-11ea-bf04-63a184740a06,4,8,12,10,1.0,1.0,0
run-2020-2-18-13-55-59.330398082,AGENT#65e9bdf4-5256-11ea-83ff-2f53365ab92a,4,8,12,10,1.0,1.0,0
run-2020-2-18-13-55-59.330398082,AGENT#65ea2352-5256-11ea-8bc1-c3ca8ca08939,3,9,12,10,1.0,1.0,0
run-2020-2-18-13-55-59.330398082,AGENT#65ea2690-5256-11ea-80aa-2fbd5d554372,3,9,12,10,1.0,1.0,0
run-2020-2-18-13-55-59.330398082,AGENT#65ea2c80-5256-11ea-8280-6b06377a3497,4,9,13,10,1.0,1.0,0
run-2020-2-18-13-55-59.330398082,AGENT#65eb01e6-5256-11ea-955b-3be22e2b8fe2,2,11,13,10,1.0,1.0,0
run-2020-2-18-13-55-59.330398082,AGENT#65eb0826-5256-11ea-8ad9-8bc9a0a4693b,2,11,13,10,1.0,1.0,0
run-2020-2-18-13-55-59.330398082,AGENT#65eb1078-5256-11ea-843c-dfdfe62ce168,2,11,13,10,1.0,1.0,0
run-2020-2-18-13-55-59.330398082,AGENT#65eb9b60-5256-11ea-9516-5b5b45179d05,1,12,13,10,1.0,1.0,0
run-2020-2-18-13-55-59.330398082,AGENT#65e7079e-5256-11ea-aadf-f7dd96d77557,12,2,14,10,1.0,1.0,0
run-2020-2-18-13-55-59.330398082,AGENT#65eb0510-5256-11ea-bc9e-0f004f4dd811,3,11,14,10,1.0,1.0,0
run-2020-2-18-13-55-59.330398082,AGENT#65eb0aec-5256-11ea-999b-3fbb17f9ad46,3,11,14,10,1.0,1.0,0
run-2020-2-18-13-55-59.330398082,AGENT#65eb0da8-5256-11ea-8fa1-6bde22028497,3,11,14,10,1.0,1.0,0
run-2020-2-18-13-55-59.330398082,AGENT#65eb9548-5256-11ea-826c-6f055e2c0807,2,12,14,10,1.0,1.0,0
run-2020-2-18-13-55-59.330398082,AGENT#65ec29e0-5256-11ea-8426-5beb28e10910,1,13,14,10,1.0,1.0,0
run-2020-2-18-13-55-59.330398082,AGENT#65eb985e-5256-11ea-b3c4-2ba1faa4d2e1,3,12,15,10,1.0,1.0,0
run-2020-2-18-13-55-59.330398082,AGENT#65ec2d82-5256-11ea-932a-07671388c94c,2,13,15,10,1.0,1.0,0
run-2020-2-18-13-55-59.330398082,AGENT#65ec3138-5256-11ea-9e9f-b356cdc46757,2,13,15,10,1.0,1.0,0
run-2020-2-18-13-55-59.330398082,AGENT#65ed26b0-5256-11ea-9428-3fb97fd6ab9b,1,15,16,10,1.0,1.0,0
run-2020-2-18-13-55-59.330398082,AGENT#65ed2c50-5256-11ea-bf12-dbc33fee70d3,1,15,16,10,1.0,1.0,0
run-2020-2-18-13-55-59.330398082,AGENT#65ed20c0-5256-11ea-bebe-7fb8fe87f32b,2,15,17,10,1.0,1.0,0
run-2020-2-18-13-55-59.330398082,AGENT#65ed2958-5256-11ea-b433-1f5da7eb33be,2,15,17,10,1.0,1.0,0
run-2020-2-18-13-55-59.330398082,AGENT#65ecb518-5256-11ea-8f62-b7e4879d3074,4,14,18,10,1.0,1.0,0
run-2020-2-18-13-55-59.330398082,AGENT#65edaa90-5256-11ea-ba7b-27c6205594d6,2,16,18,10,1.0,1.0,0
run-2020-2-18-13-55-59.330398082,AGENT#65ee2934-5256-11ea-97f5-2b946321ddd8,1,17,18,10,1.0,1.0,0
run-2020-2-18-13-55-59.330398082,AGENT#65eda7e8-5256-11ea-8518-1f6bf98a1627,3,16,19,10,1.0,1.0,0
run-2020-2-18-13-55-59.330398082,AGENT#65eebd04-5256-11ea-94b0-83359c18aa15,1,18,19,10,1.0,1.0,0
run-2020-2-18-13-55-59.330398082,AGENT#65ed23f4-5256-11ea-b224-efa71620c9c3,5,15,20,10,1.0,1.0,0
run-2020-2-18-13-55-59.330398082,AGENT#65ed9f5a-5256-11ea-8c1e-13bd8c7c8819,4,16,20,10,1.0,1.0,0
run-2020-2-18-13-55-59.330398082,AGENT#65eda25c-5256-11ea-99ee-d77a7934b545,4,16,20,10,1.0,1.0,0
run-2020-2-18-13-55-59.330398082,AGENT#65ee263c-5256-11ea-945a-8fe5a5d3ab36,3,17,20,10,1.0,1.0,0
run-2020-2-18-13-55-59.330398082,AGENT#65eeba02-5256-11ea-9574-6f82dba13765,2,18,20,10,1.0,1.0,0
run-2020-2-18-13-55-59.330398082,AGENT#65eec254-5256-11ea-bab8-539f9cb843c7,2,18,20,10,1.0,1.0,0
run-2020-2-18-13-55-59.330398082,AGENT#65ef3c34-5256-11ea-91ae-574545f7b505,1,19,20,10,1.0,1.0,0
run-2020-2-18-13-55-59.330398082,AGENT#65ef3f0e-5256-11ea-9f1b-ff1d62f4d761,1,19,20,10,1.0,1.0,0
run-2020-2-18-13-55-59.330398082,AGENT#65efbcc2-5256-11ea-927f-b3fba122b59c,1,20,21,10,1.0,1.0,0
run-2020-2-18-13-55-59.330398082,AGENT#65efbfb0-5256-11ea-9fe5-b33021d1d6ff,1,20,21,10,1.0,1.0,0
run-2020-2-18-13-55-59.330398082,AGENT#65ef41ca-5256-11ea-8121-afd03c972951,3,19,22,10,1.0,1.0,0
run-2020-2-18-13-55-59.330398082,AGENT#65efc762-5256-11ea-a0d6-8f22ff05a899,2,20,22,10,1.0,1.0,0
run-2020-2-18-13-55-59.330398082,AGENT#65f046ba-5256-11ea-8e5c-b3d232afac8a,1,21,22,10,1.0,1.0,0
run-2020-2-18-13-55-59.330398082,AGENT#65e6feca-5256-11ea-9ed9-3b904fe5c553,22,2,24,10,1.0,1.0,0
run-2020-2-18-13-55-59.330398082,AGENT#65f04c50-5256-11ea-9403-6323e2c31af4,3,21,24,10,1.0,1.0,0
run-2020-2-18-13-55-59.330398082,AGENT#65f13e30-5256-11ea-93a9-a3e8b8f6885a,1,23,24,10,1.0,1.0,0
run-2020-2-18-13-55-59.330398082,AGENT#65f140c4-5256-11ea-8e4e-9b1aea56d6c4,1,23,24,10,1.0,1.0,0
run-2020-2-18-13-55-59.330398082,AGENT#65f145ce-5256-11ea-bff7-bfb79c842c9e,1,23,24,10,1.0,1.0,0
run-2020-2-18-13-55-59.330398082,AGENT#65f14858-5256-11ea-b1d3-933cd288dac8,1,23,24,10,1.0,1.0,0
run-2020-2-18-13-55-59.330398082,AGENT#65f14358-5256-11ea-995c-b311a0bdfe40,2,23,25,10,1.0,1.0,0
run-2020-2-18-13-55-59.330398082,AGENT#65f21512-5256-11ea-83be-73c88d9014e8,1,24,25,10,1.0,1.0,0
run-2020-2-18-13-55-59.330398082,AGENT#65f21c4c-5256-11ea-8e5a-1774237a6543,1,24,25,10,1.0,1.0,0
run-2020-2-18-13-55-59.330398082,AGENT#65f2c02a-5256-11ea-8044-db4670d466eb,1,25,26,10,1.0,1.0,0
run-2020-2-18-13-55-59.330398082,AGENT#65edad42-5256-11ea-9f01-f7c071d5e2b2,11,16,27,10,1.0,1.0,0
run-2020-2-18-13-55-59.330398082,AGENT#65f20270-5256-11ea-9185-7b0142291b62,3,24,27,10,1.0,1.0,0
run-2020-2-18-13-55-59.330398082,AGENT#65f13b56-5256-11ea-a754-6f97810916e0,5,23,28,10,1.0,1.0,0
run-2020-2-18-13-55-59.330398082,AGENT#65f20a36-5256-11ea-b375-a3a8f0ee9081,4,24,28,10,1.0,1.0,0
run-2020-2-18-13-55-59.330398082,AGENT#65f21184-5256-11ea-b248-7730a1b25d52,4,24,28,10,1.0,1.0,0
run-2020-2-18-13-55-59.330398082,AGENT#65f2c39a-5256-11ea-8d5f-1b8ecc30b2cd,3,25,28,10,1.0,1.0,0
run-2020-2-18-13-55-59.330398082,AGENT#65f2cd72-5256-11ea-8a46-1b4f042fba64,3,25,28,10,1.0,1.0,0
run-2020-2-18-13-55-59.330398082,AGENT#65f3eb6c-5256-11ea-aa02-73f114b7dcac,2,27,29,10,1.0,1.0,0
run-2020-2-18-13-55-59.330398082,AGENT#65f47744-5256-11ea-a886-a3ed775ad3e3,1,28,29,10,1.0,1.0,0
run-2020-2-18-13-55-59.330398082,AGENT#65f47c58-5256-11ea-ac06-c3d267a793fb,1,28,29,10,1.0,1.0,0
run-2020-2-18-13-55-59.330398082,AGENT#65f2c6ba-5256-11ea-b67d-9bcd9b44bcd3,5,25,30,10,1.0,1.0,0
run-2020-2-18-13-55-59.330398082,AGENT#65f479ce-5256-11ea-8052-bff08b9caac5,3,28,31,10,1.0,1.0,0
run-2020-2-18-13-55-59.330398082,AGENT#65f50114-5256-11ea-877c-0f57e64b033f,2,29,31,10,1.0,1.0,0
run-2020-2-18-13-55-59.330398082,AGENT#65f503c6-5256-11ea-ba28-4f12ee240bd0,2,29,31,10,1.0,1.0,0
run-2020-2-18-13-55-59.330398082,AGENT#65f59c28-5256-11ea-8c67-ffc1c27eabf4,2,30,32,10,1.0,1.0,0
run-2020-2-18-13-55-59.330398082,AGENT#65f5a146-5256-11ea-83d5-9b99c05a6345,2,30,32,10,1.0,1.0,0
run-2020-2-18-13-55-59.330398082,AGENT#65f62fd0-5256-11ea-828e-0765c2412a7d,2,31,33,10,1.0,1.0,0
run-2020-2-18-13-55-59.330398082,AGENT#65f6b784-5256-11ea-81ef-d7158ff529e5,1,32,33,10,1.0,1.0,0
run-2020-2-18-13-55-59.330398082,AGENT#65e9b7f0-5256-11ea-ad78-dbfcf2baafd2,26,8,34,10,1.0,1.0,0
run-2020-2-18-13-55-59.330398082,AGENT#65f6ba18-5256-11ea-b68f-5b1a7f59be92,2,32,34,10,1.0,1.0,0
run-2020-2-18-13-55-59.330398082,AGENT#65f6bed2-5256-11ea-b05e-5396f413ec6f,2,32,34,10,1.0,1.0,0
run-2020-2-18-13-55-59.330398082,AGENT#65f74b36-5256-11ea-90e2-33b73675fb0d,1,33,34,10,1.0,1.0,0
run-2020-2-18-13-55-59.330398082,AGENT#65f62d00-5256-11ea-923a-2b06fcba4cc5,4,31,35,10,1.0,1.0,0
run-2020-2-18-13-55-59.330398082,AGENT#65f6b4f0-5256-11ea-9042-dfad4ae09a42,3,32,35,10,1.0,1.0,0
run-2020-2-18-13-55-59.330398082,AGENT#65f6bc66-5256-11ea-ad3b-df28cfcaa1d1,3,32,35,10,1.0,1.0,0
run-2020-2-18-13-55-59.330398082,AGENT#65f74dac-5256-11ea-a911-cfd4356c20e2,2,33,35,10,1.0,1.0,0
run-2020-2-18-13-55-59.330398082,AGENT#65f7ee10-5256-11ea-9bbb-c309c82198d1,1,34,35,10,1.0,1.0,0
run-2020-2-18-13-55-59.330398082,AGENT#65efc24e-5256-11ea-b76a-1fb6adae652c,16,20,36,10,1.0,1.0,0
run-2020-2-18-13-55-59.330398082,AGENT#65f75004-5256-11ea-b7b6-2fb0d65e881b,3,33,36,10,1.0,1.0,0
run-2020-2-18-13-55-59.330398082,AGENT#65f754d2-5256-11ea-9f8c-b79078f9dbff,3,33,36,10,1.0,1.0,0
run-2020-2-18-13-55-59.330398082,AGENT#65f7f086-5256-11ea-b06c-27cb83d7d77a,2,34,36,10,1.0,1.0,0
run-2020-2-18-13-55-59.330398082,AGENT#65f8937e-5256-11ea-b5c5-17dcb3c7eec4,2,35,37,10,1.0,1.0,0
run-2020-2-18-13-55-59.330398082,AGENT#65f9346e-5256-11ea-b8a2-b301062da1d2,1,36,37,10,1.0,1.0,0
run-2020-2-18-13-55-59.330398082,AGENT#65f75270-5256-11ea-817b-afa8be2b20d9,5,33,38,10,1.0,1.0,0
run-2020-2-18-13-55-59.330398082,AGENT#65f7e8f2-5256-11ea-99ec-239e556b411b,4,34,38,10,1.0,1.0,0
run-2020-2-18-13-55-59.330398082,AGENT#65ea2992-5256-11ea-9e8a-dbf2cecf8a14,30,9,39,10,1.0,1.0,0
run-2020-2-18-13-55-59.330398082,AGENT#65f936ee-5256-11ea-bec8-dfb1757da343,3,36,39,10,1.0,1.0,0
run-2020-2-18-13-55-59.330398082,AGENT#65f9da04-5256-11ea-bc69-a32bae8b93c8,2,37,39,10,1.0,1.0,0
run-2020-2-18-13-55-59.330398082,AGENT#65f8961c-5256-11ea-8afd-935088e9f38c,5,35,40,10,1.0,1.0,0
run-2020-2-18-13-55-59.330398082,AGENT#65f931c6-5256-11ea-9c23-23f14e1bf687,4,36,40,10,1.0,1.0,0
run-2020-2-18-13-55-59.330398082,AGENT#65f93b9e-5256-11ea-9f3b-8b3b959bb1be,4,36,40,10,1.0,1.0,0
run-2020-2-18-13-55-59.330398082,AGENT#65fb163a-5256-11ea-97f9-8b1e867b5b45,1,39,40,10,1.0,1.0,0
run-2020-2-18-13-55-59.330398082,AGENT#65fb0a8c-5256-11ea-9f69-bf00f7b76755,2,39,41,10,1.0,1.0,0
run-2020-2-18-13-55-59.330398082,AGENT#65fc0360-5256-11ea-8f8e-5b118705ef60,1,40,41,10,1.0,1.0,0
run-2020-2-18-13-55-59.330398082,AGENT#65fc0b6c-5256-11ea-a788-63f2054173ec,1,40,41,10,1.0,1.0,0
run-2020-2-18-13-55-59.330398082,AGENT#65fc0784-5256-11ea-9500-b36d6b4624cf,2,40,42,10,1.0,1.0,0
run-2020-2-18-13-55-59.330398082,AGENT#65fd0d82-5256-11ea-9e5b-c3eb577bdbbb,1,41,42,10,1.0,1.0,0
run-2020-2-18-13-55-59.330398082,AGENT#65f89dba-5256-11ea-b6d8-4b63e2e3b157,8,35,43,10,1.0,1.0,0
run-2020-2-18-13-55-59.330398082,AGENT#65fa6fdc-5256-11ea-9436-83b54112cbc2,5,38,43,10,1.0,1.0,0
run-2020-2-18-13-55-59.330398082,AGENT#65fec53c-5256-11ea-ac04-1fe8d3fbfb81,1,43,44,10,1.0,1.0,0
run-2020-2-18-13-55-59.330398082,AGENT#65d0ef5e-5256-11ea-9d18-0b9f7277a915,45,0,45,10,1.0,1.0,0
run-2020-2-18-13-55-59.330398082,AGENT#65d1395a-5256-11ea-8b26-abeef33c35ac,45,0,45,10,1.0,1.0,0
run-2020-2-18-13-55-59.330398082,AGENT#65e6fbaa-5256-11ea-ac58-8b2917926f74,43,2,45,10,1.0,1.0,0
run-2020-2-18-13-55-59.330398082,AGENT#65f59e9e-5256-11ea-9da3-7f35dd183614,16,30,46,10,1.0,1.0,0
run-2020-2-18-13-55-59.330398082,AGENT#65fd0990-5256-11ea-b82a-f36b33b2838b,5,41,46,10,1.0,1.0,0
run-2020-2-18-13-55-59.330398082,AGENT#65ffbb36-5256-11ea-a50b-e7198a160766,2,44,46,10,1.0,1.0,0
run-2020-2-18-13-55-59.330398082,AGENT#65ffc32e-5256-11ea-ad7a-b7cb9d37e668,2,44,46,10,1.0,1.0,0
run-2020-2-18-13-55-59.330398082,AGENT#65ed2f02-5256-11ea-bbd9-438ab25e868d,32,15,47,10,1.0,1.0,0
run-2020-2-18-13-55-59.330398082,AGENT#66009da8-5256-11ea-8508-2332a4313030,2,45,47,10,1.0,1.0,0
run-2020-2-18-13-55-59.330398082,AGENT#6600a4e2-5256-11ea-82f4-e3e6cbcb58dd,2,45,47,10,1.0,1.0,0
run-2020-2-18-13-55-59.330398082,AGENT#6601b0a8-5256-11ea-ab78-6f108ba7993c,1,46,47,10,1.0,1.0,0
run-2020-2-18-13-55-59.330398082,AGENT#6601b490-5256-11ea-b904-2f5290a8cc81,1,46,47,10,1.0,1.0,0
run-2020-2-18-13-55-59.330398082,AGENT#6601bb70-5256-11ea-9a9a-9f3bfd07ce54,1,46,47,10,1.0,1.0,0
run-2020-2-18-13-55-59.330398082,AGENT#65e6f290-5256-11ea-a483-3f04aeac5b57,46,2,48,10,1.0,1.0,0
run-2020-2-18-13-55-59.330398082,AGENT#65ec34c6-5256-11ea-9a61-4b3710585240,35,13,48,10,1.0,1.0,0
run-2020-2-18-13-55-59.330398082,AGENT#65f6323c-5256-11ea-bbb1-679c68d9fb3f,17,31,48,10,1.0,1.0,0
run-2020-2-18-13-55-59.330398082,AGENT#6600a172-5256-11ea-a33a-734a24283ba1,3,45,48,10,1.0,1.0,0
run-2020-2-18-13-55-59.330398082,AGENT#6602aca6-5256-11ea-be0e-6f25aceb625c,1,47,48,10,1.0,1.0,0
run-2020-2-18-13-55-59.330398082,AGENT#6602b3e0-5256-11ea-b66b-1bc18334e478,1,47,48,10,1.0,1.0,0
run-2020-2-18-13-55-59.330398082,AGENT#6602ba70-5256-11ea-b8ac-ff1433c12312,3,47,50,10,1.0,1.0,0
run-2020-2-18-13-55-59.330398082,AGENT#6602b070-5256-11ea-93b1-0b8c61058eb9,4,47,51,10,1.0,1.0,0
run-2020-2-18-13-55-59.330398082,AGENT#66057576-5256-11ea-9acf-d7601c930ad8,1,50,51,10,1.0,1.0,0
run-2020-2-18-13-55-59.330398082,AGENT#66057bb6-5256-11ea-88bd-23c8f5622107,1,50,51,10,1.0,1.0,0
run-2020-2-18-13-55-59.330398082,AGENT#66057ea4-5256-11ea-add3-9b9fdf52a15c,1,50,51,10,1.0,1.0,0
run-2020-2-18-13-55-59.330398082,AGENT#660578aa-5256-11ea-a38f-3b65a5acf7b3,2,50,52,10,1.0,1.0,0
run-2020-2-18-13-55-59.330398082,AGENT#66067a3e-5256-11ea-a5ee-6feadf2a6cab,1,51,52,10,1.0,1.0,0
run-2020-2-18-13-55-59.330398082,AGENT#65e9b458-5256-11ea-a8b8-1bea99471ab3,45,8,53,10,1.0,1.0,0
run-2020-2-18-13-55-59.330398082,AGENT#65fb12a2-5256-11ea-9d6d-8fa3bb25430f,14,39,53,10,1.0,1.0,0
run-2020-2-18-13-55-59.330398082,AGENT#66048ca6-5256-11ea-8f6b-db57712633b8,4,49,53,10,1.0,1.0,0
run-2020-2-18-13-55-59.330398082,AGENT#66083482-5256-11ea-88ce-53a77a0e953a,1,52,53,10,1.0,1.0,0
run-2020-2-18-13-55-59.330398082,AGENT#6604890e-5256-11ea-9d7c-b35d8f9d061b,5,49,54,10,1.0,1.0,0
run-2020-2-18-13-55-59.330398082,AGENT#66067dae-5256-11ea-9bb5-9b99eb82a7fb,3,51,54,10,1.0,1.0,0
run-2020-2-18-13-55-59.330398082,AGENT#65e9c146-5256-11ea-a267-3b2110edcdc4,47,8,55,10,1.0,1.0,0
run-2020-2-18-13-55-59.330398082,AGENT#66056e5a-5256-11ea-9789-cb8ff2fb3e29,5,50,55,10,1.0,1.0,0
run-2020-2-18-13-55-59.330398082,AGENT#66092658-5256-11ea-885c-eb003d7abbcb,2,53,55,10,1.0,1.0,0
run-2020-2-18-13-55-59.330398082,AGENT#66083e00-5256-11ea-b5a2-8bdb6e811e01,4,52,56,10,1.0,1.0,0
run-2020-2-18-13-55-59.330398082,AGENT#66092bf8-5256-11ea-ad16-bb5cfb489568,3,53,56,10,1.0,1.0,0
run-2020-2-18-13-55-59.330398082,AGENT#660a19aa-5256-11ea-b500-bbcc8878c039,2,54,56,10,1.0,1.0,0
run-2020-2-18-13-55-59.330398082,AGENT#660a1c98-5256-11ea-b9da-4b7b6c839c14,2,54,56,10,1.0,1.0,0
run-2020-2-18-13-55-59.330398082,AGENT#660b117a-5256-11ea-8405-83af834c328d,1,55,56,10,1.0,1.0,0
run-2020-2-18-13-55-59.330398082,AGENT#66083810-5256-11ea-9250-1724c7cf5033,5,52,57,10,1.0,1.0,0
run-2020-2-18-13-55-59.330398082,AGENT#66091b04-5256-11ea-94a3-1fb0df24a7ce,4,53,57,10,1.0,1.0,0
run-2020-2-18-13-55-59.330398082,AGENT#66092392-5256-11ea-bde3-cbd71b72f184,4,53,57,10,1.0,1.0,0
run-2020-2-18-13-55-59.330398082,AGENT#660b14a4-5256-11ea-8cfc-f37f9b3e1dc2,2,55,57,10,1.0,1.0,0
run-2020-2-18-13-55-59.330398082,AGENT#65ec2634-5256-11ea-b245-53508dc62769,45,13,58,10,1.0,1.0,0
run-2020-2-18-13-55-59.330398082,AGENT#660cfd82-5256-11ea-b607-d7909ed37680,1,57,58,10,1.0,1.0,0
run-2020-2-18-13-55-59.330398082,AGENT#65ec21fc-5256-11ea-aac7-cf0ddf6c21b3,46,13,59,10,1.0,1.0,0
run-2020-2-18-13-55-59.330398082,AGENT#660b17a6-5256-11ea-9d24-9fba940248b8,4,55,59,10,1.0,1.0,0
run-2020-2-18-13-55-59.330398082,AGENT#660c1868-5256-11ea-9356-9b439a56323e,3,56,59,10,1.0,1.0,0
run-2020-2-18-13-55-59.330398082,AGENT#660cf508-5256-11ea-a855-13f8f14cadfd,2,57,59,10,1.0,1.0,0
run-2020-2-18-13-55-59.330398082,AGENT#660cf80a-5256-11ea-90fa-af31db19c454,2,57,59,10,1.0,1.0,0
run-2020-2-18-13-55-59.330398082,AGENT#660dda86-5256-11ea-9a0e-1b3965cc81b4,1,58,59,10,1.0,1.0,0
run-2020-2-18-13-55-59.330398082,AGENT#660de292-5256-11ea-8d57-f3303ce2b213,2,58,60,10,1.0,1.0,0
run-2020-2-18-13-55-59.330398082,AGENT#65eda522-5256-11ea-a2f8-5731be9bd7fb,45,16,61,10,1.0,1.0,0
run-2020-2-18-13-55-59.330398082,AGENT#65ee2056-5256-11ea-ac2d-57923450a6ab,45,17,62,10,1.0,1.0,0
run-2020-2-18-13-55-59.330398082,AGENT#6603a8fe-5256-11ea-b9f4-8f898f74758a,14,48,62,10,1.0,1.0,0
run-2020-2-18-13-55-59.330398082,AGENT#660dd766-5256-11ea-beff-df8c2ba1ab21,4,58,62,10,1.0,1.0,0
run-2020-2-18-13-55-59.330398082,AGENT#65ee2362-5256-11ea-9bd4-b3c15c108786,46,17,63,10,1.0,1.0,0
run-2020-2-18-13-55-59.330398082,AGENT#65eebfb6-5256-11ea-b9db-ef4fa2d1e510,45,18,63,10,1.0,1.0,0
run-2020-2-18-13-55-59.330398082,AGENT#660ddff4-5256-11ea-a2b6-3379c89074d9,5,58,63,10,1.0,1.0,0
run-2020-2-18-13-55-59.330398082,AGENT#660de54e-5256-11ea-8d39-f3211a4afdfe,5,58,63,10,1.0,1.0,0
run-2020-2-18-13-55-59.330398082,AGENT#66118726-5256-11ea-b6c0-778536bca0e1,1,62,63,10,1.0,1.0,0
run-2020-2-18-13-55-59.330398082,AGENT#660ecd38-5256-11ea-983f-5fee1ed454fb,5,59,64,10,1.0,1.0,0
run-2020-2-18-13-55-59.330398082,AGENT#66126056-5256-11ea-afab-d7781471e29f,1,63,64,10,1.0,1.0,0
run-2020-2-18-13-55-59.330398082,AGENT#66126362-5256-11ea-bf91-2b42c97ff61d,1,63,64,10,1.0,1.0,0
run-2020-2-18-13-55-59.330398082,AGENT#65efc9f6-5256-11ea-87db-47985d5ad45a,45,20,65,10,1.0,1.0,0
run-2020-2-18-13-55-59.330398082,AGENT#65fb0ece-5256-11ea-b488-2b407e11fad7,26,39,65,10,1.0,1.0,0
run-2020-2-18-13-55-59.330398082,AGENT#66118118-5256-11ea-9cef-739a4bca4167,3,62,65,10,1.0,1.0,0
run-2020-2-18-13-55-59.330398082,AGENT#66118438-5256-11ea-96bc-57b6d3307834,3,62,65,10,1.0,1.0,0
run-2020-2-18-13-55-59.330398082,AGENT#661338c8-5256-11ea-a57b-a323474a5663,1,64,65,10,1.0,1.0,0
run-2020-2-18-13-55-59.330398082,AGENT#66133e86-5256-11ea-9a56-ffbdac0c05c5,1,64,65,10,1.0,1.0,0
run-2020-2-18-13-55-59.330398082,AGENT#65efc4d8-5256-11ea-b48b-f7865fece09a,46,20,66,10,1.0,1.0,0
run-2020-2-18-13-55-59.330398082,AGENT#661189ba-5256-11ea-a3ed-ebece00d699e,4,62,66,10,1.0,1.0,0
run-2020-2-18-13-55-59.330398082,AGENT#66133b5c-5256-11ea-a435-3f64addc53c1,2,64,66,10,1.0,1.0,0
run-2020-2-18-13-55-59.330398082,AGENT#6614224c-5256-11ea-9f7d-b396a6447662,1,65,66,10,1.0,1.0,0
run-2020-2-18-13-55-59.330398082,AGENT#65eec4de-5256-11ea-a5b4-23640286e0ad,49,18,67,10,1.0,1.0,0
run-2020-2-18-13-55-59.330398082,AGENT#65f0c5ea-5256-11ea-823b-a7e7bb5db4fb,45,22,67,10,1.0,1.0,0
run-2020-2-18-13-55-59.330398082,AGENT#66142c74-5256-11ea-a003-9fac2c9ff115,2,65,67,10,1.0,1.0,0
run-2020-2-18-13-55-59.330398082,AGENT#66142526-5256-11ea-b8c7-13aba4d39208,3,65,68,10,1.0,1.0,0
run-2020-2-18-13-55-59.330398082,AGENT#66152f16-5256-11ea-8020-fb40ef8d26f8,2,66,68,10,1.0,1.0,0
run-2020-2-18-13-55-59.330398082,AGENT#65f049b2-5256-11ea-a92a-7f4a34cfc496,48,21,69,10,1.0,1.0,0
run-2020-2-18-13-55-59.330398082,AGENT#65f20df6-5256-11ea-8425-a74ce1cc9e12,45,24,69,10,1.0,1.0,0
run-2020-2-18-13-55-59.330398082,AGENT#65f218a0-5256-11ea-aee2-8b67705431e2,45,24,69,10,1.0,1.0,0
run-2020-2-18-13-55-59.330398082,AGENT#65f7ebae-5256-11ea-bb1d-778285222346,35,34,69,10,1.0,1.0,0
run-2020-2-18-13-55-59.330398082,AGENT#66142ecc-5256-11ea-ab09-b71d87310c70,4,65,69,10,1.0,1.0,0
run-2020-2-18-13-55-59.330398082,AGENT#65f2ca02-5256-11ea-af49-3b3aaaabedf7,45,25,70,10,1.0,1.0,0
run-2020-2-18-13-55-59.330398082,AGENT#66153268-5256-11ea-ae19-57718fba57a1,4,66,70,10,1.0,1.0,0
run-2020-2-18-13-55-59.330398082,AGENT#6616d41a-5256-11ea-9fa7-5f72690ef4b5,2,68,70,10,1.0,1.0,0
run-2020-2-18-13-55-59.330398082,AGENT#6616d686-5256-11ea-a1a2-dbeb40ac87f4,2,68,70,10,1.0,1.0,0
run-2020-2-18-13-55-59.330398082,AGENT#65f20680-5256-11ea-9188-8385354e8394,47,24,71,10,1.0,1.0,0
run-2020-2-18-13-55-59.330398082,AGENT#65f3666a-5256-11ea-8292-e79910746d09,45,26,71,10,1.0,1.0,0
run-2020-2-18-13-55-59.330398082,AGENT#6616021a-5256-11ea-84ac-0bc3a4b734bf,4,67,71,10,1.0,1.0,0
run-2020-2-18-13-55-59.330398082,AGENT#660920c2-5256-11ea-9a1d-1ba272aea7bf,19,53,72,10,1.0,1.0,0
run-2020-2-18-13-55-59.330398082,AGENT#660ddd42-5256-11ea-a9f7-13773f23c553,14,58,72,10,1.0,1.0,0
run-2020-2-18-13-55-59.330398082,AGENT#65f4747e-5256-11ea-a5d1-7fd35f75a20b,45,28,73,10,1.0,1.0,0
run-2020-2-18-13-55-59.330398082,AGENT#66196324-5256-11ea-8148-6b81b2b8ac3f,2,71,73,10,1.0,1.0,0
run-2020-2-18-13-55-59.330398082,AGENT#661a5db0-5256-11ea-b4d2-c7efc6286150,1,72,73,10,1.0,1.0,0
run-2020-2-18-13-55-59.330398082,AGENT#6615ff90-5256-11ea-a970-935c57234e41,7,67,74,10,1.0,1.0,0
run-2020-2-18-13-55-59.330398082,AGENT#66195b36-5256-11ea-ab98-bfcaa8426a02,3,71,74,10,1.0,1.0,0
run-2020-2-18-13-55-59.330398082,AGENT#661960ae-5256-11ea-b3ea-d7c2e9e8951a,3,71,74,10,1.0,1.0,0
run-2020-2-18-13-55-59.330398082,AGENT#661a61ac-5256-11ea-b1ea-03e716d90b8b,2,72,74,10,1.0,1.0,0
run-2020-2-18-13-55-59.330398082,AGENT#661a69b8-5256-11ea-b723-037987970dd7,2,72,74,10,1.0,1.0,0
run-2020-2-18-13-55-59.330398082,AGENT#661a6f8a-5256-11ea-aae2-3f7fcd98e091,2,72,74,10,1.0,1.0,0
run-2020-2-18-13-55-59.330398082,AGENT#661b4536-5256-11ea-990c-07081bece0ef,1,73,74,10,1.0,1.0,0
run-2020-2-18-13-55-59.330398082,AGENT#661b4806-5256-11ea-bbab-07dc6744348d,1,73,74,10,1.0,1.0,0
run-2020-2-18-13-55-59.330398082,AGENT#65f36354-5256-11ea-8413-2bbd0c682e73,49,26,75,10,1.0,1.0,0
run-2020-2-18-13-55-59.330398082,AGENT#65f59944-5256-11ea-a814-171c6e7cc953,46,30,76,10,1.0,1.0,0
run-2020-2-18-13-55-59.330398082,AGENT#661d1708-5256-11ea-bc87-dfe0613f5254,1,75,76,10,1.0,1.0,0
run-2020-2-18-13-55-59.330398082,AGENT#661d1c58-5256-11ea-81d3-333b74fbac4c,1,75,76,10,1.0,1.0,0
run-2020-2-18-13-55-59.330398082,AGENT#66091dde-5256-11ea-ace0-3322e4ebe9a9,24,53,77,10,1.0,1.0,0
run-2020-2-18-13-55-59.330398082,AGENT#661df16e-5256-11ea-a97d-53ecb8eaf446,1,76,77,10,1.0,1.0,0
run-2020-2-18-13-55-59.330398082,AGENT#661df402-5256-11ea-aa71-cf5934b1bcea,1,76,77,10,1.0,1.0,0
run-2020-2-18-13-55-59.330398082,AGENT#661df650-5256-11ea-989d-3f65003d39d0,1,76,77,10,1.0,1.0,0
run-2020-2-18-13-55-59.330398082,AGENT#65fc0ef0-5256-11ea-bff2-4735731816f9,38,40,78,10,1.0,1.0,0
run-2020-2-18-13-55-59.330398082,AGENT#661b4a72-5256-11ea-82fd-674e16b9ec3b,5,73,78,10,1.0,1.0,0
run-2020-2-18-13-55-59.330398082,AGENT#661df8bc-5256-11ea-95fb-47c0bdb6bf91,2,76,78,10,1.0,1.0,0
run-2020-2-18-13-55-59.330398082,AGENT#65f74866-5256-11ea-a828-2f414ab9d6da,46,33,79,10,1.0,1.0,0
run-2020-2-18-13-55-59.330398082,AGENT#661deee4-5256-11ea-b253-f7497f58a10c,3,76,79,10,1.0,1.0,0
run-2020-2-18-13-55-59.330398082,AGENT#661eca76-5256-11ea-85ac-8f34feed6088,2,77,79,10,1.0,1.0,0
run-2020-2-18-13-55-59.330398082,AGENT#661ecf8a-5256-11ea-b875-9379a00ea234,2,77,79,10,1.0,1.0,0
run-2020-2-18-13-55-59.330398082,AGENT#66195e24-5256-11ea-a8b3-b3610ce1f3db,9,71,80,10,1.0,1.0,0
run-2020-2-18-13-55-59.330398082,AGENT#661ec58a-5256-11ea-94aa-63c2cb474548,3,77,80,10,1.0,1.0,0
run-2020-2-18-13-55-59.330398082,AGENT#661eccf6-5256-11ea-8216-1b37be5943df,3,77,80,10,1.0,1.0,0
run-2020-2-18-13-55-59.330398082,AGENT#65f93df6-5256-11ea-947c-77d37bfdb21a,45,36,81,10,1.0,1.0,0
run-2020-2-18-13-55-59.330398082,AGENT#661c30a4-5256-11ea-95f9-87148b9515f4,7,74,81,10,1.0,1.0,0
run-2020-2-18-13-55-59.330398082,AGENT#661ec81e-5256-11ea-8432-63fed1358e78,4,77,81,10,1.0,1.0,0
run-2020-2-18-13-55-59.330398082,AGENT#66207a42-5256-11ea-9211-876697fd7606,2,79,81,10,1.0,1.0,0
run-2020-2-18-13-55-59.330398082,AGENT#65f89892-5256-11ea-aefb-b7d88217b1cd,47,35,82,10,1.0,1.0,0
run-2020-2-18-13-55-59.330398082,AGENT#65f89afe-5256-11ea-8ad9-5b4eb8f2faff,47,35,82,10,1.0,1.0,0
run-2020-2-18-13-55-59.330398082,AGENT#65f93950-5256-11ea-9eea-ff9eaadad8e1,46,36,82,10,1.0,1.0,0
run-2020-2-18-13-55-59.330398082,AGENT#662071be-5256-11ea-b395-f7d42658f0b0,3,79,82,10,1.0,1.0,0
run-2020-2-18-13-55-59.330398082,AGENT#6622679e-5256-11ea-8306-2bd18b94143b,1,81,82,10,1.0,1.0,0
run-2020-2-18-13-55-59.330398082,AGENT#66226a3c-5256-11ea-974d-c7c610a822db,1,81,82,10,1.0,1.0,0
run-2020-2-18-13-55-59.330398082,AGENT#66226f78-5256-11ea-b94e-0fa4048576dc,1,81,82,10,1.0,1.0,0
run-2020-2-18-13-55-59.330398082,AGENT#66048fd0-5256-11ea-82ed-6b540e9005bb,34,49,83,10,1.0,1.0,0
run-2020-2-18-13-55-59.330398082,AGENT#6615fcde-5256-11ea-b62d-6f9b5d14fec9,16,67,83,10,1.0,1.0,0
run-2020-2-18-13-55-59.330398082,AGENT#6621684e-5256-11ea-8f6b-b306300fb678,3,80,83,10,1.0,1.0,0
run-2020-2-18-13-55-59.330398082,AGENT#662264a6-5256-11ea-8f0a-6f44209963d2,2,81,83,10,1.0,1.0,0
run-2020-2-18-13-55-59.330398082,AGENT#6616d168-5256-11ea-a438-27301ec737c3,16,68,84,10,1.0,1.0,0
run-2020-2-18-13-55-59.330398082,AGENT#66237de6-5256-11ea-8b27-031d50449ab9,3,82,85,10,1.0,1.0,0
run-2020-2-18-13-55-59.330398082,AGENT#6624890c-5256-11ea-9085-430c68de6b81,2,83,85,10,1.0,1.0,0
run-2020-2-18-13-55-59.330398082,AGENT#662566d8-5256-11ea-af58-bf5de450714e,1,84,85,10,1.0,1.0,0
run-2020-2-18-13-55-59.330398082,AGENT#66226cd0-5256-11ea-a094-03d349a27e03,5,81,86,10,1.0,1.0,0
run-2020-2-18-13-55-59.330398082,AGENT#6623825a-5256-11ea-be68-1fa4f69ed3eb,4,82,86,10,1.0,1.0,0
run-2020-2-18-13-55-59.330398082,AGENT#66256430-5256-11ea-a808-43fdfd3ff1ce,2,84,86,10,1.0,1.0,0
run-2020-2-18-13-55-59.330398082,AGENT#66273846-5256-11ea-ac45-c75889cb146c,1,86,87,10,1.0,1.0,0
run-2020-2-18-13-55-59.330398082,AGENT#66273490-5256-11ea-a5d3-1b1fc7ac207d,2,86,88,10,1.0,1.0,0
run-2020-2-18-13-55-59.330398082,AGENT#65fec960-5256-11ea-9db7-9f45d45b3417,46,43,89,10,1.0,1.0,0
run-2020-2-18-13-55-59.330398082,AGENT#65ffbfb4-5256-11ea-adec-fb2bb9f91671,45,44,89,10,1.0,1.0,0
run-2020-2-18-13-55-59.330398082,AGENT#66273fa8-5256-11ea-ba09-cfed83914dd3,3,86,89,10,1.0,1.0,0
run-2020-2-18-13-55-59.330398082,AGENT#6600a9a6-5256-11ea-a078-a70518cfb418,45,45,90,10,1.0,1.0,0
run-2020-2-18-13-55-59.330398082,AGENT#66284b3c-5256-11ea-a6c9-dbddd5b182e9,3,87,90,10,1.0,1.0,0
run-2020-2-18-13-55-59.330398082,AGENT#66284e52-5256-11ea-a366-d3213079b535,3,87,90,10,1.0,1.0,0
run-2020-2-18-13-55-59.330398082,AGENT#662a6f20-5256-11ea-a9f1-1fe28cf33f27,1,89,90,10,1.0,1.0,0
run-2020-2-18-13-55-59.330398082,AGENT#662a73bc-5256-11ea-8233-038a38da9bc7,1,89,90,10,1.0,1.0,0
run-2020-2-18-13-55-59.330398082,AGENT#662a7a24-5256-11ea-aef2-a70869e49e42,1,89,90,10,1.0,1.0,0
run-2020-2-18-13-55-59.330398082,AGENT#662847d6-5256-11ea-86cf-2bec80eec759,4,87,91,10,1.0,1.0,0
run-2020-2-18-13-55-59.330398082,AGENT#662b86da-5256-11ea-9b64-bf2b945ad055,1,90,91,10,1.0,1.0,0
run-2020-2-18-13-55-59.330398082,AGENT#6601b814-5256-11ea-9a61-17702e612f21,46,46,92,10,1.0,1.0,0
run-2020-2-18-13-55-59.330398082,AGENT#6602b728-5256-11ea-8c9d-fbc7dddc788d,45,47,92,10,1.0,1.0,0
run-2020-2-18-13-55-59.330398082,AGENT#6602bd9a-5256-11ea-9d96-4fbbb15ffcc8,45,47,92,10,1.0,1.0,0
run-2020-2-18-13-55-59.330398082,AGENT#6602c3f8-5256-11ea-95fe-2ff54e9d264e,45,47,92,10,1.0,1.0,0
run-2020-2-18-13-55-59.330398082,AGENT#662a76e6-5256-11ea-9b77-0b37e7057aae,3,89,92,10,1.0,1.0,0
run-2020-2-18-13-55-59.330398082,AGENT#662c545c-5256-11ea-b68a-4fbe1457b04e,1,91,92,10,1.0,1.0,0
run-2020-2-18-13-55-59.330398082,AGENT#662c5bfa-5256-11ea-a398-4b62116d6fe2,1,91,92,10,1.0,1.0,0
run-2020-2-18-13-55-59.330398082,AGENT#6603ac82-5256-11ea-9fda-0b3603e73007,45,48,93,10,1.0,1.0,0
run-2020-2-18-13-55-59.330398082,AGENT#661429f4-5256-11ea-bf5a-2b015e5090a6,28,65,93,10,1.0,1.0,0
run-2020-2-18-13-55-59.330398082,AGENT#662b7a6e-5256-11ea-b0f4-df0114b8e438,3,90,93,10,1.0,1.0,0
run-2020-2-18-13-55-59.330398082,AGENT#662b8478-5256-11ea-98ea-3799b6b579f5,3,90,93,10,1.0,1.0,0
run-2020-2-18-13-55-59.330398082,AGENT#662c5718-5256-11ea-ad49-478cf050fc7d,2,91,93,10,1.0,1.0,0
run-2020-2-18-13-55-59.330398082,AGENT#662b822a-5256-11ea-b015-83708f000396,4,90,94,10,1.0,1.0,0
run-2020-2-18-13-55-59.330398082,AGENT#660d0034-5256-11ea-a86b-dba0a915977d,38,57,95,10,1.0,1.0,0
run-2020-2-18-13-55-59.330398082,AGENT#662d4c0e-5256-11ea-a9cf-7bcc066ab4ba,3,92,95,10,1.0,1.0,0
run-2020-2-18-13-55-59.330398082,AGENT#6602c0d8-5256-11ea-81f6-17d3ca88be3f,49,47,96,10,1.0,1.0,0
run-2020-2-18-13-55-59.330398082,AGENT#662fe860-5256-11ea-9656-6f12d83f1250,1,95,96,10,1.0,1.0,0
run-2020-2-18-13-55-59.330398082,AGENT#6603a566-5256-11ea-a849-db6bb7c5cebe,49,48,97,10,1.0,1.0,0
run-2020-2-18-13-55-59.330398082,AGENT#6605724c-5256-11ea-a796-af39c1f51dd6,47,50,97,10,1.0,1.0,0
run-2020-2-18-13-55-59.330398082,AGENT#66083b26-5256-11ea-87b0-fbd0745fdf31,45,52,97,10,1.0,1.0,0
run-2020-2-18-13-55-59.330398082,AGENT#662e315a-5256-11ea-a94f-376c211fff1b,4,93,97,10,1.0,1.0,0
run-2020-2-18-13-55-59.330398082,AGENT#662fead6-5256-11ea-9323-b3827d985f37,2,95,97,10,1.0,1.0,0
run-2020-2-18-13-55-59.330398082,AGENT#660914e2-5256-11ea-a9e3-b75b52c0b3f3,45,53,98,10,1.0,1.0,0
run-2020-2-18-13-55-59.330398082,AGENT#66091802-5256-11ea-b940-c30776fc36fe,46,53,99,10,1.0,1.0,0
run-2020-2-18-13-55-59.330398082,AGENT#6609291e-5256-11ea-a104-df190e524bde,46,53,99,10,1.0,1.0,0
run-2020-2-18-13-55-59.330398082,AGENT#66319bec-5256-11ea-b27c-3b0be1679ea8,2,97,99,10,1.0,1.0,0
run-2020-2-18-13-55-59.330398082,AGENT#663279f4-5256-11ea-90fa-238bbc37a30e,1,98,99,10,1.0,1.0,0
