RunID,Tick,ActiveAgentsPerTick
run-2020-2-17-18-2-55.378202915,0,15
run-2020-2-17-18-2-55.378202915,1,17
run-2020-2-17-18-2-55.378202915,2,21
run-2020-2-17-18-2-55.378202915,3,26
run-2020-2-17-18-2-55.378202915,4,28
run-2020-2-17-18-2-55.378202915,5,31
run-2020-2-17-18-2-55.378202915,6,32
run-2020-2-17-18-2-55.378202915,7,36
run-2020-2-17-18-2-55.378202915,8,32
run-2020-2-17-18-2-55.378202915,9,30
run-2020-2-17-18-2-55.378202915,10,36
run-2020-2-17-18-2-55.378202915,11,35
run-2020-2-17-18-2-55.378202915,12,34
run-2020-2-17-18-2-55.378202915,13,32
run-2020-2-17-18-2-55.378202915,14,36
run-2020-2-17-18-2-55.378202915,15,33
run-2020-2-17-18-2-55.378202915,16,32
run-2020-2-17-18-2-55.378202915,17,34
run-2020-2-17-18-2-55.378202915,18,35
run-2020-2-17-18-2-55.378202915,19,40
run-2020-2-17-18-2-55.378202915,20,42
run-2020-2-17-18-2-55.378202915,21,40
run-2020-2-17-18-2-55.378202915,22,43
run-2020-2-17-18-2-55.378202915,23,46
run-2020-2-17-18-2-55.378202915,24,45
run-2020-2-17-18-2-55.378202915,25,46
run-2020-2-17-18-2-55.378202915,26,51
run-2020-2-17-18-2-55.378202915,27,50
run-2020-2-17-18-2-55.378202915,28,51
run-2020-2-17-18-2-55.378202915,29,52
run-2020-2-17-18-2-55.378202915,30,50
run-2020-2-17-18-2-55.378202915,31,48
run-2020-2-17-18-2-55.378202915,32,52
run-2020-2-17-18-2-55.378202915,33,53
run-2020-2-17-18-2-55.378202915,34,51
run-2020-2-17-18-2-55.378202915,35,48
run-2020-2-17-18-2-55.378202915,36,54
run-2020-2-17-18-2-55.378202915,37,58
run-2020-2-17-18-2-55.378202915,38,58
run-2020-2-17-18-2-55.378202915,39,55
run-2020-2-17-18-2-55.378202915,40,55
run-2020-2-17-18-2-55.378202915,41,55
run-2020-2-17-18-2-55.378202915,42,59
run-2020-2-17-18-2-55.378202915,43,61
run-2020-2-17-18-2-55.378202915,44,65
run-2020-2-17-18-2-55.378202915,45,64
run-2020-2-17-18-2-55.378202915,46,62
run-2020-2-17-18-2-55.378202915,47,60
run-2020-2-17-18-2-55.378202915,48,60
run-2020-2-17-18-2-55.378202915,49,58
run-2020-2-17-18-2-55.378202915,50,55
run-2020-2-17-18-2-55.378202915,51,54
run-2020-2-17-18-2-55.378202915,52,58
run-2020-2-17-18-2-55.378202915,53,59
run-2020-2-17-18-2-55.378202915,54,61
run-2020-2-17-18-2-55.378202915,55,62
run-2020-2-17-18-2-55.378202915,56,61
run-2020-2-17-18-2-55.378202915,57,64
run-2020-2-17-18-2-55.378202915,58,66
run-2020-2-17-18-2-55.378202915,59,65
run-2020-2-17-18-2-55.378202915,60,60
run-2020-2-17-18-2-55.378202915,61,63
run-2020-2-17-18-2-55.378202915,62,59
run-2020-2-17-18-2-55.378202915,63,56
run-2020-2-17-18-2-55.378202915,64,57
run-2020-2-17-18-2-55.378202915,65,57
run-2020-2-17-18-2-55.378202915,66,56
run-2020-2-17-18-2-55.378202915,67,57
run-2020-2-17-18-2-55.378202915,68,60
run-2020-2-17-18-2-55.378202915,69,60
run-2020-2-17-18-2-55.378202915,70,61
run-2020-2-17-18-2-55.378202915,71,61
run-2020-2-17-18-2-55.378202915,72,62
run-2020-2-17-18-2-55.378202915,73,62
run-2020-2-17-18-2-55.378202915,74,62
run-2020-2-17-18-2-55.378202915,75,67
run-2020-2-17-18-2-55.378202915,76,69
run-2020-2-17-18-2-55.378202915,77,66
run-2020-2-17-18-2-55.378202915,78,61
run-2020-2-17-18-2-55.378202915,79,56
run-2020-2-17-18-2-55.378202915,80,57
run-2020-2-17-18-2-55.378202915,81,59
run-2020-2-17-18-2-55.378202915,82,57
run-2020-2-17-18-2-55.378202915,83,58
run-2020-2-17-18-2-55.378202915,84,55
run-2020-2-17-18-2-55.378202915,85,61
run-2020-2-17-18-2-55.378202915,86,60
run-2020-2-17-18-2-55.378202915,87,59
run-2020-2-17-18-2-55.378202915,88,58
run-2020-2-17-18-2-55.378202915,89,58
run-2020-2-17-18-2-55.378202915,90,57
run-2020-2-17-18-2-55.378202915,91,55
run-2020-2-17-18-2-55.378202915,92,58
run-2020-2-17-18-2-55.378202915,93,54
run-2020-2-17-18-2-55.378202915,94,59
run-2020-2-17-18-2-55.378202915,95,58
run-2020-2-17-18-2-55.378202915,96,59
run-2020-2-17-18-2-55.378202915,97,59
run-2020-2-17-18-2-55.378202915,98,57
run-2020-2-17-18-2-55.378202915,99,57
run-2020-2-17-18-2-55.378202915,100,55
