Source,Target
b951f044-51af-11ea-9dba-1b582e6337bd,b953c5d6-51af-11ea-b186-17b3341a9a97
b951d88e-51af-11ea-bb12-5f2df4c5579e,b953d5ee-51af-11ea-b7d9-43f17e818d80
b951f044-51af-11ea-9dba-1b582e6337bd,b953e4ee-51af-11ea-8096-b7aa6267469a
b952b114-51af-11ea-837f-e747e73a4e88,b953f376-51af-11ea-bb6b-5335f41561ea
b951e2e8-51af-11ea-9d03-630374ab4998,b9548584-51af-11ea-92f9-839278788037
b952c0c8-51af-11ea-a9b5-e7f766ad086d,b9547710-51af-11ea-862d-f373121ca9e5
b952a0de-51af-11ea-bea8-47eafe00445f,b954a276-51af-11ea-a59a-b384d8ec1fe2
b951d88e-51af-11ea-bb12-5f2df4c5579e,b9549434-51af-11ea-989a-c35070771a61
b953c5d6-51af-11ea-b186-17b3341a9a97,b95509fa-51af-11ea-a903-b3e64e2cae09
b951e2e8-51af-11ea-9d03-630374ab4998,b9553f74-51af-11ea-9143-fbc950334dba
b9547710-51af-11ea-862d-f373121ca9e5,b9555734-51af-11ea-8756-0bce19a0ffc1
b953e4ee-51af-11ea-8096-b7aa6267469a,b9557520-51af-11ea-a751-6b211a41d28d
b952a0de-51af-11ea-bea8-47eafe00445f,b955b062-51af-11ea-b7c4-e79493f84be8
b954a276-51af-11ea-a59a-b384d8ec1fe2,b95621e6-51af-11ea-8142-67868b2209c2
b953f376-51af-11ea-bb6b-5335f41561ea,b9562e70-51af-11ea-8374-efed64223633
b951f044-51af-11ea-9dba-1b582e6337bd,b9563c62-51af-11ea-9991-1bbbc302f759
b9553f74-51af-11ea-9143-fbc950334dba,b9566020-51af-11ea-9cb8-e385fe6e7604
b954a276-51af-11ea-a59a-b384d8ec1fe2,b9568ae6-51af-11ea-907f-5b84cfe2355d
b9557520-51af-11ea-a751-6b211a41d28d,b956bc28-51af-11ea-a507-9bf2a50f8e07
b951ce16-51af-11ea-a458-1b49092552b6,b956d190-51af-11ea-81de-13a74ecc7484
b9549434-51af-11ea-989a-c35070771a61,b956dc12-51af-11ea-b528-6be0d91edef2
b951d88e-51af-11ea-bb12-5f2df4c5579e,b957468e-51af-11ea-a364-d7795af80dca
b953d5ee-51af-11ea-b7d9-43f17e818d80,b9575322-51af-11ea-af23-7f6b76eab551
b953d5ee-51af-11ea-b7d9-43f17e818d80,b9577078-51af-11ea-9938-8b68668e2870
b953d5ee-51af-11ea-b7d9-43f17e818d80,b9576268-51af-11ea-bb36-5bbb8f638a3a
b9562e70-51af-11ea-8374-efed64223633,b957f098-51af-11ea-b1f3-9b0f7ff4067a
b955b062-51af-11ea-b7c4-e79493f84be8,b9580c68-51af-11ea-a239-a39481a916fd
b952a0de-51af-11ea-bea8-47eafe00445f,b9581e9c-51af-11ea-be8b-77ad66c772f5
b95509fa-51af-11ea-a903-b3e64e2cae09,b9582d74-51af-11ea-ba1f-1bcdc8667b07
b953e4ee-51af-11ea-8096-b7aa6267469a,b95891e2-51af-11ea-ba4c-676205fb8374
b9531780-51af-11ea-bc0f-5b19056fdf9d,b9589df4-51af-11ea-956e-43e6581ab3c8
b95509fa-51af-11ea-a903-b3e64e2cae09,b958aeca-51af-11ea-aa7f-cf939f297886
b9575322-51af-11ea-af23-7f6b76eab551,b958c504-51af-11ea-9df3-33e4313bde5a
b953d5ee-51af-11ea-b7d9-43f17e818d80,b9591c0c-51af-11ea-ae27-c326593cb991
b956d190-51af-11ea-81de-13a74ecc7484,b9595988-51af-11ea-a6e9-bba54ac211f8
b9576268-51af-11ea-bb36-5bbb8f638a3a,b959684c-51af-11ea-8cf3-67ebd26ccae1
b9547710-51af-11ea-862d-f373121ca9e5,b9597828-51af-11ea-9602-6b4b32525fea
b951ce16-51af-11ea-a458-1b49092552b6,b9599308-51af-11ea-a1ab-b3b8a5123783
b951f044-51af-11ea-9dba-1b582e6337bd,b959e1be-51af-11ea-ae32-738fc5db96df
b952b114-51af-11ea-837f-e747e73a4e88,b959ef24-51af-11ea-80cc-e773c74ac434
b9548584-51af-11ea-92f9-839278788037,b95a0932-51af-11ea-9cd0-235a75e5a634
b9577078-51af-11ea-9938-8b68668e2870,b95a177e-51af-11ea-8e35-1f1236bbd92e
b952b114-51af-11ea-837f-e747e73a4e88,b95ab224-51af-11ea-9482-1388102ffbf4
b9575322-51af-11ea-af23-7f6b76eab551,b95ac05c-51af-11ea-b24c-db7ee0c2b136
b9568ae6-51af-11ea-907f-5b84cfe2355d,b95acd7c-51af-11ea-b71e-f365d967249d
b958c504-51af-11ea-9df3-33e4313bde5a,b95aee60-51af-11ea-a0d2-675494c9acc7
b9555734-51af-11ea-8756-0bce19a0ffc1,b95b6412-51af-11ea-a7d7-73ad44d46d69
b958aeca-51af-11ea-aa7f-cf939f297886,b95b7560-51af-11ea-bae6-87b4d506a3ce
b953d5ee-51af-11ea-b7d9-43f17e818d80,b95b8b4a-51af-11ea-988a-07403285b974
b9553f74-51af-11ea-9143-fbc950334dba,b95bad96-51af-11ea-9a23-1bb6f78d5849
b958aeca-51af-11ea-aa7f-cf939f297886,b95c10ec-51af-11ea-a403-e720128d0cdf
b959e1be-51af-11ea-ae32-738fc5db96df,b95c2f50-51af-11ea-93d4-ef4ce4906b65
b9547710-51af-11ea-862d-f373121ca9e5,b95c2000-51af-11ea-ad4b-b70d90f1f55d
b955b062-51af-11ea-b7c4-e79493f84be8,b95c49fe-51af-11ea-b71d-aff7aecd396e
b95ab224-51af-11ea-9482-1388102ffbf4,b95cf7be-51af-11ea-a217-2f4df436c004
b9576268-51af-11ea-bb36-5bbb8f638a3a,b95d4dae-51af-11ea-ae26-7fd0be737a94
b95ac05c-51af-11ea-b24c-db7ee0c2b136,b95d902a-51af-11ea-bda4-3b074e6b96e3
b956bc28-51af-11ea-a507-9bf2a50f8e07,b95d6ea6-51af-11ea-923b-3b18b8cca0bb
b956d190-51af-11ea-81de-13a74ecc7484,b95df646-51af-11ea-880f-df7ee11e37e1
b95d902a-51af-11ea-bda4-3b074e6b96e3,b95e299a-51af-11ea-9e6e-eb9e051071f8
b957f098-51af-11ea-b1f3-9b0f7ff4067a,b95e3908-51af-11ea-a934-57181385b50f
b9581e9c-51af-11ea-be8b-77ad66c772f5,b95e70b2-51af-11ea-a7fc-43c1f5c30ed0
b953d5ee-51af-11ea-b7d9-43f17e818d80,b95e800c-51af-11ea-a60c-f3314596edcf
b9591c0c-51af-11ea-ae27-c326593cb991,b95ed048-51af-11ea-8cf9-63cc2ffbe6f6
b9589df4-51af-11ea-956e-43e6581ab3c8,b95ee204-51af-11ea-a114-e73c5cb2045c
b95a177e-51af-11ea-8e35-1f1236bbd92e,b95ef1d6-51af-11ea-81f6-bbdfea35ed42
b9580c68-51af-11ea-a239-a39481a916fd,b95efc76-51af-11ea-8786-23d2b295c0de
b953b564-51af-11ea-b368-cf411078a19f,b95f5d7e-51af-11ea-bd6e-8f7df8f3a378
b95c2000-51af-11ea-ad4b-b70d90f1f55d,b95f898e-51af-11ea-bbd4-87fc74f76e92
b9582d74-51af-11ea-ba1f-1bcdc8667b07,b95fb6c0-51af-11ea-8aa1-33d5bc3aed38
b95e800c-51af-11ea-a60c-f3314596edcf,b95ff8ba-51af-11ea-affa-eb481d3c190b
b95d6ea6-51af-11ea-923b-3b18b8cca0bb,b9604004-51af-11ea-ba01-634d5eccbc8c
b956bc28-51af-11ea-a507-9bf2a50f8e07,b9606430-51af-11ea-b5d4-2f8b2749b8c8
b95e800c-51af-11ea-a60c-f3314596edcf,b96093d8-51af-11ea-bc72-170c55fc11a9
b956dc12-51af-11ea-b528-6be0d91edef2,b960a97c-51af-11ea-9105-6f375a41db1f
b9606430-51af-11ea-b5d4-2f8b2749b8c8,b960e554-51af-11ea-a4a5-e7380a6f255a
b953b564-51af-11ea-b368-cf411078a19f,b960f1f2-51af-11ea-b5cb-9fc1ada29c7c
b9568ae6-51af-11ea-907f-5b84cfe2355d,b960fe86-51af-11ea-9ae2-436ce5f7dd9e
b9548584-51af-11ea-92f9-839278788037,b9616088-51af-11ea-8f88-a36c257c2e67
b9576268-51af-11ea-bb36-5bbb8f638a3a,b9616a6a-51af-11ea-afcb-6b71d83f6264
b95509fa-51af-11ea-a903-b3e64e2cae09,b9619c4c-51af-11ea-9271-83e0b507d076
b95df646-51af-11ea-880f-df7ee11e37e1,b961d446-51af-11ea-af0c-1fa3e581681f
b95b7560-51af-11ea-bae6-87b4d506a3ce,b9622a40-51af-11ea-8c1a-d791f053b763
b953d5ee-51af-11ea-b7d9-43f17e818d80,b962466a-51af-11ea-b5b5-1bc110111132
b951e2e8-51af-11ea-9d03-630374ab4998,b962868e-51af-11ea-a2b1-43fd77490d2f
b962466a-51af-11ea-b5b5-1bc110111132,b962917e-51af-11ea-925f-57a1f47df4f9
b9555734-51af-11ea-8756-0bce19a0ffc1,b962ba64-51af-11ea-b133-bf07513297a6
b9547710-51af-11ea-862d-f373121ca9e5,b962e494-51af-11ea-95eb-d7b151fe8509
b95ab224-51af-11ea-9482-1388102ffbf4,b9631996-51af-11ea-888c-a338d108041c
b9531780-51af-11ea-bc0f-5b19056fdf9d,b9634fd8-51af-11ea-bdbd-b338b9c8c8ee
b95ff8ba-51af-11ea-affa-eb481d3c190b,b9636cac-51af-11ea-b197-6bd91544a92c
b9595988-51af-11ea-a6e9-bba54ac211f8,b9637a62-51af-11ea-a341-bbbeec5af47b
b95c2000-51af-11ea-ad4b-b70d90f1f55d,b963d57a-51af-11ea-92eb-4374111efc37
b95891e2-51af-11ea-ba4c-676205fb8374,b963fa96-51af-11ea-9483-5fec23e472fe
b963d57a-51af-11ea-92eb-4374111efc37,b9644226-51af-11ea-88db-2f34b062a564
b9581e9c-51af-11ea-be8b-77ad66c772f5,b96454d2-51af-11ea-80b4-7faaae2b5a10
b9616a6a-51af-11ea-afcb-6b71d83f6264,b9647af2-51af-11ea-92e8-dfcc12c4fb2e
b95c10ec-51af-11ea-a403-e720128d0cdf,b96495a0-51af-11ea-86cd-2744a6041410
b962868e-51af-11ea-a2b1-43fd77490d2f,b964c962-51af-11ea-bf8d-d37aec8db9c6
b9604004-51af-11ea-ba01-634d5eccbc8c,b9651570-51af-11ea-90f4-67effb96bb20
b95d6ea6-51af-11ea-923b-3b18b8cca0bb,b9656084-51af-11ea-9ab8-1ba75933ff07
b962917e-51af-11ea-925f-57a1f47df4f9,b96577ae-51af-11ea-b879-7f22c83c1cc5
b9606430-51af-11ea-b5d4-2f8b2749b8c8,b96597d4-51af-11ea-9575-5fd265f1ec82
b95891e2-51af-11ea-ba4c-676205fb8374,b965cc72-51af-11ea-a085-4b7a67bd4313
b9577078-51af-11ea-9938-8b68668e2870,b965dfc8-51af-11ea-99e8-5b24a0136589
b960a97c-51af-11ea-9105-6f375a41db1f,b965f594-51af-11ea-940c-f71a75669f73
b9562e70-51af-11ea-8374-efed64223633,b9665084-51af-11ea-b024-a38da9d03395
b95d4dae-51af-11ea-ae26-7fd0be737a94,b9665d54-51af-11ea-93a3-63c1b328515e
b95cf7be-51af-11ea-a217-2f4df436c004,b9669378-51af-11ea-b7e0-bb76c023ae6d
b951e2e8-51af-11ea-9d03-630374ab4998,b966ad5e-51af-11ea-b612-63cd7f2e9264
b95509fa-51af-11ea-a903-b3e64e2cae09,b966c1cc-51af-11ea-9bd5-4ba5972c3e5d
b953d5ee-51af-11ea-b7d9-43f17e818d80,b966cf6e-51af-11ea-9eca-536632f619a6
b95d4dae-51af-11ea-ae26-7fd0be737a94,b96730b2-51af-11ea-8549-4b285062a00e
b9651570-51af-11ea-90f4-67effb96bb20,b96783b4-51af-11ea-a140-8783799ba0ff
b95a0932-51af-11ea-9cd0-235a75e5a634,b967a7f4-51af-11ea-99e0-9f4a8f455595
b962e494-51af-11ea-95eb-d7b151fe8509,b967b5fa-51af-11ea-b497-e76fbadb0583
b952c0c8-51af-11ea-a9b5-e7f766ad086d,b967c392-51af-11ea-8e05-eb5a39d966e4
b9634fd8-51af-11ea-bdbd-b338b9c8c8ee,b968240e-51af-11ea-aa48-57f23d2a81a3
b953c5d6-51af-11ea-b186-17b3341a9a97,b9683070-51af-11ea-ab69-33a68b7f3aaf
b953e4ee-51af-11ea-8096-b7aa6267469a,b9683d90-51af-11ea-a6cb-6ba974accefd
b96577ae-51af-11ea-b879-7f22c83c1cc5,b9685a14-51af-11ea-8cbf-ab4ad70a18dd
b95ed048-51af-11ea-8cf9-63cc2ffbe6f6,b968b270-51af-11ea-8fa8-17ab86dc1df5
b95f898e-51af-11ea-bbd4-87fc74f76e92,b968e100-51af-11ea-ad98-7b699a5953bd
b968b270-51af-11ea-8fa8-17ab86dc1df5,b969278c-51af-11ea-8ea2-5b2c787d799a
b95e800c-51af-11ea-a60c-f3314596edcf,b9695680-51af-11ea-8246-3fd130de5957
b95f898e-51af-11ea-bbd4-87fc74f76e92,b969469a-51af-11ea-b05c-bfc0d1be2ae5
b965cc72-51af-11ea-a085-4b7a67bd4313,b96962d8-51af-11ea-bf89-178339ffb686
b96454d2-51af-11ea-80b4-7faaae2b5a10,b96a02b0-51af-11ea-8b43-3bac83557028
b964c962-51af-11ea-bf8d-d37aec8db9c6,b969f248-51af-11ea-82bc-ebfad1b176be
b96495a0-51af-11ea-86cd-2744a6041410,b96a14f8-51af-11ea-bbbf-8fc75b67067c
b9581e9c-51af-11ea-be8b-77ad66c772f5,b96a707e-51af-11ea-b168-cfd2e20f9951
b95d902a-51af-11ea-bda4-3b074e6b96e3,b96acc72-51af-11ea-80ba-7730ab0741fb
b9616a6a-51af-11ea-afcb-6b71d83f6264,b96add34-51af-11ea-8280-4b1ed408896b
b9634fd8-51af-11ea-bdbd-b338b9c8c8ee,b96b1c2c-51af-11ea-ba0d-473696378431
b9631996-51af-11ea-888c-a338d108041c,b96b3f54-51af-11ea-931b-33926f7abd1e
b95ab224-51af-11ea-9482-1388102ffbf4,b96b84aa-51af-11ea-a82e-17eb2ba0a3ee
b951e2e8-51af-11ea-9d03-630374ab4998,b96b99d6-51af-11ea-bce6-1f8c9d50843e
b957f098-51af-11ea-b1f3-9b0f7ff4067a,b96c0aec-51af-11ea-897f-e740181402f2
b959e1be-51af-11ea-ae32-738fc5db96df,b96c1a32-51af-11ea-9160-8bf5fbba5915
b9576268-51af-11ea-bb36-5bbb8f638a3a,b96c50c4-51af-11ea-b058-57a7b49bd122
b95ab224-51af-11ea-9482-1388102ffbf4,b96ca588-51af-11ea-ab3a-dbd2882bda87
b95e299a-51af-11ea-9e6e-eb9e051071f8,b96cc914-51af-11ea-b342-0f28669a6595
b95e70b2-51af-11ea-a7fc-43c1f5c30ed0,b96d20f8-51af-11ea-9e92-cf6290ddc5d0
b9622a40-51af-11ea-8c1a-d791f053b763,b96d1216-51af-11ea-806b-337fdcbaa506
b95d4dae-51af-11ea-ae26-7fd0be737a94,b96d510e-51af-11ea-852d-07ebf078617b
b95bad96-51af-11ea-9a23-1bb6f78d5849,b96d664e-51af-11ea-b2e5-0fd1d5242328
b9622a40-51af-11ea-8c1a-d791f053b763,b96dad0c-51af-11ea-92a4-1ba5a1406f1c
b968b270-51af-11ea-8fa8-17ab86dc1df5,b96dec4a-51af-11ea-a6b9-a34be3ff5112
b95f898e-51af-11ea-bbd4-87fc74f76e92,b96e2156-51af-11ea-b78b-773f062aa81d
b95aee60-51af-11ea-a0d2-675494c9acc7,b96e400a-51af-11ea-87df-87213e22e0d4
b95ac05c-51af-11ea-b24c-db7ee0c2b136,b96e54aa-51af-11ea-b39a-3781a21393e8
b95e299a-51af-11ea-9e6e-eb9e051071f8,b96eb4d6-51af-11ea-a367-cfd6e165d718
b969278c-51af-11ea-8ea2-5b2c787d799a,b96edefc-51af-11ea-aee4-1b91846b878e
b9685a14-51af-11ea-8cbf-ab4ad70a18dd,b96ecde0-51af-11ea-adbd-5bb08cd76bc9
b9589df4-51af-11ea-956e-43e6581ab3c8,b96f263c-51af-11ea-8f2b-1787d6e5673f
b96e400a-51af-11ea-87df-87213e22e0d4,b96f7042-51af-11ea-ba4e-5768b6dbcd36
b96a02b0-51af-11ea-8b43-3bac83557028,b96f80d2-51af-11ea-b107-a3d858eaf09c
b95d902a-51af-11ea-bda4-3b074e6b96e3,b96fbc1e-51af-11ea-ae8b-2b992c298680
b9685a14-51af-11ea-8cbf-ab4ad70a18dd,b96fd1b8-51af-11ea-b901-9bd93306ee55
b95fb6c0-51af-11ea-8aa1-33d5bc3aed38,b97003ae-51af-11ea-84d6-2736e54a6c29
b96c0aec-51af-11ea-897f-e740181402f2,b97062ea-51af-11ea-82e7-639a7f039ab8
b956dc12-51af-11ea-b528-6be0d91edef2,b9707d7a-51af-11ea-b2ac-5f3445a17d46
b9577078-51af-11ea-9938-8b68668e2870,b9708acc-51af-11ea-b7cb-a796c50db74c
b962868e-51af-11ea-a2b1-43fd77490d2f,b9709756-51af-11ea-babe-c312f289af75
b95e3908-51af-11ea-a934-57181385b50f,b970ead0-51af-11ea-b03e-ffbc6faa7bd2
b9577078-51af-11ea-9938-8b68668e2870,b9710556-51af-11ea-9522-2f22092a341e
b95ed048-51af-11ea-8cf9-63cc2ffbe6f6,b9712626-51af-11ea-9583-8bf5291c1560
b95e299a-51af-11ea-9e6e-eb9e051071f8,b9716636-51af-11ea-98ad-63cf7e95dd37
b951d88e-51af-11ea-bb12-5f2df4c5579e,b971a128-51af-11ea-8f28-03c543e0c9f6
b9553f74-51af-11ea-9143-fbc950334dba,b971d166-51af-11ea-aa15-2313d32f2248
b9580c68-51af-11ea-a239-a39481a916fd,b971de68-51af-11ea-b11d-ffeba93547ec
b96dec4a-51af-11ea-a6b9-a34be3ff5112,b97205dc-51af-11ea-9377-1f86b6505b8b
b957f098-51af-11ea-b1f3-9b0f7ff4067a,b97229cc-51af-11ea-bbf9-df65afcdd5aa
b96fd1b8-51af-11ea-b901-9bd93306ee55,b9725276-51af-11ea-9fb6-f7eede894986
b95cf7be-51af-11ea-a217-2f4df436c004,b9727d14-51af-11ea-a0b0-6f69c2b20bd0
b962e494-51af-11ea-95eb-d7b151fe8509,b972b2ac-51af-11ea-bdca-0764d372f065
b962466a-51af-11ea-b5b5-1bc110111132,b972cd28-51af-11ea-afd6-03f23de573a8
b96fd1b8-51af-11ea-b901-9bd93306ee55,b9731f12-51af-11ea-aa69-bf437f25d7eb
b959e1be-51af-11ea-ae32-738fc5db96df,b9733416-51af-11ea-bdc4-d30f021812e3
b966ad5e-51af-11ea-b612-63cd7f2e9264,b97369a4-51af-11ea-a383-9f9acc6099d7
b9591c0c-51af-11ea-ae27-c326593cb991,b973dfba-51af-11ea-a0d0-4737b1338a42
b95e299a-51af-11ea-9e6e-eb9e051071f8,b9741930-51af-11ea-9ca6-db128f4adfd0
b9563c62-51af-11ea-9991-1bbbc302f759,b97468f4-51af-11ea-9e60-df8f0a5ea766
b9685a14-51af-11ea-8cbf-ab4ad70a18dd,b9748b7c-51af-11ea-8eb9-7f087ea3a0a3
b96577ae-51af-11ea-b879-7f22c83c1cc5,b974fabc-51af-11ea-8d7b-4ffc93ee3682
b955b062-51af-11ea-b7c4-e79493f84be8,b97511fa-51af-11ea-9135-835bff1fb1cd
b9597828-51af-11ea-9602-6b4b32525fea,b9752d66-51af-11ea-bce5-177b4107b2bf
b96eb4d6-51af-11ea-a367-cfd6e165d718,b9756fa6-51af-11ea-96aa-bb3c2c04b627
b9581e9c-51af-11ea-be8b-77ad66c772f5,b9758ea0-51af-11ea-a22b-f399acf9e625
b96edefc-51af-11ea-aee4-1b91846b878e,b975bc54-51af-11ea-8a7a-6f25a6e14305
b95aee60-51af-11ea-a0d2-675494c9acc7,b975c9f6-51af-11ea-a99c-47d2248e9ce2
b972b2ac-51af-11ea-bdca-0764d372f065,b9760614-51af-11ea-8155-634a818f8cd7
b96b1c2c-51af-11ea-ba0d-473696378431,b9762c8e-51af-11ea-8866-df3b2963836c
b955b062-51af-11ea-b7c4-e79493f84be8,b9763c88-51af-11ea-ae55-1b1c78a1dbbc
b967a7f4-51af-11ea-99e0-9f4a8f455595,b9764eee-51af-11ea-9754-4f58a1167e61
b9665d54-51af-11ea-93a3-63c1b328515e,b976c392-51af-11ea-bff6-0f65faff5f95
b953c5d6-51af-11ea-b186-17b3341a9a97,b976d968-51af-11ea-8217-0f9ebbaf1b7c
b969278c-51af-11ea-8ea2-5b2c787d799a,b976e872-51af-11ea-8201-23705f049576
b95891e2-51af-11ea-ba4c-676205fb8374,b977521c-51af-11ea-963d-5f7d35674bd4
b952a0de-51af-11ea-bea8-47eafe00445f,b9773ffc-51af-11ea-8f21-9788a834e844
b957468e-51af-11ea-a364-d7795af80dca,b9777c4c-51af-11ea-8751-3f31b076f78c
b9651570-51af-11ea-90f4-67effb96bb20,b977d2b4-51af-11ea-a6e1-eb4c6f25d590
b96b1c2c-51af-11ea-ba0d-473696378431,b977e2fe-51af-11ea-aa21-a376e12369dc
b951f044-51af-11ea-9dba-1b582e6337bd,b9780522-51af-11ea-98dc-0301bc815ebc
b95df646-51af-11ea-880f-df7ee11e37e1,b9782a3e-51af-11ea-bbc1-033f79d6b6d5
b969469a-51af-11ea-b05c-bfc0d1be2ae5,b9786800-51af-11ea-a291-e37f3b2731ee
b951f044-51af-11ea-9dba-1b582e6337bd,b978a0fe-51af-11ea-9d2c-bb8e6af1102e
b960fe86-51af-11ea-9ae2-436ce5f7dd9e,b9789550-51af-11ea-b4d2-27ac5ea33e45
b959e1be-51af-11ea-ae32-738fc5db96df,b978ab94-51af-11ea-a9e9-5fc147879f11
b953c5d6-51af-11ea-b186-17b3341a9a97,b978f748-51af-11ea-9854-ffecb0b6a94a
b9606430-51af-11ea-b5d4-2f8b2749b8c8,b9795fe4-51af-11ea-9cc1-e78fd4fe74e5
b9695680-51af-11ea-8246-3fd130de5957,b9796016-51af-11ea-a042-b7d22e991c9c
b96e54aa-51af-11ea-b39a-3781a21393e8,b9797074-51af-11ea-8f11-57a81b33f24e
b9647af2-51af-11ea-92e8-dfcc12c4fb2e,b979928e-51af-11ea-843f-5f59abafba32
b9599308-51af-11ea-a1ab-b3b8a5123783,b97a05f2-51af-11ea-9548-7ba484e173b8
b95e3908-51af-11ea-a934-57181385b50f,b97a1146-51af-11ea-b7e6-8bedeee65c4f
b956dc12-51af-11ea-b528-6be0d91edef2,b97a201e-51af-11ea-8875-4fc292ca2dd4
b97003ae-51af-11ea-84d6-2736e54a6c29,b97a512e-51af-11ea-a96f-3b1f1de05cec
b954a276-51af-11ea-a59a-b384d8ec1fe2,b97a71ea-51af-11ea-a1a3-93f32d667039
b9555734-51af-11ea-8756-0bce19a0ffc1,b97a893c-51af-11ea-a1d7-171d19239cff
b960e554-51af-11ea-a4a5-e7380a6f255a,b97ad0fe-51af-11ea-8748-6f1b1a33bd10
b9597828-51af-11ea-9602-6b4b32525fea,b97afd36-51af-11ea-ab7d-d79c829b12ba
b977e2fe-51af-11ea-aa21-a376e12369dc,b97b1140-51af-11ea-9ab6-339665be7045
b97229cc-51af-11ea-bbf9-df65afcdd5aa,b97b30da-51af-11ea-a4d1-475bb103e7fb
b95df646-51af-11ea-880f-df7ee11e37e1,b97b7c52-51af-11ea-ac19-e320497b4210
b978f748-51af-11ea-9854-ffecb0b6a94a,b97bbc1c-51af-11ea-bdc5-0714ecc40830
b967c392-51af-11ea-8e05-eb5a39d966e4,b97bf344-51af-11ea-950f-dbb2b8f8c59e
b959e1be-51af-11ea-ae32-738fc5db96df,b97be070-51af-11ea-ab09-f346b1cbf57e
b96fbc1e-51af-11ea-ae8b-2b992c298680,b97c1f2c-51af-11ea-879b-07c704c80fa6
b97511fa-51af-11ea-9135-835bff1fb1cd,b97c7076-51af-11ea-bc9b-e399ef07f5a3
b97afd36-51af-11ea-ab7d-d79c829b12ba,b97cb464-51af-11ea-9274-0fb76be99df6
b9780522-51af-11ea-98dc-0301bc815ebc,b97cc76a-51af-11ea-af31-971a078cd8e8
b95509fa-51af-11ea-a903-b3e64e2cae09,b97ce18c-51af-11ea-a43f-d78898fc6701
b95d902a-51af-11ea-bda4-3b074e6b96e3,b97d9302-51af-11ea-be22-4351bd5b95ce
b97b30da-51af-11ea-a4d1-475bb103e7fb,b97da5f4-51af-11ea-ad83-6f6a854bd54d
b95c49fe-51af-11ea-b71d-aff7aecd396e,b97dc322-51af-11ea-b929-938de165f87e
b968e100-51af-11ea-ad98-7b699a5953bd,b97de35c-51af-11ea-9b50-0f84b9daf49c
b97003ae-51af-11ea-84d6-2736e54a6c29,b97e3834-51af-11ea-b64a-af9d0812a3e6
b977d2b4-51af-11ea-a6e1-eb4c6f25d590,b97ec1fa-51af-11ea-a7a3-67df925e2f37
b9683d90-51af-11ea-a6cb-6ba974accefd,b97ed744-51af-11ea-aa97-4b0c568ccc1c
b978a0fe-51af-11ea-9d2c-bb8e6af1102e,b97f0408-51af-11ea-a27b-b7b7126f1ec8
b968240e-51af-11ea-aa48-57f23d2a81a3,b97f7078-51af-11ea-be60-ffc6e07c91f8
b962e494-51af-11ea-95eb-d7b151fe8509,b97f7f46-51af-11ea-b6ac-276ff62b15c6
b95ef1d6-51af-11ea-81f6-bbdfea35ed42,b97f9d78-51af-11ea-a546-57a3bf8557c9
b97d9302-51af-11ea-be22-4351bd5b95ce,b97fb916-51af-11ea-924b-37a1ccc9a90f
b96597d4-51af-11ea-9575-5fd265f1ec82,b9800c40-51af-11ea-82e0-93d0828de56a
b9760614-51af-11ea-8155-634a818f8cd7,b9803706-51af-11ea-8f59-8b726c2ee9e1
b971d166-51af-11ea-aa15-2313d32f2248,b98042aa-51af-11ea-b42c-9720329604c0
b97f0408-51af-11ea-a27b-b7b7126f1ec8,b9802bc6-51af-11ea-a221-d738fc12b7a2
b951f044-51af-11ea-9dba-1b582e6337bd,b980b8f2-51af-11ea-9c9c-3b437e2fba19
b9782a3e-51af-11ea-bbc1-033f79d6b6d5,b98103ca-51af-11ea-9e17-ab0cf826e793
b9647af2-51af-11ea-92e8-dfcc12c4fb2e,b9812b16-51af-11ea-808e-3b3e2f490398
b95d4dae-51af-11ea-ae26-7fd0be737a94,b981157c-51af-11ea-a4c0-73b8d5028279
b9712626-51af-11ea-9583-8bf5291c1560,b9813926-51af-11ea-9e15-bb6f98cb37c6
b9777c4c-51af-11ea-8751-3f31b076f78c,b981a370-51af-11ea-9ae9-6759a07fbff0
b9665084-51af-11ea-b024-a38da9d03395,b981d872-51af-11ea-b5a1-3b34e54a9e45
b9566020-51af-11ea-9cb8-e385fe6e7604,b982202a-51af-11ea-aecf-c77ccb5623e2
b9786800-51af-11ea-a291-e37f3b2731ee,b98260b2-51af-11ea-8f79-8be35ab54fa8
b960a97c-51af-11ea-9105-6f375a41db1f,b9827296-51af-11ea-9092-ff3a1b24e819
b95ef1d6-51af-11ea-81f6-bbdfea35ed42,b982ab08-51af-11ea-87fa-2b086592af76
b95ef1d6-51af-11ea-81f6-bbdfea35ed42,b982cc8c-51af-11ea-9f65-f3ca5fc02b36
b97da5f4-51af-11ea-ad83-6f6a854bd54d,b9830012-51af-11ea-b008-1b62acb6fb76
b95f5d7e-51af-11ea-bd6e-8f7df8f3a378,b98324ca-51af-11ea-b36e-07cc21421b0c
b970ead0-51af-11ea-b03e-ffbc6faa7bd2,b9834bb2-51af-11ea-8a05-8fdbcb805f60
b9707d7a-51af-11ea-b2ac-5f3445a17d46,b9836a52-51af-11ea-a66e-eb02e16df842
b9563c62-51af-11ea-9991-1bbbc302f759,b983e13a-51af-11ea-bb1d-af681633907c
b95c10ec-51af-11ea-a403-e720128d0cdf,b983eea0-51af-11ea-838a-5ff3152dfd30
b97c7076-51af-11ea-bc9b-e399ef07f5a3,b9840f70-51af-11ea-a251-9341ece32695
b960fe86-51af-11ea-9ae2-436ce5f7dd9e,b984037c-51af-11ea-bce9-ab20e798fdb2
b9840f70-51af-11ea-a251-9341ece32695,b9849b8e-51af-11ea-958d-4f74a8a79522
b9683070-51af-11ea-ab69-33a68b7f3aaf,b984aafc-51af-11ea-ad6e-9b13046b1b10
b96b99d6-51af-11ea-bce6-1f8c9d50843e,b984bb5a-51af-11ea-8220-e34bad809a42
b9577078-51af-11ea-9938-8b68668e2870,b984c9a6-51af-11ea-a3c1-c71983cb37d2
b95e3908-51af-11ea-a934-57181385b50f,b9851a3c-51af-11ea-ad16-c3bc38ae98bf
b979928e-51af-11ea-843f-5f59abafba32,b9854502-51af-11ea-9b6b-23e91470d94f
b971d166-51af-11ea-aa15-2313d32f2248,b9855358-51af-11ea-8c20-b79be04bd7ff
b97a893c-51af-11ea-a1d7-171d19239cff,b9853580-51af-11ea-9958-ab7d0849acba
b9786800-51af-11ea-a291-e37f3b2731ee,b985e7e6-51af-11ea-98eb-438adb054d49
b978f748-51af-11ea-9854-ffecb0b6a94a,b9860adc-51af-11ea-a7f1-dbeb89cfce88
b965cc72-51af-11ea-a085-4b7a67bd4313,b9863dfe-51af-11ea-b8f7-e709d4b0d10c
b951d88e-51af-11ea-bb12-5f2df4c5579e,b9862bc0-51af-11ea-90f8-0707ef8ee15f
b97f0408-51af-11ea-a27b-b7b7126f1ec8,b9868e58-51af-11ea-92ec-8b2566fd0ce6
b9709756-51af-11ea-babe-c312f289af75,b986ded0-51af-11ea-bcb0-27464ed5c2a3
b95e3908-51af-11ea-a934-57181385b50f,b986ec40-51af-11ea-8a0a-e395072185c8
b97a893c-51af-11ea-a1d7-171d19239cff,b986f852-51af-11ea-9115-5b4dcc0fa626
b96fbc1e-51af-11ea-ae8b-2b992c298680,b987068a-51af-11ea-b764-27d1b3c5941d
b952a0de-51af-11ea-bea8-47eafe00445f,b9875d1a-51af-11ea-9700-c34509ad9a5d
b95acd7c-51af-11ea-b71e-f365d967249d,b9876ae4-51af-11ea-b695-373d6d33eb07
b969469a-51af-11ea-b05c-bfc0d1be2ae5,b987bdc8-51af-11ea-b2d5-eb55a24cb438
b97f7078-51af-11ea-be60-ffc6e07c91f8,b987cd7c-51af-11ea-b105-2ff8ab889938
b95d4dae-51af-11ea-ae26-7fd0be737a94,b98815b6-51af-11ea-b9e1-07b6ce580b8d
b9707d7a-51af-11ea-b2ac-5f3445a17d46,b988391a-51af-11ea-a4a1-27b70af9d901
b97e3834-51af-11ea-b64a-af9d0812a3e6,b988855a-51af-11ea-b2e8-376a5e8f0252
b97f7078-51af-11ea-be60-ffc6e07c91f8,b9889df6-51af-11ea-bf7d-2f8ebb8f2fa9
b95b6412-51af-11ea-a7d7-73ad44d46d69,b9891ba0-51af-11ea-99d2-734c4e3b20bd
b9758ea0-51af-11ea-a22b-f399acf9e625,b9894fbc-51af-11ea-a59c-a7ecd826b32f
b984037c-51af-11ea-bce9-ab20e798fdb2,b9895e12-51af-11ea-83a6-178eab2382d6
b9876ae4-51af-11ea-b695-373d6d33eb07,b9896bbe-51af-11ea-8917-dfd8fa71c6fd
b9875d1a-51af-11ea-9700-c34509ad9a5d,b989e4b8-51af-11ea-93de-775a87aa6482
b987bdc8-51af-11ea-b2d5-eb55a24cb438,b989f336-51af-11ea-a496-df2c9ddb8f5d
b976e872-51af-11ea-8201-23705f049576,b98a16b8-51af-11ea-bf81-d3795649d619
b953b564-51af-11ea-b368-cf411078a19f,b98a02ae-51af-11ea-a0db-db2774ffb7f7
b9813926-51af-11ea-9e15-bb6f98cb37c6,b98aa02e-51af-11ea-ab59-6f9ada755184
b96acc72-51af-11ea-80ba-7730ab0741fb,b98ab19a-51af-11ea-b7b1-3b9826760ccf
b95e3908-51af-11ea-a934-57181385b50f,b98ad24c-51af-11ea-90d9-1705b0ae5dca
b9580c68-51af-11ea-a239-a39481a916fd,b98b24a4-51af-11ea-a28f-f3117e26193b
b975bc54-51af-11ea-8a7a-6f25a6e14305,b98b7ca6-51af-11ea-b075-d782600305ce
b979928e-51af-11ea-843f-5f59abafba32,b98b8cfa-51af-11ea-bd86-2bbc900ad846
b97062ea-51af-11ea-82e7-639a7f039ab8,b98bbae0-51af-11ea-8f10-bb4dc7d3ce3a
b9563c62-51af-11ea-9991-1bbbc302f759,b98c333a-51af-11ea-9cc6-d74cdcf88b95
b98ab19a-51af-11ea-b7b1-3b9826760ccf,b98c43d4-51af-11ea-9edf-3f3553bfe50e
b952b114-51af-11ea-837f-e747e73a4e88,b98c1f3a-51af-11ea-a204-5b14a0d60d7f
b959e1be-51af-11ea-ae32-738fc5db96df,b98cb58a-51af-11ea-8711-cfcb45294707
b978a0fe-51af-11ea-9d2c-bb8e6af1102e,b98cd1c8-51af-11ea-8b94-0fe0f9c96ff6
b952a0de-51af-11ea-bea8-47eafe00445f,b98cc642-51af-11ea-a999-8329a0f4d659
b97b1140-51af-11ea-9ab6-339665be7045,b98d40d6-51af-11ea-9529-637191ee591d
b9760614-51af-11ea-8155-634a818f8cd7,b98d5864-51af-11ea-84d6-5fa5d92de991
b9591c0c-51af-11ea-ae27-c326593cb991,b98d6de0-51af-11ea-a804-d38d09c7707a
b9581e9c-51af-11ea-be8b-77ad66c772f5,b98ddaaa-51af-11ea-89ef-3b341ebd4012
b9651570-51af-11ea-90f4-67effb96bb20,b98e0f52-51af-11ea-8a61-1fe1666ab64c
b9683070-51af-11ea-ab69-33a68b7f3aaf,b98e44ea-51af-11ea-8772-9f6178b26206
b9549434-51af-11ea-989a-c35070771a61,b98e59da-51af-11ea-8144-e326d3ea4a4d
b9716636-51af-11ea-98ad-63cf7e95dd37,b98ea340-51af-11ea-9b50-370231fa4320
b952a0de-51af-11ea-bea8-47eafe00445f,b98eb3b2-51af-11ea-90a4-6f5af2afa39c
b956dc12-51af-11ea-b528-6be0d91edef2,b98ec8fc-51af-11ea-a0ae-ef0156ceb01c
b983e13a-51af-11ea-bb1d-af681633907c,b98f1938-51af-11ea-88a8-739a85eb4277
b96f80d2-51af-11ea-b107-a3d858eaf09c,b98f3f44-51af-11ea-b7bc-8b3a8a183546
b96577ae-51af-11ea-b879-7f22c83c1cc5,b98f6730-51af-11ea-b6c4-0b25fed927b8
b97a893c-51af-11ea-a1d7-171d19239cff,b98f95ca-51af-11ea-b6ad-3b93676c339e
b98b8cfa-51af-11ea-bd86-2bbc900ad846,b98fdab2-51af-11ea-9d5d-7763a9cec7c4
b987068a-51af-11ea-b764-27d1b3c5941d,b9900e10-51af-11ea-8f3e-8782c098e830
b9773ffc-51af-11ea-8f21-9788a834e844,b99021b6-51af-11ea-af3a-47efabd2e508
b977521c-51af-11ea-963d-5f7d35674bd4,b9903458-51af-11ea-936b-e758f751c1ce
b98ab19a-51af-11ea-b7b1-3b9826760ccf,b9907aa8-51af-11ea-a3e4-6bef3f8dd05f
b9756fa6-51af-11ea-96aa-bb3c2c04b627,b9909ea2-51af-11ea-bfff-43f1ff7de844
b9582d74-51af-11ea-ba1f-1bcdc8667b07,b990a8b6-51af-11ea-9eba-b7daa75a4cc0
b98815b6-51af-11ea-b9e1-07b6ce580b8d,b990d098-51af-11ea-a674-df640a558469
b96597d4-51af-11ea-9575-5fd265f1ec82,b990ed30-51af-11ea-b3b7-2b2d82ace158
b9741930-51af-11ea-9ca6-db128f4adfd0,b991014e-51af-11ea-8b29-bf0a518025bc
b968b270-51af-11ea-8fa8-17ab86dc1df5,b9915040-51af-11ea-a196-4f60294309e9
b977521c-51af-11ea-963d-5f7d35674bd4,b99161c0-51af-11ea-9494-8f276f745408
b98ddaaa-51af-11ea-89ef-3b341ebd4012,b9916e22-51af-11ea-b476-cf1079d6e2f0
b96b3f54-51af-11ea-931b-33926f7abd1e,b99182c2-51af-11ea-8e82-7bfd060e9fe5
b951e2e8-51af-11ea-9d03-630374ab4998,b99201ac-51af-11ea-bb99-5f9c3e9e14e9
b975c9f6-51af-11ea-a99c-47d2248e9ce2,b99212b4-51af-11ea-8de3-1b6c76c31e8f
b96730b2-51af-11ea-8549-4b285062a00e,b9921e58-51af-11ea-aa5b-1719377d11c1
b9741930-51af-11ea-9ca6-db128f4adfd0,b9922eac-51af-11ea-b77c-3f481094404e
b960a97c-51af-11ea-9105-6f375a41db1f,b992a01c-51af-11ea-92ab-fb996bbbc9cc
b9581e9c-51af-11ea-be8b-77ad66c772f5,b992e018-51af-11ea-ba30-1f56e4213027
b970ead0-51af-11ea-b03e-ffbc6faa7bd2,b992f134-51af-11ea-b2e2-b3cf71269e64
b969469a-51af-11ea-b05c-bfc0d1be2ae5,b99306f6-51af-11ea-9492-a7a5a171013f
b992a01c-51af-11ea-92ab-fb996bbbc9cc,b99354a8-51af-11ea-a4a3-ff119fcd2185
b9796016-51af-11ea-a042-b7d22e991c9c,b993616e-51af-11ea-827c-db5ed689315f
b966ad5e-51af-11ea-b612-63cd7f2e9264,b9936fe2-51af-11ea-b8d5-0b8a95c26daa
b9763c88-51af-11ea-ae55-1b1c78a1dbbc,b99387e8-51af-11ea-82c7-bb08c1dea496
b9915040-51af-11ea-a196-4f60294309e9,b993f5b6-51af-11ea-ad03-27312ff42113
b986f852-51af-11ea-9115-5b4dcc0fa626,b9941154-51af-11ea-b7ea-8f3ed984cca2
b9577078-51af-11ea-9938-8b68668e2870,b994207c-51af-11ea-9626-a3b1d53477ca
b9936fe2-51af-11ea-b8d5-0b8a95c26daa,b9942e5a-51af-11ea-bd2f-a71f1ca36f11
b978f748-51af-11ea-9854-ffecb0b6a94a,b9947c8e-51af-11ea-9802-0f3d19ed2eda
b953b564-51af-11ea-b368-cf411078a19f,b9948a1c-51af-11ea-9df4-eb42e47d5083
b95df646-51af-11ea-880f-df7ee11e37e1,b994d314-51af-11ea-b785-17c059d21ccf
b9836a52-51af-11ea-a66e-eb02e16df842,b994e584-51af-11ea-9c5a-9b9672467e63
b982202a-51af-11ea-aecf-c77ccb5623e2,b9950596-51af-11ea-921f-db02c05d2ea8
b97de35c-51af-11ea-9b50-0f84b9daf49c,b9956a7c-51af-11ea-8cfb-ef2c284e1c6b
b97a71ea-51af-11ea-a1a3-93f32d667039,b995a046-51af-11ea-9d65-17612ff275b7
b952b114-51af-11ea-837f-e747e73a4e88,b995cb98-51af-11ea-b771-079309b7ebcb
b953c5d6-51af-11ea-b186-17b3341a9a97,b9960374-51af-11ea-83bc-833f80058800
b9563c62-51af-11ea-9991-1bbbc302f759,b9961472-51af-11ea-8f72-87d4d88901c5
b95f5d7e-51af-11ea-bd6e-8f7df8f3a378,b996564e-51af-11ea-9e97-af532931b94a
b97de35c-51af-11ea-9b50-0f84b9daf49c,b9967e62-51af-11ea-b2cc-ff4f2b9a1bf6
b9860adc-51af-11ea-a7f1-dbeb89cfce88,b996b116-51af-11ea-8c87-97f2d414efc4
b9789550-51af-11ea-b4d2-27ac5ea33e45,b996cd9a-51af-11ea-a88b-b7f3d56e207a
b9773ffc-51af-11ea-8f21-9788a834e844,b99737bc-51af-11ea-8b4e-43398a9a0f5d
b955b062-51af-11ea-b7c4-e79493f84be8,b9976e58-51af-11ea-9457-37aa04c6aff5
b95509fa-51af-11ea-a903-b3e64e2cae09,b9979130-51af-11ea-96e0-ffec0f98de5f
b9647af2-51af-11ea-92e8-dfcc12c4fb2e,b997c952-51af-11ea-9e70-7796d8197c8c
b957468e-51af-11ea-a364-d7795af80dca,b998212c-51af-11ea-a718-cfb5872560d6
b957468e-51af-11ea-a364-d7795af80dca,b99831bc-51af-11ea-802f-3b34b3c51cff
b956dc12-51af-11ea-b528-6be0d91edef2,b998490e-51af-11ea-bce4-4f204887d3d4
b97205dc-51af-11ea-9377-1f86b6505b8b,b99892b0-51af-11ea-b1a1-7f44541d0098
b964c962-51af-11ea-bf8d-d37aec8db9c6,b998d374-51af-11ea-81ee-ff452c013600
b968b270-51af-11ea-8fa8-17ab86dc1df5,b99906aa-51af-11ea-a3d8-b3092c415a78
b96f263c-51af-11ea-8f2b-1787d6e5673f,b9992482-51af-11ea-a0e1-7b4eebd7b3ba
b97f7078-51af-11ea-be60-ffc6e07c91f8,b9993e5e-51af-11ea-b532-e7a9d9cf4496
b96597d4-51af-11ea-9575-5fd265f1ec82,b999a592-51af-11ea-8002-df8756f13602
b952c0c8-51af-11ea-a9b5-e7f766ad086d,b999b262-51af-11ea-ab23-6f071eeae64f
b969469a-51af-11ea-b05c-bfc0d1be2ae5,b999db66-51af-11ea-ac73-77d4e90424b7
b9683070-51af-11ea-ab69-33a68b7f3aaf,b999fda8-51af-11ea-b819-0bfc6bfe70d0
b998d374-51af-11ea-81ee-ff452c013600,b99a8c1e-51af-11ea-a3f4-f3a6aad7b6b5
b96add34-51af-11ea-8280-4b1ed408896b,b99a9e8e-51af-11ea-ad55-cbb7a35f197b
b9853580-51af-11ea-9958-ab7d0849acba,b99ab4be-51af-11ea-8cbe-2b588527eea9
b96c0aec-51af-11ea-897f-e740181402f2,b99ac832-51af-11ea-b115-63c294bc5a27
b95c2000-51af-11ea-ad4b-b70d90f1f55d,b99b2318-51af-11ea-b132-fb6149a31e85
b984bb5a-51af-11ea-8220-e34bad809a42,b99b32e0-51af-11ea-b852-a3e786b13fea
b98f6730-51af-11ea-b6c4-0b25fed927b8,b99b4212-51af-11ea-a276-6f0f49d636fa
b976c392-51af-11ea-bff6-0f65faff5f95,b99b61d4-51af-11ea-9c5c-e7f094947199
b97369a4-51af-11ea-a383-9f9acc6099d7,b99b9f5a-51af-11ea-8304-5fd541024bfc
b976e872-51af-11ea-8201-23705f049576,b99bd402-51af-11ea-b35a-43b529ecbdf3
b95c10ec-51af-11ea-a403-e720128d0cdf,b99c0b98-51af-11ea-9ea6-c3d539a39231
b9789550-51af-11ea-b4d2-27ac5ea33e45,b99c1ec6-51af-11ea-9e2c-e3885729e060
b9563c62-51af-11ea-9991-1bbbc302f759,b99c64ee-51af-11ea-ac38-3ffb735d0f1e
b972b2ac-51af-11ea-bdca-0764d372f065,b99cd2da-51af-11ea-b67e-ef27aa97a935
b95e3908-51af-11ea-a934-57181385b50f,b99d2f82-51af-11ea-a651-8f8107584359
b98ea340-51af-11ea-9b50-370231fa4320,b99d4382-51af-11ea-be63-9fbe65d59e72
b95b7560-51af-11ea-bae6-87b4d506a3ce,b99d633a-51af-11ea-9dd3-1b950d267021
b97a1146-51af-11ea-b7e6-8bedeee65c4f,b99da9da-51af-11ea-97f2-0fc9d51915ae
b96d20f8-51af-11ea-9e92-cf6290ddc5d0,b99dc280-51af-11ea-8c69-97c7c3da2904
b96fbc1e-51af-11ea-ae8b-2b992c298680,b99e20ea-51af-11ea-9d92-ab3b38a9d96c
b9876ae4-51af-11ea-b695-373d6d33eb07,b99e3756-51af-11ea-a533-7f0c356e61e6
b951ce16-51af-11ea-a458-1b49092552b6,b99e50d8-51af-11ea-bc6f-63297b2c620c
b95ef1d6-51af-11ea-81f6-bbdfea35ed42,b99e5f10-51af-11ea-932c-97db39c8738e
b98c333a-51af-11ea-9cc6-d74cdcf88b95,b99ea8bc-51af-11ea-af50-57f4d3d407e1
b98ddaaa-51af-11ea-89ef-3b341ebd4012,b99edef4-51af-11ea-ae7a-a3d715aac0b8
b9748b7c-51af-11ea-8eb9-7f087ea3a0a3,b99f1568-51af-11ea-be72-1712c8101a31
b98ea340-51af-11ea-9b50-370231fa4320,b99f4f6a-51af-11ea-b2f4-e33dd7d6c5e9
b9731f12-51af-11ea-aa69-bf437f25d7eb,b99f9100-51af-11ea-9691-6b16cd3dd72e
b97369a4-51af-11ea-a383-9f9acc6099d7,b99fd138-51af-11ea-a1f1-9706b4a88fa7
b98eb3b2-51af-11ea-90a4-6f5af2afa39c,b99fdf84-51af-11ea-988f-976fec0ffeba
b9591c0c-51af-11ea-ae27-c326593cb991,b9a02304-51af-11ea-8879-07724500c19d
b98a02ae-51af-11ea-a0db-db2774ffb7f7,b9a03100-51af-11ea-a1b1-eb891bace49a
b956dc12-51af-11ea-b528-6be0d91edef2,b9a03d62-51af-11ea-85d2-2fef2489d46a
b96b1c2c-51af-11ea-ba0d-473696378431,b9a06314-51af-11ea-b4b6-135b4185992e
b984bb5a-51af-11ea-8220-e34bad809a42,b9a0d10a-51af-11ea-8158-27717ec9bdbf
b962917e-51af-11ea-925f-57a1f47df4f9,b9a0bbb6-51af-11ea-b92e-57776d98f0df
b96c50c4-51af-11ea-b058-57a7b49bd122,b9a10954-51af-11ea-a87d-0743def4ba01
b98f1938-51af-11ea-88a8-739a85eb4277,b9a123e4-51af-11ea-9783-ef8026045b4c
b9862bc0-51af-11ea-90f8-0707ef8ee15f,b9a19216-51af-11ea-b65c-7fc1c725429b
b96edefc-51af-11ea-aee4-1b91846b878e,b9a1b340-51af-11ea-8497-a369a080be32
b977d2b4-51af-11ea-a6e1-eb4c6f25d590,b9a1cf7e-51af-11ea-91c5-972568db34bf
b9992482-51af-11ea-a0e1-7b4eebd7b3ba,b9a1edec-51af-11ea-acbc-5ba369864c23
b969278c-51af-11ea-8ea2-5b2c787d799a,b9a25642-51af-11ea-aaca-ab2745f0104c
b969f248-51af-11ea-82bc-ebfad1b176be,b9a26240-51af-11ea-a2e0-b3db03190363
b97b1140-51af-11ea-9ab6-339665be7045,b9a26fa6-51af-11ea-9633-d3a9d2add944
b98815b6-51af-11ea-b9e1-07b6ce580b8d,b9a27c08-51af-11ea-80fb-dbbde6ab2ddb
b977d2b4-51af-11ea-a6e1-eb4c6f25d590,b9a2e602-51af-11ea-8c4e-23c981ee1cdd
b9803706-51af-11ea-8f59-8b726c2ee9e1,b9a2f4c6-51af-11ea-b09e-5b0b8726cf7e
b9595988-51af-11ea-a6e9-bba54ac211f8,b9a34804-51af-11ea-9f75-3fa951819f67
b96d510e-51af-11ea-852d-07ebf078617b,b9a36bf4-51af-11ea-9738-230d11c994f5
b9665d54-51af-11ea-93a3-63c1b328515e,b9a3a9ca-51af-11ea-9b0c-87acc3ba1a3b
b9a06314-51af-11ea-b4b6-135b4185992e,b9a3b8fc-51af-11ea-8148-c31029090b80
b96dad0c-51af-11ea-92a4-1ba5a1406f1c,b9a433f4-51af-11ea-984b-ef20cd86abea
b998d374-51af-11ea-81ee-ff452c013600,b9a44cf4-51af-11ea-8d28-437572180105
b9616a6a-51af-11ea-afcb-6b71d83f6264,b9a46040-51af-11ea-b283-c7613c09ba8d
b97cc76a-51af-11ea-af31-971a078cd8e8,b9a4a4c4-51af-11ea-a0be-83503dc5e259
b9a0d10a-51af-11ea-8158-27717ec9bdbf,b9a4c288-51af-11ea-aad4-d37eff4a2df9
b95a0932-51af-11ea-9cd0-235a75e5a634,b9a4f686-51af-11ea-b4c9-33a63c2146da
b9591c0c-51af-11ea-ae27-c326593cb991,b9a52020-51af-11ea-83c2-b37ecea4643d
b9813926-51af-11ea-9e15-bb6f98cb37c6,b9a54b90-51af-11ea-81c7-7f5de37bd18c
b95c2f50-51af-11ea-93d4-ef4ce4906b65,b9a56c6a-51af-11ea-8252-cf35bd6529a7
b9548584-51af-11ea-92f9-839278788037,b9a5a810-51af-11ea-89b7-8bb2c03d5c4f
b9756fa6-51af-11ea-96aa-bb3c2c04b627,b9a5c372-51af-11ea-8932-9b73de8ff400
b9619c4c-51af-11ea-9271-83e0b507d076,b9a5f9c8-51af-11ea-af0e-87ef1cb5eb0d
b9549434-51af-11ea-989a-c35070771a61,b9a6149e-51af-11ea-b74b-f34e8a63e0dd
b986ec40-51af-11ea-8a0a-e395072185c8,b9a62dd0-51af-11ea-8534-5bf7c35819fa
b9777c4c-51af-11ea-8751-3f31b076f78c,b9a644b4-51af-11ea-ab96-c79e5cb7cd20
b973dfba-51af-11ea-a0d0-4737b1338a42,b9a685f0-51af-11ea-bea1-330a2c346b2f
b9a2e602-51af-11ea-8c4e-23c981ee1cdd,b9a6b674-51af-11ea-ac93-2f2db819c243
b98b8cfa-51af-11ea-bd86-2bbc900ad846,b9a6edb0-51af-11ea-aaec-0fc02700e670
b9683d90-51af-11ea-a6cb-6ba974accefd,b9a7116e-51af-11ea-b5ae-7732cadea052
b96e54aa-51af-11ea-b39a-3781a21393e8,b9a74fa8-51af-11ea-a188-53d37c80c847
b96eb4d6-51af-11ea-a367-cfd6e165d718,b9a76fe2-51af-11ea-b221-f34e1b0023f2
b985e7e6-51af-11ea-98eb-438adb054d49,b9a780b8-51af-11ea-8153-1304b9c77b53
b99edef4-51af-11ea-ae7a-a3d715aac0b8,b9a7e9fe-51af-11ea-a08d-77f2b5f2d6ec
b994e584-51af-11ea-9c5a-9b9672467e63,b9a7ffac-51af-11ea-8521-df7431698cfe
b971de68-51af-11ea-b11d-ffeba93547ec,b9a838dc-51af-11ea-b9af-ef7e16a2c4de
b984c9a6-51af-11ea-a3c1-c71983cb37d2,b9a81686-51af-11ea-938d-13cdb23f81df
b9921e58-51af-11ea-aa5b-1719377d11c1,b9a892d2-51af-11ea-bf37-fb95155215be
b98ab19a-51af-11ea-b7b1-3b9826760ccf,b9a8ebb0-51af-11ea-9a9b-139c9dfe1096
b99f4f6a-51af-11ea-b2f4-e33dd7d6c5e9,b9a90050-51af-11ea-84f2-7b77b9de7687
b98a02ae-51af-11ea-a0db-db2774ffb7f7,b9a90e9c-51af-11ea-ab1a-639b0942c6a9
b97c1f2c-51af-11ea-879b-07c704c80fa6,b9a92eae-51af-11ea-82c9-4faa3d7b1dfa
b96d664e-51af-11ea-b2e5-0fd1d5242328,b9a991dc-51af-11ea-9968-1f744531a848
b9922eac-51af-11ea-b77c-3f481094404e,b9a9bb44-51af-11ea-85bd-130fdbb9f92c
b990ed30-51af-11ea-b3b7-2b2d82ace158,b9a9cb7a-51af-11ea-8bfa-d37cb956c92d
b9915040-51af-11ea-a196-4f60294309e9,b9a9da02-51af-11ea-a748-bba8afad9f3b
b965f594-51af-11ea-940c-f71a75669f73,b9aa4140-51af-11ea-bcc8-fbce2a969155
b9727d14-51af-11ea-a0b0-6f69c2b20bd0,b9aa51bc-51af-11ea-8894-8f12f7c09813
b96e54aa-51af-11ea-b39a-3781a21393e8,b9aa64e0-51af-11ea-bfdf-53c438bb1fd5
b986ded0-51af-11ea-bcb0-27464ed5c2a3,b9aa73d6-51af-11ea-8a44-7bce57687140
b9896bbe-51af-11ea-8917-dfd8fa71c6fd,b9aae488-51af-11ea-a16b-33fd2081a420
b96e2156-51af-11ea-b78b-773f062aa81d,b9aaf6da-51af-11ea-90cb-83dfd14f86c9
b9a2f4c6-51af-11ea-b09e-5b0b8726cf7e,b9ab04b8-51af-11ea-9a71-5bd9f4768b06
b97468f4-51af-11ea-9e60-df8f0a5ea766,b9ab1278-51af-11ea-a30e-af0805060972
b97062ea-51af-11ea-82e7-639a7f039ab8,b9ab6494-51af-11ea-9db6-3fb318559f35
b95efc76-51af-11ea-8786-23d2b295c0de,b9ab842e-51af-11ea-8f0d-3be67c72cde5
b9580c68-51af-11ea-a239-a39481a916fd,b9abfb84-51af-11ea-99bd-03f6014581ee
b99b32e0-51af-11ea-b852-a3e786b13fea,b9ac18bc-51af-11ea-b6a1-8ba686d1065b
b9830012-51af-11ea-b008-1b62acb6fb76,b9ac2e1a-51af-11ea-9e53-afd922619917
b978a0fe-51af-11ea-9d2c-bb8e6af1102e,b9ac992c-51af-11ea-b967-6fe1c911b6c0
b972b2ac-51af-11ea-bdca-0764d372f065,b9aca746-51af-11ea-9bf7-97bb73493132
b97e3834-51af-11ea-b64a-af9d0812a3e6,b9ad22b6-51af-11ea-ab78-a3cef5fc6c5b
b992a01c-51af-11ea-92ab-fb996bbbc9cc,b9ad5a1a-51af-11ea-8782-ff3f3d363762
b9a3b8fc-51af-11ea-8148-c31029090b80,b9ad83aa-51af-11ea-8a34-a739f4edd287
b9616a6a-51af-11ea-afcb-6b71d83f6264,b9ad9430-51af-11ea-b8ee-8b70c6bd25bb
b986ec40-51af-11ea-8a0a-e395072185c8,b9addd96-51af-11ea-bf4f-071526dda214
b9777c4c-51af-11ea-8751-3f31b076f78c,b9adfd8a-51af-11ea-b2b8-d76ac2569f48
b960e554-51af-11ea-a4a5-e7380a6f255a,b9ae17a2-51af-11ea-bcc8-9bf2fb1c9b25
b9a03100-51af-11ea-a1b1-eb891bace49a,b9ae0a8c-51af-11ea-8b66-c70636c5da5b
b996b116-51af-11ea-8c87-97f2d414efc4,b9aea9ec-51af-11ea-b8cc-83611f87e116
b980b8f2-51af-11ea-9c9c-3b437e2fba19,b9aeba7c-51af-11ea-bf20-5783d49df1dc
b969f248-51af-11ea-82bc-ebfad1b176be,b9aeda3e-51af-11ea-9d44-d396bfc9b105
b9ab1278-51af-11ea-a30e-af0805060972,b9aeea88-51af-11ea-9164-77a0028533d5
b98fdab2-51af-11ea-9d5d-7763a9cec7c4,b9af4442-51af-11ea-a73f-177bec7dc52b
b99edef4-51af-11ea-ae7a-a3d715aac0b8,b9af720a-51af-11ea-9dec-7bf7dcd02a96
b99d633a-51af-11ea-9dd3-1b950d267021,b9af8ac4-51af-11ea-985d-77e8f91887aa
b970ead0-51af-11ea-b03e-ffbc6faa7bd2,b9af9a0a-51af-11ea-846e-5b3dc17583f0
b95509fa-51af-11ea-a903-b3e64e2cae09,b9afe956-51af-11ea-a916-6bfacde3f4f5
b9a3b8fc-51af-11ea-8148-c31029090b80,b9aff734-51af-11ea-a6ae-679830715dc9
b9a02304-51af-11ea-8879-07724500c19d,b9b00472-51af-11ea-a24d-0bd8bdc10c97
b9733416-51af-11ea-bdc4-d30f021812e3,b9b037bc-51af-11ea-9f92-7f4d5ba7efee
b9af720a-51af-11ea-9dec-7bf7dcd02a96,b9b04fcc-51af-11ea-beaf-57a0ead65873
b9a36bf4-51af-11ea-9738-230d11c994f5,b9b06066-51af-11ea-99ca-9f57dd8c72f2
b97f0408-51af-11ea-a27b-b7b7126f1ec8,b9b0751a-51af-11ea-ae4b-9fc92ea80c88
b96eb4d6-51af-11ea-a367-cfd6e165d718,b9b0a9d6-51af-11ea-b3b3-bbb83129fcfe
b963fa96-51af-11ea-9483-5fec23e472fe,b9b1253c-51af-11ea-9aa5-53dfd04ddc03
b986ded0-51af-11ea-bcb0-27464ed5c2a3,b9b13540-51af-11ea-b43b-af176f1a6fac
b9849b8e-51af-11ea-958d-4f74a8a79522,b9b174c4-51af-11ea-9ad3-738851a5e09e
b97e3834-51af-11ea-b64a-af9d0812a3e6,b9b18dba-51af-11ea-8cc4-93cb02cdbc89
b9575322-51af-11ea-af23-7f6b76eab551,b9b1ab60-51af-11ea-99ef-17bdebc11136
b99b32e0-51af-11ea-b852-a3e786b13fea,b9b1db26-51af-11ea-8e45-53cf12b007fc
b956bc28-51af-11ea-a507-9bf2a50f8e07,b9b1f0e8-51af-11ea-b8b6-b3d4a231d7a2
b9a0bbb6-51af-11ea-b92e-57776d98f0df,b9b227de-51af-11ea-869d-13a2b3b08e8e
b9619c4c-51af-11ea-9271-83e0b507d076,b9b2446c-51af-11ea-bcc4-1be7ae0beafc
b99f1568-51af-11ea-be72-1712c8101a31,b9b2a042-51af-11ea-8eb1-47a5c16c2ef8
b98fdab2-51af-11ea-9d5d-7763a9cec7c4,b9b2c54a-51af-11ea-8b77-ef4206cc1b43
b98042aa-51af-11ea-b42c-9720329604c0,b9b2d4d6-51af-11ea-b69c-fb52cd0eadaa
b9a5c372-51af-11ea-8932-9b73de8ff400,b9b2e7b4-51af-11ea-8442-3737f9703f40
b951d88e-51af-11ea-bb12-5f2df4c5579e,b9b3a46a-51af-11ea-ad7b-d75ac96cd9ee
b989f336-51af-11ea-a496-df2c9ddb8f5d,b9b3b6b2-51af-11ea-bb63-5f625b2c706d
b9b04fcc-51af-11ea-beaf-57a0ead65873,b9b3c6fc-51af-11ea-8724-e7223ef96bb1
b988855a-51af-11ea-b2e8-376a5e8f0252,b9b3da70-51af-11ea-9964-e781bd54d4d1
b962466a-51af-11ea-b5b5-1bc110111132,b9b4261a-51af-11ea-a5c7-5feda3e30af3
b99d4382-51af-11ea-be63-9fbe65d59e72,b9b46cba-51af-11ea-8559-4704662e2bcc
b9725276-51af-11ea-9fb6-f7eede894986,b9b47c32-51af-11ea-8931-0f397bc89929
b976d968-51af-11ea-8217-0f9ebbaf1b7c,b9b49140-51af-11ea-8f87-cf90f19d5d68
b9895e12-51af-11ea-83a6-178eab2382d6,b9b4d506-51af-11ea-b640-dfe2ecf9d15f
b959684c-51af-11ea-8cf3-67ebd26ccae1,b9b51296-51af-11ea-a315-8b1765c8a746
b97062ea-51af-11ea-82e7-639a7f039ab8,b9b5268c-51af-11ea-93f0-4fc00ad60762
b9619c4c-51af-11ea-9271-83e0b507d076,b9b53212-51af-11ea-b758-471be53f3d50
b95621e6-51af-11ea-8142-67868b2209c2,b9b54162-51af-11ea-8fce-6b85623300cf
b9a03100-51af-11ea-a1b1-eb891bace49a,b9b5b57a-51af-11ea-ab11-6bc5a2c91a53
b99737bc-51af-11ea-8b4e-43398a9a0f5d,b9b5ce5c-51af-11ea-88e2-231f5bdc57a1
b952a0de-51af-11ea-bea8-47eafe00445f,b9b5de4c-51af-11ea-bdbf-a3e77fe751c8
b9afe956-51af-11ea-a916-6bfacde3f4f5,b9b5f3fa-51af-11ea-a77c-6b0a176c1d4c
b97062ea-51af-11ea-82e7-639a7f039ab8,b9b68acc-51af-11ea-89ca-a7b3c530722c
b9762c8e-51af-11ea-8866-df3b2963836c,b9b6a08e-51af-11ea-a5e1-c37e0c27476f
b99bd402-51af-11ea-b35a-43b529ecbdf3,b9b6b07e-51af-11ea-acd6-8be434bd85b5
b96a707e-51af-11ea-b168-cfd2e20f9951,b9b6d61c-51af-11ea-bbb4-57dde9ab8567
b959ef24-51af-11ea-80cc-e773c74ac434,b9b74d72-51af-11ea-b968-1f3895f9e2fd
b975bc54-51af-11ea-8a7a-6f25a6e14305,b9b796ce-51af-11ea-8660-6f3bde33d2a2
b99b2318-51af-11ea-b132-fb6149a31e85,b9b7862a-51af-11ea-b209-7f4ace73f8c8
b989e4b8-51af-11ea-93de-775a87aa6482,b9b7b2da-51af-11ea-afad-7b35260fa9e4
b9597828-51af-11ea-9602-6b4b32525fea,b9b80578-51af-11ea-b15c-f79d7ce40cf0
b95ef1d6-51af-11ea-81f6-bbdfea35ed42,b9b831f6-51af-11ea-be2f-9bd7c0dcdc02
b9849b8e-51af-11ea-958d-4f74a8a79522,b9b84eb6-51af-11ea-b4c6-e7c5f1632564
b99f9100-51af-11ea-9691-6b16cd3dd72e,b9b88138-51af-11ea-a576-ef0636dd131b
b977521c-51af-11ea-963d-5f7d35674bd4,b9b898da-51af-11ea-9ca8-0343d6ea27e8
b9557520-51af-11ea-a751-6b211a41d28d,b9b8d66a-51af-11ea-9e1b-9f49a31bebdd
b9589df4-51af-11ea-956e-43e6581ab3c8,b9b909e6-51af-11ea-b9a3-6b446d6669ec
b97b7c52-51af-11ea-ac19-e320497b4210,b9b934e8-51af-11ea-92d8-93cbd6f8865a
b9894fbc-51af-11ea-a59c-a7ecd826b32f,b9b9429e-51af-11ea-89da-2fb11470bebb
b97dc322-51af-11ea-b929-938de165f87e,b9b9a2fc-51af-11ea-8700-f3bd774dcc28
b952b114-51af-11ea-837f-e747e73a4e88,b9b9c1d8-51af-11ea-a4b4-03053c56b3f3
b9591c0c-51af-11ea-ae27-c326593cb991,b9b9dfba-51af-11ea-8489-af1a87c6f367
b97f9d78-51af-11ea-a546-57a3bf8557c9,b9ba0f30-51af-11ea-b4f9-c35d49e52311
b9a26fa6-51af-11ea-9633-d3a9d2add944,b9ba4ef0-51af-11ea-bfe7-03c9f830863a
b97bf344-51af-11ea-950f-dbb2b8f8c59e,b9ba5ecc-51af-11ea-82f9-ff3c60f47b92
b986ec40-51af-11ea-8a0a-e395072185c8,b9ba81b8-51af-11ea-989c-7b0c9435a849
b96fbc1e-51af-11ea-ae8b-2b992c298680,b9bae8e2-51af-11ea-9a04-d3a6b1aa4e1a
b9849b8e-51af-11ea-958d-4f74a8a79522,b9bb3356-51af-11ea-991e-4f3ad21db01c
b9ad83aa-51af-11ea-8a34-a739f4edd287,b9bb479c-51af-11ea-9035-1b9d64ced795
b988855a-51af-11ea-b2e8-376a5e8f0252,b9bb64fc-51af-11ea-8a53-d36b57c8b23a
b994207c-51af-11ea-9626-a3b1d53477ca,b9bbb8e4-51af-11ea-a72b-2b868a8f5453
b9a10954-51af-11ea-a87d-0743def4ba01,b9bbe1c0-51af-11ea-878b-1bf3624de4c5
b99b32e0-51af-11ea-b852-a3e786b13fea,b9bc6b22-51af-11ea-b2f1-bba2791acb07
b95e299a-51af-11ea-9e6e-eb9e051071f8,b9bc5592-51af-11ea-b5df-d339b5c2175c
b9a8ebb0-51af-11ea-9a9b-139c9dfe1096,b9bc7ca2-51af-11ea-93d9-877ea18a461a
b9a26fa6-51af-11ea-9633-d3a9d2add944,b9bc9b56-51af-11ea-90cf-f3034f708380
b96d1216-51af-11ea-806b-337fdcbaa506,b9bd4592-51af-11ea-87b5-7f7ac51849b7
b9adfd8a-51af-11ea-b2b8-d76ac2569f48,b9bd32d2-51af-11ea-93fc-dbb6ad9dd029
b97cb464-51af-11ea-9274-0fb76be99df6,b9bd6fe0-51af-11ea-9553-87c931bed6d6
b992a01c-51af-11ea-92ab-fb996bbbc9cc,b9bdd3ae-51af-11ea-91c0-7f240980e628
b9b46cba-51af-11ea-8559-4704662e2bcc,b9be2d5e-51af-11ea-b094-336f340bf6db
b9a25642-51af-11ea-aaca-ab2745f0104c,b9be1738-51af-11ea-bfa9-9398d2656f42
b9860adc-51af-11ea-a7f1-dbeb89cfce88,b9be7318-51af-11ea-a241-aff9f962b98d
b966cf6e-51af-11ea-9eca-536632f619a6,b9bea4c8-51af-11ea-b0f6-737bcf3931cb
b979928e-51af-11ea-843f-5f59abafba32,b9beb440-51af-11ea-b19a-c7df762bafe7
b956bc28-51af-11ea-a507-9bf2a50f8e07,b9bec75a-51af-11ea-afb2-3b92d05d37bf
b96495a0-51af-11ea-86cd-2744a6041410,b9bf0e2c-51af-11ea-88a3-bff5605aa162
b952a0de-51af-11ea-bea8-47eafe00445f,b9bf63d6-51af-11ea-9cab-2f8ef9e77188
b9773ffc-51af-11ea-8f21-9788a834e844,b9bf554e-51af-11ea-9008-57a8bfe6b658
b987bdc8-51af-11ea-b2d5-eb55a24cb438,b9bf7c86-51af-11ea-b011-ffa6b5a0fdbd
b9695680-51af-11ea-8246-3fd130de5957,b9bfc862-51af-11ea-b5af-7bc15e8cc515
b99161c0-51af-11ea-9494-8f276f745408,b9c04dbe-51af-11ea-b14e-471dd30df052
b99ac832-51af-11ea-b115-63c294bc5a27,b9c07262-51af-11ea-ba9c-7b2e9284fae3
b9bae8e2-51af-11ea-9a04-d3a6b1aa4e1a,b9c09490-51af-11ea-a637-130aed55b612
b96597d4-51af-11ea-9575-5fd265f1ec82,b9c0c94c-51af-11ea-bdd8-d79b882c601a
b9758ea0-51af-11ea-a22b-f399acf9e625,b9c10e84-51af-11ea-9083-c70202260c18
b9b3b6b2-51af-11ea-bb63-5f625b2c706d,b9c13e40-51af-11ea-b1c0-ffb8fe2bf848
b9b5b57a-51af-11ea-ab11-6bc5a2c91a53,b9c15b14-51af-11ea-bd4b-e3d8d39ae0e8
b95e800c-51af-11ea-a60c-f3314596edcf,b9c19d7c-51af-11ea-aa5a-dbcd07256ebe
b9b51296-51af-11ea-a315-8b1765c8a746,b9c1c432-51af-11ea-8d1c-9f29175ff39d
b982cc8c-51af-11ea-9f65-f3ca5fc02b36,b9c1dcba-51af-11ea-b5b9-0f225add2bd7
b9ab6494-51af-11ea-9db6-3fb318559f35,b9c1ee6c-51af-11ea-aa5a-0fbfb8da863d
b9763c88-51af-11ea-ae55-1b1c78a1dbbc,b9c2389a-51af-11ea-974f-b72933ee180c
b95c10ec-51af-11ea-a403-e720128d0cdf,b9c28e62-51af-11ea-b43e-7b84fffe1644
b9553f74-51af-11ea-9143-fbc950334dba,b9c29fec-51af-11ea-a2c7-7f52f8ec16c3
b9ac2e1a-51af-11ea-9e53-afd922619917,b9c2bb9e-51af-11ea-a5e0-f7ea2d788c1c
b9b831f6-51af-11ea-be2f-9bd7c0dcdc02,b9c32fde-51af-11ea-9e9a-2fc9a9934f64
b9a76fe2-51af-11ea-b221-f34e1b0023f2,b9c37f16-51af-11ea-84ca-432f3f8450ec
b984aafc-51af-11ea-ad6e-9b13046b1b10,b9c38d6c-51af-11ea-904b-d3b53115ea4d
b9b46cba-51af-11ea-8559-4704662e2bcc,b9c3abbc-51af-11ea-8059-4bab2cd57e42
b98aa02e-51af-11ea-ab59-6f9ada755184,b9c42cea-51af-11ea-86d1-1f9f87f6c637
b975c9f6-51af-11ea-a99c-47d2248e9ce2,b9c43b04-51af-11ea-a600-237c1b4ca229
b96c1a32-51af-11ea-9160-8bf5fbba5915,b9c45b7a-51af-11ea-912e-2f649fda31b7
b9568ae6-51af-11ea-907f-5b84cfe2355d,b9c46f66-51af-11ea-85c2-9b31d348ad71
b98815b6-51af-11ea-b9e1-07b6ce580b8d,b9c4b5a2-51af-11ea-86a3-4fa32da9a743
b96a14f8-51af-11ea-bbbf-8fc75b67067c,b9c4da00-51af-11ea-a418-ffdad1b5361a
b988855a-51af-11ea-b2e8-376a5e8f0252,b9c50980-51af-11ea-b4bf-2b32ce4a0b9f
b999a592-51af-11ea-8002-df8756f13602,b9c5500c-51af-11ea-b470-a313dd263873
b97fb916-51af-11ea-924b-37a1ccc9a90f,b9c59094-51af-11ea-9388-dbdcfc3f1666
b9636cac-51af-11ea-b197-6bd91544a92c,b9c5828e-51af-11ea-a2e6-7b0513a541eb
b96495a0-51af-11ea-86cd-2744a6041410,b9c5f71e-51af-11ea-af5d-33eddbfa2fba
b9a90050-51af-11ea-84f2-7b77b9de7687,b9c5e562-51af-11ea-bd35-d705a6bf9969
b99906aa-51af-11ea-a3d8-b3092c415a78,b9c65c18-51af-11ea-af6b-b321be38ba78
b9967e62-51af-11ea-b2cc-ff4f2b9a1bf6,b9c66bb8-51af-11ea-8f3f-97c4fa99034f
b9685a14-51af-11ea-8cbf-ab4ad70a18dd,b9c6994e-51af-11ea-a919-47a860ad71dc
b962e494-51af-11ea-95eb-d7b151fe8509,b9c6a858-51af-11ea-8b1a-7f8234fb20f1
b9685a14-51af-11ea-8cbf-ab4ad70a18dd,b9c72d5a-51af-11ea-a6f8-f739042fd944
b9ab04b8-51af-11ea-9a71-5bd9f4768b06,b9c745ba-51af-11ea-bf62-93f705bc11f0
b9b88138-51af-11ea-a576-ef0636dd131b,b9c7a244-51af-11ea-a095-2f523a1dd1cf
b98d40d6-51af-11ea-9529-637191ee591d,b9c7b158-51af-11ea-8fe5-fb597ad38534
b9b7b2da-51af-11ea-afad-7b35260fa9e4,b9c7ec40-51af-11ea-82ec-2b4d1102258d
b9c2389a-51af-11ea-974f-b72933ee180c,b9c80892-51af-11ea-bf46-0b2352e44ced
b9616088-51af-11ea-8f88-a36c257c2e67,b9c84852-51af-11ea-bc68-4b4a787e5726
b9619c4c-51af-11ea-9271-83e0b507d076,b9c88b1e-51af-11ea-a74c-9befabba2f9b
b9760614-51af-11ea-8155-634a818f8cd7,b9c8ea32-51af-11ea-9a47-37ef31f93ffa
b9760614-51af-11ea-8155-634a818f8cd7,b9c8db96-51af-11ea-8afe-178602cad27b
b9576268-51af-11ea-bb36-5bbb8f638a3a,b9c919bc-51af-11ea-84cf-370355876141
b975bc54-51af-11ea-8a7a-6f25a6e14305,b9c92736-51af-11ea-a365-a790649eb790
b9a123e4-51af-11ea-9783-ef8026045b4c,b9c98e92-51af-11ea-b8a0-773708dc0175
b96d664e-51af-11ea-b2e5-0fd1d5242328,b9c9a88c-51af-11ea-94d4-2b0ca9c259c9
b951e2e8-51af-11ea-9d03-630374ab4998,b9c9c2ae-51af-11ea-956d-8bf7e579acb5
b9a838dc-51af-11ea-b9af-ef7e16a2c4de,b9c9fd32-51af-11ea-ab28-d367a5432110
b9a52020-51af-11ea-83c2-b37ecea4643d,b9ca193e-51af-11ea-8ec6-539682af60a6
b9c15b14-51af-11ea-bd4b-e3d8d39ae0e8,b9ca5070-51af-11ea-ae59-5b59dae89dff
b999a592-51af-11ea-8002-df8756f13602,b9ca90ee-51af-11ea-8a5e-2781ec8f5e3d
b99d2f82-51af-11ea-a651-8f8107584359,b9caa03e-51af-11ea-823f-5f2589ef794d
b989f336-51af-11ea-a496-df2c9ddb8f5d,b9cae0da-51af-11ea-8c49-2f83853c0fb8
b9c1ee6c-51af-11ea-aa5a-0fbfb8da863d,b9cb342c-51af-11ea-a994-87f8c4363fc8
b969278c-51af-11ea-8ea2-5b2c787d799a,b9cb5f06-51af-11ea-ba54-239433dff5ad
b987cd7c-51af-11ea-b105-2ff8ab889938,b9cb6d8e-51af-11ea-826b-5f5e72e4cf5d
b9bb64fc-51af-11ea-8a53-d36b57c8b23a,b9cb7d6a-51af-11ea-8779-57cd94e6e2e5
b9993e5e-51af-11ea-b532-e7a9d9cf4496,b9cbe732-51af-11ea-91d9-870e59ca44cd
b960f1f2-51af-11ea-b5cb-9fc1ada29c7c,b9cbf8d0-51af-11ea-885f-6f65d387742c
b95621e6-51af-11ea-8142-67868b2209c2,b9cc08b6-51af-11ea-ae2e-676bf1417feb
b97a893c-51af-11ea-a1d7-171d19239cff,b9cc1784-51af-11ea-9847-53e4890eb8e8
b9bdd3ae-51af-11ea-91c0-7f240980e628,b9ccaf32-51af-11ea-a725-5ba03b4933be
b982ab08-51af-11ea-87fa-2b086592af76,b9ccbf18-51af-11ea-b4a2-7fa1086074f1
b95ef1d6-51af-11ea-81f6-bbdfea35ed42,b9cccdfa-51af-11ea-a2c8-bbed2dda551f
b9aa4140-51af-11ea-bcc8-fbce2a969155,b9cce286-51af-11ea-9cbe-5be740e05b92
b95ff8ba-51af-11ea-affa-eb481d3c190b,b9cd6fda-51af-11ea-9587-8bae9da0f0e3
b994e584-51af-11ea-9c5a-9b9672467e63,b9cd7d68-51af-11ea-98dd-7bd5bc7bc866
b9636cac-51af-11ea-b197-6bd91544a92c,b9cd8e2a-51af-11ea-b06a-efb79f610308
b9c98e92-51af-11ea-b8a0-773708dc0175,b9cdb9a4-51af-11ea-87d9-d33a3e1821e4
b96783b4-51af-11ea-a140-8783799ba0ff,b9ce437e-51af-11ea-861e-436874adbe17
b998d374-51af-11ea-81ee-ff452c013600,b9ce86ea-51af-11ea-85e1-9358af29dcd1
b9a26240-51af-11ea-a2e0-b3db03190363,b9cf6024-51af-11ea-8738-8398bc0418a6
b9827296-51af-11ea-9092-ff3a1b24e819,b9cfa368-51af-11ea-acd1-7bbbfca720d6
b95efc76-51af-11ea-8786-23d2b295c0de,b9d02c66-51af-11ea-b816-e3db41c34f5b
b9a5a810-51af-11ea-89b7-8bb2c03d5c4f,b9d076e4-51af-11ea-a487-ff96bf6c0899
b990ed30-51af-11ea-b3b7-2b2d82ace158,b9d0c3ba-51af-11ea-8167-070f0abcfa69
b97ec1fa-51af-11ea-a7a3-67df925e2f37,b9d0d4ea-51af-11ea-a8f3-3bfe3c73d753
b9875d1a-51af-11ea-9700-c34509ad9a5d,b9d0aeb6-51af-11ea-ba20-0bf9aaba69b7
b9a06314-51af-11ea-b4b6-135b4185992e,b9d15dfc-51af-11ea-b5b0-7b652c75a76e
b9773ffc-51af-11ea-8f21-9788a834e844,b9d19eac-51af-11ea-8283-db663dcaf4ba
b9adfd8a-51af-11ea-b2b8-d76ac2569f48,b9d1853e-51af-11ea-94e7-cfae2fc65ec6
b9916e22-51af-11ea-b476-cf1079d6e2f0,b9d1adfc-51af-11ea-b644-2fb71aed3444
b9c5f71e-51af-11ea-af5d-33eddbfa2fba,b9d23f74-51af-11ea-a291-fbdd57a27c9d
b9bb3356-51af-11ea-991e-4f3ad21db01c,b9d26332-51af-11ea-b3fb-87501d0f0c55
b9637a62-51af-11ea-a341-bbbeec5af47b,b9d2c160-51af-11ea-9dbf-ff6a38a1823f
b9b47c32-51af-11ea-8931-0f397bc89929,b9d2a3c4-51af-11ea-9a3f-f349f83b968c
b97f9d78-51af-11ea-a546-57a3bf8557c9,b9d2d13c-51af-11ea-9673-e311191a246d
b996b116-51af-11ea-8c87-97f2d414efc4,b9d3356e-51af-11ea-967d-0b19e0fdb865
b976c392-51af-11ea-bff6-0f65faff5f95,b9d37ba0-51af-11ea-b9eb-e3dccbd50f37
b982202a-51af-11ea-aecf-c77ccb5623e2,b9d389f6-51af-11ea-a802-bfee79f224d4
b9cce286-51af-11ea-9cbe-5be740e05b92,b9d3a26a-51af-11ea-bd80-bbcf6526fd7d
b953b564-51af-11ea-b368-cf411078a19f,b9d3ae72-51af-11ea-a3bd-f73818472332
b9addd96-51af-11ea-bf4f-071526dda214,b9d3f990-51af-11ea-b0aa-1f01cf0946d4
b9b5268c-51af-11ea-93f0-4fc00ad60762,b9d40ff2-51af-11ea-8bef-abe34d9b7805
b9d3a26a-51af-11ea-bd80-bbcf6526fd7d,b9d44378-51af-11ea-8274-cb56356c17f9
b9b18dba-51af-11ea-8cc4-93cb02cdbc89,b9d45610-51af-11ea-8920-d7c093f8bce0
b97ce18c-51af-11ea-a43f-d78898fc6701,b9d4c7c6-51af-11ea-b830-ff2a673d2c58
b95e3908-51af-11ea-a934-57181385b50f,b9d4eada-51af-11ea-b5f7-6338671991b5
b9cae0da-51af-11ea-8c49-2f83853c0fb8,b9d4f930-51af-11ea-b9b3-73bafebae119
b9a3a9ca-51af-11ea-9b0c-87acc3ba1a3b,b9d5108c-51af-11ea-8f0e-f7835ddc8c52
b962466a-51af-11ea-b5b5-1bc110111132,b9d56460-51af-11ea-9df0-ab2351eaff24
b9d15dfc-51af-11ea-b5b0-7b652c75a76e,b9d579b4-51af-11ea-8909-bb30a17c51db
b9d1adfc-51af-11ea-b644-2fb71aed3444,b9d5aac4-51af-11ea-87f4-cf75fef09837
b996564e-51af-11ea-9e97-af532931b94a,b9d5de90-51af-11ea-a3b3-77bf0d2d5a1d
b98815b6-51af-11ea-b9e1-07b6ce580b8d,b9d618ce-51af-11ea-82ce-eb7e0a9d7fc0
b96eb4d6-51af-11ea-a367-cfd6e165d718,b9d62936-51af-11ea-b350-2317320b851c
b9a26fa6-51af-11ea-9633-d3a9d2add944,b9d64948-51af-11ea-be38-033c53fcfbc5
b9900e10-51af-11ea-8f3e-8782c098e830,b9d66ae0-51af-11ea-bce6-1bd2e34b3edb
b9a991dc-51af-11ea-9968-1f744531a848,b9d68db8-51af-11ea-939c-3f2bbe3cff47
b9a9cb7a-51af-11ea-8bfa-d37cb956c92d,b9d6dcc8-51af-11ea-af1a-d7b1d729b9a6
b9b0a9d6-51af-11ea-b3b3-bbb83129fcfe,b9d6c81e-51af-11ea-82d8-e7d4cc5dac77
b9d56460-51af-11ea-9df0-ab2351eaff24,b9d6ed94-51af-11ea-83aa-83675790fd1a
b98d5864-51af-11ea-84d6-5fa5d92de991,b9d734ac-51af-11ea-8c93-73dd680923c2
b9a0bbb6-51af-11ea-b92e-57776d98f0df,b9d763a0-51af-11ea-90bd-1fc5c290c611
b9a780b8-51af-11ea-8153-1304b9c77b53,b9d78d08-51af-11ea-8217-0f327a13d722
b9c28e62-51af-11ea-b43e-7b84fffe1644,b9d7c9c6-51af-11ea-a740-93dd71293a20
b9bfc862-51af-11ea-b5af-7bc15e8cc515,b9d7d858-51af-11ea-bef2-b3e6ea3ac67a
b9631996-51af-11ea-888c-a338d108041c,b9d7e85c-51af-11ea-9131-6be62439d552
b9bae8e2-51af-11ea-9a04-d3a6b1aa4e1a,b9d82c18-51af-11ea-bc97-8359b88de9e4
b96d1216-51af-11ea-806b-337fdcbaa506,b9d84a4a-51af-11ea-b9eb-53d936e8736d
b9d579b4-51af-11ea-8909-bb30a17c51db,b9d86c78-51af-11ea-9afe-5fdbcc75a153
b9a26fa6-51af-11ea-9633-d3a9d2add944,b9d88032-51af-11ea-a322-8bb9e09b5be6
b9685a14-51af-11ea-8cbf-ab4ad70a18dd,b9d8ff3a-51af-11ea-b1d8-8b164df4732d
b9ab6494-51af-11ea-9db6-3fb318559f35,b9d90dcc-51af-11ea-8f0e-5b36d278e5af
b965dfc8-51af-11ea-99e8-5b24a0136589,b9d941d4-51af-11ea-93a6-f30d34cf34b3
b9ab1278-51af-11ea-a30e-af0805060972,b9d95cdc-51af-11ea-b1df-3fc47dbfda26
b9bae8e2-51af-11ea-9a04-d3a6b1aa4e1a,b9d9a070-51af-11ea-9376-0ba958f571d0
b990ed30-51af-11ea-b3b7-2b2d82ace158,b9d9c2bc-51af-11ea-bb77-ab1a431eac56
b988855a-51af-11ea-b2e8-376a5e8f0252,b9da033a-51af-11ea-bc13-27ef2b17fbf3
b95c2000-51af-11ea-ad4b-b70d90f1f55d,b9da5eac-51af-11ea-8db4-cb011372d5b7
b9727d14-51af-11ea-a0b0-6f69c2b20bd0,b9da7b08-51af-11ea-8996-fb16173f77d0
b9a0bbb6-51af-11ea-b92e-57776d98f0df,b9da93ea-51af-11ea-afe9-53b3d7b52abb
b96783b4-51af-11ea-a140-8783799ba0ff,b9dabf32-51af-11ea-93b1-9b801bea6501
b97369a4-51af-11ea-a383-9f9acc6099d7,b9db37dc-51af-11ea-b5a3-4fad4efe1323
b9bec75a-51af-11ea-afb2-3b92d05d37bf,b9db48d0-51af-11ea-92c1-938da7e6ed73
b9803706-51af-11ea-8f59-8b726c2ee9e1,b9db604a-51af-11ea-8279-ffecff13a795
b9c42cea-51af-11ea-86d1-1f9f87f6c637,b9db6e14-51af-11ea-8c4c-638a29852354
b98f95ca-51af-11ea-b6ad-3b93676c339e,b9dbd426-51af-11ea-b393-f37b45869046
b98042aa-51af-11ea-b42c-9720329604c0,b9dbe13c-51af-11ea-a91e-8ba221ef8231
b97be070-51af-11ea-ab09-f346b1cbf57e,b9dbf0aa-51af-11ea-a758-ab4b51719035
b990ed30-51af-11ea-b3b7-2b2d82ace158,b9dc267e-51af-11ea-b518-dbe01523f8c6
b983e13a-51af-11ea-bb1d-af681633907c,b9dc8c36-51af-11ea-ab43-939f93bd0a08
b9665084-51af-11ea-b024-a38da9d03395,b9dc9ce4-51af-11ea-abbe-fff7256a9763
b99bd402-51af-11ea-b35a-43b529ecbdf3,b9dcba94-51af-11ea-8895-978059a0460d
b97b1140-51af-11ea-9ab6-339665be7045,b9dcf4d2-51af-11ea-87d0-cbfa47e80e6c
b95621e6-51af-11ea-8142-67868b2209c2,b9dd08dc-51af-11ea-ba02-876e09ee14bb
b9a02304-51af-11ea-8879-07724500c19d,b9dd2f92-51af-11ea-a91d-43b6932d9bc2
b9d82c18-51af-11ea-bc97-8359b88de9e4,b9dd6746-51af-11ea-82b0-0b4c5ab53b7f
b96fd1b8-51af-11ea-b901-9bd93306ee55,b9ddaf12-51af-11ea-8023-77b6531f87e3
b9a27c08-51af-11ea-80fb-dbbde6ab2ddb,b9ddf7ce-51af-11ea-b97f-175fdd7ffb45
b96a02b0-51af-11ea-8b43-3bac83557028,b9de0d0e-51af-11ea-9e5c-8f1e82bbb785
b9c84852-51af-11ea-bc68-4b4a787e5726,b9de1aa6-51af-11ea-8e66-1bd8592e23ab
b97a05f2-51af-11ea-9548-7ba484e173b8,b9de3e0a-51af-11ea-99ef-db04d7ac5327
b9dc8c36-51af-11ea-ab43-939f93bd0a08,b9deb560-51af-11ea-9804-63e8b081886a
b9bf63d6-51af-11ea-9cab-2f8ef9e77188,b9dec820-51af-11ea-b425-535a16997390
b98ab19a-51af-11ea-b7b1-3b9826760ccf,b9df2554-51af-11ea-904b-0320227c0722
b97b1140-51af-11ea-9ab6-339665be7045,b9df360c-51af-11ea-ad35-b341ea7435fe
b9782a3e-51af-11ea-bbc1-033f79d6b6d5,b9df6faa-51af-11ea-b9c9-df684c9ffbf0
b9547710-51af-11ea-862d-f373121ca9e5,b9df7de2-51af-11ea-8b72-638726ec1897
b9c28e62-51af-11ea-b43e-7b84fffe1644,b9dfdf62-51af-11ea-ae1e-5b648d79109e
b9c2389a-51af-11ea-974f-b72933ee180c,b9e01c5c-51af-11ea-b307-970f74e40e56
b9bf63d6-51af-11ea-9cab-2f8ef9e77188,b9e028e6-51af-11ea-96d7-c3f294d727cb
b9862bc0-51af-11ea-90f8-0707ef8ee15f,b9e0751c-51af-11ea-bb93-d374d34251b7
b9c50980-51af-11ea-b4bf-2b32ce4a0b9f,b9e08692-51af-11ea-8406-a7fd22dc621c
b9782a3e-51af-11ea-bbc1-033f79d6b6d5,b9e0bf4a-51af-11ea-9fae-77ed2b4d0004
b9ae17a2-51af-11ea-bcc8-9bf2fb1c9b25,b9e0ec36-51af-11ea-ae90-871ecfe880c5
b9ac18bc-51af-11ea-b6a1-8ba686d1065b,b9e12390-51af-11ea-b19a-0b19e2cf2413
b9a9cb7a-51af-11ea-8bfa-d37cb956c92d,b9e14dca-51af-11ea-a86c-4bc871f3adcc
b9b5ce5c-51af-11ea-88e2-231f5bdc57a1,b9e16a76-51af-11ea-b1f2-eb10cff5dcab
b9c59094-51af-11ea-9388-dbdcfc3f1666,b9e1960e-51af-11ea-bf56-277425d756e6
b9b06066-51af-11ea-99ca-9f57dd8c72f2,b9e1f004-51af-11ea-8a4f-8ff7c22e251a
b9b54162-51af-11ea-8fce-6b85623300cf,b9e220e2-51af-11ea-a3da-6718dcd6dcd8
b9563c62-51af-11ea-9991-1bbbc302f759,b9e20bca-51af-11ea-9bbd-af8e6e890f6b
b96b1c2c-51af-11ea-ba0d-473696378431,b9e231fe-51af-11ea-893e-bf660e1ce11e
b98ea340-51af-11ea-9b50-370231fa4320,b9e27b3c-51af-11ea-b798-8fc120d258b5
b99edef4-51af-11ea-ae7a-a3d715aac0b8,b9e2ecca-51af-11ea-9c17-23d573338a7a
b998490e-51af-11ea-bce4-4f204887d3d4,b9e301ec-51af-11ea-8432-3710634b101c
b9c3abbc-51af-11ea-8059-4bab2cd57e42,b9e33d42-51af-11ea-a7c0-03eebb1762b2
b9b74d72-51af-11ea-b968-1f3895f9e2fd,b9e388d8-51af-11ea-8f66-fbb53e298711
b95e70b2-51af-11ea-a7fc-43c1f5c30ed0,b9e3a3e0-51af-11ea-8ae4-2f7b1ff22a28
b98cb58a-51af-11ea-8711-cfcb45294707,b9e3ecec-51af-11ea-bcfd-4feaef5fd6e9
b96d664e-51af-11ea-b2e5-0fd1d5242328,b9e404a2-51af-11ea-9646-279c63476075
b9a56c6a-51af-11ea-8252-cf35bd6529a7,b9e4682a-51af-11ea-b084-7bcd13729a6c
b9c65c18-51af-11ea-af6b-b321be38ba78,b9e47c8e-51af-11ea-9229-43c83ec251bc
b998490e-51af-11ea-bce4-4f204887d3d4,b9e4c68a-51af-11ea-9feb-9fc7ff2d6815
b9e14dca-51af-11ea-a86c-4bc871f3adcc,b9e4ef02-51af-11ea-b5a4-33de4fbc5ae2
b9cccdfa-51af-11ea-a2c8-bbed2dda551f,b9e573be-51af-11ea-8b4c-3b0615977c0c
b9c2bb9e-51af-11ea-a5e0-f7ea2d788c1c,b9e59c68-51af-11ea-bf49-8b1ba45e4a78
b97c1f2c-51af-11ea-879b-07c704c80fa6,b9e5afc8-51af-11ea-9e26-b30b00898e58
b9df360c-51af-11ea-ad35-b341ea7435fe,b9e5880e-51af-11ea-8b3c-038298b7699f
b9cccdfa-51af-11ea-a2c8-bbed2dda551f,b9e638f8-51af-11ea-b9af-4f1154246635
b9ca193e-51af-11ea-8ec6-539682af60a6,b9e65dd8-51af-11ea-ba65-a7689ee07c02
b9915040-51af-11ea-a196-4f60294309e9,b9e670e8-51af-11ea-b5d0-27dd6a6c6760
b9d7d858-51af-11ea-bef2-b3e6ea3ac67a,b9e6e0c8-51af-11ea-b6a4-d77b1ec0ad63
b9b1253c-51af-11ea-9aa5-53dfd04ddc03,b9e6cf98-51af-11ea-895a-bfb876fbc165
b954a276-51af-11ea-a59a-b384d8ec1fe2,b9e6f9f0-51af-11ea-903e-ff2fd50ce00e
b99e3756-51af-11ea-a533-7f0c356e61e6,b9e77358-51af-11ea-8b08-e3120912801c
b9b3c6fc-51af-11ea-8724-e7223ef96bb1,b9e7bc0a-51af-11ea-ba9f-d7a75577960e
b9a433f4-51af-11ea-984b-ef20cd86abea,b9e7cd62-51af-11ea-88ed-c70b14cf4f43
b981a370-51af-11ea-9ae9-6759a07fbff0,b9e8048a-51af-11ea-95ae-bb6226cef6b6
b9589df4-51af-11ea-956e-43e6581ab3c8,b9e816c8-51af-11ea-902a-df5eb4975b57
b96add34-51af-11ea-8280-4b1ed408896b,b9e83c20-51af-11ea-a557-f3ecbe9c8944
b9bbb8e4-51af-11ea-a72b-2b868a8f5453,b9e8b36c-51af-11ea-bc95-4f3db9778181
b971a128-51af-11ea-8f28-03c543e0c9f6,b9e8c5c8-51af-11ea-a5c7-1ff248c0ffc8
b971de68-51af-11ea-b11d-ffeba93547ec,b9e8d982-51af-11ea-be4b-af7f3e3916dd
b9830012-51af-11ea-b008-1b62acb6fb76,b9e92dc4-51af-11ea-aa4a-ff53ae70591a
b989e4b8-51af-11ea-93de-775a87aa6482,b9e976ee-51af-11ea-b675-3fef081a7a9c
b9a90e9c-51af-11ea-ab1a-639b0942c6a9,b9e99138-51af-11ea-917b-0b651326cc99
b9562e70-51af-11ea-8374-efed64223633,b9e9acd6-51af-11ea-96b1-0ffb4d3108cb
b9c0c94c-51af-11ea-bdd8-d79b882c601a,b9e9cbe4-51af-11ea-b590-a39df10e7fb4
b9813926-51af-11ea-9e15-bb6f98cb37c6,b9ea628e-51af-11ea-9128-27bcb3164fcb
b9c80892-51af-11ea-bf46-0b2352e44ced,b9ea5302-51af-11ea-a4ae-13112f668378
b9a123e4-51af-11ea-9783-ef8026045b4c,b9ea9632-51af-11ea-8e6e-9f523c77d58b
b9a5f9c8-51af-11ea-af0e-87ef1cb5eb0d,b9eaaf8c-51af-11ea-bdfb-a7482983f726
b99906aa-51af-11ea-a3d8-b3092c415a78,b9eb0a9a-51af-11ea-9434-6bc63bfe8c18
b9c43b04-51af-11ea-a600-237c1b4ca229,b9eb34fc-51af-11ea-9c81-3bbb0279cf25
b9d5de90-51af-11ea-a3b3-77bf0d2d5a1d,b9eb4ff0-51af-11ea-8bc6-433572390d79
b951f044-51af-11ea-9dba-1b582e6337bd,b9ebb256-51af-11ea-a829-534a43a6bb77
b956dc12-51af-11ea-b528-6be0d91edef2,b9ebfc34-51af-11ea-a7c7-db18151aca3e
b9dd2f92-51af-11ea-a91d-43b6932d9bc2,b9ec31ae-51af-11ea-bd35-2bcb375417c3
b9a5c372-51af-11ea-8932-9b73de8ff400,b9ec5756-51af-11ea-9b2e-1357de630a79
b9566020-51af-11ea-9cb8-e385fe6e7604,b9ec8bae-51af-11ea-b35d-b3fbd3c8d83f
b96730b2-51af-11ea-8549-4b285062a00e,b9ed2582-51af-11ea-8d73-8f6ba83fab72
b9c5828e-51af-11ea-a2e6-7b0513a541eb,b9ed4a6c-51af-11ea-ac1d-afa82ae4ad4e
b952b114-51af-11ea-837f-e747e73a4e88,b9ed5d86-51af-11ea-a326-97953ef40ac9
b9731f12-51af-11ea-aa69-bf437f25d7eb,b9eda214-51af-11ea-9796-83e94b15677f
b9d4c7c6-51af-11ea-b830-ff2a673d2c58,b9edfc5a-51af-11ea-8fe9-3b18deb17590
b9956a7c-51af-11ea-8cfb-ef2c284e1c6b,b9ee2c3e-51af-11ea-b9a9-675c9b5aa354
b9af4442-51af-11ea-a73f-177bec7dc52b,b9ee1956-51af-11ea-b6e3-97ac4d1f7539
b9e1960e-51af-11ea-bf56-277425d756e6,b9ee5358-51af-11ea-8d5b-37a25f476144
b9ac992c-51af-11ea-b967-6fe1c911b6c0,b9eeb78a-51af-11ea-a500-3b3dfec42313
b9580c68-51af-11ea-a239-a39481a916fd,b9eedb98-51af-11ea-8e4d-f7bbaeda1f79
b9634fd8-51af-11ea-bdbd-b338b9c8c8ee,b9eecbda-51af-11ea-b0f5-430345901a13
b9631996-51af-11ea-888c-a338d108041c,b9ef2c74-51af-11ea-ba14-c37861b0937f
b9e65dd8-51af-11ea-ba65-a7689ee07c02,b9efa50a-51af-11ea-883c-7fbd3ac58acb
b973dfba-51af-11ea-a0d0-4737b1338a42,b9ef8ba6-51af-11ea-a087-872e1ad6160b
b985e7e6-51af-11ea-98eb-438adb054d49,b9efe524-51af-11ea-90cb-cfabe2c8a7e7
b9d88032-51af-11ea-a322-8bb9e09b5be6,b9f00ae0-51af-11ea-b413-0b0a788e011f
b999db66-51af-11ea-ac73-77d4e90424b7,b9f0275a-51af-11ea-9770-07586474079f
b98eb3b2-51af-11ea-90a4-6f5af2afa39c,b9f09bc2-51af-11ea-95eb-7b1c524e01ea
b951e2e8-51af-11ea-9d03-630374ab4998,b9f08812-51af-11ea-91a7-877863cea4f6
b9589df4-51af-11ea-956e-43e6581ab3c8,b9f0dc5e-51af-11ea-b012-e353b772c844
b98ea340-51af-11ea-9b50-370231fa4320,b9f0f0b8-51af-11ea-bedb-bb2d0055c1c4
b9863dfe-51af-11ea-b8f7-e709d4b0d10c,b9f14ed2-51af-11ea-a11d-fb76d0f9f681
b9b6a08e-51af-11ea-a5e1-c37e0c27476f,b9f16e30-51af-11ea-af16-3383d64b0fe9
b9cdb9a4-51af-11ea-87d9-d33a3e1821e4,b9f1dd8e-51af-11ea-9a69-33d586221dca
b9582d74-51af-11ea-ba1f-1bcdc8667b07,b9f1ce66-51af-11ea-a582-336d8f24397c
b98fdab2-51af-11ea-9d5d-7763a9cec7c4,b9f2396e-51af-11ea-a43d-833ae639fe29
b9af8ac4-51af-11ea-985d-77e8f91887aa,b9f2bbd2-51af-11ea-8ba2-db91b6b79ba5
b9d45610-51af-11ea-8920-d7c093f8bce0,b9f2a8d6-51af-11ea-9cd3-b7010400a162
b95e299a-51af-11ea-9e6e-eb9e051071f8,b9f3124e-51af-11ea-9282-73cc52df8440
b992e018-51af-11ea-ba30-1f56e4213027,b9f32b26-51af-11ea-ad9d-1f7ff7c33169
b95aee60-51af-11ea-a0d2-675494c9acc7,b9f34016-51af-11ea-aa96-ffae526bc7cc
b9e6e0c8-51af-11ea-b6a4-d77b1ec0ad63,b9f395ac-51af-11ea-a36a-4b53a0256930
b9e9cbe4-51af-11ea-b590-a39df10e7fb4,b9f3c482-51af-11ea-9b06-9fb0483b553c
b9d1853e-51af-11ea-94e7-cfae2fc65ec6,b9f41f68-51af-11ea-9fbd-fb6e7e34045e
b97dc322-51af-11ea-b929-938de165f87e,b9f44e02-51af-11ea-804c-2bc2330a4f00
b9ad5a1a-51af-11ea-8782-ff3f3d363762,b9f46176-51af-11ea-9f83-7f48f60f46e7
b96093d8-51af-11ea-bc72-170c55fc11a9,b9f4cc92-51af-11ea-9948-13ebf2d21871
b9a34804-51af-11ea-9f75-3fa951819f67,b9f4fde8-51af-11ea-a9e4-bf92d4ca0e5b
b987bdc8-51af-11ea-b2d5-eb55a24cb438,b9f4ed44-51af-11ea-9bdb-9fd903f6d483
b9536618-51af-11ea-884a-b7635342fb31,b9f57bf6-51af-11ea-9eda-332c7622ecce
b9936fe2-51af-11ea-b8d5-0b8a95c26daa,b9f5aae0-51af-11ea-ac4c-5f913e36b371
b9752d66-51af-11ea-bce5-177b4107b2bf,b9f59b54-51af-11ea-b8e9-0b595c88b3ff
b9cd8e2a-51af-11ea-b06a-efb79f610308,b9f5c89a-51af-11ea-bad0-b7cc5d512b8c
b952a0de-51af-11ea-bea8-47eafe00445f,b9f64284-51af-11ea-bea4-e7ef2c42c7fd
b99182c2-51af-11ea-8e82-7bfd060e9fe5,b9f675e2-51af-11ea-a421-339df7b12ab6
b95ee204-51af-11ea-a114-e73c5cb2045c,b9f68b68-51af-11ea-ac18-ef22b31a5c19
b9bc7ca2-51af-11ea-93d9-877ea18a461a,b9f6ae7c-51af-11ea-80d1-277367606235
b9ee2c3e-51af-11ea-b9a9-675c9b5aa354,b9f70480-51af-11ea-b9d6-7f3c481f52ef
b990d098-51af-11ea-a674-df640a558469,b9f73dba-51af-11ea-a001-f321f5acb67b
b960a97c-51af-11ea-9105-6f375a41db1f,b9f78efa-51af-11ea-91c6-df97ba38f7e4
b9b04fcc-51af-11ea-beaf-57a0ead65873,b9f7b3da-51af-11ea-80c4-57317ac8e461
b9b84eb6-51af-11ea-b4c6-e7c5f1632564,b9f7f1ce-51af-11ea-abcc-b3009fc34bd1
b9df7de2-51af-11ea-8b72-638726ec1897,b9f88c06-51af-11ea-83a8-1fe95c640ce3
b9df2554-51af-11ea-904b-0320227c0722,b9f8759a-51af-11ea-aee0-b7f69f513323
b97f0408-51af-11ea-a27b-b7b7126f1ec8,b9f8f858-51af-11ea-b437-dfe7950a8f1d
b985e7e6-51af-11ea-98eb-438adb054d49,b9f8e14c-51af-11ea-b26f-9729c6f1fced
b9eecbda-51af-11ea-b0f5-430345901a13,b9f96478-51af-11ea-bd4e-e77e45ead3bf
b9907aa8-51af-11ea-a3e4-6bef3f8dd05f,b9f99470-51af-11ea-b362-1f16880b67bc
b98f3f44-51af-11ea-b7bc-8b3a8a183546,b9f9830e-51af-11ea-a548-376d57e6392f
b98b7ca6-51af-11ea-b075-d782600305ce,b9f9d534-51af-11ea-9ac0-bb4512cb8da5
b9c72d5a-51af-11ea-a6f8-f739042fd944,b9fa8876-51af-11ea-9251-fbff2e5a5e0a
b981a370-51af-11ea-9ae9-6759a07fbff0,b9fa6d5a-51af-11ea-9480-e3f55f01b1b0
b9aeba7c-51af-11ea-bf20-5783d49df1dc,b9fa9988-51af-11ea-9328-13de2f5f2eb9
b9834bb2-51af-11ea-8a05-8fdbcb805f60,b9fadd58-51af-11ea-be52-37743e5e444a
b9909ea2-51af-11ea-bfff-43f1ff7de844,b9fb7f24-51af-11ea-a9be-d76fed0b7513
b9edfc5a-51af-11ea-8fe9-3b18deb17590,b9fb920c-51af-11ea-b6a7-a34d68d14e88
b9e816c8-51af-11ea-902a-df5eb4975b57,b9fba53a-51af-11ea-b7d1-636382f750f2
b9e4c68a-51af-11ea-9feb-9fc7ff2d6815,b9fbc9f2-51af-11ea-841a-37209e4016b0
b9eeb78a-51af-11ea-a500-3b3dfec42313,b9fc7e9c-51af-11ea-bbc0-6796f74f4b35
b9ba4ef0-51af-11ea-bfe7-03c9f830863a,b9fc981e-51af-11ea-b1c5-27f29c3af5e4
b9f7f1ce-51af-11ea-abcc-b3009fc34bd1,b9fcacfa-51af-11ea-a83b-7b0a74c52899
b9dfdf62-51af-11ea-ae1e-5b648d79109e,b9fccd0c-51af-11ea-8b75-47cf5db315c9
b9ef2c74-51af-11ea-ba14-c37861b0937f,b9fd6c3a-51af-11ea-bbf6-53bdf197c1dc
b960fe86-51af-11ea-9ae2-436ce5f7dd9e,b9fdb2f8-51af-11ea-8749-07948504fc98
b9c8ea32-51af-11ea-9a47-37ef31f93ffa,b9fdf0d8-51af-11ea-aada-0303be15c933
b9a5f9c8-51af-11ea-af0e-87ef1cb5eb0d,b9fe15c2-51af-11ea-8a3e-1b8c45267a59
b9db48d0-51af-11ea-92c1-938da7e6ed73,b9fed368-51af-11ea-8173-0fe71f5916c5
b9ac2e1a-51af-11ea-9e53-afd922619917,b9fee61e-51af-11ea-a6fc-b3d574646403
b9d95cdc-51af-11ea-b1df-3fc47dbfda26,b9fefdf2-51af-11ea-b3bd-839090fc2392
b9be2d5e-51af-11ea-b094-336f340bf6db,b9ff5202-51af-11ea-accb-9f5053490e77
b9d7d858-51af-11ea-bef2-b3e6ea3ac67a,b9ff8998-51af-11ea-bea8-2b8ed2691aba
b97a71ea-51af-11ea-a1a3-93f32d667039,b9ffc6ba-51af-11ea-a72d-b70ed33f63e8
b960f1f2-51af-11ea-b5cb-9fc1ada29c7c,ba0004c2-51af-11ea-b78b-5f9c4f70f5f9
b97e3834-51af-11ea-b64a-af9d0812a3e6,ba005120-51af-11ea-9bfd-23a005dde301
b9836a52-51af-11ea-a66e-eb02e16df842,ba003f78-51af-11ea-9ec8-1fe31ffb5125
b97c1f2c-51af-11ea-879b-07c704c80fa6,ba00aa58-51af-11ea-ba08-4f7971792c91
b9eedb98-51af-11ea-8e4d-f7bbaeda1f79,ba00ce8e-51af-11ea-8df6-23688abdd297
b962466a-51af-11ea-b5b5-1bc110111132,ba010ce6-51af-11ea-83a2-9f8e26815b83
b9c5f71e-51af-11ea-af5d-33eddbfa2fba,ba012fb4-51af-11ea-9c60-5b3dfff6429c
b9763c88-51af-11ea-ae55-1b1c78a1dbbc,ba01999a-51af-11ea-a8b7-cfb00298a18c
b9a0bbb6-51af-11ea-b92e-57776d98f0df,ba018996-51af-11ea-b8b0-f729e0e28d6e
b9a36bf4-51af-11ea-9738-230d11c994f5,ba01b6fa-51af-11ea-9989-437e53a6d245
b9ab1278-51af-11ea-a30e-af0805060972,ba01f75a-51af-11ea-ba84-b301e5b42074
b95acd7c-51af-11ea-b71e-f365d967249d,ba022a36-51af-11ea-a021-17602f2e2e04
b9eeb78a-51af-11ea-a500-3b3dfec42313,ba026d48-51af-11ea-a8fd-5bc0ebc88f69
b9589df4-51af-11ea-956e-43e6581ab3c8,ba02ac04-51af-11ea-bdea-471c6d669a7c
b9f44e02-51af-11ea-804c-2bc2330a4f00,ba02ed90-51af-11ea-8e04-3b17d4a19193
b9d618ce-51af-11ea-82ce-eb7e0a9d7fc0,ba03019a-51af-11ea-b768-e3c1638b821a
b9ba4ef0-51af-11ea-bfe7-03c9f830863a,ba037382-51af-11ea-a800-d759df128ad0
b977e2fe-51af-11ea-aa21-a376e12369dc,ba0388fe-51af-11ea-af37-6738915afbca
b9b47c32-51af-11ea-8931-0f397bc89929,ba03c2ba-51af-11ea-a6bb-1f72f7e46cc3
b96d1216-51af-11ea-806b-337fdcbaa506,ba043524-51af-11ea-8db7-57d9e6dafc99
b9f2bbd2-51af-11ea-8ba2-db91b6b79ba5,ba04a69e-51af-11ea-8f0e-7fda95f1b71a
b95621e6-51af-11ea-8142-67868b2209c2,ba04bce2-51af-11ea-b25f-cb8029636acc
b9d45610-51af-11ea-8920-d7c093f8bce0,ba04f482-51af-11ea-8f8b-53cbbe5b6a1c
ba026d48-51af-11ea-a8fd-5bc0ebc88f69,ba05060c-51af-11ea-a9b8-132a7ef07e10
b9addd96-51af-11ea-bf4f-071526dda214,ba0599fa-51af-11ea-a2bf-670c44463f5e
b9fee61e-51af-11ea-a6fc-b3d574646403,ba05b26e-51af-11ea-8850-4f652da6829c
b9597828-51af-11ea-9602-6b4b32525fea,ba05e23e-51af-11ea-9787-5fd53223490f
b9656084-51af-11ea-9ab8-1ba75933ff07,ba06075a-51af-11ea-aee9-7f5a71bd7c86
b9712626-51af-11ea-9583-8bf5291c1560,ba065188-51af-11ea-9622-f7d984f359c4
b9947c8e-51af-11ea-9802-0f3d19ed2eda,ba06c6d6-51af-11ea-a783-7bd128f99c98
b9942e5a-51af-11ea-bd2f-a71f1ca36f11,ba06da22-51af-11ea-a25f-f3ff6776af88
b96add34-51af-11ea-8280-4b1ed408896b,ba075b46-51af-11ea-b1ea-7bd6e5dc68ab
b9595988-51af-11ea-a6e9-bba54ac211f8,ba076eec-51af-11ea-b218-cbdee5db367a
b9d4c7c6-51af-11ea-b830-ff2a673d2c58,ba07847c-51af-11ea-9656-c3c8ccbf6ff7
b96f80d2-51af-11ea-b107-a3d858eaf09c,ba07f6dc-51af-11ea-9429-1329e589c470
b9a2e602-51af-11ea-8c4e-23c981ee1cdd,ba0862de-51af-11ea-bb81-4fb840a7a83c
b9708acc-51af-11ea-b7cb-a796c50db74c,ba084e8e-51af-11ea-a1c0-e709f8d8b670
b98bbae0-51af-11ea-8f10-bb4dc7d3ce3a,ba0893bc-51af-11ea-bc34-9bfa5268de38
b970ead0-51af-11ea-b03e-ffbc6faa7bd2,ba08ea06-51af-11ea-9683-1bf7e74222cf
b9db604a-51af-11ea-8279-ffecff13a795,ba099474-51af-11ea-91a0-d79e2d4610b1
b99892b0-51af-11ea-b1a1-7f44541d0098,ba0976e2-51af-11ea-8d44-e3eed2e17a0a
b9c29fec-51af-11ea-a2c7-7f52f8ec16c3,ba09c2d2-51af-11ea-8042-8fc822a2bfbe
b9b2c54a-51af-11ea-8b77-ef4206cc1b43,ba0a077e-51af-11ea-aaf5-8b5c6f4eb6d9
b9f675e2-51af-11ea-a421-339df7b12ab6,ba0a5e40-51af-11ea-b965-5f8ec13a5cbb
b9af720a-51af-11ea-9dec-7bf7dcd02a96,ba0a7c68-51af-11ea-bda5-a7a20e43bccc
b9d82c18-51af-11ea-bc97-8359b88de9e4,ba0a8f28-51af-11ea-a295-83dadbf69b47
b9557520-51af-11ea-a751-6b211a41d28d,ba0b0304-51af-11ea-92a6-5f8d994efbf1
b9bf554e-51af-11ea-9008-57a8bfe6b658,ba0b1db2-51af-11ea-9391-077b54dc9f49
b9ba81b8-51af-11ea-989c-7b0c9435a849,ba0baf98-51af-11ea-9366-6b5404502d80
b9c45b7a-51af-11ea-912e-2f649fda31b7,ba0bc640-51af-11ea-9946-9bbf5103292b
b9e2ecca-51af-11ea-9c17-23d573338a7a,ba0c275c-51af-11ea-b0cf-a7dbccd3aa5d
b9a7e9fe-51af-11ea-a08d-77f2b5f2d6ec,ba0c7220-51af-11ea-8ea3-f34478cb3612
b9a5a810-51af-11ea-89b7-8bb2c03d5c4f,ba0ca8f8-51af-11ea-9ff9-fb25ac03c3fa
b9a838dc-51af-11ea-b9af-ef7e16a2c4de,ba0ce7aa-51af-11ea-82c9-c30705195a5f
b97b30da-51af-11ea-a4d1-475bb103e7fb,ba0d1554-51af-11ea-afd4-f32e86fe045a
b96f80d2-51af-11ea-b107-a3d858eaf09c,ba0d544c-51af-11ea-bfd8-b785ba9f321e
b960e554-51af-11ea-a4a5-e7380a6f255a,ba0d9902-51af-11ea-a6b2-fba79f6a072e
b9889df6-51af-11ea-bf7d-2f8ebb8f2fa9,ba0dd96c-51af-11ea-b99b-73982e0e57b8
b9de3e0a-51af-11ea-99ef-db04d7ac5327,ba0e0450-51af-11ea-bd35-d36f5dfbfdb1
b9ff5202-51af-11ea-accb-9f5053490e77,ba0e3d58-51af-11ea-bde4-53785b0d52df
b9c46f66-51af-11ea-85c2-9b31d348ad71,ba0e7a34-51af-11ea-ae08-574cc49f6c50
b996cd9a-51af-11ea-a88b-b7f3d56e207a,ba0ea2de-51af-11ea-9ecd-734325882275
b9abfb84-51af-11ea-99bd-03f6014581ee,ba0eb97c-51af-11ea-8648-0fc9b2e6c533
b9d2c160-51af-11ea-9dbf-ff6a38a1823f,ba0f2768-51af-11ea-8589-838a1faed6c3
b9af9a0a-51af-11ea-846e-5b3dc17583f0,ba0f5bde-51af-11ea-a53e-871b7e31e57c
b9907aa8-51af-11ea-a3e4-6bef3f8dd05f,ba0f7d80-51af-11ea-8e1b-b7e60f9422f7
b9aa4140-51af-11ea-bcc8-fbce2a969155,ba0fe900-51af-11ea-bfc1-e7c7cdb32798
b968240e-51af-11ea-aa48-57f23d2a81a3,ba0ffdbe-51af-11ea-a69b-073ceac95214
b97f7f46-51af-11ea-b6ac-276ff62b15c6,ba105368-51af-11ea-8656-471aa566efd2
b97229cc-51af-11ea-bbf9-df65afcdd5aa,ba10b6dc-51af-11ea-a09c-37c929b83e90
ba0bc640-51af-11ea-9946-9bbf5103292b,ba10ccc6-51af-11ea-ba50-4ffd3fb2ae01
b9e4c68a-51af-11ea-9feb-9fc7ff2d6815,ba114070-51af-11ea-aa40-b74499260e44
b9a4c288-51af-11ea-aad4-d37eff4a2df9,ba118062-51af-11ea-901f-03d5f52b63cd
b9eb34fc-51af-11ea-9c81-3bbb0279cf25,ba11d242-51af-11ea-a66b-dbb3098e8ac7
b9907aa8-51af-11ea-a3e4-6bef3f8dd05f,ba11fca4-51af-11ea-a36b-8755a732e837
b96f80d2-51af-11ea-b107-a3d858eaf09c,ba12203a-51af-11ea-9e79-43749a5c8a57
b9c0c94c-51af-11ea-bdd8-d79b882c601a,ba127d96-51af-11ea-9ff3-9750129b5cf6
b96fd1b8-51af-11ea-b901-9bd93306ee55,ba12998e-51af-11ea-afc6-5b8e6a3a0c84
b9b46cba-51af-11ea-8559-4704662e2bcc,ba12b77a-51af-11ea-a13d-db1c990e22cc
b99fdf84-51af-11ea-988f-976fec0ffeba,ba12e826-51af-11ea-bd76-c36835d4d8c0
b979928e-51af-11ea-843f-5f59abafba32,ba136b66-51af-11ea-9fd8-cf0c47566908
b9cdb9a4-51af-11ea-87d9-d33a3e1821e4,ba137af2-51af-11ea-a6cd-7f1f9de62033
b9889df6-51af-11ea-bf7d-2f8ebb8f2fa9,ba139ee2-51af-11ea-bff2-cbe78c5774bb
b99b9f5a-51af-11ea-8304-5fd541024bfc,ba13adce-51af-11ea-b6e2-bfec30b616f0
ba084e8e-51af-11ea-a1c0-e709f8d8b670,ba144b26-51af-11ea-8e89-23da18743c39
b95ef1d6-51af-11ea-81f6-bbdfea35ed42,ba145986-51af-11ea-8b82-7fdd4dfe1f01
b98b24a4-51af-11ea-a28f-f3117e26193b,ba148442-51af-11ea-9aa1-83a026a23ad7
b9b4d506-51af-11ea-b640-dfe2ecf9d15f,ba14be12-51af-11ea-8fda-bb241d067de4
b9eeb78a-51af-11ea-a500-3b3dfec42313,ba152190-51af-11ea-80db-2737d1ab899a
b953e4ee-51af-11ea-8096-b7aa6267469a,ba1532e8-51af-11ea-a1ed-5ffe64599b33
b9c1ee6c-51af-11ea-aa5a-0fbfb8da863d,ba155354-51af-11ea-a298-1ffdd65b7d20
b9712626-51af-11ea-9583-8bf5291c1560,ba156b8c-51af-11ea-ac2f-8faf93bbadf7
b9a7e9fe-51af-11ea-a08d-77f2b5f2d6ec,ba161398-51af-11ea-a3f4-e78f007679f5
b973dfba-51af-11ea-a0d0-4737b1338a42,ba1642be-51af-11ea-a464-b7a2edb93044
b9dcf4d2-51af-11ea-87d0-cbfa47e80e6c,ba165646-51af-11ea-b0c0-8b73e83a4c03
b993f5b6-51af-11ea-ad03-27312ff42113,ba169264-51af-11ea-be7b-b70c41600b38
