RunID,Tick,AllAgents,Active,Inactive
run-2020-2-29-9-27-14.541703462,0,17,12,5
run-2020-2-29-9-27-14.541703462,1,19,7,12
run-2020-2-29-9-27-14.541703462,2,21,8,13
run-2020-2-29-9-27-14.541703462,3,22,9,13
run-2020-2-29-9-27-14.541703462,4,27,10,17
run-2020-2-29-9-27-14.541703462,5,29,11,18
run-2020-2-29-9-27-14.541703462,6,29,10,19
run-2020-2-29-9-27-14.541703462,7,36,16,20
run-2020-2-29-9-27-14.541703462,8,37,15,22
run-2020-2-29-9-27-14.541703462,9,41,14,27
run-2020-2-29-9-27-14.541703462,10,47,18,29
run-2020-2-29-9-27-14.541703462,11,49,20,29
run-2020-2-29-9-27-14.541703462,12,55,25,30
run-2020-2-29-9-27-14.541703462,13,57,20,37
run-2020-2-29-9-27-14.541703462,14,64,26,38
run-2020-2-29-9-27-14.541703462,15,67,26,41
run-2020-2-29-9-27-14.541703462,16,75,32,43
run-2020-2-29-9-27-14.541703462,17,79,34,45
run-2020-2-29-9-27-14.541703462,18,86,38,48
run-2020-2-29-9-27-14.541703462,19,90,36,54
run-2020-2-29-9-27-14.541703462,20,94,38,56
run-2020-2-29-9-27-14.541703462,21,99,40,59
run-2020-2-29-9-27-14.541703462,22,102,39,63
run-2020-2-29-9-27-14.541703462,23,108,44,64
run-2020-2-29-9-27-14.541703462,24,110,39,71
run-2020-2-29-9-27-14.541703462,25,112,40,72
run-2020-2-29-9-27-14.541703462,26,117,43,74
run-2020-2-29-9-27-14.541703462,27,122,46,76
run-2020-2-29-9-27-14.541703462,28,125,43,82
run-2020-2-29-9-27-14.541703462,29,131,48,83
run-2020-2-29-9-27-14.541703462,30,134,47,87
run-2020-2-29-9-27-14.541703462,31,137,42,95
run-2020-2-29-9-27-14.541703462,32,138,40,98
run-2020-2-29-9-27-14.541703462,33,140,40,100
run-2020-2-29-9-27-14.541703462,34,145,43,102
run-2020-2-29-9-27-14.541703462,35,147,44,103
run-2020-2-29-9-27-14.541703462,36,151,46,105
run-2020-2-29-9-27-14.541703462,37,152,45,107
run-2020-2-29-9-27-14.541703462,38,157,49,108
run-2020-2-29-9-27-14.541703462,39,160,51,109
run-2020-2-29-9-27-14.541703462,40,165,54,111
run-2020-2-29-9-27-14.541703462,41,168,55,113
run-2020-2-29-9-27-14.541703462,42,172,54,118
run-2020-2-29-9-27-14.541703462,43,174,52,122
run-2020-2-29-9-27-14.541703462,44,174,52,122
run-2020-2-29-9-27-14.541703462,45,179,52,127
run-2020-2-29-9-27-14.541703462,46,183,50,133
run-2020-2-29-9-27-14.541703462,47,185,50,135
run-2020-2-29-9-27-14.541703462,48,192,56,136
run-2020-2-29-9-27-14.541703462,49,197,58,139
run-2020-2-29-9-27-14.541703462,50,204,61,143
run-2020-2-29-9-27-14.541703462,51,208,61,147
run-2020-2-29-9-27-14.541703462,52,217,64,153
run-2020-2-29-9-27-14.541703462,53,219,60,159
run-2020-2-29-9-27-14.541703462,54,224,59,165
run-2020-2-29-9-27-14.541703462,55,228,58,170
run-2020-2-29-9-27-14.541703462,56,233,55,178
run-2020-2-29-9-27-14.541703462,57,239,58,181
run-2020-2-29-9-27-14.541703462,58,240,52,188
run-2020-2-29-9-27-14.541703462,59,246,52,194
run-2020-2-29-9-27-14.541703462,60,251,51,200
run-2020-2-29-9-27-14.541703462,61,253,49,204
run-2020-2-29-9-27-14.541703462,62,258,48,210
run-2020-2-29-9-27-14.541703462,63,266,51,215
run-2020-2-29-9-27-14.541703462,64,271,53,218
run-2020-2-29-9-27-14.541703462,65,277,55,222
run-2020-2-29-9-27-14.541703462,66,282,56,226
run-2020-2-29-9-27-14.541703462,67,285,50,235
run-2020-2-29-9-27-14.541703462,68,291,51,240
run-2020-2-29-9-27-14.541703462,69,299,53,246
run-2020-2-29-9-27-14.541703462,70,302,50,252
run-2020-2-29-9-27-14.541703462,71,308,51,257
run-2020-2-29-9-27-14.541703462,72,311,51,260
run-2020-2-29-9-27-14.541703462,73,312,49,263
run-2020-2-29-9-27-14.541703462,74,314,43,271
run-2020-2-29-9-27-14.541703462,75,316,42,274
run-2020-2-29-9-27-14.541703462,76,320,40,280
run-2020-2-29-9-27-14.541703462,77,320,40,280
run-2020-2-29-9-27-14.541703462,78,324,43,281
run-2020-2-29-9-27-14.541703462,79,326,43,283
run-2020-2-29-9-27-14.541703462,80,327,43,284
run-2020-2-29-9-27-14.541703462,81,331,45,286
run-2020-2-29-9-27-14.541703462,82,335,44,291
run-2020-2-29-9-27-14.541703462,83,337,39,298
run-2020-2-29-9-27-14.541703462,84,341,41,300
run-2020-2-29-9-27-14.541703462,85,344,40,304
run-2020-2-29-9-27-14.541703462,86,350,45,305
run-2020-2-29-9-27-14.541703462,87,351,42,309
run-2020-2-29-9-27-14.541703462,88,359,48,311
run-2020-2-29-9-27-14.541703462,89,362,46,316
run-2020-2-29-9-27-14.541703462,90,369,48,321
run-2020-2-29-9-27-14.541703462,91,371,49,322
run-2020-2-29-9-27-14.541703462,92,375,46,329
run-2020-2-29-9-27-14.541703462,93,375,40,335
run-2020-2-29-9-27-14.541703462,94,377,37,340
run-2020-2-29-9-27-14.541703462,95,380,38,342
run-2020-2-29-9-27-14.541703462,96,384,41,343
run-2020-2-29-9-27-14.541703462,97,388,43,345
run-2020-2-29-9-27-14.541703462,98,388,38,350
run-2020-2-29-9-27-14.541703462,99,395,43,352
