RunID,Tick,AllAgents,Active,Inactive
run-2020-2-18-11-35-23.240643978,0,12,10,2
run-2020-2-18-11-35-23.240643978,1,14,11,3
run-2020-2-18-11-35-23.240643978,2,15,7,8
run-2020-2-18-11-35-23.240643978,3,19,9,10
run-2020-2-18-11-35-23.240643978,4,20,7,13
run-2020-2-18-11-35-23.240643978,5,23,8,15
run-2020-2-18-11-35-23.240643978,6,29,13,16
run-2020-2-18-11-35-23.240643978,7,32,15,17
run-2020-2-18-11-35-23.240643978,8,38,16,22
run-2020-2-18-11-35-23.240643978,9,41,16,25
run-2020-2-18-11-35-23.240643978,10,42,15,27
run-2020-2-18-11-35-23.240643978,11,45,16,29
run-2020-2-18-11-35-23.240643978,12,47,15,32
run-2020-2-18-11-35-23.240643978,13,50,16,34
run-2020-2-18-11-35-23.240643978,14,52,17,35
run-2020-2-18-11-35-23.240643978,15,56,19,37
run-2020-2-18-11-35-23.240643978,16,64,26,38
run-2020-2-18-11-35-23.240643978,17,66,22,44
run-2020-2-18-11-35-23.240643978,18,71,24,47
run-2020-2-18-11-35-23.240643978,19,75,24,51
run-2020-2-18-11-35-23.240643978,20,77,23,54
run-2020-2-18-11-35-23.240643978,21,80,24,56
run-2020-2-18-11-35-23.240643978,22,81,24,57
run-2020-2-18-11-35-23.240643978,23,86,28,58
run-2020-2-18-11-35-23.240643978,24,92,33,59
run-2020-2-18-11-35-23.240643978,25,93,32,61
run-2020-2-18-11-35-23.240643978,26,94,27,67
run-2020-2-18-11-35-23.240643978,27,100,30,70
run-2020-2-18-11-35-23.240643978,28,102,31,71
run-2020-2-18-11-35-23.240643978,29,108,33,75
run-2020-2-18-11-35-23.240643978,30,111,35,76
run-2020-2-18-11-35-23.240643978,31,115,39,76
run-2020-2-18-11-35-23.240643978,32,117,39,78
run-2020-2-18-11-35-23.240643978,33,121,41,80
run-2020-2-18-11-35-23.240643978,34,128,45,83
run-2020-2-18-11-35-23.240643978,35,132,45,87
run-2020-2-18-11-35-23.240643978,36,136,46,90
run-2020-2-18-11-35-23.240643978,37,140,47,93
run-2020-2-18-11-35-23.240643978,38,144,48,96
run-2020-2-18-11-35-23.240643978,39,146,46,100
run-2020-2-18-11-35-23.240643978,40,147,45,102
run-2020-2-18-11-35-23.240643978,41,149,45,104
run-2020-2-18-11-35-23.240643978,42,152,45,107
run-2020-2-18-11-35-23.240643978,43,154,46,108
run-2020-2-18-11-35-23.240643978,44,155,45,110
run-2020-2-18-11-35-23.240643978,45,157,47,110
run-2020-2-18-11-35-23.240643978,46,161,48,113
run-2020-2-18-11-35-23.240643978,47,163,44,119
run-2020-2-18-11-35-23.240643978,48,165,45,120
run-2020-2-18-11-35-23.240643978,49,169,49,120
run-2020-2-18-11-35-23.240643978,50,175,54,121
run-2020-2-18-11-35-23.240643978,51,177,53,124
run-2020-2-18-11-35-23.240643978,52,181,54,127
run-2020-2-18-11-35-23.240643978,53,188,55,133
run-2020-2-18-11-35-23.240643978,54,191,54,137
run-2020-2-18-11-35-23.240643978,55,194,53,141
run-2020-2-18-11-35-23.240643978,56,200,56,144
run-2020-2-18-11-35-23.240643978,57,204,53,151
run-2020-2-18-11-35-23.240643978,58,206,51,155
run-2020-2-18-11-35-23.240643978,59,206,50,156
run-2020-2-18-11-35-23.240643978,60,208,50,158
run-2020-2-18-11-35-23.240643978,61,214,55,159
run-2020-2-18-11-35-23.240643978,62,215,52,163
run-2020-2-18-11-35-23.240643978,63,217,54,163
run-2020-2-18-11-35-23.240643978,64,221,54,167
run-2020-2-18-11-35-23.240643978,65,226,54,172
run-2020-2-18-11-35-23.240643978,66,228,52,176
run-2020-2-18-11-35-23.240643978,67,229,52,177
run-2020-2-18-11-35-23.240643978,68,230,49,181
run-2020-2-18-11-35-23.240643978,69,232,48,184
run-2020-2-18-11-35-23.240643978,70,236,48,188
run-2020-2-18-11-35-23.240643978,71,237,49,188
run-2020-2-18-11-35-23.240643978,72,239,51,188
run-2020-2-18-11-35-23.240643978,73,242,52,190
run-2020-2-18-11-35-23.240643978,74,246,49,197
run-2020-2-18-11-35-23.240643978,75,253,54,199
run-2020-2-18-11-35-23.240643978,76,259,57,202
run-2020-2-18-11-35-23.240643978,77,261,53,208
run-2020-2-18-11-35-23.240643978,78,265,54,211
run-2020-2-18-11-35-23.240643978,79,272,54,218
run-2020-2-18-11-35-23.240643978,80,274,53,221
run-2020-2-18-11-35-23.240643978,81,277,50,227
run-2020-2-18-11-35-23.240643978,82,277,44,233
run-2020-2-18-11-35-23.240643978,83,278,40,238
run-2020-2-18-11-35-23.240643978,84,279,38,241
run-2020-2-18-11-35-23.240643978,85,283,41,242
run-2020-2-18-11-35-23.240643978,86,289,46,243
run-2020-2-18-11-35-23.240643978,87,295,50,245
run-2020-2-18-11-35-23.240643978,88,297,48,249
run-2020-2-18-11-35-23.240643978,89,303,51,252
run-2020-2-18-11-35-23.240643978,90,307,49,258
run-2020-2-18-11-35-23.240643978,91,309,47,262
run-2020-2-18-11-35-23.240643978,92,309,41,268
run-2020-2-18-11-35-23.240643978,93,313,43,270
run-2020-2-18-11-35-23.240643978,94,315,41,274
run-2020-2-18-11-35-23.240643978,95,318,41,277
run-2020-2-18-11-35-23.240643978,96,321,42,279
run-2020-2-18-11-35-23.240643978,97,322,41,281
run-2020-2-18-11-35-23.240643978,98,327,44,283
run-2020-2-18-11-35-23.240643978,99,327,41,286
