RunID,Agent,Age,Created,Inactive,Resources,Reputation,Ability,Que
run-2020-2-18-13-54-38.31684494,AGENT#345d06c4-5256-11ea-bb7f-03401d358e8a,0,0,0,10,1.0,1.0,0
run-2020-2-18-13-54-38.31684494,AGENT#345d14f2-5256-11ea-8ff4-779e6531eaca,0,0,0,10,1.0,1.0,0
run-2020-2-18-13-54-38.31684494,AGENT#345d17ae-5256-11ea-8340-e3badd437f53,0,0,0,10,1.0,1.0,0
run-2020-2-18-13-54-38.31684494,AGENT#345d5a16-5256-11ea-bf7e-6fc0cca4fd68,1,0,1,10,1.0,1.0,0
run-2020-2-18-13-54-38.31684494,AGENT#345d5fde-5256-11ea-9bbf-1f86b2b62a9a,1,0,1,10,1.0,1.0,0
run-2020-2-18-13-54-38.31684494,AGENT#345d62cc-5256-11ea-a0c5-d3cde98f1fe1,1,0,1,10,1.0,1.0,0
run-2020-2-18-13-54-38.31684494,AGENT#345d6600-5256-11ea-9b39-bb31585b5169,1,0,1,10,1.0,1.0,0
run-2020-2-18-13-54-38.31684494,AGENT#345d0084-5256-11ea-a091-eb388f2ff452,3,0,3,10,1.0,1.0,0
run-2020-2-18-13-54-38.31684494,AGENT#345d0c8c-5256-11ea-b681-4fdb2f6829d6,3,0,3,10,1.0,1.0,0
run-2020-2-18-13-54-38.31684494,AGENT#345d0f52-5256-11ea-a18f-2785be1a8310,3,0,3,10,1.0,1.0,0
run-2020-2-18-13-54-38.31684494,AGENT#345d03d6-5256-11ea-9bec-d72fd348bc08,5,0,5,10,1.0,1.0,0
run-2020-2-18-13-54-38.31684494,AGENT#345d1a74-5256-11ea-8417-732329a222b5,5,0,5,10,1.0,1.0,0
run-2020-2-18-13-54-38.31684494,AGENT#3462a084-5256-11ea-8498-1b2121564ec5,3,2,5,10,1.0,1.0,0
run-2020-2-18-13-54-38.31684494,AGENT#3462a62e-5256-11ea-a074-9748dfdfe989,3,2,5,10,1.0,1.0,0
run-2020-2-18-13-54-38.31684494,AGENT#3462a340-5256-11ea-b8d8-67857f8e4fd6,4,2,6,10,1.0,1.0,0
run-2020-2-18-13-54-38.31684494,AGENT#3462db62-5256-11ea-b37b-cf47bb60303f,3,3,6,10,1.0,1.0,0
run-2020-2-18-13-54-38.31684494,AGENT#346347c8-5256-11ea-8ffb-fb584e1a0b46,1,5,6,10,1.0,1.0,0
run-2020-2-18-13-54-38.31684494,AGENT#34635006-5256-11ea-8e65-2304d2eb1abe,1,5,6,10,1.0,1.0,0
run-2020-2-18-13-54-38.31684494,AGENT#34634462-5256-11ea-834f-af421e08ab55,3,5,8,10,1.0,1.0,0
run-2020-2-18-13-54-38.31684494,AGENT#34638346-5256-11ea-a33f-c39bd3060d84,2,6,8,10,1.0,1.0,0
run-2020-2-18-13-54-38.31684494,AGENT#34638648-5256-11ea-8c5e-ff94eb20b893,2,6,8,10,1.0,1.0,0
run-2020-2-18-13-54-38.31684494,AGENT#34634d40-5256-11ea-9d43-07790b8c60af,4,5,9,10,1.0,1.0,0
run-2020-2-18-13-54-38.31684494,AGENT#3463eb7e-5256-11ea-9050-df2f362cdee0,5,8,13,10,1.0,1.0,0
run-2020-2-18-13-54-38.31684494,AGENT#3464528a-5256-11ea-b75d-039fd9583747,3,10,13,10,1.0,1.0,0
run-2020-2-18-13-54-38.31684494,AGENT#3464587a-5256-11ea-973a-332614cd3554,4,10,14,10,1.0,1.0,0
run-2020-2-18-13-54-38.31684494,AGENT#346538c6-5256-11ea-9c89-abf640659706,1,14,15,10,1.0,1.0,0
run-2020-2-18-13-54-38.31684494,AGENT#34653e70-5256-11ea-859c-abc56c311108,1,14,15,10,1.0,1.0,0
run-2020-2-18-13-54-38.31684494,AGENT#34653bc8-5256-11ea-948a-ab17ec37c88c,2,14,16,10,1.0,1.0,0
run-2020-2-18-13-54-38.31684494,AGENT#3465412c-5256-11ea-95de-d34eaed49435,2,14,16,10,1.0,1.0,0
run-2020-2-18-13-54-38.31684494,AGENT#34657ea8-5256-11ea-9549-87fdc0e7efb4,1,15,16,10,1.0,1.0,0
run-2020-2-18-13-54-38.31684494,AGENT#345d5d0e-5256-11ea-b0b4-4f034cebd47d,18,0,18,10,1.0,1.0,0
run-2020-2-18-13-54-38.31684494,AGENT#3465fb62-5256-11ea-ba2e-ffc587fcc2f8,1,17,18,10,1.0,1.0,0
run-2020-2-18-13-54-38.31684494,AGENT#34660634-5256-11ea-a615-532f0edef7ad,1,17,18,10,1.0,1.0,0
run-2020-2-18-13-54-38.31684494,AGENT#346581aa-5256-11ea-b9a0-2775cb0bbe05,4,15,19,10,1.0,1.0,0
run-2020-2-18-13-54-38.31684494,AGENT#3465bfda-5256-11ea-9df2-67348cb0ccfd,3,16,19,10,1.0,1.0,0
run-2020-2-18-13-54-38.31684494,AGENT#34664c16-5256-11ea-8fab-5356bcf90720,1,18,19,10,1.0,1.0,0
run-2020-2-18-13-54-38.31684494,AGENT#34665152-5256-11ea-bed6-37fbb814862a,1,18,19,10,1.0,1.0,0
run-2020-2-18-13-54-38.31684494,AGENT#3462418e-5256-11ea-b824-6b5e01a1e473,19,1,20,10,1.0,1.0,0
run-2020-2-18-13-54-38.31684494,AGENT#3465bcec-5256-11ea-8920-076b08fd51cf,5,16,21,10,1.0,1.0,0
run-2020-2-18-13-54-38.31684494,AGENT#3465fe28-5256-11ea-8592-4350dfb90c90,4,17,21,10,1.0,1.0,0
run-2020-2-18-13-54-38.31684494,AGENT#3465f87e-5256-11ea-b9a7-1feb0fc6372b,5,17,22,10,1.0,1.0,0
run-2020-2-18-13-54-38.31684494,AGENT#34660382-5256-11ea-8b99-234cdbdd130f,5,17,22,10,1.0,1.0,0
run-2020-2-18-13-54-38.31684494,AGENT#3466e5cc-5256-11ea-b4c0-572cd9ea3450,2,20,22,10,1.0,1.0,0
run-2020-2-18-13-54-38.31684494,AGENT#34672a3c-5256-11ea-8ec8-939b825853c6,1,21,22,10,1.0,1.0,0
run-2020-2-18-13-54-38.31684494,AGENT#34672d16-5256-11ea-bc1f-cb373b777bf3,1,21,22,10,1.0,1.0,0
run-2020-2-18-13-54-38.31684494,AGENT#3466493c-5256-11ea-899e-0f5f341c63e3,5,18,23,10,1.0,1.0,0
run-2020-2-18-13-54-38.31684494,AGENT#34664eb4-5256-11ea-a54b-9f65827edb86,5,18,23,10,1.0,1.0,0
run-2020-2-18-13-54-38.31684494,AGENT#3466e2f2-5256-11ea-b96b-5359029b47db,3,20,23,10,1.0,1.0,0
run-2020-2-18-13-54-38.31684494,AGENT#3466e86a-5256-11ea-94f9-9ba2a93c347b,3,20,23,10,1.0,1.0,0
run-2020-2-18-13-54-38.31684494,AGENT#3467c406-5256-11ea-a17e-4bd48c60d32e,1,23,24,10,1.0,1.0,0
run-2020-2-18-13-54-38.31684494,AGENT#34680f06-5256-11ea-be8e-9f67037af3d6,1,24,25,10,1.0,1.0,0
run-2020-2-18-13-54-38.31684494,AGENT#3468117c-5256-11ea-88dd-8f59b8fccfd9,1,24,25,10,1.0,1.0,0
run-2020-2-18-13-54-38.31684494,AGENT#3467b7a4-5256-11ea-9fad-032b20085662,3,23,26,10,1.0,1.0,0
run-2020-2-18-13-54-38.31684494,AGENT#34680c86-5256-11ea-adc2-6769da3eb508,2,24,26,10,1.0,1.0,0
run-2020-2-18-13-54-38.31684494,AGENT#34677320-5256-11ea-86c9-7791f0170338,5,22,27,10,1.0,1.0,0
run-2020-2-18-13-54-38.31684494,AGENT#34680704-5256-11ea-ad1b-2710b18ae88e,3,24,27,10,1.0,1.0,0
run-2020-2-18-13-54-38.31684494,AGENT#345d1218-5256-11ea-9711-53aedde3b900,28,0,28,10,1.0,1.0,0
run-2020-2-18-13-54-38.31684494,AGENT#3467c19a-5256-11ea-aa54-97d2db4a327e,5,23,28,10,1.0,1.0,0
run-2020-2-18-13-54-38.31684494,AGENT#34690c6c-5256-11ea-a25e-0f764a0cb555,2,27,29,10,1.0,1.0,0
run-2020-2-18-13-54-38.31684494,AGENT#346964c8-5256-11ea-92ee-37d79f768369,1,28,29,10,1.0,1.0,0
run-2020-2-18-13-54-38.31684494,AGENT#3468b8fc-5256-11ea-bfbe-bbebb28f1003,4,26,30,10,1.0,1.0,0
run-2020-2-18-13-54-38.31684494,AGENT#34690f3c-5256-11ea-8809-33da6c5c17d0,3,27,30,10,1.0,1.0,0
run-2020-2-18-13-54-38.31684494,AGENT#34697184-5256-11ea-81a7-e741bf54b2bb,2,28,30,10,1.0,1.0,0
run-2020-2-18-13-54-38.31684494,AGENT#346600da-5256-11ea-9452-47f9bd145023,14,17,31,10,1.0,1.0,0
run-2020-2-18-13-54-38.31684494,AGENT#3467b506-5256-11ea-b499-630988224945,8,23,31,10,1.0,1.0,0
run-2020-2-18-13-54-38.31684494,AGENT#3468bbc2-5256-11ea-ab10-4354de7062e4,5,26,31,10,1.0,1.0,0
run-2020-2-18-13-54-38.31684494,AGENT#346967ac-5256-11ea-822c-1bda0917a9d2,3,28,31,10,1.0,1.0,0
run-2020-2-18-13-54-38.31684494,AGENT#3469c76a-5256-11ea-8def-77f26088012d,2,29,31,10,1.0,1.0,0
run-2020-2-18-13-54-38.31684494,AGENT#34634a8e-5256-11ea-8139-f7fdfa912db1,27,5,32,10,1.0,1.0,0
run-2020-2-18-13-54-38.31684494,AGENT#34696f22-5256-11ea-9481-3b753ee61174,4,28,32,10,1.0,1.0,0
run-2020-2-18-13-54-38.31684494,AGENT#3469ca3a-5256-11ea-a817-53681a10c048,4,29,33,10,1.0,1.0,0
run-2020-2-18-13-54-38.31684494,AGENT#346a2660-5256-11ea-9d0e-3b6835c9c764,4,30,34,10,1.0,1.0,0
run-2020-2-18-13-54-38.31684494,AGENT#346ad84e-5256-11ea-b3f2-3f408ac2f3bc,2,32,34,10,1.0,1.0,0
run-2020-2-18-13-54-38.31684494,AGENT#346b36fe-5256-11ea-ba96-f728b814ac56,1,33,34,10,1.0,1.0,0
run-2020-2-18-13-54-38.31684494,AGENT#346ad34e-5256-11ea-8cae-5fe1712edf0b,3,32,35,10,1.0,1.0,0
run-2020-2-18-13-54-38.31684494,AGENT#346adace-5256-11ea-a844-132219456c15,3,32,35,10,1.0,1.0,0
run-2020-2-18-13-54-38.31684494,AGENT#346ba008-5256-11ea-a86c-efd980b04f65,2,34,36,10,1.0,1.0,0
run-2020-2-18-13-54-38.31684494,AGENT#346ba300-5256-11ea-b405-7f475de13c7a,2,34,36,10,1.0,1.0,0
run-2020-2-18-13-54-38.31684494,AGENT#346c00b6-5256-11ea-96a5-971d80e06aa0,1,35,36,10,1.0,1.0,0
run-2020-2-18-13-54-38.31684494,AGENT#346c6ca4-5256-11ea-9ef4-b34ebffe520c,1,36,37,10,1.0,1.0,0
run-2020-2-18-13-54-38.31684494,AGENT#346b3c44-5256-11ea-a1e1-1bbcb75b185d,5,33,38,10,1.0,1.0,0
run-2020-2-18-13-54-38.31684494,AGENT#34696ca2-5256-11ea-aeb7-438e74d22255,11,28,39,10,1.0,1.0,0
run-2020-2-18-13-54-38.31684494,AGENT#346cd20c-5256-11ea-8ac2-3b886057da4b,2,37,39,10,1.0,1.0,0
run-2020-2-18-13-54-38.31684494,AGENT#346cd478-5256-11ea-a529-8fb91fefaa38,2,37,39,10,1.0,1.0,0
run-2020-2-18-13-54-38.31684494,AGENT#346c0aa2-5256-11ea-ba12-f3c8e3507455,5,35,40,10,1.0,1.0,0
run-2020-2-18-13-54-38.31684494,AGENT#346c6f38-5256-11ea-83f2-cfb97af01bc3,4,36,40,10,1.0,1.0,0
run-2020-2-18-13-54-38.31684494,AGENT#346da344-5256-11ea-a1d6-3332075daa36,1,39,40,10,1.0,1.0,0
run-2020-2-18-13-54-38.31684494,AGENT#346c71a4-5256-11ea-8324-ab2f93780f2f,5,36,41,10,1.0,1.0,0
run-2020-2-18-13-54-38.31684494,AGENT#346e0b18-5256-11ea-9205-1bb152fcbcb5,1,40,41,10,1.0,1.0,0
run-2020-2-18-13-54-38.31684494,AGENT#346e1018-5256-11ea-b9c0-3b2abc93143d,2,40,42,10,1.0,1.0,0
run-2020-2-18-13-54-38.31684494,AGENT#346e7f8a-5256-11ea-a1fe-7b67e736ac59,1,41,42,10,1.0,1.0,0
run-2020-2-18-13-54-38.31684494,AGENT#346d377e-5256-11ea-b005-f7bd87764d1c,5,38,43,10,1.0,1.0,0
run-2020-2-18-13-54-38.31684494,AGENT#346da0e2-5256-11ea-99b8-b3d62e4c28e2,4,39,43,10,1.0,1.0,0
run-2020-2-18-13-54-38.31684494,AGENT#346da5c4-5256-11ea-8b50-1b7f8489c241,4,39,43,10,1.0,1.0,0
run-2020-2-18-13-54-38.31684494,AGENT#346e8462-5256-11ea-9d62-279bb53067b3,3,41,44,10,1.0,1.0,0
run-2020-2-18-13-54-38.31684494,AGENT#346fd164-5256-11ea-ae25-3393fbd8ba44,1,44,45,10,1.0,1.0,0
run-2020-2-18-13-54-38.31684494,AGENT#346fd696-5256-11ea-91a6-b77e4e285a58,1,44,45,10,1.0,1.0,0
run-2020-2-18-13-54-38.31684494,AGENT#346f69a4-5256-11ea-9f74-63e4261b2a69,3,43,46,10,1.0,1.0,0
run-2020-2-18-13-54-38.31684494,AGENT#346fd90c-5256-11ea-8245-9b10fd9e1eca,2,44,46,10,1.0,1.0,0
run-2020-2-18-13-54-38.31684494,AGENT#345d09bc-5256-11ea-b27e-b309c96b21df,47,0,47,10,1.0,1.0,0
run-2020-2-18-13-54-38.31684494,AGENT#3467bf1a-5256-11ea-bcbe-bb13f90d8cb9,24,23,47,10,1.0,1.0,0
run-2020-2-18-13-54-38.31684494,AGENT#3470c27c-5256-11ea-9fe2-2bbd484e1017,1,46,47,10,1.0,1.0,0
run-2020-2-18-13-54-38.31684494,AGENT#346244a4-5256-11ea-b112-6b19e35aa093,47,1,48,10,1.0,1.0,0
run-2020-2-18-13-54-38.31684494,AGENT#346864c4-5256-11ea-b53e-ef309d644493,23,25,48,10,1.0,1.0,0
run-2020-2-18-13-54-38.31684494,AGENT#3471462a-5256-11ea-8493-53ad97505fd0,1,47,48,10,1.0,1.0,0
run-2020-2-18-13-54-38.31684494,AGENT#347148a0-5256-11ea-9122-77d532b0fcbb,1,47,48,10,1.0,1.0,0
run-2020-2-18-13-54-38.31684494,AGENT#34629d8c-5256-11ea-9573-a751d9b8b71b,47,2,49,10,1.0,1.0,0
run-2020-2-18-13-54-38.31684494,AGENT#3462d89c-5256-11ea-b89d-cf2af7185c94,46,3,49,10,1.0,1.0,0
run-2020-2-18-13-54-38.31684494,AGENT#346a80a6-5256-11ea-9f5b-174310347b76,18,31,49,10,1.0,1.0,0
run-2020-2-18-13-54-38.31684494,AGENT#347051c0-5256-11ea-976b-3b05d67264df,4,45,49,10,1.0,1.0,0
run-2020-2-18-13-54-38.31684494,AGENT#3470c7cc-5256-11ea-880e-b76511c8fcd0,3,46,49,10,1.0,1.0,0
run-2020-2-18-13-54-38.31684494,AGENT#3470ca2e-5256-11ea-beb7-234f015d9c70,3,46,49,10,1.0,1.0,0
run-2020-2-18-13-54-38.31684494,AGENT#3471b998-5256-11ea-b2ed-9fa4b3703008,1,48,49,10,1.0,1.0,0
run-2020-2-18-13-54-38.31684494,AGENT#3463070e-5256-11ea-a730-f78db70bfe5f,46,4,50,10,1.0,1.0,0
run-2020-2-18-13-54-38.31684494,AGENT#346d9e26-5256-11ea-92d7-5788bf16d8f0,11,39,50,10,1.0,1.0,0
run-2020-2-18-13-54-38.31684494,AGENT#34714076-5256-11ea-b981-0f63cd9bdca0,3,47,50,10,1.0,1.0,0
run-2020-2-18-13-54-38.31684494,AGENT#3472380a-5256-11ea-a271-474dee58bc2a,1,49,50,10,1.0,1.0,0
run-2020-2-18-13-54-38.31684494,AGENT#3462d2ac-5256-11ea-95f8-a7187dee2632,48,3,51,10,1.0,1.0,0
run-2020-2-18-13-54-38.31684494,AGENT#346c0836-5256-11ea-b11a-43857ac05954,16,35,51,10,1.0,1.0,0
run-2020-2-18-13-54-38.31684494,AGENT#3462d5c2-5256-11ea-b5aa-ef85c61f89c5,49,3,52,10,1.0,1.0,0
run-2020-2-18-13-54-38.31684494,AGENT#34704c3e-5256-11ea-a831-13b2bb616e3a,7,45,52,10,1.0,1.0,0
run-2020-2-18-13-54-38.31684494,AGENT#34723562-5256-11ea-b5b4-6ff4e3b62217,3,49,52,10,1.0,1.0,0
run-2020-2-18-13-54-38.31684494,AGENT#3472b898-5256-11ea-a5f5-4b9d57fb1e79,2,50,52,10,1.0,1.0,0
run-2020-2-18-13-54-38.31684494,AGENT#3472bb0e-5256-11ea-8663-3355b01e512f,2,50,52,10,1.0,1.0,0
run-2020-2-18-13-54-38.31684494,AGENT#3473321e-5256-11ea-ba7b-4f1882a9baa5,1,51,52,10,1.0,1.0,0
run-2020-2-18-13-54-38.31684494,AGENT#3463b352-5256-11ea-8f78-63f25553fcb3,46,7,53,10,1.0,1.0,0
run-2020-2-18-13-54-38.31684494,AGENT#3463b64a-5256-11ea-9a37-c38e12588254,46,7,53,10,1.0,1.0,0
run-2020-2-18-13-54-38.31684494,AGENT#3463f164-5256-11ea-93e9-d7e0db516a0f,45,8,53,10,1.0,1.0,0
run-2020-2-18-13-54-38.31684494,AGENT#3472bfe6-5256-11ea-8c06-5b86b87fcd70,3,50,53,10,1.0,1.0,0
run-2020-2-18-13-54-38.31684494,AGENT#347334b2-5256-11ea-b642-6f03365c7e75,2,51,53,10,1.0,1.0,0
run-2020-2-18-13-54-38.31684494,AGENT#3473ace4-5256-11ea-97c1-1bbd29fc5af7,1,52,53,10,1.0,1.0,0
run-2020-2-18-13-54-38.31684494,AGENT#3464229c-5256-11ea-8c1d-e3ac29795f80,45,9,54,10,1.0,1.0,0
run-2020-2-18-13-54-38.31684494,AGENT#34743844-5256-11ea-9ac4-93444cd060ce,1,53,54,10,1.0,1.0,0
run-2020-2-18-13-54-38.31684494,AGENT#3463ee9e-5256-11ea-9b44-334550fff536,47,8,55,10,1.0,1.0,0
run-2020-2-18-13-54-38.31684494,AGENT#3464558c-5256-11ea-8a6f-b36cccc082ec,46,10,56,10,1.0,1.0,0
run-2020-2-18-13-54-38.31684494,AGENT#34743394-5256-11ea-82a5-07ba333eba12,3,53,56,10,1.0,1.0,0
run-2020-2-18-13-54-38.31684494,AGENT#3464c60c-5256-11ea-879e-53c264a0f8a5,45,12,57,10,1.0,1.0,0
run-2020-2-18-13-54-38.31684494,AGENT#3468b622-5256-11ea-bf31-53ffaf482105,31,26,57,10,1.0,1.0,0
run-2020-2-18-13-54-38.31684494,AGENT#3472bd84-5256-11ea-9142-3f1c399b8a9c,7,50,57,10,1.0,1.0,0
run-2020-2-18-13-54-38.31684494,AGENT#347598f6-5256-11ea-8818-d7e5ba4edc1c,1,56,57,10,1.0,1.0,0
run-2020-2-18-13-54-38.31684494,AGENT#3475969e-5256-11ea-8b6e-e77b0c537cbb,2,56,58,10,1.0,1.0,0
run-2020-2-18-13-54-38.31684494,AGENT#34759b4e-5256-11ea-853d-9b4d7cdd5d81,2,56,58,10,1.0,1.0,0
run-2020-2-18-13-54-38.31684494,AGENT#34759d92-5256-11ea-ac03-db581ade845c,2,56,58,10,1.0,1.0,0
run-2020-2-18-13-54-38.31684494,AGENT#34650478-5256-11ea-8a9a-7bed9a186865,46,13,59,10,1.0,1.0,0
run-2020-2-18-13-54-38.31684494,AGENT#3473b482-5256-11ea-b900-13e34d3b9dc3,7,52,59,10,1.0,1.0,0
run-2020-2-18-13-54-38.31684494,AGENT#34648ce6-5256-11ea-a7d1-43b127a0d521,49,11,60,10,1.0,1.0,0
run-2020-2-18-13-54-38.31684494,AGENT#347526e6-5256-11ea-b004-7b4569f22816,5,55,60,10,1.0,1.0,0
run-2020-2-18-13-54-38.31684494,AGENT#34763a4a-5256-11ea-ae50-af6a51349e5c,3,57,60,10,1.0,1.0,0
run-2020-2-18-13-54-38.31684494,AGENT#347637ac-5256-11ea-bb70-efa34c6849a9,4,57,61,10,1.0,1.0,0
run-2020-2-18-13-54-38.31684494,AGENT#3476bd1c-5256-11ea-93da-ffbb3a4862a8,4,58,62,10,1.0,1.0,0
run-2020-2-18-13-54-38.31684494,AGENT#346813e8-5256-11ea-8dee-bfd556f06172,39,24,63,10,1.0,1.0,0
run-2020-2-18-13-54-38.31684494,AGENT#3477baf0-5256-11ea-b7d9-a39ca0b8c411,3,60,63,10,1.0,1.0,0
run-2020-2-18-13-54-38.31684494,AGENT#3478c90e-5256-11ea-afcf-dbef3e5141ad,1,62,63,10,1.0,1.0,0
run-2020-2-18-13-54-38.31684494,AGENT#3466a3aa-5256-11ea-bb30-ebbc96ad73de,45,19,64,10,1.0,1.0,0
run-2020-2-18-13-54-38.31684494,AGENT#34773986-5256-11ea-9be3-7fe2f4baaf63,5,59,64,10,1.0,1.0,0
run-2020-2-18-13-54-38.31684494,AGENT#3478c44a-5256-11ea-8920-5bfde83ad5ae,2,62,64,10,1.0,1.0,0
run-2020-2-18-13-54-38.31684494,AGENT#347836c4-5256-11ea-85ce-634a23b5f625,4,61,65,10,1.0,1.0,0
run-2020-2-18-13-54-38.31684494,AGENT#34783930-5256-11ea-8efc-33ef74dfcabc,4,61,65,10,1.0,1.0,0
run-2020-2-18-13-54-38.31684494,AGENT#3478c6b6-5256-11ea-bbc1-cb542b0e7e40,3,62,65,10,1.0,1.0,0
run-2020-2-18-13-54-38.31684494,AGENT#3479fdc4-5256-11ea-9b44-f7a7622cd336,1,64,65,10,1.0,1.0,0
run-2020-2-18-13-54-38.31684494,AGENT#347a036e-5256-11ea-b3e1-c3c828bff839,1,64,65,10,1.0,1.0,0
run-2020-2-18-13-54-38.31684494,AGENT#3478d020-5256-11ea-8030-477c80eb730f,4,62,66,10,1.0,1.0,0
run-2020-2-18-13-54-38.31684494,AGENT#3478cb70-5256-11ea-b43d-2b5b99bab933,5,62,67,10,1.0,1.0,0
run-2020-2-18-13-54-38.31684494,AGENT#34795df6-5256-11ea-a5e6-ebba767515cb,4,63,67,10,1.0,1.0,0
run-2020-2-18-13-54-38.31684494,AGENT#347aa92c-5256-11ea-a3a4-7f9312368040,2,65,67,10,1.0,1.0,0
run-2020-2-18-13-54-38.31684494,AGENT#347b4db4-5256-11ea-ba84-1b381291acd7,1,66,67,10,1.0,1.0,0
run-2020-2-18-13-54-38.31684494,AGENT#3467ba2e-5256-11ea-9b71-634199a763cd,45,23,68,10,1.0,1.0,0
run-2020-2-18-13-54-38.31684494,AGENT#346914a0-5256-11ea-b807-634c7146f383,41,27,68,10,1.0,1.0,0
run-2020-2-18-13-54-38.31684494,AGENT#34796530-5256-11ea-bb6b-535ddc0a5aa9,5,63,68,10,1.0,1.0,0
run-2020-2-18-13-54-38.31684494,AGENT#347c0790-5256-11ea-90aa-87b98cede874,1,67,68,10,1.0,1.0,0
run-2020-2-18-13-54-38.31684494,AGENT#3467bca4-5256-11ea-b271-5f15967a1e73,46,23,69,10,1.0,1.0,0
run-2020-2-18-13-54-38.31684494,AGENT#346809c0-5256-11ea-b6dc-8f25815d839a,45,24,69,10,1.0,1.0,0
run-2020-2-18-13-54-38.31684494,AGENT#3479fb08-5256-11ea-8781-3b8a1c84c0e7,5,64,69,10,1.0,1.0,0
run-2020-2-18-13-54-38.31684494,AGENT#347aabde-5256-11ea-bc0b-c3645a858599,4,65,69,10,1.0,1.0,0
run-2020-2-18-13-54-38.31684494,AGENT#347b500c-5256-11ea-bc16-777c26f1e723,3,66,69,10,1.0,1.0,0
run-2020-2-18-13-54-38.31684494,AGENT#347c0efc-5256-11ea-8f3c-5fce0c32bd13,2,67,69,10,1.0,1.0,0
run-2020-2-18-13-54-38.31684494,AGENT#3467b240-5256-11ea-b50f-af0c1c7c72b3,47,23,70,10,1.0,1.0,0
run-2020-2-18-13-54-38.31684494,AGENT#346b414e-5256-11ea-8108-a3790dacfecf,37,33,70,10,1.0,1.0,0
run-2020-2-18-13-54-38.31684494,AGENT#347aae40-5256-11ea-8913-4f0d32098cd6,6,65,71,10,1.0,1.0,0
run-2020-2-18-13-54-38.31684494,AGENT#347b459e-5256-11ea-8e75-2f1b577fda3a,5,66,71,10,1.0,1.0,0
run-2020-2-18-13-54-38.31684494,AGENT#347cbe7e-5256-11ea-b6bb-4b72ed887ea9,3,68,71,10,1.0,1.0,0
run-2020-2-18-13-54-38.31684494,AGENT#347cc39c-5256-11ea-a11c-9771c550ea19,3,68,71,10,1.0,1.0,0
run-2020-2-18-13-54-38.31684494,AGENT#347e0d60-5256-11ea-b950-1feb514973d8,1,70,71,10,1.0,1.0,0
run-2020-2-18-13-54-38.31684494,AGENT#347e0fcc-5256-11ea-bfd3-ffc530ada524,1,70,71,10,1.0,1.0,0
run-2020-2-18-13-54-38.31684494,AGENT#346911c6-5256-11ea-aba2-fb3c1b323247,45,27,72,10,1.0,1.0,0
run-2020-2-18-13-54-38.31684494,AGENT#347d71a2-5256-11ea-8943-8f23ef19cdcb,3,69,72,10,1.0,1.0,0
run-2020-2-18-13-54-38.31684494,AGENT#347e144a-5256-11ea-bcf0-472407a42160,2,70,72,10,1.0,1.0,0
run-2020-2-18-13-54-38.31684494,AGENT#347e168e-5256-11ea-980a-cf10be33e35b,2,70,72,10,1.0,1.0,0
run-2020-2-18-13-54-38.31684494,AGENT#347e1aee-5256-11ea-b672-33dfbc5a41e4,2,70,72,10,1.0,1.0,0
run-2020-2-18-13-54-38.31684494,AGENT#347ff2a6-5256-11ea-a39a-af6a6e11ae06,1,72,73,10,1.0,1.0,0
run-2020-2-18-13-54-38.31684494,AGENT#34696a22-5256-11ea-961c-dbbeb6a0af91,46,28,74,10,1.0,1.0,0
run-2020-2-18-13-54-38.31684494,AGENT#347e18be-5256-11ea-bfa1-47cedca63c64,4,70,74,10,1.0,1.0,0
run-2020-2-18-13-54-38.31684494,AGENT#346a2386-5256-11ea-a84e-47a58be0aaad,45,30,75,10,1.0,1.0,0
run-2020-2-18-13-54-38.31684494,AGENT#34742e94-5256-11ea-82c5-bf636d266ac2,22,53,75,10,1.0,1.0,0
run-2020-2-18-13-54-38.31684494,AGENT#347ff634-5256-11ea-b6d7-bf9fe84cd879,3,72,75,10,1.0,1.0,0
run-2020-2-18-13-54-38.31684494,AGENT#34817cde-5256-11ea-a95d-035c89993bce,3,74,77,10,1.0,1.0,0
run-2020-2-18-13-54-38.31684494,AGENT#34822d0a-5256-11ea-897c-d715a1e8196c,2,75,77,10,1.0,1.0,0
run-2020-2-18-13-54-38.31684494,AGENT#34822fd0-5256-11ea-b278-0fbe5215a6ac,2,75,77,10,1.0,1.0,0
run-2020-2-18-13-54-38.31684494,AGENT#3482cf76-5256-11ea-9c7b-4f0397c0c8d3,1,76,77,10,1.0,1.0,0
run-2020-2-18-13-54-38.31684494,AGENT#346b39c4-5256-11ea-8b36-fb725b5dd262,45,33,78,10,1.0,1.0,0
run-2020-2-18-13-54-38.31684494,AGENT#346b3ece-5256-11ea-81a0-0fec9056eb46,45,33,78,10,1.0,1.0,0
run-2020-2-18-13-54-38.31684494,AGENT#34836d6e-5256-11ea-96e7-5b214881669a,1,77,78,10,1.0,1.0,0
run-2020-2-18-13-54-38.31684494,AGENT#347634a0-5256-11ea-ba47-2b1bd2ed7545,22,57,79,10,1.0,1.0,0
run-2020-2-18-13-54-38.31684494,AGENT#348372c8-5256-11ea-9abf-03bc691e23b9,2,77,79,10,1.0,1.0,0
run-2020-2-18-13-54-38.31684494,AGENT#346ad5d8-5256-11ea-9c2b-ef25d7bea567,48,32,80,10,1.0,1.0,0
run-2020-2-18-13-54-38.31684494,AGENT#3484cda8-5256-11ea-9621-078fb92374e1,1,79,80,10,1.0,1.0,0
run-2020-2-18-13-54-38.31684494,AGENT#3484d032-5256-11ea-932c-37f94da85d2f,1,79,80,10,1.0,1.0,0
run-2020-2-18-13-54-38.31684494,AGENT#346ad088-5256-11ea-b83f-7ff80f27d745,49,32,81,10,1.0,1.0,0
run-2020-2-18-13-54-38.31684494,AGENT#346c0368-5256-11ea-ab08-2f66df960ef3,46,35,81,10,1.0,1.0,0
run-2020-2-18-13-54-38.31684494,AGENT#3484229a-5256-11ea-9120-ebf36d86823b,3,78,81,10,1.0,1.0,0
run-2020-2-18-13-54-38.31684494,AGENT#34842510-5256-11ea-937f-1bed50909cdf,3,78,81,10,1.0,1.0,0
run-2020-2-18-13-54-38.31684494,AGENT#34859224-5256-11ea-b8cb-9b0348f6ab4f,2,80,82,10,1.0,1.0,0
run-2020-2-18-13-54-38.31684494,AGENT#348594c2-5256-11ea-907d-d32e381032a4,2,80,82,10,1.0,1.0,0
run-2020-2-18-13-54-38.31684494,AGENT#346c05ca-5256-11ea-9a6a-c7a4f572bd61,48,35,83,10,1.0,1.0,0
run-2020-2-18-13-54-38.31684494,AGENT#34841fe8-5256-11ea-aa72-e726eda68b37,5,78,83,10,1.0,1.0,0
run-2020-2-18-13-54-38.31684494,AGENT#3484d28a-5256-11ea-9765-334249e62ef2,4,79,83,10,1.0,1.0,0
run-2020-2-18-13-54-38.31684494,AGENT#346d3a30-5256-11ea-bf99-af4edd78f0e9,46,38,84,10,1.0,1.0,0
run-2020-2-18-13-54-38.31684494,AGENT#348599a4-5256-11ea-9106-f7c97fe30164,4,80,84,10,1.0,1.0,0
run-2020-2-18-13-54-38.31684494,AGENT#3487e092-5256-11ea-9e11-332954989fe6,1,83,84,10,1.0,1.0,0
run-2020-2-18-13-54-38.31684494,AGENT#346e0db6-5256-11ea-991e-67f1c5032c0b,45,40,85,10,1.0,1.0,0
run-2020-2-18-13-54-38.31684494,AGENT#3474b198-5256-11ea-b1ba-67bb9943b962,31,54,85,10,1.0,1.0,0
run-2020-2-18-13-54-38.31684494,AGENT#3487e4e8-5256-11ea-8013-a7bf1808e4f8,2,83,85,10,1.0,1.0,0
run-2020-2-18-13-54-38.31684494,AGENT#346e7cb0-5256-11ea-aaf7-6bd2b72bac74,45,41,86,10,1.0,1.0,0
run-2020-2-18-13-54-38.31684494,AGENT#346e820a-5256-11ea-9f9d-4f0606ba536f,45,41,86,10,1.0,1.0,0
run-2020-2-18-13-54-38.31684494,AGENT#34871bbc-5256-11ea-a397-8f54b4f592f4,4,82,86,10,1.0,1.0,0
run-2020-2-18-13-54-38.31684494,AGENT#34871ec8-5256-11ea-83a9-b36e6414d3ac,4,82,86,10,1.0,1.0,0
run-2020-2-18-13-54-38.31684494,AGENT#34872152-5256-11ea-8a2f-1735f9e90db9,4,82,86,10,1.0,1.0,0
run-2020-2-18-13-54-38.31684494,AGENT#348723b4-5256-11ea-a940-47c6edfe9d23,4,82,86,10,1.0,1.0,0
run-2020-2-18-13-54-38.31684494,AGENT#34872620-5256-11ea-b4c6-977c005a044e,4,82,86,10,1.0,1.0,0
run-2020-2-18-13-54-38.31684494,AGENT#348994fa-5256-11ea-ac4a-6b6e664a5edd,1,85,86,10,1.0,1.0,0
run-2020-2-18-13-54-38.31684494,AGENT#34899c48-5256-11ea-9e7f-13c9735889aa,1,85,86,10,1.0,1.0,0
run-2020-2-18-13-54-38.31684494,AGENT#346ccf5a-5256-11ea-ade5-5f06c2ddc1e8,50,37,87,10,1.0,1.0,0
run-2020-2-18-13-54-38.31684494,AGENT#3488d6c8-5256-11ea-8215-f7aab07c4b80,4,84,88,10,1.0,1.0,0
run-2020-2-18-13-54-38.31684494,AGENT#348a814e-5256-11ea-9704-a74108005931,2,86,88,10,1.0,1.0,0
run-2020-2-18-13-54-38.31684494,AGENT#348b4066-5256-11ea-b3f1-fbdea4901b67,1,87,88,10,1.0,1.0,0
run-2020-2-18-13-54-38.31684494,AGENT#348b4520-5256-11ea-a52d-cbbe213d71b3,1,87,88,10,1.0,1.0,0
run-2020-2-18-13-54-38.31684494,AGENT#347143aa-5256-11ea-b67c-ef1eac1cfe98,42,47,89,10,1.0,1.0,0
run-2020-2-18-13-54-38.31684494,AGENT#34899874-5256-11ea-9b0f-4ba4a2380dc3,4,85,89,10,1.0,1.0,0
run-2020-2-18-13-54-38.31684494,AGENT#346fd420-5256-11ea-9db0-8fb7eaa1dcc8,46,44,90,10,1.0,1.0,0
run-2020-2-18-13-54-38.31684494,AGENT#34898d34-5256-11ea-81ac-4bf50c03b1e7,5,85,90,10,1.0,1.0,0
run-2020-2-18-13-54-38.31684494,AGENT#348b42dc-5256-11ea-a2ad-7fb09cbcd0c2,3,87,90,10,1.0,1.0,0
run-2020-2-18-13-54-38.31684494,AGENT#348d142c-5256-11ea-9fe1-73436ebdb4f1,1,89,90,10,1.0,1.0,0
run-2020-2-18-13-54-38.31684494,AGENT#348a7c08-5256-11ea-b347-132d3d510a8d,5,86,91,10,1.0,1.0,0
run-2020-2-18-13-54-38.31684494,AGENT#3470c538-5256-11ea-845f-eb5a17598d3b,46,46,92,10,1.0,1.0,0
run-2020-2-18-13-54-38.31684494,AGENT#34704f04-5256-11ea-b06e-a7695f41de7a,48,45,93,10,1.0,1.0,0
run-2020-2-18-13-54-38.31684494,AGENT#3470ccae-5256-11ea-8c62-6352c99c4b98,47,46,93,10,1.0,1.0,0
run-2020-2-18-13-54-38.31684494,AGENT#3478cdd2-5256-11ea-b2da-2b34f4d4f6ce,31,62,93,10,1.0,1.0,0
run-2020-2-18-13-54-38.31684494,AGENT#348c34b2-5256-11ea-abf9-177b13daf180,5,88,93,10,1.0,1.0,0
run-2020-2-18-13-54-38.31684494,AGENT#348de0fa-5256-11ea-9490-7f7051c97b6b,3,90,93,10,1.0,1.0,0
run-2020-2-18-13-54-38.31684494,AGENT#348ea954-5256-11ea-a6c6-a7c2ce5fcd29,2,91,93,10,1.0,1.0,0
run-2020-2-18-13-54-38.31684494,AGENT#348eabca-5256-11ea-8114-53020c2d21b1,2,91,93,10,1.0,1.0,0
run-2020-2-18-13-54-38.31684494,AGENT#34723a76-5256-11ea-8863-37f0e4554219,45,49,94,10,1.0,1.0,0
run-2020-2-18-13-54-38.31684494,AGENT#34899266-5256-11ea-a883-0b17160f7106,9,85,94,10,1.0,1.0,0
run-2020-2-18-13-54-38.31684494,AGENT#348d19ae-5256-11ea-9ec3-13e00a5f5645,5,89,94,10,1.0,1.0,0
run-2020-2-18-13-54-38.31684494,AGENT#34906d02-5256-11ea-9e66-bf44808ac427,1,93,94,10,1.0,1.0,0
run-2020-2-18-13-54-38.31684494,AGENT#34907130-5256-11ea-80ed-d3bdf742dda9,1,93,94,10,1.0,1.0,0
run-2020-2-18-13-54-38.31684494,AGENT#34907fae-5256-11ea-9966-1f3f60811539,1,93,94,10,1.0,1.0,0
run-2020-2-18-13-54-38.31684494,AGENT#3490833c-5256-11ea-a67b-a34c8b1ec545,1,93,94,10,1.0,1.0,0
run-2020-2-18-13-54-38.31684494,AGENT#348eae86-5256-11ea-8574-d7011dceac5b,4,91,95,10,1.0,1.0,0
run-2020-2-18-13-54-38.31684494,AGENT#348f7a82-5256-11ea-8bee-e31044421ffc,3,92,95,10,1.0,1.0,0
run-2020-2-18-13-54-38.31684494,AGENT#349086ca-5256-11ea-ae70-87f1b54db696,2,93,95,10,1.0,1.0,0
run-2020-2-18-13-54-38.31684494,AGENT#34733728-5256-11ea-8c4c-875e4675f237,45,51,96,10,1.0,1.0,0
run-2020-2-18-13-54-38.31684494,AGENT#347cc126-5256-11ea-b985-9b77b0dce54b,28,68,96,10,1.0,1.0,0
run-2020-2-18-13-54-38.31684494,AGENT#349074dc-5256-11ea-9b26-2f98ef10190c,3,93,96,10,1.0,1.0,0
run-2020-2-18-13-54-38.31684494,AGENT#34918390-5256-11ea-93bf-7f8d0a51a854,2,94,96,10,1.0,1.0,0
run-2020-2-18-13-54-38.31684494,AGENT#34918b24-5256-11ea-8083-47e9c8325644,2,94,96,10,1.0,1.0,0
run-2020-2-18-13-54-38.31684494,AGENT#34926a1c-5256-11ea-9428-bf699d8e5d7d,1,95,96,10,1.0,1.0,0
run-2020-2-18-13-54-38.31684494,AGENT#34926ce2-5256-11ea-8e38-07e32bb09211,1,95,96,10,1.0,1.0,0
run-2020-2-18-13-54-38.31684494,AGENT#3472b5c8-5256-11ea-860d-0be817e60d29,47,50,97,10,1.0,1.0,0
run-2020-2-18-13-54-38.31684494,AGENT#3473af96-5256-11ea-b948-cfe15f27a76f,45,52,97,10,1.0,1.0,0
run-2020-2-18-13-54-38.31684494,AGENT#3473b216-5256-11ea-af04-afa449a05ea3,45,52,97,10,1.0,1.0,0
run-2020-2-18-13-54-38.31684494,AGENT#348f779e-5256-11ea-8a0c-37805cac1d99,5,92,97,10,1.0,1.0,0
run-2020-2-18-13-54-38.31684494,AGENT#349188b8-5256-11ea-ae49-67ae6e0a53d8,3,94,97,10,1.0,1.0,0
run-2020-2-18-13-54-38.31684494,AGENT#34918d7c-5256-11ea-ab17-37d5e9b965e5,3,94,97,10,1.0,1.0,0
run-2020-2-18-13-54-38.31684494,AGENT#34926134-5256-11ea-9eff-03f5462e8f6f,2,95,97,10,1.0,1.0,0
run-2020-2-18-13-54-38.31684494,AGENT#3491922c-5256-11ea-9494-03706320ea49,4,94,98,10,1.0,1.0,0
run-2020-2-18-13-54-38.31684494,AGENT#34743128-5256-11ea-b44d-536f17704d4b,46,53,99,10,1.0,1.0,0
run-2020-2-18-13-54-38.31684494,AGENT#34743600-5256-11ea-924b-cb31577fa3b4,46,53,99,10,1.0,1.0,0
run-2020-2-18-13-54-38.31684494,AGENT#3495917e-5256-11ea-a84f-ff81bfb90a67,1,98,99,10,1.0,1.0,0
