Source,Target
385ae044-5a11-11ea-9978-97834e7ca27b,385b707c-5a11-11ea-b657-03a10096c8af
385ae044-5a11-11ea-9978-97834e7ca27b,385b817a-5a11-11ea-b599-bbec86ef58fe
385b2f4a-5a11-11ea-8adf-c3134b66fcc4,385b8aee-5a11-11ea-b5a6-4bafdb29830a
385b8aee-5a11-11ea-b5a6-4bafdb29830a,385b91f6-5a11-11ea-9d06-0b48209379b7
385b91f6-5a11-11ea-9d06-0b48209379b7,385bb3f2-5a11-11ea-a095-7f31947a14db
385b039e-5a11-11ea-be4c-5f5344053f49,385bbfdc-5a11-11ea-bd07-1fe044283950
385acd34-5a11-11ea-a84e-0ba625c179d3,385bba8c-5a11-11ea-bcb2-b73c023fa237
385bbfdc-5a11-11ea-bd07-1fe044283950,385bc96e-5a11-11ea-8d60-4b7f9b7672da
385b2f4a-5a11-11ea-8adf-c3134b66fcc4,385bd792-5a11-11ea-afb5-978dc4fb4270
385b28d8-5a11-11ea-a9db-7f8e97555d0e,385be2c8-5a11-11ea-99bd-8f9dbfea9ae6
385b0b8c-5a11-11ea-a542-f3a826e27154,385c17a2-5a11-11ea-8af3-87958b6f7564
385b0b8c-5a11-11ea-a542-f3a826e27154,385c2166-5a11-11ea-9459-cfd174ab0178
385c2166-5a11-11ea-9459-cfd174ab0178,385c2846-5a11-11ea-a6d0-d7ee714249cc
385acd34-5a11-11ea-a84e-0ba625c179d3,385c2ce2-5a11-11ea-b69e-2b632dfb375f
385acd34-5a11-11ea-a84e-0ba625c179d3,385c3278-5a11-11ea-a7de-eb2395105c53
385c3278-5a11-11ea-a7de-eb2395105c53,385c6392-5a11-11ea-856e-13a78e46283c
385bbfdc-5a11-11ea-bd07-1fe044283950,385c6bee-5a11-11ea-b079-37375d097200
385c3278-5a11-11ea-a7de-eb2395105c53,385c7e90-5a11-11ea-a845-bfbb99bef7ae
385bc96e-5a11-11ea-8d60-4b7f9b7672da,385c74ae-5a11-11ea-8fdc-87a27043c88e
385c74ae-5a11-11ea-8fdc-87a27043c88e,385c992a-5a11-11ea-962b-0b5214e9b6f1
385b3472-5a11-11ea-990f-c3d88e0e66ec,385ca0c8-5a11-11ea-8261-3f1490d598f6
385acd34-5a11-11ea-a84e-0ba625c179d3,385ca604-5a11-11ea-8e35-ab2ed35e2e65
385b91f6-5a11-11ea-9d06-0b48209379b7,385caabe-5a11-11ea-9fab-87d9781a2ee9
385be2c8-5a11-11ea-99bd-8f9dbfea9ae6,385cafdc-5a11-11ea-82aa-7f384895b225
385c3278-5a11-11ea-a7de-eb2395105c53,385cb806-5a11-11ea-b8d0-f7833ccccd18
385b0b8c-5a11-11ea-a542-f3a826e27154,385cc256-5a11-11ea-aaa4-effdb4081039
385b91f6-5a11-11ea-9d06-0b48209379b7,385cc6ac-5a11-11ea-8595-abe1b4e44331
385bbfdc-5a11-11ea-bd07-1fe044283950,385ce0b0-5a11-11ea-9314-ff1f97f40ffe
385cafdc-5a11-11ea-82aa-7f384895b225,385ceaa6-5a11-11ea-935c-7b0b4c26f99a
385caabe-5a11-11ea-9fab-87d9781a2ee9,385d0022-5a11-11ea-bd0f-373fda7f57b3
385cc256-5a11-11ea-aaa4-effdb4081039,385d0504-5a11-11ea-ad81-3b1988435210
385c2846-5a11-11ea-a6d0-d7ee714249cc,385d0dba-5a11-11ea-a18a-479d85b48181
385c2166-5a11-11ea-9459-cfd174ab0178,385d14ae-5a11-11ea-ad68-3702181ca381
385b28d8-5a11-11ea-a9db-7f8e97555d0e,385d1cc4-5a11-11ea-a716-9faa01a776e0
385b0fe2-5a11-11ea-8ecb-bfe0cff5c622,385d21ba-5a11-11ea-b6cf-a7c64e5ba5e9
385c992a-5a11-11ea-962b-0b5214e9b6f1,385d3d8a-5a11-11ea-9a3e-cf1a073a25d7
385b619a-5a11-11ea-9d60-23a47d1d54c2,385d38b2-5a11-11ea-b2f3-0bde4d3dc950
385bc96e-5a11-11ea-8d60-4b7f9b7672da,385d4d70-5a11-11ea-8ed1-a3a7112271cc
385bc96e-5a11-11ea-8d60-4b7f9b7672da,385d5220-5a11-11ea-be9f-d7b1d6c5ec17
385bc96e-5a11-11ea-8d60-4b7f9b7672da,385d589c-5a11-11ea-8801-4f0de6101e50
385d0504-5a11-11ea-ad81-3b1988435210,385d606c-5a11-11ea-ab7c-eb6f381f9b01
385d4d70-5a11-11ea-8ed1-a3a7112271cc,385d6da0-5a11-11ea-9de8-8fdb671f5872
385d5220-5a11-11ea-be9f-d7b1d6c5ec17,385d98a2-5a11-11ea-9036-ffd1c3e629c4
385d38b2-5a11-11ea-b2f3-0bde4d3dc950,385d9f3c-5a11-11ea-8d60-7bac3fef8484
385ceaa6-5a11-11ea-935c-7b0b4c26f99a,385d92e4-5a11-11ea-ba17-13cfd56f0290
385d38b2-5a11-11ea-b2f3-0bde4d3dc950,385da46e-5a11-11ea-8b9f-97abf130c945
385b619a-5a11-11ea-9d60-23a47d1d54c2,385da9d2-5a11-11ea-bba9-f310fe9bd185
385d0022-5a11-11ea-bd0f-373fda7f57b3,385dafcc-5a11-11ea-9f8f-3ba35fa960ce
385cafdc-5a11-11ea-82aa-7f384895b225,385db6c0-5a11-11ea-8db3-eb3cea961c75
385c74ae-5a11-11ea-8fdc-87a27043c88e,385de802-5a11-11ea-b7a4-ebd2416f0b85
385c74ae-5a11-11ea-8fdc-87a27043c88e,385dee56-5a11-11ea-b098-2b25a9a0ba2b
385b91f6-5a11-11ea-9d06-0b48209379b7,385df4e6-5a11-11ea-8abd-139a415181a5
385c3278-5a11-11ea-a7de-eb2395105c53,385dfb1c-5a11-11ea-ba7f-1b77e456ab35
385c6bee-5a11-11ea-b079-37375d097200,385e0058-5a11-11ea-9787-77313c82d4e1
385d4d70-5a11-11ea-8ed1-a3a7112271cc,385e05bc-5a11-11ea-9df9-0f4613891aaf
385df4e6-5a11-11ea-8abd-139a415181a5,385e09fe-5a11-11ea-b149-d792954a3660
385da9d2-5a11-11ea-bba9-f310fe9bd185,385e3cb2-5a11-11ea-83e6-830344587ab4
385b707c-5a11-11ea-b657-03a10096c8af,385e482e-5a11-11ea-bd35-7f802d5e5bd0
385c7e90-5a11-11ea-a845-bfbb99bef7ae,385e4c98-5a11-11ea-a0ea-cb39e4ec6b32
385ceaa6-5a11-11ea-935c-7b0b4c26f99a,385e5990-5a11-11ea-b838-abaeaa7ef50b
385cc256-5a11-11ea-aaa4-effdb4081039,385e5d82-5a11-11ea-8d68-eb0d7abbdc12
385b039e-5a11-11ea-be4c-5f5344053f49,385e66d8-5a11-11ea-a9e7-df2b5a54c87e
385b817a-5a11-11ea-b599-bbec86ef58fe,385e61f6-5a11-11ea-9c2f-ef72890659b0
385e0058-5a11-11ea-9787-77313c82d4e1,385e6a48-5a11-11ea-8902-cf5c862b89ef
385bba8c-5a11-11ea-bcb2-b73c023fa237,385e80c8-5a11-11ea-aaac-f37532096827
385e80c8-5a11-11ea-aaac-f37532096827,385e8d52-5a11-11ea-8c3d-5ffb2e6b8ed7
385cafdc-5a11-11ea-82aa-7f384895b225,385eaaa8-5a11-11ea-b12b-9b7afe02a4f4
385dfb1c-5a11-11ea-ba7f-1b77e456ab35,385eae2c-5a11-11ea-9eb9-3b38e101442d
385ae044-5a11-11ea-9978-97834e7ca27b,385eb2be-5a11-11ea-aa6f-b76da8867177
385b6636-5a11-11ea-89d7-af0a99a0e7b2,385eb782-5a11-11ea-b6cc-9f93f510c6ed
385b039e-5a11-11ea-be4c-5f5344053f49,385ebcc8-5a11-11ea-9e34-cfa6a182a6cd
385be2c8-5a11-11ea-99bd-8f9dbfea9ae6,385ec0b0-5a11-11ea-8409-83020e56a101
385da46e-5a11-11ea-8b9f-97abf130c945,385ecc7c-5a11-11ea-8a22-d36d7eb72d6e
385d5220-5a11-11ea-be9f-d7b1d6c5ec17,385ed9ec-5a11-11ea-95f2-bbb7ae997da3
385d6da0-5a11-11ea-9de8-8fdb671f5872,385ef60c-5a11-11ea-93ab-0312e9e0f40d
385d5220-5a11-11ea-be9f-d7b1d6c5ec17,385efbe8-5a11-11ea-8dae-47456d17c432
385da46e-5a11-11ea-8b9f-97abf130c945,385f0214-5a11-11ea-ae04-2735e36f676b
385b6636-5a11-11ea-89d7-af0a99a0e7b2,385f0868-5a11-11ea-9038-43a3088d8a22
385e3cb2-5a11-11ea-83e6-830344587ab4,385f186c-5a11-11ea-bfcd-1bd023f25649
385b2f4a-5a11-11ea-8adf-c3134b66fcc4,385f2578-5a11-11ea-b7b6-8f573ca45340
385eb782-5a11-11ea-b6cc-9f93f510c6ed,385f337e-5a11-11ea-a644-fb613cdf2796
385d3d8a-5a11-11ea-9a3e-cf1a073a25d7,385f3658-5a11-11ea-9435-9769ed116abc
385b707c-5a11-11ea-b657-03a10096c8af,385f43c8-5a11-11ea-8bda-3303b467ba95
385bba8c-5a11-11ea-bcb2-b73c023fa237,385f495e-5a11-11ea-9ad0-4ba7a7c56cd1
385ebcc8-5a11-11ea-9e34-cfa6a182a6cd,385f4e7c-5a11-11ea-ac08-c779e53ae3c4
385d0022-5a11-11ea-bd0f-373fda7f57b3,385f55b6-5a11-11ea-b05d-433586389b67
385e66d8-5a11-11ea-a9e7-df2b5a54c87e,385f645c-5a11-11ea-910b-7b90fe6ddca3
385da46e-5a11-11ea-8b9f-97abf130c945,385f7212-5a11-11ea-9ae8-139e96240f50
385bba8c-5a11-11ea-bcb2-b73c023fa237,385f80fe-5a11-11ea-bc93-477f49f4a5c3
385e0058-5a11-11ea-9787-77313c82d4e1,385f87a2-5a11-11ea-869f-8b8ab75ec02a
385d589c-5a11-11ea-8801-4f0de6101e50,385f91fc-5a11-11ea-9dda-3fa9e90af82e
385cb806-5a11-11ea-b8d0-f7833ccccd18,385f9f9e-5a11-11ea-9705-47933b607511
385bb3f2-5a11-11ea-a095-7f31947a14db,385f99ae-5a11-11ea-abf4-63abdcd2a1f1
385bba8c-5a11-11ea-bcb2-b73c023fa237,385fab06-5a11-11ea-b74e-0783cdc4b62b
