RunID,Agent,Age,Created,Inactive,Resources,Reputation,Ability,Que
run-2020-2-28-15-48-34.844099998,AGENT#c7311fb0-5a41-11ea-bb33-6b68d0b1a0bd,0,0,0,10,1.0,1.0,0
run-2020-2-28-15-48-34.844099998,AGENT#c7312276-5a41-11ea-ba33-8bbeafe2cf55,0,0,0,10,1.0,1.0,0
run-2020-2-28-15-48-34.844099998,AGENT#c7313022-5a41-11ea-a23b-2795e257b49c,0,0,0,10,1.0,1.0,0
run-2020-2-28-15-48-34.844099998,AGENT#c731787a-5a41-11ea-b2fa-cf7aee734429,1,0,1,10,1.0,1.0,0
run-2020-2-28-15-48-34.844099998,AGENT#c7312dde-5a41-11ea-8edf-5f906612ea3e,2,0,2,10,1.0,1.0,0
run-2020-2-28-15-48-34.844099998,AGENT#c7317ae6-5a41-11ea-869c-d7da87a65064,2,0,2,10,1.0,1.0,0
run-2020-2-28-15-48-34.844099998,AGENT#c7ddf7f8-5a41-11ea-894f-7f947336cdc1,1,2,3,10,1.0,1.0,0
run-2020-2-28-15-48-34.844099998,AGENT#c7313252-5a41-11ea-9ce7-9729802d6625,4,0,4,10,1.0,1.0,0
run-2020-2-28-15-48-34.844099998,AGENT#c7ddece0-5a41-11ea-a31d-df7f77c8376a,2,2,4,10,1.0,1.0,0
run-2020-2-28-15-48-34.844099998,AGENT#c7ddf564-5a41-11ea-81a0-a3788e77df81,2,2,4,10,1.0,1.0,0
run-2020-2-28-15-48-34.844099998,AGENT#c82f9a5e-5a41-11ea-84b9-a3a92f061d9b,1,3,4,10,1.0,1.0,0
run-2020-2-28-15-48-34.844099998,AGENT#c82f9752-5a41-11ea-ad33-9358d124e7cc,3,3,6,10,1.0,1.0,0
run-2020-2-28-15-48-34.844099998,AGENT#c8ce883a-5a41-11ea-b860-77b3639739f8,2,5,7,10,1.0,1.0,0
run-2020-2-28-15-48-34.844099998,AGENT#c8ce8b50-5a41-11ea-b3b5-3773a216e8c5,2,5,7,10,1.0,1.0,0
run-2020-2-28-15-48-34.844099998,AGENT#c82f9cde-5a41-11ea-b3f2-03876e4101a1,5,3,8,10,1.0,1.0,0
run-2020-2-28-15-48-34.844099998,AGENT#c95ebbbc-5a41-11ea-9936-5723bea7608a,1,7,8,10,1.0,1.0,0
run-2020-2-28-15-48-34.844099998,AGENT#c882cfbc-5a41-11ea-9198-73e044d08511,5,4,9,10,1.0,1.0,0
run-2020-2-28-15-48-34.844099998,AGENT#c95eae1a-5a41-11ea-a649-df9f5e249f61,2,7,9,10,1.0,1.0,0
run-2020-2-28-15-48-34.844099998,AGENT#c95eb22a-5a41-11ea-8d0c-07ab93f67f22,2,7,9,10,1.0,1.0,0
run-2020-2-28-15-48-34.844099998,AGENT#c95eb572-5a41-11ea-b760-8b1a27fec139,2,7,9,10,1.0,1.0,0
run-2020-2-28-15-48-34.844099998,AGENT#c95eb87e-5a41-11ea-9fc7-4b34bbe636d4,2,7,9,10,1.0,1.0,0
run-2020-2-28-15-48-34.844099998,AGENT#c95ec030-5a41-11ea-9da9-e74804a18805,2,7,9,10,1.0,1.0,0
run-2020-2-28-15-48-34.844099998,AGENT#c9b6e54e-5a41-11ea-b3e8-5fcdeb7574b4,1,8,9,10,1.0,1.0,0
run-2020-2-28-15-48-34.844099998,AGENT#ca0ab7e6-5a41-11ea-8fef-9b3a04b99dd1,1,9,10,10,1.0,1.0,0
run-2020-2-28-15-48-34.844099998,AGENT#ca0ac074-5a41-11ea-a78c-33350952d742,1,9,10,10,1.0,1.0,0
run-2020-2-28-15-48-34.844099998,AGENT#c9b6e86e-5a41-11ea-bad7-9f97fc9f3580,3,8,11,10,1.0,1.0,0
run-2020-2-28-15-48-34.844099998,AGENT#c9b6eb0c-5a41-11ea-b542-9b9299387919,3,8,11,10,1.0,1.0,0
run-2020-2-28-15-48-34.844099998,AGENT#ca0ab08e-5a41-11ea-b34d-ffbe81efe50a,2,9,11,10,1.0,1.0,0
run-2020-2-28-15-48-34.844099998,AGENT#ca0abc96-5a41-11ea-aabd-cf92d2e2c9f6,2,9,11,10,1.0,1.0,0
run-2020-2-28-15-48-34.844099998,AGENT#ca5fd820-5a41-11ea-b7f6-930191491e4a,1,10,11,10,1.0,1.0,0
run-2020-2-28-15-48-34.844099998,AGENT#ca0aba34-5a41-11ea-a3d8-a7c9fd712f30,3,9,12,10,1.0,1.0,0
run-2020-2-28-15-48-34.844099998,AGENT#ca5fd50a-5a41-11ea-b93d-5fc7e39e3236,2,10,12,10,1.0,1.0,0
run-2020-2-28-15-48-34.844099998,AGENT#ca5fdadc-5a41-11ea-a6fc-07a8101041d5,2,10,12,10,1.0,1.0,0
run-2020-2-28-15-48-34.844099998,AGENT#cab1a7c2-5a41-11ea-bae7-935fb85ce449,1,11,12,10,1.0,1.0,0
run-2020-2-28-15-48-34.844099998,AGENT#c9b6ed82-5a41-11ea-9150-77253de4ef4b,5,8,13,10,1.0,1.0,0
run-2020-2-28-15-48-34.844099998,AGENT#ca0ab584-5a41-11ea-ae77-9b8ff7fcad94,4,9,13,10,1.0,1.0,0
run-2020-2-28-15-48-34.844099998,AGENT#ca5fdd70-5a41-11ea-a855-1ba5d234844f,3,10,13,10,1.0,1.0,0
run-2020-2-28-15-48-34.844099998,AGENT#cab1adee-5a41-11ea-b434-5fde65ec7887,2,11,13,10,1.0,1.0,0
run-2020-2-28-15-48-34.844099998,AGENT#cb0235a2-5a41-11ea-a344-c39bd4c06490,1,12,13,10,1.0,1.0,0
run-2020-2-28-15-48-34.844099998,AGENT#ca0ab304-5a41-11ea-979e-4b4478a039f1,5,9,14,10,1.0,1.0,0
run-2020-2-28-15-48-34.844099998,AGENT#cb022d64-5a41-11ea-9429-efa8f25674a6,3,12,15,10,1.0,1.0,0
run-2020-2-28-15-48-34.844099998,AGENT#cb02330e-5a41-11ea-8f75-5f788bfbd41a,3,12,15,10,1.0,1.0,0
run-2020-2-28-15-48-34.844099998,AGENT#cbba4264-5a41-11ea-9b1b-1bb6b893437f,1,14,15,10,1.0,1.0,0
run-2020-2-28-15-48-34.844099998,AGENT#c731348c-5a41-11ea-a1c7-1b2f0ea2c45d,16,0,16,10,1.0,1.0,0
run-2020-2-28-15-48-34.844099998,AGENT#cb022404-5a41-11ea-846f-7352fa1b4f46,4,12,16,10,1.0,1.0,0
run-2020-2-28-15-48-34.844099998,AGENT#cbba4534-5a41-11ea-b152-d3df7d9ef410,2,14,16,10,1.0,1.0,0
run-2020-2-28-15-48-34.844099998,AGENT#cc16e208-5a41-11ea-a4ab-f77d318b4fc8,1,15,16,10,1.0,1.0,0
run-2020-2-28-15-48-34.844099998,AGENT#cc16e4a6-5a41-11ea-a876-3bde28425d27,1,15,16,10,1.0,1.0,0
run-2020-2-28-15-48-34.844099998,AGENT#cc16eda2-5a41-11ea-aea6-23dd901bcca1,1,15,16,10,1.0,1.0,0
run-2020-2-28-15-48-34.844099998,AGENT#cb0227ce-5a41-11ea-a68d-d36188d2ca48,5,12,17,10,1.0,1.0,0
run-2020-2-28-15-48-34.844099998,AGENT#cb02382c-5a41-11ea-a052-479f646f9b53,5,12,17,10,1.0,1.0,0
run-2020-2-28-15-48-34.844099998,AGENT#cc16df06-5a41-11ea-8fc9-d7ea1c826f62,2,15,17,10,1.0,1.0,0
run-2020-2-28-15-48-34.844099998,AGENT#ccc4915a-5a41-11ea-92bc-67a8d4363def,1,17,18,10,1.0,1.0,0
run-2020-2-28-15-48-34.844099998,AGENT#cc6e3198-5a41-11ea-98f6-d7948267a77e,3,16,19,10,1.0,1.0,0
run-2020-2-28-15-48-34.844099998,AGENT#cc16dbe6-5a41-11ea-8574-8b13e2668f1d,5,15,20,10,1.0,1.0,0
run-2020-2-28-15-48-34.844099998,AGENT#cd1db8a2-5a41-11ea-b7b7-0b3c95aeb548,2,18,20,10,1.0,1.0,0
run-2020-2-28-15-48-34.844099998,AGENT#cd872f26-5a41-11ea-8d8b-6bef48671ad4,1,19,20,10,1.0,1.0,0
run-2020-2-28-15-48-34.844099998,AGENT#cc6e2ebe-5a41-11ea-b3d0-47d1b907a8cf,5,16,21,10,1.0,1.0,0
run-2020-2-28-15-48-34.844099998,AGENT#ccc48ec6-5a41-11ea-9e94-3763ea869438,4,17,21,10,1.0,1.0,0
run-2020-2-28-15-48-34.844099998,AGENT#ccc49664-5a41-11ea-8206-83e426bab14a,4,17,21,10,1.0,1.0,0
run-2020-2-28-15-48-34.844099998,AGENT#cd872698-5a41-11ea-bbd3-0345f9592ef6,2,19,21,10,1.0,1.0,0
run-2020-2-28-15-48-34.844099998,AGENT#cde8cefc-5a41-11ea-8dae-2f79243bce72,1,20,21,10,1.0,1.0,0
run-2020-2-28-15-48-34.844099998,AGENT#ccc48926-5a41-11ea-ab3e-1b894f94763b,5,17,22,10,1.0,1.0,0
run-2020-2-28-15-48-34.844099998,AGENT#cde8cbdc-5a41-11ea-9cfa-4398281ccda1,2,20,22,10,1.0,1.0,0
run-2020-2-28-15-48-34.844099998,AGENT#cde8d1a4-5a41-11ea-9290-778bd153498e,2,20,22,10,1.0,1.0,0
run-2020-2-28-15-48-34.844099998,AGENT#cd1db474-5a41-11ea-8bdd-1f88d7ad8a8e,5,18,23,10,1.0,1.0,0
run-2020-2-28-15-48-34.844099998,AGENT#ce496bb8-5a41-11ea-b65e-27b4bf258b49,2,21,23,10,1.0,1.0,0
run-2020-2-28-15-48-34.844099998,AGENT#cea50fa4-5a41-11ea-88d4-eb770b23d5e1,1,22,23,10,1.0,1.0,0
run-2020-2-28-15-48-34.844099998,AGENT#cd872c88-5a41-11ea-a303-23d094dbc564,5,19,24,10,1.0,1.0,0
run-2020-2-28-15-48-34.844099998,AGENT#cde8d92e-5a41-11ea-83a2-8309b47957dc,4,20,24,10,1.0,1.0,0
run-2020-2-28-15-48-34.844099998,AGENT#cea5172e-5a41-11ea-9cfd-eb50caef2937,2,22,24,10,1.0,1.0,0
run-2020-2-28-15-48-34.844099998,AGENT#cf06fade-5a41-11ea-8fd2-e3ef62ee0dd9,1,23,24,10,1.0,1.0,0
run-2020-2-28-15-48-34.844099998,AGENT#cde8d442-5a41-11ea-a07d-07eb707efecf,5,20,25,10,1.0,1.0,0
run-2020-2-28-15-48-34.844099998,AGENT#cde8d6b8-5a41-11ea-91b0-d7bcaaa3af81,5,20,25,10,1.0,1.0,0
run-2020-2-28-15-48-34.844099998,AGENT#cea512ec-5a41-11ea-ac1e-6f63aa71ab43,3,22,25,10,1.0,1.0,0
run-2020-2-28-15-48-34.844099998,AGENT#cf07106e-5a41-11ea-987a-bf8225c88de8,3,23,26,10,1.0,1.0,0
run-2020-2-28-15-48-34.844099998,AGENT#cf5ec156-5a41-11ea-9170-670cc198994e,2,24,26,10,1.0,1.0,0
run-2020-2-28-15-48-34.844099998,AGENT#cf070984-5a41-11ea-8e7d-af832dabae78,4,23,27,10,1.0,1.0,0
run-2020-2-28-15-48-34.844099998,AGENT#cf070d3a-5a41-11ea-85cd-23df946d19d7,4,23,27,10,1.0,1.0,0
run-2020-2-28-15-48-34.844099998,AGENT#cf5ec52a-5a41-11ea-8d47-4f171d8cb0c6,3,24,27,10,1.0,1.0,0
run-2020-2-28-15-48-34.844099998,AGENT#cfcc65da-5a41-11ea-89ac-af29d7bf1712,2,25,27,10,1.0,1.0,0
run-2020-2-28-15-48-34.844099998,AGENT#cf07002e-5a41-11ea-9307-0f2cfa880598,5,23,28,10,1.0,1.0,0
run-2020-2-28-15-48-34.844099998,AGENT#cfcc6e7c-5a41-11ea-8711-3314f98eae12,4,25,29,10,1.0,1.0,0
run-2020-2-28-15-48-34.844099998,AGENT#d090b46c-5a41-11ea-879b-bbd3fc7c0830,2,27,29,10,1.0,1.0,0
run-2020-2-28-15-48-34.844099998,AGENT#d0eb14de-5a41-11ea-9794-7b566fa26c69,1,28,29,10,1.0,1.0,0
run-2020-2-28-15-48-34.844099998,AGENT#cfcc68d2-5a41-11ea-a9eb-9b1abf1df835,5,25,30,10,1.0,1.0,0
run-2020-2-28-15-48-34.844099998,AGENT#d144781c-5a41-11ea-a720-ffbda319b8aa,1,29,30,10,1.0,1.0,0
run-2020-2-28-15-48-34.844099998,AGENT#d0eb0840-5a41-11ea-8ff9-b7c2b6d2adb8,3,28,31,10,1.0,1.0,0
run-2020-2-28-15-48-34.844099998,AGENT#d0eb0ff2-5a41-11ea-9594-3374409c8b4f,3,28,31,10,1.0,1.0,0
run-2020-2-28-15-48-34.844099998,AGENT#d1447de4-5a41-11ea-9c37-b34cbd9662ec,2,29,31,10,1.0,1.0,0
run-2020-2-28-15-48-34.844099998,AGENT#c7317604-5a41-11ea-bf93-dbb867fde7ff,33,0,33,10,1.0,1.0,0
run-2020-2-28-15-48-34.844099998,AGENT#d1447b28-5a41-11ea-a42e-4b2601319f78,4,29,33,10,1.0,1.0,0
run-2020-2-28-15-48-34.844099998,AGENT#d2763770-5a41-11ea-a6a9-bffadbd33217,1,32,33,10,1.0,1.0,0
run-2020-2-28-15-48-34.844099998,AGENT#d2763a2c-5a41-11ea-a073-73f29650e867,1,32,33,10,1.0,1.0,0
run-2020-2-28-15-48-34.844099998,AGENT#d27631c6-5a41-11ea-9cec-73437c2a680e,2,32,34,10,1.0,1.0,0
run-2020-2-28-15-48-34.844099998,AGENT#d2763478-5a41-11ea-9511-cb3510d52507,2,32,34,10,1.0,1.0,0
run-2020-2-28-15-48-34.844099998,AGENT#d2763ce8-5a41-11ea-a7f7-474863907a26,2,32,34,10,1.0,1.0,0
run-2020-2-28-15-48-34.844099998,AGENT#d2763f86-5a41-11ea-9581-4fcb3270fbc6,2,32,34,10,1.0,1.0,0
run-2020-2-28-15-48-34.844099998,AGENT#d090ace2-5a41-11ea-9005-239897863eff,8,27,35,10,1.0,1.0,0
run-2020-2-28-15-48-34.844099998,AGENT#d2181708-5a41-11ea-8e20-5f8f3a9969f5,4,31,35,10,1.0,1.0,0
run-2020-2-28-15-48-34.844099998,AGENT#d2d4ee3c-5a41-11ea-9205-e35287d674f6,2,33,35,10,1.0,1.0,0
run-2020-2-28-15-48-34.844099998,AGENT#d3315884-5a41-11ea-aef6-bf3bb6055cc2,1,34,35,10,1.0,1.0,0
run-2020-2-28-15-48-34.844099998,AGENT#d3315b40-5a41-11ea-bdc5-43f98f5ebf5c,1,34,35,10,1.0,1.0,0
run-2020-2-28-15-48-34.844099998,AGENT#d2180e16-5a41-11ea-b3d7-6729fc24e461,5,31,36,10,1.0,1.0,0
run-2020-2-28-15-48-34.844099998,AGENT#d2762f0a-5a41-11ea-a29d-9b459a0ef359,4,32,36,10,1.0,1.0,0
run-2020-2-28-15-48-34.844099998,AGENT#d38f50ba-5a41-11ea-858d-f7b5300b2bdd,1,35,36,10,1.0,1.0,0
run-2020-2-28-15-48-34.844099998,AGENT#d38f5394-5a41-11ea-aecc-0b654254ae58,1,35,36,10,1.0,1.0,0
run-2020-2-28-15-48-34.844099998,AGENT#c73124e2-5a41-11ea-8bdd-cf20456a040c,37,0,37,10,1.0,1.0,0
run-2020-2-28-15-48-34.844099998,AGENT#d3315550-5a41-11ea-a38f-bf4850e9902b,3,34,37,10,1.0,1.0,0
run-2020-2-28-15-48-34.844099998,AGENT#d3ec4068-5a41-11ea-8d2c-ff43108d06e6,1,36,37,10,1.0,1.0,0
run-2020-2-28-15-48-34.844099998,AGENT#cf070452-5a41-11ea-9022-3ff182e4f91d,15,23,38,10,1.0,1.0,0
run-2020-2-28-15-48-34.844099998,AGENT#d3ec346a-5a41-11ea-b81f-ef6ff0153469,2,36,38,10,1.0,1.0,0
run-2020-2-28-15-48-34.844099998,AGENT#d454a09a-5a41-11ea-88fb-bb296de4f063,1,37,38,10,1.0,1.0,0
run-2020-2-28-15-48-34.844099998,AGENT#d3ec38de-5a41-11ea-bc43-ebf61bdcbb07,3,36,39,10,1.0,1.0,0
run-2020-2-28-15-48-34.844099998,AGENT#d38f5682-5a41-11ea-956a-23c73b3ece7f,5,35,40,10,1.0,1.0,0
run-2020-2-28-15-48-34.844099998,AGENT#d4549762-5a41-11ea-b1d3-e70eda076cd0,3,37,40,10,1.0,1.0,0
run-2020-2-28-15-48-34.844099998,AGENT#d4b74e48-5a41-11ea-b667-4b0e68fe6042,2,38,40,10,1.0,1.0,0
run-2020-2-28-15-48-34.844099998,AGENT#d514a93a-5a41-11ea-9277-3356bed42d1f,1,39,40,10,1.0,1.0,0
run-2020-2-28-15-48-34.844099998,AGENT#d4b74614-5a41-11ea-8864-1fdbd930bb0d,3,38,41,10,1.0,1.0,0
run-2020-2-28-15-48-34.844099998,AGENT#d514a37c-5a41-11ea-907f-5755c5f311b4,2,39,41,10,1.0,1.0,0
run-2020-2-28-15-48-34.844099998,AGENT#d5705802-5a41-11ea-a749-2729419dff94,1,40,41,10,1.0,1.0,0
run-2020-2-28-15-48-34.844099998,AGENT#d454a37e-5a41-11ea-86d6-c73a69ef3341,5,37,42,10,1.0,1.0,0
run-2020-2-28-15-48-34.844099998,AGENT#d454a63a-5a41-11ea-b43d-0beabe04d24d,5,37,42,10,1.0,1.0,0
run-2020-2-28-15-48-34.844099998,AGENT#d4b75384-5a41-11ea-a65f-efa4805ee743,4,38,42,10,1.0,1.0,0
run-2020-2-28-15-48-34.844099998,AGENT#d5705a96-5a41-11ea-9516-df270baba3f8,2,40,42,10,1.0,1.0,0
run-2020-2-28-15-48-34.844099998,AGENT#d5704d08-5a41-11ea-a904-bf4f41f50c3f,3,40,43,10,1.0,1.0,0
run-2020-2-28-15-48-34.844099998,AGENT#d5705578-5a41-11ea-872a-8b29bb69aa2c,3,40,43,10,1.0,1.0,0
run-2020-2-28-15-48-34.844099998,AGENT#d5c8e288-5a41-11ea-9833-23485ad66dc5,2,41,43,10,1.0,1.0,0
run-2020-2-28-15-48-34.844099998,AGENT#d61d94c2-5a41-11ea-b31a-6be4ae9fc0f8,1,42,43,10,1.0,1.0,0
run-2020-2-28-15-48-34.844099998,AGENT#d61da2b4-5a41-11ea-b078-836b3c2578cc,1,42,43,10,1.0,1.0,0
run-2020-2-28-15-48-34.844099998,AGENT#d61da89a-5a41-11ea-9718-ebec105d0e0e,1,42,43,10,1.0,1.0,0
run-2020-2-28-15-48-34.844099998,AGENT#d5705ff0-5a41-11ea-8497-3b0c5817d1e6,4,40,44,10,1.0,1.0,0
run-2020-2-28-15-48-34.844099998,AGENT#d61d9fbc-5a41-11ea-a108-d78544883646,2,42,44,10,1.0,1.0,0
run-2020-2-28-15-48-34.844099998,AGENT#d687874c-5a41-11ea-802c-3b67584eee9a,1,43,44,10,1.0,1.0,0
run-2020-2-28-15-48-34.844099998,AGENT#c731297e-5a41-11ea-9d4a-432a1770f12d,45,0,45,10,1.0,1.0,0
run-2020-2-28-15-48-34.844099998,AGENT#c7312bae-5a41-11ea-a8c1-d3b137678734,45,0,45,10,1.0,1.0,0
run-2020-2-28-15-48-34.844099998,AGENT#d5c8e878-5a41-11ea-9de9-3b51e58efc76,4,41,45,10,1.0,1.0,0
run-2020-2-28-15-48-34.844099998,AGENT#d61dab92-5a41-11ea-8956-77d62775b121,3,42,45,10,1.0,1.0,0
run-2020-2-28-15-48-34.844099998,AGENT#cab1ab3c-5a41-11ea-9dfd-83fd05ba033e,35,11,46,10,1.0,1.0,0
run-2020-2-28-15-48-34.844099998,AGENT#d6e7c97c-5a41-11ea-91ad-e3bd288d8288,2,44,46,10,1.0,1.0,0
run-2020-2-28-15-48-34.844099998,AGENT#c7312744-5a41-11ea-85b1-f7a057e7981c,47,0,47,10,1.0,1.0,0
run-2020-2-28-15-48-34.844099998,AGENT#d79f90d4-5a41-11ea-8892-3ffd5de7d6a9,1,46,47,10,1.0,1.0,0
run-2020-2-28-15-48-34.844099998,AGENT#c7ddf276-5a41-11ea-a388-c72f8c4aab2a,46,2,48,10,1.0,1.0,0
run-2020-2-28-15-48-34.844099998,AGENT#d6e7c030-5a41-11ea-95c0-4bc0adc9bd08,4,44,48,10,1.0,1.0,0
run-2020-2-28-15-48-34.844099998,AGENT#d7fa0500-5a41-11ea-8261-938e21876616,1,47,48,10,1.0,1.0,0
run-2020-2-28-15-48-34.844099998,AGENT#d7fa07ee-5a41-11ea-9886-abbf0685d44c,1,47,48,10,1.0,1.0,0
run-2020-2-28-15-48-34.844099998,AGENT#d74556dc-5a41-11ea-8b4c-470e2c614a77,4,45,49,10,1.0,1.0,0
run-2020-2-28-15-48-34.844099998,AGENT#d79f883c-5a41-11ea-add8-27acbd48d991,3,46,49,10,1.0,1.0,0
run-2020-2-28-15-48-34.844099998,AGENT#d8507ebc-5a41-11ea-828f-239b0b07a557,1,48,49,10,1.0,1.0,0
run-2020-2-28-15-48-34.844099998,AGENT#d850852e-5a41-11ea-bd06-6f28378a3d76,1,48,49,10,1.0,1.0,0
run-2020-2-28-15-48-34.844099998,AGENT#d79f8b48-5a41-11ea-b2a7-2f4d8ec91e91,4,46,50,10,1.0,1.0,0
run-2020-2-28-15-48-34.844099998,AGENT#d79f8e22-5a41-11ea-9cd1-ffd8f4bc7e3f,4,46,50,10,1.0,1.0,0
run-2020-2-28-15-48-34.844099998,AGENT#d7fa01fe-5a41-11ea-88ed-2303d421b104,3,47,50,10,1.0,1.0,0
run-2020-2-28-15-48-34.844099998,AGENT#d8508aec-5a41-11ea-84c5-9f2c6f1bed31,2,48,50,10,1.0,1.0,0
run-2020-2-28-15-48-34.844099998,AGENT#c882cc88-5a41-11ea-8c0f-cfc8a820c79f,47,4,51,10,1.0,1.0,0
run-2020-2-28-15-48-34.844099998,AGENT#c882d282-5a41-11ea-b6a6-6763d1389505,47,4,51,10,1.0,1.0,0
run-2020-2-28-15-48-34.844099998,AGENT#c918201c-5a41-11ea-8a34-c349a45dbb5f,45,6,51,10,1.0,1.0,0
run-2020-2-28-15-48-34.844099998,AGENT#d94449fc-5a41-11ea-b366-e7eb4d12870f,2,50,52,10,1.0,1.0,0
run-2020-2-28-15-48-34.844099998,AGENT#d8e0b89c-5a41-11ea-96a5-8f317e63e25d,5,49,54,10,1.0,1.0,0
run-2020-2-28-15-48-34.844099998,AGENT#d9444d26-5a41-11ea-b9ec-33c6b4edfb47,4,50,54,10,1.0,1.0,0
run-2020-2-28-15-48-34.844099998,AGENT#d9444ff6-5a41-11ea-9cc9-0b939b016ec8,4,50,54,10,1.0,1.0,0
run-2020-2-28-15-48-34.844099998,AGENT#d9a0e3c4-5a41-11ea-af7c-13734a8c0ec8,3,51,54,10,1.0,1.0,0
run-2020-2-28-15-48-34.844099998,AGENT#d9a0e702-5a41-11ea-aa70-672a2d444593,3,51,54,10,1.0,1.0,0
run-2020-2-28-15-48-34.844099998,AGENT#d9a0e9dc-5a41-11ea-aa2e-c7b40cc0efb9,3,51,54,10,1.0,1.0,0
run-2020-2-28-15-48-34.844099998,AGENT#d9f8cd82-5a41-11ea-8651-7fc523d3c188,2,52,54,10,1.0,1.0,0
run-2020-2-28-15-48-34.844099998,AGENT#daa2fc8a-5a41-11ea-a2e5-5b2b9f91eb13,1,54,55,10,1.0,1.0,0
run-2020-2-28-15-48-34.844099998,AGENT#cab1a4ca-5a41-11ea-8730-e39cb5f935e6,45,11,56,10,1.0,1.0,0
run-2020-2-28-15-48-34.844099998,AGENT#cc16f0c2-5a41-11ea-a590-0b81237a2fb4,41,15,56,10,1.0,1.0,0
run-2020-2-28-15-48-34.844099998,AGENT#da4ed3bc-5a41-11ea-8c8e-e762c44b0d4e,3,53,56,10,1.0,1.0,0
run-2020-2-28-15-48-34.844099998,AGENT#da4ed68c-5a41-11ea-9729-b3648fcbb2d9,3,53,56,10,1.0,1.0,0
run-2020-2-28-15-48-34.844099998,AGENT#db072656-5a41-11ea-b6a1-f38046c6a9dc,1,55,56,10,1.0,1.0,0
run-2020-2-28-15-48-34.844099998,AGENT#cb022abc-5a41-11ea-b9b4-6b7b237ec581,45,12,57,10,1.0,1.0,0
run-2020-2-28-15-48-34.844099998,AGENT#cb023016-5a41-11ea-b892-6f93a1aa76dc,45,12,57,10,1.0,1.0,0
run-2020-2-28-15-48-34.844099998,AGENT#da4eae32-5a41-11ea-89fb-8bd448983291,4,53,57,10,1.0,1.0,0
run-2020-2-28-15-48-34.844099998,AGENT#da4ecb7e-5a41-11ea-b703-af5a53946ac8,4,53,57,10,1.0,1.0,0
run-2020-2-28-15-48-34.844099998,AGENT#daa2f19a-5a41-11ea-8b44-736004d672c3,3,54,57,10,1.0,1.0,0
run-2020-2-28-15-48-34.844099998,AGENT#daa2f92e-5a41-11ea-b741-17d24db9c9eb,3,54,57,10,1.0,1.0,0
run-2020-2-28-15-48-34.844099998,AGENT#cb5ee0ea-5a41-11ea-84a7-9b94a7eda155,45,13,58,10,1.0,1.0,0
run-2020-2-28-15-48-34.844099998,AGENT#da4ed100-5a41-11ea-86cd-7bd78f608790,5,53,58,10,1.0,1.0,0
run-2020-2-28-15-48-34.844099998,AGENT#daa2e2ae-5a41-11ea-bb05-4b7b3a587f79,4,54,58,10,1.0,1.0,0
run-2020-2-28-15-48-34.844099998,AGENT#db67fd50-5a41-11ea-be25-0f74395c4f27,2,56,58,10,1.0,1.0,0
run-2020-2-28-15-48-34.844099998,AGENT#db6800c0-5a41-11ea-b835-e72e1864c12a,2,56,58,10,1.0,1.0,0
run-2020-2-28-15-48-34.844099998,AGENT#dbcfdf10-5a41-11ea-aa90-df080d97d0ce,1,57,58,10,1.0,1.0,0
run-2020-2-28-15-48-34.844099998,AGENT#cbba47b4-5a41-11ea-84c5-972815c5aa6d,45,14,59,10,1.0,1.0,0
run-2020-2-28-15-48-34.844099998,AGENT#ca0aad8c-5a41-11ea-9950-d342b485b9b2,51,9,60,10,1.0,1.0,0
run-2020-2-28-15-48-34.844099998,AGENT#cc16e8ca-5a41-11ea-9fde-c3e11ded128f,45,15,60,10,1.0,1.0,0
run-2020-2-28-15-48-34.844099998,AGENT#d57052ee-5a41-11ea-8e99-b3008563678b,20,40,60,10,1.0,1.0,0
run-2020-2-28-15-48-34.844099998,AGENT#dc3ee252-5a41-11ea-9415-c3a92f3a64ba,2,58,60,10,1.0,1.0,0
run-2020-2-28-15-48-34.844099998,AGENT#dc99edfa-5a41-11ea-9245-bf5c03ac515f,2,59,61,10,1.0,1.0,0
run-2020-2-28-15-48-34.844099998,AGENT#dc99fa70-5a41-11ea-9500-7f0f557cf840,2,59,61,10,1.0,1.0,0
run-2020-2-28-15-48-34.844099998,AGENT#dc99fd22-5a41-11ea-bb3b-a3b41845977c,2,59,61,10,1.0,1.0,0
run-2020-2-28-15-48-34.844099998,AGENT#ccc48c32-5a41-11ea-8234-73c50a9e0a78,45,17,62,10,1.0,1.0,0
run-2020-2-28-15-48-34.844099998,AGENT#dc99f7a0-5a41-11ea-9b6a-17c1c281a80a,3,59,62,10,1.0,1.0,0
run-2020-2-28-15-48-34.844099998,AGENT#dcea209a-5a41-11ea-b72a-53936f611ae0,2,60,62,10,1.0,1.0,0
run-2020-2-28-15-48-34.844099998,AGENT#dcea27d4-5a41-11ea-beb1-4373e02f1034,2,60,62,10,1.0,1.0,0
run-2020-2-28-15-48-34.844099998,AGENT#dc3edee2-5a41-11ea-a9a7-434400fbbd58,5,58,63,10,1.0,1.0,0
run-2020-2-28-15-48-34.844099998,AGENT#dcea1c58-5a41-11ea-82ab-db8268e3ed42,3,60,63,10,1.0,1.0,0
run-2020-2-28-15-48-34.844099998,AGENT#dd4b4136-5a41-11ea-91b6-7f07e78b1629,2,61,63,10,1.0,1.0,0
run-2020-2-28-15-48-34.844099998,AGENT#cd8729cc-5a41-11ea-9940-679dcb7d0944,45,19,64,10,1.0,1.0,0
run-2020-2-28-15-48-34.844099998,AGENT#cd8731c4-5a41-11ea-8354-3f5dd0b57b68,45,19,64,10,1.0,1.0,0
run-2020-2-28-15-48-34.844099998,AGENT#d21819b0-5a41-11ea-8901-43bc130675c3,33,31,64,10,1.0,1.0,0
run-2020-2-28-15-48-34.844099998,AGENT#cd87346c-5a41-11ea-a703-5f819666e937,46,19,65,10,1.0,1.0,0
run-2020-2-28-15-48-34.844099998,AGENT#d514c726-5a41-11ea-b657-5b52ff6b3c1f,26,39,65,10,1.0,1.0,0
run-2020-2-28-15-48-34.844099998,AGENT#d6e7c60c-5a41-11ea-8061-0793d34aae9c,21,44,65,10,1.0,1.0,0
run-2020-2-28-15-48-34.844099998,AGENT#dcea2e78-5a41-11ea-b55a-ef4c130f0fe1,5,60,65,10,1.0,1.0,0
run-2020-2-28-15-48-34.844099998,AGENT#de05c178-5a41-11ea-900a-3f9dded42d13,2,63,65,10,1.0,1.0,0
run-2020-2-28-15-48-34.844099998,AGENT#de5daf82-5a41-11ea-8c20-abd23f12a32a,2,64,66,10,1.0,1.0,0
run-2020-2-28-15-48-34.844099998,AGENT#ccc493e4-5a41-11ea-8e09-e76ccdd71460,50,17,67,10,1.0,1.0,0
run-2020-2-28-15-48-34.844099998,AGENT#de05c542-5a41-11ea-b4ff-2f43fa7a2f0d,4,63,67,10,1.0,1.0,0
run-2020-2-28-15-48-34.844099998,AGENT#deb30626-5a41-11ea-8ff9-bbbc301beeef,2,65,67,10,1.0,1.0,0
run-2020-2-28-15-48-34.844099998,AGENT#ce496ed8-5a41-11ea-a459-2b31bf687e91,47,21,68,10,1.0,1.0,0
run-2020-2-28-15-48-34.844099998,AGENT#dcea2b44-5a41-11ea-b0e0-f3cf03ce2b98,8,60,68,10,1.0,1.0,0
run-2020-2-28-15-48-34.844099998,AGENT#deb30928-5a41-11ea-82b1-4be854821b96,3,65,68,10,1.0,1.0,0
run-2020-2-28-15-48-34.844099998,AGENT#df035ad6-5a41-11ea-bbcd-9be29440d6d8,2,66,68,10,1.0,1.0,0
run-2020-2-28-15-48-34.844099998,AGENT#df036148-5a41-11ea-a488-bb6eec8a815b,2,66,68,10,1.0,1.0,0
run-2020-2-28-15-48-34.844099998,AGENT#df03642c-5a41-11ea-899c-4f9ffe57e103,2,66,68,10,1.0,1.0,0
run-2020-2-28-15-48-34.844099998,AGENT#df64505c-5a41-11ea-b9e7-cb81d1c90a40,1,67,68,10,1.0,1.0,0
run-2020-2-28-15-48-34.844099998,AGENT#de5da744-5a41-11ea-bfa3-57504f363b00,5,64,69,10,1.0,1.0,0
run-2020-2-28-15-48-34.844099998,AGENT#deb302c0-5a41-11ea-85f4-775c421ea130,4,65,69,10,1.0,1.0,0
run-2020-2-28-15-48-34.844099998,AGENT#deb31094-5a41-11ea-853f-d3858e41dd40,4,65,69,10,1.0,1.0,0
run-2020-2-28-15-48-34.844099998,AGENT#cf5ebc56-5a41-11ea-ab73-b7948768f75c,46,24,70,10,1.0,1.0,0
run-2020-2-28-15-48-34.844099998,AGENT#cfcc6b8e-5a41-11ea-b343-737d8299d391,45,25,70,10,1.0,1.0,0
run-2020-2-28-15-48-34.844099998,AGENT#d0eb181c-5a41-11ea-ad6a-7730f4979ac5,42,28,70,10,1.0,1.0,0
run-2020-2-28-15-48-34.844099998,AGENT#df035798-5a41-11ea-a4d6-af0f309b7cbb,4,66,70,10,1.0,1.0,0
run-2020-2-28-15-48-34.844099998,AGENT#df035e32-5a41-11ea-848f-f33dafa0a4fe,4,66,70,10,1.0,1.0,0
run-2020-2-28-15-48-34.844099998,AGENT#df645322-5a41-11ea-8128-5349fa581dc6,3,67,70,10,1.0,1.0,0
run-2020-2-28-15-48-34.844099998,AGENT#dfc46f46-5a41-11ea-ab1d-db6cff505f60,2,68,70,10,1.0,1.0,0
run-2020-2-28-15-48-34.844099998,AGENT#e0244aec-5a41-11ea-bd94-ff1fd0a8fe0b,1,69,70,10,1.0,1.0,0
run-2020-2-28-15-48-34.844099998,AGENT#d0310242-5a41-11ea-9b17-4b1acd81abb8,45,26,71,10,1.0,1.0,0
run-2020-2-28-15-48-34.844099998,AGENT#d0310558-5a41-11ea-bc2e-535a640834d7,45,26,71,10,1.0,1.0,0
run-2020-2-28-15-48-34.844099998,AGENT#daa2e8da-5a41-11ea-8a38-0ff9198ec763,17,54,71,10,1.0,1.0,0
run-2020-2-28-15-48-34.844099998,AGENT#df035478-5a41-11ea-9cea-8772f0723650,5,66,71,10,1.0,1.0,0
run-2020-2-28-15-48-34.844099998,AGENT#dfc4667c-5a41-11ea-85c0-3bf219bc4cd8,3,68,71,10,1.0,1.0,0
run-2020-2-28-15-48-34.844099998,AGENT#dfc471ee-5a41-11ea-9593-677567c4719c,3,68,71,10,1.0,1.0,0
run-2020-2-28-15-48-34.844099998,AGENT#e07dbd3e-5a41-11ea-8c7d-0ba158d91eb1,1,70,71,10,1.0,1.0,0
run-2020-2-28-15-48-34.844099998,AGENT#d030fe8c-5a41-11ea-8f63-6ba0f5815d92,46,26,72,10,1.0,1.0,0
run-2020-2-28-15-48-34.844099998,AGENT#df644814-5a41-11ea-b363-c7d2cfaca2da,5,67,72,10,1.0,1.0,0
run-2020-2-28-15-48-34.844099998,AGENT#df644ae4-5a41-11ea-a8e5-87e133240fe1,5,67,72,10,1.0,1.0,0
run-2020-2-28-15-48-34.844099998,AGENT#df644daa-5a41-11ea-9947-f3f1a2d7ae68,5,67,72,10,1.0,1.0,0
run-2020-2-28-15-48-34.844099998,AGENT#e024477c-5a41-11ea-9f47-6f4846656a7c,3,69,72,10,1.0,1.0,0
run-2020-2-28-15-48-34.844099998,AGENT#e07dc158-5a41-11ea-a020-f385057f207a,2,70,72,10,1.0,1.0,0
run-2020-2-28-15-48-34.844099998,AGENT#e07dc752-5a41-11ea-93cb-7b3cd2e0e9be,2,70,72,10,1.0,1.0,0
run-2020-2-28-15-48-34.844099998,AGENT#e0d4a70c-5a41-11ea-9912-2f9326c51e7f,1,71,72,10,1.0,1.0,0
run-2020-2-28-15-48-34.844099998,AGENT#e0d4b17a-5a41-11ea-a5cf-7389524ac3e0,1,71,72,10,1.0,1.0,0
run-2020-2-28-15-48-34.844099998,AGENT#d0eb1ad8-5a41-11ea-9cb7-a391b9973f69,45,28,73,10,1.0,1.0,0
run-2020-2-28-15-48-34.844099998,AGENT#d5c8e594-5a41-11ea-adb0-1b30bb529f36,32,41,73,10,1.0,1.0,0
run-2020-2-28-15-48-34.844099998,AGENT#e07dc478-5a41-11ea-92b2-e7b520df16af,3,70,73,10,1.0,1.0,0
run-2020-2-28-15-48-34.844099998,AGENT#e126e710-5a41-11ea-a10d-df0d1494bb8c,1,72,73,10,1.0,1.0,0
run-2020-2-28-15-48-34.844099998,AGENT#e126f002-5a41-11ea-abd2-2750902e4fdd,1,72,73,10,1.0,1.0,0
run-2020-2-28-15-48-34.844099998,AGENT#e126faac-5a41-11ea-8dc4-f75fed2004f8,1,72,73,10,1.0,1.0,0
run-2020-2-28-15-48-34.844099998,AGENT#dd4b3bc8-5a41-11ea-84f6-ab8d12a62bd7,13,61,74,10,1.0,1.0,0
run-2020-2-28-15-48-34.844099998,AGENT#e126f73c-5a41-11ea-9f58-77f476223cbb,3,72,75,10,1.0,1.0,0
run-2020-2-28-15-48-34.844099998,AGENT#e18e3ffa-5a41-11ea-81ea-4761521297eb,2,73,75,10,1.0,1.0,0
run-2020-2-28-15-48-34.844099998,AGENT#e1ef8c4c-5a41-11ea-9c40-7f9176c70c5d,1,74,75,10,1.0,1.0,0
run-2020-2-28-15-48-34.844099998,AGENT#d21813ac-5a41-11ea-aec0-e79747bbf5d1,45,31,76,10,1.0,1.0,0
run-2020-2-28-15-48-34.844099998,AGENT#d2181c6c-5a41-11ea-ace9-67ee5f24c3a6,45,31,76,10,1.0,1.0,0
run-2020-2-28-15-48-34.844099998,AGENT#e18e42c0-5a41-11ea-af10-b3683ef3f8cc,3,73,76,10,1.0,1.0,0
run-2020-2-28-15-48-34.844099998,AGENT#e1ef897c-5a41-11ea-b2d5-bf5a1260e3e0,2,74,76,10,1.0,1.0,0
run-2020-2-28-15-48-34.844099998,AGENT#d4b73ff2-5a41-11ea-bda7-bb20a89f2d15,39,38,77,10,1.0,1.0,0
run-2020-2-28-15-48-34.844099998,AGENT#e24dd414-5a41-11ea-91cb-2b16176a7c06,2,75,77,10,1.0,1.0,0
run-2020-2-28-15-48-34.844099998,AGENT#e24dda2c-5a41-11ea-87cd-43898efe2cdf,2,75,77,10,1.0,1.0,0
run-2020-2-28-15-48-34.844099998,AGENT#d2762b7c-5a41-11ea-95dd-efea799bc5f0,46,32,78,10,1.0,1.0,0
run-2020-2-28-15-48-34.844099998,AGENT#d2d4e82e-5a41-11ea-9382-8b7c7467acc0,45,33,78,10,1.0,1.0,0
run-2020-2-28-15-48-34.844099998,AGENT#e24dd752-5a41-11ea-a5fc-e74880d382a7,3,75,78,10,1.0,1.0,0
run-2020-2-28-15-48-34.844099998,AGENT#d2d4e4c8-5a41-11ea-a2c4-1f7150fad930,46,33,79,10,1.0,1.0,0
run-2020-2-28-15-48-34.844099998,AGENT#d2d4eafe-5a41-11ea-8dce-bb588610dd36,46,33,79,10,1.0,1.0,0
run-2020-2-28-15-48-34.844099998,AGENT#deb316ac-5a41-11ea-a993-03f5f38a84ac,14,65,79,10,1.0,1.0,0
run-2020-2-28-15-48-34.844099998,AGENT#e1ef8314-5a41-11ea-9711-a38c46ca7be1,5,74,79,10,1.0,1.0,0
run-2020-2-28-15-48-34.844099998,AGENT#e2a49e52-5a41-11ea-bc1e-bb835dfe8d66,3,76,79,10,1.0,1.0,0
run-2020-2-28-15-48-34.844099998,AGENT#e2f9f4a6-5a41-11ea-97b1-d7b62cb2fcf5,2,77,79,10,1.0,1.0,0
run-2020-2-28-15-48-34.844099998,AGENT#d38f5984-5a41-11ea-90c7-efb2b20c92ee,45,35,80,10,1.0,1.0,0
run-2020-2-28-15-48-34.844099998,AGENT#e18e3cbc-5a41-11ea-b8e0-73c6248f09a1,7,73,80,10,1.0,1.0,0
run-2020-2-28-15-48-34.844099998,AGENT#e2a4a1d6-5a41-11ea-9e63-eb01d255e3d1,4,76,80,10,1.0,1.0,0
run-2020-2-28-15-48-34.844099998,AGENT#e3502e16-5a41-11ea-a07f-aba73de2f891,2,78,80,10,1.0,1.0,0
run-2020-2-28-15-48-34.844099998,AGENT#e39d194c-5a41-11ea-9be9-c3faf08e1885,2,79,81,10,1.0,1.0,0
run-2020-2-28-15-48-34.844099998,AGENT#d3ec3c9e-5a41-11ea-a994-a7d94918e7a3,46,36,82,10,1.0,1.0,0
run-2020-2-28-15-48-34.844099998,AGENT#dd4b35d8-5a41-11ea-8775-13056daba1d6,21,61,82,10,1.0,1.0,0
run-2020-2-28-15-48-34.844099998,AGENT#e39d1d52-5a41-11ea-8a46-ff91c401356a,3,79,82,10,1.0,1.0,0
run-2020-2-28-15-48-34.844099998,AGENT#d38f4d9a-5a41-11ea-939a-1ff22ff0d084,48,35,83,10,1.0,1.0,0
run-2020-2-28-15-48-34.844099998,AGENT#d3ec43d8-5a41-11ea-a77a-c3b9299acd66,47,36,83,10,1.0,1.0,0
run-2020-2-28-15-48-34.844099998,AGENT#d4549ad2-5a41-11ea-a62f-9fe676aba150,46,37,83,10,1.0,1.0,0
run-2020-2-28-15-48-34.844099998,AGENT#d4b748e4-5a41-11ea-ae22-9ba23b087869,45,38,83,10,1.0,1.0,0
run-2020-2-28-15-48-34.844099998,AGENT#d4b74b8c-5a41-11ea-adbe-bb87fcd509ed,45,38,83,10,1.0,1.0,0
run-2020-2-28-15-48-34.844099998,AGENT#e350317c-5a41-11ea-9f62-b7d199ced9d4,5,78,83,10,1.0,1.0,0
run-2020-2-28-15-48-34.844099998,AGENT#e4c8d8c4-5a41-11ea-a43a-bf06499a112b,1,82,83,10,1.0,1.0,0
run-2020-2-28-15-48-34.844099998,AGENT#e4c8dc0c-5a41-11ea-b97b-fb2b7ef5b1b0,1,82,83,10,1.0,1.0,0
run-2020-2-28-15-48-34.844099998,AGENT#dfc46c94-5a41-11ea-a70b-87f74c6c1f9c,16,68,84,10,1.0,1.0,0
run-2020-2-28-15-48-34.844099998,AGENT#e4c8ded2-5a41-11ea-9218-6f2d69a0575d,2,82,84,10,1.0,1.0,0
run-2020-2-28-15-48-34.844099998,AGENT#e4c8e1d4-5a41-11ea-8c6a-772424a66d16,2,82,84,10,1.0,1.0,0
run-2020-2-28-15-48-34.844099998,AGENT#e5775c1e-5a41-11ea-a211-632aa03efe7d,1,83,84,10,1.0,1.0,0
run-2020-2-28-15-48-34.844099998,AGENT#e5775f70-5a41-11ea-84b4-333957447025,1,83,84,10,1.0,1.0,0
run-2020-2-28-15-48-34.844099998,AGENT#e5776af6-5a41-11ea-b94a-cfae1429218d,1,83,84,10,1.0,1.0,0
run-2020-2-28-15-48-34.844099998,AGENT#d4b750e6-5a41-11ea-bc4c-bfd03cda22bb,47,38,85,10,1.0,1.0,0
run-2020-2-28-15-48-34.844099998,AGENT#d5705028-5a41-11ea-bac7-0bf9dd5c509a,45,40,85,10,1.0,1.0,0
run-2020-2-28-15-48-34.844099998,AGENT#dc99f1ec-5a41-11ea-a2fd-8bba1a11188b,26,59,85,10,1.0,1.0,0
run-2020-2-28-15-48-34.844099998,AGENT#e350346a-5a41-11ea-a0f3-3f34bfb8eda3,7,78,85,10,1.0,1.0,0
run-2020-2-28-15-48-34.844099998,AGENT#e46930ae-5a41-11ea-847e-2b1fdf313a0b,4,81,85,10,1.0,1.0,0
run-2020-2-28-15-48-34.844099998,AGENT#e4c8e760-5a41-11ea-9646-0f3a4a828f38,3,82,85,10,1.0,1.0,0
run-2020-2-28-15-48-34.844099998,AGENT#e5776574-5a41-11ea-8fa7-f763638db333,2,83,85,10,1.0,1.0,0
run-2020-2-28-15-48-34.844099998,AGENT#d4549db6-5a41-11ea-a7b8-6b4ab6215933,49,37,86,10,1.0,1.0,0
run-2020-2-28-15-48-34.844099998,AGENT#e577684e-5a41-11ea-a5ba-77b9eb3b8293,3,83,86,10,1.0,1.0,0
run-2020-2-28-15-48-34.844099998,AGENT#e5c73edc-5a41-11ea-8e00-1762d1d0d4c5,2,84,86,10,1.0,1.0,0
run-2020-2-28-15-48-34.844099998,AGENT#d4b74362-5a41-11ea-944f-1f293a8f700c,49,38,87,10,1.0,1.0,0
run-2020-2-28-15-48-34.844099998,AGENT#d5705d52-5a41-11ea-a998-37f61ef29e46,47,40,87,10,1.0,1.0,0
run-2020-2-28-15-48-34.844099998,AGENT#d61da598-5a41-11ea-a4a5-8fe821de3455,45,42,87,10,1.0,1.0,0
run-2020-2-28-15-48-34.844099998,AGENT#e5c73bda-5a41-11ea-bd0c-3fa2672701de,3,84,87,10,1.0,1.0,0
run-2020-2-28-15-48-34.844099998,AGENT#e6615918-5a41-11ea-8f37-4babbea354cd,1,86,87,10,1.0,1.0,0
run-2020-2-28-15-48-34.844099998,AGENT#d61d990e-5a41-11ea-84a6-d71c1e555008,46,42,88,10,1.0,1.0,0
run-2020-2-28-15-48-34.844099998,AGENT#d6878134-5a41-11ea-a2ec-9b0a5321b248,45,43,88,10,1.0,1.0,0
run-2020-2-28-15-48-34.844099998,AGENT#d687849a-5a41-11ea-aaa1-3b37a0a56d98,45,43,88,10,1.0,1.0,0
run-2020-2-28-15-48-34.844099998,AGENT#e6a9d21a-5a41-11ea-b081-7fd831bc8ee2,1,87,88,10,1.0,1.0,0
run-2020-2-28-15-48-34.844099998,AGENT#d61d9c6a-5a41-11ea-8d65-83eb25b82494,47,42,89,10,1.0,1.0,0
run-2020-2-28-15-48-34.844099998,AGENT#d6e7c346-5a41-11ea-8ee6-272fdef686d9,45,44,89,10,1.0,1.0,0
run-2020-2-28-15-48-34.844099998,AGENT#e5c73568-5a41-11ea-b625-77015165bd08,5,84,89,10,1.0,1.0,0
run-2020-2-28-15-48-34.844099998,AGENT#e6615c7e-5a41-11ea-8b09-2f3c3906af61,3,86,89,10,1.0,1.0,0
run-2020-2-28-15-48-34.844099998,AGENT#e6a9cc5c-5a41-11ea-af99-838564c9bc2b,2,87,89,10,1.0,1.0,0
run-2020-2-28-15-48-34.844099998,AGENT#d74559a2-5a41-11ea-9d05-ff76380c3456,45,45,90,10,1.0,1.0,0
run-2020-2-28-15-48-34.844099998,AGENT#e6615fe4-5a41-11ea-8fe8-d75d45e0b6d5,4,86,90,10,1.0,1.0,0
run-2020-2-28-15-48-34.844099998,AGENT#e729cf06-5a41-11ea-9723-83af6c4ecbc4,1,89,90,10,1.0,1.0,0
run-2020-2-28-15-48-34.844099998,AGENT#d7455380-5a41-11ea-99e3-03b1b77e331b,46,45,91,10,1.0,1.0,0
run-2020-2-28-15-48-34.844099998,AGENT#e2f9edd0-5a41-11ea-b61f-eb099338cf2b,14,77,91,10,1.0,1.0,0
run-2020-2-28-15-48-34.844099998,AGENT#e6a9cf40-5a41-11ea-95de-8b8b6d0608f8,4,87,91,10,1.0,1.0,0
run-2020-2-28-15-48-34.844099998,AGENT#e76916a2-5a41-11ea-9300-9fa8289d1163,1,90,91,10,1.0,1.0,0
run-2020-2-28-15-48-34.844099998,AGENT#e729cbaa-5a41-11ea-ba2c-b7634c825f31,3,89,92,10,1.0,1.0,0
run-2020-2-28-15-48-34.844099998,AGENT#e769061c-5a41-11ea-aa6f-ab6447832545,2,90,92,10,1.0,1.0,0
run-2020-2-28-15-48-34.844099998,AGENT#e7691008-5a41-11ea-8c1e-0f9ab7cd04cb,2,90,92,10,1.0,1.0,0
run-2020-2-28-15-48-34.844099998,AGENT#d8507aac-5a41-11ea-8f84-f336005e0f0f,45,48,93,10,1.0,1.0,0
run-2020-2-28-15-48-34.844099998,AGENT#d85081d2-5a41-11ea-9ac4-775cbd08c3b4,45,48,93,10,1.0,1.0,0
run-2020-2-28-15-48-34.844099998,AGENT#e6edc010-5a41-11ea-92c6-6340fee94cc0,5,88,93,10,1.0,1.0,0
run-2020-2-28-15-48-34.844099998,AGENT#e7691300-5a41-11ea-8a80-e74aba00e69c,3,90,93,10,1.0,1.0,0
run-2020-2-28-15-48-34.844099998,AGENT#e7691986-5a41-11ea-95b2-3f2e18ce0830,3,90,93,10,1.0,1.0,0
run-2020-2-28-15-48-34.844099998,AGENT#e7a65eea-5a41-11ea-8657-67e0dc0f7ae1,2,91,93,10,1.0,1.0,0
run-2020-2-28-15-48-34.844099998,AGENT#d8e0bc16-5a41-11ea-b7c5-8be89c0ebc80,45,49,94,10,1.0,1.0,0
run-2020-2-28-15-48-34.844099998,AGENT#e76901a8-5a41-11ea-83e4-5ba5ccb1b4bd,4,90,94,10,1.0,1.0,0
run-2020-2-28-15-48-34.844099998,AGENT#e7deb7ea-5a41-11ea-859e-a77110846108,2,92,94,10,1.0,1.0,0
run-2020-2-28-15-48-34.844099998,AGENT#d79f96ba-5a41-11ea-bb15-c3a154037198,49,46,95,10,1.0,1.0,0
run-2020-2-28-15-48-34.844099998,AGENT#e76909c8-5a41-11ea-b989-8b0efec5d188,5,90,95,10,1.0,1.0,0
run-2020-2-28-15-48-34.844099998,AGENT#e84e3be2-5a41-11ea-8489-3350c59cc85b,1,94,95,10,1.0,1.0,0
run-2020-2-28-15-48-34.844099998,AGENT#dfc469ce-5a41-11ea-a430-0b1054509579,28,68,96,10,1.0,1.0,0
run-2020-2-28-15-48-34.844099998,AGENT#e7deb11e-5a41-11ea-b067-336f579b18f9,4,92,96,10,1.0,1.0,0
run-2020-2-28-15-48-34.844099998,AGENT#e66162f0-5a41-11ea-930e-7fd97df22a94,11,86,97,10,1.0,1.0,0
run-2020-2-28-15-48-34.844099998,AGENT#e84e4cfe-5a41-11ea-a309-8753e082f6aa,3,94,97,10,1.0,1.0,0
run-2020-2-28-15-48-34.844099998,AGENT#e84e5316-5a41-11ea-a7a5-57ac259fb2cb,3,94,97,10,1.0,1.0,0
run-2020-2-28-15-48-34.844099998,AGENT#d8508812-5a41-11ea-9afa-97b75d3edd6e,50,48,98,10,1.0,1.0,0
run-2020-2-28-15-48-34.844099998,AGENT#df64453a-5a41-11ea-b568-cfecff824620,31,67,98,10,1.0,1.0,0
run-2020-2-28-15-48-34.844099998,AGENT#e84e46c8-5a41-11ea-bc1b-efb3b1403d82,4,94,98,10,1.0,1.0,0
run-2020-2-28-15-48-34.844099998,AGENT#e8b35b08-5a41-11ea-a56f-33c0e3e14d24,2,96,98,10,1.0,1.0,0
run-2020-2-28-15-48-34.844099998,AGENT#d79f93ea-5a41-11ea-b41f-47c124787131,53,46,99,10,1.0,1.0,0
run-2020-2-28-15-48-34.844099998,AGENT#daa2db7e-5a41-11ea-8be5-27a1c18e4525,45,54,99,10,1.0,1.0,0
run-2020-2-28-15-48-34.844099998,AGENT#daa2ed3a-5a41-11ea-8bf8-838469049fa3,45,54,99,10,1.0,1.0,0
run-2020-2-28-15-48-34.844099998,AGENT#e84e3fd4-5a41-11ea-b31a-6fcc01ea893b,5,94,99,10,1.0,1.0,0
run-2020-2-28-15-48-34.844099998,AGENT#e880ae56-5a41-11ea-8fbe-37e8270a61a4,4,95,99,10,1.0,1.0,0
run-2020-2-28-15-48-34.844099998,AGENT#e8e4e920-5a41-11ea-a99e-bbcbbc012cf6,2,97,99,10,1.0,1.0,0
run-2020-2-28-15-48-34.844099998,AGENT#e9164de4-5a41-11ea-bbbf-ab5655fa34a1,1,98,99,10,1.0,1.0,0
