RunID,Agent,Age,Created,Inactive,Resources,Reputation,Ability,Que
run-2020-2-18-13-53-31.045559883,AGENT#0c274e9e-5256-11ea-8a3d-4f305137305d,0,0,0,10,1.0,1.0,0
run-2020-2-18-13-53-31.045559883,AGENT#0c2757a4-5256-11ea-92f6-57eecef8080c,0,0,0,10,1.0,1.0,0
run-2020-2-18-13-53-31.045559883,AGENT#0c2740c0-5256-11ea-b177-a72d1a88d8dd,1,0,1,10,1.0,1.0,0
run-2020-2-18-13-53-31.045559883,AGENT#0c274926-5256-11ea-a927-77f17abfd316,1,0,1,10,1.0,1.0,0
run-2020-2-18-13-53-31.045559883,AGENT#0c274be2-5256-11ea-a830-b3a2298614fc,2,0,2,10,1.0,1.0,0
run-2020-2-18-13-53-31.045559883,AGENT#0c274390-5256-11ea-a34a-c338a8bda439,3,0,3,10,1.0,1.0,0
run-2020-2-18-13-53-31.045559883,AGENT#0c27466a-5256-11ea-a1a8-53b85707d09d,3,0,3,10,1.0,1.0,0
run-2020-2-18-13-53-31.045559883,AGENT#0c280bb8-5256-11ea-ac45-b36c86aba85f,2,1,3,10,1.0,1.0,0
run-2020-2-18-13-53-31.045559883,AGENT#0c2843c6-5256-11ea-8e4c-639809f1d467,2,2,4,10,1.0,1.0,0
run-2020-2-18-13-53-31.045559883,AGENT#0c2808ca-5256-11ea-a4ed-ffc2d65c9ba7,4,1,5,10,1.0,1.0,0
run-2020-2-18-13-53-31.045559883,AGENT#0c280e9c-5256-11ea-85eb-17688aad88f6,4,1,5,10,1.0,1.0,0
run-2020-2-18-13-53-31.045559883,AGENT#0c284a1a-5256-11ea-82fe-d3f05a592edb,3,2,5,10,1.0,1.0,0
run-2020-2-18-13-53-31.045559883,AGENT#0c288354-5256-11ea-aec6-63a1bdb4b6c2,2,3,5,10,1.0,1.0,0
run-2020-2-18-13-53-31.045559883,AGENT#0c288aac-5256-11ea-88de-97d75d33d622,2,3,5,10,1.0,1.0,0
run-2020-2-18-13-53-31.045559883,AGENT#0c288de0-5256-11ea-a27d-23d0128f6120,3,3,6,10,1.0,1.0,0
run-2020-2-18-13-53-31.045559883,AGENT#0c2805b4-5256-11ea-b8f5-834565c45b2c,6,1,7,10,1.0,1.0,0
run-2020-2-18-13-53-31.045559883,AGENT#0c29077a-5256-11ea-aab6-33e9ba56d44f,3,5,8,10,1.0,1.0,0
run-2020-2-18-13-53-31.045559883,AGENT#0c290acc-5256-11ea-b44f-7bb79671297f,4,5,9,10,1.0,1.0,0
run-2020-2-18-13-53-31.045559883,AGENT#0c294e56-5256-11ea-a44e-6fe70f4362da,3,6,9,10,1.0,1.0,0
run-2020-2-18-13-53-31.045559883,AGENT#0c2984de-5256-11ea-a5fe-1f731b104609,2,7,9,10,1.0,1.0,0
run-2020-2-18-13-53-31.045559883,AGENT#0c29c8e0-5256-11ea-95c7-3fc1f8904a5a,1,8,9,10,1.0,1.0,0
run-2020-2-18-13-53-31.045559883,AGENT#0c29d4ca-5256-11ea-9b04-dff8ffe14a00,1,8,9,10,1.0,1.0,0
run-2020-2-18-13-53-31.045559883,AGENT#0c2916a2-5256-11ea-b42d-6f8b73c4764a,5,5,10,10,1.0,1.0,0
run-2020-2-18-13-53-31.045559883,AGENT#0c294b36-5256-11ea-914f-43806f52715b,4,6,10,10,1.0,1.0,0
run-2020-2-18-13-53-31.045559883,AGENT#0c2a1502-5256-11ea-b98b-aff8a474b2e3,1,9,10,10,1.0,1.0,0
run-2020-2-18-13-53-31.045559883,AGENT#0c2a1818-5256-11ea-9e9d-c77bd531a136,1,9,10,10,1.0,1.0,0
run-2020-2-18-13-53-31.045559883,AGENT#0c2a5a80-5256-11ea-bc6f-f31e24abb4b5,1,10,11,10,1.0,1.0,0
run-2020-2-18-13-53-31.045559883,AGENT#0c2a5792-5256-11ea-ba68-f34835d0d238,2,10,12,10,1.0,1.0,0
run-2020-2-18-13-53-31.045559883,AGENT#0c2a9b3a-5256-11ea-ac00-838810d9277c,1,11,12,10,1.0,1.0,0
run-2020-2-18-13-53-31.045559883,AGENT#0c29cc0a-5256-11ea-8114-1be440a66e32,5,8,13,10,1.0,1.0,0
run-2020-2-18-13-53-31.045559883,AGENT#0c2ae694-5256-11ea-8cf9-77401b08dfa5,1,12,13,10,1.0,1.0,0
run-2020-2-18-13-53-31.045559883,AGENT#0c2a9838-5256-11ea-8519-a76c371e5b82,3,11,14,10,1.0,1.0,0
run-2020-2-18-13-53-31.045559883,AGENT#0c2a9e1e-5256-11ea-b844-f7e3fc1a3e74,3,11,14,10,1.0,1.0,0
run-2020-2-18-13-53-31.045559883,AGENT#0c2a9522-5256-11ea-bfaa-fbbd71dc3b1a,4,11,15,10,1.0,1.0,0
run-2020-2-18-13-53-31.045559883,AGENT#0c2b6e20-5256-11ea-887e-d7f0117a6ccd,1,14,15,10,1.0,1.0,0
run-2020-2-18-13-53-31.045559883,AGENT#0c2ae374-5256-11ea-90a5-3352f246660f,4,12,16,10,1.0,1.0,0
run-2020-2-18-13-53-31.045559883,AGENT#0c2ae068-5256-11ea-9fae-c3322af294c0,5,12,17,10,1.0,1.0,0
run-2020-2-18-13-53-31.045559883,AGENT#0c2b2a00-5256-11ea-8a09-7fa9acab08d0,4,13,17,10,1.0,1.0,0
run-2020-2-18-13-53-31.045559883,AGENT#0c2c0d58-5256-11ea-9b01-e7f937abc7a5,2,16,18,10,1.0,1.0,0
run-2020-2-18-13-53-31.045559883,AGENT#0c2c57d6-5256-11ea-b570-03e49bf32778,1,17,18,10,1.0,1.0,0
run-2020-2-18-13-53-31.045559883,AGENT#0c2c54c0-5256-11ea-9d9a-8fe5722fb21d,3,17,20,10,1.0,1.0,0
run-2020-2-18-13-53-31.045559883,AGENT#0c2c5aba-5256-11ea-94c2-3b2e43efb118,3,17,20,10,1.0,1.0,0
run-2020-2-18-13-53-31.045559883,AGENT#0c2cb3b6-5256-11ea-802b-f7064d8d3e56,2,18,20,10,1.0,1.0,0
run-2020-2-18-13-53-31.045559883,AGENT#0c2bb43e-5256-11ea-b7a1-fbba39503acf,6,15,21,10,1.0,1.0,0
run-2020-2-18-13-53-31.045559883,AGENT#0c2d677a-5256-11ea-bc1e-076040691bf9,1,20,21,10,1.0,1.0,0
run-2020-2-18-13-53-31.045559883,AGENT#0c2cade4-5256-11ea-b78f-0f345038aed1,4,18,22,10,1.0,1.0,0
run-2020-2-18-13-53-31.045559883,AGENT#0c2d6496-5256-11ea-864c-7718bac49b66,2,20,22,10,1.0,1.0,0
run-2020-2-18-13-53-31.045559883,AGENT#0c2ca7f4-5256-11ea-9d58-e775b58c1e98,5,18,23,10,1.0,1.0,0
run-2020-2-18-13-53-31.045559883,AGENT#0c2cab1e-5256-11ea-80ba-f33b3d73c063,5,18,23,10,1.0,1.0,0
run-2020-2-18-13-53-31.045559883,AGENT#0c2d05dc-5256-11ea-8cb2-431579d1f81f,4,19,23,10,1.0,1.0,0
run-2020-2-18-13-53-31.045559883,AGENT#0c2d619e-5256-11ea-9583-0f37e06bfb08,4,20,24,10,1.0,1.0,0
run-2020-2-18-13-53-31.045559883,AGENT#0c2de178-5256-11ea-b246-4fde61cb619f,3,21,24,10,1.0,1.0,0
run-2020-2-18-13-53-31.045559883,AGENT#0c2ebc6a-5256-11ea-8bc6-97b1e8c5e834,1,23,24,10,1.0,1.0,0
run-2020-2-18-13-53-31.045559883,AGENT#0c2ec264-5256-11ea-84d8-8b4986131e1f,2,23,25,10,1.0,1.0,0
run-2020-2-18-13-53-31.045559883,AGENT#0c2e5928-5256-11ea-8bb0-07830c785e9f,4,22,26,10,1.0,1.0,0
run-2020-2-18-13-53-31.045559883,AGENT#0c2ebf76-5256-11ea-bd46-1b08ba742586,3,23,26,10,1.0,1.0,0
run-2020-2-18-13-53-31.045559883,AGENT#0c2f925c-5256-11ea-8964-ff2b5b5cf220,1,25,26,10,1.0,1.0,0
run-2020-2-18-13-53-31.045559883,AGENT#0c2f1fca-5256-11ea-9672-afe1eff4eafe,3,24,27,10,1.0,1.0,0
run-2020-2-18-13-53-31.045559883,AGENT#0c2f2a6a-5256-11ea-adae-e7b0e088568d,3,24,27,10,1.0,1.0,0
run-2020-2-18-13-53-31.045559883,AGENT#0c29cf02-5256-11ea-8a7d-3b64defd3090,20,8,28,10,1.0,1.0,0
run-2020-2-18-13-53-31.045559883,AGENT#0c2f27cc-5256-11ea-ade6-270fa9c96c38,4,24,28,10,1.0,1.0,0
run-2020-2-18-13-53-31.045559883,AGENT#0c2f8f1e-5256-11ea-b119-3b276eb857da,5,25,30,10,1.0,1.0,0
run-2020-2-18-13-53-31.045559883,AGENT#0c30b33a-5256-11ea-a395-8b676bab8d0c,2,28,30,10,1.0,1.0,0
run-2020-2-18-13-53-31.045559883,AGENT#0c311c6c-5256-11ea-9b54-8b32319260e4,2,29,31,10,1.0,1.0,0
run-2020-2-18-13-53-31.045559883,AGENT#0c31aaf6-5256-11ea-bd08-c3c53dce9bd9,1,30,31,10,1.0,1.0,0
run-2020-2-18-13-53-31.045559883,AGENT#0c323412-5256-11ea-b70d-e3be6cdb1514,1,31,32,10,1.0,1.0,0
run-2020-2-18-13-53-31.045559883,AGENT#0c323750-5256-11ea-bd9d-df50788566cc,1,31,32,10,1.0,1.0,0
run-2020-2-18-13-53-31.045559883,AGENT#0c30b934-5256-11ea-9c96-eb6dfae80cdc,5,28,33,10,1.0,1.0,0
run-2020-2-18-13-53-31.045559883,AGENT#0c31ae16-5256-11ea-9f3f-f3c284aea5b0,3,30,33,10,1.0,1.0,0
run-2020-2-18-13-53-31.045559883,AGENT#0c323d9a-5256-11ea-ae91-1f03e3993e64,2,31,33,10,1.0,1.0,0
run-2020-2-18-13-53-31.045559883,AGENT#0c32b388-5256-11ea-bf5b-23776a4cdb9e,1,32,33,10,1.0,1.0,0
run-2020-2-18-13-53-31.045559883,AGENT#0c2f227c-5256-11ea-8590-fb700cbb9f04,10,24,34,10,1.0,1.0,0
run-2020-2-18-13-53-31.045559883,AGENT#0c3117c6-5256-11ea-bf0b-73319e846e0d,5,29,34,10,1.0,1.0,0
run-2020-2-18-13-53-31.045559883,AGENT#0c31202c-5256-11ea-90e0-b3bbf2d6617c,5,29,34,10,1.0,1.0,0
run-2020-2-18-13-53-31.045559883,AGENT#0c331bd4-5256-11ea-b018-ff508be4924a,1,33,34,10,1.0,1.0,0
run-2020-2-18-13-53-31.045559883,AGENT#0c3323a4-5256-11ea-99e9-db2066b01b74,1,33,34,10,1.0,1.0,0
run-2020-2-18-13-53-31.045559883,AGENT#0c332d90-5256-11ea-9628-93f6a2ce692a,1,33,34,10,1.0,1.0,0
run-2020-2-18-13-53-31.045559883,AGENT#0c323a7a-5256-11ea-8313-935bc0b1faaf,4,31,35,10,1.0,1.0,0
run-2020-2-18-13-53-31.045559883,AGENT#0c32ae24-5256-11ea-ab51-97199caa9fd2,3,32,35,10,1.0,1.0,0
run-2020-2-18-13-53-31.045559883,AGENT#0c33262e-5256-11ea-b071-97c73ea8f56f,2,33,35,10,1.0,1.0,0
run-2020-2-18-13-53-31.045559883,AGENT#0c33b300-5256-11ea-86ff-cb7cbce52ff0,1,34,35,10,1.0,1.0,0
run-2020-2-18-13-53-31.045559883,AGENT#0c3230b6-5256-11ea-b24e-5b0844d03448,5,31,36,10,1.0,1.0,0
run-2020-2-18-13-53-31.045559883,AGENT#0c332b1a-5256-11ea-8c51-3b8958f2ed6f,3,33,36,10,1.0,1.0,0
run-2020-2-18-13-53-31.045559883,AGENT#0c33bb34-5256-11ea-b257-1b45eeec856e,2,34,36,10,1.0,1.0,0
run-2020-2-18-13-53-31.045559883,AGENT#0c343712-5256-11ea-bb98-379e1f2c7012,1,35,36,10,1.0,1.0,0
run-2020-2-18-13-53-31.045559883,AGENT#0c343bea-5256-11ea-823b-5b11a6367da0,1,35,36,10,1.0,1.0,0
run-2020-2-18-13-53-31.045559883,AGENT#0c331ea4-5256-11ea-a18d-cbf315c01c1d,4,33,37,10,1.0,1.0,0
run-2020-2-18-13-53-31.045559883,AGENT#0c33b878-5256-11ea-812e-13f7f5fb49b2,3,34,37,10,1.0,1.0,0
run-2020-2-18-13-53-31.045559883,AGENT#0c34347e-5256-11ea-b5b4-fbb5070452de,2,35,37,10,1.0,1.0,0
run-2020-2-18-13-53-31.045559883,AGENT#0c34397e-5256-11ea-8ca1-b7e9294ba070,2,35,37,10,1.0,1.0,0
run-2020-2-18-13-53-31.045559883,AGENT#0c3440ea-5256-11ea-95d5-fbc3feacfc34,2,35,37,10,1.0,1.0,0
run-2020-2-18-13-53-31.045559883,AGENT#0c34c646-5256-11ea-8af6-6782954d100e,1,36,37,10,1.0,1.0,0
run-2020-2-18-13-53-31.045559883,AGENT#0c354256-5256-11ea-b87b-e741e5457137,1,37,38,10,1.0,1.0,0
run-2020-2-18-13-53-31.045559883,AGENT#0c342f10-5256-11ea-8c39-87cbc5125a8c,4,35,39,10,1.0,1.0,0
run-2020-2-18-13-53-31.045559883,AGENT#0c3431e0-5256-11ea-bffa-dfcf4b4e6e03,4,35,39,10,1.0,1.0,0
run-2020-2-18-13-53-31.045559883,AGENT#0c343e6a-5256-11ea-98ab-c3289890dc9a,5,35,40,10,1.0,1.0,0
run-2020-2-18-13-53-31.045559883,AGENT#0c368f6c-5256-11ea-bf02-630ecb14c9af,1,39,40,10,1.0,1.0,0
run-2020-2-18-13-53-31.045559883,AGENT#0c34c3bc-5256-11ea-a7a1-638afaca56da,5,36,41,10,1.0,1.0,0
run-2020-2-18-13-53-31.045559883,AGENT#0c368bca-5256-11ea-b377-a7513edd10cf,2,39,41,10,1.0,1.0,0
run-2020-2-18-13-53-31.045559883,AGENT#0c35e71a-5256-11ea-86bc-d38bbcb120d8,4,38,42,10,1.0,1.0,0
run-2020-2-18-13-53-31.045559883,AGENT#0c37e498-5256-11ea-a050-afba07c1a76f,1,41,42,10,1.0,1.0,0
run-2020-2-18-13-53-31.045559883,AGENT#0c35ed5a-5256-11ea-add3-4f51b26c552f,5,38,43,10,1.0,1.0,0
run-2020-2-18-13-53-31.045559883,AGENT#0c35f070-5256-11ea-8e4d-6b9624ea8a1d,5,38,43,10,1.0,1.0,0
run-2020-2-18-13-53-31.045559883,AGENT#0c2c0a60-5256-11ea-9e9f-fb54391b1599,28,16,44,10,1.0,1.0,0
run-2020-2-18-13-53-31.045559883,AGENT#0c3738ae-5256-11ea-999f-7ba1097bd7a4,4,40,44,10,1.0,1.0,0
run-2020-2-18-13-53-31.045559883,AGENT#0c37daac-5256-11ea-b74e-77161aeb63da,3,41,44,10,1.0,1.0,0
run-2020-2-18-13-53-31.045559883,AGENT#0c273a80-5256-11ea-94b9-37d0aae62ae2,45,0,45,10,1.0,1.0,0
run-2020-2-18-13-53-31.045559883,AGENT#0c39074c-5256-11ea-9a87-339a3fb33e65,2,43,45,10,1.0,1.0,0
run-2020-2-18-13-53-31.045559883,AGENT#0c390c38-5256-11ea-abad-9f287e4b47c7,2,43,45,10,1.0,1.0,0
run-2020-2-18-13-53-31.045559883,AGENT#0c399be4-5256-11ea-934b-97959c08dde9,1,44,45,10,1.0,1.0,0
run-2020-2-18-13-53-31.045559883,AGENT#0c399e46-5256-11ea-8046-af579064eb08,1,44,45,10,1.0,1.0,0
run-2020-2-18-13-53-31.045559883,AGENT#0c273dc8-5256-11ea-b927-df3845f018c3,46,0,46,10,1.0,1.0,0
run-2020-2-18-13-53-31.045559883,AGENT#0c275376-5256-11ea-96a7-9ff303aa18c4,46,0,46,10,1.0,1.0,0
run-2020-2-18-13-53-31.045559883,AGENT#0c3909d6-5256-11ea-8468-8bf0ca7e1981,3,43,46,10,1.0,1.0,0
run-2020-2-18-13-53-31.045559883,AGENT#0c3a22f8-5256-11ea-8289-3fdfe8e7227e,1,45,46,10,1.0,1.0,0
run-2020-2-18-13-53-31.045559883,AGENT#0c3a2a3c-5256-11ea-b349-6bb7cef22f1a,1,45,46,10,1.0,1.0,0
run-2020-2-18-13-53-31.045559883,AGENT#0c279732-5256-11ea-868d-573c7c8bef0c,47,0,47,10,1.0,1.0,0
run-2020-2-18-13-53-31.045559883,AGENT#0c3904a4-5256-11ea-b808-07bc3c9b6f98,4,43,47,10,1.0,1.0,0
run-2020-2-18-13-53-31.045559883,AGENT#0c39991e-5256-11ea-b715-a72cac4b1201,3,44,47,10,1.0,1.0,0
run-2020-2-18-13-53-31.045559883,AGENT#0c39a0da-5256-11ea-8b3b-43e115d0a8b4,3,44,47,10,1.0,1.0,0
run-2020-2-18-13-53-31.045559883,AGENT#0c3ab56a-5256-11ea-91af-bb647a33fce9,1,46,47,10,1.0,1.0,0
run-2020-2-18-13-53-31.045559883,AGENT#0c28119e-5256-11ea-9e82-f35f9ae555b3,47,1,48,10,1.0,1.0,0
run-2020-2-18-13-53-31.045559883,AGENT#0c28870a-5256-11ea-9c19-539cf2df5212,45,3,48,10,1.0,1.0,0
run-2020-2-18-13-53-31.045559883,AGENT#0c3a27f8-5256-11ea-b7b2-df95c42d8184,3,45,48,10,1.0,1.0,0
run-2020-2-18-13-53-31.045559883,AGENT#0c3b3c1a-5256-11ea-96a2-a79ccea86272,1,47,48,10,1.0,1.0,0
run-2020-2-18-13-53-31.045559883,AGENT#0c28910a-5256-11ea-a72e-1f0fb91f0aed,46,3,49,10,1.0,1.0,0
run-2020-2-18-13-53-31.045559883,AGENT#0c35453a-5256-11ea-876e-c37017c8a8a1,12,37,49,10,1.0,1.0,0
run-2020-2-18-13-53-31.045559883,AGENT#0c3a258c-5256-11ea-a32b-23b0be415cc1,4,45,49,10,1.0,1.0,0
run-2020-2-18-13-53-31.045559883,AGENT#0c3ab09c-5256-11ea-b1bd-03d8ad1e4331,3,46,49,10,1.0,1.0,0
run-2020-2-18-13-53-31.045559883,AGENT#0c3bc1c6-5256-11ea-bab8-73d1e0836737,1,48,49,10,1.0,1.0,0
run-2020-2-18-13-53-31.045559883,AGENT#0c2846f0-5256-11ea-b1c5-9f67fc4731e9,48,2,50,10,1.0,1.0,0
run-2020-2-18-13-53-31.045559883,AGENT#0c2910bc-5256-11ea-bcd4-bb426eb648e2,45,5,50,10,1.0,1.0,0
run-2020-2-18-13-53-31.045559883,AGENT#0c2913d2-5256-11ea-8f4d-4fee0235261b,45,5,50,10,1.0,1.0,0
run-2020-2-18-13-53-31.045559883,AGENT#0c3ab31c-5256-11ea-93ef-fb8fb550bbcf,5,46,51,10,1.0,1.0,0
run-2020-2-18-13-53-31.045559883,AGENT#0c3cbee6-5256-11ea-9aee-0b4bd84b1382,1,50,51,10,1.0,1.0,0
run-2020-2-18-13-53-31.045559883,AGENT#0c3ccfee-5256-11ea-a620-fbcf3db9fac1,1,50,51,10,1.0,1.0,0
run-2020-2-18-13-53-31.045559883,AGENT#0c2987f4-5256-11ea-87d5-ff3192bcea89,45,7,52,10,1.0,1.0,0
run-2020-2-18-13-53-31.045559883,AGENT#0c2bbed4-5256-11ea-8bb6-e71efbcb7801,37,15,52,10,1.0,1.0,0
run-2020-2-18-13-53-31.045559883,AGENT#0c3c46dc-5256-11ea-adbc-3bbe4e70277c,3,49,52,10,1.0,1.0,0
run-2020-2-18-13-53-31.045559883,AGENT#0c3cc490-5256-11ea-ab01-ebcaa1e6dccc,2,50,52,10,1.0,1.0,0
run-2020-2-18-13-53-31.045559883,AGENT#0c3cc94a-5256-11ea-a383-1f5af48328eb,2,50,52,10,1.0,1.0,0
run-2020-2-18-13-53-31.045559883,AGENT#0c28cb3e-5256-11ea-80e6-d3926d307dbd,49,4,53,10,1.0,1.0,0
run-2020-2-18-13-53-31.045559883,AGENT#0c290dce-5256-11ea-9f62-cf9e0d3206de,48,5,53,10,1.0,1.0,0
run-2020-2-18-13-53-31.045559883,AGENT#0c29d1e6-5256-11ea-b562-5bca51e9d399,45,8,53,10,1.0,1.0,0
run-2020-2-18-13-53-31.045559883,AGENT#0c3bc478-5256-11ea-8305-0b3b6af8e5d3,5,48,53,10,1.0,1.0,0
run-2020-2-18-13-53-31.045559883,AGENT#0c3cc1ca-5256-11ea-806f-6b7157061293,3,50,53,10,1.0,1.0,0
run-2020-2-18-13-53-31.045559883,AGENT#0c3ccdbe-5256-11ea-9531-e79e95ae3a66,3,50,53,10,1.0,1.0,0
run-2020-2-18-13-53-31.045559883,AGENT#0c3e742a-5256-11ea-b05f-abc593cda68e,1,53,54,10,1.0,1.0,0
run-2020-2-18-13-53-31.045559883,AGENT#0c298ad8-5256-11ea-8c3b-bf8064e3b5c1,48,7,55,10,1.0,1.0,0
run-2020-2-18-13-53-31.045559883,AGENT#0c3c440c-5256-11ea-9b5f-f3b2338fa828,6,49,55,10,1.0,1.0,0
run-2020-2-18-13-53-31.045559883,AGENT#0c3dead2-5256-11ea-ba94-a3479c975925,3,52,55,10,1.0,1.0,0
run-2020-2-18-13-53-31.045559883,AGENT#0c3e6fa2-5256-11ea-a062-dba7e5269376,2,53,55,10,1.0,1.0,0
run-2020-2-18-13-53-31.045559883,AGENT#0c2a5468-5256-11ea-b600-9f317a2d9f1b,46,10,56,10,1.0,1.0,0
run-2020-2-18-13-53-31.045559883,AGENT#0c35f372-5256-11ea-89f2-037ab649d2f9,18,38,56,10,1.0,1.0,0
run-2020-2-18-13-53-31.045559883,AGENT#0c3d6238-5256-11ea-a772-6b12714d22cb,5,51,56,10,1.0,1.0,0
run-2020-2-18-13-53-31.045559883,AGENT#0c3f819e-5256-11ea-992f-1312e00b2e8f,1,55,56,10,1.0,1.0,0
run-2020-2-18-13-53-31.045559883,AGENT#0c2add5c-5256-11ea-b928-9f82411920aa,45,12,57,10,1.0,1.0,0
run-2020-2-18-13-53-31.045559883,AGENT#0c3e6d5e-5256-11ea-8b4a-3fabde6f2099,4,53,57,10,1.0,1.0,0
run-2020-2-18-13-53-31.045559883,AGENT#0c3f7c58-5256-11ea-8993-f301a22b2365,2,55,57,10,1.0,1.0,0
run-2020-2-18-13-53-31.045559883,AGENT#0c2b2d02-5256-11ea-aca4-d7e40477f829,45,13,58,10,1.0,1.0,0
run-2020-2-18-13-53-31.045559883,AGENT#0c37e7b8-5256-11ea-9219-27f4b1160769,17,41,58,10,1.0,1.0,0
run-2020-2-18-13-53-31.045559883,AGENT#0c3e6ab6-5256-11ea-a4ff-e3dcba9e1593,5,53,58,10,1.0,1.0,0
run-2020-2-18-13-53-31.045559883,AGENT#0c3f89aa-5256-11ea-bfb2-07ba200e8d01,3,55,58,10,1.0,1.0,0
run-2020-2-18-13-53-31.045559883,AGENT#0c401172-5256-11ea-b932-8766d90f7a1b,2,56,58,10,1.0,1.0,0
run-2020-2-18-13-53-31.045559883,AGENT#0c409d18-5256-11ea-9c70-bf3d8bc810b0,2,57,59,10,1.0,1.0,0
run-2020-2-18-13-53-31.045559883,AGENT#0c412418-5256-11ea-9115-7b4d10e13bb9,1,58,59,10,1.0,1.0,0
run-2020-2-18-13-53-31.045559883,AGENT#0c2bbb28-5256-11ea-a5f5-cfa9698e9a77,45,15,60,10,1.0,1.0,0
run-2020-2-18-13-53-31.045559883,AGENT#0c3f8748-5256-11ea-8b87-33eb78c030d2,5,55,60,10,1.0,1.0,0
run-2020-2-18-13-53-31.045559883,AGENT#0c41b068-5256-11ea-bc1a-2f12c17721a0,2,59,61,10,1.0,1.0,0
run-2020-2-18-13-53-31.045559883,AGENT#0c2c075e-5256-11ea-b5da-2b8664233150,46,16,62,10,1.0,1.0,0
run-2020-2-18-13-53-31.045559883,AGENT#0c2cb0b4-5256-11ea-8ced-4318efa13814,45,18,63,10,1.0,1.0,0
run-2020-2-18-13-53-31.045559883,AGENT#0c2c5d8a-5256-11ea-b3fb-e3f96a676156,47,17,64,10,1.0,1.0,0
run-2020-2-18-13-53-31.045559883,AGENT#0c2d02da-5256-11ea-888c-c36125c5c592,45,19,64,10,1.0,1.0,0
run-2020-2-18-13-53-31.045559883,AGENT#0c2d08c0-5256-11ea-8162-b7f66eeab327,45,19,64,10,1.0,1.0,0
run-2020-2-18-13-53-31.045559883,AGENT#0c42b788-5256-11ea-83a0-5f07aded820e,3,61,64,10,1.0,1.0,0
run-2020-2-18-13-53-31.045559883,AGENT#0c42bc06-5256-11ea-ad2f-bf22709310a1,3,61,64,10,1.0,1.0,0
run-2020-2-18-13-53-31.045559883,AGENT#0c42be40-5256-11ea-a2e5-932ae3da4939,3,61,64,10,1.0,1.0,0
run-2020-2-18-13-53-31.045559883,AGENT#0c42c070-5256-11ea-8582-c346aaa2bae1,3,61,64,10,1.0,1.0,0
run-2020-2-18-13-53-31.045559883,AGENT#0c4351f2-5256-11ea-8165-4b93cad59935,2,62,64,10,1.0,1.0,0
run-2020-2-18-13-53-31.045559883,AGENT#0c43ecde-5256-11ea-9da4-8bd74468532a,1,63,64,10,1.0,1.0,0
run-2020-2-18-13-53-31.045559883,AGENT#0c43efa4-5256-11ea-82e8-a70a3a3cbac7,1,63,64,10,1.0,1.0,0
run-2020-2-18-13-53-31.045559883,AGENT#0c2d0b9a-5256-11ea-82ab-0fa85c6ab3cc,46,19,65,10,1.0,1.0,0
run-2020-2-18-13-53-31.045559883,AGENT#0c2d6a54-5256-11ea-9b1b-b3e92eb988ce,45,20,65,10,1.0,1.0,0
run-2020-2-18-13-53-31.045559883,AGENT#0c2d6fcc-5256-11ea-a57c-e7d5c521f92d,45,20,65,10,1.0,1.0,0
run-2020-2-18-13-53-31.045559883,AGENT#0c42324a-5256-11ea-b551-033a770b5f4f,5,60,65,10,1.0,1.0,0
run-2020-2-18-13-53-31.045559883,AGENT#0c4234d4-5256-11ea-95e5-a72d896bfbc6,5,60,65,10,1.0,1.0,0
run-2020-2-18-13-53-31.045559883,AGENT#0c42b9d6-5256-11ea-a875-3702e33d6df0,4,61,65,10,1.0,1.0,0
run-2020-2-18-13-53-31.045559883,AGENT#0c435454-5256-11ea-a7de-7b284bdd01a3,3,62,65,10,1.0,1.0,0
run-2020-2-18-13-53-31.045559883,AGENT#0c43f260-5256-11ea-a53c-033dd299e542,2,63,65,10,1.0,1.0,0
run-2020-2-18-13-53-31.045559883,AGENT#0c2bc1cc-5256-11ea-9153-77f938b57ee6,51,15,66,10,1.0,1.0,0
run-2020-2-18-13-53-31.045559883,AGENT#0c2d6d24-5256-11ea-a846-23a10a5e7e85,46,20,66,10,1.0,1.0,0
run-2020-2-18-13-53-31.045559883,AGENT#0c42b512-5256-11ea-bda4-5ff811b7e345,5,61,66,10,1.0,1.0,0
run-2020-2-18-13-53-31.045559883,AGENT#0c4496de-5256-11ea-a7e9-dba61c45d74d,2,64,66,10,1.0,1.0,0
run-2020-2-18-13-53-31.045559883,AGENT#0c2e5e0a-5256-11ea-816c-e30fe8d7bad8,45,22,67,10,1.0,1.0,0
run-2020-2-18-13-53-31.045559883,AGENT#0c43f4d6-5256-11ea-b48f-d3e441b0d899,4,63,67,10,1.0,1.0,0
run-2020-2-18-13-53-31.045559883,AGENT#0c43f72e-5256-11ea-9a79-9b0761f5427c,4,63,67,10,1.0,1.0,0
run-2020-2-18-13-53-31.045559883,AGENT#0c452d9c-5256-11ea-9fe5-77d701cbf0a3,2,65,67,10,1.0,1.0,0
run-2020-2-18-13-53-31.045559883,AGENT#0c464164-5256-11ea-a23a-239445f9ea31,1,67,68,10,1.0,1.0,0
run-2020-2-18-13-53-31.045559883,AGENT#0c464600-5256-11ea-89ea-b3702494ed6a,1,67,68,10,1.0,1.0,0
run-2020-2-18-13-53-31.045559883,AGENT#0c46483a-5256-11ea-9927-d341fa298a34,1,67,68,10,1.0,1.0,0
run-2020-2-18-13-53-31.045559883,AGENT#0c2f1cd2-5256-11ea-ab75-5fcdd479e310,45,24,69,10,1.0,1.0,0
run-2020-2-18-13-53-31.045559883,AGENT#0c44999a-5256-11ea-b7ef-f37d020d33f1,5,64,69,10,1.0,1.0,0
run-2020-2-18-13-53-31.045559883,AGENT#0c453044-5256-11ea-9966-3b1ff9e32db1,4,65,69,10,1.0,1.0,0
run-2020-2-18-13-53-31.045559883,AGENT#0c463bb0-5256-11ea-a538-1bce1053961c,2,67,69,10,1.0,1.0,0
run-2020-2-18-13-53-31.045559883,AGENT#0c4643a8-5256-11ea-b321-efdaf6f16c81,2,67,69,10,1.0,1.0,0
run-2020-2-18-13-53-31.045559883,AGENT#0c46d4ee-5256-11ea-94fd-7f3b1167c67c,2,68,70,10,1.0,1.0,0
run-2020-2-18-13-53-31.045559883,AGENT#0c46d78c-5256-11ea-9991-77417c2b440d,2,68,70,10,1.0,1.0,0
run-2020-2-18-13-53-31.045559883,AGENT#0c2f2538-5256-11ea-b829-6b84ac3ecdc0,47,24,71,10,1.0,1.0,0
run-2020-2-18-13-53-31.045559883,AGENT#0c2ffb0c-5256-11ea-a979-c351e4876527,45,26,71,10,1.0,1.0,0
run-2020-2-18-13-53-31.045559883,AGENT#0c41267a-5256-11ea-9c08-4f772e4af8ec,13,58,71,10,1.0,1.0,0
run-2020-2-18-13-53-31.045559883,AGENT#0c477e12-5256-11ea-9d14-4b7665ddfc79,2,69,71,10,1.0,1.0,0
run-2020-2-18-13-53-31.045559883,AGENT#0c48a5a8-5256-11ea-b689-9342b5722832,1,71,72,10,1.0,1.0,0
run-2020-2-18-13-53-31.045559883,AGENT#0c30b650-5256-11ea-8c6b-2393280b8410,45,28,73,10,1.0,1.0,0
run-2020-2-18-13-53-31.045559883,AGENT#0c4778cc-5256-11ea-9820-733d943138c8,4,69,73,10,1.0,1.0,0
run-2020-2-18-13-53-31.045559883,AGENT#0c477b9c-5256-11ea-b6ac-5304bf610c91,4,69,73,10,1.0,1.0,0
run-2020-2-18-13-53-31.045559883,AGENT#0c480e40-5256-11ea-b694-5f7a782cdcee,3,70,73,10,1.0,1.0,0
run-2020-2-18-13-53-31.045559883,AGENT#0c49481e-5256-11ea-aeee-8bdc36bfa48e,1,72,73,10,1.0,1.0,0
run-2020-2-18-13-53-31.045559883,AGENT#0c4810ca-5256-11ea-8195-5365034dca47,4,70,74,10,1.0,1.0,0
run-2020-2-18-13-53-31.045559883,AGENT#0c49429c-5256-11ea-9b44-7b1e8b43c3ff,2,72,74,10,1.0,1.0,0
run-2020-2-18-13-53-31.045559883,AGENT#0c3ccb84-5256-11ea-ab64-5fba88c0ef1f,25,50,75,10,1.0,1.0,0
run-2020-2-18-13-53-31.045559883,AGENT#0c48a0a8-5256-11ea-98e4-ebb207697b72,4,71,75,10,1.0,1.0,0
run-2020-2-18-13-53-31.045559883,AGENT#0c49459e-5256-11ea-8fb8-c34a2ed4542f,3,72,75,10,1.0,1.0,0
run-2020-2-18-13-53-31.045559883,AGENT#0c49e576-5256-11ea-aae0-6320b9e02292,2,73,75,10,1.0,1.0,0
run-2020-2-18-13-53-31.045559883,AGENT#0c31b154-5256-11ea-9929-67e968a279de,46,30,76,10,1.0,1.0,0
run-2020-2-18-13-53-31.045559883,AGENT#0c48a33c-5256-11ea-96b7-b7733502ee6f,5,71,76,10,1.0,1.0,0
run-2020-2-18-13-53-31.045559883,AGENT#0c49e2ec-5256-11ea-817d-abbddd89c90c,3,73,76,10,1.0,1.0,0
run-2020-2-18-13-53-31.045559883,AGENT#0c4a7946-5256-11ea-85fd-072fd8a3236c,2,74,76,10,1.0,1.0,0
run-2020-2-18-13-53-31.045559883,AGENT#0c4b18f6-5256-11ea-ab34-c3bf06647e61,1,75,76,10,1.0,1.0,0
run-2020-2-18-13-53-31.045559883,AGENT#0c32b0f4-5256-11ea-80a0-3b98d2781a0c,46,32,78,10,1.0,1.0,0
run-2020-2-18-13-53-31.045559883,AGENT#0c332124-5256-11ea-861d-b7837b7b5cb3,45,33,78,10,1.0,1.0,0
run-2020-2-18-13-53-31.045559883,AGENT#0c3547ce-5256-11ea-814b-dffa2749d13b,41,37,78,10,1.0,1.0,0
run-2020-2-18-13-53-31.045559883,AGENT#0c37e146-5256-11ea-b653-fb0af1ccc3d1,37,41,78,10,1.0,1.0,0
run-2020-2-18-13-53-31.045559883,AGENT#0c4c5158-5256-11ea-bffd-a3c794405be0,1,77,78,10,1.0,1.0,0
run-2020-2-18-13-53-31.045559883,AGENT#0c4c53ec-5256-11ea-9372-47bf40181c50,1,77,78,10,1.0,1.0,0
run-2020-2-18-13-53-31.045559883,AGENT#0c3328a4-5256-11ea-9922-efb6c62c0ae4,46,33,79,10,1.0,1.0,0
run-2020-2-18-13-53-31.045559883,AGENT#0c4b1b4e-5256-11ea-8a9d-7bc3cb4040e5,4,75,79,10,1.0,1.0,0
run-2020-2-18-13-53-31.045559883,AGENT#0c4c5662-5256-11ea-9cf1-7756402f3be0,2,77,79,10,1.0,1.0,0
run-2020-2-18-13-53-31.045559883,AGENT#0c4bbf5e-5256-11ea-b508-f703f7d3657a,4,76,80,10,1.0,1.0,0
run-2020-2-18-13-53-31.045559883,AGENT#0c4bc260-5256-11ea-9f5f-e3a947e245f8,4,76,80,10,1.0,1.0,0
run-2020-2-18-13-53-31.045559883,AGENT#0c4d02a6-5256-11ea-aadc-e732e1f955fc,2,78,80,10,1.0,1.0,0
run-2020-2-18-13-53-31.045559883,AGENT#0c4d9f22-5256-11ea-9cb8-0b7b07cf8a82,1,79,80,10,1.0,1.0,0
run-2020-2-18-13-53-31.045559883,AGENT#0c4da1de-5256-11ea-9f0a-63adef65cbbb,1,79,80,10,1.0,1.0,0
run-2020-2-18-13-53-31.045559883,AGENT#0c33afe0-5256-11ea-9c2f-3fbfc532eff8,47,34,81,10,1.0,1.0,0
run-2020-2-18-13-53-31.045559883,AGENT#0c390ea4-5256-11ea-862d-b7e6b4277423,38,43,81,10,1.0,1.0,0
run-2020-2-18-13-53-31.045559883,AGENT#0c33b5d0-5256-11ea-87c6-7b2b843828b0,48,34,82,10,1.0,1.0,0
run-2020-2-18-13-53-31.045559883,AGENT#0c4ee148-5256-11ea-9d43-37b831af4207,1,81,82,10,1.0,1.0,0
run-2020-2-18-13-53-31.045559883,AGENT#0c34c0e2-5256-11ea-88bc-1741dfdaadd7,47,36,83,10,1.0,1.0,0
run-2020-2-18-13-53-31.045559883,AGENT#0c35ea30-5256-11ea-bb5b-a760dd294bf8,45,38,83,10,1.0,1.0,0
run-2020-2-18-13-53-31.045559883,AGENT#0c4b1662-5256-11ea-9171-f3d3a01d94a3,8,75,83,10,1.0,1.0,0
run-2020-2-18-13-53-31.045559883,AGENT#0c4e36b2-5256-11ea-bb31-47d35c06354b,3,80,83,10,1.0,1.0,0
run-2020-2-18-13-53-31.045559883,AGENT#0c4e3946-5256-11ea-b761-e32d542d6613,3,80,83,10,1.0,1.0,0
run-2020-2-18-13-53-31.045559883,AGENT#0c4e3dd8-5256-11ea-b3a2-0fa600acf69c,3,80,83,10,1.0,1.0,0
run-2020-2-18-13-53-31.045559883,AGENT#0c4ee3f0-5256-11ea-9b8d-2f1bf136650b,2,81,83,10,1.0,1.0,0
run-2020-2-18-13-53-31.045559883,AGENT#0c35e396-5256-11ea-83d0-23d9a57b534c,46,38,84,10,1.0,1.0,0
run-2020-2-18-13-53-31.045559883,AGENT#0c4ee8b4-5256-11ea-973d-f3719d94d79e,3,81,84,10,1.0,1.0,0
run-2020-2-18-13-53-31.045559883,AGENT#0c4eecba-5256-11ea-952c-afac44c8047f,3,81,84,10,1.0,1.0,0
run-2020-2-18-13-53-31.045559883,AGENT#0c4f980e-5256-11ea-b338-3b2a2f48ce76,2,82,84,10,1.0,1.0,0
run-2020-2-18-13-53-31.045559883,AGENT#0c503a84-5256-11ea-8f87-dfe121d46573,1,83,84,10,1.0,1.0,0
run-2020-2-18-13-53-31.045559883,AGENT#0c31a704-5256-11ea-b199-778484d4ece5,55,30,85,10,1.0,1.0,0
run-2020-2-18-13-53-31.045559883,AGENT#0c3731d8-5256-11ea-9315-730eb53e2334,45,40,85,10,1.0,1.0,0
run-2020-2-18-13-53-31.045559883,AGENT#0c373548-5256-11ea-bafe-6f611273f82c,45,40,85,10,1.0,1.0,0
run-2020-2-18-13-53-31.045559883,AGENT#0c46d9ee-5256-11ea-91ad-8f69690a34f1,17,68,85,10,1.0,1.0,0
run-2020-2-18-13-53-31.045559883,AGENT#0c37de1c-5256-11ea-83e2-0b1662976000,45,41,86,10,1.0,1.0,0
run-2020-2-18-13-53-31.045559883,AGENT#0c4e3b80-5256-11ea-85c3-87ebcaa3520e,6,80,86,10,1.0,1.0,0
run-2020-2-18-13-53-31.045559883,AGENT#0c4f92fa-5256-11ea-ab99-f743328018ba,4,82,86,10,1.0,1.0,0
run-2020-2-18-13-53-31.045559883,AGENT#0c4f9a3e-5256-11ea-bcad-9f6fbb64534f,4,82,86,10,1.0,1.0,0
run-2020-2-18-13-53-31.045559883,AGENT#0c50fa5a-5256-11ea-b70b-2f9bd29031ef,2,84,86,10,1.0,1.0,0
run-2020-2-18-13-53-31.045559883,AGENT#0c50fcd0-5256-11ea-8170-a78085aef190,2,84,86,10,1.0,1.0,0
run-2020-2-18-13-53-31.045559883,AGENT#0c50ff78-5256-11ea-8a55-fb652e0a255a,2,84,86,10,1.0,1.0,0
run-2020-2-18-13-53-31.045559883,AGENT#0c4f95ac-5256-11ea-9b28-e35b84c3e135,5,82,87,10,1.0,1.0,0
run-2020-2-18-13-53-31.045559883,AGENT#0c464a88-5256-11ea-bc63-032471d3810f,21,67,88,10,1.0,1.0,0
run-2020-2-18-13-53-31.045559883,AGENT#0c51a5b8-5256-11ea-82e8-375c6b83d465,3,85,88,10,1.0,1.0,0
run-2020-2-18-13-53-31.045559883,AGENT#0c525cce-5256-11ea-b0ef-53a3b0678238,2,86,88,10,1.0,1.0,0
run-2020-2-18-13-53-31.045559883,AGENT#0c4b201c-5256-11ea-9673-c34e34ada379,14,75,89,10,1.0,1.0,0
run-2020-2-18-13-53-31.045559883,AGENT#0c51a81a-5256-11ea-b54e-770f24ec71d3,4,85,89,10,1.0,1.0,0
run-2020-2-18-13-53-31.045559883,AGENT#0c434ee6-5256-11ea-aded-57a50fadce62,28,62,90,10,1.0,1.0,0
run-2020-2-18-13-53-31.045559883,AGENT#0c51a34c-5256-11ea-ac54-ef0535094487,5,85,90,10,1.0,1.0,0
run-2020-2-18-13-53-31.045559883,AGENT#0c5254f4-5256-11ea-96dd-5fdcfde24b49,4,86,90,10,1.0,1.0,0
run-2020-2-18-13-53-31.045559883,AGENT#0c525a26-5256-11ea-a0e8-775e50b6f539,4,86,90,10,1.0,1.0,0
run-2020-2-18-13-53-31.045559883,AGENT#0c53d6b2-5256-11ea-8b87-1bdfd14e7058,2,88,90,10,1.0,1.0,0
run-2020-2-18-13-53-31.045559883,AGENT#0c547d4c-5256-11ea-b6dc-d3618c0378d5,1,89,90,10,1.0,1.0,0
run-2020-2-18-13-53-31.045559883,AGENT#0c3a2c9e-5256-11ea-b9c1-5f88e83b3936,46,45,91,10,1.0,1.0,0
run-2020-2-18-13-53-31.045559883,AGENT#0c530dfe-5256-11ea-bb6f-0b0edb35ec06,4,87,91,10,1.0,1.0,0
run-2020-2-18-13-53-31.045559883,AGENT#0c53d3a6-5256-11ea-b728-43e00cb1fe41,3,88,91,10,1.0,1.0,0
run-2020-2-18-13-53-31.045559883,AGENT#0c554b5a-5256-11ea-be4e-cb1ab13b6d70,1,90,91,10,1.0,1.0,0
run-2020-2-18-13-53-31.045559883,AGENT#0c55f898-5256-11ea-b99e-737ed6017b72,1,91,92,10,1.0,1.0,0
run-2020-2-18-13-53-31.045559883,AGENT#0c55fdb6-5256-11ea-bb13-dfdb8058ea33,1,91,92,10,1.0,1.0,0
run-2020-2-18-13-53-31.045559883,AGENT#0c3b3ecc-5256-11ea-9898-47a5594322a5,46,47,93,10,1.0,1.0,0
run-2020-2-18-13-53-31.045559883,AGENT#0c3bc72a-5256-11ea-a965-770b7ec1411f,45,48,93,10,1.0,1.0,0
run-2020-2-18-13-53-31.045559883,AGENT#0c54803a-5256-11ea-89b9-e7ddddbf3b19,4,89,93,10,1.0,1.0,0
run-2020-2-18-13-53-31.045559883,AGENT#0c3c4920-5256-11ea-b629-e33c34ab71d2,45,49,94,10,1.0,1.0,0
run-2020-2-18-13-53-31.045559883,AGENT#0c5485e4-5256-11ea-abf0-bb91dfb7946a,5,89,94,10,1.0,1.0,0
run-2020-2-18-13-53-31.045559883,AGENT#0c56c070-5256-11ea-840a-2395d7a0dac2,2,92,94,10,1.0,1.0,0
run-2020-2-18-13-53-31.045559883,AGENT#0c56c61a-5256-11ea-962d-6344a54ff9ea,2,92,94,10,1.0,1.0,0
run-2020-2-18-13-53-31.045559883,AGENT#0c579202-5256-11ea-97bd-5b6e6dc2e10c,1,93,94,10,1.0,1.0,0
run-2020-2-18-13-53-31.045559883,AGENT#0c57970c-5256-11ea-a57e-4f2081a5ce58,1,93,94,10,1.0,1.0,0
run-2020-2-18-13-53-31.045559883,AGENT#0c41217a-5256-11ea-a2de-4f407480270e,37,58,95,10,1.0,1.0,0
run-2020-2-18-13-53-31.045559883,AGENT#0c56bbe8-5256-11ea-858d-1f674f496f6f,3,92,95,10,1.0,1.0,0
run-2020-2-18-13-53-31.045559883,AGENT#0c57996e-5256-11ea-9238-7b6051e2aa5b,2,93,95,10,1.0,1.0,0
run-2020-2-18-13-53-31.045559883,AGENT#0c585ff2-5256-11ea-a999-572c80191969,1,94,95,10,1.0,1.0,0
run-2020-2-18-13-53-31.045559883,AGENT#0c55fb4a-5256-11ea-ac3e-abef1382856a,5,91,96,10,1.0,1.0,0
run-2020-2-18-13-53-31.045559883,AGENT#0c56b4cc-5256-11ea-ae15-d39622ad44e9,4,92,96,10,1.0,1.0,0
run-2020-2-18-13-53-31.045559883,AGENT#0c3cc6f2-5256-11ea-9494-37acc0f40de5,47,50,97,10,1.0,1.0,0
run-2020-2-18-13-53-31.045559883,AGENT#0c579bbc-5256-11ea-8476-1fa408bdf1ff,4,93,97,10,1.0,1.0,0
run-2020-2-18-13-53-31.045559883,AGENT#0c592fcc-5256-11ea-8339-c747477393d4,2,95,97,10,1.0,1.0,0
run-2020-2-18-13-53-31.045559883,AGENT#0c5932d8-5256-11ea-b616-eba803fc58c6,2,95,97,10,1.0,1.0,0
run-2020-2-18-13-53-31.045559883,AGENT#0c59e6b0-5256-11ea-ba0a-e7fdf48f5a8a,1,96,97,10,1.0,1.0,0
run-2020-2-18-13-53-31.045559883,AGENT#0c59eb92-5256-11ea-a5fb-43d49d2aa01e,1,96,97,10,1.0,1.0,0
run-2020-2-18-13-53-31.045559883,AGENT#0c3d5f86-5256-11ea-bec1-fba40fb9d0dd,47,51,98,10,1.0,1.0,0
run-2020-2-18-13-53-31.045559883,AGENT#0c3e71f0-5256-11ea-840e-77140a609f72,45,53,98,10,1.0,1.0,0
run-2020-2-18-13-53-31.045559883,AGENT#0c59f506-5256-11ea-9d38-2fd711b40cb2,2,96,98,10,1.0,1.0,0
run-2020-2-18-13-53-31.045559883,AGENT#0c59f740-5256-11ea-bb8b-1fff5ed5bdaf,2,96,98,10,1.0,1.0,0
run-2020-2-18-13-53-31.045559883,AGENT#0c3ef198-5256-11ea-940d-d7b7718d9402,45,54,99,10,1.0,1.0,0
run-2020-2-18-13-53-31.045559883,AGENT#0c463eee-5256-11ea-8ddb-2bddd6d52247,32,67,99,10,1.0,1.0,0
run-2020-2-18-13-53-31.045559883,AGENT#0c5ae57e-5256-11ea-9fe3-6fd79f501664,2,97,99,10,1.0,1.0,0
run-2020-2-18-13-53-31.045559883,AGENT#0c5bb6ac-5256-11ea-930f-775f56fc72a8,1,98,99,10,1.0,1.0,0
