RunID,Tick,ActiveAgentsPerTick
run-2020-2-18-13-53-31.045559883,0,11
run-2020-2-18-13-53-31.045559883,1,14
run-2020-2-18-13-53-31.045559883,2,15
run-2020-2-18-13-53-31.045559883,3,19
run-2020-2-18-13-53-31.045559883,4,17
run-2020-2-18-13-53-31.045559883,5,22
run-2020-2-18-13-53-31.045559883,6,19
run-2020-2-18-13-53-31.045559883,7,21
run-2020-2-18-13-53-31.045559883,8,25
run-2020-2-18-13-53-31.045559883,9,26
run-2020-2-18-13-53-31.045559883,10,24
run-2020-2-18-13-53-31.045559883,11,24
run-2020-2-18-13-53-31.045559883,12,27
run-2020-2-18-13-53-31.045559883,13,27
run-2020-2-18-13-53-31.045559883,14,26
run-2020-2-18-13-53-31.045559883,15,28
run-2020-2-18-13-53-31.045559883,16,29
run-2020-2-18-13-53-31.045559883,17,32
run-2020-2-18-13-53-31.045559883,18,35
run-2020-2-18-13-53-31.045559883,19,37
run-2020-2-18-13-53-31.045559883,20,43
run-2020-2-18-13-53-31.045559883,21,41
run-2020-2-18-13-53-31.045559883,22,41
run-2020-2-18-13-53-31.045559883,23,42
run-2020-2-18-13-53-31.045559883,24,45
run-2020-2-18-13-53-31.045559883,25,44
run-2020-2-18-13-53-31.045559883,26,44
run-2020-2-18-13-53-31.045559883,27,41
run-2020-2-18-13-53-31.045559883,28,42
run-2020-2-18-13-53-31.045559883,29,43
run-2020-2-18-13-53-31.045559883,30,47
run-2020-2-18-13-53-31.045559883,31,50
run-2020-2-18-13-53-31.045559883,32,51
run-2020-2-18-13-53-31.045559883,33,57
run-2020-2-18-13-53-31.045559883,34,58
run-2020-2-18-13-53-31.045559883,35,60
run-2020-2-18-13-53-31.045559883,36,59
run-2020-2-18-13-53-31.045559883,37,57
run-2020-2-18-13-53-31.045559883,38,57
run-2020-2-18-13-53-31.045559883,39,58
run-2020-2-18-13-53-31.045559883,40,59
run-2020-2-18-13-53-31.045559883,41,62
run-2020-2-18-13-53-31.045559883,42,60
run-2020-2-18-13-53-31.045559883,43,63
run-2020-2-18-13-53-31.045559883,44,65
run-2020-2-18-13-53-31.045559883,45,67
run-2020-2-18-13-53-31.045559883,46,65
run-2020-2-18-13-53-31.045559883,47,62
run-2020-2-18-13-53-31.045559883,48,60
run-2020-2-18-13-53-31.045559883,49,59
run-2020-2-18-13-53-31.045559883,50,62
run-2020-2-18-13-53-31.045559883,51,61
run-2020-2-18-13-53-31.045559883,52,59
run-2020-2-18-13-53-31.045559883,53,59
run-2020-2-18-13-53-31.045559883,54,55
run-2020-2-18-13-53-31.045559883,55,60
run-2020-2-18-13-53-31.045559883,56,58
run-2020-2-18-13-53-31.045559883,57,55
run-2020-2-18-13-53-31.045559883,58,55
run-2020-2-18-13-53-31.045559883,59,52
run-2020-2-18-13-53-31.045559883,60,52
run-2020-2-18-13-53-31.045559883,61,56
run-2020-2-18-13-53-31.045559883,62,58
run-2020-2-18-13-53-31.045559883,63,62
run-2020-2-18-13-53-31.045559883,64,63
run-2020-2-18-13-53-31.045559883,65,55
run-2020-2-18-13-53-31.045559883,66,47
run-2020-2-18-13-53-31.045559883,67,50
run-2020-2-18-13-53-31.045559883,68,50
run-2020-2-18-13-53-31.045559883,69,50
run-2020-2-18-13-53-31.045559883,70,48
run-2020-2-18-13-53-31.045559883,71,50
run-2020-2-18-13-53-31.045559883,72,49
run-2020-2-18-13-53-31.045559883,73,51
run-2020-2-18-13-53-31.045559883,74,48
run-2020-2-18-13-53-31.045559883,75,51
run-2020-2-18-13-53-31.045559883,76,49
run-2020-2-18-13-53-31.045559883,77,49
run-2020-2-18-13-53-31.045559883,78,51
run-2020-2-18-13-53-31.045559883,79,48
run-2020-2-18-13-53-31.045559883,80,50
run-2020-2-18-13-53-31.045559883,81,50
run-2020-2-18-13-53-31.045559883,82,52
run-2020-2-18-13-53-31.045559883,83,52
run-2020-2-18-13-53-31.045559883,84,49
run-2020-2-18-13-53-31.045559883,85,49
run-2020-2-18-13-53-31.045559883,86,49
run-2020-2-18-13-53-31.045559883,87,45
run-2020-2-18-13-53-31.045559883,88,46
run-2020-2-18-13-53-31.045559883,89,47
run-2020-2-18-13-53-31.045559883,90,47
run-2020-2-18-13-53-31.045559883,91,44
run-2020-2-18-13-53-31.045559883,92,46
run-2020-2-18-13-53-31.045559883,93,51
run-2020-2-18-13-53-31.045559883,94,50
run-2020-2-18-13-53-31.045559883,95,47
run-2020-2-18-13-53-31.045559883,96,52
run-2020-2-18-13-53-31.045559883,97,56
run-2020-2-18-13-53-31.045559883,98,54
run-2020-2-18-13-53-31.045559883,99,52
run-2020-2-18-13-53-31.045559883,100,48
