Source,Target
0c1fd308-5256-11ea-906c-031fd361f39f,0c2087da-5256-11ea-af43-134c4db43b14
0c2036e0-5256-11ea-849e-efba191a26b5,0c209932-5256-11ea-a0b5-730428df509d
0c1ff270-5256-11ea-a968-7fd4f2d09de2,0c20ad32-5256-11ea-a3da-ef4026409ffe
0c1dd526-5256-11ea-b5c4-73712c659ad7,0c20bc64-5256-11ea-aa97-ffc8db78478c
0c1df65a-5256-11ea-aac7-5f1914ba94dd,0c20ca6a-5256-11ea-ba0d-03c968395162
0c1e0794-5256-11ea-98e3-e70c5c0a717d,0c20e176-5256-11ea-ab92-47f075e5c027
0c1df65a-5256-11ea-aac7-5f1914ba94dd,0c20f080-5256-11ea-a018-2b0d97e129a3
0c1e294a-5256-11ea-975a-378ee153b1e5,0c210070-5256-11ea-b4df-6777c1f66fd1
0c201692-5256-11ea-b8b8-171d692ad61e,0c210eee-5256-11ea-8111-671065950a94
0c1f2d22-5256-11ea-bb1c-dfc9eee51ca0,0c211e20-5256-11ea-9802-23062bc8537f
0c1f70b6-5256-11ea-9661-7b15090c2932,0c212e56-5256-11ea-b577-6f56e5f4dc80
0c211e20-5256-11ea-9802-23062bc8537f,0c213d9c-5256-11ea-a116-b74ec5d7328a
0c20ca6a-5256-11ea-ba0d-03c968395162,0c215052-5256-11ea-b322-9fb3c23800bf
0c2076b4-5256-11ea-bbe6-4bea6f5a989f,0c216920-5256-11ea-9769-1ff6a4de15f8
0c1e4b32-5256-11ea-8cdf-a70c72fd524f,0c217cb2-5256-11ea-865c-f77a3fcc2814
0c1f49e2-5256-11ea-90aa-8fe17a20c04b,0c218d9c-5256-11ea-b02e-8b65a28499e3
0c1e5c30-5256-11ea-ba5f-af59a0c72e86,0c219d00-5256-11ea-88d5-efd8351366f9
0c1dd526-5256-11ea-b5c4-73712c659ad7,0c21ac46-5256-11ea-9feb-f3cd45156e83
0c2050e4-5256-11ea-8d6c-ebc43933abd4,0c21bdbc-5256-11ea-9d06-2b00d47e4757
0c213d9c-5256-11ea-a116-b74ec5d7328a,0c21ca0a-5256-11ea-9059-e3bec545128d
0c1f49e2-5256-11ea-90aa-8fe17a20c04b,0c21d8a6-5256-11ea-a8bd-3fd8fb487b6c
0c1fc5f2-5256-11ea-a2ca-277f5171882c,0c21ec56-5256-11ea-b842-c7c3b444cf8b
0c202588-5256-11ea-b7fb-8fc6fbe4bde9,0c21fe08-5256-11ea-a42e-f736380c91b0
0c1dd526-5256-11ea-b5c4-73712c659ad7,0c220b46-5256-11ea-bbf7-577b7c6bb762
0c215052-5256-11ea-b322-9fb3c23800bf,0c2218fc-5256-11ea-a2ea-ebe3daeaecda
0c216920-5256-11ea-9769-1ff6a4de15f8,0c2224aa-5256-11ea-acfc-5716eade23a7
0c1eea06-5256-11ea-8f9a-a3e36fe85ba7,0c2235f8-5256-11ea-a724-239a195d55b0
0c20ca6a-5256-11ea-ba0d-03c968395162,0c2245e8-5256-11ea-94ac-2343189ab9f4
0c1eea06-5256-11ea-8f9a-a3e36fe85ba7,0c2254f2-5256-11ea-9055-9b430db61bd3
0c21ca0a-5256-11ea-9059-e3bec545128d,0c226370-5256-11ea-8457-6beec43d601d
0c2064ee-5256-11ea-b251-735d1a965e68,0c227504-5256-11ea-af1f-03571a2ddff9
0c1dd526-5256-11ea-b5c4-73712c659ad7,0c228364-5256-11ea-bf8d-cb0efe826fb2
0c21d8a6-5256-11ea-a8bd-3fd8fb487b6c,0c229214-5256-11ea-a61a-ff88f2102403
0c1e0794-5256-11ea-98e3-e70c5c0a717d,0c22a1c8-5256-11ea-a283-73c7502b4293
0c1f2d22-5256-11ea-bb1c-dfc9eee51ca0,0c22b366-5256-11ea-a449-df94b583cab3
0c1f1dd2-5256-11ea-8e4b-1fa4b39fae7d,0c22c2de-5256-11ea-ac16-c741d828bd93
0c1eda70-5256-11ea-b654-47f633ba6577,0c22d42c-5256-11ea-a34e-571f8adb96f2
0c20ca6a-5256-11ea-ba0d-03c968395162,0c22e430-5256-11ea-803a-e36bb6a6928b
0c1e0794-5256-11ea-98e3-e70c5c0a717d,0c22f4fc-5256-11ea-9823-2f163579489a
0c2064ee-5256-11ea-b251-735d1a965e68,0c230370-5256-11ea-a5b1-73272ef7424b
0c2218fc-5256-11ea-a2ea-ebe3daeaecda,0c2312b6-5256-11ea-9c16-078ec768479f
0c1fc5f2-5256-11ea-a2ca-277f5171882c,0c23215c-5256-11ea-a614-637de0ba89cc
0c200440-5256-11ea-bc84-5362d8ca7943,0c232fd0-5256-11ea-8663-87b738427ccc
0c216920-5256-11ea-9769-1ff6a4de15f8,0c234ee8-5256-11ea-b61b-27072fe268a6
0c23215c-5256-11ea-a614-637de0ba89cc,0c233f02-5256-11ea-a474-8fe97c416145
0c20e176-5256-11ea-ab92-47f075e5c027,0c236022-5256-11ea-a2a2-fb9bcd8a0bf1
0c1e5c30-5256-11ea-ba5f-af59a0c72e86,0c236e46-5256-11ea-bc0d-ffeab226bdac
0c1d8602-5256-11ea-bccd-e73dca299ced,0c237c60-5256-11ea-b90b-9fd4b22eb136
0c1df65a-5256-11ea-aac7-5f1914ba94dd,0c238a20-5256-11ea-ac20-eb0b44578aa3
0c1e168a-5256-11ea-9751-5bfede173ad9,0c239966-5256-11ea-88b9-d35054b631a4
0c21ca0a-5256-11ea-9059-e3bec545128d,0c23ab4a-5256-11ea-9ecd-e303bdc97d0b
0c2064ee-5256-11ea-b251-735d1a965e68,0c23c65c-5256-11ea-a8d7-93e94ee62b3a
0c1ea71c-5256-11ea-8f61-fb6ad8e547dc,0c23dc5a-5256-11ea-b5e9-833d81386316
0c220b46-5256-11ea-bbf7-577b7c6bb762,0c23f08c-5256-11ea-bdc6-3bff82643ed4
0c1dc356-5256-11ea-8618-47b55b90d9a4,0c23ffd2-5256-11ea-8494-37f10b24b7ad
0c1d64e2-5256-11ea-83d1-1f3330e08440,0c240e32-5256-11ea-821c-8bc6926f28b3
0c1d4b06-5256-11ea-a1cc-fb2bf65c1ae2,0c241d0a-5256-11ea-8fb3-c33ca40cda7d
0c23f08c-5256-11ea-bdc6-3bff82643ed4,0c242cc8-5256-11ea-9e5c-9769e8f1b228
0c20f080-5256-11ea-a018-2b0d97e129a3,0c243a24-5256-11ea-a3c2-1f473e1290a2
0c22b366-5256-11ea-a449-df94b583cab3,0c244ce4-5256-11ea-807a-6bb885aadf05
0c1db65e-5256-11ea-84ae-539124ba207d,0c245aae-5256-11ea-a1d6-3b5108c2c755
0c1fd308-5256-11ea-906c-031fd361f39f,0c2467ce-5256-11ea-9163-47d0c6014907
0c239966-5256-11ea-88b9-d35054b631a4,0c247502-5256-11ea-b617-276267c1d18a
0c229214-5256-11ea-a61a-ff88f2102403,0c248704-5256-11ea-9c1f-f3a15f944fc2
0c2076b4-5256-11ea-bbe6-4bea6f5a989f,0c249604-5256-11ea-9d8e-af77a83b7709
0c2245e8-5256-11ea-94ac-2343189ab9f4,0c24a46e-5256-11ea-af43-731d480a1408
0c1ff270-5256-11ea-a968-7fd4f2d09de2,0c24b4ae-5256-11ea-94d4-b7665679a163
0c22d42c-5256-11ea-a34e-571f8adb96f2,0c24c21e-5256-11ea-931c-cbf4c8f193aa
0c21ac46-5256-11ea-9feb-f3cd45156e83,0c24cfe8-5256-11ea-b2c5-1fe0443f5b15
0c234ee8-5256-11ea-b61b-27072fe268a6,0c24dd44-5256-11ea-a424-3bb915f91ed1
0c1dd526-5256-11ea-b5c4-73712c659ad7,0c24ed66-5256-11ea-b749-6b716e8474f2
0c2467ce-5256-11ea-9163-47d0c6014907,0c24fb1c-5256-11ea-8a77-0f106a8ec6d8
0c243a24-5256-11ea-a3c2-1f473e1290a2,0c250f26-5256-11ea-af40-ff7f8612a707
0c236022-5256-11ea-a2a2-fb9bcd8a0bf1,0c251d68-5256-11ea-a2dd-f38a6d21e517
0c2245e8-5256-11ea-94ac-2343189ab9f4,0c252d44-5256-11ea-b3ba-b3bac6befc79
0c1d64e2-5256-11ea-83d1-1f3330e08440,0c25409a-5256-11ea-939c-739962127c72
0c1d4b06-5256-11ea-a1cc-fb2bf65c1ae2,0c2559d6-5256-11ea-86df-fbd680957741
0c1e7db4-5256-11ea-8f3d-ffd6a9339cb7,0c2569b2-5256-11ea-bd08-3b756107ce6e
0c211e20-5256-11ea-9802-23062bc8537f,0c257ab0-5256-11ea-b460-07714c3560ff
0c24b4ae-5256-11ea-94d4-b7665679a163,0c2588fc-5256-11ea-bb20-9f4410ce4160
0c217cb2-5256-11ea-865c-f77a3fcc2814,0c2596e4-5256-11ea-8359-df107430fbb5
0c24fb1c-5256-11ea-8a77-0f106a8ec6d8,0c25a742-5256-11ea-8172-67116abe434c
0c22d42c-5256-11ea-a34e-571f8adb96f2,0c25b926-5256-11ea-bca9-875f67d7a122
0c249604-5256-11ea-9d8e-af77a83b7709,0c25c880-5256-11ea-98b4-6f3d9e0aa586
0c1d8602-5256-11ea-bccd-e73dca299ced,0c25d58c-5256-11ea-a8c3-6365666af0dc
0c213d9c-5256-11ea-a116-b74ec5d7328a,0c25e522-5256-11ea-ae9e-5b85076628f5
0c21bdbc-5256-11ea-9d06-2b00d47e4757,0c25f4f4-5256-11ea-b830-3be8dd35f35e
0c21bdbc-5256-11ea-9d06-2b00d47e4757,0c2604e4-5256-11ea-9da4-23cadffb8df4
0c1f61ac-5256-11ea-b7f0-475043e36f20,0c261358-5256-11ea-a481-43498cb2fa5e
0c1e5c30-5256-11ea-ba5f-af59a0c72e86,0c26228a-5256-11ea-b2dd-cfdb3de13409
0c20bc64-5256-11ea-aa97-ffc8db78478c,0c26300e-5256-11ea-bbb7-0327f4267062
0c1df65a-5256-11ea-aac7-5f1914ba94dd,0c263ffe-5256-11ea-9584-574944f9f1d8
0c1dd526-5256-11ea-b5c4-73712c659ad7,0c264f94-5256-11ea-af34-eb2877d12b3b
0c218d9c-5256-11ea-b02e-8b65a28499e3,0c266a24-5256-11ea-8610-772c341c4e2f
0c1fd308-5256-11ea-906c-031fd361f39f,0c265df4-5256-11ea-90cc-9bc8261d1055
