RunID,Tick,AllAgents,Active,Inactive
run-2020-2-17-18-2-24.012658119,0,13,13,0
run-2020-2-17-18-2-24.012658119,1,14,11,3
run-2020-2-17-18-2-24.012658119,2,21,13,8
run-2020-2-17-18-2-24.012658119,3,23,13,10
run-2020-2-17-18-2-24.012658119,4,24,10,14
run-2020-2-17-18-2-24.012658119,5,30,13,17
run-2020-2-17-18-2-24.012658119,6,31,9,22
run-2020-2-17-18-2-24.012658119,7,34,11,23
run-2020-2-17-18-2-24.012658119,8,41,17,24
run-2020-2-17-18-2-24.012658119,9,46,17,29
run-2020-2-17-18-2-24.012658119,10,52,20,32
run-2020-2-17-18-2-24.012658119,11,54,20,34
run-2020-2-17-18-2-24.012658119,12,58,19,39
run-2020-2-17-18-2-24.012658119,13,62,22,40
run-2020-2-17-18-2-24.012658119,14,67,25,42
run-2020-2-17-18-2-24.012658119,15,72,26,46
run-2020-2-17-18-2-24.012658119,16,76,27,49
run-2020-2-17-18-2-24.012658119,17,78,26,52
run-2020-2-17-18-2-24.012658119,18,82,27,55
run-2020-2-17-18-2-24.012658119,19,90,34,56
run-2020-2-17-18-2-24.012658119,20,94,36,58
run-2020-2-17-18-2-24.012658119,21,100,41,59
run-2020-2-17-18-2-24.012658119,22,104,41,63
run-2020-2-17-18-2-24.012658119,23,104,34,70
run-2020-2-17-18-2-24.012658119,24,108,34,74
run-2020-2-17-18-2-24.012658119,25,112,36,76
run-2020-2-17-18-2-24.012658119,26,114,37,77
run-2020-2-17-18-2-24.012658119,27,121,41,80
run-2020-2-17-18-2-24.012658119,28,124,40,84
run-2020-2-17-18-2-24.012658119,29,126,39,87
run-2020-2-17-18-2-24.012658119,30,128,36,92
run-2020-2-17-18-2-24.012658119,31,131,37,94
run-2020-2-17-18-2-24.012658119,32,134,38,96
run-2020-2-17-18-2-24.012658119,33,138,42,96
run-2020-2-17-18-2-24.012658119,34,140,38,102
run-2020-2-17-18-2-24.012658119,35,143,38,105
run-2020-2-17-18-2-24.012658119,36,148,42,106
run-2020-2-17-18-2-24.012658119,37,153,46,107
run-2020-2-17-18-2-24.012658119,38,157,45,112
run-2020-2-17-18-2-24.012658119,39,159,46,113
run-2020-2-17-18-2-24.012658119,40,161,45,116
run-2020-2-17-18-2-24.012658119,41,167,50,117
run-2020-2-17-18-2-24.012658119,42,173,50,123
run-2020-2-17-18-2-24.012658119,43,180,53,127
run-2020-2-17-18-2-24.012658119,44,182,53,129
run-2020-2-17-18-2-24.012658119,45,185,54,131
run-2020-2-17-18-2-24.012658119,46,186,53,133
run-2020-2-17-18-2-24.012658119,47,190,54,136
run-2020-2-17-18-2-24.012658119,48,194,56,138
run-2020-2-17-18-2-24.012658119,49,198,53,145
run-2020-2-17-18-2-24.012658119,50,203,55,148
run-2020-2-17-18-2-24.012658119,51,206,55,151
run-2020-2-17-18-2-24.012658119,52,213,60,153
run-2020-2-17-18-2-24.012658119,53,216,57,159
run-2020-2-17-18-2-24.012658119,54,222,59,163
run-2020-2-17-18-2-24.012658119,55,225,60,165
run-2020-2-17-18-2-24.012658119,56,231,62,169
run-2020-2-17-18-2-24.012658119,57,235,63,172
run-2020-2-17-18-2-24.012658119,58,241,63,178
run-2020-2-17-18-2-24.012658119,59,242,60,182
run-2020-2-17-18-2-24.012658119,60,248,62,186
run-2020-2-17-18-2-24.012658119,61,256,63,193
run-2020-2-17-18-2-24.012658119,62,258,60,198
run-2020-2-17-18-2-24.012658119,63,263,62,201
run-2020-2-17-18-2-24.012658119,64,265,57,208
run-2020-2-17-18-2-24.012658119,65,267,56,211
run-2020-2-17-18-2-24.012658119,66,271,55,216
run-2020-2-17-18-2-24.012658119,67,275,55,220
run-2020-2-17-18-2-24.012658119,68,280,58,222
run-2020-2-17-18-2-24.012658119,69,284,58,226
run-2020-2-17-18-2-24.012658119,70,289,59,230
run-2020-2-17-18-2-24.012658119,71,293,59,234
run-2020-2-17-18-2-24.012658119,72,296,60,236
run-2020-2-17-18-2-24.012658119,73,300,57,243
run-2020-2-17-18-2-24.012658119,74,304,59,245
run-2020-2-17-18-2-24.012658119,75,307,56,251
run-2020-2-17-18-2-24.012658119,76,308,54,254
run-2020-2-17-18-2-24.012658119,77,316,58,258
run-2020-2-17-18-2-24.012658119,78,316,55,261
run-2020-2-17-18-2-24.012658119,79,320,55,265
run-2020-2-17-18-2-24.012658119,80,328,60,268
run-2020-2-17-18-2-24.012658119,81,333,60,273
run-2020-2-17-18-2-24.012658119,82,338,63,275
run-2020-2-17-18-2-24.012658119,83,339,62,277
run-2020-2-17-18-2-24.012658119,84,341,59,282
run-2020-2-17-18-2-24.012658119,85,347,62,285
run-2020-2-17-18-2-24.012658119,86,351,64,287
run-2020-2-17-18-2-24.012658119,87,357,65,292
run-2020-2-17-18-2-24.012658119,88,359,62,297
run-2020-2-17-18-2-24.012658119,89,362,64,298
run-2020-2-17-18-2-24.012658119,90,366,66,300
run-2020-2-17-18-2-24.012658119,91,370,66,304
run-2020-2-17-18-2-24.012658119,92,375,66,309
run-2020-2-17-18-2-24.012658119,93,376,58,318
run-2020-2-17-18-2-24.012658119,94,381,63,318
run-2020-2-17-18-2-24.012658119,95,382,59,323
run-2020-2-17-18-2-24.012658119,96,384,58,326
run-2020-2-17-18-2-24.012658119,97,389,61,328
run-2020-2-17-18-2-24.012658119,98,396,60,336
run-2020-2-17-18-2-24.012658119,99,402,63,339
