Source,Target
57762c18-5255-11ea-a83b-035ca19de62b,57785056-5255-11ea-a60d-b7f43691a7ae
5777f502-5255-11ea-8ab4-931f4cd1b37c,57785844-5255-11ea-89ab-97b1df99a084
5775ccdc-5255-11ea-8378-a3b54e5843fd,577864c4-5255-11ea-88cb-1b18ed0d3afa
57779c6a-5255-11ea-8f1a-9313dd551d7a,577875cc-5255-11ea-8eff-83165310b6e3
5775ccdc-5255-11ea-8378-a3b54e5843fd,57787f18-5255-11ea-b669-17ac3a5cc669
57767e70-5255-11ea-9bd8-af4f19096d6d,57788706-5255-11ea-870b-4350a1e4d71a
5776bf66-5255-11ea-9a91-f7f3d7b8fb30,57788f4e-5255-11ea-8280-e74ce9f9c0bb
57771510-5255-11ea-a1cb-ab6c23fc9f55,57789ac0-5255-11ea-84e4-1b1b7b4c6e9b
577709f8-5255-11ea-be44-8336b6db89c5,5778ade4-5255-11ea-b84d-5fb61a4bfe9b
5776239e-5255-11ea-b5c0-530574ffa1da,5778bb40-5255-11ea-9b46-2ffaa27c5893
57783954-5255-11ea-bdad-b3fa80186db6,5778cc2a-5255-11ea-b6a1-3f1afa1147af
57771510-5255-11ea-a1cb-ab6c23fc9f55,5778d3be-5255-11ea-beda-df229f882e07
5776ea9a-5255-11ea-a6e0-eb8b9df2c96b,5778e37c-5255-11ea-9abe-bbc18dda3f7e
5776d3f2-5255-11ea-8934-3fd5f3468ded,5778ec00-5255-11ea-a882-2b668d4a4161
5776ff76-5255-11ea-9b39-aff588f500e9,5778f39e-5255-11ea-b8f1-0f27274e210f
5776d3f2-5255-11ea-8934-3fd5f3468ded,5778fc5e-5255-11ea-9fdd-8fa186a94662
5777cb22-5255-11ea-8476-3f17c027a073,577914c8-5255-11ea-8910-f3c0b81afe07
5776ea9a-5255-11ea-a6e0-eb8b9df2c96b,57792206-5255-11ea-8c9a-13e094541b15
577658dc-5255-11ea-98c6-5f702a7981be,57792daa-5255-11ea-9aa0-bbcb18b40a14
5777cb22-5255-11ea-8476-3f17c027a073,57793502-5255-11ea-b299-a793879c3cb9
57769144-5255-11ea-9c32-b35c774ec06c,57794088-5255-11ea-bc12-6b0f97af8826
57782900-5255-11ea-9f40-03743d6dbec0,57794c54-5255-11ea-b58e-5b4cffda9a9b
5778ade4-5255-11ea-b84d-5fb61a4bfe9b,57795758-5255-11ea-aee0-5bc12483eb8c
577875cc-5255-11ea-8eff-83165310b6e3,57796eaa-5255-11ea-8878-373eeba34bf0
5778e37c-5255-11ea-9abe-bbc18dda3f7e,57795f32-5255-11ea-ad40-0f8f8daebf00
5775b044-5255-11ea-8e2c-1b19551c1663,57799a88-5255-11ea-9ff2-ffc10a8074ba
57776240-5255-11ea-8a6d-472be5e3535d,57798f52-5255-11ea-92ac-2b3d707be968
57789ac0-5255-11ea-84e4-1b1b7b4c6e9b,5779a2a8-5255-11ea-a109-df48da7cdb03
5776d3f2-5255-11ea-8934-3fd5f3468ded,5779aaaa-5255-11ea-acf4-c363fb026404
5775d65a-5255-11ea-8854-935e27c103ee,5779b4b4-5255-11ea-a9c6-77652e4c6172
5779aaaa-5255-11ea-acf4-c363fb026404,5779beaa-5255-11ea-bb8e-9f2a740c59ee
57760832-5255-11ea-afef-d370a40b6e94,5779c788-5255-11ea-968b-2782c884d5cc
57778414-5255-11ea-ae53-1b8fb683865f,5779cf62-5255-11ea-a2f9-5bb831c107a7
5778f39e-5255-11ea-b8f1-0f27274e210f,5779ee34-5255-11ea-b85a-0bee47e5de39
57771510-5255-11ea-a1cb-ab6c23fc9f55,5779fc58-5255-11ea-961c-8b5677b7a31a
577875cc-5255-11ea-8eff-83165310b6e3,577a0284-5255-11ea-9f0f-1bfb400c8cd8
5777ddec-5255-11ea-8b98-7f7535d568e9,577a0ae0-5255-11ea-a787-7f90b735cc3a
577875cc-5255-11ea-8eff-83165310b6e3,577a1706-5255-11ea-b80a-b30c9eb11dd3
57771d3a-5255-11ea-8953-132ea5f18ae8,577a22d2-5255-11ea-8b1a-438da727db16
57795758-5255-11ea-aee0-5bc12483eb8c,577a2fe8-5255-11ea-8b4a-07fc789e5874
577864c4-5255-11ea-88cb-1b18ed0d3afa,577a34b6-5255-11ea-938c-e35d97757e68
57776240-5255-11ea-8a6d-472be5e3535d,577a499c-5255-11ea-808d-2bc77444a77e
577709f8-5255-11ea-be44-8336b6db89c5,577a5d7e-5255-11ea-bd43-a7c7806ef6f8
57777bf4-5255-11ea-a81a-b30048ca772d,577a6814-5255-11ea-a322-2f9c44fad554
5779cf62-5255-11ea-a2f9-5bb831c107a7,577a752a-5255-11ea-b0b8-eb532dc985ec
577a0ae0-5255-11ea-a787-7f90b735cc3a,577a7d86-5255-11ea-a0d8-77db2bb274a8
5776bf66-5255-11ea-9a91-f7f3d7b8fb30,577a8920-5255-11ea-8908-c3619255e33f
57792daa-5255-11ea-9aa0-bbcb18b40a14,577a97bc-5255-11ea-bec1-0707d1227050
57767e70-5255-11ea-9bd8-af4f19096d6d,577a99c4-5255-11ea-a352-f719565c3add
577a5d7e-5255-11ea-bd43-a7c7806ef6f8,577aadb0-5255-11ea-9732-ab56305ff471
57782900-5255-11ea-9f40-03743d6dbec0,577ac71e-5255-11ea-be7a-a7342e017dff
57777bf4-5255-11ea-a81a-b30048ca772d,577acda4-5255-11ea-8d92-a381ebe8d5c5
57792206-5255-11ea-8c9a-13e094541b15,577ad858-5255-11ea-8b94-1bb3ba3cc1e9
577ac71e-5255-11ea-be7a-a7342e017dff,577ae38e-5255-11ea-8807-d396cbbec0a3
5776671e-5255-11ea-aed3-0f0c8aba219d,577aed0c-5255-11ea-ba44-bfa41d01702a
5775fcc0-5255-11ea-9a63-0b46a529ef68,577afe3c-5255-11ea-a944-972d45c90748
57783954-5255-11ea-bdad-b3fa80186db6,577af734-5255-11ea-ada0-4b12ccba95e9
577a99c4-5255-11ea-a352-f719565c3add,577b0eb8-5255-11ea-8be1-8bb74b5c8268
5775b7e2-5255-11ea-b0f6-1f34d136adee,577b28da-5255-11ea-bd6c-df84ac5d285c
577633e8-5255-11ea-a4a9-634aef2dc4ad,577b3802-5255-11ea-bc45-f3f7ca9a4557
57776e84-5255-11ea-8d4f-b76194d5809c,577b41d0-5255-11ea-80fd-7b6558755fe0
5777f502-5255-11ea-8ab4-931f4cd1b37c,577b4ff4-5255-11ea-b839-27131f04a100
577811fe-5255-11ea-8ac1-ffe0cfe56cb1,577b579c-5255-11ea-acea-cf80ce1c2d7e
57777bf4-5255-11ea-a81a-b30048ca772d,577b5fee-5255-11ea-af23-2b3becbcf0ea
57771d3a-5255-11ea-8953-132ea5f18ae8,577b675a-5255-11ea-9abe-2350397d26f7
577afe3c-5255-11ea-a944-972d45c90748,577b747a-5255-11ea-a5d2-8ba3e9629dee
577a5d7e-5255-11ea-bd43-a7c7806ef6f8,577b8d98-5255-11ea-aac2-af1ebaa036f6
5779b4b4-5255-11ea-a9c6-77652e4c6172,577b9d38-5255-11ea-94a0-17a6c6493ebf
577a7d86-5255-11ea-a0d8-77db2bb274a8,577ba86e-5255-11ea-b4e9-9328b0b565b4
57789ac0-5255-11ea-84e4-1b1b7b4c6e9b,577bb1ec-5255-11ea-a31b-1fa68f730dcf
577875cc-5255-11ea-8eff-83165310b6e3,577bba98-5255-11ea-9c83-1759d6f3256d
577a5d7e-5255-11ea-bd43-a7c7806ef6f8,577bc2b8-5255-11ea-8f72-1b15675bdeea
57771510-5255-11ea-a1cb-ab6c23fc9f55,577bca06-5255-11ea-bfa8-0b6021d2d459
57777bf4-5255-11ea-a81a-b30048ca772d,577bd280-5255-11ea-9caf-4b8dd4b211df
577bc2b8-5255-11ea-8f72-1b15675bdeea,577be6a8-5255-11ea-9ce7-6be607d48c52
577a0284-5255-11ea-9f0f-1bfb400c8cd8,577c00a2-5255-11ea-a0cb-a779bf599447
577b675a-5255-11ea-9abe-2350397d26f7,577c0a5c-5255-11ea-b96f-4b19319a81f8
5778bb40-5255-11ea-9b46-2ffaa27c5893,577c12b8-5255-11ea-97f5-17ab084e181e
57799a88-5255-11ea-9ff2-ffc10a8074ba,577c1a56-5255-11ea-a7e1-a30c16d97e02
57768762-5255-11ea-8ff9-539af692fe9d,577c2fc8-5255-11ea-9bd8-1fbb22428ba8
577a99c4-5255-11ea-a352-f719565c3add,577c28a2-5255-11ea-8131-7f966d04ab0a
57799a88-5255-11ea-9ff2-ffc10a8074ba,577c21ae-5255-11ea-a1d4-b75b5ebdd408
577b9d38-5255-11ea-94a0-17a6c6493ebf,577c3c02-5255-11ea-a191-bf9482c039f7
5778ade4-5255-11ea-b84d-5fb61a4bfe9b,577c7046-5255-11ea-bd59-c3cb515f8d8e
577a8920-5255-11ea-8908-c3619255e33f,577c78ca-5255-11ea-b2b0-a77bbc9727ca
577be6a8-5255-11ea-9ce7-6be607d48c52,577c81f8-5255-11ea-a559-87003b86cc10
577b4ff4-5255-11ea-b839-27131f04a100,577c8928-5255-11ea-a0dd-3f0f6b4ed1f2
57774166-5255-11ea-a5d1-977e51e1a02a,577c913e-5255-11ea-b5a4-17e29340e90d
5777d5b8-5255-11ea-bc5a-27360ae8ae71,577c9864-5255-11ea-a369-c7905f997bca
577bd280-5255-11ea-9caf-4b8dd4b211df,577ca034-5255-11ea-af0a-8b000523e30d
57787f18-5255-11ea-b669-17ac3a5cc669,577ca818-5255-11ea-b03b-dbf6473be74a
577c81f8-5255-11ea-a559-87003b86cc10,577ccb18-5255-11ea-9e78-0bc8d0ef4e55
57793502-5255-11ea-b299-a793879c3cb9,577cd37e-5255-11ea-94d2-2b6911a7b2ae
