RunID,Agent,Age,Created,Inactive,Resources,Reputation,Ability,Que
run-2020-2-18-13-53-29.871675968,AGENT#0b6ff14a-5256-11ea-b589-f71cb2963a30,0,0,0,10,1.0,1.0,0
run-2020-2-18-13-53-29.871675968,AGENT#0b700ab8-5256-11ea-abc6-ff8d1b2d7e02,0,0,0,10,1.0,1.0,0
run-2020-2-18-13-53-29.871675968,AGENT#0b700568-5256-11ea-b40b-43770caf6909,1,0,1,10,1.0,1.0,0
run-2020-2-18-13-53-29.871675968,AGENT#0b706198-5256-11ea-a1fe-23fcc373a09a,1,0,1,10,1.0,1.0,0
run-2020-2-18-13-53-29.871675968,AGENT#0b6ff4ec-5256-11ea-aac7-372289b96088,2,0,2,10,1.0,1.0,0
run-2020-2-18-13-53-29.871675968,AGENT#0b7058ce-5256-11ea-8b8b-870510acfa34,2,0,2,10,1.0,1.0,0
run-2020-2-18-13-53-29.871675968,AGENT#0b700810-5256-11ea-96d7-af64e189962e,3,0,3,10,1.0,1.0,0
run-2020-2-18-13-53-29.871675968,AGENT#0b6ffd52-5256-11ea-8a5b-d7a2efe1065a,4,0,4,10,1.0,1.0,0
run-2020-2-18-13-53-29.871675968,AGENT#0b704d2a-5256-11ea-b9c2-f3f4042ec8d9,4,0,4,10,1.0,1.0,0
run-2020-2-18-13-53-29.871675968,AGENT#0b71431a-5256-11ea-9cdb-b3c3d36f7904,4,2,6,10,1.0,1.0,0
run-2020-2-18-13-53-29.871675968,AGENT#0b71d0aa-5256-11ea-ab2a-7ffb1daf79ed,2,4,6,10,1.0,1.0,0
run-2020-2-18-13-53-29.871675968,AGENT#0b723e50-5256-11ea-b250-0f9d43f66dd7,1,6,7,10,1.0,1.0,0
run-2020-2-18-13-53-29.871675968,AGENT#0b719662-5256-11ea-a7bf-d3766b04e61e,5,3,8,10,1.0,1.0,0
run-2020-2-18-13-53-29.871675968,AGENT#0b726c4a-5256-11ea-b650-57dbf775a5ca,1,7,8,10,1.0,1.0,0
run-2020-2-18-13-53-29.871675968,AGENT#0b72a35e-5256-11ea-90fa-fb8f33f4e407,1,8,9,10,1.0,1.0,0
run-2020-2-18-13-53-29.871675968,AGENT#0b72a930-5256-11ea-9873-ef6ccb64ebf1,1,8,9,10,1.0,1.0,0
run-2020-2-18-13-53-29.871675968,AGENT#0b72a638-5256-11ea-9b44-b73fab54cb88,2,8,10,10,1.0,1.0,0
run-2020-2-18-13-53-29.871675968,AGENT#0b72abf6-5256-11ea-ad1d-fb00f8036ef1,2,8,10,10,1.0,1.0,0
run-2020-2-18-13-53-29.871675968,AGENT#0b72e666-5256-11ea-85a5-8f573f0e5cba,1,9,10,10,1.0,1.0,0
run-2020-2-18-13-53-29.871675968,AGENT#0b72ec60-5256-11ea-a323-0f0145b1ba78,1,9,10,10,1.0,1.0,0
run-2020-2-18-13-53-29.871675968,AGENT#0b72a016-5256-11ea-a7eb-838c94669a91,3,8,11,10,1.0,1.0,0
run-2020-2-18-13-53-29.871675968,AGENT#0b72e346-5256-11ea-aee7-43c484521e6e,2,9,11,10,1.0,1.0,0
run-2020-2-18-13-53-29.871675968,AGENT#0b736136-5256-11ea-aafa-ebae9f76d960,1,11,12,10,1.0,1.0,0
run-2020-2-18-13-53-29.871675968,AGENT#0b739aca-5256-11ea-a538-e75c8675ffcd,1,12,13,10,1.0,1.0,0
run-2020-2-18-13-53-29.871675968,AGENT#0b73a2d6-5256-11ea-8e66-5bcf5ced45e4,1,12,13,10,1.0,1.0,0
run-2020-2-18-13-53-29.871675968,AGENT#0b7324dc-5256-11ea-8752-b7d7defcd720,4,10,14,10,1.0,1.0,0
run-2020-2-18-13-53-29.871675968,AGENT#0b7395fc-5256-11ea-b169-d39e4ac9cef5,2,12,14,10,1.0,1.0,0
run-2020-2-18-13-53-29.871675968,AGENT#0b73a5ba-5256-11ea-bca2-9f31178337dc,3,12,15,10,1.0,1.0,0
run-2020-2-18-13-53-29.871675968,AGENT#0b743d22-5256-11ea-9b8d-ab0b0e1c798f,1,14,15,10,1.0,1.0,0
run-2020-2-18-13-53-29.871675968,AGENT#0b743fd4-5256-11ea-b52f-cff4d2b9572e,1,14,15,10,1.0,1.0,0
run-2020-2-18-13-53-29.871675968,AGENT#0b739fc0-5256-11ea-994f-67e1eed20d29,4,12,16,10,1.0,1.0,0
run-2020-2-18-13-53-29.871675968,AGENT#0b73f308-5256-11ea-b36d-cb06f2d94bd0,3,13,16,10,1.0,1.0,0
run-2020-2-18-13-53-29.871675968,AGENT#0b74317e-5256-11ea-93fb-279112ee3a25,2,14,16,10,1.0,1.0,0
run-2020-2-18-13-53-29.871675968,AGENT#0b749d4e-5256-11ea-a9b1-bf6f2f1a2c50,1,15,16,10,1.0,1.0,0
run-2020-2-18-13-53-29.871675968,AGENT#0b7002ac-5256-11ea-8114-333f1e19bd16,17,0,17,10,1.0,1.0,0
run-2020-2-18-13-53-29.871675968,AGENT#0b72e97c-5256-11ea-922e-673429c0bdb4,9,9,18,10,1.0,1.0,0
run-2020-2-18-13-53-29.871675968,AGENT#0b743a66-5256-11ea-b3f1-bfd42df2289a,4,14,18,10,1.0,1.0,0
run-2020-2-18-13-53-29.871675968,AGENT#0b744484-5256-11ea-8b97-0b0459832251,4,14,18,10,1.0,1.0,0
run-2020-2-18-13-53-29.871675968,AGENT#0b749a88-5256-11ea-a66b-875ccf3e30ca,3,15,18,10,1.0,1.0,0
run-2020-2-18-13-53-29.871675968,AGENT#0b74a05a-5256-11ea-b574-83f3e53eda77,3,15,18,10,1.0,1.0,0
run-2020-2-18-13-53-29.871675968,AGENT#0b74ef38-5256-11ea-b62c-a78c6c41cb33,3,16,19,10,1.0,1.0,0
run-2020-2-18-13-53-29.871675968,AGENT#0b7542b2-5256-11ea-923a-df612b4735ff,2,17,19,10,1.0,1.0,0
run-2020-2-18-13-53-29.871675968,AGENT#0b759140-5256-11ea-a48a-7b243a64f744,1,18,19,10,1.0,1.0,0
run-2020-2-18-13-53-29.871675968,AGENT#0b74945c-5256-11ea-bc5c-43e135432619,5,15,20,10,1.0,1.0,0
run-2020-2-18-13-53-29.871675968,AGENT#0b7497ae-5256-11ea-a647-6b6dd4f5a9ee,5,15,20,10,1.0,1.0,0
run-2020-2-18-13-53-29.871675968,AGENT#0b75e19a-5256-11ea-a5f5-cf5f62e0bf49,1,19,20,10,1.0,1.0,0
run-2020-2-18-13-53-29.871675968,AGENT#0b75e492-5256-11ea-9653-c7705c8f5285,1,19,20,10,1.0,1.0,0
run-2020-2-18-13-53-29.871675968,AGENT#0b75de98-5256-11ea-a0e3-6b5e3df3a72c,2,19,21,10,1.0,1.0,0
run-2020-2-18-13-53-29.871675968,AGENT#0b75e758-5256-11ea-8726-d3729783b6fc,2,19,21,10,1.0,1.0,0
run-2020-2-18-13-53-29.871675968,AGENT#0b7534d4-5256-11ea-b028-8f1caf507beb,5,17,22,10,1.0,1.0,0
run-2020-2-18-13-53-29.871675968,AGENT#0b7537e0-5256-11ea-9d92-b74703cb59a1,5,17,22,10,1.0,1.0,0
run-2020-2-18-13-53-29.871675968,AGENT#0b753a92-5256-11ea-92bd-73a5e205a825,5,17,22,10,1.0,1.0,0
run-2020-2-18-13-53-29.871675968,AGENT#0b763276-5256-11ea-897b-0ff5b800d3ee,2,20,22,10,1.0,1.0,0
run-2020-2-18-13-53-29.871675968,AGENT#0b76815e-5256-11ea-b3e0-4b872eeb4711,1,21,22,10,1.0,1.0,0
run-2020-2-18-13-53-29.871675968,AGENT#0b7321da-5256-11ea-91f1-df38185a9bc1,14,10,24,10,1.0,1.0,0
run-2020-2-18-13-53-29.871675968,AGENT#0b76db54-5256-11ea-a75d-fb5c91c45b94,2,22,24,10,1.0,1.0,0
run-2020-2-18-13-53-29.871675968,AGENT#0b772870-5256-11ea-8f6d-f7f67d919981,1,23,24,10,1.0,1.0,0
run-2020-2-18-13-53-29.871675968,AGENT#0b7686c2-5256-11ea-bc2a-a3a0b3949657,4,21,25,10,1.0,1.0,0
run-2020-2-18-13-53-29.871675968,AGENT#0b772b0e-5256-11ea-8b47-33cef381501b,2,23,25,10,1.0,1.0,0
run-2020-2-18-13-53-29.871675968,AGENT#0b7783c4-5256-11ea-a5bb-3b7602c26797,1,24,25,10,1.0,1.0,0
run-2020-2-18-13-53-29.871675968,AGENT#0b73f02e-5256-11ea-8870-4b4f78c46383,13,13,26,10,1.0,1.0,0
run-2020-2-18-13-53-29.871675968,AGENT#0b76de38-5256-11ea-9179-2b8acbd8a8ac,4,22,26,10,1.0,1.0,0
run-2020-2-18-13-53-29.871675968,AGENT#0b772596-5256-11ea-8f3d-7b9cc8234059,3,23,26,10,1.0,1.0,0
run-2020-2-18-13-53-29.871675968,AGENT#0b778108-5256-11ea-b41c-3f38b220a552,2,24,26,10,1.0,1.0,0
run-2020-2-18-13-53-29.871675968,AGENT#0b77d2e8-5256-11ea-ac1b-87bbe808f7af,3,25,28,10,1.0,1.0,0
run-2020-2-18-13-53-29.871675968,AGENT#0b77db44-5256-11ea-89b2-738d8c693f22,4,25,29,10,1.0,1.0,0
run-2020-2-18-13-53-29.871675968,AGENT#0b78f218-5256-11ea-891a-b3eea9141785,1,28,29,10,1.0,1.0,0
run-2020-2-18-13-53-29.871675968,AGENT#0b78f722-5256-11ea-b6fe-2baa0ff32dc5,1,28,29,10,1.0,1.0,0
run-2020-2-18-13-53-29.871675968,AGENT#0b78f9ac-5256-11ea-8ad0-aba5c9878743,1,28,29,10,1.0,1.0,0
run-2020-2-18-13-53-29.871675968,AGENT#0b6ffaa0-5256-11ea-aabb-5779a187f256,30,0,30,10,1.0,1.0,0
run-2020-2-18-13-53-29.871675968,AGENT#0b7833a0-5256-11ea-896f-fbce33102a30,4,26,30,10,1.0,1.0,0
run-2020-2-18-13-53-29.871675968,AGENT#0b788cce-5256-11ea-b2f8-abd6bfa09dcd,3,27,30,10,1.0,1.0,0
run-2020-2-18-13-53-29.871675968,AGENT#0b78953e-5256-11ea-84ba-0fa983132a8c,3,27,30,10,1.0,1.0,0
run-2020-2-18-13-53-29.871675968,AGENT#0b78ecd2-5256-11ea-adee-0318831e0bc5,2,28,30,10,1.0,1.0,0
run-2020-2-18-13-53-29.871675968,AGENT#0b78f4a2-5256-11ea-adad-73b3ecffeb8d,2,28,30,10,1.0,1.0,0
run-2020-2-18-13-53-29.871675968,AGENT#0b753fe2-5256-11ea-893c-1f8f28f0cb3b,14,17,31,10,1.0,1.0,0
run-2020-2-18-13-53-29.871675968,AGENT#0b78ef70-5256-11ea-bed8-43d3741ce1f6,3,28,31,10,1.0,1.0,0
run-2020-2-18-13-53-29.871675968,AGENT#0b78fc40-5256-11ea-bd42-0b6be495ff98,3,28,31,10,1.0,1.0,0
run-2020-2-18-13-53-29.871675968,AGENT#0b7961bc-5256-11ea-a7c9-8fc55216486c,2,29,31,10,1.0,1.0,0
run-2020-2-18-13-53-29.871675968,AGENT#0b79ccce-5256-11ea-8ba2-3b87c0be588a,1,30,31,10,1.0,1.0,0
run-2020-2-18-13-53-29.871675968,AGENT#0b795f0a-5256-11ea-b8d0-2faaff815a46,3,29,32,10,1.0,1.0,0
run-2020-2-18-13-53-29.871675968,AGENT#0b7a2c0a-5256-11ea-bcc9-8b4b45296b21,1,31,32,10,1.0,1.0,0
run-2020-2-18-13-53-29.871675968,AGENT#0b7a2ed0-5256-11ea-90b5-839490df1fe1,1,31,32,10,1.0,1.0,0
run-2020-2-18-13-53-29.871675968,AGENT#0b719126-5256-11ea-a916-479b2f1e3220,30,3,33,10,1.0,1.0,0
run-2020-2-18-13-53-29.871675968,AGENT#0b79ca1c-5256-11ea-954d-1f6d51f41fed,3,30,33,10,1.0,1.0,0
run-2020-2-18-13-53-29.871675968,AGENT#0b7a342a-5256-11ea-b89b-4b40fbc19a83,2,31,33,10,1.0,1.0,0
run-2020-2-18-13-53-29.871675968,AGENT#0b7a318c-5256-11ea-af62-b7f6d8a3d8ec,4,31,35,10,1.0,1.0,0
run-2020-2-18-13-53-29.871675968,AGENT#0b7af6c6-5256-11ea-8821-27fcc78c49b9,2,33,35,10,1.0,1.0,0
run-2020-2-18-13-53-29.871675968,AGENT#0b7b5710-5256-11ea-b6a5-03babf2cf3ea,1,34,35,10,1.0,1.0,0
run-2020-2-18-13-53-29.871675968,AGENT#0b7af450-5256-11ea-b814-735e2c6df79f,3,33,36,10,1.0,1.0,0
run-2020-2-18-13-53-29.871675968,AGENT#0b7be450-5256-11ea-a9aa-337fd0b74130,1,35,36,10,1.0,1.0,0
run-2020-2-18-13-53-29.871675968,AGENT#0b7bebbc-5256-11ea-84ba-ff1f2907dd69,1,35,36,10,1.0,1.0,0
run-2020-2-18-13-53-29.871675968,AGENT#0b7afbb2-5256-11ea-a63c-5f4b124c1e03,4,33,37,10,1.0,1.0,0
run-2020-2-18-13-53-29.871675968,AGENT#0b7b5f26-5256-11ea-986a-6fdd1b9f0520,3,34,37,10,1.0,1.0,0
run-2020-2-18-13-53-29.871675968,AGENT#0b7be806-5256-11ea-9934-5baa3d821acf,2,35,37,10,1.0,1.0,0
run-2020-2-18-13-53-29.871675968,AGENT#0b735b1e-5256-11ea-94aa-a39c52e5f548,27,11,38,10,1.0,1.0,0
run-2020-2-18-13-53-29.871675968,AGENT#0b7b61ce-5256-11ea-ab68-3f6191d9b2a8,4,34,38,10,1.0,1.0,0
run-2020-2-18-13-53-29.871675968,AGENT#0b7c8a04-5256-11ea-9aaa-b760872275cb,2,36,38,10,1.0,1.0,0
run-2020-2-18-13-53-29.871675968,AGENT#0b7d22de-5256-11ea-9b9b-57fe82362b12,1,37,38,10,1.0,1.0,0
run-2020-2-18-13-53-29.871675968,AGENT#0b7dba32-5256-11ea-92a0-a71c147948b7,1,38,39,10,1.0,1.0,0
run-2020-2-18-13-53-29.871675968,AGENT#0b7bdcb2-5256-11ea-9809-57674ef2267d,5,35,40,10,1.0,1.0,0
run-2020-2-18-13-53-29.871675968,AGENT#0b7be072-5256-11ea-9a37-9f7b523ee66f,5,35,40,10,1.0,1.0,0
run-2020-2-18-13-53-29.871675968,AGENT#0b7db708-5256-11ea-88c8-eb265e4f04b4,2,38,40,10,1.0,1.0,0
run-2020-2-18-13-53-29.871675968,AGENT#0b7db0c8-5256-11ea-86e9-03900bca3bc8,3,38,41,10,1.0,1.0,0
run-2020-2-18-13-53-29.871675968,AGENT#0b7e369c-5256-11ea-9611-47d1020ced1a,2,39,41,10,1.0,1.0,0
run-2020-2-18-13-53-29.871675968,AGENT#0b7e394e-5256-11ea-b559-afc6888f7835,2,39,41,10,1.0,1.0,0
run-2020-2-18-13-53-29.871675968,AGENT#0b77d5e0-5256-11ea-9be4-43663e7dc189,17,25,42,10,1.0,1.0,0
run-2020-2-18-13-53-29.871675968,AGENT#0b7e33a4-5256-11ea-b342-3751135437f1,3,39,42,10,1.0,1.0,0
run-2020-2-18-13-53-29.871675968,AGENT#0b7e3bf6-5256-11ea-9a27-c714076097c1,3,39,42,10,1.0,1.0,0
run-2020-2-18-13-53-29.871675968,AGENT#0b720502-5256-11ea-8116-838dd57e7677,38,5,43,10,1.0,1.0,0
run-2020-2-18-13-53-29.871675968,AGENT#0b7db3fc-5256-11ea-be92-b731de4fe813,5,38,43,10,1.0,1.0,0
run-2020-2-18-13-53-29.871675968,AGENT#0b700004-5256-11ea-aa46-5b3f8048531b,44,0,44,10,1.0,1.0,0
run-2020-2-18-13-53-29.871675968,AGENT#0b7eba40-5256-11ea-85ba-877c07833d1f,4,40,44,10,1.0,1.0,0
run-2020-2-18-13-53-29.871675968,AGENT#0b7f310a-5256-11ea-a4a1-dbbf63f44823,3,41,44,10,1.0,1.0,0
run-2020-2-18-13-53-29.871675968,AGENT#0b70504a-5256-11ea-9f03-674cc040a5de,45,0,45,10,1.0,1.0,0
run-2020-2-18-13-53-29.871675968,AGENT#0b753d3a-5256-11ea-b295-272e2721b6bb,28,17,45,10,1.0,1.0,0
run-2020-2-18-13-53-29.871675968,AGENT#0b79c738-5256-11ea-9df6-176e3e87ddb0,15,30,45,10,1.0,1.0,0
run-2020-2-18-13-53-29.871675968,AGENT#0b7fafb8-5256-11ea-8cd8-930c28df0423,3,42,45,10,1.0,1.0,0
run-2020-2-18-13-53-29.871675968,AGENT#0b809c8e-5256-11ea-965b-bfbdab60750b,1,44,45,10,1.0,1.0,0
run-2020-2-18-13-53-29.871675968,AGENT#0b809f04-5256-11ea-9fcb-0775caeb5f22,1,44,45,10,1.0,1.0,0
run-2020-2-18-13-53-29.871675968,AGENT#0b705338-5256-11ea-aa93-6fe6a843782c,46,0,46,10,1.0,1.0,0
run-2020-2-18-13-53-29.871675968,AGENT#0b706602-5256-11ea-ae77-270729e8171b,46,0,46,10,1.0,1.0,0
run-2020-2-18-13-53-29.871675968,AGENT#0b811ace-5256-11ea-9741-c79a79f7c1f6,1,45,46,10,1.0,1.0,0
run-2020-2-18-13-53-29.871675968,AGENT#0b812686-5256-11ea-a5dd-ffb1389ae5a0,1,45,46,10,1.0,1.0,0
run-2020-2-18-13-53-29.871675968,AGENT#0b6ff7c6-5256-11ea-8aad-ebe42c1d8ee3,47,0,47,10,1.0,1.0,0
run-2020-2-18-13-53-29.871675968,AGENT#0b7faaae-5256-11ea-893d-2705bca0dba3,5,42,47,10,1.0,1.0,0
run-2020-2-18-13-53-29.871675968,AGENT#0b80a1a2-5256-11ea-8b61-4b386d262a0c,3,44,47,10,1.0,1.0,0
run-2020-2-18-13-53-29.871675968,AGENT#0b812208-5256-11ea-a8dd-1b3be0588d45,2,45,47,10,1.0,1.0,0
run-2020-2-18-13-53-29.871675968,AGENT#0b809a0e-5256-11ea-ad72-5b779e859b56,4,44,48,10,1.0,1.0,0
run-2020-2-18-13-53-29.871675968,AGENT#0b81a3ae-5256-11ea-8efc-6fe06d738a8e,2,46,48,10,1.0,1.0,0
run-2020-2-18-13-53-29.871675968,AGENT#0b7055f4-5256-11ea-9a71-034667e6ea58,49,0,49,10,1.0,1.0,0
run-2020-2-18-13-53-29.871675968,AGENT#0b829548-5256-11ea-bdce-e740b2fd06c1,1,48,49,10,1.0,1.0,0
run-2020-2-18-13-53-29.871675968,AGENT#0b811fb0-5256-11ea-97de-6fb1389a831f,5,45,50,10,1.0,1.0,0
run-2020-2-18-13-53-29.871675968,AGENT#0b822478-5256-11ea-91af-1f321921e1db,3,47,50,10,1.0,1.0,0
run-2020-2-18-13-53-29.871675968,AGENT#0b82982c-5256-11ea-ad52-5f4c3ba516ea,2,48,50,10,1.0,1.0,0
run-2020-2-18-13-53-29.871675968,AGENT#0b8311c6-5256-11ea-bf8d-a747a929fe15,1,49,50,10,1.0,1.0,0
run-2020-2-18-13-53-29.871675968,AGENT#0b77229e-5256-11ea-b925-d346b3d00605,28,23,51,10,1.0,1.0,0
run-2020-2-18-13-53-29.871675968,AGENT#0b8221d0-5256-11ea-9926-93f4bd01505c,4,47,51,10,1.0,1.0,0
run-2020-2-18-13-53-29.871675968,AGENT#0b830f3c-5256-11ea-9fc9-3beb66214e73,2,49,51,10,1.0,1.0,0
run-2020-2-18-13-53-29.871675968,AGENT#0b8392b8-5256-11ea-88c1-3363225b3836,1,50,51,10,1.0,1.0,0
run-2020-2-18-13-53-29.871675968,AGENT#0b8404dc-5256-11ea-ba5e-07c4d8fa3ba8,1,51,52,10,1.0,1.0,0
run-2020-2-18-13-53-29.871675968,AGENT#0b829a84-5256-11ea-b672-f3739991be7d,5,48,53,10,1.0,1.0,0
run-2020-2-18-13-53-29.871675968,AGENT#0b84075c-5256-11ea-abd9-27ae20ec8549,2,51,53,10,1.0,1.0,0
run-2020-2-18-13-53-29.871675968,AGENT#0b848f56-5256-11ea-8c03-bfdbf1a076d9,2,52,54,10,1.0,1.0,0
run-2020-2-18-13-53-29.871675968,AGENT#0b85042c-5256-11ea-bbce-db327de33846,1,53,54,10,1.0,1.0,0
run-2020-2-18-13-53-29.871675968,AGENT#0b7af180-5256-11ea-858d-7b4fb5fa5d5d,22,33,55,10,1.0,1.0,0
run-2020-2-18-13-53-29.871675968,AGENT#0b7daa24-5256-11ea-b129-97df9102deaa,17,38,55,10,1.0,1.0,0
run-2020-2-18-13-53-29.871675968,AGENT#0b85068e-5256-11ea-9fc9-3bbae931a3a7,2,53,55,10,1.0,1.0,0
run-2020-2-18-13-53-29.871675968,AGENT#0b735e52-5256-11ea-9a5e-d3b786631c9e,45,11,56,10,1.0,1.0,0
run-2020-2-18-13-53-29.871675968,AGENT#0b7b5a12-5256-11ea-8702-e35bd3bc44fe,22,34,56,10,1.0,1.0,0
run-2020-2-18-13-53-29.871675968,AGENT#0b85015c-5256-11ea-a727-6b03a224ec20,3,53,56,10,1.0,1.0,0
run-2020-2-18-13-53-29.871675968,AGENT#0b857f92-5256-11ea-ac54-bfa6f448c0a1,2,54,56,10,1.0,1.0,0
run-2020-2-18-13-53-29.871675968,AGENT#0b860f98-5256-11ea-8cec-47cc810eecda,1,55,56,10,1.0,1.0,0
run-2020-2-18-13-53-29.871675968,AGENT#0b86120e-5256-11ea-822a-bff692bf9915,1,55,56,10,1.0,1.0,0
run-2020-2-18-13-53-29.871675968,AGENT#0b78e9e4-5256-11ea-bf14-4327673d3ceb,29,28,57,10,1.0,1.0,0
run-2020-2-18-13-53-29.871675968,AGENT#0b7d1f64-5256-11ea-818b-0f7fd70404e2,20,37,57,10,1.0,1.0,0
run-2020-2-18-13-53-29.871675968,AGENT#0b8128c0-5256-11ea-8024-8bd2b96bf82f,12,45,57,10,1.0,1.0,0
run-2020-2-18-13-53-29.871675968,AGENT#0b85824e-5256-11ea-92cb-9f8984881942,3,54,57,10,1.0,1.0,0
run-2020-2-18-13-53-29.871675968,AGENT#0b85873a-5256-11ea-9be5-d3663228d53f,3,54,57,10,1.0,1.0,0
run-2020-2-18-13-53-29.871675968,AGENT#0b73ece6-5256-11ea-a983-636718503229,45,13,58,10,1.0,1.0,0
run-2020-2-18-13-53-29.871675968,AGENT#0b860cdc-5256-11ea-9038-23fa9f0673db,3,55,58,10,1.0,1.0,0
run-2020-2-18-13-53-29.871675968,AGENT#0b8698aa-5256-11ea-b200-3faf876eb7c5,2,56,58,10,1.0,1.0,0
run-2020-2-18-13-53-29.871675968,AGENT#0b87248c-5256-11ea-bc2d-2b71661b6808,1,57,58,10,1.0,1.0,0
run-2020-2-18-13-53-29.871675968,AGENT#0b74349e-5256-11ea-9b24-53c1e1616c37,45,14,59,10,1.0,1.0,0
run-2020-2-18-13-53-29.871675968,AGENT#0b74378c-5256-11ea-b606-0b269d89fe24,45,14,59,10,1.0,1.0,0
run-2020-2-18-13-53-29.871675968,AGENT#0b7bd884-5256-11ea-81e4-0f08793244d3,24,35,59,10,1.0,1.0,0
run-2020-2-18-13-53-29.871675968,AGENT#0b8589f6-5256-11ea-ab4c-57314027c8ee,5,54,59,10,1.0,1.0,0
run-2020-2-18-13-53-29.871675968,AGENT#0b8726f8-5256-11ea-b124-0b25c1335a6c,2,57,59,10,1.0,1.0,0
run-2020-2-18-13-53-29.871675968,AGENT#0b872e32-5256-11ea-8a85-af2d8e8eaa82,2,57,59,10,1.0,1.0,0
run-2020-2-18-13-53-29.871675968,AGENT#0b87bd48-5256-11ea-80f5-f3a5b40ae53c,1,58,59,10,1.0,1.0,0
run-2020-2-18-13-53-29.871675968,AGENT#0b8614fc-5256-11ea-9a39-d759d74b0988,5,55,60,10,1.0,1.0,0
run-2020-2-18-13-53-29.871675968,AGENT#0b869aee-5256-11ea-a7ad-3352dc9567f4,4,56,60,10,1.0,1.0,0
run-2020-2-18-13-53-29.871675968,AGENT#0b869620-5256-11ea-9a53-6f32f4f82e48,5,56,61,10,1.0,1.0,0
run-2020-2-18-13-53-29.871675968,AGENT#0b8721c6-5256-11ea-89fc-3f78bed1620e,4,57,61,10,1.0,1.0,0
run-2020-2-18-13-53-29.871675968,AGENT#0b88c756-5256-11ea-a96b-674eb16eb26a,1,60,61,10,1.0,1.0,0
run-2020-2-18-13-53-29.871675968,AGENT#0b88ca12-5256-11ea-8af4-37e85e676b58,1,60,61,10,1.0,1.0,0
run-2020-2-18-13-53-29.871675968,AGENT#0b88cc7e-5256-11ea-9b87-7f9564c40662,1,60,61,10,1.0,1.0,0
run-2020-2-18-13-53-29.871675968,AGENT#0b87bae6-5256-11ea-abba-d78a66a76921,4,58,62,10,1.0,1.0,0
run-2020-2-18-13-53-29.871675968,AGENT#0b894df2-5256-11ea-b0fe-ef6a3e9bd2db,1,61,62,10,1.0,1.0,0
run-2020-2-18-13-53-29.871675968,AGENT#0b77ddce-5256-11ea-b5ec-0bfc7ec5e93f,38,25,63,10,1.0,1.0,0
run-2020-2-18-13-53-29.871675968,AGENT#0b74f230-5256-11ea-b593-3bdd559e37b7,48,16,64,10,1.0,1.0,0
run-2020-2-18-13-53-29.871675968,AGENT#0b8848f8-5256-11ea-818b-bfa7c49a9006,5,59,64,10,1.0,1.0,0
run-2020-2-18-13-53-29.871675968,AGENT#0b89ce94-5256-11ea-8f72-878243b90a61,2,62,64,10,1.0,1.0,0
run-2020-2-18-13-53-29.871675968,AGENT#0b8a4784-5256-11ea-90cd-57d54e9d8060,1,63,64,10,1.0,1.0,0
run-2020-2-18-13-53-29.871675968,AGENT#0b8a4a04-5256-11ea-aa24-479f794eac43,1,63,64,10,1.0,1.0,0
run-2020-2-18-13-53-29.871675968,AGENT#0b76841a-5256-11ea-80ae-170a0103b0eb,44,21,65,10,1.0,1.0,0
run-2020-2-18-13-53-29.871675968,AGENT#0b8a4ea0-5256-11ea-b620-df0467afca39,2,63,65,10,1.0,1.0,0
run-2020-2-18-13-53-29.871675968,AGENT#0b8a50ee-5256-11ea-aaff-878d9b9ced6f,2,63,65,10,1.0,1.0,0
run-2020-2-18-13-53-29.871675968,AGENT#0b8af274-5256-11ea-9410-77f1e7500a53,1,64,65,10,1.0,1.0,0
run-2020-2-18-13-53-29.871675968,AGENT#0b895086-5256-11ea-af53-9f0c8e34325c,5,61,66,10,1.0,1.0,0
run-2020-2-18-13-53-29.871675968,AGENT#0b89cbec-5256-11ea-b1ee-d326259721be,4,62,66,10,1.0,1.0,0
run-2020-2-18-13-53-29.871675968,AGENT#0b8a535a-5256-11ea-9c8f-6f41d529a2bf,4,63,67,10,1.0,1.0,0
run-2020-2-18-13-53-29.871675968,AGENT#0b8aef9a-5256-11ea-b8a8-43dbc69f0f37,3,64,67,10,1.0,1.0,0
run-2020-2-18-13-53-29.871675968,AGENT#0b768974-5256-11ea-aa8b-03aea60c0159,47,21,68,10,1.0,1.0,0
run-2020-2-18-13-53-29.871675968,AGENT#0b772dac-5256-11ea-9954-bf5e2239950e,45,23,68,10,1.0,1.0,0
run-2020-2-18-13-53-29.871675968,AGENT#0b8b82e8-5256-11ea-b68f-23be51cbf639,3,65,68,10,1.0,1.0,0
run-2020-2-18-13-53-29.871675968,AGENT#0b767e20-5256-11ea-9a8f-2f1eae80c464,48,21,69,10,1.0,1.0,0
run-2020-2-18-13-53-29.871675968,AGENT#0b7aeeb0-5256-11ea-8f20-1302cba49f1a,36,33,69,10,1.0,1.0,0
run-2020-2-18-13-53-29.871675968,AGENT#0b8b8554-5256-11ea-b733-976fb565dd83,4,65,69,10,1.0,1.0,0
run-2020-2-18-13-53-29.871675968,AGENT#0b8c0cfe-5256-11ea-ad31-afbcdbc69f11,3,66,69,10,1.0,1.0,0
run-2020-2-18-13-53-29.871675968,AGENT#0b8c9700-5256-11ea-9a68-7ba829b9e58c,2,67,69,10,1.0,1.0,0
run-2020-2-18-13-53-29.871675968,AGENT#0b8d4984-5256-11ea-8650-ab9e7ac0b3d1,1,68,69,10,1.0,1.0,0
run-2020-2-18-13-53-29.871675968,AGENT#0b777da2-5256-11ea-8949-f3a228922127,46,24,70,10,1.0,1.0,0
run-2020-2-18-13-53-29.871675968,AGENT#0b77d89c-5256-11ea-bfb5-4bc8aa602ed2,45,25,70,10,1.0,1.0,0
run-2020-2-18-13-53-29.871675968,AGENT#0b8c99b2-5256-11ea-9591-9bc834039038,3,67,70,10,1.0,1.0,0
run-2020-2-18-13-53-29.871675968,AGENT#0b8df8c0-5256-11ea-9a89-2bc767f05c4d,1,69,70,10,1.0,1.0,0
run-2020-2-18-13-53-29.871675968,AGENT#0b783698-5256-11ea-a637-a77d2cdc6adc,45,26,71,10,1.0,1.0,0
run-2020-2-18-13-53-29.871675968,AGENT#0b8d53f2-5256-11ea-bcb3-8798e90987a2,3,68,71,10,1.0,1.0,0
run-2020-2-18-13-53-29.871675968,AGENT#0b8d5636-5256-11ea-ada3-63161cc3b257,3,68,71,10,1.0,1.0,0
run-2020-2-18-13-53-29.871675968,AGENT#0b8ea054-5256-11ea-8a7a-cf1fb8327334,1,70,71,10,1.0,1.0,0
run-2020-2-18-13-53-29.871675968,AGENT#0b788fda-5256-11ea-91e3-0f84144d488d,45,27,72,10,1.0,1.0,0
run-2020-2-18-13-53-29.871675968,AGENT#0b8ca54c-5256-11ea-96c9-cfd6fdf601cc,5,67,72,10,1.0,1.0,0
run-2020-2-18-13-53-29.871675968,AGENT#0b8d4c54-5256-11ea-bf88-2b9396e5e6b8,4,68,72,10,1.0,1.0,0
run-2020-2-18-13-53-29.871675968,AGENT#0b78928c-5256-11ea-8b0d-37c938e9d7b1,46,27,73,10,1.0,1.0,0
run-2020-2-18-13-53-29.871675968,AGENT#0b8b7b40-5256-11ea-bfa2-278b70bc7d31,8,65,73,10,1.0,1.0,0
run-2020-2-18-13-53-29.871675968,AGENT#0b8d4f38-5256-11ea-bb20-6fc64767f389,5,68,73,10,1.0,1.0,0
run-2020-2-18-13-53-29.871675968,AGENT#0b8dfb22-5256-11ea-966f-0361a0c8b80a,4,69,73,10,1.0,1.0,0
run-2020-2-18-13-53-29.871675968,AGENT#0b8e967c-5256-11ea-b005-9799d35c25ae,3,70,73,10,1.0,1.0,0
run-2020-2-18-13-53-29.871675968,AGENT#0b8fe842-5256-11ea-8557-c70548149bae,1,72,73,10,1.0,1.0,0
run-2020-2-18-13-53-29.871675968,AGENT#0b795c44-5256-11ea-a4ac-678971033351,45,29,74,10,1.0,1.0,0
run-2020-2-18-13-53-29.871675968,AGENT#0b8952de-5256-11ea-a572-9bbadd9c6af7,13,61,74,10,1.0,1.0,0
run-2020-2-18-13-53-29.871675968,AGENT#0b8df604-5256-11ea-b58d-5b257f197211,5,69,74,10,1.0,1.0,0
run-2020-2-18-13-53-29.871675968,AGENT#0b8fed4c-5256-11ea-89a3-e7d37502eb47,2,72,74,10,1.0,1.0,0
run-2020-2-18-13-53-29.871675968,AGENT#0b909ecc-5256-11ea-9c7c-9b8c53272271,1,73,74,10,1.0,1.0,0
run-2020-2-18-13-53-29.871675968,AGENT#0b90a142-5256-11ea-b042-73b16636df6e,1,73,74,10,1.0,1.0,0
run-2020-2-18-13-53-29.871675968,AGENT#0b79cf8a-5256-11ea-8b7b-23829912fe26,45,30,75,10,1.0,1.0,0
run-2020-2-18-13-53-29.871675968,AGENT#0b8e9938-5256-11ea-9388-6b2e45372144,5,70,75,10,1.0,1.0,0
run-2020-2-18-13-53-29.871675968,AGENT#0b8e9e06-5256-11ea-9619-bf5d01a9ef71,5,70,75,10,1.0,1.0,0
run-2020-2-18-13-53-29.871675968,AGENT#0b8f4798-5256-11ea-82b0-f745184972b4,4,71,75,10,1.0,1.0,0
run-2020-2-18-13-53-29.871675968,AGENT#0b8f4c3e-5256-11ea-9330-c324c459be28,4,71,75,10,1.0,1.0,0
run-2020-2-18-13-53-29.871675968,AGENT#0b895522-5256-11ea-8a01-eb1d4d3d6f89,16,61,77,10,1.0,1.0,0
run-2020-2-18-13-53-29.871675968,AGENT#0b8fead6-5256-11ea-a04f-ff66e8e8a29e,5,72,77,10,1.0,1.0,0
run-2020-2-18-13-53-29.871675968,AGENT#0b90a3b8-5256-11ea-b7ef-f7a585ce1174,4,73,77,10,1.0,1.0,0
run-2020-2-18-13-53-29.871675968,AGENT#0b91f326-5256-11ea-9ce5-ebb46534075f,2,75,77,10,1.0,1.0,0
run-2020-2-18-13-53-29.871675968,AGENT#0b7af93c-5256-11ea-a9f4-e3095162fc56,45,33,78,10,1.0,1.0,0
run-2020-2-18-13-53-29.871675968,AGENT#0b872ba8-5256-11ea-9fdc-4be61cb6b0e7,21,57,78,10,1.0,1.0,0
run-2020-2-18-13-53-29.871675968,AGENT#0b91ec5a-5256-11ea-b19f-77d48be22a3b,3,75,78,10,1.0,1.0,0
run-2020-2-18-13-53-29.871675968,AGENT#0b91f0ce-5256-11ea-9f87-2313913cb411,3,75,78,10,1.0,1.0,0
run-2020-2-18-13-53-29.871675968,AGENT#0b7b5ca6-5256-11ea-bc95-a35cc83e39dd,45,34,79,10,1.0,1.0,0
run-2020-2-18-13-53-29.871675968,AGENT#0b9296c8-5256-11ea-88ef-77056d5de0d0,3,76,79,10,1.0,1.0,0
run-2020-2-18-13-53-29.871675968,AGENT#0b934b0e-5256-11ea-8c32-6bda94e9391e,2,77,79,10,1.0,1.0,0
run-2020-2-18-13-53-29.871675968,AGENT#0b93fe96-5256-11ea-8eb0-bbce721285bd,1,78,79,10,1.0,1.0,0
run-2020-2-18-13-53-29.871675968,AGENT#0b94012a-5256-11ea-8d55-431e8f783e27,1,78,79,10,1.0,1.0,0
run-2020-2-18-13-53-29.871675968,AGENT#0b9352ca-5256-11ea-baba-4731dfb12ef3,3,77,80,10,1.0,1.0,0
run-2020-2-18-13-53-29.871675968,AGENT#0b7c8310-5256-11ea-94f4-fbbd188af3ba,45,36,81,10,1.0,1.0,0
run-2020-2-18-13-53-29.871675968,AGENT#0b7c86a8-5256-11ea-8d75-97d5ae22188a,45,36,81,10,1.0,1.0,0
run-2020-2-18-13-53-29.871675968,AGENT#0b94b048-5256-11ea-92fa-9b09c83b7a2c,2,79,81,10,1.0,1.0,0
run-2020-2-18-13-53-29.871675968,AGENT#0b955d90-5256-11ea-b7b9-bb077689e525,1,80,81,10,1.0,1.0,0
run-2020-2-18-13-53-29.871675968,AGENT#0b956862-5256-11ea-9085-2b24b4a1666f,1,80,81,10,1.0,1.0,0
run-2020-2-18-13-53-29.871675968,AGENT#0b934dde-5256-11ea-bf67-e3c4374df29e,5,77,82,10,1.0,1.0,0
run-2020-2-18-13-53-29.871675968,AGENT#0b94adf0-5256-11ea-afff-cbd924301421,3,79,82,10,1.0,1.0,0
run-2020-2-18-13-53-29.871675968,AGENT#0b955b38-5256-11ea-b413-1f7a2c15a588,2,80,82,10,1.0,1.0,0
run-2020-2-18-13-53-29.871675968,AGENT#0b95660a-5256-11ea-9464-cf053e03b127,2,80,82,10,1.0,1.0,0
run-2020-2-18-13-53-29.871675968,AGENT#0b7dada8-5256-11ea-aca7-ffcab0606a2b,46,38,84,10,1.0,1.0,0
run-2020-2-18-13-53-29.871675968,AGENT#0b7d1b54-5256-11ea-aaa0-274b57545b03,48,37,85,10,1.0,1.0,0
run-2020-2-18-13-53-29.871675968,AGENT#0b7ebcfc-5256-11ea-b267-e3f9e6cf8652,45,40,85,10,1.0,1.0,0
run-2020-2-18-13-53-29.871675968,AGENT#0b81a62e-5256-11ea-b6a5-77b824b84aa4,39,46,85,10,1.0,1.0,0
run-2020-2-18-13-53-29.871675968,AGENT#0b977fc6-5256-11ea-93b1-2f55fab852e0,2,83,85,10,1.0,1.0,0
run-2020-2-18-13-53-29.871675968,AGENT#0b97857a-5256-11ea-bfbb-3be371e36641,2,83,85,10,1.0,1.0,0
run-2020-2-18-13-53-29.871675968,AGENT#0b983bbe-5256-11ea-bed5-0ba4b8b10c2d,1,84,85,10,1.0,1.0,0
run-2020-2-18-13-53-29.871675968,AGENT#0b984082-5256-11ea-8a05-db305ab9f8da,1,84,85,10,1.0,1.0,0
run-2020-2-18-13-53-29.871675968,AGENT#0b978a3e-5256-11ea-b098-bfc362c45c70,3,83,86,10,1.0,1.0,0
run-2020-2-18-13-53-29.871675968,AGENT#0b983e34-5256-11ea-b410-afe8ba4df6ae,2,84,86,10,1.0,1.0,0
run-2020-2-18-13-53-29.871675968,AGENT#0b914dfe-5256-11ea-b2fb-a743a187f70b,13,74,87,10,1.0,1.0,0
run-2020-2-18-13-53-29.871675968,AGENT#0b7f2e62-5256-11ea-82f0-57ade5448b8e,47,41,88,10,1.0,1.0,0
run-2020-2-18-13-53-29.871675968,AGENT#0b9842da-5256-11ea-a06d-4bb7d50915a8,4,84,88,10,1.0,1.0,0
run-2020-2-18-13-53-29.871675968,AGENT#0b99e432-5256-11ea-a0d4-3fee87410262,2,86,88,10,1.0,1.0,0
run-2020-2-18-13-53-29.871675968,AGENT#0b9ab786-5256-11ea-a19f-6322689863b7,1,87,88,10,1.0,1.0,0
run-2020-2-18-13-53-29.871675968,AGENT#0b7f3376-5256-11ea-aa69-83788510ac92,48,41,89,10,1.0,1.0,0
run-2020-2-18-13-53-29.871675968,AGENT#0b809752-5256-11ea-b6f1-d724d9a70695,45,44,89,10,1.0,1.0,0
run-2020-2-18-13-53-29.871675968,AGENT#0b87b848-5256-11ea-9499-234e310117db,31,58,89,10,1.0,1.0,0
run-2020-2-18-13-53-29.871675968,AGENT#0b9ac190-5256-11ea-ab82-a33ae6c8568c,2,87,89,10,1.0,1.0,0
run-2020-2-18-13-53-29.871675968,AGENT#0b8fefb8-5256-11ea-add1-efef6a6bbc47,18,72,90,10,1.0,1.0,0
run-2020-2-18-13-53-29.871675968,AGENT#0b991ab6-5256-11ea-b40b-8bf5eca4ae7d,5,85,90,10,1.0,1.0,0
run-2020-2-18-13-53-29.871675968,AGENT#0b9abcb8-5256-11ea-ac78-b3031f12f81e,3,87,90,10,1.0,1.0,0
run-2020-2-18-13-53-29.871675968,AGENT#0b811d58-5256-11ea-aa29-b74d1b574d81,46,45,91,10,1.0,1.0,0
run-2020-2-18-13-53-29.871675968,AGENT#0b81244c-5256-11ea-898c-db67fda42ee4,46,45,91,10,1.0,1.0,0
run-2020-2-18-13-53-29.871675968,AGENT#0b9aba4c-5256-11ea-8df0-972457ab66f7,4,87,91,10,1.0,1.0,0
run-2020-2-18-13-53-29.871675968,AGENT#0b9c77a6-5256-11ea-b781-cb87fafb23d0,2,89,91,10,1.0,1.0,0
run-2020-2-18-13-53-29.871675968,AGENT#0b872950-5256-11ea-98d3-0f38e177204e,36,57,93,10,1.0,1.0,0
run-2020-2-18-13-53-29.871675968,AGENT#0b8a4c52-5256-11ea-98d9-afef57bd0e50,30,63,93,10,1.0,1.0,0
run-2020-2-18-13-53-29.871675968,AGENT#0b9c7472-5256-11ea-acb9-b71c1a52a297,4,89,93,10,1.0,1.0,0
run-2020-2-18-13-53-29.871675968,AGENT#0b9ec47a-5256-11ea-9dc2-83482b24a2be,1,92,93,10,1.0,1.0,0
run-2020-2-18-13-53-29.871675968,AGENT#0b9ec6b4-5256-11ea-97ee-b3fbfeb45e22,1,92,93,10,1.0,1.0,0
run-2020-2-18-13-53-29.871675968,AGENT#0b7fad56-5256-11ea-a57f-ebcc7cd3345c,52,42,94,10,1.0,1.0,0
run-2020-2-18-13-53-29.871675968,AGENT#0b9ff5e8-5256-11ea-9411-e38103816883,1,93,94,10,1.0,1.0,0
run-2020-2-18-13-53-29.871675968,AGENT#0b839006-5256-11ea-8cc4-8b0848921c41,45,50,95,10,1.0,1.0,0
run-2020-2-18-13-53-29.871675968,AGENT#0b9ecd6c-5256-11ea-8b18-9f92035e9094,3,92,95,10,1.0,1.0,0
run-2020-2-18-13-53-29.871675968,AGENT#0b9fec1a-5256-11ea-b027-ff1a87bb19cc,2,93,95,10,1.0,1.0,0
run-2020-2-18-13-53-29.871675968,AGENT#0ba0e6ba-5256-11ea-8fbc-d74379c84bfd,1,94,95,10,1.0,1.0,0
run-2020-2-18-13-53-29.871675968,AGENT#0b801f16-5256-11ea-99ab-57e4872f7b5b,53,43,96,10,1.0,1.0,0
run-2020-2-18-13-53-29.871675968,AGENT#0b9ff2b4-5256-11ea-a45f-f727e5596c2f,3,93,96,10,1.0,1.0,0
run-2020-2-18-13-53-29.871675968,AGENT#0ba1cff8-5256-11ea-81db-8f475efcc613,1,95,96,10,1.0,1.0,0
run-2020-2-18-13-53-29.871675968,AGENT#0ba1d250-5256-11ea-ab1d-f74b89bcb878,1,95,96,10,1.0,1.0,0
run-2020-2-18-13-53-29.871675968,AGENT#0b8dfd7a-5256-11ea-b18d-9703db5e0aac,28,69,97,10,1.0,1.0,0
run-2020-2-18-13-53-29.871675968,AGENT#0b9911ba-5256-11ea-b350-af8f24a58f72,12,85,97,10,1.0,1.0,0
run-2020-2-18-13-53-29.871675968,AGENT#0b9fe88c-5256-11ea-9e48-172ceccd3963,4,93,97,10,1.0,1.0,0
run-2020-2-18-13-53-29.871675968,AGENT#0ba0e91c-5256-11ea-8f32-cf06aa4a9d2d,3,94,97,10,1.0,1.0,0
run-2020-2-18-13-53-29.871675968,AGENT#0ba1cd50-5256-11ea-b0ad-eb7b177f9f05,2,95,97,10,1.0,1.0,0
run-2020-2-18-13-53-29.871675968,AGENT#0b8d51a4-5256-11ea-9ed6-a343e3c227fd,30,68,98,10,1.0,1.0,0
run-2020-2-18-13-53-29.871675968,AGENT#0b9c7a1c-5256-11ea-a142-1355e6933729,9,89,98,10,1.0,1.0,0
run-2020-2-18-13-53-29.871675968,AGENT#0b9ff8f4-5256-11ea-99af-f79ebc5a642e,5,93,98,10,1.0,1.0,0
run-2020-2-18-13-53-29.871675968,AGENT#0ba0e44e-5256-11ea-8a18-e3f3457014fb,4,94,98,10,1.0,1.0,0
run-2020-2-18-13-53-29.871675968,AGENT#0ba3a986-5256-11ea-91cd-8fdb313ecd3a,1,97,98,10,1.0,1.0,0
