RunID,Tick,ActiveAgentsPerTick
run-2020-2-18-13-55-43.981372117,0,14
run-2020-2-18-13-55-43.981372117,1,20
run-2020-2-18-13-55-43.981372117,2,20
run-2020-2-18-13-55-43.981372117,3,18
run-2020-2-18-13-55-43.981372117,4,18
run-2020-2-18-13-55-43.981372117,5,21
run-2020-2-18-13-55-43.981372117,6,25
run-2020-2-18-13-55-43.981372117,7,24
run-2020-2-18-13-55-43.981372117,8,20
run-2020-2-18-13-55-43.981372117,9,20
run-2020-2-18-13-55-43.981372117,10,19
run-2020-2-18-13-55-43.981372117,11,22
run-2020-2-18-13-55-43.981372117,12,28
run-2020-2-18-13-55-43.981372117,13,30
run-2020-2-18-13-55-43.981372117,14,31
run-2020-2-18-13-55-43.981372117,15,31
run-2020-2-18-13-55-43.981372117,16,34
run-2020-2-18-13-55-43.981372117,17,35
run-2020-2-18-13-55-43.981372117,18,35
run-2020-2-18-13-55-43.981372117,19,40
run-2020-2-18-13-55-43.981372117,20,42
run-2020-2-18-13-55-43.981372117,21,43
run-2020-2-18-13-55-43.981372117,22,43
run-2020-2-18-13-55-43.981372117,23,47
run-2020-2-18-13-55-43.981372117,24,45
run-2020-2-18-13-55-43.981372117,25,44
run-2020-2-18-13-55-43.981372117,26,45
run-2020-2-18-13-55-43.981372117,27,44
run-2020-2-18-13-55-43.981372117,28,48
run-2020-2-18-13-55-43.981372117,29,48
run-2020-2-18-13-55-43.981372117,30,49
run-2020-2-18-13-55-43.981372117,31,52
run-2020-2-18-13-55-43.981372117,32,47
run-2020-2-18-13-55-43.981372117,33,52
run-2020-2-18-13-55-43.981372117,34,57
run-2020-2-18-13-55-43.981372117,35,57
run-2020-2-18-13-55-43.981372117,36,55
run-2020-2-18-13-55-43.981372117,37,56
run-2020-2-18-13-55-43.981372117,38,53
run-2020-2-18-13-55-43.981372117,39,53
run-2020-2-18-13-55-43.981372117,40,51
run-2020-2-18-13-55-43.981372117,41,54
run-2020-2-18-13-55-43.981372117,42,52
run-2020-2-18-13-55-43.981372117,43,54
run-2020-2-18-13-55-43.981372117,44,58
run-2020-2-18-13-55-43.981372117,45,61
run-2020-2-18-13-55-43.981372117,46,57
run-2020-2-18-13-55-43.981372117,47,57
run-2020-2-18-13-55-43.981372117,48,51
run-2020-2-18-13-55-43.981372117,49,52
run-2020-2-18-13-55-43.981372117,50,55
run-2020-2-18-13-55-43.981372117,51,55
run-2020-2-18-13-55-43.981372117,52,56
run-2020-2-18-13-55-43.981372117,53,53
run-2020-2-18-13-55-43.981372117,54,54
run-2020-2-18-13-55-43.981372117,55,58
run-2020-2-18-13-55-43.981372117,56,54
run-2020-2-18-13-55-43.981372117,57,55
run-2020-2-18-13-55-43.981372117,58,59
run-2020-2-18-13-55-43.981372117,59,59
run-2020-2-18-13-55-43.981372117,60,52
run-2020-2-18-13-55-43.981372117,61,48
run-2020-2-18-13-55-43.981372117,62,49
run-2020-2-18-13-55-43.981372117,63,48
run-2020-2-18-13-55-43.981372117,64,48
run-2020-2-18-13-55-43.981372117,65,54
run-2020-2-18-13-55-43.981372117,66,57
run-2020-2-18-13-55-43.981372117,67,56
run-2020-2-18-13-55-43.981372117,68,57
run-2020-2-18-13-55-43.981372117,69,58
run-2020-2-18-13-55-43.981372117,70,53
run-2020-2-18-13-55-43.981372117,71,51
run-2020-2-18-13-55-43.981372117,72,49
run-2020-2-18-13-55-43.981372117,73,51
run-2020-2-18-13-55-43.981372117,74,53
run-2020-2-18-13-55-43.981372117,75,54
run-2020-2-18-13-55-43.981372117,76,54
run-2020-2-18-13-55-43.981372117,77,52
run-2020-2-18-13-55-43.981372117,78,54
run-2020-2-18-13-55-43.981372117,79,54
run-2020-2-18-13-55-43.981372117,80,55
run-2020-2-18-13-55-43.981372117,81,55
run-2020-2-18-13-55-43.981372117,82,52
run-2020-2-18-13-55-43.981372117,83,53
run-2020-2-18-13-55-43.981372117,84,57
run-2020-2-18-13-55-43.981372117,85,58
run-2020-2-18-13-55-43.981372117,86,60
run-2020-2-18-13-55-43.981372117,87,55
run-2020-2-18-13-55-43.981372117,88,58
run-2020-2-18-13-55-43.981372117,89,62
run-2020-2-18-13-55-43.981372117,90,67
run-2020-2-18-13-55-43.981372117,91,68
run-2020-2-18-13-55-43.981372117,92,70
run-2020-2-18-13-55-43.981372117,93,70
run-2020-2-18-13-55-43.981372117,94,62
run-2020-2-18-13-55-43.981372117,95,59
run-2020-2-18-13-55-43.981372117,96,61
run-2020-2-18-13-55-43.981372117,97,64
run-2020-2-18-13-55-43.981372117,98,59
run-2020-2-18-13-55-43.981372117,99,53
run-2020-2-18-13-55-43.981372117,100,51
