RunID,Agent,Age,Created,Inactive,Resources,Reputation,Ability,Que
run-2020-2-28-15-9-49.539710044,AGENT#5d71494c-5a3c-11ea-91d9-9fa2007cfdbe,0,0,0,10,1.0,1.0,0
run-2020-2-28-15-9-49.539710044,AGENT#5d714c12-5a3c-11ea-95ad-33b4aa9e8310,0,0,0,10,1.0,1.0,0
run-2020-2-28-15-9-49.539710044,AGENT#5d713498-5a3c-11ea-9d21-dff26280fe3d,1,0,1,10,1.0,1.0,0
run-2020-2-28-15-9-49.539710044,AGENT#5d713862-5a3c-11ea-8f5b-6f8145bc44ea,1,0,1,10,1.0,1.0,0
run-2020-2-28-15-9-49.539710044,AGENT#5d7195e6-5a3c-11ea-8496-effc959c8be7,1,0,1,10,1.0,1.0,0
run-2020-2-28-15-9-49.539710044,AGENT#5d78b394-5a3c-11ea-b988-93dd1d8215e7,1,1,2,10,1.0,1.0,0
run-2020-2-28-15-9-49.539710044,AGENT#5d7140fa-5a3c-11ea-a4fb-1f2c3a3c7744,3,0,3,10,1.0,1.0,0
run-2020-2-28-15-9-49.539710044,AGENT#5d714690-5a3c-11ea-b708-8b816d4e24d3,3,0,3,10,1.0,1.0,0
run-2020-2-28-15-9-49.539710044,AGENT#5d719906-5a3c-11ea-b203-6fb3b220329e,3,0,3,10,1.0,1.0,0
run-2020-2-28-15-9-49.539710044,AGENT#5d7143d4-5a3c-11ea-9658-1f9902c474e9,4,0,4,10,1.0,1.0,0
run-2020-2-28-15-9-49.539710044,AGENT#5d78ad5e-5a3c-11ea-93f1-0f976308b7e8,3,1,4,10,1.0,1.0,0
run-2020-2-28-15-9-49.539710044,AGENT#5d78b0c4-5a3c-11ea-b546-cbd2e51615f8,3,1,4,10,1.0,1.0,0
run-2020-2-28-15-9-49.539710044,AGENT#5d7feaf6-5a3c-11ea-a941-2fb61dd09364,3,2,5,10,1.0,1.0,0
run-2020-2-28-15-9-49.539710044,AGENT#5d7fef56-5a3c-11ea-bc17-a75a7930df3b,3,2,5,10,1.0,1.0,0
run-2020-2-28-15-9-49.539710044,AGENT#5d9252f4-5a3c-11ea-9c23-af4b99027ec8,1,4,5,10,1.0,1.0,0
run-2020-2-28-15-9-49.539710044,AGENT#5d9259c0-5a3c-11ea-a5c4-bb3d7646bfbb,1,4,5,10,1.0,1.0,0
run-2020-2-28-15-9-49.539710044,AGENT#5d891ed2-5a3c-11ea-b2bb-b7f9ec5020aa,3,3,6,10,1.0,1.0,0
run-2020-2-28-15-9-49.539710044,AGENT#5d9256dc-5a3c-11ea-99c1-c3c54974e4d3,2,4,6,10,1.0,1.0,0
run-2020-2-28-15-9-49.539710044,AGENT#5d9bd4aa-5a3c-11ea-94c1-b77577bf0e08,2,5,7,10,1.0,1.0,0
run-2020-2-28-15-9-49.539710044,AGENT#5d9bda68-5a3c-11ea-b436-7bd8856cf14a,2,5,7,10,1.0,1.0,0
run-2020-2-28-15-9-49.539710044,AGENT#5da588d8-5a3c-11ea-a6c5-db767fc5e837,2,6,8,10,1.0,1.0,0
run-2020-2-28-15-9-49.539710044,AGENT#5da5814e-5a3c-11ea-94ed-e3eccc3e4204,3,6,9,10,1.0,1.0,0
run-2020-2-28-15-9-49.539710044,AGENT#5de9defc-5a3c-11ea-bcf2-f72ca75a37b6,1,8,9,10,1.0,1.0,0
run-2020-2-28-15-9-49.539710044,AGENT#5de9e1ea-5a3c-11ea-b71b-13856d1980d9,1,8,9,10,1.0,1.0,0
run-2020-2-28-15-9-49.539710044,AGENT#5de9eec4-5a3c-11ea-8b7a-0f78b77d4a7d,1,8,9,10,1.0,1.0,0
run-2020-2-28-15-9-49.539710044,AGENT#5de9f158-5a3c-11ea-90d1-1b05dfae13fc,1,8,9,10,1.0,1.0,0
run-2020-2-28-15-9-49.539710044,AGENT#5d9bd158-5a3c-11ea-91a1-ff6d62ae9ffe,5,5,10,10,1.0,1.0,0
run-2020-2-28-15-9-49.539710044,AGENT#5d9bdd42-5a3c-11ea-aa93-8bd8d82959ee,5,5,10,10,1.0,1.0,0
run-2020-2-28-15-9-49.539710044,AGENT#5dc8f2dc-5a3c-11ea-aad4-37cf38bee250,3,7,10,10,1.0,1.0,0
run-2020-2-28-15-9-49.539710044,AGENT#5de9ec12-5a3c-11ea-afbd-9b2f4826c4c2,2,8,10,10,1.0,1.0,0
run-2020-2-28-15-9-49.539710044,AGENT#5e0948be-5a3c-11ea-a0cc-4767aa029d05,1,9,10,10,1.0,1.0,0
run-2020-2-28-15-9-49.539710044,AGENT#5e094b52-5a3c-11ea-a323-ebb2ca28e378,1,9,10,10,1.0,1.0,0
run-2020-2-28-15-9-49.539710044,AGENT#5de9f3c4-5a3c-11ea-9c57-6f95f6b6c833,3,8,11,10,1.0,1.0,0
run-2020-2-28-15-9-49.539710044,AGENT#5e094602-5a3c-11ea-88ed-a77b32880246,2,9,11,10,1.0,1.0,0
run-2020-2-28-15-9-49.539710044,AGENT#5d7fe6c8-5a3c-11ea-9803-8bd7c4543635,10,2,12,10,1.0,1.0,0
run-2020-2-28-15-9-49.539710044,AGENT#5e296b4e-5a3c-11ea-bf37-5fa554d2f21e,2,10,12,10,1.0,1.0,0
run-2020-2-28-15-9-49.539710044,AGENT#5e297602-5a3c-11ea-b5fe-ef08a0be5fbd,2,10,12,10,1.0,1.0,0
run-2020-2-28-15-9-49.539710044,AGENT#5e48fa0e-5a3c-11ea-ac03-5b8ef14ad9a3,2,11,13,10,1.0,1.0,0
run-2020-2-28-15-9-49.539710044,AGENT#5e718b54-5a3c-11ea-a3bc-c3cb58d7bc12,1,12,13,10,1.0,1.0,0
run-2020-2-28-15-9-49.539710044,AGENT#5e2965a4-5a3c-11ea-b699-7f8eb0797a37,4,10,14,10,1.0,1.0,0
run-2020-2-28-15-9-49.539710044,AGENT#5e96f47a-5a3c-11ea-ac01-23ee84d804c1,1,13,14,10,1.0,1.0,0
run-2020-2-28-15-9-49.539710044,AGENT#5e96f768-5a3c-11ea-a20f-23898b9fbb57,1,13,14,10,1.0,1.0,0
run-2020-2-28-15-9-49.539710044,AGENT#5e295f78-5a3c-11ea-94e8-4f760f19a28c,5,10,15,10,1.0,1.0,0
run-2020-2-28-15-9-49.539710044,AGENT#5e490044-5a3c-11ea-ba63-9363c5d90de2,4,11,15,10,1.0,1.0,0
run-2020-2-28-15-9-49.539710044,AGENT#5edee668-5a3c-11ea-9f9c-4f9adaabaea8,1,15,16,10,1.0,1.0,0
run-2020-2-28-15-9-49.539710044,AGENT#5e296fc2-5a3c-11ea-b025-df3212a0b806,7,10,17,10,1.0,1.0,0
run-2020-2-28-15-9-49.539710044,AGENT#5edeea0a-5a3c-11ea-84ea-5b6a4080039d,2,15,17,10,1.0,1.0,0
run-2020-2-28-15-9-49.539710044,AGENT#5efc2a84-5a3c-11ea-a55b-7f23b887acba,2,16,18,10,1.0,1.0,0
run-2020-2-28-15-9-49.539710044,AGENT#5f16b6a6-5a3c-11ea-ab6d-479780d0baa8,2,17,19,10,1.0,1.0,0
run-2020-2-28-15-9-49.539710044,AGENT#5f3cef10-5a3c-11ea-a950-c33da530d75e,1,18,19,10,1.0,1.0,0
run-2020-2-28-15-9-49.539710044,AGENT#5f16baf2-5a3c-11ea-9455-4fc8f8a92f22,3,17,20,10,1.0,1.0,0
run-2020-2-28-15-9-49.539710044,AGENT#5f3cf438-5a3c-11ea-85f7-87b11da473e7,2,18,20,10,1.0,1.0,0
run-2020-2-28-15-9-49.539710044,AGENT#5f5e593e-5a3c-11ea-929a-07053e557def,1,19,20,10,1.0,1.0,0
run-2020-2-28-15-9-49.539710044,AGENT#5f5e5c7c-5a3c-11ea-aa7b-97f7336772a6,1,19,20,10,1.0,1.0,0
run-2020-2-28-15-9-49.539710044,AGENT#5f16b1ce-5a3c-11ea-800d-3fafbdf162c5,4,17,21,10,1.0,1.0,0
run-2020-2-28-15-9-49.539710044,AGENT#5f3cf190-5a3c-11ea-b01e-ab4535e6559b,3,18,21,10,1.0,1.0,0
run-2020-2-28-15-9-49.539710044,AGENT#5d714ed8-5a3c-11ea-ac8b-ffcc43c8f0f3,22,0,22,10,1.0,1.0,0
run-2020-2-28-15-9-49.539710044,AGENT#5f3cec7c-5a3c-11ea-9f2b-4378089d1ce6,4,18,22,10,1.0,1.0,0
run-2020-2-28-15-9-49.539710044,AGENT#5f7bf570-5a3c-11ea-aa35-abb4dd8a7d19,2,20,22,10,1.0,1.0,0
run-2020-2-28-15-9-49.539710044,AGENT#5f7bfd4a-5a3c-11ea-99f9-4bc4cde3de6b,2,20,22,10,1.0,1.0,0
run-2020-2-28-15-9-49.539710044,AGENT#5f97564e-5a3c-11ea-8726-7fca37565ff0,1,21,22,10,1.0,1.0,0
run-2020-2-28-15-9-49.539710044,AGENT#5f3ce948-5a3c-11ea-ab52-7b4bd32f5c67,5,18,23,10,1.0,1.0,0
run-2020-2-28-15-9-49.539710044,AGENT#5f9759aa-5a3c-11ea-bfcd-bb0d96c5fc02,2,21,23,10,1.0,1.0,0
run-2020-2-28-15-9-49.539710044,AGENT#5f975f72-5a3c-11ea-80a2-ef062dec38ff,2,21,23,10,1.0,1.0,0
run-2020-2-28-15-9-49.539710044,AGENT#5fafc990-5a3c-11ea-a4f8-5333d4339983,1,22,23,10,1.0,1.0,0
run-2020-2-28-15-9-49.539710044,AGENT#5f7bef6c-5a3c-11ea-b318-0382201e0fb4,4,20,24,10,1.0,1.0,0
run-2020-2-28-15-9-49.539710044,AGENT#5f7bfaca-5a3c-11ea-8504-83db9227d9ca,4,20,24,10,1.0,1.0,0
run-2020-2-28-15-9-49.539710044,AGENT#5f975c70-5a3c-11ea-a95d-838926b824d1,3,21,24,10,1.0,1.0,0
run-2020-2-28-15-9-49.539710044,AGENT#5da5908a-5a3c-11ea-9022-a74b51fc2275,19,6,25,10,1.0,1.0,0
run-2020-2-28-15-9-49.539710044,AGENT#5fc6343c-5a3c-11ea-9523-177e1a5e10af,2,23,25,10,1.0,1.0,0
run-2020-2-28-15-9-49.539710044,AGENT#5fafcfa8-5a3c-11ea-a5bb-57f430c4665b,4,22,26,10,1.0,1.0,0
run-2020-2-28-15-9-49.539710044,AGENT#5fc63996-5a3c-11ea-99ab-ef895eabbd7d,3,23,26,10,1.0,1.0,0
run-2020-2-28-15-9-49.539710044,AGENT#5fc6417a-5a3c-11ea-a9e8-e73a07975d9c,3,23,26,10,1.0,1.0,0
run-2020-2-28-15-9-49.539710044,AGENT#6007cc76-5a3c-11ea-9cd2-979eedd4a0e2,1,25,26,10,1.0,1.0,0
run-2020-2-28-15-9-49.539710044,AGENT#5fc63ed2-5a3c-11ea-b326-83075964bc11,4,23,27,10,1.0,1.0,0
run-2020-2-28-15-9-49.539710044,AGENT#5fc636ee-5a3c-11ea-894c-5bde481907de,5,23,28,10,1.0,1.0,0
run-2020-2-28-15-9-49.539710044,AGENT#5fe84810-5a3c-11ea-9a70-3bb5b3ceb676,4,24,28,10,1.0,1.0,0
run-2020-2-28-15-9-49.539710044,AGENT#5fe84e32-5a3c-11ea-8e10-5706fb2a3d91,4,24,28,10,1.0,1.0,0
run-2020-2-28-15-9-49.539710044,AGENT#60260650-5a3c-11ea-af5d-f32a514c3ff3,4,26,30,10,1.0,1.0,0
run-2020-2-28-15-9-49.539710044,AGENT#605a5fcc-5a3c-11ea-ae8f-ff215c600964,2,28,30,10,1.0,1.0,0
run-2020-2-28-15-9-49.539710044,AGENT#607094ae-5a3c-11ea-8fdc-9f59856dc2f9,1,29,30,10,1.0,1.0,0
run-2020-2-28-15-9-49.539710044,AGENT#60709f94-5a3c-11ea-8b44-ab3ce247cafa,1,29,30,10,1.0,1.0,0
run-2020-2-28-15-9-49.539710044,AGENT#6085f38a-5a3c-11ea-9774-5b64048a5e93,1,30,31,10,1.0,1.0,0
run-2020-2-28-15-9-49.539710044,AGENT#6085f6b4-5a3c-11ea-b7ed-6b19e5c87641,1,30,31,10,1.0,1.0,0
run-2020-2-28-15-9-49.539710044,AGENT#6070915c-5a3c-11ea-9907-8be78c139d52,3,29,32,10,1.0,1.0,0
run-2020-2-28-15-9-49.539710044,AGENT#60709a80-5a3c-11ea-b32f-a75406f7ae2d,3,29,32,10,1.0,1.0,0
run-2020-2-28-15-9-49.539710044,AGENT#6085efb6-5a3c-11ea-a702-df623368a788,2,30,32,10,1.0,1.0,0
run-2020-2-28-15-9-49.539710044,AGENT#6085f9fc-5a3c-11ea-adbd-db3b2a1aa028,2,30,32,10,1.0,1.0,0
run-2020-2-28-15-9-49.539710044,AGENT#60a7a570-5a3c-11ea-89ad-83cf56352a73,1,31,32,10,1.0,1.0,0
run-2020-2-28-15-9-49.539710044,AGENT#60a7ab38-5a3c-11ea-9803-43d625960f59,1,31,32,10,1.0,1.0,0
run-2020-2-28-15-9-49.539710044,AGENT#60a7add6-5a3c-11ea-bdf1-6b52967bb8c1,3,31,34,10,1.0,1.0,0
run-2020-2-28-15-9-49.539710044,AGENT#60e3945e-5a3c-11ea-b4a7-0bc18f2588f3,1,33,34,10,1.0,1.0,0
run-2020-2-28-15-9-49.539710044,AGENT#60fe2198-5a3c-11ea-a6b0-ff8e08ba26ab,1,34,35,10,1.0,1.0,0
run-2020-2-28-15-9-49.539710044,AGENT#5f7bf2be-5a3c-11ea-9ebf-c3f4279f16e0,16,20,36,10,1.0,1.0,0
run-2020-2-28-15-9-49.539710044,AGENT#60c66b18-5a3c-11ea-80a3-ef818d1bc04c,4,32,36,10,1.0,1.0,0
run-2020-2-28-15-9-49.539710044,AGENT#60e390f8-5a3c-11ea-bf75-33106045dc9e,3,33,36,10,1.0,1.0,0
run-2020-2-28-15-9-49.539710044,AGENT#60e39738-5a3c-11ea-a467-3b45febe89e3,3,33,36,10,1.0,1.0,0
run-2020-2-28-15-9-49.539710044,AGENT#61167324-5a3c-11ea-bbac-d7e6493a238d,1,35,36,10,1.0,1.0,0
run-2020-2-28-15-9-49.539710044,AGENT#60c6713a-5a3c-11ea-8d17-c70ba6e2fa15,5,32,37,10,1.0,1.0,0
run-2020-2-28-15-9-49.539710044,AGENT#61167a18-5a3c-11ea-8822-6760b6a8adb6,2,35,37,10,1.0,1.0,0
run-2020-2-28-15-9-49.539710044,AGENT#612c3376-5a3c-11ea-ad53-4fba55354bae,1,36,37,10,1.0,1.0,0
run-2020-2-28-15-9-49.539710044,AGENT#612c2c46-5a3c-11ea-ba0d-fb70654340b6,2,36,38,10,1.0,1.0,0
run-2020-2-28-15-9-49.539710044,AGENT#614d2afe-5a3c-11ea-9807-033780696f3f,1,37,38,10,1.0,1.0,0
run-2020-2-28-15-9-49.539710044,AGENT#614d35bc-5a3c-11ea-b16f-8f7799e44905,1,37,38,10,1.0,1.0,0
run-2020-2-28-15-9-49.539710044,AGENT#614d30b2-5a3c-11ea-a373-6f82ee8373d2,2,37,39,10,1.0,1.0,0
run-2020-2-28-15-9-49.539710044,AGENT#614d3346-5a3c-11ea-932f-7b2ef6f6f125,2,37,39,10,1.0,1.0,0
run-2020-2-28-15-9-49.539710044,AGENT#616c488a-5a3c-11ea-a826-0b3fe3757a89,1,38,39,10,1.0,1.0,0
run-2020-2-28-15-9-49.539710044,AGENT#61167cde-5a3c-11ea-a4b6-8fef946e7ace,5,35,40,10,1.0,1.0,0
run-2020-2-28-15-9-49.539710044,AGENT#612c363c-5a3c-11ea-9917-2b2c5a9b9e8b,4,36,40,10,1.0,1.0,0
run-2020-2-28-15-9-49.539710044,AGENT#61892b80-5a3c-11ea-a7e1-1791fea80f07,1,39,40,10,1.0,1.0,0
run-2020-2-28-15-9-49.539710044,AGENT#616c4538-5a3c-11ea-a0ac-db5e8a4fdf5d,3,38,41,10,1.0,1.0,0
run-2020-2-28-15-9-49.539710044,AGENT#6041946a-5a3c-11ea-a6a7-93a74e582f77,15,27,42,10,1.0,1.0,0
run-2020-2-28-15-9-49.539710044,AGENT#61892e50-5a3c-11ea-810e-c7ac62ebd9a3,3,39,42,10,1.0,1.0,0
run-2020-2-28-15-9-49.539710044,AGENT#61a38408-5a3c-11ea-8984-c79517b6f3fd,2,40,42,10,1.0,1.0,0
run-2020-2-28-15-9-49.539710044,AGENT#61a386ce-5a3c-11ea-abd8-6383e5c891b5,2,40,42,10,1.0,1.0,0
run-2020-2-28-15-9-49.539710044,AGENT#61bc47c2-5a3c-11ea-98cd-0b658c6105e8,1,41,42,10,1.0,1.0,0
run-2020-2-28-15-9-49.539710044,AGENT#61bc4b00-5a3c-11ea-9121-17a8b7f0beb8,1,41,42,10,1.0,1.0,0
run-2020-2-28-15-9-49.539710044,AGENT#61bc4db2-5a3c-11ea-ae63-8f07129922fb,1,41,42,10,1.0,1.0,0
run-2020-2-28-15-9-49.539710044,AGENT#61f43b14-5a3c-11ea-bcc2-c30b65e3a3b0,1,43,44,10,1.0,1.0,0
run-2020-2-28-15-9-49.539710044,AGENT#5d713e2a-5a3c-11ea-bc8a-9f96c3ae3012,45,0,45,10,1.0,1.0,0
run-2020-2-28-15-9-49.539710044,AGENT#61bc560e-5a3c-11ea-982d-efa52a2a07ab,4,41,45,10,1.0,1.0,0
run-2020-2-28-15-9-49.539710044,AGENT#61d25364-5a3c-11ea-a481-43af7f28fcb2,3,42,45,10,1.0,1.0,0
run-2020-2-28-15-9-49.539710044,AGENT#61d256fc-5a3c-11ea-98b5-7fed997c37df,3,42,45,10,1.0,1.0,0
run-2020-2-28-15-9-49.539710044,AGENT#61bc50a0-5a3c-11ea-9845-073ed9e72e0f,5,41,46,10,1.0,1.0,0
run-2020-2-28-15-9-49.539710044,AGENT#61f43858-5a3c-11ea-8ecd-83cbc4a6c972,3,43,46,10,1.0,1.0,0
run-2020-2-28-15-9-49.539710044,AGENT#5d713b5a-5a3c-11ea-b634-d76eb62c4c17,47,0,47,10,1.0,1.0,0
run-2020-2-28-15-9-49.539710044,AGENT#6007d04a-5a3c-11ea-b520-d3ee6ee1195d,22,25,47,10,1.0,1.0,0
run-2020-2-28-15-9-49.539710044,AGENT#5f7bfffc-5a3c-11ea-bd82-6f5c96e8b765,28,20,48,10,1.0,1.0,0
run-2020-2-28-15-9-49.539710044,AGENT#62324d50-5a3c-11ea-93c3-e32373195a10,3,45,48,10,1.0,1.0,0
run-2020-2-28-15-9-49.539710044,AGENT#625064f2-5a3c-11ea-b0c5-8b1b090ce577,2,46,48,10,1.0,1.0,0
run-2020-2-28-15-9-49.539710044,AGENT#6269780c-5a3c-11ea-b6ba-07ea220a78a0,1,47,48,10,1.0,1.0,0
run-2020-2-28-15-9-49.539710044,AGENT#5d891b4e-5a3c-11ea-b368-9b15e1572f0d,46,3,49,10,1.0,1.0,0
run-2020-2-28-15-9-49.539710044,AGENT#62506fb0-5a3c-11ea-b6e4-6f46e68c34a3,3,46,49,10,1.0,1.0,0
run-2020-2-28-15-9-49.539710044,AGENT#62697adc-5a3c-11ea-8b91-8f817fbacc6e,2,47,49,10,1.0,1.0,0
run-2020-2-28-15-9-49.539710044,AGENT#627ebafa-5a3c-11ea-a5bb-eb45b74c2614,2,48,50,10,1.0,1.0,0
run-2020-2-28-15-9-49.539710044,AGENT#5d9bd7ac-5a3c-11ea-9a0e-e313a8a706e1,46,5,51,10,1.0,1.0,0
run-2020-2-28-15-9-49.539710044,AGENT#62506cb8-5a3c-11ea-8ed0-5ff9a7980816,5,46,51,10,1.0,1.0,0
run-2020-2-28-15-9-49.539710044,AGENT#627eb438-5a3c-11ea-9aa5-df6e494950f6,3,48,51,10,1.0,1.0,0
run-2020-2-28-15-9-49.539710044,AGENT#629269d8-5a3c-11ea-b67a-fbe885a7b084,2,49,51,10,1.0,1.0,0
run-2020-2-28-15-9-49.539710044,AGENT#62b36066-5a3c-11ea-b053-dfa0015c1eb0,1,50,51,10,1.0,1.0,0
run-2020-2-28-15-9-49.539710044,AGENT#5dc8efd0-5a3c-11ea-b012-03e0c4a3389b,45,7,52,10,1.0,1.0,0
run-2020-2-28-15-9-49.539710044,AGENT#612c3056-5a3c-11ea-a7bd-13c87a942213,16,36,52,10,1.0,1.0,0
run-2020-2-28-15-9-49.539710044,AGENT#626974b0-5a3c-11ea-a99d-3b046f557211,5,47,52,10,1.0,1.0,0
run-2020-2-28-15-9-49.539710044,AGENT#629270b8-5a3c-11ea-9d9d-4b6eb029afe9,3,49,52,10,1.0,1.0,0
run-2020-2-28-15-9-49.539710044,AGENT#62b3590e-5a3c-11ea-8ef5-3b55f3f8138d,2,50,52,10,1.0,1.0,0
run-2020-2-28-15-9-49.539710044,AGENT#62d2ce2e-5a3c-11ea-8fe6-53cd419f3f7f,1,51,52,10,1.0,1.0,0
run-2020-2-28-15-9-49.539710044,AGENT#5da58572-5a3c-11ea-b93c-379590520b16,47,6,53,10,1.0,1.0,0
run-2020-2-28-15-9-49.539710044,AGENT#5da5942c-5a3c-11ea-a04d-afeec687e3d2,47,6,53,10,1.0,1.0,0
run-2020-2-28-15-9-49.539710044,AGENT#6292740a-5a3c-11ea-8213-b39c4d920aaa,5,49,54,10,1.0,1.0,0
run-2020-2-28-15-9-49.539710044,AGENT#62b35e04-5a3c-11ea-97ad-c3611623076a,4,50,54,10,1.0,1.0,0
run-2020-2-28-15-9-49.539710044,AGENT#62f0c438-5a3c-11ea-b62e-f333514da5d9,2,52,54,10,1.0,1.0,0
run-2020-2-28-15-9-49.539710044,AGENT#5de9e8b6-5a3c-11ea-96a2-db5ea6b8bdf7,47,8,55,10,1.0,1.0,0
run-2020-2-28-15-9-49.539710044,AGENT#62f0c6c2-5a3c-11ea-b0a3-a7ec473efe7a,3,52,55,10,1.0,1.0,0
run-2020-2-28-15-9-49.539710044,AGENT#5de9e456-5a3c-11ea-916c-039b3dc9dc9c,48,8,56,10,1.0,1.0,0
run-2020-2-28-15-9-49.539710044,AGENT#5e09429c-5a3c-11ea-bd0c-87859bad0a3f,47,9,56,10,1.0,1.0,0
run-2020-2-28-15-9-49.539710044,AGENT#6213b67e-5a3c-11ea-8b1e-ef9943831a4e,12,44,56,10,1.0,1.0,0
run-2020-2-28-15-9-49.539710044,AGENT#633ac632-5a3c-11ea-92dd-b7fa0beb8c13,1,55,56,10,1.0,1.0,0
run-2020-2-28-15-9-49.539710044,AGENT#633ac8f8-5a3c-11ea-9316-07415ec8a93e,1,55,56,10,1.0,1.0,0
run-2020-2-28-15-9-49.539710044,AGENT#5e48fd74-5a3c-11ea-b9fe-43496444d6b9,46,11,57,10,1.0,1.0,0
run-2020-2-28-15-9-49.539710044,AGENT#62f0be20-5a3c-11ea-808d-c3f8ae9fa810,5,52,57,10,1.0,1.0,0
run-2020-2-28-15-9-49.539710044,AGENT#62f0c17c-5a3c-11ea-b910-7777ccf6686e,5,52,57,10,1.0,1.0,0
run-2020-2-28-15-9-49.539710044,AGENT#633abf3e-5a3c-11ea-8dc0-a73b6f707ec0,2,55,57,10,1.0,1.0,0
run-2020-2-28-15-9-49.539710044,AGENT#634ff7c8-5a3c-11ea-9995-bb0dbfc86e10,1,56,57,10,1.0,1.0,0
run-2020-2-28-15-9-49.539710044,AGENT#5e297314-5a3c-11ea-8340-eb63119501d6,48,10,58,10,1.0,1.0,0
run-2020-2-28-15-9-49.539710044,AGENT#60c66e4c-5a3c-11ea-8daf-6f3cd3a45ee2,26,32,58,10,1.0,1.0,0
run-2020-2-28-15-9-49.539710044,AGENT#630a295a-5a3c-11ea-8ddf-c7fadc4dedb4,5,53,58,10,1.0,1.0,0
run-2020-2-28-15-9-49.539710044,AGENT#5fafd4d0-5a3c-11ea-bf72-7f93501c436a,37,22,59,10,1.0,1.0,0
run-2020-2-28-15-9-49.539710044,AGENT#60fe1798-5a3c-11ea-9698-cf737102718c,25,34,59,10,1.0,1.0,0
run-2020-2-28-15-9-49.539710044,AGENT#637096e0-5a3c-11ea-994b-3f30d96fb7e8,2,57,59,10,1.0,1.0,0
run-2020-2-28-15-9-49.539710044,AGENT#63709eba-5a3c-11ea-9fc0-4b820e8b2612,2,57,59,10,1.0,1.0,0
run-2020-2-28-15-9-49.539710044,AGENT#638ff3b4-5a3c-11ea-8bb3-ab98b1f5a0a6,1,58,59,10,1.0,1.0,0
run-2020-2-28-15-9-49.539710044,AGENT#5e96f0d8-5a3c-11ea-bc4c-53e771cb47d5,47,13,60,10,1.0,1.0,0
run-2020-2-28-15-9-49.539710044,AGENT#634ff430-5a3c-11ea-b7a4-fb4dc68d9473,4,56,60,10,1.0,1.0,0
run-2020-2-28-15-9-49.539710044,AGENT#63abfdb6-5a3c-11ea-9473-7b0f171c12aa,1,59,60,10,1.0,1.0,0
run-2020-2-28-15-9-49.539710044,AGENT#61bc5352-5a3c-11ea-899f-171fd8e6d526,20,41,61,10,1.0,1.0,0
run-2020-2-28-15-9-49.539710044,AGENT#637099f6-5a3c-11ea-a3e7-87f74bbcc564,4,57,61,10,1.0,1.0,0
run-2020-2-28-15-9-49.539710044,AGENT#63709c62-5a3c-11ea-ada8-2bc4f078c439,4,57,61,10,1.0,1.0,0
run-2020-2-28-15-9-49.539710044,AGENT#638ff8dc-5a3c-11ea-933b-83f0a1111f1a,3,58,61,10,1.0,1.0,0
run-2020-2-28-15-9-49.539710044,AGENT#63abf91a-5a3c-11ea-8d65-8b9644e215e4,2,59,61,10,1.0,1.0,0
run-2020-2-28-15-9-49.539710044,AGENT#63ac0202-5a3c-11ea-8b6e-bbd648e74e90,2,59,61,10,1.0,1.0,0
run-2020-2-28-15-9-49.539710044,AGENT#5efc2dc2-5a3c-11ea-8f15-f7ca3c480213,46,16,62,10,1.0,1.0,0
run-2020-2-28-15-9-49.539710044,AGENT#627eb820-5a3c-11ea-9e98-d31216e41cb4,14,48,62,10,1.0,1.0,0
run-2020-2-28-15-9-49.539710044,AGENT#633ac362-5a3c-11ea-a349-33289a34092a,7,55,62,10,1.0,1.0,0
run-2020-2-28-15-9-49.539710044,AGENT#638ff102-5a3c-11ea-a09b-63c5d8bc2377,4,58,62,10,1.0,1.0,0
run-2020-2-28-15-9-49.539710044,AGENT#63c656ca-5a3c-11ea-9db8-ff9a6a4ed3f3,2,60,62,10,1.0,1.0,0
run-2020-2-28-15-9-49.539710044,AGENT#63dcdc06-5a3c-11ea-8e2f-2f712ab4bb91,2,61,63,10,1.0,1.0,0
run-2020-2-28-15-9-49.539710044,AGENT#63f179cc-5a3c-11ea-8862-6b687df60c60,1,62,63,10,1.0,1.0,0
run-2020-2-28-15-9-49.539710044,AGENT#62d2d1bc-5a3c-11ea-87c8-e34e290a23fa,13,51,64,10,1.0,1.0,0
run-2020-2-28-15-9-49.539710044,AGENT#63c65166-5a3c-11ea-a8ac-cbfd54ceb8af,4,60,64,10,1.0,1.0,0
run-2020-2-28-15-9-49.539710044,AGENT#63f1704e-5a3c-11ea-b256-c777ca874027,2,62,64,10,1.0,1.0,0
run-2020-2-28-15-9-49.539710044,AGENT#640492f0-5a3c-11ea-8d90-af6de8577a25,1,63,64,10,1.0,1.0,0
run-2020-2-28-15-9-49.539710044,AGENT#64048c88-5a3c-11ea-9a15-f3ca61817a18,2,63,65,10,1.0,1.0,0
run-2020-2-28-15-9-49.539710044,AGENT#64048fda-5a3c-11ea-8f2d-8b29b1f8d4fe,2,63,65,10,1.0,1.0,0
run-2020-2-28-15-9-49.539710044,AGENT#6424cd18-5a3c-11ea-8ec6-331d26473394,1,64,65,10,1.0,1.0,0
run-2020-2-28-15-9-49.539710044,AGENT#5f7bf818-5a3c-11ea-94b1-3fb9093e5abf,46,20,66,10,1.0,1.0,0
run-2020-2-28-15-9-49.539710044,AGENT#5f7c027c-5a3c-11ea-8802-478fb949d8bb,46,20,66,10,1.0,1.0,0
run-2020-2-28-15-9-49.539710044,AGENT#60e39a12-5a3c-11ea-b3b8-336065ceccb0,33,33,66,10,1.0,1.0,0
run-2020-2-28-15-9-49.539710044,AGENT#63f17c7e-5a3c-11ea-a148-c74bd69a73e7,4,62,66,10,1.0,1.0,0
run-2020-2-28-15-9-49.539710044,AGENT#6424c778-5a3c-11ea-a9b8-03f8ab9590da,2,64,66,10,1.0,1.0,0
run-2020-2-28-15-9-49.539710044,AGENT#6424cfb6-5a3c-11ea-8a05-87877a06e90e,2,64,66,10,1.0,1.0,0
run-2020-2-28-15-9-49.539710044,AGENT#6445606e-5a3c-11ea-a49e-0b5a065e2b30,1,65,66,10,1.0,1.0,0
run-2020-2-28-15-9-49.539710044,AGENT#5fafcce2-5a3c-11ea-adf8-23a64186772e,45,22,67,10,1.0,1.0,0
run-2020-2-28-15-9-49.539710044,AGENT#5fafd246-5a3c-11ea-95de-57d2b8174508,45,22,67,10,1.0,1.0,0
run-2020-2-28-15-9-49.539710044,AGENT#63f18200-5a3c-11ea-adba-f3e535f2f6fe,5,62,67,10,1.0,1.0,0
run-2020-2-28-15-9-49.539710044,AGENT#64048378-5a3c-11ea-8757-0f7f554b8a3a,4,63,67,10,1.0,1.0,0
run-2020-2-28-15-9-49.539710044,AGENT#6465a798-5a3c-11ea-8aed-43663c640723,1,66,67,10,1.0,1.0,0
run-2020-2-28-15-9-49.539710044,AGENT#5fc6316c-5a3c-11ea-b2da-0bf7fe9c1c80,45,23,68,10,1.0,1.0,0
run-2020-2-28-15-9-49.539710044,AGENT#5fc63c48-5a3c-11ea-9a7d-1b34eb6dcfbd,45,23,68,10,1.0,1.0,0
run-2020-2-28-15-9-49.539710044,AGENT#6465aab8-5a3c-11ea-a451-43bee3728161,2,66,68,10,1.0,1.0,0
run-2020-2-28-15-9-49.539710044,AGENT#64802820-5a3c-11ea-b10a-679a033c8583,1,67,68,10,1.0,1.0,0
run-2020-2-28-15-9-49.539710044,AGENT#5fc62de8-5a3c-11ea-9ea7-534aa0a3e8bd,46,23,69,10,1.0,1.0,0
run-2020-2-28-15-9-49.539710044,AGENT#5fe84b58-5a3c-11ea-a300-e7b4d9685d0a,45,24,69,10,1.0,1.0,0
run-2020-2-28-15-9-49.539710044,AGENT#5fe850ee-5a3c-11ea-b73d-07d1d80629b2,45,24,69,10,1.0,1.0,0
run-2020-2-28-15-9-49.539710044,AGENT#64802e74-5a3c-11ea-af30-83fc76a2b06f,2,67,69,10,1.0,1.0,0
run-2020-2-28-15-9-49.539710044,AGENT#63f173d2-5a3c-11ea-8857-270d46c895b1,8,62,70,10,1.0,1.0,0
run-2020-2-28-15-9-49.539710044,AGENT#64aca8c8-5a3c-11ea-bb5b-67d7be0c5065,1,69,70,10,1.0,1.0,0
run-2020-2-28-15-9-49.539710044,AGENT#60260934-5a3c-11ea-84a2-9b2f42314433,45,26,71,10,1.0,1.0,0
run-2020-2-28-15-9-49.539710044,AGENT#616c4b3c-5a3c-11ea-b143-ff2fdc7c6364,33,38,71,10,1.0,1.0,0
run-2020-2-28-15-9-49.539710044,AGENT#63c64e28-5a3c-11ea-94d1-6f95747880ef,11,60,71,10,1.0,1.0,0
run-2020-2-28-15-9-49.539710044,AGENT#6465ad42-5a3c-11ea-8cf4-e77f5b716c9c,5,66,71,10,1.0,1.0,0
run-2020-2-28-15-9-49.539710044,AGENT#64acac74-5a3c-11ea-b57c-2fe5aebe8531,2,69,71,10,1.0,1.0,0
run-2020-2-28-15-9-49.539710044,AGENT#64c13342-5a3c-11ea-bf53-739ec280e44f,1,70,71,10,1.0,1.0,0
run-2020-2-28-15-9-49.539710044,AGENT#64c14404-5a3c-11ea-ba48-1b76e5784945,1,70,71,10,1.0,1.0,0
run-2020-2-28-15-9-49.539710044,AGENT#64975b08-5a3c-11ea-b9b2-d7650c7e4532,5,68,73,10,1.0,1.0,0
run-2020-2-28-15-9-49.539710044,AGENT#64c13e1e-5a3c-11ea-b885-fb67d2212eaa,3,70,73,10,1.0,1.0,0
run-2020-2-28-15-9-49.539710044,AGENT#64c146f2-5a3c-11ea-94a4-2f8d91b9b61f,3,70,73,10,1.0,1.0,0
run-2020-2-28-15-9-49.539710044,AGENT#65050fd6-5a3c-11ea-9a16-cbc5c233bc1b,1,72,73,10,1.0,1.0,0
run-2020-2-28-15-9-49.539710044,AGENT#607097a6-5a3c-11ea-aa4b-ef8adb2d0751,45,29,74,10,1.0,1.0,0
run-2020-2-28-15-9-49.539710044,AGENT#60709d0a-5a3c-11ea-be36-47ee76286dff,45,29,74,10,1.0,1.0,0
run-2020-2-28-15-9-49.539710044,AGENT#64048896-5a3c-11ea-a268-7b86280fa968,11,63,74,10,1.0,1.0,0
run-2020-2-28-15-9-49.539710044,AGENT#65050978-5a3c-11ea-a0a7-dbc193a6e772,2,72,74,10,1.0,1.0,0
run-2020-2-28-15-9-49.539710044,AGENT#61f43254-5a3c-11ea-bcad-f77b6e9efa9f,32,43,75,10,1.0,1.0,0
run-2020-2-28-15-9-49.539710044,AGENT#638ff648-5a3c-11ea-acaf-afe2752e97d1,17,58,75,10,1.0,1.0,0
run-2020-2-28-15-9-49.539710044,AGENT#65050586-5a3c-11ea-87e0-db8b317d90ec,3,72,75,10,1.0,1.0,0
run-2020-2-28-15-9-49.539710044,AGENT#65263526-5a3c-11ea-ad62-cb69d7485fc9,2,73,75,10,1.0,1.0,0
run-2020-2-28-15-9-49.539710044,AGENT#650512f6-5a3c-11ea-a62b-bf8bf7ea53c4,4,72,76,10,1.0,1.0,0
run-2020-2-28-15-9-49.539710044,AGENT#6562b974-5a3c-11ea-bd59-a7f0bbe9da57,1,75,76,10,1.0,1.0,0
run-2020-2-28-15-9-49.539710044,AGENT#60a7a87c-5a3c-11ea-b148-2b72c1bd4562,46,31,77,10,1.0,1.0,0
run-2020-2-28-15-9-49.539710044,AGENT#654bb72e-5a3c-11ea-b84b-938ef6bd60af,3,74,77,10,1.0,1.0,0
run-2020-2-28-15-9-49.539710044,AGENT#6562b604-5a3c-11ea-aa15-3fda9ef85c2d,2,75,77,10,1.0,1.0,0
run-2020-2-28-15-9-49.539710044,AGENT#6576895e-5a3c-11ea-abc6-3b83ec4087fc,1,76,77,10,1.0,1.0,0
run-2020-2-28-15-9-49.539710044,AGENT#60c6676c-5a3c-11ea-bee7-bba8268b830e,47,32,79,10,1.0,1.0,0
run-2020-2-28-15-9-49.539710044,AGENT#6588240c-5a3c-11ea-9404-cfbdeda39480,2,77,79,10,1.0,1.0,0
run-2020-2-28-15-9-49.539710044,AGENT#6116772a-5a3c-11ea-8e3b-7b4d6e81209c,45,35,80,10,1.0,1.0,0
run-2020-2-28-15-9-49.539710044,AGENT#62b35b8e-5a3c-11ea-b957-1f2e219b551e,30,50,80,10,1.0,1.0,0
run-2020-2-28-15-9-49.539710044,AGENT#634fec60-5a3c-11ea-b6d3-e36d0cca2850,24,56,80,10,1.0,1.0,0
run-2020-2-28-15-9-49.539710044,AGENT#648036a8-5a3c-11ea-bba5-2fc8246ce5b0,13,67,80,10,1.0,1.0,0
run-2020-2-28-15-9-49.539710044,AGENT#60fe1266-5a3c-11ea-bcc9-97004cd49b50,47,34,81,10,1.0,1.0,0
run-2020-2-28-15-9-49.539710044,AGENT#60fe1d92-5a3c-11ea-b7c8-bbc4f6b4dfcc,47,34,81,10,1.0,1.0,0
run-2020-2-28-15-9-49.539710044,AGENT#61167fd6-5a3c-11ea-a097-af012148fdf6,46,35,81,10,1.0,1.0,0
run-2020-2-28-15-9-49.539710044,AGENT#612c390c-5a3c-11ea-afa8-4727167d93d8,45,36,81,10,1.0,1.0,0
run-2020-2-28-15-9-49.539710044,AGENT#65d3ed2e-5a3c-11ea-b2e2-0fb8bb6a7d1c,1,80,81,10,1.0,1.0,0
run-2020-2-28-15-9-49.539710044,AGENT#65d3f76a-5a3c-11ea-bcdc-6f051374f390,1,80,81,10,1.0,1.0,0
run-2020-2-28-15-9-49.539710044,AGENT#614d2e28-5a3c-11ea-b5b2-e3a456195041,45,37,82,10,1.0,1.0,0
run-2020-2-28-15-9-49.539710044,AGENT#659baed2-5a3c-11ea-8c47-23e45fe0a500,4,78,82,10,1.0,1.0,0
run-2020-2-28-15-9-49.539710044,AGENT#65b079ac-5a3c-11ea-aaab-cfa4e31c0380,4,79,83,10,1.0,1.0,0
run-2020-2-28-15-9-49.539710044,AGENT#65d3ea2c-5a3c-11ea-8a33-cfebb73ed809,3,80,83,10,1.0,1.0,0
run-2020-2-28-15-9-49.539710044,AGENT#661d8754-5a3c-11ea-87bb-87ef5d876ef9,1,82,83,10,1.0,1.0,0
run-2020-2-28-15-9-49.539710044,AGENT#664443e4-5a3c-11ea-aee5-e75d35c1b231,1,83,84,10,1.0,1.0,0
run-2020-2-28-15-9-49.539710044,AGENT#66444be6-5a3c-11ea-ac18-53bc37905641,1,83,84,10,1.0,1.0,0
run-2020-2-28-15-9-49.539710044,AGENT#61892806-5a3c-11ea-8fd1-37cba17fbaaf,46,39,85,10,1.0,1.0,0
run-2020-2-28-15-9-49.539710044,AGENT#61a3808e-5a3c-11ea-aae4-9fa0227676d4,45,40,85,10,1.0,1.0,0
run-2020-2-28-15-9-49.539710044,AGENT#65d3efa4-5a3c-11ea-9298-0713748a3604,5,80,85,10,1.0,1.0,0
run-2020-2-28-15-9-49.539710044,AGENT#66444f9c-5a3c-11ea-83a8-03cbdc961797,2,83,85,10,1.0,1.0,0
run-2020-2-28-15-9-49.539710044,AGENT#66649eaa-5a3c-11ea-8bda-9fb8cb5955ec,1,84,85,10,1.0,1.0,0
run-2020-2-28-15-9-49.539710044,AGENT#6664a1fc-5a3c-11ea-b77a-dfe1ff8ab360,1,84,85,10,1.0,1.0,0
run-2020-2-28-15-9-49.539710044,AGENT#65f53ace-5a3c-11ea-8843-2f75a01ca89a,5,81,86,10,1.0,1.0,0
run-2020-2-28-15-9-49.539710044,AGENT#66445a64-5a3c-11ea-a4b8-5b8c0d9ba892,3,83,86,10,1.0,1.0,0
run-2020-2-28-15-9-49.539710044,AGENT#66445dac-5a3c-11ea-a40b-976b4f304506,3,83,86,10,1.0,1.0,0
run-2020-2-28-15-9-49.539710044,AGENT#66649702-5a3c-11ea-ba7f-272a55e5a749,2,84,86,10,1.0,1.0,0
run-2020-2-28-15-9-49.539710044,AGENT#664456cc-5a3c-11ea-bb50-bb1594572287,4,83,87,10,1.0,1.0,0
run-2020-2-28-15-9-49.539710044,AGENT#66648cb2-5a3c-11ea-9f11-a3a486835869,3,84,87,10,1.0,1.0,0
run-2020-2-28-15-9-49.539710044,AGENT#66649392-5a3c-11ea-b92f-83825846b95f,3,84,87,10,1.0,1.0,0
run-2020-2-28-15-9-49.539710044,AGENT#668fe10a-5a3c-11ea-bf51-3b39f0e517ae,1,86,87,10,1.0,1.0,0
run-2020-2-28-15-9-49.539710044,AGENT#61f4359c-5a3c-11ea-8c83-d3b784de87db,45,43,88,10,1.0,1.0,0
run-2020-2-28-15-9-49.539710044,AGENT#6664904a-5a3c-11ea-8b3c-0b1721f96cc9,4,84,88,10,1.0,1.0,0
run-2020-2-28-15-9-49.539710044,AGENT#667b75bc-5a3c-11ea-8af9-271aeb47844b,3,85,88,10,1.0,1.0,0
run-2020-2-28-15-9-49.539710044,AGENT#667b7166-5a3c-11ea-b492-d3f1feb0631d,4,85,89,10,1.0,1.0,0
run-2020-2-28-15-9-49.539710044,AGENT#61a38976-5a3c-11ea-a78a-6f6f4768729b,50,40,90,10,1.0,1.0,0
run-2020-2-28-15-9-49.539710044,AGENT#630a2f54-5a3c-11ea-abb4-1f203f440dac,37,53,90,10,1.0,1.0,0
run-2020-2-28-15-9-49.539710044,AGENT#66a278c4-5a3c-11ea-a1f6-4bb32d2f401b,3,87,90,10,1.0,1.0,0
run-2020-2-28-15-9-49.539710044,AGENT#66b138fa-5a3c-11ea-bd9e-9f6b441f350f,2,88,90,10,1.0,1.0,0
run-2020-2-28-15-9-49.539710044,AGENT#6250689e-5a3c-11ea-960a-9f4a7c5a5ad6,45,46,91,10,1.0,1.0,0
run-2020-2-28-15-9-49.539710044,AGENT#66b12bd0-5a3c-11ea-aee3-5f3094a270f2,3,88,91,10,1.0,1.0,0
run-2020-2-28-15-9-49.539710044,AGENT#66b1353a-5a3c-11ea-92b8-5b9d5956f8cc,3,88,91,10,1.0,1.0,0
run-2020-2-28-15-9-49.539710044,AGENT#66bd69c2-5a3c-11ea-a2dd-bf8c107545ba,2,89,91,10,1.0,1.0,0
run-2020-2-28-15-9-49.539710044,AGENT#66c8f954-5a3c-11ea-ba56-575f44852db9,1,90,91,10,1.0,1.0,0
run-2020-2-28-15-9-49.539710044,AGENT#66c900c0-5a3c-11ea-8469-ffdd07a68ffb,1,90,91,10,1.0,1.0,0
run-2020-2-28-15-9-49.539710044,AGENT#627ebe06-5a3c-11ea-b171-6f49459f62c7,45,48,93,10,1.0,1.0,0
run-2020-2-28-15-9-49.539710044,AGENT#66d68d8a-5a3c-11ea-8c99-1bc9ddad8ebf,2,91,93,10,1.0,1.0,0
run-2020-2-28-15-9-49.539710044,AGENT#62926dc0-5a3c-11ea-87f0-d36b7c7433d0,45,49,94,10,1.0,1.0,0
run-2020-2-28-15-9-49.539710044,AGENT#66d6912c-5a3c-11ea-b4b3-7f1a54250115,3,91,94,10,1.0,1.0,0
run-2020-2-28-15-9-49.539710044,AGENT#66e91bb2-5a3c-11ea-bbf4-737178b0eff4,2,92,94,10,1.0,1.0,0
run-2020-2-28-15-9-49.539710044,AGENT#66e92526-5a3c-11ea-9444-5331161c1ab7,2,92,94,10,1.0,1.0,0
run-2020-2-28-15-9-49.539710044,AGENT#6480313a-5a3c-11ea-b5a2-cbbfe7fb4eba,28,67,95,10,1.0,1.0,0
run-2020-2-28-15-9-49.539710044,AGENT#66fa34ec-5a3c-11ea-9314-2bb0fe5cfc02,2,93,95,10,1.0,1.0,0
run-2020-2-28-15-9-49.539710044,AGENT#67102068-5a3c-11ea-8c64-4b2512401b8c,1,94,95,10,1.0,1.0,0
run-2020-2-28-15-9-49.539710044,AGENT#66d6960e-5a3c-11ea-a16d-3b658a52a493,5,91,96,10,1.0,1.0,0
run-2020-2-28-15-9-49.539710044,AGENT#62b355a8-5a3c-11ea-8fab-af88eb8fccc0,47,50,97,10,1.0,1.0,0
run-2020-2-28-15-9-49.539710044,AGENT#62d2d720-5a3c-11ea-8aec-77a23a16464e,46,51,97,10,1.0,1.0,0
run-2020-2-28-15-9-49.539710044,AGENT#648033f6-5a3c-11ea-92c7-eb4269d36bbe,30,67,97,10,1.0,1.0,0
run-2020-2-28-15-9-49.539710044,AGENT#66e920b2-5a3c-11ea-a54e-f7bc4262089d,5,92,97,10,1.0,1.0,0
run-2020-2-28-15-9-49.539710044,AGENT#62d2d464-5a3c-11ea-a644-9f51b9916f30,47,51,98,10,1.0,1.0,0
run-2020-2-28-15-9-49.539710044,AGENT#630a2c7a-5a3c-11ea-bbfd-5bb2fb55c72f,45,53,98,10,1.0,1.0,0
run-2020-2-28-15-9-49.539710044,AGENT#66fa38f2-5a3c-11ea-9ac2-a7c1675bcd68,5,93,98,10,1.0,1.0,0
run-2020-2-28-15-9-49.539710044,AGENT#673b00c6-5a3c-11ea-998f-8b12cde5a2e0,1,97,98,10,1.0,1.0,0
run-2020-2-28-15-9-49.539710044,AGENT#676b4344-5a3c-11ea-b19e-1305603c104b,1,98,99,10,1.0,1.0,0
