RunID,Tick,AllAgents,Active,Inactive
run-2020-2-28-15-9-49.539710044,0,12,10,2
run-2020-2-28-15-9-49.539710044,1,15,10,5
run-2020-2-28-15-9-49.539710044,2,18,12,6
run-2020-2-28-15-9-49.539710044,3,20,11,9
run-2020-2-28-15-9-49.539710044,4,23,11,12
run-2020-2-28-15-9-49.539710044,5,28,12,16
run-2020-2-28-15-9-49.539710044,6,33,15,18
run-2020-2-28-15-9-49.539710044,7,35,15,20
run-2020-2-28-15-9-49.539710044,8,43,22,21
run-2020-2-28-15-9-49.539710044,9,47,21,26
run-2020-2-28-15-9-49.539710044,10,53,21,32
run-2020-2-28-15-9-49.539710044,11,56,22,34
run-2020-2-28-15-9-49.539710044,12,57,20,37
run-2020-2-28-15-9-49.539710044,13,60,21,39
run-2020-2-28-15-9-49.539710044,14,60,18,42
run-2020-2-28-15-9-49.539710044,15,62,18,44
run-2020-2-28-15-9-49.539710044,16,64,19,45
run-2020-2-28-15-9-49.539710044,17,67,20,47
run-2020-2-28-15-9-49.539710044,18,72,24,48
run-2020-2-28-15-9-49.539710044,19,74,24,50
run-2020-2-28-15-9-49.539710044,20,82,28,54
run-2020-2-28-15-9-49.539710044,21,86,30,56
run-2020-2-28-15-9-49.539710044,22,91,30,61
run-2020-2-28-15-9-49.539710044,23,99,34,65
run-2020-2-28-15-9-49.539710044,24,103,35,68
run-2020-2-28-15-9-49.539710044,25,105,35,70
run-2020-2-28-15-9-49.539710044,26,107,33,74
run-2020-2-28-15-9-49.539710044,27,108,33,75
run-2020-2-28-15-9-49.539710044,28,109,31,78
run-2020-2-28-15-9-49.539710044,29,115,37,78
run-2020-2-28-15-9-49.539710044,30,119,37,82
run-2020-2-28-15-9-49.539710044,31,123,39,84
run-2020-2-28-15-9-49.539710044,32,127,37,90
run-2020-2-28-15-9-49.539710044,33,131,41,90
run-2020-2-28-15-9-49.539710044,34,135,43,92
run-2020-2-28-15-9-49.539710044,35,140,47,93
run-2020-2-28-15-9-49.539710044,36,145,47,98
run-2020-2-28-15-9-49.539710044,37,150,49,101
run-2020-2-28-15-9-49.539710044,38,153,49,104
run-2020-2-28-15-9-49.539710044,39,156,49,107
run-2020-2-28-15-9-49.539710044,40,160,50,110
run-2020-2-28-15-9-49.539710044,41,166,55,111
run-2020-2-28-15-9-49.539710044,42,168,50,118
run-2020-2-28-15-9-49.539710044,43,172,54,118
run-2020-2-28-15-9-49.539710044,44,173,54,119
run-2020-2-28-15-9-49.539710044,45,174,51,123
run-2020-2-28-15-9-49.539710044,46,178,53,125
run-2020-2-28-15-9-49.539710044,47,181,54,127
run-2020-2-28-15-9-49.539710044,48,185,54,131
run-2020-2-28-15-9-49.539710044,49,189,55,134
run-2020-2-28-15-9-49.539710044,50,194,59,135
run-2020-2-28-15-9-49.539710044,51,198,58,140
run-2020-2-28-15-9-49.539710044,52,202,56,146
run-2020-2-28-15-9-49.539710044,53,205,57,148
run-2020-2-28-15-9-49.539710044,54,205,54,151
run-2020-2-28-15-9-49.539710044,55,209,56,153
run-2020-2-28-15-9-49.539710044,56,213,55,158
run-2020-2-28-15-9-49.539710044,57,218,55,163
run-2020-2-28-15-9-49.539710044,58,223,57,166
run-2020-2-28-15-9-49.539710044,59,226,55,171
run-2020-2-28-15-9-49.539710044,60,230,56,174
run-2020-2-28-15-9-49.539710044,61,232,52,180
run-2020-2-28-15-9-49.539710044,62,239,54,185
run-2020-2-28-15-9-49.539710044,63,244,57,187
run-2020-2-28-15-9-49.539710044,64,248,57,191
run-2020-2-28-15-9-49.539710044,65,249,55,194
run-2020-2-28-15-9-49.539710044,66,252,51,201
run-2020-2-28-15-9-49.539710044,67,258,52,206
run-2020-2-28-15-9-49.539710044,68,261,51,210
run-2020-2-28-15-9-49.539710044,69,263,49,214
run-2020-2-28-15-9-49.539710044,70,269,53,216
run-2020-2-28-15-9-49.539710044,71,270,47,223
run-2020-2-28-15-9-49.539710044,72,275,52,223
run-2020-2-28-15-9-49.539710044,73,276,49,227
run-2020-2-28-15-9-49.539710044,74,277,46,231
run-2020-2-28-15-9-49.539710044,75,279,44,235
run-2020-2-28-15-9-49.539710044,76,281,44,237
run-2020-2-28-15-9-49.539710044,77,282,41,241
run-2020-2-28-15-9-49.539710044,78,284,43,241
run-2020-2-28-15-9-49.539710044,79,285,42,243
run-2020-2-28-15-9-49.539710044,80,291,44,247
run-2020-2-28-15-9-49.539710044,81,293,40,253
run-2020-2-28-15-9-49.539710044,82,294,39,255
run-2020-2-28-15-9-49.539710044,83,302,44,258
run-2020-2-28-15-9-49.539710044,84,309,49,260
run-2020-2-28-15-9-49.539710044,85,311,45,266
run-2020-2-28-15-9-49.539710044,86,314,44,270
run-2020-2-28-15-9-49.539710044,87,315,41,274
run-2020-2-28-15-9-49.539710044,88,321,44,277
run-2020-2-28-15-9-49.539710044,89,322,44,278
run-2020-2-28-15-9-49.539710044,90,325,43,282
run-2020-2-28-15-9-49.539710044,91,330,42,288
run-2020-2-28-15-9-49.539710044,92,335,47,288
run-2020-2-28-15-9-49.539710044,93,339,49,290
run-2020-2-28-15-9-49.539710044,94,342,48,294
run-2020-2-28-15-9-49.539710044,95,343,46,297
run-2020-2-28-15-9-49.539710044,96,345,47,298
run-2020-2-28-15-9-49.539710044,97,349,47,302
run-2020-2-28-15-9-49.539710044,98,354,48,306
run-2020-2-28-15-9-49.539710044,99,358,51,307
