RunID,AgentID,Tick,Created,Ressources,Reputation,Ability,Que,Action
run-2020-6-29-13-28-18.502083063,AGENT7bfd1aa0-ba0c-11ea-9eb1-1b6bf60a4ee6,102,100,8,1.0,0.1,3,[]
run-2020-6-29-13-28-18.502083063,AGENT7bfd1aa0-ba0c-11ea-9eb1-1b6bf60a4ee6,103,100,7,1.0,0.1,2,[]
run-2020-6-29-13-28-18.502083063,AGENT7bfd1aa0-ba0c-11ea-9eb1-1b6bf60a4ee6,104,100,5,1.0,0.1,1,[]
run-2020-6-29-13-28-18.502083063,AGENT7bfd1aa0-ba0c-11ea-9eb1-1b6bf60a4ee6,105,100,3,1.0,0.1,0,[]
run-2020-6-29-13-28-18.502083063,AGENT7bfd1aa0-ba0c-11ea-9eb1-1b6bf60a4ee6,109,100,16,1.0,0.1,0,[]
run-2020-6-29-13-28-18.502083063,AGENT7bfd1aa0-ba0c-11ea-9eb1-1b6bf60a4ee6,112,100,13,1.0,0.1,2,[]
run-2020-6-29-13-28-18.502083063,AGENT7bfd1aa0-ba0c-11ea-9eb1-1b6bf60a4ee6,113,100,11,1.0,0.1,1,[]
run-2020-6-29-13-28-18.502083063,AGENT7bfd1aa0-ba0c-11ea-9eb1-1b6bf60a4ee6,114,100,9,1.0,0.1,0,[]
run-2020-6-29-13-28-18.502083063,AGENT7bfd1aa0-ba0c-11ea-9eb1-1b6bf60a4ee6,117,100,7,1.0,0.1,4,[]
run-2020-6-29-13-28-18.502083063,AGENT7bfd1aa0-ba0c-11ea-9eb1-1b6bf60a4ee6,118,100,6,1.0,0.1,3,[]
run-2020-6-29-13-28-18.502083063,AGENT7bfd1aa0-ba0c-11ea-9eb1-1b6bf60a4ee6,119,100,5,1.0,0.1,2,[]
run-2020-6-29-13-28-18.502083063,AGENT7bfd1aa0-ba0c-11ea-9eb1-1b6bf60a4ee6,120,100,3,1.0,0.1,1,[]
run-2020-6-29-13-28-18.502083063,AGENT7bfd1aa0-ba0c-11ea-9eb1-1b6bf60a4ee6,121,100,1,1.0,0.1,0,[]
