RunID,AgentID,Tick,Created,Ressources,Reputation,Ability,Que,Action
run-2020-6-29-13-28-18.502083063,AGENT7e41de72-ba0c-11ea-8aba-7fc16bb4cd97,111,110,9,1.0,0.1,0,[]
run-2020-6-29-13-28-18.502083063,AGENT7e41de72-ba0c-11ea-8aba-7fc16bb4cd97,113,110,8,1.0,0.1,0,[]
