RunID,AgentID,Tick,Created,Ressources,Reputation,Ability,Que,Action
run-2020-6-29-13-28-18.502083063,AGENT7e9db45e-ba0c-11ea-9cac-1b2d9a24d093,115,113,7,1.0,0.2,3,[]
run-2020-6-29-13-28-18.502083063,AGENT7e9db45e-ba0c-11ea-9cac-1b2d9a24d093,116,113,6,1.0,0.2,2,[]
run-2020-6-29-13-28-18.502083063,AGENT7e9db45e-ba0c-11ea-9cac-1b2d9a24d093,117,113,4,1.0,0.2,1,[]
