RunID,AgentID,Tick,Created,Ressources,Reputation,Ability,Que,Action
run-2020-6-29-13-28-18.502083063,AGENT7dbe27e4-ba0c-11ea-ba5a-2384e65d2e01,107,106,9,1.0,0,0,[]
run-2020-6-29-13-28-18.502083063,AGENT7dbe27e4-ba0c-11ea-ba5a-2384e65d2e01,109,106,8,1.0,0,0,[]
run-2020-6-29-13-28-18.502083063,AGENT7dbe27e4-ba0c-11ea-ba5a-2384e65d2e01,111,106,7,1.0,0,0,[]
run-2020-6-29-13-28-18.502083063,AGENT7dbe27e4-ba0c-11ea-ba5a-2384e65d2e01,113,106,6,1.0,0,0,[]
run-2020-6-29-13-28-18.502083063,AGENT7dbe27e4-ba0c-11ea-ba5a-2384e65d2e01,115,106,4,1.0,0,0,[]
run-2020-6-29-13-28-18.502083063,AGENT7dbe27e4-ba0c-11ea-ba5a-2384e65d2e01,117,106,3,1.0,0,0,[]
run-2020-6-29-13-28-18.502083063,AGENT7dbe27e4-ba0c-11ea-ba5a-2384e65d2e01,119,106,2,1.0,0,0,[]
run-2020-6-29-13-28-18.502083063,AGENT7dbe27e4-ba0c-11ea-ba5a-2384e65d2e01,121,106,1,1.0,0,0,[]
