RunID,Agent,Age,Created,Inactive,Resources,Reputation,Ability,Que
run-2020-2-18-13-54-39.144620895,AGENT#34e1df16-5256-11ea-a309-7b325122e433,0,0,0,10,1.0,1.0,0
run-2020-2-18-13-54-39.144620895,AGENT#34e1e740-5256-11ea-9d13-8721a2bb17af,0,0,0,10,1.0,1.0,0
run-2020-2-18-13-54-39.144620895,AGENT#34e1f1e0-5256-11ea-a3dc-d3e2a684fd01,1,0,1,10,1.0,1.0,0
run-2020-2-18-13-54-39.144620895,AGENT#34e23808-5256-11ea-857f-37bd36ee7dca,1,0,1,10,1.0,1.0,0
run-2020-2-18-13-54-39.144620895,AGENT#34e1dc46-5256-11ea-b9e7-07efbdb6fd70,2,0,2,10,1.0,1.0,0
run-2020-2-18-13-54-39.144620895,AGENT#34e1e9de-5256-11ea-b65f-ef58ac57fadf,2,0,2,10,1.0,1.0,0
run-2020-2-18-13-54-39.144620895,AGENT#34e1d8fe-5256-11ea-a9c8-b302b2632f16,3,0,3,10,1.0,1.0,0
run-2020-2-18-13-54-39.144620895,AGENT#34e231dc-5256-11ea-9f1c-6bdf845f5cb2,3,0,3,10,1.0,1.0,0
run-2020-2-18-13-54-39.144620895,AGENT#34e78100-5256-11ea-be38-c724cb49b7db,3,2,5,10,1.0,1.0,0
run-2020-2-18-13-54-39.144620895,AGENT#34e7d060-5256-11ea-801e-23f44bd2977e,1,4,5,10,1.0,1.0,0
run-2020-2-18-13-54-39.144620895,AGENT#34e7d330-5256-11ea-8ab8-3fd685847b2a,1,4,5,10,1.0,1.0,0
run-2020-2-18-13-54-39.144620895,AGENT#34e7db0a-5256-11ea-9c2b-ff801bc54e3c,1,4,5,10,1.0,1.0,0
run-2020-2-18-13-54-39.144620895,AGENT#34e7a5ea-5256-11ea-8844-4f5edec09142,3,3,6,10,1.0,1.0,0
run-2020-2-18-13-54-39.144620895,AGENT#34e7a900-5256-11ea-ae2e-5ff76c8a4f42,3,3,6,10,1.0,1.0,0
run-2020-2-18-13-54-39.144620895,AGENT#34e7d86c-5256-11ea-bd04-23e4f030ada4,2,4,6,10,1.0,1.0,0
run-2020-2-18-13-54-39.144620895,AGENT#34e1e484-5256-11ea-9fcd-9fbce927c7ce,7,0,7,10,1.0,1.0,0
run-2020-2-18-13-54-39.144620895,AGENT#34e85c2e-5256-11ea-bb7d-c394ab4bfad2,1,6,7,10,1.0,1.0,0
run-2020-2-18-13-54-39.144620895,AGENT#34e86052-5256-11ea-a747-ef75b0dd9bb5,1,6,7,10,1.0,1.0,0
run-2020-2-18-13-54-39.144620895,AGENT#34e7abd0-5256-11ea-8fcb-a31425a41921,5,3,8,10,1.0,1.0,0
run-2020-2-18-13-54-39.144620895,AGENT#34e8a350-5256-11ea-a861-03f8fc7339da,3,7,10,10,1.0,1.0,0
run-2020-2-18-13-54-39.144620895,AGENT#34e89b4e-5256-11ea-ad04-63c22aedea2f,5,7,12,10,1.0,1.0,0
run-2020-2-18-13-54-39.144620895,AGENT#34e932b6-5256-11ea-9a33-179a18dde495,2,10,12,10,1.0,1.0,0
run-2020-2-18-13-54-39.144620895,AGENT#34e907fa-5256-11ea-b320-03d6182e861d,4,9,13,10,1.0,1.0,0
run-2020-2-18-13-54-39.144620895,AGENT#34e98b1c-5256-11ea-9d9c-0b8377c1b3fe,2,12,14,10,1.0,1.0,0
run-2020-2-18-13-54-39.144620895,AGENT#34e9c2ee-5256-11ea-a89a-3f030926bffa,2,13,15,10,1.0,1.0,0
run-2020-2-18-13-54-39.144620895,AGENT#34e9fb7e-5256-11ea-ab07-0fecb68eda52,1,14,15,10,1.0,1.0,0
run-2020-2-18-13-54-39.144620895,AGENT#34e9fe62-5256-11ea-ac77-a3c348a979d8,2,14,16,10,1.0,1.0,0
run-2020-2-18-13-54-39.144620895,AGENT#34ea336e-5256-11ea-8986-ff051e46da0d,1,15,16,10,1.0,1.0,0
run-2020-2-18-13-54-39.144620895,AGENT#34e9c5d2-5256-11ea-967d-13cce1723271,4,13,17,10,1.0,1.0,0
run-2020-2-18-13-54-39.144620895,AGENT#34ea6cee-5256-11ea-be7d-2323afe79de5,1,16,17,10,1.0,1.0,0
run-2020-2-18-13-54-39.144620895,AGENT#34ea3080-5256-11ea-97a0-9feb1155e69d,3,15,18,10,1.0,1.0,0
run-2020-2-18-13-54-39.144620895,AGENT#34ea6fd2-5256-11ea-baa4-43d7b0c02087,2,16,18,10,1.0,1.0,0
run-2020-2-18-13-54-39.144620895,AGENT#34ea72ac-5256-11ea-8985-9795aa482de6,2,16,18,10,1.0,1.0,0
run-2020-2-18-13-54-39.144620895,AGENT#34eaafba-5256-11ea-9159-1f40f889319e,1,17,18,10,1.0,1.0,0
run-2020-2-18-13-54-39.144620895,AGENT#34eab4e2-5256-11ea-a992-bb5c8ebbdc01,2,17,19,10,1.0,1.0,0
run-2020-2-18-13-54-39.144620895,AGENT#34e23510-5256-11ea-85ef-77546ea36081,20,0,20,10,1.0,1.0,0
run-2020-2-18-13-54-39.144620895,AGENT#34eaacb8-5256-11ea-bcfd-5bff2388d544,3,17,20,10,1.0,1.0,0
run-2020-2-18-13-54-39.144620895,AGENT#34eab776-5256-11ea-9795-ab03899d7d4a,3,17,20,10,1.0,1.0,0
run-2020-2-18-13-54-39.144620895,AGENT#34eb2b8e-5256-11ea-a69c-33680e7ac523,1,19,20,10,1.0,1.0,0
run-2020-2-18-13-54-39.144620895,AGENT#34e93586-5256-11ea-b83f-1f92deb366e7,11,10,21,10,1.0,1.0,0
run-2020-2-18-13-54-39.144620895,AGENT#34eb6e96-5256-11ea-9361-5fdbd21b1090,1,20,21,10,1.0,1.0,0
run-2020-2-18-13-54-39.144620895,AGENT#34eb7152-5256-11ea-af1c-7784660c9524,1,20,21,10,1.0,1.0,0
run-2020-2-18-13-54-39.144620895,AGENT#34eb7404-5256-11ea-9708-3324b909917a,1,20,21,10,1.0,1.0,0
run-2020-2-18-13-54-39.144620895,AGENT#34ebb7ca-5256-11ea-94ba-4340104a95c7,1,21,22,10,1.0,1.0,0
run-2020-2-18-13-54-39.144620895,AGENT#34ebad52-5256-11ea-ba67-bf21359c6df3,2,21,23,10,1.0,1.0,0
run-2020-2-18-13-54-39.144620895,AGENT#34ebfae6-5256-11ea-8a6a-6b9b4bab6eea,1,22,23,10,1.0,1.0,0
run-2020-2-18-13-54-39.144620895,AGENT#34ebfdac-5256-11ea-a95a-635cf86c724e,2,22,24,10,1.0,1.0,0
run-2020-2-18-13-54-39.144620895,AGENT#34eb6bc6-5256-11ea-aa1c-a3b4d8d81391,5,20,25,10,1.0,1.0,0
run-2020-2-18-13-54-39.144620895,AGENT#34ebb022-5256-11ea-8995-a3b66dc4a5c6,4,21,25,10,1.0,1.0,0
run-2020-2-18-13-54-39.144620895,AGENT#34ebb2b6-5256-11ea-9abe-d3ab708b5f03,4,21,25,10,1.0,1.0,0
run-2020-2-18-13-54-39.144620895,AGENT#34ebba54-5256-11ea-9391-37c8d5b5779c,4,21,25,10,1.0,1.0,0
run-2020-2-18-13-54-39.144620895,AGENT#34ec48c0-5256-11ea-8df3-6b2f4755e348,2,23,25,10,1.0,1.0,0
run-2020-2-18-13-54-39.144620895,AGENT#34ec8a60-5256-11ea-9453-bfe21f37320c,1,24,25,10,1.0,1.0,0
run-2020-2-18-13-54-39.144620895,AGENT#34ec8fe2-5256-11ea-b5e7-6b1bead7e86f,1,24,25,10,1.0,1.0,0
run-2020-2-18-13-54-39.144620895,AGENT#34ebb540-5256-11ea-85aa-7b8da03dcccf,5,21,26,10,1.0,1.0,0
run-2020-2-18-13-54-39.144620895,AGENT#34e9906c-5256-11ea-bd14-83a4afccf2af,15,12,27,10,1.0,1.0,0
run-2020-2-18-13-54-39.144620895,AGENT#34ed2966-5256-11ea-b736-e7109bc77815,1,26,27,10,1.0,1.0,0
run-2020-2-18-13-54-39.144620895,AGENT#34ec4654-5256-11ea-80b6-6fb5768434ce,5,23,28,10,1.0,1.0,0
run-2020-2-18-13-54-39.144620895,AGENT#34ed78a8-5256-11ea-9a7d-7be18215c052,1,27,28,10,1.0,1.0,0
run-2020-2-18-13-54-39.144620895,AGENT#34eb2e90-5256-11ea-ae71-7bedcd3166e5,10,19,29,10,1.0,1.0,0
run-2020-2-18-13-54-39.144620895,AGENT#34ed2be6-5256-11ea-b3fa-1771005b3aa9,3,26,29,10,1.0,1.0,0
run-2020-2-18-13-54-39.144620895,AGENT#34ed2e70-5256-11ea-aa5e-fbdad07195bf,3,26,29,10,1.0,1.0,0
run-2020-2-18-13-54-39.144620895,AGENT#34edc812-5256-11ea-81e0-1fa1fa786def,1,28,29,10,1.0,1.0,0
run-2020-2-18-13-54-39.144620895,AGENT#34edcaba-5256-11ea-9f9d-0f346b7ca8ad,1,28,29,10,1.0,1.0,0
run-2020-2-18-13-54-39.144620895,AGENT#34edcfb0-5256-11ea-b643-03604fc970b1,1,28,29,10,1.0,1.0,0
run-2020-2-18-13-54-39.144620895,AGENT#34edcd3a-5256-11ea-99f9-f7758ad43346,2,28,30,10,1.0,1.0,0
run-2020-2-18-13-54-39.144620895,AGENT#34ee2168-5256-11ea-9337-afb78ee13765,2,29,31,10,1.0,1.0,0
run-2020-2-18-13-54-39.144620895,AGENT#34ee2438-5256-11ea-b74c-975097c840ef,2,29,31,10,1.0,1.0,0
run-2020-2-18-13-54-39.144620895,AGENT#34ee7280-5256-11ea-80d5-d3863cd5092b,1,30,31,10,1.0,1.0,0
run-2020-2-18-13-54-39.144620895,AGENT#34ed7600-5256-11ea-8555-b77261932997,5,27,32,10,1.0,1.0,0
run-2020-2-18-13-54-39.144620895,AGENT#34ee74e2-5256-11ea-85a7-a74354499a54,2,30,32,10,1.0,1.0,0
run-2020-2-18-13-54-39.144620895,AGENT#34ec43d4-5256-11ea-9e7c-d753afb74496,10,23,33,10,1.0,1.0,0
run-2020-2-18-13-54-39.144620895,AGENT#34ee700a-5256-11ea-acf1-2faeb198488c,3,30,33,10,1.0,1.0,0
run-2020-2-18-13-54-39.144620895,AGENT#34ee7758-5256-11ea-9bd4-d74abfd94076,3,30,33,10,1.0,1.0,0
run-2020-2-18-13-54-39.144620895,AGENT#34eece60-5256-11ea-8804-c3741fddcbca,2,31,33,10,1.0,1.0,0
run-2020-2-18-13-54-39.144620895,AGENT#34eed342-5256-11ea-84d6-176bb4208d24,2,31,33,10,1.0,1.0,0
run-2020-2-18-13-54-39.144620895,AGENT#34ebbcf2-5256-11ea-8548-a7830d0cc1ff,13,21,34,10,1.0,1.0,0
run-2020-2-18-13-54-39.144620895,AGENT#34ec8d62-5256-11ea-8172-f35238da30d3,10,24,34,10,1.0,1.0,0
run-2020-2-18-13-54-39.144620895,AGENT#34eec960-5256-11ea-9743-ebc3f83d52e9,3,31,34,10,1.0,1.0,0
run-2020-2-18-13-54-39.144620895,AGENT#34eecbf4-5256-11ea-8fda-df12f96d2dab,3,31,34,10,1.0,1.0,0
run-2020-2-18-13-54-39.144620895,AGENT#34ef264e-5256-11ea-a678-6b5c916ea508,2,32,34,10,1.0,1.0,0
run-2020-2-18-13-54-39.144620895,AGENT#34eed0e0-5256-11ea-90d5-a7133b68943a,4,31,35,10,1.0,1.0,0
run-2020-2-18-13-54-39.144620895,AGENT#34ef23c4-5256-11ea-b0d1-57cfb5bd79f3,4,32,36,10,1.0,1.0,0
run-2020-2-18-13-54-39.144620895,AGENT#34ef9188-5256-11ea-b22d-1f03ce6350b9,3,33,36,10,1.0,1.0,0
run-2020-2-18-13-54-39.144620895,AGENT#34ef28ba-5256-11ea-acd1-0fd9510e7598,5,32,37,10,1.0,1.0,0
run-2020-2-18-13-54-39.144620895,AGENT#34ef2b3a-5256-11ea-9a02-9fe2c1e6403c,5,32,37,10,1.0,1.0,0
run-2020-2-18-13-54-39.144620895,AGENT#34ef8508-5256-11ea-a275-7b2fa7bb466d,4,33,37,10,1.0,1.0,0
run-2020-2-18-13-54-39.144620895,AGENT#34ef8ca6-5256-11ea-9454-7b3d44aad058,4,33,37,10,1.0,1.0,0
run-2020-2-18-13-54-39.144620895,AGENT#34f04b32-5256-11ea-ad38-3be08279d382,2,35,37,10,1.0,1.0,0
run-2020-2-18-13-54-39.144620895,AGENT#34f0b284-5256-11ea-9e4b-ff588dedfc03,1,36,37,10,1.0,1.0,0
run-2020-2-18-13-54-39.144620895,AGENT#34f0b536-5256-11ea-b11c-1fcc5b5fb8ee,1,36,37,10,1.0,1.0,0
run-2020-2-18-13-54-39.144620895,AGENT#34f0bc5c-5256-11ea-8f56-c361c55536f1,1,36,37,10,1.0,1.0,0
run-2020-2-18-13-54-39.144620895,AGENT#34f0beaa-5256-11ea-8230-dfd33d7608f8,1,36,37,10,1.0,1.0,0
run-2020-2-18-13-54-39.144620895,AGENT#34ef8f08-5256-11ea-a379-33f950ff24e0,5,33,38,10,1.0,1.0,0
run-2020-2-18-13-54-39.144620895,AGENT#34f0b7a2-5256-11ea-9e24-c32eb3f17221,2,36,38,10,1.0,1.0,0
run-2020-2-18-13-54-39.144620895,AGENT#34ea7540-5256-11ea-a74e-b7b853be78be,23,16,39,10,1.0,1.0,0
run-2020-2-18-13-54-39.144620895,AGENT#34f18376-5256-11ea-bfe6-7f6ac9efa233,1,38,39,10,1.0,1.0,0
run-2020-2-18-13-54-39.144620895,AGENT#34ef2d92-5256-11ea-83b3-c39e18791f68,8,32,40,10,1.0,1.0,0
run-2020-2-18-13-54-39.144620895,AGENT#34f0c0f8-5256-11ea-9dad-13d1d6deab23,4,36,40,10,1.0,1.0,0
run-2020-2-18-13-54-39.144620895,AGENT#34f0b9fa-5256-11ea-a3e4-03bfcf8fe57b,5,36,41,10,1.0,1.0,0
run-2020-2-18-13-54-39.144620895,AGENT#34f12ac0-5256-11ea-9109-77a38be2040a,4,37,41,10,1.0,1.0,0
run-2020-2-18-13-54-39.144620895,AGENT#34f1e3a2-5256-11ea-a653-13a81dd1f0ae,3,39,42,10,1.0,1.0,0
run-2020-2-18-13-54-39.144620895,AGENT#34f240ea-5256-11ea-9278-274a0e543c31,2,40,42,10,1.0,1.0,0
run-2020-2-18-13-54-39.144620895,AGENT#34f2434c-5256-11ea-b191-c35392558618,2,40,42,10,1.0,1.0,0
run-2020-2-18-13-54-39.144620895,AGENT#34f24590-5256-11ea-b9f7-dfa4e4c00059,2,40,42,10,1.0,1.0,0
run-2020-2-18-13-54-39.144620895,AGENT#34f1e0fa-5256-11ea-b83c-0bb440397816,4,39,43,10,1.0,1.0,0
run-2020-2-18-13-54-39.144620895,AGENT#34f1e640-5256-11ea-a6f2-dff1b233fbb6,4,39,43,10,1.0,1.0,0
run-2020-2-18-13-54-39.144620895,AGENT#34f23e6a-5256-11ea-a5de-036469d22702,3,40,43,10,1.0,1.0,0
run-2020-2-18-13-54-39.144620895,AGENT#34f326ae-5256-11ea-9502-dbecb5a63bf1,1,42,43,10,1.0,1.0,0
run-2020-2-18-13-54-39.144620895,AGENT#34f3299c-5256-11ea-8418-139a5b92b969,1,42,43,10,1.0,1.0,0
run-2020-2-18-13-54-39.144620895,AGENT#34f38a22-5256-11ea-b56a-bf56a90e4bbf,1,43,44,10,1.0,1.0,0
run-2020-2-18-13-54-39.144620895,AGENT#34f39238-5256-11ea-9d23-7b0f58f783b9,1,43,44,10,1.0,1.0,0
run-2020-2-18-13-54-39.144620895,AGENT#34f3212c-5256-11ea-929a-d35c722014a4,3,42,45,10,1.0,1.0,0
run-2020-2-18-13-54-39.144620895,AGENT#34e1e1d2-5256-11ea-bec9-0b4d8f3b0484,46,0,46,10,1.0,1.0,0
run-2020-2-18-13-54-39.144620895,AGENT#34e71f4e-5256-11ea-8ce9-738388d49385,45,1,46,10,1.0,1.0,0
run-2020-2-18-13-54-39.144620895,AGENT#34f3ffe8-5256-11ea-acf0-478b2a39c450,2,44,46,10,1.0,1.0,0
run-2020-2-18-13-54-39.144620895,AGENT#34e77dfe-5256-11ea-b694-97729bff8dea,45,2,47,10,1.0,1.0,0
run-2020-2-18-13-54-39.144620895,AGENT#34f38f86-5256-11ea-ac3a-9fdf59d4be10,4,43,47,10,1.0,1.0,0
run-2020-2-18-13-54-39.144620895,AGENT#34f3fa3e-5256-11ea-9a9c-fb054e1505e6,3,44,47,10,1.0,1.0,0
run-2020-2-18-13-54-39.144620895,AGENT#34f3fd86-5256-11ea-99bb-97013c7722b7,3,44,47,10,1.0,1.0,0
run-2020-2-18-13-54-39.144620895,AGENT#34f4722a-5256-11ea-866c-13fbca5576bf,3,45,48,10,1.0,1.0,0
run-2020-2-18-13-54-39.144620895,AGENT#34e1ec86-5256-11ea-84c3-3f3ee7288c4d,49,0,49,10,1.0,1.0,0
run-2020-2-18-13-54-39.144620895,AGENT#34f474f0-5256-11ea-8615-53139a31fe98,4,45,49,10,1.0,1.0,0
run-2020-2-18-13-54-39.144620895,AGENT#34f5cfbc-5256-11ea-a80e-c34077f8221b,1,48,49,10,1.0,1.0,0
run-2020-2-18-13-54-39.144620895,AGENT#34e1ef24-5256-11ea-a8ff-171bd933cb8d,50,0,50,10,1.0,1.0,0
run-2020-2-18-13-54-39.144620895,AGENT#34e81f20-5256-11ea-9501-e367d0a8bf9a,45,5,50,10,1.0,1.0,0
run-2020-2-18-13-54-39.144620895,AGENT#34f2b926-5256-11ea-a6c8-4726311e3ab8,9,41,50,10,1.0,1.0,0
run-2020-2-18-13-54-39.144620895,AGENT#34f54ace-5256-11ea-a6e2-273c6a8b9994,3,47,50,10,1.0,1.0,0
run-2020-2-18-13-54-39.144620895,AGENT#34f54d62-5256-11ea-9f14-e7e883adaf7c,3,47,50,10,1.0,1.0,0
run-2020-2-18-13-54-39.144620895,AGENT#34f63ccc-5256-11ea-b230-ff056263db3c,1,49,50,10,1.0,1.0,0
run-2020-2-18-13-54-39.144620895,AGENT#34f64456-5256-11ea-8479-c7843feaf975,1,49,50,10,1.0,1.0,0
run-2020-2-18-13-54-39.144620895,AGENT#34f2b674-5256-11ea-9f29-97d3675710a5,11,41,52,10,1.0,1.0,0
run-2020-2-18-13-54-39.144620895,AGENT#34f64208-5256-11ea-9799-af43e316d559,3,49,52,10,1.0,1.0,0
run-2020-2-18-13-54-39.144620895,AGENT#34e7d5c4-5256-11ea-be0c-57931e3f2ff3,49,4,53,10,1.0,1.0,0
run-2020-2-18-13-54-39.144620895,AGENT#34e81b06-5256-11ea-931b-9f3d50de072a,48,5,53,10,1.0,1.0,0
run-2020-2-18-13-54-39.144620895,AGENT#34f5cd64-5256-11ea-934d-6fb6f181839c,5,48,53,10,1.0,1.0,0
run-2020-2-18-13-54-39.144620895,AGENT#34f646ae-5256-11ea-92d5-3ffa2f63ad99,4,49,53,10,1.0,1.0,0
run-2020-2-18-13-54-39.144620895,AGENT#34f78d66-5256-11ea-bd11-735e77fb0355,1,52,53,10,1.0,1.0,0
run-2020-2-18-13-54-39.144620895,AGENT#34f78fe6-5256-11ea-81be-7f80474c2b38,1,52,53,10,1.0,1.0,0
run-2020-2-18-13-54-39.144620895,AGENT#34e904ee-5256-11ea-8b18-53a14fd0b494,45,9,54,10,1.0,1.0,0
run-2020-2-18-13-54-39.144620895,AGENT#34f6bcb0-5256-11ea-be34-d34268bbba6a,4,50,54,10,1.0,1.0,0
run-2020-2-18-13-54-39.144620895,AGENT#34e89f90-5256-11ea-95a4-9fdfb69cccd2,48,7,55,10,1.0,1.0,0
run-2020-2-18-13-54-39.144620895,AGENT#34ecdf24-5256-11ea-a993-070a75ee8051,30,25,55,10,1.0,1.0,0
run-2020-2-18-13-54-39.144620895,AGENT#34f71ef8-5256-11ea-bb35-4712e9c89827,5,51,56,10,1.0,1.0,0
run-2020-2-18-13-54-39.144620895,AGENT#34f86394-5256-11ea-9e22-2363caa30b4a,2,54,56,10,1.0,1.0,0
run-2020-2-18-13-54-39.144620895,AGENT#34f8cdca-5256-11ea-bca6-57779a842666,1,55,56,10,1.0,1.0,0
run-2020-2-18-13-54-39.144620895,AGENT#34f8d31a-5256-11ea-8990-7feb757e4817,1,55,56,10,1.0,1.0,0
run-2020-2-18-13-54-39.144620895,AGENT#34e98dd8-5256-11ea-8404-1b4b6dbedf63,45,12,57,10,1.0,1.0,0
run-2020-2-18-13-54-39.144620895,AGENT#34f86844-5256-11ea-94b4-a7b6d9de235a,3,54,57,10,1.0,1.0,0
run-2020-2-18-13-54-39.144620895,AGENT#34f8d072-5256-11ea-b8d1-d30495d8afa1,3,55,58,10,1.0,1.0,0
run-2020-2-18-13-54-39.144620895,AGENT#34f9b7b2-5256-11ea-b58a-0728cdceb25d,1,57,58,10,1.0,1.0,0
run-2020-2-18-13-54-39.144620895,AGENT#34e9c85c-5256-11ea-8252-c7a76812bf91,46,13,59,10,1.0,1.0,0
run-2020-2-18-13-54-39.144620895,AGENT#34f8613c-5256-11ea-add3-5f091702a233,5,54,59,10,1.0,1.0,0
run-2020-2-18-13-54-39.144620895,AGENT#34f865f6-5256-11ea-8203-f7f345d3598c,5,54,59,10,1.0,1.0,0
run-2020-2-18-13-54-39.144620895,AGENT#34fa2e4a-5256-11ea-a907-b37c2fb60450,3,58,61,10,1.0,1.0,0
run-2020-2-18-13-54-39.144620895,AGENT#34fa9ccc-5256-11ea-8dea-6be760b18b5d,2,59,61,10,1.0,1.0,0
run-2020-2-18-13-54-39.144620895,AGENT#34fb1472-5256-11ea-ace0-cb849ceb7d0b,1,60,61,10,1.0,1.0,0
run-2020-2-18-13-54-39.144620895,AGENT#34fb1c4c-5256-11ea-98d3-afc333520276,1,60,61,10,1.0,1.0,0
run-2020-2-18-13-54-39.144620895,AGENT#34eab262-5256-11ea-85b2-83bc3a7cac44,45,17,62,10,1.0,1.0,0
run-2020-2-18-13-54-39.144620895,AGENT#34fa26fc-5256-11ea-a4e2-6bdb1a9a9df7,4,58,62,10,1.0,1.0,0
run-2020-2-18-13-54-39.144620895,AGENT#34fb19cc-5256-11ea-834b-2bc06208c802,2,60,62,10,1.0,1.0,0
run-2020-2-18-13-54-39.144620895,AGENT#34ecdc68-5256-11ea-beb6-83517fa30abd,38,25,63,10,1.0,1.0,0
run-2020-2-18-13-54-39.144620895,AGENT#34ed7d8a-5256-11ea-bfbe-1bba1f1daaca,36,27,63,10,1.0,1.0,0
run-2020-2-18-13-54-39.144620895,AGENT#34ef8a1c-5256-11ea-a463-cf7aca6e299b,32,33,65,10,1.0,1.0,0
run-2020-2-18-13-54-39.144620895,AGENT#34fb9c6c-5256-11ea-954a-5bffb2b38c93,5,61,66,10,1.0,1.0,0
run-2020-2-18-13-54-39.144620895,AGENT#34fc1462-5256-11ea-ac06-ef3255cebecb,4,62,66,10,1.0,1.0,0
run-2020-2-18-13-54-39.144620895,AGENT#34fc17f0-5256-11ea-87b8-f7034f6b97fb,4,62,66,10,1.0,1.0,0
run-2020-2-18-13-54-39.144620895,AGENT#34fc9176-5256-11ea-8382-cb7b8ac49dbc,3,63,66,10,1.0,1.0,0
run-2020-2-18-13-54-39.144620895,AGENT#34fd09ee-5256-11ea-a41c-cf2cf526a2fd,2,64,66,10,1.0,1.0,0
run-2020-2-18-13-54-39.144620895,AGENT#34f323d4-5256-11ea-a1a0-53c5ef2707f4,25,42,67,10,1.0,1.0,0
run-2020-2-18-13-54-39.144620895,AGENT#34fd071e-5256-11ea-89d4-9f468559613e,3,64,67,10,1.0,1.0,0
run-2020-2-18-13-54-39.144620895,AGENT#34fe126c-5256-11ea-86cb-535f01c85758,1,66,67,10,1.0,1.0,0
run-2020-2-18-13-54-39.144620895,AGENT#34fe14c4-5256-11ea-ab8e-c39d61b42341,1,66,67,10,1.0,1.0,0
run-2020-2-18-13-54-39.144620895,AGENT#34fd843c-5256-11ea-8aed-73c53e95cf6c,3,65,68,10,1.0,1.0,0
run-2020-2-18-13-54-39.144620895,AGENT#34fd890a-5256-11ea-975c-cf58ad6be08d,3,65,68,10,1.0,1.0,0
run-2020-2-18-13-54-39.144620895,AGENT#34fe0b6e-5256-11ea-9810-539d37a7b334,2,66,68,10,1.0,1.0,0
run-2020-2-18-13-54-39.144620895,AGENT#34ec4122-5256-11ea-aa70-838b93ee960a,46,23,69,10,1.0,1.0,0
run-2020-2-18-13-54-39.144620895,AGENT#34fd86b2-5256-11ea-8554-6303b41ea051,4,65,69,10,1.0,1.0,0
run-2020-2-18-13-54-39.144620895,AGENT#34ece1ae-5256-11ea-86c7-f78f0ac75dde,45,25,70,10,1.0,1.0,0
run-2020-2-18-13-54-39.144620895,AGENT#34efed54-5256-11ea-8d73-a3e00fb1e6e4,36,34,70,10,1.0,1.0,0
run-2020-2-18-13-54-39.144620895,AGENT#34fe0916-5256-11ea-b0de-2f3a3ce19891,4,66,70,10,1.0,1.0,0
run-2020-2-18-13-54-39.144620895,AGENT#34fe0dbc-5256-11ea-9031-3f7f64212bfe,4,66,70,10,1.0,1.0,0
run-2020-2-18-13-54-39.144620895,AGENT#34ff14fa-5256-11ea-b928-7f35fc139c2d,2,68,70,10,1.0,1.0,0
run-2020-2-18-13-54-39.144620895,AGENT#34ed26aa-5256-11ea-9d0b-fbcd16ff5c60,45,26,71,10,1.0,1.0,0
run-2020-2-18-13-54-39.144620895,AGENT#34f40240-5256-11ea-84d4-0fe5e0bf45b5,27,44,71,10,1.0,1.0,0
run-2020-2-18-13-54-39.144620895,AGENT#34fe06a0-5256-11ea-b2fe-cf7ae244e1da,5,66,71,10,1.0,1.0,0
run-2020-2-18-13-54-39.144620895,AGENT#34fe94b2-5256-11ea-8956-8382124b8761,4,67,71,10,1.0,1.0,0
run-2020-2-18-13-54-39.144620895,AGENT#34ff9d6c-5256-11ea-a309-3be940571ade,2,69,71,10,1.0,1.0,0
run-2020-2-18-13-54-39.144620895,AGENT#350024da-5256-11ea-a146-efbd98da62df,1,70,71,10,1.0,1.0,0
run-2020-2-18-13-54-39.144620895,AGENT#34ed30f0-5256-11ea-b428-0f558351ec58,46,26,72,10,1.0,1.0,0
run-2020-2-18-13-54-39.144620895,AGENT#34ed7b1e-5256-11ea-b1f2-438bf3d17a1d,45,27,72,10,1.0,1.0,0
run-2020-2-18-13-54-39.144620895,AGENT#34ff9ad8-5256-11ea-8f04-9b89d9ea8f2e,3,69,72,10,1.0,1.0,0
run-2020-2-18-13-54-39.144620895,AGENT#35013212-5256-11ea-82ea-8b439468be69,1,72,73,10,1.0,1.0,0
run-2020-2-18-13-54-39.144620895,AGENT#3501347e-5256-11ea-afb3-23a5e7cd84e9,1,72,73,10,1.0,1.0,0
run-2020-2-18-13-54-39.144620895,AGENT#350242ba-5256-11ea-acb1-03fc527cb17d,1,74,75,10,1.0,1.0,0
run-2020-2-18-13-54-39.144620895,AGENT#34efefc0-5256-11ea-8a95-bb374a42a3aa,42,34,76,10,1.0,1.0,0
run-2020-2-18-13-54-39.144620895,AGENT#35012cf4-5256-11ea-a269-63490fcb03ba,4,72,76,10,1.0,1.0,0
run-2020-2-18-13-54-39.144620895,AGENT#34ee6b00-5256-11ea-9c5f-4ba10072e13f,47,30,77,10,1.0,1.0,0
run-2020-2-18-13-54-39.144620895,AGENT#3501c0e2-5256-11ea-b705-8bf15b0bc413,4,73,77,10,1.0,1.0,0
run-2020-2-18-13-54-39.144620895,AGENT#3502c956-5256-11ea-8556-63cb60e73f42,2,75,77,10,1.0,1.0,0
run-2020-2-18-13-54-39.144620895,AGENT#3502d126-5256-11ea-94f9-838a32620746,3,75,78,10,1.0,1.0,0
run-2020-2-18-13-54-39.144620895,AGENT#35036d2a-5256-11ea-a5c9-0b90a511a878,2,76,78,10,1.0,1.0,0
run-2020-2-18-13-54-39.144620895,AGENT#34ee6d94-5256-11ea-9707-ff3c1de1ac76,49,30,79,10,1.0,1.0,0
run-2020-2-18-13-54-39.144620895,AGENT#34ef87a6-5256-11ea-a029-474f5321f67e,46,33,79,10,1.0,1.0,0
run-2020-2-18-13-54-39.144620895,AGENT#350364e2-5256-11ea-8339-8f35cdc63ae1,3,76,79,10,1.0,1.0,0
run-2020-2-18-13-54-39.144620895,AGENT#35043c82-5256-11ea-be2f-5b68658b4d6c,2,77,79,10,1.0,1.0,0
run-2020-2-18-13-54-39.144620895,AGENT#3504f730-5256-11ea-9f07-2f8f3c4ce46f,1,78,79,10,1.0,1.0,0
run-2020-2-18-13-54-39.144620895,AGENT#34f05046-5256-11ea-9161-57cb1e2277fa,45,35,80,10,1.0,1.0,0
run-2020-2-18-13-54-39.144620895,AGENT#34f40498-5256-11ea-816f-dfcc6a72d21b,36,44,80,10,1.0,1.0,0
run-2020-2-18-13-54-39.144620895,AGENT#35044998-5256-11ea-9dcb-bf2ef9839131,3,77,80,10,1.0,1.0,0
run-2020-2-18-13-54-39.144620895,AGENT#3505b364-5256-11ea-8099-279466f21755,1,79,80,10,1.0,1.0,0
run-2020-2-18-13-54-39.144620895,AGENT#35036258-5256-11ea-8d7b-33c6e0f01cfd,5,76,81,10,1.0,1.0,0
run-2020-2-18-13-54-39.144620895,AGENT#35044358-5256-11ea-b59c-bff6b4ff54f5,4,77,81,10,1.0,1.0,0
run-2020-2-18-13-54-39.144620895,AGENT#3505ae64-5256-11ea-a09d-bf429f6a6400,2,79,81,10,1.0,1.0,0
run-2020-2-18-13-54-39.144620895,AGENT#3505b0f8-5256-11ea-975b-27c493f6bd00,2,79,81,10,1.0,1.0,0
run-2020-2-18-13-54-39.144620895,AGENT#35066156-5256-11ea-a1ca-63a52a3042b8,1,80,81,10,1.0,1.0,0
run-2020-2-18-13-54-39.144620895,AGENT#3500ad92-5256-11ea-a7fc-c35901407343,11,71,82,10,1.0,1.0,0
run-2020-2-18-13-54-39.144620895,AGENT#3505b7f6-5256-11ea-816f-6f2b049c0e1a,3,79,82,10,1.0,1.0,0
run-2020-2-18-13-54-39.144620895,AGENT#3505ba3a-5256-11ea-ae41-533945f529a4,3,79,82,10,1.0,1.0,0
run-2020-2-18-13-54-39.144620895,AGENT#3505bec2-5256-11ea-9f80-fbc5f19e1a1c,3,79,82,10,1.0,1.0,0
run-2020-2-18-13-54-39.144620895,AGENT#350666b0-5256-11ea-9df8-b31f20925b72,2,80,82,10,1.0,1.0,0
run-2020-2-18-13-54-39.144620895,AGENT#34f0529e-5256-11ea-b0ba-575cc0b80b33,48,35,83,10,1.0,1.0,0
run-2020-2-18-13-54-39.144620895,AGENT#3505b5b2-5256-11ea-b8c7-6f1ceba566b8,4,79,83,10,1.0,1.0,0
run-2020-2-18-13-54-39.144620895,AGENT#3507c6e0-5256-11ea-a04a-6f053fa8c947,1,82,83,10,1.0,1.0,0
run-2020-2-18-13-54-39.144620895,AGENT#34efeac0-5256-11ea-ac05-4f72eedb511a,50,34,84,10,1.0,1.0,0
run-2020-2-18-13-54-39.144620895,AGENT#34f04dda-5256-11ea-9b1c-27ef911632e3,49,35,84,10,1.0,1.0,0
run-2020-2-18-13-54-39.144620895,AGENT#3505bc88-5256-11ea-ae9d-cf98f7aa876e,5,79,84,10,1.0,1.0,0
run-2020-2-18-13-54-39.144620895,AGENT#350709a8-5256-11ea-95f2-73331731c133,3,81,84,10,1.0,1.0,0
run-2020-2-18-13-54-39.144620895,AGENT#3507cf5a-5256-11ea-a2a5-6be95d7242e1,3,82,85,10,1.0,1.0,0
run-2020-2-18-13-54-39.144620895,AGENT#35091bbc-5256-11ea-bb3c-6bc3dab0de65,1,84,85,10,1.0,1.0,0
run-2020-2-18-13-54-39.144620895,AGENT#34f2bbb0-5256-11ea-8dc0-83d9219365b8,46,41,87,10,1.0,1.0,0
run-2020-2-18-13-54-39.144620895,AGENT#3509de26-5256-11ea-bb54-5b5d6ff6d30c,2,85,87,10,1.0,1.0,0
run-2020-2-18-13-54-39.144620895,AGENT#34f38d10-5256-11ea-8c82-e34df592f52b,45,43,88,10,1.0,1.0,0
run-2020-2-18-13-54-39.144620895,AGENT#3509db88-5256-11ea-9334-c3ba0b070db6,3,85,88,10,1.0,1.0,0
run-2020-2-18-13-54-39.144620895,AGENT#34f85e9e-5256-11ea-8499-8f1a57ef7907,35,54,89,10,1.0,1.0,0
run-2020-2-18-13-54-39.144620895,AGENT#34f4dd78-5256-11ea-b111-a319346082a3,45,46,91,10,1.0,1.0,0
run-2020-2-18-13-54-39.144620895,AGENT#350a7b60-5256-11ea-9765-37e8b6521317,5,86,91,10,1.0,1.0,0
run-2020-2-18-13-54-39.144620895,AGENT#34f545ce-5256-11ea-9d49-1f66084cc91e,45,47,92,10,1.0,1.0,0
run-2020-2-18-13-54-39.144620895,AGENT#350b2902-5256-11ea-9dec-47186ccb664f,5,87,92,10,1.0,1.0,0
run-2020-2-18-13-54-39.144620895,AGENT#350c78d4-5256-11ea-be01-ffa05c6f8cb0,3,89,92,10,1.0,1.0,0
run-2020-2-18-13-54-39.144620895,AGENT#350d3292-5256-11ea-a827-4f2c94507245,2,90,92,10,1.0,1.0,0
run-2020-2-18-13-54-39.144620895,AGENT#350de6c4-5256-11ea-8065-9317bfd68a85,1,91,92,10,1.0,1.0,0
run-2020-2-18-13-54-39.144620895,AGENT#350e93da-5256-11ea-a822-0b23257a724d,1,92,93,10,1.0,1.0,0
run-2020-2-18-13-54-39.144620895,AGENT#350c73ac-5256-11ea-9dff-1f8e459e91e2,5,89,94,10,1.0,1.0,0
run-2020-2-18-13-54-39.144620895,AGENT#350de426-5256-11ea-bab0-bfe64381f2de,3,91,94,10,1.0,1.0,0
run-2020-2-18-13-54-39.144620895,AGENT#350e966e-5256-11ea-8e4a-0f6a8a210297,2,92,94,10,1.0,1.0,0
run-2020-2-18-13-54-39.144620895,AGENT#34f9b2ee-5256-11ea-8b10-ff4f7d0fdc71,38,57,95,10,1.0,1.0,0
run-2020-2-18-13-54-39.144620895,AGENT#350f3cf4-5256-11ea-a9d6-3f315ba87ab2,2,93,95,10,1.0,1.0,0
run-2020-2-18-13-54-39.144620895,AGENT#350ff6c6-5256-11ea-8908-cf44b13996ad,1,94,95,10,1.0,1.0,0
run-2020-2-18-13-54-39.144620895,AGENT#34f54862-5256-11ea-b3da-97ee0bf070b8,49,47,96,10,1.0,1.0,0
run-2020-2-18-13-54-39.144620895,AGENT#350e98da-5256-11ea-b1c4-f35e72fcae44,4,92,96,10,1.0,1.0,0
run-2020-2-18-13-54-39.144620895,AGENT#350e9b3c-5256-11ea-b7cb-3bb3298e61de,4,92,96,10,1.0,1.0,0
run-2020-2-18-13-54-39.144620895,AGENT#350ff22a-5256-11ea-8fab-731f45c1bfce,2,94,96,10,1.0,1.0,0
run-2020-2-18-13-54-39.144620895,AGENT#350ff482-5256-11ea-b8e0-03f977a7fc1a,2,94,96,10,1.0,1.0,0
run-2020-2-18-13-54-39.144620895,AGENT#3510a9e0-5256-11ea-a5ff-4ba480483c1f,1,95,96,10,1.0,1.0,0
run-2020-2-18-13-54-39.144620895,AGENT#34f63f9c-5256-11ea-9bc1-b34d52cf0a2f,48,49,97,10,1.0,1.0,0
run-2020-2-18-13-54-39.144620895,AGENT#350de930-5256-11ea-a2dd-f7be040e6d20,6,91,97,10,1.0,1.0,0
run-2020-2-18-13-54-39.144620895,AGENT#35109fea-5256-11ea-ba87-5b8f98390884,2,95,97,10,1.0,1.0,0
run-2020-2-18-13-54-39.144620895,AGENT#35116088-5256-11ea-b939-eb98aee2221e,1,96,97,10,1.0,1.0,0
run-2020-2-18-13-54-39.144620895,AGENT#34f5cac6-5256-11ea-adac-97c05db00c58,51,48,99,10,1.0,1.0,0
run-2020-2-18-13-54-39.144620895,AGENT#34f78ad2-5256-11ea-a0d1-574f34d00297,47,52,99,10,1.0,1.0,0
run-2020-2-18-13-54-39.144620895,AGENT#35121c26-5256-11ea-94ca-e3288d8a4a70,2,97,99,10,1.0,1.0,0
run-2020-2-18-13-54-39.144620895,AGENT#3512c586-5256-11ea-ace0-3391371ba2aa,1,98,99,10,1.0,1.0,0
