RunID,Tick,ActiveAgentsPerTick
run-2020-2-29-9-27-11.50970292,0,13
run-2020-2-29-9-27-11.50970292,1,15
run-2020-2-29-9-27-11.50970292,2,16
run-2020-2-29-9-27-11.50970292,3,18
run-2020-2-29-9-27-11.50970292,4,15
run-2020-2-29-9-27-11.50970292,5,17
run-2020-2-29-9-27-11.50970292,6,21
run-2020-2-29-9-27-11.50970292,7,19
run-2020-2-29-9-27-11.50970292,8,19
run-2020-2-29-9-27-11.50970292,9,21
run-2020-2-29-9-27-11.50970292,10,25
run-2020-2-29-9-27-11.50970292,11,23
run-2020-2-29-9-27-11.50970292,12,26
run-2020-2-29-9-27-11.50970292,13,27
run-2020-2-29-9-27-11.50970292,14,29
run-2020-2-29-9-27-11.50970292,15,29
run-2020-2-29-9-27-11.50970292,16,31
run-2020-2-29-9-27-11.50970292,17,36
run-2020-2-29-9-27-11.50970292,18,38
run-2020-2-29-9-27-11.50970292,19,38
run-2020-2-29-9-27-11.50970292,20,39
run-2020-2-29-9-27-11.50970292,21,40
run-2020-2-29-9-27-11.50970292,22,43
run-2020-2-29-9-27-11.50970292,23,39
run-2020-2-29-9-27-11.50970292,24,39
run-2020-2-29-9-27-11.50970292,25,42
run-2020-2-29-9-27-11.50970292,26,40
run-2020-2-29-9-27-11.50970292,27,38
run-2020-2-29-9-27-11.50970292,28,40
run-2020-2-29-9-27-11.50970292,29,43
run-2020-2-29-9-27-11.50970292,30,38
run-2020-2-29-9-27-11.50970292,31,41
run-2020-2-29-9-27-11.50970292,32,41
run-2020-2-29-9-27-11.50970292,33,42
run-2020-2-29-9-27-11.50970292,34,45
run-2020-2-29-9-27-11.50970292,35,47
run-2020-2-29-9-27-11.50970292,36,50
run-2020-2-29-9-27-11.50970292,37,51
run-2020-2-29-9-27-11.50970292,38,52
run-2020-2-29-9-27-11.50970292,39,52
run-2020-2-29-9-27-11.50970292,40,54
run-2020-2-29-9-27-11.50970292,41,55
run-2020-2-29-9-27-11.50970292,42,53
run-2020-2-29-9-27-11.50970292,43,50
run-2020-2-29-9-27-11.50970292,44,54
run-2020-2-29-9-27-11.50970292,45,51
run-2020-2-29-9-27-11.50970292,46,51
run-2020-2-29-9-27-11.50970292,47,50
run-2020-2-29-9-27-11.50970292,48,53
run-2020-2-29-9-27-11.50970292,49,53
run-2020-2-29-9-27-11.50970292,50,56
run-2020-2-29-9-27-11.50970292,51,56
run-2020-2-29-9-27-11.50970292,52,52
run-2020-2-29-9-27-11.50970292,53,49
run-2020-2-29-9-27-11.50970292,54,52
run-2020-2-29-9-27-11.50970292,55,53
run-2020-2-29-9-27-11.50970292,56,54
run-2020-2-29-9-27-11.50970292,57,53
run-2020-2-29-9-27-11.50970292,58,56
run-2020-2-29-9-27-11.50970292,59,54
run-2020-2-29-9-27-11.50970292,60,52
run-2020-2-29-9-27-11.50970292,61,51
run-2020-2-29-9-27-11.50970292,62,51
run-2020-2-29-9-27-11.50970292,63,46
run-2020-2-29-9-27-11.50970292,64,44
run-2020-2-29-9-27-11.50970292,65,46
run-2020-2-29-9-27-11.50970292,66,44
run-2020-2-29-9-27-11.50970292,67,49
run-2020-2-29-9-27-11.50970292,68,51
run-2020-2-29-9-27-11.50970292,69,49
run-2020-2-29-9-27-11.50970292,70,47
run-2020-2-29-9-27-11.50970292,71,47
run-2020-2-29-9-27-11.50970292,72,51
run-2020-2-29-9-27-11.50970292,73,50
run-2020-2-29-9-27-11.50970292,74,56
run-2020-2-29-9-27-11.50970292,75,57
run-2020-2-29-9-27-11.50970292,76,59
run-2020-2-29-9-27-11.50970292,77,57
run-2020-2-29-9-27-11.50970292,78,59
run-2020-2-29-9-27-11.50970292,79,57
run-2020-2-29-9-27-11.50970292,80,58
run-2020-2-29-9-27-11.50970292,81,54
run-2020-2-29-9-27-11.50970292,82,55
run-2020-2-29-9-27-11.50970292,83,53
run-2020-2-29-9-27-11.50970292,84,54
run-2020-2-29-9-27-11.50970292,85,55
run-2020-2-29-9-27-11.50970292,86,53
run-2020-2-29-9-27-11.50970292,87,53
run-2020-2-29-9-27-11.50970292,88,50
run-2020-2-29-9-27-11.50970292,89,47
run-2020-2-29-9-27-11.50970292,90,45
run-2020-2-29-9-27-11.50970292,91,47
run-2020-2-29-9-27-11.50970292,92,49
run-2020-2-29-9-27-11.50970292,93,47
run-2020-2-29-9-27-11.50970292,94,47
run-2020-2-29-9-27-11.50970292,95,47
run-2020-2-29-9-27-11.50970292,96,46
run-2020-2-29-9-27-11.50970292,97,43
run-2020-2-29-9-27-11.50970292,98,39
run-2020-2-29-9-27-11.50970292,99,43
run-2020-2-29-9-27-11.50970292,100,41
