Source,Target
c846930c-5254-11ea-868d-9f7bf132d063,c8489dfa-5254-11ea-bbdf-777f95df645e
c8482d02-5254-11ea-a033-2b6447aa5b5f,c848aa20-5254-11ea-94c9-47948b687f3e
c846f14e-5254-11ea-8316-5f8a52915f4b,c848b8ee-5254-11ea-994c-7f61f1c1d648
c845e8ee-5254-11ea-9a88-e38435d09df6,c848c866-5254-11ea-8079-e3b4c3d9fdc1
c847097c-5254-11ea-a358-0f647eb94a4c,c848d52c-5254-11ea-9ff5-c32c309c4f24
c846c494-5254-11ea-b0ec-fb155a050192,c848e300-5254-11ea-a720-47b814f90c2e
c845e8ee-5254-11ea-9a88-e38435d09df6,c848eefe-5254-11ea-bb89-0b155c1d73b2
c845f708-5254-11ea-948c-431657f2d07b,c8490024-5254-11ea-9904-5b1eb8063388
c848eefe-5254-11ea-bb89-0b155c1d73b2,c8490eac-5254-11ea-a6e6-4f762e1a5add
c846fe6e-5254-11ea-a970-4b97757e84d5,c8491b54-5254-11ea-ac72-5b4539f4575f
c8475210-5254-11ea-9956-b349906af0b8,c8492734-5254-11ea-9578-5b6467a0d96b
c8461f1c-5254-11ea-acfb-db6332ed433f,c8493346-5254-11ea-bb28-27d35bde5555
c848b8ee-5254-11ea-994c-7f61f1c1d648,c8494250-5254-11ea-b463-9f02f8abd88e
c846d61e-5254-11ea-9702-5b784541e7d1,c8494d86-5254-11ea-b1a7-b7bf4f4bb1e1
c8463e7a-5254-11ea-80ed-0f6df193228e,c8495a10-5254-11ea-a852-af5bce83896e
c8494d86-5254-11ea-b1a7-b7bf4f4bb1e1,c8496690-5254-11ea-8987-b3e190054ddc
c847443c-5254-11ea-a9d2-c317c6fa7dcf,c84975ea-5254-11ea-a40f-5bfc67131513
c8494d86-5254-11ea-b1a7-b7bf4f4bb1e1,c849813e-5254-11ea-84f3-d7dfdcc916fb
c8483da6-5254-11ea-8f75-4b5eec9e9595,c8498e18-5254-11ea-99fd-338224c146e9
c8460568-5254-11ea-bc35-6f462eb92c3d,c8499c50-5254-11ea-b5d6-5307ef724499
c8461364-5254-11ea-ad7d-5bb70045dc2c,c849a966-5254-11ea-95fd-5bb42e473d59
c847fcba-5254-11ea-a5aa-2befe4292b39,c849b5aa-5254-11ea-8514-cf2a9aa16855
c846b83c-5254-11ea-85cf-ef52cccf5469,c849c496-5254-11ea-b8d4-4fa94c927b9b
c846645e-5254-11ea-a94b-87f8d5dd22f0,c849de0e-5254-11ea-beb3-d77abd103fe5
c8476d86-5254-11ea-a97a-b75e7b31856b,c849d15c-5254-11ea-a475-8b246faebb3d
c8467890-5254-11ea-91bf-577145929db3,c849ec0a-5254-11ea-a74e-53fa721b1fad
c8463e7a-5254-11ea-80ed-0f6df193228e,c849f9f2-5254-11ea-b931-ffd4dccb8471
c847f274-5254-11ea-862b-a7396f2b5c9b,c84a05a0-5254-11ea-9e9e-076d6ca5c20b
c8467890-5254-11ea-91bf-577145929db3,c84a13c4-5254-11ea-82dc-8b4a3f9dbd88
c847f274-5254-11ea-862b-a7396f2b5c9b,c84a20f8-5254-11ea-bc6c-9f632c01ab68
c8462af2-5254-11ea-8efe-4ba04ca7c27d,c84a2e2c-5254-11ea-86f9-eb76525d9f87
c84975ea-5254-11ea-a40f-5bfc67131513,c84a3a3e-5254-11ea-91c9-cf49f1677193
c8493346-5254-11ea-bb28-27d35bde5555,c84a46e6-5254-11ea-9bb1-13525bd9b053
c849a966-5254-11ea-95fd-5bb42e473d59,c84a5370-5254-11ea-b5db-8b1871469887
c8481ec0-5254-11ea-b0cd-ff4b4bf447b5,c84a60c2-5254-11ea-9bc4-67c0f97ddebe
c8498e18-5254-11ea-99fd-338224c146e9,c84a6e00-5254-11ea-87f6-6ff5018a85f3
c848e300-5254-11ea-a720-47b814f90c2e,c84a7a76-5254-11ea-b6ce-db3861d2d2f3
c849c496-5254-11ea-b8d4-4fa94c927b9b,c84a86a6-5254-11ea-ab42-2fd4ffc8a81b
c846d61e-5254-11ea-9702-5b784541e7d1,c84a979a-5254-11ea-a347-8737693726f7
c8463e7a-5254-11ea-80ed-0f6df193228e,c84aa4e2-5254-11ea-9f51-b30b500476d9
c848aa20-5254-11ea-94c9-47948b687f3e,c84ab266-5254-11ea-a820-439fee65e0e8
c8494d86-5254-11ea-b1a7-b7bf4f4bb1e1,c84ac09e-5254-11ea-9544-7fea63e54b0f
c8484a08-5254-11ea-8158-f3525c07e7f3,c84accec-5254-11ea-84e9-af97101241f0
c849ec0a-5254-11ea-a74e-53fa721b1fad,c84ada7a-5254-11ea-8de8-1f72c331009c
c846e366-5254-11ea-b80d-4fcb459e8ac3,c84ae754-5254-11ea-ace7-9b6560741d19
c8493346-5254-11ea-bb28-27d35bde5555,c84b0040-5254-11ea-a1ff-e7e51435f628
c847d2bc-5254-11ea-9ed1-a7dbbb481efb,c84af3a2-5254-11ea-bdea-975e1f16f622
c848aa20-5254-11ea-94c9-47948b687f3e,c84b0f4a-5254-11ea-aff2-975cc62f274c
c846d61e-5254-11ea-9702-5b784541e7d1,c84b1cf6-5254-11ea-ac8a-2bfb3803a15d
c84a46e6-5254-11ea-9bb1-13525bd9b053,c84b2a34-5254-11ea-be0c-a33b0a325034
c84a05a0-5254-11ea-9e9e-076d6ca5c20b,c84b34d4-5254-11ea-b2fe-dbc43655459c
c8461364-5254-11ea-ad7d-5bb70045dc2c,c84b4082-5254-11ea-9c87-836be9d01403
c846645e-5254-11ea-a94b-87f8d5dd22f0,c84b4c6c-5254-11ea-be3c-ebc925640ce1
c849a966-5254-11ea-95fd-5bb42e473d59,c84b59be-5254-11ea-8c08-9f01851aee50
c8494250-5254-11ea-b463-9f02f8abd88e,c84b6706-5254-11ea-b8e2-973bbdfd7449
c847f274-5254-11ea-862b-a7396f2b5c9b,c84b723c-5254-11ea-a923-3b6c53b2bd03
c848d52c-5254-11ea-9ff5-c32c309c4f24,c84b7e08-5254-11ea-85ba-aff8cc78c13a
c848eefe-5254-11ea-bb89-0b155c1d73b2,c84b8a92-5254-11ea-9765-07335b2c238b
c84ada7a-5254-11ea-8de8-1f72c331009c,c84b971c-5254-11ea-b6cb-ab4825878274
c84a86a6-5254-11ea-ab42-2fd4ffc8a81b,c84baa68-5254-11ea-ac09-87aac07864cb
c84b1cf6-5254-11ea-ac8a-2bfb3803a15d,c84bb6a2-5254-11ea-8181-3fc10f73efe0
c8495a10-5254-11ea-a852-af5bce83896e,c84bc53e-5254-11ea-b78a-c3fcc02c970c
c84b0040-5254-11ea-a1ff-e7e51435f628,c84bd506-5254-11ea-bd1b-139c947e0b76
c848e300-5254-11ea-a720-47b814f90c2e,c84be08c-5254-11ea-824e-2778b262e274
c8471bba-5254-11ea-9b97-1bd4dc66f2c2,c84bef8c-5254-11ea-968a-3ba16e111be3
c8492734-5254-11ea-9578-5b6467a0d96b,c84bfdd8-5254-11ea-8809-373e60bef619
c84b723c-5254-11ea-a923-3b6c53b2bd03,c84c0a94-5254-11ea-a158-230be0a58d05
c846b832-5254-11ea-98e7-e733467b494e,c84c17b4-5254-11ea-a60f-2788123a1704
c846930c-5254-11ea-868d-9f7bf132d063,c84c25b0-5254-11ea-a501-abd99356412a
c8490eac-5254-11ea-a6e6-4f762e1a5add,c84c402c-5254-11ea-baed-2714ffb4063f
c847f274-5254-11ea-862b-a7396f2b5c9b,c84c33fc-5254-11ea-a573-5f2998138c8b
c8499c50-5254-11ea-b5d6-5307ef724499,c84c4bbc-5254-11ea-893e-2fc340ee85d5
c8482d02-5254-11ea-a033-2b6447aa5b5f,c84c58e6-5254-11ea-b1c5-0f5c6bb9edf6
c84bfdd8-5254-11ea-8809-373e60bef619,c84c6b1a-5254-11ea-ac84-83982be0b97a
c84b971c-5254-11ea-b6cb-ab4825878274,c84c797a-5254-11ea-b8d6-df916cc79e1f
c8463e7a-5254-11ea-80ed-0f6df193228e,c84c860e-5254-11ea-abb0-0b98b64c0da0
c846b832-5254-11ea-98e7-e733467b494e,c84c9478-5254-11ea-82a9-ffceacb60f1c
c8475210-5254-11ea-9956-b349906af0b8,c84c9f36-5254-11ea-bda2-6f48b47be302
c84b1cf6-5254-11ea-ac8a-2bfb3803a15d,c84ca97c-5254-11ea-a08d-0b2b953721cd
c84ada7a-5254-11ea-8de8-1f72c331009c,c84cb6d8-5254-11ea-9985-9771a14e3950
c84c6b1a-5254-11ea-ac84-83982be0b97a,c84cc948-5254-11ea-bc3a-6b1c099f971a
c8487b7c-5254-11ea-8304-9756403499e1,c84cd7bc-5254-11ea-8710-bb5d6a5c196a
c8494250-5254-11ea-b463-9f02f8abd88e,c84ce428-5254-11ea-888c-d7a794c2851b
c8462af2-5254-11ea-8efe-4ba04ca7c27d,c84cf922-5254-11ea-9d99-47612e18dc92
c8478514-5254-11ea-817b-3f1c15d780bc,c84d0674-5254-11ea-a584-1f1a03bb22f4
c849f9f2-5254-11ea-b931-ffd4dccb8471,c84d1f7e-5254-11ea-8469-636d6d1a75fc
c84c9f36-5254-11ea-bda2-6f48b47be302,c84d12ea-5254-11ea-ab66-73b124bd956e
c84baa68-5254-11ea-ac09-87aac07864cb,c84d2b72-5254-11ea-ad54-53b1da770bad
c84bb6a2-5254-11ea-8181-3fc10f73efe0,c84d3932-5254-11ea-af3c-efc6f9cf945d
c8480cd2-5254-11ea-ba55-eb0dce1b4980,c84d460c-5254-11ea-bfcf-ef7c7e7fff9b
c8467890-5254-11ea-91bf-577145929db3,c84d550c-5254-11ea-bbb7-d394c5f90c50
c84b8a92-5254-11ea-9765-07335b2c238b,c84d607e-5254-11ea-9ab4-afec8c5b9aa3
c847c6aa-5254-11ea-b9e4-7bcf11d9505c,c84d6f7e-5254-11ea-be86-5f5280cd89fb
c845e8ee-5254-11ea-9a88-e38435d09df6,c84d7f28-5254-11ea-b166-cbea3fb58836
