RunID,Tick,AllAgents,Active,Inactive
run-2020-2-17-15-29-47.131119966,0,12,10,2
run-2020-2-17-15-29-47.131119966,1,13,8,5
run-2020-2-17-15-29-47.131119966,2,17,9,8
run-2020-2-17-15-29-47.131119966,3,17,7,10
run-2020-2-17-15-29-47.131119966,4,20,10,10
run-2020-2-17-15-29-47.131119966,5,21,5,16
run-2020-2-17-15-29-47.131119966,6,23,7,16
run-2020-2-17-15-29-47.131119966,7,27,9,18
run-2020-2-17-15-29-47.131119966,8,32,12,20
run-2020-2-17-15-29-47.131119966,9,34,14,20
run-2020-2-17-15-29-47.131119966,10,35,15,20
run-2020-2-17-15-29-47.131119966,11,42,20,22
run-2020-2-17-15-29-47.131119966,12,44,19,25
run-2020-2-17-15-29-47.131119966,13,47,20,27
run-2020-2-17-15-29-47.131119966,14,50,20,30
run-2020-2-17-15-29-47.131119966,15,54,17,37
run-2020-2-17-15-29-47.131119966,16,58,21,37
run-2020-2-17-15-29-47.131119966,17,64,25,39
run-2020-2-17-15-29-47.131119966,18,70,30,40
run-2020-2-17-15-29-47.131119966,19,74,32,42
run-2020-2-17-15-29-47.131119966,20,76,29,47
run-2020-2-17-15-29-47.131119966,21,80,30,50
run-2020-2-17-15-29-47.131119966,22,80,28,52
run-2020-2-17-15-29-47.131119966,23,81,28,53
run-2020-2-17-15-29-47.131119966,24,83,27,56
run-2020-2-17-15-29-47.131119966,25,86,28,58
run-2020-2-17-15-29-47.131119966,26,88,28,60
run-2020-2-17-15-29-47.131119966,27,93,32,61
run-2020-2-17-15-29-47.131119966,28,97,36,61
run-2020-2-17-15-29-47.131119966,29,98,35,63
run-2020-2-17-15-29-47.131119966,30,101,37,64
run-2020-2-17-15-29-47.131119966,31,104,36,68
run-2020-2-17-15-29-47.131119966,32,110,40,70
run-2020-2-17-15-29-47.131119966,33,114,40,74
run-2020-2-17-15-29-47.131119966,34,118,39,79
run-2020-2-17-15-29-47.131119966,35,125,44,81
run-2020-2-17-15-29-47.131119966,36,131,45,86
run-2020-2-17-15-29-47.131119966,37,134,45,89
run-2020-2-17-15-29-47.131119966,38,139,47,92
run-2020-2-17-15-29-47.131119966,39,145,52,93
run-2020-2-17-15-29-47.131119966,40,149,52,97
run-2020-2-17-15-29-47.131119966,41,153,51,102
run-2020-2-17-15-29-47.131119966,42,159,53,106
run-2020-2-17-15-29-47.131119966,43,166,58,108
run-2020-2-17-15-29-47.131119966,44,171,57,114
run-2020-2-17-15-29-47.131119966,45,173,53,120
run-2020-2-17-15-29-47.131119966,46,175,50,125
run-2020-2-17-15-29-47.131119966,47,177,47,130
run-2020-2-17-15-29-47.131119966,48,178,46,132
run-2020-2-17-15-29-47.131119966,49,180,48,132
run-2020-2-17-15-29-47.131119966,50,184,51,133
run-2020-2-17-15-29-47.131119966,51,185,50,135
run-2020-2-17-15-29-47.131119966,52,191,54,137
run-2020-2-17-15-29-47.131119966,53,194,52,142
run-2020-2-17-15-29-47.131119966,54,198,52,146
run-2020-2-17-15-29-47.131119966,55,199,49,150
run-2020-2-17-15-29-47.131119966,56,200,46,154
run-2020-2-17-15-29-47.131119966,57,203,47,156
run-2020-2-17-15-29-47.131119966,58,211,52,159
run-2020-2-17-15-29-47.131119966,59,211,49,162
run-2020-2-17-15-29-47.131119966,60,212,49,163
run-2020-2-17-15-29-47.131119966,61,216,49,167
run-2020-2-17-15-29-47.131119966,62,221,50,171
run-2020-2-17-15-29-47.131119966,63,222,48,174
run-2020-2-17-15-29-47.131119966,64,228,53,175
run-2020-2-17-15-29-47.131119966,65,233,58,175
run-2020-2-17-15-29-47.131119966,66,241,61,180
run-2020-2-17-15-29-47.131119966,67,245,57,188
run-2020-2-17-15-29-47.131119966,68,250,56,194
run-2020-2-17-15-29-47.131119966,69,255,58,197
run-2020-2-17-15-29-47.131119966,70,259,57,202
run-2020-2-17-15-29-47.131119966,71,264,57,207
run-2020-2-17-15-29-47.131119966,72,267,55,212
run-2020-2-17-15-29-47.131119966,73,270,53,217
run-2020-2-17-15-29-47.131119966,74,278,55,223
run-2020-2-17-15-29-47.131119966,75,284,58,226
run-2020-2-17-15-29-47.131119966,76,293,63,230
run-2020-2-17-15-29-47.131119966,77,298,63,235
run-2020-2-17-15-29-47.131119966,78,300,61,239
run-2020-2-17-15-29-47.131119966,79,303,60,243
run-2020-2-17-15-29-47.131119966,80,307,62,245
run-2020-2-17-15-29-47.131119966,81,310,61,249
run-2020-2-17-15-29-47.131119966,82,311,60,251
run-2020-2-17-15-29-47.131119966,83,316,62,254
run-2020-2-17-15-29-47.131119966,84,320,61,259
run-2020-2-17-15-29-47.131119966,85,326,63,263
run-2020-2-17-15-29-47.131119966,86,329,59,270
run-2020-2-17-15-29-47.131119966,87,330,56,274
run-2020-2-17-15-29-47.131119966,88,331,53,278
run-2020-2-17-15-29-47.131119966,89,333,53,280
run-2020-2-17-15-29-47.131119966,90,337,55,282
run-2020-2-17-15-29-47.131119966,91,339,55,284
run-2020-2-17-15-29-47.131119966,92,341,56,285
run-2020-2-17-15-29-47.131119966,93,342,54,288
run-2020-2-17-15-29-47.131119966,94,347,57,290
run-2020-2-17-15-29-47.131119966,95,350,57,293
run-2020-2-17-15-29-47.131119966,96,358,60,298
run-2020-2-17-15-29-47.131119966,97,360,57,303
run-2020-2-17-15-29-47.131119966,98,364,57,307
run-2020-2-17-15-29-47.131119966,99,371,62,309
