RunID,AgentID,Tick,Created,Ressources,Reputation,Ability,Que,Action
run-2020-6-11-13-20-29.330224037,AGENT53f2615c-abe6-11ea-a34f-20c9d0446113,109,108,12,1.0,0.1,0,funding
run-2020-6-11-13-20-29.330224037,AGENT53f2615c-abe6-11ea-a34f-20c9d0446113,111,108,10,1.0,0.1,3,experiment
run-2020-6-11-13-20-29.330224037,AGENT53f2615c-abe6-11ea-a34f-20c9d0446113,112,108,9,1.0,0.1,2,experiment
run-2020-6-11-13-20-29.330224037,AGENT53f2615c-abe6-11ea-a34f-20c9d0446113,113,108,8,1.0,0.1,1,experiment
run-2020-6-11-13-20-29.330224037,AGENT53f2615c-abe6-11ea-a34f-20c9d0446113,114,108,7,1.0,0.1,0,experiment
run-2020-6-11-13-20-29.330224037,AGENT53f2615c-abe6-11ea-a34f-20c9d0446113,116,108,3,1.0,0.1,0,funding
run-2020-6-11-13-20-29.330224037,AGENT53f2615c-abe6-11ea-a34f-20c9d0446113,118,108,13,1.0,0.1,0,funding
run-2020-6-11-13-20-29.330224037,AGENT53f2615c-abe6-11ea-a34f-20c9d0446113,120,108,12,1.0,0.1,3,experiment
run-2020-6-11-13-20-29.330224037,AGENT53f2615c-abe6-11ea-a34f-20c9d0446113,121,108,10,1.0,0.1,2,experiment
run-2020-6-11-13-20-29.330224037,AGENT53f2615c-abe6-11ea-a34f-20c9d0446113,122,108,8,1.0,0.1,1,experiment
run-2020-6-11-13-20-29.330224037,AGENT53f2615c-abe6-11ea-a34f-20c9d0446113,123,108,7,1.0,0.1,0,experiment
run-2020-6-11-13-20-29.330224037,AGENT53f2615c-abe6-11ea-a34f-20c9d0446113,125,108,14,1.0,0.1,0,funding
run-2020-6-11-13-20-29.330224037,AGENT53f2615c-abe6-11ea-a34f-20c9d0446113,127,108,13,1.0,0.1,2,experiment
