RunID,AgentID,Tick,Created,Ressources,Reputation,Ability,Que,Action
run-2020-6-11-13-20-29.330224037,AGENT53fc73e0-abe6-11ea-bd07-20c9d0446113,110,109,7,1.0,0.5,0,funding
run-2020-6-11-13-20-29.330224037,AGENT53fc73e0-abe6-11ea-bd07-20c9d0446113,112,109,9,1.0,0.5,0,funding
run-2020-6-11-13-20-29.330224037,AGENT53fc73e0-abe6-11ea-bd07-20c9d0446113,114,109,10,1.0,0.5,0,funding
run-2020-6-11-13-20-29.330224037,AGENT53fc73e0-abe6-11ea-bd07-20c9d0446113,116,109,25,1.0,0.5,0,funding
run-2020-6-11-13-20-29.330224037,AGENT53fc73e0-abe6-11ea-bd07-20c9d0446113,118,109,23,1.0,0.5,3,experiment
run-2020-6-11-13-20-29.330224037,AGENT53fc73e0-abe6-11ea-bd07-20c9d0446113,119,109,22,1.0,0.5,2,experiment
run-2020-6-11-13-20-29.330224037,AGENT53fc73e0-abe6-11ea-bd07-20c9d0446113,120,109,21,1.0,0.5,1,experiment
run-2020-6-11-13-20-29.330224037,AGENT53fc73e0-abe6-11ea-bd07-20c9d0446113,121,109,19,1.0,0.5,0,experiment
run-2020-6-11-13-20-29.330224037,AGENT53fc73e0-abe6-11ea-bd07-20c9d0446113,123,109,18,1.0,0.5,3,experiment
run-2020-6-11-13-20-29.330224037,AGENT53fc73e0-abe6-11ea-bd07-20c9d0446113,124,109,16,1.0,0.5,2,experiment
run-2020-6-11-13-20-29.330224037,AGENT53fc73e0-abe6-11ea-bd07-20c9d0446113,125,109,15,1.0,0.5,1,experiment
run-2020-6-11-13-20-29.330224037,AGENT53fc73e0-abe6-11ea-bd07-20c9d0446113,126,109,13,1.0,0.5,0,experiment
