RunID,AgentID,Tick,Created,Ressources,Reputation,Ability,Que,Action
run-2020-6-11-13-20-29.330224037,AGENT535bc062-abe6-11ea-b505-20c9d0446113,101,100,14,1.0,0.9,0,funding
run-2020-6-11-13-20-29.330224037,AGENT535bc062-abe6-11ea-b505-20c9d0446113,103,100,12,1.0,0.9,2,experiment
run-2020-6-11-13-20-29.330224037,AGENT535bc062-abe6-11ea-b505-20c9d0446113,104,100,10,1.0,0.9,1,experiment
run-2020-6-11-13-20-29.330224037,AGENT535bc062-abe6-11ea-b505-20c9d0446113,105,100,8,1.0,0.9,0,experiment
run-2020-6-11-13-20-29.330224037,AGENT535bc062-abe6-11ea-b505-20c9d0446113,107,100,22,1.0,0.9,0,funding
run-2020-6-11-13-20-29.330224037,AGENT535bc062-abe6-11ea-b505-20c9d0446113,109,100,20,1.0,0.9,4,experiment
run-2020-6-11-13-20-29.330224037,AGENT535bc062-abe6-11ea-b505-20c9d0446113,110,100,19,1.0,0.9,3,experiment
run-2020-6-11-13-20-29.330224037,AGENT535bc062-abe6-11ea-b505-20c9d0446113,111,100,18,1.0,0.9,2,experiment
run-2020-6-11-13-20-29.330224037,AGENT535bc062-abe6-11ea-b505-20c9d0446113,112,100,17,1.0,0.9,1,experiment
run-2020-6-11-13-20-29.330224037,AGENT535bc062-abe6-11ea-b505-20c9d0446113,113,100,16,1.0,0.9,0,experiment
run-2020-6-11-13-20-29.330224037,AGENT535bc062-abe6-11ea-b505-20c9d0446113,115,100,15,1.0,0.9,4,experiment
run-2020-6-11-13-20-29.330224037,AGENT535bc062-abe6-11ea-b505-20c9d0446113,116,100,14,1.0,0.9,3,experiment
run-2020-6-11-13-20-29.330224037,AGENT535bc062-abe6-11ea-b505-20c9d0446113,117,100,13,1.0,0.9,2,experiment
run-2020-6-11-13-20-29.330224037,AGENT535bc062-abe6-11ea-b505-20c9d0446113,118,100,11,1.0,0.9,1,experiment
run-2020-6-11-13-20-29.330224037,AGENT535bc062-abe6-11ea-b505-20c9d0446113,119,100,10,1.0,0.9,0,experiment
run-2020-6-11-13-20-29.330224037,AGENT535bc062-abe6-11ea-b505-20c9d0446113,121,100,15,1.0,0.9,0,funding
run-2020-6-11-13-20-29.330224037,AGENT535bc062-abe6-11ea-b505-20c9d0446113,123,100,14,1.0,0.9,4,experiment
run-2020-6-11-13-20-29.330224037,AGENT535bc062-abe6-11ea-b505-20c9d0446113,124,100,13,1.0,0.9,3,experiment
run-2020-6-11-13-20-29.330224037,AGENT535bc062-abe6-11ea-b505-20c9d0446113,125,100,11,1.0,0.9,2,experiment
run-2020-6-11-13-20-29.330224037,AGENT535bc062-abe6-11ea-b505-20c9d0446113,126,100,10,1.0,0.9,1,experiment
run-2020-6-11-13-20-29.330224037,AGENT535bc062-abe6-11ea-b505-20c9d0446113,127,100,9,1.0,0.9,0,experiment
