RunID,AgentID,Tick,Created,Ressources,Reputation,Ability,Que,Action
run-2020-6-11-13-20-29.330224037,AGENT535d36c2-abe6-11ea-bcd0-20c9d0446113,101,100,21,1.0,0.1,0,funding
run-2020-6-11-13-20-29.330224037,AGENT535d36c2-abe6-11ea-bcd0-20c9d0446113,103,100,19,1.0,0.1,3,experiment
run-2020-6-11-13-20-29.330224037,AGENT535d36c2-abe6-11ea-bcd0-20c9d0446113,104,100,18,1.0,0.1,2,experiment
run-2020-6-11-13-20-29.330224037,AGENT535d36c2-abe6-11ea-bcd0-20c9d0446113,105,100,16,1.0,0.1,1,experiment
run-2020-6-11-13-20-29.330224037,AGENT535d36c2-abe6-11ea-bcd0-20c9d0446113,106,100,14,1.0,0.1,0,experiment
run-2020-6-11-13-20-29.330224037,AGENT535d36c2-abe6-11ea-bcd0-20c9d0446113,108,100,12,1.0,0.1,2,experiment
run-2020-6-11-13-20-29.330224037,AGENT535d36c2-abe6-11ea-bcd0-20c9d0446113,109,100,11,1.0,0.1,1,experiment
run-2020-6-11-13-20-29.330224037,AGENT535d36c2-abe6-11ea-bcd0-20c9d0446113,110,100,10,1.0,0.1,0,experiment
run-2020-6-11-13-20-29.330224037,AGENT535d36c2-abe6-11ea-bcd0-20c9d0446113,112,100,20,1.0,0.1,0,funding
run-2020-6-11-13-20-29.330224037,AGENT535d36c2-abe6-11ea-bcd0-20c9d0446113,114,100,19,1.0,0.1,3,experiment
run-2020-6-11-13-20-29.330224037,AGENT535d36c2-abe6-11ea-bcd0-20c9d0446113,115,100,17,1.0,0.1,2,experiment
run-2020-6-11-13-20-29.330224037,AGENT535d36c2-abe6-11ea-bcd0-20c9d0446113,116,100,16,1.0,0.1,1,experiment
run-2020-6-11-13-20-29.330224037,AGENT535d36c2-abe6-11ea-bcd0-20c9d0446113,117,100,15,1.0,0.1,0,experiment
run-2020-6-11-13-20-29.330224037,AGENT535d36c2-abe6-11ea-bcd0-20c9d0446113,119,100,14,1.0,0.1,3,experiment
run-2020-6-11-13-20-29.330224037,AGENT535d36c2-abe6-11ea-bcd0-20c9d0446113,120,100,13,1.0,0.1,2,experiment
run-2020-6-11-13-20-29.330224037,AGENT535d36c2-abe6-11ea-bcd0-20c9d0446113,121,100,12,1.0,0.1,1,experiment
run-2020-6-11-13-20-29.330224037,AGENT535d36c2-abe6-11ea-bcd0-20c9d0446113,122,100,10,1.0,0.1,0,experiment
run-2020-6-11-13-20-29.330224037,AGENT535d36c2-abe6-11ea-bcd0-20c9d0446113,124,100,24,1.0,0.1,0,funding
run-2020-6-11-13-20-29.330224037,AGENT535d36c2-abe6-11ea-bcd0-20c9d0446113,126,100,23,1.0,0.1,2,experiment
run-2020-6-11-13-20-29.330224037,AGENT535d36c2-abe6-11ea-bcd0-20c9d0446113,127,100,21,1.0,0.1,1,experiment
