RunID,AgentID,Tick,Created,Ressources,Reputation,Ability,Que,Action
run-2020-6-11-13-20-29.330224037,AGENT552beca0-abe6-11ea-be3a-20c9d0446113,124,123,17,1.0,0.2,0,funding
run-2020-6-11-13-20-29.330224037,AGENT552beca0-abe6-11ea-be3a-20c9d0446113,126,123,16,1.0,0.2,2,experiment
run-2020-6-11-13-20-29.330224037,AGENT552beca0-abe6-11ea-be3a-20c9d0446113,127,123,14,1.0,0.2,1,experiment
