RunID,AgentID,Tick,Created,Ressources,Reputation,Ability,Que,Action
run-2020-6-11-13-20-29.330224037,AGENT54a6db50-abe6-11ea-aa17-20c9d0446113,118,117,7,1.0,0.2,0,funding
run-2020-6-11-13-20-29.330224037,AGENT54a6db50-abe6-11ea-aa17-20c9d0446113,120,117,17,1.0,0.2,0,funding
run-2020-6-11-13-20-29.330224037,AGENT54a6db50-abe6-11ea-aa17-20c9d0446113,122,117,16,1.0,0.2,3,experiment
run-2020-6-11-13-20-29.330224037,AGENT54a6db50-abe6-11ea-aa17-20c9d0446113,123,117,15,1.0,0.2,2,experiment
run-2020-6-11-13-20-29.330224037,AGENT54a6db50-abe6-11ea-aa17-20c9d0446113,124,117,13,1.0,0.2,1,experiment
run-2020-6-11-13-20-29.330224037,AGENT54a6db50-abe6-11ea-aa17-20c9d0446113,125,117,11,1.0,0.2,0,experiment
run-2020-6-11-13-20-29.330224037,AGENT54a6db50-abe6-11ea-aa17-20c9d0446113,127,117,10,1.0,0.2,4,experiment
