RunID,AgentID,Tick,Created,Ressources,Reputation,Ability,Que,Action
run-2020-6-11-13-20-29.330224037,AGENT552c819c-abe6-11ea-880e-20c9d0446113,124,123,24,1.0,0.6,0,funding
run-2020-6-11-13-20-29.330224037,AGENT552c819c-abe6-11ea-880e-20c9d0446113,126,123,22,1.0,0.6,4,experiment
run-2020-6-11-13-20-29.330224037,AGENT552c819c-abe6-11ea-880e-20c9d0446113,127,123,21,1.0,0.6,3,experiment
