RunID,AgentID,Tick,Created,Ressources,Reputation,Ability,Que,Action
run-2020-6-11-13-20-29.330224037,AGENT552af0ac-abe6-11ea-835e-20c9d0446113,124,123,12,1.0,0.8,0,funding
run-2020-6-11-13-20-29.330224037,AGENT552af0ac-abe6-11ea-835e-20c9d0446113,126,123,11,1.0,0.8,3,experiment
run-2020-6-11-13-20-29.330224037,AGENT552af0ac-abe6-11ea-835e-20c9d0446113,127,123,9,1.0,0.8,2,experiment
