RunID,AgentID,Tick,Created,Ressources,Reputation,Ability,Que,Action
run-2020-6-11-13-20-29.330224037,AGENT54ca0d00-abe6-11ea-84e8-20c9d0446113,120,119,13,1.0,0.9,0,funding
run-2020-6-11-13-20-29.330224037,AGENT54ca0d00-abe6-11ea-84e8-20c9d0446113,122,119,12,1.0,0.9,4,experiment
run-2020-6-11-13-20-29.330224037,AGENT54ca0d00-abe6-11ea-84e8-20c9d0446113,123,119,11,1.0,0.9,3,experiment
run-2020-6-11-13-20-29.330224037,AGENT54ca0d00-abe6-11ea-84e8-20c9d0446113,124,119,10,1.0,0.9,2,experiment
run-2020-6-11-13-20-29.330224037,AGENT54ca0d00-abe6-11ea-84e8-20c9d0446113,125,119,9,1.0,0.9,1,experiment
run-2020-6-11-13-20-29.330224037,AGENT54ca0d00-abe6-11ea-84e8-20c9d0446113,126,119,8,1.0,0.9,0,experiment
