RunID,AgentID,Tick,Created,Ressources,Reputation,Ability,Que,Action
run-2020-6-11-13-20-29.330224037,AGENT53f08abc-abe6-11ea-baa6-20c9d0446113,109,108,25,1.0,0.7,0,funding
run-2020-6-11-13-20-29.330224037,AGENT53f08abc-abe6-11ea-baa6-20c9d0446113,111,108,23,1.0,0.7,4,experiment
run-2020-6-11-13-20-29.330224037,AGENT53f08abc-abe6-11ea-baa6-20c9d0446113,112,108,22,1.0,0.7,3,experiment
run-2020-6-11-13-20-29.330224037,AGENT53f08abc-abe6-11ea-baa6-20c9d0446113,113,108,20,1.0,0.7,2,experiment
run-2020-6-11-13-20-29.330224037,AGENT53f08abc-abe6-11ea-baa6-20c9d0446113,114,108,18,1.0,0.7,1,experiment
run-2020-6-11-13-20-29.330224037,AGENT53f08abc-abe6-11ea-baa6-20c9d0446113,115,108,17,1.0,0.7,0,experiment
run-2020-6-11-13-20-29.330224037,AGENT53f08abc-abe6-11ea-baa6-20c9d0446113,117,108,16,1.0,0.7,2,experiment
run-2020-6-11-13-20-29.330224037,AGENT53f08abc-abe6-11ea-baa6-20c9d0446113,118,108,15,1.0,0.7,1,experiment
run-2020-6-11-13-20-29.330224037,AGENT53f08abc-abe6-11ea-baa6-20c9d0446113,119,108,13,1.0,0.7,0,experiment
run-2020-6-11-13-20-29.330224037,AGENT53f08abc-abe6-11ea-baa6-20c9d0446113,121,108,11,1.0,0.7,3,experiment
run-2020-6-11-13-20-29.330224037,AGENT53f08abc-abe6-11ea-baa6-20c9d0446113,122,108,10,1.0,0.7,2,experiment
run-2020-6-11-13-20-29.330224037,AGENT53f08abc-abe6-11ea-baa6-20c9d0446113,123,108,9,1.0,0.7,1,experiment
run-2020-6-11-13-20-29.330224037,AGENT53f08abc-abe6-11ea-baa6-20c9d0446113,124,108,8,1.0,0.7,0,experiment
run-2020-6-11-13-20-29.330224037,AGENT53f08abc-abe6-11ea-baa6-20c9d0446113,126,108,21,1.0,0.7,0,funding
