RunID,AgentID,Tick,Created,Ressources,Reputation,Ability,Que,Action
run-2020-6-11-13-20-29.330224037,AGENT5470ab70-abe6-11ea-becd-20c9d0446113,116,115,13,1.0,0.2,0,funding
run-2020-6-11-13-20-29.330224037,AGENT5470ab70-abe6-11ea-becd-20c9d0446113,118,115,11,1.0,0.2,4,experiment
run-2020-6-11-13-20-29.330224037,AGENT5470ab70-abe6-11ea-becd-20c9d0446113,119,115,9,1.0,0.2,3,experiment
run-2020-6-11-13-20-29.330224037,AGENT5470ab70-abe6-11ea-becd-20c9d0446113,120,115,7,1.0,0.2,2,experiment
run-2020-6-11-13-20-29.330224037,AGENT5470ab70-abe6-11ea-becd-20c9d0446113,121,115,6,1.0,0.2,1,experiment
run-2020-6-11-13-20-29.330224037,AGENT5470ab70-abe6-11ea-becd-20c9d0446113,122,115,5,1.0,0.2,0,experiment
run-2020-6-11-13-20-29.330224037,AGENT5470ab70-abe6-11ea-becd-20c9d0446113,124,115,5,1.0,0.2,0,funding
run-2020-6-11-13-20-29.330224037,AGENT5470ab70-abe6-11ea-becd-20c9d0446113,126,115,6,1.0,0.2,0,funding
