RunID,Tick,AllAgents,Active,Inactive
run-2020-2-18-13-45-59.973371028,0,11,10,1
run-2020-2-18-13-45-59.973371028,1,18,17,1
run-2020-2-18-13-45-59.973371028,2,23,20,3
run-2020-2-18-13-45-59.973371028,3,25,18,7
run-2020-2-18-13-45-59.973371028,4,28,20,8
run-2020-2-18-13-45-59.973371028,5,34,21,13
run-2020-2-18-13-45-59.973371028,6,36,17,19
run-2020-2-18-13-45-59.973371028,7,38,17,21
run-2020-2-18-13-45-59.973371028,8,44,22,22
run-2020-2-18-13-45-59.973371028,9,46,21,25
run-2020-2-18-13-45-59.973371028,10,49,22,27
run-2020-2-18-13-45-59.973371028,11,53,26,27
run-2020-2-18-13-45-59.973371028,12,58,28,30
run-2020-2-18-13-45-59.973371028,13,62,29,33
run-2020-2-18-13-45-59.973371028,14,68,29,39
run-2020-2-18-13-45-59.973371028,15,70,28,42
run-2020-2-18-13-45-59.973371028,16,72,27,45
run-2020-2-18-13-45-59.973371028,17,74,26,48
run-2020-2-18-13-45-59.973371028,18,81,32,49
run-2020-2-18-13-45-59.973371028,19,87,35,52
run-2020-2-18-13-45-59.973371028,20,90,32,58
run-2020-2-18-13-45-59.973371028,21,94,30,64
run-2020-2-18-13-45-59.973371028,22,97,27,70
run-2020-2-18-13-45-59.973371028,23,102,30,72
run-2020-2-18-13-45-59.973371028,24,105,28,77
run-2020-2-18-13-45-59.973371028,25,111,31,80
run-2020-2-18-13-45-59.973371028,26,115,33,82
run-2020-2-18-13-45-59.973371028,27,121,36,85
run-2020-2-18-13-45-59.973371028,28,123,32,91
run-2020-2-18-13-45-59.973371028,29,130,39,91
run-2020-2-18-13-45-59.973371028,30,134,37,97
run-2020-2-18-13-45-59.973371028,31,138,37,101
run-2020-2-18-13-45-59.973371028,32,143,38,105
run-2020-2-18-13-45-59.973371028,33,150,42,108
run-2020-2-18-13-45-59.973371028,34,156,44,112
run-2020-2-18-13-45-59.973371028,35,161,48,113
run-2020-2-18-13-45-59.973371028,36,166,48,118
run-2020-2-18-13-45-59.973371028,37,169,48,121
run-2020-2-18-13-45-59.973371028,38,172,50,122
run-2020-2-18-13-45-59.973371028,39,175,50,125
run-2020-2-18-13-45-59.973371028,40,179,51,128
run-2020-2-18-13-45-59.973371028,41,183,53,130
run-2020-2-18-13-45-59.973371028,42,187,56,131
run-2020-2-18-13-45-59.973371028,43,189,53,136
run-2020-2-18-13-45-59.973371028,44,194,54,140
run-2020-2-18-13-45-59.973371028,45,196,51,145
run-2020-2-18-13-45-59.973371028,46,200,53,147
run-2020-2-18-13-45-59.973371028,47,203,52,151
run-2020-2-18-13-45-59.973371028,48,208,52,156
run-2020-2-18-13-45-59.973371028,49,211,50,161
run-2020-2-18-13-45-59.973371028,50,214,51,163
run-2020-2-18-13-45-59.973371028,51,215,45,170
run-2020-2-18-13-45-59.973371028,52,219,48,171
run-2020-2-18-13-45-59.973371028,53,222,44,178
run-2020-2-18-13-45-59.973371028,54,225,41,184
run-2020-2-18-13-45-59.973371028,55,232,46,186
run-2020-2-18-13-45-59.973371028,56,237,48,189
run-2020-2-18-13-45-59.973371028,57,243,50,193
run-2020-2-18-13-45-59.973371028,58,244,44,200
run-2020-2-18-13-45-59.973371028,59,245,41,204
run-2020-2-18-13-45-59.973371028,60,253,47,206
run-2020-2-18-13-45-59.973371028,61,260,52,208
run-2020-2-18-13-45-59.973371028,62,262,51,211
run-2020-2-18-13-45-59.973371028,63,266,51,215
run-2020-2-18-13-45-59.973371028,64,267,48,219
run-2020-2-18-13-45-59.973371028,65,272,51,221
run-2020-2-18-13-45-59.973371028,66,276,50,226
run-2020-2-18-13-45-59.973371028,67,283,55,228
run-2020-2-18-13-45-59.973371028,68,286,52,234
run-2020-2-18-13-45-59.973371028,69,290,53,237
run-2020-2-18-13-45-59.973371028,70,291,51,240
run-2020-2-18-13-45-59.973371028,71,293,51,242
run-2020-2-18-13-45-59.973371028,72,294,45,249
run-2020-2-18-13-45-59.973371028,73,299,47,252
run-2020-2-18-13-45-59.973371028,74,304,49,255
run-2020-2-18-13-45-59.973371028,75,310,53,257
run-2020-2-18-13-45-59.973371028,76,316,54,262
run-2020-2-18-13-45-59.973371028,77,318,52,266
run-2020-2-18-13-45-59.973371028,78,320,48,272
run-2020-2-18-13-45-59.973371028,79,324,45,279
run-2020-2-18-13-45-59.973371028,80,326,43,283
run-2020-2-18-13-45-59.973371028,81,328,40,288
run-2020-2-18-13-45-59.973371028,82,331,42,289
run-2020-2-18-13-45-59.973371028,83,334,43,291
run-2020-2-18-13-45-59.973371028,84,336,42,294
run-2020-2-18-13-45-59.973371028,85,341,45,296
run-2020-2-18-13-45-59.973371028,86,345,45,300
run-2020-2-18-13-45-59.973371028,87,347,42,305
run-2020-2-18-13-45-59.973371028,88,350,42,308
run-2020-2-18-13-45-59.973371028,89,351,41,310
run-2020-2-18-13-45-59.973371028,90,352,39,313
run-2020-2-18-13-45-59.973371028,91,355,38,317
run-2020-2-18-13-45-59.973371028,92,359,40,319
run-2020-2-18-13-45-59.973371028,93,363,41,322
run-2020-2-18-13-45-59.973371028,94,365,38,327
run-2020-2-18-13-45-59.973371028,95,368,40,328
run-2020-2-18-13-45-59.973371028,96,375,45,330
run-2020-2-18-13-45-59.973371028,97,381,50,331
run-2020-2-18-13-45-59.973371028,98,384,53,331
run-2020-2-18-13-45-59.973371028,99,390,54,336
