run-2020-6-30-9-46-39.879688978,0,90
run-2020-6-30-9-46-39.879688978,1,7
run-2020-6-30-9-46-39.879688978,2,2
run-2020-6-30-9-46-39.879688978,3,0
run-2020-6-30-9-46-39.879688978,4,0
run-2020-6-30-9-46-39.879688978,5,0
run-2020-6-30-9-46-39.879688978,6,0
run-2020-6-30-9-46-39.879688978,7,0
run-2020-6-30-9-46-39.879688978,8,0
run-2020-6-30-9-46-39.879688978,9,0
run-2020-6-30-9-46-39.879688978,10,0
run-2020-6-30-9-46-39.879688978,11,0
run-2020-6-30-9-46-39.879688978,12,0
run-2020-6-30-9-46-39.879688978,13,0
run-2020-6-30-9-46-39.879688978,14,0
run-2020-6-30-9-46-39.879688978,15,0
run-2020-6-30-9-46-39.879688978,16,0
run-2020-6-30-9-46-39.879688978,17,0
run-2020-6-30-9-46-39.879688978,18,0
run-2020-6-30-9-46-39.879688978,19,0
run-2020-6-30-9-46-39.879688978,20,0
run-2020-6-30-9-46-39.879688978,21,0
run-2020-6-30-9-46-39.879688978,22,0
run-2020-6-30-9-46-39.879688978,23,0
run-2020-6-30-9-46-39.879688978,24,0
run-2020-6-30-9-46-39.879688978,25,0
run-2020-6-30-9-46-39.879688978,26,0
run-2020-6-30-9-46-39.879688978,27,0
run-2020-6-30-9-46-39.879688978,28,0
run-2020-6-30-9-46-39.879688978,29,0
run-2020-6-30-9-46-39.879688978,30,0
run-2020-6-30-9-46-39.879688978,31,0
run-2020-6-30-9-46-39.879688978,32,0
run-2020-6-30-9-46-39.879688978,33,0
run-2020-6-30-9-46-39.879688978,34,0
run-2020-6-30-9-46-39.879688978,35,0
run-2020-6-30-9-46-39.879688978,36,0
run-2020-6-30-9-46-39.879688978,37,0
run-2020-6-30-9-46-39.879688978,38,0
run-2020-6-30-9-46-39.879688978,39,0
run-2020-6-30-9-46-39.879688978,40,0
run-2020-6-30-9-46-39.879688978,41,0
run-2020-6-30-9-46-39.879688978,42,0
run-2020-6-30-9-46-39.879688978,43,0
run-2020-6-30-9-46-39.879688978,44,0
run-2020-6-30-9-46-39.879688978,45,0
run-2020-6-30-9-46-39.879688978,46,0
run-2020-6-30-9-46-39.879688978,47,0
run-2020-6-30-9-46-39.879688978,48,0
run-2020-6-30-9-46-39.879688978,49,0
run-2020-6-30-9-46-39.879688978,50,0
run-2020-6-30-9-46-39.879688978,51,0
run-2020-6-30-9-46-39.879688978,52,0
run-2020-6-30-9-46-39.879688978,53,0
run-2020-6-30-9-46-39.879688978,54,0
run-2020-6-30-9-46-39.879688978,55,0
run-2020-6-30-9-46-39.879688978,56,0
run-2020-6-30-9-46-39.879688978,57,0
run-2020-6-30-9-46-39.879688978,58,0
run-2020-6-30-9-46-39.879688978,59,0
run-2020-6-30-9-46-39.879688978,60,0
run-2020-6-30-9-46-39.879688978,61,0
run-2020-6-30-9-46-39.879688978,62,0
run-2020-6-30-9-46-39.879688978,63,0
run-2020-6-30-9-46-39.879688978,64,0
run-2020-6-30-9-46-39.879688978,65,0
run-2020-6-30-9-46-39.879688978,66,0
run-2020-6-30-9-46-39.879688978,67,0
run-2020-6-30-9-46-39.879688978,68,0
run-2020-6-30-9-46-39.879688978,69,0
run-2020-6-30-9-46-39.879688978,70,0
run-2020-6-30-9-46-39.879688978,71,0
run-2020-6-30-9-46-39.879688978,72,0
run-2020-6-30-9-46-39.879688978,73,0
run-2020-6-30-9-46-39.879688978,74,0
run-2020-6-30-9-46-39.879688978,75,0
run-2020-6-30-9-46-39.879688978,76,0
run-2020-6-30-9-46-39.879688978,77,0
run-2020-6-30-9-46-39.879688978,78,0
run-2020-6-30-9-46-39.879688978,79,0
run-2020-6-30-9-46-39.879688978,80,0
run-2020-6-30-9-46-39.879688978,81,0
run-2020-6-30-9-46-39.879688978,82,0
run-2020-6-30-9-46-39.879688978,83,0
run-2020-6-30-9-46-39.879688978,84,0
run-2020-6-30-9-46-39.879688978,85,0
run-2020-6-30-9-46-39.879688978,86,0
run-2020-6-30-9-46-39.879688978,87,0
run-2020-6-30-9-46-39.879688978,88,0
run-2020-6-30-9-46-39.879688978,89,0
run-2020-6-30-9-46-39.879688978,90,0
run-2020-6-30-9-46-39.879688978,91,0
run-2020-6-30-9-46-39.879688978,92,0
run-2020-6-30-9-46-39.879688978,93,0
run-2020-6-30-9-46-39.879688978,94,0
run-2020-6-30-9-46-39.879688978,95,0
run-2020-6-30-9-46-39.879688978,96,0
run-2020-6-30-9-46-39.879688978,97,0
run-2020-6-30-9-46-39.879688978,98,0
run-2020-6-30-9-46-39.879688978,99,0
run-2020-6-30-9-46-39.879688978,100,0
run-2020-6-30-9-46-39.879688978,101,0
