Source,Target
c5c22338-5242-11ea-a43d-bf1e41d09976,c5c3d2b4-5242-11ea-9b9a-73ec75daddd1
c5c30168-5242-11ea-bda9-b7b27e2d622e,c5c3e1a0-5242-11ea-a883-2bb4e4a4ae5c
c5c2f18c-5242-11ea-934a-bb2f4f4d41fd,c5c3eff6-5242-11ea-91fb-1f318e3d99f7
c5c17a5a-5242-11ea-a909-976b1604adb9,c5c3fc9e-5242-11ea-a2fc-eb941267ca87
c5c11812-5242-11ea-a77e-b32b9bfbbb2f,c5c409fa-5242-11ea-ac53-d3ba601ef19f
c5c10cbe-5242-11ea-8e40-f779e5623cfe,c5c418b4-5242-11ea-970e-2be76db05288
c5c13572-5242-11ea-a7b5-b3ea3d5f4473,c5c42778-5242-11ea-91db-bb2bc5338629
c5c3a33e-5242-11ea-b556-4fe306522443,c5c43484-5242-11ea-bf75-d778d7d68509
c5c30168-5242-11ea-bda9-b7b27e2d622e,c5c443ac-5242-11ea-97e1-937cb996bc82
c5c3d2b4-5242-11ea-9b9a-73ec75daddd1,c5c4564e-5242-11ea-896f-dfdc5dec0f02
c5c16d4e-5242-11ea-9147-f36826bba54d,c5c462ec-5242-11ea-baa8-6ba2d60d6e34
c5c25196-5242-11ea-9408-9f68f3d59959,c5c47070-5242-11ea-83d2-7bd204ffbc5e
c5c1959e-5242-11ea-a305-6f66675a514f,c5c47cb4-5242-11ea-ac1f-7bad07a31855
c5c13572-5242-11ea-a7b5-b3ea3d5f4473,c5c489ca-5242-11ea-9746-e3913a645d43
c5c29296-5242-11ea-91ec-2395ab61ec89,c5c49672-5242-11ea-ab33-eb145081b9ce
c5c33d36-5242-11ea-8686-bbb2956abc5d,c5c4a5a4-5242-11ea-89ac-9356c8fa96b5
c5c30168-5242-11ea-bda9-b7b27e2d622e,c5c4b328-5242-11ea-83dc-836c86bf8ad7
c5c49672-5242-11ea-ab33-eb145081b9ce,c5c4c214-5242-11ea-833a-6fb8e02e2c0c
c5c1cdfc-5242-11ea-a1a0-bf29e708b307,c5c4d060-5242-11ea-8ecb-cf5a12166884
c5c4b328-5242-11ea-83dc-836c86bf8ad7,c5c4dede-5242-11ea-8e5d-0734f4bf28f1
c5c142ba-5242-11ea-aa4b-979d4e882878,c5c4ece4-5242-11ea-b333-cb303be9ae2a
c5c25196-5242-11ea-9408-9f68f3d59959,c5c4fd74-5242-11ea-87b0-57bcfb2525bf
c5c11812-5242-11ea-a77e-b32b9bfbbb2f,c5c507c4-5242-11ea-aa2b-0fd738505aa0
c5c377ba-5242-11ea-b0df-5b22afa20a80,c5c5149e-5242-11ea-b9d0-b767c4d068fd
c5c4fd74-5242-11ea-87b0-57bcfb2525bf,c5c520b0-5242-11ea-a26a-93aaf031d2f5
c5c2420a-5242-11ea-aaeb-3f71ea81948b,c5c52bf0-5242-11ea-8f38-7b6e65e2e6de
c5c13572-5242-11ea-a7b5-b3ea3d5f4473,c5c538a2-5242-11ea-97cb-5f69e95f4649
c5c15e76-5242-11ea-ac3b-2f7864ebe014,c5c54824-5242-11ea-a83b-e7f93a74a855
c5c39420-5242-11ea-a242-93b7c5c50e85,c5c5545e-5242-11ea-8ed5-6729a77ea9c3
c5c3c238-5242-11ea-b23b-6312c64b0ede,c5c562be-5242-11ea-b194-37bce758f0ba
c5c30168-5242-11ea-bda9-b7b27e2d622e,c5c572fe-5242-11ea-8149-2b4e4f69dd6f
c5c1f8b8-5242-11ea-84bc-bb9329b13b64,c5c57f60-5242-11ea-9ee1-9b1d292c5ae8
c5c418b4-5242-11ea-970e-2be76db05288,c5c58dde-5242-11ea-abcb-af6500f1c1b8
c5c22338-5242-11ea-a43d-bf1e41d09976,c5c59f54-5242-11ea-906f-6fdd345d093f
c5c11812-5242-11ea-a77e-b32b9bfbbb2f,c5c5ae2c-5242-11ea-9a6c-5ff4a244d390
c5c2c1b2-5242-11ea-8d18-f737518d7ccd,c5c5bb88-5242-11ea-9e70-1b6c76c160b6
c5c11812-5242-11ea-a77e-b32b9bfbbb2f,c5c5c8d0-5242-11ea-8aa6-2be7c47d617f
c5c17a5a-5242-11ea-a909-976b1604adb9,c5c5d712-5242-11ea-825f-6fb5f1842993
c5c23512-5242-11ea-86f9-b3682e541e33,c5c5e5b8-5242-11ea-b67f-1f7c9b9a5bba
c5c538a2-5242-11ea-97cb-5f69e95f4649,c5c5f350-5242-11ea-97ce-ef4b86a2dce1
c5c520b0-5242-11ea-a26a-93aaf031d2f5,c5c60066-5242-11ea-a3b7-eb5852d7fd20
c5c4fd74-5242-11ea-87b0-57bcfb2525bf,c5c60e76-5242-11ea-ba38-832606aeec36
c5c54824-5242-11ea-a83b-e7f93a74a855,c5c62d8e-5242-11ea-a18b-93f86b189a7c
c5c5e5b8-5242-11ea-b67f-1f7c9b9a5bba,c5c62d52-5242-11ea-ab06-87616f85b877
c5c462ec-5242-11ea-baa8-6ba2d60d6e34,c5c63d06-5242-11ea-b1fe-47545d7ebb90
c5c3c238-5242-11ea-b23b-6312c64b0ede,c5c64b20-5242-11ea-99f3-477471daef20
c5c47070-5242-11ea-83d2-7bd204ffbc5e,c5c6589a-5242-11ea-a871-ffeae5970b7d
c5c63d06-5242-11ea-b1fe-47545d7ebb90,c5c667b8-5242-11ea-b886-fb4b4fcd2b9d
c5c23512-5242-11ea-86f9-b3682e541e33,c5c675f0-5242-11ea-a8b7-0f17522bce3a
c5c34c22-5242-11ea-9d54-b3a632a354b9,c5c684e6-5242-11ea-ad31-630a59e8b474
c5c667b8-5242-11ea-b886-fb4b4fcd2b9d,c5c69436-5242-11ea-8cc3-d36354b0a62f
c5c39420-5242-11ea-a242-93b7c5c50e85,c5c6a548-5242-11ea-9bab-b3da216361d9
c5c3fc9e-5242-11ea-a2fc-eb941267ca87,c5c6b0d8-5242-11ea-8d35-0bb13687ad37
c5c63d06-5242-11ea-b1fe-47545d7ebb90,c5c6bd8a-5242-11ea-8bea-fbe82f5e094d
c5c572fe-5242-11ea-8149-2b4e4f69dd6f,c5c6cc1c-5242-11ea-b237-23601239b50d
c5c49672-5242-11ea-ab33-eb145081b9ce,c5c6dc16-5242-11ea-b5f8-3787112ea50e
c5c34c22-5242-11ea-9d54-b3a632a354b9,c5c6e8c8-5242-11ea-89b6-9fdc5c8847e7
c5c462ec-5242-11ea-baa8-6ba2d60d6e34,c5c6f5c0-5242-11ea-9f38-531a39e43a39
c5c5149e-5242-11ea-b9d0-b767c4d068fd,c5c702ae-5242-11ea-81db-c3a773e1bcfc
c5c11812-5242-11ea-a77e-b32b9bfbbb2f,c5c70fc4-5242-11ea-94dc-5f9fdec4b853
c5c2f18c-5242-11ea-934a-bb2f4f4d41fd,c5c71b54-5242-11ea-b583-cf4ddc696bb0
c5c6bd8a-5242-11ea-8bea-fbe82f5e094d,c5c72874-5242-11ea-9cff-c730762fb59d
c5c6a548-5242-11ea-9bab-b3da216361d9,c5c7383c-5242-11ea-a7c6-ef0ff62baa90
c5c4ece4-5242-11ea-b333-cb303be9ae2a,c5c7493a-5242-11ea-befd-7b4f210b7b8d
c5c3c238-5242-11ea-b23b-6312c64b0ede,c5c7563c-5242-11ea-a813-f3f131c45072
c5c562be-5242-11ea-b194-37bce758f0ba,c5c76654-5242-11ea-9dec-8f450c50fc29
c5c5f350-5242-11ea-97ce-ef4b86a2dce1,c5c772b6-5242-11ea-aad3-939cf8567f86
c5c4a5a4-5242-11ea-89ac-9356c8fa96b5,c5c7804e-5242-11ea-8dfb-f7d12b8f7c79
c5c369c8-5242-11ea-9978-4bbfd7f7b867,c5c78ce2-5242-11ea-b9c0-dfbf3b071b38
c5c489ca-5242-11ea-9746-e3913a645d43,c5c79af2-5242-11ea-b820-97fba4f1d9a3
c5c6cc1c-5242-11ea-b237-23601239b50d,c5c7a95c-5242-11ea-bc3a-4f0a62d064ad
c5c29fe8-5242-11ea-9433-9f5ea8f18ebc,c5c7c05e-5242-11ea-9c1a-2f8dcbfae84b
c5c6a548-5242-11ea-9bab-b3da216361d9,c5c7d436-5242-11ea-b4ec-377c9616b6d4
c5c5e5b8-5242-11ea-b67f-1f7c9b9a5bba,c5c7e3fe-5242-11ea-ad21-139ee40062a2
c5c76654-5242-11ea-9dec-8f450c50fc29,c5c7f3f8-5242-11ea-8d19-0b7f34a144a2
c5c409fa-5242-11ea-ac53-d3ba601ef19f,c5c804f6-5242-11ea-bac5-7fbc3ec76c11
c5c25ede-5242-11ea-8339-6325342deee0,c5c8168a-5242-11ea-b4a5-4b2bca5a632c
c5c4c214-5242-11ea-833a-6fb8e02e2c0c,c5c82c38-5242-11ea-95d9-df7ded32a8d0
c5c22338-5242-11ea-a43d-bf1e41d09976,c5c84b14-5242-11ea-8d54-af5eb409edcb
c5c6589a-5242-11ea-a871-ffeae5970b7d,c5c85afa-5242-11ea-8ec8-cf6b4eb30025
c5c57f60-5242-11ea-9ee1-9b1d292c5ae8,c5c87404-5242-11ea-9509-4327ad45e0c6
c5c489ca-5242-11ea-9746-e3913a645d43,c5c891be-5242-11ea-b4a8-2b009dda924b
c5c2d152-5242-11ea-a869-d32ac45787eb,c5c8844e-5242-11ea-ad41-a7083b29cc6c
c5c13572-5242-11ea-a7b5-b3ea3d5f4473,c5c8a62c-5242-11ea-a4a2-87aedf7cecff
c5c5545e-5242-11ea-8ed5-6729a77ea9c3,c5c8b54a-5242-11ea-90b0-ab6b1a4d6cff
c5c2d152-5242-11ea-a869-d32ac45787eb,c5c8c47c-5242-11ea-8cbf-17f2324cd9a4
c5c4c214-5242-11ea-833a-6fb8e02e2c0c,c5c8d764-5242-11ea-9d50-a3991ea7a215
c5c62d52-5242-11ea-ab06-87616f85b877,c5c8e86c-5242-11ea-964b-3be76d694bd2
c5c5bb88-5242-11ea-9e70-1b6c76c160b6,c5c8f960-5242-11ea-8315-ebb4dea85e5c
c5c572fe-5242-11ea-8149-2b4e4f69dd6f,c5c90ad6-5242-11ea-a172-d7f4dd608505
c5c69436-5242-11ea-8cc3-d36354b0a62f,c5c91940-5242-11ea-8710-abb7e26919dc
c5c6dc16-5242-11ea-b5f8-3787112ea50e,c5c92a5c-5242-11ea-abdd-837f9e56cffe
c5c6bd8a-5242-11ea-8bea-fbe82f5e094d,c5c93bbe-5242-11ea-9cd9-0f29aff01352
c5c62d52-5242-11ea-ab06-87616f85b877,c5c94e60-5242-11ea-8b36-936af2932ff5
c5c562be-5242-11ea-b194-37bce758f0ba,c5c95e14-5242-11ea-a3c3-539453c279c4
c5c4a5a4-5242-11ea-89ac-9356c8fa96b5,c5c96d32-5242-11ea-8fdc-c3a72c46e985
c5c7f3f8-5242-11ea-8d19-0b7f34a144a2,c5c98fb0-5242-11ea-a4aa-8f8425adc4ac
c5c377ba-5242-11ea-b0df-5b22afa20a80,c5c97f66-5242-11ea-97b4-b74ba664b06b
