Source,Target
LAW56df0be0-abe6-11ea-b30b-20c9d0446113,LAW56dfb6f8-abe6-11ea-9403-20c9d0446113
LAW56df42cc-abe6-11ea-b7a9-20c9d0446113,LAW56dfb644-abe6-11ea-bf5d-20c9d0446113
LAW56df3ed0-abe6-11ea-a1f2-20c9d0446113,LAW56dfb75c-abe6-11ea-8f9d-20c9d0446113
LAW56df74e0-abe6-11ea-9602-20c9d0446113,LAW56dfb54a-abe6-11ea-971a-20c9d0446113
LAW56df42cc-abe6-11ea-b7a9-20c9d0446113,LAW56e0050e-abe6-11ea-a931-20c9d0446113
LAW56df74e0-abe6-11ea-9602-20c9d0446113,LAW56e0045a-abe6-11ea-b8bd-20c9d0446113
LAW56dfb6f8-abe6-11ea-9403-20c9d0446113,LAW56dfb7c0-abe6-11ea-9f22-20c9d0446113
LAW56df0be0-abe6-11ea-b30b-20c9d0446113,LAW56e01986-abe6-11ea-9658-20c9d0446113
LAW56e0045a-abe6-11ea-b8bd-20c9d0446113,LAW56e01878-abe6-11ea-a55a-20c9d0446113
LAW56dfb54a-abe6-11ea-971a-20c9d0446113,LAW56e02764-abe6-11ea-a559-20c9d0446113
LAW56df3ebc-abe6-11ea-8876-20c9d0446113,LAW56e02822-abe6-11ea-b4ad-20c9d0446113
LAW56df3ed0-abe6-11ea-a1f2-20c9d0446113,LAW56e02764-abe6-11ea-96e6-20c9d0446113
LAW56dfb54a-abe6-11ea-971a-20c9d0446113,LAW56e0022a-abe6-11ea-84fb-20c9d0446113
LAW56df0be0-abe6-11ea-b30b-20c9d0446113,LAW56e0059a-abe6-11ea-9ddb-20c9d0446113
LAW56e01986-abe6-11ea-9658-20c9d0446113,LAW56e0052c-abe6-11ea-9386-20c9d0446113
