RunID,Agent,Age,Created,Inactive,Resources,Reputation,Ability,Que
run-2020-2-28-16-22-43.973905086,AGENT#8c956a8c-5a46-11ea-a865-1797ad434c5a,0,0,0,10,1.0,1.0,0
run-2020-2-28-16-22-43.973905086,AGENT#8c9578b0-5a46-11ea-87e9-7bb1e5f0e3db,0,0,0,10,1.0,1.0,0
run-2020-2-28-16-22-43.973905086,AGENT#8c95754a-5a46-11ea-8682-27e667bb0e73,1,0,1,10,1.0,1.0,0
run-2020-2-28-16-22-43.973905086,AGENT#8c957bf8-5a46-11ea-9e54-2fb0caf7a962,2,0,2,10,1.0,1.0,0
run-2020-2-28-16-22-43.973905086,AGENT#8c95f36c-5a46-11ea-83d5-478e0701fb6c,2,0,2,10,1.0,1.0,0
run-2020-2-28-16-22-43.973905086,AGENT#8c956316-5a46-11ea-8c9f-3b741930ae88,3,0,3,10,1.0,1.0,0
run-2020-2-28-16-22-43.973905086,AGENT#8c95718a-5a46-11ea-b939-cf22eb76fd43,3,0,3,10,1.0,1.0,0
run-2020-2-28-16-22-43.973905086,AGENT#8c957f54-5a46-11ea-90c4-bf478568e5e3,3,0,3,10,1.0,1.0,0
run-2020-2-28-16-22-43.973905086,AGENT#8c95efc0-5a46-11ea-b3bb-cf2a4b1ceabc,3,0,3,10,1.0,1.0,0
run-2020-2-28-16-22-43.973905086,AGENT#8c9582a6-5a46-11ea-8525-dbe3c75c312a,4,0,4,10,1.0,1.0,0
run-2020-2-28-16-22-43.973905086,AGENT#8c95e7e6-5a46-11ea-bac7-cb69c5a880e4,4,0,4,10,1.0,1.0,0
run-2020-2-28-16-22-43.973905086,AGENT#8cb01300-5a46-11ea-bea8-0344dc1764be,2,2,4,10,1.0,1.0,0
run-2020-2-28-16-22-43.973905086,AGENT#8cb0162a-5a46-11ea-9458-4fdf8572c6a2,2,2,4,10,1.0,1.0,0
run-2020-2-28-16-22-43.973905086,AGENT#8c9566f4-5a46-11ea-8c21-33c6aac71e76,5,0,5,10,1.0,1.0,0
run-2020-2-28-16-22-43.973905086,AGENT#8c95e3cc-5a46-11ea-9e5a-632214b33361,5,0,5,10,1.0,1.0,0
run-2020-2-28-16-22-43.973905086,AGENT#8cbfbee0-5a46-11ea-a497-130df7c43188,2,3,5,10,1.0,1.0,0
run-2020-2-28-16-22-43.973905086,AGENT#8cbfc23c-5a46-11ea-a690-f7d0d779f91f,2,3,5,10,1.0,1.0,0
run-2020-2-28-16-22-43.973905086,AGENT#8cbfc570-5a46-11ea-8e85-433d78611a0e,2,3,5,10,1.0,1.0,0
run-2020-2-28-16-22-43.973905086,AGENT#8cd0bd1c-5a46-11ea-99b5-4b32fb609f99,1,4,5,10,1.0,1.0,0
run-2020-2-28-16-22-43.973905086,AGENT#8cb01904-5a46-11ea-9bdd-3fb093f35c7f,4,2,6,10,1.0,1.0,0
run-2020-2-28-16-22-43.973905086,AGENT#8cd0c0a0-5a46-11ea-a382-03f23b470cc6,2,4,6,10,1.0,1.0,0
run-2020-2-28-16-22-43.973905086,AGENT#8ce32d80-5a46-11ea-801d-c32aff545a3a,1,5,6,10,1.0,1.0,0
run-2020-2-28-16-22-43.973905086,AGENT#8c95ebc4-5a46-11ea-9994-7bf48273c61a,7,0,7,10,1.0,1.0,0
run-2020-2-28-16-22-43.973905086,AGENT#8cd0caf0-5a46-11ea-ad3a-27072172273c,4,4,8,10,1.0,1.0,0
run-2020-2-28-16-22-43.973905086,AGENT#8d0d9d68-5a46-11ea-b22a-d7c20585586f,1,7,8,10,1.0,1.0,0
run-2020-2-28-16-22-43.973905086,AGENT#8ca23528-5a46-11ea-b06c-0fa64659fb8f,8,1,9,10,1.0,1.0,0
run-2020-2-28-16-22-43.973905086,AGENT#8cf7704c-5a46-11ea-a709-4bd8b8600cf2,3,6,9,10,1.0,1.0,0
run-2020-2-28-16-22-43.973905086,AGENT#8d0d96a6-5a46-11ea-8053-7facc90960da,2,7,9,10,1.0,1.0,0
run-2020-2-28-16-22-43.973905086,AGENT#8d248af0-5a46-11ea-bc58-cbafaeedb40a,1,8,9,10,1.0,1.0,0
run-2020-2-28-16-22-43.973905086,AGENT#8d2491d0-5a46-11ea-802f-e71ee266fa01,1,8,9,10,1.0,1.0,0
run-2020-2-28-16-22-43.973905086,AGENT#8d0da09c-5a46-11ea-930c-87ffc1901fba,4,7,11,10,1.0,1.0,0
run-2020-2-28-16-22-43.973905086,AGENT#8d3e279e-5a46-11ea-8999-57cf0bb5cbb5,2,9,11,10,1.0,1.0,0
run-2020-2-28-16-22-43.973905086,AGENT#8d3e2456-5a46-11ea-bbd1-676615426e66,3,9,12,10,1.0,1.0,0
run-2020-2-28-16-22-43.973905086,AGENT#8d741980-5a46-11ea-8af9-572417d7c422,2,11,13,10,1.0,1.0,0
run-2020-2-28-16-22-43.973905086,AGENT#8d741ce6-5a46-11ea-a7f7-4b307688768b,3,11,14,10,1.0,1.0,0
run-2020-2-28-16-22-43.973905086,AGENT#8d741fde-5a46-11ea-aed4-a339b87deb6b,3,11,14,10,1.0,1.0,0
run-2020-2-28-16-22-43.973905086,AGENT#8d7422ae-5a46-11ea-888e-4bdec4f427b9,3,11,14,10,1.0,1.0,0
run-2020-2-28-16-22-43.973905086,AGENT#8d74259c-5a46-11ea-92b3-afbeb0babd9a,3,11,14,10,1.0,1.0,0
run-2020-2-28-16-22-43.973905086,AGENT#8de7caec-5a46-11ea-808a-f7cfd112cfa1,2,12,14,10,1.0,1.0,0
run-2020-2-28-16-22-43.973905086,AGENT#8e617cfc-5a46-11ea-8441-bf8e4546685d,1,13,14,10,1.0,1.0,0
run-2020-2-28-16-22-43.973905086,AGENT#8e618846-5a46-11ea-9ec9-c390ca172c84,1,13,14,10,1.0,1.0,0
run-2020-2-28-16-22-43.973905086,AGENT#8f37b718-5a46-11ea-8c5f-f30e44e082f1,1,15,16,10,1.0,1.0,0
run-2020-2-28-16-22-43.973905086,AGENT#8ed232e4-5a46-11ea-b054-1b7d4f6ae375,3,14,17,10,1.0,1.0,0
run-2020-2-28-16-22-43.973905086,AGENT#8f8b9eb4-5a46-11ea-963a-5bef33de36cc,1,16,17,10,1.0,1.0,0
run-2020-2-28-16-22-43.973905086,AGENT#8f37b146-5a46-11ea-b22b-33604b621c93,3,15,18,10,1.0,1.0,0
run-2020-2-28-16-22-43.973905086,AGENT#8fd07fac-5a46-11ea-b05f-43464c9e0b31,1,17,18,10,1.0,1.0,0
run-2020-2-28-16-22-43.973905086,AGENT#8f37ad86-5a46-11ea-ab18-83c64707b8a7,5,15,20,10,1.0,1.0,0
run-2020-2-28-16-22-43.973905086,AGENT#8f8b98b0-5a46-11ea-aab8-cff1f76f5c14,4,16,20,10,1.0,1.0,0
run-2020-2-28-16-22-43.973905086,AGENT#900b8b4c-5a46-11ea-a71a-47d81920d692,2,18,20,10,1.0,1.0,0
run-2020-2-28-16-22-43.973905086,AGENT#8fd07cf0-5a46-11ea-959c-f38f504b41be,4,17,21,10,1.0,1.0,0
run-2020-2-28-16-22-43.973905086,AGENT#9039dc54-5a46-11ea-9914-77aef19d6ef6,2,19,21,10,1.0,1.0,0
run-2020-2-28-16-22-43.973905086,AGENT#9039df42-5a46-11ea-932f-ffc64aeb26b5,2,19,21,10,1.0,1.0,0
run-2020-2-28-16-22-43.973905086,AGENT#9039e56e-5a46-11ea-a9c2-cbeaa1abe129,2,19,21,10,1.0,1.0,0
run-2020-2-28-16-22-43.973905086,AGENT#9039e9ec-5a46-11ea-80a4-97ac43f2f226,2,19,21,10,1.0,1.0,0
run-2020-2-28-16-22-43.973905086,AGENT#905c6d3c-5a46-11ea-8d75-6779ce1862a6,1,20,21,10,1.0,1.0,0
run-2020-2-28-16-22-43.973905086,AGENT#905c7692-5a46-11ea-a2b8-5ffaa2abbf33,1,20,21,10,1.0,1.0,0
run-2020-2-28-16-22-43.973905086,AGENT#8cb01bca-5a46-11ea-8674-fb52f0dbbd14,20,2,22,10,1.0,1.0,0
run-2020-2-28-16-22-43.973905086,AGENT#8d0d9a3e-5a46-11ea-ba65-ef9d751efcba,15,7,22,10,1.0,1.0,0
run-2020-2-28-16-22-43.973905086,AGENT#905c73b8-5a46-11ea-beed-27347adca2d9,2,20,22,10,1.0,1.0,0
run-2020-2-28-16-22-43.973905086,AGENT#90744aa6-5a46-11ea-be66-9fa9135484ef,1,21,22,10,1.0,1.0,0
run-2020-2-28-16-22-43.973905086,AGENT#9074594c-5a46-11ea-8e1e-1f5e973e1ae5,1,21,22,10,1.0,1.0,0
run-2020-2-28-16-22-43.973905086,AGENT#905c6986-5a46-11ea-9d13-978721257fc0,3,20,23,10,1.0,1.0,0
run-2020-2-28-16-22-43.973905086,AGENT#907451f4-5a46-11ea-b190-7775b68fe452,2,21,23,10,1.0,1.0,0
run-2020-2-28-16-22-43.973905086,AGENT#8d5868de-5a46-11ea-8110-1351f399707f,15,10,25,10,1.0,1.0,0
run-2020-2-28-16-22-43.973905086,AGENT#90744e5c-5a46-11ea-b1f0-9bd2a1756f70,4,21,25,10,1.0,1.0,0
run-2020-2-28-16-22-43.973905086,AGENT#90856214-5a46-11ea-aa5f-2fa53f909fae,3,22,25,10,1.0,1.0,0
run-2020-2-28-16-22-43.973905086,AGENT#90856872-5a46-11ea-96cb-3791855a3562,4,22,26,10,1.0,1.0,0
run-2020-2-28-16-22-43.973905086,AGENT#90e158a8-5a46-11ea-a0cf-279b62c770a7,3,23,26,10,1.0,1.0,0
run-2020-2-28-16-22-43.973905086,AGENT#916db082-5a46-11ea-9b75-372399b5b324,2,24,26,10,1.0,1.0,0
run-2020-2-28-16-22-43.973905086,AGENT#91ebcb02-5a46-11ea-9849-a7e5677e57cf,1,25,26,10,1.0,1.0,0
run-2020-2-28-16-22-43.973905086,AGENT#90856b88-5a46-11ea-8166-7f0f084bd367,5,22,27,10,1.0,1.0,0
run-2020-2-28-16-22-43.973905086,AGENT#9253fe0c-5a46-11ea-837a-2f8067f341eb,1,26,27,10,1.0,1.0,0
run-2020-2-28-16-22-43.973905086,AGENT#91ebd0de-5a46-11ea-b79c-43b08a45ae29,3,25,28,10,1.0,1.0,0
run-2020-2-28-16-22-43.973905086,AGENT#92b0df3c-5a46-11ea-ab4c-9f3f3e1e3ac5,1,27,28,10,1.0,1.0,0
run-2020-2-28-16-22-43.973905086,AGENT#92b0dc9e-5a46-11ea-ad84-8ba1af51e3c1,2,27,29,10,1.0,1.0,0
run-2020-2-28-16-22-43.973905086,AGENT#92b0e194-5a46-11ea-bd93-2b610a48e54e,2,27,29,10,1.0,1.0,0
run-2020-2-28-16-22-43.973905086,AGENT#930079a2-5a46-11ea-8a23-2bd4b8dacc79,1,28,29,10,1.0,1.0,0
run-2020-2-28-16-22-43.973905086,AGENT#9253f89e-5a46-11ea-9d51-2b271ffe3f83,4,26,30,10,1.0,1.0,0
run-2020-2-28-16-22-43.973905086,AGENT#9253fb78-5a46-11ea-8b8e-3f4f77c110ee,4,26,30,10,1.0,1.0,0
run-2020-2-28-16-22-43.973905086,AGENT#92b0da14-5a46-11ea-85b8-7f4d69d375a7,3,27,30,10,1.0,1.0,0
run-2020-2-28-16-22-43.973905086,AGENT#9300766e-5a46-11ea-bbbe-335a132dd7b3,2,28,30,10,1.0,1.0,0
run-2020-2-28-16-22-43.973905086,AGENT#9346ba16-5a46-11ea-8f87-77c75787d630,1,29,30,10,1.0,1.0,0
run-2020-2-28-16-22-43.973905086,AGENT#937f9340-5a46-11ea-9d50-1311dca8e6a6,1,30,31,10,1.0,1.0,0
run-2020-2-28-16-22-43.973905086,AGENT#937f9f20-5a46-11ea-ac03-134f77b034d1,1,30,31,10,1.0,1.0,0
run-2020-2-28-16-22-43.973905086,AGENT#8e618328-5a46-11ea-9a3d-ff065c901e1a,19,13,32,10,1.0,1.0,0
run-2020-2-28-16-22-43.973905086,AGENT#937f967e-5a46-11ea-8881-dbdbcfe7ae64,2,30,32,10,1.0,1.0,0
run-2020-2-28-16-22-43.973905086,AGENT#937f9c46-5a46-11ea-a110-075a673c1028,2,30,32,10,1.0,1.0,0
run-2020-2-28-16-22-43.973905086,AGENT#93007c54-5a46-11ea-9a72-d7727cc6502e,5,28,33,10,1.0,1.0,0
run-2020-2-28-16-22-43.973905086,AGENT#93b15394-5a46-11ea-b073-838a4c49e645,2,31,33,10,1.0,1.0,0
run-2020-2-28-16-22-43.973905086,AGENT#93d63966-5a46-11ea-bbc6-cff6c1378ee9,1,32,33,10,1.0,1.0,0
run-2020-2-28-16-22-43.973905086,AGENT#8de7c7f4-5a46-11ea-a59d-4767a3611251,22,12,34,10,1.0,1.0,0
run-2020-2-28-16-22-43.973905086,AGENT#93b156f0-5a46-11ea-be65-bfd998de4031,3,31,34,10,1.0,1.0,0
run-2020-2-28-16-22-43.973905086,AGENT#93b15dda-5a46-11ea-ae6c-635fa71a69fb,3,31,34,10,1.0,1.0,0
run-2020-2-28-16-22-43.973905086,AGENT#93b15a42-5a46-11ea-9fd6-8f78c9a2c1e4,4,31,35,10,1.0,1.0,0
run-2020-2-28-16-22-43.973905086,AGENT#93d641a4-5a46-11ea-ae5c-cbbbf0b63237,3,32,35,10,1.0,1.0,0
run-2020-2-28-16-22-43.973905086,AGENT#9452b9e6-5a46-11ea-b09c-837236f83543,1,34,35,10,1.0,1.0,0
run-2020-2-28-16-22-43.973905086,AGENT#9452bcd4-5a46-11ea-97e0-17bd9ff163c1,1,34,35,10,1.0,1.0,0
run-2020-2-28-16-22-43.973905086,AGENT#9452c42c-5a46-11ea-b749-53be67ba1fc2,1,34,35,10,1.0,1.0,0
run-2020-2-28-16-22-43.973905086,AGENT#9452c6c0-5a46-11ea-9c7b-4781fd58703c,1,34,35,10,1.0,1.0,0
run-2020-2-28-16-22-43.973905086,AGENT#93fa201a-5a46-11ea-a69e-0366af56e17d,3,33,36,10,1.0,1.0,0
run-2020-2-28-16-22-43.973905086,AGENT#93fa23ee-5a46-11ea-8dcf-7b3568509f24,3,33,36,10,1.0,1.0,0
run-2020-2-28-16-22-43.973905086,AGENT#9452bf4a-5a46-11ea-97d5-fb42fa4fd3ae,3,34,37,10,1.0,1.0,0
run-2020-2-28-16-22-43.973905086,AGENT#9452c1b6-5a46-11ea-a6c4-ffa143f2e9aa,3,34,37,10,1.0,1.0,0
run-2020-2-28-16-22-43.973905086,AGENT#937f9958-5a46-11ea-9225-7f5cd75ad978,8,30,38,10,1.0,1.0,0
run-2020-2-28-16-22-43.973905086,AGENT#90745596-5a46-11ea-8146-3b5125f108be,18,21,39,10,1.0,1.0,0
run-2020-2-28-16-22-43.973905086,AGENT#90856548-5a46-11ea-8ee5-8f1bdcc9859f,17,22,39,10,1.0,1.0,0
run-2020-2-28-16-22-43.973905086,AGENT#9555b0fa-5a46-11ea-98ad-b7a06a005a40,3,36,39,10,1.0,1.0,0
run-2020-2-28-16-22-43.973905086,AGENT#95c80e48-5a46-11ea-b4c0-d38acc41c4a2,2,37,39,10,1.0,1.0,0
run-2020-2-28-16-22-43.973905086,AGENT#95c81cda-5a46-11ea-8b00-a3d388b74db5,2,37,39,10,1.0,1.0,0
run-2020-2-28-16-22-43.973905086,AGENT#963d059a-5a46-11ea-96de-53a57de9a319,2,38,40,10,1.0,1.0,0
run-2020-2-28-16-22-43.973905086,AGENT#968e1034-5a46-11ea-94cd-ab348635eec4,2,39,41,10,1.0,1.0,0
run-2020-2-28-16-22-43.973905086,AGENT#96d24830-5a46-11ea-9c8e-cb55f43a3ab8,1,40,41,10,1.0,1.0,0
run-2020-2-28-16-22-43.973905086,AGENT#95c805b0-5a46-11ea-99bb-13198ac5c151,5,37,42,10,1.0,1.0,0
run-2020-2-28-16-22-43.973905086,AGENT#8d248e9c-5a46-11ea-9d3a-c773655c7f4e,35,8,43,10,1.0,1.0,0
run-2020-2-28-16-22-43.973905086,AGENT#970869f6-5a46-11ea-982f-7f7eb39f27ae,2,41,43,10,1.0,1.0,0
run-2020-2-28-16-22-43.973905086,AGENT#97086db6-5a46-11ea-9872-ab8f1ad8176e,3,41,44,10,1.0,1.0,0
run-2020-2-28-16-22-43.973905086,AGENT#972f5246-5a46-11ea-a9dc-3bcf25192b8b,2,42,44,10,1.0,1.0,0
run-2020-2-28-16-22-43.973905086,AGENT#974b2dfe-5a46-11ea-b1e2-4b0cc00c97c1,1,43,44,10,1.0,1.0,0
run-2020-2-28-16-22-43.973905086,AGENT#8c956dfc-5a46-11ea-9b23-5fcfc570cef1,45,0,45,10,1.0,1.0,0
run-2020-2-28-16-22-43.973905086,AGENT#8d3e20be-5a46-11ea-85bb-7f13abcd5eb3,36,9,45,10,1.0,1.0,0
run-2020-2-28-16-22-43.973905086,AGENT#972f3efa-5a46-11ea-963c-8ba323dfe244,3,42,45,10,1.0,1.0,0
run-2020-2-28-16-22-43.973905086,AGENT#972f460c-5a46-11ea-b379-673e23829f6c,3,42,45,10,1.0,1.0,0
run-2020-2-28-16-22-43.973905086,AGENT#974b22a0-5a46-11ea-b688-5bf294370d91,2,43,45,10,1.0,1.0,0
run-2020-2-28-16-22-43.973905086,AGENT#972f4936-5a46-11ea-92e9-5fb964429b94,4,42,46,10,1.0,1.0,0
run-2020-2-28-16-22-43.973905086,AGENT#974b1ee0-5a46-11ea-bc0c-67bd30e05608,3,43,46,10,1.0,1.0,0
run-2020-2-28-16-22-43.973905086,AGENT#974b2656-5a46-11ea-bfbc-1b60e1acbeaa,3,43,46,10,1.0,1.0,0
run-2020-2-28-16-22-43.973905086,AGENT#974b2a2a-5a46-11ea-ac4a-1bad46162613,3,43,46,10,1.0,1.0,0
run-2020-2-28-16-22-43.973905086,AGENT#974b3182-5a46-11ea-a730-b3a31c17d3ee,3,43,46,10,1.0,1.0,0
run-2020-2-28-16-22-43.973905086,AGENT#975ebb94-5a46-11ea-837b-d749a7983eef,2,44,46,10,1.0,1.0,0
run-2020-2-28-16-22-43.973905086,AGENT#979e784c-5a46-11ea-a043-bb1dc5566a98,1,45,46,10,1.0,1.0,0
run-2020-2-28-16-22-43.973905086,AGENT#974b1a76-5a46-11ea-9523-87ea6898f8bb,4,43,47,10,1.0,1.0,0
run-2020-2-28-16-22-43.973905086,AGENT#979e70c2-5a46-11ea-9a8b-57b0f0e3b193,2,45,47,10,1.0,1.0,0
run-2020-2-28-16-22-43.973905086,AGENT#981ee9be-5a46-11ea-b4a3-8fe2c6dae5a5,1,46,47,10,1.0,1.0,0
run-2020-2-28-16-22-43.973905086,AGENT#979e7590-5a46-11ea-a72b-df9a41d2f31d,3,45,48,10,1.0,1.0,0
run-2020-2-28-16-22-43.973905086,AGENT#981eec48-5a46-11ea-951b-5bf5c29d0a27,2,46,48,10,1.0,1.0,0
run-2020-2-28-16-22-43.973905086,AGENT#8cd0c7a8-5a46-11ea-a725-b7e99bb15f01,45,4,49,10,1.0,1.0,0
run-2020-2-28-16-22-43.973905086,AGENT#93d63dbc-5a46-11ea-8626-bb8f05c17f5d,17,32,49,10,1.0,1.0,0
run-2020-2-28-16-22-43.973905086,AGENT#981ee72a-5a46-11ea-a9df-d385b503aaff,3,46,49,10,1.0,1.0,0
run-2020-2-28-16-22-43.973905086,AGENT#98965a26-5a46-11ea-9d52-3f72a31aed6e,3,47,50,10,1.0,1.0,0
run-2020-2-28-16-22-43.973905086,AGENT#98965fa8-5a46-11ea-9b74-036b6f2203f1,3,47,50,10,1.0,1.0,0
run-2020-2-28-16-22-43.973905086,AGENT#9902a6cc-5a46-11ea-8082-7731cfb8269a,2,48,50,10,1.0,1.0,0
run-2020-2-28-16-22-43.973905086,AGENT#9965c43c-5a46-11ea-8c62-cfb8680c1125,1,49,50,10,1.0,1.0,0
run-2020-2-28-16-22-43.973905086,AGENT#9965c950-5a46-11ea-ad6b-3304f53fbad6,1,49,50,10,1.0,1.0,0
run-2020-2-28-16-22-43.973905086,AGENT#981edf6e-5a46-11ea-9a61-cbb217787a91,5,46,51,10,1.0,1.0,0
run-2020-2-28-16-22-43.973905086,AGENT#981ee202-5a46-11ea-92f0-f708c7a49ff4,5,46,51,10,1.0,1.0,0
run-2020-2-28-16-22-43.973905086,AGENT#9965c6da-5a46-11ea-b817-9b9e399835d5,2,49,51,10,1.0,1.0,0
run-2020-2-28-16-22-43.973905086,AGENT#9965cbee-5a46-11ea-83e6-ebf26b11c89f,2,49,51,10,1.0,1.0,0
run-2020-2-28-16-22-43.973905086,AGENT#99b79d8e-5a46-11ea-8931-e307f7b1f2c5,1,50,51,10,1.0,1.0,0
run-2020-2-28-16-22-43.973905086,AGENT#8cf7739e-5a46-11ea-a041-c3ce333d1a36,46,6,52,10,1.0,1.0,0
run-2020-2-28-16-22-43.973905086,AGENT#972f4c38-5a46-11ea-aa97-23fa605f2566,10,42,52,10,1.0,1.0,0
run-2020-2-28-16-22-43.973905086,AGENT#98965d14-5a46-11ea-9d60-b78c0ed8811b,5,47,52,10,1.0,1.0,0
run-2020-2-28-16-22-43.973905086,AGENT#99fd0cc0-5a46-11ea-a920-871140cdc159,1,51,52,10,1.0,1.0,0
run-2020-2-28-16-22-43.973905086,AGENT#9a360728-5a46-11ea-b022-8b9d0310437a,2,52,54,10,1.0,1.0,0
run-2020-2-28-16-22-43.973905086,AGENT#9a360a84-5a46-11ea-be45-2fea0a7b60e5,2,52,54,10,1.0,1.0,0
run-2020-2-28-16-22-43.973905086,AGENT#8cd0c460-5a46-11ea-a481-6fe2ca819cbd,51,4,55,10,1.0,1.0,0
run-2020-2-28-16-22-43.973905086,AGENT#8d586578-5a46-11ea-bfdc-1b80ae6d0c2b,45,10,55,10,1.0,1.0,0
run-2020-2-28-16-22-43.973905086,AGENT#9a8d4ff6-5a46-11ea-96df-679c7eeec814,1,54,55,10,1.0,1.0,0
run-2020-2-28-16-22-43.973905086,AGENT#9a8d5366-5a46-11ea-bd26-47f8af2fa6c8,2,54,56,10,1.0,1.0,0
run-2020-2-28-16-22-43.973905086,AGENT#9a8d56f4-5a46-11ea-9e07-bbd182526c70,2,54,56,10,1.0,1.0,0
run-2020-2-28-16-22-43.973905086,AGENT#9a8d5a5a-5a46-11ea-b565-071c87338a93,2,54,56,10,1.0,1.0,0
run-2020-2-28-16-22-43.973905086,AGENT#9a8d5dfc-5a46-11ea-9781-cb5e3747a381,2,54,56,10,1.0,1.0,0
run-2020-2-28-16-22-43.973905086,AGENT#9ab0fa8c-5a46-11ea-adf9-cb688ff88911,1,55,56,10,1.0,1.0,0
run-2020-2-28-16-22-43.973905086,AGENT#90e15588-5a46-11ea-bce0-bf5d77758ff3,34,23,57,10,1.0,1.0,0
run-2020-2-28-16-22-43.973905086,AGENT#9902adca-5a46-11ea-8eb4-db073c6186ff,9,48,57,10,1.0,1.0,0
run-2020-2-28-16-22-43.973905086,AGENT#9aee35dc-5a46-11ea-a8ac-cb72a766db9d,1,56,57,10,1.0,1.0,0
run-2020-2-28-16-22-43.973905086,AGENT#8e618008-5a46-11ea-8b38-13c2ded37dab,45,13,58,10,1.0,1.0,0
run-2020-2-28-16-22-43.973905086,AGENT#8e6185da-5a46-11ea-b089-eb5fe521866c,45,13,58,10,1.0,1.0,0
run-2020-2-28-16-22-43.973905086,AGENT#9b734d8a-5a46-11ea-924c-2bb755d99ce0,1,57,58,10,1.0,1.0,0
run-2020-2-28-16-22-43.973905086,AGENT#9b735262-5a46-11ea-b8c9-f33638ae28cd,2,57,59,10,1.0,1.0,0
run-2020-2-28-16-22-43.973905086,AGENT#9ab0fe60-5a46-11ea-9414-1bb9d805423b,5,55,60,10,1.0,1.0,0
run-2020-2-28-16-22-43.973905086,AGENT#9aee3352-5a46-11ea-a2df-f7cbf3cff8d7,4,56,60,10,1.0,1.0,0
run-2020-2-28-16-22-43.973905086,AGENT#9b734830-5a46-11ea-81b2-afb25b8f492b,3,57,60,10,1.0,1.0,0
run-2020-2-28-16-22-43.973905086,AGENT#9b7354ba-5a46-11ea-8888-a3da0e3e8d4f,3,57,60,10,1.0,1.0,0
run-2020-2-28-16-22-43.973905086,AGENT#9beea6f6-5a46-11ea-a477-63a1f430ee6e,2,58,60,10,1.0,1.0,0
run-2020-2-28-16-22-43.973905086,AGENT#9c6006ac-5a46-11ea-bde9-27099d439e33,1,59,60,10,1.0,1.0,0
run-2020-2-28-16-22-43.973905086,AGENT#8f8b9bf8-5a46-11ea-b64d-6b94ca0d8d3a,45,16,61,10,1.0,1.0,0
run-2020-2-28-16-22-43.973905086,AGENT#9b735014-5a46-11ea-96d3-cf50a8c0b6f8,4,57,61,10,1.0,1.0,0
run-2020-2-28-16-22-43.973905086,AGENT#9cbf671e-5a46-11ea-b162-6bce6875295e,1,60,61,10,1.0,1.0,0
run-2020-2-28-16-22-43.973905086,AGENT#9cbf69b2-5a46-11ea-a748-03d96ea86a74,1,60,61,10,1.0,1.0,0
run-2020-2-28-16-22-43.973905086,AGENT#8fd08268-5a46-11ea-9669-a796eafbece3,45,17,62,10,1.0,1.0,0
run-2020-2-28-16-22-43.973905086,AGENT#9cbf5ecc-5a46-11ea-b457-ebb45aa18251,2,60,62,10,1.0,1.0,0
run-2020-2-28-16-22-43.973905086,AGENT#9cbf6476-5a46-11ea-a4cf-1bd3510b7553,2,60,62,10,1.0,1.0,0
run-2020-2-28-16-22-43.973905086,AGENT#8fd0793a-5a46-11ea-9437-9b68035aa9a6,46,17,63,10,1.0,1.0,0
run-2020-2-28-16-22-43.973905086,AGENT#979e6e42-5a46-11ea-8229-f72ccd6a5f74,18,45,63,10,1.0,1.0,0
run-2020-2-28-16-22-43.973905086,AGENT#9a360322-5a46-11ea-8f97-cf43081d65d2,11,52,63,10,1.0,1.0,0
run-2020-2-28-16-22-43.973905086,AGENT#9d0fc452-5a46-11ea-a5a5-cf413f3f17c1,2,61,63,10,1.0,1.0,0
run-2020-2-28-16-22-43.973905086,AGENT#9039e276-5a46-11ea-adee-ff5deb333eef,45,19,64,10,1.0,1.0,0
run-2020-2-28-16-22-43.973905086,AGENT#9cbf61f6-5a46-11ea-908a-5b40292b52d3,4,60,64,10,1.0,1.0,0
run-2020-2-28-16-22-43.973905086,AGENT#9d541e68-5a46-11ea-9d7a-c366090a314d,2,62,64,10,1.0,1.0,0
run-2020-2-28-16-22-43.973905086,AGENT#9039d8d0-5a46-11ea-a6ae-23406b4f3849,46,19,65,10,1.0,1.0,0
run-2020-2-28-16-22-43.973905086,AGENT#963d01c6-5a46-11ea-95cd-4fc4ff38954e,27,38,65,10,1.0,1.0,0
run-2020-2-28-16-22-43.973905086,AGENT#9d92106a-5a46-11ea-85bb-032b40a2ad9a,2,63,65,10,1.0,1.0,0
run-2020-2-28-16-22-43.973905086,AGENT#9d921466-5a46-11ea-9a69-6f145ee0e6dc,2,63,65,10,1.0,1.0,0
run-2020-2-28-16-22-43.973905086,AGENT#90744628-5a46-11ea-9be9-577d2d521008,45,21,66,10,1.0,1.0,0
run-2020-2-28-16-22-43.973905086,AGENT#9555ad8a-5a46-11ea-93e2-cbffb1146609,30,36,66,10,1.0,1.0,0
run-2020-2-28-16-22-43.973905086,AGENT#9d0fbe9e-5a46-11ea-a76d-a32f494d9fb0,5,61,66,10,1.0,1.0,0
run-2020-2-28-16-22-43.973905086,AGENT#9d54101c-5a46-11ea-a9b6-df0be533f99d,4,62,66,10,1.0,1.0,0
run-2020-2-28-16-22-43.973905086,AGENT#9d541666-5a46-11ea-b778-3be81e70f73a,4,62,66,10,1.0,1.0,0
run-2020-2-28-16-22-43.973905086,AGENT#9dd611b6-5a46-11ea-ba09-e7374e11a994,1,65,66,10,1.0,1.0,0
run-2020-2-28-16-22-43.973905086,AGENT#981ee48c-5a46-11ea-819c-2b3bcb95a8aa,21,46,67,10,1.0,1.0,0
run-2020-2-28-16-22-43.973905086,AGENT#9d541bc0-5a46-11ea-9cb9-ef286db70106,5,62,67,10,1.0,1.0,0
run-2020-2-28-16-22-43.973905086,AGENT#9db9cdc6-5a46-11ea-92a6-43a9ecf57565,3,64,67,10,1.0,1.0,0
run-2020-2-28-16-22-43.973905086,AGENT#9dea11ca-5a46-11ea-b13c-2b4e2c199915,2,66,68,10,1.0,1.0,0
run-2020-2-28-16-22-43.973905086,AGENT#9dea151c-5a46-11ea-9b29-2b4cd40d26f2,2,66,68,10,1.0,1.0,0
run-2020-2-28-16-22-43.973905086,AGENT#9e1406b0-5a46-11ea-ad06-2bdb24a8f925,1,67,68,10,1.0,1.0,0
run-2020-2-28-16-22-43.973905086,AGENT#9e1409bc-5a46-11ea-87ea-afdfecd4fdee,1,67,68,10,1.0,1.0,0
run-2020-2-28-16-22-43.973905086,AGENT#90855e5e-5a46-11ea-806d-0f134f4b99d5,47,22,69,10,1.0,1.0,0
run-2020-2-28-16-22-43.973905086,AGENT#9dd60d92-5a46-11ea-88b7-f7c5144b838b,4,65,69,10,1.0,1.0,0
run-2020-2-28-16-22-43.973905086,AGENT#91ebce54-5a46-11ea-85fe-db2bf1baaab6,45,25,70,10,1.0,1.0,0
run-2020-2-28-16-22-43.973905086,AGENT#91ebd340-5a46-11ea-b4b6-8b2d6f6b299a,45,25,70,10,1.0,1.0,0
run-2020-2-28-16-22-43.973905086,AGENT#9dea0e6e-5a46-11ea-8c42-676542305c29,4,66,70,10,1.0,1.0,0
run-2020-2-28-16-22-43.973905086,AGENT#9f0c437a-5a46-11ea-b7cb-bf1605a0f403,1,69,70,10,1.0,1.0,0
run-2020-2-28-16-22-43.973905086,AGENT#905c7084-5a46-11ea-8bbd-0b480aab3fc9,51,20,71,10,1.0,1.0,0
run-2020-2-28-16-22-43.973905086,AGENT#9f79260c-5a46-11ea-8645-afb322f74230,1,70,71,10,1.0,1.0,0
run-2020-2-28-16-22-43.973905086,AGENT#9e140c5a-5a46-11ea-99bb-d7722ba3e83a,5,67,72,10,1.0,1.0,0
run-2020-2-28-16-22-43.973905086,AGENT#9e9406b2-5a46-11ea-9b2a-87233dbb0315,4,68,72,10,1.0,1.0,0
run-2020-2-28-16-22-43.973905086,AGENT#9f0c476c-5a46-11ea-a4a3-673506bb176e,3,69,72,10,1.0,1.0,0
run-2020-2-28-16-22-43.973905086,AGENT#9f791ba8-5a46-11ea-ae0a-d7f510382052,2,70,72,10,1.0,1.0,0
run-2020-2-28-16-22-43.973905086,AGENT#9f791e5a-5a46-11ea-9abd-070462fd15a4,2,70,72,10,1.0,1.0,0
run-2020-2-28-16-22-43.973905086,AGENT#9f79286e-5a46-11ea-b673-fb01bc9bf430,2,70,72,10,1.0,1.0,0
run-2020-2-28-16-22-43.973905086,AGENT#9fd5d0a0-5a46-11ea-b65e-1b265a5fa770,1,71,72,10,1.0,1.0,0
run-2020-2-28-16-22-43.973905086,AGENT#930081b8-5a46-11ea-bdb0-ef28c5e2d5d7,45,28,73,10,1.0,1.0,0
run-2020-2-28-16-22-43.973905086,AGENT#93008456-5a46-11ea-86b6-2f7d7221e3d6,45,28,73,10,1.0,1.0,0
run-2020-2-28-16-22-43.973905086,AGENT#9e940360-5a46-11ea-a647-cf83b1c78e4e,5,68,73,10,1.0,1.0,0
run-2020-2-28-16-22-43.973905086,AGENT#9e940950-5a46-11ea-87b3-53593819f092,5,68,73,10,1.0,1.0,0
run-2020-2-28-16-22-43.973905086,AGENT#9f0c50a4-5a46-11ea-bca4-4782553279e7,4,69,73,10,1.0,1.0,0
run-2020-2-28-16-22-43.973905086,AGENT#a02524fc-5a46-11ea-8844-f749ca3c752d,1,72,73,10,1.0,1.0,0
run-2020-2-28-16-22-43.973905086,AGENT#9f0c4a82-5a46-11ea-a8a2-e7f2389eb70d,5,69,74,10,1.0,1.0,0
run-2020-2-28-16-22-43.973905086,AGENT#a06752be-5a46-11ea-9a09-37a2359ad97a,1,73,74,10,1.0,1.0,0
run-2020-2-28-16-22-43.973905086,AGENT#92b0d708-5a46-11ea-b7d8-d790ee44313c,48,27,75,10,1.0,1.0,0
run-2020-2-28-16-22-43.973905086,AGENT#93007f1a-5a46-11ea-8197-57edaec19a37,47,28,75,10,1.0,1.0,0
run-2020-2-28-16-22-43.973905086,AGENT#9a6ad886-5a46-11ea-a950-df5669dd087c,22,53,75,10,1.0,1.0,0
run-2020-2-28-16-22-43.973905086,AGENT#9dea18b4-5a46-11ea-9a43-5b9250d6bb2a,9,66,75,10,1.0,1.0,0
run-2020-2-28-16-22-43.973905086,AGENT#9fd5d96a-5a46-11ea-a29d-17cff6452fee,4,71,75,10,1.0,1.0,0
run-2020-2-28-16-22-43.973905086,AGENT#93b14fca-5a46-11ea-bf5a-0731e6d1be8e,45,31,76,10,1.0,1.0,0
run-2020-2-28-16-22-43.973905086,AGENT#9d54136e-5a46-11ea-bdd7-b3378a99cfab,14,62,76,10,1.0,1.0,0
run-2020-2-28-16-22-43.973905086,AGENT#9fd5d6cc-5a46-11ea-aece-23882903d239,5,71,76,10,1.0,1.0,0
run-2020-2-28-16-22-43.973905086,AGENT#a0ca1606-5a46-11ea-a460-737a8b30f56a,1,75,76,10,1.0,1.0,0
run-2020-2-28-16-22-43.973905086,AGENT#937f8fc6-5a46-11ea-95b4-2bca9fe87cec,47,30,77,10,1.0,1.0,0
run-2020-2-28-16-22-43.973905086,AGENT#a0ca1a48-5a46-11ea-90ea-17330f1d339f,2,75,77,10,1.0,1.0,0
run-2020-2-28-16-22-43.973905086,AGENT#a0ee39f0-5a46-11ea-8b8a-63ddf242bc5a,1,76,77,10,1.0,1.0,0
run-2020-2-28-16-22-43.973905086,AGENT#9346b69c-5a46-11ea-a326-bf0b4d4ddac7,49,29,78,10,1.0,1.0,0
run-2020-2-28-16-22-43.973905086,AGENT#94d9dcb4-5a46-11ea-a8e4-2b7e675b73bf,43,35,78,10,1.0,1.0,0
run-2020-2-28-16-22-43.973905086,AGENT#a0ee3e5a-5a46-11ea-81c9-274a4b4568a7,2,76,78,10,1.0,1.0,0
run-2020-2-28-16-22-43.973905086,AGENT#a111f9da-5a46-11ea-8299-976b3cbd62b2,1,77,78,10,1.0,1.0,0
run-2020-2-28-16-22-43.973905086,AGENT#a0ca1dae-5a46-11ea-9049-073ff5b73d6e,4,75,79,10,1.0,1.0,0
run-2020-2-28-16-22-43.973905086,AGENT#a11200d8-5a46-11ea-b179-97cd3d2cb906,2,77,79,10,1.0,1.0,0
run-2020-2-28-16-22-43.973905086,AGENT#a0ca2100-5a46-11ea-9425-63d1fdf6de59,5,75,80,10,1.0,1.0,0
run-2020-2-28-16-22-43.973905086,AGENT#a111f4bc-5a46-11ea-b2e1-8f0eb7a1c07b,3,77,80,10,1.0,1.0,0
run-2020-2-28-16-22-43.973905086,AGENT#9555b51e-5a46-11ea-95c6-e3e08b26955a,45,36,81,10,1.0,1.0,0
run-2020-2-28-16-22-43.973905086,AGENT#a13b7c10-5a46-11ea-ae8b-a31a112d6e2d,3,78,81,10,1.0,1.0,0
run-2020-2-28-16-22-43.973905086,AGENT#a13b7f4e-5a46-11ea-b87d-d7109c0356d0,3,78,81,10,1.0,1.0,0
run-2020-2-28-16-22-43.973905086,AGENT#95c8174e-5a46-11ea-a928-9bb8e8e5bf6a,45,37,82,10,1.0,1.0,0
run-2020-2-28-16-22-43.973905086,AGENT#a1c8b5d0-5a46-11ea-b58d-7b512aca37a3,3,79,82,10,1.0,1.0,0
run-2020-2-28-16-22-43.973905086,AGENT#a2dc45f4-5a46-11ea-bf29-a7afb694d240,1,81,82,10,1.0,1.0,0
run-2020-2-28-16-22-43.973905086,AGENT#a33d417e-5a46-11ea-8dac-93e0a06164d9,1,82,83,10,1.0,1.0,0
run-2020-2-28-16-22-43.973905086,AGENT#a33d441c-5a46-11ea-8e56-27ac06b087da,1,82,83,10,1.0,1.0,0
run-2020-2-28-16-22-43.973905086,AGENT#9555aa24-5a46-11ea-96c1-137daf96529a,48,36,84,10,1.0,1.0,0
run-2020-2-28-16-22-43.973905086,AGENT#968e0cb0-5a46-11ea-8196-d3e70b34ce96,45,39,84,10,1.0,1.0,0
run-2020-2-28-16-22-43.973905086,AGENT#a1c8b364-5a46-11ea-bf87-ff37a673462f,5,79,84,10,1.0,1.0,0
run-2020-2-28-16-22-43.973905086,AGENT#a26c5e74-5a46-11ea-95b1-975c87ac9d20,4,80,84,10,1.0,1.0,0
run-2020-2-28-16-22-43.973905086,AGENT#a38d49ee-5a46-11ea-bb65-abe3668a0648,1,83,84,10,1.0,1.0,0
run-2020-2-28-16-22-43.973905086,AGENT#a38d502e-5a46-11ea-86e2-0b04a4daa09a,2,83,85,10,1.0,1.0,0
run-2020-2-28-16-22-43.973905086,AGENT#9965be42-5a46-11ea-82b5-03d646d2dc06,37,49,86,10,1.0,1.0,0
run-2020-2-28-16-22-43.973905086,AGENT#972f42ba-5a46-11ea-b5fa-ebdb8ace1c84,45,42,87,10,1.0,1.0,0
run-2020-2-28-16-22-43.973905086,AGENT#972f4f3a-5a46-11ea-900f-0f9bcb9db37d,45,42,87,10,1.0,1.0,0
run-2020-2-28-16-22-43.973905086,AGENT#9e14111e-5a46-11ea-9fb5-870ad5490861,20,67,87,10,1.0,1.0,0
run-2020-2-28-16-22-43.973905086,AGENT#a38d5b46-5a46-11ea-b4e9-83a929615965,4,83,87,10,1.0,1.0,0
run-2020-2-28-16-22-43.973905086,AGENT#a43d7e90-5a46-11ea-8a80-c3276e090fb1,1,86,87,10,1.0,1.0,0
run-2020-2-28-16-22-43.973905086,AGENT#a43d82a0-5a46-11ea-abc2-d737b55dae2c,1,86,87,10,1.0,1.0,0
run-2020-2-28-16-22-43.973905086,AGENT#a43d85ca-5a46-11ea-89c3-b7567d8c5baf,1,86,87,10,1.0,1.0,0
run-2020-2-28-16-22-43.973905086,AGENT#a43d894e-5a46-11ea-9d10-4be3746b196e,2,86,88,10,1.0,1.0,0
run-2020-2-28-16-22-43.973905086,AGENT#a43d8c78-5a46-11ea-b055-6f8f453b83f2,2,86,88,10,1.0,1.0,0
run-2020-2-28-16-22-43.973905086,AGENT#975ebf9a-5a46-11ea-bcf6-fb250c8635fb,45,44,89,10,1.0,1.0,0
run-2020-2-28-16-22-43.973905086,AGENT#979e6b22-5a46-11ea-9ce3-abf99aa1daa7,44,45,89,10,1.0,1.0,0
run-2020-2-28-16-22-43.973905086,AGENT#9d9217ae-5a46-11ea-b21a-0738a99e62cf,26,63,89,10,1.0,1.0,0
run-2020-2-28-16-22-43.973905086,AGENT#a40d772c-5a46-11ea-aec0-6f10080a31fb,4,85,89,10,1.0,1.0,0
run-2020-2-28-16-22-43.973905086,AGENT#a40d7a2e-5a46-11ea-81d6-f380e198f1d8,4,85,89,10,1.0,1.0,0
run-2020-2-28-16-22-43.973905086,AGENT#a461cb1a-5a46-11ea-ae63-0ba31eaf4c40,2,87,89,10,1.0,1.0,0
run-2020-2-28-16-22-43.973905086,AGENT#a47ff13a-5a46-11ea-b3d8-737d6c2388f7,1,88,89,10,1.0,1.0,0
run-2020-2-28-16-22-43.973905086,AGENT#a47ff5ae-5a46-11ea-9707-c7c8fda76749,1,88,89,10,1.0,1.0,0
run-2020-2-28-16-22-43.973905086,AGENT#979e732e-5a46-11ea-a4c3-7bf2cb1fbac3,45,45,90,10,1.0,1.0,0
run-2020-2-28-16-22-43.973905086,AGENT#a40d8348-5a46-11ea-a1fe-ef7c5c7a3441,5,85,90,10,1.0,1.0,0
run-2020-2-28-16-22-43.973905086,AGENT#a461c688-5a46-11ea-8ebe-53c8dac9f5f9,3,87,90,10,1.0,1.0,0
run-2020-2-28-16-22-43.973905086,AGENT#a49bb500-5a46-11ea-9190-83a78dd9c8d9,1,89,90,10,1.0,1.0,0
run-2020-2-28-16-22-43.973905086,AGENT#a49bbf6e-5a46-11ea-8e59-bb6b518b6723,1,89,90,10,1.0,1.0,0
run-2020-2-28-16-22-43.973905086,AGENT#981edc3a-5a46-11ea-ad32-d3f71f082db9,45,46,91,10,1.0,1.0,0
run-2020-2-28-16-22-43.973905086,AGENT#a49bbbb8-5a46-11ea-8aee-b7d1f56b8f16,2,89,91,10,1.0,1.0,0
run-2020-2-28-16-22-43.973905086,AGENT#a5359878-5a46-11ea-92a5-530be309a341,1,90,91,10,1.0,1.0,0
run-2020-2-28-16-22-43.973905086,AGENT#9d541918-5a46-11ea-86e2-672276b203e8,30,62,92,10,1.0,1.0,0
run-2020-2-28-16-22-43.973905086,AGENT#a47fe5be-5a46-11ea-a59a-7b9bc95a35dd,4,88,92,10,1.0,1.0,0
run-2020-2-28-16-22-43.973905086,AGENT#a49bb122-5a46-11ea-be7d-07f7e1f7cbd1,3,89,92,10,1.0,1.0,0
run-2020-2-28-16-22-43.973905086,AGENT#a5359602-5a46-11ea-8233-dbf0360eeb7f,2,90,92,10,1.0,1.0,0
run-2020-2-28-16-22-43.973905086,AGENT#a5359fa8-5a46-11ea-889f-2ff04672d5fc,2,90,92,10,1.0,1.0,0
run-2020-2-28-16-22-43.973905086,AGENT#a5c3b3a6-5a46-11ea-b6a0-d77ec90fe158,1,91,92,10,1.0,1.0,0
run-2020-2-28-16-22-43.973905086,AGENT#a09e82a2-5a46-11ea-9c9d-7b91bbf3fb64,19,74,93,10,1.0,1.0,0
run-2020-2-28-16-22-43.973905086,AGENT#a5c3b0ae-5a46-11ea-b661-23b23ad5004d,2,91,93,10,1.0,1.0,0
run-2020-2-28-16-22-43.973905086,AGENT#a5c3b61c-5a46-11ea-bc9d-eba3564f8b56,2,91,93,10,1.0,1.0,0
run-2020-2-28-16-22-43.973905086,AGENT#9965c126-5a46-11ea-b7fe-dbe52eaef8fb,45,49,94,10,1.0,1.0,0
run-2020-2-28-16-22-43.973905086,AGENT#9fd5d3e8-5a46-11ea-99d8-a7e7f01bac19,23,71,94,10,1.0,1.0,0
run-2020-2-28-16-22-43.973905086,AGENT#a49bb852-5a46-11ea-bdf6-67f7899b271d,5,89,94,10,1.0,1.0,0
run-2020-2-28-16-22-43.973905086,AGENT#a6334d7e-5a46-11ea-90e0-c7e9f540a855,2,92,94,10,1.0,1.0,0
run-2020-2-28-16-22-43.973905086,AGENT#a63350f8-5a46-11ea-b2eb-2f849f4a91e0,2,92,94,10,1.0,1.0,0
run-2020-2-28-16-22-43.973905086,AGENT#a63353fa-5a46-11ea-b147-c77a74a16793,2,92,94,10,1.0,1.0,0
run-2020-2-28-16-22-43.973905086,AGENT#a633571a-5a46-11ea-8b54-3b3963da2200,2,92,94,10,1.0,1.0,0
run-2020-2-28-16-22-43.973905086,AGENT#9902aa96-5a46-11ea-9c63-ef962b87d402,47,48,95,10,1.0,1.0,0
run-2020-2-28-16-22-43.973905086,AGENT#a6f268f8-5a46-11ea-a0a1-bbba52105522,2,94,96,10,1.0,1.0,0
run-2020-2-28-16-22-43.973905086,AGENT#a73c0e4a-5a46-11ea-8101-1fdb39b0e825,1,95,96,10,1.0,1.0,0
run-2020-2-28-16-22-43.973905086,AGENT#975ec31e-5a46-11ea-a5ff-1b2faeab7a5d,54,44,98,10,1.0,1.0,0
run-2020-2-28-16-22-43.973905086,AGENT#9a6ad46c-5a46-11ea-8c3f-6f3b4aecfbb1,45,53,98,10,1.0,1.0,0
run-2020-2-28-16-22-43.973905086,AGENT#a6f2652e-5a46-11ea-9848-d384335e8f4e,4,94,98,10,1.0,1.0,0
run-2020-2-28-16-22-43.973905086,AGENT#a73c05a8-5a46-11ea-a14e-7387109a6c0d,3,95,98,10,1.0,1.0,0
run-2020-2-28-16-22-43.973905086,AGENT#a780cc2e-5a46-11ea-bee3-2b86092e626c,2,96,98,10,1.0,1.0,0
run-2020-2-28-16-22-43.973905086,AGENT#a7b2a55a-5a46-11ea-9744-53ee5c1b7c70,1,97,98,10,1.0,1.0,0
run-2020-2-28-16-22-43.973905086,AGENT#9a6adc5a-5a46-11ea-95bb-47d8b205b808,46,53,99,10,1.0,1.0,0
run-2020-2-28-16-22-43.973905086,AGENT#9a8d4c0e-5a46-11ea-a605-7f1f0c1bfe57,45,54,99,10,1.0,1.0,0
run-2020-2-28-16-22-43.973905086,AGENT#a780c526-5a46-11ea-9c50-135a2cb28e89,3,96,99,10,1.0,1.0,0
