RunID,Tick,AllAgents,Active,Inactive
run-2020-2-28-15-3-11.151659965,0,14,11,3
run-2020-2-28-15-3-11.151659965,1,15,8,7
run-2020-2-28-15-3-11.151659965,2,17,10,7
run-2020-2-28-15-3-11.151659965,3,21,13,8
run-2020-2-28-15-3-11.151659965,4,25,15,10
run-2020-2-28-15-3-11.151659965,5,28,18,10
run-2020-2-28-15-3-11.151659965,6,30,18,12
run-2020-2-28-15-3-11.151659965,7,36,20,16
run-2020-2-28-15-3-11.151659965,8,40,24,16
run-2020-2-28-15-3-11.151659965,9,45,26,19
run-2020-2-28-15-3-11.151659965,10,50,29,21
run-2020-2-28-15-3-11.151659965,11,53,29,24
run-2020-2-28-15-3-11.151659965,12,58,29,29
run-2020-2-28-15-3-11.151659965,13,66,36,30
run-2020-2-28-15-3-11.151659965,14,71,36,35
run-2020-2-28-15-3-11.151659965,15,72,34,38
run-2020-2-28-15-3-11.151659965,16,77,36,41
run-2020-2-28-15-3-11.151659965,17,84,43,41
run-2020-2-28-15-3-11.151659965,18,88,40,48
run-2020-2-28-15-3-11.151659965,19,91,42,49
run-2020-2-28-15-3-11.151659965,20,95,40,55
run-2020-2-28-15-3-11.151659965,21,99,42,57
run-2020-2-28-15-3-11.151659965,22,105,47,58
run-2020-2-28-15-3-11.151659965,23,110,49,61
run-2020-2-28-15-3-11.151659965,24,114,49,65
run-2020-2-28-15-3-11.151659965,25,119,54,65
run-2020-2-28-15-3-11.151659965,26,127,57,70
run-2020-2-28-15-3-11.151659965,27,130,57,73
run-2020-2-28-15-3-11.151659965,28,131,56,75
run-2020-2-28-15-3-11.151659965,29,137,57,80
run-2020-2-28-15-3-11.151659965,30,142,60,82
run-2020-2-28-15-3-11.151659965,31,144,60,84
run-2020-2-28-15-3-11.151659965,32,150,63,87
run-2020-2-28-15-3-11.151659965,33,153,63,90
run-2020-2-28-15-3-11.151659965,34,162,72,90
run-2020-2-28-15-3-11.151659965,35,165,70,95
run-2020-2-28-15-3-11.151659965,36,168,66,102
run-2020-2-28-15-3-11.151659965,37,172,65,107
run-2020-2-28-15-3-11.151659965,38,176,67,109
run-2020-2-28-15-3-11.151659965,39,178,68,110
run-2020-2-28-15-3-11.151659965,40,179,63,116
run-2020-2-28-15-3-11.151659965,41,183,61,122
run-2020-2-28-15-3-11.151659965,42,189,66,123
run-2020-2-28-15-3-11.151659965,43,191,63,128
run-2020-2-28-15-3-11.151659965,44,195,66,129
run-2020-2-28-15-3-11.151659965,45,203,68,135
run-2020-2-28-15-3-11.151659965,46,206,66,140
run-2020-2-28-15-3-11.151659965,47,208,63,145
run-2020-2-28-15-3-11.151659965,48,210,63,147
run-2020-2-28-15-3-11.151659965,49,213,61,152
run-2020-2-28-15-3-11.151659965,50,215,61,154
run-2020-2-28-15-3-11.151659965,51,218,63,155
run-2020-2-28-15-3-11.151659965,52,226,67,159
run-2020-2-28-15-3-11.151659965,53,229,67,162
run-2020-2-28-15-3-11.151659965,54,233,64,169
run-2020-2-28-15-3-11.151659965,55,239,68,171
run-2020-2-28-15-3-11.151659965,56,242,64,178
run-2020-2-28-15-3-11.151659965,57,244,61,183
run-2020-2-28-15-3-11.151659965,58,249,57,192
run-2020-2-28-15-3-11.151659965,59,252,56,196
run-2020-2-28-15-3-11.151659965,60,253,57,196
run-2020-2-28-15-3-11.151659965,61,260,57,203
run-2020-2-28-15-3-11.151659965,62,262,52,210
run-2020-2-28-15-3-11.151659965,63,266,52,214
run-2020-2-28-15-3-11.151659965,64,270,54,216
run-2020-2-28-15-3-11.151659965,65,271,52,219
run-2020-2-28-15-3-11.151659965,66,271,48,223
run-2020-2-28-15-3-11.151659965,67,275,48,227
run-2020-2-28-15-3-11.151659965,68,277,43,234
run-2020-2-28-15-3-11.151659965,69,279,38,241
run-2020-2-28-15-3-11.151659965,70,285,43,242
run-2020-2-28-15-3-11.151659965,71,290,38,252
run-2020-2-28-15-3-11.151659965,72,296,39,257
run-2020-2-28-15-3-11.151659965,73,300,39,261
run-2020-2-28-15-3-11.151659965,74,301,38,263
run-2020-2-28-15-3-11.151659965,75,306,36,270
run-2020-2-28-15-3-11.151659965,76,310,39,271
run-2020-2-28-15-3-11.151659965,77,315,41,274
run-2020-2-28-15-3-11.151659965,78,316,35,281
run-2020-2-28-15-3-11.151659965,79,318,35,283
run-2020-2-28-15-3-11.151659965,80,322,33,289
run-2020-2-28-15-3-11.151659965,81,328,38,290
run-2020-2-28-15-3-11.151659965,82,333,41,292
run-2020-2-28-15-3-11.151659965,83,337,42,295
