RunID,Agent,Age,Created,Inactive,Resources,Reputation,Ability,Que
run-2020-2-18-13-46-50.775430917,AGENT#1d8a3ff8-5255-11ea-b839-5f4c190235a8,0,0,0,10,1.0,1.0,0
run-2020-2-18-13-46-50.775430917,AGENT#1d8a31a2-5255-11ea-8194-6bf8a8ebffa5,1,0,1,10,1.0,1.0,0
run-2020-2-18-13-46-50.775430917,AGENT#1d8a829c-5255-11ea-ac60-a3e327f4e2ef,1,0,1,10,1.0,1.0,0
run-2020-2-18-13-46-50.775430917,AGENT#1d8a8594-5255-11ea-91f2-c77b93ae33d5,1,0,1,10,1.0,1.0,0
run-2020-2-18-13-46-50.775430917,AGENT#1d8a8b84-5255-11ea-be39-7faed56b596e,1,0,1,10,1.0,1.0,0
run-2020-2-18-13-46-50.775430917,AGENT#1d8a2eb4-5255-11ea-bd0d-e3db752289aa,2,0,2,10,1.0,1.0,0
run-2020-2-18-13-46-50.775430917,AGENT#1d8a9430-5255-11ea-86fe-ebf2d3e4fb57,2,0,2,10,1.0,1.0,0
run-2020-2-18-13-46-50.775430917,AGENT#1d8a2824-5255-11ea-bc6a-3392231c2355,3,0,3,10,1.0,1.0,0
run-2020-2-18-13-46-50.775430917,AGENT#1d8a3486-5255-11ea-b09f-ff9a0f015148,3,0,3,10,1.0,1.0,0
run-2020-2-18-13-46-50.775430917,AGENT#1d8a42d2-5255-11ea-ae6b-3bd18a0d36bf,3,0,3,10,1.0,1.0,0
run-2020-2-18-13-46-50.775430917,AGENT#1d8b1cb6-5255-11ea-ba44-1b03d5109ecd,2,1,3,10,1.0,1.0,0
run-2020-2-18-13-46-50.775430917,AGENT#1d8b84a8-5255-11ea-8339-3fea298f1d9f,1,2,3,10,1.0,1.0,0
run-2020-2-18-13-46-50.775430917,AGENT#1d8b1fd6-5255-11ea-b66d-a7b33d74b361,3,1,4,10,1.0,1.0,0
run-2020-2-18-13-46-50.775430917,AGENT#1d8b22f6-5255-11ea-9292-87098e0c20cb,3,1,4,10,1.0,1.0,0
run-2020-2-18-13-46-50.775430917,AGENT#1d8b7ac6-5255-11ea-b11b-bff8efed9621,3,2,5,10,1.0,1.0,0
run-2020-2-18-13-46-50.775430917,AGENT#1d8b1950-5255-11ea-b354-ab0318a55e63,5,1,6,10,1.0,1.0,0
run-2020-2-18-13-46-50.775430917,AGENT#1d8be998-5255-11ea-8ea2-ef76f46aeec5,3,3,6,10,1.0,1.0,0
run-2020-2-18-13-46-50.775430917,AGENT#1d8c220a-5255-11ea-9561-3fae5540a57f,2,4,6,10,1.0,1.0,0
run-2020-2-18-13-46-50.775430917,AGENT#1d8c252a-5255-11ea-be82-c796fc82d348,3,4,7,10,1.0,1.0,0
run-2020-2-18-13-46-50.775430917,AGENT#1d8a9156-5255-11ea-a565-0f8e8acd8b3e,8,0,8,10,1.0,1.0,0
run-2020-2-18-13-46-50.775430917,AGENT#1d8cb3fa-5255-11ea-821e-3b41f8db7e92,2,7,9,10,1.0,1.0,0
run-2020-2-18-13-46-50.775430917,AGENT#1d8cb74c-5255-11ea-8b4b-afcb88e3a0d6,2,7,9,10,1.0,1.0,0
run-2020-2-18-13-46-50.775430917,AGENT#1d8cf0d6-5255-11ea-9911-779830ed6ecc,1,8,9,10,1.0,1.0,0
run-2020-2-18-13-46-50.775430917,AGENT#1d8cf3ce-5255-11ea-acb1-13cca589607e,1,8,9,10,1.0,1.0,0
run-2020-2-18-13-46-50.775430917,AGENT#1d8cedc0-5255-11ea-8575-279214065770,2,8,10,10,1.0,1.0,0
run-2020-2-18-13-46-50.775430917,AGENT#1d8cf6a8-5255-11ea-8759-17988dcb3496,2,8,10,10,1.0,1.0,0
run-2020-2-18-13-46-50.775430917,AGENT#1d8d6bba-5255-11ea-9cc3-9798fda8c340,1,10,11,10,1.0,1.0,0
run-2020-2-18-13-46-50.775430917,AGENT#1d8d7178-5255-11ea-bca8-2397cc2cda16,1,10,11,10,1.0,1.0,0
run-2020-2-18-13-46-50.775430917,AGENT#1d8d3582-5255-11ea-9456-cfa66cfd8a44,3,9,12,10,1.0,1.0,0
run-2020-2-18-13-46-50.775430917,AGENT#1d8da706-5255-11ea-bd5a-37c1fd151241,1,11,12,10,1.0,1.0,0
run-2020-2-18-13-46-50.775430917,AGENT#1d8daa26-5255-11ea-97db-afa77b7fc600,1,11,12,10,1.0,1.0,0
run-2020-2-18-13-46-50.775430917,AGENT#1d8dad3c-5255-11ea-a9b8-5f2e4e129481,1,11,12,10,1.0,1.0,0
run-2020-2-18-13-46-50.775430917,AGENT#1d8d6e9e-5255-11ea-8510-a3d0a4f66673,3,10,13,10,1.0,1.0,0
run-2020-2-18-13-46-50.775430917,AGENT#1d8dfe54-5255-11ea-89a0-bfa8505a7321,1,12,13,10,1.0,1.0,0
run-2020-2-18-13-46-50.775430917,AGENT#1d8a3d28-5255-11ea-9361-efa53bbe8e21,14,0,14,10,1.0,1.0,0
run-2020-2-18-13-46-50.775430917,AGENT#1d8dfb70-5255-11ea-b5e9-eb19e7a6e817,2,12,14,10,1.0,1.0,0
run-2020-2-18-13-46-50.775430917,AGENT#1d8e03fe-5255-11ea-9179-f79c3920b933,2,12,14,10,1.0,1.0,0
run-2020-2-18-13-46-50.775430917,AGENT#1d8a3760-5255-11ea-bb24-0be0f60c801b,15,0,15,10,1.0,1.0,0
run-2020-2-18-13-46-50.775430917,AGENT#1d8df83c-5255-11ea-9e55-ebb5c36237d8,3,12,15,10,1.0,1.0,0
run-2020-2-18-13-46-50.775430917,AGENT#1d8db016-5255-11ea-9849-ef4b4bc2b663,5,11,16,10,1.0,1.0,0
run-2020-2-18-13-46-50.775430917,AGENT#1d8e0124-5255-11ea-ad53-87ca3428040c,4,12,16,10,1.0,1.0,0
run-2020-2-18-13-46-50.775430917,AGENT#1d8e4620-5255-11ea-976e-031a2a3147b8,3,13,16,10,1.0,1.0,0
run-2020-2-18-13-46-50.775430917,AGENT#1d8e9b5c-5255-11ea-949c-07e400be0e78,2,14,16,10,1.0,1.0,0
run-2020-2-18-13-46-50.775430917,AGENT#1d8e9080-5255-11ea-bd87-67a4e1aab873,3,14,17,10,1.0,1.0,0
run-2020-2-18-13-46-50.775430917,AGENT#1d8e9454-5255-11ea-ab81-e7c763709783,3,14,17,10,1.0,1.0,0
run-2020-2-18-13-46-50.775430917,AGENT#1d8ef73c-5255-11ea-b444-876937157ac9,2,15,17,10,1.0,1.0,0
run-2020-2-18-13-46-50.775430917,AGENT#1d8efa84-5255-11ea-9b2f-eb52f464848a,2,15,17,10,1.0,1.0,0
run-2020-2-18-13-46-50.775430917,AGENT#1d8f8a58-5255-11ea-a2d7-3bad75bc050a,1,17,18,10,1.0,1.0,0
run-2020-2-18-13-46-50.775430917,AGENT#1d8f496c-5255-11ea-8382-4be775743037,3,16,19,10,1.0,1.0,0
run-2020-2-18-13-46-50.775430917,AGENT#1d8f8756-5255-11ea-b480-a384d56cffa9,2,17,19,10,1.0,1.0,0
run-2020-2-18-13-46-50.775430917,AGENT#1d8f982c-5255-11ea-b9a3-7f54373bc90f,2,17,19,10,1.0,1.0,0
run-2020-2-18-13-46-50.775430917,AGENT#1d8f8d1e-5255-11ea-bae8-f3f31fe22e5c,3,17,20,10,1.0,1.0,0
run-2020-2-18-13-46-50.775430917,AGENT#1d9033fe-5255-11ea-bfff-83c69f77ede9,1,19,20,10,1.0,1.0,0
run-2020-2-18-13-46-50.775430917,AGENT#1d8e06e2-5255-11ea-9a68-a7954a9ca4fd,9,12,21,10,1.0,1.0,0
run-2020-2-18-13-46-50.775430917,AGENT#1d8f9566-5255-11ea-b258-0bcbb4b0a69b,4,17,21,10,1.0,1.0,0
run-2020-2-18-13-46-50.775430917,AGENT#1d90887c-5255-11ea-9263-e306aad3c6a8,1,20,21,10,1.0,1.0,0
run-2020-2-18-13-46-50.775430917,AGENT#1d908566-5255-11ea-90dd-cfb6cd0d57e6,2,20,22,10,1.0,1.0,0
run-2020-2-18-13-46-50.775430917,AGENT#1d90db7e-5255-11ea-abc3-83dc2380cdcf,1,21,22,10,1.0,1.0,0
run-2020-2-18-13-46-50.775430917,AGENT#1d90e15a-5255-11ea-a0b4-4b487d4ec712,1,21,22,10,1.0,1.0,0
run-2020-2-18-13-46-50.775430917,AGENT#1d8efd72-5255-11ea-94d7-6b4377d5972c,8,15,23,10,1.0,1.0,0
run-2020-2-18-13-46-50.775430917,AGENT#1d903138-5255-11ea-b260-67bd3df63d98,4,19,23,10,1.0,1.0,0
run-2020-2-18-13-46-50.775430917,AGENT#1d9136aa-5255-11ea-98f1-535dcfdd7b01,1,22,23,10,1.0,1.0,0
run-2020-2-18-13-46-50.775430917,AGENT#1d902bac-5255-11ea-a17e-8f7be27f7a7d,5,19,24,10,1.0,1.0,0
run-2020-2-18-13-46-50.775430917,AGENT#1d9130a6-5255-11ea-9a9a-6fb8a784b47e,2,22,24,10,1.0,1.0,0
run-2020-2-18-13-46-50.775430917,AGENT#1d91ea78-5255-11ea-b4b1-ef9415475c83,2,24,26,10,1.0,1.0,0
run-2020-2-18-13-46-50.775430917,AGENT#1d913970-5255-11ea-9c16-4b2d907e9e2c,5,22,27,10,1.0,1.0,0
run-2020-2-18-13-46-50.775430917,AGENT#1d913c68-5255-11ea-8c49-73d233821393,5,22,27,10,1.0,1.0,0
run-2020-2-18-13-46-50.775430917,AGENT#1d91929e-5255-11ea-a6eb-d3678eee951c,4,23,27,10,1.0,1.0,0
run-2020-2-18-13-46-50.775430917,AGENT#1d923c4e-5255-11ea-89f5-9349d63446db,2,25,27,10,1.0,1.0,0
run-2020-2-18-13-46-50.775430917,AGENT#1d92a1f2-5255-11ea-93d1-fb0b1296bfd1,1,26,27,10,1.0,1.0,0
run-2020-2-18-13-46-50.775430917,AGENT#1d92a4a4-5255-11ea-8d99-ffdfbf7ae42b,1,26,27,10,1.0,1.0,0
run-2020-2-18-13-46-50.775430917,AGENT#1d929edc-5255-11ea-a2c4-d7d7f2a24d81,2,26,28,10,1.0,1.0,0
run-2020-2-18-13-46-50.775430917,AGENT#1d923956-5255-11ea-8934-87af5a19cf92,4,25,29,10,1.0,1.0,0
run-2020-2-18-13-46-50.775430917,AGENT#1d92a74c-5255-11ea-aac3-e726353f69bc,4,26,30,10,1.0,1.0,0
run-2020-2-18-13-46-50.775430917,AGENT#1d93698e-5255-11ea-8479-67f407c77a46,2,28,30,10,1.0,1.0,0
run-2020-2-18-13-46-50.775430917,AGENT#1d93c4ba-5255-11ea-975c-1f869c845072,1,29,30,10,1.0,1.0,0
run-2020-2-18-13-46-50.775430917,AGENT#1d930ec6-5255-11ea-97f6-eb4af3544614,4,27,31,10,1.0,1.0,0
run-2020-2-18-13-46-50.775430917,AGENT#1d936d9e-5255-11ea-b3b3-4b1395b40985,3,28,31,10,1.0,1.0,0
run-2020-2-18-13-46-50.775430917,AGENT#1d942522-5255-11ea-92b8-1b51cceb44e2,1,30,31,10,1.0,1.0,0
run-2020-2-18-13-46-50.775430917,AGENT#1d941fd2-5255-11ea-897c-675f309b9664,2,30,32,10,1.0,1.0,0
run-2020-2-18-13-46-50.775430917,AGENT#1d948206-5255-11ea-a561-7fda9f30baae,1,31,32,10,1.0,1.0,0
run-2020-2-18-13-46-50.775430917,AGENT#1d948512-5255-11ea-a1a0-1794c3a26e83,1,31,32,10,1.0,1.0,0
run-2020-2-18-13-46-50.775430917,AGENT#1d948cf6-5255-11ea-9b05-bb8361ccc520,1,31,32,10,1.0,1.0,0
run-2020-2-18-13-46-50.775430917,AGENT#1d941d0c-5255-11ea-b0f9-97d644319a9c,3,30,33,10,1.0,1.0,0
run-2020-2-18-13-46-50.775430917,AGENT#1d941744-5255-11ea-a2fc-9f88c83b1b71,4,30,34,10,1.0,1.0,0
run-2020-2-18-13-46-50.775430917,AGENT#1d941a5a-5255-11ea-a929-2f152b1c5a6f,5,30,35,10,1.0,1.0,0
run-2020-2-18-13-46-50.775430917,AGENT#1d948a6c-5255-11ea-86da-4b95e7fa53c4,4,31,35,10,1.0,1.0,0
run-2020-2-18-13-46-50.775430917,AGENT#1d95442a-5255-11ea-9994-1feed708775e,2,33,35,10,1.0,1.0,0
run-2020-2-18-13-46-50.775430917,AGENT#1d95aaaa-5255-11ea-a89f-97d1600eff8f,1,34,35,10,1.0,1.0,0
run-2020-2-18-13-46-50.775430917,AGENT#1d9549d4-5255-11ea-bb76-0767d144bd57,3,33,36,10,1.0,1.0,0
run-2020-2-18-13-46-50.775430917,AGENT#1d95ad98-5255-11ea-b4ef-bffb95186926,3,34,37,10,1.0,1.0,0
run-2020-2-18-13-46-50.775430917,AGENT#1d968524-5255-11ea-ae9e-bb6b00583f9e,1,36,37,10,1.0,1.0,0
run-2020-2-18-13-46-50.775430917,AGENT#1d95a816-5255-11ea-914d-2345ccbe6e8d,4,34,38,10,1.0,1.0,0
run-2020-2-18-13-46-50.775430917,AGENT#1d9613a0-5255-11ea-b51f-8792e9a198b8,3,35,38,10,1.0,1.0,0
run-2020-2-18-13-46-50.775430917,AGENT#1d968286-5255-11ea-96d4-9bd85c4c65d1,2,36,38,10,1.0,1.0,0
run-2020-2-18-13-46-50.775430917,AGENT#1d96ec76-5255-11ea-aa0b-0ffbbdb819b8,1,37,38,10,1.0,1.0,0
run-2020-2-18-13-46-50.775430917,AGENT#1d975346-5255-11ea-a3c6-bb28e3b3ef0d,1,38,39,10,1.0,1.0,0
run-2020-2-18-13-46-50.775430917,AGENT#1d8b7fb2-5255-11ea-9337-cbdeb27fbddd,38,2,40,10,1.0,1.0,0
run-2020-2-18-13-46-50.775430917,AGENT#1d8e9756-5255-11ea-b0f8-d3ca30b1fa19,26,14,40,10,1.0,1.0,0
run-2020-2-18-13-46-50.775430917,AGENT#1d967534-5255-11ea-a495-974a9f7bbb84,4,36,40,10,1.0,1.0,0
run-2020-2-18-13-46-50.775430917,AGENT#1d96780e-5255-11ea-ad51-8b9eefa8bd0a,4,36,40,10,1.0,1.0,0
run-2020-2-18-13-46-50.775430917,AGENT#1d968006-5255-11ea-bd2d-0b54d817da31,4,36,40,10,1.0,1.0,0
run-2020-2-18-13-46-50.775430917,AGENT#1d97c2f4-5255-11ea-95c5-939a6a0a24aa,1,39,40,10,1.0,1.0,0
run-2020-2-18-13-46-50.775430917,AGENT#1d967d7c-5255-11ea-bc97-cfdce1956e5d,5,36,41,10,1.0,1.0,0
run-2020-2-18-13-46-50.775430917,AGENT#1d975080-5255-11ea-885f-93b06988001e,3,38,41,10,1.0,1.0,0
run-2020-2-18-13-46-50.775430917,AGENT#1d97c5a6-5255-11ea-9671-af63e78432c5,2,39,41,10,1.0,1.0,0
run-2020-2-18-13-46-50.775430917,AGENT#1d975d46-5255-11ea-a058-577cc4b5f318,4,38,42,10,1.0,1.0,0
run-2020-2-18-13-46-50.775430917,AGENT#1d9842ba-5255-11ea-b83a-5f8186274d7f,2,40,42,10,1.0,1.0,0
run-2020-2-18-13-46-50.775430917,AGENT#1d975846-5255-11ea-91fc-77d62af8a0f5,5,38,43,10,1.0,1.0,0
run-2020-2-18-13-46-50.775430917,AGENT#1d97cac4-5255-11ea-b0d0-ff06c1d38b6a,4,39,43,10,1.0,1.0,0
run-2020-2-18-13-46-50.775430917,AGENT#1d9845a8-5255-11ea-87a3-4bfa6a0baec5,3,40,43,10,1.0,1.0,0
run-2020-2-18-13-46-50.775430917,AGENT#1d98b646-5255-11ea-b2ef-6790eca22236,2,41,43,10,1.0,1.0,0
run-2020-2-18-13-46-50.775430917,AGENT#1d98be48-5255-11ea-a6e4-332f944a5207,2,41,43,10,1.0,1.0,0
run-2020-2-18-13-46-50.775430917,AGENT#1d98c0b4-5255-11ea-968f-6f1a746c59b2,2,41,43,10,1.0,1.0,0
run-2020-2-18-13-46-50.775430917,AGENT#1d98c334-5255-11ea-90e5-334ed25442ca,2,41,43,10,1.0,1.0,0
run-2020-2-18-13-46-50.775430917,AGENT#1d94ef66-5255-11ea-b266-9be01016560d,12,32,44,10,1.0,1.0,0
run-2020-2-18-13-46-50.775430917,AGENT#1d99b3b6-5255-11ea-b827-971f2daff2fd,1,43,44,10,1.0,1.0,0
run-2020-2-18-13-46-50.775430917,AGENT#1d99b744-5255-11ea-9476-570dff6df269,1,43,44,10,1.0,1.0,0
run-2020-2-18-13-46-50.775430917,AGENT#1d8a2b9e-5255-11ea-b054-e3c1395dc26d,45,0,45,10,1.0,1.0,0
run-2020-2-18-13-46-50.775430917,AGENT#1d8a3a58-5255-11ea-ada9-df552e1a2afc,45,0,45,10,1.0,1.0,0
run-2020-2-18-13-46-50.775430917,AGENT#1d8a888c-5255-11ea-92bb-6f3b96be5559,45,0,45,10,1.0,1.0,0
run-2020-2-18-13-46-50.775430917,AGENT#1d8a8e72-5255-11ea-811b-b7fd1401af30,45,0,45,10,1.0,1.0,0
run-2020-2-18-13-46-50.775430917,AGENT#1d99349a-5255-11ea-81a8-3b4b6c61fc5a,3,42,45,10,1.0,1.0,0
run-2020-2-18-13-46-50.775430917,AGENT#1d99adf8-5255-11ea-9666-a36a0865b736,2,43,45,10,1.0,1.0,0
run-2020-2-18-13-46-50.775430917,AGENT#1d9a24e0-5255-11ea-9c92-0f0c67df02e4,1,44,45,10,1.0,1.0,0
run-2020-2-18-13-46-50.775430917,AGENT#1d9a2c56-5255-11ea-a435-dfe5011780cc,1,44,45,10,1.0,1.0,0
run-2020-2-18-13-46-50.775430917,AGENT#1d9a2eae-5255-11ea-9db7-af2273b2d4a8,1,44,45,10,1.0,1.0,0
run-2020-2-18-13-46-50.775430917,AGENT#1d99a7ea-5255-11ea-b469-f3a2c3298099,3,43,46,10,1.0,1.0,0
run-2020-2-18-13-46-50.775430917,AGENT#1d9a277e-5255-11ea-8d22-af802b0107a2,2,44,46,10,1.0,1.0,0
run-2020-2-18-13-46-50.775430917,AGENT#1d992f9a-5255-11ea-a005-ef986caa82ba,5,42,47,10,1.0,1.0,0
run-2020-2-18-13-46-50.775430917,AGENT#1d99aaa6-5255-11ea-8cb5-636a9a81f5b9,4,43,47,10,1.0,1.0,0
run-2020-2-18-13-46-50.775430917,AGENT#1d9aaf5a-5255-11ea-aadb-132b005a7849,2,45,47,10,1.0,1.0,0
run-2020-2-18-13-46-50.775430917,AGENT#1d8be646-5255-11ea-a957-6bbd7421db22,45,3,48,10,1.0,1.0,0
run-2020-2-18-13-46-50.775430917,AGENT#1d9aa7d0-5255-11ea-9a9c-b36a4cace5ae,3,45,48,10,1.0,1.0,0
run-2020-2-18-13-46-50.775430917,AGENT#1d9aaa8c-5255-11ea-8f6c-6f55e3c73000,3,45,48,10,1.0,1.0,0
run-2020-2-18-13-46-50.775430917,AGENT#1d9aacee-5255-11ea-bdff-33e8a58acee4,3,45,48,10,1.0,1.0,0
run-2020-2-18-13-46-50.775430917,AGENT#1d9b8970-5255-11ea-9ec0-2f776d387cc3,1,47,48,10,1.0,1.0,0
run-2020-2-18-13-46-50.775430917,AGENT#1d8c8556-5255-11ea-944d-f79e090d7497,43,6,49,10,1.0,1.0,0
run-2020-2-18-13-46-50.775430917,AGENT#1d9b18aa-5255-11ea-8ffa-0f9045be0f14,3,46,49,10,1.0,1.0,0
run-2020-2-18-13-46-50.775430917,AGENT#1d9b81dc-5255-11ea-852b-97430aa3e6e9,2,47,49,10,1.0,1.0,0
run-2020-2-18-13-46-50.775430917,AGENT#1d9c2510-5255-11ea-ab30-db9a85a7d015,1,48,49,10,1.0,1.0,0
run-2020-2-18-13-46-50.775430917,AGENT#1d9cdfbe-5255-11ea-8f42-239dfc733f1e,1,49,50,10,1.0,1.0,0
run-2020-2-18-13-46-50.775430917,AGENT#1d8b899e-5255-11ea-b3a0-57e930ff16e6,49,2,51,10,1.0,1.0,0
run-2020-2-18-13-46-50.775430917,AGENT#1d9d799c-5255-11ea-a295-53d510cfa3f8,1,50,51,10,1.0,1.0,0
run-2020-2-18-13-46-50.775430917,AGENT#1d9d7c1c-5255-11ea-86ef-1bae2ead7946,1,50,51,10,1.0,1.0,0
run-2020-2-18-13-46-50.775430917,AGENT#1d9b8bc8-5255-11ea-b145-2774e0447c5e,5,47,52,10,1.0,1.0,0
run-2020-2-18-13-46-50.775430917,AGENT#1d9c28e4-5255-11ea-a813-b79325850317,4,48,52,10,1.0,1.0,0
run-2020-2-18-13-46-50.775430917,AGENT#1d9cc9d4-5255-11ea-97c6-0bad4426a1e4,3,49,52,10,1.0,1.0,0
run-2020-2-18-13-46-50.775430917,AGENT#1d9cd06e-5255-11ea-8775-4b1d618c5d1d,3,49,52,10,1.0,1.0,0
run-2020-2-18-13-46-50.775430917,AGENT#1d9cd69a-5255-11ea-b79b-63cbf3ffa8d3,3,49,52,10,1.0,1.0,0
run-2020-2-18-13-46-50.775430917,AGENT#1d9c20ec-5255-11ea-8fa1-e3a03736fa24,5,48,53,10,1.0,1.0,0
run-2020-2-18-13-46-50.775430917,AGENT#1d9ccd3a-5255-11ea-8b53-0fb386473b49,4,49,53,10,1.0,1.0,0
run-2020-2-18-13-46-50.775430917,AGENT#1d9cdcc6-5255-11ea-a1c5-0b76de7f823c,4,49,53,10,1.0,1.0,0
run-2020-2-18-13-46-50.775430917,AGENT#1d9e8aa8-5255-11ea-b66d-db30cccaecfb,1,52,53,10,1.0,1.0,0
run-2020-2-18-13-46-50.775430917,AGENT#1d9b84c0-5255-11ea-b466-e34466711c97,7,47,54,10,1.0,1.0,0
run-2020-2-18-13-46-50.775430917,AGENT#1d9cd37a-5255-11ea-8aca-1797a7a2c78e,5,49,54,10,1.0,1.0,0
run-2020-2-18-13-46-50.775430917,AGENT#1d9e0970-5255-11ea-a10e-47810cd889a9,4,51,55,10,1.0,1.0,0
run-2020-2-18-13-46-50.775430917,AGENT#1d9e8800-5255-11ea-84d0-3b06a581208e,3,52,55,10,1.0,1.0,0
run-2020-2-18-13-46-50.775430917,AGENT#1d8cf978-5255-11ea-b1a2-973df4a11ce1,48,8,56,10,1.0,1.0,0
run-2020-2-18-13-46-50.775430917,AGENT#1d8db85e-5255-11ea-a90b-b3b99c36e3a3,45,11,56,10,1.0,1.0,0
run-2020-2-18-13-46-50.775430917,AGENT#1d9f0640-5255-11ea-9ebe-734eb0fb14e3,3,53,56,10,1.0,1.0,0
run-2020-2-18-13-46-50.775430917,AGENT#1d9ffd98-5255-11ea-826d-bfeb6b7354a0,1,55,56,10,1.0,1.0,0
run-2020-2-18-13-46-50.775430917,AGENT#1d8d6886-5255-11ea-a3e9-c7021f15faad,47,10,57,10,1.0,1.0,0
run-2020-2-18-13-46-50.775430917,AGENT#1d8db368-5255-11ea-abce-d766c96b58c7,46,11,57,10,1.0,1.0,0
run-2020-2-18-13-46-50.775430917,AGENT#1da0868c-5255-11ea-864b-935bdb3f5243,1,56,57,10,1.0,1.0,0
run-2020-2-18-13-46-50.775430917,AGENT#1da08916-5255-11ea-8010-178b37b83fbf,2,56,58,10,1.0,1.0,0
run-2020-2-18-13-46-50.775430917,AGENT#1da08e0c-5255-11ea-a6e4-a7d3d9b70ef4,2,56,58,10,1.0,1.0,0
run-2020-2-18-13-46-50.775430917,AGENT#1da11ad4-5255-11ea-ba08-277a79b49286,1,57,58,10,1.0,1.0,0
run-2020-2-18-13-46-50.775430917,AGENT#1d942270-5255-11ea-86ff-c3158b58de1f,29,30,59,10,1.0,1.0,0
run-2020-2-18-13-46-50.775430917,AGENT#1da080a6-5255-11ea-9acc-d76ed44368f6,3,56,59,10,1.0,1.0,0
run-2020-2-18-13-46-50.775430917,AGENT#1da1a63e-5255-11ea-8904-532134af1962,3,58,61,10,1.0,1.0,0
run-2020-2-18-13-46-50.775430917,AGENT#1da1a8c8-5255-11ea-a610-5bed94aa4d7c,3,58,61,10,1.0,1.0,0
run-2020-2-18-13-46-50.775430917,AGENT#1d8f92b4-5255-11ea-9444-4f6d3652ceaf,45,17,62,10,1.0,1.0,0
run-2020-2-18-13-46-50.775430917,AGENT#1da2b52e-5255-11ea-be35-6b9eaf4f0219,2,60,62,10,1.0,1.0,0
run-2020-2-18-13-46-50.775430917,AGENT#1da1a35a-5255-11ea-b622-0bd33a0e3d1d,5,58,63,10,1.0,1.0,0
run-2020-2-18-13-46-50.775430917,AGENT#1da22640-5255-11ea-a791-a7892d973756,4,59,63,10,1.0,1.0,0
run-2020-2-18-13-46-50.775430917,AGENT#1da228fc-5255-11ea-87b0-ffde7bafdaa2,4,59,63,10,1.0,1.0,0
run-2020-2-18-13-46-50.775430917,AGENT#1da2bd62-5255-11ea-96b6-936079d123e4,3,60,63,10,1.0,1.0,0
run-2020-2-18-13-46-50.775430917,AGENT#1d8f8ff8-5255-11ea-8d2f-77400b9d7393,47,17,64,10,1.0,1.0,0
run-2020-2-18-13-46-50.775430917,AGENT#1d902e86-5255-11ea-a3b3-53e6912ddc5e,45,19,64,10,1.0,1.0,0
run-2020-2-18-13-46-50.775430917,AGENT#1d9b8e2a-5255-11ea-bf82-07f3c7289d5c,17,47,64,10,1.0,1.0,0
run-2020-2-18-13-46-50.775430917,AGENT#1da22b90-5255-11ea-8356-9343cea7d2f6,5,59,64,10,1.0,1.0,0
run-2020-2-18-13-46-50.775430917,AGENT#1da2bae2-5255-11ea-b71d-67771e87643c,4,60,64,10,1.0,1.0,0
run-2020-2-18-13-46-50.775430917,AGENT#1da3d8d2-5255-11ea-9930-e3078f375b8e,2,62,64,10,1.0,1.0,0
run-2020-2-18-13-46-50.775430917,AGENT#1da3ddfa-5255-11ea-a76c-97af69a8fd83,2,62,64,10,1.0,1.0,0
run-2020-2-18-13-46-50.775430917,AGENT#1da471fc-5255-11ea-9836-47f5a0396701,1,63,64,10,1.0,1.0,0
run-2020-2-18-13-46-50.775430917,AGENT#1d8fde04-5255-11ea-845b-2b3f90cda17d,47,18,65,10,1.0,1.0,0
run-2020-2-18-13-46-50.775430917,AGENT#1d90260c-5255-11ea-a278-9755d1dc5950,46,19,65,10,1.0,1.0,0
run-2020-2-18-13-46-50.775430917,AGENT#1d908264-5255-11ea-852a-53faaa183421,45,20,65,10,1.0,1.0,0
run-2020-2-18-13-46-50.775430917,AGENT#1da55bee-5255-11ea-a6b2-1b2c6e531fc0,1,64,65,10,1.0,1.0,0
run-2020-2-18-13-46-50.775430917,AGENT#1d9a29ea-5255-11ea-bd9b-cfec73c0c7a5,22,44,66,10,1.0,1.0,0
run-2020-2-18-13-46-50.775430917,AGENT#1da08b8c-5255-11ea-8f16-6b9f0b412983,10,56,66,10,1.0,1.0,0
run-2020-2-18-13-46-50.775430917,AGENT#1da3e066-5255-11ea-a499-4f0dc8e2ce77,4,62,66,10,1.0,1.0,0
run-2020-2-18-13-46-50.775430917,AGENT#1da6083c-5255-11ea-88e5-db280962dd72,1,65,66,10,1.0,1.0,0
run-2020-2-18-13-46-50.775430917,AGENT#1da3dba2-5255-11ea-9ecf-1bb1f7f6345e,5,62,67,10,1.0,1.0,0
run-2020-2-18-13-46-50.775430917,AGENT#1da563a0-5255-11ea-891f-63078fb8538b,3,64,67,10,1.0,1.0,0
run-2020-2-18-13-46-50.775430917,AGENT#1da566ca-5255-11ea-9a6e-f373b89e5713,3,64,67,10,1.0,1.0,0
run-2020-2-18-13-46-50.775430917,AGENT#1da6a3e6-5255-11ea-8229-771150bdf816,1,66,67,10,1.0,1.0,0
run-2020-2-18-13-46-50.775430917,AGENT#1da6a65c-5255-11ea-ac14-ef5a09741409,1,66,67,10,1.0,1.0,0
run-2020-2-18-13-46-50.775430917,AGENT#1da6a8b4-5255-11ea-82d0-3ff636a1791a,1,66,67,10,1.0,1.0,0
run-2020-2-18-13-46-50.775430917,AGENT#1d9022f6-5255-11ea-b9cc-934ae6feffdf,49,19,68,10,1.0,1.0,0
run-2020-2-18-13-46-50.775430917,AGENT#1d90de76-5255-11ea-ac2e-c776ea27940e,47,21,68,10,1.0,1.0,0
run-2020-2-18-13-46-50.775430917,AGENT#1d9195b4-5255-11ea-9642-3bab77b90e2f,45,23,68,10,1.0,1.0,0
run-2020-2-18-13-46-50.775430917,AGENT#1da474d6-5255-11ea-9fdd-e7d163963950,5,63,68,10,1.0,1.0,0
run-2020-2-18-13-46-50.775430917,AGENT#1da477ce-5255-11ea-a40f-67476b52203a,5,63,68,10,1.0,1.0,0
run-2020-2-18-13-46-50.775430917,AGENT#1da47c9c-5255-11ea-a964-2fc288da7585,5,63,68,10,1.0,1.0,0
run-2020-2-18-13-46-50.775430917,AGENT#1da56026-5255-11ea-92c6-57ea935a56c7,4,64,68,10,1.0,1.0,0
run-2020-2-18-13-46-50.775430917,AGENT#1da6a0f8-5255-11ea-975c-83421b3ca8d7,2,66,68,10,1.0,1.0,0
run-2020-2-18-13-46-50.775430917,AGENT#1da6ab02-5255-11ea-ad19-a706c7504eb2,2,66,68,10,1.0,1.0,0
run-2020-2-18-13-46-50.775430917,AGENT#1da74c74-5255-11ea-8626-9f91f0838299,1,67,68,10,1.0,1.0,0
run-2020-2-18-13-46-50.775430917,AGENT#1d9133da-5255-11ea-8908-9f7982b28226,47,22,69,10,1.0,1.0,0
run-2020-2-18-13-46-50.775430917,AGENT#1da74a12-5255-11ea-bce7-7fffeeba6e83,3,67,70,10,1.0,1.0,0
run-2020-2-18-13-46-50.775430917,AGENT#1da7fd72-5255-11ea-a69f-638775485ae3,2,68,70,10,1.0,1.0,0
run-2020-2-18-13-46-50.775430917,AGENT#1d923f0a-5255-11ea-a637-07f4e63adab0,46,25,71,10,1.0,1.0,0
run-2020-2-18-13-46-50.775430917,AGENT#1da74eb8-5255-11ea-a8ae-f399bf6a792d,4,67,71,10,1.0,1.0,0
run-2020-2-18-13-46-50.775430917,AGENT#1da80308-5255-11ea-9e62-cbb3cc1d0054,3,68,71,10,1.0,1.0,0
run-2020-2-18-13-46-50.775430917,AGENT#1da74558-5255-11ea-ac86-8f8967407064,5,67,72,10,1.0,1.0,0
run-2020-2-18-13-46-50.775430917,AGENT#1da88eb8-5255-11ea-9407-13572a6f1d10,3,69,72,10,1.0,1.0,0
run-2020-2-18-13-46-50.775430917,AGENT#1da89138-5255-11ea-89ef-ffe3be8c3461,3,69,72,10,1.0,1.0,0
run-2020-2-18-13-46-50.775430917,AGENT#1d9028f0-5255-11ea-a364-670a76f0a432,55,19,74,10,1.0,1.0,0
run-2020-2-18-13-46-50.775430917,AGENT#1da88bd4-5255-11ea-a620-1700194bc911,5,69,74,10,1.0,1.0,0
run-2020-2-18-13-46-50.775430917,AGENT#1daa5824-5255-11ea-9b37-677f4c1c88cd,2,72,74,10,1.0,1.0,0
run-2020-2-18-13-46-50.775430917,AGENT#1daaf8a6-5255-11ea-a1ec-7f73c308bd8d,1,73,74,10,1.0,1.0,0
run-2020-2-18-13-46-50.775430917,AGENT#1daafe0a-5255-11ea-b5da-77e97b933e07,1,73,74,10,1.0,1.0,0
run-2020-2-18-13-46-50.775430917,AGENT#1da9c594-5255-11ea-95da-0fdff432040d,4,71,75,10,1.0,1.0,0
run-2020-2-18-13-46-50.775430917,AGENT#1daafb62-5255-11ea-a823-abd42c417a49,2,73,75,10,1.0,1.0,0
run-2020-2-18-13-46-50.775430917,AGENT#1dabb03e-5255-11ea-9f20-03a01752d740,3,74,77,10,1.0,1.0,0
run-2020-2-18-13-46-50.775430917,AGENT#1dac693e-5255-11ea-81f2-8b0b35c3165d,2,75,77,10,1.0,1.0,0
run-2020-2-18-13-46-50.775430917,AGENT#1dac6e52-5255-11ea-9c19-bf742909486c,2,75,77,10,1.0,1.0,0
run-2020-2-18-13-46-50.775430917,AGENT#1d9487d8-5255-11ea-a40b-5f78cc988ef9,47,31,78,10,1.0,1.0,0
run-2020-2-18-13-46-50.775430917,AGENT#1da3473c-5255-11ea-b3c7-3f1315fab3b9,17,61,78,10,1.0,1.0,0
run-2020-2-18-13-46-50.775430917,AGENT#1dab0058-5255-11ea-95a9-2be632fc6edf,5,73,78,10,1.0,1.0,0
run-2020-2-18-13-46-50.775430917,AGENT#1dac7186-5255-11ea-b478-77e4c6252e63,3,75,78,10,1.0,1.0,0
run-2020-2-18-13-46-50.775430917,AGENT#1dac74c4-5255-11ea-8972-13a9d001b6e4,3,75,78,10,1.0,1.0,0
run-2020-2-18-13-46-50.775430917,AGENT#1d954718-5255-11ea-a1f3-bb8f71e4189e,46,33,79,10,1.0,1.0,0
run-2020-2-18-13-46-50.775430917,AGENT#1dac77c6-5255-11ea-a36e-dbfd92cc9899,4,75,79,10,1.0,1.0,0
run-2020-2-18-13-46-50.775430917,AGENT#1dad4da4-5255-11ea-91b3-47cb6eeb52c4,3,76,79,10,1.0,1.0,0
run-2020-2-18-13-46-50.775430917,AGENT#1daec03a-5255-11ea-8114-534c2acef4e4,1,78,79,10,1.0,1.0,0
run-2020-2-18-13-46-50.775430917,AGENT#1daec8d2-5255-11ea-b87a-2fda7aa75475,1,78,79,10,1.0,1.0,0
run-2020-2-18-13-46-50.775430917,AGENT#1daece40-5255-11ea-b220-1f7a60ac5166,1,78,79,10,1.0,1.0,0
run-2020-2-18-13-46-50.775430917,AGENT#1d95a2b2-5255-11ea-85fb-afbbbe284b1d,46,34,80,10,1.0,1.0,0
run-2020-2-18-13-46-50.775430917,AGENT#1dae0654-5255-11ea-a78c-736e3969fd71,3,77,80,10,1.0,1.0,0
run-2020-2-18-13-46-50.775430917,AGENT#1d967aca-5255-11ea-9ac1-f7a57a71f526,45,36,81,10,1.0,1.0,0
run-2020-2-18-13-46-50.775430917,AGENT#1dae0974-5255-11ea-9505-2fe975b64899,4,77,81,10,1.0,1.0,0
run-2020-2-18-13-46-50.775430917,AGENT#1db04680-5255-11ea-85d9-e7289c759247,1,80,81,10,1.0,1.0,0
run-2020-2-18-13-46-50.775430917,AGENT#1db0496e-5255-11ea-8085-772f7c1b9980,1,80,81,10,1.0,1.0,0
run-2020-2-18-13-46-50.775430917,AGENT#1db05436-5255-11ea-995e-bfd311bf37a8,1,80,81,10,1.0,1.0,0
run-2020-2-18-13-46-50.775430917,AGENT#1db05986-5255-11ea-9f98-57fa96909650,1,80,81,10,1.0,1.0,0
run-2020-2-18-13-46-50.775430917,AGENT#1d9687cc-5255-11ea-bdbf-dfef045fe6d6,46,36,82,10,1.0,1.0,0
run-2020-2-18-13-46-50.775430917,AGENT#1d98bbd2-5255-11ea-9e73-9fccbd51baef,41,41,82,10,1.0,1.0,0
run-2020-2-18-13-46-50.775430917,AGENT#1db04ee6-5255-11ea-a4c4-b344c2f297bc,2,80,82,10,1.0,1.0,0
run-2020-2-18-13-46-50.775430917,AGENT#1db1210e-5255-11ea-b145-0fdf2d01c357,1,81,82,10,1.0,1.0,0
run-2020-2-18-13-46-50.775430917,AGENT#1db128fc-5255-11ea-a721-4bb44096fe89,1,81,82,10,1.0,1.0,0
run-2020-2-18-13-46-50.775430917,AGENT#1db11e34-5255-11ea-a360-3b960e5517d4,2,81,83,10,1.0,1.0,0
run-2020-2-18-13-46-50.775430917,AGENT#1db12eba-5255-11ea-97fc-bb8b6ff08b2b,2,81,83,10,1.0,1.0,0
run-2020-2-18-13-46-50.775430917,AGENT#1db21d66-5255-11ea-ba83-17676384558b,1,82,83,10,1.0,1.0,0
run-2020-2-18-13-46-50.775430917,AGENT#1db05198-5255-11ea-b9a5-4b43a8469897,4,80,84,10,1.0,1.0,0
run-2020-2-18-13-46-50.775430917,AGENT#1d95a582-5255-11ea-92eb-47e760ffce5c,51,34,85,10,1.0,1.0,0
run-2020-2-18-13-46-50.775430917,AGENT#1d975abc-5255-11ea-bda2-c375022bf5ba,47,38,85,10,1.0,1.0,0
run-2020-2-18-13-46-50.775430917,AGENT#1d97c83a-5255-11ea-9b09-4f87f1494cd1,46,39,85,10,1.0,1.0,0
run-2020-2-18-13-46-50.775430917,AGENT#1db04c20-5255-11ea-9708-933180165e0a,5,80,85,10,1.0,1.0,0
run-2020-2-18-13-46-50.775430917,AGENT#1d9755d0-5255-11ea-bddf-0387bdd30ddc,48,38,86,10,1.0,1.0,0
run-2020-2-18-13-46-50.775430917,AGENT#1d98b92a-5255-11ea-b1a8-531bb81bbfcc,45,41,86,10,1.0,1.0,0
run-2020-2-18-13-46-50.775430917,AGENT#1db123ac-5255-11ea-bfe6-9f41c8fd9d87,5,81,86,10,1.0,1.0,0
run-2020-2-18-13-46-50.775430917,AGENT#1db218d4-5255-11ea-a962-ffb786cf323c,4,82,86,10,1.0,1.0,0
run-2020-2-18-13-46-50.775430917,AGENT#1db5565c-5255-11ea-a952-b79502fa231e,1,85,86,10,1.0,1.0,0
run-2020-2-18-13-46-50.775430917,AGENT#1db3076c-5255-11ea-a22b-9b826d4f4011,4,83,87,10,1.0,1.0,0
run-2020-2-18-13-46-50.775430917,AGENT#1db4671a-5255-11ea-a587-4f1528be15fc,3,84,87,10,1.0,1.0,0
run-2020-2-18-13-46-50.775430917,AGENT#1db46d96-5255-11ea-8455-3702137b6637,3,84,87,10,1.0,1.0,0
run-2020-2-18-13-46-50.775430917,AGENT#1db31086-5255-11ea-a108-bb5b30d62904,5,83,88,10,1.0,1.0,0
run-2020-2-18-13-46-50.775430917,AGENT#1db62708-5255-11ea-9235-8f16eac320aa,2,86,88,10,1.0,1.0,0
run-2020-2-18-13-46-50.775430917,AGENT#1db6df5e-5255-11ea-bb27-0fa7d958fda9,2,87,89,10,1.0,1.0,0
run-2020-2-18-13-46-50.775430917,AGENT#1db6e260-5255-11ea-8bbe-6baa82b1a2a4,2,87,89,10,1.0,1.0,0
run-2020-2-18-13-46-50.775430917,AGENT#1db6e51c-5255-11ea-8547-074413f13a96,2,87,89,10,1.0,1.0,0
run-2020-2-18-13-46-50.775430917,AGENT#1d99322e-5255-11ea-9e4a-cf9df6ccd059,48,42,90,10,1.0,1.0,0
run-2020-2-18-13-46-50.775430917,AGENT#1db46198-5255-11ea-a6af-ef967f9d2d56,6,84,90,10,1.0,1.0,0
run-2020-2-18-13-46-50.775430917,AGENT#1db6e792-5255-11ea-808c-abacd85a1fba,3,87,90,10,1.0,1.0,0
run-2020-2-18-13-46-50.775430917,AGENT#1db7ba5a-5255-11ea-ab37-1347dff8147b,2,88,90,10,1.0,1.0,0
run-2020-2-18-13-46-50.775430917,AGENT#1db8861a-5255-11ea-a155-3f5822fd2f72,1,89,90,10,1.0,1.0,0
run-2020-2-18-13-46-50.775430917,AGENT#1da750f2-5255-11ea-8b0a-6bd249c238ae,24,67,91,10,1.0,1.0,0
run-2020-2-18-13-46-50.775430917,AGENT#1db7bd7a-5255-11ea-98b0-877dc01650ef,3,88,91,10,1.0,1.0,0
run-2020-2-18-13-46-50.775430917,AGENT#1db88e08-5255-11ea-84a5-b7479fc88a20,2,89,91,10,1.0,1.0,0
run-2020-2-18-13-46-50.775430917,AGENT#1db8891c-5255-11ea-b32d-fbdc48d9b667,3,89,92,10,1.0,1.0,0
run-2020-2-18-13-46-50.775430917,AGENT#1d9b870e-5255-11ea-8fe3-47b5dd48abaa,46,47,93,10,1.0,1.0,0
run-2020-2-18-13-46-50.775430917,AGENT#1d9c2c86-5255-11ea-a8c2-1b7550f80a63,45,48,93,10,1.0,1.0,0
run-2020-2-18-13-46-50.775430917,AGENT#1db056d4-5255-11ea-a880-236e30e15a43,13,80,93,10,1.0,1.0,0
run-2020-2-18-13-46-50.775430917,AGENT#1db95914-5255-11ea-8c11-5f2c86085ea3,3,90,93,10,1.0,1.0,0
run-2020-2-18-13-46-50.775430917,AGENT#1dbae59a-5255-11ea-95e2-f752d0949ef9,1,92,93,10,1.0,1.0,0
run-2020-2-18-13-46-50.775430917,AGENT#1dbae7fc-5255-11ea-92f6-e322f4beb926,1,92,93,10,1.0,1.0,0
run-2020-2-18-13-46-50.775430917,AGENT#1dbaea54-5255-11ea-893f-8f5ad2b1668c,1,92,93,10,1.0,1.0,0
run-2020-2-18-13-46-50.775430917,AGENT#1dbaecc0-5255-11ea-b0ff-67cfc39b6adb,1,92,93,10,1.0,1.0,0
run-2020-2-18-13-46-50.775430917,AGENT#1d9cd992-5255-11ea-a577-7f97c8806be2,45,49,94,10,1.0,1.0,0
run-2020-2-18-13-46-50.775430917,AGENT#1dbbbff6-5255-11ea-a547-1725bd389ccc,1,93,94,10,1.0,1.0,0
run-2020-2-18-13-46-50.775430917,AGENT#1d9d7406-5255-11ea-84c2-df65a5a60aa9,45,50,95,10,1.0,1.0,0
run-2020-2-18-13-46-50.775430917,AGENT#1d9d771c-5255-11ea-96e4-1f264d139f1b,45,50,95,10,1.0,1.0,0
run-2020-2-18-13-46-50.775430917,AGENT#1dab02a6-5255-11ea-8080-2375ab806751,22,73,95,10,1.0,1.0,0
run-2020-2-18-13-46-50.775430917,AGENT#1dbae2ca-5255-11ea-b805-53325f09f376,3,92,95,10,1.0,1.0,0
run-2020-2-18-13-46-50.775430917,AGENT#1db88b9c-5255-11ea-b860-9b1d6cc09407,7,89,96,10,1.0,1.0,0
run-2020-2-18-13-46-50.775430917,AGENT#1dba2be6-5255-11ea-982f-9b9a9bc67153,5,91,96,10,1.0,1.0,0
run-2020-2-18-13-46-50.775430917,AGENT#1dbbc550-5255-11ea-8068-1b6e30f131d4,3,93,96,10,1.0,1.0,0
run-2020-2-18-13-46-50.775430917,AGENT#1d9e06aa-5255-11ea-81ef-df7576a5be2c,46,51,97,10,1.0,1.0,0
run-2020-2-18-13-46-50.775430917,AGENT#1dbaef0e-5255-11ea-9eb7-6b348ffb7319,5,92,97,10,1.0,1.0,0
run-2020-2-18-13-46-50.775430917,AGENT#1dbd2c56-5255-11ea-a2fd-239983af82c5,2,95,97,10,1.0,1.0,0
run-2020-2-18-13-46-50.775430917,AGENT#1dbe04e6-5255-11ea-bb85-f3bdd50af898,1,96,97,10,1.0,1.0,0
run-2020-2-18-13-46-50.775430917,AGENT#1dbe0838-5255-11ea-8391-a73ee54c1478,1,96,97,10,1.0,1.0,0
run-2020-2-18-13-46-50.775430917,AGENT#1dbe0d92-5255-11ea-bc9f-8fd5b099e17c,1,96,97,10,1.0,1.0,0
run-2020-2-18-13-46-50.775430917,AGENT#1dbe1026-5255-11ea-8f95-7f541efd384e,1,96,97,10,1.0,1.0,0
run-2020-2-18-13-46-50.775430917,AGENT#1dbed5a6-5255-11ea-b9d7-73e0ca8066fd,1,97,98,10,1.0,1.0,0
run-2020-2-18-13-46-50.775430917,AGENT#1dbd2936-5255-11ea-abb7-93a006c06c37,4,95,99,10,1.0,1.0,0
run-2020-2-18-13-46-50.775430917,AGENT#1dbedb1e-5255-11ea-a07b-3321f74f9a0d,2,97,99,10,1.0,1.0,0
