Source,Target
baf21ea6-51af-11ea-9c81-37b8aab8c971,baf50ba2-51af-11ea-9b6c-57373fa8703e
baf39cf4-51af-11ea-840b-83015265095c,baf5ad96-51af-11ea-bb18-0b7d565ddaf1
baf39cf4-51af-11ea-840b-83015265095c,baf5ae0e-51af-11ea-a4c5-33c8ad4b206b
baf3d7dc-51af-11ea-a325-1f3d45766048,baf618bc-51af-11ea-bdbf-732f0319db32
baf39cf4-51af-11ea-840b-83015265095c,baf6043a-51af-11ea-ab1f-630ecd176204
baf50ba2-51af-11ea-9b6c-57373fa8703e,baf67866-51af-11ea-be94-0303e8b4a134
baf31ff4-51af-11ea-bb36-4f25e0f4582a,baf6df5e-51af-11ea-8623-c3164abd9d04
baf2e052-51af-11ea-95cf-6f70cbf5bec7,baf7097a-51af-11ea-9d33-d70a6dbd0d18
baf3d7dc-51af-11ea-a325-1f3d45766048,baf72450-51af-11ea-8e1a-bf40fd8746af
baf5ae0e-51af-11ea-a4c5-33c8ad4b206b,baf75452-51af-11ea-b2fb-6f241f32acbd
baf31ff4-51af-11ea-bb36-4f25e0f4582a,baf7bb2c-51af-11ea-b966-436d7864111d
baf2f5e2-51af-11ea-865c-7b27d9da0a8c,baf7d850-51af-11ea-ac6a-0f6477cec551
baf2f5e2-51af-11ea-865c-7b27d9da0a8c,baf8111c-51af-11ea-8eb1-23103f67eaca
baf2f5e2-51af-11ea-865c-7b27d9da0a8c,baf823b4-51af-11ea-965c-7fa570ca36ad
baf21ea6-51af-11ea-9c81-37b8aab8c971,baf87c4c-51af-11ea-9da6-fb2bfaa30347
baf1c640-51af-11ea-805b-a760034eead1,baf8ac44-51af-11ea-adf2-8b6743c2e147
baf8111c-51af-11ea-8eb1-23103f67eaca,baf8c580-51af-11ea-b2d1-13dfaafd662f
baf4b6c0-51af-11ea-a44b-67a1ad80fa71,baf909d2-51af-11ea-9fb0-1fffd763b227
baf50ba2-51af-11ea-9b6c-57373fa8703e,baf9465e-51af-11ea-825a-ef528fa3b692
baf909d2-51af-11ea-9fb0-1fffd763b227,baf9a888-51af-11ea-a5ae-7f75f3ed5c57
baf6df5e-51af-11ea-8623-c3164abd9d04,baf9c296-51af-11ea-8858-dfab128436f3
baf31ff4-51af-11ea-bb36-4f25e0f4582a,baf9d3e4-51af-11ea-b3d8-1fbf794a5c96
baf8ac44-51af-11ea-adf2-8b6743c2e147,bafa0490-51af-11ea-958c-b7d190122407
baf6043a-51af-11ea-ab1f-630ecd176204,bafa6b1a-51af-11ea-959c-3be9bff8bf26
baf67866-51af-11ea-be94-0303e8b4a134,bafac272-51af-11ea-8acf-4ffdcd690308
baf9465e-51af-11ea-825a-ef528fa3b692,bafae8f6-51af-11ea-9ef7-3fcd3f0eb126
baf31ff4-51af-11ea-bb36-4f25e0f4582a,bafaf8f0-51af-11ea-8e2a-d33c8694d250
baf8ac44-51af-11ea-adf2-8b6743c2e147,bafb148e-51af-11ea-a0a3-0b1ad1ee5a9e
baf6df5e-51af-11ea-8623-c3164abd9d04,bafbbf1a-51af-11ea-884f-c71dc5cb53c3
baf9a888-51af-11ea-a5ae-7f75f3ed5c57,bafbd9aa-51af-11ea-a662-9bd26ffd9c24
baf7d850-51af-11ea-ac6a-0f6477cec551,bafc1b54-51af-11ea-9024-1fb5835caaf4
baf5ad96-51af-11ea-bb18-0b7d565ddaf1,bafc2e28-51af-11ea-b488-4b8abb76b724
baf8c580-51af-11ea-b2d1-13dfaafd662f,bafc7964-51af-11ea-8d44-d35211ffd130
baf2e052-51af-11ea-95cf-6f70cbf5bec7,bafcc8ce-51af-11ea-8ad8-bbc7ef8dc745
baf8c580-51af-11ea-b2d1-13dfaafd662f,bafcf1b4-51af-11ea-adc8-e344195e92b6
bafa6b1a-51af-11ea-959c-3be9bff8bf26,bafd058c-51af-11ea-9e48-2f8d2345a810
baf5ae0e-51af-11ea-a4c5-33c8ad4b206b,bafd47a4-51af-11ea-93c7-9bc9a631db15
baf21ea6-51af-11ea-9c81-37b8aab8c971,bafd74fe-51af-11ea-9773-5b8ab5770a93
baf9a888-51af-11ea-a5ae-7f75f3ed5c57,bafddffc-51af-11ea-b5b3-9f31d03a115b
bafc7964-51af-11ea-8d44-d35211ffd130,bafdf370-51af-11ea-baba-37a4750c1139
bafbd9aa-51af-11ea-a662-9bd26ffd9c24,bafe0a90-51af-11ea-8553-cb5a9b38a812
baf909d2-51af-11ea-9fb0-1fffd763b227,bafe888a-51af-11ea-99ee-c34d6cf970a6
baf618bc-51af-11ea-bdbf-732f0319db32,bafeaf2c-51af-11ea-87cc-7fa0dccc0e41
baf823b4-51af-11ea-965c-7fa570ca36ad,baff49d2-51af-11ea-820a-eb1b050fa73d
baf5ae0e-51af-11ea-a4c5-33c8ad4b206b,baff6aca-51af-11ea-9269-7b19c42bee9e
baf7bb2c-51af-11ea-b966-436d7864111d,baff7786-51af-11ea-a1f9-277187cb0761
bafbbf1a-51af-11ea-884f-c71dc5cb53c3,baff9464-51af-11ea-b1d4-13a467ad775a
baf75452-51af-11ea-b2fb-6f241f32acbd,bb0003fe-51af-11ea-802c-bbc212d6a911
bafc2e28-51af-11ea-b488-4b8abb76b724,bb00a750-51af-11ea-bdad-6b4baab342e2
bafc7964-51af-11ea-8d44-d35211ffd130,bb01034e-51af-11ea-9b33-efb2d2525c84
bafc7964-51af-11ea-8d44-d35211ffd130,bb00d176-51af-11ea-89b8-8f915c63ad12
bafd47a4-51af-11ea-93c7-9bc9a631db15,bb00ee5e-51af-11ea-83ce-23d555c2e542
bb00a750-51af-11ea-bdad-6b4baab342e2,bb015fce-51af-11ea-8956-9741d0a55603
baf8ac44-51af-11ea-adf2-8b6743c2e147,bb019b2e-51af-11ea-bf3a-9fece8190f43
bb015fce-51af-11ea-8956-9741d0a55603,bb01a9fc-51af-11ea-9200-fbfb9649c86b
bafb148e-51af-11ea-a0a3-0b1ad1ee5a9e,bb01d1c0-51af-11ea-96b3-0bd7e044c563
baf7d850-51af-11ea-ac6a-0f6477cec551,bb01eeb2-51af-11ea-a3dc-3f746bf29a2e
baf67866-51af-11ea-be94-0303e8b4a134,bb022058-51af-11ea-8a55-fbf868509827
baff7786-51af-11ea-a1f9-277187cb0761,bb02c1b6-51af-11ea-a30d-23e7efd7c9bd
baf7d850-51af-11ea-ac6a-0f6477cec551,bb02d1ba-51af-11ea-9bea-f3e9a5071dcf
bb0003fe-51af-11ea-802c-bbc212d6a911,bb0306c6-51af-11ea-9160-9bba1ff02850
baf8ac44-51af-11ea-adf2-8b6743c2e147,bb02f7a8-51af-11ea-9aa3-e3a09cb3cddd
baf50ba2-51af-11ea-9b6c-57373fa8703e,bb033704-51af-11ea-9559-a78a1f120b3b
baf2e052-51af-11ea-95cf-6f70cbf5bec7,bb03838a-51af-11ea-93c6-9fdc648cbcd5
bafd058c-51af-11ea-9e48-2f8d2345a810,bb0395c8-51af-11ea-9310-3b449e3840c1
bafa0490-51af-11ea-958c-b7d190122407,bb03bef4-51af-11ea-bc98-679703bebc03
bafa0490-51af-11ea-958c-b7d190122407,bb0433f2-51af-11ea-990b-e3bca264f3f5
baf6043a-51af-11ea-ab1f-630ecd176204,bb046192-51af-11ea-9602-07137daee498
baf37828-51af-11ea-af52-23f6b2c1d55d,bb046f98-51af-11ea-8dbe-33ead2739110
baf67866-51af-11ea-be94-0303e8b4a134,bb04a7d8-51af-11ea-8b15-eb24dced7d7d
bb02d1ba-51af-11ea-9bea-f3e9a5071dcf,bb04dbe0-51af-11ea-9394-7bb9a0363599
baf50ba2-51af-11ea-9b6c-57373fa8703e,bb051bbe-51af-11ea-bdff-7fcdc1d47dbd
baf87c4c-51af-11ea-9da6-fb2bfaa30347,bb052c80-51af-11ea-98d8-6f0bafbbdd7c
bafa6b1a-51af-11ea-959c-3be9bff8bf26,bb053c48-51af-11ea-bc97-6f4c2786d615
bafb148e-51af-11ea-a0a3-0b1ad1ee5a9e,bb0558fe-51af-11ea-a99a-8b1820e1742a
baf8111c-51af-11ea-8eb1-23103f67eaca,bb05877a-51af-11ea-bde5-4b6355b289b7
bafd47a4-51af-11ea-93c7-9bc9a631db15,bb05a796-51af-11ea-a974-d390c2204106
baff6aca-51af-11ea-9269-7b19c42bee9e,bb05e18e-51af-11ea-9791-43c1f0f71a9d
bb015fce-51af-11ea-8956-9741d0a55603,bb060862-51af-11ea-b7f1-4712d19d7b87
bafc7964-51af-11ea-8d44-d35211ffd130,bb061e74-51af-11ea-beab-2f224927c836
bafb148e-51af-11ea-a0a3-0b1ad1ee5a9e,bb064a16-51af-11ea-9d17-b3fbb1346ded
bb02c1b6-51af-11ea-a30d-23e7efd7c9bd,bb0659e8-51af-11ea-9785-47b2eb18031a
bb052c80-51af-11ea-98d8-6f0bafbbdd7c,bb06b096-51af-11ea-af46-df62faa14ffd
baf823b4-51af-11ea-965c-7fa570ca36ad,bb06d788-51af-11ea-a44c-3bbc384c756b
baf50ba2-51af-11ea-9b6c-57373fa8703e,bb06e5e8-51af-11ea-bb26-c772c5dba593
baf72450-51af-11ea-8e1a-bf40fd8746af,bb06f6c8-51af-11ea-8c28-f3255b252cf1
bafe888a-51af-11ea-99ee-c34d6cf970a6,bb07330e-51af-11ea-9c36-839499341a47
bb07330e-51af-11ea-9c36-839499341a47,bb079bc8-51af-11ea-ac5a-3f889ea9481d
baf4b6c0-51af-11ea-a44b-67a1ad80fa71,bb07ac80-51af-11ea-92f1-d775053ede2b
baf1e972-51af-11ea-ab3a-1f61dd264e8a,bb078b88-51af-11ea-92a4-476c3eb5c8f2
bafcc8ce-51af-11ea-8ad8-bbc7ef8dc745,bb07ba5e-51af-11ea-bbd5-df8b5550e6c8
baf5ae0e-51af-11ea-a4c5-33c8ad4b206b,bb08117a-51af-11ea-8f4f-a7a025122b3c
baf823b4-51af-11ea-965c-7fa570ca36ad,bb08311e-51af-11ea-b7ba-170dbd596722
bb052c80-51af-11ea-98d8-6f0bafbbdd7c,bb084460-51af-11ea-8460-abc8ff94aba8
bb02f7a8-51af-11ea-9aa3-e3a09cb3cddd,bb0851da-51af-11ea-a9b3-3775fea704dc
baf5ae0e-51af-11ea-a4c5-33c8ad4b206b,bb08b012-51af-11ea-a62b-8bd812c5296b
bb00d176-51af-11ea-89b8-8f915c63ad12,bb08eaa0-51af-11ea-ad2d-53c837c3d853
baf4b6c0-51af-11ea-a44b-67a1ad80fa71,bb08fae0-51af-11ea-ac48-1798e1ab4ad9
bafc1b54-51af-11ea-9024-1fb5835caaf4,bb090a12-51af-11ea-8209-23f67d941d6a
baf37828-51af-11ea-af52-23f6b2c1d55d,bb0956f2-51af-11ea-b40b-ff0766959ad5
baf50ba2-51af-11ea-9b6c-57373fa8703e,bb09650c-51af-11ea-a1fd-4300914c7ca5
bb02f7a8-51af-11ea-9aa3-e3a09cb3cddd,bb097664-51af-11ea-85a3-37eb6a15fb2f
bb05877a-51af-11ea-bde5-4b6355b289b7,bb0984f6-51af-11ea-b10d-c797f87f6e0d
bafac272-51af-11ea-8acf-4ffdcd690308,bb09bf3e-51af-11ea-8d6a-4bb71c102bef
baf8c580-51af-11ea-b2d1-13dfaafd662f,bb09e1a8-51af-11ea-bfdf-272afc955b72
bb046f98-51af-11ea-8dbe-33ead2739110,bb09f1a2-51af-11ea-9a47-5fbfa0e88d94
bb05877a-51af-11ea-bde5-4b6355b289b7,bb09ff4e-51af-11ea-8ea2-ffcd06023807
bb07ac80-51af-11ea-92f1-d775053ede2b,bb0a313a-51af-11ea-a0b0-4fcf9b6347c0
baf9465e-51af-11ea-825a-ef528fa3b692,bb0a6268-51af-11ea-b972-93018b2a3142
bb046192-51af-11ea-9602-07137daee498,bb0a71c2-51af-11ea-9166-532c90b5e0ad
baf2e052-51af-11ea-95cf-6f70cbf5bec7,bb0a9af8-51af-11ea-8de4-f3f418fbebe3
bb090a12-51af-11ea-8209-23f67d941d6a,bb0aaafc-51af-11ea-8ee5-735cd8001dc6
bb02d1ba-51af-11ea-9bea-f3e9a5071dcf,bb0af912-51af-11ea-a48e-9bffb7d927ca
baf2e052-51af-11ea-95cf-6f70cbf5bec7,bb0b11cc-51af-11ea-8ce4-af817483c4d7
bafd47a4-51af-11ea-93c7-9bc9a631db15,bb0b22ca-51af-11ea-8a0a-7393d77d82da
bafc1b54-51af-11ea-9024-1fb5835caaf4,bb0b3148-51af-11ea-80da-e7f9c28da481
bb052c80-51af-11ea-98d8-6f0bafbbdd7c,bb0b9228-51af-11ea-a66f-c7365693eb92
bafbd9aa-51af-11ea-a662-9bd26ffd9c24,bb0ba060-51af-11ea-8668-177d23a539ba
bb079bc8-51af-11ea-ac5a-3f889ea9481d,bb0bb208-51af-11ea-a938-c7af2d495228
baf87c4c-51af-11ea-9da6-fb2bfaa30347,bb0bd300-51af-11ea-a384-6f5ed4fcee30
baf31ff4-51af-11ea-bb36-4f25e0f4582a,bb0c4146-51af-11ea-a0cc-ff3a53a70da4
baf2e052-51af-11ea-95cf-6f70cbf5bec7,bb0c544c-51af-11ea-816d-fb4fea4e3cc7
bb061e74-51af-11ea-beab-2f224927c836,bb0c6676-51af-11ea-8fb5-77a7e0acf950
bb01eeb2-51af-11ea-a3dc-3f746bf29a2e,bb0c9d6c-51af-11ea-92e7-137bb11d9dc5
bb01a9fc-51af-11ea-9200-fbfb9649c86b,bb0cd49e-51af-11ea-8b21-57bdb31fe3ec
bb00a750-51af-11ea-bdad-6b4baab342e2,bb0cf6d6-51af-11ea-a536-abcd39196e24
bb061e74-51af-11ea-beab-2f224927c836,bb0d068a-51af-11ea-b112-375d66abf8d8
bafbd9aa-51af-11ea-a662-9bd26ffd9c24,bb0d70b6-51af-11ea-8fce-f33151624f12
baf909d2-51af-11ea-9fb0-1fffd763b227,bb0d98ac-51af-11ea-9840-2b3a64cff8f9
bb00ee5e-51af-11ea-83ce-23d555c2e542,bb0de3b6-51af-11ea-9d4c-9fbd0665b3ac
bafcc8ce-51af-11ea-8ad8-bbc7ef8dc745,bb0e077e-51af-11ea-9286-b3ad4a2760aa
bb0d068a-51af-11ea-b112-375d66abf8d8,bb0e1714-51af-11ea-a89e-0bd7b6af9001
bafddffc-51af-11ea-b5b3-9f31d03a115b,bb0e306e-51af-11ea-b66e-2b825951a26e
bb0b3148-51af-11ea-80da-e7f9c28da481,bb0e8fbe-51af-11ea-8f49-17fc7613aa03
bb0433f2-51af-11ea-990b-e3bca264f3f5,bb0ebb60-51af-11ea-9e39-b36e43d7d37d
bb08b012-51af-11ea-a62b-8bd812c5296b,bb0ecb00-51af-11ea-b077-53f9da831601
bafe888a-51af-11ea-99ee-c34d6cf970a6,bb0eeb4e-51af-11ea-936c-bfa84fb443c0
bb0a313a-51af-11ea-a0b0-4fcf9b6347c0,bb0f3720-51af-11ea-9916-136b26c80d29
bafaf8f0-51af-11ea-8e2a-d33c8694d250,bb0f4648-51af-11ea-b805-9fc0ac3ab118
bb01eeb2-51af-11ea-a3dc-3f746bf29a2e,bb0f55a2-51af-11ea-a0d1-cfbbf0c983cf
bafc2e28-51af-11ea-b488-4b8abb76b724,bb0f74ec-51af-11ea-a559-63b01b146ecb
bb0b11cc-51af-11ea-8ce4-af817483c4d7,bb0feeb8-51af-11ea-b793-a733835ae0df
bafe888a-51af-11ea-99ee-c34d6cf970a6,bb0ffce6-51af-11ea-8a67-8356387eb20b
bb04a7d8-51af-11ea-8b15-eb24dced7d7d,bb1027ca-51af-11ea-93d0-5f304b76403f
bb04a7d8-51af-11ea-8b15-eb24dced7d7d,bb10371a-51af-11ea-a46f-7735fb562dcb
bb06b096-51af-11ea-af46-df62faa14ffd,bb107770-51af-11ea-b9c6-cbf83a857e86
bb079bc8-51af-11ea-ac5a-3f889ea9481d,bb10b348-51af-11ea-9228-ffb9956cdaad
bb0a9af8-51af-11ea-8de4-f3f418fbebe3,bb10c3ba-51af-11ea-823f-6b71238e9355
bb0433f2-51af-11ea-990b-e3bca264f3f5,bb10e89a-51af-11ea-8bb8-0be19c30b4ec
bb03bef4-51af-11ea-bc98-679703bebc03,bb111e5a-51af-11ea-bb70-87d592ecb415
bb0de3b6-51af-11ea-9d4c-9fbd0665b3ac,bb112d28-51af-11ea-a94d-a30b71e2fc19
bb0a6268-51af-11ea-b972-93018b2a3142,bb114a38-51af-11ea-ad47-b30bb11f1bba
bb0feeb8-51af-11ea-b793-a733835ae0df,bb118d86-51af-11ea-9e5c-bb52d4226e34
bafe0a90-51af-11ea-8553-cb5a9b38a812,bb119b78-51af-11ea-92b8-b7ac65c24a75
bb0f55a2-51af-11ea-a0d1-cfbbf0c983cf,bb11bd92-51af-11ea-b032-ffba1408b08e
bb0d068a-51af-11ea-b112-375d66abf8d8,bb11ed80-51af-11ea-af36-d3dcfaf54c25
bb00ee5e-51af-11ea-83ce-23d555c2e542,bb121b2a-51af-11ea-ba44-7b319d6c934f
bb0c6676-51af-11ea-8fb5-77a7e0acf950,bb12539c-51af-11ea-a46a-47feec7514cd
bb0b11cc-51af-11ea-8ce4-af817483c4d7,bb125f90-51af-11ea-89b4-0fc69e8983f6
baf7d850-51af-11ea-ac6a-0f6477cec551,bb12865a-51af-11ea-8dad-2b2cb3e3ce05
bb09650c-51af-11ea-a1fd-4300914c7ca5,bb12c0fc-51af-11ea-b684-43495b0243fa
bb00d176-51af-11ea-89b8-8f915c63ad12,bb12d358-51af-11ea-8404-6fc1d9fefdb9
bb0659e8-51af-11ea-9785-47b2eb18031a,bb131200-51af-11ea-8e7e-93ad47b6765e
baf9a888-51af-11ea-a5ae-7f75f3ed5c57,bb1340e0-51af-11ea-ad8d-33f071729098
bafbd9aa-51af-11ea-a662-9bd26ffd9c24,bb135274-51af-11ea-bba8-eb1fbcbe0763
bb10b348-51af-11ea-9228-ffb9956cdaad,bb137718-51af-11ea-9f06-474c2a0e820b
baf5ad96-51af-11ea-bb18-0b7d565ddaf1,bb1388f2-51af-11ea-bee0-03a0ac41e225
bafac272-51af-11ea-8acf-4ffdcd690308,bb13e914-51af-11ea-8f9e-bbdcc5b1b96d
baff7786-51af-11ea-a1f9-277187cb0761,bb13fb7a-51af-11ea-867e-237a6abe5173
baf8c580-51af-11ea-b2d1-13dfaafd662f,bb14251e-51af-11ea-bc3a-9fd2c2973503
bb0ffce6-51af-11ea-8a67-8356387eb20b,bb146dbc-51af-11ea-833d-039e82969fee
bb04a7d8-51af-11ea-8b15-eb24dced7d7d,bb148a5e-51af-11ea-a4ab-070c23b23da0
bb0bb208-51af-11ea-a938-c7af2d495228,bb14a124-51af-11ea-b84a-bfb3fd5f6207
bb137718-51af-11ea-9f06-474c2a0e820b,bb14b25e-51af-11ea-bcbe-b3993c9b09cd
bb13fb7a-51af-11ea-867e-237a6abe5173,bb14d8c4-51af-11ea-967e-935d46c8fcfb
baf1e972-51af-11ea-ab3a-1f61dd264e8a,bb154372-51af-11ea-adcf-138c34523659
bb14d8c4-51af-11ea-967e-935d46c8fcfb,bb15548e-51af-11ea-aeb1-df3f08b63757
bb0956f2-51af-11ea-b40b-ff0766959ad5,bb156c9e-51af-11ea-9a0f-d3493e6b85f2
bb064a16-51af-11ea-9d17-b3fbb1346ded,bb158e18-51af-11ea-acab-b38a023cafad
baf72450-51af-11ea-8e1a-bf40fd8746af,bb15c45a-51af-11ea-9975-7b04b7b4e021
bb0659e8-51af-11ea-9785-47b2eb18031a,bb15fd1c-51af-11ea-b87d-ef3bed90770c
baf6043a-51af-11ea-ab1f-630ecd176204,bb1633b8-51af-11ea-8368-3745dc3fbb22
baf1e972-51af-11ea-ab3a-1f61dd264e8a,bb1653f2-51af-11ea-b37f-c7b09cc1376f
bb08fae0-51af-11ea-ac48-1798e1ab4ad9,bb16726a-51af-11ea-8c8b-ef0da79cea48
baf8111c-51af-11ea-8eb1-23103f67eaca,bb16ae2e-51af-11ea-88a6-1ff90bf85581
bb09650c-51af-11ea-a1fd-4300914c7ca5,bb16baf4-51af-11ea-bc10-3f86f5ac5330
bb0c9d6c-51af-11ea-92e7-137bb11d9dc5,bb16f190-51af-11ea-a2df-d3f77a668dbe
bb0b3148-51af-11ea-80da-e7f9c28da481,bb1702e8-51af-11ea-b392-2752fe29dc33
baf21ea6-51af-11ea-9c81-37b8aab8c971,bb173ae2-51af-11ea-b292-ff2e1ff80586
bafac272-51af-11ea-8acf-4ffdcd690308,bb177066-51af-11ea-bf8f-17c0232f265c
baf87c4c-51af-11ea-9da6-fb2bfaa30347,bb17839e-51af-11ea-a456-6b0e639b3988
bb060862-51af-11ea-b7f1-4712d19d7b87,bb179b72-51af-11ea-809e-3733171ec5fa
bb0395c8-51af-11ea-9310-3b449e3840c1,bb17e564-51af-11ea-95e2-efbe035f4c3a
bafbbf1a-51af-11ea-884f-c71dc5cb53c3,bb17f392-51af-11ea-9b20-ebfb36c98096
bb0984f6-51af-11ea-b10d-c797f87f6e0d,bb1810ac-51af-11ea-8014-373b6ebb4b00
bb10b348-51af-11ea-9228-ffb9956cdaad,bb1826c8-51af-11ea-ad4b-77ba38019fe1
bb019b2e-51af-11ea-bf3a-9fece8190f43,bb1878ee-51af-11ea-9430-1b9da9725b1a
baf87c4c-51af-11ea-9da6-fb2bfaa30347,bb188e6a-51af-11ea-8264-8b6a44403a9a
bb07ba5e-51af-11ea-bbd5-df8b5550e6c8,bb18abac-51af-11ea-b50f-3b4aea9276bd
bb107770-51af-11ea-b9c6-cbf83a857e86,bb18c808-51af-11ea-ac8d-1b9087f7dbc8
baff7786-51af-11ea-a1f9-277187cb0761,bb1904c6-51af-11ea-ba4e-9f9d6b70de8c
bb01eeb2-51af-11ea-a3dc-3f746bf29a2e,bb192258-51af-11ea-a012-73b8ea9cdc03
baf1e972-51af-11ea-ab3a-1f61dd264e8a,bb194f58-51af-11ea-97ce-c7aedbb45f96
bafaf8f0-51af-11ea-8e2a-d33c8694d250,bb19a6e2-51af-11ea-9dc9-4ff939414a0a
bb148a5e-51af-11ea-a4ab-070c23b23da0,bb19b7f4-51af-11ea-834d-93695ad60f08
bb118d86-51af-11ea-9e5c-bb52d4226e34,bb19f624-51af-11ea-832b-6b12bcfb5079
bb084460-51af-11ea-8460-abc8ff94aba8,bb1a0ac4-51af-11ea-bf93-7fa7c48396f1
bb1653f2-51af-11ea-b37f-c7b09cc1376f,bb1a2f68-51af-11ea-8073-2bc9f319d3b3
baf6043a-51af-11ea-ab1f-630ecd176204,bb1a58e4-51af-11ea-9380-ebeaa8b58753
bb015fce-51af-11ea-8956-9741d0a55603,bb1a83fa-51af-11ea-a39e-5fa9a1989ab8
bb0cf6d6-51af-11ea-a536-abcd39196e24,bb1ab168-51af-11ea-a801-0f8a6ddc3f8b
bb121b2a-51af-11ea-ba44-7b319d6c934f,bb1ae2d2-51af-11ea-bd8d-d37744509ed5
bb1633b8-51af-11ea-8368-3745dc3fbb22,bb1af8a8-51af-11ea-8b75-bf0d29345363
bb0433f2-51af-11ea-990b-e3bca264f3f5,bb1b465a-51af-11ea-8817-9fe6e7f985e3
bb18c808-51af-11ea-ac8d-1b9087f7dbc8,bb1b8746-51af-11ea-a225-af9163240970
baf67866-51af-11ea-be94-0303e8b4a134,bb1ba4a6-51af-11ea-9c33-bf3022e93811
bb046192-51af-11ea-9602-07137daee498,bb1bb5d6-51af-11ea-9250-7b592a898228
bb148a5e-51af-11ea-a4ab-070c23b23da0,bb1c0e6e-51af-11ea-9348-4f3cbaa8c3a9
bb0a71c2-51af-11ea-9166-532c90b5e0ad,bb1c2246-51af-11ea-8913-b7966c64f72f
bb0f3720-51af-11ea-9916-136b26c80d29,bb1c52b6-51af-11ea-8c21-b7ff78960e99
baf50ba2-51af-11ea-9b6c-57373fa8703e,bb1c75ac-51af-11ea-a3b1-3b00664995e6
bafa0490-51af-11ea-958c-b7d190122407,bb1cdb00-51af-11ea-8518-77d9f6129272
bb0ebb60-51af-11ea-9e39-b36e43d7d37d,bb1cea3c-51af-11ea-8a37-1313aa39a8da
bb0d068a-51af-11ea-b112-375d66abf8d8,bb1cfaae-51af-11ea-9880-1ff51b744351
baf67866-51af-11ea-be94-0303e8b4a134,bb1d0b84-51af-11ea-9b28-dfbb5a15539c
bb05e18e-51af-11ea-9791-43c1f0f71a9d,bb1d684a-51af-11ea-80ee-fbeae41cea28
bb05877a-51af-11ea-bde5-4b6355b289b7,bb1d8528-51af-11ea-a132-3b3d79817f46
bb00d176-51af-11ea-89b8-8f915c63ad12,bb1d76c8-51af-11ea-a543-b7b070dffa80
bb0e306e-51af-11ea-b66e-2b825951a26e,bb1d969e-51af-11ea-b546-3f335c3abe44
bb0003fe-51af-11ea-802c-bbc212d6a911,bb1de892-51af-11ea-8faf-ef2c2305f030
bb060862-51af-11ea-b7f1-4712d19d7b87,bb1dfec2-51af-11ea-a6d6-731a01cc4cb0
bb06e5e8-51af-11ea-bb26-c772c5dba593,bb1e10b0-51af-11ea-897f-ff35366bcd78
bb173ae2-51af-11ea-b292-ff2e1ff80586,bb1e2e74-51af-11ea-a5c0-eb82df6a49a9
baf3d7dc-51af-11ea-a325-1f3d45766048,bb1e5c32-51af-11ea-baac-df9dd83b6b4c
bb1340e0-51af-11ea-ad8d-33f071729098,bb1ea0d4-51af-11ea-917e-f3f625c4aa5f
baf1e972-51af-11ea-ab3a-1f61dd264e8a,bb1eb326-51af-11ea-8973-030094c6169e
baf909d2-51af-11ea-9fb0-1fffd763b227,bb1edf4a-51af-11ea-b23f-cf6eab0772e8
bb05e18e-51af-11ea-9791-43c1f0f71a9d,bb1f268a-51af-11ea-9c86-6b2c3c24f468
baf4b6c0-51af-11ea-a44b-67a1ad80fa71,bb1f34ea-51af-11ea-805a-2719d14b0641
bb0cd49e-51af-11ea-8b21-57bdb31fe3ec,bb1f5e52-51af-11ea-83ed-0b5297163550
bb03bef4-51af-11ea-bc98-679703bebc03,bb1f6c12-51af-11ea-a6af-57e3d342f331
bb0cd49e-51af-11ea-8b21-57bdb31fe3ec,bb1fafb0-51af-11ea-b40e-df38c9a37e49
bafa0490-51af-11ea-958c-b7d190122407,bb1fe214-51af-11ea-af98-fbcd2f0530c8
bb0b3148-51af-11ea-80da-e7f9c28da481,bb1ff056-51af-11ea-92df-bbbe75f5276c
baf5ad96-51af-11ea-bb18-0b7d565ddaf1,bb201f68-51af-11ea-84be-876e56a22e60
baff9464-51af-11ea-b1d4-13a467ad775a,bb2060cc-51af-11ea-a2e5-1ba795c8aaa6
bb135274-51af-11ea-bba8-eb1fbcbe0763,bb20717a-51af-11ea-be61-d32891bc6a8a
bb13e914-51af-11ea-8f9e-bbdcc5b1b96d,bb20960a-51af-11ea-8b26-9301e742eea9
bafb148e-51af-11ea-a0a3-0b1ad1ee5a9e,bb20db6a-51af-11ea-b142-6b8164cd413c
baf7d850-51af-11ea-ac6a-0f6477cec551,bb20ed6c-51af-11ea-82ae-e3e0894623b4
bb1702e8-51af-11ea-b392-2752fe29dc33,bb20feec-51af-11ea-a675-0fd82b6b17e9
bb1388f2-51af-11ea-bee0-03a0ac41e225,bb215d38-51af-11ea-b43d-dbc6f59124a8
baf75452-51af-11ea-b2fb-6f241f32acbd,bb2170ac-51af-11ea-996c-bb9135bb7ea9
bafddffc-51af-11ea-b5b3-9f31d03a115b,bb219582-51af-11ea-99cb-8f83c6c2a3f9
baf7d850-51af-11ea-ac6a-0f6477cec551,bb21b968-51af-11ea-ad3e-5bb53b5590a9
bb16baf4-51af-11ea-bc10-3f86f5ac5330,bb21cc8c-51af-11ea-9d04-8beaf1190520
bb137718-51af-11ea-9f06-474c2a0e820b,bb21e1b8-51af-11ea-aa5e-6310b6142f49
bb10e89a-51af-11ea-8bb8-0be19c30b4ec,bb222dbc-51af-11ea-9bf4-e36955676f48
baf5ad96-51af-11ea-bb18-0b7d565ddaf1,bb223c3a-51af-11ea-a235-a32783f3c8af
bb0f55a2-51af-11ea-a0d1-cfbbf0c983cf,bb224f72-51af-11ea-b61e-2fb2b60aacff
bb0e1714-51af-11ea-a89e-0bd7b6af9001,bb2282b2-51af-11ea-90e0-f3800cdcc70a
bb046192-51af-11ea-9602-07137daee498,bb22a210-51af-11ea-9ffb-bb40df2363e0
bb00d176-51af-11ea-89b8-8f915c63ad12,bb22c204-51af-11ea-8c7b-6b053035e4f3
bb20ed6c-51af-11ea-82ae-e3e0894623b4,bb22d172-51af-11ea-b2de-93d6a8f03d32
bb1af8a8-51af-11ea-8b75-bf0d29345363,bb232564-51af-11ea-b604-a39865a34524
bb18abac-51af-11ea-b50f-3b4aea9276bd,bb233f90-51af-11ea-83f0-2b685b22b801
bb1a2f68-51af-11ea-8073-2bc9f319d3b3,bb2374ce-51af-11ea-a606-43030b884c0d
bb1cfaae-51af-11ea-9880-1ff51b744351,bb2396c0-51af-11ea-9475-cb78bbd67d5e
bb046f98-51af-11ea-8dbe-33ead2739110,bb23afde-51af-11ea-bd39-170037399252
bb08117a-51af-11ea-8f4f-a7a025122b3c,bb23f3ea-51af-11ea-a529-67bde4565108
bb17e564-51af-11ea-95e2-efbe035f4c3a,bb240c86-51af-11ea-abfd-cb3336b18fab
bafaf8f0-51af-11ea-8e2a-d33c8694d250,bb24289c-51af-11ea-9e83-13e9e9d0dd05
bb0f74ec-51af-11ea-a559-63b01b146ecb,bb243832-51af-11ea-815a-075d8592033e
bb0ba060-51af-11ea-8668-177d23a539ba,bb24bb72-51af-11ea-afec-d338d9cbc46d
bb053c48-51af-11ea-bc97-6f4c2786d615,bb24e4b2-51af-11ea-b9ad-fbd8901ec432
bb1340e0-51af-11ea-ad8d-33f071729098,bb24f7ea-51af-11ea-afba-939c6f3d3aa8
bafcf1b4-51af-11ea-adc8-e344195e92b6,bb252a62-51af-11ea-9f1f-83d610f68310
bb0ebb60-51af-11ea-9e39-b36e43d7d37d,bb2570e4-51af-11ea-9ca3-d3521e4b348a
bb1f268a-51af-11ea-9c86-6b2c3c24f468,bb25a582-51af-11ea-bc32-b3a0bab3979e
baf6043a-51af-11ea-ab1f-630ecd176204,bb25e510-51af-11ea-93e1-af7fea4bd1a5
bb1d969e-51af-11ea-b546-3f335c3abe44,bb25f78a-51af-11ea-a73a-af5943155c61
bb1ba4a6-51af-11ea-9c33-bf3022e93811,bb264de8-51af-11ea-8b57-dfa4aee919cb
bafd058c-51af-11ea-9e48-2f8d2345a810,bb267728-51af-11ea-bb92-0fbab9e7b0c6
bb21cc8c-51af-11ea-9d04-8beaf1190520,bb26992e-51af-11ea-8b48-5fa4a88b667f
bb033704-51af-11ea-9559-a78a1f120b3b,bb26da4c-51af-11ea-88d0-f37e8e172ab7
bb114a38-51af-11ea-ad47-b30bb11f1bba,bb274694-51af-11ea-90e8-6f21d0c8e514
bb0b22ca-51af-11ea-8a0a-7393d77d82da,bb275648-51af-11ea-9194-834c0b0db3d3
bb131200-51af-11ea-8e7e-93ad47b6765e,bb2770e2-51af-11ea-9c76-439746c42f1d
bafd47a4-51af-11ea-93c7-9bc9a631db15,bb278a64-51af-11ea-b768-c345ba06daef
bb1d969e-51af-11ea-b546-3f335c3abe44,bb27f184-51af-11ea-a703-e32e6311f2e3
bb14b25e-51af-11ea-bcbe-b3993c9b09cd,bb28011a-51af-11ea-9aa6-0f8ee877cc96
bb20960a-51af-11ea-8b26-9301e742eea9,bb28101a-51af-11ea-8cd4-e3334744fce0
bb0659e8-51af-11ea-9785-47b2eb18031a,bb285426-51af-11ea-9f57-97604e23cf6d
bb05877a-51af-11ea-bde5-4b6355b289b7,bb2863e4-51af-11ea-890f-7b0582541b95
baf67866-51af-11ea-be94-0303e8b4a134,bb28b470-51af-11ea-b887-2f2b28c83d5c
bb131200-51af-11ea-8e7e-93ad47b6765e,bb28c2a8-51af-11ea-b6ee-7f5e886c080a
baf7d850-51af-11ea-ac6a-0f6477cec551,bb28d554-51af-11ea-80d5-431b758a82e1
bb233f90-51af-11ea-83f0-2b685b22b801,bb2919f6-51af-11ea-a508-c7ee9b624b9b
bb06f6c8-51af-11ea-8c28-f3255b252cf1,bb2938f0-51af-11ea-9111-57b3d1e5b613
bb1a2f68-51af-11ea-8073-2bc9f319d3b3,bb297220-51af-11ea-bdf3-5f152f48a276
baf909d2-51af-11ea-9fb0-1fffd763b227,bb29dd46-51af-11ea-ad9b-4b407783b69a
bb28101a-51af-11ea-8cd4-e3334744fce0,bb29f6d2-51af-11ea-b210-6bbe31424674
bafcc8ce-51af-11ea-8ad8-bbc7ef8dc745,bb2a1568-51af-11ea-8847-97bbace916cf
bb0b22ca-51af-11ea-8a0a-7393d77d82da,bb2a6338-51af-11ea-b108-bfbba3f9fb8f
bb1f34ea-51af-11ea-805a-2719d14b0641,bb2a7d3c-51af-11ea-9d6d-132c9817bfb3
bafc2e28-51af-11ea-b488-4b8abb76b724,bb2aa6cc-51af-11ea-9629-6718f59132e8
bb1fe214-51af-11ea-af98-fbcd2f0530c8,bb2ae7d6-51af-11ea-9531-1f2ffe7024a8
bb0a6268-51af-11ea-b972-93018b2a3142,bb2af942-51af-11ea-8488-17bd5ebc2d11
baf31ff4-51af-11ea-bb36-4f25e0f4582a,bb2b1ada-51af-11ea-9eb8-9bd7b7584da6
bb2060cc-51af-11ea-a2e5-1ba795c8aaa6,bb2b2b88-51af-11ea-a6e7-cf9281e9b527
baf7d850-51af-11ea-ac6a-0f6477cec551,bb2b5c2a-51af-11ea-9128-83324736e2a2
bb022058-51af-11ea-8a55-fbf868509827,bb2b7188-51af-11ea-81ac-03454a396c90
bb1fafb0-51af-11ea-b40e-df38c9a37e49,bb2b914a-51af-11ea-bf3f-d3298e6a413c
bb13e914-51af-11ea-8f9e-bbdcc5b1b96d,bb2be91a-51af-11ea-a0ae-bbd44a4df7df
bb1fe214-51af-11ea-af98-fbcd2f0530c8,bb2c2970-51af-11ea-a192-bb4b2fb7a8a7
bb09bf3e-51af-11ea-8d6a-4bb71c102bef,bb2c5f62-51af-11ea-9ae1-0f2ca348d56a
baf67866-51af-11ea-be94-0303e8b4a134,bb2c862c-51af-11ea-a1db-9f5879729107
bb0a9af8-51af-11ea-8de4-f3f418fbebe3,bb2cb5ac-51af-11ea-b415-e3743547e1e6
bafd74fe-51af-11ea-9773-5b8ab5770a93,bb2cd74e-51af-11ea-a5da-0b54c4e2418e
bafeaf2c-51af-11ea-87cc-7fa0dccc0e41,bb2d2906-51af-11ea-b6d9-07f2991a6307
bb0e306e-51af-11ea-b66e-2b825951a26e,bb2d3b76-51af-11ea-a982-1ba905e9d7fc
bb2c5f62-51af-11ea-9ae1-0f2ca348d56a,bb2d49c2-51af-11ea-a3dd-9b531c859044
baf39cf4-51af-11ea-840b-83015265095c,bb2d58c2-51af-11ea-a44a-436899fed285
bafbd9aa-51af-11ea-a662-9bd26ffd9c24,bb2dcd5c-51af-11ea-b9c2-d30183c7f058
bb2c5f62-51af-11ea-9ae1-0f2ca348d56a,bb2de5d0-51af-11ea-a642-1fe394ec922b
bb0ecb00-51af-11ea-b077-53f9da831601,bb2dfe26-51af-11ea-b7ac-6f50a26f7d42
bafddffc-51af-11ea-b5b3-9f31d03a115b,bb2e0db2-51af-11ea-a527-3fdfc18794ac
baf9c296-51af-11ea-8858-dfab128436f3,bb2e593e-51af-11ea-8452-1323e3a5d025
bb14251e-51af-11ea-bc3a-9fd2c2973503,bb2e70ae-51af-11ea-8ade-2f2ff4b2de36
bb0306c6-51af-11ea-9160-9bba1ff02850,bb2ea254-51af-11ea-aabc-df5c6d0e86a3
bb1e2e74-51af-11ea-a5c0-eb82df6a49a9,bb2ecf0e-51af-11ea-abf8-e7be7464bc83
bb111e5a-51af-11ea-bb70-87d592ecb415,bb2ee174-51af-11ea-a189-27f088d41543
bb01034e-51af-11ea-9b33-efb2d2525c84,bb2f0fe6-51af-11ea-a8ec-bf93d6f5555d
bb1de892-51af-11ea-8faf-ef2c2305f030,bb2fb838-51af-11ea-8a03-4f5323268535
bafd058c-51af-11ea-9e48-2f8d2345a810,bb2fe92a-51af-11ea-90f8-3b76a222580b
bb0feeb8-51af-11ea-b793-a733835ae0df,bb3004b4-51af-11ea-beb4-87f728dba3f7
bb1702e8-51af-11ea-b392-2752fe29dc33,bb302f98-51af-11ea-89b0-3b74eb31e827
bb26992e-51af-11ea-8b48-5fa4a88b667f,bb30ca7a-51af-11ea-84f1-0b76e3a41a06
bb232564-51af-11ea-b604-a39865a34524,bb30fdce-51af-11ea-8ca1-f37c2a5dc77a
bafac272-51af-11ea-8acf-4ffdcd690308,bb310e90-51af-11ea-ae5d-9fbe430d214e
bb0b11cc-51af-11ea-8ce4-af817483c4d7,bb311fde-51af-11ea-826f-5f19210ddb38
bb12c0fc-51af-11ea-b684-43495b0243fa,bb31afd0-51af-11ea-a435-6ba1eac4d5b6
bb1ea0d4-51af-11ea-917e-f3f625c4aa5f,bb31c47a-51af-11ea-874d-13cacae31d6d
bb1c2246-51af-11ea-8913-b7966c64f72f,bb31d56e-51af-11ea-8356-27d95a8a4386
bb137718-51af-11ea-9f06-474c2a0e820b,bb31e5ea-51af-11ea-8122-eb74dd521ae7
bb0a313a-51af-11ea-a0b0-4fcf9b6347c0,bb3251e2-51af-11ea-8549-0fbb7742f3c8
bb2396c0-51af-11ea-9475-cb78bbd67d5e,bb32744c-51af-11ea-ab4f-73f89a2be2f9
bb31d56e-51af-11ea-8356-27d95a8a4386,bb3290b2-51af-11ea-a537-9b6fb010e334
bb078b88-51af-11ea-92a4-476c3eb5c8f2,bb32aa02-51af-11ea-9cf0-6b525b362075
bb1388f2-51af-11ea-bee0-03a0ac41e225,bb32d81a-51af-11ea-81f9-2b2a47985edb
bb02d1ba-51af-11ea-9bea-f3e9a5071dcf,bb333738-51af-11ea-8fbc-efd5e7359b10
bb2a7d3c-51af-11ea-9d6d-132c9817bfb3,bb334b06-51af-11ea-bc59-3759cb14069a
bb14d8c4-51af-11ea-967e-935d46c8fcfb,bb33600a-51af-11ea-8434-9342b36332e3
bb19f624-51af-11ea-832b-6b12bcfb5079,bb33d864-51af-11ea-a18d-8fbd7cbabfe3
bb1388f2-51af-11ea-bee0-03a0ac41e225,bb33ece6-51af-11ea-87a1-23a1db019d62
bb0851da-51af-11ea-a9b3-3775fea704dc,bb33fdda-51af-11ea-8eb1-6b4d4588cc06
bb0af912-51af-11ea-a48e-9bffb7d927ca,bb3413a6-51af-11ea-8505-fb1ad8bc9715
baf1e972-51af-11ea-ab3a-1f61dd264e8a,bb345564-51af-11ea-9733-1fe368c9280d
bb2ea254-51af-11ea-aabc-df5c6d0e86a3,bb3468b0-51af-11ea-aae9-074c3eda71bb
bafae8f6-51af-11ea-9ef7-3fcd3f0eb126,bb34ba18-51af-11ea-a0ae-2bdf4addbd6f
bafae8f6-51af-11ea-9ef7-3fcd3f0eb126,bb34ce90-51af-11ea-aea8-8fb98018dd4e
bb14251e-51af-11ea-bc3a-9fd2c2973503,bb34dec6-51af-11ea-bc14-3b32b85196a7
bb22c204-51af-11ea-8c7b-6b053035e4f3,bb353c4a-51af-11ea-bbe1-4ba84b2178cb
baf8ac44-51af-11ea-adf2-8b6743c2e147,bb354bd6-51af-11ea-b0b4-17a84e4e32d8
bb16baf4-51af-11ea-bc10-3f86f5ac5330,bb359320-51af-11ea-b449-a33d9d902563
bb1d969e-51af-11ea-b546-3f335c3abe44,bb35a2d4-51af-11ea-bafb-ab6d60617a42
bb1fafb0-51af-11ea-b40e-df38c9a37e49,bb35c73c-51af-11ea-9093-5bdabe34688d
bb05e18e-51af-11ea-9791-43c1f0f71a9d,bb35e1fe-51af-11ea-b6d6-43085f45d925
bb1cdb00-51af-11ea-8518-77d9f6129272,bb361340-51af-11ea-b0ac-aff9d1c2598e
bb119b78-51af-11ea-92b8-b7ac65c24a75,bb36671e-51af-11ea-9111-4b1d6ca894f0
bafb148e-51af-11ea-a0a3-0b1ad1ee5a9e,bb36878a-51af-11ea-a210-c7b6703a92e0
bb3251e2-51af-11ea-8549-0fbb7742f3c8,bb3697fc-51af-11ea-9121-ef7bc617b9ff
bb30fdce-51af-11ea-8ca1-f37c2a5dc77a,bb36a742-51af-11ea-9fb4-3360364170d4
bb13fb7a-51af-11ea-867e-237a6abe5173,bb36fe5e-51af-11ea-8964-9b504c321063
baf618bc-51af-11ea-bdbf-732f0319db32,bb37172c-51af-11ea-b97f-634f8305ed48
bb20ed6c-51af-11ea-82ae-e3e0894623b4,bb374e18-51af-11ea-b863-17f6f35b0757
bb1d969e-51af-11ea-b546-3f335c3abe44,bb376056-51af-11ea-bcc5-8b616c81f5a2
baff6aca-51af-11ea-9269-7b19c42bee9e,bb378e28-51af-11ea-9c47-4b5506ce9cd0
bb1b465a-51af-11ea-8817-9fe6e7f985e3,bb37e378-51af-11ea-a64f-631a6a93b3f1
bb3697fc-51af-11ea-9121-ef7bc617b9ff,bb37f48a-51af-11ea-b2d1-0391a177c648
baf7bb2c-51af-11ea-b966-436d7864111d,bb38133e-51af-11ea-ad8e-03a381d8e8a5
bb1027ca-51af-11ea-93d0-5f304b76403f,bb384cd2-51af-11ea-90e4-9f0e33c6f456
bb12d358-51af-11ea-8404-6fc1d9fefdb9,bb3876f8-51af-11ea-9176-174b658fe236
bafd058c-51af-11ea-9e48-2f8d2345a810,bb388cc4-51af-11ea-856d-ab3838a8ac88
bb156c9e-51af-11ea-9a0f-d3493e6b85f2,bb38ec8c-51af-11ea-9f64-67be6ad2e8d6
bb09e1a8-51af-11ea-bfdf-272afc955b72,bb390a64-51af-11ea-aee7-e73fc652b335
bb16baf4-51af-11ea-bc10-3f86f5ac5330,bb3934da-51af-11ea-af74-830762af4246
bb02c1b6-51af-11ea-a30d-23e7efd7c9bd,bb39549c-51af-11ea-86fb-ef787d6be79b
bb1f34ea-51af-11ea-805a-2719d14b0641,bb399290-51af-11ea-b407-332da17a9cb3
bb23afde-51af-11ea-bd39-170037399252,bb39e966-51af-11ea-8dc1-232c08972120
bb177066-51af-11ea-bf8f-17c0232f265c,bb39f92e-51af-11ea-8814-63fca327d7ca
bb278a64-51af-11ea-b768-c345ba06daef,bb3a070c-51af-11ea-8ed2-63185c387390
baf909d2-51af-11ea-9fb0-1fffd763b227,bb3a14a4-51af-11ea-98b9-0f2bfd545957
bb33ece6-51af-11ea-87a1-23a1db019d62,bb3a81f0-51af-11ea-a6a3-e3489c1e12e6
baf8c580-51af-11ea-b2d1-13dfaafd662f,bb3a9e38-51af-11ea-a145-a3d0aaf1605b
bafcc8ce-51af-11ea-8ad8-bbc7ef8dc745,bb3ab8f0-51af-11ea-9090-93c0e18b0671
bb1904c6-51af-11ea-ba4e-9f9d6b70de8c,bb3acfc0-51af-11ea-a9f7-6f92b83f421c
bb107770-51af-11ea-b9c6-cbf83a857e86,bb3b56fc-51af-11ea-956d-9ff9bfc71744
bb0f3720-51af-11ea-9916-136b26c80d29,bb3b4590-51af-11ea-b8bd-ff6f7bf7a6ef
bb3413a6-51af-11ea-8505-fb1ad8bc9715,bb3b68a4-51af-11ea-9284-23488a2db6ab
bb20717a-51af-11ea-be61-d32891bc6a8a,bb3b8956-51af-11ea-b6bb-cffa884ed009
bb37e378-51af-11ea-a64f-631a6a93b3f1,bb3bf3d2-51af-11ea-a61a-93e7c6f53db7
bb232564-51af-11ea-b604-a39865a34524,bb3c13a8-51af-11ea-ad9b-2ff387d5338f
bb14b25e-51af-11ea-bcbe-b3993c9b09cd,bb3c2b54-51af-11ea-aeb5-0f34a529d6be
bafbd9aa-51af-11ea-a662-9bd26ffd9c24,bb3c631c-51af-11ea-abda-dbb43c56ae82
bb137718-51af-11ea-9f06-474c2a0e820b,bb3c8108-51af-11ea-83ba-979afc7d5742
bb25f78a-51af-11ea-a73a-af5943155c61,bb3cbf2e-51af-11ea-a8c6-ab3df5119af9
bb353c4a-51af-11ea-bbe1-4ba84b2178cb,bb3ce0a8-51af-11ea-93f2-7fd4640f8b65
bb19f624-51af-11ea-832b-6b12bcfb5079,bb3d2360-51af-11ea-9183-37936953b4e2
bb131200-51af-11ea-8e7e-93ad47b6765e,bb3d3274-51af-11ea-97cc-53027db6b20a
bb26da4c-51af-11ea-88d0-f37e8e172ab7,bb3db1e0-51af-11ea-8323-1fb179feed47
bb2c862c-51af-11ea-a1db-9f5879729107,bb3dc69e-51af-11ea-a27a-a72c2fbc4dc9
bb17f392-51af-11ea-9b20-ebfb36c98096,bb3dd684-51af-11ea-b53b-0f993e126eb8
bb08b012-51af-11ea-a62b-8bd812c5296b,bb3de80e-51af-11ea-8b0d-df52683b6cc8
bb121b2a-51af-11ea-ba44-7b319d6c934f,bb3e4c22-51af-11ea-b5b0-1b6f4f1c9279
bb097664-51af-11ea-85a3-37eb6a15fb2f,bb3e6c52-51af-11ea-9642-e332f58355dd
bb20ed6c-51af-11ea-82ae-e3e0894623b4,bb3e80de-51af-11ea-a70e-8305046147ee
bb333738-51af-11ea-8fbc-efd5e7359b10,bb3ea956-51af-11ea-a7f4-1f41e9e0e932
bb084460-51af-11ea-8460-abc8ff94aba8,bb3f1d82-51af-11ea-b8e5-d753417dd755
bb31e5ea-51af-11ea-8122-eb74dd521ae7,bb3f3164-51af-11ea-9cba-1bf99fb0b70b
bb0a71c2-51af-11ea-9166-532c90b5e0ad,bb3f43b6-51af-11ea-9629-df9e2402aaba
bb0956f2-51af-11ea-b40b-ff0766959ad5,bb3f50ea-51af-11ea-978f-13d31bc283a5
bafcc8ce-51af-11ea-8ad8-bbc7ef8dc745,bb3fa306-51af-11ea-b754-4b02b523182c
bb051bbe-51af-11ea-bdff-7fcdc1d47dbd,bb3fd0ec-51af-11ea-967a-93a60eeb5156
baf9a888-51af-11ea-a5ae-7f75f3ed5c57,bb403320-51af-11ea-a68b-df128cf9f7a0
bb111e5a-51af-11ea-bb70-87d592ecb415,bb40427a-51af-11ea-8172-2324a526e41c
bb0d98ac-51af-11ea-9840-2b3a64cff8f9,bb40536e-51af-11ea-bf2d-7fab2251bca7
baf9c296-51af-11ea-8858-dfab128436f3,bb406ae8-51af-11ea-8be5-139cd07db534
bb219582-51af-11ea-99cb-8f83c6c2a3f9,bb40c9e8-51af-11ea-acd3-f7da7c9b367d
bb0a6268-51af-11ea-b972-93018b2a3142,bb40d866-51af-11ea-99fe-a7a6a99ccc6e
bb3876f8-51af-11ea-9176-174b658fe236,bb40e676-51af-11ea-8d75-afeb7d363647
bb2a7d3c-51af-11ea-9d6d-132c9817bfb3,bb414436-51af-11ea-ae2b-0f2210259cba
bafddffc-51af-11ea-b5b3-9f31d03a115b,bb41549e-51af-11ea-98ad-270fc88c2362
bb1810ac-51af-11ea-8014-373b6ebb4b00,bb418810-51af-11ea-b444-c3a130aea713
bafae8f6-51af-11ea-9ef7-3fcd3f0eb126,bb41a1ce-51af-11ea-80e8-534c3e593044
bb13e914-51af-11ea-8f9e-bbdcc5b1b96d,bb41fdc2-51af-11ea-919a-9ba5cd68dabb
bb2ecf0e-51af-11ea-abf8-e7be7464bc83,bb420bb4-51af-11ea-9ab4-779a3e7f63e7
bb02f7a8-51af-11ea-9aa3-e3a09cb3cddd,bb424106-51af-11ea-bbbf-9ff36b88d53a
bb3fa306-51af-11ea-b754-4b02b523182c,bb424ef8-51af-11ea-82d5-ef31b47addfb
bb2e70ae-51af-11ea-8ade-2f2ff4b2de36,bb426da2-51af-11ea-9ba1-f33765d29fcb
bb2282b2-51af-11ea-90e0-f3800cdcc70a,bb42ce46-51af-11ea-9cf5-afc179925dce
bb1dfec2-51af-11ea-a6d6-731a01cc4cb0,bb42e4e4-51af-11ea-bdbc-836b0d199582
bb403320-51af-11ea-a68b-df128cf9f7a0,bb42f420-51af-11ea-9953-67bf3c1b4d9c
bb37172c-51af-11ea-b97f-634f8305ed48,bb430302-51af-11ea-9e61-93051652cd23
bb17e564-51af-11ea-95e2-efbe035f4c3a,bb4362de-51af-11ea-9c17-e3ee8214a06f
bb06b096-51af-11ea-af46-df62faa14ffd,bb4372d8-51af-11ea-aa78-0bc25121ffd0
bb119b78-51af-11ea-92b8-b7ac65c24a75,bb4383f4-51af-11ea-962f-8fb5ddbb96cc
bb02c1b6-51af-11ea-a30d-23e7efd7c9bd,bb43c60c-51af-11ea-beae-8f375c317e92
bb23f3ea-51af-11ea-a529-67bde4565108,bb43ea2e-51af-11ea-aab7-a77c4ef56319
bb2e0db2-51af-11ea-a527-3fdfc18794ac,bb4418e6-51af-11ea-8c59-6b7fd50c93fd
bb302f98-51af-11ea-89b0-3b74eb31e827,bb443506-51af-11ea-991c-f7515c671449
bb16726a-51af-11ea-8c8b-ef0da79cea48,bb444384-51af-11ea-8a08-3f52868eef63
bb09f1a2-51af-11ea-9a47-5fbfa0e88d94,bb4469ae-51af-11ea-9679-5b2e3def6b35
bb264de8-51af-11ea-8b57-dfa4aee919cb,bb44c5c0-51af-11ea-bc21-f3871d24ed8b
bb403320-51af-11ea-a68b-df128cf9f7a0,bb44dcf4-51af-11ea-91e0-2f7777e9bc01
bb17f392-51af-11ea-9b20-ebfb36c98096,bb451db8-51af-11ea-8147-d7a60815ff34
bb02c1b6-51af-11ea-a30d-23e7efd7c9bd,bb452c5e-51af-11ea-b729-570f1f5c6cce
bb06f6c8-51af-11ea-8c28-f3255b252cf1,bb454892-51af-11ea-9914-43ba4f02449d
bb1e2e74-51af-11ea-a5c0-eb82df6a49a9,bb4589c4-51af-11ea-8f3a-3fa44967c0f2
bafbd9aa-51af-11ea-a662-9bd26ffd9c24,bb45b638-51af-11ea-ac5f-63debe24955b
bb3e4c22-51af-11ea-b5b0-1b6f4f1c9279,bb45e8a6-51af-11ea-8a0f-a769b30f893c
bb278a64-51af-11ea-b768-c345ba06daef,bb460d9a-51af-11ea-bcb9-2f79b33edd14
bb37f48a-51af-11ea-b2d1-0391a177c648,bb465570-51af-11ea-9656-ff87ee331b06
baf9c296-51af-11ea-8858-dfab128436f3,bb468144-51af-11ea-afe2-1b665f2c7325
bb0f3720-51af-11ea-9916-136b26c80d29,bb469314-51af-11ea-84cd-af5f19247b38
bb24bb72-51af-11ea-afec-d338d9cbc46d,bb46da7c-51af-11ea-a5a1-072b7d845512
bb06d788-51af-11ea-a44c-3bbc384c756b,bb470704-51af-11ea-be58-cf1f14f405ae
bb31d56e-51af-11ea-8356-27d95a8a4386,bb47180c-51af-11ea-9e82-bb224f2fa1bf
bb2e70ae-51af-11ea-8ade-2f2ff4b2de36,bb4775a4-51af-11ea-a989-5b1ca40207d4
bb2c5f62-51af-11ea-9ae1-0f2ca348d56a,bb479cbe-51af-11ea-8edf-b701a105d4b8
bb1a83fa-51af-11ea-a39e-5fa9a1989ab8,bb4787d8-51af-11ea-a43a-830cd4d66dd4
bb0c6676-51af-11ea-8fb5-77a7e0acf950,bb4808ac-51af-11ea-bc04-5b2a79c275e9
baf50ba2-51af-11ea-9b6c-57373fa8703e,bb481c98-51af-11ea-aa0a-9b8cce6b4cd9
bb2e0db2-51af-11ea-a527-3fdfc18794ac,bb484376-51af-11ea-8e89-b3a639b4e725
bb0558fe-51af-11ea-a99a-8b1820e1742a,bb4867b6-51af-11ea-845f-b3166bac829f
bb34dec6-51af-11ea-bc14-3b32b85196a7,bb489dee-51af-11ea-97ff-5b2494232b22
bb3468b0-51af-11ea-aae9-074c3eda71bb,bb48ae56-51af-11ea-84f5-a378b13790de
baf67866-51af-11ea-be94-0303e8b4a134,bb4900fe-51af-11ea-b1fe-370944c5c3c6
bb188e6a-51af-11ea-8264-8b6a44403a9a,bb49357e-51af-11ea-9ad4-77b6c34dcfec
bb15548e-51af-11ea-aeb1-df3f08b63757,bb4946a4-51af-11ea-823f-8b98ae225f92
bb345564-51af-11ea-9733-1fe368c9280d,bb497c64-51af-11ea-a244-e7ef99bf2d19
bb43ea2e-51af-11ea-aab7-a77c4ef56319,bb499208-51af-11ea-afd3-c73243d55f43
bb28b470-51af-11ea-b887-2f2b28c83d5c,bb49c70a-51af-11ea-ac21-cb8a23dd9732
bb3b68a4-51af-11ea-9284-23488a2db6ab,bb49dfd8-51af-11ea-b122-9b6a7dd0d81e
bb34ba18-51af-11ea-a0ae-2bdf4addbd6f,bb49eeec-51af-11ea-a042-67d42d21bfa5
bb22a210-51af-11ea-9ffb-bb40df2363e0,bb4a2d62-51af-11ea-9b0b-af0f85c6db16
bb3f43b6-51af-11ea-9629-df9e2402aaba,bb4a745c-51af-11ea-afaf-8f61a7ce12a3
bb2374ce-51af-11ea-a606-43030b884c0d,bb4a961c-51af-11ea-a450-238ed8863990
bb285426-51af-11ea-9f57-97604e23cf6d,bb4a87f8-51af-11ea-bdc8-3f18ed467edf
bb43ea2e-51af-11ea-aab7-a77c4ef56319,bb4aa436-51af-11ea-8f43-8f7a2a5dcc4c
bb46da7c-51af-11ea-a5a1-072b7d845512,bb4ae45a-51af-11ea-b188-77a98dcbafb6
bb388cc4-51af-11ea-856d-ab3838a8ac88,bb4afe86-51af-11ea-a968-e3fce44c0c85
bb3290b2-51af-11ea-a537-9b6fb010e334,bb4b11c8-51af-11ea-a308-978373780e4b
bb420bb4-51af-11ea-9ab4-779a3e7f63e7,bb4b6326-51af-11ea-8ca8-2beffa238876
bb0f3720-51af-11ea-9916-136b26c80d29,bb4bb1dc-51af-11ea-9c2b-53b57bf27380
bb499208-51af-11ea-afd3-c73243d55f43,bb4bd5e0-51af-11ea-8eb2-bb5049c6d3e8
bb4867b6-51af-11ea-845f-b3166bac829f,bb4be594-51af-11ea-b2c6-1bf3627610af
bb1653f2-51af-11ea-b37f-c7b09cc1376f,bb4c200e-51af-11ea-a866-37b73d013f37
bb09e1a8-51af-11ea-bfdf-272afc955b72,bb4c2e3c-51af-11ea-895d-3b42fdc4981b
bb090a12-51af-11ea-8209-23f67d941d6a,bb4c6e92-51af-11ea-a6e6-7b0eeb63bc5c
bb119b78-51af-11ea-92b8-b7ac65c24a75,bb4c8026-51af-11ea-85ca-a356096e499c
bb1810ac-51af-11ea-8014-373b6ebb4b00,bb4cdd32-51af-11ea-a501-6bde0536ad62
baf7bb2c-51af-11ea-b966-436d7864111d,bb4cf07e-51af-11ea-be08-a3d986ebef2c
bb3f1d82-51af-11ea-b8e5-d753417dd755,bb4cfc2c-51af-11ea-95e4-bbbb3f841457
bb2c862c-51af-11ea-a1db-9f5879729107,bb4d346c-51af-11ea-a03b-0f57df52a185
bb10b348-51af-11ea-9228-ffb9956cdaad,bb4d5334-51af-11ea-9b21-3b0616420b29
bb2863e4-51af-11ea-890f-7b0582541b95,bb4d9952-51af-11ea-bc9f-db1e5c81b7b1
bb3251e2-51af-11ea-8549-0fbb7742f3c8,bb4da7f8-51af-11ea-bb6d-9bce5ce482b0
bb1340e0-51af-11ea-ad8d-33f071729098,bb4e0db0-51af-11ea-b245-6fbfa75d6e41
bb15548e-51af-11ea-aeb1-df3f08b63757,bb4e311e-51af-11ea-99a4-374fc775ac0f
bb1d684a-51af-11ea-80ee-fbeae41cea28,bb4e4514-51af-11ea-98ea-c3b0f7c4e064
bb05e18e-51af-11ea-9791-43c1f0f71a9d,bb4e5298-51af-11ea-9a50-a75842f2cdac
bb2170ac-51af-11ea-996c-bb9135bb7ea9,bb4eaf04-51af-11ea-8111-6b1a36011bec
bb42e4e4-51af-11ea-bdbc-836b0d199582,bb4ec976-51af-11ea-8aa7-fbde3f3b452c
bb1dfec2-51af-11ea-a6d6-731a01cc4cb0,bb4ed830-51af-11ea-b9a6-eb06a4df58c4
bb3ce0a8-51af-11ea-93f2-7fd4640f8b65,bb4f3c26-51af-11ea-9ffa-13668fd8d20a
bb20db6a-51af-11ea-b142-6b8164cd413c,bb4f8816-51af-11ea-a94d-13f2fdbd4a7b
bb3f1d82-51af-11ea-b8e5-d753417dd755,bb4f96bc-51af-11ea-9bea-5b755cb97b84
bb45b638-51af-11ea-ac5f-63debe24955b,bb4fb32c-51af-11ea-a32e-6f7ee4cc969c
bb0c9d6c-51af-11ea-92e7-137bb11d9dc5,bb501538-51af-11ea-817e-2bcb0e157770
bb35c73c-51af-11ea-9093-5bdabe34688d,bb504c74-51af-11ea-87b4-17cc01239539
bb33600a-51af-11ea-8434-9342b36332e3,bb505ea8-51af-11ea-8af8-f3d58de46e75
bb4418e6-51af-11ea-8c59-6b7fd50c93fd,bb50b146-51af-11ea-b8fa-9bda6f4c3f77
bb4ec976-51af-11ea-8aa7-fbde3f3b452c,bb50e3f0-51af-11ea-b64d-77aea9f91074
bb2dcd5c-51af-11ea-b9c2-d30183c7f058,bb50f4f8-51af-11ea-bc72-db0fb6dbe266
bb30fdce-51af-11ea-8ca1-f37c2a5dc77a,bb5122ac-51af-11ea-8cb5-f365f867c90a
bafd058c-51af-11ea-9e48-2f8d2345a810,bb5164ec-51af-11ea-a29c-af50184f6bd3
bb06f6c8-51af-11ea-8c28-f3255b252cf1,bb51a9ca-51af-11ea-a23e-ef0b94b68eaf
bb2d58c2-51af-11ea-a44a-436899fed285,bb51baf0-51af-11ea-99e3-a3d2c91e06b4
bb0984f6-51af-11ea-b10d-c797f87f6e0d,bb520e74-51af-11ea-be85-1bdee9949f27
bb2b2b88-51af-11ea-a6e7-cf9281e9b527,bb522116-51af-11ea-91fd-7f0b8c6a5bfc
bb4b11c8-51af-11ea-a308-978373780e4b,bb527440-51af-11ea-b555-c7a8bbd6fdb7
bb4be594-51af-11ea-b2c6-1bf3627610af,bb526342-51af-11ea-b6be-3b54ed745ed0
bb3ce0a8-51af-11ea-93f2-7fd4640f8b65,bb52f582-51af-11ea-9115-5b472c4e3a92
bb3d2360-51af-11ea-9183-37936953b4e2,bb5305b8-51af-11ea-b957-f7ab5a0123e4
bb0e8fbe-51af-11ea-8f49-17fc7613aa03,bb5314ea-51af-11ea-863b-d3fd98de2821
bb060862-51af-11ea-b7f1-4712d19d7b87,bb53271e-51af-11ea-aeaf-4fe52fafb829
baf6df5e-51af-11ea-8623-c3164abd9d04,bb53c462-51af-11ea-b7ce-438e7390f9dd
bb0e077e-51af-11ea-9286-b3ad4a2760aa,bb53deac-51af-11ea-9ce3-d7e669431cc2
bb0f3720-51af-11ea-9916-136b26c80d29,bb53f2fc-51af-11ea-94a2-075d8e7a8ff4
bb5314ea-51af-11ea-863b-d3fd98de2821,bb540760-51af-11ea-a7af-1fd3fbe6d73f
bb38ec8c-51af-11ea-9f64-67be6ad2e8d6,bb54a03a-51af-11ea-90ba-dff0e8b112cf
bb2060cc-51af-11ea-a2e5-1ba795c8aaa6,bb54c6aa-51af-11ea-bb52-6f3131a59fa6
bb3e4c22-51af-11ea-b5b0-1b6f4f1c9279,bb54d50a-51af-11ea-a430-0f70f9122d5e
bb0b22ca-51af-11ea-8a0a-7393d77d82da,bb54e716-51af-11ea-9f18-6faa8603ec2f
bb173ae2-51af-11ea-b292-ff2e1ff80586,bb555ad4-51af-11ea-8364-9b85185101e8
bb37e378-51af-11ea-a64f-631a6a93b3f1,bb556934-51af-11ea-a931-63568fed7ddb
bb0956f2-51af-11ea-b40b-ff0766959ad5,bb55af2a-51af-11ea-a6c0-e787a0976213
bb4a2d62-51af-11ea-9b0b-af0f85c6db16,bb55c226-51af-11ea-ba29-fb72fd37be51
bb194f58-51af-11ea-97ce-c7aedbb45f96,bb55d504-51af-11ea-903a-1f0bc22ebd93
bb388cc4-51af-11ea-856d-ab3838a8ac88,bb55f264-51af-11ea-9bbe-132c68dc2488
bb0a313a-51af-11ea-a0b0-4fcf9b6347c0,bb565d8a-51af-11ea-8ef2-a322c14bd397
bafbd9aa-51af-11ea-a662-9bd26ffd9c24,bb5689a4-51af-11ea-80af-ab488962f447
bb0d068a-51af-11ea-b112-375d66abf8d8,bb569a8e-51af-11ea-b5fb-0375efd4d980
bb444384-51af-11ea-8a08-3f52868eef63,bb56a7f4-51af-11ea-8ddc-fb72786f339c
baf9d3e4-51af-11ea-b3d8-1fbf794a5c96,bb56fcfe-51af-11ea-9991-5fe5b8af4c40
bafddffc-51af-11ea-b5b3-9f31d03a115b,bb572d46-51af-11ea-8461-cfd415707ebb
bb3b8956-51af-11ea-b6bb-cffa884ed009,bb573a8e-51af-11ea-bdbe-377cf67f0fc4
bb3ea956-51af-11ea-a7f4-1f41e9e0e932,bb575208-51af-11ea-9fde-b7dc3fb2e0c2
bb154372-51af-11ea-adcf-138c34523659,bb579f42-51af-11ea-9077-3b5a347b0400
bb28b470-51af-11ea-b887-2f2b28c83d5c,bb57dde0-51af-11ea-aabe-c3724abaab93
bb1cea3c-51af-11ea-8a37-1313aa39a8da,bb57f9f6-51af-11ea-82ac-4f96b0bfcada
bb469314-51af-11ea-84cd-af5f19247b38,bb57ebdc-51af-11ea-bf79-4bfd5367c399
bb177066-51af-11ea-bf8f-17c0232f265c,bb580c16-51af-11ea-b2d9-dbd92cb0932c
bb033704-51af-11ea-9559-a78a1f120b3b,bb58644a-51af-11ea-b276-c32dae4523b3
bafb148e-51af-11ea-a0a3-0b1ad1ee5a9e,bb587318-51af-11ea-9569-5f800c8fe75e
bb2e70ae-51af-11ea-8ade-2f2ff4b2de36,bb5897bc-51af-11ea-bd9e-4fe79d421338
bb2de5d0-51af-11ea-a642-1fe394ec922b,bb58ebcc-51af-11ea-9856-f32d164a88f0
bb30ca7a-51af-11ea-84f1-0b76e3a41a06,bb58fc02-51af-11ea-bf82-93fc923cd88f
bb0851da-51af-11ea-a9b3-3775fea704dc,bb59143a-51af-11ea-bd9d-e7eb691ce623
bb37f48a-51af-11ea-b2d1-0391a177c648,bb593ffa-51af-11ea-8e86-337e7e24f430
bb0b22ca-51af-11ea-8a0a-7393d77d82da,bb596b10-51af-11ea-8ca6-bfcd1fd1fa2e
bb232564-51af-11ea-b604-a39865a34524,bb598776-51af-11ea-8da2-07d2edb44025
bb2de5d0-51af-11ea-a642-1fe394ec922b,bb59b05c-51af-11ea-aaf6-a7e630df6fe7
bb0bb208-51af-11ea-a938-c7af2d495228,bb5a1272-51af-11ea-ac8d-b7d4a15fe136
bb45e8a6-51af-11ea-8a0f-a769b30f893c,bb5a22f8-51af-11ea-af86-a38634e65f9e
bb55f264-51af-11ea-9bbe-132c68dc2488,bb5a4a26-51af-11ea-81a0-43519cf76db1
bb465570-51af-11ea-9656-ff87ee331b06,bb5a7ee2-51af-11ea-aef9-8be225229f6d
bb0ffce6-51af-11ea-8a67-8356387eb20b,bb5ab308-51af-11ea-bd43-af6ad4694ad3
bb156c9e-51af-11ea-9a0f-d3493e6b85f2,bb5affc0-51af-11ea-a90c-73550b6b7e99
bb3d2360-51af-11ea-9183-37936953b4e2,bb5b1dfc-51af-11ea-bb6d-3b061b4c0ca4
bb1bb5d6-51af-11ea-9250-7b592a898228,bb5b2c3e-51af-11ea-8d9d-9fa14522daba
bb09bf3e-51af-11ea-8d6a-4bb71c102bef,bb5b5d58-51af-11ea-a088-1b1fc20bb354
bb4469ae-51af-11ea-9679-5b2e3def6b35,bb5ba466-51af-11ea-82ef-5b5a7d51f7fd
bb278a64-51af-11ea-b768-c345ba06daef,bb5bd1f2-51af-11ea-9ceb-43e7798fae4a
bb060862-51af-11ea-b7f1-4712d19d7b87,bb5be5f2-51af-11ea-8c5b-3f7e2e33c26b
bb08eaa0-51af-11ea-ad2d-53c837c3d853,bb5bf47a-51af-11ea-8dc0-5fe722c88cf9
bb16726a-51af-11ea-8c8b-ef0da79cea48,bb5c46d2-51af-11ea-a4ae-ff2b95376584
bb0851da-51af-11ea-a9b3-3775fea704dc,bb5c587a-51af-11ea-8919-1f23796aa82c
bb3e4c22-51af-11ea-b5b0-1b6f4f1c9279,bb5c7756-51af-11ea-9f08-57da48df37d7
bb5b5d58-51af-11ea-a088-1b1fc20bb354,bb5cd7dc-51af-11ea-bc60-57c8cd6143b8
bb34ba18-51af-11ea-a0ae-2bdf4addbd6f,bb5cede4-51af-11ea-8c7c-c7915e0465ae
bb1de892-51af-11ea-8faf-ef2c2305f030,bb5d17ba-51af-11ea-be79-d75c82e3eddf
bb40c9e8-51af-11ea-acd3-f7da7c9b367d,bb5d3812-51af-11ea-b2e3-ef38a919adf8
bb0d068a-51af-11ea-b112-375d66abf8d8,bb5dba62-51af-11ea-ac47-efc090423e8e
bb18c808-51af-11ea-ac8d-1b9087f7dbc8,bb5dceda-51af-11ea-a7bf-9f1c458686dc
bb403320-51af-11ea-a68b-df128cf9f7a0,bb5e20c4-51af-11ea-a09a-6304eaf52e74
bb2cb5ac-51af-11ea-b415-e3743547e1e6,bb5e37a8-51af-11ea-b526-43fcef5e8aba
bb43c60c-51af-11ea-beae-8f375c317e92,bb5e47fc-51af-11ea-b789-67a07a10781a
bb44dcf4-51af-11ea-91e0-2f7777e9bc01,bb5e8c76-51af-11ea-9288-171243165541
bb3cbf2e-51af-11ea-a8c6-ab3df5119af9,bb5ed370-51af-11ea-8450-57f8533cca9b
bb022058-51af-11ea-8a55-fbf868509827,bb5ee4f0-51af-11ea-bf5d-772fded2d1f2
bb2ea254-51af-11ea-aabc-df5c6d0e86a3,bb5ef378-51af-11ea-a705-b3eb00ad99dc
bb17e564-51af-11ea-95e2-efbe035f4c3a,bb5f34e6-51af-11ea-80f3-03753eeba530
bb23afde-51af-11ea-bd39-170037399252,bb5f5cfa-51af-11ea-9a2b-3ff3cd4527a2
bb53deac-51af-11ea-9ce3-d7e669431cc2,bb5f7974-51af-11ea-aa43-8b973d133dbc
bb16baf4-51af-11ea-bc10-3f86f5ac5330,bb5fa976-51af-11ea-8d9f-0f8a769b254a
bb01eeb2-51af-11ea-a3dc-3f746bf29a2e,bb5fd57c-51af-11ea-ba63-477966fcdbeb
bb40e676-51af-11ea-8d75-afeb7d363647,bb5fef08-51af-11ea-a2ff-5f7ff66e0376
bb051bbe-51af-11ea-bdff-7fcdc1d47dbd,bb5ffc96-51af-11ea-8298-3b03eb81edb7
bb5b1dfc-51af-11ea-bb6d-3b061b4c0ca4,bb603e40-51af-11ea-9378-f334ac9ac926
baf9d3e4-51af-11ea-b3d8-1fbf794a5c96,bb606a82-51af-11ea-96c5-f35d8c0614df
bb489dee-51af-11ea-97ff-5b2494232b22,bb609700-51af-11ea-b40b-8fd955683dfe
bb54a03a-51af-11ea-90ba-dff0e8b112cf,bb60cd74-51af-11ea-9e0a-cf90d208b266
bb2a6338-51af-11ea-b108-bfbba3f9fb8f,bb60dbc0-51af-11ea-adcf-235827f4de73
bb1388f2-51af-11ea-bee0-03a0ac41e225,bb610a46-51af-11ea-a57d-735d14109d56
bb23f3ea-51af-11ea-a529-67bde4565108,bb6136f6-51af-11ea-9b2e-efcaf12f2ca6
bb25f78a-51af-11ea-a73a-af5943155c61,bb616cb6-51af-11ea-bd2e-1382e9e5d834
bb4867b6-51af-11ea-845f-b3166bac829f,bb618692-51af-11ea-9f35-2f56fc100452
bb5e37a8-51af-11ea-b526-43fcef5e8aba,bb61a1a4-51af-11ea-b061-a3c7a06dc68d
bb28101a-51af-11ea-8cd4-e3334744fce0,bb61afa0-51af-11ea-869a-43b194079909
bb5f5cfa-51af-11ea-9a2b-3ff3cd4527a2,bb6218c8-51af-11ea-b3db-cbee2af6ff20
bb243832-51af-11ea-815a-075d8592033e,bb622912-51af-11ea-9e43-cf6562ae2ad8
bb30ca7a-51af-11ea-84f1-0b76e3a41a06,bb62386c-51af-11ea-91f7-4366e3127e07
bb2e70ae-51af-11ea-8ade-2f2ff4b2de36,bb624ae6-51af-11ea-b9d1-f75eed44bc0f
bb1340e0-51af-11ea-ad8d-33f071729098,bb62b436-51af-11ea-b3b0-57cd9ce3af88
bb2ecf0e-51af-11ea-abf8-e7be7464bc83,bb62c32c-51af-11ea-b1e8-dbfc6bba10d3
bb17839e-51af-11ea-a456-6b0e639b3988,bb62d25e-51af-11ea-a7b9-2b01d281f5a9
bb0e8fbe-51af-11ea-8f49-17fc7613aa03,bb632c90-51af-11ea-abbf-430effb5a2e8
bb12865a-51af-11ea-8dad-2b2cb3e3ce05,bb63563e-51af-11ea-bd37-e307bbd557c8
bafb148e-51af-11ea-a0a3-0b1ad1ee5a9e,bb6367d2-51af-11ea-a280-f78b777c9683
bb46da7c-51af-11ea-a5a1-072b7d845512,bb638a78-51af-11ea-8ef2-4b681916885f
bb54c6aa-51af-11ea-bb52-6f3131a59fa6,bb639edc-51af-11ea-80bc-9bd867e70aba
bb0558fe-51af-11ea-a99a-8b1820e1742a,bb63e9c8-51af-11ea-91bc-7b0cd43d124e
bb1e5c32-51af-11ea-baac-df9dd83b6b4c,bb63f7a6-51af-11ea-8f7f-8bd929e6345f
bb579f42-51af-11ea-9077-3b5a347b0400,bb640430-51af-11ea-a7a4-135201af7196
bb224f72-51af-11ea-b61e-2fb2b60aacff,bb644c24-51af-11ea-af63-5b7eeec603c2
bb278a64-51af-11ea-b768-c345ba06daef,bb6495ee-51af-11ea-9126-6b1bc7b285c7
bb15fd1c-51af-11ea-b87d-ef3bed90770c,bb64a73c-51af-11ea-806e-fb96985eded2
bb3dc69e-51af-11ea-a27a-a72c2fbc4dc9,bb64cc62-51af-11ea-a6a4-f31c9e7a9a76
bb02f7a8-51af-11ea-9aa3-e3a09cb3cddd,bb6543a4-51af-11ea-9af4-878607790926
bb0433f2-51af-11ea-990b-e3bca264f3f5,bb655f10-51af-11ea-9f28-93438bd3faee
bb22d172-51af-11ea-b2de-93d6a8f03d32,bb658c92-51af-11ea-bf5e-bf0e87e4f33a
bb2dfe26-51af-11ea-b7ac-6f50a26f7d42,bb659e26-51af-11ea-a427-0bcf92f8df8b
bb090a12-51af-11ea-8209-23f67d941d6a,bb65f93e-51af-11ea-840c-2753b55ef458
bb2060cc-51af-11ea-a2e5-1ba795c8aaa6,bb6608d4-51af-11ea-a6ef-93a5bff65548
bb484376-51af-11ea-8e89-b3a639b4e725,bb6620f8-51af-11ea-a789-37f49454bd1d
bb21cc8c-51af-11ea-9d04-8beaf1190520,bb663c64-51af-11ea-98ab-23cc34f17784
bb33600a-51af-11ea-8434-9342b36332e3,bb668ac0-51af-11ea-b7c3-47252ef87379
bafbbf1a-51af-11ea-884f-c71dc5cb53c3,bb66c814-51af-11ea-83b3-5fa23feaf6c4
bb5e8c76-51af-11ea-9288-171243165541,bb66e470-51af-11ea-ad44-07478931bda0
bb09e1a8-51af-11ea-bfdf-272afc955b72,bb66f3a2-51af-11ea-a5d8-f3bb66fe0d51
bb0a9af8-51af-11ea-8de4-f3f418fbebe3,bb67289a-51af-11ea-87e1-43630c3b8c17
bb29f6d2-51af-11ea-b210-6bbe31424674,bb674b18-51af-11ea-8a4b-bfc2d87e1347
bb10b348-51af-11ea-9228-ffb9956cdaad,bb676508-51af-11ea-a13b-17bd8528bbd6
bb0ba060-51af-11ea-8668-177d23a539ba,bb679208-51af-11ea-8b87-03ceec7dd302
bb4ed830-51af-11ea-b9a6-eb06a4df58c4,bb67d466-51af-11ea-91a1-5f53dd64ea7f
bb119b78-51af-11ea-92b8-b7ac65c24a75,bb67fe32-51af-11ea-9347-7f1e427237b7
bb1027ca-51af-11ea-93d0-5f304b76403f,bb682a06-51af-11ea-9d71-af6b8b5e2fd4
bafc7964-51af-11ea-8d44-d35211ffd130,bb6839d8-51af-11ea-b97b-37e524729ed9
bb107770-51af-11ea-b9c6-cbf83a857e86,bb688a50-51af-11ea-aa7c-e33976e100c8
bb0cf6d6-51af-11ea-a536-abcd39196e24,bb68d276-51af-11ea-b9c4-b366bf8b50a8
bb2d58c2-51af-11ea-a44a-436899fed285,bb68f8f0-51af-11ea-ab3e-a7170f1af89b
baff49d2-51af-11ea-820a-eb1b050fa73d,bb690e76-51af-11ea-a426-37332a6fce92
bb5d17ba-51af-11ea-be79-d75c82e3eddf,bb695368-51af-11ea-84f1-4baab43b6bbc
bb20db6a-51af-11ea-b142-6b8164cd413c,bb698d38-51af-11ea-b637-5376917acfb6
bb2a1568-51af-11ea-8847-97bbace916cf,bb699d78-51af-11ea-9302-1fe242b38862
bb62386c-51af-11ea-91f7-4366e3127e07,bb69b0d8-51af-11ea-949b-77bdaab74680
bb0558fe-51af-11ea-a99a-8b1820e1742a,bb69ff2a-51af-11ea-a1e1-678e734eea0d
bb0b11cc-51af-11ea-8ce4-af817483c4d7,bb6a3d46-51af-11ea-8741-cb0a66f8e69d
bafbbf1a-51af-11ea-884f-c71dc5cb53c3,bb6a7ab8-51af-11ea-bbd4-1b61131faf6e
bb39e966-51af-11ea-8dc1-232c08972120,bb6a998a-51af-11ea-b13b-73e5c58ee071
bb668ac0-51af-11ea-b7c3-47252ef87379,bb6aa902-51af-11ea-8790-f329580e0113
bb097664-51af-11ea-85a3-37eb6a15fb2f,bb6b0ac8-51af-11ea-b24a-d342b1ab152e
bb54c6aa-51af-11ea-bb52-6f3131a59fa6,bb6b30ca-51af-11ea-9557-cffef084ff71
bb240c86-51af-11ea-abfd-cb3336b18fab,bb6b43d0-51af-11ea-a20e-733aec38d6d7
bafac272-51af-11ea-8acf-4ffdcd690308,bb6b9fe2-51af-11ea-b2c4-9b54e23f7dfe
bb4e5298-51af-11ea-9a50-a75842f2cdac,bb6bb2ca-51af-11ea-9173-4fef0fa58deb
bb146dbc-51af-11ea-833d-039e82969fee,bb6bc4ea-51af-11ea-a469-6f523ef2732e
bb1c2246-51af-11ea-8913-b7966c64f72f,bb6c2106-51af-11ea-b515-97931273929d
bb264de8-51af-11ea-8b57-dfa4aee919cb,bb6c2d40-51af-11ea-aff4-a3647fb6cdaf
bb1fe214-51af-11ea-af98-fbcd2f0530c8,bb6c4578-51af-11ea-9cf4-074e72af2ccf
bb659e26-51af-11ea-a427-0bcf92f8df8b,bb6c63c8-51af-11ea-81d4-27d0048e6745
bb33d864-51af-11ea-a18d-8fbd7cbabfe3,bb6ca70c-51af-11ea-92be-b376d063bbe5
baf9a888-51af-11ea-a5ae-7f75f3ed5c57,bb6cd7cc-51af-11ea-88b4-d30a02e40547
bb4c8026-51af-11ea-85ca-a356096e499c,bb6ce64a-51af-11ea-bf51-7f7cf38782f4
bb27f184-51af-11ea-a703-e32e6311f2e3,bb6cf978-51af-11ea-a47f-5b6d54659496
bb5affc0-51af-11ea-a90c-73550b6b7e99,bb6d182c-51af-11ea-bc67-e738b4a59735
bb4787d8-51af-11ea-a43a-830cd4d66dd4,bb6d7e8e-51af-11ea-8945-5b3e29f29815
bb42ce46-51af-11ea-9cf5-afc179925dce,bb6d8cee-51af-11ea-9ee3-a37ab8d3d138
bb55af2a-51af-11ea-a6c0-e787a0976213,bb6dc510-51af-11ea-b994-934d8c837405
baf87c4c-51af-11ea-9da6-fb2bfaa30347,bb6e050c-51af-11ea-82a1-8f5d123aa1fc
bb1cdb00-51af-11ea-8518-77d9f6129272,bb6e1c9a-51af-11ea-b51c-e35e6c5f6850
baff49d2-51af-11ea-820a-eb1b050fa73d,bb6e34d2-51af-11ea-b6de-1ba0aa3d1ac7
bb5f7974-51af-11ea-aa43-8b973d133dbc,bb6e5ae8-51af-11ea-a4f0-d32324082d51
bb45b638-51af-11ea-ac5f-63debe24955b,bb6ea606-51af-11ea-a859-c73f8062da18
bb6367d2-51af-11ea-a280-f78b777c9683,bb6eb916-51af-11ea-ae97-3fd89cd05374
baf9465e-51af-11ea-825a-ef528fa3b692,bb6f2810-51af-11ea-a1f3-3b6bd7232c49
bb48ae56-51af-11ea-84f5-a378b13790de,bb6f37a6-51af-11ea-8157-7376b8269ea8
bb18c808-51af-11ea-ac8d-1b9087f7dbc8,bb6f8d96-51af-11ea-b127-43597545ca52
bb3ea956-51af-11ea-a7f4-1f41e9e0e932,bb6fa902-51af-11ea-80ea-9b8a07e73187
bb51baf0-51af-11ea-99e3-a3d2c91e06b4,bb6fc194-51af-11ea-a897-9b8a9ef1a746
baf8111c-51af-11ea-8eb1-23103f67eaca,bb6ffe66-51af-11ea-badd-53e673312460
bb1ab168-51af-11ea-a801-0f8a6ddc3f8b,bb704f56-51af-11ea-9cea-4b4847b6b2de
bb3697fc-51af-11ea-9121-ef7bc617b9ff,bb7088b8-51af-11ea-9f9e-e7e332140952
bb698d38-51af-11ea-b637-5376917acfb6,bb70acb2-51af-11ea-bf60-93f18c9090e6
bb42f420-51af-11ea-9953-67bf3c1b4d9c,bb710040-51af-11ea-8503-3b86da10ff9b
bb31e5ea-51af-11ea-8122-eb74dd521ae7,bb7116d4-51af-11ea-b619-27ae1251fbc9
bb3e80de-51af-11ea-a70e-8305046147ee,bb716a08-51af-11ea-ada0-cfde3042def9
bb1ab168-51af-11ea-a801-0f8a6ddc3f8b,bb71804c-51af-11ea-b551-f30dbe02544a
bb1388f2-51af-11ea-bee0-03a0ac41e225,bb71b724-51af-11ea-af7f-df904d40c2d2
bb638a78-51af-11ea-8ef2-4b681916885f,bb71ecf8-51af-11ea-97c0-0feadc2b42d3
bb1de892-51af-11ea-8faf-ef2c2305f030,bb7278a8-51af-11ea-a51b-634b5feebd30
bb03838a-51af-11ea-93c6-9fdc648cbcd5,bb729162-51af-11ea-ae79-cbec29a8e2d5
bb2e593e-51af-11ea-8452-1323e3a5d025,bb72aba2-51af-11ea-a2db-43c68d9498ce
baf8c580-51af-11ea-b2d1-13dfaafd662f,bb730f66-51af-11ea-8135-1b921b901f6b
bb14d8c4-51af-11ea-967e-935d46c8fcfb,bb7347ba-51af-11ea-b57b-d3de1e115fc3
bb0ecb00-51af-11ea-b077-53f9da831601,bb7359b2-51af-11ea-bffc-df306ec646fe
bb38ec8c-51af-11ea-9f64-67be6ad2e8d6,bb73a692-51af-11ea-b998-570eaf21548d
bb1702e8-51af-11ea-b392-2752fe29dc33,bb73e3c8-51af-11ea-8c89-c30b373bec96
bb4aa436-51af-11ea-8f43-8f7a2a5dcc4c,bb73f9f8-51af-11ea-bd81-031cc3cc750d
bb1633b8-51af-11ea-8368-3745dc3fbb22,bb7445fc-51af-11ea-a301-bb6e12c0ee79
bafd47a4-51af-11ea-93c7-9bc9a631db15,bb748e54-51af-11ea-8521-37e0b8b64e2a
bb064a16-51af-11ea-9d17-b3fbb1346ded,bb74a268-51af-11ea-8fb6-c74fe4a85db7
bb4900fe-51af-11ea-b1fe-370944c5c3c6,bb74c7f2-51af-11ea-9360-33bfcf06991e
bb224f72-51af-11ea-b61e-2fb2b60aacff,bb74fd3a-51af-11ea-b3bb-4b6932fafb3d
bb20717a-51af-11ea-be61-d32891bc6a8a,bb754d9e-51af-11ea-9a1e-03fd2d3750a7
bafaf8f0-51af-11ea-8e2a-d33c8694d250,bb7578aa-51af-11ea-ad13-8fca4574d954
bb046f98-51af-11ea-8dbe-33ead2739110,bb758c28-51af-11ea-9d5d-a7b2ca11f87a
bb6608d4-51af-11ea-a6ef-93a5bff65548,bb75a53c-51af-11ea-98c5-43b7d4bce499
bb4eaf04-51af-11ea-8111-6b1a36011bec,bb75c5bc-51af-11ea-a611-6bf4ed0972cc
bb079bc8-51af-11ea-ac5a-3f889ea9481d,bb769e60-51af-11ea-99b2-3b08542b12e7
bb403320-51af-11ea-a68b-df128cf9f7a0,bb76caac-51af-11ea-bdb8-b738b9deeef1
bb424ef8-51af-11ea-82d5-ef31b47addfb,bb770440-51af-11ea-9b03-c7f337e600c9
bb1a83fa-51af-11ea-a39e-5fa9a1989ab8,bb76e4b0-51af-11ea-97e3-e7cc6ae70693
bb7278a8-51af-11ea-a51b-634b5feebd30,bb77865e-51af-11ea-ae28-a35a0bbe4448
bb1c75ac-51af-11ea-a3b1-3b00664995e6,bb776eda-51af-11ea-b088-1bba70d9ce80
bb3a070c-51af-11ea-8ed2-63185c387390,bb77bebc-51af-11ea-8f9a-e32ec3647d37
bb2d3b76-51af-11ea-a982-1ba905e9d7fc,bb781696-51af-11ea-8bee-e70199d8944d
bb4589c4-51af-11ea-8f3a-3fa44967c0f2,bb7839f0-51af-11ea-b254-bfe5a4269d58
bb73f9f8-51af-11ea-bd81-031cc3cc750d,bb784b5c-51af-11ea-b89f-7f85f4657b30
bb121b2a-51af-11ea-ba44-7b319d6c934f,bb786df8-51af-11ea-b34c-af52cfd76dfd
bb62386c-51af-11ea-91f7-4366e3127e07,bb789968-51af-11ea-a5ec-830a5c810527
bb1388f2-51af-11ea-bee0-03a0ac41e225,bb78b1dc-51af-11ea-8efe-87a480148f89
bb6fc194-51af-11ea-a897-9b8a9ef1a746,bb78eb66-51af-11ea-92eb-a741e5579209
bb0659e8-51af-11ea-9785-47b2eb18031a,bb793daa-51af-11ea-81d0-4f6033d251ca
bb69b0d8-51af-11ea-949b-77bdaab74680,bb794cdc-51af-11ea-b589-9f7b334f0e84
bb4808ac-51af-11ea-bc04-5b2a79c275e9,bb796244-51af-11ea-a5bb-47dbe8749de2
bb35c73c-51af-11ea-9093-5bdabe34688d,bb79a6f0-51af-11ea-9dbd-6f6e5ad7d2a7
bb4e4514-51af-11ea-98ea-c3b0f7c4e064,bb79e2f0-51af-11ea-8887-67646e78cce9
bb74fd3a-51af-11ea-b3bb-4b6932fafb3d,bb79f254-51af-11ea-81e6-0b6d64fa531b
bafac272-51af-11ea-8acf-4ffdcd690308,bb7a01ae-51af-11ea-bb6e-9f5d9780d3b5
bb5e20c4-51af-11ea-a09a-6304eaf52e74,bb7a4da8-51af-11ea-8154-c3cbee7be9f0
bb376056-51af-11ea-bcc5-8b616c81f5a2,bb7a84ee-51af-11ea-8cd9-2791611c77ed
bb3a9e38-51af-11ea-a145-a3d0aaf1605b,bb7a99f2-51af-11ea-8256-1360ba638fa2
bb5be5f2-51af-11ea-8c5b-3f7e2e33c26b,bb7ab770-51af-11ea-be07-ef79e1631adf
bb2c5f62-51af-11ea-9ae1-0f2ca348d56a,bb7ae628-51af-11ea-9331-9bc2dfaaab28
bb4cf07e-51af-11ea-be08-a3d986ebef2c,bb7b3ed4-51af-11ea-ad39-67e59c73a73d
bb6f8d96-51af-11ea-b127-43597545ca52,bb7b75ac-51af-11ea-be9f-1bba4eadd26d
bb55d504-51af-11ea-903a-1f0bc22ebd93,bb7b8d58-51af-11ea-be95-d36525ac6dae
baf72450-51af-11ea-8e1a-bf40fd8746af,bb7bbf44-51af-11ea-b57b-f74b18e575ff
bb09e1a8-51af-11ea-bfdf-272afc955b72,bb7c00d0-51af-11ea-84ce-57b1ed06ffe4
bb0e306e-51af-11ea-b66e-2b825951a26e,bb7c0de6-51af-11ea-9535-63ca6c1dc961
bb73f9f8-51af-11ea-bd81-031cc3cc750d,bb7c1c6e-51af-11ea-88fe-eb9ecd018b42
bb4589c4-51af-11ea-8f3a-3fa44967c0f2,bb7c7d4e-51af-11ea-bc0d-8ffa53918ec9
bb046192-51af-11ea-9602-07137daee498,bb7ca300-51af-11ea-a75b-6fb589a6726a
bb243832-51af-11ea-815a-075d8592033e,bb7cb69c-51af-11ea-ade8-0bc2886bcd9c
bb63e9c8-51af-11ea-91bc-7b0cd43d124e,bb7cf7d8-51af-11ea-9e14-97262c841066
bb2fb838-51af-11ea-8a03-4f5323268535,bb7d22e4-51af-11ea-b228-b7f3037cffbb
bb59143a-51af-11ea-bd9d-e7eb691ce623,bb7d3ca2-51af-11ea-bcc0-333215c908d2
bb21e1b8-51af-11ea-aa5e-6310b6142f49,bb7d787a-51af-11ea-9b26-d3c30f615152
bb1ea0d4-51af-11ea-917e-f3f625c4aa5f,bb7d8b62-51af-11ea-81ef-3736bf67aa15
bb484376-51af-11ea-8e89-b3a639b4e725,bb7dd2e8-51af-11ea-a221-4ba79b580dd4
bb424106-51af-11ea-bbbf-9ff36b88d53a,bb7de580-51af-11ea-88d3-5fd795a3cd4c
bb7278a8-51af-11ea-a51b-634b5feebd30,bb7e13a2-51af-11ea-95e6-bbb68e61f182
bb243832-51af-11ea-815a-075d8592033e,bb7e329c-51af-11ea-aab3-ab0dc72c5189
bb146dbc-51af-11ea-833d-039e82969fee,bb7e5f42-51af-11ea-94d0-8baf91aad504
bb789968-51af-11ea-a5ec-830a5c810527,bb7e711c-51af-11ea-8c47-db48495cd931
bb53c462-51af-11ea-b7ce-438e7390f9dd,bb7ec892-51af-11ea-a36b-3ffb91614721
bb7cf7d8-51af-11ea-9e14-97262c841066,bb7edef4-51af-11ea-bf84-efd5d957d0c0
bb2fe92a-51af-11ea-90f8-3b76a222580b,bb7ef11e-51af-11ea-bdaa-83483dfcf59b
baf9a888-51af-11ea-a5ae-7f75f3ed5c57,bb7f8a84-51af-11ea-858f-ef24ac0937a7
bb15c45a-51af-11ea-9975-7b04b7b4e021,bb7f89f8-51af-11ea-bc4e-7beb4aca69a8
bb28d554-51af-11ea-80d5-431b758a82e1,bb7f96e6-51af-11ea-903e-1b57a9a515b2
bb1904c6-51af-11ea-ba4e-9f9d6b70de8c,bb7fd016-51af-11ea-875b-236402dc3c77
bb2ae7d6-51af-11ea-9531-1f2ffe7024a8,bb800cf2-51af-11ea-9baa-9f2397250fe1
bb28d554-51af-11ea-80d5-431b758a82e1,bb801db4-51af-11ea-8e34-f3d74994ef8e
bb12d358-51af-11ea-8404-6fc1d9fefdb9,bb8094ec-51af-11ea-9a11-4316f61dbd14
bb09bf3e-51af-11ea-8d6a-4bb71c102bef,bb80aba8-51af-11ea-bb39-179b43f4175b
bb0e306e-51af-11ea-b66e-2b825951a26e,bb80c066-51af-11ea-8f96-4b0ac0a4a014
bb42ce46-51af-11ea-9cf5-afc179925dce,bb80f40a-51af-11ea-abb1-f3ca786b07c5
bb5fd57c-51af-11ea-ba63-477966fcdbeb,bb813dac-51af-11ea-9dbd-83d1b5d29c02
bb59143a-51af-11ea-bd9d-e7eb691ce623,bb816142-51af-11ea-931e-835de0873cd0
bb62d25e-51af-11ea-a7b9-2b01d281f5a9,bb817f7e-51af-11ea-b61c-efafd5a765ed
bb107770-51af-11ea-b9c6-cbf83a857e86,bb818fbe-51af-11ea-81a6-a7313f3edef9
bb4808ac-51af-11ea-bc04-5b2a79c275e9,bb81e23e-51af-11ea-b9d2-6b330eee8bfc
bb1702e8-51af-11ea-b392-2752fe29dc33,bb820782-51af-11ea-aaed-37dcce596ac1
bb5affc0-51af-11ea-a90c-73550b6b7e99,bb823702-51af-11ea-a581-133d25581079
bb484376-51af-11ea-8e89-b3a639b4e725,bb824634-51af-11ea-9c7f-376e6fae2ab8
bb1eb326-51af-11ea-8973-030094c6169e,bb82a656-51af-11ea-b22d-7bea24b7fb37
bb21cc8c-51af-11ea-9d04-8beaf1190520,bb82bab0-51af-11ea-bb5e-530bf469e276
bb118d86-51af-11ea-9e5c-bb52d4226e34,bb82ca1e-51af-11ea-9382-b794dcfb28cb
bb1a0ac4-51af-11ea-bf93-7fa7c48396f1,bb82eb48-51af-11ea-8a21-2f6b65da97d7
bb62d25e-51af-11ea-a7b9-2b01d281f5a9,bb834fde-51af-11ea-b6d8-ff418bb30b9e
bb51baf0-51af-11ea-99e3-a3d2c91e06b4,bb83601e-51af-11ea-9344-4796975afbfe
bb14a124-51af-11ea-b84a-bfb3fd5f6207,bb8384fe-51af-11ea-b9cb-db917cc0f896
bb20db6a-51af-11ea-b142-6b8164cd413c,bb83a434-51af-11ea-8282-f71579cb502a
bb63f7a6-51af-11ea-8f7f-8bd929e6345f,bb83e228-51af-11ea-9d32-33ee557430de
bb4d9952-51af-11ea-bc9f-db1e5c81b7b1,bb8401a4-51af-11ea-a9fc-cbeba77bfbb3
bb24bb72-51af-11ea-afec-d338d9cbc46d,bb84128e-51af-11ea-ab26-eb9e1bc72508
bb5fa976-51af-11ea-8d9f-0f8a769b254a,bb848d18-51af-11ea-985e-235e0b7766df
bb31afd0-51af-11ea-a435-6ba1eac4d5b6,bb849d1c-51af-11ea-87bd-6b9329aaae71
bb28d554-51af-11ea-80d5-431b758a82e1,bb850978-51af-11ea-b064-e3a7083267af
bb21cc8c-51af-11ea-9d04-8beaf1190520,bb851ecc-51af-11ea-aec7-1754c7719d8b
bb40427a-51af-11ea-8172-2324a526e41c,bb8531b4-51af-11ea-975e-57052e4c37be
bb5b5d58-51af-11ea-a088-1b1fc20bb354,bb853fd8-51af-11ea-b373-8faf3f6500b5
bb361340-51af-11ea-b0ac-aff9d1c2598e,bb85d4d4-51af-11ea-a50c-f7cc92c22f3a
bb6e050c-51af-11ea-82a1-8f5d123aa1fc,bb85dd3a-51af-11ea-be5e-a3363575032e
bb801db4-51af-11ea-8e34-f3d74994ef8e,bb85eda2-51af-11ea-aad9-5780eba12bda
bb359320-51af-11ea-b449-a33d9d902563,bb85fff4-51af-11ea-9dad-d7991bda3717
bb41549e-51af-11ea-98ad-270fc88c2362,bb868bea-51af-11ea-9abb-676fe60e1b1f
bb682a06-51af-11ea-9d71-af6b8b5e2fd4,bb869b6c-51af-11ea-8caa-cf0ae0f4de8a
bb5314ea-51af-11ea-863b-d3fd98de2821,bb86ab02-51af-11ea-8dd0-b76f25555ca7
bb5305b8-51af-11ea-b957-f7ab5a0123e4,bb86d190-51af-11ea-bdc1-dfb677559f21
bb5a4a26-51af-11ea-81a0-43519cf76db1,bb871ef2-51af-11ea-ba03-3b2b817db6f1
bb7de580-51af-11ea-88d3-5fd795a3cd4c,bb876fb0-51af-11ea-b1f4-5b3191278a19
bb0b22ca-51af-11ea-8a0a-7393d77d82da,bb878d9c-51af-11ea-8f71-73a3212f8c5d
bb489dee-51af-11ea-97ff-5b2494232b22,bb87a7fa-51af-11ea-96b0-7b1cff6fb1cf
baf7bb2c-51af-11ea-b966-436d7864111d,bb87c636-51af-11ea-9bfd-6fbaef4652fd
baf7bb2c-51af-11ea-b966-436d7864111d,bb88165e-51af-11ea-912f-53e8a9d90259
bb639edc-51af-11ea-80bc-9bd867e70aba,bb884b24-51af-11ea-8d90-276976fb22f5
bb3e80de-51af-11ea-a70e-8305046147ee,bb885c54-51af-11ea-aeed-0fa25304f346
bb46da7c-51af-11ea-a5a1-072b7d845512,bb88afb0-51af-11ea-b04c-2fb778d175cc
bb813dac-51af-11ea-9dbd-83d1b5d29c02,bb88c5e0-51af-11ea-8ac4-bb341ec829a9
bb598776-51af-11ea-8da2-07d2edb44025,bb8906f4-51af-11ea-b78a-bb3e42e2a4bc
bb31d56e-51af-11ea-8356-27d95a8a4386,bb8917c0-51af-11ea-a1f0-e7a9112d6a9f
bb1f5e52-51af-11ea-83ed-0b5297163550,bb893e1c-51af-11ea-8907-b3184b453d7d
bb52f582-51af-11ea-9115-5b472c4e3a92,bb8981e2-51af-11ea-b79e-2f06fef10adb
bb4fb32c-51af-11ea-a32e-6f7ee4cc969c,bb899ea2-51af-11ea-99fd-976527123ee5
bb0af912-51af-11ea-a48e-9bffb7d927ca,bb89e68c-51af-11ea-a521-afb0c14fa479
bafd74fe-51af-11ea-9773-5b8ab5770a93,bb89f33e-51af-11ea-b6e4-e76f365695b2
bb267728-51af-11ea-bb92-0fbab9e7b0c6,bb8a4d5c-51af-11ea-937e-7fd02ca5f68f
bb59143a-51af-11ea-bd9d-e7eb691ce623,bb8a5f0e-51af-11ea-8b60-a74089ac8880
bafd058c-51af-11ea-9e48-2f8d2345a810,bb8aa248-51af-11ea-8a50-97bc0e2add5b
bb7d3ca2-51af-11ea-bcc0-333215c908d2,bb8ac174-51af-11ea-a8de-cbe688dc2726
bb7ec892-51af-11ea-a36b-3ffb91614721,bb8b7646-51af-11ea-a4df-8f2529e562d8
bb853fd8-51af-11ea-b373-8faf3f6500b5,bb8b4bee-51af-11ea-826b-47dc0655ade0
bb470704-51af-11ea-be58-cf1f14f405ae,bb8b619c-51af-11ea-a0a2-ffd9a018fe75
bb29dd46-51af-11ea-ad9b-4b407783b69a,bb8b878a-51af-11ea-bba0-c38839281b05
bb6d182c-51af-11ea-bc67-e738b4a59735,bb8c1b1e-51af-11ea-989e-17344a723d94
bb097664-51af-11ea-85a3-37eb6a15fb2f,bb8c3432-51af-11ea-96fd-3f5e834b3663
bb869b6c-51af-11ea-8caa-cf0ae0f4de8a,bb8c4454-51af-11ea-8673-eb2d570ace6f
bb12865a-51af-11ea-8dad-2b2cb3e3ce05,bb8c6f56-51af-11ea-bb7f-139e583abee1
bb6367d2-51af-11ea-a280-f78b777c9683,bb8cbed4-51af-11ea-a1e7-afc0f8b666af
bb5dceda-51af-11ea-a7bf-9f1c458686dc,bb8cd374-51af-11ea-9729-176043109196
bb84128e-51af-11ea-ab26-eb9e1bc72508,bb8ce42c-51af-11ea-b714-53f5bd412759
bb62c32c-51af-11ea-b1e8-dbfc6bba10d3,bb8d6ef6-51af-11ea-b58f-bb54be45645f
baf8ac44-51af-11ea-adf2-8b6743c2e147,bb8d7f22-51af-11ea-bdd0-4f7bccfcce16
bafbd9aa-51af-11ea-a662-9bd26ffd9c24,bb8d9bf6-51af-11ea-bc95-434728923e16
bb640430-51af-11ea-a7a4-135201af7196,bb8dca0e-51af-11ea-be44-1ba344e83e9b
bb70acb2-51af-11ea-bf60-93f18c9090e6,bb8e1888-51af-11ea-a699-9fa423ee6bf1
bb07ac80-51af-11ea-92f1-d775053ede2b,bb8e855c-51af-11ea-ab45-3fc89156ab87
bb6cd7cc-51af-11ea-88b4-d30a02e40547,bb8e95f6-51af-11ea-b7a0-9741829cf244
bb63563e-51af-11ea-bd37-e307bbd557c8,bb8ea762-51af-11ea-8b65-2f884988c114
bb3a9e38-51af-11ea-a145-a3d0aaf1605b,bb8f0072-51af-11ea-b7b7-8beb08ad45ff
bb6f2810-51af-11ea-a1f3-3b6bd7232c49,bb8f2ade-51af-11ea-9aa5-f36dd18374ca
bb40d866-51af-11ea-99fe-a7a6a99ccc6e,bb8f3a7e-51af-11ea-b94f-5f0622a45963
bb119b78-51af-11ea-92b8-b7ac65c24a75,bb8f4d66-51af-11ea-866d-937096da0065
bb1edf4a-51af-11ea-b23f-cf6eab0772e8,bb8fd6be-51af-11ea-a06a-e7dbe2776ab6
bb4f8816-51af-11ea-a94d-13f2fdbd4a7b,bb8fe58c-51af-11ea-a300-2b91c2d323b9
bb699d78-51af-11ea-9302-1fe242b38862,bb8ff4fa-51af-11ea-97bc-dbfdccdcbee4
bb640430-51af-11ea-a7a4-135201af7196,bb900dc8-51af-11ea-b0e7-eb8d541130c9
bb09ff4e-51af-11ea-8ea2-ffcd06023807,bb908578-51af-11ea-9421-8bb09ebffb89
bb361340-51af-11ea-b0ac-aff9d1c2598e,bb90a5ee-51af-11ea-aeb0-87fc2fd40027
bb6b9fe2-51af-11ea-b2c4-9b54e23f7dfe,bb90beb2-51af-11ea-a14e-a39aa8fc451d
bb7b8d58-51af-11ea-be95-d36525ac6dae,bb90d780-51af-11ea-a6da-1bd94e8bff1a
bb7c7d4e-51af-11ea-bc0d-8ffa53918ec9,bb9149b8-51af-11ea-bcbb-b309734f9b81
bb7b75ac-51af-11ea-be9f-1bba4eadd26d,bb916d30-51af-11ea-a4dd-6f7e739329fc
bb1f6c12-51af-11ea-a6af-57e3d342f331,bb918d6a-51af-11ea-8611-f32154da81ae
bb698d38-51af-11ea-b637-5376917acfb6,bb919d82-51af-11ea-99dc-133f73548724
bb2ee174-51af-11ea-a189-27f088d41543,bb920970-51af-11ea-9097-a7b15f60e236
bb09bf3e-51af-11ea-8d6a-4bb71c102bef,bb921bcc-51af-11ea-8191-030e80da6513
bb668ac0-51af-11ea-b7c3-47252ef87379,bb922a90-51af-11ea-9554-f30b1f5c6c97
bb05e18e-51af-11ea-9791-43c1f0f71a9d,bb923a9e-51af-11ea-8a86-df1a496a1690
bb4589c4-51af-11ea-8f3a-3fa44967c0f2,bb92d116-51af-11ea-86ce-a7c4c0ec2b91
bb8b4bee-51af-11ea-826b-47dc0655ade0,bb92eb92-51af-11ea-9519-530af8c44681
bb8906f4-51af-11ea-b78a-bb3e42e2a4bc,bb931c5c-51af-11ea-be97-9733db9d42aa
bb1d969e-51af-11ea-b546-3f335c3abe44,bb93303e-51af-11ea-b3b9-a3776f042335
bb01eeb2-51af-11ea-a3dc-3f746bf29a2e,bb9393bc-51af-11ea-8576-f38f8d980e68
bb3b4590-51af-11ea-b8bd-ff6f7bf7a6ef,bb93ab72-51af-11ea-a269-ffa4be27cf88
baf50ba2-51af-11ea-9b6c-57373fa8703e,bb93e948-51af-11ea-8058-23a1d71ea3a4
bb1388f2-51af-11ea-bee0-03a0ac41e225,bb942390-51af-11ea-aba3-ab158d6e82f6
bb618692-51af-11ea-9f35-2f56fc100452,bb9468d2-51af-11ea-879f-1791de2c77cf
bb053c48-51af-11ea-bc97-6f4c2786d615,bb94c6ce-51af-11ea-b98f-33c06008467c
bb232564-51af-11ea-b604-a39865a34524,bb94b436-51af-11ea-91ea-8fc45903bc1b
baf618bc-51af-11ea-bdbf-732f0319db32,bb94d920-51af-11ea-98be-d33560869545
bb593ffa-51af-11ea-8e86-337e7e24f430,bb95227c-51af-11ea-82b6-27d7360c2f41
bb94c6ce-51af-11ea-b98f-33c06008467c,bb957cc2-51af-11ea-be09-27b07ff405a3
bb4946a4-51af-11ea-823f-8b98ae225f92,bb958dca-51af-11ea-9feb-37d1d0c481ff
bb644c24-51af-11ea-af63-5b7eeec603c2,bb95c768-51af-11ea-b160-ebed37b1fb55
bb4372d8-51af-11ea-aa78-0bc25121ffd0,bb961632-51af-11ea-876e-7bc1d4d03acc
bb10b348-51af-11ea-9228-ffb9956cdaad,bb963054-51af-11ea-bb9e-5724db543de3
bb3e80de-51af-11ea-a70e-8305046147ee,bb9642a6-51af-11ea-81b7-7fbd057b5d10
bb50b146-51af-11ea-b8fa-9bda6f4c3f77,bb970268-51af-11ea-b30b-abb8ccd4273e
bb63563e-51af-11ea-bd37-e307bbd557c8,bb971b9a-51af-11ea-bdc2-6ba109efbed9
bb4da7f8-51af-11ea-bb6d-9bce5ce482b0,bb9731e8-51af-11ea-8f31-6fd198acc16e
bb5e47fc-51af-11ea-b789-67a07a10781a,bb97515a-51af-11ea-b14f-43b6396684c8
bb4ec976-51af-11ea-8aa7-fbde3f3b452c,bb98092e-51af-11ea-93c1-e7685e23e3eb
bb1904c6-51af-11ea-ba4e-9f9d6b70de8c,bb982012-51af-11ea-b3e5-9f2db917d861
bb920970-51af-11ea-9097-a7b15f60e236,bb98325a-51af-11ea-af9a-ab91a1416b21
bb489dee-51af-11ea-97ff-5b2494232b22,bb984fce-51af-11ea-a721-ef88a014a83f
baff9464-51af-11ea-b1d4-13a467ad775a,bb98fe9c-51af-11ea-8842-bfe7427f3c20
bb93303e-51af-11ea-b3b9-a3776f042335,bb9920a2-51af-11ea-a60f-87e905f1d56f
bb92eb92-51af-11ea-9519-530af8c44681,bb99458c-51af-11ea-8a57-db5ade41faeb
bb3d2360-51af-11ea-9183-37936953b4e2,bb996e36-51af-11ea-bba3-a7307b253021
bb03bef4-51af-11ea-bc98-679703bebc03,bb99e1ae-51af-11ea-a36f-dbbfcc9a362a
bb45e8a6-51af-11ea-8a0f-a769b30f893c,bb9a2952-51af-11ea-8581-07b062c76761
bb10e89a-51af-11ea-8bb8-0be19c30b4ec,bb9a47fc-51af-11ea-8f37-5f33a48116f1
baf6043a-51af-11ea-ab1f-630ecd176204,bb9a6c96-51af-11ea-b2de-abb4cf370a68
bb311fde-51af-11ea-826f-5f19210ddb38,bb9aa850-51af-11ea-8628-9bd1d92f0f93
bb54e716-51af-11ea-9f18-6faa8603ec2f,bb9acd3a-51af-11ea-80b0-c78e551428bd
bb2b914a-51af-11ea-bf3f-d3298e6a413c,bb9add16-51af-11ea-9241-9be892a3bf53
bb2570e4-51af-11ea-9ca3-d3521e4b348a,bb9b3f18-51af-11ea-8738-d7c9bdf7117d
bb5affc0-51af-11ea-a90c-73550b6b7e99,bb9b657e-51af-11ea-8e2d-730ca425b095
bb77865e-51af-11ea-ae28-a35a0bbe4448,bb9b5494-51af-11ea-837a-f726a7db3873
bb54a03a-51af-11ea-90ba-dff0e8b112cf,bb9b7686-51af-11ea-a6cb-4fb1ab33f133
bb87c636-51af-11ea-9bfd-6fbaef4652fd,bb9c2e64-51af-11ea-816e-5f947e83ddd8
bb424106-51af-11ea-bbbf-9ff36b88d53a,bb9c5a10-51af-11ea-808e-e76429e8a3fe
bb078b88-51af-11ea-92a4-476c3eb5c8f2,bb9c8080-51af-11ea-82da-7fbad9210ac7
bb8b619c-51af-11ea-a0a2-ffd9a018fe75,bb9ca5d8-51af-11ea-825c-8f6abc5c54ad
bb6b30ca-51af-11ea-9557-cffef084ff71,bb9d208a-51af-11ea-92fa-b35ad4f54a93
bb36fe5e-51af-11ea-8964-9b504c321063,bb9d3228-51af-11ea-9495-d3c202d6c744
bb4eaf04-51af-11ea-8111-6b1a36011bec,bb9d4434-51af-11ea-8170-eff94e3b5d81
bb920970-51af-11ea-9097-a7b15f60e236,bb9d9d8a-51af-11ea-a44d-8b25bc4a0a0c
bb1702e8-51af-11ea-b392-2752fe29dc33,bb9dd480-51af-11ea-8b6f-eba980c7e3de
bb4372d8-51af-11ea-aa78-0bc25121ffd0,bb9e0626-51af-11ea-a24f-1763f82aa12c
bb6f2810-51af-11ea-a1f3-3b6bd7232c49,bb9e27be-51af-11ea-8e0d-ebe4d7681f56
bb8401a4-51af-11ea-a9fc-cbeba77bfbb3,bb9e68e6-51af-11ea-9e1d-03b40ac7075d
bb43ea2e-51af-11ea-aab7-a77c4ef56319,bb9ea0f4-51af-11ea-af7d-4f337908e715
bb5e8c76-51af-11ea-9288-171243165541,bb9eb5e4-51af-11ea-a8cb-278d3dc02d86
bb7a4da8-51af-11ea-8154-c3cbee7be9f0,bb9ef194-51af-11ea-854c-7bef1a2fd731
bb73e3c8-51af-11ea-8c89-c30b373bec96,bb9f158e-51af-11ea-9170-d79f5bea377b
baf75452-51af-11ea-b2fb-6f241f32acbd,bb9f941e-51af-11ea-8dfa-6b0e91d15dc0
bb2e70ae-51af-11ea-8ade-2f2ff4b2de36,bb9faada-51af-11ea-b7cc-bb6423e18412
bb6367d2-51af-11ea-a280-f78b777c9683,bb9fba8e-51af-11ea-bf80-bb0b978b22da
bb618692-51af-11ea-9f35-2f56fc100452,bb9fc876-51af-11ea-87a8-cbc853f7e60b
bb50f4f8-51af-11ea-bc72-db0fb6dbe266,bba0454e-51af-11ea-aa05-a3b6bb26853f
bb80f40a-51af-11ea-abb1-f3ca786b07c5,bba05d40-51af-11ea-a102-9fb40add3f3a
bb84128e-51af-11ea-ab26-eb9e1bc72508,bba07a96-51af-11ea-a648-337c5a99b13b
bb704f56-51af-11ea-9cea-4b4847b6b2de,bba095e4-51af-11ea-9fc2-9f35803890e8
bb0cf6d6-51af-11ea-a536-abcd39196e24,bba0ef44-51af-11ea-9a59-bbde2f0f32db
bb361340-51af-11ea-b0ac-aff9d1c2598e,bba105d8-51af-11ea-ab8b-7fbc11aa5291
bb85fff4-51af-11ea-9dad-d7991bda3717,bba14eda-51af-11ea-a56a-233f664cb91f
bb09ff4e-51af-11ea-8ea2-ffcd06023807,bba1775c-51af-11ea-b60d-0344c599a7db
bb3acfc0-51af-11ea-a9f7-6f92b83f421c,bba1b62c-51af-11ea-9dc8-232fa934a93d
bb3dc69e-51af-11ea-a27a-a72c2fbc4dc9,bba1c784-51af-11ea-98f1-2bb626852d60
bb1bb5d6-51af-11ea-9250-7b592a898228,bba205d2-51af-11ea-a1b8-a36e22ce20ca
bb243832-51af-11ea-815a-075d8592033e,bba24826-51af-11ea-9ee5-9f2ce9408212
bb55f264-51af-11ea-9bbe-132c68dc2488,bba27206-51af-11ea-a3d2-7f14635416d6
bb1027ca-51af-11ea-93d0-5f304b76403f,bba2805c-51af-11ea-a763-bb0eaf04cca4
bb79f254-51af-11ea-81e6-0b6d64fa531b,bba29b00-51af-11ea-a01b-93c579914679
bb60dbc0-51af-11ea-adcf-235827f4de73,bba2e7d6-51af-11ea-9260-2387d04ead9a
bb01a9fc-51af-11ea-9200-fbfb9649c86b,bba31986-51af-11ea-b1d3-f792fd9a3e42
bb8cd374-51af-11ea-9729-176043109196,bba33ba0-51af-11ea-a912-f3348d26cb47
bb7c1c6e-51af-11ea-88fe-eb9ecd018b42,bba36be8-51af-11ea-98ce-63190be4613e
bb55af2a-51af-11ea-a6c0-e787a0976213,bba3b170-51af-11ea-9f28-e3b5b1f62bf0
bb3cbf2e-51af-11ea-a8c6-ab3df5119af9,bba3ccaa-51af-11ea-86e4-239a46532e9f
bb7ae628-51af-11ea-9331-9bc2dfaaab28,bba3dd9e-51af-11ea-a60a-cf351edf6eae
bb0f74ec-51af-11ea-a559-63b01b146ecb,bba40742-51af-11ea-93b6-6f49bd053337
bb82eb48-51af-11ea-8a21-2f6b65da97d7,bba462be-51af-11ea-9f96-4ff0eefa931c
bb19b7f4-51af-11ea-834d-93695ad60f08,bba47290-51af-11ea-9af4-fb0bbed406eb
bb0e077e-51af-11ea-9286-b3ad4a2760aa,bba48212-51af-11ea-b0ea-3fbcd74cec9b
bb137718-51af-11ea-9f06-474c2a0e820b,bba4cda8-51af-11ea-a165-ef750395591b
baff6aca-51af-11ea-9269-7b19c42bee9e,bba500c0-51af-11ea-a342-6754dd5d6e05
bb83e228-51af-11ea-9d32-33ee557430de,bba512ea-51af-11ea-a341-53c8870a5353
bb60dbc0-51af-11ea-adcf-235827f4de73,bba56844-51af-11ea-ae74-2f7ea5e1ecb1
bb816142-51af-11ea-931e-835de0873cd0,bba57b5e-51af-11ea-9258-c7e4792f718f
bb4a2d62-51af-11ea-9b0b-af0f85c6db16,bba58ac2-51af-11ea-9fdf-9b8396835864
bb5ee4f0-51af-11ea-bf5d-772fded2d1f2,bba598c8-51af-11ea-bd9e-e7ef2b5e89f6
bb201f68-51af-11ea-84be-876e56a22e60,bba61690-51af-11ea-82c7-53ba2814fdc6
bb177066-51af-11ea-bf8f-17c0232f265c,bba63b52-51af-11ea-8248-b7336aba0ac7
bb44c5c0-51af-11ea-bc21-f3871d24ed8b,bba64b24-51af-11ea-91e4-93eb19a364b9
bb08fae0-51af-11ea-ac48-1798e1ab4ad9,bba65c40-51af-11ea-a472-a3cf5d37a29e
bb5a22f8-51af-11ea-af86-a38634e65f9e,bba6cd10-51af-11ea-887c-5f4bdf54f24b
bb603e40-51af-11ea-9378-f334ac9ac926,bba6e5f2-51af-11ea-b6cd-e3dfbebf1b4a
bb52f582-51af-11ea-9115-5b472c4e3a92,bba70db6-51af-11ea-bc6b-f765518e21df
bb9c2e64-51af-11ea-816e-5f947e83ddd8,bba74010-51af-11ea-9587-b7cc053b14d7
bb345564-51af-11ea-9733-1fe368c9280d,bba762fc-51af-11ea-8d93-97ad04879daa
bb31d56e-51af-11ea-8356-27d95a8a4386,bba778c8-51af-11ea-9822-ef763b5acafb
bb25f78a-51af-11ea-a73a-af5943155c61,bba7dce6-51af-11ea-b6b8-4b658462cf7c
bb1f6c12-51af-11ea-a6af-57e3d342f331,bba7ffaa-51af-11ea-bae0-7b9e514b312e
bb8f2ade-51af-11ea-9aa5-f36dd18374ca,bba818fa-51af-11ea-bd28-3b78436db178
bb374e18-51af-11ea-b863-17f6f35b0757,bba829bc-51af-11ea-a5ee-b3906e91bf80
bb504c74-51af-11ea-87b4-17cc01239539,bba89dc0-51af-11ea-b9ba-c7ab143f44ea
bb07ac80-51af-11ea-92f1-d775053ede2b,bba8c46c-51af-11ea-a349-f7d815d633c3
bb4b6326-51af-11ea-8ca8-2beffa238876,bba8d54c-51af-11ea-8f20-7fa678b25163
bb33fdda-51af-11ea-8eb1-6b4d4588cc06,bba8fd88-51af-11ea-ba78-ffe1da0c27d6
