RunID,Agent,Age,Created,Inactive,Resources,Reputation,Ability,Que
run-2020-2-29-9-27-29.113529205,AGENT#b48ac110-5ad5-11ea-bf8b-6bfbe57d4196,0,0,0,10,1.0,1.0,0
run-2020-2-29-9-27-29.113529205,AGENT#b48ac1b0-5ad5-11ea-ba5b-6bfad13ae10a,2,0,2,10,1.0,1.0,0
run-2020-2-29-9-27-29.113529205,AGENT#b48f1f80-5ad5-11ea-a820-dfe51d050feb,1,1,2,10,1.0,1.0,0
run-2020-2-29-9-27-29.113529205,AGENT#b493677a-5ad5-11ea-a26d-13a594014245,1,2,3,10,1.0,1.0,0
run-2020-2-29-9-27-29.113529205,AGENT#b4992caa-5ad5-11ea-8a7f-f745c23b44ab,1,3,4,10,1.0,1.0,0
run-2020-2-29-9-27-29.113529205,AGENT#b4992f70-5ad5-11ea-85bc-17b696499edf,1,3,4,10,1.0,1.0,0
run-2020-2-29-9-27-29.113529205,AGENT#b48abf44-5ad5-11ea-8178-5f98d0e6d081,5,0,5,10,1.0,1.0,0
run-2020-2-29-9-27-29.113529205,AGENT#b48f2106-5ad5-11ea-9524-23b788bec28d,4,1,5,10,1.0,1.0,0
run-2020-2-29-9-27-29.113529205,AGENT#b48f2214-5ad5-11ea-946f-e79598c6faa9,4,1,5,10,1.0,1.0,0
run-2020-2-29-9-27-29.113529205,AGENT#b4992e8a-5ad5-11ea-bd94-17e3ac5777eb,2,3,5,10,1.0,1.0,0
run-2020-2-29-9-27-29.113529205,AGENT#b48f22d2-5ad5-11ea-bea5-5727429362de,5,1,6,10,1.0,1.0,0
run-2020-2-29-9-27-29.113529205,AGENT#b4992a5c-5ad5-11ea-a5a5-6bb4e68c0c79,3,3,6,10,1.0,1.0,0
run-2020-2-29-9-27-29.113529205,AGENT#b4992d9a-5ad5-11ea-95cb-a7b1a360bb88,3,3,6,10,1.0,1.0,0
run-2020-2-29-9-27-29.113529205,AGENT#b4936856-5ad5-11ea-9835-7bb4d8041318,5,2,7,10,1.0,1.0,0
run-2020-2-29-9-27-29.113529205,AGENT#b49369c8-5ad5-11ea-ac62-ab4c4b2153be,5,2,7,10,1.0,1.0,0
run-2020-2-29-9-27-29.113529205,AGENT#b4936bb2-5ad5-11ea-9b23-d301b8e3b8f7,5,2,7,10,1.0,1.0,0
run-2020-2-29-9-27-29.113529205,AGENT#b49f6ebc-5ad5-11ea-b43c-af249f310260,3,4,7,10,1.0,1.0,0
run-2020-2-29-9-27-29.113529205,AGENT#b4a8d36c-5ad5-11ea-99bc-0769d086a59b,1,6,7,10,1.0,1.0,0
run-2020-2-29-9-27-29.113529205,AGENT#b4a8d416-5ad5-11ea-afb0-bbc5e729e002,1,6,7,10,1.0,1.0,0
run-2020-2-29-9-27-29.113529205,AGENT#b49f7010-5ad5-11ea-b29d-279a74d55272,4,4,8,10,1.0,1.0,0
run-2020-2-29-9-27-29.113529205,AGENT#b49f7114-5ad5-11ea-97ee-7f6ad4c6e6b8,4,4,8,10,1.0,1.0,0
run-2020-2-29-9-27-29.113529205,AGENT#b4a8d204-5ad5-11ea-ac0c-ebc97fd0d648,2,6,8,10,1.0,1.0,0
run-2020-2-29-9-27-29.113529205,AGENT#b4a8d2c2-5ad5-11ea-9055-1bb6fc966281,2,6,8,10,1.0,1.0,0
run-2020-2-29-9-27-29.113529205,AGENT#b4a8d574-5ad5-11ea-b25b-f74abe10deee,3,6,9,10,1.0,1.0,0
run-2020-2-29-9-27-29.113529205,AGENT#b4ad20ac-5ad5-11ea-a718-3f3e395236be,2,7,9,10,1.0,1.0,0
run-2020-2-29-9-27-29.113529205,AGENT#b4a8d4c0-5ad5-11ea-b4a3-9fde91d7d9dd,4,6,10,10,1.0,1.0,0
run-2020-2-29-9-27-29.113529205,AGENT#b4b17c4c-5ad5-11ea-ad1b-57cfc44d20e7,2,8,10,10,1.0,1.0,0
run-2020-2-29-9-27-29.113529205,AGENT#b4b5ba1e-5ad5-11ea-bd70-0ba4fc65f52e,2,9,11,10,1.0,1.0,0
run-2020-2-29-9-27-29.113529205,AGENT#b4ba009c-5ad5-11ea-9acf-e7458aec8efc,1,10,11,10,1.0,1.0,0
run-2020-2-29-9-27-29.113529205,AGENT#b4ba02a4-5ad5-11ea-83a5-8f12f0016315,1,10,11,10,1.0,1.0,0
run-2020-2-29-9-27-29.113529205,AGENT#b4b17d0a-5ad5-11ea-9005-870018f0946d,4,8,12,10,1.0,1.0,0
run-2020-2-29-9-27-29.113529205,AGENT#b4b9ffac-5ad5-11ea-a82f-efd5c2824eae,2,10,12,10,1.0,1.0,0
run-2020-2-29-9-27-29.113529205,AGENT#b4ba034e-5ad5-11ea-93f7-dbd5eb6ea667,2,10,12,10,1.0,1.0,0
run-2020-2-29-9-27-29.113529205,AGENT#b4be50c0-5ad5-11ea-a315-8b6d1c2d4c00,1,11,12,10,1.0,1.0,0
run-2020-2-29-9-27-29.113529205,AGENT#b4b5bd16-5ad5-11ea-8dba-cf62ca2ff174,4,9,13,10,1.0,1.0,0
run-2020-2-29-9-27-29.113529205,AGENT#b4b5bdc0-5ad5-11ea-9c6b-43a3c6aa6366,4,9,13,10,1.0,1.0,0
run-2020-2-29-9-27-29.113529205,AGENT#b4ba0150-5ad5-11ea-891d-e35911abeab9,3,10,13,10,1.0,1.0,0
run-2020-2-29-9-27-29.113529205,AGENT#b4ba01fa-5ad5-11ea-ba38-db16291f400f,3,10,13,10,1.0,1.0,0
run-2020-2-29-9-27-29.113529205,AGENT#b4be4db4-5ad5-11ea-bac3-57b026ebfa40,2,11,13,10,1.0,1.0,0
run-2020-2-29-9-27-29.113529205,AGENT#b4be4e9a-5ad5-11ea-8c09-970bca847adb,2,11,13,10,1.0,1.0,0
run-2020-2-29-9-27-29.113529205,AGENT#b4be4f58-5ad5-11ea-8043-c32a6730dc7c,2,11,13,10,1.0,1.0,0
run-2020-2-29-9-27-29.113529205,AGENT#b4c2a0b2-5ad5-11ea-89ed-9730e6aea929,1,12,13,10,1.0,1.0,0
run-2020-2-29-9-27-29.113529205,AGENT#b4c2a2ec-5ad5-11ea-b812-9b9cda016de9,1,12,13,10,1.0,1.0,0
run-2020-2-29-9-27-29.113529205,AGENT#b4b5bbb8-5ad5-11ea-b7ea-a32040d2f390,5,9,14,10,1.0,1.0,0
run-2020-2-29-9-27-29.113529205,AGENT#b4c6dbf0-5ad5-11ea-97e5-afcbff68c31b,1,13,14,10,1.0,1.0,0
run-2020-2-29-9-27-29.113529205,AGENT#b4c6d9b6-5ad5-11ea-8103-23cc6730974d,2,13,15,10,1.0,1.0,0
run-2020-2-29-9-27-29.113529205,AGENT#b4be5016-5ad5-11ea-bc9c-e3a6714b5753,5,11,16,10,1.0,1.0,0
run-2020-2-29-9-27-29.113529205,AGENT#b4c2a242-5ad5-11ea-8a8d-9b0af741114a,4,12,16,10,1.0,1.0,0
run-2020-2-29-9-27-29.113529205,AGENT#b4c6dca4-5ad5-11ea-8762-57f6c9d4e2a8,3,13,16,10,1.0,1.0,0
run-2020-2-29-9-27-29.113529205,AGENT#b4cf489e-5ad5-11ea-9be3-433b3adafd28,1,15,16,10,1.0,1.0,0
run-2020-2-29-9-27-29.113529205,AGENT#b4cf497a-5ad5-11ea-9abe-3fc981287a27,1,15,16,10,1.0,1.0,0
run-2020-2-29-9-27-29.113529205,AGENT#b4cf4ac4-5ad5-11ea-b49c-3361fc991c94,1,15,16,10,1.0,1.0,0
run-2020-2-29-9-27-29.113529205,AGENT#b4b5bc62-5ad5-11ea-b71b-5328bbc61344,8,9,17,10,1.0,1.0,0
run-2020-2-29-9-27-29.113529205,AGENT#b4cf4a24-5ad5-11ea-b6bc-8b35eaf1680f,2,15,17,10,1.0,1.0,0
run-2020-2-29-9-27-29.113529205,AGENT#b49f720e-5ad5-11ea-831c-9f0227af7da8,14,4,18,10,1.0,1.0,0
run-2020-2-29-9-27-29.113529205,AGENT#b4d8018c-5ad5-11ea-b8ed-5f4a567b04a3,2,17,19,10,1.0,1.0,0
run-2020-2-29-9-27-29.113529205,AGENT#b4dc4f94-5ad5-11ea-b0b8-3bbb220498f3,1,18,19,10,1.0,1.0,0
run-2020-2-29-9-27-29.113529205,AGENT#b4dc503e-5ad5-11ea-83d0-2b30e50cc677,1,18,19,10,1.0,1.0,0
run-2020-2-29-9-27-29.113529205,AGENT#b4dc5250-5ad5-11ea-a014-6f68afc90661,1,18,19,10,1.0,1.0,0
run-2020-2-29-9-27-29.113529205,AGENT#b4e1e9d6-5ad5-11ea-929e-7f19bb2187f8,1,19,20,10,1.0,1.0,0
run-2020-2-29-9-27-29.113529205,AGENT#b4dc519c-5ad5-11ea-8dad-9fd0441503fe,4,18,22,10,1.0,1.0,0
run-2020-2-29-9-27-29.113529205,AGENT#b4ee2c0a-5ad5-11ea-8572-7bc2f93f63a8,1,21,22,10,1.0,1.0,0
run-2020-2-29-9-27-29.113529205,AGENT#b4ee2e4e-5ad5-11ea-9ab1-23ecdd36d24f,1,21,22,10,1.0,1.0,0
run-2020-2-29-9-27-29.113529205,AGENT#b493691e-5ad5-11ea-af5a-37c3f392ae3c,21,2,23,10,1.0,1.0,0
run-2020-2-29-9-27-29.113529205,AGENT#b4dc4e04-5ad5-11ea-a809-c7bf51546f9a,5,18,23,10,1.0,1.0,0
run-2020-2-29-9-27-29.113529205,AGENT#b4dc50f2-5ad5-11ea-8524-a754c99e3ddb,5,18,23,10,1.0,1.0,0
run-2020-2-29-9-27-29.113529205,AGENT#b4e1e7ce-5ad5-11ea-8572-27e27c3a6e78,4,19,23,10,1.0,1.0,0
run-2020-2-29-9-27-29.113529205,AGENT#b4e76212-5ad5-11ea-a2ed-178b75925547,3,20,23,10,1.0,1.0,0
run-2020-2-29-9-27-29.113529205,AGENT#b4e7630c-5ad5-11ea-a500-d3169a56c0c5,3,20,23,10,1.0,1.0,0
run-2020-2-29-9-27-29.113529205,AGENT#b4f283e0-5ad5-11ea-8c12-779cf6baee54,1,22,23,10,1.0,1.0,0
run-2020-2-29-9-27-29.113529205,AGENT#b4e75ede-5ad5-11ea-83e1-4f7a879a51dc,4,20,24,10,1.0,1.0,0
run-2020-2-29-9-27-29.113529205,AGENT#b4e76118-5ad5-11ea-a3b6-23bb50026f3c,4,20,24,10,1.0,1.0,0
run-2020-2-29-9-27-29.113529205,AGENT#b4ee2dae-5ad5-11ea-b744-7bccba6fbd3c,3,21,24,10,1.0,1.0,0
run-2020-2-29-9-27-29.113529205,AGENT#b4f6c392-5ad5-11ea-892f-57d39150abe0,1,23,24,10,1.0,1.0,0
run-2020-2-29-9-27-29.113529205,AGENT#b48abe0e-5ad5-11ea-89bf-6b3290861d49,25,0,25,10,1.0,1.0,0
run-2020-2-29-9-27-29.113529205,AGENT#b4936b12-5ad5-11ea-b671-9358e8b9162b,23,2,25,10,1.0,1.0,0
run-2020-2-29-9-27-29.113529205,AGENT#b4fadda6-5ad5-11ea-827d-2f14e6f44f3d,1,24,25,10,1.0,1.0,0
run-2020-2-29-9-27-29.113529205,AGENT#b48adc40-5ad5-11ea-b554-b3a7a4ef50b4,26,0,26,10,1.0,1.0,0
run-2020-2-29-9-27-29.113529205,AGENT#b4f6c18a-5ad5-11ea-a8d4-f31d154d1407,3,23,26,10,1.0,1.0,0
run-2020-2-29-9-27-29.113529205,AGENT#b4ff3482-5ad5-11ea-9395-df29d7128f7b,1,25,26,10,1.0,1.0,0
run-2020-2-29-9-27-29.113529205,AGENT#b4ff3568-5ad5-11ea-9a74-9f1e7673cb06,1,25,26,10,1.0,1.0,0
run-2020-2-29-9-27-29.113529205,AGENT#b4ff3626-5ad5-11ea-9ca9-373c30f29e3e,1,25,26,10,1.0,1.0,0
run-2020-2-29-9-27-29.113529205,AGENT#b4f6c2a2-5ad5-11ea-b81d-f71c1737f083,4,23,27,10,1.0,1.0,0
run-2020-2-29-9-27-29.113529205,AGENT#b4fadcfc-5ad5-11ea-b3f1-e758f03273e0,3,24,27,10,1.0,1.0,0
run-2020-2-29-9-27-29.113529205,AGENT#b50342c0-5ad5-11ea-9f26-8ba1e8a4d319,1,26,27,10,1.0,1.0,0
run-2020-2-29-9-27-29.113529205,AGENT#b48abd64-5ad5-11ea-b0d8-8713fab59209,29,0,29,10,1.0,1.0,0
run-2020-2-29-9-27-29.113529205,AGENT#b4fadc48-5ad5-11ea-9155-8fb50849da39,5,24,29,10,1.0,1.0,0
run-2020-2-29-9-27-29.113529205,AGENT#b50765c6-5ad5-11ea-8230-5b3b9a24ee75,2,27,29,10,1.0,1.0,0
run-2020-2-29-9-27-29.113529205,AGENT#b50b8502-5ad5-11ea-83d6-73703af15cc6,1,28,29,10,1.0,1.0,0
run-2020-2-29-9-27-29.113529205,AGENT#b4ff36da-5ad5-11ea-bf76-7bcb91744ee1,5,25,30,10,1.0,1.0,0
run-2020-2-29-9-27-29.113529205,AGENT#b50764d6-5ad5-11ea-b087-13a9bd527857,4,27,31,10,1.0,1.0,0
run-2020-2-29-9-27-29.113529205,AGENT#b50f9ed0-5ad5-11ea-87f4-bf72d628cfec,2,29,31,10,1.0,1.0,0
run-2020-2-29-9-27-29.113529205,AGENT#b51380fe-5ad5-11ea-a9c6-87315f432f3c,2,30,32,10,1.0,1.0,0
run-2020-2-29-9-27-29.113529205,AGENT#b51381e4-5ad5-11ea-bc9d-bb74f84967e6,2,30,32,10,1.0,1.0,0
run-2020-2-29-9-27-29.113529205,AGENT#b50fa146-5ad5-11ea-a3a2-5ba55d5cd82b,4,29,33,10,1.0,1.0,0
run-2020-2-29-9-27-29.113529205,AGENT#b4d8038a-5ad5-11ea-bf70-932d190829bd,17,17,34,10,1.0,1.0,0
run-2020-2-29-9-27-29.113529205,AGENT#b517a404-5ad5-11ea-bbc1-d314afb856f2,3,31,34,10,1.0,1.0,0
run-2020-2-29-9-27-29.113529205,AGENT#b51bdede-5ad5-11ea-b585-0ffcdda4da8e,2,32,34,10,1.0,1.0,0
run-2020-2-29-9-27-29.113529205,AGENT#b52016d4-5ad5-11ea-8ae3-d3cd74d9f6a8,1,33,34,10,1.0,1.0,0
run-2020-2-29-9-27-29.113529205,AGENT#b48ac07a-5ad5-11ea-afa1-5fc32b26f6a4,35,0,35,10,1.0,1.0,0
run-2020-2-29-9-27-29.113529205,AGENT#b51bdc90-5ad5-11ea-8183-9bbf624f84c2,3,32,35,10,1.0,1.0,0
run-2020-2-29-9-27-29.113529205,AGENT#b52425bc-5ad5-11ea-8d24-3b3a5345e172,1,34,35,10,1.0,1.0,0
run-2020-2-29-9-27-29.113529205,AGENT#b517a562-5ad5-11ea-ab2c-fb12521c8068,5,31,36,10,1.0,1.0,0
run-2020-2-29-9-27-29.113529205,AGENT#b4b5bb04-5ad5-11ea-9598-8f0d9efa43f8,28,9,37,10,1.0,1.0,0
run-2020-2-29-9-27-29.113529205,AGENT#b51bddd0-5ad5-11ea-b1e2-67e56d10b111,5,32,37,10,1.0,1.0,0
run-2020-2-29-9-27-29.113529205,AGENT#b5291428-5ad5-11ea-a5a8-4ba6fd96ceb0,2,35,37,10,1.0,1.0,0
run-2020-2-29-9-27-29.113529205,AGENT#b52e8ef8-5ad5-11ea-93ce-aba77f098e07,1,36,37,10,1.0,1.0,0
run-2020-2-29-9-27-29.113529205,AGENT#b5291568-5ad5-11ea-b50e-a3f91e5c8fa2,3,35,38,10,1.0,1.0,0
run-2020-2-29-9-27-29.113529205,AGENT#b533a6c2-5ad5-11ea-b19d-8f862bd0fcc2,1,37,38,10,1.0,1.0,0
run-2020-2-29-9-27-29.113529205,AGENT#b533a578-5ad5-11ea-b234-bb159f156d9c,2,37,39,10,1.0,1.0,0
run-2020-2-29-9-27-29.113529205,AGENT#b5381efa-5ad5-11ea-9012-2f7f9811dd3b,1,38,39,10,1.0,1.0,0
run-2020-2-29-9-27-29.113529205,AGENT#b5242418-5ad5-11ea-9dbd-6733961e7b7d,6,34,40,10,1.0,1.0,0
run-2020-2-29-9-27-29.113529205,AGENT#b533a7a8-5ad5-11ea-9fbc-c3c5f60428fb,4,37,41,10,1.0,1.0,0
run-2020-2-29-9-27-29.113529205,AGENT#b53c47fa-5ad5-11ea-8401-87beac29ecee,2,39,41,10,1.0,1.0,0
run-2020-2-29-9-27-29.113529205,AGENT#b53c499e-5ad5-11ea-98ea-3777ad5f19de,2,39,41,10,1.0,1.0,0
run-2020-2-29-9-27-29.113529205,AGENT#b5407532-5ad5-11ea-b9c3-dbfd75628cda,1,40,41,10,1.0,1.0,0
run-2020-2-29-9-27-29.113529205,AGENT#b52e8bba-5ad5-11ea-b8c3-e3910c7eefed,6,36,42,10,1.0,1.0,0
run-2020-2-29-9-27-29.113529205,AGENT#b52e8cfa-5ad5-11ea-a353-d7187322e100,6,36,42,10,1.0,1.0,0
run-2020-2-29-9-27-29.113529205,AGENT#b5407244-5ad5-11ea-b039-e717cb8d16ff,2,40,42,10,1.0,1.0,0
run-2020-2-29-9-27-29.113529205,AGENT#b5407492-5ad5-11ea-9537-fbedb9e0806e,3,40,43,10,1.0,1.0,0
run-2020-2-29-9-27-29.113529205,AGENT#b4c2a198-5ad5-11ea-beaa-e71040f6b070,32,12,44,10,1.0,1.0,0
run-2020-2-29-9-27-29.113529205,AGENT#b52e8e08-5ad5-11ea-8d9e-0ffc4b52fb26,8,36,44,10,1.0,1.0,0
run-2020-2-29-9-27-29.113529205,AGENT#b48abcba-5ad5-11ea-9935-4f8c862c5e7b,45,0,45,10,1.0,1.0,0
run-2020-2-29-9-27-29.113529205,AGENT#b48abfda-5ad5-11ea-a494-73079d6764fc,45,0,45,10,1.0,1.0,0
run-2020-2-29-9-27-29.113529205,AGENT#b550f47a-5ad5-11ea-8006-ff03774d1785,1,44,45,10,1.0,1.0,0
run-2020-2-29-9-27-29.113529205,AGENT#b550f57e-5ad5-11ea-800d-e79d8f7dfddd,1,44,45,10,1.0,1.0,0
run-2020-2-29-9-27-29.113529205,AGENT#b48abbd4-5ad5-11ea-b208-ebb0d8b0e4f4,46,0,46,10,1.0,1.0,0
run-2020-2-29-9-27-29.113529205,AGENT#b4cf4b6e-5ad5-11ea-90d0-739616bd59b2,31,15,46,10,1.0,1.0,0
run-2020-2-29-9-27-29.113529205,AGENT#b5552978-5ad5-11ea-a272-138cfdb13db8,1,45,46,10,1.0,1.0,0
run-2020-2-29-9-27-29.113529205,AGENT#b5552ad6-5ad5-11ea-bac4-c30dca5f8b8f,1,45,46,10,1.0,1.0,0
run-2020-2-29-9-27-29.113529205,AGENT#b4936a68-5ad5-11ea-a77a-7bf613e6082c,45,2,47,10,1.0,1.0,0
run-2020-2-29-9-27-29.113529205,AGENT#b550f65a-5ad5-11ea-8824-97d3eafd117c,3,44,47,10,1.0,1.0,0
run-2020-2-29-9-27-29.113529205,AGENT#b5593c52-5ad5-11ea-bb54-5fdcc03b2306,1,46,47,10,1.0,1.0,0
run-2020-2-29-9-27-29.113529205,AGENT#b5593cf2-5ad5-11ea-a49f-4397761bcbc8,1,46,47,10,1.0,1.0,0
run-2020-2-29-9-27-29.113529205,AGENT#b5552888-5ad5-11ea-ab16-13b96ee6d651,3,45,48,10,1.0,1.0,0
run-2020-2-29-9-27-29.113529205,AGENT#b5552a2c-5ad5-11ea-9df7-4b527164bafe,3,45,48,10,1.0,1.0,0
run-2020-2-29-9-27-29.113529205,AGENT#b5552c34-5ad5-11ea-a114-e7a10fdc5f9e,3,45,48,10,1.0,1.0,0
run-2020-2-29-9-27-29.113529205,AGENT#b5593a18-5ad5-11ea-bf02-47d954b1df3b,2,46,48,10,1.0,1.0,0
run-2020-2-29-9-27-29.113529205,AGENT#b4992ba6-5ad5-11ea-aca6-935d41820916,46,3,49,10,1.0,1.0,0
run-2020-2-29-9-27-29.113529205,AGENT#b5552b8a-5ad5-11ea-b366-6765d03b6ee3,4,45,49,10,1.0,1.0,0
run-2020-2-29-9-27-29.113529205,AGENT#b5552cd4-5ad5-11ea-b7da-93a1e4e18f29,4,45,49,10,1.0,1.0,0
run-2020-2-29-9-27-29.113529205,AGENT#b55d5c42-5ad5-11ea-96fa-7fa3c3a7d6c5,2,47,49,10,1.0,1.0,0
run-2020-2-29-9-27-29.113529205,AGENT#b5593afe-5ad5-11ea-9740-5734b13717e0,4,46,50,10,1.0,1.0,0
run-2020-2-29-9-27-29.113529205,AGENT#b5658980-5ad5-11ea-a572-ff7fa2003b74,1,49,50,10,1.0,1.0,0
run-2020-2-29-9-27-29.113529205,AGENT#b5658c78-5ad5-11ea-9da9-ef557d94285d,1,49,50,10,1.0,1.0,0
run-2020-2-29-9-27-29.113529205,AGENT#b4a4625a-5ad5-11ea-a576-dbe200249685,46,5,51,10,1.0,1.0,0
run-2020-2-29-9-27-29.113529205,AGENT#b48abeae-5ad5-11ea-9b19-57db79e6c11c,52,0,52,10,1.0,1.0,0
run-2020-2-29-9-27-29.113529205,AGENT#b4c6db3c-5ad5-11ea-bfe9-6be671d433a0,39,13,52,10,1.0,1.0,0
run-2020-2-29-9-27-29.113529205,AGENT#b5658bd8-5ad5-11ea-93b7-33a8620d0e88,3,49,52,10,1.0,1.0,0
run-2020-2-29-9-27-29.113529205,AGENT#b56e5ec0-5ad5-11ea-8255-0fe95fd0aec4,1,51,52,10,1.0,1.0,0
run-2020-2-29-9-27-29.113529205,AGENT#b4a8d11e-5ad5-11ea-a1df-a3b60f3aa4c0,47,6,53,10,1.0,1.0,0
run-2020-2-29-9-27-29.113529205,AGENT#b5658b2e-5ad5-11ea-8bdb-5fcb10b74e3a,4,49,53,10,1.0,1.0,0
run-2020-2-29-9-27-29.113529205,AGENT#b569a006-5ad5-11ea-bf0f-47b188bad67c,3,50,53,10,1.0,1.0,0
run-2020-2-29-9-27-29.113529205,AGENT#b5658a70-5ad5-11ea-b207-938cb482097a,5,49,54,10,1.0,1.0,0
run-2020-2-29-9-27-29.113529205,AGENT#b5739ff2-5ad5-11ea-961c-dfdd3bdabf39,2,52,54,10,1.0,1.0,0
run-2020-2-29-9-27-29.113529205,AGENT#b578d7b0-5ad5-11ea-8783-df4f1870311a,1,53,54,10,1.0,1.0,0
run-2020-2-29-9-27-29.113529205,AGENT#b578dc24-5ad5-11ea-98b2-9f280a1f06ec,1,53,54,10,1.0,1.0,0
run-2020-2-29-9-27-29.113529205,AGENT#b5448a78-5ad5-11ea-a2d1-2fd48e5cb0c2,14,41,55,10,1.0,1.0,0
run-2020-2-29-9-27-29.113529205,AGENT#b578d56c-5ad5-11ea-ad76-1f7444a292b8,2,53,55,10,1.0,1.0,0
run-2020-2-29-9-27-29.113529205,AGENT#b578d6b6-5ad5-11ea-83e2-b3226a338c9b,2,53,55,10,1.0,1.0,0
run-2020-2-29-9-27-29.113529205,AGENT#b578d8a0-5ad5-11ea-b4cd-0fe0220cdfa8,2,53,55,10,1.0,1.0,0
run-2020-2-29-9-27-29.113529205,AGENT#b57d32ba-5ad5-11ea-b5e2-f3e399a2a76e,1,54,55,10,1.0,1.0,0
run-2020-2-29-9-27-29.113529205,AGENT#b57d35a8-5ad5-11ea-a32a-c35cb4f81f6f,1,54,55,10,1.0,1.0,0
run-2020-2-29-9-27-29.113529205,AGENT#b57d3652-5ad5-11ea-9d22-d3f01d06d3b7,1,54,55,10,1.0,1.0,0
run-2020-2-29-9-27-29.113529205,AGENT#b4b17b70-5ad5-11ea-ba91-3387e56174b8,48,8,56,10,1.0,1.0,0
run-2020-2-29-9-27-29.113529205,AGENT#b573a146-5ad5-11ea-b68f-bf4541000f27,4,52,56,10,1.0,1.0,0
run-2020-2-29-9-27-29.113529205,AGENT#b57d34fe-5ad5-11ea-a246-c7b98763efeb,2,54,56,10,1.0,1.0,0
run-2020-2-29-9-27-29.113529205,AGENT#b578da6c-5ad5-11ea-8736-b39fef61fbc4,4,53,57,10,1.0,1.0,0
run-2020-2-29-9-27-29.113529205,AGENT#b57d345e-5ad5-11ea-a5e9-537d4a15a248,3,54,57,10,1.0,1.0,0
run-2020-2-29-9-27-29.113529205,AGENT#b4c6da92-5ad5-11ea-b365-cfe9d4da76b1,45,13,58,10,1.0,1.0,0
run-2020-2-29-9-27-29.113529205,AGENT#b578db48-5ad5-11ea-9e8b-e794cf3aba04,5,53,58,10,1.0,1.0,0
run-2020-2-29-9-27-29.113529205,AGENT#b5867e9c-5ad5-11ea-88b8-97d207a98865,2,56,58,10,1.0,1.0,0
run-2020-2-29-9-27-29.113529205,AGENT#b5868144-5ad5-11ea-bf28-8f2c1f6062e4,2,56,58,10,1.0,1.0,0
run-2020-2-29-9-27-29.113529205,AGENT#b58afe9a-5ad5-11ea-9578-3b805477bc7f,1,57,58,10,1.0,1.0,0
run-2020-2-29-9-27-29.113529205,AGENT#b4cb1210-5ad5-11ea-ae96-03b52675f1ce,45,14,59,10,1.0,1.0,0
run-2020-2-29-9-27-29.113529205,AGENT#b57d33aa-5ad5-11ea-8f46-07ba7ef84a20,5,54,59,10,1.0,1.0,0
run-2020-2-29-9-27-29.113529205,AGENT#b5867f50-5ad5-11ea-8ecd-ff9980967fc4,3,56,59,10,1.0,1.0,0
run-2020-2-29-9-27-29.113529205,AGENT#b58680a4-5ad5-11ea-8430-d752db5dbc98,3,56,59,10,1.0,1.0,0
run-2020-2-29-9-27-29.113529205,AGENT#b58afd3c-5ad5-11ea-8c66-379bd1c6d685,2,57,59,10,1.0,1.0,0
run-2020-2-29-9-27-29.113529205,AGENT#b4cb1134-5ad5-11ea-a32a-dfe61000086f,46,14,60,10,1.0,1.0,0
run-2020-2-29-9-27-29.113529205,AGENT#b5814ae4-5ad5-11ea-9a8b-078aa38df972,5,55,60,10,1.0,1.0,0
run-2020-2-29-9-27-29.113529205,AGENT#b5867ffa-5ad5-11ea-8146-bb0a70ea2188,4,56,60,10,1.0,1.0,0
run-2020-2-29-9-27-29.113529205,AGENT#b58681ee-5ad5-11ea-b40f-3772d88732b7,4,56,60,10,1.0,1.0,0
run-2020-2-29-9-27-29.113529205,AGENT#b58afff8-5ad5-11ea-9648-9b2ebd41a7f3,3,57,60,10,1.0,1.0,0
run-2020-2-29-9-27-29.113529205,AGENT#b5867da2-5ad5-11ea-958f-23938df8e208,5,56,61,10,1.0,1.0,0
run-2020-2-29-9-27-29.113529205,AGENT#b58aff4e-5ad5-11ea-aff7-2ff686542e8d,4,57,61,10,1.0,1.0,0
run-2020-2-29-9-27-29.113529205,AGENT#b5974d44-5ad5-11ea-95b9-139333ba0cfa,1,60,61,10,1.0,1.0,0
run-2020-2-29-9-27-29.113529205,AGENT#b5974dee-5ad5-11ea-b8c6-3fc1d0f12815,1,60,61,10,1.0,1.0,0
run-2020-2-29-9-27-29.113529205,AGENT#b4d80240-5ad5-11ea-8fac-33e3ffd7563d,45,17,62,10,1.0,1.0,0
run-2020-2-29-9-27-29.113529205,AGENT#b4d802ea-5ad5-11ea-9dc3-23b7037ea7ee,45,17,62,10,1.0,1.0,0
run-2020-2-29-9-27-29.113529205,AGENT#b4e76000-5ad5-11ea-9d77-cfc70da908e5,42,20,62,10,1.0,1.0,0
run-2020-2-29-9-27-29.113529205,AGENT#b58afc4c-5ad5-11ea-94f7-5b20d5bc53a6,5,57,62,10,1.0,1.0,0
run-2020-2-29-9-27-29.113529205,AGENT#b58afdf0-5ad5-11ea-a5f7-ab46f67a0db5,5,57,62,10,1.0,1.0,0
run-2020-2-29-9-27-29.113529205,AGENT#b59b719e-5ad5-11ea-9361-a741e0202f47,1,61,62,10,1.0,1.0,0
run-2020-2-29-9-27-29.113529205,AGENT#b4d800b0-5ad5-11ea-bbef-c3178349a8e1,46,17,63,10,1.0,1.0,0
run-2020-2-29-9-27-29.113529205,AGENT#b5974bfa-5ad5-11ea-b6aa-5bbbd9919e39,3,60,63,10,1.0,1.0,0
run-2020-2-29-9-27-29.113529205,AGENT#b5974ca4-5ad5-11ea-bc54-afbd4cd21ab3,3,60,63,10,1.0,1.0,0
run-2020-2-29-9-27-29.113529205,AGENT#b59b7072-5ad5-11ea-90a8-03ed4dd5dd5d,2,61,63,10,1.0,1.0,0
run-2020-2-29-9-27-29.113529205,AGENT#b4e1e8e6-5ad5-11ea-a637-7f7d250584a0,45,19,64,10,1.0,1.0,0
run-2020-2-29-9-27-29.113529205,AGENT#b5930284-5ad5-11ea-800a-6bd666cb2a54,5,59,64,10,1.0,1.0,0
run-2020-2-29-9-27-29.113529205,AGENT#b59749fc-5ad5-11ea-84cf-87269352fddc,4,60,64,10,1.0,1.0,0
run-2020-2-29-9-27-29.113529205,AGENT#b4e1e684-5ad5-11ea-ad22-03557bd779f5,46,19,65,10,1.0,1.0,0
run-2020-2-29-9-27-29.113529205,AGENT#b5a7d1aa-5ad5-11ea-bf0f-77303527cf53,1,64,65,10,1.0,1.0,0
run-2020-2-29-9-27-29.113529205,AGENT#b4ee2aa2-5ad5-11ea-b2b6-d3c37f2b1864,45,21,66,10,1.0,1.0,0
run-2020-2-29-9-27-29.113529205,AGENT#b5a7cf52-5ad5-11ea-b348-47c98f109675,2,64,66,10,1.0,1.0,0
run-2020-2-29-9-27-29.113529205,AGENT#b5a7d04c-5ad5-11ea-ab0f-1b6db53217fa,2,64,66,10,1.0,1.0,0
run-2020-2-29-9-27-29.113529205,AGENT#b4dc4ee0-5ad5-11ea-9859-0feb264cdab1,49,18,67,10,1.0,1.0,0
run-2020-2-29-9-27-29.113529205,AGENT#b4ee2ce6-5ad5-11ea-b138-cbf35259131a,46,21,67,10,1.0,1.0,0
run-2020-2-29-9-27-29.113529205,AGENT#b4f28304-5ad5-11ea-a63b-dbb69accfc48,45,22,67,10,1.0,1.0,0
run-2020-2-29-9-27-29.113529205,AGENT#b59f9e4a-5ad5-11ea-9e5e-1b4b6fa6062e,5,62,67,10,1.0,1.0,0
run-2020-2-29-9-27-29.113529205,AGENT#b59f9f3a-5ad5-11ea-93c1-63389c4905ea,5,62,67,10,1.0,1.0,0
run-2020-2-29-9-27-29.113529205,AGENT#b59fa098-5ad5-11ea-8ef9-0f525ad2e526,5,62,67,10,1.0,1.0,0
run-2020-2-29-9-27-29.113529205,AGENT#b5a3be12-5ad5-11ea-8c3a-63d0793b3a78,4,63,67,10,1.0,1.0,0
run-2020-2-29-9-27-29.113529205,AGENT#b5abd76e-5ad5-11ea-bd30-f701c6121a47,2,65,67,10,1.0,1.0,0
run-2020-2-29-9-27-29.113529205,AGENT#b5abd818-5ad5-11ea-b99c-5f5bf86957b2,2,65,67,10,1.0,1.0,0
run-2020-2-29-9-27-29.113529205,AGENT#b5abd8cc-5ad5-11ea-9d00-47f3ba15ab9f,2,65,67,10,1.0,1.0,0
run-2020-2-29-9-27-29.113529205,AGENT#b5aff5d8-5ad5-11ea-9880-23d43c838ba7,1,66,67,10,1.0,1.0,0
run-2020-2-29-9-27-29.113529205,AGENT#b5aff786-5ad5-11ea-8730-4fc4457ccb5c,1,66,67,10,1.0,1.0,0
run-2020-2-29-9-27-29.113529205,AGENT#b5a7d100-5ad5-11ea-8316-db0fd83944c0,4,64,68,10,1.0,1.0,0
run-2020-2-29-9-27-29.113529205,AGENT#b5b4a114-5ad5-11ea-b37e-db277faa41d7,1,67,68,10,1.0,1.0,0
run-2020-2-29-9-27-29.113529205,AGENT#b573a254-5ad5-11ea-95c4-232496350662,17,52,69,10,1.0,1.0,0
run-2020-2-29-9-27-29.113529205,AGENT#b5b9f70e-5ad5-11ea-ba01-6721fb6458fd,1,68,69,10,1.0,1.0,0
run-2020-2-29-9-27-29.113529205,AGENT#b5b9f9f2-5ad5-11ea-ac4b-bbcbcc60eaee,1,68,69,10,1.0,1.0,0
run-2020-2-29-9-27-29.113529205,AGENT#b4f6c464-5ad5-11ea-9ef9-b34b907ce8bb,47,23,70,10,1.0,1.0,0
run-2020-2-29-9-27-29.113529205,AGENT#b5bf846c-5ad5-11ea-bd68-f35bfe5035d0,1,69,70,10,1.0,1.0,0
run-2020-2-29-9-27-29.113529205,AGENT#b4fadb62-5ad5-11ea-b8b1-77d0dd51ad8c,47,24,71,10,1.0,1.0,0
run-2020-2-29-9-27-29.113529205,AGENT#b50341da-5ad5-11ea-a95c-5f95a566ac07,45,26,71,10,1.0,1.0,0
run-2020-2-29-9-27-29.113529205,AGENT#b517a4ae-5ad5-11ea-99e6-eb0616b4307b,40,31,71,10,1.0,1.0,0
run-2020-2-29-9-27-29.113529205,AGENT#b5c3e8c2-5ad5-11ea-a367-b72de65c72e8,1,70,71,10,1.0,1.0,0
run-2020-2-29-9-27-29.113529205,AGENT#b5242508-5ad5-11ea-a38f-2b27bb513f7a,38,34,72,10,1.0,1.0,0
run-2020-2-29-9-27-29.113529205,AGENT#b5b9f812-5ad5-11ea-b578-5b0ae596bbf3,4,68,72,10,1.0,1.0,0
run-2020-2-29-9-27-29.113529205,AGENT#b5c80b28-5ad5-11ea-b6c5-135ea644c6bd,1,71,72,10,1.0,1.0,0
run-2020-2-29-9-27-29.113529205,AGENT#b5c80bd2-5ad5-11ea-809f-2fe3a89507f8,1,71,72,10,1.0,1.0,0
run-2020-2-29-9-27-29.113529205,AGENT#b5b9f5b0-5ad5-11ea-bae3-039c51a50c41,5,68,73,10,1.0,1.0,0
run-2020-2-29-9-27-29.113529205,AGENT#b50fa088-5ad5-11ea-828a-83ed77e49466,45,29,74,10,1.0,1.0,0
run-2020-2-29-9-27-29.113529205,AGENT#b5bf8336-5ad5-11ea-bbcc-3b91a9e6bc1f,5,69,74,10,1.0,1.0,0
run-2020-2-29-9-27-29.113529205,AGENT#b5c80a2e-5ad5-11ea-a348-0ba502afbf91,3,71,74,10,1.0,1.0,0
run-2020-2-29-9-27-29.113529205,AGENT#b5c80c72-5ad5-11ea-920c-bf14290754bb,3,71,74,10,1.0,1.0,0
run-2020-2-29-9-27-29.113529205,AGENT#b5d0413a-5ad5-11ea-9d68-1f365680ba1e,1,73,74,10,1.0,1.0,0
run-2020-2-29-9-27-29.113529205,AGENT#b5d042e8-5ad5-11ea-9d54-db625dc4e9b2,1,73,74,10,1.0,1.0,0
run-2020-2-29-9-27-29.113529205,AGENT#b5cc2bd6-5ad5-11ea-aa2f-070e886bc6cd,3,72,75,10,1.0,1.0,0
run-2020-2-29-9-27-29.113529205,AGENT#b5d04234-5ad5-11ea-a18b-438576e4059b,2,73,75,10,1.0,1.0,0
run-2020-2-29-9-27-29.113529205,AGENT#b5d46b0c-5ad5-11ea-a6d9-1fd93918e91a,1,74,75,10,1.0,1.0,0
run-2020-2-29-9-27-29.113529205,AGENT#b50f9fc0-5ad5-11ea-a9d9-db03c71f86da,47,29,76,10,1.0,1.0,0
run-2020-2-29-9-27-29.113529205,AGENT#b517a31e-5ad5-11ea-89c2-c3f20fa147ab,45,31,76,10,1.0,1.0,0
run-2020-2-29-9-27-29.113529205,AGENT#b5d468be-5ad5-11ea-acdc-7faed14a2480,2,74,76,10,1.0,1.0,0
run-2020-2-29-9-27-29.113529205,AGENT#b5d886c4-5ad5-11ea-b24d-ab92435dfc0f,1,75,76,10,1.0,1.0,0
run-2020-2-29-9-27-29.113529205,AGENT#b5d885ac-5ad5-11ea-b526-73d8209df19f,2,75,77,10,1.0,1.0,0
run-2020-2-29-9-27-29.113529205,AGENT#b5dca448-5ad5-11ea-bbaf-0b87b39a6355,1,76,77,10,1.0,1.0,0
run-2020-2-29-9-27-29.113529205,AGENT#b5d46a62-5ad5-11ea-8bdd-1f395fd3ebaf,4,74,78,10,1.0,1.0,0
run-2020-2-29-9-27-29.113529205,AGENT#b5dca146-5ad5-11ea-90a8-2bdd2de73199,2,76,78,10,1.0,1.0,0
run-2020-2-29-9-27-29.113529205,AGENT#b5e0b920-5ad5-11ea-a557-7f7015d37e72,1,77,78,10,1.0,1.0,0
run-2020-2-29-9-27-29.113529205,AGENT#b5e0b9de-5ad5-11ea-a6ff-ff1d5cf7fb3f,1,77,78,10,1.0,1.0,0
run-2020-2-29-9-27-29.113529205,AGENT#b5e0bb32-5ad5-11ea-b419-b7011e5a36a3,1,77,78,10,1.0,1.0,0
run-2020-2-29-9-27-29.113529205,AGENT#b5dca2f4-5ad5-11ea-a9ea-e7cae55de048,3,76,79,10,1.0,1.0,0
run-2020-2-29-9-27-29.113529205,AGENT#b5e50732-5ad5-11ea-9c71-2b06494647a1,2,78,80,10,1.0,1.0,0
run-2020-2-29-9-27-29.113529205,AGENT#b5e97952-5ad5-11ea-a211-93505beb663e,1,79,80,10,1.0,1.0,0
run-2020-2-29-9-27-29.113529205,AGENT#b5dca240-5ad5-11ea-a458-2b15c09c3662,5,76,81,10,1.0,1.0,0
run-2020-2-29-9-27-29.113529205,AGENT#b5e9760a-5ad5-11ea-bc5d-6b5af46122bb,2,79,81,10,1.0,1.0,0
run-2020-2-29-9-27-29.113529205,AGENT#b5e976b4-5ad5-11ea-a08d-6f296dbf6c50,2,79,81,10,1.0,1.0,0
run-2020-2-29-9-27-29.113529205,AGENT#b5e9775e-5ad5-11ea-94c3-a7486ec97fda,2,79,81,10,1.0,1.0,0
run-2020-2-29-9-27-29.113529205,AGENT#b5e507e6-5ad5-11ea-97c9-033cae8fe5f6,4,78,82,10,1.0,1.0,0
run-2020-2-29-9-27-29.113529205,AGENT#b56188c6-5ad5-11ea-9906-6361df159ca2,35,48,83,10,1.0,1.0,0
run-2020-2-29-9-27-29.113529205,AGENT#b5e97808-5ad5-11ea-96c4-079a0f8de315,4,79,83,10,1.0,1.0,0
run-2020-2-29-9-27-29.113529205,AGENT#b5e978b2-5ad5-11ea-bc34-8bc8bfb6970e,5,79,84,10,1.0,1.0,0
run-2020-2-29-9-27-29.113529205,AGENT#b5ed813c-5ad5-11ea-955e-dbd41b877974,4,80,84,10,1.0,1.0,0
run-2020-2-29-9-27-29.113529205,AGENT#b5f593d6-5ad5-11ea-830e-6bb716851c58,2,82,84,10,1.0,1.0,0
run-2020-2-29-9-27-29.113529205,AGENT#b5f594c6-5ad5-11ea-b941-1b20c3d9174a,2,82,84,10,1.0,1.0,0
run-2020-2-29-9-27-29.113529205,AGENT#b5f5957a-5ad5-11ea-8047-7fa43de0cc7a,2,82,84,10,1.0,1.0,0
run-2020-2-29-9-27-29.113529205,AGENT#b5381e14-5ad5-11ea-aeb8-af488ad168c7,47,38,85,10,1.0,1.0,0
run-2020-2-29-9-27-29.113529205,AGENT#b53c48e0-5ad5-11ea-b7e5-2bc29a23a6c0,46,39,85,10,1.0,1.0,0
run-2020-2-29-9-27-29.113529205,AGENT#b54073e8-5ad5-11ea-9a07-a342fb64cdf9,45,40,85,10,1.0,1.0,0
run-2020-2-29-9-27-29.113529205,AGENT#b5fa4c82-5ad5-11ea-9f22-63f40a942aa6,2,83,85,10,1.0,1.0,0
run-2020-2-29-9-27-29.113529205,AGENT#b5ff5326-5ad5-11ea-a165-179b519a6f94,1,84,85,10,1.0,1.0,0
run-2020-2-29-9-27-29.113529205,AGENT#b5ff5466-5ad5-11ea-9496-a79540ce29b3,1,84,85,10,1.0,1.0,0
run-2020-2-29-9-27-29.113529205,AGENT#b540732a-5ad5-11ea-a8c7-837e249d381c,46,40,86,10,1.0,1.0,0
run-2020-2-29-9-27-29.113529205,AGENT#b5448c12-5ad5-11ea-a412-a7e0e5ae5356,45,41,86,10,1.0,1.0,0
run-2020-2-29-9-27-29.113529205,AGENT#b5fa4b74-5ad5-11ea-97ea-5b846a976d87,3,83,86,10,1.0,1.0,0
run-2020-2-29-9-27-29.113529205,AGENT#b604d148-5ad5-11ea-9eba-8b4356e0d636,1,85,86,10,1.0,1.0,0
run-2020-2-29-9-27-29.113529205,AGENT#b5fa4d86-5ad5-11ea-8532-63931967ec36,4,83,87,10,1.0,1.0,0
run-2020-2-29-9-27-29.113529205,AGENT#b604cdc4-5ad5-11ea-a799-b384a87068ec,2,85,87,10,1.0,1.0,0
run-2020-2-29-9-27-29.113529205,AGENT#b604cea0-5ad5-11ea-bb8c-134dc2a9788b,2,85,87,10,1.0,1.0,0
run-2020-2-29-9-27-29.113529205,AGENT#b604d058-5ad5-11ea-bb9e-27fcd9492b69,2,85,87,10,1.0,1.0,0
run-2020-2-29-9-27-29.113529205,AGENT#b6095466-5ad5-11ea-b284-cfd7f9bbfdb3,1,86,87,10,1.0,1.0,0
run-2020-2-29-9-27-29.113529205,AGENT#b60957ae-5ad5-11ea-b2b6-7f3c4e0b9387,1,86,87,10,1.0,1.0,0
run-2020-2-29-9-27-29.113529205,AGENT#b60d92e2-5ad5-11ea-b861-b33956591a78,1,87,88,10,1.0,1.0,0
run-2020-2-29-9-27-29.113529205,AGENT#b604cb6c-5ad5-11ea-abd2-4fe7a6a044ad,4,85,89,10,1.0,1.0,0
run-2020-2-29-9-27-29.113529205,AGENT#b604ccb6-5ad5-11ea-8778-a38bb301283a,4,85,89,10,1.0,1.0,0
run-2020-2-29-9-27-29.113529205,AGENT#b6095376-5ad5-11ea-af14-23b630e6e35b,3,86,89,10,1.0,1.0,0
run-2020-2-29-9-27-29.113529205,AGENT#b609551a-5ad5-11ea-9052-438d5866704a,3,86,89,10,1.0,1.0,0
run-2020-2-29-9-27-29.113529205,AGENT#b60955ce-5ad5-11ea-8480-4762e224b425,3,86,89,10,1.0,1.0,0
run-2020-2-29-9-27-29.113529205,AGENT#b60d9224-5ad5-11ea-aacd-1714136af5ee,2,87,89,10,1.0,1.0,0
run-2020-2-29-9-27-29.113529205,AGENT#b5448b5e-5ad5-11ea-a879-abd6cc941099,49,41,90,10,1.0,1.0,0
run-2020-2-29-9-27-29.113529205,AGENT#b609570e-5ad5-11ea-8b57-873c14e59fd4,4,86,90,10,1.0,1.0,0
run-2020-2-29-9-27-29.113529205,AGENT#b60d9102-5ad5-11ea-8a0e-e734aeec2af8,3,87,90,10,1.0,1.0,0
run-2020-2-29-9-27-29.113529205,AGENT#b56187d6-5ad5-11ea-a379-e3c474b50b2f,43,48,91,10,1.0,1.0,0
run-2020-2-29-9-27-29.113529205,AGENT#b615f874-5ad5-11ea-8d29-4ba2824176e6,2,89,91,10,1.0,1.0,0
run-2020-2-29-9-27-29.113529205,AGENT#b55d5b52-5ad5-11ea-9ec9-e72d5e63e8e9,45,47,92,10,1.0,1.0,0
run-2020-2-29-9-27-29.113529205,AGENT#b615fb12-5ad5-11ea-bee2-b723da881ee9,3,89,92,10,1.0,1.0,0
run-2020-2-29-9-27-29.113529205,AGENT#b61a51b2-5ad5-11ea-baa3-7f16b0176f73,2,90,92,10,1.0,1.0,0
run-2020-2-29-9-27-29.113529205,AGENT#b61a5266-5ad5-11ea-beca-0b636aa14c2f,2,90,92,10,1.0,1.0,0
run-2020-2-29-9-27-29.113529205,AGENT#b5e97556-5ad5-11ea-bc11-73650814e040,14,79,93,10,1.0,1.0,0
run-2020-2-29-9-27-29.113529205,AGENT#b611c1be-5ad5-11ea-9719-73ebce22878e,5,88,93,10,1.0,1.0,0
run-2020-2-29-9-27-29.113529205,AGENT#b615f9c8-5ad5-11ea-b914-43848b48afd6,4,89,93,10,1.0,1.0,0
run-2020-2-29-9-27-29.113529205,AGENT#b615fa72-5ad5-11ea-b6d3-631d68fe173e,4,89,93,10,1.0,1.0,0
run-2020-2-29-9-27-29.113529205,AGENT#b597490c-5ad5-11ea-9674-ffd88ed7fbcc,34,60,94,10,1.0,1.0,0
run-2020-2-29-9-27-29.113529205,AGENT#b615f928-5ad5-11ea-9625-b3377dc152d4,5,89,94,10,1.0,1.0,0
run-2020-2-29-9-27-29.113529205,AGENT#b61ea320-5ad5-11ea-863e-57bad9428f69,3,91,94,10,1.0,1.0,0
run-2020-2-29-9-27-29.113529205,AGENT#b626ef30-5ad5-11ea-9f7a-a38d8f14094d,1,93,94,10,1.0,1.0,0
run-2020-2-29-9-27-29.113529205,AGENT#b569a100-5ad5-11ea-a891-ebddb9036489,45,50,95,10,1.0,1.0,0
run-2020-2-29-9-27-29.113529205,AGENT#b61a50b8-5ad5-11ea-8978-d7ceb11f142d,5,90,95,10,1.0,1.0,0
run-2020-2-29-9-27-29.113529205,AGENT#b578d97c-5ad5-11ea-9d82-e3fc458e2cd5,43,53,96,10,1.0,1.0,0
run-2020-2-29-9-27-29.113529205,AGENT#b62b2870-5ad5-11ea-8fcd-573af481f8aa,2,94,96,10,1.0,1.0,0
run-2020-2-29-9-27-29.113529205,AGENT#b62f6020-5ad5-11ea-94df-174d58dad832,1,95,96,10,1.0,1.0,0
run-2020-2-29-9-27-29.113529205,AGENT#b62f5d78-5ad5-11ea-9680-83654c3e2873,2,95,97,10,1.0,1.0,0
run-2020-2-29-9-27-29.113529205,AGENT#b62f5f76-5ad5-11ea-a31b-4fdb726cd54c,2,95,97,10,1.0,1.0,0
run-2020-2-29-9-27-29.113529205,AGENT#b5593bb2-5ad5-11ea-af42-a31417fe89e6,52,46,98,10,1.0,1.0,0
run-2020-2-29-9-27-29.113529205,AGENT#b637b63a-5ad5-11ea-9cfc-8783909ed994,1,97,98,10,1.0,1.0,0
run-2020-2-29-9-27-29.113529205,AGENT#b637b73e-5ad5-11ea-82ca-fffe26e0f75d,1,97,98,10,1.0,1.0,0
run-2020-2-29-9-27-29.113529205,AGENT#b62f5cc4-5ad5-11ea-b66d-3b638f874e52,4,95,99,10,1.0,1.0,0
run-2020-2-29-9-27-29.113529205,AGENT#b62f5ecc-5ad5-11ea-a777-6be27fd69523,4,95,99,10,1.0,1.0,0
run-2020-2-29-9-27-29.113529205,AGENT#b637b810-5ad5-11ea-9f78-97814211f4d8,2,97,99,10,1.0,1.0,0
