RunID,Tick,ActiveAgentsPerTick
run-2020-2-18-13-44-24.383234977,0,15
run-2020-2-18-13-44-24.383234977,1,19
run-2020-2-18-13-44-24.383234977,2,21
run-2020-2-18-13-44-24.383234977,3,21
run-2020-2-18-13-44-24.383234977,4,20
run-2020-2-18-13-44-24.383234977,5,21
run-2020-2-18-13-44-24.383234977,6,18
run-2020-2-18-13-44-24.383234977,7,18
run-2020-2-18-13-44-24.383234977,8,19
run-2020-2-18-13-44-24.383234977,9,19
run-2020-2-18-13-44-24.383234977,10,20
run-2020-2-18-13-44-24.383234977,11,20
run-2020-2-18-13-44-24.383234977,12,19
run-2020-2-18-13-44-24.383234977,13,19
run-2020-2-18-13-44-24.383234977,14,21
run-2020-2-18-13-44-24.383234977,15,25
run-2020-2-18-13-44-24.383234977,16,27
run-2020-2-18-13-44-24.383234977,17,29
run-2020-2-18-13-44-24.383234977,18,26
run-2020-2-18-13-44-24.383234977,19,25
run-2020-2-18-13-44-24.383234977,20,25
run-2020-2-18-13-44-24.383234977,21,29
run-2020-2-18-13-44-24.383234977,22,33
run-2020-2-18-13-44-24.383234977,23,36
run-2020-2-18-13-44-24.383234977,24,38
run-2020-2-18-13-44-24.383234977,25,36
run-2020-2-18-13-44-24.383234977,26,36
run-2020-2-18-13-44-24.383234977,27,35
run-2020-2-18-13-44-24.383234977,28,34
run-2020-2-18-13-44-24.383234977,29,35
run-2020-2-18-13-44-24.383234977,30,38
run-2020-2-18-13-44-24.383234977,31,41
run-2020-2-18-13-44-24.383234977,32,42
run-2020-2-18-13-44-24.383234977,33,39
run-2020-2-18-13-44-24.383234977,34,39
run-2020-2-18-13-44-24.383234977,35,42
run-2020-2-18-13-44-24.383234977,36,42
run-2020-2-18-13-44-24.383234977,37,45
run-2020-2-18-13-44-24.383234977,38,44
run-2020-2-18-13-44-24.383234977,39,47
run-2020-2-18-13-44-24.383234977,40,49
run-2020-2-18-13-44-24.383234977,41,48
run-2020-2-18-13-44-24.383234977,42,52
run-2020-2-18-13-44-24.383234977,43,50
run-2020-2-18-13-44-24.383234977,44,48
run-2020-2-18-13-44-24.383234977,45,52
run-2020-2-18-13-44-24.383234977,46,48
run-2020-2-18-13-44-24.383234977,47,48
run-2020-2-18-13-44-24.383234977,48,50
run-2020-2-18-13-44-24.383234977,49,50
run-2020-2-18-13-44-24.383234977,50,49
run-2020-2-18-13-44-24.383234977,51,48
run-2020-2-18-13-44-24.383234977,52,43
run-2020-2-18-13-44-24.383234977,53,43
run-2020-2-18-13-44-24.383234977,54,46
run-2020-2-18-13-44-24.383234977,55,46
run-2020-2-18-13-44-24.383234977,56,52
run-2020-2-18-13-44-24.383234977,57,52
run-2020-2-18-13-44-24.383234977,58,53
run-2020-2-18-13-44-24.383234977,59,54
run-2020-2-18-13-44-24.383234977,60,55
run-2020-2-18-13-44-24.383234977,61,52
run-2020-2-18-13-44-24.383234977,62,53
run-2020-2-18-13-44-24.383234977,63,51
run-2020-2-18-13-44-24.383234977,64,48
run-2020-2-18-13-44-24.383234977,65,49
run-2020-2-18-13-44-24.383234977,66,49
run-2020-2-18-13-44-24.383234977,67,48
run-2020-2-18-13-44-24.383234977,68,47
run-2020-2-18-13-44-24.383234977,69,46
run-2020-2-18-13-44-24.383234977,70,49
run-2020-2-18-13-44-24.383234977,71,49
run-2020-2-18-13-44-24.383234977,72,50
run-2020-2-18-13-44-24.383234977,73,49
run-2020-2-18-13-44-24.383234977,74,48
run-2020-2-18-13-44-24.383234977,75,47
run-2020-2-18-13-44-24.383234977,76,47
run-2020-2-18-13-44-24.383234977,77,45
run-2020-2-18-13-44-24.383234977,78,44
run-2020-2-18-13-44-24.383234977,79,42
run-2020-2-18-13-44-24.383234977,80,45
run-2020-2-18-13-44-24.383234977,81,45
run-2020-2-18-13-44-24.383234977,82,47
run-2020-2-18-13-44-24.383234977,83,46
run-2020-2-18-13-44-24.383234977,84,45
run-2020-2-18-13-44-24.383234977,85,48
run-2020-2-18-13-44-24.383234977,86,50
run-2020-2-18-13-44-24.383234977,87,49
run-2020-2-18-13-44-24.383234977,88,52
run-2020-2-18-13-44-24.383234977,89,52
run-2020-2-18-13-44-24.383234977,90,49
run-2020-2-18-13-44-24.383234977,91,51
run-2020-2-18-13-44-24.383234977,92,54
run-2020-2-18-13-44-24.383234977,93,56
run-2020-2-18-13-44-24.383234977,94,57
run-2020-2-18-13-44-24.383234977,95,54
run-2020-2-18-13-44-24.383234977,96,49
run-2020-2-18-13-44-24.383234977,97,48
run-2020-2-18-13-44-24.383234977,98,49
run-2020-2-18-13-44-24.383234977,99,49
run-2020-2-18-13-44-24.383234977,100,47
