RunID,Tick,AllAgents,Active,Inactive
run-2020-3-6-16-39-0.527414083,0,12,10,2
run-2020-3-6-16-39-0.527414083,1,15,13,2
run-2020-3-6-16-39-0.527414083,2,18,12,6
run-2020-3-6-16-39-0.527414083,3,23,16,7
run-2020-3-6-16-39-0.527414083,4,32,20,12
run-2020-3-6-16-39-0.527414083,5,38,24,14
run-2020-3-6-16-39-0.527414083,6,44,26,18
run-2020-3-6-16-39-0.527414083,7,52,32,20
run-2020-3-6-16-39-0.527414083,8,55,27,28
run-2020-3-6-16-39-0.527414083,9,58,29,29
run-2020-3-6-16-39-0.527414083,10,61,29,32
run-2020-3-6-16-39-0.527414083,11,63,28,35
run-2020-3-6-16-39-0.527414083,12,69,31,38
run-2020-3-6-16-39-0.527414083,13,74,33,41
run-2020-3-6-16-39-0.527414083,14,77,30,47
run-2020-3-6-16-39-0.527414083,15,83,34,49
run-2020-3-6-16-39-0.527414083,16,86,34,52
run-2020-3-6-16-39-0.527414083,17,88,32,56
run-2020-3-6-16-39-0.527414083,18,95,37,58
run-2020-3-6-16-39-0.527414083,19,99,40,59
run-2020-3-6-16-39-0.527414083,20,104,43,61
run-2020-3-6-16-39-0.527414083,21,113,49,64
run-2020-3-6-16-39-0.527414083,22,114,45,69
run-2020-3-6-16-39-0.527414083,23,121,50,71
run-2020-3-6-16-39-0.527414083,24,128,53,75
run-2020-3-6-16-39-0.527414083,25,132,54,78
run-2020-3-6-16-39-0.527414083,26,133,49,84
run-2020-3-6-16-39-0.527414083,27,136,50,86
run-2020-3-6-16-39-0.527414083,28,142,54,88
run-2020-3-6-16-39-0.527414083,29,148,58,90
run-2020-3-6-16-39-0.527414083,30,148,56,92
run-2020-3-6-16-39-0.527414083,31,153,59,94
run-2020-3-6-16-39-0.527414083,32,160,61,99
run-2020-3-6-16-39-0.527414083,33,164,64,100
run-2020-3-6-16-39-0.527414083,34,165,61,104
run-2020-3-6-16-39-0.527414083,35,171,66,105
run-2020-3-6-16-39-0.527414083,36,174,64,110
run-2020-3-6-16-39-0.527414083,37,175,59,116
run-2020-3-6-16-39-0.527414083,38,178,60,118
run-2020-3-6-16-39-0.527414083,39,186,66,120
run-2020-3-6-16-39-0.527414083,40,188,64,124
run-2020-3-6-16-39-0.527414083,41,191,66,125
run-2020-3-6-16-39-0.527414083,42,194,67,127
run-2020-3-6-16-39-0.527414083,43,200,69,131
run-2020-3-6-16-39-0.527414083,44,202,68,134
run-2020-3-6-16-39-0.527414083,45,207,71,136
run-2020-3-6-16-39-0.527414083,46,209,66,143
run-2020-3-6-16-39-0.527414083,47,217,71,146
run-2020-3-6-16-39-0.527414083,48,218,67,151
run-2020-3-6-16-39-0.527414083,49,221,64,157
run-2020-3-6-16-39-0.527414083,50,224,60,164
run-2020-3-6-16-39-0.527414083,51,228,61,167
run-2020-3-6-16-39-0.527414083,52,228,57,171
run-2020-3-6-16-39-0.527414083,53,228,53,175
run-2020-3-6-16-39-0.527414083,54,229,51,178
run-2020-3-6-16-39-0.527414083,55,233,53,180
run-2020-3-6-16-39-0.527414083,56,238,58,180
run-2020-3-6-16-39-0.527414083,57,241,59,182
run-2020-3-6-16-39-0.527414083,58,245,54,191
run-2020-3-6-16-39-0.527414083,59,249,55,194
run-2020-3-6-16-39-0.527414083,60,253,53,200
run-2020-3-6-16-39-0.527414083,61,257,56,201
run-2020-3-6-16-39-0.527414083,62,261,55,206
run-2020-3-6-16-39-0.527414083,63,263,50,213
run-2020-3-6-16-39-0.527414083,64,266,48,218
run-2020-3-6-16-39-0.527414083,65,274,52,222
run-2020-3-6-16-39-0.527414083,66,275,48,227
run-2020-3-6-16-39-0.527414083,67,277,48,229
run-2020-3-6-16-39-0.527414083,68,281,46,235
run-2020-3-6-16-39-0.527414083,69,286,45,241
run-2020-3-6-16-39-0.527414083,70,291,45,246
run-2020-3-6-16-39-0.527414083,71,296,46,250
run-2020-3-6-16-39-0.527414083,72,303,49,254
run-2020-3-6-16-39-0.527414083,73,306,48,258
run-2020-3-6-16-39-0.527414083,74,309,40,269
run-2020-3-6-16-39-0.527414083,75,312,41,271
run-2020-3-6-16-39-0.527414083,76,321,44,277
run-2020-3-6-16-39-0.527414083,77,323,44,279
run-2020-3-6-16-39-0.527414083,78,327,44,283
run-2020-3-6-16-39-0.527414083,79,333,41,292
run-2020-3-6-16-39-0.527414083,80,338,42,296
run-2020-3-6-16-39-0.527414083,81,344,42,302
run-2020-3-6-16-39-0.527414083,82,348,41,307
run-2020-3-6-16-39-0.527414083,83,352,40,312
run-2020-3-6-16-39-0.527414083,84,353,38,315
run-2020-3-6-16-39-0.527414083,85,356,38,318
run-2020-3-6-16-39-0.527414083,86,359,38,321
run-2020-3-6-16-39-0.527414083,87,366,44,322
run-2020-3-6-16-39-0.527414083,88,370,44,326
run-2020-3-6-16-39-0.527414083,89,372,45,327
run-2020-3-6-16-39-0.527414083,90,372,37,335
run-2020-3-6-16-39-0.527414083,91,374,36,338
run-2020-3-6-16-39-0.527414083,92,377,35,342
run-2020-3-6-16-39-0.527414083,93,381,39,342
run-2020-3-6-16-39-0.527414083,94,383,39,344
run-2020-3-6-16-39-0.527414083,95,387,39,348
run-2020-3-6-16-39-0.527414083,96,390,41,349
run-2020-3-6-16-39-0.527414083,97,393,40,353
run-2020-3-6-16-39-0.527414083,98,399,43,356
run-2020-3-6-16-39-0.527414083,99,405,45,360
