Source,Target
LAWdf714604-5fc8-11ea-8328-c75d10d433c6,LAWdf715216-5fc8-11ea-9350-e33cf40cc919
LAWdf713704-5fc8-11ea-9b4f-779b0e9d0bb1,LAWdf71572a-5fc8-11ea-906e-6fb4ae711c42
LAWdf714604-5fc8-11ea-8328-c75d10d433c6,LAWdf715950-5fc8-11ea-98b3-37ab2dd82b06
LAWdf713704-5fc8-11ea-9b4f-779b0e9d0bb1,LAWdf715fc2-5fc8-11ea-b287-0f139547ee61
LAWdf715950-5fc8-11ea-98b3-37ab2dd82b06,LAWdf717aca-5fc8-11ea-85dc-9fce613042f9
LAWdf715216-5fc8-11ea-9350-e33cf40cc919,LAWdf717eee-5fc8-11ea-9e0e-cbddc8edc9e9
LAWdf71572a-5fc8-11ea-906e-6fb4ae711c42,LAWdf71888a-5fc8-11ea-a174-cbcc45048883
LAWdf717aca-5fc8-11ea-85dc-9fce613042f9,LAWdf718f42-5fc8-11ea-a6f0-cf41e74f741b
LAWdf71888a-5fc8-11ea-a174-cbcc45048883,LAWdf719410-5fc8-11ea-bdaf-a73a03494114
LAWdf713bf0-5fc8-11ea-a577-27d6bead3aaa,LAWdf7198de-5fc8-11ea-9769-87f98562d462
LAWdf714604-5fc8-11ea-8328-c75d10d433c6,LAWeba62a7a-5fc8-11ea-8563-c70986f48289
LAWeba61cd8-5fc8-11ea-a2ff-838c5acd8b05,LAWeba63790-5fc8-11ea-b02a-877606ef5a51
LAWdf715fc2-5fc8-11ea-b287-0f139547ee61,LAWeba646cc-5fc8-11ea-88f2-8f2f3b5e48cc
LAWdf715fc2-5fc8-11ea-b287-0f139547ee61,LAWeba63ccc-5fc8-11ea-886c-cf52ddc8f620
LAWdf714d70-5fc8-11ea-ad1c-eba8d0c200aa,LAWeba64096-5fc8-11ea-b9b3-d7ad473a4b8b
