RunID,Tick,ActiveAgentsPerTick
run-2020-2-19-15-37-58.794941902,0,14
run-2020-2-19-15-37-58.794941902,1,13
run-2020-2-19-15-37-58.794941902,2,14
run-2020-2-19-15-37-58.794941902,3,19
run-2020-2-19-15-37-58.794941902,4,20
run-2020-2-19-15-37-58.794941902,5,23
run-2020-2-19-15-37-58.794941902,6,23
run-2020-2-19-15-37-58.794941902,7,24
run-2020-2-19-15-37-58.794941902,8,22
run-2020-2-19-15-37-58.794941902,9,25
run-2020-2-19-15-37-58.794941902,10,22
run-2020-2-19-15-37-58.794941902,11,20
run-2020-2-19-15-37-58.794941902,12,24
run-2020-2-19-15-37-58.794941902,13,23
run-2020-2-19-15-37-58.794941902,14,29
run-2020-2-19-15-37-58.794941902,15,26
run-2020-2-19-15-37-58.794941902,16,26
run-2020-2-19-15-37-58.794941902,17,31
run-2020-2-19-15-37-58.794941902,18,31
run-2020-2-19-15-37-58.794941902,19,32
run-2020-2-19-15-37-58.794941902,20,35
run-2020-2-19-15-37-58.794941902,21,30
run-2020-2-19-15-37-58.794941902,22,35
run-2020-2-19-15-37-58.794941902,23,36
run-2020-2-19-15-37-58.794941902,24,38
run-2020-2-19-15-37-58.794941902,25,41
run-2020-2-19-15-37-58.794941902,26,39
run-2020-2-19-15-37-58.794941902,27,42
run-2020-2-19-15-37-58.794941902,28,43
run-2020-2-19-15-37-58.794941902,29,41
run-2020-2-19-15-37-58.794941902,30,41
run-2020-2-19-15-37-58.794941902,31,41
run-2020-2-19-15-37-58.794941902,32,44
run-2020-2-19-15-37-58.794941902,33,46
run-2020-2-19-15-37-58.794941902,34,46
run-2020-2-19-15-37-58.794941902,35,44
run-2020-2-19-15-37-58.794941902,36,45
run-2020-2-19-15-37-58.794941902,37,49
run-2020-2-19-15-37-58.794941902,38,53
run-2020-2-19-15-37-58.794941902,39,57
run-2020-2-19-15-37-58.794941902,40,59
run-2020-2-19-15-37-58.794941902,41,60
run-2020-2-19-15-37-58.794941902,42,60
run-2020-2-19-15-37-58.794941902,43,59
run-2020-2-19-15-37-58.794941902,44,57
run-2020-2-19-15-37-58.794941902,45,60
run-2020-2-19-15-37-58.794941902,46,61
run-2020-2-19-15-37-58.794941902,47,66
run-2020-2-19-15-37-58.794941902,48,64
run-2020-2-19-15-37-58.794941902,49,60
run-2020-2-19-15-37-58.794941902,50,63
run-2020-2-19-15-37-58.794941902,51,65
run-2020-2-19-15-37-58.794941902,52,64
run-2020-2-19-15-37-58.794941902,53,62
run-2020-2-19-15-37-58.794941902,54,67
run-2020-2-19-15-37-58.794941902,55,66
run-2020-2-19-15-37-58.794941902,56,67
run-2020-2-19-15-37-58.794941902,57,69
run-2020-2-19-15-37-58.794941902,58,68
run-2020-2-19-15-37-58.794941902,59,68
run-2020-2-19-15-37-58.794941902,60,66
run-2020-2-19-15-37-58.794941902,61,62
run-2020-2-19-15-37-58.794941902,62,66
run-2020-2-19-15-37-58.794941902,63,65
run-2020-2-19-15-37-58.794941902,64,67
run-2020-2-19-15-37-58.794941902,65,67
run-2020-2-19-15-37-58.794941902,66,70
run-2020-2-19-15-37-58.794941902,67,69
run-2020-2-19-15-37-58.794941902,68,68
run-2020-2-19-15-37-58.794941902,69,66
run-2020-2-19-15-37-58.794941902,70,60
run-2020-2-19-15-37-58.794941902,71,65
run-2020-2-19-15-37-58.794941902,72,68
run-2020-2-19-15-37-58.794941902,73,73
run-2020-2-19-15-37-58.794941902,74,70
run-2020-2-19-15-37-58.794941902,75,73
run-2020-2-19-15-37-58.794941902,76,76
run-2020-2-19-15-37-58.794941902,77,73
run-2020-2-19-15-37-58.794941902,78,69
run-2020-2-19-15-37-58.794941902,79,69
run-2020-2-19-15-37-58.794941902,80,71
run-2020-2-19-15-37-58.794941902,81,74
run-2020-2-19-15-37-58.794941902,82,71
run-2020-2-19-15-37-58.794941902,83,76
run-2020-2-19-15-37-58.794941902,84,75
run-2020-2-19-15-37-58.794941902,85,77
run-2020-2-19-15-37-58.794941902,86,80
run-2020-2-19-15-37-58.794941902,87,76
run-2020-2-19-15-37-58.794941902,88,74
run-2020-2-19-15-37-58.794941902,89,75
run-2020-2-19-15-37-58.794941902,90,80
run-2020-2-19-15-37-58.794941902,91,81
run-2020-2-19-15-37-58.794941902,92,82
run-2020-2-19-15-37-58.794941902,93,76
run-2020-2-19-15-37-58.794941902,94,72
run-2020-2-19-15-37-58.794941902,95,74
run-2020-2-19-15-37-58.794941902,96,77
run-2020-2-19-15-37-58.794941902,97,72
run-2020-2-19-15-37-58.794941902,98,73
run-2020-2-19-15-37-58.794941902,99,71
run-2020-2-19-15-37-58.794941902,100,67
