RunID,Tick,AllAgents,Active,Inactive
run-2020-2-19-15-37-58.794941902,0,14,10,4
run-2020-2-19-15-37-58.794941902,1,17,12,5
run-2020-2-19-15-37-58.794941902,2,19,14,5
run-2020-2-19-15-37-58.794941902,3,24,16,8
run-2020-2-19-15-37-58.794941902,4,28,16,12
run-2020-2-19-15-37-58.794941902,5,35,19,16
run-2020-2-19-15-37-58.794941902,6,39,20,19
run-2020-2-19-15-37-58.794941902,7,43,19,24
run-2020-2-19-15-37-58.794941902,8,46,21,25
run-2020-2-19-15-37-58.794941902,9,50,20,30
run-2020-2-19-15-37-58.794941902,10,52,18,34
run-2020-2-19-15-37-58.794941902,11,54,20,34
run-2020-2-19-15-37-58.794941902,12,58,23,35
run-2020-2-19-15-37-58.794941902,13,58,21,37
run-2020-2-19-15-37-58.794941902,14,66,26,40
run-2020-2-19-15-37-58.794941902,15,66,24,42
run-2020-2-19-15-37-58.794941902,16,68,24,44
run-2020-2-19-15-37-58.794941902,17,75,31,44
run-2020-2-19-15-37-58.794941902,18,75,27,48
run-2020-2-19-15-37-58.794941902,19,80,30,50
run-2020-2-19-15-37-58.794941902,20,85,28,57
run-2020-2-19-15-37-58.794941902,21,87,29,58
run-2020-2-19-15-37-58.794941902,22,93,33,60
run-2020-2-19-15-37-58.794941902,23,96,32,64
run-2020-2-19-15-37-58.794941902,24,102,36,66
run-2020-2-19-15-37-58.794941902,25,107,37,70
run-2020-2-19-15-37-58.794941902,26,109,37,72
run-2020-2-19-15-37-58.794941902,27,114,40,74
run-2020-2-19-15-37-58.794941902,28,117,38,79
run-2020-2-19-15-37-58.794941902,29,120,37,83
run-2020-2-19-15-37-58.794941902,30,124,39,85
run-2020-2-19-15-37-58.794941902,31,126,38,88
run-2020-2-19-15-37-58.794941902,32,132,42,90
run-2020-2-19-15-37-58.794941902,33,136,41,95
run-2020-2-19-15-37-58.794941902,34,141,42,99
run-2020-2-19-15-37-58.794941902,35,143,39,104
run-2020-2-19-15-37-58.794941902,36,149,43,106
run-2020-2-19-15-37-58.794941902,37,155,46,109
run-2020-2-19-15-37-58.794941902,38,162,49,113
run-2020-2-19-15-37-58.794941902,39,170,55,115
run-2020-2-19-15-37-58.794941902,40,174,54,120
run-2020-2-19-15-37-58.794941902,41,180,56,124
run-2020-2-19-15-37-58.794941902,42,184,55,129
run-2020-2-19-15-37-58.794941902,43,188,55,133
run-2020-2-19-15-37-58.794941902,44,190,55,135
run-2020-2-19-15-37-58.794941902,45,195,55,140
run-2020-2-19-15-37-58.794941902,46,201,58,143
run-2020-2-19-15-37-58.794941902,47,209,63,146
run-2020-2-19-15-37-58.794941902,48,210,59,151
run-2020-2-19-15-37-58.794941902,49,211,58,153
run-2020-2-19-15-37-58.794941902,50,216,61,155
run-2020-2-19-15-37-58.794941902,51,220,62,158
run-2020-2-19-15-37-58.794941902,52,222,59,163
run-2020-2-19-15-37-58.794941902,53,225,60,165
run-2020-2-19-15-37-58.794941902,54,232,64,168
run-2020-2-19-15-37-58.794941902,55,234,61,173
run-2020-2-19-15-37-58.794941902,56,240,67,173
run-2020-2-19-15-37-58.794941902,57,242,63,179
run-2020-2-19-15-37-58.794941902,58,247,67,180
run-2020-2-19-15-37-58.794941902,59,248,62,186
run-2020-2-19-15-37-58.794941902,60,252,59,193
run-2020-2-19-15-37-58.794941902,61,255,60,195
run-2020-2-19-15-37-58.794941902,62,261,62,199
run-2020-2-19-15-37-58.794941902,63,264,61,203
run-2020-2-19-15-37-58.794941902,64,270,63,207
run-2020-2-19-15-37-58.794941902,65,274,64,210
run-2020-2-19-15-37-58.794941902,66,280,67,213
run-2020-2-19-15-37-58.794941902,67,282,63,219
run-2020-2-19-15-37-58.794941902,68,287,65,222
run-2020-2-19-15-37-58.794941902,69,288,58,230
run-2020-2-19-15-37-58.794941902,70,290,59,231
run-2020-2-19-15-37-58.794941902,71,296,63,233
run-2020-2-19-15-37-58.794941902,72,301,67,234
run-2020-2-19-15-37-58.794941902,73,307,64,243
run-2020-2-19-15-37-58.794941902,74,313,67,246
run-2020-2-19-15-37-58.794941902,75,319,70,249
run-2020-2-19-15-37-58.794941902,76,325,71,254
run-2020-2-19-15-37-58.794941902,77,327,67,260
run-2020-2-19-15-37-58.794941902,78,329,65,264
run-2020-2-19-15-37-58.794941902,79,333,69,264
run-2020-2-19-15-37-58.794941902,80,335,68,267
run-2020-2-19-15-37-58.794941902,81,341,70,271
run-2020-2-19-15-37-58.794941902,82,342,70,272
run-2020-2-19-15-37-58.794941902,83,348,70,278
run-2020-2-19-15-37-58.794941902,84,353,72,281
run-2020-2-19-15-37-58.794941902,85,358,74,284
run-2020-2-19-15-37-58.794941902,86,364,72,292
run-2020-2-19-15-37-58.794941902,87,368,72,296
run-2020-2-19-15-37-58.794941902,88,370,71,299
run-2020-2-19-15-37-58.794941902,89,374,72,302
run-2020-2-19-15-37-58.794941902,90,382,78,304
run-2020-2-19-15-37-58.794941902,91,385,78,307
run-2020-2-19-15-37-58.794941902,92,389,76,313
run-2020-2-19-15-37-58.794941902,93,389,70,319
run-2020-2-19-15-37-58.794941902,94,391,72,319
run-2020-2-19-15-37-58.794941902,95,393,72,321
run-2020-2-19-15-37-58.794941902,96,398,71,327
run-2020-2-19-15-37-58.794941902,97,399,68,331
run-2020-2-19-15-37-58.794941902,98,404,71,333
run-2020-2-19-15-37-58.794941902,99,404,67,337
