RunID,Agent,Age,Created,Inactive,Resources,Reputation,Ability,Que
run-2020-2-18-18-4-22.636636972,AGENT#17f5d24a-5279-11ea-b40a-ef880738d181,0,0,0,10,1.0,1.0,0
run-2020-2-18-18-4-22.636636972,AGENT#17f5dce0-5279-11ea-92e8-63dcc6677df7,0,0,0,10,1.0,1.0,0
run-2020-2-18-18-4-22.636636972,AGENT#17f5d4f2-5279-11ea-a5d0-ff276f64321c,1,0,1,10,1.0,1.0,0
run-2020-2-18-18-4-22.636636972,AGENT#17f61e6c-5279-11ea-b9eb-dbee3dea37d8,1,0,1,10,1.0,1.0,0
run-2020-2-18-18-4-22.636636972,AGENT#17f629c0-5279-11ea-a2f0-57de51ed725c,1,0,1,10,1.0,1.0,0
run-2020-2-18-18-4-22.636636972,AGENT#17f5ccaa-5279-11ea-85ed-57de892bbde0,2,0,2,10,1.0,1.0,0
run-2020-2-18-18-4-22.636636972,AGENT#17f5c94e-5279-11ea-b355-dfc764d5606d,3,0,3,10,1.0,1.0,0
run-2020-2-18-18-4-22.636636972,AGENT#17f5e226-5279-11ea-95ec-97cedf6c4c2d,3,0,3,10,1.0,1.0,0
run-2020-2-18-18-4-22.636636972,AGENT#17f5d790-5279-11ea-8892-f744abe9eca9,4,0,4,10,1.0,1.0,0
run-2020-2-18-18-4-22.636636972,AGENT#17f5da2e-5279-11ea-9680-73cab6b35565,4,0,4,10,1.0,1.0,0
run-2020-2-18-18-4-22.636636972,AGENT#17f62f38-5279-11ea-8476-db8b34714aed,4,0,4,10,1.0,1.0,0
run-2020-2-18-18-4-22.636636972,AGENT#17f62704-5279-11ea-ac80-5fc6ce271143,5,0,5,10,1.0,1.0,0
run-2020-2-18-18-4-22.636636972,AGENT#181ce8d0-5279-11ea-ba69-db68ff9a95ce,2,3,5,10,1.0,1.0,0
run-2020-2-18-18-4-22.636636972,AGENT#181cef7e-5279-11ea-ab09-af8212b8a85b,2,3,5,10,1.0,1.0,0
run-2020-2-18-18-4-22.636636972,AGENT#180abb38-5279-11ea-84fb-5b9517e8facc,5,1,6,10,1.0,1.0,0
run-2020-2-18-18-4-22.636636972,AGENT#181cf3d4-5279-11ea-ac10-3ff96cf65f03,3,3,6,10,1.0,1.0,0
run-2020-2-18-18-4-22.636636972,AGENT#18240f70-5279-11ea-83ba-d735d4fe9676,2,4,6,10,1.0,1.0,0
run-2020-2-18-18-4-22.636636972,AGENT#1829d806-5279-11ea-ba60-df6990c6e83c,1,5,6,10,1.0,1.0,0
run-2020-2-18-18-4-22.636636972,AGENT#1829da9a-5279-11ea-aeb8-cf898c5b6cf4,1,5,6,10,1.0,1.0,0
run-2020-2-18-18-4-22.636636972,AGENT#1829dcde-5279-11ea-a418-4b5782d0ebbe,1,5,6,10,1.0,1.0,0
run-2020-2-18-18-4-22.636636972,AGENT#1814b228-5279-11ea-a207-bb5fc295c901,5,2,7,10,1.0,1.0,0
run-2020-2-18-18-4-22.636636972,AGENT#182ea020-5279-11ea-8aae-17ef7dbf1aa9,1,6,7,10,1.0,1.0,0
run-2020-2-18-18-4-22.636636972,AGENT#182ea732-5279-11ea-9cee-278d58f9ac04,1,6,7,10,1.0,1.0,0
run-2020-2-18-18-4-22.636636972,AGENT#1829d586-5279-11ea-ae38-6b32a94c3966,3,5,8,10,1.0,1.0,0
run-2020-2-18-18-4-22.636636972,AGENT#182ea4e4-5279-11ea-93d4-4f04867c851d,2,6,8,10,1.0,1.0,0
run-2020-2-18-18-4-22.636636972,AGENT#183299c8-5279-11ea-b623-6b534c114e28,1,7,8,10,1.0,1.0,0
run-2020-2-18-18-4-22.636636972,AGENT#1829df22-5279-11ea-aab0-37c21d9953b4,4,5,9,10,1.0,1.0,0
run-2020-2-18-18-4-22.636636972,AGENT#182ea282-5279-11ea-a8cb-839be394e8a0,4,6,10,10,1.0,1.0,0
run-2020-2-18-18-4-22.636636972,AGENT#18329cde-5279-11ea-9d12-87c98dd77bc7,3,7,10,10,1.0,1.0,0
run-2020-2-18-18-4-22.636636972,AGENT#18360518-5279-11ea-9043-7747d669d0dc,2,8,10,10,1.0,1.0,0
run-2020-2-18-18-4-22.636636972,AGENT#182ea958-5279-11ea-aa8e-830e146ac051,5,6,11,10,1.0,1.0,0
run-2020-2-18-18-4-22.636636972,AGENT#182eab7e-5279-11ea-89f9-9fd78d2d4c12,5,6,11,10,1.0,1.0,0
run-2020-2-18-18-4-22.636636972,AGENT#183b2818-5279-11ea-aea7-6fb39d18eb48,1,10,11,10,1.0,1.0,0
run-2020-2-18-18-4-22.636636972,AGENT#183b2e94-5279-11ea-b3cc-cfaa52118aff,2,10,12,10,1.0,1.0,0
run-2020-2-18-18-4-22.636636972,AGENT#183da44e-5279-11ea-8dc1-1f524a7c2a01,1,11,12,10,1.0,1.0,0
run-2020-2-18-18-4-22.636636972,AGENT#183da6ce-5279-11ea-9c46-13a322361b32,1,11,12,10,1.0,1.0,0
run-2020-2-18-18-4-22.636636972,AGENT#18389364-5279-11ea-a22f-f3b1dc05cdd1,4,9,13,10,1.0,1.0,0
run-2020-2-18-18-4-22.636636972,AGENT#183b37ae-5279-11ea-9f63-23210966390e,3,10,13,10,1.0,1.0,0
run-2020-2-18-18-4-22.636636972,AGENT#183b3aa6-5279-11ea-a784-0fdb9a5e47a5,3,10,13,10,1.0,1.0,0
run-2020-2-18-18-4-22.636636972,AGENT#183b2b7e-5279-11ea-b871-5f7db4453238,4,10,14,10,1.0,1.0,0
run-2020-2-18-18-4-22.636636972,AGENT#183b348e-5279-11ea-ab3b-072442ba824e,4,10,14,10,1.0,1.0,0
run-2020-2-18-18-4-22.636636972,AGENT#183da188-5279-11ea-8d5e-2b7297bf036f,3,11,14,10,1.0,1.0,0
run-2020-2-18-18-4-22.636636972,AGENT#1841c344-5279-11ea-8753-a3558f0f587a,1,13,14,10,1.0,1.0,0
run-2020-2-18-18-4-22.636636972,AGENT#1843ea8e-5279-11ea-82af-7f47813a2977,1,14,15,10,1.0,1.0,0
run-2020-2-18-18-4-22.636636972,AGENT#1843ed04-5279-11ea-841c-1f09e763f189,1,14,15,10,1.0,1.0,0
run-2020-2-18-18-4-22.636636972,AGENT#1843ef3e-5279-11ea-8b0b-eb3806359663,1,14,15,10,1.0,1.0,0
run-2020-2-18-18-4-22.636636972,AGENT#1843f3a8-5279-11ea-915c-fbd73a4ab8a4,1,14,15,10,1.0,1.0,0
run-2020-2-18-18-4-22.636636972,AGENT#1843f182-5279-11ea-82f7-5f8a06dc41cb,2,14,16,10,1.0,1.0,0
run-2020-2-18-18-4-22.636636972,AGENT#18458236-5279-11ea-9469-a3cfb4d3d472,1,15,16,10,1.0,1.0,0
run-2020-2-18-18-4-22.636636972,AGENT#181ceb28-5279-11ea-8829-afc92ebbf858,14,3,17,10,1.0,1.0,0
run-2020-2-18-18-4-22.636636972,AGENT#1841ca9c-5279-11ea-a5df-3f68927ca6ef,4,13,17,10,1.0,1.0,0
run-2020-2-18-18-4-22.636636972,AGENT#18457b24-5279-11ea-9e69-671a09b3e51a,2,15,17,10,1.0,1.0,0
run-2020-2-18-18-4-22.636636972,AGENT#18457e62-5279-11ea-875a-4b1668b0680d,3,15,18,10,1.0,1.0,0
run-2020-2-18-18-4-22.636636972,AGENT#18477bc2-5279-11ea-9203-6b27a46ee41f,2,16,18,10,1.0,1.0,0
run-2020-2-18-18-4-22.636636972,AGENT#18477f5a-5279-11ea-bea0-b7561b83cf5b,2,16,18,10,1.0,1.0,0
run-2020-2-18-18-4-22.636636972,AGENT#1847828e-5279-11ea-8dd3-bbd70b92c0d5,2,16,18,10,1.0,1.0,0
run-2020-2-18-18-4-22.636636972,AGENT#184acfc0-5279-11ea-b777-2757b37af869,1,19,20,10,1.0,1.0,0
run-2020-2-18-18-4-22.636636972,AGENT#184b9dc4-5279-11ea-81bf-8b0be9d26e3d,1,20,21,10,1.0,1.0,0
run-2020-2-18-18-4-22.636636972,AGENT#1848e07a-5279-11ea-b273-f7de42449231,5,17,22,10,1.0,1.0,0
run-2020-2-18-18-4-22.636636972,AGENT#1848e2e6-5279-11ea-8883-bb751ee3ebd5,5,17,22,10,1.0,1.0,0
run-2020-2-18-18-4-22.636636972,AGENT#184ba0c6-5279-11ea-97f8-7ffa2906ac9c,2,20,22,10,1.0,1.0,0
run-2020-2-18-18-4-22.636636972,AGENT#184c9f3a-5279-11ea-822a-c764930c5ebc,1,21,22,10,1.0,1.0,0
run-2020-2-18-18-4-22.636636972,AGENT#184b9b4e-5279-11ea-8c1c-97191eb3f58d,3,20,23,10,1.0,1.0,0
run-2020-2-18-18-4-22.636636972,AGENT#17f5df7e-5279-11ea-b541-23f9821c3277,24,0,24,10,1.0,1.0,0
run-2020-2-18-18-4-22.636636972,AGENT#184d704a-5279-11ea-809f-4b4fbe147f25,3,22,25,10,1.0,1.0,0
run-2020-2-18-18-4-22.636636972,AGENT#184ec274-5279-11ea-8cc8-57c1e981bcb8,1,24,25,10,1.0,1.0,0
run-2020-2-18-18-4-22.636636972,AGENT#184ec4ae-5279-11ea-b111-2bd7e682fd51,1,24,25,10,1.0,1.0,0
run-2020-2-18-18-4-22.636636972,AGENT#184ec922-5279-11ea-bf8e-931fc9407b5a,1,24,25,10,1.0,1.0,0
run-2020-2-18-18-4-22.636636972,AGENT#184e27c4-5279-11ea-88ed-07bbba3313ff,3,23,26,10,1.0,1.0,0
run-2020-2-18-18-4-22.636636972,AGENT#184ebfea-5279-11ea-bc4a-47934d2f2567,2,24,26,10,1.0,1.0,0
run-2020-2-18-18-4-22.636636972,AGENT#184f6ecc-5279-11ea-bd93-8fbe6444acb7,2,25,27,10,1.0,1.0,0
run-2020-2-18-18-4-22.636636972,AGENT#184e2a6c-5279-11ea-b63d-07d4750bf2ac,5,23,28,10,1.0,1.0,0
run-2020-2-18-18-4-22.636636972,AGENT#184ec6d4-5279-11ea-84a7-97aff8a629f1,4,24,28,10,1.0,1.0,0
run-2020-2-18-18-4-22.636636972,AGENT#1850b912-5279-11ea-99a3-ffd6ee98cbfb,1,27,28,10,1.0,1.0,0
run-2020-2-18-18-4-22.636636972,AGENT#184ecd6e-5279-11ea-87d7-eb71b7deef1a,5,24,29,10,1.0,1.0,0
run-2020-2-18-18-4-22.636636972,AGENT#183b3196-5279-11ea-9004-9fdb88c4fd8d,20,10,30,10,1.0,1.0,0
run-2020-2-18-18-4-22.636636972,AGENT#184f73b8-5279-11ea-ae55-1b36a7cc6afc,5,25,30,10,1.0,1.0,0
run-2020-2-18-18-4-22.636636972,AGENT#1851fc3c-5279-11ea-8463-ab5e489443ad,2,29,31,10,1.0,1.0,0
run-2020-2-18-18-4-22.636636972,AGENT#1852a01a-5279-11ea-a4a3-83a6190c7ccd,1,30,31,10,1.0,1.0,0
run-2020-2-18-18-4-22.636636972,AGENT#1851fe80-5279-11ea-b59f-c7c4bbd31415,3,29,32,10,1.0,1.0,0
run-2020-2-18-18-4-22.636636972,AGENT#1853418c-5279-11ea-9e3a-ff16235b3ee0,1,31,32,10,1.0,1.0,0
run-2020-2-18-18-4-22.636636972,AGENT#185343da-5279-11ea-923a-2fd0b32f1342,1,31,32,10,1.0,1.0,0
run-2020-2-18-18-4-22.636636972,AGENT#17f6240c-5279-11ea-ab22-2793996986ea,33,0,33,10,1.0,1.0,0
run-2020-2-18-18-4-22.636636972,AGENT#18533f52-5279-11ea-8788-2399b8a94abb,2,31,33,10,1.0,1.0,0
run-2020-2-18-18-4-22.636636972,AGENT#1853e402-5279-11ea-90b2-e79e4c932c83,1,32,33,10,1.0,1.0,0
run-2020-2-18-18-4-22.636636972,AGENT#1853e902-5279-11ea-9d84-bbf3e4a5e369,1,32,33,10,1.0,1.0,0
run-2020-2-18-18-4-22.636636972,AGENT#18529da4-5279-11ea-a5fd-a34c2ac3ffd0,4,30,34,10,1.0,1.0,0
run-2020-2-18-18-4-22.636636972,AGENT#18533d04-5279-11ea-b3e4-03f866b527d8,3,31,34,10,1.0,1.0,0
run-2020-2-18-18-4-22.636636972,AGENT#1853de6c-5279-11ea-a3f2-1bb8551eae56,3,32,35,10,1.0,1.0,0
run-2020-2-18-18-4-22.636636972,AGENT#1853ed4e-5279-11ea-9149-972833ba3622,3,32,35,10,1.0,1.0,0
run-2020-2-18-18-4-22.636636972,AGENT#1854e442-5279-11ea-b91e-73ffa32cb634,2,33,35,10,1.0,1.0,0
run-2020-2-18-18-4-22.636636972,AGENT#1855d582-5279-11ea-9255-d3158396061d,1,34,35,10,1.0,1.0,0
run-2020-2-18-18-4-22.636636972,AGENT#1855d8a2-5279-11ea-bf56-43b71c0aa4a9,1,34,35,10,1.0,1.0,0
run-2020-2-18-18-4-22.636636972,AGENT#1854e078-5279-11ea-8ab5-9fad4878f81b,3,33,36,10,1.0,1.0,0
run-2020-2-18-18-4-22.636636972,AGENT#1856e904-5279-11ea-b66d-476c61287cb8,1,35,36,10,1.0,1.0,0
run-2020-2-18-18-4-22.636636972,AGENT#1841bf3e-5279-11ea-915a-f76b65318e0d,24,13,37,10,1.0,1.0,0
run-2020-2-18-18-4-22.636636972,AGENT#1853e6be-5279-11ea-b531-07f872443649,5,32,37,10,1.0,1.0,0
run-2020-2-18-18-4-22.636636972,AGENT#1854d574-5279-11ea-a5ac-972050a66cd8,4,33,37,10,1.0,1.0,0
run-2020-2-18-18-4-22.636636972,AGENT#1854d916-5279-11ea-9717-9b996b8b265e,4,33,37,10,1.0,1.0,0
run-2020-2-18-18-4-22.636636972,AGENT#184ad218-5279-11ea-a1bf-bf852ab07f10,19,19,38,10,1.0,1.0,0
run-2020-2-18-18-4-22.636636972,AGENT#1855cbf0-5279-11ea-96c6-9306aff392f5,4,34,38,10,1.0,1.0,0
run-2020-2-18-18-4-22.636636972,AGENT#1855d276-5279-11ea-8969-9b72a32ec107,4,34,38,10,1.0,1.0,0
run-2020-2-18-18-4-22.636636972,AGENT#18588ba6-5279-11ea-bd09-3bf74cc94c26,1,37,38,10,1.0,1.0,0
run-2020-2-18-18-4-22.636636972,AGENT#1855db9a-5279-11ea-bc66-f36a147ed84a,5,34,39,10,1.0,1.0,0
run-2020-2-18-18-4-22.636636972,AGENT#1855de9c-5279-11ea-a09b-ab49a3b688b3,5,34,39,10,1.0,1.0,0
run-2020-2-18-18-4-22.636636972,AGENT#1856e4fe-5279-11ea-b45f-d3c2a1bfb47a,4,35,39,10,1.0,1.0,0
run-2020-2-18-18-4-22.636636972,AGENT#185892ae-5279-11ea-a2a3-1be5dbe4b3ad,2,37,39,10,1.0,1.0,0
run-2020-2-18-18-4-22.636636972,AGENT#18594f00-5279-11ea-a9c8-c304d06def01,1,38,39,10,1.0,1.0,0
run-2020-2-18-18-4-22.636636972,AGENT#183da912-5279-11ea-8edc-7f4652c17f2f,29,11,40,10,1.0,1.0,0
run-2020-2-18-18-4-22.636636972,AGENT#1854dccc-5279-11ea-9187-6321cb2a158b,7,33,40,10,1.0,1.0,0
run-2020-2-18-18-4-22.636636972,AGENT#1859fc2a-5279-11ea-9d55-cbd98fe6c15d,1,39,40,10,1.0,1.0,0
run-2020-2-18-18-4-22.636636972,AGENT#185b2014-5279-11ea-9d7b-cf0bd6450319,1,40,41,10,1.0,1.0,0
run-2020-2-18-18-4-22.636636972,AGENT#185b260e-5279-11ea-aa6f-1f4984efe662,2,40,42,10,1.0,1.0,0
run-2020-2-18-18-4-22.636636972,AGENT#185b291a-5279-11ea-b943-4ff3b74dd5b2,2,40,42,10,1.0,1.0,0
run-2020-2-18-18-4-22.636636972,AGENT#185b1cfe-5279-11ea-9925-b79bf56eb043,3,40,43,10,1.0,1.0,0
run-2020-2-18-18-4-22.636636972,AGENT#185c0d1c-5279-11ea-b716-535dc553299a,2,41,43,10,1.0,1.0,0
run-2020-2-18-18-4-22.636636972,AGENT#185c19e2-5279-11ea-85a1-43b0466208e1,2,41,43,10,1.0,1.0,0
run-2020-2-18-18-4-22.636636972,AGENT#181ced4e-5279-11ea-82fe-eb928e800a32,41,3,44,10,1.0,1.0,0
run-2020-2-18-18-4-22.636636972,AGENT#1858907e-5279-11ea-ba48-67f5988431b3,7,37,44,10,1.0,1.0,0
run-2020-2-18-18-4-22.636636972,AGENT#185a00e4-5279-11ea-9746-4b26a44cbf07,5,39,44,10,1.0,1.0,0
run-2020-2-18-18-4-22.636636972,AGENT#185c1c6c-5279-11ea-b615-47daf933dac1,3,41,44,10,1.0,1.0,0
run-2020-2-18-18-4-22.636636972,AGENT#185ceff2-5279-11ea-ab5b-7b2ff6de17e8,2,42,44,10,1.0,1.0,0
run-2020-2-18-18-4-22.636636972,AGENT#185dc0da-5279-11ea-9ea7-e786dfac91ed,1,43,44,10,1.0,1.0,0
run-2020-2-18-18-4-22.636636972,AGENT#17f5cf70-5279-11ea-aa06-db162f7a33bb,45,0,45,10,1.0,1.0,0
run-2020-2-18-18-4-22.636636972,AGENT#185c0fc4-5279-11ea-8c90-c3cc627780da,4,41,45,10,1.0,1.0,0
run-2020-2-18-18-4-22.636636972,AGENT#185c1762-5279-11ea-ab72-0b14aea743e7,4,41,45,10,1.0,1.0,0
run-2020-2-18-18-4-22.636636972,AGENT#185cea7a-5279-11ea-b10d-37cc372ec508,3,42,45,10,1.0,1.0,0
run-2020-2-18-18-4-22.636636972,AGENT#185ced72-5279-11ea-ba5f-67316a3d07ab,3,42,45,10,1.0,1.0,0
run-2020-2-18-18-4-22.636636972,AGENT#185ea086-5279-11ea-88c5-f7720552c358,1,44,45,10,1.0,1.0,0
run-2020-2-18-18-4-22.636636972,AGENT#17f62c7c-5279-11ea-b9f1-efadf408cdbe,46,0,46,10,1.0,1.0,0
run-2020-2-18-18-4-22.636636972,AGENT#185c0a60-5279-11ea-8b68-2766d23adcd1,5,41,46,10,1.0,1.0,0
run-2020-2-18-18-4-22.636636972,AGENT#185dbc84-5279-11ea-9f9f-8faa83f1c57f,3,43,46,10,1.0,1.0,0
run-2020-2-18-18-4-22.636636972,AGENT#185e9e06-5279-11ea-a507-1bf9f619a54f,2,44,46,10,1.0,1.0,0
run-2020-2-18-18-4-22.636636972,AGENT#185cf254-5279-11ea-9b63-3f90596e5683,5,42,47,10,1.0,1.0,0
run-2020-2-18-18-4-22.636636972,AGENT#185db7d4-5279-11ea-b6b1-7b607552383d,4,43,47,10,1.0,1.0,0
run-2020-2-18-18-4-22.636636972,AGENT#185ea766-5279-11ea-95cd-2b62f61f8762,3,44,47,10,1.0,1.0,0
run-2020-2-18-18-4-22.636636972,AGENT#18606a2e-5279-11ea-9415-7706e9040e72,1,46,47,10,1.0,1.0,0
run-2020-2-18-18-4-22.636636972,AGENT#181cf1ae-5279-11ea-ae75-0f3c6d54689d,45,3,48,10,1.0,1.0,0
run-2020-2-18-18-4-22.636636972,AGENT#184f712e-5279-11ea-aee6-6fa085c9a6d0,23,25,48,10,1.0,1.0,0
run-2020-2-18-18-4-22.636636972,AGENT#185e969a-5279-11ea-9653-83936cf7fa65,4,44,48,10,1.0,1.0,0
run-2020-2-18-18-4-22.636636972,AGENT#17f62146-5279-11ea-9962-6315f3b04271,49,0,49,10,1.0,1.0,0
run-2020-2-18-18-4-22.636636972,AGENT#182412ae-5279-11ea-86cb-e34a9de60a2c,45,4,49,10,1.0,1.0,0
run-2020-2-18-18-4-22.636636972,AGENT#185a0328-5279-11ea-8632-3f280fe52c8e,10,39,49,10,1.0,1.0,0
run-2020-2-18-18-4-22.636636972,AGENT#185f7664-5279-11ea-a852-43aeef197f47,4,45,49,10,1.0,1.0,0
run-2020-2-18-18-4-22.636636972,AGENT#185f78e4-5279-11ea-af6f-cf79645d684e,4,45,49,10,1.0,1.0,0
run-2020-2-18-18-4-22.636636972,AGENT#185f7b1e-5279-11ea-baef-6f4f505c24c5,4,45,49,10,1.0,1.0,0
run-2020-2-18-18-4-22.636636972,AGENT#18620870-5279-11ea-bb6c-db7f1a6b2451,1,48,49,10,1.0,1.0,0
run-2020-2-18-18-4-22.636636972,AGENT#1862145a-5279-11ea-8a77-6b94c2cda562,1,48,49,10,1.0,1.0,0
run-2020-2-18-18-4-22.636636972,AGENT#186067c2-5279-11ea-9ad2-3fb523a42aa5,4,46,50,10,1.0,1.0,0
run-2020-2-18-18-4-22.636636972,AGENT#18620cd0-5279-11ea-933b-5f99a5521952,2,48,50,10,1.0,1.0,0
run-2020-2-18-18-4-22.636636972,AGENT#18613a30-5279-11ea-8038-4bc9a24cccec,4,47,51,10,1.0,1.0,0
run-2020-2-18-18-4-22.636636972,AGENT#186341fe-5279-11ea-9684-43d6be53fbbf,2,49,51,10,1.0,1.0,0
run-2020-2-18-18-4-22.636636972,AGENT#18329356-5279-11ea-9b49-276de86e1814,45,7,52,10,1.0,1.0,0
run-2020-2-18-18-4-22.636636972,AGENT#1849f078-5279-11ea-9fbe-b71fb7d285f7,34,18,52,10,1.0,1.0,0
run-2020-2-18-18-4-22.636636972,AGENT#186210c2-5279-11ea-a694-3b5f6874cac5,4,48,52,10,1.0,1.0,0
run-2020-2-18-18-4-22.636636972,AGENT#1864323a-5279-11ea-a702-0b418769188d,2,50,52,10,1.0,1.0,0
run-2020-2-18-18-4-22.636636972,AGENT#18650fb6-5279-11ea-ad65-730cf36241b9,1,51,52,10,1.0,1.0,0
run-2020-2-18-18-4-22.636636972,AGENT#183296b2-5279-11ea-b668-87148dfa50ba,46,7,53,10,1.0,1.0,0
run-2020-2-18-18-4-22.636636972,AGENT#1864300a-5279-11ea-be50-07e5472cf7a0,3,50,53,10,1.0,1.0,0
run-2020-2-18-18-4-22.636636972,AGENT#18651254-5279-11ea-ad0d-3f55fc8e9234,2,51,53,10,1.0,1.0,0
run-2020-2-18-18-4-22.636636972,AGENT#183890d0-5279-11ea-8dc0-ff15be712830,45,9,54,10,1.0,1.0,0
run-2020-2-18-18-4-22.636636972,AGENT#18634550-5279-11ea-a104-a751dbfed86c,5,49,54,10,1.0,1.0,0
run-2020-2-18-18-4-22.636636972,AGENT#18642dc6-5279-11ea-98cf-03bdcd21534f,4,50,54,10,1.0,1.0,0
run-2020-2-18-18-4-22.636636972,AGENT#1866ad9e-5279-11ea-aaa2-7f5e2eae8271,2,53,55,10,1.0,1.0,0
run-2020-2-18-18-4-22.636636972,AGENT#1866b38e-5279-11ea-8bc5-d33677b50369,2,53,55,10,1.0,1.0,0
run-2020-2-18-18-4-22.636636972,AGENT#185b195c-5279-11ea-841e-5b689b639917,16,40,56,10,1.0,1.0,0
run-2020-2-18-18-4-22.636636972,AGENT#186516fa-5279-11ea-87f7-f7837b9e8eb1,5,51,56,10,1.0,1.0,0
run-2020-2-18-18-4-22.636636972,AGENT#186781f6-5279-11ea-a348-977a99cea6e8,2,54,56,10,1.0,1.0,0
run-2020-2-18-18-4-22.636636972,AGENT#183f9a24-5279-11ea-8ead-1bdafeaebe33,45,12,57,10,1.0,1.0,0
run-2020-2-18-18-4-22.636636972,AGENT#1866b0be-5279-11ea-833c-ef2f60e40dee,4,53,57,10,1.0,1.0,0
run-2020-2-18-18-4-22.636636972,AGENT#1841c70e-5279-11ea-834e-939bed5bf5bf,45,13,58,10,1.0,1.0,0
run-2020-2-18-18-4-22.636636972,AGENT#1869f210-5279-11ea-b84a-973fe112054c,1,57,58,10,1.0,1.0,0
run-2020-2-18-18-4-22.636636972,AGENT#186514b6-5279-11ea-9cb7-9be588d64367,8,51,59,10,1.0,1.0,0
run-2020-2-18-18-4-22.636636972,AGENT#186ab9de-5279-11ea-a21d-f75d44dd9347,1,58,59,10,1.0,1.0,0
run-2020-2-18-18-4-22.636636972,AGENT#18692088-5279-11ea-90e6-0f6bbbf2a18c,4,56,60,10,1.0,1.0,0
run-2020-2-18-18-4-22.636636972,AGENT#1857cd06-5279-11ea-be36-f3334a8c8f4d,25,36,61,10,1.0,1.0,0
run-2020-2-18-18-4-22.636636972,AGENT#1869ef7c-5279-11ea-80d7-23361db857b1,4,57,61,10,1.0,1.0,0
run-2020-2-18-18-4-22.636636972,AGENT#186b8e90-5279-11ea-a230-5fb68f34f2b0,2,59,61,10,1.0,1.0,0
run-2020-2-18-18-4-22.636636972,AGENT#186abe7a-5279-11ea-b031-2f908eadc815,4,58,62,10,1.0,1.0,0
run-2020-2-18-18-4-22.636636972,AGENT#186b9160-5279-11ea-84d3-cbaf9e9f7be6,3,59,62,10,1.0,1.0,0
run-2020-2-18-18-4-22.636636972,AGENT#1853e13c-5279-11ea-881b-4785a49674fd,31,32,63,10,1.0,1.0,0
run-2020-2-18-18-4-22.636636972,AGENT#186c636a-5279-11ea-ad40-33f16c5ac714,3,60,63,10,1.0,1.0,0
run-2020-2-18-18-4-22.636636972,AGENT#186c65ea-5279-11ea-9363-7f4e78c17e8b,3,60,63,10,1.0,1.0,0
run-2020-2-18-18-4-22.636636972,AGENT#186e814a-5279-11ea-9346-23f3c10e6677,2,62,64,10,1.0,1.0,0
run-2020-2-18-18-4-22.636636972,AGENT#186f7136-5279-11ea-853e-672ba348be5c,1,63,64,10,1.0,1.0,0
run-2020-2-18-18-4-22.636636972,AGENT#1870498a-5279-11ea-88a1-6f2ff5e9c2a2,2,64,66,10,1.0,1.0,0
run-2020-2-18-18-4-22.636636972,AGENT#18705060-5279-11ea-a561-e37966a9621e,2,64,66,10,1.0,1.0,0
run-2020-2-18-18-4-22.636636972,AGENT#184d731a-5279-11ea-8975-5769cd108deb,45,22,67,10,1.0,1.0,0
run-2020-2-18-18-4-22.636636972,AGENT#186f6c4a-5279-11ea-ac35-cbcf3fa26f07,4,63,67,10,1.0,1.0,0
run-2020-2-18-18-4-22.636636972,AGENT#187273c2-5279-11ea-8b6b-93124bc0631e,1,66,67,10,1.0,1.0,0
run-2020-2-18-18-4-22.636636972,AGENT#1855cf42-5279-11ea-8bcf-776392d5edbf,34,34,68,10,1.0,1.0,0
run-2020-2-18-18-4-22.636636972,AGENT#185ea522-5279-11ea-a866-47a8b3970402,24,44,68,10,1.0,1.0,0
run-2020-2-18-18-4-22.636636972,AGENT#1870470a-5279-11ea-a9df-53c1f1f29778,5,64,69,10,1.0,1.0,0
run-2020-2-18-18-4-22.636636972,AGENT#18704bd8-5279-11ea-b76d-03135c00b2a8,5,64,69,10,1.0,1.0,0
run-2020-2-18-18-4-22.636636972,AGENT#18755c5e-5279-11ea-8a30-3f7cfa6eea48,1,69,70,10,1.0,1.0,0
run-2020-2-18-18-4-22.636636972,AGENT#184f6c06-5279-11ea-9f27-7fd559946163,46,25,71,10,1.0,1.0,0
run-2020-2-18-18-4-22.636636972,AGENT#185008f0-5279-11ea-a8eb-d3921a4f522d,45,26,71,10,1.0,1.0,0
run-2020-2-18-18-4-22.636636972,AGENT#18500b70-5279-11ea-968e-378602e8767c,45,26,71,10,1.0,1.0,0
run-2020-2-18-18-4-22.636636972,AGENT#1873709c-5279-11ea-9de0-cb654cc3253a,4,67,71,10,1.0,1.0,0
run-2020-2-18-18-4-22.636636972,AGENT#18744fd0-5279-11ea-baa8-c7324c595e04,3,68,71,10,1.0,1.0,0
run-2020-2-18-18-4-22.636636972,AGENT#184ecb48-5279-11ea-95fc-6f785948536c,48,24,72,10,1.0,1.0,0
run-2020-2-18-18-4-22.636636972,AGENT#1850b66a-5279-11ea-bb2d-67e936e0021b,45,27,72,10,1.0,1.0,0
run-2020-2-18-18-4-22.636636972,AGENT#18712f6c-5279-11ea-b7e4-531730828a7b,7,65,72,10,1.0,1.0,0
run-2020-2-18-18-4-22.636636972,AGENT#1874490e-5279-11ea-a104-372af38a198f,4,68,72,10,1.0,1.0,0
run-2020-2-18-18-4-22.636636972,AGENT#1877cae8-5279-11ea-adec-5b86f466a336,1,71,72,10,1.0,1.0,0
run-2020-2-18-18-4-22.636636972,AGENT#1877d268-5279-11ea-a6f1-83ba1a55d9e8,1,71,72,10,1.0,1.0,0
run-2020-2-18-18-4-22.636636972,AGENT#1877d718-5279-11ea-b238-03b48cdc3c30,1,71,72,10,1.0,1.0,0
run-2020-2-18-18-4-22.636636972,AGENT#187554ac-5279-11ea-b6cc-8392c331def6,4,69,73,10,1.0,1.0,0
run-2020-2-18-18-4-22.636636972,AGENT#1878db72-5279-11ea-8969-33ba7eada8f0,1,72,73,10,1.0,1.0,0
run-2020-2-18-18-4-22.636636972,AGENT#18755092-5279-11ea-8a81-8b236f2389aa,5,69,74,10,1.0,1.0,0
run-2020-2-18-18-4-22.636636972,AGENT#1875584e-5279-11ea-9eea-eb69590c2a43,5,69,74,10,1.0,1.0,0
run-2020-2-18-18-4-22.636636972,AGENT#18769f88-5279-11ea-8505-4bd7f4fd9044,4,70,74,10,1.0,1.0,0
run-2020-2-18-18-4-22.636636972,AGENT#1876a23a-5279-11ea-b887-ef7a4983bc07,4,70,74,10,1.0,1.0,0
run-2020-2-18-18-4-22.636636972,AGENT#1877d024-5279-11ea-86df-f7b9306e4836,3,71,74,10,1.0,1.0,0
run-2020-2-18-18-4-22.636636972,AGENT#1878de10-5279-11ea-8d16-3326778c7457,2,72,74,10,1.0,1.0,0
run-2020-2-18-18-4-22.636636972,AGENT#185156a6-5279-11ea-9373-872130ef9dde,47,28,75,10,1.0,1.0,0
run-2020-2-18-18-4-22.636636972,AGENT#1852a268-5279-11ea-8808-33bc2a23a15b,45,30,75,10,1.0,1.0,0
run-2020-2-18-18-4-22.636636972,AGENT#1877cdb8-5279-11ea-a0a9-57debb581506,4,71,75,10,1.0,1.0,0
run-2020-2-18-18-4-22.636636972,AGENT#187ad4fe-5279-11ea-b8f6-170bda1d32b9,1,74,75,10,1.0,1.0,0
run-2020-2-18-18-4-22.636636972,AGENT#187adff8-5279-11ea-a26d-970fb10e580c,1,74,75,10,1.0,1.0,0
run-2020-2-18-18-4-22.636636972,AGENT#1851f9e4-5279-11ea-bee2-97c3d4e50346,47,29,76,10,1.0,1.0,0
run-2020-2-18-18-4-22.636636972,AGENT#187adaee-5279-11ea-977d-8f5489d5a5ee,2,74,76,10,1.0,1.0,0
run-2020-2-18-18-4-22.636636972,AGENT#1853eb28-5279-11ea-beae-3fb738cd00d7,45,32,77,10,1.0,1.0,0
run-2020-2-18-18-4-22.636636972,AGENT#1874468e-5279-11ea-ab64-47f5bef19200,9,68,77,10,1.0,1.0,0
run-2020-2-18-18-4-22.636636972,AGENT#187ad85a-5279-11ea-aa78-5f39e5d1c305,4,74,78,10,1.0,1.0,0
run-2020-2-18-18-4-22.636636972,AGENT#187dddde-5279-11ea-bb46-77b2b918684f,1,77,78,10,1.0,1.0,0
run-2020-2-18-18-4-22.636636972,AGENT#187de036-5279-11ea-9f10-53a563e9f689,1,77,78,10,1.0,1.0,0
run-2020-2-18-18-4-22.636636972,AGENT#187ce58c-5279-11ea-bdb8-83d807491fe0,3,76,79,10,1.0,1.0,0
run-2020-2-18-18-4-22.636636972,AGENT#18713732-5279-11ea-9685-27779f5f2fb1,15,65,80,10,1.0,1.0,0
run-2020-2-18-18-4-22.636636972,AGENT#187be574-5279-11ea-9e7c-bbe8b7ef3d13,5,75,80,10,1.0,1.0,0
run-2020-2-18-18-4-22.636636972,AGENT#18769c72-5279-11ea-ad42-f3777835d65d,11,70,81,10,1.0,1.0,0
run-2020-2-18-18-4-22.636636972,AGENT#187dd848-5279-11ea-afbb-d7237095bb49,4,77,81,10,1.0,1.0,0
run-2020-2-18-18-4-22.636636972,AGENT#1880bbb2-5279-11ea-8562-7f2e998ca173,1,80,81,10,1.0,1.0,0
run-2020-2-18-18-4-22.636636972,AGENT#1880bed2-5279-11ea-bf46-470b40ba01b6,1,80,81,10,1.0,1.0,0
run-2020-2-18-18-4-22.636636972,AGENT#18589510-5279-11ea-9992-9f91b175830d,45,37,82,10,1.0,1.0,0
run-2020-2-18-18-4-22.636636972,AGENT#1881c836-5279-11ea-b9e8-17b5096218da,1,81,82,10,1.0,1.0,0
run-2020-2-18-18-4-22.636636972,AGENT#18588e26-5279-11ea-8c88-cbd9ab0e44a1,46,37,83,10,1.0,1.0,0
run-2020-2-18-18-4-22.636636972,AGENT#18594c76-5279-11ea-ae47-831ca3fa5dca,45,38,83,10,1.0,1.0,0
run-2020-2-18-18-4-22.636636972,AGENT#1881c372-5279-11ea-a20c-33610b58b2d1,2,81,83,10,1.0,1.0,0
run-2020-2-18-18-4-22.636636972,AGENT#1859fea0-5279-11ea-b4eb-970d8b7b85b2,45,39,84,10,1.0,1.0,0
run-2020-2-18-18-4-22.636636972,AGENT#187fc89c-5279-11ea-8a0e-0f353f399883,5,79,84,10,1.0,1.0,0
run-2020-2-18-18-4-22.636636972,AGENT#1882c7ea-5279-11ea-95dd-3b0956ca5307,2,82,84,10,1.0,1.0,0
run-2020-2-18-18-4-22.636636972,AGENT#18841a50-5279-11ea-8b76-6b409bb70d47,1,83,84,10,1.0,1.0,0
run-2020-2-18-18-4-22.636636972,AGENT#1854d182-5279-11ea-9681-eb2a0a9225ae,52,33,85,10,1.0,1.0,0
run-2020-2-18-18-4-22.636636972,AGENT#185b2316-5279-11ea-8cbc-abf10995979c,45,40,85,10,1.0,1.0,0
run-2020-2-18-18-4-22.636636972,AGENT#18852fe4-5279-11ea-9482-f3f0ef4fbb8d,1,84,85,10,1.0,1.0,0
run-2020-2-18-18-4-22.636636972,AGENT#188534e4-5279-11ea-b645-47b0fca834a6,1,84,85,10,1.0,1.0,0
run-2020-2-18-18-4-22.636636972,AGENT#185c1262-5279-11ea-a3f5-5ff16ce83d4f,45,41,86,10,1.0,1.0,0
run-2020-2-18-18-4-22.636636972,AGENT#18842072-5279-11ea-aea4-4fd8e53634fc,3,83,86,10,1.0,1.0,0
run-2020-2-18-18-4-22.636636972,AGENT#185c14e2-5279-11ea-9afe-abdb2c91729e,46,41,87,10,1.0,1.0,0
run-2020-2-18-18-4-22.636636972,AGENT#18874284-5279-11ea-b0d9-631c6f6b30ca,1,86,87,10,1.0,1.0,0
run-2020-2-18-18-4-22.636636972,AGENT#18874734-5279-11ea-9353-77cc3d5b884d,1,86,87,10,1.0,1.0,0
run-2020-2-18-18-4-22.636636972,AGENT#18613580-5279-11ea-8488-1feea44f5029,41,47,88,10,1.0,1.0,0
run-2020-2-18-18-4-22.636636972,AGENT#18841d5c-5279-11ea-baef-fbf5f5f710c4,5,83,88,10,1.0,1.0,0
run-2020-2-18-18-4-22.636636972,AGENT#18862dc2-5279-11ea-939a-53674d711605,3,85,88,10,1.0,1.0,0
run-2020-2-18-18-4-22.636636972,AGENT#1886374a-5279-11ea-a099-db52097f1480,3,85,88,10,1.0,1.0,0
run-2020-2-18-18-4-22.636636972,AGENT#185dbeb4-5279-11ea-a543-53ef5916cf43,46,43,89,10,1.0,1.0,0
run-2020-2-18-18-4-22.636636972,AGENT#18863970-5279-11ea-b8a4-eb684ac4d7ea,4,85,89,10,1.0,1.0,0
run-2020-2-18-18-4-22.636636972,AGENT#18874ba8-5279-11ea-b2fc-b718cb2e1ca4,3,86,89,10,1.0,1.0,0
run-2020-2-18-18-4-22.636636972,AGENT#185e9bb8-5279-11ea-83e2-1b2e5ad74cfe,46,44,90,10,1.0,1.0,0
run-2020-2-18-18-4-22.636636972,AGENT#187ce848-5279-11ea-81e7-072b160c87b8,14,76,90,10,1.0,1.0,0
run-2020-2-18-18-4-22.636636972,AGENT#18863290-5279-11ea-b6c4-bb91764fe784,5,85,90,10,1.0,1.0,0
run-2020-2-18-18-4-22.636636972,AGENT#18874964-5279-11ea-937f-a3f734d1320f,4,86,90,10,1.0,1.0,0
run-2020-2-18-18-4-22.636636972,AGENT#18895402-5279-11ea-b4af-47b56f0b0cd6,2,88,90,10,1.0,1.0,0
run-2020-2-18-18-4-22.636636972,AGENT#1889566e-5279-11ea-a4bf-cbf397dd71a5,2,88,90,10,1.0,1.0,0
run-2020-2-18-18-4-22.636636972,AGENT#185dba36-5279-11ea-b88b-57c31cec3e7c,48,43,91,10,1.0,1.0,0
run-2020-2-18-18-4-22.636636972,AGENT#185ea2de-5279-11ea-bfaa-b75a30969ebe,47,44,91,10,1.0,1.0,0
run-2020-2-18-18-4-22.636636972,AGENT#185e9956-5279-11ea-b694-1798d668cb12,48,44,92,10,1.0,1.0,0
run-2020-2-18-18-4-22.636636972,AGENT#186137ec-5279-11ea-9d43-733399030847,45,47,92,10,1.0,1.0,0
run-2020-2-18-18-4-22.636636972,AGENT#18895ad8-5279-11ea-8ac1-8345ce1c6ec5,4,88,92,10,1.0,1.0,0
run-2020-2-18-18-4-22.636636972,AGENT#188a5fdc-5279-11ea-9f45-b343a5c4a203,3,89,92,10,1.0,1.0,0
run-2020-2-18-18-4-22.636636972,AGENT#188c7ce0-5279-11ea-955e-27b722a5fef8,1,91,92,10,1.0,1.0,0
run-2020-2-18-18-4-22.636636972,AGENT#18606510-5279-11ea-8fbe-c7edff51126c,47,46,93,10,1.0,1.0,0
run-2020-2-18-18-4-22.636636972,AGENT#186217e8-5279-11ea-b02d-7bc654332891,45,48,93,10,1.0,1.0,0
run-2020-2-18-18-4-22.636636972,AGENT#188958a8-5279-11ea-9bbc-0362170ca7c2,5,88,93,10,1.0,1.0,0
run-2020-2-18-18-4-22.636636972,AGENT#188b5afe-5279-11ea-a62b-e3225f286bfe,3,90,93,10,1.0,1.0,0
run-2020-2-18-18-4-22.636636972,AGENT#188c75c4-5279-11ea-8e01-533471ca42bf,2,91,93,10,1.0,1.0,0
run-2020-2-18-18-4-22.636636972,AGENT#188c7f42-5279-11ea-acb9-2b21f1f33c72,2,91,93,10,1.0,1.0,0
run-2020-2-18-18-4-22.636636972,AGENT#186b93c2-5279-11ea-a492-e3e38d845c44,35,59,94,10,1.0,1.0,0
run-2020-2-18-18-4-22.636636972,AGENT#188c7862-5279-11ea-b7c7-7bb3a98a05d6,3,91,94,10,1.0,1.0,0
run-2020-2-18-18-4-22.636636972,AGENT#188d889c-5279-11ea-9a1a-a7d92248d61d,2,92,94,10,1.0,1.0,0
run-2020-2-18-18-4-22.636636972,AGENT#188e961a-5279-11ea-9ad2-3f45e57c5393,1,93,94,10,1.0,1.0,0
run-2020-2-18-18-4-22.636636972,AGENT#188b5874-5279-11ea-8e67-73b375942e25,5,90,95,10,1.0,1.0,0
run-2020-2-18-18-4-22.636636972,AGENT#18642b64-5279-11ea-b242-3ff8b4e2bf2e,46,50,96,10,1.0,1.0,0
run-2020-2-18-18-4-22.636636972,AGENT#188a5d5c-5279-11ea-bf02-7b80a7760cd1,7,89,96,10,1.0,1.0,0
run-2020-2-18-18-4-22.636636972,AGENT#188c7aa6-5279-11ea-805a-43d62ca6553b,5,91,96,10,1.0,1.0,0
run-2020-2-18-18-4-22.636636972,AGENT#188d863a-5279-11ea-aaf7-6bdc73e04ebd,4,92,96,10,1.0,1.0,0
run-2020-2-18-18-4-22.636636972,AGENT#188e93b8-5279-11ea-a822-abff29305fa3,3,93,96,10,1.0,1.0,0
run-2020-2-18-18-4-22.636636972,AGENT#188fa4b0-5279-11ea-8537-7767a1582f0e,2,94,96,10,1.0,1.0,0
run-2020-2-18-18-4-22.636636972,AGENT#1890c796-5279-11ea-88d0-637a76c32b87,1,95,96,10,1.0,1.0,0
run-2020-2-18-18-4-22.636636972,AGENT#1879d48c-5279-11ea-948c-fb42b63c394e,24,73,97,10,1.0,1.0,0
run-2020-2-18-18-4-22.636636972,AGENT#188e9f7a-5279-11ea-abbd-a3ded1464748,4,93,97,10,1.0,1.0,0
run-2020-2-18-18-4-22.636636972,AGENT#188fa014-5279-11ea-ab0c-cb55c7312a40,3,94,97,10,1.0,1.0,0
run-2020-2-18-18-4-22.636636972,AGENT#1891d640-5279-11ea-9d84-63765d82c7d0,1,96,97,10,1.0,1.0,0
run-2020-2-18-18-4-22.636636972,AGENT#1891dad2-5279-11ea-845c-47f8f0a7ac79,2,96,98,10,1.0,1.0,0
run-2020-2-18-18-4-22.636636972,AGENT#188416e0-5279-11ea-bf1e-4b0f5d6c6a08,16,83,99,10,1.0,1.0,0
run-2020-2-18-18-4-22.636636972,AGENT#1891dd16-5279-11ea-b3c0-078aa290d352,3,96,99,10,1.0,1.0,0
run-2020-2-18-18-4-22.636636972,AGENT#189336a2-5279-11ea-967d-27ddbf9eed7f,2,97,99,10,1.0,1.0,0
