Source,Target
799a5afa-5a14-11ea-bcad-6f04fd036240,799a7792-5a14-11ea-91c0-3bb1f7870c5d
799a7076-5a14-11ea-aaed-1fba1af2306f,799a7918-5a14-11ea-9aac-27d296705b93
799a7076-5a14-11ea-aaed-1fba1af2306f,799a8390-5a14-11ea-8464-df7815492691
799a7792-5a14-11ea-91c0-3bb1f7870c5d,799a8dc2-5a14-11ea-898a-975369015467
799a567c-5a14-11ea-abe7-5be2246be12d,799a911e-5a14-11ea-8fc1-67c7411e977d
799a7076-5a14-11ea-aaed-1fba1af2306f,799a9542-5a14-11ea-a8de-4717dc30e40b
799a9542-5a14-11ea-a8de-4717dc30e40b,799aa780-5a14-11ea-be78-23ace4448a1d
799a7076-5a14-11ea-aaed-1fba1af2306f,799aaa8c-5a14-11ea-aa18-fb7840fe5210
799a3174-5a14-11ea-a2a8-b398a023d02e,799ab52c-5a14-11ea-bfae-bb9c8c5db33b
799a5f46-5a14-11ea-bff3-0710d3aa780c,799aba36-5a14-11ea-b733-d33a892fb6cc
799a4bbe-5a14-11ea-bf87-f7f37da0595b,799abd1a-5a14-11ea-9bf9-df4c93221d24
799a8dc2-5a14-11ea-898a-975369015467,799ac490-5a14-11ea-9d30-47d39efd1cd5
799a5afa-5a14-11ea-bcad-6f04fd036240,799ac7ba-5a14-11ea-b54c-9b11feb36e7a
799a567c-5a14-11ea-abe7-5be2246be12d,799acd14-5a14-11ea-a5ac-abfdb8205543
799aaa8c-5a14-11ea-aa18-fb7840fe5210,799aecb8-5a14-11ea-b624-ab310d635f54
799aba36-5a14-11ea-b733-d33a892fb6cc,799aef24-5a14-11ea-8b32-8bd9363818f1
799a398a-5a14-11ea-9550-dfc6ac643bc3,799af2e4-5a14-11ea-b19c-0f10201df150
799abd1a-5a14-11ea-9bf9-df4c93221d24,799af73a-5a14-11ea-bc07-038c5ed26b47
799a9542-5a14-11ea-a8de-4717dc30e40b,799afec4-5a14-11ea-8f9b-db957eb6bb71
799a5f46-5a14-11ea-bff3-0710d3aa780c,799b01d0-5a14-11ea-ba38-db860790e979
799afec4-5a14-11ea-8f9b-db957eb6bb71,799b069e-5a14-11ea-ab86-03d45a85cab6
799a398a-5a14-11ea-9550-dfc6ac643bc3,799b082e-5a14-11ea-a1bd-6357fb1490d4
799b082e-5a14-11ea-a1bd-6357fb1490d4,799b255c-5a14-11ea-8d65-037996562256
799a4bbe-5a14-11ea-bf87-f7f37da0595b,799b2fca-5a14-11ea-b56d-e3cca7149d86
799aba36-5a14-11ea-b733-d33a892fb6cc,799b3bc8-5a14-11ea-9b43-67dd26637885
799aef24-5a14-11ea-8b32-8bd9363818f1,799b3740-5a14-11ea-95c3-37c410eb520a
799aba36-5a14-11ea-b733-d33a892fb6cc,799b26e2-5a14-11ea-a47c-2f4a5bbf3c0e
799acd14-5a14-11ea-a5ac-abfdb8205543,799b4122-5a14-11ea-8092-bbe9b80603b3
799acd14-5a14-11ea-a5ac-abfdb8205543,799b3fd8-5a14-11ea-9ad0-873ec4f89ee6
799a9542-5a14-11ea-a8de-4717dc30e40b,799b64d6-5a14-11ea-9265-d73a267847fa
799ac490-5a14-11ea-9d30-47d39efd1cd5,799b7124-5a14-11ea-a57b-4b3e37631cde
799b7124-5a14-11ea-a57b-4b3e37631cde,799b6d32-5a14-11ea-9700-974b44db527b
799afec4-5a14-11ea-8f9b-db957eb6bb71,799b743a-5a14-11ea-8b9d-0734744e881c
799aef24-5a14-11ea-8b32-8bd9363818f1,799b787c-5a14-11ea-ac6c-2f6f083fe076
799aba36-5a14-11ea-b733-d33a892fb6cc,799b7c8c-5a14-11ea-884e-d72d62a56301
799b01d0-5a14-11ea-ba38-db860790e979,799b7f98-5a14-11ea-87db-d7b5dda25580
799b6d32-5a14-11ea-9700-974b44db527b,799b831c-5a14-11ea-81cb-63d8ec90070f
799aecb8-5a14-11ea-b624-ab310d635f54,799b9992-5a14-11ea-b435-4bba9c03968a
799a3174-5a14-11ea-a2a8-b398a023d02e,799ba8f6-5a14-11ea-95e2-5356281a3503
799b787c-5a14-11ea-ac6c-2f6f083fe076,799bac8e-5a14-11ea-b6c4-870d8df67f44
799a911e-5a14-11ea-8fc1-67c7411e977d,799bb15c-5a14-11ea-97b0-7383df4d51c3
799a3548-5a14-11ea-ad78-432ea7b529b1,799bb472-5a14-11ea-9df0-cbed0ba210b8
799b7124-5a14-11ea-a57b-4b3e37631cde,799bb832-5a14-11ea-b412-9729969edce3
799ab52c-5a14-11ea-bfae-bb9c8c5db33b,799bbf08-5a14-11ea-9a65-e3f92ac348c8
799bac8e-5a14-11ea-b6c4-870d8df67f44,799bbd00-5a14-11ea-8382-1310bcfe0b1a
799a9542-5a14-11ea-a8de-4717dc30e40b,799bcf34-5a14-11ea-882d-a3d52bc08d1e
799bb15c-5a14-11ea-97b0-7383df4d51c3,799be0be-5a14-11ea-a6d1-27d9c915db5b
799b7c8c-5a14-11ea-884e-d72d62a56301,799be4b0-5a14-11ea-b9ba-53533b170682
799b6d32-5a14-11ea-9700-974b44db527b,799bef78-5a14-11ea-a98e-3ff104f02eb9
799a7792-5a14-11ea-91c0-3bb1f7870c5d,799beb40-5a14-11ea-b864-235f105b905a
799b4122-5a14-11ea-8092-bbe9b80603b3,799bf360-5a14-11ea-b9f0-ab6b1ea63e13
799aecb8-5a14-11ea-b624-ab310d635f54,799bf6ee-5a14-11ea-88e3-176695bd4408
799a8390-5a14-11ea-8464-df7815492691,799bf9be-5a14-11ea-a236-cfb3aaf06100
799b7c8c-5a14-11ea-884e-d72d62a56301,799c054e-5a14-11ea-a1c9-f7a97dbba9a3
799bbf08-5a14-11ea-9a65-e3f92ac348c8,799c275e-5a14-11ea-a43b-1f5c5f2e74ab
799b4122-5a14-11ea-8092-bbe9b80603b3,799c2a6a-5a14-11ea-a7f0-b3e51146fea6
799aef24-5a14-11ea-8b32-8bd9363818f1,799c3014-5a14-11ea-92b2-c3ca7a0d35be
799b7f98-5a14-11ea-87db-d7b5dda25580,799c36a4-5a14-11ea-adeb-3f8c5ecfb539
799bf6ee-5a14-11ea-88e3-176695bd4408,799c38e8-5a14-11ea-99f0-b37397af94f2
799a5f46-5a14-11ea-bff3-0710d3aa780c,799c55bc-5a14-11ea-ba68-933d3f88ff53
799bac8e-5a14-11ea-b6c4-870d8df67f44,799c5d50-5a14-11ea-94fc-cf83aebe130d
799b3bc8-5a14-11ea-9b43-67dd26637885,799c6084-5a14-11ea-a37e-272690f0318d
799a5f46-5a14-11ea-bff3-0710d3aa780c,799c653e-5a14-11ea-b7fc-f70614dc5f39
799b2fca-5a14-11ea-b56d-e3cca7149d86,799c66f6-5a14-11ea-93a7-ffb96d8233ba
799bcf34-5a14-11ea-882d-a3d52bc08d1e,799c6f34-5a14-11ea-8746-07aa3d6090ce
799a4bbe-5a14-11ea-bf87-f7f37da0595b,799c6b1a-5a14-11ea-aeeb-93a9c4d2d361
799c6f34-5a14-11ea-8746-07aa3d6090ce,799c729a-5a14-11ea-ab10-2305b25958ce
799abd1a-5a14-11ea-9bf9-df4c93221d24,799c8d02-5a14-11ea-8c88-7b901f772073
799c3014-5a14-11ea-92b2-c3ca7a0d35be,799c9504-5a14-11ea-86b3-fb2021519d0f
799b64d6-5a14-11ea-9265-d73a267847fa,799c9900-5a14-11ea-9075-e751d036b595
799acd14-5a14-11ea-a5ac-abfdb8205543,799ca634-5a14-11ea-b338-4390c9c76d7c
799b2fca-5a14-11ea-b56d-e3cca7149d86,799ca85a-5a14-11ea-b5b8-df81591fcb24
799a7076-5a14-11ea-aaed-1fba1af2306f,799cac88-5a14-11ea-b4ec-d7c22e383d4a
799afec4-5a14-11ea-8f9b-db957eb6bb71,799cb336-5a14-11ea-98ac-dbdcf0e71c17
799bbf08-5a14-11ea-9a65-e3f92ac348c8,799cb1e2-5a14-11ea-9298-33e4240322d6
799a3548-5a14-11ea-ad78-432ea7b529b1,799cc42a-5a14-11ea-b411-539cddbb9bfd
799c9900-5a14-11ea-9075-e751d036b595,799ccb28-5a14-11ea-b439-a356663920ca
799bbf08-5a14-11ea-9a65-e3f92ac348c8,799cd104-5a14-11ea-99dc-1307332c393a
799a7076-5a14-11ea-aaed-1fba1af2306f,799ce0a4-5a14-11ea-b173-832f7e75fd81
799ca85a-5a14-11ea-b5b8-df81591fcb24,799cdf0a-5a14-11ea-aadb-f7f75f221dc0
799a72c4-5a14-11ea-8e79-ffdf95fafe7e,799ce662-5a14-11ea-8f00-cf029183ab50
799beb40-5a14-11ea-b864-235f105b905a,799cec5c-5a14-11ea-9a0b-636ceaa1ccd2
799b7f98-5a14-11ea-87db-d7b5dda25580,799cedb0-5a14-11ea-97cd-7711b75e1153
799b6d32-5a14-11ea-9700-974b44db527b,799cfd6e-5a14-11ea-bb8a-0f3156df48ef
799ca634-5a14-11ea-b338-4390c9c76d7c,799d0610-5a14-11ea-a208-f352263a03b2
799b3740-5a14-11ea-95c3-37c410eb520a,799d19d4-5a14-11ea-9442-abb709cc667a
799c054e-5a14-11ea-a1c9-f7a97dbba9a3,799d1d80-5a14-11ea-978e-bb269e302634
799b743a-5a14-11ea-8b9d-0734744e881c,799d217c-5a14-11ea-afa5-779c9d98ab2b
799b7c8c-5a14-11ea-884e-d72d62a56301,799d25dc-5a14-11ea-adf1-7b8bde860b2c
799a398a-5a14-11ea-9550-dfc6ac643bc3,799d2b40-5a14-11ea-a940-974334ceda2c
799cac88-5a14-11ea-b4ec-d7c22e383d4a,799d2cc6-5a14-11ea-aaaa-cb3a3a8dbd2f
799ca634-5a14-11ea-b338-4390c9c76d7c,799d34d2-5a14-11ea-bd72-2ba0da44106b
799b082e-5a14-11ea-a1bd-6357fb1490d4,799d3d10-5a14-11ea-86cf-db230bfce64d
