RunID,Tick,ActiveAgentsPerTick
run-2020-2-17-18-28-16.951328039,0,12
run-2020-2-17-18-28-16.951328039,1,17
run-2020-2-17-18-28-16.951328039,2,16
run-2020-2-17-18-28-16.951328039,3,15
run-2020-2-17-18-28-16.951328039,4,18
run-2020-2-17-18-28-16.951328039,5,19
run-2020-2-17-18-28-16.951328039,6,18
run-2020-2-17-18-28-16.951328039,7,19
run-2020-2-17-18-28-16.951328039,8,21
run-2020-2-17-18-28-16.951328039,9,29
run-2020-2-17-18-28-16.951328039,10,29
run-2020-2-17-18-28-16.951328039,11,25
run-2020-2-17-18-28-16.951328039,12,25
run-2020-2-17-18-28-16.951328039,13,29
run-2020-2-17-18-28-16.951328039,14,29
run-2020-2-17-18-28-16.951328039,15,32
run-2020-2-17-18-28-16.951328039,16,34
run-2020-2-17-18-28-16.951328039,17,35
run-2020-2-17-18-28-16.951328039,18,34
run-2020-2-17-18-28-16.951328039,19,37
run-2020-2-17-18-28-16.951328039,20,39
run-2020-2-17-18-28-16.951328039,21,45
run-2020-2-17-18-28-16.951328039,22,42
run-2020-2-17-18-28-16.951328039,23,38
run-2020-2-17-18-28-16.951328039,24,39
run-2020-2-17-18-28-16.951328039,25,38
run-2020-2-17-18-28-16.951328039,26,38
run-2020-2-17-18-28-16.951328039,27,38
run-2020-2-17-18-28-16.951328039,28,41
run-2020-2-17-18-28-16.951328039,29,40
run-2020-2-17-18-28-16.951328039,30,40
run-2020-2-17-18-28-16.951328039,31,40
run-2020-2-17-18-28-16.951328039,32,40
run-2020-2-17-18-28-16.951328039,33,43
run-2020-2-17-18-28-16.951328039,34,42
run-2020-2-17-18-28-16.951328039,35,45
run-2020-2-17-18-28-16.951328039,36,46
run-2020-2-17-18-28-16.951328039,37,46
run-2020-2-17-18-28-16.951328039,38,47
run-2020-2-17-18-28-16.951328039,39,49
run-2020-2-17-18-28-16.951328039,40,52
run-2020-2-17-18-28-16.951328039,41,52
run-2020-2-17-18-28-16.951328039,42,59
run-2020-2-17-18-28-16.951328039,43,63
run-2020-2-17-18-28-16.951328039,44,64
run-2020-2-17-18-28-16.951328039,45,64
run-2020-2-17-18-28-16.951328039,46,64
run-2020-2-17-18-28-16.951328039,47,65
run-2020-2-17-18-28-16.951328039,48,64
run-2020-2-17-18-28-16.951328039,49,60
run-2020-2-17-18-28-16.951328039,50,62
run-2020-2-17-18-28-16.951328039,51,60
run-2020-2-17-18-28-16.951328039,52,57
run-2020-2-17-18-28-16.951328039,53,58
run-2020-2-17-18-28-16.951328039,54,58
run-2020-2-17-18-28-16.951328039,55,64
run-2020-2-17-18-28-16.951328039,56,67
run-2020-2-17-18-28-16.951328039,57,64
run-2020-2-17-18-28-16.951328039,58,65
run-2020-2-17-18-28-16.951328039,59,61
run-2020-2-17-18-28-16.951328039,60,61
run-2020-2-17-18-28-16.951328039,61,57
run-2020-2-17-18-28-16.951328039,62,56
run-2020-2-17-18-28-16.951328039,63,57
run-2020-2-17-18-28-16.951328039,64,61
run-2020-2-17-18-28-16.951328039,65,65
run-2020-2-17-18-28-16.951328039,66,65
run-2020-2-17-18-28-16.951328039,67,61
run-2020-2-17-18-28-16.951328039,68,66
run-2020-2-17-18-28-16.951328039,69,64
run-2020-2-17-18-28-16.951328039,70,65
run-2020-2-17-18-28-16.951328039,71,66
run-2020-2-17-18-28-16.951328039,72,67
run-2020-2-17-18-28-16.951328039,73,71
run-2020-2-17-18-28-16.951328039,74,65
run-2020-2-17-18-28-16.951328039,75,68
run-2020-2-17-18-28-16.951328039,76,68
run-2020-2-17-18-28-16.951328039,77,68
run-2020-2-17-18-28-16.951328039,78,68
run-2020-2-17-18-28-16.951328039,79,70
run-2020-2-17-18-28-16.951328039,80,69
run-2020-2-17-18-28-16.951328039,81,71
run-2020-2-17-18-28-16.951328039,82,74
run-2020-2-17-18-28-16.951328039,83,72
run-2020-2-17-18-28-16.951328039,84,68
run-2020-2-17-18-28-16.951328039,85,62
run-2020-2-17-18-28-16.951328039,86,64
run-2020-2-17-18-28-16.951328039,87,61
run-2020-2-17-18-28-16.951328039,88,61
run-2020-2-17-18-28-16.951328039,89,60
run-2020-2-17-18-28-16.951328039,90,67
run-2020-2-17-18-28-16.951328039,91,68
run-2020-2-17-18-28-16.951328039,92,70
run-2020-2-17-18-28-16.951328039,93,71
run-2020-2-17-18-28-16.951328039,94,67
run-2020-2-17-18-28-16.951328039,95,66
run-2020-2-17-18-28-16.951328039,96,61
run-2020-2-17-18-28-16.951328039,97,62
run-2020-2-17-18-28-16.951328039,98,62
run-2020-2-17-18-28-16.951328039,99,59
run-2020-2-17-18-28-16.951328039,100,57
