RunID,Tick,AllAgents,Active,Inactive
run-2020-2-17-18-28-16.951328039,0,12,10,2
run-2020-2-17-18-28-16.951328039,1,19,14,5
run-2020-2-17-18-28-16.951328039,2,21,13,8
run-2020-2-17-18-28-16.951328039,3,23,13,10
run-2020-2-17-18-28-16.951328039,4,28,15,13
run-2020-2-17-18-28-16.951328039,5,32,16,16
run-2020-2-17-18-28-16.951328039,6,34,17,17
run-2020-2-17-18-28-16.951328039,7,36,16,20
run-2020-2-17-18-28-16.951328039,8,41,19,22
run-2020-2-17-18-28-16.951328039,9,51,27,24
run-2020-2-17-18-28-16.951328039,10,53,23,30
run-2020-2-17-18-28-16.951328039,11,55,22,33
run-2020-2-17-18-28-16.951328039,12,58,21,37
run-2020-2-17-18-28-16.951328039,13,66,25,41
run-2020-2-17-18-28-16.951328039,14,70,27,43
run-2020-2-17-18-28-16.951328039,15,75,30,45
run-2020-2-17-18-28-16.951328039,16,79,32,47
run-2020-2-17-18-28-16.951328039,17,82,32,50
run-2020-2-17-18-28-16.951328039,18,84,31,53
run-2020-2-17-18-28-16.951328039,19,90,34,56
run-2020-2-17-18-28-16.951328039,20,95,38,57
run-2020-2-17-18-28-16.951328039,21,102,40,62
run-2020-2-17-18-28-16.951328039,22,104,37,67
run-2020-2-17-18-28-16.951328039,23,105,36,69
run-2020-2-17-18-28-16.951328039,24,108,35,73
run-2020-2-17-18-28-16.951328039,25,111,35,76
run-2020-2-17-18-28-16.951328039,26,114,35,79
run-2020-2-17-18-28-16.951328039,27,117,36,81
run-2020-2-17-18-28-16.951328039,28,122,38,84
run-2020-2-17-18-28-16.951328039,29,124,37,87
run-2020-2-17-18-28-16.951328039,30,127,38,89
run-2020-2-17-18-28-16.951328039,31,129,39,90
run-2020-2-17-18-28-16.951328039,32,130,37,93
run-2020-2-17-18-28-16.951328039,33,136,40,96
run-2020-2-17-18-28-16.951328039,34,138,39,99
run-2020-2-17-18-28-16.951328039,35,144,41,103
run-2020-2-17-18-28-16.951328039,36,149,43,106
run-2020-2-17-18-28-16.951328039,37,152,42,110
run-2020-2-17-18-28-16.951328039,38,157,44,113
run-2020-2-17-18-28-16.951328039,39,162,47,115
run-2020-2-17-18-28-16.951328039,40,167,47,120
run-2020-2-17-18-28-16.951328039,41,172,52,120
run-2020-2-17-18-28-16.951328039,42,179,54,125
run-2020-2-17-18-28-16.951328039,43,188,60,128
run-2020-2-17-18-28-16.951328039,44,192,60,132
run-2020-2-17-18-28-16.951328039,45,196,58,138
run-2020-2-17-18-28-16.951328039,46,202,60,142
run-2020-2-17-18-28-16.951328039,47,207,61,146
run-2020-2-17-18-28-16.951328039,48,210,59,151
run-2020-2-17-18-28-16.951328039,49,211,56,155
run-2020-2-17-18-28-16.951328039,50,217,57,160
run-2020-2-17-18-28-16.951328039,51,220,52,168
run-2020-2-17-18-28-16.951328039,52,225,54,171
run-2020-2-17-18-28-16.951328039,53,229,57,172
run-2020-2-17-18-28-16.951328039,54,230,58,172
run-2020-2-17-18-28-16.951328039,55,236,63,173
run-2020-2-17-18-28-16.951328039,56,240,63,177
run-2020-2-17-18-28-16.951328039,57,241,61,180
run-2020-2-17-18-28-16.951328039,58,245,60,185
run-2020-2-17-18-28-16.951328039,59,246,55,191
run-2020-2-17-18-28-16.951328039,60,252,56,196
run-2020-2-17-18-28-16.951328039,61,253,55,198
run-2020-2-17-18-28-16.951328039,62,254,54,200
run-2020-2-17-18-28-16.951328039,63,257,56,201
run-2020-2-17-18-28-16.951328039,64,262,60,202
run-2020-2-17-18-28-16.951328039,65,267,59,208
run-2020-2-17-18-28-16.951328039,66,273,59,214
run-2020-2-17-18-28-16.951328039,67,275,59,216
run-2020-2-17-18-28-16.951328039,68,282,64,218
run-2020-2-17-18-28-16.951328039,69,282,61,221
run-2020-2-17-18-28-16.951328039,70,286,62,224
run-2020-2-17-18-28-16.951328039,71,290,63,227
run-2020-2-17-18-28-16.951328039,72,294,65,229
run-2020-2-17-18-28-16.951328039,73,300,65,235
run-2020-2-17-18-28-16.951328039,74,300,61,239
run-2020-2-17-18-28-16.951328039,75,307,66,241
run-2020-2-17-18-28-16.951328039,76,309,63,246
run-2020-2-17-18-28-16.951328039,77,314,66,248
run-2020-2-17-18-28-16.951328039,78,316,66,250
run-2020-2-17-18-28-16.951328039,79,320,66,254
run-2020-2-17-18-28-16.951328039,80,323,66,257
run-2020-2-17-18-28-16.951328039,81,328,70,258
run-2020-2-17-18-28-16.951328039,82,332,68,264
run-2020-2-17-18-28-16.951328039,83,336,67,269
run-2020-2-17-18-28-16.951328039,84,337,58,279
run-2020-2-17-18-28-16.951328039,85,341,60,281
run-2020-2-17-18-28-16.951328039,86,345,58,287
run-2020-2-17-18-28-16.951328039,87,348,59,289
run-2020-2-17-18-28-16.951328039,88,350,57,293
run-2020-2-17-18-28-16.951328039,89,353,58,295
run-2020-2-17-18-28-16.951328039,90,362,62,300
run-2020-2-17-18-28-16.951328039,91,368,65,303
run-2020-2-17-18-28-16.951328039,92,373,64,309
run-2020-2-17-18-28-16.951328039,93,380,61,319
run-2020-2-17-18-28-16.951328039,94,386,61,325
run-2020-2-17-18-28-16.951328039,95,391,57,334
run-2020-2-17-18-28-16.951328039,96,395,59,336
run-2020-2-17-18-28-16.951328039,97,398,58,340
run-2020-2-17-18-28-16.951328039,98,402,54,348
run-2020-2-17-18-28-16.951328039,99,407,57,350
