RunID,Tick,ActiveAgentsPerTick
run-2020-2-18-18-4-53.920113086,0,12
run-2020-2-18-18-4-53.920113086,1,15
run-2020-2-18-18-4-53.920113086,2,12
run-2020-2-18-18-4-53.920113086,3,17
run-2020-2-18-18-4-53.920113086,4,19
run-2020-2-18-18-4-53.920113086,5,24
run-2020-2-18-18-4-53.920113086,6,26
run-2020-2-18-18-4-53.920113086,7,27
run-2020-2-18-18-4-53.920113086,8,23
run-2020-2-18-18-4-53.920113086,9,24
run-2020-2-18-18-4-53.920113086,10,24
run-2020-2-18-18-4-53.920113086,11,27
run-2020-2-18-18-4-53.920113086,12,29
run-2020-2-18-18-4-53.920113086,13,28
run-2020-2-18-18-4-53.920113086,14,28
run-2020-2-18-18-4-53.920113086,15,28
run-2020-2-18-18-4-53.920113086,16,30
run-2020-2-18-18-4-53.920113086,17,31
run-2020-2-18-18-4-53.920113086,18,32
run-2020-2-18-18-4-53.920113086,19,36
run-2020-2-18-18-4-53.920113086,20,38
run-2020-2-18-18-4-53.920113086,21,42
run-2020-2-18-18-4-53.920113086,22,44
run-2020-2-18-18-4-53.920113086,23,43
run-2020-2-18-18-4-53.920113086,24,42
run-2020-2-18-18-4-53.920113086,25,42
run-2020-2-18-18-4-53.920113086,26,43
run-2020-2-18-18-4-53.920113086,27,48
run-2020-2-18-18-4-53.920113086,28,52
run-2020-2-18-18-4-53.920113086,29,47
run-2020-2-18-18-4-53.920113086,30,45
run-2020-2-18-18-4-53.920113086,31,42
run-2020-2-18-18-4-53.920113086,32,44
run-2020-2-18-18-4-53.920113086,33,48
run-2020-2-18-18-4-53.920113086,34,52
run-2020-2-18-18-4-53.920113086,35,52
run-2020-2-18-18-4-53.920113086,36,49
run-2020-2-18-18-4-53.920113086,37,48
run-2020-2-18-18-4-53.920113086,38,48
run-2020-2-18-18-4-53.920113086,39,49
run-2020-2-18-18-4-53.920113086,40,48
run-2020-2-18-18-4-53.920113086,41,51
run-2020-2-18-18-4-53.920113086,42,53
run-2020-2-18-18-4-53.920113086,43,56
run-2020-2-18-18-4-53.920113086,44,57
run-2020-2-18-18-4-53.920113086,45,56
run-2020-2-18-18-4-53.920113086,46,55
run-2020-2-18-18-4-53.920113086,47,55
run-2020-2-18-18-4-53.920113086,48,56
run-2020-2-18-18-4-53.920113086,49,55
run-2020-2-18-18-4-53.920113086,50,51
run-2020-2-18-18-4-53.920113086,51,51
run-2020-2-18-18-4-53.920113086,52,54
run-2020-2-18-18-4-53.920113086,53,55
run-2020-2-18-18-4-53.920113086,54,62
run-2020-2-18-18-4-53.920113086,55,60
run-2020-2-18-18-4-53.920113086,56,60
run-2020-2-18-18-4-53.920113086,57,60
run-2020-2-18-18-4-53.920113086,58,59
run-2020-2-18-18-4-53.920113086,59,62
run-2020-2-18-18-4-53.920113086,60,67
run-2020-2-18-18-4-53.920113086,61,69
run-2020-2-18-18-4-53.920113086,62,68
run-2020-2-18-18-4-53.920113086,63,65
run-2020-2-18-18-4-53.920113086,64,61
run-2020-2-18-18-4-53.920113086,65,63
run-2020-2-18-18-4-53.920113086,66,64
run-2020-2-18-18-4-53.920113086,67,65
run-2020-2-18-18-4-53.920113086,68,66
run-2020-2-18-18-4-53.920113086,69,65
run-2020-2-18-18-4-53.920113086,70,62
run-2020-2-18-18-4-53.920113086,71,62
run-2020-2-18-18-4-53.920113086,72,64
run-2020-2-18-18-4-53.920113086,73,61
run-2020-2-18-18-4-53.920113086,74,61
run-2020-2-18-18-4-53.920113086,75,67
run-2020-2-18-18-4-53.920113086,76,66
run-2020-2-18-18-4-53.920113086,77,62
run-2020-2-18-18-4-53.920113086,78,66
run-2020-2-18-18-4-53.920113086,79,61
run-2020-2-18-18-4-53.920113086,80,58
run-2020-2-18-18-4-53.920113086,81,59
run-2020-2-18-18-4-53.920113086,82,59
run-2020-2-18-18-4-53.920113086,83,61
run-2020-2-18-18-4-53.920113086,84,61
run-2020-2-18-18-4-53.920113086,85,67
run-2020-2-18-18-4-53.920113086,86,64
run-2020-2-18-18-4-53.920113086,87,61
run-2020-2-18-18-4-53.920113086,88,61
run-2020-2-18-18-4-53.920113086,89,60
run-2020-2-18-18-4-53.920113086,90,59
run-2020-2-18-18-4-53.920113086,91,55
run-2020-2-18-18-4-53.920113086,92,56
run-2020-2-18-18-4-53.920113086,93,55
run-2020-2-18-18-4-53.920113086,94,57
run-2020-2-18-18-4-53.920113086,95,58
run-2020-2-18-18-4-53.920113086,96,57
run-2020-2-18-18-4-53.920113086,97,56
run-2020-2-18-18-4-53.920113086,98,57
run-2020-2-18-18-4-53.920113086,99,56
run-2020-2-18-18-4-53.920113086,100,51
