Source,Target
2a803fae-5279-11ea-9909-0b5f3eafbf03,2a8346cc-5279-11ea-922e-8f9a3d04cf60
2a80811c-5279-11ea-acd7-3b72bc19cdb5,2a8359dc-5279-11ea-9656-0b9534b35019
2a800a98-5279-11ea-98bf-1f5991084886,2a837912-5279-11ea-969d-a71f8d8c0f3f
2a80811c-5279-11ea-acd7-3b72bc19cdb5,2a83953c-5279-11ea-949c-ab133d5f6779
2a82ebe6-5279-11ea-b299-27eb735c9337,2a83af68-5279-11ea-928f-135d4631f24e
2a82a9ec-5279-11ea-8ca1-27fe6cb3d3d6,2a83c462-5279-11ea-b384-371dee2b8bdb
2a800a98-5279-11ea-98bf-1f5991084886,2a83d74a-5279-11ea-a20a-eb2711c05ced
2a7fe522-5279-11ea-8a80-2f96291acef2,2a83ec8a-5279-11ea-a34c-ffe71d23762a
2a82ebe6-5279-11ea-b299-27eb735c9337,2a840666-5279-11ea-9993-537b33eb0f5d
2a80f980-5279-11ea-b4df-83f147500b04,2a841c6e-5279-11ea-a752-fb7b2ab62db1
2a82d75a-5279-11ea-8958-03491792edeb,2a842f60-5279-11ea-8a2a-dbd085c6143e
2a816ed8-5279-11ea-b02a-ef8a52179706,2a844874-5279-11ea-ba60-d743b3cf8897
2a7efcfc-5279-11ea-bed3-67564850696a,2a846606-5279-11ea-9e8f-9f047eec3009
2a83d74a-5279-11ea-a20a-eb2711c05ced,2a847632-5279-11ea-948b-e7ed32750630
2a846606-5279-11ea-9e8f-9f047eec3009,2a8485be-5279-11ea-9354-bb4812beb7da
2a83ec8a-5279-11ea-a34c-ffe71d23762a,2a84ab20-5279-11ea-ab90-c70b77334ef6
2a7ebac6-5279-11ea-819b-933230be4870,2a84c2ae-5279-11ea-9640-d3c6170d7b9e
2a806182-5279-11ea-b4cf-6f6609a06952,2a84d776-5279-11ea-971b-bffa5a6fb8a6
2a7ebac6-5279-11ea-819b-933230be4870,2a84ff12-5279-11ea-a13b-532a4432db7b
2a8317f6-5279-11ea-9495-07fb164f36fc,2a85221c-5279-11ea-8481-bb8cc865f599
2a84c2ae-5279-11ea-9640-d3c6170d7b9e,2a853784-5279-11ea-bce1-9baafe84aea3
2a847632-5279-11ea-948b-e7ed32750630,2a855246-5279-11ea-9686-0f8f8db2a2d1
2a81ea66-5279-11ea-899c-33a13346d567,2a856aa6-5279-11ea-8b37-337409ff1036
2a7fbb4c-5279-11ea-ae69-bb19f7bf9292,2a858b1c-5279-11ea-ba4a-db04e2b86e7e
2a853784-5279-11ea-bce1-9baafe84aea3,2a85a21e-5279-11ea-902c-b7313393a76e
2a83d74a-5279-11ea-a20a-eb2711c05ced,2a85b646-5279-11ea-a02e-f377fdc7220b
2a80cec4-5279-11ea-8019-7f1e2374c50c,2a85c956-5279-11ea-b522-df6c21090c72
2a84ab20-5279-11ea-ab90-c70b77334ef6,2a85e9a4-5279-11ea-b913-2b63220809d6
2a7ed060-5279-11ea-ae84-b71fb06a1d02,2a8600ce-5279-11ea-ac20-9b35db388da0
2a7dcfa8-5279-11ea-b92e-93953c335bbe,2a86123a-5279-11ea-a390-bbbdf03a3346
2a8284ee-5279-11ea-9bbb-0f52b902790b,2a8629be-5279-11ea-a93f-9bb56d0c82eb
2a855246-5279-11ea-9686-0f8f8db2a2d1,2a8650c4-5279-11ea-a2d7-676477723435
2a7f4d9c-5279-11ea-a2de-ffdfd10dbd68,2a866172-5279-11ea-994a-7bffef7d7cbd
2a80f980-5279-11ea-b4df-83f147500b04,2a867450-5279-11ea-b9a0-6f7d59f7c78b
2a7ed060-5279-11ea-ae84-b71fb06a1d02,2a8696b0-5279-11ea-a3ca-1ff8c68fe905
2a84d776-5279-11ea-971b-bffa5a6fb8a6,2a86a8f8-5279-11ea-bee3-9f58a37994be
2a846606-5279-11ea-9e8f-9f047eec3009,2a86b898-5279-11ea-a193-f3546ea33ecd
2a858b1c-5279-11ea-ba4a-db04e2b86e7e,2a86d4f4-5279-11ea-8e6c-13ed55b18cd8
2a837912-5279-11ea-969d-a71f8d8c0f3f,2a86f4d4-5279-11ea-806b-5b74110ad198
2a85c956-5279-11ea-b522-df6c21090c72,2a87069a-5279-11ea-9c28-bfaa6da614eb
2a83ec8a-5279-11ea-a34c-ffe71d23762a,2a871ab8-5279-11ea-a3f5-e778e5f197e3
2a87069a-5279-11ea-9c28-bfaa6da614eb,2a873be2-5279-11ea-844a-e764a9bcda9b
2a7fd10e-5279-11ea-be8a-23cef6d5461f,2a874aec-5279-11ea-b2e4-2769cdde4bd2
2a80cec4-5279-11ea-8019-7f1e2374c50c,2a875c6c-5279-11ea-9345-3337e835fe48
2a86123a-5279-11ea-a390-bbbdf03a3346,2a87846c-5279-11ea-8d65-ebc0d55af5e1
2a82335e-5279-11ea-b3fe-270e56e336e3,2a879a2e-5279-11ea-af22-cf10f84e2a05
2a7e5540-5279-11ea-b1b9-dbbfdca63076,2a87a924-5279-11ea-8641-13b5c5db02b5
2a816ed8-5279-11ea-b02a-ef8a52179706,2a87c198-5279-11ea-869a-6b30eaa8769e
2a7f94d2-5279-11ea-b2b9-2b587f6bc616,2a87e272-5279-11ea-9799-53e2d27572f3
2a82c08a-5279-11ea-b746-a310067a720c,2a87f776-5279-11ea-ad78-53370d66cb4e
2a7dcfa8-5279-11ea-b92e-93953c335bbe,2a880d60-5279-11ea-924f-4335f823b0ed
2a87e272-5279-11ea-9799-53e2d27572f3,2a882a98-5279-11ea-81be-e7a076043690
2a826bd0-5279-11ea-b650-5fa604265fcb,2a883d62-5279-11ea-8eb1-27d7e975cd1c
2a81ea66-5279-11ea-899c-33a13346d567,2a884fd2-5279-11ea-9f75-ff246b9eb57e
2a84ff12-5279-11ea-a13b-532a4432db7b,2a887746-5279-11ea-8c5b-c3defe2b80b1
2a7ebac6-5279-11ea-819b-933230be4870,2a888bdc-5279-11ea-a23b-3be88bd8e749
2a842f60-5279-11ea-8a2a-dbd085c6143e,2a88a0f4-5279-11ea-b6ab-43ea8d2108af
2a7dbc70-5279-11ea-ba2e-034d90c15f33,2a88c94e-5279-11ea-8013-2fc35f102183
2a82335e-5279-11ea-b3fe-270e56e336e3,2a88d90c-5279-11ea-80c8-ffcaa282f990
2a847632-5279-11ea-948b-e7ed32750630,2a88f202-5279-11ea-bc07-a72fe32aa8f6
2a7fa8e6-5279-11ea-93db-6badbdf824ae,2a8905d0-5279-11ea-bd1c-37d51d139fa5
2a7e2b56-5279-11ea-bb5d-2b536024a100,2a891be2-5279-11ea-8bd4-1bebd510eb3a
2a7df370-5279-11ea-9f59-1f5d8b1e9eeb,2a8935aa-5279-11ea-b74e-f7bfc9fac62e
2a86123a-5279-11ea-a390-bbbdf03a3346,2a894d92-5279-11ea-ada7-6743af444cbf
2a80cec4-5279-11ea-8019-7f1e2374c50c,2a896304-5279-11ea-842d-07e68317fc78
2a87a924-5279-11ea-8641-13b5c5db02b5,2a8979f2-5279-11ea-95f4-ebe5fe2c0ecf
2a81ea66-5279-11ea-899c-33a13346d567,2a899194-5279-11ea-85de-5f4ce79e3e07
2a841c6e-5279-11ea-a752-fb7b2ab62db1,2a89a648-5279-11ea-81ec-2bd3a88980c0
2a88a0f4-5279-11ea-b6ab-43ea8d2108af,2a89c074-5279-11ea-bc56-9b4ee7d9594f
2a7e8b78-5279-11ea-9854-2f3a1189c681,2a89d230-5279-11ea-af8e-476efcb676ee
2a85221c-5279-11ea-8481-bb8cc865f599,2a89eb62-5279-11ea-a83e-273c2dc19dca
2a83ec8a-5279-11ea-a34c-ffe71d23762a,2a8a0714-5279-11ea-a355-ff012dd5d045
2a820c4e-5279-11ea-b3c8-27598a642707,2a8a1c40-5279-11ea-9d40-f37f13d8a238
2a887746-5279-11ea-8c5b-c3defe2b80b1,2a8a3306-5279-11ea-8346-27d7bbaae7eb
2a891be2-5279-11ea-8bd4-1bebd510eb3a,2a8a4742-5279-11ea-ba6d-271feb0208a0
2a8935aa-5279-11ea-b74e-f7bfc9fac62e,2a8a5e30-5279-11ea-8b42-f7d2fb2f743b
2a8696b0-5279-11ea-a3ca-1ff8c68fe905,2a8a7e06-5279-11ea-a190-8b5bf75e6932
2a899194-5279-11ea-85de-5f4ce79e3e07,2a8a91a2-5279-11ea-aafa-4b843d72ffce
2a83ec8a-5279-11ea-a34c-ffe71d23762a,2a8aa854-5279-11ea-a33f-5fa8d932d175
2a8600ce-5279-11ea-ac20-9b35db388da0,2a8ac29e-5279-11ea-bea0-074ac0c502f2
2a88c94e-5279-11ea-8013-2fc35f102183,2a8ad702-5279-11ea-a1a5-1b33f66f8398
2a856aa6-5279-11ea-8b37-337409ff1036,2a8ae9fe-5279-11ea-814e-d3359e951f5d
2a87e272-5279-11ea-9799-53e2d27572f3,2a8afdea-5279-11ea-9f86-0372073c8c06
2a826bd0-5279-11ea-b650-5fa604265fcb,2a8b16f4-5279-11ea-8fb1-3f1b65baaefc
2a81aa1a-5279-11ea-a96f-272f51640f0a,2a8b2dce-5279-11ea-ba15-5b0dfacdffa2
2a7ea810-5279-11ea-bd61-c79a3810abd6,2a8b42d2-5279-11ea-9cbb-23fa7054c8af
2a882a98-5279-11ea-81be-e7a076043690,2a8b5808-5279-11ea-816c-5f52c5bca073
2a810de4-5279-11ea-b2e2-17aa04c36684,2a8b6bfe-5279-11ea-88a0-7355fe24bae2
2a7ff648-5279-11ea-9427-e71e0e11ee73,2a8b7d24-5279-11ea-9285-032c5d22edaf
2a826bd0-5279-11ea-b650-5fa604265fcb,2a8b8fbc-5279-11ea-8003-7f6706f48198
2a866172-5279-11ea-994a-7bffef7d7cbd,2a8ba1b4-5279-11ea-9b65-efd35f8453b7
2a806182-5279-11ea-b4cf-6f6609a06952,2a8bb44c-5279-11ea-91fe-87d069d17380
2a81ea66-5279-11ea-899c-33a13346d567,2a8bd288-5279-11ea-83a6-3765842faa8f
2a7df370-5279-11ea-9f59-1f5d8b1e9eeb,2a8bea70-5279-11ea-b804-2b53d8a84176
2a841c6e-5279-11ea-a752-fb7b2ab62db1,2a8bffec-5279-11ea-86d8-ab7b08cf5332
2a8bffec-5279-11ea-86d8-ab7b08cf5332,2a8c2382-5279-11ea-aeef-c3adc7a3ec11
2a8600ce-5279-11ea-ac20-9b35db388da0,2a8c11e4-5279-11ea-939d-37cf79ab1b01
2a866172-5279-11ea-994a-7bffef7d7cbd,2a8c36c4-5279-11ea-95d9-b3d7ecf152c7
2a7ebac6-5279-11ea-819b-933230be4870,2a8c49d4-5279-11ea-8077-cf45b02fb96d
2a8935aa-5279-11ea-b74e-f7bfc9fac62e,2a8c722e-5279-11ea-bacc-1fe7cbc11e09
2a8a5e30-5279-11ea-8b42-f7d2fb2f743b,2a8c96aa-5279-11ea-9d02-235dad297636
2a82335e-5279-11ea-b3fe-270e56e336e3,2a8caa28-5279-11ea-aabd-4316a021e065
2a83af68-5279-11ea-928f-135d4631f24e,2a8cd750-5279-11ea-89ef-674ade0abaf2
2a867450-5279-11ea-b9a0-6f7d59f7c78b,2a8ce9de-5279-11ea-aa86-77b01ecec0d4
2a80f980-5279-11ea-b4df-83f147500b04,2a8d01bc-5279-11ea-80aa-73a8c7e5cfed
2a85221c-5279-11ea-8481-bb8cc865f599,2a8d18d2-5279-11ea-8af2-5fff700c2675
2a83af68-5279-11ea-928f-135d4631f24e,2a8d3268-5279-11ea-bf63-2bccbff9871a
2a8346cc-5279-11ea-922e-8f9a3d04cf60,2a8d5720-5279-11ea-b7f1-b3ab1eb4e7d5
2a87069a-5279-11ea-9c28-bfaa6da614eb,2a8d7412-5279-11ea-897b-d372dc1a39c9
2a89a648-5279-11ea-81ec-2bd3a88980c0,2a8d9e7e-5279-11ea-9e70-aba7fbb385f0
2a7ff648-5279-11ea-9427-e71e0e11ee73,2a8dd074-5279-11ea-93c3-43033bd65171
2a84ab20-5279-11ea-ab90-c70b77334ef6,2a8df87e-5279-11ea-a735-471c84a377ff
2a87f776-5279-11ea-ad78-53370d66cb4e,2a8e1728-5279-11ea-9a14-03e56cc09a9d
2a85221c-5279-11ea-8481-bb8cc865f599,2a8e392e-5279-11ea-a1d7-97ed3023d300
2a8d5720-5279-11ea-b7f1-b3ab1eb4e7d5,2a8e565c-5279-11ea-ac4b-53e2646b50fd
2a8a4742-5279-11ea-ba6d-271feb0208a0,2a8e7740-5279-11ea-81eb-1fc2d13b8d84
2a8caa28-5279-11ea-aabd-4316a021e065,2a8e9a2c-5279-11ea-a458-0f67af079044
2a7f6426-5279-11ea-a1e1-432b02b0c0e4,2a8ebbd8-5279-11ea-959b-b392228bd0b8
2a844874-5279-11ea-ba60-d743b3cf8897,2a8ed758-5279-11ea-a3d8-4f97cf663935
2a8c36c4-5279-11ea-95d9-b3d7ecf152c7,2a8efd8c-5279-11ea-984c-6b96c6342f7c
2a89a648-5279-11ea-81ec-2bd3a88980c0,2a8f1074-5279-11ea-8934-e3a8f943ddf1
2a8b8fbc-5279-11ea-8003-7f6706f48198,2a8f28e8-5279-11ea-9f5a-1fd727efbe8a
2a86b898-5279-11ea-a193-f3546ea33ecd,2a8f3d56-5279-11ea-a92b-1b56a4b012b1
2a855246-5279-11ea-9686-0f8f8db2a2d1,2a8f5296-5279-11ea-ba71-bf8c26306303
2a887746-5279-11ea-8c5b-c3defe2b80b1,2a8f67fe-5279-11ea-8bae-93f91202f93d
2a80a2b4-5279-11ea-8707-0b8f61cd6e38,2a8f8022-5279-11ea-b9c4-cfa7724ca901
2a883d62-5279-11ea-8eb1-27d7e975cd1c,2a8f98d2-5279-11ea-a6a9-7b19a43d6d17
2a8c96aa-5279-11ea-9d02-235dad297636,2a8facd2-5279-11ea-88f6-cf15ced69b67
2a83953c-5279-11ea-949c-ab133d5f6779,2a8fc2da-5279-11ea-ac01-3fd5afabb273
2a8f5296-5279-11ea-ba71-bf8c26306303,2a8fd856-5279-11ea-a8db-c734e04402b7
2a842f60-5279-11ea-8a2a-dbd085c6143e,2a8ff7dc-5279-11ea-873f-e7e329a52e36
2a7fbb4c-5279-11ea-ae69-bb19f7bf9292,2a900dd0-5279-11ea-8bab-57fb4e89badc
2a8a91a2-5279-11ea-aafa-4b843d72ffce,2a9027c0-5279-11ea-a07e-7f729be2832d
2a7f6426-5279-11ea-a1e1-432b02b0c0e4,2a903e04-5279-11ea-9531-83c55fbf1cec
2a7f4d9c-5279-11ea-a2de-ffdfd10dbd68,2a90529a-5279-11ea-ac00-a737d9256033
2a8e565c-5279-11ea-ac4b-53e2646b50fd,2a9079e6-5279-11ea-b052-1b696649b040
2a8696b0-5279-11ea-a3ca-1ff8c68fe905,2a908d14-5279-11ea-a8a4-db83ae81d8a7
2a826bd0-5279-11ea-b650-5fa604265fcb,2a90a100-5279-11ea-8cc0-333a330c345e
2a82c08a-5279-11ea-b746-a310067a720c,2a90c1a8-5279-11ea-ab1a-8b1c898df14a
2a8284ee-5279-11ea-9bbb-0f52b902790b,2a90d3a0-5279-11ea-aed8-2327706b6574
2a7ea810-5279-11ea-bd61-c79a3810abd6,2a90e700-5279-11ea-b38d-ab74d5a9feff
2a84ab20-5279-11ea-ab90-c70b77334ef6,2a910c9e-5279-11ea-9bcf-2b47b7f82520
2a7f23d0-5279-11ea-863d-835da57bf192,2a9121a2-5279-11ea-ba6b-5bb6d01842a2
2a8fd856-5279-11ea-a8db-c734e04402b7,2a91350c-5279-11ea-a341-fb7bbdf537e8
2a7e2b56-5279-11ea-bb5d-2b536024a100,2a914dbc-5279-11ea-84d3-ab8790af1aa9
2a8ba1b4-5279-11ea-9b65-efd35f8453b7,2a916310-5279-11ea-a679-7384e901db6d
2a812c2a-5279-11ea-bb26-1fd039816a4c,2a917800-5279-11ea-8094-af62b0ed85b4
2a8629be-5279-11ea-a93f-9bb56d0c82eb,2a9193a8-5279-11ea-a6cd-ebd35274572d
2a820c4e-5279-11ea-b3c8-27598a642707,2a91a87a-5279-11ea-8677-1f7aeefdbfb6
2a900dd0-5279-11ea-8bab-57fb4e89badc,2a91bb4e-5279-11ea-a4e6-c73f205c123f
2a8d5720-5279-11ea-b7f1-b3ab1eb4e7d5,2a91d340-5279-11ea-a2cf-9feb1ed65f01
2a884fd2-5279-11ea-9f75-ff246b9eb57e,2a91eb00-5279-11ea-b3eb-0ff83eafd586
2a8a3306-5279-11ea-8346-27d7bbaae7eb,2a91feb0-5279-11ea-95cb-2b828a8800ce
2a8bea70-5279-11ea-b804-2b53d8a84176,2a921986-5279-11ea-a3a2-f393655fe83d
2a82d75a-5279-11ea-8958-03491792edeb,2a922fa2-5279-11ea-bf57-9796cc8e4260
2a8f3d56-5279-11ea-a92b-1b56a4b012b1,2a924492-5279-11ea-83a0-f7bc4217d853
2a7fe522-5279-11ea-8a80-2f96291acef2,2a9252b6-5279-11ea-888f-67b7489f85e1
2a903e04-5279-11ea-9531-83c55fbf1cec,2a9264d6-5279-11ea-8b67-63b1c7977caf
2a89a648-5279-11ea-81ec-2bd3a88980c0,2a92833a-5279-11ea-8767-6b084ceb51e2
2a7ee6a4-5279-11ea-a563-935202441831,2a92a61c-5279-11ea-834f-8774bf67cbae
2a89d230-5279-11ea-af8e-476efcb676ee,2a92b81e-5279-11ea-a536-cb908f1bca8c
2a8facd2-5279-11ea-88f6-cf15ced69b67,2a92cb6a-5279-11ea-93b1-af56eb6abb41
2a83953c-5279-11ea-949c-ab133d5f6779,2a92e6ae-5279-11ea-9e93-f70015d08c2d
2a803fae-5279-11ea-9909-0b5f3eafbf03,2a9305d0-5279-11ea-80ad-af3923bdc990
2a914dbc-5279-11ea-84d3-ab8790af1aa9,2a93184a-5279-11ea-8382-834dea11f51c
2a803fae-5279-11ea-9909-0b5f3eafbf03,2a932d44-5279-11ea-8f06-d316606694ea
2a82335e-5279-11ea-b3fe-270e56e336e3,2a934b6c-5279-11ea-bac5-8b02b8cd8fdd
2a87e272-5279-11ea-9799-53e2d27572f3,2a93617e-5279-11ea-ae10-8ff3e7d5a3a8
2a814e8a-5279-11ea-847b-0fea42a0d8c6,2a937740-5279-11ea-a170-df19e5b444b9
2a8a5e30-5279-11ea-8b42-f7d2fb2f743b,2a938be0-5279-11ea-bf28-bb890e9b5b18
2a85221c-5279-11ea-8481-bb8cc865f599,2a93a27e-5279-11ea-86ae-b30d2d4644fc
2a88a0f4-5279-11ea-b6ab-43ea8d2108af,2a93b7c8-5279-11ea-8915-eb4be83e7081
2a7df370-5279-11ea-9f59-1f5d8b1e9eeb,2a93ccf4-5279-11ea-8e50-8303ec3983b9
2a8ae9fe-5279-11ea-814e-d3359e951f5d,2a93e89c-5279-11ea-813e-3f7a455f5316
2a8650c4-5279-11ea-a2d7-676477723435,2a93fe7c-5279-11ea-91b2-cb8b2983267a
2a934b6c-5279-11ea-bac5-8b02b8cd8fdd,2a940dfe-5279-11ea-a9ef-ef63ee752d15
2a8f3d56-5279-11ea-a92b-1b56a4b012b1,2a942d5c-5279-11ea-879e-a30032dce30b
2a7f94d2-5279-11ea-b2b9-2b587f6bc616,2a944d00-5279-11ea-9234-e3793fe3318d
2a89eb62-5279-11ea-a83e-273c2dc19dca,2a945ad4-5279-11ea-9213-db478c09034a
2a84d776-5279-11ea-971b-bffa5a6fb8a6,2a947028-5279-11ea-90b2-a380fdda11d2
2a92cb6a-5279-11ea-93b1-af56eb6abb41,2a9498b4-5279-11ea-8e2f-3f01ae05300c
2a83ec8a-5279-11ea-a34c-ffe71d23762a,2a94ad90-5279-11ea-919c-0f2c958fe357
2a8f98d2-5279-11ea-a6a9-7b19a43d6d17,2a94bcc2-5279-11ea-8c60-8f11c7beb15f
2a92b81e-5279-11ea-a536-cb908f1bca8c,2a94dc2a-5279-11ea-85de-7f96f75eae8f
2a934b6c-5279-11ea-bac5-8b02b8cd8fdd,2a94f156-5279-11ea-a59b-47b8a46afea4
2a7f4d9c-5279-11ea-a2de-ffdfd10dbd68,2a95057e-5279-11ea-adfa-93e1a0ba7344
2a8ebbd8-5279-11ea-959b-b392228bd0b8,2a952e78-5279-11ea-8633-db9027a58af1
2a855246-5279-11ea-9686-0f8f8db2a2d1,2a954304-5279-11ea-a51a-8f3cbcea05b5
2a8fd856-5279-11ea-a8db-c734e04402b7,2a9559a2-5279-11ea-aedd-034351d636e3
2a812c2a-5279-11ea-bb26-1fd039816a4c,2a956d8e-5279-11ea-8ebc-eb7973042ada
2a88c94e-5279-11ea-8013-2fc35f102183,2a957efa-5279-11ea-9012-73a04eb369a4
2a82ebe6-5279-11ea-b299-27eb735c9337,2a959688-5279-11ea-9550-83a9569bfa1b
2a85e9a4-5279-11ea-b913-2b63220809d6,2a95a948-5279-11ea-b526-33a650816796
2a7dbc70-5279-11ea-ba2e-034d90c15f33,2a95c25c-5279-11ea-a8c3-c7109af39207
2a8f98d2-5279-11ea-a6a9-7b19a43d6d17,2a95d602-5279-11ea-ae35-4bb99fe9a368
2a83af68-5279-11ea-928f-135d4631f24e,2a95ee62-5279-11ea-9a34-53e0eb1a859b
2a810de4-5279-11ea-b2e2-17aa04c36684,2a960e6a-5279-11ea-ba4c-ebe3f71c3a8c
2a8e565c-5279-11ea-ac4b-53e2646b50fd,2a962404-5279-11ea-9e1e-0fe144474cd5
2a8cd750-5279-11ea-89ef-674ade0abaf2,2a963840-5279-11ea-8e83-ff6dbcafe5e6
2a963840-5279-11ea-8e83-ff6dbcafe5e6,2a965348-5279-11ea-8060-6b3a44f5329e
2a7e1968-5279-11ea-aaad-cb05200ea378,2a966608-5279-11ea-a3c4-6b3a9849d348
2a88d90c-5279-11ea-80c8-ffcaa282f990,2a967ae4-5279-11ea-a64e-5be1b9ff9399
2a87846c-5279-11ea-8d65-ebc0d55af5e1,2a96975e-5279-11ea-ac21-b350535a0ec5
2a81ea66-5279-11ea-899c-33a13346d567,2a96aa14-5279-11ea-a495-875c38453bf8
2a8b6bfe-5279-11ea-88a0-7355fe24bae2,2a96bedc-5279-11ea-b0e5-07667914c1e5
2a88c94e-5279-11ea-8013-2fc35f102183,2a96d62e-5279-11ea-9c66-fb09a213791d
2a820c4e-5279-11ea-b3c8-27598a642707,2a96f5c8-5279-11ea-83be-534d704847c5
2a83c462-5279-11ea-b384-371dee2b8bdb,2a970824-5279-11ea-8380-6f90c1721294
2a940dfe-5279-11ea-a9ef-ef63ee752d15,2a971ac6-5279-11ea-97c6-d3b886301a0e
2a83d74a-5279-11ea-a20a-eb2711c05ced,2a973cf4-5279-11ea-b445-af8b4c04a0ad
2a922fa2-5279-11ea-bf57-9796cc8e4260,2a975180-5279-11ea-9c90-ab8939dd0aaf
2a800a98-5279-11ea-98bf-1f5991084886,2a976698-5279-11ea-9a72-dbc09014532c
2a9498b4-5279-11ea-8e2f-3f01ae05300c,2a97820e-5279-11ea-ba8a-470f342ec591
2a8f67fe-5279-11ea-8bae-93f91202f93d,2a979d20-5279-11ea-8c67-6b990f0716e8
2a8ff7dc-5279-11ea-873f-e7e329a52e36,2a97c5f2-5279-11ea-b0c7-439d69bf59b8
2a84ff12-5279-11ea-a13b-532a4432db7b,2a97dce0-5279-11ea-a104-b77132d817d9
2a8facd2-5279-11ea-88f6-cf15ced69b67,2a97f1d0-5279-11ea-94aa-1b3cc36d12d7
2a814e8a-5279-11ea-847b-0fea42a0d8c6,2a98079c-5279-11ea-b34a-f7773119dde1
2a8a0714-5279-11ea-a355-ff012dd5d045,2a981d2c-5279-11ea-8889-3fcd1cfe5130
2a8e7740-5279-11ea-81eb-1fc2d13b8d84,2a9838ca-5279-11ea-b682-cb06c47a30db
2a8d18d2-5279-11ea-8af2-5fff700c2675,2a984bda-5279-11ea-b02b-e3fba8fbabbb
2a8e392e-5279-11ea-a1d7-97ed3023d300,2a98637c-5279-11ea-b4c1-efe381c27347
2a894d92-5279-11ea-ada7-6743af444cbf,2a987862-5279-11ea-be5a-4f127e36f53a
2a87069a-5279-11ea-9c28-bfaa6da614eb,2a9894fa-5279-11ea-af3e-63e9b9c1ea50
2a879a2e-5279-11ea-af22-cf10f84e2a05,2a98a7ce-5279-11ea-8fd1-531a3c3c8a59
2a91feb0-5279-11ea-95cb-2b828a8800ce,2a98bbb0-5279-11ea-964c-87290764ba97
2a812c2a-5279-11ea-bb26-1fd039816a4c,2a98d4a6-5279-11ea-bdaf-9fe3a72f7415
2a8a1c40-5279-11ea-9d40-f37f13d8a238,2a98e950-5279-11ea-b54e-6bcf231fab21
2a908d14-5279-11ea-a8a4-db83ae81d8a7,2a98ff62-5279-11ea-b9fc-1b85db4378ed
2a8b5808-5279-11ea-816c-5f52c5bca073,2a9916e6-5279-11ea-ad70-7b193478786b
2a853784-5279-11ea-bce1-9baafe84aea3,2a9936bc-5279-11ea-93dd-df69c6fd7801
2a903e04-5279-11ea-9531-83c55fbf1cec,2a994c2e-5279-11ea-b095-13c016539c2d
2a875c6c-5279-11ea-9345-3337e835fe48,2a996092-5279-11ea-914a-83958e25b093
2a8c2382-5279-11ea-aeef-c3adc7a3ec11,2a9980f4-5279-11ea-8a60-7b127898f32c
2a8b7d24-5279-11ea-9285-032c5d22edaf,2a9995d0-5279-11ea-93d0-fb78fac82fd1
2a91feb0-5279-11ea-95cb-2b828a8800ce,2a99c532-5279-11ea-a005-eb6450e1f6c1
2a9995d0-5279-11ea-93d0-fb78fac82fd1,2a99b2e0-5279-11ea-b259-4fffa475b637
2a921986-5279-11ea-a3a2-f393655fe83d,2a99daea-5279-11ea-a14d-2f51b21f1e92
2a95d602-5279-11ea-ae35-4bb99fe9a368,2a99ed14-5279-11ea-9407-1354af1c0984
2a8cd750-5279-11ea-89ef-674ade0abaf2,2a9a018c-5279-11ea-95bd-9bb867cf3748
2a88a0f4-5279-11ea-b6ab-43ea8d2108af,2a9a1fbe-5279-11ea-b4ee-5f033ddb6190
2a853784-5279-11ea-bce1-9baafe84aea3,2a9a34e0-5279-11ea-ace0-9f5b84056f42
2a90529a-5279-11ea-ac00-a737d9256033,2a9a4bc4-5279-11ea-b1fb-0b7ed9c99032
2a7fbb4c-5279-11ea-ae69-bb19f7bf9292,2a9a603c-5279-11ea-a8a8-d32bcb04a688
2a8fd856-5279-11ea-a8db-c734e04402b7,2a9a7932-5279-11ea-9c4e-d7116114b6e6
2a9916e6-5279-11ea-ad70-7b193478786b,2a9a8cec-5279-11ea-93da-2f92338dbe3b
2a80f980-5279-11ea-b4df-83f147500b04,2a9aa8ee-5279-11ea-ba62-bf017c43d32d
2a93a27e-5279-11ea-86ae-b30d2d4644fc,2a9aba3c-5279-11ea-9269-ebe472b038a4
2a89a648-5279-11ea-81ec-2bd3a88980c0,2a9acec8-5279-11ea-b900-07895455f2e1
2a8d3268-5279-11ea-bf63-2bccbff9871a,2a9ae098-5279-11ea-b39d-7bddbbf486b1
2a896304-5279-11ea-842d-07e68317fc78,2a9af6dc-5279-11ea-a870-c7690976014f
2a7e1968-5279-11ea-aaad-cb05200ea378,2a9b0d2a-5279-11ea-8b2f-773590b9b0b6
2a910c9e-5279-11ea-9bcf-2b47b7f82520,2a9b3426-5279-11ea-8b93-9b7a2264e7dc
2a866172-5279-11ea-994a-7bffef7d7cbd,2a9b495c-5279-11ea-91e3-4fb34d7863b7
2a858b1c-5279-11ea-ba4a-db04e2b86e7e,2a9b5f0a-5279-11ea-bd6f-077b83d9e54b
2a7de0ec-5279-11ea-aaa2-47dcb5b06173,2a9b7e86-5279-11ea-b6b6-030d031ee9e2
2a91350c-5279-11ea-a341-fb7bbdf537e8,2a9b92ea-5279-11ea-a463-cb00851fb30f
2a88f202-5279-11ea-bc07-a72fe32aa8f6,2a9ba85c-5279-11ea-a37e-6382283dee0b
2a83ec8a-5279-11ea-a34c-ffe71d23762a,2a9bbfcc-5279-11ea-95dc-6f4e84338d6e
2a8c36c4-5279-11ea-95d9-b3d7ecf152c7,2a9bd53e-5279-11ea-aad0-37409eeaab17
2a94ad90-5279-11ea-919c-0f2c958fe357,2a9bea10-5279-11ea-9be9-8b1db9735c18
2a96975e-5279-11ea-ac21-b350535a0ec5,2a9c0d42-5279-11ea-b77d-13fbad8a65b9
2a84ff12-5279-11ea-a13b-532a4432db7b,2a9c3100-5279-11ea-a045-534e10b925d5
2a93e89c-5279-11ea-813e-3f7a455f5316,2a9c44ec-5279-11ea-be8d-73e81bc93e45
2a7efcfc-5279-11ea-bed3-67564850696a,2a9c5c34-5279-11ea-87e2-1ff0c265bf81
2a9c0d42-5279-11ea-b77d-13fbad8a65b9,2a9c89de-5279-11ea-a47d-7bc7f89af3a6
2a86123a-5279-11ea-a390-bbbdf03a3346,2a9c9a50-5279-11ea-8ede-531fa3465bf5
2a856aa6-5279-11ea-8b37-337409ff1036,2a9cb076-5279-11ea-bc4f-675c6eb28f8a
2a92a61c-5279-11ea-834f-8774bf67cbae,2a9cd6fa-5279-11ea-9899-e31d2f9265db
2a99daea-5279-11ea-a14d-2f51b21f1e92,2a9ced34-5279-11ea-82a3-7bae0de083fb
2a94bcc2-5279-11ea-8c60-8f11c7beb15f,2a9d0350-5279-11ea-89ba-4f74e020d60b
2a932d44-5279-11ea-8f06-d316606694ea,2a9d1f8e-5279-11ea-aa15-6785037540e4
2a840666-5279-11ea-9993-537b33eb0f5d,2a9d37da-5279-11ea-b5a6-43c892525926
2a7ebac6-5279-11ea-819b-933230be4870,2a9d4dce-5279-11ea-83a6-13609aff04ad
2a96975e-5279-11ea-ac21-b350535a0ec5,2a9d6d04-5279-11ea-bcce-4f404c66884b
2a9916e6-5279-11ea-ad70-7b193478786b,2a9d81c2-5279-11ea-9ca3-23ffbf99ac16
2a87e272-5279-11ea-9799-53e2d27572f3,2a9d9fa4-5279-11ea-a099-d3b06f731754
2a9995d0-5279-11ea-93d0-fb78fac82fd1,2a9db4d0-5279-11ea-a931-0f01bc3ab18a
2a7ee6a4-5279-11ea-a563-935202441831,2a9dd050-5279-11ea-8ccd-e31db9c1b768
2a8d18d2-5279-11ea-8af2-5fff700c2675,2a9de450-5279-11ea-b8ce-577f9d672e63
2a957efa-5279-11ea-9012-73a04eb369a4,2a9e0340-5279-11ea-9293-d35ba44026a6
2a910c9e-5279-11ea-9bcf-2b47b7f82520,2a9e1b50-5279-11ea-a65b-cb0a13c6dbbb
2a7fa8e6-5279-11ea-93db-6badbdf824ae,2a9e3054-5279-11ea-b567-3b3355432e68
2a82d75a-5279-11ea-8958-03491792edeb,2a9e4666-5279-11ea-a633-2f915d8483e9
2a90d3a0-5279-11ea-aed8-2327706b6574,2a9e64fc-5279-11ea-8027-6b903386c537
2a9079e6-5279-11ea-b052-1b696649b040,2a9e7942-5279-11ea-8e1e-97d60913be4d
2a8650c4-5279-11ea-a2d7-676477723435,2a9e8ef0-5279-11ea-8539-b7aef1c55a00
2a8b2dce-5279-11ea-ba15-5b0dfacdffa2,2a9eb830-5279-11ea-828f-3f67ec975efe
2a8c11e4-5279-11ea-939d-37cf79ab1b01,2a9ecca8-5279-11ea-b1ca-cf656ddb2057
2a8e392e-5279-11ea-a1d7-97ed3023d300,2a9edce8-5279-11ea-b581-f3259b13cf8a
2a82c08a-5279-11ea-b746-a310067a720c,2a9f054c-5279-11ea-8fec-e7e36794a75a
2a83ec8a-5279-11ea-a34c-ffe71d23762a,2a9f1aa0-5279-11ea-bb4d-176bf18bab45
2a9aa8ee-5279-11ea-ba62-bf017c43d32d,2a9f2b76-5279-11ea-8a14-53dc47a4c7ed
2a98d4a6-5279-11ea-bdaf-9fe3a72f7415,2a9f4eee-5279-11ea-af55-87fb7df89735
2a9c0d42-5279-11ea-b77d-13fbad8a65b9,2a9f63e8-5279-11ea-8cc6-5b36e94d8eb6
2a88a0f4-5279-11ea-b6ab-43ea8d2108af,2a9f7e82-5279-11ea-942a-976cddd63f23
2a86f4d4-5279-11ea-806b-5b74110ad198,2a9f90f2-5279-11ea-928a-cb04eda87716
2a8facd2-5279-11ea-88f6-cf15ced69b67,2a9fbb5e-5279-11ea-a255-5327c6f8c382
2a96aa14-5279-11ea-a495-875c38453bf8,2a9fcb94-5279-11ea-b192-77a2a3c41b0b
2a888bdc-5279-11ea-a23b-3be88bd8e749,2a9fde5e-5279-11ea-9005-df46fe226c7d
2a98a7ce-5279-11ea-8fd1-531a3c3c8a59,2aa00686-5279-11ea-9dc4-13a65dd64764
2a99ed14-5279-11ea-9407-1354af1c0984,2aa01aea-5279-11ea-bfcd-071b431f0b9a
2a962404-5279-11ea-9e1e-0fe144474cd5,2aa03034-5279-11ea-a046-a36c452bf9ae
2a9e64fc-5279-11ea-8027-6b903386c537,2aa04e70-5279-11ea-9369-ab2e927d2a1b
2a8a5e30-5279-11ea-8b42-f7d2fb2f743b,2aa0609a-5279-11ea-98e9-03824bf3bffc
2a8ae9fe-5279-11ea-814e-d3359e951f5d,2aa07670-5279-11ea-9e00-a36ccff27bb7
2a9305d0-5279-11ea-80ad-af3923bdc990,2aa08c28-5279-11ea-927c-bf456c42cc7b
2a945ad4-5279-11ea-9213-db478c09034a,2aa0a10e-5279-11ea-9c0d-fbdef2a542cc
2a963840-5279-11ea-8e83-ff6dbcafe5e6,2aa0be00-5279-11ea-94ab-f7bec2718575
2a89eb62-5279-11ea-a83e-273c2dc19dca,2aa0d188-5279-11ea-bc52-cfcd46dd2708
2aa03034-5279-11ea-a046-a36c452bf9ae,2aa0e6f0-5279-11ea-9947-978e4d382026
2a9a603c-5279-11ea-a8a8-d32bcb04a688,2aa0fafa-5279-11ea-a9b3-3fe306ae65bd
2a8b7d24-5279-11ea-9285-032c5d22edaf,2aa10fb8-5279-11ea-93d9-0b38b58fa33f
2a8284ee-5279-11ea-9bbb-0f52b902790b,2aa12692-5279-11ea-bacc-efa3910b31de
2a99ed14-5279-11ea-9407-1354af1c0984,2aa15d74-5279-11ea-93b7-439dede9253a
2aa0d188-5279-11ea-bc52-cfcd46dd2708,2aa14816-5279-11ea-845b-331b0e1f7b1a
2a812c2a-5279-11ea-bb26-1fd039816a4c,2aa1793a-5279-11ea-b584-f3fd78d2fb25
2a87846c-5279-11ea-8d65-ebc0d55af5e1,2aa18cf4-5279-11ea-85aa-f3ef83af20fa
2a88f202-5279-11ea-bc07-a72fe32aa8f6,2aa1a16c-5279-11ea-acc7-cbfede671b9a
2a947028-5279-11ea-90b2-a380fdda11d2,2aa1b80a-5279-11ea-ab3d-d7f3217d05af
2a97f1d0-5279-11ea-94aa-1b3cc36d12d7,2aa1d092-5279-11ea-b710-37a4b36fc3d5
2a887746-5279-11ea-8c5b-c3defe2b80b1,2aa1f0e0-5279-11ea-abb4-fb71fb728d28
2a9894fa-5279-11ea-af3e-63e9b9c1ea50,2aa20418-5279-11ea-b67a-f31d93cadd04
2a96d62e-5279-11ea-9c66-fb09a213791d,2aa2171e-5279-11ea-ab37-8b2b5daef940
2a97c5f2-5279-11ea-b0c7-439d69bf59b8,2aa23a96-5279-11ea-8be7-538054eb30f2
2a99daea-5279-11ea-a14d-2f51b21f1e92,2aa24f5e-5279-11ea-9398-f74b7b03cc99
2a86a8f8-5279-11ea-bee3-9f58a37994be,2aa2625a-5279-11ea-933d-03bdb751c155
2a844874-5279-11ea-ba60-d743b3cf8897,2aa286e0-5279-11ea-af70-af319594dfb3
2a9a1fbe-5279-11ea-b4ee-5f033ddb6190,2aa298ba-5279-11ea-8cf4-63320cd4f077
2a800a98-5279-11ea-98bf-1f5991084886,2aa2adf0-5279-11ea-9be7-7b7d1d914d1a
2aa0d188-5279-11ea-bc52-cfcd46dd2708,2aa2cb50-5279-11ea-827a-8f37000d8ba9
2aa1a16c-5279-11ea-acc7-cbfede671b9a,2aa2f1ac-5279-11ea-bf19-7b8e9272f4b6
2a9bd53e-5279-11ea-aad0-37409eeaab17,2aa2dffa-5279-11ea-9e77-5b5b895b498b
2aa15d74-5279-11ea-93b7-439dede9253a,2aa308d6-5279-11ea-b897-7b2ae3a610ae
2a9498b4-5279-11ea-8e2f-3f01ae05300c,2aa31d08-5279-11ea-ba76-9fba3526087a
2a934b6c-5279-11ea-bac5-8b02b8cd8fdd,2aa3320c-5279-11ea-a2b0-a75c719b3821
2a7df370-5279-11ea-9f59-1f5d8b1e9eeb,2aa34f08-5279-11ea-a9b8-1ffb7408f3f0
2a7dbc70-5279-11ea-ba2e-034d90c15f33,2aa362cc-5279-11ea-9bae-93d86452f30e
2a8ce9de-5279-11ea-aa86-77b01ecec0d4,2aa37adc-5279-11ea-b102-1f110529bd7b
2a8efd8c-5279-11ea-984c-6b96c6342f7c,2aa38f5e-5279-11ea-ba65-1bea53cbc1b8
2a922fa2-5279-11ea-bf57-9796cc8e4260,2aa3a4b2-5279-11ea-a17e-ab66e6ac9124
2a973cf4-5279-11ea-b445-af8b4c04a0ad,2aa3b790-5279-11ea-963f-df3094306fd4
2a945ad4-5279-11ea-9213-db478c09034a,2aa3ca50-5279-11ea-8f9e-ff5f79d92fea
2a8d18d2-5279-11ea-8af2-5fff700c2675,2aa3e5f8-5279-11ea-bdea-e3530ddc82bc
2a7f4d9c-5279-11ea-a2de-ffdfd10dbd68,2aa4004c-5279-11ea-ae18-8f59df09b3a6
2a7f0fe4-5279-11ea-84f7-c3428e551b42,2aa419b0-5279-11ea-90f8-3ff2a06c992a
2a96aa14-5279-11ea-a495-875c38453bf8,2aa43418-5279-11ea-808d-c33673be10ca
2a87846c-5279-11ea-8d65-ebc0d55af5e1,2aa4458e-5279-11ea-a1d7-9f95d790e3c2
2a93e89c-5279-11ea-813e-3f7a455f5316,2aa472e8-5279-11ea-8285-f30ad2ce0587
2a9ae098-5279-11ea-b39d-7bddbbf486b1,2aa48a4e-5279-11ea-b61a-936973a569dd
2aa0be00-5279-11ea-94ab-f7bec2718575,2aa49f34-5279-11ea-ad5e-03d8d57dc53e
2aa15d74-5279-11ea-93b7-439dede9253a,2aa4c824-5279-11ea-bb8a-b7c1330fb0b3
2a9e4666-5279-11ea-a633-2f915d8483e9,2aa4dd0a-5279-11ea-84bb-1f6595b77d76
2a82c08a-5279-11ea-b746-a310067a720c,2aa4f3ee-5279-11ea-bd0e-73f4055188cc
2a7dcfa8-5279-11ea-b92e-93953c335bbe,2aa50afa-5279-11ea-9d71-c3c79eeea68c
2a7f4d9c-5279-11ea-a2de-ffdfd10dbd68,2aa528f0-5279-11ea-855e-8bea60fdc3d4
2a94bcc2-5279-11ea-8c60-8f11c7beb15f,2aa53e8a-5279-11ea-a5fd-67936a643ae0
2a856aa6-5279-11ea-8b37-337409ff1036,2aa55488-5279-11ea-8428-27731d49624b
2a9a4bc4-5279-11ea-b1fb-0b7ed9c99032,2aa57422-5279-11ea-8e32-e3e65fc222d3
2a99c532-5279-11ea-a005-eb6450e1f6c1,2aa58c82-5279-11ea-a0ce-7b6540a9281b
2a9193a8-5279-11ea-a6cd-ebd35274572d,2aa5a316-5279-11ea-b1e8-afc8e55e69b0
2a9079e6-5279-11ea-b052-1b696649b040,2aa5c116-5279-11ea-b740-a318e13d0be5
2a9252b6-5279-11ea-888f-67b7489f85e1,2aa5d6f6-5279-11ea-9a61-b3cdb6687409
2aa57422-5279-11ea-8e32-e3e65fc222d3,2aa5eb78-5279-11ea-9709-c3eacea255c1
2a90c1a8-5279-11ea-ab1a-8b1c898df14a,2aa60ec8-5279-11ea-b23c-af595e4169d4
2a867450-5279-11ea-b9a0-6f7d59f7c78b,2aa62804-5279-11ea-9510-b3c5c14c1160
2a914dbc-5279-11ea-84d3-ab8790af1aa9,2aa648a2-5279-11ea-af68-cf447a84ec0e
2aa2dffa-5279-11ea-9e77-5b5b895b498b,2aa66cf6-5279-11ea-a694-43fa26405154
2a9fcb94-5279-11ea-b192-77a2a3c41b0b,2aa68326-5279-11ea-9f22-73fbf512945f
2a812c2a-5279-11ea-bb26-1fd039816a4c,2aa69794-5279-11ea-ab1f-0b23f5057c03
2aa4dd0a-5279-11ea-84bb-1f6595b77d76,2aa6bcb0-5279-11ea-b596-13cbb5d26b25
2a8b7d24-5279-11ea-9285-032c5d22edaf,2aa6d2ea-5279-11ea-bcfa-5343a7d86553
2a9d1f8e-5279-11ea-aa15-6785037540e4,2aa6ea64-5279-11ea-931b-9fae520f00ad
2a965348-5279-11ea-8060-6b3a44f5329e,2aa70f62-5279-11ea-a01d-47f620a88039
2a9b5f0a-5279-11ea-bd6f-077b83d9e54b,2aa724b6-5279-11ea-8318-17d25f4c8f56
2aa0be00-5279-11ea-94ab-f7bec2718575,2aa73a8c-5279-11ea-b5dd-5f89ddef8c51
2aa53e8a-5279-11ea-a5fd-67936a643ae0,2aa761d8-5279-11ea-99eb-bfa2ebdbde1e
2a8b5808-5279-11ea-816c-5f52c5bca073,2aa77a74-5279-11ea-949f-d72b17d10c43
2a7f4d9c-5279-11ea-a2de-ffdfd10dbd68,2aa78e74-5279-11ea-bcbc-2f8a4680b312
2a7de0ec-5279-11ea-aaa2-47dcb5b06173,2aa7b246-5279-11ea-93cb-b3b133efd415
2a866172-5279-11ea-994a-7bffef7d7cbd,2aa7ca74-5279-11ea-9c34-2fe7ed2934a3
2a8df87e-5279-11ea-a735-471c84a377ff,2aa7e554-5279-11ea-b41e-5f55ac1ec601
2aa0e6f0-5279-11ea-9947-978e4d382026,2aa80f84-5279-11ea-b95a-176d6c79d957
2aa1793a-5279-11ea-b584-f3fd78d2fb25,2aa82352-5279-11ea-99ed-5bd1c6df3ac9
2aa761d8-5279-11ea-99eb-bfa2ebdbde1e,2aa83c52-5279-11ea-9d42-e33a3850f2f4
2a82a9ec-5279-11ea-8ca1-27fe6cb3d3d6,2aa852be-5279-11ea-9aa3-bfcca655d0b1
2a8346cc-5279-11ea-922e-8f9a3d04cf60,2aa8723a-5279-11ea-920e-f7f8f586d809
2a8c2382-5279-11ea-aeef-c3adc7a3ec11,2aa88fe0-5279-11ea-8b11-dbac86d939fc
2aa4c824-5279-11ea-bb8a-b7c1330fb0b3,2aa8a7aa-5279-11ea-bbff-1b001b2a1648
2a80cec4-5279-11ea-8019-7f1e2374c50c,2aa8c726-5279-11ea-bf65-c301d0f8b8fb
2aa6bcb0-5279-11ea-b596-13cbb5d26b25,2aa8dd60-5279-11ea-9296-47fdddb478e5
2a7f6426-5279-11ea-a1e1-432b02b0c0e4,2aa8f430-5279-11ea-98d1-9fe6a2f2eb3d
2a7f3802-5279-11ea-9ef1-cfddba82bb3d,2aa91a0a-5279-11ea-a645-cf54602f8b9b
2a9bd53e-5279-11ea-aad0-37409eeaab17,2aa92ce8-5279-11ea-af36-874a0f1763fd
2aa472e8-5279-11ea-8285-f30ad2ce0587,2aa942b4-5279-11ea-a3bf-5bf70b1c1595
2aa37adc-5279-11ea-b102-1f110529bd7b,2aa9641a-5279-11ea-8f12-4b9b566e5e61
2a8c96aa-5279-11ea-9d02-235dad297636,2aa97b30-5279-11ea-ab66-ab22fcf83d1d
2a83d74a-5279-11ea-a20a-eb2711c05ced,2aa98dc8-5279-11ea-bbeb-abf1861a9b37
2a9a603c-5279-11ea-a8a8-d32bcb04a688,2aa9b15e-5279-11ea-bc31-ab23e12ee217
2a8f1074-5279-11ea-8934-e3a8f943ddf1,2aa9c7de-5279-11ea-963c-f73b07b24435
2a9eb830-5279-11ea-828f-3f67ec975efe,2aa9d8b4-5279-11ea-b8a4-a78732107348
2a8f1074-5279-11ea-8934-e3a8f943ddf1,2aa9eff2-5279-11ea-a952-e3a7e137dd58
2a91bb4e-5279-11ea-a4e6-c73f205c123f,2aaa04e2-5279-11ea-8750-674dfbd7c19b
2a95ee62-5279-11ea-9a34-53e0eb1a859b,2aaa1a0e-5279-11ea-b11c-87a3f0c75a2d
2a959688-5279-11ea-9550-83a9569bfa1b,2aaa364c-5279-11ea-a1a3-736227c34c4e
2a844874-5279-11ea-ba60-d743b3cf8897,2aaa5adc-5279-11ea-9424-7f36caca7af1
2a965348-5279-11ea-8060-6b3a44f5329e,2aaa6ce8-5279-11ea-8efa-37765af88c7c
2a99daea-5279-11ea-a14d-2f51b21f1e92,2aaa83f4-5279-11ea-bcc9-3f49de46dbc2
2a9aa8ee-5279-11ea-ba62-bf017c43d32d,2aaaaf8c-5279-11ea-8f2f-8f607480c762
2aa9641a-5279-11ea-8f12-4b9b566e5e61,2aaac3e6-5279-11ea-a448-5f7fa58f8e79
2aa00686-5279-11ea-9dc4-13a65dd64764,2aaad854-5279-11ea-a3e9-4b5302a8d45d
2a86a8f8-5279-11ea-bee3-9f58a37994be,2aaaff78-5279-11ea-b090-eb98c7f8b122
2a8c36c4-5279-11ea-95d9-b3d7ecf152c7,2aab1a44-5279-11ea-b9d9-37d705fa8c93
2a94dc2a-5279-11ea-85de-7f96f75eae8f,2aab2c6e-5279-11ea-af8b-8b43760dd478
2aa97b30-5279-11ea-ab66-ab22fcf83d1d,2aab4faa-5279-11ea-9a1c-37b0e08bcab1
2a875c6c-5279-11ea-9345-3337e835fe48,2aab7d7c-5279-11ea-a188-9ffdcc6b3c4d
2aa4004c-5279-11ea-ae18-8f59df09b3a6,2aab90a0-5279-11ea-bcc5-b3c2b4abdc9e
2a9eb830-5279-11ea-828f-3f67ec975efe,2aabb5b2-5279-11ea-9db9-677d4d2dc545
2a8e392e-5279-11ea-a1d7-97ed3023d300,2aabd1c8-5279-11ea-98aa-83f50c0d1388
2aa3320c-5279-11ea-a2b0-a75c719b3821,2aabea1e-5279-11ea-a5df-8fb33dab7f6f
2a9894fa-5279-11ea-af3e-63e9b9c1ea50,2aac09cc-5279-11ea-a8d5-1b36f7866930
2aa6bcb0-5279-11ea-b596-13cbb5d26b25,2aac28bc-5279-11ea-bbc0-13f3a81de1ac
2aa419b0-5279-11ea-90f8-3ff2a06c992a,2aac4018-5279-11ea-90d2-9f63550640dd
2a9acec8-5279-11ea-b900-07895455f2e1,2aac585a-5279-11ea-af67-8732d6cb0152
2a8e565c-5279-11ea-ac4b-53e2646b50fd,2aac7920-5279-11ea-a957-9faf3d2ea591
2a95ee62-5279-11ea-9a34-53e0eb1a859b,2aac91ee-5279-11ea-9d8b-e3a02043e296
2a9cd6fa-5279-11ea-9899-e31d2f9265db,2aaca8aa-5279-11ea-a492-cbcc3c34a14e
2a9eb830-5279-11ea-828f-3f67ec975efe,2aacc894-5279-11ea-9433-4b9a04081fd7
2aa9b15e-5279-11ea-bc31-ab23e12ee217,2aace130-5279-11ea-b1b2-3753cbaf1b65
2a82a9ec-5279-11ea-8ca1-27fe6cb3d3d6,2aacf7c4-5279-11ea-ab5b-dfbecb92a983
2a8ae9fe-5279-11ea-814e-d3359e951f5d,2aad1aba-5279-11ea-b97e-d76a342a4942
2a962404-5279-11ea-9e1e-0fe144474cd5,2aad38b0-5279-11ea-aa14-131ab0e345a7
2a8b16f4-5279-11ea-8fb1-3f1b65baaefc,2aad4efe-5279-11ea-af9f-dbbeb0e8a53a
2a95c25c-5279-11ea-a8c3-c7109af39207,2aad6448-5279-11ea-8767-b7dae7a8c5e6
2a90c1a8-5279-11ea-ab1a-8b1c898df14a,2aad7e88-5279-11ea-b014-e7d5a94ebd83
2a8d18d2-5279-11ea-8af2-5fff700c2675,2aad92b0-5279-11ea-9c0c-7ff1bee3de89
2a94f156-5279-11ea-a59b-47b8a46afea4,2aada606-5279-11ea-bbfc-abba21cf2a0f
2aa761d8-5279-11ea-99eb-bfa2ebdbde1e,2aadc712-5279-11ea-a715-1ffb96f4a1b3
2aa4f3ee-5279-11ea-bd0e-73f4055188cc,2aade15c-5279-11ea-97d7-4bf422397838
2a89d230-5279-11ea-af8e-476efcb676ee,2aadf5b6-5279-11ea-b3bc-334d0f9b3a2e
2aacf7c4-5279-11ea-ab5b-dfbecb92a983,2aae15c8-5279-11ea-b666-ffccbebfed35
2a970824-5279-11ea-8380-6f90c1721294,2aae2f68-5279-11ea-b71f-8b46ac6fd1bf
2a91feb0-5279-11ea-95cb-2b828a8800ce,2aae5182-5279-11ea-b752-b3dcc3b71aad
2a967ae4-5279-11ea-a64e-5be1b9ff9399,2aae7694-5279-11ea-8f9f-a3d37c8c8713
2aa724b6-5279-11ea-8318-17d25f4c8f56,2aae87ba-5279-11ea-8830-074756d33a5b
2aa82352-5279-11ea-99ed-5bd1c6df3ac9,2aaea07e-5279-11ea-ac76-c72f2dd861f7
2aa7ca74-5279-11ea-9c34-2fe7ed2934a3,2aaed86e-5279-11ea-91d9-a713e39d823c
2a7f23d0-5279-11ea-863d-835da57bf192,2aaef2cc-5279-11ea-89dd-fb61addb2aa9
2a800a98-5279-11ea-98bf-1f5991084886,2aaf05b4-5279-11ea-9f58-4b9e895c8744
2a8485be-5279-11ea-9354-bb4812beb7da,2aaf1cf2-5279-11ea-91d3-87ecc281ca59
2a82c08a-5279-11ea-b746-a310067a720c,2aaf36d8-5279-11ea-9de8-438809a373e5
2a812c2a-5279-11ea-bb26-1fd039816a4c,2aaf5334-5279-11ea-84b1-03c32a022e8c
2a9b3426-5279-11ea-8b93-9b7a2264e7dc,2aaf7166-5279-11ea-9f25-d73091313c3e
2a908d14-5279-11ea-a8a4-db83ae81d8a7,2aaf88ae-5279-11ea-85a9-5bba525199b8
2a874aec-5279-11ea-b2e4-2769cdde4bd2,2aafa12c-5279-11ea-baa7-33a2fea5e0b0
2a981d2c-5279-11ea-8889-3fcd1cfe5130,2aafdc1e-5279-11ea-8301-4f4fa23e22c9
2a9acec8-5279-11ea-b900-07895455f2e1,2aafc29c-5279-11ea-8913-27c720a933a9
2aa37adc-5279-11ea-b102-1f110529bd7b,2aafff78-5279-11ea-89fa-df3561d7ed5b
2a9aa8ee-5279-11ea-ba62-bf017c43d32d,2ab02c5a-5279-11ea-82ad-c73ccadd11fa
2a9fcb94-5279-11ea-b192-77a2a3c41b0b,2ab048a2-5279-11ea-926e-b713e9629f80
2a973cf4-5279-11ea-b445-af8b4c04a0ad,2ab015bc-5279-11ea-9f93-b38a42ad8a7e
2a8fc2da-5279-11ea-ac01-3fd5afabb273,2ab090e6-5279-11ea-bcec-ab5e73601cf0
2a891be2-5279-11ea-8bd4-1bebd510eb3a,2ab0ae00-5279-11ea-b7cc-a7338db3afa5
2a9acec8-5279-11ea-b900-07895455f2e1,2ab0ca02-5279-11ea-8f7d-ff57588ffd0e
2a9d4dce-5279-11ea-83a6-13609aff04ad,2ab0e30c-5279-11ea-8c75-138ef3daebb9
2a7de0ec-5279-11ea-aaa2-47dcb5b06173,2ab106f2-5279-11ea-8e3c-cfe941a447bd
2aa98dc8-5279-11ea-bbeb-abf1861a9b37,2ab120d8-5279-11ea-86fb-1b08dec49944
2a8c11e4-5279-11ea-939d-37cf79ab1b01,2ab13a8c-5279-11ea-a11d-9f3926b1c948
2aaef2cc-5279-11ea-89dd-fb61addb2aa9,2ab166f6-5279-11ea-aa53-0be27c4ef9b6
2a9f054c-5279-11ea-8fec-e7e36794a75a,2ab1842e-5279-11ea-bc88-5ba1e17bdec0
2a8efd8c-5279-11ea-984c-6b96c6342f7c,2ab1a738-5279-11ea-aaaa-f391df292b04
2a8a3306-5279-11ea-8346-27d7bbaae7eb,2ab1c8a8-5279-11ea-8a93-677621fdc506
2a9252b6-5279-11ea-888f-67b7489f85e1,2ab1e658-5279-11ea-ad6b-ef5c3402b277
2a7fbb4c-5279-11ea-ae69-bb19f7bf9292,2ab210c4-5279-11ea-a668-2bcb5216c6a0
2a84c2ae-5279-11ea-9640-d3c6170d7b9e,2ab201ba-5279-11ea-b650-53a5c745bd45
2a9aa8ee-5279-11ea-ba62-bf017c43d32d,2ab22c44-5279-11ea-8176-5b88074d3f55
2aa942b4-5279-11ea-a3bf-5bf70b1c1595,2ab24b34-5279-11ea-9e9d-a3f9604f039e
2a9c9a50-5279-11ea-8ede-531fa3465bf5,2ab273f2-5279-11ea-86b0-4725c44f7e4b
2a9d1f8e-5279-11ea-aa15-6785037540e4,2ab28c2a-5279-11ea-9ccc-dfd8d928ada5
2a81ea66-5279-11ea-899c-33a13346d567,2ab2a37c-5279-11ea-a7e6-3f4627db3321
2aa20418-5279-11ea-b67a-f31d93cadd04,2ab2bce0-5279-11ea-b00f-df92729ec82d
2a95d602-5279-11ea-ae35-4bb99fe9a368,2ab2e81e-5279-11ea-bcaa-0be39758171b
2a80811c-5279-11ea-acd7-3b72bc19cdb5,2ab302d6-5279-11ea-80ab-5378a05ca7ea
2a9fcb94-5279-11ea-b192-77a2a3c41b0b,2ab32540-5279-11ea-94cf-534208b09be2
2a9d9fa4-5279-11ea-a099-d3b06f731754,2ab33c1a-5279-11ea-8b02-c3e112b78be6
2a9d6d04-5279-11ea-bcce-4f404c66884b,2ab35678-5279-11ea-a87a-e39388c1d8fc
2a99b2e0-5279-11ea-b259-4fffa475b637,2ab36cee-5279-11ea-8834-efdfebc11a85
2a8ce9de-5279-11ea-aa86-77b01ecec0d4,2ab38544-5279-11ea-bc62-1f6b04ad9b60
2a83ec8a-5279-11ea-a34c-ffe71d23762a,2ab3b1c2-5279-11ea-ae9f-d3a80e475b07
2a9dd050-5279-11ea-8ccd-e31db9c1b768,2ab3d094-5279-11ea-9ca7-1fd8f0bacc9f
2a888bdc-5279-11ea-a23b-3be88bd8e749,2ab3eb9c-5279-11ea-831e-7748858fe3a2
2a971ac6-5279-11ea-97c6-d3b886301a0e,2ab4050a-5279-11ea-8f3e-33ae6ffedc41
2a96aa14-5279-11ea-a495-875c38453bf8,2ab41e46-5279-11ea-bd52-73b90865f13c
2a98a7ce-5279-11ea-8fd1-531a3c3c8a59,2ab454ec-5279-11ea-84e0-e38242f8a2af
2a8ac29e-5279-11ea-bea0-074ac0c502f2,2ab46ed2-5279-11ea-a2b8-57b8f54dfbcd
2a8b5808-5279-11ea-816c-5f52c5bca073,2ab4a1d6-5279-11ea-aed0-8b3e675313f0
2aabea1e-5279-11ea-a5df-8fb33dab7f6f,2ab4c184-5279-11ea-aba7-7fd87d44019e
2a899194-5279-11ea-85de-5f4ce79e3e07,2ab4f898-5279-11ea-acad-8f1f71075f27
2a9305d0-5279-11ea-80ad-af3923bdc990,2ab518d2-5279-11ea-93d7-875109d5e0ef
2aac09cc-5279-11ea-a8d5-1b36f7866930,2ab5444c-5279-11ea-821f-3316fda789e8
2aad6448-5279-11ea-8767-b7dae7a8c5e6,2ab58b1e-5279-11ea-8841-8f9126bca254
2aae87ba-5279-11ea-8830-074756d33a5b,2ab5a61c-5279-11ea-8458-1b90bb88364d
2a879a2e-5279-11ea-af22-cf10f84e2a05,2ab5e9ce-5279-11ea-9d8a-d343a67d04e4
2a8d5720-5279-11ea-b7f1-b3ab1eb4e7d5,2ab60904-5279-11ea-b820-c79b1137124e
2ab24b34-5279-11ea-9e9d-a3f9604f039e,2ab634c4-5279-11ea-9631-db273f5b1612
2a93b7c8-5279-11ea-8915-eb4be83e7081,2ab65756-5279-11ea-bde9-43b10d57eed3
2aa5c116-5279-11ea-b740-a318e13d0be5,2ab675ba-5279-11ea-a84b-0b0141a357a6
2aa38f5e-5279-11ea-ba65-1bea53cbc1b8,2ab6b19c-5279-11ea-9af7-a74ca44a58dd
2ab4f898-5279-11ea-acad-8f1f71075f27,2ab6e914-5279-11ea-8530-572dd44cf36c
2a80f980-5279-11ea-b4df-83f147500b04,2ab6e978-5279-11ea-ae0b-cf27b2410880
2a8f8022-5279-11ea-b9c4-cfa7724ca901,2ab70408-5279-11ea-9305-f7c3805070e0
2a93e89c-5279-11ea-813e-3f7a455f5316,2ab71b14-5279-11ea-96cc-4fb9f4d464fc
2a922fa2-5279-11ea-bf57-9796cc8e4260,2ab7355e-5279-11ea-953d-afacb7c41dde
2a94bcc2-5279-11ea-8c60-8f11c7beb15f,2ab75714-5279-11ea-89a0-d73412a24455
2a900dd0-5279-11ea-8bab-57fb4e89badc,2ab777e4-5279-11ea-a097-33fa0a1a86fa
2a8b6bfe-5279-11ea-88a0-7355fe24bae2,2ab79544-5279-11ea-8e53-fbe55fc91e9d
2a888bdc-5279-11ea-a23b-3be88bd8e749,2ab7b312-5279-11ea-940f-a334fa865b6e
2a8f67fe-5279-11ea-8bae-93f91202f93d,2ab7c974-5279-11ea-a2b3-9f0b26ce9105
2a9d4dce-5279-11ea-83a6-13609aff04ad,2ab7de3c-5279-11ea-b0e6-07ddd337418f
2a9e3054-5279-11ea-b567-3b3355432e68,2ab7f50c-5279-11ea-80f7-3bc5c8003394
2aa82352-5279-11ea-99ed-5bd1c6df3ac9,2ab820cc-5279-11ea-acd0-1b4f1f735b05
2a855246-5279-11ea-9686-0f8f8db2a2d1,2ab80b46-5279-11ea-809a-130c45adfab3
2ab41e46-5279-11ea-bd52-73b90865f13c,2ab83d0a-5279-11ea-81ad-a7aff56fe8ca
2a976698-5279-11ea-9a72-dbc09014532c,2ab87a72-5279-11ea-9f13-e36cf004fc1d
2aabea1e-5279-11ea-a5df-8fb33dab7f6f,2ab8994e-5279-11ea-bb6f-07c96f5d14b3
2a8650c4-5279-11ea-a2d7-676477723435,2ab8ac5e-5279-11ea-b081-ebf55ef02f2a
2aad7e88-5279-11ea-b014-e7d5a94ebd83,2ab8d74c-5279-11ea-b139-8f98679d2be1
2a98d4a6-5279-11ea-bdaf-9fe3a72f7415,2ab8c20c-5279-11ea-8c24-d756c335cf88
2a9ced34-5279-11ea-82a3-7bae0de083fb,2ab90df2-5279-11ea-b8c8-6f81a53df183
2a952e78-5279-11ea-8633-db9027a58af1,2ab8f4b6-5279-11ea-9715-93cb30c769e6
2a9e4666-5279-11ea-a633-2f915d8483e9,2ab930fc-5279-11ea-87f7-2b1989568fda
2aa37adc-5279-11ea-b102-1f110529bd7b,2ab9558c-5279-11ea-a24b-5fea674eedb8
2aabb5b2-5279-11ea-9db9-677d4d2dc545,2ab974b8-5279-11ea-83c0-c74b32f05f51
2a83d74a-5279-11ea-a20a-eb2711c05ced,2ab99c7c-5279-11ea-b854-4be7d8702a7b
2a98bbb0-5279-11ea-964c-87290764ba97,2ab9b964-5279-11ea-a032-3760ec994767
2a99c532-5279-11ea-a005-eb6450e1f6c1,2ab9dcaa-5279-11ea-88ba-f3b0579e9c76
2a924492-5279-11ea-83a0-f7bc4217d853,2aba0c66-5279-11ea-b56d-5bdc3ad2f34c
2a9264d6-5279-11ea-8b67-63b1c7977caf,2aba299e-5279-11ea-91e7-2f723aaeb328
2ab4f898-5279-11ea-acad-8f1f71075f27,2aba5194-5279-11ea-8714-cf74f52ae727
2aa48a4e-5279-11ea-b61a-936973a569dd,2aba6d82-5279-11ea-a7db-7bba878f09c1
2aa2adf0-5279-11ea-9be7-7b7d1d914d1a,2aba8894-5279-11ea-acd2-b3722d7545f8
2a896304-5279-11ea-842d-07e68317fc78,2abab486-5279-11ea-b00c-4b875868a47a
2aaaaf8c-5279-11ea-8f2f-8f607480c762,2abadb96-5279-11ea-a973-97f9ec8260a8
2aa0be00-5279-11ea-94ab-f7bec2718575,2abafd1a-5279-11ea-856a-c75f4d03e6f3
2a957efa-5279-11ea-9012-73a04eb369a4,2abb1426-5279-11ea-8786-739d7d9afc27
2a8ebbd8-5279-11ea-959b-b392228bd0b8,2abb3a82-5279-11ea-acd0-e7bd4d1ba522
2aa5c116-5279-11ea-b740-a318e13d0be5,2abb5044-5279-11ea-97b3-0ff7a9e10446
2a8ae9fe-5279-11ea-814e-d3359e951f5d,2abb66d8-5279-11ea-9845-d301547b6fed
2a887746-5279-11ea-8c5b-c3defe2b80b1,2abb8028-5279-11ea-8ad7-f785445915d5
2ab6b19c-5279-11ea-9af7-a74ca44a58dd,2abb9838-5279-11ea-b9df-03928098e48e
2a93fe7c-5279-11ea-91b2-cb8b2983267a,2abbb034-5279-11ea-9dfa-17481c15780a
2a94dc2a-5279-11ea-85de-7f96f75eae8f,2abbdfdc-5279-11ea-8cf3-2bb35cfdd729
2a8f67fe-5279-11ea-8bae-93f91202f93d,2abbf918-5279-11ea-8a93-9b72a11df099
2ab35678-5279-11ea-a87a-e39388c1d8fc,2abc11f0-5279-11ea-824a-176f48b1b8cd
2a8a5e30-5279-11ea-8b42-f7d2fb2f743b,2abc35c2-5279-11ea-b4f4-0ba4669090d3
2ab71b14-5279-11ea-96cc-4fb9f4d464fc,2abc58ae-5279-11ea-b266-f7017b82825d
2aa34f08-5279-11ea-a9b8-1ffb7408f3f0,2abc6e66-5279-11ea-a0c5-dfdb2e620db4
2a8e7740-5279-11ea-81eb-1fc2d13b8d84,2abc97ec-5279-11ea-9d16-dbd8c5ea1e98
2a858b1c-5279-11ea-ba4a-db04e2b86e7e,2abcb6fa-5279-11ea-8c08-537665ad17fc
2a8905d0-5279-11ea-bd1c-37d51d139fa5,2abccee2-5279-11ea-af81-630e076fd41f
2aadf5b6-5279-11ea-b3bc-334d0f9b3a2e,2abce53a-5279-11ea-ac6e-77f607afacbd
2aa24f5e-5279-11ea-9398-f74b7b03cc99,2abcfbb0-5279-11ea-8329-dbcc5841e39a
2a80cec4-5279-11ea-8019-7f1e2374c50c,2abd1352-5279-11ea-b8e7-978912ae92a9
2aa942b4-5279-11ea-a3bf-5bf70b1c1595,2abd2a0e-5279-11ea-82dd-6f04f4dcfb60
2a855246-5279-11ea-9686-0f8f8db2a2d1,2abd4110-5279-11ea-bb48-f32d55ad2995
2a9e3054-5279-11ea-b567-3b3355432e68,2abd57fe-5279-11ea-a423-bba033cf3d82
2aa0e6f0-5279-11ea-9947-978e4d382026,2abd702c-5279-11ea-9c4f-7f26d86b6798
2aa49f34-5279-11ea-ad5e-03d8d57dc53e,2abd8940-5279-11ea-b785-cf27bafdeabb
2a99b2e0-5279-11ea-b259-4fffa475b637,2abda0c4-5279-11ea-80f5-17499ec67fff
2aa2171e-5279-11ea-ab37-8b2b5daef940,2abdb5dc-5279-11ea-84e0-5fc8ce256a27
2aaa6ce8-5279-11ea-8efa-37765af88c7c,2abdd4ea-5279-11ea-a1ae-474e62f4f116
2aa08c28-5279-11ea-927c-bf456c42cc7b,2abdf8e4-5279-11ea-a83e-63ebd7f46a70
2a9c0d42-5279-11ea-b77d-13fbad8a65b9,2abe1112-5279-11ea-b87d-bfcdd55a436b
2a8f5296-5279-11ea-ba71-bf8c26306303,2abe2bde-5279-11ea-9c1d-43aa542dca82
2a98a7ce-5279-11ea-8fd1-531a3c3c8a59,2abe4f9c-5279-11ea-836b-1b32cf5c56c2
2ab38544-5279-11ea-bc62-1f6b04ad9b60,2abe6892-5279-11ea-9226-83b986983b81
2a98637c-5279-11ea-b4c1-efe381c27347,2abe98c6-5279-11ea-b304-7bdc4b0b1e69
2a944d00-5279-11ea-9234-e3793fe3318d,2abe8110-5279-11ea-8d71-2bb64d53e531
2a7f0fe4-5279-11ea-84f7-c3428e551b42,2abeb72a-5279-11ea-871c-9f7d2594c82e
2a96f5c8-5279-11ea-83be-534d704847c5,2abece54-5279-11ea-8dbc-cb1709a143af
2a9c89de-5279-11ea-a47d-7bc7f89af3a6,2abeef42-5279-11ea-a0b5-bb28af23b6c8
2aade15c-5279-11ea-97d7-4bf422397838,2abf0e0a-5279-11ea-812e-53f5b5f788c1
2a944d00-5279-11ea-9234-e3793fe3318d,2abf2c96-5279-11ea-9e39-1fbbab87135b
2a8346cc-5279-11ea-922e-8f9a3d04cf60,2abf4a28-5279-11ea-ac21-7b414d395da1
2a93fe7c-5279-11ea-91b2-cb8b2983267a,2abf647c-5279-11ea-b2bf-1f8a0ea68ebd
2a91eb00-5279-11ea-b3eb-0ff83eafd586,2abf89ca-5279-11ea-98e4-a371a7eb4a72
2a9980f4-5279-11ea-8a60-7b127898f32c,2abfa04a-5279-11ea-889c-a73db6a225b4
2ab273f2-5279-11ea-86b0-4725c44f7e4b,2abfb864-5279-11ea-9d01-afc9b4b2a14c
2a8f1074-5279-11ea-8934-e3a8f943ddf1,2abfce3a-5279-11ea-bdf8-9fc648749141
2a83d74a-5279-11ea-a20a-eb2711c05ced,2abfe33e-5279-11ea-a489-e3df5f930dca
2a9c3100-5279-11ea-a045-534e10b925d5,2abff8a6-5279-11ea-8618-1389bde3daa7
2a934b6c-5279-11ea-bac5-8b02b8cd8fdd,2ac00f44-5279-11ea-a0a1-8bb86496dbfe
2ab6e978-5279-11ea-ae0b-cf27b2410880,2ac03ac8-5279-11ea-a1ed-5fa58ce21be0
2a9a4bc4-5279-11ea-b1fb-0b7ed9c99032,2ac02664-5279-11ea-9847-bffd8e09d263
2a9995d0-5279-11ea-93d0-fb78fac82fd1,2ac06886-5279-11ea-b2c1-2fcbbcf928eb
2a871ab8-5279-11ea-a3f5-e778e5f197e3,2ac07f9c-5279-11ea-a831-43ba5bc9ef57
2abf0e0a-5279-11ea-812e-53f5b5f788c1,2ac0ad1e-5279-11ea-b043-af67332d6006
2a9a4bc4-5279-11ea-b1fb-0b7ed9c99032,2ac0c27c-5279-11ea-b61c-af6ecda4054e
2a841c6e-5279-11ea-a752-fb7b2ab62db1,2ac0dc8a-5279-11ea-bd32-4f33a9824e7e
2a80a2b4-5279-11ea-8707-0b8f61cd6e38,2ac11844-5279-11ea-8b51-57899c33ca37
2a7ed060-5279-11ea-ae84-b71fb06a1d02,2ac1334c-5279-11ea-9d94-cbe7f0ef1832
2a888bdc-5279-11ea-a23b-3be88bd8e749,2ac149f4-5279-11ea-85a0-a32b8f186b0b
2a7efcfc-5279-11ea-bed3-67564850696a,2ac1648e-5279-11ea-a0de-8ff5f29c1cc4
2a97c5f2-5279-11ea-b0c7-439d69bf59b8,2ac17c6c-5279-11ea-858c-239950ef8903
2aa1d092-5279-11ea-b710-37a4b36fc3d5,2ac193d2-5279-11ea-b17f-fb475265e1b8
2aa04e70-5279-11ea-9369-ab2e927d2a1b,2ac1b038-5279-11ea-b112-c30582b766a7
2a8284ee-5279-11ea-9bbb-0f52b902790b,2ac1d234-5279-11ea-afe8-f799092ff2b4
2aa62804-5279-11ea-9510-b3c5c14c1160,2ac1ff8e-5279-11ea-af8b-2b6535396724
2aa83c52-5279-11ea-9d42-e33a3850f2f4,2ac21b0e-5279-11ea-a268-6fb81bf7082a
2a967ae4-5279-11ea-a64e-5be1b9ff9399,2ac23274-5279-11ea-9e80-73f5b2d3ec94
2a816ed8-5279-11ea-b02a-ef8a52179706,2ac24b6a-5279-11ea-b4ee-a77763583394
2a8d9e7e-5279-11ea-9e70-aba7fbb385f0,2ac2610e-5279-11ea-a0b4-637fd50d4f80
2a81aa1a-5279-11ea-a96f-272f51640f0a,2ac279d2-5279-11ea-a4a0-fb2f8390516a
2a894d92-5279-11ea-ada7-6743af444cbf,2ac2917e-5279-11ea-8f0d-9bc4ec84f422
2abf647c-5279-11ea-b2bf-1f8a0ea68ebd,2ac2a61e-5279-11ea-92a4-87e87492dc97
2aa3b790-5279-11ea-963f-df3094306fd4,2ac2bdfc-5279-11ea-a6ff-37022085feb0
2a9a8cec-5279-11ea-93da-2f92338dbe3b,2ac30320-5279-11ea-8a17-1bb329b485d7
2aa2dffa-5279-11ea-9e77-5b5b895b498b,2ac2ea70-5279-11ea-9c8f-4b6d0ebfecdb
2aa80f84-5279-11ea-b95a-176d6c79d957,2ac31d2e-5279-11ea-a4a5-b3dfa2278166
2abfa04a-5279-11ea-889c-a73db6a225b4,2ac33462-5279-11ea-ad2c-f702ac4d6e45
2aaed86e-5279-11ea-91d9-a713e39d823c,2ac349de-5279-11ea-83f8-d37a54484013
2abc97ec-5279-11ea-9d16-dbd8c5ea1e98,2ac360a4-5279-11ea-b56d-ff3d8d78ecd4
2a888bdc-5279-11ea-a23b-3be88bd8e749,2ac39358-5279-11ea-90bf-277da4f10500
2a896304-5279-11ea-842d-07e68317fc78,2ac37878-5279-11ea-be4f-5f972273046e
2aa3b790-5279-11ea-963f-df3094306fd4,2ac3be82-5279-11ea-82f2-27a31e70c2b4
2a917800-5279-11ea-8094-af62b0ed85b4,2ac3d912-5279-11ea-ac34-cf9e492e2e8b
2abb1426-5279-11ea-8786-739d7d9afc27,2ac3ea9c-5279-11ea-be56-2fce37c4abdf
2aa6d2ea-5279-11ea-bcfa-5343a7d86553,2ac40e32-5279-11ea-9935-2f77a224e81b
2a96bedc-5279-11ea-b0e5-07667914c1e5,2ac42958-5279-11ea-bbf8-e34516a4e0f7
2a9fde5e-5279-11ea-9005-df46fe226c7d,2ac43d26-5279-11ea-bb2b-a70208660683
2a82335e-5279-11ea-b3fe-270e56e336e3,2ac460b2-5279-11ea-b433-1f82ff3a449a
2ac349de-5279-11ea-83f8-d37a54484013,2ac48218-5279-11ea-b8f7-ab0c4c186aa7
2aac585a-5279-11ea-af67-8732d6cb0152,2ac49636-5279-11ea-abc1-73f3d8ad660b
2a9d9fa4-5279-11ea-a099-d3b06f731754,2ac4a9e6-5279-11ea-b434-93457d686b7e
2aaca8aa-5279-11ea-a492-cbcc3c34a14e,2ac4c9bc-5279-11ea-8fe6-cb35a267e23b
2a9c9a50-5279-11ea-8ede-531fa3465bf5,2ac4e500-5279-11ea-9b89-f34965c5a5d4
2a8bd288-5279-11ea-83a6-3765842faa8f,2ac4ffe0-5279-11ea-94b7-17370581a7f9
2aa648a2-5279-11ea-af68-cf447a84ec0e,2ac5254c-5279-11ea-ad5b-4b6e6b85c65d
2a917800-5279-11ea-8094-af62b0ed85b4,2ac539b0-5279-11ea-979e-6b9f83b769d4
2aab90a0-5279-11ea-bcc5-b3c2b4abdc9e,2ac54fcc-5279-11ea-9ec6-a74cc3f14403
2ab1842e-5279-11ea-bc88-5ba1e17bdec0,2ac563c2-5279-11ea-b5bb-97dd0eab8d4e
2a97820e-5279-11ea-ba8a-470f342ec591,2ac57952-5279-11ea-b6eb-1f7219f90217
2a956d8e-5279-11ea-8ebc-eb7973042ada,2ac5900e-5279-11ea-9f87-cfe43c73e82e
2ab58b1e-5279-11ea-8841-8f9126bca254,2ac5a8b4-5279-11ea-9341-bb57e56eef55
2ab0ca02-5279-11ea-8f7d-ff57588ffd0e,2ac5be62-5279-11ea-ad3a-874e5dc39223
2a92cb6a-5279-11ea-93b1-af56eb6abb41,2ac5d4ba-5279-11ea-a9ee-8fd6363ec7a5
2a92a61c-5279-11ea-834f-8774bf67cbae,2ac5faf8-5279-11ea-b798-fbd3dbd48351
2a84d776-5279-11ea-971b-bffa5a6fb8a6,2ac611a0-5279-11ea-b630-47cfbaa581d7
2abcfbb0-5279-11ea-8329-dbcc5841e39a,2ac6373e-5279-11ea-be6e-1b6a174ffa58
2a8ce9de-5279-11ea-aa86-77b01ecec0d4,2ac65c82-5279-11ea-ac79-3716b70c9937
2abab486-5279-11ea-b00c-4b875868a47a,2ac66e52-5279-11ea-b3f9-ff49a5e11e54
2a83c462-5279-11ea-b384-371dee2b8bdb,2ac691f2-5279-11ea-a612-53195531dbaf
2ac5a8b4-5279-11ea-9341-bb57e56eef55,2ac6b3e4-5279-11ea-a76f-d3017e44c423
2a94f156-5279-11ea-a59b-47b8a46afea4,2ac6d450-5279-11ea-b11b-af67cfbc3b53
2a914dbc-5279-11ea-84d3-ab8790af1aa9,2ac6f00c-5279-11ea-8104-2bbbb0682e09
2a9e7942-5279-11ea-8e1e-97d60913be4d,2ac70a42-5279-11ea-9754-db49985ef100
2a96bedc-5279-11ea-b0e5-07667914c1e5,2ac7200e-5279-11ea-9f4a-9bd8c8c0b2c5
2aa97b30-5279-11ea-ab66-ab22fcf83d1d,2ac7405c-5279-11ea-b300-13cc2b3e5da8
2a7f0fe4-5279-11ea-84f7-c3428e551b42,2ac76a82-5279-11ea-9d0b-9b13d26ae4cf
2a85e9a4-5279-11ea-b913-2b63220809d6,2ac757cc-5279-11ea-bae9-173b254f0ebb
2a837912-5279-11ea-969d-a71f8d8c0f3f,2ac78102-5279-11ea-a64d-6fac8ce8d279
2aabd1c8-5279-11ea-98aa-83f50c0d1388,2ac79656-5279-11ea-91b9-7b8a340bad01
2a91eb00-5279-11ea-b3eb-0ff83eafd586,2ac7ab1e-5279-11ea-9fca-dbf49b7e7b2b
2a8c49d4-5279-11ea-8077-cf45b02fb96d,2ac7cc48-5279-11ea-a477-5fdfe1abba3c
2a9e8ef0-5279-11ea-8539-b7aef1c55a00,2ac7e03e-5279-11ea-b836-47ddf83d74e9
2a8d7412-5279-11ea-897b-d372dc1a39c9,2ac7fd9e-5279-11ea-b4b6-8b900b0e4e90
2a9e4666-5279-11ea-a633-2f915d8483e9,2ac811e4-5279-11ea-96ef-770fdaed157b
2aa34f08-5279-11ea-a9b8-1ffb7408f3f0,2ac82f80-5279-11ea-9e5b-473f10cad997
2ac2917e-5279-11ea-8f0d-9bc4ec84f422,2ac84588-5279-11ea-a44f-93312aa0383d
2abe98c6-5279-11ea-b304-7bdc4b0b1e69,2ac85fe6-5279-11ea-b60b-db78bf291e69
2abe1112-5279-11ea-b87d-bfcdd55a436b,2ac876de-5279-11ea-952c-477b9b7a3294
2aa12692-5279-11ea-bacc-efa3910b31de,2ac893d0-5279-11ea-99b5-3fe4f28ebd12
2a8696b0-5279-11ea-a3ca-1ff8c68fe905,2ac8af96-5279-11ea-817c-7f6611ff94c6
2abcfbb0-5279-11ea-8329-dbcc5841e39a,2ac8c6ca-5279-11ea-a51f-f36957c61610
2a95057e-5279-11ea-adfa-93e1a0ba7344,2ac8ddb8-5279-11ea-9b7e-af94c48421f6
2aa97b30-5279-11ea-ab66-ab22fcf83d1d,2ac8f65e-5279-11ea-91c8-d7fad84bd755
2a89c074-5279-11ea-bc56-9b4ee7d9594f,2ac90ec8-5279-11ea-a081-e34512a8a20a
2a9b7e86-5279-11ea-b6b6-030d031ee9e2,2ac92534-5279-11ea-ab60-6fbd396e1075
2a99daea-5279-11ea-a14d-2f51b21f1e92,2ac93b96-5279-11ea-8dfa-73cb49ba04dc
2ab02c5a-5279-11ea-82ad-c73ccadd11fa,2ac96d0a-5279-11ea-9d38-b76285a59fe9
2a87c198-5279-11ea-869a-6b30eaa8769e,2ac982fe-5279-11ea-ac0e-83bc7e23155e
2ab46ed2-5279-11ea-a2b8-57b8f54dfbcd,2ac99bc2-5279-11ea-bf53-578f056f7a1f
2a9ae098-5279-11ea-b39d-7bddbbf486b1,2ac9bc56-5279-11ea-8112-83cbde603d9e
2ac65c82-5279-11ea-ac79-3716b70c9937,2ac9d3d0-5279-11ea-b92c-ffba40552c25
2a8ad702-5279-11ea-a1a5-1b33f66f8398,2ac9ed3e-5279-11ea-b0ed-b7e0018f2f53
2aa7ca74-5279-11ea-9c34-2fe7ed2934a3,2aca06fc-5279-11ea-8c84-cb31a51189d8
2ac4ffe0-5279-11ea-94b7-17370581a7f9,2aca2060-5279-11ea-b93d-53c9d3c615a8
2a841c6e-5279-11ea-a752-fb7b2ab62db1,2aca5544-5279-11ea-be1c-9f0dc1301285
2aba0c66-5279-11ea-b56d-5bdc3ad2f34c,2aca369a-5279-11ea-8095-f3e17ad32c89
2a9a018c-5279-11ea-95bd-9bb867cf3748,2acaa558-5279-11ea-850f-8371f52a970b
2a89c074-5279-11ea-bc56-9b4ee7d9594f,2acac0c4-5279-11ea-bf46-1756a673ee9e
2a994c2e-5279-11ea-b095-13c016539c2d,2acad8c0-5279-11ea-88b8-0354ef8b356f
2a987862-5279-11ea-be5a-4f127e36f53a,2acaf062-5279-11ea-9df6-9b3a630cb7dc
2a95d602-5279-11ea-ae35-4bb99fe9a368,2acb22f8-5279-11ea-b2ba-435e688f2d16
2a8d3268-5279-11ea-bf63-2bccbff9871a,2acb3d4c-5279-11ea-8239-8fe128379fca
2ab83d0a-5279-11ea-81ad-a7aff56fe8ca,2acb5642-5279-11ea-83a2-9f2dd4c9f429
2abbdfdc-5279-11ea-8cf3-2bb35cfdd729,2acb7532-5279-11ea-9c65-ab458600202d
2a940dfe-5279-11ea-a9ef-ef63ee752d15,2acb8dc4-5279-11ea-9f42-ffc34221a012
2aac28bc-5279-11ea-bbc0-13f3a81de1ac,2acba566-5279-11ea-85bf-53e3ed1d183e
2ab2bce0-5279-11ea-b00f-df92729ec82d,2acbb9f2-5279-11ea-a950-aba28c1f38d1
2a9d4dce-5279-11ea-83a6-13609aff04ad,2acbec74-5279-11ea-b7d5-739cfcaff447
2aac585a-5279-11ea-af67-8732d6cb0152,2acc0ace-5279-11ea-bf4d-139b77879c9b
2a9fde5e-5279-11ea-9005-df46fe226c7d,2acc3760-5279-11ea-bdad-e350bf2a19b1
2a875c6c-5279-11ea-9345-3337e835fe48,2acc502e-5279-11ea-92bf-ef26b8e77007
2ac6373e-5279-11ea-be6e-1b6a174ffa58,2acc6924-5279-11ea-b0f8-6b54e61383e4
2ab090e6-5279-11ea-bcec-ab5e73601cf0,2acc8206-5279-11ea-b696-43f9bc248901
2a7f0fe4-5279-11ea-84f7-c3428e551b42,2acc9976-5279-11ea-aa88-cb2239fc5df3
2a89c074-5279-11ea-bc56-9b4ee7d9594f,2accb014-5279-11ea-93cd-73c976b168a1
2ac2a61e-5279-11ea-92a4-87e87492dc97,2accec46-5279-11ea-b308-03ea1ae84a64
2a8a5e30-5279-11ea-8b42-f7d2fb2f743b,2acd04ce-5279-11ea-aafe-afe2667e03b9
2a962404-5279-11ea-9e1e-0fe144474cd5,2acd221a-5279-11ea-8d98-cb4399467b42
2ac84588-5279-11ea-a44f-93312aa0383d,2acd3c78-5279-11ea-a705-ab1706f33a21
2aad92b0-5279-11ea-9c0c-7ff1bee3de89,2acd56cc-5279-11ea-a942-7bf0689ee68d
2a917800-5279-11ea-8094-af62b0ed85b4,2acd71e8-5279-11ea-9e68-13f126e6a205
2a965348-5279-11ea-8060-6b3a44f5329e,2acd8980-5279-11ea-abe0-6bce25427d6a
2ac66e52-5279-11ea-b3f9-ff49a5e11e54,2acda172-5279-11ea-bedb-ff53d35e19cd
2a81ea66-5279-11ea-899c-33a13346d567,2acdbfc2-5279-11ea-98da-af6eab8c5c31
2a9fbb5e-5279-11ea-a255-5327c6f8c382,2acddc3c-5279-11ea-b895-a3ed4c22bdda
2ab8d74c-5279-11ea-b139-8f98679d2be1,2acdf33e-5279-11ea-8497-236d1e431d9c
2ab820cc-5279-11ea-acd0-1b4f1f735b05,2ace0b1c-5279-11ea-b591-a7fb74c2f808
2a8359dc-5279-11ea-9656-0b9534b35019,2ace23c2-5279-11ea-b109-df3e9d8fd08d
2abfb864-5279-11ea-9d01-afc9b4b2a14c,2ace417c-5279-11ea-955c-8f314d0bafcc
2a887746-5279-11ea-8c5b-c3defe2b80b1,2ace587e-5279-11ea-9537-e79f431a16b7
2a96975e-5279-11ea-ac21-b350535a0ec5,2ace7480-5279-11ea-bbba-97670e785bba
2ab4c184-5279-11ea-aba7-7fd87d44019e,2ace98d4-5279-11ea-aab0-9f659dd76b54
2abf4a28-5279-11ea-ac21-7b414d395da1,2acea50e-5279-11ea-9bb2-8b4bea5d2df9
2ab8994e-5279-11ea-bb6f-07c96f5d14b3,2acec17e-5279-11ea-b00c-138e0f6c9243
2ab2e81e-5279-11ea-bcaa-0be39758171b,2aced6f0-5279-11ea-b60c-9704dd09cea2
2abd57fe-5279-11ea-a423-bba033cf3d82,2aceefa0-5279-11ea-b80b-4790109fcdc2
2abe6892-5279-11ea-9226-83b986983b81,2acf07c4-5279-11ea-a85e-7b84ce7aa248
2a9894fa-5279-11ea-af3e-63e9b9c1ea50,2acf24fc-5279-11ea-86e4-77d3451941e8
2a8fc2da-5279-11ea-ac01-3fd5afabb273,2acf3e6a-5279-11ea-a910-0faf4b0f9215
2accec46-5279-11ea-b308-03ea1ae84a64,2acf56de-5279-11ea-ba45-1f1dd63246c2
2aaef2cc-5279-11ea-89dd-fb61addb2aa9,2acf772c-5279-11ea-9e6c-4b49d85f950d
2a944d00-5279-11ea-9234-e3793fe3318d,2acf93e2-5279-11ea-8795-efd63e978262
2a82335e-5279-11ea-b3fe-270e56e336e3,2acfad50-5279-11ea-a171-1be3816fda87
2a899194-5279-11ea-85de-5f4ce79e3e07,2acfc5b0-5279-11ea-9f79-07dfe862a886
2aa00686-5279-11ea-9dc4-13a65dd64764,2acfe5fe-5279-11ea-b1f8-9fcdc836b09f
2aa04e70-5279-11ea-9369-ab2e927d2a1b,2acffd0a-5279-11ea-a0c6-6b55a7e891cb
2a8c36c4-5279-11ea-95d9-b3d7ecf152c7,2ad02be0-5279-11ea-ae2b-27139d5370ae
2aa362cc-5279-11ea-9bae-93d86452f30e,2ad01344-5279-11ea-bd86-fb466b4563a5
2aa362cc-5279-11ea-9bae-93d86452f30e,2ad05048-5279-11ea-bb00-73e70b2d6b3c
2ac2a61e-5279-11ea-92a4-87e87492dc97,2ad068da-5279-11ea-a956-2f40c02e0b35
2abdf8e4-5279-11ea-a83e-63ebd7f46a70,2ad080a4-5279-11ea-b30a-772e069d6662
2aa6ea64-5279-11ea-931b-9fae520f00ad,2ad097a6-5279-11ea-b167-f37a597a3688
2ac24b6a-5279-11ea-b4ee-a77763583394,2ad0b088-5279-11ea-87c1-974a2c06ffe6
2acda172-5279-11ea-bedb-ff53d35e19cd,2ad0c7e4-5279-11ea-a4d8-d3c644564ddc
2a8e1728-5279-11ea-9a14-03e56cc09a9d,2ad0e468-5279-11ea-9949-c78949826c22
2abece54-5279-11ea-8dbc-cb1709a143af,2ad11c1c-5279-11ea-b330-7beed92169b5
2acc8206-5279-11ea-b696-43f9bc248901,2ad11d2a-5279-11ea-a848-27efaaae550e
2a9db4d0-5279-11ea-a931-0f01bc3ab18a,2ad14002-5279-11ea-a683-1f94ea497244
2ab4050a-5279-11ea-8f3e-33ae6ffedc41,2ad16244-5279-11ea-83ef-4f2e1707d82e
2a98e950-5279-11ea-b54e-6bcf231fab21,2ad17a0e-5279-11ea-93d2-87378256beb9
2abd4110-5279-11ea-bb48-f32d55ad2995,2ad191ec-5279-11ea-975d-4fb701f2adc1
2ac4ffe0-5279-11ea-94b7-17370581a7f9,2ad1bf3c-5279-11ea-8c99-37823956e383
2ac57952-5279-11ea-b6eb-1f7219f90217,2ad1d698-5279-11ea-b5ee-4fc3ca71c5d8
2ac23274-5279-11ea-9e80-73f5b2d3ec94,2ad1eebc-5279-11ea-9f6b-438fda3a6168
2a896304-5279-11ea-842d-07e68317fc78,2ad20640-5279-11ea-96b4-0ff05b6f05c4
2a8aa854-5279-11ea-a33f-5fa8d932d175,2ad21d7e-5279-11ea-b2dc-575bf6611bf8
2ac02664-5279-11ea-9847-bffd8e09d263,2ad23502-5279-11ea-975f-17c588188369
2a826bd0-5279-11ea-b650-5fa604265fcb,2ad24c36-5279-11ea-bf0f-bbad38c5b719
2ac85fe6-5279-11ea-b60b-db78bf291e69,2ad265f4-5279-11ea-9c60-13ada303573f
2a942d5c-5279-11ea-879e-a30032dce30b,2ad287b4-5279-11ea-bd89-c376b77e14be
2acb22f8-5279-11ea-b2ba-435e688f2d16,2ad2ae38-5279-11ea-8f52-d7f31ef198bc
2a9ba85c-5279-11ea-a37e-6382283dee0b,2ad2c616-5279-11ea-8464-c37c5ad6601d
2a8f8022-5279-11ea-b9c4-cfa7724ca901,2ad2e204-5279-11ea-8007-0b60b3f71291
2aa4c824-5279-11ea-bb8a-b7c1330fb0b3,2ad2fe9c-5279-11ea-90b7-63f32413cc0f
2a8284ee-5279-11ea-9bbb-0f52b902790b,2ad31bde-5279-11ea-bc31-e3e0bfb10c27
2aa6bcb0-5279-11ea-b596-13cbb5d26b25,2ad34988-5279-11ea-9585-1b68e7fe16d9
2a84c2ae-5279-11ea-9640-d3c6170d7b9e,2ad3762e-5279-11ea-ac42-8b9a21ff5a0f
2aa5d6f6-5279-11ea-9a61-b3cdb6687409,2ad38b50-5279-11ea-aa1e-1f3988851b96
2a9027c0-5279-11ea-a07e-7f729be2832d,2ad3b620-5279-11ea-a9a8-633f9c1cee3a
2aa8f430-5279-11ea-98d1-9fe6a2f2eb3d,2ad3ceee-5279-11ea-82fd-c390c5025995
2aba8894-5279-11ea-acd2-b3722d7545f8,2ad3fa40-5279-11ea-b898-ab63a565d315
2a960e6a-5279-11ea-ba4c-ebe3f71c3a8c,2ad3e424-5279-11ea-ba3b-ab1f4bffea71
2aa0609a-5279-11ea-98e9-03824bf3bffc,2ad426aa-5279-11ea-a878-c7fb2821be43
2ad02be0-5279-11ea-ae2b-27139d5370ae,2ad41034-5279-11ea-8a45-7ffcc2e55b7d
2abfa04a-5279-11ea-889c-a73db6a225b4,2ad457f6-5279-11ea-a4e9-d7710f515981
2ace587e-5279-11ea-9537-e79f431a16b7,2ad46e08-5279-11ea-a7a3-6fbde36dd8f4
2aa0609a-5279-11ea-98e9-03824bf3bffc,2ad488a2-5279-11ea-a073-ab1e8fcb121d
2a8ff7dc-5279-11ea-873f-e7e329a52e36,2ad4a0bc-5279-11ea-9ec3-eb4c4d23d31e
2ac6d450-5279-11ea-b11b-af67cfbc3b53,2ad4ce5c-5279-11ea-9eba-4307b3ef4add
2a97dce0-5279-11ea-a104-b77132d817d9,2ad4b750-5279-11ea-8bf1-bffb3a13d53a
2ac2bdfc-5279-11ea-a6ff-37022085feb0,2ad4f544-5279-11ea-a61c-07cb42fc0c27
2a810de4-5279-11ea-b2e2-17aa04c36684,2ad50d22-5279-11ea-8117-1353ff8c174c
2acfc5b0-5279-11ea-9f79-07dfe862a886,2ad5436e-5279-11ea-a88e-87c368499795
2aa4dd0a-5279-11ea-84bb-1f6595b77d76,2ad5276c-5279-11ea-a2c0-5f5252fb3d0d
2a826bd0-5279-11ea-b650-5fa604265fcb,2ad58770-5279-11ea-a859-631d25147c64
2a963840-5279-11ea-8e83-ff6dbcafe5e6,2ad59fbc-5279-11ea-9d46-9fcc7a32a2ed
2a99ed14-5279-11ea-9407-1354af1c0984,2ad5b038-5279-11ea-985f-6bcc9d889c41
2a956d8e-5279-11ea-8ebc-eb7973042ada,2ad5dd10-5279-11ea-ba83-6b797bfcc769
2acd04ce-5279-11ea-aafe-afe2667e03b9,2ad5ffe8-5279-11ea-944f-dfe8be6c7568
2ab1c8a8-5279-11ea-8a93-677621fdc506,2ad61e06-5279-11ea-817e-1f915caa9256
2a8df87e-5279-11ea-a735-471c84a377ff,2ad63738-5279-11ea-8fee-6ff4e0c97873
2a99c532-5279-11ea-a005-eb6450e1f6c1,2ad65146-5279-11ea-9776-2b02ec14c9c7
2a8c11e4-5279-11ea-939d-37cf79ab1b01,2ad69098-5279-11ea-b63c-b35f16c709df
2acbec74-5279-11ea-b7d5-739cfcaff447,2ad679fa-5279-11ea-87cd-1be0c8f68510
2ab58b1e-5279-11ea-8841-8f9126bca254,2ad6ab14-5279-11ea-97d5-2b79b148d3f0
2ad5ffe8-5279-11ea-944f-dfe8be6c7568,2ad6c3ec-5279-11ea-96fa-4b1f99871347
2a8346cc-5279-11ea-922e-8f9a3d04cf60,2ad6f150-5279-11ea-af75-8bfb87006461
2a8fc2da-5279-11ea-ac01-3fd5afabb273,2ad6da80-5279-11ea-a522-d310ec3478bd
2abce53a-5279-11ea-ac6e-77f607afacbd,2ad70e42-5279-11ea-b25f-b74f30bf9a96
2a973cf4-5279-11ea-b445-af8b4c04a0ad,2ad72490-5279-11ea-ba5f-777b9e987e21
2a8d9e7e-5279-11ea-9e70-aba7fbb385f0,2ad73b7e-5279-11ea-8465-7395668faff1
2aa2adf0-5279-11ea-9be7-7b7d1d914d1a,2ad76874-5279-11ea-8768-472b4ba74cc4
2ab80b46-5279-11ea-809a-130c45adfab3,2ad781ec-5279-11ea-aa61-0bf1cfb18778
2ac85fe6-5279-11ea-b60b-db78bf291e69,2ad79a38-5279-11ea-938d-7f978e7e25aa
2aa92ce8-5279-11ea-af36-874a0f1763fd,2ad7afaa-5279-11ea-ae2b-bf8e2d8a752a
2abd702c-5279-11ea-9c4f-7f26d86b6798,2ad7c4b8-5279-11ea-aa9a-a7251e631e83
2aaca8aa-5279-11ea-a492-cbcc3c34a14e,2ad7da98-5279-11ea-8e9d-df590850d823
2aa43418-5279-11ea-808d-c33673be10ca,2ad82944-5279-11ea-b077-3b4a21d28274
2a9193a8-5279-11ea-a6cd-ebd35274572d,2ad80d92-5279-11ea-9bb3-f7094743140f
2aaa04e2-5279-11ea-8750-674dfbd7c19b,2ad84258-5279-11ea-a307-3ba43e342e10
2a91350c-5279-11ea-a341-fb7bbdf537e8,2ad858ec-5279-11ea-b9d1-ebb86aadc9d7
2a9c3100-5279-11ea-a045-534e10b925d5,2ad87ce6-5279-11ea-9edf-b3dfcf839222
2aaf1cf2-5279-11ea-91d3-87ecc281ca59,2ad89578-5279-11ea-aa91-5b4052066ed1
2acaf062-5279-11ea-9df6-9b3a630cb7dc,2ad8b382-5279-11ea-b6cb-bff2b5e47677
2a917800-5279-11ea-8094-af62b0ed85b4,2ad8c958-5279-11ea-8593-efcccfed98d2
2a89a648-5279-11ea-81ec-2bd3a88980c0,2ad90f80-5279-11ea-88db-7bf9d0ee5488
2a8a0714-5279-11ea-a355-ff012dd5d045,2ad8f464-5279-11ea-883e-cb6d6c37c78b
2aad6448-5279-11ea-8767-b7dae7a8c5e6,2ad92966-5279-11ea-a95b-7f34f94e023b
2ad488a2-5279-11ea-a073-ab1e8fcb121d,2ad93e4c-5279-11ea-9fe4-2fa71025e26c
2abc97ec-5279-11ea-9d16-dbd8c5ea1e98,2ad95300-5279-11ea-8215-2b7fd478c6c4
2a83c462-5279-11ea-b384-371dee2b8bdb,2ad96c32-5279-11ea-8c88-cb7c701b148c
2a971ac6-5279-11ea-97c6-d3b886301a0e,2ad98136-5279-11ea-9289-5787d0d294b3
2aacf7c4-5279-11ea-ab5b-dfbecb92a983,2ad996f8-5279-11ea-9c4c-6be2759cd9be
2a9e64fc-5279-11ea-8027-6b903386c537,2ad9ad5a-5279-11ea-ae5a-6f3510d56531
2ac7fd9e-5279-11ea-b4b6-8b900b0e4e90,2ad9c89e-5279-11ea-9a88-5f659325a26a
2a8c11e4-5279-11ea-939d-37cf79ab1b01,2ad9e0cc-5279-11ea-a8ad-6f59e3055109
2ac8f65e-5279-11ea-91c8-d7fad84bd755,2ad9fe7c-5279-11ea-8764-27be86c915ce
2ad14002-5279-11ea-a683-1f94ea497244,2ada1614-5279-11ea-8c8d-c332447bd5e0
2ad6f150-5279-11ea-af75-8bfb87006461,2ada2d52-5279-11ea-b273-17de326ccf98
2a903e04-5279-11ea-9531-83c55fbf1cec,2ada4260-5279-11ea-8228-5f26b211e2ab
2ab87a72-5279-11ea-9f13-e36cf004fc1d,2ada57c8-5279-11ea-831b-b326eb4d0ea7
2a8ba1b4-5279-11ea-9b65-efd35f8453b7,2ada6d58-5279-11ea-9555-4bd9082e2159
2a8f3d56-5279-11ea-a92b-1b56a4b012b1,2ada9f80-5279-11ea-a2c3-bfc3d32ccbdc
2ad98136-5279-11ea-9289-5787d0d294b3,2ada872a-5279-11ea-86ef-338cc4d79e69
2a9cd6fa-5279-11ea-9899-e31d2f9265db,2adab4c0-5279-11ea-8a9c-73de4399f535
2a9fde5e-5279-11ea-9005-df46fe226c7d,2adac9e2-5279-11ea-9db4-730e32aa0c0b
2a8302ca-5279-11ea-8108-0bf72907ee2f,2adaf12e-5279-11ea-b79e-c3c16a787258
2ac2a61e-5279-11ea-92a4-87e87492dc97,2adb0646-5279-11ea-8223-3f0d731f094c
2a9aa8ee-5279-11ea-ba62-bf017c43d32d,2adb21e4-5279-11ea-b988-5f83ff784bf1
2aa68326-5279-11ea-9f22-73fbf512945f,2adb3760-5279-11ea-808f-7fff5b33c5b2
2a987862-5279-11ea-be5a-4f127e36f53a,2adb6618-5279-11ea-9407-f770b72419c7
2a91eb00-5279-11ea-b3eb-0ff83eafd586,2adb4df4-5279-11ea-9c05-07ee080f4566
2a8b6bfe-5279-11ea-88a0-7355fe24bae2,2adb9a20-5279-11ea-85b1-f386e73295d9
2ac5d4ba-5279-11ea-a9ee-8fd6363ec7a5,2adb7f04-5279-11ea-bad2-dfdaeeeb644b
2abece54-5279-11ea-8dbc-cb1709a143af,2adbbbc2-5279-11ea-8045-d7c947e46d4a
2aa2cb50-5279-11ea-827a-8f37000d8ba9,2adbd67a-5279-11ea-8d6f-d7c54640dd49
2aa2cb50-5279-11ea-827a-8f37000d8ba9,2adc071c-5279-11ea-90ba-17bed5830feb
2ac76a82-5279-11ea-9d0b-9b13d26ae4cf,2adc2030-5279-11ea-809c-eb3f1f78e438
2a8fc2da-5279-11ea-ac01-3fd5afabb273,2adc4b96-5279-11ea-b388-c73098a3a510
2aa24f5e-5279-11ea-9398-f74b7b03cc99,2adc4bdc-5279-11ea-8691-1bf11ee6a084
2abab486-5279-11ea-b00c-4b875868a47a,2adc6374-5279-11ea-bf61-e7f49ef47cd0
2ac42958-5279-11ea-bbf8-e34516a4e0f7,2adc7c60-5279-11ea-bb0a-0f4ccae313ac
2a97f1d0-5279-11ea-94aa-1b3cc36d12d7,2adc9236-5279-11ea-a1b5-4bbf347e040c
2abece54-5279-11ea-8dbc-cb1709a143af,2adca730-5279-11ea-aa00-afe8e5b0ba43
2acb8dc4-5279-11ea-9f42-ffc34221a012,2adcc008-5279-11ea-a136-639c384a73d3
2ad4f544-5279-11ea-a61c-07cb42fc0c27,2adcd76e-5279-11ea-ad77-f7f8e2051d1c
2ab777e4-5279-11ea-a097-33fa0a1a86fa,2adcec72-5279-11ea-8a91-4f7cb8ba54fe
2ad01344-5279-11ea-bd86-fb466b4563a5,2add039c-5279-11ea-af15-6fe30dc926a1
2ab3b1c2-5279-11ea-ae9f-d3a80e475b07,2add1f3a-5279-11ea-8467-3b3455745817
2ad7da98-5279-11ea-8e9d-df590850d823,2add3a4c-5279-11ea-8180-672f14cd959b
2a937740-5279-11ea-a170-df19e5b444b9,2add5946-5279-11ea-9cca-cfdb5a19f3ce
2adb0646-5279-11ea-8223-3f0d731f094c,2add711a-5279-11ea-85f2-778f2ec815b1
2a92833a-5279-11ea-8767-6b084ceb51e2,2add8740-5279-11ea-ae38-9b2c06b4f94c
2a87e272-5279-11ea-9799-53e2d27572f3,2adda702-5279-11ea-bcbe-237fce940fa4
2aa1b80a-5279-11ea-ab3d-d7f3217d05af,2addbdc8-5279-11ea-a7a3-578e8a9b1ec5
2ac9d3d0-5279-11ea-b92c-ffba40552c25,2adde8fc-5279-11ea-8573-5b8464bb37a8
2aa08c28-5279-11ea-927c-bf456c42cc7b,2ade03e6-5279-11ea-a286-2f1ead2629a4
2ac7ab1e-5279-11ea-9fca-dbf49b7e7b2b,2ade1bb0-5279-11ea-b5a5-ef11fef810ee
2ac5900e-5279-11ea-9f87-cfe43c73e82e,2ade330c-5279-11ea-90b8-23fbd4546d85
2ad59fbc-5279-11ea-9d46-9fcc7a32a2ed,2ade5d14-5279-11ea-a021-dfb6639f737e
2ab0ae00-5279-11ea-b7cc-a7338db3afa5,2ade7f88-5279-11ea-a40a-9338d570bb31
2a940dfe-5279-11ea-a9ef-ef63ee752d15,2ade916c-5279-11ea-bf19-d3339ffa2444
2a899194-5279-11ea-85de-5f4ce79e3e07,2adea788-5279-11ea-80f2-8753a3da5cbf
2a84c2ae-5279-11ea-9640-d3c6170d7b9e,2aded488-5279-11ea-af0d-5ff4842d55a9
2a90e700-5279-11ea-b38d-ab74d5a9feff,2adeedf6-5279-11ea-8e5b-6fe748efec50
2a917800-5279-11ea-8094-af62b0ed85b4,2adf05fc-5279-11ea-a30d-3f19829b31c5
2a87c198-5279-11ea-869a-6b30eaa8769e,2adf291a-5279-11ea-850a-57043c65e341
2aa0a10e-5279-11ea-9c0d-fbdef2a542cc,2adf418e-5279-11ea-9332-4386698fe0ac
2ab8c20c-5279-11ea-8c24-d756c335cf88,2adf68ee-5279-11ea-a9f6-dbf224a93e80
2ac7e03e-5279-11ea-b836-47ddf83d74e9,2adf967a-5279-11ea-8648-d3a3eaf28130
2acba566-5279-11ea-85bf-53e3ed1d183e,2adf8216-5279-11ea-8bb5-03406f5fc372
2a9ae098-5279-11ea-b39d-7bddbbf486b1,2adfad18-5279-11ea-9a66-370ba8a676f0
2a896304-5279-11ea-842d-07e68317fc78,2adfc384-5279-11ea-ba35-6b1f563c6f3f
2ad4b750-5279-11ea-8bf1-bffb3a13d53a,2adfd8d8-5279-11ea-aba0-5fd4ad9e4f81
2a945ad4-5279-11ea-9213-db478c09034a,2adffe12-5279-11ea-a1ba-ab561bc2937b
2aa4458e-5279-11ea-a1d7-9f95d790e3c2,2ae01474-5279-11ea-a496-67e1f03112e7
2ac6b3e4-5279-11ea-a76f-d3017e44c423,2ae02b62-5279-11ea-a0a5-879ea7db5154
2a9a1fbe-5279-11ea-b4ee-5f033ddb6190,2ae04282-5279-11ea-b0a7-1bd2c946c8d1
2ad98136-5279-11ea-9289-5787d0d294b3,2ae05b64-5279-11ea-b0ec-aff4466ac9d2
2ab0ca02-5279-11ea-8f7d-ff57588ffd0e,2ae07fb8-5279-11ea-87fd-235e9a52a459
2abc35c2-5279-11ea-b4f4-0ba4669090d3,2ae0912e-5279-11ea-b037-bf3df18415cf
2a9838ca-5279-11ea-b682-cb06c47a30db,2ae0a93e-5279-11ea-ae5d-7bc0f4440a7d
2a9c0d42-5279-11ea-b77d-13fbad8a65b9,2ae0c518-5279-11ea-802e-77243dead9ce
2a816ed8-5279-11ea-b02a-ef8a52179706,2ae0f420-5279-11ea-af12-ef2ff14f72d0
2a9a34e0-5279-11ea-ace0-9f5b84056f42,2ae0de5e-5279-11ea-a9e0-d3208fd2c93a
2a90e700-5279-11ea-b38d-ab74d5a9feff,2ae1271a-5279-11ea-8f61-37794a675dbc
2ad11d2a-5279-11ea-a848-27efaaae550e,2ae16810-5279-11ea-842a-6f6e9e83390a
2a970824-5279-11ea-8380-6f90c1721294,2ae14b82-5279-11ea-a013-8754d92a49d3
2ad5b038-5279-11ea-985f-6bcc9d889c41,2ae196c8-5279-11ea-901a-a3beddeea122
2ad69098-5279-11ea-b63c-b35f16c709df,2ae1c6a2-5279-11ea-a9c1-7b3ea6655053
2ad7c4b8-5279-11ea-aa9a-a7251e631e83,2ae1d656-5279-11ea-8089-f399dc8bae64
2adca730-5279-11ea-aa00-afe8e5b0ba43,2ae2023e-5279-11ea-b95b-373b025f98af
2a84d776-5279-11ea-971b-bffa5a6fb8a6,2ae217ec-5279-11ea-a914-b79c54692466
2ad90f80-5279-11ea-88db-7bf9d0ee5488,2ae22db8-5279-11ea-85a3-cf8ec9132795
2aa4dd0a-5279-11ea-84bb-1f6595b77d76,2ae24c26-5279-11ea-97c3-abb579d77e16
2accb014-5279-11ea-93cd-73c976b168a1,2ae2649a-5279-11ea-9f5a-ff170b10ad16
2a938be0-5279-11ea-bf28-bb890e9b5b18,2ae291ae-5279-11ea-974f-db56b42cd079
2a922fa2-5279-11ea-bf57-9796cc8e4260,2ae2ab6c-5279-11ea-b4fa-e74ecba406cc
2aa1d092-5279-11ea-b710-37a4b36fc3d5,2ae27b56-5279-11ea-9019-df4cb51867c9
2ac4c9bc-5279-11ea-8fe6-cb35a267e23b,2ae2f5cc-5279-11ea-a190-fb59963ef5bb
2adfd8d8-5279-11ea-aba0-5fd4ad9e4f81,2ae30968-5279-11ea-9701-4fe2b196468f
2ad16244-5279-11ea-83ef-4f2e1707d82e,2ae31fca-5279-11ea-9688-336c12963518
2a8ba1b4-5279-11ea-9b65-efd35f8453b7,2ae34b9e-5279-11ea-8353-47e1aeeca7b1
2aab7d7c-5279-11ea-a188-9ffdcc6b3c4d,2ae33668-5279-11ea-a299-3b66173d1b34
2aa5eb78-5279-11ea-9709-c3eacea255c1,2ae37f06-5279-11ea-9318-ef014a92ee23
2a940dfe-5279-11ea-a9ef-ef63ee752d15,2ae39ce8-5279-11ea-b9c0-67fa2a4f8270
2a9e3054-5279-11ea-b567-3b3355432e68,2ae3b2b4-5279-11ea-823d-3bb24f6d35e4
2a92a61c-5279-11ea-834f-8774bf67cbae,2ae3cbc8-5279-11ea-8a58-5b49d98c338c
2ac6373e-5279-11ea-be6e-1b6a174ffa58,2ae3ff6c-5279-11ea-af22-db8cd95a0530
2a8efd8c-5279-11ea-984c-6b96c6342f7c,2ae41826-5279-11ea-9d68-37f5415362a0
2a855246-5279-11ea-9686-0f8f8db2a2d1,2ae44260-5279-11ea-9f47-876ff51f59d9
2ac03ac8-5279-11ea-a1ed-5fa58ce21be0,2ae4681c-5279-11ea-96d6-13fa56cbdf18
2a8cd750-5279-11ea-89ef-674ade0abaf2,2ae48a4a-5279-11ea-8614-33da0719a9c3
2aabb5b2-5279-11ea-9db9-677d4d2dc545,2ae4a6f6-5279-11ea-b617-0b27a80892f5
2ab13a8c-5279-11ea-a11d-9f3926b1c948,2ae4c0dc-5279-11ea-98d5-4b03a392d02a
2a957efa-5279-11ea-9012-73a04eb369a4,2ae4dde2-5279-11ea-8db0-0304e28c25e8
2a9a7932-5279-11ea-9c4e-d7116114b6e6,2ae50f9c-5279-11ea-933d-6b84fedecbbc
2a9bd53e-5279-11ea-aad0-37409eeaab17,2ae524a0-5279-11ea-8f28-47817aaf9aa0
2aa286e0-5279-11ea-af70-af319594dfb3,2ae54872-5279-11ea-9a96-fb396a8ef4e8
2ad84258-5279-11ea-a307-3ba43e342e10,2ae5725c-5279-11ea-88aa-e3bfcc848ee1
2ad4b750-5279-11ea-8bf1-bffb3a13d53a,2ae58a26-5279-11ea-b0c8-cb1cd33362b0
2abf0e0a-5279-11ea-812e-53f5b5f788c1,2ae5d076-5279-11ea-8181-c77fbcc92515
2aa10fb8-5279-11ea-93d9-0b38b58fa33f,2ae5e408-5279-11ea-9473-ab760f7c5948
2aaea07e-5279-11ea-ac76-c72f2dd861f7,2ae5f8b2-5279-11ea-88ae-53083b73fde9
2a98ff62-5279-11ea-b9fc-1b85db4378ed,2ae65456-5279-11ea-9fad-e7380a3b4cd1
2acb3d4c-5279-11ea-8239-8fe128379fca,2ae645d8-5279-11ea-98a7-7b56c78ff122
2aa8f430-5279-11ea-98d1-9fe6a2f2eb3d,2ae6695a-5279-11ea-8be9-432322233715
2a9b0d2a-5279-11ea-8b2f-773590b9b0b6,2ae6b554-5279-11ea-ad48-57fd0160c259
2ad69098-5279-11ea-b63c-b35f16c709df,2ae6d688-5279-11ea-bc1c-174d7120d9bf
2aade15c-5279-11ea-97d7-4bf422397838,2ae6c6c0-5279-11ea-b3a8-13313d7de3ca
2acbec74-5279-11ea-b7d5-739cfcaff447,2ae6ecfe-5279-11ea-8858-0b8e0d414cde
2a99daea-5279-11ea-a14d-2f51b21f1e92,2ae70248-5279-11ea-9aa9-db756810950e
2ac23274-5279-11ea-9e80-73f5b2d3ec94,2ae71ba2-5279-11ea-a2fb-4bf1f74d619a
2abe4f9c-5279-11ea-836b-1b32cf5c56c2,2ae734a2-5279-11ea-a414-03f18f11fd9c
2ac2ea70-5279-11ea-9c8f-4b6d0ebfecdb,2ae754fa-5279-11ea-b103-7b5d325c4623
2a9e7942-5279-11ea-8e1e-97d60913be4d,2ae76da0-5279-11ea-82db-53c55a9e25d5
2a8a1c40-5279-11ea-9d40-f37f13d8a238,2ae78a74-5279-11ea-a086-5fbec8284011
2aa57422-5279-11ea-8e32-e3e65fc222d3,2ae7a46e-5279-11ea-9444-e3749511b0ee
2a8e9a2c-5279-11ea-a458-0f67af079044,2ae7c44e-5279-11ea-9f66-d71f46e8ca7d
2aaa364c-5279-11ea-a1a3-736227c34c4e,2ae7da2e-5279-11ea-94c1-87bf81334658
2a853784-5279-11ea-bce1-9baafe84aea3,2ae7f11c-5279-11ea-9b09-83a60a078823
2acd56cc-5279-11ea-a942-7bf0689ee68d,2ae80698-5279-11ea-ae21-b7d1ac4fb877
2aced6f0-5279-11ea-b60c-9704dd09cea2,2ae828b2-5279-11ea-aa0c-53b1affa1dad
2ae7da2e-5279-11ea-94c1-87bf81334658,2ae83f14-5279-11ea-833c-87daabfe21a6
2a8d7412-5279-11ea-897b-d372dc1a39c9,2ae856a2-5279-11ea-87e6-ebbc34771005
2aa10fb8-5279-11ea-93d9-0b38b58fa33f,2ae86d04-5279-11ea-bc6c-6395cc29f732
2a98a7ce-5279-11ea-8fd1-531a3c3c8a59,2ae882c6-5279-11ea-aece-a7e59274ecbc
2aa5eb78-5279-11ea-9709-c3eacea255c1,2ae897de-5279-11ea-b24c-cb4cc90178dd
2ac24b6a-5279-11ea-b4ee-a77763583394,2ae8c60a-5279-11ea-a174-4b707ed4780f
2ae80698-5279-11ea-ae21-b7d1ac4fb877,2ae8dad2-5279-11ea-a4d8-5b75248ec1c0
2ab1a738-5279-11ea-aaaa-f391df292b04,2ae8fe5e-5279-11ea-8d73-531bc2e9ff63
2ad93e4c-5279-11ea-9fe4-2fa71025e26c,2ae9299c-5279-11ea-bb02-2fcb17c8ca83
2aded488-5279-11ea-af0d-5ff4842d55a9,2ae9456c-5279-11ea-bb21-db1fc86c1e8a
2abdf8e4-5279-11ea-a83e-63ebd7f46a70,2ae9670e-5279-11ea-9154-57a3d61b286c
2a97820e-5279-11ea-ba8a-470f342ec591,2ae98b44-5279-11ea-94fc-53d7c6650ba3
2ad2ae38-5279-11ea-8f52-d7f31ef198bc,2ae9adae-5279-11ea-965d-dbe12fe99c93
2ace417c-5279-11ea-955c-8f314d0bafcc,2ae9c640-5279-11ea-b757-0fd6540419f8
2ace98d4-5279-11ea-aab0-9f659dd76b54,2ae9e03a-5279-11ea-ad6c-b3517f248ed8
2aaa364c-5279-11ea-a1a3-736227c34c4e,2aea02d6-5279-11ea-8376-87ab637824fe
2a938be0-5279-11ea-bf28-bb890e9b5b18,2aea1f46-5279-11ea-b536-c79c94344d17
2aca2060-5279-11ea-b93d-53c9d3c615a8,2aea35ee-5279-11ea-89d4-932570398304
2a916310-5279-11ea-a679-7384e901db6d,2aea58f8-5279-11ea-a31b-23d8b1a3eb81
2a9b5f0a-5279-11ea-bd6f-077b83d9e54b,2aea757c-5279-11ea-9c29-0b83567e593b
2ac24b6a-5279-11ea-b4ee-a77763583394,2aea8bca-5279-11ea-8742-9f9d9b01f1a9
2a7ff648-5279-11ea-9427-e71e0e11ee73,2aeaa998-5279-11ea-bfc9-77aed2750a2d
2a9c89de-5279-11ea-a47d-7bc7f89af3a6,2aead3d2-5279-11ea-99c8-8f74a2c1d21b
2ab777e4-5279-11ea-a097-33fa0a1a86fa,2aeaeb88-5279-11ea-82c4-1b61c3756c3a
2aa18cf4-5279-11ea-85aa-f3ef83af20fa,2aeb1e28-5279-11ea-abaa-33e81919945f
2aaa83f4-5279-11ea-bcc9-3f49de46dbc2,2aeb1022-5279-11ea-9e1e-27fb249cc422
2a9ae098-5279-11ea-b39d-7bddbbf486b1,2aeb431c-5279-11ea-aa95-6f18d8c4bed2
2a9edce8-5279-11ea-b581-f3259b13cf8a,2aeb76fc-5279-11ea-a636-cf32f7a7953b
2abe1112-5279-11ea-b87d-bfcdd55a436b,2aeb89bc-5279-11ea-8439-a7fc4ef9a12f
2ac00f44-5279-11ea-a0a1-8bb86496dbfe,2aeba096-5279-11ea-b757-ff90433c3015
2a9916e6-5279-11ea-ad70-7b193478786b,2aebcf62-5279-11ea-9579-23958a7199fc
2ac76a82-5279-11ea-9d0b-9b13d26ae4cf,2aebe3d0-5279-11ea-be92-877d7fb152c6
2a98637c-5279-11ea-b4c1-efe381c27347,2aebf9f6-5279-11ea-b8e7-67b54a35f0b8
2ad38b50-5279-11ea-aa1e-1f3988851b96,2aec2188-5279-11ea-aae7-7b69350557e1
2ac7ab1e-5279-11ea-9fca-dbf49b7e7b2b,2aec3fd8-5279-11ea-941f-47e5ada70e09
2a97f1d0-5279-11ea-94aa-1b3cc36d12d7,2aec55ae-5279-11ea-90f4-3f08b9a400ea
2abf0e0a-5279-11ea-812e-53f5b5f788c1,2aec75de-5279-11ea-b785-a7a0b4a3728e
2a9d37da-5279-11ea-b5a6-43c892525926,2aec9942-5279-11ea-8756-a77d590b69ea
2adbbbc2-5279-11ea-8045-d7c947e46d4a,2aecb4e0-5279-11ea-a253-b78e9749f149
2a9db4d0-5279-11ea-a931-0f01bc3ab18a,2aeccfe8-5279-11ea-a8cc-338e185d7ed2
2aeaa998-5279-11ea-bfc9-77aed2750a2d,2aece7f8-5279-11ea-bd7a-67b5a6cc5d9e
