RunID,Tick,ActiveAgentsPerTick
run-2020-2-18-16-41-28.36334896,0,17
run-2020-2-18-16-41-28.36334896,1,19
run-2020-2-18-16-41-28.36334896,2,20
run-2020-2-18-16-41-28.36334896,3,22
run-2020-2-18-16-41-28.36334896,4,19
run-2020-2-18-16-41-28.36334896,5,18
run-2020-2-18-16-41-28.36334896,6,20
run-2020-2-18-16-41-28.36334896,7,20
run-2020-2-18-16-41-28.36334896,8,19
run-2020-2-18-16-41-28.36334896,9,22
run-2020-2-18-16-41-28.36334896,10,23
run-2020-2-18-16-41-28.36334896,11,22
run-2020-2-18-16-41-28.36334896,12,31
run-2020-2-18-16-41-28.36334896,13,30
run-2020-2-18-16-41-28.36334896,14,32
run-2020-2-18-16-41-28.36334896,15,32
run-2020-2-18-16-41-28.36334896,16,29
run-2020-2-18-16-41-28.36334896,17,28
run-2020-2-18-16-41-28.36334896,18,31
run-2020-2-18-16-41-28.36334896,19,36
run-2020-2-18-16-41-28.36334896,20,38
run-2020-2-18-16-41-28.36334896,21,34
run-2020-2-18-16-41-28.36334896,22,34
run-2020-2-18-16-41-28.36334896,23,34
run-2020-2-18-16-41-28.36334896,24,34
run-2020-2-18-16-41-28.36334896,25,35
run-2020-2-18-16-41-28.36334896,26,34
run-2020-2-18-16-41-28.36334896,27,35
run-2020-2-18-16-41-28.36334896,28,35
run-2020-2-18-16-41-28.36334896,29,34
run-2020-2-18-16-41-28.36334896,30,40
run-2020-2-18-16-41-28.36334896,31,43
run-2020-2-18-16-41-28.36334896,32,43
run-2020-2-18-16-41-28.36334896,33,39
run-2020-2-18-16-41-28.36334896,34,46
run-2020-2-18-16-41-28.36334896,35,52
run-2020-2-18-16-41-28.36334896,36,52
run-2020-2-18-16-41-28.36334896,37,52
run-2020-2-18-16-41-28.36334896,38,55
run-2020-2-18-16-41-28.36334896,39,55
run-2020-2-18-16-41-28.36334896,40,57
run-2020-2-18-16-41-28.36334896,41,57
run-2020-2-18-16-41-28.36334896,42,58
run-2020-2-18-16-41-28.36334896,43,60
run-2020-2-18-16-41-28.36334896,44,59
run-2020-2-18-16-41-28.36334896,45,55
run-2020-2-18-16-41-28.36334896,46,52
run-2020-2-18-16-41-28.36334896,47,56
run-2020-2-18-16-41-28.36334896,48,56
run-2020-2-18-16-41-28.36334896,49,53
run-2020-2-18-16-41-28.36334896,50,54
run-2020-2-18-16-41-28.36334896,51,49
run-2020-2-18-16-41-28.36334896,52,52
run-2020-2-18-16-41-28.36334896,53,52
run-2020-2-18-16-41-28.36334896,54,52
run-2020-2-18-16-41-28.36334896,55,51
run-2020-2-18-16-41-28.36334896,56,53
run-2020-2-18-16-41-28.36334896,57,49
run-2020-2-18-16-41-28.36334896,58,47
run-2020-2-18-16-41-28.36334896,59,45
run-2020-2-18-16-41-28.36334896,60,47
run-2020-2-18-16-41-28.36334896,61,50
run-2020-2-18-16-41-28.36334896,62,52
run-2020-2-18-16-41-28.36334896,63,56
run-2020-2-18-16-41-28.36334896,64,60
run-2020-2-18-16-41-28.36334896,65,55
run-2020-2-18-16-41-28.36334896,66,51
run-2020-2-18-16-41-28.36334896,67,49
run-2020-2-18-16-41-28.36334896,68,49
run-2020-2-18-16-41-28.36334896,69,49
run-2020-2-18-16-41-28.36334896,70,46
run-2020-2-18-16-41-28.36334896,71,45
run-2020-2-18-16-41-28.36334896,72,46
run-2020-2-18-16-41-28.36334896,73,49
run-2020-2-18-16-41-28.36334896,74,48
run-2020-2-18-16-41-28.36334896,75,50
run-2020-2-18-16-41-28.36334896,76,50
run-2020-2-18-16-41-28.36334896,77,48
run-2020-2-18-16-41-28.36334896,78,43
run-2020-2-18-16-41-28.36334896,79,46
run-2020-2-18-16-41-28.36334896,80,45
run-2020-2-18-16-41-28.36334896,81,45
run-2020-2-18-16-41-28.36334896,82,45
run-2020-2-18-16-41-28.36334896,83,44
run-2020-2-18-16-41-28.36334896,84,40
run-2020-2-18-16-41-28.36334896,85,42
run-2020-2-18-16-41-28.36334896,86,45
run-2020-2-18-16-41-28.36334896,87,44
run-2020-2-18-16-41-28.36334896,88,46
run-2020-2-18-16-41-28.36334896,89,44
run-2020-2-18-16-41-28.36334896,90,48
run-2020-2-18-16-41-28.36334896,91,45
run-2020-2-18-16-41-28.36334896,92,45
run-2020-2-18-16-41-28.36334896,93,50
run-2020-2-18-16-41-28.36334896,94,53
run-2020-2-18-16-41-28.36334896,95,53
run-2020-2-18-16-41-28.36334896,96,51
run-2020-2-18-16-41-28.36334896,97,51
run-2020-2-18-16-41-28.36334896,98,50
run-2020-2-18-16-41-28.36334896,99,52
run-2020-2-18-16-41-28.36334896,100,49
