RunID,Tick,AllAgents,Active,Inactive
run-2020-2-18-13-54-50.174271106,0,14,11,3
run-2020-2-18-13-54-50.174271106,1,19,15,4
run-2020-2-18-13-54-50.174271106,2,21,17,4
run-2020-2-18-13-54-50.174271106,3,25,16,9
run-2020-2-18-13-54-50.174271106,4,27,16,11
run-2020-2-18-13-54-50.174271106,5,28,17,11
run-2020-2-18-13-54-50.174271106,6,30,16,14
run-2020-2-18-13-54-50.174271106,7,32,15,17
run-2020-2-18-13-54-50.174271106,8,33,16,17
run-2020-2-18-13-54-50.174271106,9,34,15,19
run-2020-2-18-13-54-50.174271106,10,40,21,19
run-2020-2-18-13-54-50.174271106,11,44,22,22
run-2020-2-18-13-54-50.174271106,12,45,20,25
run-2020-2-18-13-54-50.174271106,13,50,22,28
run-2020-2-18-13-54-50.174271106,14,55,26,29
run-2020-2-18-13-54-50.174271106,15,59,24,35
run-2020-2-18-13-54-50.174271106,16,64,26,38
run-2020-2-18-13-54-50.174271106,17,66,26,40
run-2020-2-18-13-54-50.174271106,18,67,27,40
run-2020-2-18-13-54-50.174271106,19,68,25,43
run-2020-2-18-13-54-50.174271106,20,72,27,45
run-2020-2-18-13-54-50.174271106,21,73,28,45
run-2020-2-18-13-54-50.174271106,22,77,30,47
run-2020-2-18-13-54-50.174271106,23,79,31,48
run-2020-2-18-13-54-50.174271106,24,86,36,50
run-2020-2-18-13-54-50.174271106,25,89,36,53
run-2020-2-18-13-54-50.174271106,26,93,38,55
run-2020-2-18-13-54-50.174271106,27,95,38,57
run-2020-2-18-13-54-50.174271106,28,102,44,58
run-2020-2-18-13-54-50.174271106,29,107,47,60
run-2020-2-18-13-54-50.174271106,30,107,43,64
run-2020-2-18-13-54-50.174271106,31,109,43,66
run-2020-2-18-13-54-50.174271106,32,117,47,70
run-2020-2-18-13-54-50.174271106,33,121,49,72
run-2020-2-18-13-54-50.174271106,34,125,51,74
run-2020-2-18-13-54-50.174271106,35,126,48,78
run-2020-2-18-13-54-50.174271106,36,130,50,80
run-2020-2-18-13-54-50.174271106,37,134,52,82
run-2020-2-18-13-54-50.174271106,38,135,51,84
run-2020-2-18-13-54-50.174271106,39,139,51,88
run-2020-2-18-13-54-50.174271106,40,142,53,89
run-2020-2-18-13-54-50.174271106,41,144,53,91
run-2020-2-18-13-54-50.174271106,42,146,50,96
run-2020-2-18-13-54-50.174271106,43,149,51,98
run-2020-2-18-13-54-50.174271106,44,151,52,99
run-2020-2-18-13-54-50.174271106,45,154,52,102
run-2020-2-18-13-54-50.174271106,46,160,56,104
run-2020-2-18-13-54-50.174271106,47,165,56,109
run-2020-2-18-13-54-50.174271106,48,166,54,112
run-2020-2-18-13-54-50.174271106,49,169,51,118
run-2020-2-18-13-54-50.174271106,50,171,51,120
run-2020-2-18-13-54-50.174271106,51,175,47,128
run-2020-2-18-13-54-50.174271106,52,177,46,131
run-2020-2-18-13-54-50.174271106,53,178,44,134
run-2020-2-18-13-54-50.174271106,54,180,43,137
run-2020-2-18-13-54-50.174271106,55,183,44,139
run-2020-2-18-13-54-50.174271106,56,186,44,142
run-2020-2-18-13-54-50.174271106,57,192,47,145
run-2020-2-18-13-54-50.174271106,58,194,45,149
run-2020-2-18-13-54-50.174271106,59,196,42,154
run-2020-2-18-13-54-50.174271106,60,201,45,156
run-2020-2-18-13-54-50.174271106,61,202,43,159
run-2020-2-18-13-54-50.174271106,62,206,44,162
run-2020-2-18-13-54-50.174271106,63,213,50,163
run-2020-2-18-13-54-50.174271106,64,215,47,168
run-2020-2-18-13-54-50.174271106,65,220,48,172
run-2020-2-18-13-54-50.174271106,66,222,46,176
run-2020-2-18-13-54-50.174271106,67,226,49,177
run-2020-2-18-13-54-50.174271106,68,233,53,180
run-2020-2-18-13-54-50.174271106,69,239,58,181
run-2020-2-18-13-54-50.174271106,70,244,58,186
run-2020-2-18-13-54-50.174271106,71,246,51,195
run-2020-2-18-13-54-50.174271106,72,247,48,199
run-2020-2-18-13-54-50.174271106,73,252,48,204
run-2020-2-18-13-54-50.174271106,74,258,52,206
run-2020-2-18-13-54-50.174271106,75,263,56,207
run-2020-2-18-13-54-50.174271106,76,265,52,213
run-2020-2-18-13-54-50.174271106,77,266,47,219
run-2020-2-18-13-54-50.174271106,78,272,49,223
run-2020-2-18-13-54-50.174271106,79,274,44,230
run-2020-2-18-13-54-50.174271106,80,278,47,231
run-2020-2-18-13-54-50.174271106,81,280,47,233
run-2020-2-18-13-54-50.174271106,82,286,52,234
run-2020-2-18-13-54-50.174271106,83,288,51,237
run-2020-2-18-13-54-50.174271106,84,295,57,238
run-2020-2-18-13-54-50.174271106,85,296,55,241
run-2020-2-18-13-54-50.174271106,86,302,58,244
run-2020-2-18-13-54-50.174271106,87,304,58,246
run-2020-2-18-13-54-50.174271106,88,305,55,250
run-2020-2-18-13-54-50.174271106,89,312,59,253
run-2020-2-18-13-54-50.174271106,90,314,59,255
run-2020-2-18-13-54-50.174271106,91,316,56,260
run-2020-2-18-13-54-50.174271106,92,318,53,265
run-2020-2-18-13-54-50.174271106,93,319,50,269
run-2020-2-18-13-54-50.174271106,94,321,51,270
run-2020-2-18-13-54-50.174271106,95,321,49,272
run-2020-2-18-13-54-50.174271106,96,325,52,273
run-2020-2-18-13-54-50.174271106,97,327,51,276
run-2020-2-18-13-54-50.174271106,98,332,55,277
run-2020-2-18-13-54-50.174271106,99,337,58,279
