RunID,Agent,Age,Created,Inactive,Resources,Reputation,Ability,Que
run-2020-2-18-11-26-10.338085889,AGENT#8a29df7e-5241-11ea-b008-17e5dcfe22d1,0,0,0,10,1.0,1.0,0
run-2020-2-18-11-26-10.338085889,AGENT#8a29f48c-5241-11ea-8a5e-37d66ab860f2,0,0,0,10,1.0,1.0,0
run-2020-2-18-11-26-10.338085889,AGENT#8a29e69a-5241-11ea-ad31-7385519a0469,1,0,1,10,1.0,1.0,0
run-2020-2-18-11-26-10.338085889,AGENT#8a2a387a-5241-11ea-bf01-6f190c3d6eea,1,0,1,10,1.0,1.0,0
run-2020-2-18-11-26-10.338085889,AGENT#8a2a46a8-5241-11ea-953e-97fa716d9ae4,1,0,1,10,1.0,1.0,0
run-2020-2-18-11-26-10.338085889,AGENT#8a29e974-5241-11ea-8b90-5748cfd620c8,2,0,2,10,1.0,1.0,0
run-2020-2-18-11-26-10.338085889,AGENT#8a29ec62-5241-11ea-80cc-2b91cae72fb6,2,0,2,10,1.0,1.0,0
run-2020-2-18-11-26-10.338085889,AGENT#8a29ef1e-5241-11ea-ba3a-8f241c454475,2,0,2,10,1.0,1.0,0
run-2020-2-18-11-26-10.338085889,AGENT#8a29f1d0-5241-11ea-922a-b33fc0ffd9c1,2,0,2,10,1.0,1.0,0
run-2020-2-18-11-26-10.338085889,AGENT#8a29f752-5241-11ea-8020-8f3d56d7cf88,3,0,3,10,1.0,1.0,0
run-2020-2-18-11-26-10.338085889,AGENT#8a2a43d8-5241-11ea-aef4-3b0e81bc77f1,3,0,3,10,1.0,1.0,0
run-2020-2-18-11-26-10.338085889,AGENT#8a60bc9c-5241-11ea-917a-b784368e2c4a,1,3,4,10,1.0,1.0,0
run-2020-2-18-11-26-10.338085889,AGENT#8a2a40fe-5241-11ea-ab55-9f4d7990931e,5,0,5,10,1.0,1.0,0
run-2020-2-18-11-26-10.338085889,AGENT#8a3eb25a-5241-11ea-bb27-37e2fdb0c0c6,4,1,5,10,1.0,1.0,0
run-2020-2-18-11-26-10.338085889,AGENT#8a50a6f4-5241-11ea-8cd4-87f020f5b116,3,2,5,10,1.0,1.0,0
run-2020-2-18-11-26-10.338085889,AGENT#8a60b5b2-5241-11ea-a139-d76ff9face2a,2,3,5,10,1.0,1.0,0
run-2020-2-18-11-26-10.338085889,AGENT#8a72259a-5241-11ea-abcd-4be67b700f81,1,4,5,10,1.0,1.0,0
run-2020-2-18-11-26-10.338085889,AGENT#8a722d42-5241-11ea-be8b-0327446f0211,1,4,5,10,1.0,1.0,0
run-2020-2-18-11-26-10.338085889,AGENT#8a722270-5241-11ea-8937-3fc9e87c86fc,2,4,6,10,1.0,1.0,0
run-2020-2-18-11-26-10.338085889,AGENT#8a7227fc-5241-11ea-8b33-676871f898e7,2,4,6,10,1.0,1.0,0
run-2020-2-18-11-26-10.338085889,AGENT#8a722afe-5241-11ea-8e9c-434b9f11ac4f,2,4,6,10,1.0,1.0,0
run-2020-2-18-11-26-10.338085889,AGENT#8a722f90-5241-11ea-b814-731a7ae0ca11,2,4,6,10,1.0,1.0,0
run-2020-2-18-11-26-10.338085889,AGENT#8a50b0a4-5241-11ea-b0af-732b74ad8a10,5,2,7,10,1.0,1.0,0
run-2020-2-18-11-26-10.338085889,AGENT#8a7231d4-5241-11ea-beca-3b5d83da644f,3,4,7,10,1.0,1.0,0
run-2020-2-18-11-26-10.338085889,AGENT#8a95d2ce-5241-11ea-ad85-f73907ba0097,2,6,8,10,1.0,1.0,0
run-2020-2-18-11-26-10.338085889,AGENT#8a95d530-5241-11ea-90d8-2721eb3c5578,2,6,8,10,1.0,1.0,0
run-2020-2-18-11-26-10.338085889,AGENT#8a95d77e-5241-11ea-8615-47fe2f1030e0,2,6,8,10,1.0,1.0,0
run-2020-2-18-11-26-10.338085889,AGENT#8ab7b92a-5241-11ea-af25-af85036481cc,1,8,9,10,1.0,1.0,0
run-2020-2-18-11-26-10.338085889,AGENT#8a95d9d6-5241-11ea-a6eb-03ebd4eea4e8,4,6,10,10,1.0,1.0,0
run-2020-2-18-11-26-10.338085889,AGENT#8aa7939c-5241-11ea-bf97-8ff0b6ac84a6,3,7,10,10,1.0,1.0,0
run-2020-2-18-11-26-10.338085889,AGENT#8ab7ad2c-5241-11ea-b976-3f280fc9234d,2,8,10,10,1.0,1.0,0
run-2020-2-18-11-26-10.338085889,AGENT#8ab7b33a-5241-11ea-8602-236d1bcf8791,2,8,10,10,1.0,1.0,0
run-2020-2-18-11-26-10.338085889,AGENT#8aa79996-5241-11ea-8983-73327e6aa873,5,7,12,10,1.0,1.0,0
run-2020-2-18-11-26-10.338085889,AGENT#8aa79f9a-5241-11ea-98d5-cbc3933b470d,5,7,12,10,1.0,1.0,0
run-2020-2-18-11-26-10.338085889,AGENT#8ac9d786-5241-11ea-8c54-afb8587538c1,4,9,13,10,1.0,1.0,0
run-2020-2-18-11-26-10.338085889,AGENT#8adae76a-5241-11ea-92bd-a3a9fb0301b0,3,10,13,10,1.0,1.0,0
run-2020-2-18-11-26-10.338085889,AGENT#8aeb88f4-5241-11ea-ae91-3fd926dfbdf5,2,11,13,10,1.0,1.0,0
run-2020-2-18-11-26-10.338085889,AGENT#8adae4fe-5241-11ea-bf95-176d6a13b447,4,10,14,10,1.0,1.0,0
run-2020-2-18-11-26-10.338085889,AGENT#8b0e36ce-5241-11ea-a59b-0f6bb1901045,1,13,14,10,1.0,1.0,0
run-2020-2-18-11-26-10.338085889,AGENT#8a29fa0e-5241-11ea-ac28-3f678e19b419,15,0,15,10,1.0,1.0,0
run-2020-2-18-11-26-10.338085889,AGENT#8aeb86c4-5241-11ea-9d08-63263b256316,4,11,15,10,1.0,1.0,0
run-2020-2-18-11-26-10.338085889,AGENT#8afd1704-5241-11ea-bf61-c353c9bd3bf5,3,12,15,10,1.0,1.0,0
run-2020-2-18-11-26-10.338085889,AGENT#8afd1de4-5241-11ea-9902-633b4f9d2a42,3,12,15,10,1.0,1.0,0
run-2020-2-18-11-26-10.338085889,AGENT#8b0e3098-5241-11ea-803c-634bc1e99fd9,2,13,15,10,1.0,1.0,0
run-2020-2-18-11-26-10.338085889,AGENT#8b1e5ed2-5241-11ea-bd4b-43429766d750,1,14,15,10,1.0,1.0,0
run-2020-2-18-11-26-10.338085889,AGENT#8b1e6562-5241-11ea-a502-6bc57ee35170,1,14,15,10,1.0,1.0,0
run-2020-2-18-11-26-10.338085889,AGENT#8b1e6332-5241-11ea-a755-1bffaa8e9ed2,2,14,16,10,1.0,1.0,0
run-2020-2-18-11-26-10.338085889,AGENT#8b0e33a4-5241-11ea-a745-4f7ebecbf94e,4,13,17,10,1.0,1.0,0
run-2020-2-18-11-26-10.338085889,AGENT#8b1e5a04-5241-11ea-8c56-772afcdd897f,3,14,17,10,1.0,1.0,0
run-2020-2-18-11-26-10.338085889,AGENT#8b313e44-5241-11ea-9697-1b3e12dad998,2,15,17,10,1.0,1.0,0
run-2020-2-18-11-26-10.338085889,AGENT#8b4281f4-5241-11ea-94c1-cf17d01002c7,1,16,17,10,1.0,1.0,0
run-2020-2-18-11-26-10.338085889,AGENT#8b428c80-5241-11ea-9e5a-bfcc3289d36d,1,16,17,10,1.0,1.0,0
run-2020-2-18-11-26-10.338085889,AGENT#8b42874e-5241-11ea-b471-db9b0fc1bf2d,2,16,18,10,1.0,1.0,0
run-2020-2-18-11-26-10.338085889,AGENT#8b52ae26-5241-11ea-ad55-e3c739848193,1,17,18,10,1.0,1.0,0
run-2020-2-18-11-26-10.338085889,AGENT#8b52b29a-5241-11ea-9be3-bf5d10f0081a,1,17,18,10,1.0,1.0,0
run-2020-2-18-11-26-10.338085889,AGENT#8a723418-5241-11ea-b7f5-030addd17c25,15,4,19,10,1.0,1.0,0
run-2020-2-18-11-26-10.338085889,AGENT#8b313b88-5241-11ea-bdd7-6b438514e09c,4,15,19,10,1.0,1.0,0
run-2020-2-18-11-26-10.338085889,AGENT#8b4284c4-5241-11ea-81c5-b71752e78766,3,16,19,10,1.0,1.0,0
run-2020-2-18-11-26-10.338085889,AGENT#8b63107c-5241-11ea-b07d-7b2c66cc1a6a,1,18,19,10,1.0,1.0,0
run-2020-2-18-11-26-10.338085889,AGENT#8b6316f8-5241-11ea-b6d1-4f0d91a014a9,1,18,19,10,1.0,1.0,0
run-2020-2-18-11-26-10.338085889,AGENT#8b631d10-5241-11ea-9bf4-dbf909531d84,1,18,19,10,1.0,1.0,0
run-2020-2-18-11-26-10.338085889,AGENT#8aeb8494-5241-11ea-b8f2-83abda9957ca,9,11,20,10,1.0,1.0,0
run-2020-2-18-11-26-10.338085889,AGENT#8b6319e6-5241-11ea-9104-0774058a198f,3,18,21,10,1.0,1.0,0
run-2020-2-18-11-26-10.338085889,AGENT#8b7503ae-5241-11ea-9c1a-c33f9a0e7c5f,2,19,21,10,1.0,1.0,0
run-2020-2-18-11-26-10.338085889,AGENT#8a3eb700-5241-11ea-83f4-b30827b1bfa4,21,1,22,10,1.0,1.0,0
run-2020-2-18-11-26-10.338085889,AGENT#8b85da94-5241-11ea-8150-efb12191afef,2,20,22,10,1.0,1.0,0
run-2020-2-18-11-26-10.338085889,AGENT#8b750624-5241-11ea-8905-6f8ff1817669,4,19,23,10,1.0,1.0,0
run-2020-2-18-11-26-10.338085889,AGENT#8b96ed7a-5241-11ea-9e57-e7da6280e0ad,2,21,23,10,1.0,1.0,0
run-2020-2-18-11-26-10.338085889,AGENT#8ba820ea-5241-11ea-be60-d3d409ab7b37,1,22,23,10,1.0,1.0,0
run-2020-2-18-11-26-10.338085889,AGENT#8ba82478-5241-11ea-9833-17bf91a73813,1,22,23,10,1.0,1.0,0
run-2020-2-18-11-26-10.338085889,AGENT#8b96ea8c-5241-11ea-8ac3-9b5d6eb71b01,3,21,24,10,1.0,1.0,0
run-2020-2-18-11-26-10.338085889,AGENT#8b96e122-5241-11ea-80c5-c3d7d2e53201,4,21,25,10,1.0,1.0,0
run-2020-2-18-11-26-10.338085889,AGENT#8ba82d74-5241-11ea-853e-6bed4cf60f92,3,22,25,10,1.0,1.0,0
run-2020-2-18-11-26-10.338085889,AGENT#8bb875f8-5241-11ea-bb5b-8f01608c0f9b,2,23,25,10,1.0,1.0,0
run-2020-2-18-11-26-10.338085889,AGENT#8bb87a9e-5241-11ea-ac7d-730a0940d81c,2,23,25,10,1.0,1.0,0
run-2020-2-18-11-26-10.338085889,AGENT#8bb87f12-5241-11ea-85ec-2fa16c0ddc44,2,23,25,10,1.0,1.0,0
run-2020-2-18-11-26-10.338085889,AGENT#8a3eb4d0-5241-11ea-9b05-47388bfdab8f,25,1,26,10,1.0,1.0,0
run-2020-2-18-11-26-10.338085889,AGENT#8b96f072-5241-11ea-8b64-8f71a216b358,5,21,26,10,1.0,1.0,0
run-2020-2-18-11-26-10.338085889,AGENT#8bb87cd8-5241-11ea-835b-eb318c5c121a,3,23,26,10,1.0,1.0,0
run-2020-2-18-11-26-10.338085889,AGENT#8bc91098-5241-11ea-8b65-2f89b711f4b6,3,24,27,10,1.0,1.0,0
run-2020-2-18-11-26-10.338085889,AGENT#8bc914ee-5241-11ea-b9ca-0fd7507d2249,3,24,27,10,1.0,1.0,0
run-2020-2-18-11-26-10.338085889,AGENT#8bdaf77c-5241-11ea-a90c-5b6f85732069,2,25,27,10,1.0,1.0,0
run-2020-2-18-11-26-10.338085889,AGENT#8bec8816-5241-11ea-94ad-43fef9a09984,1,26,27,10,1.0,1.0,0
run-2020-2-18-11-26-10.338085889,AGENT#8bdaf2ae-5241-11ea-b258-3790e9013537,3,25,28,10,1.0,1.0,0
run-2020-2-18-11-26-10.338085889,AGENT#8bdafbf0-5241-11ea-afcb-a3660b60c440,3,25,28,10,1.0,1.0,0
run-2020-2-18-11-26-10.338085889,AGENT#8bdafe0c-5241-11ea-b949-0b62583a077d,3,25,28,10,1.0,1.0,0
run-2020-2-18-11-26-10.338085889,AGENT#8ab7b632-5241-11ea-9c0c-b31b75367c2c,21,8,29,10,1.0,1.0,0
run-2020-2-18-11-26-10.338085889,AGENT#8bdaf538-5241-11ea-9c10-131c4dbb8ed9,4,25,29,10,1.0,1.0,0
run-2020-2-18-11-26-10.338085889,AGENT#8bfdbd98-5241-11ea-990d-339420662554,2,27,29,10,1.0,1.0,0
run-2020-2-18-11-26-10.338085889,AGENT#8c0f9090-5241-11ea-bdb1-63659a5b86c6,1,28,29,10,1.0,1.0,0
run-2020-2-18-11-26-10.338085889,AGENT#8c0f977a-5241-11ea-86c5-37e43af38d72,1,28,29,10,1.0,1.0,0
run-2020-2-18-11-26-10.338085889,AGENT#8bdaf9a2-5241-11ea-beff-a7633f2ea120,5,25,30,10,1.0,1.0,0
run-2020-2-18-11-26-10.338085889,AGENT#8bfdc00e-5241-11ea-9afe-73ebdd206316,3,27,30,10,1.0,1.0,0
run-2020-2-18-11-26-10.338085889,AGENT#8c0f9310-5241-11ea-9a03-d39270a97459,2,28,30,10,1.0,1.0,0
run-2020-2-18-11-26-10.338085889,AGENT#8bfdcb3a-5241-11ea-bfd5-9bf975e54d4f,4,27,31,10,1.0,1.0,0
run-2020-2-18-11-26-10.338085889,AGENT#8bfdc6d0-5241-11ea-aa73-77d6972d24e9,5,27,32,10,1.0,1.0,0
run-2020-2-18-11-26-10.338085889,AGENT#8c20f2c2-5241-11ea-bec1-1bd45f66a434,3,29,32,10,1.0,1.0,0
run-2020-2-18-11-26-10.338085889,AGENT#8c44c4fe-5241-11ea-87e3-039d38429c3e,1,31,32,10,1.0,1.0,0
run-2020-2-18-11-26-10.338085889,AGENT#8c44cc10-5241-11ea-a497-c72122cb1c09,1,31,32,10,1.0,1.0,0
run-2020-2-18-11-26-10.338085889,AGENT#8bec8a96-5241-11ea-b64f-2fc287745d7e,7,26,33,10,1.0,1.0,0
run-2020-2-18-11-26-10.338085889,AGENT#8c20f72c-5241-11ea-8a76-c357b9932605,4,29,33,10,1.0,1.0,0
run-2020-2-18-11-26-10.338085889,AGENT#8c33283e-5241-11ea-a79b-974c04535470,3,30,33,10,1.0,1.0,0
run-2020-2-18-11-26-10.338085889,AGENT#8c44c774-5241-11ea-8511-1f80d96de29e,2,31,33,10,1.0,1.0,0
run-2020-2-18-11-26-10.338085889,AGENT#8ab7bc68-5241-11ea-aa83-939f68aa90d6,26,8,34,10,1.0,1.0,0
run-2020-2-18-11-26-10.338085889,AGENT#8c20f042-5241-11ea-9f2c-c796f99d99c4,5,29,34,10,1.0,1.0,0
run-2020-2-18-11-26-10.338085889,AGENT#8c3324f6-5241-11ea-a0e1-ef867f5a9509,4,30,34,10,1.0,1.0,0
run-2020-2-18-11-26-10.338085889,AGENT#8c55c1be-5241-11ea-b269-dfb9ca580e06,2,32,34,10,1.0,1.0,0
run-2020-2-18-11-26-10.338085889,AGENT#8c6759f6-5241-11ea-8448-fbb4ad35d205,1,33,34,10,1.0,1.0,0
run-2020-2-18-11-26-10.338085889,AGENT#8c55c45c-5241-11ea-8088-37ea919a41a6,3,32,35,10,1.0,1.0,0
run-2020-2-18-11-26-10.338085889,AGENT#8c8b74c6-5241-11ea-a146-6be97e0efdea,1,35,36,10,1.0,1.0,0
run-2020-2-18-11-26-10.338085889,AGENT#8c20edcc-5241-11ea-982a-7b40c02b1789,8,29,37,10,1.0,1.0,0
run-2020-2-18-11-26-10.338085889,AGENT#8c9c9436-5241-11ea-81bd-af368be6f23d,1,36,37,10,1.0,1.0,0
run-2020-2-18-11-26-10.338085889,AGENT#8c675cb2-5241-11ea-8467-17988d440c5c,5,33,38,10,1.0,1.0,0
run-2020-2-18-11-26-10.338085889,AGENT#8c9c9166-5241-11ea-8b55-abaffefb0fc5,2,36,38,10,1.0,1.0,0
run-2020-2-18-11-26-10.338085889,AGENT#8cad8106-5241-11ea-9f34-5f646103db0c,1,37,38,10,1.0,1.0,0
run-2020-2-18-11-26-10.338085889,AGENT#8cad7a58-5241-11ea-843e-531ea2b6fa8a,2,37,39,10,1.0,1.0,0
run-2020-2-18-11-26-10.338085889,AGENT#8cad7ed6-5241-11ea-951f-8fd90c73e45a,2,37,39,10,1.0,1.0,0
run-2020-2-18-11-26-10.338085889,AGENT#8cad75a8-5241-11ea-af98-334c6ee5413d,3,37,40,10,1.0,1.0,0
run-2020-2-18-11-26-10.338085889,AGENT#8c0f954a-5241-11ea-8add-d7f5eec9b32b,13,28,41,10,1.0,1.0,0
run-2020-2-18-11-26-10.338085889,AGENT#8ce188ac-5241-11ea-9cd4-03f51e84992c,1,40,41,10,1.0,1.0,0
run-2020-2-18-11-26-10.338085889,AGENT#8cbf2aaa-5241-11ea-a7a6-1bf28f9d3f3d,4,38,42,10,1.0,1.0,0
run-2020-2-18-11-26-10.338085889,AGENT#8ce183b6-5241-11ea-a598-13a360d023c4,2,40,42,10,1.0,1.0,0
run-2020-2-18-11-26-10.338085889,AGENT#8afd1966-5241-11ea-9e01-ff54b167bb42,31,12,43,10,1.0,1.0,0
run-2020-2-18-11-26-10.338085889,AGENT#8c55bee4-5241-11ea-b5fc-8747db77ea24,11,32,43,10,1.0,1.0,0
run-2020-2-18-11-26-10.338085889,AGENT#8d040440-5241-11ea-91cd-a34082d29405,1,42,43,10,1.0,1.0,0
run-2020-2-18-11-26-10.338085889,AGENT#8d040954-5241-11ea-997c-cf243c9b364f,1,42,43,10,1.0,1.0,0
run-2020-2-18-11-26-10.338085889,AGENT#8b52ab92-5241-11ea-8e59-a783f5f668d0,27,17,44,10,1.0,1.0,0
run-2020-2-18-11-26-10.338085889,AGENT#8ce18fb4-5241-11ea-a432-3fd05f57e35b,4,40,44,10,1.0,1.0,0
run-2020-2-18-11-26-10.338085889,AGENT#8a29e384-5241-11ea-8e6a-dfc8fe49c08d,45,0,45,10,1.0,1.0,0
run-2020-2-18-11-26-10.338085889,AGENT#8a2a3e42-5241-11ea-b509-8356deda114e,45,0,45,10,1.0,1.0,0
run-2020-2-18-11-26-10.338085889,AGENT#8c44c9cc-5241-11ea-8bcf-eb02e8f51991,14,31,45,10,1.0,1.0,0
run-2020-2-18-11-26-10.338085889,AGENT#8ce18640-5241-11ea-bf19-cb30ebb0a381,5,40,45,10,1.0,1.0,0
run-2020-2-18-11-26-10.338085889,AGENT#8ce19202-5241-11ea-938a-a3b449040880,5,40,45,10,1.0,1.0,0
run-2020-2-18-11-26-10.338085889,AGENT#8d0406ca-5241-11ea-9328-a369aabdd512,3,42,45,10,1.0,1.0,0
run-2020-2-18-11-26-10.338085889,AGENT#8d26f39c-5241-11ea-ab1d-338e796d5890,1,44,45,10,1.0,1.0,0
run-2020-2-18-11-26-10.338085889,AGENT#8a2a3b68-5241-11ea-b4cf-8780a5d40a46,46,0,46,10,1.0,1.0,0
run-2020-2-18-11-26-10.338085889,AGENT#8d38b3fc-5241-11ea-8d57-8fd0b20d4bc9,1,45,46,10,1.0,1.0,0
run-2020-2-18-11-26-10.338085889,AGENT#8d38b668-5241-11ea-9821-4f52bbc44146,1,45,46,10,1.0,1.0,0
run-2020-2-18-11-26-10.338085889,AGENT#8a50ad98-5241-11ea-b8fb-170822809778,45,2,47,10,1.0,1.0,0
run-2020-2-18-11-26-10.338085889,AGENT#8d4ae9b4-5241-11ea-8a20-276fa1b92c72,1,46,47,10,1.0,1.0,0
run-2020-2-18-11-26-10.338085889,AGENT#8d26fa86-5241-11ea-b316-133fe945b766,5,44,49,10,1.0,1.0,0
run-2020-2-18-11-26-10.338085889,AGENT#8d4aebf8-5241-11ea-b43f-0b8850a4ada1,3,46,49,10,1.0,1.0,0
run-2020-2-18-11-26-10.338085889,AGENT#8d70884a-5241-11ea-9207-0b3d31d6b386,1,48,49,10,1.0,1.0,0
run-2020-2-18-11-26-10.338085889,AGENT#8a60b332-5241-11ea-8fa0-d72e1c7c8bd4,47,3,50,10,1.0,1.0,0
run-2020-2-18-11-26-10.338085889,AGENT#8cf24cfa-5241-11ea-bef7-07ac5619d152,9,41,50,10,1.0,1.0,0
run-2020-2-18-11-26-10.338085889,AGENT#8d4af094-5241-11ea-82e5-2bcb54a28aea,4,46,50,10,1.0,1.0,0
run-2020-2-18-11-26-10.338085889,AGENT#8a50aa32-5241-11ea-961e-9f32a14015d8,49,2,51,10,1.0,1.0,0
run-2020-2-18-11-26-10.338085889,AGENT#8a60ba3a-5241-11ea-8972-375034f9876c,48,3,51,10,1.0,1.0,0
run-2020-2-18-11-26-10.338085889,AGENT#8d4ae734-5241-11ea-a3ec-4fc1b6f3d877,5,46,51,10,1.0,1.0,0
run-2020-2-18-11-26-10.338085889,AGENT#8a60b800-5241-11ea-a473-7f81058a66ad,49,3,52,10,1.0,1.0,0
run-2020-2-18-11-26-10.338085889,AGENT#8d26f61c-5241-11ea-82fa-d3769c4e6a44,8,44,52,10,1.0,1.0,0
run-2020-2-18-11-26-10.338085889,AGENT#8d7085b6-5241-11ea-9303-4748905f6955,4,48,52,10,1.0,1.0,0
run-2020-2-18-11-26-10.338085889,AGENT#8d953384-5241-11ea-becd-97a0f6526449,2,50,52,10,1.0,1.0,0
run-2020-2-18-11-26-10.338085889,AGENT#8a95d01c-5241-11ea-a22c-67cf699c3465,47,6,53,10,1.0,1.0,0
run-2020-2-18-11-26-10.338085889,AGENT#8b85dd28-5241-11ea-adc8-ffe11c59af3a,33,20,53,10,1.0,1.0,0
run-2020-2-18-11-26-10.338085889,AGENT#8da72e0e-5241-11ea-9927-0309c19ec0ad,2,51,53,10,1.0,1.0,0
run-2020-2-18-11-26-10.338085889,AGENT#8dba8e7c-5241-11ea-9798-53409f383592,1,52,53,10,1.0,1.0,0
run-2020-2-18-11-26-10.338085889,AGENT#8ab7b042-5241-11ea-8ab9-4f3ea42d8ca1,46,8,54,10,1.0,1.0,0
run-2020-2-18-11-26-10.338085889,AGENT#8c9c96ca-5241-11ea-975a-5b777fbcfc2c,18,36,54,10,1.0,1.0,0
run-2020-2-18-11-26-10.338085889,AGENT#8d952a2e-5241-11ea-9600-77cf8d4b715d,4,50,54,10,1.0,1.0,0
run-2020-2-18-11-26-10.338085889,AGENT#8da73f16-5241-11ea-93fa-7bb402f90b2f,3,51,54,10,1.0,1.0,0
run-2020-2-18-11-26-10.338085889,AGENT#8da74376-5241-11ea-b091-bb6fadd79924,3,51,54,10,1.0,1.0,0
run-2020-2-18-11-26-10.338085889,AGENT#8ab7a9e4-5241-11ea-8077-03c66383131d,47,8,55,10,1.0,1.0,0
run-2020-2-18-11-26-10.338085889,AGENT#8d95308c-5241-11ea-b7a5-4bf7a6ab4cf9,5,50,55,10,1.0,1.0,0
run-2020-2-18-11-26-10.338085889,AGENT#8dcc973e-5241-11ea-a4fb-932f32568cd7,2,53,55,10,1.0,1.0,0
run-2020-2-18-11-26-10.338085889,AGENT#8adae256-5241-11ea-bfd6-1b0bbde1c243,46,10,56,10,1.0,1.0,0
run-2020-2-18-11-26-10.338085889,AGENT#8dcc91c6-5241-11ea-9caf-3f62869a764f,3,53,56,10,1.0,1.0,0
run-2020-2-18-11-26-10.338085889,AGENT#8defa2b0-5241-11ea-91e2-6f66b8203aa7,1,55,56,10,1.0,1.0,0
run-2020-2-18-11-26-10.338085889,AGENT#8defab8e-5241-11ea-8fad-7f1a4c7708da,1,55,56,10,1.0,1.0,0
run-2020-2-18-11-26-10.338085889,AGENT#8aeb820a-5241-11ea-8a05-4f174642125a,46,11,57,10,1.0,1.0,0
run-2020-2-18-11-26-10.338085889,AGENT#8afd1b96-5241-11ea-87d0-9f877506ec61,45,12,57,10,1.0,1.0,0
run-2020-2-18-11-26-10.338085889,AGENT#8defa04e-5241-11ea-b4f2-0335ffcb0146,2,55,57,10,1.0,1.0,0
run-2020-2-18-11-26-10.338085889,AGENT#8defa72e-5241-11ea-9fb2-7b8c454e5f71,2,55,57,10,1.0,1.0,0
run-2020-2-18-11-26-10.338085889,AGENT#8e01c6f2-5241-11ea-b913-1769b2ff6ea7,1,56,57,10,1.0,1.0,0
run-2020-2-18-11-26-10.338085889,AGENT#8afd145c-5241-11ea-b928-fbae6890d75e,46,12,58,10,1.0,1.0,0
run-2020-2-18-11-26-10.338085889,AGENT#8dcc99b4-5241-11ea-a007-1fa77d21a2ad,5,53,58,10,1.0,1.0,0
run-2020-2-18-11-26-10.338085889,AGENT#8defa95e-5241-11ea-9b45-bf50ecacac2c,3,55,58,10,1.0,1.0,0
run-2020-2-18-11-26-10.338085889,AGENT#8e01ca3a-5241-11ea-b975-d7948062729b,2,56,58,10,1.0,1.0,0
run-2020-2-18-11-26-10.338085889,AGENT#8b1e5c8e-5241-11ea-90f1-9f34e5f19b9a,45,14,59,10,1.0,1.0,0
run-2020-2-18-11-26-10.338085889,AGENT#8b1e6102-5241-11ea-a725-3bf021b809ef,45,14,59,10,1.0,1.0,0
run-2020-2-18-11-26-10.338085889,AGENT#8bfdc4a0-5241-11ea-a795-eff29098f745,32,27,59,10,1.0,1.0,0
run-2020-2-18-11-26-10.338085889,AGENT#8da735b6-5241-11ea-9f60-33563e7258b8,8,51,59,10,1.0,1.0,0
run-2020-2-18-11-26-10.338085889,AGENT#8dde4448-5241-11ea-a79b-b3c82ef4bf8b,5,54,59,10,1.0,1.0,0
run-2020-2-18-11-26-10.338085889,AGENT#8def9d9c-5241-11ea-98ca-c3fada47b605,5,55,60,10,1.0,1.0,0
run-2020-2-18-11-26-10.338085889,AGENT#8defa4f4-5241-11ea-8ec4-63a8bc3a7fc6,5,55,60,10,1.0,1.0,0
run-2020-2-18-11-26-10.338085889,AGENT#8e129a0e-5241-11ea-ba96-5f9620102eb5,3,57,60,10,1.0,1.0,0
run-2020-2-18-11-26-10.338085889,AGENT#8b0e2ddc-5241-11ea-8048-7b9c8b31a854,48,13,61,10,1.0,1.0,0
run-2020-2-18-11-26-10.338085889,AGENT#8dba8c2e-5241-11ea-9cef-23fef4f4b81c,9,52,61,10,1.0,1.0,0
run-2020-2-18-11-26-10.338085889,AGENT#8e2414aa-5241-11ea-9e15-8fa5776c8b27,3,58,61,10,1.0,1.0,0
run-2020-2-18-11-26-10.338085889,AGENT#8e4955e4-5241-11ea-a833-6b9d5eebac8e,1,60,61,10,1.0,1.0,0
run-2020-2-18-11-26-10.338085889,AGENT#8b4289f6-5241-11ea-b11b-6794ae31f5d3,46,16,62,10,1.0,1.0,0
run-2020-2-18-11-26-10.338085889,AGENT#8b428f00-5241-11ea-9428-db9165288e3b,46,16,62,10,1.0,1.0,0
run-2020-2-18-11-26-10.338085889,AGENT#8b52b060-5241-11ea-ad00-737a7be0fe9f,45,17,62,10,1.0,1.0,0
run-2020-2-18-11-26-10.338085889,AGENT#8c55c6dc-5241-11ea-bb67-c3ab6fc5b6f1,30,32,62,10,1.0,1.0,0
run-2020-2-18-11-26-10.338085889,AGENT#8d26f860-5241-11ea-9d8c-6f6f25b747c9,18,44,62,10,1.0,1.0,0
run-2020-2-18-11-26-10.338085889,AGENT#8e5a80ee-5241-11ea-a0a9-239af9851cae,1,61,62,10,1.0,1.0,0
run-2020-2-18-11-26-10.338085889,AGENT#8b6313ec-5241-11ea-acac-7fef1dc72ea0,45,18,63,10,1.0,1.0,0
run-2020-2-18-11-26-10.338085889,AGENT#8bec8f28-5241-11ea-8e01-2ba9a5b971da,38,26,64,10,1.0,1.0,0
run-2020-2-18-11-26-10.338085889,AGENT#8e3556a2-5241-11ea-9f54-0b72cea4aaaf,5,59,64,10,1.0,1.0,0
run-2020-2-18-11-26-10.338085889,AGENT#8d4aee5a-5241-11ea-b2b8-03a175bcb3de,19,46,65,10,1.0,1.0,0
run-2020-2-18-11-26-10.338085889,AGENT#8e7d6028-5241-11ea-a9e2-3799d66311f8,2,63,65,10,1.0,1.0,0
run-2020-2-18-11-26-10.338085889,AGENT#8e8e26b0-5241-11ea-93f5-f3c819e40e17,1,64,65,10,1.0,1.0,0
run-2020-2-18-11-26-10.338085889,AGENT#8e8e2fe8-5241-11ea-8183-3b11d0796357,1,64,65,10,1.0,1.0,0
run-2020-2-18-11-26-10.338085889,AGENT#8b96e46a-5241-11ea-8992-530a262cc2d6,45,21,66,10,1.0,1.0,0
run-2020-2-18-11-26-10.338085889,AGENT#8e8e2db8-5241-11ea-9bb4-e72417515dcc,2,64,66,10,1.0,1.0,0
run-2020-2-18-11-26-10.338085889,AGENT#8b96e776-5241-11ea-b3ae-d3476b250475,46,21,67,10,1.0,1.0,0
run-2020-2-18-11-26-10.338085889,AGENT#8ba82a86-5241-11ea-813b-4b254b3a4cb9,45,22,67,10,1.0,1.0,0
run-2020-2-18-11-26-10.338085889,AGENT#8d155b3c-5241-11ea-8cc9-9364d229b513,24,43,67,10,1.0,1.0,0
run-2020-2-18-11-26-10.338085889,AGENT#8eb16a76-5241-11ea-8190-cf52281608b9,1,66,67,10,1.0,1.0,0
run-2020-2-18-11-26-10.338085889,AGENT#8eb16d14-5241-11ea-915b-2f8e90d1ae4e,1,66,67,10,1.0,1.0,0
run-2020-2-18-11-26-10.338085889,AGENT#8ba8278e-5241-11ea-ae36-7744d14370b6,46,22,68,10,1.0,1.0,0
run-2020-2-18-11-26-10.338085889,AGENT#8bb8785a-5241-11ea-b483-5796fbcb7a6a,45,23,68,10,1.0,1.0,0
run-2020-2-18-11-26-10.338085889,AGENT#8c779cf8-5241-11ea-9d54-5b6272fdbf8f,34,34,68,10,1.0,1.0,0
run-2020-2-18-11-26-10.338085889,AGENT#8e8e2b7e-5241-11ea-873b-6b063b67cf05,4,64,68,10,1.0,1.0,0
run-2020-2-18-11-26-10.338085889,AGENT#8ec2a4a8-5241-11ea-8f43-a772e45707b8,1,67,68,10,1.0,1.0,0
run-2020-2-18-11-26-10.338085889,AGENT#8ec2a8c2-5241-11ea-b341-abdfb535bc59,1,67,68,10,1.0,1.0,0
run-2020-2-18-11-26-10.338085889,AGENT#8ec2b06a-5241-11ea-8219-efa60d33b820,1,67,68,10,1.0,1.0,0
run-2020-2-18-11-26-10.338085889,AGENT#8bc90e36-5241-11ea-8649-2fd001d3ec5c,47,24,71,10,1.0,1.0,0
run-2020-2-18-11-26-10.338085889,AGENT#8bc912d2-5241-11ea-9c28-cb804ae00f5a,47,24,71,10,1.0,1.0,0
run-2020-2-18-11-26-10.338085889,AGENT#8ef6ca30-5241-11ea-a311-47932f62abfe,1,70,71,10,1.0,1.0,0
run-2020-2-18-11-26-10.338085889,AGENT#8bfdc914-5241-11ea-8047-9be6379231b8,45,27,72,10,1.0,1.0,0
run-2020-2-18-11-26-10.338085889,AGENT#8bfdcd7e-5241-11ea-bfa5-b7eea16055b0,45,27,72,10,1.0,1.0,0
run-2020-2-18-11-26-10.338085889,AGENT#8ed549f0-5241-11ea-b418-93da808db8df,4,68,72,10,1.0,1.0,0
run-2020-2-18-11-26-10.338085889,AGENT#8bec8cda-5241-11ea-8fc7-47322ca55d14,47,26,73,10,1.0,1.0,0
run-2020-2-18-11-26-10.338085889,AGENT#8ed54c98-5241-11ea-9050-6b08e3595332,5,68,73,10,1.0,1.0,0
run-2020-2-18-11-26-10.338085889,AGENT#8f08071e-5241-11ea-8919-3f739a56801f,2,71,73,10,1.0,1.0,0
run-2020-2-18-11-26-10.338085889,AGENT#8bfdc25c-5241-11ea-84aa-87675be4851f,47,27,74,10,1.0,1.0,0
run-2020-2-18-11-26-10.338085889,AGENT#8c20f4f2-5241-11ea-86ac-5fdeab49c393,45,29,74,10,1.0,1.0,0
run-2020-2-18-11-26-10.338085889,AGENT#8d155dbc-5241-11ea-8e43-7348a6022104,31,43,74,10,1.0,1.0,0
run-2020-2-18-11-26-10.338085889,AGENT#8f0804b2-5241-11ea-8b37-932f3bc46c37,3,71,74,10,1.0,1.0,0
run-2020-2-18-11-26-10.338085889,AGENT#8f2a966c-5241-11ea-81ea-c7113e9310bd,1,73,74,10,1.0,1.0,0
run-2020-2-18-11-26-10.338085889,AGENT#8da7321e-5241-11ea-977b-236d41b78837,24,51,75,10,1.0,1.0,0
run-2020-2-18-11-26-10.338085889,AGENT#8f2a990a-5241-11ea-a201-bb2d6f501adb,2,73,75,10,1.0,1.0,0
run-2020-2-18-11-26-10.338085889,AGENT#8c44c288-5241-11ea-addf-aba544f56a90,45,31,76,10,1.0,1.0,0
run-2020-2-18-11-26-10.338085889,AGENT#8dcc94b4-5241-11ea-b0e5-1f38537546bd,23,53,76,10,1.0,1.0,0
run-2020-2-18-11-26-10.338085889,AGENT#8f2a9fae-5241-11ea-a2f2-d7cd22f9cd90,5,73,78,10,1.0,1.0,0
run-2020-2-18-11-26-10.338085889,AGENT#8f65bd32-5241-11ea-b959-2f8c591284b3,2,76,78,10,1.0,1.0,0
run-2020-2-18-11-26-10.338085889,AGENT#8c44bff4-5241-11ea-8612-0b4d3d24b0fc,48,31,79,10,1.0,1.0,0
run-2020-2-18-11-26-10.338085889,AGENT#8c779f6e-5241-11ea-a4d1-e7526c073ec8,45,34,79,10,1.0,1.0,0
run-2020-2-18-11-26-10.338085889,AGENT#8e01c09e-5241-11ea-8c8e-a7c8cd5a7a25,23,56,79,10,1.0,1.0,0
run-2020-2-18-11-26-10.338085889,AGENT#8f3bbb54-5241-11ea-a371-27a6e305a526,5,74,79,10,1.0,1.0,0
run-2020-2-18-11-26-10.338085889,AGENT#8c8b7714-5241-11ea-97ee-57ef923b5933,45,35,80,10,1.0,1.0,0
run-2020-2-18-11-26-10.338085889,AGENT#8d708cf0-5241-11ea-a32d-bfaeb8ed2950,32,48,80,10,1.0,1.0,0
run-2020-2-18-11-26-10.338085889,AGENT#8f77cb4e-5241-11ea-a47e-d75316b4fce6,4,77,81,10,1.0,1.0,0
run-2020-2-18-11-26-10.338085889,AGENT#8f88aa4a-5241-11ea-a58d-cb466c48c5a6,3,78,81,10,1.0,1.0,0
run-2020-2-18-11-26-10.338085889,AGENT#8c77a1b2-5241-11ea-b379-1f6a8f770497,48,34,82,10,1.0,1.0,0
run-2020-2-18-11-26-10.338085889,AGENT#8c8b7264-5241-11ea-ba16-d7cf96376737,47,35,82,10,1.0,1.0,0
run-2020-2-18-11-26-10.338085889,AGENT#8cad7814-5241-11ea-bfa0-7bf0fdcdc28a,45,37,82,10,1.0,1.0,0
run-2020-2-18-11-26-10.338085889,AGENT#8cad7c88-5241-11ea-b0e7-ff4741334c23,45,37,82,10,1.0,1.0,0
run-2020-2-18-11-26-10.338085889,AGENT#8dba89ae-5241-11ea-8eea-8749d4fc4daf,30,52,82,10,1.0,1.0,0
run-2020-2-18-11-26-10.338085889,AGENT#8f77c6bc-5241-11ea-9018-f76466039cba,5,77,82,10,1.0,1.0,0
run-2020-2-18-11-26-10.338085889,AGENT#8f77cd88-5241-11ea-9884-8fadeb1e40ac,5,77,82,10,1.0,1.0,0
run-2020-2-18-11-26-10.338085889,AGENT#8f9b765c-5241-11ea-8646-d31ea364ea80,3,79,82,10,1.0,1.0,0
run-2020-2-18-11-26-10.338085889,AGENT#8fadc2a8-5241-11ea-bd87-c77e2bce7bd8,2,80,82,10,1.0,1.0,0
run-2020-2-18-11-26-10.338085889,AGENT#8fadc546-5241-11ea-8179-6f4be1a188ba,2,80,82,10,1.0,1.0,0
run-2020-2-18-11-26-10.338085889,AGENT#8fbfacfc-5241-11ea-b37a-cbe52a19f521,1,81,82,10,1.0,1.0,0
run-2020-2-18-11-26-10.338085889,AGENT#8fadc78a-5241-11ea-9a6d-27a6795cf39e,3,80,83,10,1.0,1.0,0
run-2020-2-18-11-26-10.338085889,AGENT#8fbfb26a-5241-11ea-a5c6-bf231a622fb1,2,81,83,10,1.0,1.0,0
run-2020-2-18-11-26-10.338085889,AGENT#8fd13a12-5241-11ea-a49c-b76c4951608d,1,82,83,10,1.0,1.0,0
run-2020-2-18-11-26-10.338085889,AGENT#8fd13c4c-5241-11ea-ad79-5351341b80c8,1,82,83,10,1.0,1.0,0
run-2020-2-18-11-26-10.338085889,AGENT#8cbf283e-5241-11ea-8355-3b487278545c,46,38,84,10,1.0,1.0,0
run-2020-2-18-11-26-10.338085889,AGENT#8cbf2ce4-5241-11ea-baed-33294b0c124b,46,38,84,10,1.0,1.0,0
run-2020-2-18-11-26-10.338085889,AGENT#8fd137d8-5241-11ea-98bc-c34ae92427dc,2,82,84,10,1.0,1.0,0
run-2020-2-18-11-26-10.338085889,AGENT#8ce18d52-5241-11ea-b779-1b8e656118fa,45,40,85,10,1.0,1.0,0
run-2020-2-18-11-26-10.338085889,AGENT#8fbfafcc-5241-11ea-b3b7-9707b91e3ae0,4,81,85,10,1.0,1.0,0
run-2020-2-18-11-26-10.338085889,AGENT#8fe25180-5241-11ea-babb-2f3b13bc2ee1,2,83,85,10,1.0,1.0,0
run-2020-2-18-11-26-10.338085889,AGENT#8ff3f02a-5241-11ea-8e38-0fa1df516e6d,1,84,85,10,1.0,1.0,0
run-2020-2-18-11-26-10.338085889,AGENT#8ce18afa-5241-11ea-b86f-b7a4bbb5c94f,46,40,86,10,1.0,1.0,0
run-2020-2-18-11-26-10.338085889,AGENT#8f3bc072-5241-11ea-837a-03551a2d8448,12,74,86,10,1.0,1.0,0
run-2020-2-18-11-26-10.338085889,AGENT#9004c2b0-5241-11ea-bda2-57b2f15bd426,1,85,86,10,1.0,1.0,0
run-2020-2-18-11-26-10.338085889,AGENT#8f2a9b4e-5241-11ea-b431-cb0691239f39,14,73,87,10,1.0,1.0,0
run-2020-2-18-11-26-10.338085889,AGENT#8ff3f26e-5241-11ea-a6e4-5fb426d3467d,3,84,87,10,1.0,1.0,0
run-2020-2-18-11-26-10.338085889,AGENT#9004bd1a-5241-11ea-8d72-6b20c8b5b3ca,2,85,87,10,1.0,1.0,0
run-2020-2-18-11-26-10.338085889,AGENT#9004bf5e-5241-11ea-bf07-e7db0b978ae7,2,85,87,10,1.0,1.0,0
run-2020-2-18-11-26-10.338085889,AGENT#901bd73e-5241-11ea-bc78-ff276b25057d,1,86,87,10,1.0,1.0,0
run-2020-2-18-11-26-10.338085889,AGENT#8fe2566c-5241-11ea-85ce-7f9894cba031,5,83,88,10,1.0,1.0,0
run-2020-2-18-11-26-10.338085889,AGENT#90369a7e-5241-11ea-b110-f77201c0a19b,1,87,88,10,1.0,1.0,0
run-2020-2-18-11-26-10.338085889,AGENT#901bc6d6-5241-11ea-89b8-275fc5afd04c,3,86,89,10,1.0,1.0,0
run-2020-2-18-11-26-10.338085889,AGENT#9004ba86-5241-11ea-9efc-476ffeb55db8,5,85,90,10,1.0,1.0,0
run-2020-2-18-11-26-10.338085889,AGENT#9049524a-5241-11ea-ac05-8fc705e20e6d,2,88,90,10,1.0,1.0,0
run-2020-2-18-11-26-10.338085889,AGENT#905af55e-5241-11ea-95eb-7b8a67ea1ff4,2,89,91,10,1.0,1.0,0
run-2020-2-18-11-26-10.338085889,AGENT#906cdd0a-5241-11ea-b106-73a2a92a91fd,1,90,91,10,1.0,1.0,0
run-2020-2-18-11-26-10.338085889,AGENT#905af32e-5241-11ea-b1e7-2f701c763b16,3,89,92,10,1.0,1.0,0
run-2020-2-18-11-26-10.338085889,AGENT#8d708aac-5241-11ea-992c-23c118dec3b6,45,48,93,10,1.0,1.0,0
run-2020-2-18-11-26-10.338085889,AGENT#8f88a7e8-5241-11ea-b3c5-df449057b9b4,15,78,93,10,1.0,1.0,0
run-2020-2-18-11-26-10.338085889,AGENT#906cd328-5241-11ea-a006-372143a1fb6b,3,90,93,10,1.0,1.0,0
run-2020-2-18-11-26-10.338085889,AGENT#9090a712-5241-11ea-8589-8b13387cd8c5,1,92,93,10,1.0,1.0,0
run-2020-2-18-11-26-10.338085889,AGENT#907f4d78-5241-11ea-b948-0b5a65062523,3,91,94,10,1.0,1.0,0
run-2020-2-18-11-26-10.338085889,AGENT#9090a4c4-5241-11ea-901a-7f3da15ce214,2,92,94,10,1.0,1.0,0
run-2020-2-18-11-26-10.338085889,AGENT#9090abae-5241-11ea-b915-a7e4c7b0f3ef,2,92,94,10,1.0,1.0,0
run-2020-2-18-11-26-10.338085889,AGENT#90a1e5fe-5241-11ea-a61f-2fcbd5659557,1,93,94,10,1.0,1.0,0
run-2020-2-18-11-26-10.338085889,AGENT#90a1eafe-5241-11ea-aea5-a7598de849c9,1,93,94,10,1.0,1.0,0
run-2020-2-18-11-26-10.338085889,AGENT#8d5d2f52-5241-11ea-a910-639ad73e8f50,48,47,95,10,1.0,1.0,0
run-2020-2-18-11-26-10.338085889,AGENT#8d952d80-5241-11ea-827a-cbd1a8477e4b,45,50,95,10,1.0,1.0,0
run-2020-2-18-11-26-10.338085889,AGENT#90b38e76-5241-11ea-b37c-9bdf3fc315f0,1,94,95,10,1.0,1.0,0
run-2020-2-18-11-26-10.338085889,AGENT#8e8e2944-5241-11ea-a571-f3e8f3714018,32,64,96,10,1.0,1.0,0
run-2020-2-18-11-26-10.338085889,AGENT#907f4580-5241-11ea-8492-a3a5115566bf,5,91,96,10,1.0,1.0,0
run-2020-2-18-11-26-10.338085889,AGENT#90d5a9ca-5241-11ea-9610-af1e71538860,1,96,97,10,1.0,1.0,0
run-2020-2-18-11-26-10.338085889,AGENT#8eb16832-5241-11ea-b10c-cf134215e854,32,66,98,10,1.0,1.0,0
run-2020-2-18-11-26-10.338085889,AGENT#9036970e-5241-11ea-bdac-cb8c64cb1444,11,87,98,10,1.0,1.0,0
run-2020-2-18-11-26-10.338085889,AGENT#90d5a4de-5241-11ea-8ed7-ffd9643235c3,2,96,98,10,1.0,1.0,0
run-2020-2-18-11-26-10.338085889,AGENT#8e9fc26c-5241-11ea-b033-932001a87f44,34,65,99,10,1.0,1.0,0
run-2020-2-18-11-26-10.338085889,AGENT#90c497fc-5241-11ea-88a0-73877a0d8035,4,95,99,10,1.0,1.0,0
run-2020-2-18-11-26-10.338085889,AGENT#90c49a9a-5241-11ea-af87-4fc4fce72830,4,95,99,10,1.0,1.0,0
run-2020-2-18-11-26-10.338085889,AGENT#90c49d60-5241-11ea-9127-13563572245a,4,95,99,10,1.0,1.0,0
