RunID,Tick,AllAgents,Active,Inactive
run-2020-2-28-10-27-8.779021978,0,12,12,0
run-2020-2-28-10-27-8.779021978,1,21,20,1
run-2020-2-28-10-27-8.779021978,2,24,18,6
run-2020-2-28-10-27-8.779021978,3,28,19,9
run-2020-2-28-10-27-8.779021978,4,35,21,14
run-2020-2-28-10-27-8.779021978,5,41,23,18
run-2020-2-28-10-27-8.779021978,6,45,23,22
