Source,Target
e0a41be0-5254-11ea-b138-834b9443f812,e0a6be0e-5254-11ea-a66c-0382dfd7f050
e0a456dc-5254-11ea-a431-cb7c6a4ef37b,e0a6cfac-5254-11ea-9bd6-3344c7cebf5e
e0a60004-5254-11ea-a1fe-bb3dfa85d7c4,e0a6dea2-5254-11ea-a494-6fb3d3db8118
e0a62674-5254-11ea-8f4c-f776e04d609b,e0a6e64a-5254-11ea-bca9-63df52d6b5b2
e0a55500-5254-11ea-ac0a-6baaf95e213b,e0a6f16c-5254-11ea-8dd4-23560aee406a
e0a663dc-5254-11ea-b1a8-17cfa31b0549,e0a6f95a-5254-11ea-98f5-9b4fc53e01b0
e0a67d04-5254-11ea-9ff0-979bd8f3fb16,e0a703f0-5254-11ea-9b40-ebecb36ddf98
e0a5d192-5254-11ea-89e3-df74593b7f49,e0a7108e-5254-11ea-9ba2-57647b59cc45
e0a4024a-5254-11ea-8f11-d346bb9bd50a,e0a73690-5254-11ea-acc4-e7ef844c60a7
e0a4702c-5254-11ea-8ff0-57a54a037dff,e0a7405e-5254-11ea-b987-3bd4dbf0da9e
e0a50f50-5254-11ea-8343-470225392caa,e0a75602-5254-11ea-b184-1ff9953aaa25
e0a4702c-5254-11ea-8ff0-57a54a037dff,e0a760de-5254-11ea-930a-4fe5fc1758a2
e0a6be0e-5254-11ea-a66c-0382dfd7f050,e0a77aba-5254-11ea-8b9b-f70a20629fbf
e0a67d04-5254-11ea-9ff0-979bd8f3fb16,e0a78424-5254-11ea-b9bd-43b65b22d39b
e0a75602-5254-11ea-b184-1ff9953aaa25,e0a78f64-5254-11ea-9b30-bbdd97b75d1c
e0a55500-5254-11ea-ac0a-6baaf95e213b,e0a79716-5254-11ea-9af1-b3b8373e1aeb
e0a57210-5254-11ea-bc2b-af51d83dd1ef,e0a7a026-5254-11ea-90a6-73a371692b8f
e0a73690-5254-11ea-acc4-e7ef844c60a7,e0a7ab66-5254-11ea-8c8b-a3abb9d7311d
e0a6cfac-5254-11ea-9bd6-3344c7cebf5e,e0a7b2be-5254-11ea-88d9-6bcb929e6c6b
e0a3dd60-5254-11ea-b1a5-77f956e20a61,e0a7ba20-5254-11ea-8548-a7341c8e9a58
e0a6e64a-5254-11ea-bca9-63df52d6b5b2,e0a7d12c-5254-11ea-977f-5f8bfeb36b84
e0a54452-5254-11ea-81ba-9350b79cebb5,e0a7dc26-5254-11ea-b7a5-934dd1ce5ed0
e0a62674-5254-11ea-8f4c-f776e04d609b,e0a7eca2-5254-11ea-804c-03d2b7f840b7
e0a5d9da-5254-11ea-b5e4-ab34820c8fa2,e0a7fca6-5254-11ea-9258-632b134a900f
e0a4c5a4-5254-11ea-8e84-8f94258f6e8a,e0a803a4-5254-11ea-8e61-23bb5fc9aa34
e0a49bc4-5254-11ea-8ed2-cb38df12dced,e0a80a84-5254-11ea-bb4a-374a588ced4b
e0a483aa-5254-11ea-92df-43d2721b9898,e0a81222-5254-11ea-8c94-6f14be70fa6a
e0a6a4be-5254-11ea-9d7a-435e20c2eca8,e0a81da8-5254-11ea-98ea-3742b66c1b1b
e0a7405e-5254-11ea-b987-3bd4dbf0da9e,e0a82b90-5254-11ea-838c-c3366c6881fb
e0a80a84-5254-11ea-bb4a-374a588ced4b,e0a83f36-5254-11ea-86d2-3701afa0252a
e0a6f16c-5254-11ea-8dd4-23560aee406a,e0a84990-5254-11ea-adb8-473f16f155ea
e0a59be6-5254-11ea-a2fa-b30a5951113c,e0a85aac-5254-11ea-b211-4b58c5e0c91f
e0a81222-5254-11ea-8c94-6f14be70fa6a,e0a86254-5254-11ea-9f07-4f58431763a8
e0a43fda-5254-11ea-9c71-2b2462624673,e0a87244-5254-11ea-b324-6b711a7e0274
e0a7ab66-5254-11ea-8c8b-a3abb9d7311d,e0a87988-5254-11ea-a78e-7b072256585c
e0a80a84-5254-11ea-bb4a-374a588ced4b,e0a86b28-5254-11ea-9ee3-036294928074
e0a6b0da-5254-11ea-b7a0-ab88b9e956c3,e0a88590-5254-11ea-9476-b38f604a15b8
e0a3dd60-5254-11ea-b1a5-77f956e20a61,e0a8a1e2-5254-11ea-9512-3380f525730c
e0a7d12c-5254-11ea-977f-5f8bfeb36b84,e0a8bdee-5254-11ea-ab44-abd5478b6c74
e0a3eada-5254-11ea-9ebd-afe666e973e6,e0a8c622-5254-11ea-becf-23d5fe865b18
e0a6429e-5254-11ea-aa1f-5be2db0f2c21,e0a8d14e-5254-11ea-b3b6-935cae8f71eb
e0a6be0e-5254-11ea-a66c-0382dfd7f050,e0a8d946-5254-11ea-83ca-c73e28f344e7
e0a53930-5254-11ea-9a88-97652b372747,e0a8e30a-5254-11ea-a88d-e3a62fd42cf5
e0a6429e-5254-11ea-aa1f-5be2db0f2c21,e0a8ebc0-5254-11ea-a07a-df187c424509
e0a75602-5254-11ea-b184-1ff9953aaa25,e0a8f9f8-5254-11ea-a360-c3cf55aff0a3
e0a41be0-5254-11ea-b138-834b9443f812,e0a911f4-5254-11ea-981c-0318a808b728
e0a5d192-5254-11ea-89e3-df74593b7f49,e0a920e0-5254-11ea-a7f0-137673c7e1eb
e0a67d04-5254-11ea-9ff0-979bd8f3fb16,e0a93206-5254-11ea-9463-430549bb5f77
e0a6cfac-5254-11ea-9bd6-3344c7cebf5e,e0a940f2-5254-11ea-9dd6-1b848af7e3f6
e0a6be0e-5254-11ea-a66c-0382dfd7f050,e0a94962-5254-11ea-b61e-9fd96b4eb603
e0a78f64-5254-11ea-9b30-bbdd97b75d1c,e0a955ec-5254-11ea-bda7-9f46a91bd2ca
e0a56a18-5254-11ea-b03c-c72ba7811246,e0a962e4-5254-11ea-85f6-9f4f4f887b3d
e0a61ecc-5254-11ea-a02f-53f4b55e47af,e0a97252-5254-11ea-93ab-e7dad7d17fbe
e0a8d946-5254-11ea-83ca-c73e28f344e7,e0a97f18-5254-11ea-8d1a-ff5b04e19892
e0a81222-5254-11ea-8c94-6f14be70fa6a,e0a98da0-5254-11ea-bda2-bf9bd828e6b6
e0a4478c-5254-11ea-9770-d78019a7c23c,e0a99868-5254-11ea-82d5-539b5f570c74
e0a73690-5254-11ea-acc4-e7ef844c60a7,e0a99f20-5254-11ea-8b6f-c350ff48aabe
e0a955ec-5254-11ea-bda7-9f46a91bd2ca,e0a9a682-5254-11ea-be42-f78587fc8d54
e0a87244-5254-11ea-b324-6b711a7e0274,e0a9b29e-5254-11ea-bdf3-bf9132ce23c7
e0a87988-5254-11ea-a78e-7b072256585c,e0a9c2b6-5254-11ea-bcc5-87dc3d01cb88
e0a62674-5254-11ea-8f4c-f776e04d609b,e0a9cb8a-5254-11ea-8f25-8fb0e71c001b
e0a4624e-5254-11ea-844b-779c5c14557c,e0a9d60c-5254-11ea-9e6a-679327f887dc
e0a73690-5254-11ea-acc4-e7ef844c60a7,e0a9ea98-5254-11ea-9fee-4fb22e62380c
e0a5ecae-5254-11ea-9c54-1b6ffd9c6768,e0a9f33a-5254-11ea-a0c3-c7a04f00b3d7
e0a9a682-5254-11ea-be42-f78587fc8d54,e0a9fe70-5254-11ea-a2eb-dffba7f902a0
e0a4624e-5254-11ea-844b-779c5c14557c,e0aa0898-5254-11ea-a720-e3337ddefbfe
e0a663dc-5254-11ea-b1a8-17cfa31b0549,e0aa1068-5254-11ea-af55-37f449f12bb2
e0a40ccc-5254-11ea-9619-434598d79c24,e0aa2008-5254-11ea-9267-1bd48119a240
e0a483aa-5254-11ea-92df-43d2721b9898,e0aa2774-5254-11ea-bf2e-bb8d51c34421
e0a65662-5254-11ea-9f07-4fa06ff96424,e0aa37c8-5254-11ea-948f-079a9edcabe9
e0a79716-5254-11ea-9af1-b3b8373e1aeb,e0aa4ca4-5254-11ea-9d79-4bc9e58eb217
e0a81222-5254-11ea-8c94-6f14be70fa6a,e0aa53c0-5254-11ea-af29-af3babca00bf
e0a9b29e-5254-11ea-bdf3-bf9132ce23c7,e0aa611c-5254-11ea-b9bf-c7e731c66c7a
e0a88590-5254-11ea-9476-b38f604a15b8,e0aa6f2c-5254-11ea-9d53-af62c7909b81
e0a67d04-5254-11ea-9ff0-979bd8f3fb16,e0aa7710-5254-11ea-9108-f7de8c642f56
e0a69514-5254-11ea-bd62-e780eef4a96d,e0aa8304-5254-11ea-994a-af110e8a32a0
e0a94962-5254-11ea-b61e-9fd96b4eb603,e0aa8dfe-5254-11ea-abe2-3f9dfd0bb0fa
e0a78f64-5254-11ea-9b30-bbdd97b75d1c,e0aa9a60-5254-11ea-8c97-abde80216df1
e0a7d12c-5254-11ea-977f-5f8bfeb36b84,e0aaae42-5254-11ea-8e2f-0743d6024d03
e0a5d9da-5254-11ea-b5e4-ab34820c8fa2,e0aabe0a-5254-11ea-af3a-534f196a454e
e0aa8dfe-5254-11ea-abe2-3f9dfd0bb0fa,e0aac72e-5254-11ea-a67f-478bf2f6c50c
e0a84990-5254-11ea-adb8-473f16f155ea,e0aad3fe-5254-11ea-b373-efb28968afba
e0a81222-5254-11ea-8c94-6f14be70fa6a,e0aadcdc-5254-11ea-99d6-6782d8406c3d
e0aa4ca4-5254-11ea-9d79-4bc9e58eb217,e0aae934-5254-11ea-adb0-1ba055aa948d
e0a6a4be-5254-11ea-9d7a-435e20c2eca8,e0aaf7ee-5254-11ea-a865-d34594935fc1
e0a78424-5254-11ea-b9bd-43b65b22d39b,e0aafef6-5254-11ea-8e62-efff11e74747
e0a64988-5254-11ea-95e4-9f71a3997b81,e0ab1120-5254-11ea-9805-978134fb2413
e0a803a4-5254-11ea-8e61-23bb5fc9aa34,e0ab21c4-5254-11ea-bd57-efb53b5aec26
e0a3cf78-5254-11ea-b9cf-57dbd635686e,e0ab2ad4-5254-11ea-88c5-1fb2e38c3e56
e0a5c4fe-5254-11ea-b627-ebbec6fa31a7,e0ab30e2-5254-11ea-91fd-f3335c13f378
e0a9c2b6-5254-11ea-bcc5-87dc3d01cb88,e0ab3bbe-5254-11ea-acff-cb0d6cf05c65
e0aa611c-5254-11ea-b9bf-c7e731c66c7a,e0ab4848-5254-11ea-a381-031b734d434a
e0a49bc4-5254-11ea-8ed2-cb38df12dced,e0ab577a-5254-11ea-bd7b-f780082b860f
