RunID,Tick,AllAgents,Active,Inactive
run-2020-2-18-13-45-8.68078494,0,15,13,2
run-2020-2-18-13-45-8.68078494,1,18,15,3
run-2020-2-18-13-45-8.68078494,2,21,16,5
run-2020-2-18-13-45-8.68078494,3,27,20,7
run-2020-2-18-13-45-8.68078494,4,30,17,13
run-2020-2-18-13-45-8.68078494,5,35,14,21
run-2020-2-18-13-45-8.68078494,6,42,17,25
run-2020-2-18-13-45-8.68078494,7,47,20,27
run-2020-2-18-13-45-8.68078494,8,50,22,28
run-2020-2-18-13-45-8.68078494,9,53,21,32
run-2020-2-18-13-45-8.68078494,10,54,20,34
run-2020-2-18-13-45-8.68078494,11,59,23,36
run-2020-2-18-13-45-8.68078494,12,62,22,40
run-2020-2-18-13-45-8.68078494,13,65,21,44
run-2020-2-18-13-45-8.68078494,14,67,19,48
run-2020-2-18-13-45-8.68078494,15,69,18,51
run-2020-2-18-13-45-8.68078494,16,73,22,51
run-2020-2-18-13-45-8.68078494,17,76,22,54
run-2020-2-18-13-45-8.68078494,18,80,25,55
run-2020-2-18-13-45-8.68078494,19,84,25,59
run-2020-2-18-13-45-8.68078494,20,88,26,62
run-2020-2-18-13-45-8.68078494,21,90,27,63
run-2020-2-18-13-45-8.68078494,22,93,28,65
run-2020-2-18-13-45-8.68078494,23,100,35,65
run-2020-2-18-13-45-8.68078494,24,101,33,68
run-2020-2-18-13-45-8.68078494,25,110,39,71
run-2020-2-18-13-45-8.68078494,26,114,39,75
run-2020-2-18-13-45-8.68078494,27,119,42,77
run-2020-2-18-13-45-8.68078494,28,121,43,78
run-2020-2-18-13-45-8.68078494,29,126,48,78
run-2020-2-18-13-45-8.68078494,30,131,52,79
run-2020-2-18-13-45-8.68078494,31,137,52,85
run-2020-2-18-13-45-8.68078494,32,140,53,87
run-2020-2-18-13-45-8.68078494,33,146,55,91
run-2020-2-18-13-45-8.68078494,34,146,49,97
run-2020-2-18-13-45-8.68078494,35,152,53,99
run-2020-2-18-13-45-8.68078494,36,155,52,103
run-2020-2-18-13-45-8.68078494,37,156,53,103
run-2020-2-18-13-45-8.68078494,38,158,51,107
run-2020-2-18-13-45-8.68078494,39,162,54,108
run-2020-2-18-13-45-8.68078494,40,169,56,113
run-2020-2-18-13-45-8.68078494,41,171,57,114
run-2020-2-18-13-45-8.68078494,42,177,61,116
run-2020-2-18-13-45-8.68078494,43,179,58,121
run-2020-2-18-13-45-8.68078494,44,186,63,123
run-2020-2-18-13-45-8.68078494,45,188,59,129
run-2020-2-18-13-45-8.68078494,46,193,60,133
run-2020-2-18-13-45-8.68078494,47,195,61,134
run-2020-2-18-13-45-8.68078494,48,199,63,136
run-2020-2-18-13-45-8.68078494,49,203,60,143
