RunID,Tick,ActiveAgentsPerTick
run-2020-2-18-18-4-16.584042072,0,13
run-2020-2-18-18-4-16.584042072,1,14
run-2020-2-18-18-4-16.584042072,2,18
run-2020-2-18-18-4-16.584042072,3,17
run-2020-2-18-18-4-16.584042072,4,19
run-2020-2-18-18-4-16.584042072,5,20
run-2020-2-18-18-4-16.584042072,6,22
run-2020-2-18-18-4-16.584042072,7,21
run-2020-2-18-18-4-16.584042072,8,19
run-2020-2-18-18-4-16.584042072,9,20
run-2020-2-18-18-4-16.584042072,10,18
run-2020-2-18-18-4-16.584042072,11,20
run-2020-2-18-18-4-16.584042072,12,23
run-2020-2-18-18-4-16.584042072,13,28
run-2020-2-18-18-4-16.584042072,14,32
run-2020-2-18-18-4-16.584042072,15,34
run-2020-2-18-18-4-16.584042072,16,31
run-2020-2-18-18-4-16.584042072,17,30
run-2020-2-18-18-4-16.584042072,18,30
run-2020-2-18-18-4-16.584042072,19,36
run-2020-2-18-18-4-16.584042072,20,33
run-2020-2-18-18-4-16.584042072,21,31
run-2020-2-18-18-4-16.584042072,22,33
run-2020-2-18-18-4-16.584042072,23,33
run-2020-2-18-18-4-16.584042072,24,35
run-2020-2-18-18-4-16.584042072,25,34
run-2020-2-18-18-4-16.584042072,26,34
run-2020-2-18-18-4-16.584042072,27,35
run-2020-2-18-18-4-16.584042072,28,35
run-2020-2-18-18-4-16.584042072,29,35
run-2020-2-18-18-4-16.584042072,30,35
run-2020-2-18-18-4-16.584042072,31,37
run-2020-2-18-18-4-16.584042072,32,34
run-2020-2-18-18-4-16.584042072,33,36
run-2020-2-18-18-4-16.584042072,34,36
run-2020-2-18-18-4-16.584042072,35,42
run-2020-2-18-18-4-16.584042072,36,41
run-2020-2-18-18-4-16.584042072,37,45
run-2020-2-18-18-4-16.584042072,38,49
run-2020-2-18-18-4-16.584042072,39,43
run-2020-2-18-18-4-16.584042072,40,47
run-2020-2-18-18-4-16.584042072,41,47
run-2020-2-18-18-4-16.584042072,42,49
run-2020-2-18-18-4-16.584042072,43,47
run-2020-2-18-18-4-16.584042072,44,51
run-2020-2-18-18-4-16.584042072,45,52
run-2020-2-18-18-4-16.584042072,46,53
run-2020-2-18-18-4-16.584042072,47,48
run-2020-2-18-18-4-16.584042072,48,47
run-2020-2-18-18-4-16.584042072,49,46
run-2020-2-18-18-4-16.584042072,50,54
run-2020-2-18-18-4-16.584042072,51,55
run-2020-2-18-18-4-16.584042072,52,53
run-2020-2-18-18-4-16.584042072,53,50
run-2020-2-18-18-4-16.584042072,54,50
run-2020-2-18-18-4-16.584042072,55,48
run-2020-2-18-18-4-16.584042072,56,47
run-2020-2-18-18-4-16.584042072,57,50
run-2020-2-18-18-4-16.584042072,58,51
run-2020-2-18-18-4-16.584042072,59,52
run-2020-2-18-18-4-16.584042072,60,52
run-2020-2-18-18-4-16.584042072,61,47
run-2020-2-18-18-4-16.584042072,62,49
run-2020-2-18-18-4-16.584042072,63,53
run-2020-2-18-18-4-16.584042072,64,54
run-2020-2-18-18-4-16.584042072,65,60
run-2020-2-18-18-4-16.584042072,66,59
run-2020-2-18-18-4-16.584042072,67,56
run-2020-2-18-18-4-16.584042072,68,54
run-2020-2-18-18-4-16.584042072,69,53
run-2020-2-18-18-4-16.584042072,70,53
run-2020-2-18-18-4-16.584042072,71,56
run-2020-2-18-18-4-16.584042072,72,52
run-2020-2-18-18-4-16.584042072,73,47
run-2020-2-18-18-4-16.584042072,74,46
run-2020-2-18-18-4-16.584042072,75,51
run-2020-2-18-18-4-16.584042072,76,54
run-2020-2-18-18-4-16.584042072,77,55
run-2020-2-18-18-4-16.584042072,78,56
run-2020-2-18-18-4-16.584042072,79,55
run-2020-2-18-18-4-16.584042072,80,57
run-2020-2-18-18-4-16.584042072,81,58
run-2020-2-18-18-4-16.584042072,82,61
run-2020-2-18-18-4-16.584042072,83,60
run-2020-2-18-18-4-16.584042072,84,57
run-2020-2-18-18-4-16.584042072,85,58
run-2020-2-18-18-4-16.584042072,86,58
run-2020-2-18-18-4-16.584042072,87,57
run-2020-2-18-18-4-16.584042072,88,59
run-2020-2-18-18-4-16.584042072,89,62
run-2020-2-18-18-4-16.584042072,90,58
run-2020-2-18-18-4-16.584042072,91,58
run-2020-2-18-18-4-16.584042072,92,58
run-2020-2-18-18-4-16.584042072,93,54
run-2020-2-18-18-4-16.584042072,94,55
run-2020-2-18-18-4-16.584042072,95,57
run-2020-2-18-18-4-16.584042072,96,57
run-2020-2-18-18-4-16.584042072,97,55
run-2020-2-18-18-4-16.584042072,98,54
run-2020-2-18-18-4-16.584042072,99,54
run-2020-2-18-18-4-16.584042072,100,51
