Source,Target
LAWa3f472a4-5fbe-11ea-b93b-538161a07474,LAWa3f48884-5fbe-11ea-a318-6755f2099979
LAWa3f47696-5fbe-11ea-962a-6b01449e91ab,LAWa3f49914-5fbe-11ea-b57f-7becf0aad65c
LAWa3f48884-5fbe-11ea-a318-6755f2099979,LAWa3f494dc-5fbe-11ea-99bc-c3a4001eb070
