Source,Target
264bfa00-5a11-11ea-953d-a7dcacf8e8ab,264c0ea0-5a11-11ea-aba8-6f3c67df5108
264bd372-5a11-11ea-a7af-f7cde82d8bb7,264c2b88-5a11-11ea-b05e-efb104bb5bd0
264c0b9e-5a11-11ea-bb89-834983b3cf03,264c3038-5a11-11ea-a86b-1726637103a2
264bfa00-5a11-11ea-953d-a7dcacf8e8ab,264c336c-5a11-11ea-be59-afbf29c6662a
264bf596-5a11-11ea-8260-176a946334ef,264c3d6c-5a11-11ea-9c14-93f9b60edad3
264c3038-5a11-11ea-a86b-1726637103a2,264c400a-5a11-11ea-9bb6-53c963f713aa
264bd20a-5a11-11ea-ae00-5be4203b4393,264c4384-5a11-11ea-974d-67a53cb3e6f8
264c0838-5a11-11ea-ac1d-372f0cdbbeb4,264c467c-5a11-11ea-9540-3b4e4d6d52cf
264c400a-5a11-11ea-9bb6-53c963f713aa,264c4c3a-5a11-11ea-9917-bff02d2819d8
264bccb0-5a11-11ea-b454-db626ad27ce0,264c6058-5a11-11ea-8ce6-33c581aa256c
264c3d6c-5a11-11ea-9c14-93f9b60edad3,264c68c8-5a11-11ea-95a5-bfd039b83765
264bfd34-5a11-11ea-bfef-5fbd9558c804,264c6a12-5a11-11ea-a9a3-0377ccf9484e
264bd372-5a11-11ea-a7af-f7cde82d8bb7,264c71ba-5a11-11ea-92a1-4f43ae1a4f6d
264c3038-5a11-11ea-a86b-1726637103a2,264c75a2-5a11-11ea-a57e-477e3a321a3f
264c6058-5a11-11ea-8ce6-33c581aa256c,264c7976-5a11-11ea-9b37-53f1fce7b661
264bd372-5a11-11ea-a7af-f7cde82d8bb7,264c7ec6-5a11-11ea-88ff-634728c328f3
264c336c-5a11-11ea-be59-afbf29c6662a,264c82ea-5a11-11ea-bb8d-e7d84fc060f5
264c7976-5a11-11ea-9b37-53f1fce7b661,264ca162-5a11-11ea-9102-afc84f907c6c
264c82ea-5a11-11ea-bb8d-e7d84fc060f5,264ca504-5a11-11ea-885b-0fe9f15c5052
264c336c-5a11-11ea-be59-afbf29c6662a,264ca86a-5a11-11ea-9ff0-afc399ceeb69
264bfd34-5a11-11ea-bfef-5fbd9558c804,264cac5c-5a11-11ea-925c-97b3933b949a
264c467c-5a11-11ea-9540-3b4e4d6d52cf,264cafe0-5a11-11ea-b019-d758292421e3
264c2b88-5a11-11ea-b05e-efb104bb5bd0,264cb364-5a11-11ea-9431-af988adfd937
264c467c-5a11-11ea-9540-3b4e4d6d52cf,264cbb98-5a11-11ea-ae15-3fe653e52f1b
264c71ba-5a11-11ea-92a1-4f43ae1a4f6d,264cbd14-5a11-11ea-90f9-9fdcc37da88b
264cafe0-5a11-11ea-b019-d758292421e3,264ce122-5a11-11ea-94f9-674aa7dcbbe4
264ca86a-5a11-11ea-9ff0-afc399ceeb69,264cd89e-5a11-11ea-a497-f744ffd0a42b
264cafe0-5a11-11ea-b019-d758292421e3,264cdc18-5a11-11ea-b694-3fd1a428fb9e
264c2b88-5a11-11ea-b05e-efb104bb5bd0,264ce53c-5a11-11ea-8c24-db1ce3c64eca
264c0838-5a11-11ea-ac1d-372f0cdbbeb4,264ce82a-5a11-11ea-bcdf-4b245a9f7897
264ce82a-5a11-11ea-bcdf-4b245a9f7897,264ceb7c-5a11-11ea-962e-8bc0baef1cb0
264bf596-5a11-11ea-8260-176a946334ef,264cf39c-5a11-11ea-8ab0-5f5a0d63b402
264bfd34-5a11-11ea-bfef-5fbd9558c804,264d0b3e-5a11-11ea-ab65-0b6e5c9382a8
264c070c-5a11-11ea-8b22-6bbd6a8b86ec,264d11e2-5a11-11ea-a3a9-2fe8e0544c0f
264c6a12-5a11-11ea-a9a3-0377ccf9484e,264d153e-5a11-11ea-a3c7-c7bf0abdb5e3
264c82ea-5a11-11ea-bb8d-e7d84fc060f5,264d1a2a-5a11-11ea-97c5-9fef1a227f3c
264ce82a-5a11-11ea-bcdf-4b245a9f7897,264d1f5c-5a11-11ea-808f-7b59e8608fff
264ce82a-5a11-11ea-bcdf-4b245a9f7897,264d2394-5a11-11ea-a30a-0b4bc6965290
264d11e2-5a11-11ea-a3a9-2fe8e0544c0f,264d24fc-5a11-11ea-9708-cfd4305363ba
264c6a12-5a11-11ea-a9a3-0377ccf9484e,264d2af6-5a11-11ea-9417-77818a2838a6
264d0b3e-5a11-11ea-ab65-0b6e5c9382a8,264d41d0-5a11-11ea-abf4-9f859c74853c
264cd89e-5a11-11ea-a497-f744ffd0a42b,264d4734-5a11-11ea-90c7-ab47c63a1bd3
264c2b88-5a11-11ea-b05e-efb104bb5bd0,264d4b8a-5a11-11ea-823b-577708cb514b
264ce53c-5a11-11ea-8c24-db1ce3c64eca,264d50f8-5a11-11ea-aa84-932689b5c58f
264d153e-5a11-11ea-a3c7-c7bf0abdb5e3,264d58d2-5a11-11ea-a4c8-b3c344a50e68
264ceb7c-5a11-11ea-962e-8bc0baef1cb0,264d5a6c-5a11-11ea-ac1a-4f8e0b842a31
264cd89e-5a11-11ea-a497-f744ffd0a42b,264d6264-5a11-11ea-82e9-d781d20d46c9
264d4734-5a11-11ea-90c7-ab47c63a1bd3,264d63c2-5a11-11ea-b3eb-bfeef61291fe
264cf39c-5a11-11ea-8ab0-5f5a0d63b402,264d7790-5a11-11ea-9feb-1f796a414fd5
264ca504-5a11-11ea-885b-0fe9f15c5052,264d84ba-5a11-11ea-9ef8-5bd75f3ad5ff
264c3038-5a11-11ea-a86b-1726637103a2,264d8410-5a11-11ea-8430-2b05b3a26e09
264d2af6-5a11-11ea-9417-77818a2838a6,264d88e8-5a11-11ea-ac73-67884a34c649
264d50f8-5a11-11ea-aa84-932689b5c58f,264d8fdc-5a11-11ea-b623-1b857f2271c7
264d4734-5a11-11ea-90c7-ab47c63a1bd3,264d9306-5a11-11ea-b670-8bc34e828c29
264d4734-5a11-11ea-90c7-ab47c63a1bd3,264d9b62-5a11-11ea-a5f5-43505d880744
264c336c-5a11-11ea-be59-afbf29c6662a,264d9ce8-5a11-11ea-9fa6-77b551bc2819
264ce122-5a11-11ea-94f9-674aa7dcbbe4,264dae4a-5a11-11ea-a640-b72f51f422a1
264d1f5c-5a11-11ea-808f-7b59e8608fff,264dbbce-5a11-11ea-a7af-33780b361a8e
264d50f8-5a11-11ea-aa84-932689b5c58f,264dc1d2-5a11-11ea-a633-736f4741dffb
264d9ce8-5a11-11ea-9fa6-77b551bc2819,264dc4c0-5a11-11ea-b377-e34ed2377156
264d24fc-5a11-11ea-9708-cfd4305363ba,264dc8f8-5a11-11ea-a13d-678b21c0f01e
264dc8f8-5a11-11ea-a13d-678b21c0f01e,264dd00a-5a11-11ea-a027-478b4f0b1383
264d9306-5a11-11ea-b670-8bc34e828c29,264dd32a-5a11-11ea-8ed0-5750f80b5eb6
264d88e8-5a11-11ea-ac73-67884a34c649,264dd604-5a11-11ea-8247-831a138fffa3
264d9b62-5a11-11ea-a5f5-43505d880744,264de3ec-5a11-11ea-9d6e-cb6717343f6e
264d4734-5a11-11ea-90c7-ab47c63a1bd3,264df17a-5a11-11ea-b172-e79c77aafc3d
264cf39c-5a11-11ea-8ab0-5f5a0d63b402,264dfaee-5a11-11ea-9b56-0f686df4c577
264d24fc-5a11-11ea-9708-cfd4305363ba,264dfeb8-5a11-11ea-bd44-2f934347a8f0
264d6264-5a11-11ea-82e9-d781d20d46c9,264e02a0-5a11-11ea-89bd-973b8cfd83b1
264c2b88-5a11-11ea-b05e-efb104bb5bd0,264e0930-5a11-11ea-a6e8-3bf3de1cb77b
264dfaee-5a11-11ea-9b56-0f686df4c577,264e0d54-5a11-11ea-8afe-4be357ed1e29
264d1a2a-5a11-11ea-97c5-9fef1a227f3c,264e10ba-5a11-11ea-986f-a734e782e5c3
264ce122-5a11-11ea-94f9-674aa7dcbbe4,264e1be6-5a11-11ea-aa28-0fee1af7d1f0
264cd89e-5a11-11ea-a497-f744ffd0a42b,264e29a6-5a11-11ea-aaf1-37cbe7d74c73
264cb364-5a11-11ea-9431-af988adfd937,264e354a-5a11-11ea-bfa7-0bc8eac762e4
264c2b88-5a11-11ea-b05e-efb104bb5bd0,264e3b6c-5a11-11ea-bd57-731ed59be0ed
264d9ce8-5a11-11ea-9fa6-77b551bc2819,264e3a18-5a11-11ea-8e68-5325aec8c96b
264dae4a-5a11-11ea-a640-b72f51f422a1,264e48aa-5a11-11ea-8018-df22fff5d64b
264ceb7c-5a11-11ea-962e-8bc0baef1cb0,264e537c-5a11-11ea-8095-af528450d101
264d7790-5a11-11ea-9feb-1f796a414fd5,264e5610-5a11-11ea-b580-7f342145dadd
264bf596-5a11-11ea-8260-176a946334ef,264e5ed0-5a11-11ea-b7c5-5f62cdf7dd4a
264e354a-5a11-11ea-bfa7-0bc8eac762e4,264e640c-5a11-11ea-bfa9-b75126d50986
264cb364-5a11-11ea-9431-af988adfd937,264e6c18-5a11-11ea-9eba-071d63fd31ce
264c68c8-5a11-11ea-95a5-bfd039b83765,264e708c-5a11-11ea-9fb7-239d4c736ff1
264cdc18-5a11-11ea-b694-3fd1a428fb9e,264e7776-5a11-11ea-9762-3790a78f7e3a
264ceb7c-5a11-11ea-962e-8bc0baef1cb0,264e7f78-5a11-11ea-836a-d3bf596c117b
264d1a2a-5a11-11ea-97c5-9fef1a227f3c,264e8b1c-5a11-11ea-b2fd-bf177ca4fd0f
264e3a18-5a11-11ea-8e68-5325aec8c96b,264e9102-5a11-11ea-9ed5-a3b615673bae
264e5610-5a11-11ea-b580-7f342145dadd,264e9756-5a11-11ea-a8eb-0fd84d1f35ee
264c3d6c-5a11-11ea-9c14-93f9b60edad3,264ea6f6-5a11-11ea-89c1-8bd275eb9731
264de3ec-5a11-11ea-9d6e-cb6717343f6e,264eaa5c-5a11-11ea-8216-9f4bef72af9a
264e9756-5a11-11ea-a8eb-0fd84d1f35ee,264eadf4-5a11-11ea-8336-3f4845c564e7
264ceb7c-5a11-11ea-962e-8bc0baef1cb0,264eb1d2-5a11-11ea-ae04-43964fe78bf7
