RunID,Tick,ActiveAgentsPerTick
run-2020-2-18-14-10-42.503348112,0,17
run-2020-2-18-14-10-42.503348112,1,20
run-2020-2-18-14-10-42.503348112,2,23
run-2020-2-18-14-10-42.503348112,3,26
run-2020-2-18-14-10-42.503348112,4,25
run-2020-2-18-14-10-42.503348112,5,24
run-2020-2-18-14-10-42.503348112,6,29
run-2020-2-18-14-10-42.503348112,7,31
run-2020-2-18-14-10-42.503348112,8,31
run-2020-2-18-14-10-42.503348112,9,31
run-2020-2-18-14-10-42.503348112,10,32
run-2020-2-18-14-10-42.503348112,11,29
run-2020-2-18-14-10-42.503348112,12,31
run-2020-2-18-14-10-42.503348112,13,36
run-2020-2-18-14-10-42.503348112,14,37
run-2020-2-18-14-10-42.503348112,15,37
run-2020-2-18-14-10-42.503348112,16,38
run-2020-2-18-14-10-42.503348112,17,38
run-2020-2-18-14-10-42.503348112,18,40
run-2020-2-18-14-10-42.503348112,19,38
run-2020-2-18-14-10-42.503348112,20,40
run-2020-2-18-14-10-42.503348112,21,44
run-2020-2-18-14-10-42.503348112,22,42
run-2020-2-18-14-10-42.503348112,23,42
run-2020-2-18-14-10-42.503348112,24,41
run-2020-2-18-14-10-42.503348112,25,40
run-2020-2-18-14-10-42.503348112,26,40
run-2020-2-18-14-10-42.503348112,27,41
run-2020-2-18-14-10-42.503348112,28,43
run-2020-2-18-14-10-42.503348112,29,45
run-2020-2-18-14-10-42.503348112,30,43
run-2020-2-18-14-10-42.503348112,31,42
run-2020-2-18-14-10-42.503348112,32,41
run-2020-2-18-14-10-42.503348112,33,44
run-2020-2-18-14-10-42.503348112,34,49
run-2020-2-18-14-10-42.503348112,35,48
run-2020-2-18-14-10-42.503348112,36,50
run-2020-2-18-14-10-42.503348112,37,48
run-2020-2-18-14-10-42.503348112,38,49
run-2020-2-18-14-10-42.503348112,39,46
run-2020-2-18-14-10-42.503348112,40,46
run-2020-2-18-14-10-42.503348112,41,48
run-2020-2-18-14-10-42.503348112,42,48
run-2020-2-18-14-10-42.503348112,43,48
run-2020-2-18-14-10-42.503348112,44,49
run-2020-2-18-14-10-42.503348112,45,52
run-2020-2-18-14-10-42.503348112,46,50
run-2020-2-18-14-10-42.503348112,47,50
run-2020-2-18-14-10-42.503348112,48,54
run-2020-2-18-14-10-42.503348112,49,55
run-2020-2-18-14-10-42.503348112,50,45
run-2020-2-18-14-10-42.503348112,51,46
run-2020-2-18-14-10-42.503348112,52,45
run-2020-2-18-14-10-42.503348112,53,40
run-2020-2-18-14-10-42.503348112,54,38
run-2020-2-18-14-10-42.503348112,55,38
run-2020-2-18-14-10-42.503348112,56,40
run-2020-2-18-14-10-42.503348112,57,40
run-2020-2-18-14-10-42.503348112,58,38
run-2020-2-18-14-10-42.503348112,59,38
run-2020-2-18-14-10-42.503348112,60,39
run-2020-2-18-14-10-42.503348112,61,41
run-2020-2-18-14-10-42.503348112,62,45
run-2020-2-18-14-10-42.503348112,63,49
run-2020-2-18-14-10-42.503348112,64,48
run-2020-2-18-14-10-42.503348112,65,44
run-2020-2-18-14-10-42.503348112,66,43
run-2020-2-18-14-10-42.503348112,67,44
run-2020-2-18-14-10-42.503348112,68,45
run-2020-2-18-14-10-42.503348112,69,48
run-2020-2-18-14-10-42.503348112,70,49
run-2020-2-18-14-10-42.503348112,71,49
run-2020-2-18-14-10-42.503348112,72,49
run-2020-2-18-14-10-42.503348112,73,48
run-2020-2-18-14-10-42.503348112,74,46
run-2020-2-18-14-10-42.503348112,75,42
run-2020-2-18-14-10-42.503348112,76,41
run-2020-2-18-14-10-42.503348112,77,41
run-2020-2-18-14-10-42.503348112,78,42
run-2020-2-18-14-10-42.503348112,79,48
run-2020-2-18-14-10-42.503348112,80,51
run-2020-2-18-14-10-42.503348112,81,46
run-2020-2-18-14-10-42.503348112,82,50
run-2020-2-18-14-10-42.503348112,83,50
run-2020-2-18-14-10-42.503348112,84,52
run-2020-2-18-14-10-42.503348112,85,54
run-2020-2-18-14-10-42.503348112,86,54
run-2020-2-18-14-10-42.503348112,87,56
run-2020-2-18-14-10-42.503348112,88,56
run-2020-2-18-14-10-42.503348112,89,52
run-2020-2-18-14-10-42.503348112,90,53
run-2020-2-18-14-10-42.503348112,91,51
run-2020-2-18-14-10-42.503348112,92,54
run-2020-2-18-14-10-42.503348112,93,54
run-2020-2-18-14-10-42.503348112,94,54
run-2020-2-18-14-10-42.503348112,95,56
run-2020-2-18-14-10-42.503348112,96,55
run-2020-2-18-14-10-42.503348112,97,55
run-2020-2-18-14-10-42.503348112,98,50
run-2020-2-18-14-10-42.503348112,99,48
run-2020-2-18-14-10-42.503348112,100,45
