Source,Target
733db6ca-5258-11ea-9b2c-0f069acb48c2,733fa4da-5258-11ea-9fe4-97529195f5e1
733d33a8-5258-11ea-8386-abda053e585c,733fb51a-5258-11ea-8dbb-b33de816aa34
733e2d8a-5258-11ea-85f2-6b9361918d46,733fc6ea-5258-11ea-8552-6f710c4c1152
733cdafc-5258-11ea-999c-1fc335addacb,733fdaea-5258-11ea-beea-cfda21e0a12b
733e9194-5258-11ea-89b3-4b0565be9d7f,733fecba-5258-11ea-9ba6-cb96252f9e7d
733fa4da-5258-11ea-9fe4-97529195f5e1,733ffffc-5258-11ea-8d9a-f7c178ecf7ff
733e5274-5258-11ea-9643-63e5fb4e3f5f,73401438-5258-11ea-ad64-db740a81e964
733ca5dc-5258-11ea-8352-3fb0ee3d63ae,734024aa-5258-11ea-bedd-93fbe5c7243d
733c32a0-5258-11ea-98e4-c3da1ccfa21a,73403490-5258-11ea-b81a-33a57ea70e3c
733cc986-5258-11ea-9148-0bc51cf5a8b2,7340467e-5258-11ea-80ae-d7dbda0534c8
733dc78c-5258-11ea-b68a-73cd449038ea,73405902-5258-11ea-b05e-ffcb700f11cc
733e4126-5258-11ea-884c-d39ccf9b7280,73406942-5258-11ea-921b-ab1e64493f60
733cdafc-5258-11ea-999c-1fc335addacb,73407950-5258-11ea-a586-5b66ff782ad0
733cebf0-5258-11ea-b52c-67d8f0dcb2d0,73408cec-5258-11ea-9531-8b9f80a9c948
733d46ea-5258-11ea-9e0b-3334abe7be2b,73409b4c-5258-11ea-b8f0-2b26a40b8d81
733fecba-5258-11ea-9ba6-cb96252f9e7d,7340aaa6-5258-11ea-a821-f767c87c4f6e
733fecba-5258-11ea-9ba6-cb96252f9e7d,7340b942-5258-11ea-93aa-cf3d2362be6a
733f2226-5258-11ea-816f-b3c404dc0627,7340ccac-5258-11ea-b1c6-d76990945798
733d69a4-5258-11ea-87fc-53b194980d18,7340de7c-5258-11ea-8874-27ae41192beb
7340aaa6-5258-11ea-a821-f767c87c4f6e,7340ef34-5258-11ea-acf4-5bca18c86068
733d22aa-5258-11ea-8abf-5b61a77721d8,73410046-5258-11ea-9b8d-43deb00a74c9
733fecba-5258-11ea-9ba6-cb96252f9e7d,7341109a-5258-11ea-9eb0-2ff2be6aa2d5
733f322a-5258-11ea-abd6-a75c94363a77,734133b8-5258-11ea-96d1-b3f7bf444292
733eeefa-5258-11ea-8c35-1387ee74d451,73412170-5258-11ea-b394-474f7234f176
733d46ea-5258-11ea-9e0b-3334abe7be2b,734143f8-5258-11ea-9fbf-e7ab1cec489c
733d46ea-5258-11ea-9e0b-3334abe7be2b,73416694-5258-11ea-a71a-efd8d41ba64b
7341109a-5258-11ea-9eb0-2ff2be6aa2d5,734156ea-5258-11ea-b4af-afedc240640d
733e5274-5258-11ea-9643-63e5fb4e3f5f,7341788c-5258-11ea-b511-9327cfff5934
734143f8-5258-11ea-9fbf-e7ab1cec489c,73418b56-5258-11ea-8d0e-f33f08f112d2
733fdaea-5258-11ea-beea-cfda21e0a12b,73419c2c-5258-11ea-bf3a-df58a06b00ee
73405902-5258-11ea-b05e-ffcb700f11cc,7341adf2-5258-11ea-bd95-e7d0d57f1ae6
7340ccac-5258-11ea-b1c6-d76990945798,7341c094-5258-11ea-ab30-ff41125e9557
733dc78c-5258-11ea-b68a-73cd449038ea,7341d188-5258-11ea-8059-33845ed1f437
73412170-5258-11ea-b394-474f7234f176,7341e29a-5258-11ea-810b-4ffc11e6c86e
733ea2e2-5258-11ea-ae74-0fb9bedb702d,7341f41a-5258-11ea-abb0-178b36140c69
73408cec-5258-11ea-9531-8b9f80a9c948,73420626-5258-11ea-94c1-8b33d73ff86a
733edc8a-5258-11ea-97df-e75ae8eb4a8f,73422890-5258-11ea-b540-739843bc7416
73419c2c-5258-11ea-bf3a-df58a06b00ee,7342154e-5258-11ea-883a-6f46481b1373
733fa4da-5258-11ea-9fe4-97529195f5e1,73424c44-5258-11ea-bed5-1fbf86a14267
7340de7c-5258-11ea-8874-27ae41192beb,73423ed4-5258-11ea-baea-f3fd03ba3018
7341788c-5258-11ea-b511-9327cfff5934,73425f86-5258-11ea-acc6-7b961c8dd06d
733fb51a-5258-11ea-8dbb-b33de816aa34,7342705c-5258-11ea-95f1-734a91d1edda
73410046-5258-11ea-9b8d-43deb00a74c9,73428100-5258-11ea-8f1c-2f1c804869db
733d58a6-5258-11ea-998d-a378a974a3a1,7342912c-5258-11ea-a02d-5f05754fe674
7342705c-5258-11ea-95f1-734a91d1edda,7342a586-5258-11ea-a753-037bf5595b4a
73425f86-5258-11ea-acc6-7b961c8dd06d,7342b5da-5258-11ea-9734-3b0ffb3adb29
733c20bc-5258-11ea-8bd9-abab00bb38cb,7342c5a2-5258-11ea-b0dc-c751d6d35325
7341c094-5258-11ea-ab30-ff41125e9557,7342d9c0-5258-11ea-9da8-071c99348b8c
733df1c6-5258-11ea-8a82-e3225a0a71cd,7342eeb0-5258-11ea-9964-af4997f605a5
7342705c-5258-11ea-95f1-734a91d1edda,73430152-5258-11ea-aaf9-d3dfe0d229ed
733d46ea-5258-11ea-9e0b-3334abe7be2b,73431926-5258-11ea-9fd0-c3df987e4c87
733d7c3c-5258-11ea-b923-db3f17eb6c25,734328d0-5258-11ea-bb10-eb0b90b516e0
733c32a0-5258-11ea-98e4-c3da1ccfa21a,73433c44-5258-11ea-af72-cf14dfcfeb31
733fdaea-5258-11ea-beea-cfda21e0a12b,73434da6-5258-11ea-8156-434d0689a650
7341c094-5258-11ea-ab30-ff41125e9557,73435eea-5258-11ea-80c2-9bfadbb08d73
733f4846-5258-11ea-9601-3b1d4e8a9027,73437114-5258-11ea-9310-f7e70a19ee71
73435eea-5258-11ea-80c2-9bfadbb08d73,73438154-5258-11ea-b636-c3469a369f1e
733d69a4-5258-11ea-87fc-53b194980d18,734391da-5258-11ea-bda6-7ff12de4e2cd
7341109a-5258-11ea-9eb0-2ff2be6aa2d5,7343a634-5258-11ea-8303-7ba0b1e8da6d
7341109a-5258-11ea-9eb0-2ff2be6aa2d5,7343b6ec-5258-11ea-91ef-776305654030
734391da-5258-11ea-bda6-7ff12de4e2cd,7343c966-5258-11ea-82bc-777f0d7f5ae8
73420626-5258-11ea-94c1-8b33d73ff86a,7343da82-5258-11ea-ba85-a76aac12e866
73438154-5258-11ea-b636-c3469a369f1e,7343eb12-5258-11ea-9340-535c26a9fbc9
733edc8a-5258-11ea-97df-e75ae8eb4a8f,7343fd3c-5258-11ea-b3f1-eb012cf3173c
73438154-5258-11ea-b636-c3469a369f1e,73440f66-5258-11ea-a714-73b8742640c8
7341adf2-5258-11ea-bd95-e7d0d57f1ae6,73442190-5258-11ea-88e1-274821ed25aa
7340de7c-5258-11ea-8874-27ae41192beb,7344314e-5258-11ea-963a-bb5e76a7ab8a
733e65a2-5258-11ea-b38c-6f4c9775276c,73443fae-5258-11ea-9024-b732fb37662a
733e029c-5258-11ea-b03e-574f308bbf1a,73444d46-5258-11ea-9fc8-132050b5c8b8
7344314e-5258-11ea-963a-bb5e76a7ab8a,73446344-5258-11ea-898c-af855b44f0ef
7341d188-5258-11ea-8059-33845ed1f437,7344738e-5258-11ea-b684-5bb64cf6fa8a
73412170-5258-11ea-b394-474f7234f176,7344839c-5258-11ea-ac92-27e9c13acc87
73428100-5258-11ea-8f1c-2f1c804869db,7344962a-5258-11ea-97e0-bf8e479b1726
734391da-5258-11ea-bda6-7ff12de4e2cd,7344a868-5258-11ea-a05c-17cc7a22084e
734143f8-5258-11ea-9fbf-e7ab1cec489c,7344bc9a-5258-11ea-8346-db770582ae5b
73438154-5258-11ea-b636-c3469a369f1e,7344ce7e-5258-11ea-9c23-4f677c777419
73428100-5258-11ea-8f1c-2f1c804869db,7344df90-5258-11ea-87b4-972fc4244cd2
733f561a-5258-11ea-ae70-7f213af628eb,7344ee18-5258-11ea-96dc-b7f05fa6a742
733d33a8-5258-11ea-8386-abda053e585c,734509f2-5258-11ea-b819-7f25bb6fd29e
733cfd34-5258-11ea-99c6-e779c11fa9b9,7344fcd2-5258-11ea-aaa1-3fb3137b8c64
7344738e-5258-11ea-b684-5bb64cf6fa8a,73451b36-5258-11ea-9e6f-f33c4d69ce8f
73437114-5258-11ea-9310-f7e70a19ee71,73452b12-5258-11ea-b965-7f5c12bdb798
734024aa-5258-11ea-bedd-93fbe5c7243d,73453b66-5258-11ea-a804-9fc3d8be074e
733d46ea-5258-11ea-9e0b-3334abe7be2b,73454bd8-5258-11ea-8f64-8fdbe9c7ac29
7344738e-5258-11ea-b684-5bb64cf6fa8a,73455d94-5258-11ea-9e57-17d99e46a95f
733e9194-5258-11ea-89b3-4b0565be9d7f,734571da-5258-11ea-ac4c-ff87dd880842
733cfd34-5258-11ea-99c6-e779c11fa9b9,73458224-5258-11ea-bfcb-ef61f61d8b6a
7344ee18-5258-11ea-96dc-b7f05fa6a742,73459458-5258-11ea-929d-b3e110e1b74f
73431926-5258-11ea-9fd0-c3df987e4c87,7345a614-5258-11ea-b8ac-9fa4cba2ad81
734391da-5258-11ea-bda6-7ff12de4e2cd,7345b8b6-5258-11ea-af97-13b33463dab7
733e65a2-5258-11ea-b38c-6f4c9775276c,7345cc0c-5258-11ea-b259-f7069e7b8603
7341d188-5258-11ea-8059-33845ed1f437,7345ddaa-5258-11ea-94c7-3328ed4742f5
733dc78c-5258-11ea-b68a-73cd449038ea,7345eebc-5258-11ea-8b80-d342f646b69b
73430152-5258-11ea-aaf9-d3dfe0d229ed,734601b8-5258-11ea-8c34-2365458d5148
7343eb12-5258-11ea-9340-535c26a9fbc9,734612ca-5258-11ea-b30b-dfcbf7443db5
73453b66-5258-11ea-a804-9fc3d8be074e,7346224c-5258-11ea-a473-e3b5bf2fd9cf
73422890-5258-11ea-b540-739843bc7416,734635d4-5258-11ea-9ec6-335f78ffa1a8
733f75d2-5258-11ea-af40-03042a2a3251,734647b8-5258-11ea-bbde-b37e03a4cc08
733e5274-5258-11ea-9643-63e5fb4e3f5f,734655dc-5258-11ea-a998-13ed62930930
734601b8-5258-11ea-8c34-2365458d5148,73466702-5258-11ea-bace-b3556f834342
734391da-5258-11ea-bda6-7ff12de4e2cd,73467756-5258-11ea-afff-1317c19e90ca
733c20bc-5258-11ea-8bd9-abab00bb38cb,73468714-5258-11ea-a459-eb2261e6e380
733e2d8a-5258-11ea-85f2-6b9361918d46,73469704-5258-11ea-8460-636e4d9a6b5f
73446344-5258-11ea-898c-af855b44f0ef,7346a780-5258-11ea-ac3e-b7de6e459e4b
7340b942-5258-11ea-93aa-cf3d2362be6a,7346b8d8-5258-11ea-8cd7-9b95a83afcb4
733f75d2-5258-11ea-af40-03042a2a3251,7346c97c-5258-11ea-b26f-2b52f1c0aafd
733fc6ea-5258-11ea-8552-6f710c4c1152,7346d9e4-5258-11ea-a922-2772b85cb5fe
733ea2e2-5258-11ea-ae74-0fb9bedb702d,7346ec40-5258-11ea-be33-bfae94d01180
7342154e-5258-11ea-883a-6f46481b1373,7346fe2e-5258-11ea-a8ec-ff9116350357
733dc78c-5258-11ea-b68a-73cd449038ea,734710b2-5258-11ea-a894-47ed3d06b4f6
733cc986-5258-11ea-9148-0bc51cf5a8b2,734723d6-5258-11ea-9454-e7a98e8d1a5b
733da46e-5258-11ea-9f99-c3fe0e915468,734733c6-5258-11ea-9149-4b223d480473
7345eebc-5258-11ea-8b80-d342f646b69b,7347450a-5258-11ea-8596-bf6c0a56029e
7342a586-5258-11ea-a753-037bf5595b4a,734755f4-5258-11ea-9802-5ff05a778bfb
7346c97c-5258-11ea-b26f-2b52f1c0aafd,73476940-5258-11ea-b87a-279607070229
733d46ea-5258-11ea-9e0b-3334abe7be2b,73477ce6-5258-11ea-a787-7719a04d9593
734133b8-5258-11ea-96d1-b3f7bf444292,73478a6a-5258-11ea-8217-d3bfadd260ad
73406942-5258-11ea-921b-ab1e64493f60,73479a28-5258-11ea-ad91-9b881f1b7a11
7342d9c0-5258-11ea-9da8-071c99348b8c,7347a7ca-5258-11ea-9e5c-ab6faab1cd31
734723d6-5258-11ea-9454-e7a98e8d1a5b,7347b986-5258-11ea-8468-1f741a92572c
733e4126-5258-11ea-884c-d39ccf9b7280,7347ca8e-5258-11ea-adf1-bf26b3e8eeb3
733e029c-5258-11ea-b03e-574f308bbf1a,7347dccc-5258-11ea-aab6-eb4cbf1cc628
73433c44-5258-11ea-af72-cf14dfcfeb31,7347f1b2-5258-11ea-bd99-97a9df38cdf4
733ea2e2-5258-11ea-ae74-0fb9bedb702d,73480012-5258-11ea-a3bb-9ff317353738
7345b8b6-5258-11ea-af97-13b33463dab7,7348103e-5258-11ea-97cb-fb2888bb3c64
7343da82-5258-11ea-ba85-a76aac12e866,7348201a-5258-11ea-ba77-b7fc130dad73
7344738e-5258-11ea-b684-5bb64cf6fa8a,734832f8-5258-11ea-b073-976eeaec4ec5
73459458-5258-11ea-929d-b3e110e1b74f,734844b4-5258-11ea-8294-672658205822
733f97a6-5258-11ea-be92-434c1c5a3611,734854b8-5258-11ea-9ced-f739fe245bcd
733f00f2-5258-11ea-839a-d7339c569ed8,7348646c-5258-11ea-8755-9b67ad38dab3
73401438-5258-11ea-ad64-db740a81e964,73487772-5258-11ea-ad05-07e2cdde610f
73422890-5258-11ea-b540-739843bc7416,73488d98-5258-11ea-8fd4-938a6de7fced
7341e29a-5258-11ea-810b-4ffc11e6c86e,7348a210-5258-11ea-94ff-0300c39b8e59
7346a780-5258-11ea-ac3e-b7de6e459e4b,7348b50c-5258-11ea-ba81-8f8259efc4cb
734854b8-5258-11ea-9ced-f739fe245bcd,7348c7e0-5258-11ea-905b-03968ec8822a
733e1840-5258-11ea-a1e5-0bd72601d8af,7348d8fc-5258-11ea-a410-f327c0ce4906
7344839c-5258-11ea-ac92-27e9c13acc87,7348e9fa-5258-11ea-bdf8-7ba86466310d
7341c094-5258-11ea-ab30-ff41125e9557,7348fb34-5258-11ea-b484-b3f126b02ccf
73458224-5258-11ea-bfcb-ef61f61d8b6a,73490ebc-5258-11ea-986b-b36f0e00b353
73425f86-5258-11ea-acc6-7b961c8dd06d,734920a0-5258-11ea-8a5f-8f1cc259da0d
7348103e-5258-11ea-97cb-fb2888bb3c64,7349337e-5258-11ea-b553-07ffac7a1733
733da46e-5258-11ea-9f99-c3fe0e915468,73494666-5258-11ea-93ae-9fc0d70f9fc5
7348e9fa-5258-11ea-bdf8-7ba86466310d,7349576e-5258-11ea-be21-f77af922e203
7348b50c-5258-11ea-ba81-8f8259efc4cb,734968bc-5258-11ea-bdde-c39c5165bdca
7348646c-5258-11ea-8755-9b67ad38dab3,73497afa-5258-11ea-8aec-872345f36570
7340467e-5258-11ea-80ae-d7dbda0534c8,734989be-5258-11ea-b187-73bae0fe9f86
73401438-5258-11ea-ad64-db740a81e964,73499a1c-5258-11ea-a3cd-7f712389ab96
73444d46-5258-11ea-9fc8-132050b5c8b8,7349ad9a-5258-11ea-a5c0-6b7f3ed5cd29
73480012-5258-11ea-a3bb-9ff317353738,7349bc72-5258-11ea-a887-e38995b1aabe
7342d9c0-5258-11ea-9da8-071c99348b8c,7349cc8a-5258-11ea-96e7-9759992143dc
73452b12-5258-11ea-b965-7f5c12bdb798,7349db3a-5258-11ea-b7cc-c79af46f5d49
7346c97c-5258-11ea-b26f-2b52f1c0aafd,7349eb0c-5258-11ea-915e-0376a3d60413
7342705c-5258-11ea-95f1-734a91d1edda,7349fd68-5258-11ea-b3a4-1b48a633cba7
7348a210-5258-11ea-94ff-0300c39b8e59,734a0ca4-5258-11ea-bdf8-5bec4b4530d1
73431926-5258-11ea-9fd0-c3df987e4c87,734a2090-5258-11ea-8936-d78edd6cc0e5
734601b8-5258-11ea-8c34-2365458d5148,734a3206-5258-11ea-b58c-4be497942d13
73433c44-5258-11ea-af72-cf14dfcfeb31,734a4688-5258-11ea-bc63-57c6683e491c
733f75d2-5258-11ea-af40-03042a2a3251,734a5bb4-5258-11ea-9af5-2f5cb1510783
733e2d8a-5258-11ea-85f2-6b9361918d46,734a6956-5258-11ea-b564-c35cff226600
73488d98-5258-11ea-8fd4-938a6de7fced,734a7752-5258-11ea-8ff9-4bf95e3322a8
733cc986-5258-11ea-9148-0bc51cf5a8b2,734a8b0c-5258-11ea-abee-bf18dfea5599
73409b4c-5258-11ea-b8f0-2b26a40b8d81,734a9d4a-5258-11ea-a30a-6b6a5d6a5cb5
733de140-5258-11ea-8b43-2f520aa558e9,734aaf74-5258-11ea-9195-97540dd64dd5
7349cc8a-5258-11ea-96e7-9759992143dc,734ac0c2-5258-11ea-9127-031182cbf790
7348b50c-5258-11ea-ba81-8f8259efc4cb,734ad10c-5258-11ea-9eae-eb032e5fc3cb
7346b8d8-5258-11ea-8cd7-9b95a83afcb4,734ae3a4-5258-11ea-b3e3-e34f7225d303
7345a614-5258-11ea-b8ac-9fa4cba2ad81,734af394-5258-11ea-a8c6-9747ddfaebfb
733cb568-5258-11ea-ab63-4379607ea1f0,734b02a8-5258-11ea-9855-5393b78ef617
7342705c-5258-11ea-95f1-734a91d1edda,734b14e6-5258-11ea-ac01-37c31ba81941
73435eea-5258-11ea-80c2-9bfadbb08d73,734b286e-5258-11ea-bc78-47a5404895a0
733c4326-5258-11ea-960d-f755b7ff76e3,734b38d6-5258-11ea-85b5-270996fb91e1
734601b8-5258-11ea-8c34-2365458d5148,734b4808-5258-11ea-bbfe-1b7653d02d92
7340de7c-5258-11ea-8874-27ae41192beb,734b5b54-5258-11ea-8b6f-27579ff2e555
7342d9c0-5258-11ea-9da8-071c99348b8c,734b6cd4-5258-11ea-92d7-730dcd7fcae9
733e5274-5258-11ea-9643-63e5fb4e3f5f,734b8426-5258-11ea-88ea-e384e9ee3f86
7344df90-5258-11ea-87b4-972fc4244cd2,734b9592-5258-11ea-8ff3-4fd5d9ca78d0
734a9d4a-5258-11ea-a30a-6b6a5d6a5cb5,734ba7d0-5258-11ea-958b-3b8260aaf254
73458224-5258-11ea-bfcb-ef61f61d8b6a,734bb914-5258-11ea-b151-d74836b12393
7341788c-5258-11ea-b511-9327cfff5934,734bc99a-5258-11ea-8f7f-fb91c6293fc0
7343da82-5258-11ea-ba85-a76aac12e866,734bd980-5258-11ea-8f83-27ffdd89d37c
734133b8-5258-11ea-96d1-b3f7bf444292,734beff6-5258-11ea-850a-1f304fdafa63
733d58a6-5258-11ea-998d-a378a974a3a1,734c0590-5258-11ea-8459-df28e71fe5f8
73494666-5258-11ea-93ae-9fc0d70f9fc5,734c26c4-5258-11ea-a1ef-f70c355513b2
733fb51a-5258-11ea-8dbb-b33de816aa34,734c153a-5258-11ea-a2ea-770f919043e6
734655dc-5258-11ea-a998-13ed62930930,734c3920-5258-11ea-9c05-d7f1b2a5ff3c
73469704-5258-11ea-8460-636e4d9a6b5f,734c4c6c-5258-11ea-ae86-2723d36e4818
733eb7e6-5258-11ea-aea4-d7fb85c85514,734c5edc-5258-11ea-913d-e3ec26810299
733cc986-5258-11ea-9148-0bc51cf5a8b2,734c6fbc-5258-11ea-aa72-7f03b7b1536e
733f863a-5258-11ea-bbcd-2fff98d01921,734c83bc-5258-11ea-8a48-e7692cd1b7f8
733f0ee4-5258-11ea-baa2-9fdc9bd1b7af,734c996a-5258-11ea-8f73-9b01fa38fc3a
73480012-5258-11ea-a3bb-9ff317353738,734ca752-5258-11ea-a1ea-fff3189bbe70
733c20bc-5258-11ea-8bd9-abab00bb38cb,734cbae4-5258-11ea-839e-17598dafd5e1
73476940-5258-11ea-b87a-279607070229,734ccf84-5258-11ea-8989-670083b75fb1
7349337e-5258-11ea-b553-07ffac7a1733,734ce172-5258-11ea-9de2-5b0ed99f9556
73410046-5258-11ea-9b8d-43deb00a74c9,734cf324-5258-11ea-9a8c-efd11db9b70a
7343a634-5258-11ea-8303-7ba0b1e8da6d,734d040e-5258-11ea-8f1d-0b25f6c1a6a0
7347b986-5258-11ea-8468-1f741a92572c,734d17e6-5258-11ea-8d82-971aabbaf1c6
7344314e-5258-11ea-963a-bb5e76a7ab8a,734d2b1e-5258-11ea-bd13-d7baec5042f4
734cbae4-5258-11ea-839e-17598dafd5e1,734d3c1c-5258-11ea-8728-e7dbc052176e
734ae3a4-5258-11ea-b3e3-e34f7225d303,734d4ffe-5258-11ea-a2e4-6b26270fa72a
733f863a-5258-11ea-bbcd-2fff98d01921,734d5fbc-5258-11ea-a7d9-939de9fd45d4
73418b56-5258-11ea-8d0e-f33f08f112d2,734d6e76-5258-11ea-b0c0-139b5c9b35b7
734b9592-5258-11ea-8ff3-4fd5d9ca78d0,734d7d6c-5258-11ea-8888-27b16475d949
7342d9c0-5258-11ea-9da8-071c99348b8c,734d8c62-5258-11ea-8017-2b48775bde0f
734c6fbc-5258-11ea-aa72-7f03b7b1536e,734da634-5258-11ea-a686-b3adf07f019e
7342912c-5258-11ea-a02d-5f05754fe674,734db4c6-5258-11ea-9fcf-b706a94eb2f0
7348646c-5258-11ea-8755-9b67ad38dab3,734dc812-5258-11ea-8ea1-673da7a4aa63
7344839c-5258-11ea-ac92-27e9c13acc87,734de00e-5258-11ea-baf6-5327d38b4c4c
7341788c-5258-11ea-b511-9327cfff5934,734df58a-5258-11ea-acef-2f0f59df590b
733f561a-5258-11ea-ae70-7f213af628eb,734e07b4-5258-11ea-8ff1-e36e49dcb2e6
7348fb34-5258-11ea-b484-b3f126b02ccf,734e2f28-5258-11ea-a46f-2378faf35f06
734b38d6-5258-11ea-85b5-270996fb91e1,734e1cea-5258-11ea-a803-4fa94baf8259
734db4c6-5258-11ea-9fcf-b706a94eb2f0,734e4454-5258-11ea-a8e5-d3b023b3adb0
73419c2c-5258-11ea-bf3a-df58a06b00ee,734e56b0-5258-11ea-a3ee-4fa5d0c5ffde
733e9194-5258-11ea-89b3-4b0565be9d7f,734e69c0-5258-11ea-960c-7fb479bf713a
733f97a6-5258-11ea-be92-434c1c5a3611,734e7fbe-5258-11ea-a4f7-ff527686d40c
734989be-5258-11ea-b187-73bae0fe9f86,734e9094-5258-11ea-84c8-d70b231150c2
73454bd8-5258-11ea-8f64-8fdbe9c7ac29,734ea57a-5258-11ea-a713-9b1f20ccc6f0
733d124c-5258-11ea-b1cb-1f0f86b1cf49,734eb902-5258-11ea-bea0-afc390c71a6e
73430152-5258-11ea-aaf9-d3dfe0d229ed,734edbc6-5258-11ea-963a-7f27644d603c
7342c5a2-5258-11ea-b0dc-c751d6d35325,734ecd52-5258-11ea-824d-7352667022ca
733c32a0-5258-11ea-98e4-c3da1ccfa21a,734eeea4-5258-11ea-be49-bb7d6c97a2a7
733cc986-5258-11ea-9148-0bc51cf5a8b2,734f0308-5258-11ea-b6b5-df7b8aebf700
734c26c4-5258-11ea-a1ef-f70c355513b2,734f1668-5258-11ea-95ec-b334bc22e769
7344839c-5258-11ea-ac92-27e9c13acc87,734f284c-5258-11ea-8ec9-3f700165f52a
733d33a8-5258-11ea-8386-abda053e585c,734f3bc0-5258-11ea-80b2-53dd21c4294c
734635d4-5258-11ea-9ec6-335f78ffa1a8,734f4f16-5258-11ea-ae41-e72deb41c640
733f2226-5258-11ea-816f-b3c404dc0627,734f60aa-5258-11ea-a8d5-c38352e8c0ee
7341788c-5258-11ea-b511-9327cfff5934,734f7554-5258-11ea-a718-2bb274172bf5
73499a1c-5258-11ea-a3cd-7f712389ab96,734f890e-5258-11ea-a011-47afbd82835e
7346b8d8-5258-11ea-8cd7-9b95a83afcb4,734f9b06-5258-11ea-a97a-dbfa842ccbad
73452b12-5258-11ea-b965-7f5c12bdb798,734fad30-5258-11ea-af19-bfb925d1baf8
734635d4-5258-11ea-9ec6-335f78ffa1a8,734fbe6a-5258-11ea-bf29-df5b986652b4
733f97a6-5258-11ea-be92-434c1c5a3611,734fd954-5258-11ea-b56d-c7ce47a6a7fb
7344314e-5258-11ea-963a-bb5e76a7ab8a,734fedfe-5258-11ea-8e32-ff54e81a414e
7341e29a-5258-11ea-810b-4ffc11e6c86e,734ffd4e-5258-11ea-9000-27619b3333eb
734d3c1c-5258-11ea-8728-e7dbc052176e,73500de8-5258-11ea-936b-27517dec53f9
734d3c1c-5258-11ea-8728-e7dbc052176e,73501e96-5258-11ea-ad16-b3098d23f399
73490ebc-5258-11ea-986b-b36f0e00b353,73502e72-5258-11ea-8c76-eb026cca8eb2
73467756-5258-11ea-afff-1317c19e90ca,73503ee4-5258-11ea-881f-e3a0fb118d8c
73476940-5258-11ea-b87a-279607070229,73504f60-5258-11ea-870d-67984a5509bd
734b4808-5258-11ea-bbfe-1b7653d02d92,73505f64-5258-11ea-9e67-e7a82296a6d5
734328d0-5258-11ea-bb10-eb0b90b516e0,73506f36-5258-11ea-b867-5be15b0ff5e5
734b286e-5258-11ea-bc78-47a5404895a0,735081c4-5258-11ea-880e-8758022c3f20
733d69a4-5258-11ea-87fc-53b194980d18,7350913c-5258-11ea-960c-afd496f39057
734e69c0-5258-11ea-960c-7fb479bf713a,7350a4ce-5258-11ea-98cb-971a3305ab19
7342c5a2-5258-11ea-b0dc-c751d6d35325,7350b752-5258-11ea-b701-9705d51e8b92
734edbc6-5258-11ea-963a-7f27644d603c,7350c8dc-5258-11ea-8b30-c722fd01aae3
734e56b0-5258-11ea-a3ee-4fa5d0c5ffde,7350dc50-5258-11ea-b18e-ef8cba72e275
7348e9fa-5258-11ea-bdf8-7ba86466310d,7350edb2-5258-11ea-aede-d7f32618b42d
73425f86-5258-11ea-acc6-7b961c8dd06d,7350fe2e-5258-11ea-853b-db01ef6a15a7
733e65a2-5258-11ea-b38c-6f4c9775276c,735111d4-5258-11ea-b487-3773433090b3
7341788c-5258-11ea-b511-9327cfff5934,73512502-5258-11ea-9093-af415f26a67f
7344962a-5258-11ea-97e0-bf8e479b1726,73513b8c-5258-11ea-8fa6-7bb867f75b9b
7342a586-5258-11ea-a753-037bf5595b4a,73514d70-5258-11ea-8c8e-039be14156ce
733de140-5258-11ea-8b43-2f520aa558e9,73515fea-5258-11ea-b7a3-63f79334b2e0
734e7fbe-5258-11ea-a4f7-ff527686d40c,73517296-5258-11ea-8b5d-133c36d5a411
733f2226-5258-11ea-816f-b3c404dc0627,7351842a-5258-11ea-8290-93dcd994bab3
734df58a-5258-11ea-acef-2f0f59df590b,73519532-5258-11ea-a06e-f3fc6efe8129
734d3c1c-5258-11ea-8728-e7dbc052176e,7351a8f6-5258-11ea-80ab-430831877677
734c5edc-5258-11ea-913d-e3ec26810299,7351bbf2-5258-11ea-87bd-ff1774521701
7344839c-5258-11ea-ac92-27e9c13acc87,7351cee4-5258-11ea-a4a4-173bdd8c2bac
73514d70-5258-11ea-8c8e-039be14156ce,7351df4c-5258-11ea-b1b0-8f12e8cb7791
7349db3a-5258-11ea-b7cc-c79af46f5d49,7351f18a-5258-11ea-abc6-d787fa294762
733d124c-5258-11ea-b1cb-1f0f86b1cf49,7352001c-5258-11ea-a98e-975f441f664c
733edc8a-5258-11ea-97df-e75ae8eb4a8f,73520db4-5258-11ea-81c6-6f8740c33ede
734d040e-5258-11ea-8f1d-0b25f6c1a6a0,735220a6-5258-11ea-b9d3-5f4a0048a50a
7347b986-5258-11ea-8468-1f741a92572c,73523334-5258-11ea-b4d5-736ea06a96c1
734b286e-5258-11ea-bc78-47a5404895a0,73524734-5258-11ea-b273-73e56ba2efe0
733fecba-5258-11ea-9ba6-cb96252f9e7d,73525814-5258-11ea-ab38-9f908deee891
7352001c-5258-11ea-a98e-975f441f664c,735268d6-5258-11ea-91ef-536eeccc7fc0
7341f41a-5258-11ea-abb0-178b36140c69,73527cf4-5258-11ea-8530-23c45f87cc02
7347f1b2-5258-11ea-bd99-97a9df38cdf4,73528ee2-5258-11ea-9183-0ba8c24fd610
73505f64-5258-11ea-9e67-e7a82296a6d5,73529fcc-5258-11ea-9456-273fcd6803b9
734f284c-5258-11ea-8ec9-3f700165f52a,7352b1e2-5258-11ea-b568-3b2bdb09c227
73412170-5258-11ea-b394-474f7234f176,7352c7f4-5258-11ea-a06b-6f981f7edd3b
734e69c0-5258-11ea-960c-7fb479bf713a,7352d6ae-5258-11ea-a1be-579ad6484eb6
734d17e6-5258-11ea-8d82-971aabbaf1c6,7352e7ca-5258-11ea-bdc0-7f0b5b805690
73424c44-5258-11ea-bed5-1fbf86a14267,7352f8c8-5258-11ea-8a80-db8c40ffe43c
73442190-5258-11ea-88e1-274821ed25aa,73530a48-5258-11ea-b810-4313465cc12c
73467756-5258-11ea-afff-1317c19e90ca,73531a9c-5258-11ea-9da7-6352cdc592df
73440f66-5258-11ea-a714-73b8742640c8,73532c12-5258-11ea-a7ca-2fa3eb46d924
734920a0-5258-11ea-8a5f-8f1cc259da0d,73533f22-5258-11ea-863d-a73065a00463
734af394-5258-11ea-a8c6-9747ddfaebfb,73534e9a-5258-11ea-9433-9f1e254867d2
733cb568-5258-11ea-ab63-4379607ea1f0,735361a0-5258-11ea-8501-97741c24fa33
733df1c6-5258-11ea-8a82-e3225a0a71cd,7353729e-5258-11ea-8f4c-ff18526015ed
7351842a-5258-11ea-8290-93dcd994bab3,7353841e-5258-11ea-8d2d-038bb6706f85
73490ebc-5258-11ea-986b-b36f0e00b353,735396ca-5258-11ea-8faf-e7f2afa9f1c7
7345b8b6-5258-11ea-af97-13b33463dab7,7353a78c-5258-11ea-a73e-23d5782ad04b
734d8c62-5258-11ea-8017-2b48775bde0f,7353b916-5258-11ea-bddf-a329d28a2301
73433c44-5258-11ea-af72-cf14dfcfeb31,7353de0a-5258-11ea-9c4c-037847a28e06
734ac0c2-5258-11ea-9127-031182cbf790,7353caf0-5258-11ea-a14e-1f78066fc5e6
7351842a-5258-11ea-8290-93dcd994bab3,7353f91c-5258-11ea-8733-67da181e2098
734da634-5258-11ea-a686-b3adf07f019e,7354092a-5258-11ea-8f85-575e57b84dd6
7348b50c-5258-11ea-ba81-8f8259efc4cb,73541e2e-5258-11ea-b9fa-cb2d96bddf22
73406942-5258-11ea-921b-ab1e64493f60,73542d88-5258-11ea-8b10-e34146e5a7d3
734723d6-5258-11ea-9454-e7a98e8d1a5b,735442a0-5258-11ea-8f68-d7c4ba00e178
73467756-5258-11ea-afff-1317c19e90ca,73545470-5258-11ea-bbed-774e58225265
7344ce7e-5258-11ea-9c23-4f677c777419,7354685c-5258-11ea-ac6e-a7a42e09259a
7349bc72-5258-11ea-a887-e38995b1aabe,73547b6c-5258-11ea-90f2-27ca3a89b823
7351df4c-5258-11ea-b1b0-8f12e8cb7791,73548ac6-5258-11ea-9246-2301b4567598
7354092a-5258-11ea-8f85-575e57b84dd6,73549d54-5258-11ea-92d5-7351d10ef61e
734509f2-5258-11ea-b819-7f25bb6fd29e,7354acae-5258-11ea-896d-2ba584a4f185
7346224c-5258-11ea-a473-e3b5bf2fd9cf,7354bcf8-5258-11ea-a79b-039c096547a8
7341f41a-5258-11ea-abb0-178b36140c69,7354cfa4-5258-11ea-ad59-f7372134258a
734fad30-5258-11ea-af19-bfb925d1baf8,7354e368-5258-11ea-993f-03717aa045fe
734d17e6-5258-11ea-8d82-971aabbaf1c6,7354f434-5258-11ea-82f4-d34453cae9df
73425f86-5258-11ea-acc6-7b961c8dd06d,7355097e-5258-11ea-8ada-efaa32da98dd
7344bc9a-5258-11ea-8346-db770582ae5b,73551b12-5258-11ea-bb1b-9716a27fe2cb
73442190-5258-11ea-88e1-274821ed25aa,73552b48-5258-11ea-af98-37654315c34e
7352001c-5258-11ea-a98e-975f441f664c,73553dfe-5258-11ea-bcdf-572ee9a1bea5
7342c5a2-5258-11ea-b0dc-c751d6d35325,735551a4-5258-11ea-9c32-ab4422ed4df1
734e07b4-5258-11ea-8ff1-e36e49dcb2e6,73556270-5258-11ea-8426-33a57fd35916
734b02a8-5258-11ea-9855-5393b78ef617,735575e4-5258-11ea-8c65-33d148ca411d
734c4c6c-5258-11ea-ae86-2723d36e4818,735587aa-5258-11ea-9c2b-5754123a0136
73545470-5258-11ea-bbed-774e58225265,73559a42-5258-11ea-9748-570748ddf995
7351842a-5258-11ea-8290-93dcd994bab3,7355b806-5258-11ea-8741-ebe6b7f0f4d5
734a7752-5258-11ea-8ff9-4bf95e3322a8,7355cbf2-5258-11ea-a755-93de06f0a47b
73551b12-5258-11ea-bb1b-9716a27fe2cb,7355db42-5258-11ea-bf1e-2f4550b08391
735551a4-5258-11ea-9c32-ab4422ed4df1,7355ea10-5258-11ea-a646-afb58f401ce9
73497afa-5258-11ea-8aec-872345f36570,7355f848-5258-11ea-931f-f33f1ac5da6e
733dc78c-5258-11ea-b68a-73cd449038ea,73560bc6-5258-11ea-852e-ab53163b8dfa
734854b8-5258-11ea-9ced-f739fe245bcd,73561e54-5258-11ea-be5f-8b1cc87293d6
734fd954-5258-11ea-b56d-c7ce47a6a7fb,73563416-5258-11ea-8355-8b1c688fd906
7351df4c-5258-11ea-b1b0-8f12e8cb7791,735645e6-5258-11ea-94d7-37f090d3bb1e
7348b50c-5258-11ea-ba81-8f8259efc4cb,73565928-5258-11ea-ae98-9b9a355a5ead
7350b752-5258-11ea-b701-9705d51e8b92,73566b16-5258-11ea-af2f-b7497b542326
733f75d2-5258-11ea-af40-03042a2a3251,73567dae-5258-11ea-be0f-2befabc16797
734723d6-5258-11ea-9454-e7a98e8d1a5b,73568e16-5258-11ea-8c81-270b883d6b51
734a5bb4-5258-11ea-9af5-2f5cb1510783,7356a1b2-5258-11ea-a2f7-d3f9897dca8d
73528ee2-5258-11ea-9183-0ba8c24fd610,7356b1a2-5258-11ea-9402-072539164627
734328d0-5258-11ea-bb10-eb0b90b516e0,7356c426-5258-11ea-a217-d733e0f647fe
734d6e76-5258-11ea-b0c0-139b5c9b35b7,7356dd9e-5258-11ea-b531-038470f08928
734c6fbc-5258-11ea-aa72-7f03b7b1536e,7356ee24-5258-11ea-8d0c-d3c7e1348e6e
733da46e-5258-11ea-9f99-c3fe0e915468,7356feb4-5258-11ea-bd86-afcf91a6fee0
734156ea-5258-11ea-b4af-afedc240640d,73570ea4-5258-11ea-ba1c-1bad77f90dea
733f0ee4-5258-11ea-baa2-9fdc9bd1b7af,73571ee4-5258-11ea-bd1d-0b6a3d118fc6
73532c12-5258-11ea-a7ca-2fa3eb46d924,735730a0-5258-11ea-a7df-6f5e9c22f5fe
7354e368-5258-11ea-993f-03717aa045fe,73574496-5258-11ea-811d-9ff4d02e9131
73512502-5258-11ea-9093-af415f26a67f,7357586e-5258-11ea-aee0-ab57754c7279
7347a7ca-5258-11ea-9e5c-ab6faab1cd31,73576aac-5258-11ea-9e99-4f86ca3e332f
73559a42-5258-11ea-9748-570748ddf995,73577ec0-5258-11ea-9c1a-77c47307103c
7344ce7e-5258-11ea-9c23-4f677c777419,735792ac-5258-11ea-9ecf-6bdb37e56036
7351a8f6-5258-11ea-80ab-430831877677,7357a576-5258-11ea-9bbd-4b21351a2872
7347450a-5258-11ea-8596-bf6c0a56029e,7357ba98-5258-11ea-9bb0-0f91cac67c26
733c5514-5258-11ea-8093-bb175c888d96,7357cf6a-5258-11ea-83f6-0774f7a44f4c
7343eb12-5258-11ea-9340-535c26a9fbc9,7357e2d4-5258-11ea-a2cf-2bd622cb2355
7348fb34-5258-11ea-b484-b3f126b02ccf,7357f670-5258-11ea-b093-677309787e3b
734b5b54-5258-11ea-8b6f-27579ff2e555,73580926-5258-11ea-9b6c-5f01909451dd
733e9194-5258-11ea-89b3-4b0565be9d7f,73581ca4-5258-11ea-8b40-6b983b3444bd
734ce172-5258-11ea-9de2-5b0ed99f9556,73582be0-5258-11ea-af54-a37ff70073b0
73523334-5258-11ea-b4d5-736ea06a96c1,73584bca-5258-11ea-9f01-731badef5b2d
7350edb2-5258-11ea-aede-d7f32618b42d,73583d9c-5258-11ea-b2eb-f785c45e7009
73576aac-5258-11ea-9e99-4f86ca3e332f,73585aca-5258-11ea-8009-7fa0646e389a
7341788c-5258-11ea-b511-9327cfff5934,735868bc-5258-11ea-94fe-0f6b51f770b4
734e07b4-5258-11ea-8ff1-e36e49dcb2e6,73587cc6-5258-11ea-9956-07a6298f1d90
733fecba-5258-11ea-9ba6-cb96252f9e7d,7358933c-5258-11ea-b6c2-a700d0b8ec23
734d3c1c-5258-11ea-8728-e7dbc052176e,7358a854-5258-11ea-9ef8-5fdba6a008d1
73480012-5258-11ea-a3bb-9ff317353738,7358bd26-5258-11ea-a298-0f94f539d0cb
7350edb2-5258-11ea-aede-d7f32618b42d,7358d19e-5258-11ea-b173-17219593c5c7
73577ec0-5258-11ea-9c1a-77c47307103c,7358e1de-5258-11ea-a6b0-bf579d26d92f
733ea2e2-5258-11ea-ae74-0fb9bedb702d,7358f32c-5258-11ea-8c30-cf12130c89b4
734e9094-5258-11ea-84c8-d70b231150c2,735904e8-5258-11ea-9238-7358911cbd23
734509f2-5258-11ea-b819-7f25bb6fd29e,735917d0-5258-11ea-aa7f-43332b31ea0e
733c81d8-5258-11ea-8c3f-e3bb2029d959,73592720-5258-11ea-b6be-7f7b0a6f71f7
73434da6-5258-11ea-8156-434d0689a650,73593918-5258-11ea-a7be-a31d13b336b8
734832f8-5258-11ea-b073-976eeaec4ec5,73594b38-5258-11ea-8113-8b34da117de5
7356a1b2-5258-11ea-a2f7-d3f9897dca8d,73595ce0-5258-11ea-9e6e-5b184b1de4c2
7354092a-5258-11ea-8f85-575e57b84dd6,7359754a-5258-11ea-82e6-3f326df5d8e2
734c996a-5258-11ea-8f73-9b01fa38fc3a,735988e6-5258-11ea-bf32-4fa9d4bfadc2
7345cc0c-5258-11ea-b259-f7069e7b8603,73599d7c-5258-11ea-8a01-7fbc032c76f3
73430152-5258-11ea-aaf9-d3dfe0d229ed,7359c0a4-5258-11ea-af9a-3f1c67a7b574
73438154-5258-11ea-b636-c3469a369f1e,7359cfae-5258-11ea-8211-37f4c2c3e37a
73542d88-5258-11ea-8b10-e34146e5a7d3,7359dfb2-5258-11ea-af4f-6386336e9930
7346224c-5258-11ea-a473-e3b5bf2fd9cf,7359efe8-5258-11ea-9b72-37d7f57460f5
7347450a-5258-11ea-8596-bf6c0a56029e,735a035c-5258-11ea-b83d-9bfdcbfe39dc
73585aca-5258-11ea-8009-7fa0646e389a,735a1676-5258-11ea-bbc6-8327f48c7b23
733e2d8a-5258-11ea-85f2-6b9361918d46,735a28d2-5258-11ea-a636-371779c2215a
735730a0-5258-11ea-a7df-6f5e9c22f5fe,735a378c-5258-11ea-82d2-277235d0cf3b
73513b8c-5258-11ea-8fa6-7bb867f75b9b,735a4bf0-5258-11ea-907d-9bc4b0584bbf
733eeefa-5258-11ea-8c35-1387ee74d451,735a5e74-5258-11ea-ab1f-772429bedb46
7344bc9a-5258-11ea-8346-db770582ae5b,735a6fcc-5258-11ea-a7a0-d39158728de4
73527cf4-5258-11ea-8530-23c45f87cc02,735a823c-5258-11ea-923d-ebed4cca2340
733f6542-5258-11ea-9cf2-6b76e4794578,735a920e-5258-11ea-9dbc-4b0342dd3190
73547b6c-5258-11ea-90f2-27ca3a89b823,735aa618-5258-11ea-92a2-bff48611b410
7344df90-5258-11ea-87b4-972fc4244cd2,735abed2-5258-11ea-a7f6-cb211a09e5dc
73477ce6-5258-11ea-a787-7719a04d9593,735ad0de-5258-11ea-911a-435bcd01299a
733f6542-5258-11ea-9cf2-6b76e4794578,735ae326-5258-11ea-9da8-efdeb9ebb4cb
733c5514-5258-11ea-8093-bb175c888d96,735af384-5258-11ea-b2c1-c7a205174e63
735a6fcc-5258-11ea-a7a0-d39158728de4,735b05e0-5258-11ea-964a-67747c777eba
7342a586-5258-11ea-a753-037bf5595b4a,735b18be-5258-11ea-a123-07bdb51d9c41
735081c4-5258-11ea-880e-8758022c3f20,735b2926-5258-11ea-9766-1757e3120185
73433c44-5258-11ea-af72-cf14dfcfeb31,735b3952-5258-11ea-9ec8-8f7728cf7dfb
7343b6ec-5258-11ea-91ef-776305654030,735b4b2c-5258-11ea-b588-37e2c63c3ccf
7342154e-5258-11ea-883a-6f46481b1373,735b5e8c-5258-11ea-aa47-3fb42b7406d1
7343eb12-5258-11ea-9340-535c26a9fbc9,735b6f8a-5258-11ea-b58b-d340e3f8415e
733e1840-5258-11ea-a1e5-0bd72601d8af,735b82a4-5258-11ea-b618-4b2bd3a175d4
73443fae-5258-11ea-9024-b732fb37662a,735b94ba-5258-11ea-9066-8756cab654ac
7341c094-5258-11ea-ab30-ff41125e9557,735ba5ae-5258-11ea-9aa3-e3686c09e111
734989be-5258-11ea-b187-73bae0fe9f86,735bb7f6-5258-11ea-a803-f7404ac8ef9c
734bd980-5258-11ea-8f83-27ffdd89d37c,735bcb6a-5258-11ea-8b81-83af5b28637f
7351df4c-5258-11ea-b1b0-8f12e8cb7791,735bdca4-5258-11ea-a9d1-a72bdb457198
7356ee24-5258-11ea-8d0c-d3c7e1348e6e,735beed8-5258-11ea-b35c-976d3948e116
7345eebc-5258-11ea-8b80-d342f646b69b,735c01d4-5258-11ea-a375-db87567f9068
733d58a6-5258-11ea-998d-a378a974a3a1,735c1296-5258-11ea-8ef3-b70f1dcec0de
73405902-5258-11ea-b05e-ffcb700f11cc,735c256a-5258-11ea-b2da-2f5c726db80f
73574496-5258-11ea-811d-9ff4d02e9131,735c385c-5258-11ea-bb05-0f29c21b1565
734b5b54-5258-11ea-8b6f-27579ff2e555,735c4e46-5258-11ea-a0fe-c771531edd48
7358933c-5258-11ea-b6c2-a700d0b8ec23,735c6322-5258-11ea-8ab0-2fd058f4cf6a
73459458-5258-11ea-929d-b3e110e1b74f,735c770e-5258-11ea-893a-2bd176387ac9
7342c5a2-5258-11ea-b0dc-c751d6d35325,735c8938-5258-11ea-8a03-0f0c2ab86fe2
735b3952-5258-11ea-9ec8-8f7728cf7dfb,735c9cf2-5258-11ea-8bfd-5330eedb5226
73582be0-5258-11ea-af54-a37ff70073b0,735cadc8-5258-11ea-8a00-67ba44f02e88
734d2b1e-5258-11ea-bd13-d7baec5042f4,735cbe76-5258-11ea-a86f-ef23ec865f2f
735868bc-5258-11ea-94fe-0f6b51f770b4,735cd122-5258-11ea-97f6-579b34de758e
735b4b2c-5258-11ea-b588-37e2c63c3ccf,735ce2fc-5258-11ea-ad50-6bb49c6f9a68
73425f86-5258-11ea-acc6-7b961c8dd06d,735cf40e-5258-11ea-b284-87e521e184d3
73408cec-5258-11ea-9531-8b9f80a9c948,735d064c-5258-11ea-8355-6fbb0a6d95ce
73568e16-5258-11ea-8c81-270b883d6b51,735d1916-5258-11ea-b345-cf162fe9a492
735988e6-5258-11ea-bf32-4fa9d4bfadc2,735d2942-5258-11ea-8f8a-ef9ce2407dbf
734c26c4-5258-11ea-a1ef-f70c355513b2,735d3ac2-5258-11ea-98bb-ffc3e846cbdd
734b6cd4-5258-11ea-92d7-730dcd7fcae9,735d4972-5258-11ea-9a3e-2702a2bf9301
73434da6-5258-11ea-8156-434d0689a650,735d5b42-5258-11ea-9c14-37a71b12d6df
7350edb2-5258-11ea-aede-d7f32618b42d,735d6ce0-5258-11ea-869d-672e26f9323c
734f60aa-5258-11ea-a8d5-c38352e8c0ee,735d809a-5258-11ea-a0b5-b3280a925625
735111d4-5258-11ea-b487-3773433090b3,735d96de-5258-11ea-b0df-570290921ac1
73416694-5258-11ea-a71a-efd8d41ba64b,735da890-5258-11ea-bb39-fba61af7deec
734a0ca4-5258-11ea-bdf8-5bec4b4530d1,735db8f8-5258-11ea-9553-7b06d34d5a1b
735a920e-5258-11ea-9dbc-4b0342dd3190,735dc938-5258-11ea-8341-6b9e7c20ad03
73549d54-5258-11ea-92d5-7351d10ef61e,735ddafe-5258-11ea-bb80-773e4b77fb49
73585aca-5258-11ea-8009-7fa0646e389a,735dea58-5258-11ea-a8ba-5b83605de8a8
73523334-5258-11ea-b4d5-736ea06a96c1,735dfd36-5258-11ea-93ec-535eeb5e678d
734fbe6a-5258-11ea-bf29-df5b986652b4,735e0fa6-5258-11ea-910a-ef55fbda29e3
7348201a-5258-11ea-ba77-b7fc130dad73,735e234c-5258-11ea-938f-0f9ce3dff634
735a6fcc-5258-11ea-a7a0-d39158728de4,735e38a0-5258-11ea-8293-33ccd58a2712
734723d6-5258-11ea-9454-e7a98e8d1a5b,735e4a98-5258-11ea-bb94-47dd2a540128
73443fae-5258-11ea-9024-b732fb37662a,735e5df8-5258-11ea-bc9a-2b602769f23a
7347dccc-5258-11ea-aab6-eb4cbf1cc628,735e73a6-5258-11ea-b0ec-336018f720d7
734133b8-5258-11ea-96d1-b3f7bf444292,735e84d6-5258-11ea-8ebc-db79eba5bacd
7344fcd2-5258-11ea-aaa1-3fb3137b8c64,735e93e0-5258-11ea-ad12-2f195e974261
7357ba98-5258-11ea-9bb0-0f91cac67c26,735ea420-5258-11ea-b2f1-4b7802b1e73b
734d6e76-5258-11ea-b0c0-139b5c9b35b7,735eb91a-5258-11ea-8e7d-07e9eef3f2d3
7348b50c-5258-11ea-ba81-8f8259efc4cb,735ecd7e-5258-11ea-a4f4-aba041ff02a4
73551b12-5258-11ea-bb1b-9716a27fe2cb,735ee66a-5258-11ea-9e0a-776b546bb8c7
735dea58-5258-11ea-a8ba-5b83605de8a8,735ef8a8-5258-11ea-89f0-ab8a7c5feb1a
733f75d2-5258-11ea-af40-03042a2a3251,735f226a-5258-11ea-a947-8b503c28dbfa
733edcd0-5258-11ea-8e8c-0309914edfc5,735f0e24-5258-11ea-b21b-271843f1a0bd
7355db42-5258-11ea-bf1e-2f4550b08391,735f4902-5258-11ea-99ba-0ba1bc40591f
734710b2-5258-11ea-a894-47ed3d06b4f6,735f35e8-5258-11ea-9d14-ff11c2070839
7346c97c-5258-11ea-b26f-2b52f1c0aafd,735f620c-5258-11ea-b049-efd75a79d5af
735dea58-5258-11ea-a8ba-5b83605de8a8,735f7972-5258-11ea-9fe4-cf62aa8c7b00
7357f670-5258-11ea-b093-677309787e3b,735f9088-5258-11ea-9eb7-eb9c0578490a
73455d94-5258-11ea-9e57-17d99e46a95f,735fb63a-5258-11ea-b449-ff212eb904c6
735b94ba-5258-11ea-9066-8756cab654ac,735fa37a-5258-11ea-9768-ff68d1ac80ff
7345ddaa-5258-11ea-94c7-3328ed4742f5,735fc918-5258-11ea-826b-eb6bdfbf19c1
735a1676-5258-11ea-bbc6-8327f48c7b23,735fdd40-5258-11ea-b5f5-47d574e45493
7352001c-5258-11ea-a98e-975f441f664c,735fefba-5258-11ea-b8d9-eb15d08fa116
735fa37a-5258-11ea-9768-ff68d1ac80ff,735fffa0-5258-11ea-9c0b-c31fd43a8d3c
735bb7f6-5258-11ea-a803-f7404ac8ef9c,7360154e-5258-11ea-adab-83a460bc56dc
73418b56-5258-11ea-8d0e-f33f08f112d2,7360287c-5258-11ea-9980-bf8fb4d059f9
7358933c-5258-11ea-b6c2-a700d0b8ec23,73603efc-5258-11ea-805f-6f1b9a8b78a0
735e84d6-5258-11ea-8ebc-db79eba5bacd,7360519e-5258-11ea-8532-cbfe558660df
733e9194-5258-11ea-89b3-4b0565be9d7f,7360640e-5258-11ea-9b78-2b8a05df583d
73561e54-5258-11ea-be5f-8b1cc87293d6,736077a0-5258-11ea-af38-d30f9779c444
733da46e-5258-11ea-9f99-c3fe0e915468,73608b28-5258-11ea-8b0f-677b79ff6ec7
733fecba-5258-11ea-9ba6-cb96252f9e7d,73609e88-5258-11ea-9806-eb87ebdec09b
735d064c-5258-11ea-8355-6fbb0a6d95ce,7360b378-5258-11ea-a2f1-ef02efe0b1f3
735c4e46-5258-11ea-a0fe-c771531edd48,7360c566-5258-11ea-bae0-331a558e61d8
733fa4da-5258-11ea-9fe4-97529195f5e1,7360d7b8-5258-11ea-9ee0-e350772e889a
733e65a2-5258-11ea-b38c-6f4c9775276c,7360ecda-5258-11ea-8062-8bda723336a6
734d3c1c-5258-11ea-8728-e7dbc052176e,7361015c-5258-11ea-9696-b3de11028ad9
734ce172-5258-11ea-9de2-5b0ed99f9556,736114d0-5258-11ea-9f7e-5fce2f6356fc
735ea420-5258-11ea-b2f1-4b7802b1e73b,73612916-5258-11ea-a10e-bfbe80ba849d
7361015c-5258-11ea-9696-b3de11028ad9,73613c94-5258-11ea-86d5-0f9149b45688
7342eeb0-5258-11ea-9964-af4997f605a5,73615080-5258-11ea-9b63-efae9333b84f
73422890-5258-11ea-b540-739843bc7416,73616200-5258-11ea-99bb-4bdfa5209e4b
733fb51a-5258-11ea-8dbb-b33de816aa34,73617e48-5258-11ea-b66e-f3455a1ab215
734612ca-5258-11ea-b30b-dfcbf7443db5,7361914e-5258-11ea-9b3d-9bc9ec072e3f
734d17e6-5258-11ea-8d82-971aabbaf1c6,7361a170-5258-11ea-81cc-c3fbe6a7ee65
7343a634-5258-11ea-8303-7ba0b1e8da6d,7361b278-5258-11ea-9ec9-73f884ece1a3
733f00f2-5258-11ea-839a-d7339c569ed8,7361c38a-5258-11ea-9c8d-034315f145eb
734844b4-5258-11ea-8294-672658205822,7361d5aa-5258-11ea-a0fb-5b940b8daa84
735868bc-5258-11ea-94fe-0f6b51f770b4,7361e658-5258-11ea-9d58-23a73514767f
73431926-5258-11ea-9fd0-c3df987e4c87,7361f5b2-5258-11ea-9d49-07a4810db9ce
7355ea10-5258-11ea-a646-afb58f401ce9,736205fc-5258-11ea-95ec-57af4e7075d6
735081c4-5258-11ea-880e-8758022c3f20,73621a38-5258-11ea-bb37-031e7315e690
73428100-5258-11ea-8f1c-2f1c804869db,73624562-5258-11ea-9a40-2ff640d45a5c
734710b2-5258-11ea-a894-47ed3d06b4f6,7362580e-5258-11ea-82c8-a7fdc6b2737c
73406942-5258-11ea-921b-ab1e64493f60,73626b8c-5258-11ea-82a8-07d9e6f877f2
73534e9a-5258-11ea-9433-9f1e254867d2,73627d48-5258-11ea-bac9-3b1d1691afcd
735d6ce0-5258-11ea-869d-672e26f9323c,73628e32-5258-11ea-b647-1bf375399ab2
73424c44-5258-11ea-bed5-1fbf86a14267,7362a372-5258-11ea-a55c-0ba68a632522
735988e6-5258-11ea-bf32-4fa9d4bfadc2,7362b6be-5258-11ea-b7dc-abc11e9142e7
73556270-5258-11ea-8426-33a57fd35916,7362cb5e-5258-11ea-9250-afac9d5f7737
734c26c4-5258-11ea-a1ef-f70c355513b2,7362e076-5258-11ea-9e1b-43a698090721
735111d4-5258-11ea-b487-3773433090b3,7362fdcc-5258-11ea-b1aa-c3b82e66880b
734e07b4-5258-11ea-8ff1-e36e49dcb2e6,736308a8-5258-11ea-af54-af4422b7222d
734d8c62-5258-11ea-8017-2b48775bde0f,73632270-5258-11ea-b530-973721fb7398
73533f22-5258-11ea-863d-a73065a00463,73633652-5258-11ea-a7c1-d7f74e598596
73425f86-5258-11ea-acc6-7b961c8dd06d,73634836-5258-11ea-b7b5-d397336e9a6d
733f863a-5258-11ea-bbcd-2fff98d01921,73635bf0-5258-11ea-bde5-1797b75c0a27
73505f64-5258-11ea-9e67-e7a82296a6d5,73636b7c-5258-11ea-8f26-7fe80ea4543f
734d6e76-5258-11ea-b0c0-139b5c9b35b7,73638012-5258-11ea-82b4-93ab521d9298
733d9078-5258-11ea-b77a-9373ed6ccdeb,73639318-5258-11ea-9ea3-b36bac1176b9
734655dc-5258-11ea-a998-13ed62930930,7363aa56-5258-11ea-b2a7-dbd5120396bb
73568e16-5258-11ea-8c81-270b883d6b51,7363bc44-5258-11ea-9db5-2785cf968bb5
73479a28-5258-11ea-ad91-9b881f1b7a11,7363cdce-5258-11ea-be03-4b58989937fc
734a2090-5258-11ea-8936-d78edd6cc0e5,7363e23c-5258-11ea-a867-7bedc8308958
73566b16-5258-11ea-af2f-b7497b542326,7363f600-5258-11ea-a67d-13932478b486
73443fae-5258-11ea-9024-b732fb37662a,73640a96-5258-11ea-9e38-6f8fe24717ca
734ba7d0-5258-11ea-958b-3b8260aaf254,73641cca-5258-11ea-b3ea-3bee576c28e1
73568e16-5258-11ea-8c81-270b883d6b51,73643002-5258-11ea-a6d2-cb52455983c1
733ffffc-5258-11ea-8d9a-f7c178ecf7ff,736442ae-5258-11ea-b110-f7fe76ddab9f
7357a576-5258-11ea-9bbd-4b21351a2872,736453b6-5258-11ea-9e7a-b78a2100a40f
73469704-5258-11ea-8460-636e4d9a6b5f,73646e5a-5258-11ea-806b-7f81f4035600
735f226a-5258-11ea-a947-8b503c28dbfa,73648066-5258-11ea-b2da-b3972385f7c9
73478a6a-5258-11ea-8217-d3bfadd260ad,736491fa-5258-11ea-99af-af38f2b7b8c1
733d33a8-5258-11ea-8386-abda053e585c,7364a5f0-5258-11ea-a57b-4300c1e824ee
73541e2e-5258-11ea-b9fa-cb2d96bddf22,7364bc2a-5258-11ea-ada7-2fe7c493e812
7341109a-5258-11ea-9eb0-2ff2be6aa2d5,7364cf1c-5258-11ea-bdd1-57adc3f463e1
735c6322-5258-11ea-8ab0-2fd058f4cf6a,7364e114-5258-11ea-8ac2-2b314894b954
735e73a6-5258-11ea-b0ec-336018f720d7,7364f906-5258-11ea-9ac8-43c3c49623ae
7360519e-5258-11ea-8532-cbfe558660df,73650d7e-5258-11ea-b03a-9709aab3d491
735e84d6-5258-11ea-8ebc-db79eba5bacd,73652138-5258-11ea-9587-6f0fbe43de8e
735442a0-5258-11ea-8f68-d7c4ba00e178,736535b0-5258-11ea-a90d-e332c8ba7009
7355cbf2-5258-11ea-a755-93de06f0a47b,7365450a-5258-11ea-80db-c349d33f2952
733edc8a-5258-11ea-97df-e75ae8eb4a8f,736555ae-5258-11ea-bd77-7ff5bd56da08
735c6322-5258-11ea-8ab0-2fd058f4cf6a,736566ac-5258-11ea-8a54-8f37cbe75739
733dc78c-5258-11ea-b68a-73cd449038ea,73657ade-5258-11ea-aaeb-4bd94d46ca38
7359754a-5258-11ea-82e6-3f326df5d8e2,73658da8-5258-11ea-bfe0-17daf515e761
735ef8a8-5258-11ea-89f0-ab8a7c5feb1a,73659e2e-5258-11ea-93dc-2bd9c268fd14
734f4f16-5258-11ea-ae41-e72deb41c640,7365af5e-5258-11ea-be75-1fd1c91bdd15
7341adf2-5258-11ea-bd95-e7d0d57f1ae6,7365c2fa-5258-11ea-9261-075c5d3e576d
73407950-5258-11ea-a586-5b66ff782ad0,7365d4b6-5258-11ea-a7b4-afdd7e19ee37
7362b6be-5258-11ea-b7dc-abc11e9142e7,7365e668-5258-11ea-8795-03055d0e0003
73577ec0-5258-11ea-9c1a-77c47307103c,7365fae0-5258-11ea-87ad-83b4b529d938
73641cca-5258-11ea-b3ea-3bee576c28e1,73660ba2-5258-11ea-96af-abd0aa31ac09
73599d7c-5258-11ea-8a01-7fbc032c76f3,73661c50-5258-11ea-b3e5-8b82b4f3de96
735f35e8-5258-11ea-9d14-ff11c2070839,73662de4-5258-11ea-a3ca-0f190bea3628
735868bc-5258-11ea-94fe-0f6b51f770b4,73664112-5258-11ea-b977-2f2b20a8487b
73494666-5258-11ea-93ae-9fc0d70f9fc5,736654ae-5258-11ea-b1f6-1bc2c8f322a4
735ee66a-5258-11ea-9e0a-776b546bb8c7,736668cc-5258-11ea-b956-cb1363cd41b0
735396ca-5258-11ea-8faf-e7f2afa9f1c7,7366798e-5258-11ea-a4eb-9f54c02949dc
735af384-5258-11ea-b2c1-c7a205174e63,73669b58-5258-11ea-9057-379f582e4440
735ecd7e-5258-11ea-a4f4-aba041ff02a4,73669a5e-5258-11ea-b128-53034185e316
734ea57a-5258-11ea-a713-9b1f20ccc6f0,7366aa1c-5258-11ea-beb2-533698f034d6
7359efe8-5258-11ea-9b72-37d7f57460f5,7366bf84-5258-11ea-9e96-1b3066779d2e
733d9078-5258-11ea-b77a-9373ed6ccdeb,7366d46a-5258-11ea-b9eb-837d1ba0faf8
734e1cea-5258-11ea-a803-4fa94baf8259,7366e87e-5258-11ea-b9e2-7f3d2f87af5a
73617e48-5258-11ea-b66e-f3455a1ab215,7366feae-5258-11ea-884a-3fcf7022a8ba
734a4688-5258-11ea-bc63-57c6683e491c,7367131c-5258-11ea-b963-235aa54cf5bb
7342705c-5258-11ea-95f1-734a91d1edda,73672726-5258-11ea-bd1f-d31e89dae1c9
734c6fbc-5258-11ea-aa72-7f03b7b1536e,7367395a-5258-11ea-ba91-7bdf4b57f8ed
734d4ffe-5258-11ea-a2e4-6b26270fa72a,73674b0c-5258-11ea-9423-ff06abd769fb
73503ee4-5258-11ea-881f-e3a0fb118d8c,73675d04-5258-11ea-9601-07bfaa80fb20
73634836-5258-11ea-b7b5-d397336e9a6d,736770e6-5258-11ea-ac9c-df4c8dc317a9
7344ee18-5258-11ea-96dc-b7f05fa6a742,7367832e-5258-11ea-9e40-4b2fa9eb8744
73512502-5258-11ea-9093-af415f26a67f,73679a08-5258-11ea-9d19-17c533d308b3
733e2d8a-5258-11ea-85f2-6b9361918d46,7367abba-5258-11ea-be70-eb8b6521f243
7363cdce-5258-11ea-be03-4b58989937fc,7367c014-5258-11ea-8335-ab81cb570f2a
7353f91c-5258-11ea-8733-67da181e2098,7367da7c-5258-11ea-8932-1f65417ff19c
7356ee24-5258-11ea-8d0c-d3c7e1348e6e,7367efa8-5258-11ea-8d63-b7027216340a
73533f22-5258-11ea-863d-a73065a00463,73680114-5258-11ea-98f6-6f8fc1f74fb6
734a3206-5258-11ea-b58c-4be497942d13,7368132a-5258-11ea-9a3c-ef6cbf9acf8c
733db6ca-5258-11ea-9b2c-0f069acb48c2,73682554-5258-11ea-9414-83fb5c775d57
73646e5a-5258-11ea-806b-7f81f4035600,73683490-5258-11ea-9cc8-035daeabefe2
735b3952-5258-11ea-9ec8-8f7728cf7dfb,7368482c-5258-11ea-90b8-9b79071485b5
735fdd40-5258-11ea-b5f5-47d574e45493,7368662c-5258-11ea-bafa-13fe88ff4968
7342b5da-5258-11ea-9734-3b0ffb3adb29,73687158-5258-11ea-98fc-e3277a5eda0a
73452b12-5258-11ea-b965-7f5c12bdb798,736886f2-5258-11ea-805e-e3c86c9b04aa
734fedfe-5258-11ea-8e32-ff54e81a414e,73689bba-5258-11ea-b3c1-476ddbd9d9e5
73416694-5258-11ea-a71a-efd8d41ba64b,7368aed4-5258-11ea-b14b-97006eed9d0d
733e2d8a-5258-11ea-85f2-6b9361918d46,7368c5c2-5258-11ea-b52c-37ab41b77607
7355db42-5258-11ea-bf1e-2f4550b08391,7368d54e-5258-11ea-b4fa-0f540741d117
735a035c-5258-11ea-b83d-9bfdcbfe39dc,7368e944-5258-11ea-a55b-6f366fb7fcb2
73479a28-5258-11ea-ad91-9b881f1b7a11,7368fec0-5258-11ea-985d-87bd4d921174
733fa4da-5258-11ea-9fe4-97529195f5e1,736910cc-5258-11ea-9c53-f72717c66f89
73443fae-5258-11ea-9024-b732fb37662a,736924d6-5258-11ea-871c-f78c302a5282
734fbe6a-5258-11ea-bf29-df5b986652b4,73693ce6-5258-11ea-9830-0f2c99818242
734723d6-5258-11ea-9454-e7a98e8d1a5b,73695974-5258-11ea-8e4e-9f743290a6e1
7368e944-5258-11ea-a55b-6f366fb7fcb2,73696b6c-5258-11ea-bb7c-af746736a6e6
734fd954-5258-11ea-b56d-c7ce47a6a7fb,73697ed6-5258-11ea-a959-472221ad6da7
73401438-5258-11ea-ad64-db740a81e964,736990ba-5258-11ea-b082-171de09ecc60
73422890-5258-11ea-b540-739843bc7416,7369a2bc-5258-11ea-80ae-dfbfb82042fb
7352c7f4-5258-11ea-a06b-6f981f7edd3b,7369b586-5258-11ea-b171-57966010b3f7
7347ca8e-5258-11ea-adf1-bf26b3e8eeb3,7369c76a-5258-11ea-8c81-036d94f9bc08
7345ddaa-5258-11ea-94c7-3328ed4742f5,7369dce6-5258-11ea-bb12-ef0e1ccfb7e6
734beff6-5258-11ea-850a-1f304fdafa63,7369f85c-5258-11ea-aaac-ab992d389d0d
7362b6be-5258-11ea-b7dc-abc11e9142e7,736a0a36-5258-11ea-8e69-fb4f99531fb3
734920a0-5258-11ea-8a5f-8f1cc259da0d,736a1e4a-5258-11ea-a1c3-5b012344ae89
734d5fbc-5258-11ea-a7d9-939de9fd45d4,736a33c6-5258-11ea-be2e-034f0f190f8a
7363f600-5258-11ea-a67d-13932478b486,736a479e-5258-11ea-a5cd-b3fe42414d41
7352e7ca-5258-11ea-bdc0-7f0b5b805690,736a59c8-5258-11ea-b41d-7beb0c920a33
734a0ca4-5258-11ea-bdf8-5bec4b4530d1,736a6a9e-5258-11ea-b30d-43b463c3c720
7366e87e-5258-11ea-b9e2-7f3d2f87af5a,736a9564-5258-11ea-bcf5-5fdcb5e6aa90
73693ce6-5258-11ea-9830-0f2c99818242,736a7e26-5258-11ea-8e08-cbd017b7c958
7345cc0c-5258-11ea-b259-f7069e7b8603,736ac818-5258-11ea-835a-c38db92db701
734c6fbc-5258-11ea-aa72-7f03b7b1536e,736ab7e2-5258-11ea-b254-8b4d345f363d
735645e6-5258-11ea-94d7-37f090d3bb1e,736ae852-5258-11ea-b9e1-23a970892ec0
7363f600-5258-11ea-a67d-13932478b486,736afffe-5258-11ea-be27-d3a2c7423ec6
734c83bc-5258-11ea-8a48-e7692cd1b7f8,736b1796-5258-11ea-bfaf-0bccec1b2f2c
7343c966-5258-11ea-82bc-777f0d7f5ae8,736b2bb4-5258-11ea-beaf-5b8880d0ba5a
735ea420-5258-11ea-b2f1-4b7802b1e73b,736b3fb4-5258-11ea-b39f-5ff3fc9fced3
73453b66-5258-11ea-a804-9fc3d8be074e,736b554e-5258-11ea-bdb7-079648fdd4c5
735eb91a-5258-11ea-8e7d-07e9eef3f2d3,736b6a02-5258-11ea-a8b7-7bf7c5436ad4
73541e2e-5258-11ea-b9fa-cb2d96bddf22,736b7f6a-5258-11ea-a8cd-cf8d8dfedd74
735645e6-5258-11ea-94d7-37f090d3bb1e,736ba1fc-5258-11ea-bd69-974a247b9b1e
7366d46a-5258-11ea-b9eb-837d1ba0faf8,736b922a-5258-11ea-9dc9-5fa3feb6adbd
7344839c-5258-11ea-ac92-27e9c13acc87,736bb89a-5258-11ea-802c-6b28a0939e0e
735a920e-5258-11ea-9dbc-4b0342dd3190,736bccd6-5258-11ea-8cdb-e7ff63d281b8
73675d04-5258-11ea-9601-07bfaa80fb20,736be1a8-5258-11ea-845f-bb9b20037d5c
7361914e-5258-11ea-9b3d-9bc9ec072e3f,736bf80a-5258-11ea-a3e4-c3ee547e8418
73652138-5258-11ea-9587-6f0fbe43de8e,736c0bf6-5258-11ea-afda-1b77c65677dd
7358d19e-5258-11ea-b173-17219593c5c7,736c2140-5258-11ea-bd84-dbb4f0d818a8
73466702-5258-11ea-bace-b3556f834342,736c364e-5258-11ea-9181-478305169a71
733e65a2-5258-11ea-b38c-6f4c9775276c,736c4b16-5258-11ea-86dd-afab3e37bba1
733de140-5258-11ea-8b43-2f520aa558e9,736c62a4-5258-11ea-a4db-d39ed703030a
736442ae-5258-11ea-b110-f7fe76ddab9f,736c7938-5258-11ea-a47a-07965283f628
735a920e-5258-11ea-9dbc-4b0342dd3190,736c89fa-5258-11ea-b62f-c7727d6ea238
7342154e-5258-11ea-883a-6f46481b1373,736c9ba2-5258-11ea-945d-d7a2ca737a3d
7344839c-5258-11ea-ac92-27e9c13acc87,736cadf4-5258-11ea-8a95-bf12e2bea64a
7367c014-5258-11ea-8335-ab81cb570f2a,736cbf4c-5258-11ea-9540-337865bdeda8
733cdafc-5258-11ea-999c-1fc335addacb,736cd13a-5258-11ea-a124-afa9a121adfc
7369a2bc-5258-11ea-80ae-dfbfb82042fb,736ce4cc-5258-11ea-b43c-1b451c84aa46
7358a854-5258-11ea-9ef8-5fdba6a008d1,736cf8cc-5258-11ea-a1bc-47fa3e50a0d8
735b18be-5258-11ea-a123-07bdb51d9c41,736d0ef2-5258-11ea-b07e-13c59e479090
736a0a36-5258-11ea-8e69-fb4f99531fb3,736d2572-5258-11ea-af82-abe612bbe4a2
7344df90-5258-11ea-87b4-972fc4244cd2,736d397c-5258-11ea-a48d-672db5de831d
7358d19e-5258-11ea-b173-17219593c5c7,736d4ac0-5258-11ea-9e99-0f7a7e924b84
73524734-5258-11ea-b273-73e56ba2efe0,736d5bfa-5258-11ea-bb72-3329e2c36492
7341f41a-5258-11ea-abb0-178b36140c69,736d7284-5258-11ea-8d79-c33ea9966722
735d2942-5258-11ea-8f8a-ef9ce2407dbf,736d8ada-5258-11ea-aad9-f38e89220ddb
73616200-5258-11ea-99bb-4bdfa5209e4b,736db186-5258-11ea-9f1c-f34de9a6b482
734ecd52-5258-11ea-824d-7352667022ca,736da146-5258-11ea-97c8-07ad2b622a54
733d124c-5258-11ea-b1cb-1f0f86b1cf49,736dc6ee-5258-11ea-84bd-d3f319646df5
736d0ef2-5258-11ea-b07e-13c59e479090,736ddd96-5258-11ea-839e-9b3671056e59
7359754a-5258-11ea-82e6-3f326df5d8e2,736df10a-5258-11ea-91dd-0fdcbe9f0de4
735220a6-5258-11ea-b9d3-5f4a0048a50a,736e065e-5258-11ea-b274-a338be4a2ecf
7344a868-5258-11ea-a05c-17cc7a22084e,736e1bb2-5258-11ea-a694-17667c7e8e18
7342154e-5258-11ea-883a-6f46481b1373,736e3426-5258-11ea-a63f-d734f7c75a9e
734b4808-5258-11ea-bbfe-1b7653d02d92,736e49e8-5258-11ea-9f7d-f74611b3e1b5
735b94ba-5258-11ea-9066-8756cab654ac,736e5b4a-5258-11ea-82e8-936a0d3e3d1e
7368132a-5258-11ea-9a3c-ef6cbf9acf8c,736e6f90-5258-11ea-a5d1-0b2052f382f0
7344962a-5258-11ea-97e0-bf8e479b1726,736e83f4-5258-11ea-a38e-2b2c97f79434
7352b1e2-5258-11ea-b568-3b2bdb09c227,736e9966-5258-11ea-a461-4f93415e858e
735b18be-5258-11ea-a123-07bdb51d9c41,736eabea-5258-11ea-98ef-f3fd6b2ca499
735575e4-5258-11ea-8c65-33d148ca411d,736ec0b2-5258-11ea-a06a-9f8fe06dfc66
735a6fcc-5258-11ea-a7a0-d39158728de4,736ed3a4-5258-11ea-9ce2-475123d541d1
735abed2-5258-11ea-a7f6-cb211a09e5dc,736eefd8-5258-11ea-a120-07555efa7794
7344bc9a-5258-11ea-8346-db770582ae5b,736f0464-5258-11ea-ac2d-b76d95f2c969
735d1916-5258-11ea-b345-cf162fe9a492,736f1b20-5258-11ea-8ff4-639cfc747ba9
7359754a-5258-11ea-82e6-3f326df5d8e2,736f333a-5258-11ea-994e-775bcbf9f822
73431926-5258-11ea-9fd0-c3df987e4c87,736f43a2-5258-11ea-abae-cb0affc086bc
734b6cd4-5258-11ea-92d7-730dcd7fcae9,736f570c-5258-11ea-b9e5-7b82c43cd467
7352001c-5258-11ea-a98e-975f441f664c,736f6972-5258-11ea-ad89-2b90020b0b02
733e029c-5258-11ea-b03e-574f308bbf1a,736f7f0c-5258-11ea-9926-0bf7340a24a4
7365e668-5258-11ea-8795-03055d0e0003,736f8e66-5258-11ea-ab1a-335e679f016d
7343da82-5258-11ea-ba85-a76aac12e866,736f9da2-5258-11ea-b009-6bb022833ff1
7355db42-5258-11ea-bf1e-2f4550b08391,736fb166-5258-11ea-81dd-c778055ddd51
73453b66-5258-11ea-a804-9fc3d8be074e,736fc6f6-5258-11ea-bc71-b34cead0ada9
7354cfa4-5258-11ea-ad59-f7372134258a,736fdc36-5258-11ea-8ead-a74a63638b16
734b38d6-5258-11ea-85b5-270996fb91e1,736ff0b8-5258-11ea-babb-eb07891f78ea
735aa618-5258-11ea-92a2-bff48611b410,73700382-5258-11ea-9276-0333a40bcba3
7360519e-5258-11ea-8532-cbfe558660df,73701732-5258-11ea-b0ad-6f9afca48382
7357ba98-5258-11ea-9bb0-0f91cac67c26,73703d34-5258-11ea-9c2a-d32079c0e12e
736205fc-5258-11ea-95ec-57af4e7075d6,73702ba0-5258-11ea-9724-43d8dd6a6605
7341e29a-5258-11ea-810b-4ffc11e6c86e,737057ce-5258-11ea-bf3f-5b0a3366e063
734b6cd4-5258-11ea-92d7-730dcd7fcae9,7370738a-5258-11ea-a854-4fc98100f37e
73418b56-5258-11ea-8d0e-f33f08f112d2,7370996e-5258-11ea-844b-6bbf7acf67b6
73603efc-5258-11ea-805f-6f1b9a8b78a0,73708834-5258-11ea-964e-5b6f7679a700
735af384-5258-11ea-b2c1-c7a205174e63,7370ac4c-5258-11ea-9893-7f498d83e628
735220a6-5258-11ea-b9d3-5f4a0048a50a,7370bfe8-5258-11ea-bd94-97839cd6ecd0
735a5e74-5258-11ea-ab1f-772429bedb46,7370d1d6-5258-11ea-8553-03bd19298f65
734de00e-5258-11ea-baf6-5327d38b4c4c,7370e626-5258-11ea-9632-2710310b5816
7345b8b6-5258-11ea-af97-13b33463dab7,7370f850-5258-11ea-8f34-e75f3cfd9b78
7356ee24-5258-11ea-8d0c-d3c7e1348e6e,73710cf0-5258-11ea-9b9a-9377d5c38b63
736db186-5258-11ea-9f1c-f34de9a6b482,73711fe2-5258-11ea-907f-47266562c4ea
73599d7c-5258-11ea-8a01-7fbc032c76f3,737133d8-5258-11ea-b8a9-77c60ca93e51
733e1840-5258-11ea-a1e5-0bd72601d8af,73714562-5258-11ea-89ca-bb834faefb0b
736535b0-5258-11ea-a90d-e332c8ba7009,73715b06-5258-11ea-a078-ef71080d1fa8
7344a868-5258-11ea-a05c-17cc7a22084e,73716e66-5258-11ea-a538-4b7433a15159
73451b36-5258-11ea-9e6f-f33c4d69ce8f,7371820c-5258-11ea-a1d1-6bc0d3239948
73504f60-5258-11ea-870d-67984a5509bd,7371956c-5258-11ea-8129-53d971c3a265
73609e88-5258-11ea-9806-eb87ebdec09b,7371adb8-5258-11ea-a7bc-7f7c2746b177
733f863a-5258-11ea-bbcd-2fff98d01921,7371c37a-5258-11ea-95be-0758a86d3f8c
733fb51a-5258-11ea-8dbb-b33de816aa34,7371e9ea-5258-11ea-afd8-eb9cb1e689cf
7350913c-5258-11ea-960c-afd496f39057,7371fb42-5258-11ea-a16a-3756b4f22cc7
7351df4c-5258-11ea-b1b0-8f12e8cb7791,7371d70c-5258-11ea-8856-9fab22cc4452
736c4b16-5258-11ea-86dd-afab3e37bba1,73720e5c-5258-11ea-83dd-b785f45630b4
734635d4-5258-11ea-9ec6-335f78ffa1a8,7372213a-5258-11ea-9a09-237eb49cf034
7355097e-5258-11ea-8ada-efaa32da98dd,737234b8-5258-11ea-8053-fb0eccfd77f4
735c8938-5258-11ea-8a03-0f0c2ab86fe2,7372466a-5258-11ea-8b44-d3eca377cc18
735f620c-5258-11ea-b049-efd75a79d5af,73725e7a-5258-11ea-b190-5f057820a9fd
735d3ac2-5258-11ea-98bb-ffc3e846cbdd,73727252-5258-11ea-adf0-d3ea5623533b
7358933c-5258-11ea-b6c2-a700d0b8ec23,73728ba2-5258-11ea-b929-d7e25f22926a
734f4f16-5258-11ea-ae41-e72deb41c640,73729b6a-5258-11ea-bf66-43f075c3d74c
735a1676-5258-11ea-bbc6-8327f48c7b23,7372b06e-5258-11ea-aea5-4fc14bffda93
73708834-5258-11ea-964e-5b6f7679a700,7372c31a-5258-11ea-8bfa-9bd8398e0c7c
734dc812-5258-11ea-8ea1-673da7a4aa63,7372d698-5258-11ea-bb30-3bee7e600545
736b922a-5258-11ea-9dc9-5fa3feb6adbd,7372e9da-5258-11ea-8e1d-b70891950293
7368132a-5258-11ea-9a3c-ef6cbf9acf8c,7372fe98-5258-11ea-acae-9384b9fd6ef5
735e93e0-5258-11ea-ad12-2f195e974261,73731a9a-5258-11ea-b38b-27144855d2b3
7361f5b2-5258-11ea-9d49-07a4810db9ce,73733a52-5258-11ea-88eb-6beae8f872c3
73442190-5258-11ea-88e1-274821ed25aa,7373524e-5258-11ea-bf60-33b3baea3d8b
7348d8fc-5258-11ea-a410-f327c0ce4906,737366ee-5258-11ea-956e-1fa601d563c1
73621a38-5258-11ea-bb37-031e7315e690,7373780a-5258-11ea-aad8-47772e1bf58d
736c9ba2-5258-11ea-945d-d7a2ca737a3d,7373882c-5258-11ea-a2da-7b7565d80abe
73687158-5258-11ea-98fc-e3277a5eda0a,73739772-5258-11ea-9834-93293c6d65c8
734a6956-5258-11ea-b564-c35cff226600,7373ad5c-5258-11ea-871e-bfd1bc023eeb
7369c76a-5258-11ea-8c81-036d94f9bc08,7373c1ca-5258-11ea-a55d-fb5a3956986c
7370ac4c-5258-11ea-9893-7f498d83e628,7373d89a-5258-11ea-94f8-17161aceb8cc
7342c5a2-5258-11ea-b0dc-c751d6d35325,7373ec90-5258-11ea-b950-7fceac4d52f2
735b6f8a-5258-11ea-b58b-d340e3f8415e,7374007c-5258-11ea-8ad6-371da64b0549
7364a5f0-5258-11ea-a57b-4300c1e824ee,73742430-5258-11ea-9368-ab7ef543e0ad
7341788c-5258-11ea-b511-9327cfff5934,73743af6-5258-11ea-b0cc-abb59cbc2ab7
736fb166-5258-11ea-81dd-c778055ddd51,73744e06-5258-11ea-9384-c36f668fa8f3
735917d0-5258-11ea-aa7f-43332b31ea0e,73746062-5258-11ea-9636-0f60accbae9a
73437114-5258-11ea-9310-f7e70a19ee71,737472b4-5258-11ea-a4c1-4f599d8fea9a
73660ba2-5258-11ea-96af-abd0aa31ac09,73748808-5258-11ea-b266-2b3839eda5e6
73583d9c-5258-11ea-b2eb-f785c45e7009,73749c30-5258-11ea-abfb-43ad0a3419ea
733ffffc-5258-11ea-8d9a-f7c178ecf7ff,7374ad9c-5258-11ea-b6cb-ff33886f6717
736fdc36-5258-11ea-8ead-a74a63638b16,7374be90-5258-11ea-97e6-43f6d9b29301
7353f91c-5258-11ea-8733-67da181e2098,7374d1c8-5258-11ea-aee4-dfbbd489f56d
735c9cf2-5258-11ea-8bfd-5330eedb5226,7374e49c-5258-11ea-839c-cb876925b9ab
736886f2-5258-11ea-805e-e3c86c9b04aa,7374f7d4-5258-11ea-88a8-5becea48ba80
735af384-5258-11ea-b2c1-c7a205174e63,73750e22-5258-11ea-b7b1-0b102e9d9a01
7343b6ec-5258-11ea-91ef-776305654030,737521a0-5258-11ea-9243-57df21c96ce7
733cb568-5258-11ea-ab63-4379607ea1f0,73753668-5258-11ea-8e12-e73abaf673b8
735a1676-5258-11ea-bbc6-8327f48c7b23,73754b08-5258-11ea-a456-2bf43758b5a2
7373ad5c-5258-11ea-871e-bfd1bc023eeb,73755fd0-5258-11ea-bcc9-2779f859bdfa
73650d7e-5258-11ea-b03a-9709aab3d491,737578bc-5258-11ea-8c38-8b7a2f3cfae2
734ecd52-5258-11ea-824d-7352667022ca,7375932e-5258-11ea-a8f9-73fdd5f7bbb1
735575e4-5258-11ea-8c65-33d148ca411d,7375a440-5258-11ea-bbf7-73982b312c7f
733fdaea-5258-11ea-beea-cfda21e0a12b,7375b8cc-5258-11ea-8aee-977c1a84e3be
73664112-5258-11ea-b977-2f2b20a8487b,7375ca10-5258-11ea-9ad0-275b2779651d
7346fe2e-5258-11ea-a8ec-ff9116350357,7375dd0c-5258-11ea-8e93-1715e49bca3a
733c6374-5258-11ea-81cc-db1a4abd38e4,7375f0d0-5258-11ea-beb1-73813d2e247c
73638012-5258-11ea-82b4-93ab521d9298,73760b10-5258-11ea-a92e-3fce1dce2c1f
736114d0-5258-11ea-9f7e-5fce2f6356fc,73761f2e-5258-11ea-93f4-174e8b20011d
73556270-5258-11ea-8426-33a57fd35916,7376363a-5258-11ea-9cd3-670682a11668
734ea57a-5258-11ea-a713-9b1f20ccc6f0,737649cc-5258-11ea-b895-4b1a67d4d70a
7357586e-5258-11ea-aee0-ab57754c7279,73766204-5258-11ea-923d-a31e11d534b1
734af394-5258-11ea-a8c6-9747ddfaebfb,73769972-5258-11ea-998f-0bea378044e9
736fc6f6-5258-11ea-bc71-b34cead0ada9,7376850e-5258-11ea-9ffb-eb69f89e0909
73669b58-5258-11ea-9057-379f582e4440,7376afac-5258-11ea-a74c-43f258998f55
734710b2-5258-11ea-a894-47ed3d06b4f6,7376c17c-5258-11ea-9bbe-439946b1bd74
734af394-5258-11ea-a8c6-9747ddfaebfb,7376d14e-5258-11ea-9bb2-df536799f4ba
7367c014-5258-11ea-8335-ab81cb570f2a,7376e47c-5258-11ea-badb-0f2bc50bd98e
736df10a-5258-11ea-91dd-0fdcbe9f0de4,7376f62e-5258-11ea-9fc1-27b750bc23c7
73444d46-5258-11ea-9fc8-132050b5c8b8,73770524-5258-11ea-a9b5-d75c7551d2f8
7370996e-5258-11ea-844b-6bbf7acf67b6,73771992-5258-11ea-8870-0368971a0687
735af384-5258-11ea-b2c1-c7a205174e63,737741f6-5258-11ea-9ae9-cff5657fbfd7
73743af6-5258-11ea-b0cc-abb59cbc2ab7,73774142-5258-11ea-9501-8f090d1bb97e
7355f848-5258-11ea-931f-f33f1ac5da6e,737769f6-5258-11ea-9917-175fae441828
735cadc8-5258-11ea-8a00-67ba44f02e88,73775844-5258-11ea-8c70-072929c6cb88
735268d6-5258-11ea-91ef-536eeccc7fc0,737781ca-5258-11ea-9f8a-bb2e5527a2fd
735db8f8-5258-11ea-9553-7b06d34d5a1b,737793c2-5258-11ea-bdfb-8b4a121b6274
73582be0-5258-11ea-af54-a37ff70073b0,7377a6a0-5258-11ea-ac63-dbba99fcc9c4
735c770e-5258-11ea-893a-2bd176387ac9,7377bd8e-5258-11ea-899a-5f4df0fb30e9
735beed8-5258-11ea-b35c-976d3948e116,7377cf36-5258-11ea-8d71-cb2692927063
73750e22-5258-11ea-b7b1-0b102e9d9a01,7377e854-5258-11ea-8292-471cfb1a4435
735f7972-5258-11ea-9fe4-cf62aa8c7b00,7377fa42-5258-11ea-9764-bfe4d621d480
734832f8-5258-11ea-b073-976eeaec4ec5,73780d52-5258-11ea-b5b4-33ce28e0d779
735ddafe-5258-11ea-bb80-773e4b77fb49,73782314-5258-11ea-8469-2b5e8d4d6e97
73423ed4-5258-11ea-baea-f3fd03ba3018,737836b0-5258-11ea-bd78-4fb7e372fd57
735a823c-5258-11ea-923d-ebed4cca2340,73784b96-5258-11ea-bfe7-d7b6fa81fdeb
734571da-5258-11ea-ac4c-ff87dd880842,7378622a-5258-11ea-9885-ebe5bb58c043
73512502-5258-11ea-9093-af415f26a67f,73787814-5258-11ea-a08d-7bd3adae2f55
73407950-5258-11ea-a586-5b66ff782ad0,73788a3e-5258-11ea-8e26-db1cc442d6aa
7372466a-5258-11ea-8b44-d3eca377cc18,73789970-5258-11ea-bbc9-c7f03724c687
73697ed6-5258-11ea-a959-472221ad6da7,7378a9f6-5258-11ea-bdb6-5bdc34390694
7373ec90-5258-11ea-b950-7fceac4d52f2,7378cef4-5258-11ea-94d2-9fee8997c0b4
7358f32c-5258-11ea-8c30-cf12130c89b4,7378ecea-5258-11ea-8238-9fa8533060bb
7352f8c8-5258-11ea-8a80-db8c40ffe43c,73790c5c-5258-11ea-b43b-cfc95a24a087
73434da6-5258-11ea-8156-434d0689a650,73792610-5258-11ea-9a49-b7d24dc95462
73451b36-5258-11ea-9e6f-f33c4d69ce8f,73793e52-5258-11ea-b74c-974e920df0aa
73531a9c-5258-11ea-9da7-6352cdc592df,7379593c-5258-11ea-b364-1bf11c2a1e12
73443fae-5258-11ea-9024-b732fb37662a,73796ef4-5258-11ea-8e30-cb0cd725e9d4
73754b08-5258-11ea-a456-2bf43758b5a2,73798d44-5258-11ea-a2b7-2ba1edd3d692
7343c966-5258-11ea-82bc-777f0d7f5ae8,7379ab30-5258-11ea-bde5-6f84fe991f3d
7376f62e-5258-11ea-9fc1-27b750bc23c7,7379c282-5258-11ea-a147-2b97c4d77968
73650d7e-5258-11ea-b03a-9709aab3d491,7379d952-5258-11ea-8638-c7df300ead94
733e4126-5258-11ea-884c-d39ccf9b7280,7379f072-5258-11ea-b397-9f7b7a0542b9
734f3bc0-5258-11ea-80b2-53dd21c4294c,737a0e86-5258-11ea-b987-d3dfd1d02dcc
73585aca-5258-11ea-8009-7fa0646e389a,737a24f2-5258-11ea-8553-4b0b22d85e1f
736be1a8-5258-11ea-845f-bb9b20037d5c,737a3dac-5258-11ea-a6f2-f745e5366af4
735ecd7e-5258-11ea-a4f4-aba041ff02a4,737a5008-5258-11ea-90bc-afc83adb9ade
736886f2-5258-11ea-805e-e3c86c9b04aa,737a6494-5258-11ea-a975-570c937ab6aa
73487772-5258-11ea-ad05-07e2cdde610f,737a7b32-5258-11ea-9a9f-8b7da6298223
7360d7b8-5258-11ea-9ee0-e350772e889a,737a9400-5258-11ea-9154-73ca889015ab
734f1668-5258-11ea-95ec-b334bc22e769,737aab48-5258-11ea-aca3-c38da75ef4d1
733e5274-5258-11ea-9643-63e5fb4e3f5f,737ac24a-5258-11ea-b461-1bc10e22abea
73440f66-5258-11ea-a714-73b8742640c8,737ad9f6-5258-11ea-9323-076d44c3d558
7353729e-5258-11ea-8f4c-ff18526015ed,737af724-5258-11ea-ab4b-33581c90389c
73760b10-5258-11ea-a92e-3fce1dce2c1f,737b0cf0-5258-11ea-aad7-d7985462a8f1
7369b586-5258-11ea-b171-57966010b3f7,737b2460-5258-11ea-b423-c7e609bb5ac1
736535b0-5258-11ea-a90d-e332c8ba7009,737b3c66-5258-11ea-9a74-73988cbb1de7
7358bd26-5258-11ea-a298-0f94f539d0cb,737b530e-5258-11ea-8186-8bffc471c4b1
736f43a2-5258-11ea-abae-cb0affc086bc,737b7b22-5258-11ea-aada-07d580eca2be
7348fb34-5258-11ea-b484-b3f126b02ccf,737b967a-5258-11ea-b348-63ae2fa14be7
735d809a-5258-11ea-a0b5-b3280a925625,737b7ad2-5258-11ea-b4d7-03ba8e560f89
7349337e-5258-11ea-b553-07ffac7a1733,737bbb82-5258-11ea-b4b1-17109fa2df6c
736e065e-5258-11ea-b274-a338be4a2ecf,737bce1a-5258-11ea-8eda-c3ee31460f5e
7373780a-5258-11ea-aad8-47772e1bf58d,737be3f0-5258-11ea-b390-f7a5ee06b0d3
73749c30-5258-11ea-abfb-43ad0a3419ea,737bfeee-5258-11ea-914b-331f104a762e
735645e6-5258-11ea-94d7-37f090d3bb1e,737c1d34-5258-11ea-9770-9b847237cd21
73754b08-5258-11ea-a456-2bf43758b5a2,737c3346-5258-11ea-9930-4baa0403952c
73581ca4-5258-11ea-8b40-6b983b3444bd,737c4944-5258-11ea-aaba-9bc881c83ddb
7361015c-5258-11ea-9696-b3de11028ad9,737c5d30-5258-11ea-af39-cfcafbe560f8
733cc986-5258-11ea-9148-0bc51cf5a8b2,737c75ea-5258-11ea-a162-a7aa7ca6548b
736f6972-5258-11ea-ad89-2b90020b0b02,737c8d96-5258-11ea-b5c9-5fb050ff8a72
73534e9a-5258-11ea-9433-9f1e254867d2,737c9f8e-5258-11ea-a34d-6b7d352b8fc1
737be3f0-5258-11ea-b390-f7a5ee06b0d3,737cb654-5258-11ea-b0c2-53a5aad4bfb5
73580926-5258-11ea-9b6c-5f01909451dd,737cce50-5258-11ea-bc47-9b8812c1dee3
73635bf0-5258-11ea-bde5-1797b75c0a27,737d0226-5258-11ea-a986-afddc527c985
734c6fbc-5258-11ea-aa72-7f03b7b1536e,737d1806-5258-11ea-8720-ff7fff4a48a9
73503ee4-5258-11ea-881f-e3a0fb118d8c,737d17d4-5258-11ea-bc2d-4763c8e1d4d7
73750e22-5258-11ea-b7b1-0b102e9d9a01,737d2e2c-5258-11ea-935f-4b70ddbfe8a2
73453b66-5258-11ea-a804-9fc3d8be074e,737d4498-5258-11ea-9eb5-f336cf32ab41
736d5bfa-5258-11ea-bb72-3329e2c36492,737d5a64-5258-11ea-96f0-3b6744101c33
7361a170-5258-11ea-81cc-c3fbe6a7ee65,737d6f40-5258-11ea-adc2-7ff890007fa2
7364e114-5258-11ea-8ac2-2b314894b954,737d85b6-5258-11ea-9d22-03ddd3eea94f
736da146-5258-11ea-97c8-07ad2b622a54,737d9e8e-5258-11ea-8227-cfc6a68dd77b
7357586e-5258-11ea-aee0-ab57754c7279,737db306-5258-11ea-b2fb-4fc0986724fa
737d17d4-5258-11ea-bc2d-4763c8e1d4d7,737dc8b4-5258-11ea-a92a-bfbf2d8526c5
73715b06-5258-11ea-a078-ef71080d1fa8,737ddee4-5258-11ea-9f57-1f611836dc68
7376850e-5258-11ea-9ffb-eb69f89e0909,737df4ce-5258-11ea-91d7-970f039507c3
7355f848-5258-11ea-931f-f33f1ac5da6e,737e08e2-5258-11ea-ad97-d781b6be4abf
7342d9c0-5258-11ea-9da8-071c99348b8c,737e186e-5258-11ea-bd38-0fe7232537fe
73528ee2-5258-11ea-9183-0ba8c24fd610,737e29f8-5258-11ea-9029-37b8a4c33d2f
73652138-5258-11ea-9587-6f0fbe43de8e,737e3dc6-5258-11ea-9f9c-47b8c13ec5e2
736a9564-5258-11ea-bcf5-5fdcb5e6aa90,737e4e42-5258-11ea-9d3d-73f6f9a5c74f
7379d952-5258-11ea-8638-c7df300ead94,737e6e18-5258-11ea-8489-072ca57c5a2d
7359dfb2-5258-11ea-af4f-6386336e9930,737e9712-5258-11ea-9ff1-5b1eb1fada87
734da634-5258-11ea-a686-b3adf07f019e,737ea9b4-5258-11ea-90d8-e34b10c733c4
737b967a-5258-11ea-b348-63ae2fa14be7,737eb936-5258-11ea-b408-d3d48167af37
7358933c-5258-11ea-b6c2-a700d0b8ec23,737eceb2-5258-11ea-b78d-27a8f31e07dd
735c9cf2-5258-11ea-8bfd-5330eedb5226,737ee348-5258-11ea-be6f-1bedacc92eb2
73561e54-5258-11ea-be5f-8b1cc87293d6,737ef856-5258-11ea-bfa4-5701195804d0
73664112-5258-11ea-b977-2f2b20a8487b,737f0986-5258-11ea-8e1c-9396fb451e6c
7344bc9a-5258-11ea-8346-db770582ae5b,737f1f16-5258-11ea-859d-bf009f9b1ac2
734e9094-5258-11ea-84c8-d70b231150c2,737f32d0-5258-11ea-a291-ef6e678d274e
7347f1b2-5258-11ea-bd99-97a9df38cdf4,737f4842-5258-11ea-a1e7-83bf0f1d92c6
734133b8-5258-11ea-96d1-b3f7bf444292,737f5990-5258-11ea-8234-9b1afe5cf868
7354e368-5258-11ea-993f-03717aa045fe,737f6dc2-5258-11ea-afec-27b97ea626a3
735bdca4-5258-11ea-a9d1-a72bdb457198,737f7fa6-5258-11ea-a7d8-5f2ebb96f32a
7344ee18-5258-11ea-96dc-b7f05fa6a742,737f950e-5258-11ea-93b1-bf720ec777f8
73700382-5258-11ea-9276-0333a40bcba3,737faa08-5258-11ea-994f-3b4031dd3a04
73700382-5258-11ea-9276-0333a40bcba3,737fbeee-5258-11ea-8dc0-bf136d2797ed
737e186e-5258-11ea-bd38-0fe7232537fe,737fd4ba-5258-11ea-a8ce-bfa0e2056237
73428100-5258-11ea-8f1c-2f1c804869db,737fe4be-5258-11ea-8b64-3b35602b2d88
735f9088-5258-11ea-9eb7-eb9c0578490a,737ff8f0-5258-11ea-932d-cb90dcafd81f
733fb51a-5258-11ea-8dbb-b33de816aa34,73801010-5258-11ea-9a33-87d3cb1e7d00
7352d6ae-5258-11ea-a1be-579ad6484eb6,738027e4-5258-11ea-9347-ffe159b796d6
734df58a-5258-11ea-acef-2f0f59df590b,73803734-5258-11ea-b4b9-4fe69a8ca79c
73679a08-5258-11ea-9d19-17c533d308b3,73804c24-5258-11ea-8a67-63686b044dc2
73438154-5258-11ea-b636-c3469a369f1e,73805f02-5258-11ea-a3c5-bb36c0a878d2
73533f22-5258-11ea-863d-a73065a00463,738075b4-5258-11ea-a922-9f172ddb5d38
73714562-5258-11ea-89ca-bb834faefb0b,73808c3e-5258-11ea-bb6f-1badb425c068
734612ca-5258-11ea-b30b-dfcbf7443db5,73809ec2-5258-11ea-ad56-47ab2347e621
736ac818-5258-11ea-835a-c38db92db701,7380b1aa-5258-11ea-bdac-9b7f743f7689
736e83f4-5258-11ea-a38e-2b2c97f79434,7380c398-5258-11ea-a483-b34b082cc56e
7364f906-5258-11ea-9ac8-43c3c49623ae,7380d8f6-5258-11ea-846c-335b7d141ada
7360b378-5258-11ea-a2f1-ef02efe0b1f3,7380ed32-5258-11ea-bb05-936b248c8340
73515fea-5258-11ea-b7a3-63f79334b2e0,73810038-5258-11ea-8c26-a74fa218079c
733f0ee4-5258-11ea-baa2-9fdc9bd1b7af,73811208-5258-11ea-823a-efac3c698f7f
7376d14e-5258-11ea-9bb2-df536799f4ba,73812ea0-5258-11ea-909e-3320ee6e259d
734635d4-5258-11ea-9ec6-335f78ffa1a8,7381458e-5258-11ea-987f-9762ad76ae65
736308a8-5258-11ea-af54-af4422b7222d,7381610e-5258-11ea-a60f-2b535818e9aa
737f950e-5258-11ea-93b1-bf720ec777f8,738176a8-5258-11ea-ab63-77b6e192ac25
73478a6a-5258-11ea-8217-d3bfadd260ad,73818f58-5258-11ea-b305-87a35ad67d7b
734bd980-5258-11ea-8f83-27ffdd89d37c,73819ee4-5258-11ea-9aae-53e62a9e657c
736a7e26-5258-11ea-8e08-cbd017b7c958,7381b5f0-5258-11ea-800e-8b4a339750f1
73812ea0-5258-11ea-909e-3320ee6e259d,7381ca22-5258-11ea-b8ed-ffdab873da9f
735c8938-5258-11ea-8a03-0f0c2ab86fe2,7381dda0-5258-11ea-aa40-c7c6443d93fc
73529fcc-5258-11ea-9456-273fcd6803b9,7381f2f4-5258-11ea-986b-eb8c0c289c70
7380b1aa-5258-11ea-bdac-9b7f743f7689,738206d6-5258-11ea-b4c7-af2f12d4596d
73731a9a-5258-11ea-b38b-27144855d2b3,73821ad6-5258-11ea-a031-1f14d552af84
7353841e-5258-11ea-8d2d-038bb6706f85,7382326e-5258-11ea-b83e-9b4744f169ec
736c2140-5258-11ea-bd84-dbb4f0d818a8,738247d6-5258-11ea-a8bd-4323b6b85696
736f43a2-5258-11ea-abae-cb0affc086bc,7382594c-5258-11ea-94d8-63e6612ea988
735d6ce0-5258-11ea-869d-672e26f9323c,738269dc-5258-11ea-9825-8bb91855a0a6
733df1c6-5258-11ea-8a82-e3225a0a71cd,73827dfa-5258-11ea-bcc8-0f7f4e59b5e4
733d33a8-5258-11ea-8386-abda053e585c,738291dc-5258-11ea-bf5e-6bf3d2f52b51
733cdafc-5258-11ea-999c-1fc335addacb,7382b9dc-5258-11ea-8565-434ae6bcc627
7367c014-5258-11ea-8335-ab81cb570f2a,7382a636-5258-11ea-ad11-c712a07ee05e
736e3426-5258-11ea-a63f-d734f7c75a9e,7382cd14-5258-11ea-9c78-3b654fc8cfd7
7361e658-5258-11ea-9d58-23a73514767f,7382e0a6-5258-11ea-95ac-af5d6b3a1a05
7370f850-5258-11ea-8f34-e75f3cfd9b78,7382f6d6-5258-11ea-88ee-3b04bf96f59c
733c81d8-5258-11ea-8c3f-e3bb2029d959,73830892-5258-11ea-b021-635e8694dba3
73725e7a-5258-11ea-b190-5f057820a9fd,738320a2-5258-11ea-8c0e-e37ad066d518
73808c3e-5258-11ea-bb6f-1badb425c068,73833236-5258-11ea-9931-534a51c7df5f
733f863a-5258-11ea-bbcd-2fff98d01921,73835f4a-5258-11ea-a6fd-c381f38b9a28
7352f8c8-5258-11ea-8a80-db8c40ffe43c,73834834-5258-11ea-b784-af63a0eac832
735da890-5258-11ea-bb39-fba61af7deec,73837318-5258-11ea-9805-53396ce326ba
7346ec40-5258-11ea-be33-bfae94d01180,7383890c-5258-11ea-a093-17e0db6a4b6d
73444d46-5258-11ea-9fc8-132050b5c8b8,73839fa0-5258-11ea-837c-273ee1ae16ed
736654ae-5258-11ea-b1f6-1bc2c8f322a4,7383b4f4-5258-11ea-9b5d-c36d5e275633
7379c282-5258-11ea-a147-2b97c4d77968,7383ca5c-5258-11ea-99cb-23ac514b9a2c
737af724-5258-11ea-ab4b-33581c90389c,7383dd80-5258-11ea-8c41-fb31902a0f7d
737c5d30-5258-11ea-af39-cfcafbe560f8,73840c4c-5258-11ea-b908-2720b8542b06
7377a6a0-5258-11ea-ac63-dbba99fcc9c4,7383f2f2-5258-11ea-b56b-6762d1a97857
734a0ca4-5258-11ea-bdf8-5bec4b4530d1,73842092-5258-11ea-a328-b3f670c21a8f
7381b5f0-5258-11ea-800e-8b4a339750f1,73843c76-5258-11ea-9d3c-cf4ae3fa26eb
73834834-5258-11ea-b784-af63a0eac832,738451ac-5258-11ea-8821-4f67e8dfe302
737cce50-5258-11ea-bc47-9b8812c1dee3,738468d6-5258-11ea-8e64-ebf2d17f833a
736f333a-5258-11ea-994e-775bcbf9f822,73847e02-5258-11ea-93cc-836c0c252e3a
736d397c-5258-11ea-a48d-672db5de831d,7384932e-5258-11ea-b24a-0f8b184d4280
7346c97c-5258-11ea-b26f-2b52f1c0aafd,7384bdc2-5258-11ea-971f-dba4d749c606
7358933c-5258-11ea-b6c2-a700d0b8ec23,7384a846-5258-11ea-9454-832e2516f03d
7373c1ca-5258-11ea-a55d-fb5a3956986c,7384d906-5258-11ea-b492-b753e13d2adb
73669a5e-5258-11ea-b128-53034185e316,7384ece8-5258-11ea-b0fc-479ae72b094a
7342705c-5258-11ea-95f1-734a91d1edda,7384ffa8-5258-11ea-9a9a-5707fb8a1b62
73552b48-5258-11ea-af98-37654315c34e,73851646-5258-11ea-b4ca-0bf0ee7a0208
7372c31a-5258-11ea-8bfa-9bd8398e0c7c,73852c12-5258-11ea-8832-8769cfb04199
735d96de-5258-11ea-b0df-570290921ac1,73854102-5258-11ea-876f-274705fee40e
737c8d96-5258-11ea-b5c9-5fb050ff8a72,73855494-5258-11ea-b916-dfcaf18f660a
7384932e-5258-11ea-b24a-0f8b184d4280,738569f2-5258-11ea-9e2d-6ff7e65fe3fb
737d0226-5258-11ea-a986-afddc527c985,73857cd0-5258-11ea-bac5-83369faf19c5
737ee348-5258-11ea-be6f-1bedacc92eb2,73858c02-5258-11ea-bcae-b7293f74e748
736d2572-5258-11ea-af82-abe612bbe4a2,7385a192-5258-11ea-b43f-af62e27c5a14
737d17d4-5258-11ea-bc2d-4763c8e1d4d7,7385b6be-5258-11ea-b308-cb769524c4d5
734b4808-5258-11ea-bbfe-1b7653d02d92,7385cabe-5258-11ea-be62-470560269e08
73571ee4-5258-11ea-bd1d-0b6a3d118fc6,7385e300-5258-11ea-b778-af78be5979bb
7374007c-5258-11ea-8ad6-371da64b0549,7385f4d0-5258-11ea-b1b6-335d73deaf10
735a378c-5258-11ea-82d2-277235d0cf3b,73860df8-5258-11ea-aa80-e7b3e17a0aa1
7361c38a-5258-11ea-9c8d-034315f145eb,7386252c-5258-11ea-bed4-c72dfed028df
736bccd6-5258-11ea-8cdb-e7ff63d281b8,73863a1c-5258-11ea-b1f6-f30b46105d0d
7370738a-5258-11ea-a854-4fc98100f37e,73864f52-5258-11ea-ad59-a7d1c5e3cc8d
7353a78c-5258-11ea-a73e-23d5782ad04b,7386650a-5258-11ea-8eea-43c089cf8536
736e1bb2-5258-11ea-a694-17667c7e8e18,73867b30-5258-11ea-bfb0-a7101662389f
73788a3e-5258-11ea-8e26-db1cc442d6aa,7386905c-5258-11ea-818a-c7666457abcd
7349cc8a-5258-11ea-96e7-9759992143dc,7386a4ac-5258-11ea-9df3-13d4ae220e85
733e79d4-5258-11ea-a62d-878ba6d1b24d,7386b96a-5258-11ea-b7ae-93d16a1d6bc2
73615080-5258-11ea-9b63-efae9333b84f,7386cd1a-5258-11ea-bac0-f76a096b811e
7359efe8-5258-11ea-9b72-37d7f57460f5,7386df80-5258-11ea-a8c6-d73ad9926c52
7363f600-5258-11ea-a67d-13932478b486,7386f54c-5258-11ea-a421-57fb7e186c72
737d85b6-5258-11ea-9d22-03ddd3eea94f,73870ece-5258-11ea-b0b7-4f1ebdc318e0
735111d4-5258-11ea-b487-3773433090b3,738722ce-5258-11ea-88b4-6f341f8a05ac
733c7440-5258-11ea-ae29-53f680d35c30,7387369c-5258-11ea-ac35-2bdce8274009
736910cc-5258-11ea-9c53-f72717c66f89,73875050-5258-11ea-871d-33193afa4b82
73748808-5258-11ea-b266-2b3839eda5e6,738760f4-5258-11ea-8722-5700f0be7d95
73770524-5258-11ea-a9b5-d75c7551d2f8,7387731e-5258-11ea-a844-5b3672f58648
734ffd4e-5258-11ea-9000-27619b3333eb,738784b2-5258-11ea-8536-c73830937cb9
7344fcd2-5258-11ea-aaa1-3fb3137b8c64,738798da-5258-11ea-9ce7-77678ade0b0a
73696b6c-5258-11ea-bb7c-af746736a6e6,7387ad84-5258-11ea-9d07-0bce77060a35
735917d0-5258-11ea-aa7f-43332b31ea0e,7387c1a2-5258-11ea-911a-f30621fae83c
734a5bb4-5258-11ea-9af5-2f5cb1510783,7387d64c-5258-11ea-8f85-63578da4bca9
737d0226-5258-11ea-a986-afddc527c985,7387eace-5258-11ea-99f6-2b9503de1d73
73609e88-5258-11ea-9806-eb87ebdec09b,7388014e-5258-11ea-b8d3-7b0252cec3e7
7349337e-5258-11ea-b553-07ffac7a1733,7388145e-5258-11ea-abc6-03b326f4194f
737db306-5258-11ea-b2fb-4fc0986724fa,73882ec6-5258-11ea-b504-4b7c44ccfdd0
73603efc-5258-11ea-805f-6f1b9a8b78a0,738842bc-5258-11ea-a78a-6392ca9ee4c3
7345a614-5258-11ea-b8ac-9fa4cba2ad81,73885572-5258-11ea-8135-cf1442294232
7381458e-5258-11ea-987f-9762ad76ae65,73887ba6-5258-11ea-8b44-fbae61c43c1d
734b02a8-5258-11ea-9855-5393b78ef617,73888ed4-5258-11ea-93e8-7f40401a9f85
735111d4-5258-11ea-b487-3773433090b3,7388a2c0-5258-11ea-abc9-2719d66ed4e7
7349bc72-5258-11ea-a887-e38995b1aabe,7388b454-5258-11ea-863f-33d3659354ae
737bce1a-5258-11ea-8eda-c3ee31460f5e,7388c7be-5258-11ea-aec2-7fac8d0ed3bd
7362e076-5258-11ea-9e1b-43a698090721,7388dcf4-5258-11ea-8bc2-37d6b5c1e597
734e7fbe-5258-11ea-a4f7-ff527686d40c,7388ed70-5258-11ea-81b2-4b08d4301540
734c3920-5258-11ea-9c05-d7f1b2a5ff3c,738907ce-5258-11ea-86d3-3b899ae09971
7371adb8-5258-11ea-a7bc-7f7c2746b177,738925e2-5258-11ea-94d0-bf8e678691b8
737d6f40-5258-11ea-adc2-7ff890007fa2,73893cb2-5258-11ea-991c-0f9582a8ac0a
735868bc-5258-11ea-94fe-0f6b51f770b4,73895346-5258-11ea-8e23-ef476074e36b
7385cabe-5258-11ea-be62-470560269e08,73896890-5258-11ea-80a8-b37d5193c0f8
73608b28-5258-11ea-8b0f-677b79ff6ec7,7389815e-5258-11ea-9106-b7a436463754
7342705c-5258-11ea-95f1-734a91d1edda,73899856-5258-11ea-aa4d-9f7394464ac9
7367c014-5258-11ea-8335-ab81cb570f2a,7389c998-5258-11ea-8dd5-b789e2121dbe
737c5d30-5258-11ea-af39-cfcafbe560f8,7389aed6-5258-11ea-b668-c32020912ce8
7366bf84-5258-11ea-9e96-1b3066779d2e,7389edce-5258-11ea-af63-7fa4766467f3
7358a854-5258-11ea-9ef8-5fdba6a008d1,738a03c2-5258-11ea-987d-8b2af34d64ed
7377cf36-5258-11ea-8d71-cb2692927063,738a1ef2-5258-11ea-b7f7-b3a605568548
73626b8c-5258-11ea-82a8-07d9e6f877f2,738a3734-5258-11ea-bd5b-4b5185600738
735c6322-5258-11ea-8ab0-2fd058f4cf6a,738a4cce-5258-11ea-879f-072b11b39c5f
736a6a9e-5258-11ea-b30d-43b463c3c720,738a6498-5258-11ea-8b1b-93e8eca6055d
7373882c-5258-11ea-a2da-7b7565d80abe,738a7c3a-5258-11ea-aac5-479fc77ab608
7372b06e-5258-11ea-aea5-4fc14bffda93,738a931e-5258-11ea-887d-332c6733cd84
73577ec0-5258-11ea-9c1a-77c47307103c,738aa9bc-5258-11ea-8166-03ff977020f3
7344bc9a-5258-11ea-8346-db770582ae5b,738abaec-5258-11ea-afde-43699a442201
735e84d6-5258-11ea-8ebc-db79eba5bacd,738ad090-5258-11ea-b40d-37c7e9574891
7374d1c8-5258-11ea-aee4-dfbbd489f56d,738ae77e-5258-11ea-9325-1f4464fa35d7
7386f54c-5258-11ea-a421-57fb7e186c72,738affe8-5258-11ea-b59c-7b4c25eec806
7348201a-5258-11ea-ba77-b7fc130dad73,738b1316-5258-11ea-afab-5719d0c4cb20
7363cdce-5258-11ea-be03-4b58989937fc,738b47b4-5258-11ea-875c-132b65f73794
7355ea10-5258-11ea-a646-afb58f401ce9,738b47be-5258-11ea-a364-17eb0f32b4c6
7354f434-5258-11ea-82f4-d34453cae9df,738b6898-5258-11ea-854c-cffe7ddb189b
7384a846-5258-11ea-9454-832e2516f03d,738b7d7e-5258-11ea-a9c2-dff0694d98ff
7385f4d0-5258-11ea-b1b6-335d73deaf10,738b930e-5258-11ea-8648-d3c90e4b6e52
735beed8-5258-11ea-b35c-976d3948e116,738ba9fc-5258-11ea-bb8e-bb6a78229f1f
7361e658-5258-11ea-9d58-23a73514767f,738bbc8a-5258-11ea-8786-679ac02b6268
7371c37a-5258-11ea-95be-0758a86d3f8c,738bd526-5258-11ea-a684-17e5907dd424
73774142-5258-11ea-9501-8f090d1bb97e,738bf056-5258-11ea-88b6-27545edfb1a1
734c3920-5258-11ea-9c05-d7f1b2a5ff3c,738c0032-5258-11ea-8ed7-83a1b2884e8c
7358933c-5258-11ea-b6c2-a700d0b8ec23,738c15fe-5258-11ea-b0d6-4340e96804c3
