RunID,Tick,ActiveAgentsPerTick
run-2020-2-17-18-28-14.549896955,0,11
run-2020-2-17-18-28-14.549896955,1,14
run-2020-2-17-18-28-14.549896955,2,14
run-2020-2-17-18-28-14.549896955,3,12
run-2020-2-17-18-28-14.549896955,4,13
run-2020-2-17-18-28-14.549896955,5,15
run-2020-2-17-18-28-14.549896955,6,13
run-2020-2-17-18-28-14.549896955,7,15
run-2020-2-17-18-28-14.549896955,8,20
run-2020-2-17-18-28-14.549896955,9,22
run-2020-2-17-18-28-14.549896955,10,22
run-2020-2-17-18-28-14.549896955,11,27
run-2020-2-17-18-28-14.549896955,12,31
run-2020-2-17-18-28-14.549896955,13,28
run-2020-2-17-18-28-14.549896955,14,33
run-2020-2-17-18-28-14.549896955,15,33
run-2020-2-17-18-28-14.549896955,16,31
run-2020-2-17-18-28-14.549896955,17,31
run-2020-2-17-18-28-14.549896955,18,32
run-2020-2-17-18-28-14.549896955,19,32
run-2020-2-17-18-28-14.549896955,20,31
run-2020-2-17-18-28-14.549896955,21,33
run-2020-2-17-18-28-14.549896955,22,37
run-2020-2-17-18-28-14.549896955,23,42
run-2020-2-17-18-28-14.549896955,24,40
run-2020-2-17-18-28-14.549896955,25,40
run-2020-2-17-18-28-14.549896955,26,42
run-2020-2-17-18-28-14.549896955,27,41
run-2020-2-17-18-28-14.549896955,28,39
run-2020-2-17-18-28-14.549896955,29,40
run-2020-2-17-18-28-14.549896955,30,43
run-2020-2-17-18-28-14.549896955,31,45
run-2020-2-17-18-28-14.549896955,32,46
run-2020-2-17-18-28-14.549896955,33,48
run-2020-2-17-18-28-14.549896955,34,47
run-2020-2-17-18-28-14.549896955,35,48
run-2020-2-17-18-28-14.549896955,36,48
run-2020-2-17-18-28-14.549896955,37,48
run-2020-2-17-18-28-14.549896955,38,52
run-2020-2-17-18-28-14.549896955,39,52
run-2020-2-17-18-28-14.549896955,40,51
run-2020-2-17-18-28-14.549896955,41,52
run-2020-2-17-18-28-14.549896955,42,55
run-2020-2-17-18-28-14.549896955,43,59
run-2020-2-17-18-28-14.549896955,44,63
run-2020-2-17-18-28-14.549896955,45,64
run-2020-2-17-18-28-14.549896955,46,66
run-2020-2-17-18-28-14.549896955,47,67
run-2020-2-17-18-28-14.549896955,48,70
run-2020-2-17-18-28-14.549896955,49,69
run-2020-2-17-18-28-14.549896955,50,68
run-2020-2-17-18-28-14.549896955,51,70
run-2020-2-17-18-28-14.549896955,52,67
run-2020-2-17-18-28-14.549896955,53,63
run-2020-2-17-18-28-14.549896955,54,64
run-2020-2-17-18-28-14.549896955,55,59
run-2020-2-17-18-28-14.549896955,56,57
run-2020-2-17-18-28-14.549896955,57,57
run-2020-2-17-18-28-14.549896955,58,54
run-2020-2-17-18-28-14.549896955,59,57
run-2020-2-17-18-28-14.549896955,60,61
run-2020-2-17-18-28-14.549896955,61,59
run-2020-2-17-18-28-14.549896955,62,60
run-2020-2-17-18-28-14.549896955,63,61
run-2020-2-17-18-28-14.549896955,64,58
run-2020-2-17-18-28-14.549896955,65,55
run-2020-2-17-18-28-14.549896955,66,59
run-2020-2-17-18-28-14.549896955,67,59
run-2020-2-17-18-28-14.549896955,68,58
run-2020-2-17-18-28-14.549896955,69,55
run-2020-2-17-18-28-14.549896955,70,55
run-2020-2-17-18-28-14.549896955,71,58
run-2020-2-17-18-28-14.549896955,72,61
run-2020-2-17-18-28-14.549896955,73,55
run-2020-2-17-18-28-14.549896955,74,55
run-2020-2-17-18-28-14.549896955,75,56
run-2020-2-17-18-28-14.549896955,76,59
run-2020-2-17-18-28-14.549896955,77,59
run-2020-2-17-18-28-14.549896955,78,58
run-2020-2-17-18-28-14.549896955,79,59
run-2020-2-17-18-28-14.549896955,80,64
run-2020-2-17-18-28-14.549896955,81,59
run-2020-2-17-18-28-14.549896955,82,59
run-2020-2-17-18-28-14.549896955,83,60
run-2020-2-17-18-28-14.549896955,84,66
run-2020-2-17-18-28-14.549896955,85,69
run-2020-2-17-18-28-14.549896955,86,67
run-2020-2-17-18-28-14.549896955,87,67
run-2020-2-17-18-28-14.549896955,88,66
run-2020-2-17-18-28-14.549896955,89,67
run-2020-2-17-18-28-14.549896955,90,64
run-2020-2-17-18-28-14.549896955,91,65
run-2020-2-17-18-28-14.549896955,92,62
run-2020-2-17-18-28-14.549896955,93,63
run-2020-2-17-18-28-14.549896955,94,65
run-2020-2-17-18-28-14.549896955,95,59
run-2020-2-17-18-28-14.549896955,96,57
run-2020-2-17-18-28-14.549896955,97,57
run-2020-2-17-18-28-14.549896955,98,58
run-2020-2-17-18-28-14.549896955,99,58
run-2020-2-17-18-28-14.549896955,100,54
