RunID,Tick,AllAgents,Active,Inactive
run-2020-2-28-10-32-0.891725063,0,16,12,4
run-2020-2-28-10-32-0.891725063,1,17,9,8
run-2020-2-28-10-32-0.891725063,2,18,10,8
run-2020-2-28-10-32-0.891725063,3,21,11,10
run-2020-2-28-10-32-0.891725063,4,27,15,12
run-2020-2-28-10-32-0.891725063,5,31,18,13
run-2020-2-28-10-32-0.891725063,6,36,20,16
run-2020-2-28-10-32-0.891725063,7,38,17,21
run-2020-2-28-10-32-0.891725063,8,42,18,24
run-2020-2-28-10-32-0.891725063,9,44,17,27
run-2020-2-28-10-32-0.891725063,10,48,19,29
run-2020-2-28-10-32-0.891725063,11,50,20,30
run-2020-2-28-10-32-0.891725063,12,56,22,34
run-2020-2-28-10-32-0.891725063,13,64,27,37
run-2020-2-28-10-32-0.891725063,14,64,22,42
run-2020-2-28-10-32-0.891725063,15,68,24,44
run-2020-2-28-10-32-0.891725063,16,72,26,46
run-2020-2-28-10-32-0.891725063,17,74,27,47
run-2020-2-28-10-32-0.891725063,18,75,27,48
run-2020-2-28-10-32-0.891725063,19,79,28,51
run-2020-2-28-10-32-0.891725063,20,85,31,54
run-2020-2-28-10-32-0.891725063,21,87,31,56
run-2020-2-28-10-32-0.891725063,22,89,29,60
run-2020-2-28-10-32-0.891725063,23,92,30,62
run-2020-2-28-10-32-0.891725063,24,96,32,64
run-2020-2-28-10-32-0.891725063,25,98,32,66
run-2020-2-28-10-32-0.891725063,26,99,30,69
run-2020-2-28-10-32-0.891725063,27,101,28,73
run-2020-2-28-10-32-0.891725063,28,103,28,75
run-2020-2-28-10-32-0.891725063,29,106,30,76
run-2020-2-28-10-32-0.891725063,30,107,29,78
run-2020-2-28-10-32-0.891725063,31,110,29,81
run-2020-2-28-10-32-0.891725063,32,115,33,82
run-2020-2-28-10-32-0.891725063,33,119,36,83
run-2020-2-28-10-32-0.891725063,34,127,41,86
run-2020-2-28-10-32-0.891725063,35,132,42,90
run-2020-2-28-10-32-0.891725063,36,136,42,94
run-2020-2-28-10-32-0.891725063,37,140,45,95
run-2020-2-28-10-32-0.891725063,38,144,46,98
run-2020-2-28-10-32-0.891725063,39,147,46,101
run-2020-2-28-10-32-0.891725063,40,151,47,104
run-2020-2-28-10-32-0.891725063,41,157,52,105
run-2020-2-28-10-32-0.891725063,42,163,54,109
run-2020-2-28-10-32-0.891725063,43,164,52,112
run-2020-2-28-10-32-0.891725063,44,169,55,114
run-2020-2-28-10-32-0.891725063,45,175,57,118
run-2020-2-28-10-32-0.891725063,46,179,55,124
run-2020-2-28-10-32-0.891725063,47,185,56,129
run-2020-2-28-10-32-0.891725063,48,192,60,132
run-2020-2-28-10-32-0.891725063,49,197,62,135
run-2020-2-28-10-32-0.891725063,50,201,62,139
run-2020-2-28-10-32-0.891725063,51,206,63,143
run-2020-2-28-10-32-0.891725063,52,209,58,151
run-2020-2-28-10-32-0.891725063,53,212,59,153
run-2020-2-28-10-32-0.891725063,54,218,60,158
run-2020-2-28-10-32-0.891725063,55,222,58,164
run-2020-2-28-10-32-0.891725063,56,226,59,167
run-2020-2-28-10-32-0.891725063,57,228,58,170
run-2020-2-28-10-32-0.891725063,58,235,60,175
run-2020-2-28-10-32-0.891725063,59,239,61,178
run-2020-2-28-10-32-0.891725063,60,244,60,184
run-2020-2-28-10-32-0.891725063,61,247,57,190
run-2020-2-28-10-32-0.891725063,62,251,59,192
run-2020-2-28-10-32-0.891725063,63,256,60,196
run-2020-2-28-10-32-0.891725063,64,260,59,201
run-2020-2-28-10-32-0.891725063,65,261,57,204
run-2020-2-28-10-32-0.891725063,66,262,54,208
run-2020-2-28-10-32-0.891725063,67,265,54,211
run-2020-2-28-10-32-0.891725063,68,269,57,212
run-2020-2-28-10-32-0.891725063,69,275,61,214
run-2020-2-28-10-32-0.891725063,70,277,60,217
run-2020-2-28-10-32-0.891725063,71,282,62,220
run-2020-2-28-10-32-0.891725063,72,290,65,225
run-2020-2-28-10-32-0.891725063,73,295,66,229
run-2020-2-28-10-32-0.891725063,74,301,69,232
run-2020-2-28-10-32-0.891725063,75,304,69,235
run-2020-2-28-10-32-0.891725063,76,308,66,242
run-2020-2-28-10-32-0.891725063,77,312,68,244
run-2020-2-28-10-32-0.891725063,78,318,73,245
run-2020-2-28-10-32-0.891725063,79,322,70,252
run-2020-2-28-10-32-0.891725063,80,327,66,261
run-2020-2-28-10-32-0.891725063,81,333,70,263
run-2020-2-28-10-32-0.891725063,82,335,66,269
run-2020-2-28-10-32-0.891725063,83,342,67,275
run-2020-2-28-10-32-0.891725063,84,345,68,277
run-2020-2-28-10-32-0.891725063,85,351,65,286
run-2020-2-28-10-32-0.891725063,86,357,68,289
run-2020-2-28-10-32-0.891725063,87,360,69,291
run-2020-2-28-10-32-0.891725063,88,360,63,297
run-2020-2-28-10-32-0.891725063,89,363,62,301
run-2020-2-28-10-32-0.891725063,90,365,57,308
run-2020-2-28-10-32-0.891725063,91,367,53,314
run-2020-2-28-10-32-0.891725063,92,374,59,315
run-2020-2-28-10-32-0.891725063,93,379,60,319
run-2020-2-28-10-32-0.891725063,94,381,57,324
run-2020-2-28-10-32-0.891725063,95,384,58,326
run-2020-2-28-10-32-0.891725063,96,390,61,329
run-2020-2-28-10-32-0.891725063,97,393,61,332
run-2020-2-28-10-32-0.891725063,98,398,62,336
run-2020-2-28-10-32-0.891725063,99,406,66,340
