RunID,Tick,ActiveAgentsPerTick
run-2020-2-18-11-27-48.550393104,0,14
run-2020-2-18-11-27-48.550393104,1,17
run-2020-2-18-11-27-48.550393104,2,14
run-2020-2-18-11-27-48.550393104,3,17
run-2020-2-18-11-27-48.550393104,4,15
run-2020-2-18-11-27-48.550393104,5,14
run-2020-2-18-11-27-48.550393104,6,14
run-2020-2-18-11-27-48.550393104,7,19
run-2020-2-18-11-27-48.550393104,8,19
run-2020-2-18-11-27-48.550393104,9,24
run-2020-2-18-11-27-48.550393104,10,28
run-2020-2-18-11-27-48.550393104,11,28
run-2020-2-18-11-27-48.550393104,12,26
run-2020-2-18-11-27-48.550393104,13,32
run-2020-2-18-11-27-48.550393104,14,33
run-2020-2-18-11-27-48.550393104,15,32
run-2020-2-18-11-27-48.550393104,16,33
run-2020-2-18-11-27-48.550393104,17,33
run-2020-2-18-11-27-48.550393104,18,35
run-2020-2-18-11-27-48.550393104,19,37
run-2020-2-18-11-27-48.550393104,20,42
run-2020-2-18-11-27-48.550393104,21,43
run-2020-2-18-11-27-48.550393104,22,46
run-2020-2-18-11-27-48.550393104,23,48
run-2020-2-18-11-27-48.550393104,24,48
run-2020-2-18-11-27-48.550393104,25,52
run-2020-2-18-11-27-48.550393104,26,51
run-2020-2-18-11-27-48.550393104,27,51
run-2020-2-18-11-27-48.550393104,28,55
run-2020-2-18-11-27-48.550393104,29,54
run-2020-2-18-11-27-48.550393104,30,55
run-2020-2-18-11-27-48.550393104,31,50
run-2020-2-18-11-27-48.550393104,32,52
run-2020-2-18-11-27-48.550393104,33,53
run-2020-2-18-11-27-48.550393104,34,52
run-2020-2-18-11-27-48.550393104,35,52
run-2020-2-18-11-27-48.550393104,36,58
run-2020-2-18-11-27-48.550393104,37,57
run-2020-2-18-11-27-48.550393104,38,61
run-2020-2-18-11-27-48.550393104,39,61
run-2020-2-18-11-27-48.550393104,40,65
run-2020-2-18-11-27-48.550393104,41,64
run-2020-2-18-11-27-48.550393104,42,66
run-2020-2-18-11-27-48.550393104,43,63
run-2020-2-18-11-27-48.550393104,44,65
run-2020-2-18-11-27-48.550393104,45,65
run-2020-2-18-11-27-48.550393104,46,71
run-2020-2-18-11-27-48.550393104,47,76
run-2020-2-18-11-27-48.550393104,48,76
run-2020-2-18-11-27-48.550393104,49,75
run-2020-2-18-11-27-48.550393104,50,72
run-2020-2-18-11-27-48.550393104,51,76
run-2020-2-18-11-27-48.550393104,52,76
run-2020-2-18-11-27-48.550393104,53,77
run-2020-2-18-11-27-48.550393104,54,76
run-2020-2-18-11-27-48.550393104,55,70
run-2020-2-18-11-27-48.550393104,56,73
run-2020-2-18-11-27-48.550393104,57,72
run-2020-2-18-11-27-48.550393104,58,75
run-2020-2-18-11-27-48.550393104,59,73
run-2020-2-18-11-27-48.550393104,60,70
run-2020-2-18-11-27-48.550393104,61,72
run-2020-2-18-11-27-48.550393104,62,69
run-2020-2-18-11-27-48.550393104,63,67
run-2020-2-18-11-27-48.550393104,64,65
run-2020-2-18-11-27-48.550393104,65,64
run-2020-2-18-11-27-48.550393104,66,62
run-2020-2-18-11-27-48.550393104,67,61
run-2020-2-18-11-27-48.550393104,68,59
run-2020-2-18-11-27-48.550393104,69,61
run-2020-2-18-11-27-48.550393104,70,64
run-2020-2-18-11-27-48.550393104,71,63
run-2020-2-18-11-27-48.550393104,72,62
run-2020-2-18-11-27-48.550393104,73,62
run-2020-2-18-11-27-48.550393104,74,65
run-2020-2-18-11-27-48.550393104,75,68
run-2020-2-18-11-27-48.550393104,76,71
run-2020-2-18-11-27-48.550393104,77,71
run-2020-2-18-11-27-48.550393104,78,69
run-2020-2-18-11-27-48.550393104,79,68
run-2020-2-18-11-27-48.550393104,80,69
run-2020-2-18-11-27-48.550393104,81,66
run-2020-2-18-11-27-48.550393104,82,61
run-2020-2-18-11-27-48.550393104,83,58
run-2020-2-18-11-27-48.550393104,84,60
run-2020-2-18-11-27-48.550393104,85,57
run-2020-2-18-11-27-48.550393104,86,61
run-2020-2-18-11-27-48.550393104,87,59
run-2020-2-18-11-27-48.550393104,88,57
run-2020-2-18-11-27-48.550393104,89,60
run-2020-2-18-11-27-48.550393104,90,59
run-2020-2-18-11-27-48.550393104,91,58
run-2020-2-18-11-27-48.550393104,92,57
run-2020-2-18-11-27-48.550393104,93,60
run-2020-2-18-11-27-48.550393104,94,58
run-2020-2-18-11-27-48.550393104,95,55
run-2020-2-18-11-27-48.550393104,96,57
run-2020-2-18-11-27-48.550393104,97,58
run-2020-2-18-11-27-48.550393104,98,60
run-2020-2-18-11-27-48.550393104,99,63
run-2020-2-18-11-27-48.550393104,100,60
