RunID,Agent,Age,Created,Inactive,Resources,Reputation,Ability,Que
run-2020-2-18-13-54-53.18425703,AGENT#3d99c574-5256-11ea-bb8f-136a47332e44,1,0,1,10,1.0,1.0,0
run-2020-2-18-13-54-53.18425703,AGENT#3d99cb1e-5256-11ea-a188-13e976f07848,1,0,1,10,1.0,1.0,0
run-2020-2-18-13-54-53.18425703,AGENT#3d99d62c-5256-11ea-b92d-bff32ffc79da,1,0,1,10,1.0,1.0,0
run-2020-2-18-13-54-53.18425703,AGENT#3d9a16a0-5256-11ea-b9d8-7b5fea53922f,1,0,1,10,1.0,1.0,0
run-2020-2-18-13-54-53.18425703,AGENT#3d99c27c-5256-11ea-8711-8fc22a3666fd,2,0,2,10,1.0,1.0,0
run-2020-2-18-13-54-53.18425703,AGENT#3d99d37a-5256-11ea-8107-2f16c23e4960,2,0,2,10,1.0,1.0,0
run-2020-2-18-13-54-53.18425703,AGENT#3d9f6290-5256-11ea-bfb1-8f5e341669f3,1,1,2,10,1.0,1.0,0
run-2020-2-18-13-54-53.18425703,AGENT#3d99c84e-5256-11ea-81c7-cb81c2065b1e,4,0,4,10,1.0,1.0,0
run-2020-2-18-13-54-53.18425703,AGENT#3d99cdf8-5256-11ea-a109-cb655ad5888e,4,0,4,10,1.0,1.0,0
run-2020-2-18-13-54-53.18425703,AGENT#3d9f5caa-5256-11ea-944a-9f7b16d30ed6,3,1,4,10,1.0,1.0,0
run-2020-2-18-13-54-53.18425703,AGENT#3d9fda0e-5256-11ea-bdf1-7775d9abe553,2,2,4,10,1.0,1.0,0
run-2020-2-18-13-54-53.18425703,AGENT#3d99d8fc-5256-11ea-a5f7-6f9dcc94e387,5,0,5,10,1.0,1.0,0
run-2020-2-18-13-54-53.18425703,AGENT#3d9a1998-5256-11ea-8141-d7505a7eb63b,5,0,5,10,1.0,1.0,0
run-2020-2-18-13-54-53.18425703,AGENT#3d9a2550-5256-11ea-a6f7-97bc5ebdbe8e,5,0,5,10,1.0,1.0,0
run-2020-2-18-13-54-53.18425703,AGENT#3d9f6af6-5256-11ea-82b0-afc0cdc76739,4,1,5,10,1.0,1.0,0
run-2020-2-18-13-54-53.18425703,AGENT#3da0129e-5256-11ea-a4c2-df6dd2b2deeb,2,3,5,10,1.0,1.0,0
run-2020-2-18-13-54-53.18425703,AGENT#3da05ef2-5256-11ea-a233-77866d5bfd41,1,4,5,10,1.0,1.0,0
run-2020-2-18-13-54-53.18425703,AGENT#3d9fd6c6-5256-11ea-8472-1b0d7886d018,4,2,6,10,1.0,1.0,0
run-2020-2-18-13-54-53.18425703,AGENT#3da05bdc-5256-11ea-888d-9f03e6444766,2,4,6,10,1.0,1.0,0
run-2020-2-18-13-54-53.18425703,AGENT#3da061ea-5256-11ea-a8d8-9fe0cad56f62,2,4,6,10,1.0,1.0,0
run-2020-2-18-13-54-53.18425703,AGENT#3da064d8-5256-11ea-9c02-270f590ca45f,2,4,6,10,1.0,1.0,0
run-2020-2-18-13-54-53.18425703,AGENT#3da0a682-5256-11ea-bdb6-cffa155569c2,1,5,6,10,1.0,1.0,0
run-2020-2-18-13-54-53.18425703,AGENT#3da009e8-5256-11ea-9f95-e732f68a1ff7,4,3,7,10,1.0,1.0,0
run-2020-2-18-13-54-53.18425703,AGENT#3da00cea-5256-11ea-ac4c-b7a4b957ede8,4,3,7,10,1.0,1.0,0
run-2020-2-18-13-54-53.18425703,AGENT#3da01820-5256-11ea-85c4-031051c0dee9,4,3,7,10,1.0,1.0,0
run-2020-2-18-13-54-53.18425703,AGENT#3da0a966-5256-11ea-a8b7-5f700722a7d2,2,5,7,10,1.0,1.0,0
run-2020-2-18-13-54-53.18425703,AGENT#3da0dd46-5256-11ea-ab24-7f6714ea1f27,1,6,7,10,1.0,1.0,0
run-2020-2-18-13-54-53.18425703,AGENT#3da0e048-5256-11ea-afa1-b731657441b0,1,6,7,10,1.0,1.0,0
run-2020-2-18-13-54-53.18425703,AGENT#3da00fba-5256-11ea-81b2-8757ff8f2cfc,5,3,8,10,1.0,1.0,0
run-2020-2-18-13-54-53.18425703,AGENT#3da12e04-5256-11ea-80b3-cb3ec04cdfc4,1,7,8,10,1.0,1.0,0
run-2020-2-18-13-54-53.18425703,AGENT#3d9f5fac-5256-11ea-a01d-e71af2f701b1,8,1,9,10,1.0,1.0,0
run-2020-2-18-13-54-53.18425703,AGENT#3da0eb4c-5256-11ea-9e12-3f540f9d54b8,3,6,9,10,1.0,1.0,0
run-2020-2-18-13-54-53.18425703,AGENT#3da12aee-5256-11ea-a3f7-2b0a1fe872ed,2,7,9,10,1.0,1.0,0
run-2020-2-18-13-54-53.18425703,AGENT#3da130e8-5256-11ea-820a-db47f39f4410,3,7,10,10,1.0,1.0,0
run-2020-2-18-13-54-53.18425703,AGENT#3da0e30e-5256-11ea-9915-d7760a92610b,5,6,11,10,1.0,1.0,0
run-2020-2-18-13-54-53.18425703,AGENT#3da0e5d4-5256-11ea-8105-cfb998936c88,5,6,11,10,1.0,1.0,0
run-2020-2-18-13-54-53.18425703,AGENT#3da0e886-5256-11ea-9bf6-7bb76986ae24,5,6,11,10,1.0,1.0,0
run-2020-2-18-13-54-53.18425703,AGENT#3da1366a-5256-11ea-9ad0-6f88e9f368c3,4,7,11,10,1.0,1.0,0
run-2020-2-18-13-54-53.18425703,AGENT#3da178e6-5256-11ea-bf56-b328f72c5395,3,8,11,10,1.0,1.0,0
run-2020-2-18-13-54-53.18425703,AGENT#3da1b810-5256-11ea-a64a-33648cb53beb,2,9,11,10,1.0,1.0,0
run-2020-2-18-13-54-53.18425703,AGENT#3da1339a-5256-11ea-81ec-27b9176bb8fc,5,7,12,10,1.0,1.0,0
run-2020-2-18-13-54-53.18425703,AGENT#3da17058-5256-11ea-9ebe-cb0ad33b4dc2,4,8,12,10,1.0,1.0,0
run-2020-2-18-13-54-53.18425703,AGENT#3da17620-5256-11ea-a08d-13bd8a69d832,4,8,12,10,1.0,1.0,0
run-2020-2-18-13-54-53.18425703,AGENT#3da246cc-5256-11ea-ac2a-477c5dae10ee,1,11,12,10,1.0,1.0,0
run-2020-2-18-13-54-53.18425703,AGENT#3d9f681c-5256-11ea-ad27-0b68fd198880,13,1,14,10,1.0,1.0,0
run-2020-2-18-13-54-53.18425703,AGENT#3da01cb2-5256-11ea-9a1a-0fe5e5214150,11,3,14,10,1.0,1.0,0
run-2020-2-18-13-54-53.18425703,AGENT#3da1f730-5256-11ea-bc29-ffc24fec3df3,4,10,14,10,1.0,1.0,0
run-2020-2-18-13-54-53.18425703,AGENT#3da28f2e-5256-11ea-865a-ef471f69de44,2,12,14,10,1.0,1.0,0
run-2020-2-18-13-54-53.18425703,AGENT#3da2390c-5256-11ea-9aa9-3fdaa1a79623,4,11,15,10,1.0,1.0,0
run-2020-2-18-13-54-53.18425703,AGENT#3da3288a-5256-11ea-af9c-a3f6efe5ea6e,1,14,15,10,1.0,1.0,0
run-2020-2-18-13-54-53.18425703,AGENT#3da2950a-5256-11ea-a36f-47ed60ab2b03,4,12,16,10,1.0,1.0,0
run-2020-2-18-13-54-53.18425703,AGENT#3da3722c-5256-11ea-a902-a7fa9049d095,1,15,16,10,1.0,1.0,0
run-2020-2-18-13-54-53.18425703,AGENT#3da37c2c-5256-11ea-b977-d7d63270adf0,1,15,16,10,1.0,1.0,0
run-2020-2-18-13-54-53.18425703,AGENT#3da29230-5256-11ea-9268-0b15e6ce3806,5,12,17,10,1.0,1.0,0
run-2020-2-18-13-54-53.18425703,AGENT#3da32592-5256-11ea-bbf1-eb1ea0147483,3,14,17,10,1.0,1.0,0
run-2020-2-18-13-54-53.18425703,AGENT#3da3765a-5256-11ea-9a1e-a7e366d7b498,2,15,17,10,1.0,1.0,0
run-2020-2-18-13-54-53.18425703,AGENT#3da3d488-5256-11ea-bc46-5fe86275f282,1,16,17,10,1.0,1.0,0
run-2020-2-18-13-54-53.18425703,AGENT#3da1736e-5256-11ea-a4dc-7f862930d492,11,8,19,10,1.0,1.0,0
run-2020-2-18-13-54-53.18425703,AGENT#3da32b46-5256-11ea-abfe-f742c2996c31,5,14,19,10,1.0,1.0,0
run-2020-2-18-13-54-53.18425703,AGENT#3da3795c-5256-11ea-bd32-e7231a193d0b,4,15,19,10,1.0,1.0,0
run-2020-2-18-13-54-53.18425703,AGENT#3da38190-5256-11ea-a778-d799aa4ca4be,4,15,19,10,1.0,1.0,0
run-2020-2-18-13-54-53.18425703,AGENT#3da48176-5256-11ea-8639-db0729616c55,1,18,19,10,1.0,1.0,0
run-2020-2-18-13-54-53.18425703,AGENT#3da2496a-5256-11ea-b8b6-ef48ca88a845,9,11,20,10,1.0,1.0,0
run-2020-2-18-13-54-53.18425703,AGENT#3da4201e-5256-11ea-a5b5-23a3ce0f2903,3,17,20,10,1.0,1.0,0
run-2020-2-18-13-54-53.18425703,AGENT#3da42302-5256-11ea-9381-73c34123d3f0,3,17,20,10,1.0,1.0,0
run-2020-2-18-13-54-53.18425703,AGENT#3da476ae-5256-11ea-ac1b-57cc61b79f92,2,18,20,10,1.0,1.0,0
run-2020-2-18-13-54-53.18425703,AGENT#3da4dcd4-5256-11ea-865f-a30d616ec883,1,19,20,10,1.0,1.0,0
run-2020-2-18-13-54-53.18425703,AGENT#3da3ceca-5256-11ea-aa0a-47db493dc055,5,16,21,10,1.0,1.0,0
run-2020-2-18-13-54-53.18425703,AGENT#3da473a2-5256-11ea-b4f1-73cdc5445294,4,18,22,10,1.0,1.0,0
run-2020-2-18-13-54-53.18425703,AGENT#3da4796a-5256-11ea-a921-1fff463ffd98,4,18,22,10,1.0,1.0,0
run-2020-2-18-13-54-53.18425703,AGENT#3da47ee2-5256-11ea-9809-13aa78103be5,4,18,22,10,1.0,1.0,0
run-2020-2-18-13-54-53.18425703,AGENT#3da4d1ee-5256-11ea-991d-833177e70319,3,19,22,10,1.0,1.0,0
run-2020-2-18-13-54-53.18425703,AGENT#3da4d4be-5256-11ea-9193-ab213b253c29,3,19,22,10,1.0,1.0,0
run-2020-2-18-13-54-53.18425703,AGENT#3da4da2c-5256-11ea-bb80-bbba13d69033,3,19,22,10,1.0,1.0,0
run-2020-2-18-13-54-53.18425703,AGENT#3da4d798-5256-11ea-8727-630444640b80,4,19,23,10,1.0,1.0,0
run-2020-2-18-13-54-53.18425703,AGENT#3da5e476-5256-11ea-b4f2-b319a9cb2083,1,22,23,10,1.0,1.0,0
run-2020-2-18-13-54-53.18425703,AGENT#3da5399a-5256-11ea-ace6-23b999fb25cd,4,20,24,10,1.0,1.0,0
run-2020-2-18-13-54-53.18425703,AGENT#3da53c60-5256-11ea-a13a-132047f650bf,4,20,24,10,1.0,1.0,0
run-2020-2-18-13-54-53.18425703,AGENT#3da64150-5256-11ea-8e4b-1b037ba18f7c,1,23,24,10,1.0,1.0,0
run-2020-2-18-13-54-53.18425703,AGENT#3d9a1c7c-5256-11ea-8a48-f3a467886a25,25,0,25,10,1.0,1.0,0
run-2020-2-18-13-54-53.18425703,AGENT#3da69880-5256-11ea-a347-57acc340bc14,1,24,25,10,1.0,1.0,0
run-2020-2-18-13-54-53.18425703,AGENT#3da5e17e-5256-11ea-8f3d-ef76da0c93ea,4,22,26,10,1.0,1.0,0
run-2020-2-18-13-54-53.18425703,AGENT#3da5e9c6-5256-11ea-8856-0bae45f55c87,5,22,27,10,1.0,1.0,0
run-2020-2-18-13-54-53.18425703,AGENT#3da63bce-5256-11ea-9be1-67a6b44640e7,4,23,27,10,1.0,1.0,0
run-2020-2-18-13-54-53.18425703,AGENT#3da6f03c-5256-11ea-9f10-47e91215e773,2,25,27,10,1.0,1.0,0
run-2020-2-18-13-54-53.18425703,AGENT#3da74be0-5256-11ea-8edc-8f876a244490,2,26,28,10,1.0,1.0,0
run-2020-2-18-13-54-53.18425703,AGENT#3da7a39c-5256-11ea-b8df-2f0bdba23d0a,1,27,28,10,1.0,1.0,0
run-2020-2-18-13-54-53.18425703,AGENT#3da6f5dc-5256-11ea-90b1-07f5cb617ffe,4,25,29,10,1.0,1.0,0
run-2020-2-18-13-54-53.18425703,AGENT#3da804ea-5256-11ea-810b-8f7754c6fdc8,2,28,30,10,1.0,1.0,0
run-2020-2-18-13-54-53.18425703,AGENT#3da7a66c-5256-11ea-ae2a-1351f78879f6,5,27,32,10,1.0,1.0,0
run-2020-2-18-13-54-53.18425703,AGENT#3da80238-5256-11ea-b737-bb8f5821a0ae,4,28,32,10,1.0,1.0,0
run-2020-2-18-13-54-53.18425703,AGENT#3da8b976-5256-11ea-bc55-afb6a777b6f2,2,30,32,10,1.0,1.0,0
run-2020-2-18-13-54-53.18425703,AGENT#3da8c0d8-5256-11ea-b5d8-8f5f626b6a01,2,30,32,10,1.0,1.0,0
run-2020-2-18-13-54-53.18425703,AGENT#3da8b188-5256-11ea-b48d-2f2774255a9e,3,30,33,10,1.0,1.0,0
run-2020-2-18-13-54-53.18425703,AGENT#3da8b480-5256-11ea-8569-47afdb33a854,3,30,33,10,1.0,1.0,0
run-2020-2-18-13-54-53.18425703,AGENT#3da8b70a-5256-11ea-8463-23609a19f656,3,30,33,10,1.0,1.0,0
run-2020-2-18-13-54-53.18425703,AGENT#3da979ce-5256-11ea-ab0e-4b7c7547481f,1,32,33,10,1.0,1.0,0
run-2020-2-18-13-54-53.18425703,AGENT#3da592aa-5256-11ea-8159-c33506e803ca,13,21,34,10,1.0,1.0,0
run-2020-2-18-13-54-53.18425703,AGENT#3da9f6b0-5256-11ea-80f3-e7b219805204,1,33,34,10,1.0,1.0,0
run-2020-2-18-13-54-53.18425703,AGENT#3daa02ae-5256-11ea-ae20-c31a447a9a8c,1,33,34,10,1.0,1.0,0
run-2020-2-18-13-54-53.18425703,AGENT#3da8bbe2-5256-11ea-8f17-57f540d7d351,5,30,35,10,1.0,1.0,0
run-2020-2-18-13-54-53.18425703,AGENT#3da8c33a-5256-11ea-bd4c-a362a3aa5e1e,5,30,35,10,1.0,1.0,0
run-2020-2-18-13-54-53.18425703,AGENT#3daa08a8-5256-11ea-a251-d7fb9327c1fb,2,33,35,10,1.0,1.0,0
run-2020-2-18-13-54-53.18425703,AGENT#3daa6e74-5256-11ea-82e8-27ed9ef1b7ba,1,34,35,10,1.0,1.0,0
run-2020-2-18-13-54-53.18425703,AGENT#3da9fdea-5256-11ea-b718-6bb0d2b540c3,3,33,36,10,1.0,1.0,0
run-2020-2-18-13-54-53.18425703,AGENT#3daa73b0-5256-11ea-834b-b371c9b36a13,2,34,36,10,1.0,1.0,0
run-2020-2-18-13-54-53.18425703,AGENT#3daaf470-5256-11ea-8ec6-77e2b723aa70,1,35,36,10,1.0,1.0,0
run-2020-2-18-13-54-53.18425703,AGENT#3daafbaa-5256-11ea-825a-27e0078b431c,1,35,36,10,1.0,1.0,0
run-2020-2-18-13-54-53.18425703,AGENT#3da3d1d6-5256-11ea-aedd-4360c6736c1c,21,16,37,10,1.0,1.0,0
run-2020-2-18-13-54-53.18425703,AGENT#3da6f320-5256-11ea-8ff8-3fb6ddd66006,12,25,37,10,1.0,1.0,0
run-2020-2-18-13-54-53.18425703,AGENT#3da9f372-5256-11ea-ad24-c38344dd686f,4,33,37,10,1.0,1.0,0
run-2020-2-18-13-54-53.18425703,AGENT#3da9f9f8-5256-11ea-b602-ef0b543ce9cb,4,33,37,10,1.0,1.0,0
run-2020-2-18-13-54-53.18425703,AGENT#3dab6810-5256-11ea-bfa8-cf46adb998d2,1,36,37,10,1.0,1.0,0
run-2020-2-18-13-54-53.18425703,AGENT#3dab6f54-5256-11ea-b142-b7f29684f9a8,2,36,38,10,1.0,1.0,0
run-2020-2-18-13-54-53.18425703,AGENT#3daaf06a-5256-11ea-b560-4320c3067606,4,35,39,10,1.0,1.0,0
run-2020-2-18-13-54-53.18425703,AGENT#3dac5068-5256-11ea-ba3e-8be5de1002e2,1,38,39,10,1.0,1.0,0
run-2020-2-18-13-54-53.18425703,AGENT#3dac55b8-5256-11ea-9d6a-57ac7eae9abe,1,38,39,10,1.0,1.0,0
run-2020-2-18-13-54-53.18425703,AGENT#3dac5a90-5256-11ea-9106-8f785e2d00f0,1,38,39,10,1.0,1.0,0
run-2020-2-18-13-54-53.18425703,AGENT#3dab6cfc-5256-11ea-920f-9b9b6ae1a8f6,4,36,40,10,1.0,1.0,0
run-2020-2-18-13-54-53.18425703,AGENT#3dacc48a-5256-11ea-a2cc-ff9248d82c86,1,39,40,10,1.0,1.0,0
run-2020-2-18-13-54-53.18425703,AGENT#3dacc73c-5256-11ea-9101-ff9249c2c9a7,1,39,40,10,1.0,1.0,0
run-2020-2-18-13-54-53.18425703,AGENT#3daccc32-5256-11ea-81c2-bbcdb7be27d6,1,39,40,10,1.0,1.0,0
run-2020-2-18-13-54-53.18425703,AGENT#3da643d0-5256-11ea-9746-7fecd101f8e1,18,23,41,10,1.0,1.0,0
run-2020-2-18-13-54-53.18425703,AGENT#3daa7126-5256-11ea-a49b-5b8acc253e61,7,34,41,10,1.0,1.0,0
run-2020-2-18-13-54-53.18425703,AGENT#3dab6554-5256-11ea-bc4f-4f008ee1d9e3,5,36,41,10,1.0,1.0,0
run-2020-2-18-13-54-53.18425703,AGENT#3dabdffc-5256-11ea-9c29-aff7c25f4cc0,4,37,41,10,1.0,1.0,0
run-2020-2-18-13-54-53.18425703,AGENT#3dabe2cc-5256-11ea-9e52-0f775892b3ff,5,37,42,10,1.0,1.0,0
run-2020-2-18-13-54-53.18425703,AGENT#3dac5310-5256-11ea-83f1-ab61d6b5d275,5,38,43,10,1.0,1.0,0
run-2020-2-18-13-54-53.18425703,AGENT#3dac5810-5256-11ea-851f-1fb80c0db262,5,38,43,10,1.0,1.0,0
run-2020-2-18-13-54-53.18425703,AGENT#3dacc9bc-5256-11ea-8e5e-0b747ac6a972,5,39,44,10,1.0,1.0,0
run-2020-2-18-13-54-53.18425703,AGENT#3dad3f50-5256-11ea-b0f4-73fb7f25e1b5,4,40,44,10,1.0,1.0,0
run-2020-2-18-13-54-53.18425703,AGENT#3dadbaca-5256-11ea-b469-b3e4fa1a841c,3,41,44,10,1.0,1.0,0
run-2020-2-18-13-54-53.18425703,AGENT#3dadbd5e-5256-11ea-9041-0fb8543dbaf5,3,41,44,10,1.0,1.0,0
run-2020-2-18-13-54-53.18425703,AGENT#3d99d0be-5256-11ea-b5ab-a3b7d5425962,45,0,45,10,1.0,1.0,0
run-2020-2-18-13-54-53.18425703,AGENT#3d9a224e-5256-11ea-9a53-cbac9f751fd1,45,0,45,10,1.0,1.0,0
run-2020-2-18-13-54-53.18425703,AGENT#3dad4900-5256-11ea-9cf6-3772990f9002,5,40,45,10,1.0,1.0,0
run-2020-2-18-13-54-53.18425703,AGENT#3daea9d0-5256-11ea-abe1-f3085ed35ed6,2,43,45,10,1.0,1.0,0
run-2020-2-18-13-54-53.18425703,AGENT#3daf2dc4-5256-11ea-be13-4b149f6b5d91,1,44,45,10,1.0,1.0,0
run-2020-2-18-13-54-53.18425703,AGENT#3d99bef8-5256-11ea-8264-4f7cf2bf6d3f,46,0,46,10,1.0,1.0,0
run-2020-2-18-13-54-53.18425703,AGENT#3dafbf5a-5256-11ea-8dc3-3be241fe43e4,1,45,46,10,1.0,1.0,0
run-2020-2-18-13-54-53.18425703,AGENT#3d9a1f74-5256-11ea-b725-8767c6b4f081,47,0,47,10,1.0,1.0,0
run-2020-2-18-13-54-53.18425703,AGENT#3db05802-5256-11ea-ab3f-2721d7e1f6be,1,46,47,10,1.0,1.0,0
run-2020-2-18-13-54-53.18425703,AGENT#3db05ba4-5256-11ea-8aa0-076a9d9db3d4,1,46,47,10,1.0,1.0,0
run-2020-2-18-13-54-53.18425703,AGENT#3db0687e-5256-11ea-89f9-63753720fcc0,1,46,47,10,1.0,1.0,0
run-2020-2-18-13-54-53.18425703,AGENT#3da69b5a-5256-11ea-b419-9bb3bb84f9f0,24,24,48,10,1.0,1.0,0
run-2020-2-18-13-54-53.18425703,AGENT#3daeb20e-5256-11ea-a3ec-8bb8d31cba43,5,43,48,10,1.0,1.0,0
run-2020-2-18-13-54-53.18425703,AGENT#3daf33d2-5256-11ea-b840-4f0543e66458,4,44,48,10,1.0,1.0,0
run-2020-2-18-13-54-53.18425703,AGENT#3db061a8-5256-11ea-80e0-6b4cce982369,2,46,48,10,1.0,1.0,0
run-2020-2-18-13-54-53.18425703,AGENT#3db06b9e-5256-11ea-bc46-5f00f7937175,3,46,49,10,1.0,1.0,0
run-2020-2-18-13-54-53.18425703,AGENT#3db1a068-5256-11ea-ab89-5b9cde62b130,1,48,49,10,1.0,1.0,0
run-2020-2-18-13-54-53.18425703,AGENT#3d9f654c-5256-11ea-99f3-eb933f5e114b,49,1,50,10,1.0,1.0,0
run-2020-2-18-13-54-53.18425703,AGENT#3da0a362-5256-11ea-a0bf-2b2f414662c0,45,5,50,10,1.0,1.0,0
run-2020-2-18-13-54-53.18425703,AGENT#3db107b6-5256-11ea-9b85-6b37477d385d,3,47,50,10,1.0,1.0,0
run-2020-2-18-13-54-53.18425703,AGENT#3db2538c-5256-11ea-829e-5311d57b2502,2,49,51,10,1.0,1.0,0
run-2020-2-18-13-54-53.18425703,AGENT#3db10afe-5256-11ea-8083-4b9338947687,5,47,52,10,1.0,1.0,0
run-2020-2-18-13-54-53.18425703,AGENT#3db19d3e-5256-11ea-8eeb-07adcc2aad15,4,48,52,10,1.0,1.0,0
run-2020-2-18-13-54-53.18425703,AGENT#3db1a64e-5256-11ea-968b-834d4578a48d,4,48,52,10,1.0,1.0,0
run-2020-2-18-13-54-53.18425703,AGENT#3db3b98e-5256-11ea-bd04-d78e82d1461b,1,51,52,10,1.0,1.0,0
run-2020-2-18-13-54-53.18425703,AGENT#3da13926-5256-11ea-9bea-33c0c8601855,46,7,53,10,1.0,1.0,0
run-2020-2-18-13-54-53.18425703,AGENT#3db25756-5256-11ea-bcdc-3bbf14653ac2,4,49,53,10,1.0,1.0,0
run-2020-2-18-13-54-53.18425703,AGENT#3db31a06-5256-11ea-b40e-134dde475825,3,50,53,10,1.0,1.0,0
run-2020-2-18-13-54-53.18425703,AGENT#3db313b2-5256-11ea-9a4f-cfd3b700549b,4,50,54,10,1.0,1.0,0
run-2020-2-18-13-54-53.18425703,AGENT#3db461f4-5256-11ea-ac7e-43bf22ebe422,2,52,54,10,1.0,1.0,0
run-2020-2-18-13-54-53.18425703,AGENT#3db46aaa-5256-11ea-ba49-a74a962e72ce,2,52,54,10,1.0,1.0,0
run-2020-2-18-13-54-53.18425703,AGENT#3db52594-5256-11ea-a631-3fca3e5a72f3,1,53,54,10,1.0,1.0,0
run-2020-2-18-13-54-53.18425703,AGENT#3da1bc84-5256-11ea-9cd7-874a68f09dfa,46,9,55,10,1.0,1.0,0
run-2020-2-18-13-54-53.18425703,AGENT#3da1fa1e-5256-11ea-bcd1-b7ccbc72f3b6,45,10,55,10,1.0,1.0,0
run-2020-2-18-13-54-53.18425703,AGENT#3db31d08-5256-11ea-ba33-9b86778bd87e,5,50,55,10,1.0,1.0,0
run-2020-2-18-13-54-53.18425703,AGENT#3db45e70-5256-11ea-b44c-d320f1184ad2,3,52,55,10,1.0,1.0,0
run-2020-2-18-13-54-53.18425703,AGENT#3db5222e-5256-11ea-93a6-07abb22cdb35,2,53,55,10,1.0,1.0,0
run-2020-2-18-13-54-53.18425703,AGENT#3db5d8ae-5256-11ea-96e2-6bfbb1a2ce27,1,54,55,10,1.0,1.0,0
run-2020-2-18-13-54-53.18425703,AGENT#3da23ec0-5256-11ea-b86c-93333775441d,45,11,56,10,1.0,1.0,0
run-2020-2-18-13-54-53.18425703,AGENT#3da24410-5256-11ea-88a3-8f5c4d42b2dd,45,11,56,10,1.0,1.0,0
run-2020-2-18-13-54-53.18425703,AGENT#3db1a34c-5256-11ea-a007-ab2fabafe192,8,48,56,10,1.0,1.0,0
run-2020-2-18-13-54-53.18425703,AGENT#3db3b664-5256-11ea-a902-bb384f2d366f,5,51,56,10,1.0,1.0,0
run-2020-2-18-13-54-53.18425703,AGENT#3db68358-5256-11ea-ad91-17f7d52acd03,1,55,56,10,1.0,1.0,0
run-2020-2-18-13-54-53.18425703,AGENT#3db6915e-5256-11ea-a1f8-3bc772542131,1,55,56,10,1.0,1.0,0
run-2020-2-18-13-54-53.18425703,AGENT#3da23c04-5256-11ea-bb8d-b78d9f8a634f,46,11,57,10,1.0,1.0,0
run-2020-2-18-13-54-53.18425703,AGENT#3db528a0-5256-11ea-98ea-8f0c18319075,4,53,57,10,1.0,1.0,0
run-2020-2-18-13-54-53.18425703,AGENT#3db68c18-5256-11ea-8cff-7775c00d91ef,2,55,57,10,1.0,1.0,0
run-2020-2-18-13-54-53.18425703,AGENT#3da24168-5256-11ea-b745-b7dc9750913b,47,11,58,10,1.0,1.0,0
run-2020-2-18-13-54-53.18425703,AGENT#3da2e154-5256-11ea-be77-af13a041baf5,45,13,58,10,1.0,1.0,0
run-2020-2-18-13-54-53.18425703,AGENT#3da97ca8-5256-11ea-8cd4-330a85203ba5,26,32,58,10,1.0,1.0,0
run-2020-2-18-13-54-53.18425703,AGENT#3db5d58e-5256-11ea-b3be-53af9923fac1,4,54,58,10,1.0,1.0,0
run-2020-2-18-13-54-53.18425703,AGENT#3db5db92-5256-11ea-a5c2-4f26b776a7d5,4,54,58,10,1.0,1.0,0
run-2020-2-18-13-54-53.18425703,AGENT#3db68ec0-5256-11ea-95fa-77d586a67ae1,3,55,58,10,1.0,1.0,0
run-2020-2-18-13-54-53.18425703,AGENT#3db7eb62-5256-11ea-b9b6-13f316814a59,1,57,58,10,1.0,1.0,0
run-2020-2-18-13-54-53.18425703,AGENT#3db5de58-5256-11ea-bf7b-7f3cc7d0c3cd,5,54,59,10,1.0,1.0,0
run-2020-2-18-13-54-53.18425703,AGENT#3dad469e-5256-11ea-9707-f3f781b72c7b,20,40,60,10,1.0,1.0,0
run-2020-2-18-13-54-53.18425703,AGENT#3db88f54-5256-11ea-a140-bf16c528009b,2,58,60,10,1.0,1.0,0
run-2020-2-18-13-54-53.18425703,AGENT#3db8953a-5256-11ea-9e16-e72c64dcebfe,2,58,60,10,1.0,1.0,0
run-2020-2-18-13-54-53.18425703,AGENT#3db92bc6-5256-11ea-8750-bf369cc0dd6f,1,59,60,10,1.0,1.0,0
run-2020-2-18-13-54-53.18425703,AGENT#3dafc284-5256-11ea-877e-c35b1ab03101,16,45,61,10,1.0,1.0,0
run-2020-2-18-13-54-53.18425703,AGENT#3db73942-5256-11ea-98c1-878b1e32d92a,5,56,61,10,1.0,1.0,0
run-2020-2-18-13-54-53.18425703,AGENT#3db73c94-5256-11ea-b3cf-3f41c0d7d726,5,56,61,10,1.0,1.0,0
run-2020-2-18-13-54-53.18425703,AGENT#3db928ec-5256-11ea-84e3-27b1caef2fe4,2,59,61,10,1.0,1.0,0
run-2020-2-18-13-54-53.18425703,AGENT#3db9d544-5256-11ea-a0f8-17c28755f048,1,60,61,10,1.0,1.0,0
run-2020-2-18-13-54-53.18425703,AGENT#3dba89d0-5256-11ea-9ef6-1f7b3fdbd083,1,61,62,10,1.0,1.0,0
run-2020-2-18-13-54-53.18425703,AGENT#3da38438-5256-11ea-ba7f-3b57a18d17f7,48,15,63,10,1.0,1.0,0
run-2020-2-18-13-54-53.18425703,AGENT#3da47c12-5256-11ea-a4e8-c709355b74bc,45,18,63,10,1.0,1.0,0
run-2020-2-18-13-54-53.18425703,AGENT#3db9da80-5256-11ea-967a-db186f57045f,3,60,63,10,1.0,1.0,0
run-2020-2-18-13-54-53.18425703,AGENT#3dba8408-5256-11ea-b63b-bb93337e4952,2,61,63,10,1.0,1.0,0
run-2020-2-18-13-54-53.18425703,AGENT#3dba870a-5256-11ea-9de3-7f68972fe5f6,2,61,63,10,1.0,1.0,0
run-2020-2-18-13-54-53.18425703,AGENT#3dbb25b6-5256-11ea-a043-b3ca7aca47a2,1,62,63,10,1.0,1.0,0
run-2020-2-18-13-54-53.18425703,AGENT#3da37ef2-5256-11ea-9e4f-03831c70c07b,49,15,64,10,1.0,1.0,0
run-2020-2-18-13-54-53.18425703,AGENT#3db25e9a-5256-11ea-88c3-df47a1278ff5,15,49,64,10,1.0,1.0,0
run-2020-2-18-13-54-53.18425703,AGENT#3dbb2890-5256-11ea-9181-93bec89265e5,2,62,64,10,1.0,1.0,0
run-2020-2-18-13-54-53.18425703,AGENT#3da8be6c-5256-11ea-b4f9-e7466a16b199,35,30,65,10,1.0,1.0,0
run-2020-2-18-13-54-53.18425703,AGENT#3db9cce8-5256-11ea-b0bd-730957ccc664,5,60,65,10,1.0,1.0,0
run-2020-2-18-13-54-53.18425703,AGENT#3db9d7ce-5256-11ea-8abe-ab10963a07ef,5,60,65,10,1.0,1.0,0
run-2020-2-18-13-54-53.18425703,AGENT#3da58fa8-5256-11ea-8522-b7adfe9a6b74,45,21,66,10,1.0,1.0,0
run-2020-2-18-13-54-53.18425703,AGENT#3db9cfe0-5256-11ea-ba47-eb16c56a4ab5,6,60,66,10,1.0,1.0,0
run-2020-2-18-13-54-53.18425703,AGENT#3dbbd326-5256-11ea-9972-1f084ffe3ae5,3,63,66,10,1.0,1.0,0
run-2020-2-18-13-54-53.18425703,AGENT#3da53698-5256-11ea-8289-a76c280e3eaa,47,20,67,10,1.0,1.0,0
run-2020-2-18-13-54-53.18425703,AGENT#3da5e746-5256-11ea-9806-1fca9f9e6ea3,45,22,67,10,1.0,1.0,0
run-2020-2-18-13-54-53.18425703,AGENT#3daaf8e4-5256-11ea-9562-0f68cb64c179,32,35,67,10,1.0,1.0,0
run-2020-2-18-13-54-53.18425703,AGENT#3dbd0c46-5256-11ea-9eea-3f8e36d7c759,2,65,67,10,1.0,1.0,0
run-2020-2-18-13-54-53.18425703,AGENT#3dbd0f2a-5256-11ea-995b-c3c1b62fa9a7,2,65,67,10,1.0,1.0,0
run-2020-2-18-13-54-53.18425703,AGENT#3dbd11b4-5256-11ea-a17e-9b34542e32e5,2,65,67,10,1.0,1.0,0
run-2020-2-18-13-54-53.18425703,AGENT#3dbdb556-5256-11ea-84c2-d7a1cba7e0ba,2,66,68,10,1.0,1.0,0
run-2020-2-18-13-54-53.18425703,AGENT#3dbdb7e0-5256-11ea-9650-2f448604b2ae,2,66,68,10,1.0,1.0,0
run-2020-2-18-13-54-53.18425703,AGENT#3dbe65c8-5256-11ea-a7ab-0374abd8caed,1,67,68,10,1.0,1.0,0
run-2020-2-18-13-54-53.18425703,AGENT#3da69e3e-5256-11ea-90ee-e322b6b61671,45,24,69,10,1.0,1.0,0
run-2020-2-18-13-54-53.18425703,AGENT#3dad41da-5256-11ea-8f2a-ff61e418cbea,29,40,69,10,1.0,1.0,0
run-2020-2-18-13-54-53.18425703,AGENT#3dbc74fc-5256-11ea-ac36-1b5751e007fe,5,64,69,10,1.0,1.0,0
run-2020-2-18-13-54-53.18425703,AGENT#3dbf01ae-5256-11ea-a6e4-fff24d32ab32,1,68,69,10,1.0,1.0,0
run-2020-2-18-13-54-53.18425703,AGENT#3da63ea8-5256-11ea-9c3d-d7d1c697912a,47,23,70,10,1.0,1.0,0
run-2020-2-18-13-54-53.18425703,AGENT#3dbdb272-5256-11ea-b905-2f95a90f1006,4,66,70,10,1.0,1.0,0
run-2020-2-18-13-54-53.18425703,AGENT#3dbe62a8-5256-11ea-aaa9-57d799aabe16,3,67,70,10,1.0,1.0,0
run-2020-2-18-13-54-53.18425703,AGENT#3dbfa000-5256-11ea-9d22-c39587217727,1,69,70,10,1.0,1.0,0
run-2020-2-18-13-54-53.18425703,AGENT#3dbf0424-5256-11ea-bfd8-275d2655ffb6,3,68,71,10,1.0,1.0,0
run-2020-2-18-13-54-53.18425703,AGENT#3da7a90a-5256-11ea-8bb6-f717821c8d11,45,27,72,10,1.0,1.0,0
run-2020-2-18-13-54-53.18425703,AGENT#3daeaf5c-5256-11ea-9a27-7badb8e264f0,29,43,72,10,1.0,1.0,0
run-2020-2-18-13-54-53.18425703,AGENT#3dbf069a-5256-11ea-b32e-0b5e677ed601,4,68,72,10,1.0,1.0,0
run-2020-2-18-13-54-53.18425703,AGENT#3dbfa2da-5256-11ea-a7e2-7b14f3c3a9e8,3,69,72,10,1.0,1.0,0
run-2020-2-18-13-54-53.18425703,AGENT#3dbfa5aa-5256-11ea-b571-cb7f31681272,3,69,72,10,1.0,1.0,0
run-2020-2-18-13-54-53.18425703,AGENT#3dc05338-5256-11ea-8072-ff7426693989,2,70,72,10,1.0,1.0,0
run-2020-2-18-13-54-53.18425703,AGENT#3da7491a-5256-11ea-9da9-eb6a56e09303,47,26,73,10,1.0,1.0,0
run-2020-2-18-13-54-53.18425703,AGENT#3dbefc0e-5256-11ea-acc0-9f82d2d61d4b,5,68,73,10,1.0,1.0,0
run-2020-2-18-13-54-53.18425703,AGENT#3dc0f86a-5256-11ea-907a-f3aab3271d92,2,71,73,10,1.0,1.0,0
run-2020-2-18-13-54-53.18425703,AGENT#3dc0fdf6-5256-11ea-ac81-3b11de537a4f,2,71,73,10,1.0,1.0,0
run-2020-2-18-13-54-53.18425703,AGENT#3dc1030a-5256-11ea-ab30-d35a030b215e,2,71,73,10,1.0,1.0,0
run-2020-2-18-13-54-53.18425703,AGENT#3dc1b1b0-5256-11ea-8da2-8375f7afa813,1,72,73,10,1.0,1.0,0
run-2020-2-18-13-54-53.18425703,AGENT#3dc1b48a-5256-11ea-baea-4bfe9f951d05,1,72,73,10,1.0,1.0,0
run-2020-2-18-13-54-53.18425703,AGENT#3dc1b732-5256-11ea-853d-e73e14208b60,1,72,73,10,1.0,1.0,0
run-2020-2-18-13-54-53.18425703,AGENT#3dc0fb58-5256-11ea-a1fd-0f42f223f3a2,3,71,74,10,1.0,1.0,0
run-2020-2-18-13-54-53.18425703,AGENT#3dc1b9bc-5256-11ea-940c-cf149b5b286e,2,72,74,10,1.0,1.0,0
run-2020-2-18-13-54-53.18425703,AGENT#3dc1bc78-5256-11ea-8a70-6322ce4f62cc,2,72,74,10,1.0,1.0,0
run-2020-2-18-13-54-53.18425703,AGENT#3dc280a4-5256-11ea-a5fd-136dbcf26461,1,73,74,10,1.0,1.0,0
run-2020-2-18-13-54-53.18425703,AGENT#3dc0589c-5256-11ea-a92c-bf93503f3d5f,5,70,75,10,1.0,1.0,0
run-2020-2-18-13-54-53.18425703,AGENT#3dc3304e-5256-11ea-833e-13b2666bbdcf,1,74,75,10,1.0,1.0,0
run-2020-2-18-13-54-53.18425703,AGENT#3dc339e0-5256-11ea-8def-6703c13de566,1,74,75,10,1.0,1.0,0
run-2020-2-18-13-54-53.18425703,AGENT#3dc3289c-5256-11ea-9ca5-df5f6b38b866,2,74,76,10,1.0,1.0,0
run-2020-2-18-13-54-53.18425703,AGENT#3db10446-5256-11ea-9dce-779d1ef54456,30,47,77,10,1.0,1.0,0
run-2020-2-18-13-54-53.18425703,AGENT#3db6895c-5256-11ea-b89b-4f90a8a6de27,22,55,77,10,1.0,1.0,0
run-2020-2-18-13-54-53.18425703,AGENT#3dc2831a-5256-11ea-b526-bb58adf0c39e,4,73,77,10,1.0,1.0,0
run-2020-2-18-13-54-53.18425703,AGENT#3dc32dce-5256-11ea-9d1f-0f2c4cb1bca7,3,74,77,10,1.0,1.0,0
run-2020-2-18-13-54-53.18425703,AGENT#3dc332b0-5256-11ea-b307-2b3000e761a0,3,74,77,10,1.0,1.0,0
run-2020-2-18-13-54-53.18425703,AGENT#3dc50f36-5256-11ea-a4b2-bf28024b3a01,1,76,77,10,1.0,1.0,0
run-2020-2-18-13-54-53.18425703,AGENT#3dc516c0-5256-11ea-889f-db964e0364a3,1,76,77,10,1.0,1.0,0
run-2020-2-18-13-54-53.18425703,AGENT#3db52bb6-5256-11ea-8ef6-ebd6514c9941,25,53,78,10,1.0,1.0,0
run-2020-2-18-13-54-53.18425703,AGENT#3dc40eb0-5256-11ea-96e5-67d09f2a09b5,3,75,78,10,1.0,1.0,0
run-2020-2-18-13-54-53.18425703,AGENT#3dc51a62-5256-11ea-95e9-4fc8915b51a0,2,76,78,10,1.0,1.0,0
run-2020-2-18-13-54-53.18425703,AGENT#3dc520c0-5256-11ea-89b8-bbf6625b3d17,2,76,78,10,1.0,1.0,0
run-2020-2-18-13-54-53.18425703,AGENT#3dc32b58-5256-11ea-b1ff-6f3e8fb86b15,5,74,79,10,1.0,1.0,0
run-2020-2-18-13-54-53.18425703,AGENT#3dc60b02-5256-11ea-85f0-4b7ef7b2e668,2,77,79,10,1.0,1.0,0
run-2020-2-18-13-54-53.18425703,AGENT#3dc6efe0-5256-11ea-b690-8375e412be42,1,78,79,10,1.0,1.0,0
run-2020-2-18-13-54-53.18425703,AGENT#3daaed4a-5256-11ea-bfd4-47de847c705a,45,35,80,10,1.0,1.0,0
run-2020-2-18-13-54-53.18425703,AGENT#3dc6ebbc-5256-11ea-ab1b-9bc2fbe6cfc1,2,78,80,10,1.0,1.0,0
run-2020-2-18-13-54-53.18425703,AGENT#3dc6fb16-5256-11ea-9ede-6b9e82be8185,2,78,80,10,1.0,1.0,0
run-2020-2-18-13-54-53.18425703,AGENT#3dc7ce06-5256-11ea-8300-6baa5e0c50e6,1,79,80,10,1.0,1.0,0
run-2020-2-18-13-54-53.18425703,AGENT#3dc51d96-5256-11ea-b392-1f8f82ae5c31,5,76,81,10,1.0,1.0,0
run-2020-2-18-13-54-53.18425703,AGENT#3dc6f3c8-5256-11ea-a443-971df4a4cf93,3,78,81,10,1.0,1.0,0
run-2020-2-18-13-54-53.18425703,AGENT#3dc87b3a-5256-11ea-ac6b-3f7c108e1023,1,80,81,10,1.0,1.0,0
run-2020-2-18-13-54-53.18425703,AGENT#3dab6a90-5256-11ea-a190-0f5306459545,46,36,82,10,1.0,1.0,0
run-2020-2-18-13-54-53.18425703,AGENT#3dab71a2-5256-11ea-80cf-676e481b3074,46,36,82,10,1.0,1.0,0
run-2020-2-18-13-54-53.18425703,AGENT#3dad3c8a-5256-11ea-bd7d-2f660d24fed2,42,40,82,10,1.0,1.0,0
run-2020-2-18-13-54-53.18425703,AGENT#3db6866e-5256-11ea-aacb-c3dedd1d018e,27,55,82,10,1.0,1.0,0
run-2020-2-18-13-54-53.18425703,AGENT#3dc6f76a-5256-11ea-8f0a-ab4a08fffd01,4,78,82,10,1.0,1.0,0
run-2020-2-18-13-54-53.18425703,AGENT#3dc9f514-5256-11ea-b83b-03add0795301,1,82,83,10,1.0,1.0,0
run-2020-2-18-13-54-53.18425703,AGENT#3daa05f6-5256-11ea-a3fd-f363c53f03e1,51,33,84,10,1.0,1.0,0
run-2020-2-18-13-54-53.18425703,AGENT#3dbd170e-5256-11ea-bc77-5747f5a39874,19,65,84,10,1.0,1.0,0
run-2020-2-18-13-54-53.18425703,AGENT#3dc7cb40-5256-11ea-b199-e7860aff221c,5,79,84,10,1.0,1.0,0
run-2020-2-18-13-54-53.18425703,AGENT#3dc930ca-5256-11ea-8f97-53f96ee2233a,3,81,84,10,1.0,1.0,0
run-2020-2-18-13-54-53.18425703,AGENT#3dcaaf04-5256-11ea-87c7-df3158394f50,1,83,84,10,1.0,1.0,0
run-2020-2-18-13-54-53.18425703,AGENT#3dad4446-5256-11ea-8c9a-e32a41c98063,45,40,85,10,1.0,1.0,0
run-2020-2-18-13-54-53.18425703,AGENT#3dcab6ca-5256-11ea-91f4-efdb7c128219,2,83,85,10,1.0,1.0,0
run-2020-2-18-13-54-53.18425703,AGENT#3dcb747a-5256-11ea-9eee-4b7623d06528,1,84,85,10,1.0,1.0,0
run-2020-2-18-13-54-53.18425703,AGENT#3dcb76fa-5256-11ea-99af-379f7c5ebf09,1,84,85,10,1.0,1.0,0
run-2020-2-18-13-54-53.18425703,AGENT#3dc285c2-5256-11ea-87dc-1394c12400ae,13,73,86,10,1.0,1.0,0
run-2020-2-18-13-54-53.18425703,AGENT#3dc92b34-5256-11ea-8d01-1319e0fad2f6,5,81,86,10,1.0,1.0,0
run-2020-2-18-13-54-53.18425703,AGENT#3dc93318-5256-11ea-855e-134d2deaa572,5,81,86,10,1.0,1.0,0
run-2020-2-18-13-54-53.18425703,AGENT#3dc937be-5256-11ea-9f39-671112a5e32a,5,81,86,10,1.0,1.0,0
run-2020-2-18-13-54-53.18425703,AGENT#3dcab922-5256-11ea-972b-a37490941356,3,83,86,10,1.0,1.0,0
run-2020-2-18-13-54-53.18425703,AGENT#3dcb79ac-5256-11ea-b76e-e33b2687c048,2,84,86,10,1.0,1.0,0
run-2020-2-18-13-54-53.18425703,AGENT#3dcc4d78-5256-11ea-8a51-67c604cd728c,1,85,86,10,1.0,1.0,0
run-2020-2-18-13-54-53.18425703,AGENT#3dcc5be2-5256-11ea-935a-5b9020db2ed9,1,85,86,10,1.0,1.0,0
run-2020-2-18-13-54-53.18425703,AGENT#3dc9f01e-5256-11ea-a573-df290ac53a58,5,82,87,10,1.0,1.0,0
run-2020-2-18-13-54-53.18425703,AGENT#3dcd5af6-5256-11ea-a984-af8b6e6b0a1f,1,86,87,10,1.0,1.0,0
run-2020-2-18-13-54-53.18425703,AGENT#3daeacb4-5256-11ea-a00e-c360d0bd9eb8,45,43,88,10,1.0,1.0,0
run-2020-2-18-13-54-53.18425703,AGENT#3dcab1de-5256-11ea-99af-2fb72a188243,5,83,88,10,1.0,1.0,0
run-2020-2-18-13-54-53.18425703,AGENT#3dcc5098-5256-11ea-b763-037f9a601661,3,85,88,10,1.0,1.0,0
run-2020-2-18-13-54-53.18425703,AGENT#3dcc535e-5256-11ea-9a1e-ab8da3e22759,3,85,88,10,1.0,1.0,0
run-2020-2-18-13-54-53.18425703,AGENT#3dcd6320-5256-11ea-8d24-2f668940263d,2,86,88,10,1.0,1.0,0
run-2020-2-18-13-54-53.18425703,AGENT#3dcd66f4-5256-11ea-ad86-3b0d0f06ab57,2,86,88,10,1.0,1.0,0
run-2020-2-18-13-54-53.18425703,AGENT#3dcc591c-5256-11ea-ba52-9397a3a47891,4,85,89,10,1.0,1.0,0
run-2020-2-18-13-54-53.18425703,AGENT#3dcf4474-5256-11ea-a575-8f6cbd1b3c79,1,88,89,10,1.0,1.0,0
run-2020-2-18-13-54-53.18425703,AGENT#3dcf51d0-5256-11ea-935d-6b9d45ddb3b4,1,88,89,10,1.0,1.0,0
run-2020-2-18-13-54-53.18425703,AGENT#3dcf5a4a-5256-11ea-8439-432fd447bb22,1,88,89,10,1.0,1.0,0
run-2020-2-18-13-54-53.18425703,AGENT#3daf3116-5256-11ea-8fe8-1f8073dc3784,46,44,90,10,1.0,1.0,0
run-2020-2-18-13-54-53.18425703,AGENT#3daf367a-5256-11ea-9ca1-cb6677ff1a6f,46,44,90,10,1.0,1.0,0
run-2020-2-18-13-54-53.18425703,AGENT#3dcf4ec4-5256-11ea-bcbf-c341013d910a,2,88,90,10,1.0,1.0,0
run-2020-2-18-13-54-53.18425703,AGENT#3dd04a9a-5256-11ea-a350-db15d40ebd0c,1,89,90,10,1.0,1.0,0
run-2020-2-18-13-54-53.18425703,AGENT#3db31718-5256-11ea-81c5-9f51d4f05d99,41,50,91,10,1.0,1.0,0
run-2020-2-18-13-54-53.18425703,AGENT#3db73f82-5256-11ea-8363-fb89d1d76733,35,56,91,10,1.0,1.0,0
run-2020-2-18-13-54-53.18425703,AGENT#3dcb7bfa-5256-11ea-a054-af31ae6c6ed0,7,84,91,10,1.0,1.0,0
run-2020-2-18-13-54-53.18425703,AGENT#3daf3940-5256-11ea-9d46-8fb190819665,48,44,92,10,1.0,1.0,0
run-2020-2-18-13-54-53.18425703,AGENT#3db25b66-5256-11ea-8ffe-33a3c734873b,43,49,92,10,1.0,1.0,0
run-2020-2-18-13-54-53.18425703,AGENT#3dc9ed62-5256-11ea-bd14-e375085695ff,10,82,92,10,1.0,1.0,0
run-2020-2-18-13-54-53.18425703,AGENT#3dcf5770-5256-11ea-927b-87e1dc8b787e,4,88,92,10,1.0,1.0,0
run-2020-2-18-13-54-53.18425703,AGENT#3dd12a46-5256-11ea-84e5-4b3499e672ce,2,90,92,10,1.0,1.0,0
run-2020-2-18-13-54-53.18425703,AGENT#3dc27866-5256-11ea-8857-1b017a37fe58,20,73,93,10,1.0,1.0,0
run-2020-2-18-13-54-53.18425703,AGENT#3dcab454-5256-11ea-93d2-bb6d656432f3,10,83,93,10,1.0,1.0,0
run-2020-2-18-13-54-53.18425703,AGENT#3dd22c34-5256-11ea-ae28-576f2b8a092d,2,91,93,10,1.0,1.0,0
run-2020-2-18-13-54-53.18425703,AGENT#3dd343bc-5256-11ea-8082-ebaf4dabe483,1,92,93,10,1.0,1.0,0
run-2020-2-18-13-54-53.18425703,AGENT#3dd35384-5256-11ea-80d0-c3b121ac7f6c,1,92,93,10,1.0,1.0,0
run-2020-2-18-13-54-53.18425703,AGENT#3dd34042-5256-11ea-9f41-d72e36706178,2,92,94,10,1.0,1.0,0
run-2020-2-18-13-54-53.18425703,AGENT#3dd4728c-5256-11ea-8af8-8b76eb86e7a4,1,93,94,10,1.0,1.0,0
run-2020-2-18-13-54-53.18425703,AGENT#3dc33526-5256-11ea-be5f-afbaf88aa962,21,74,95,10,1.0,1.0,0
run-2020-2-18-13-54-53.18425703,AGENT#3dd126f4-5256-11ea-b148-0393d54ea99f,5,90,95,10,1.0,1.0,0
run-2020-2-18-13-54-53.18425703,AGENT#3dd346e6-5256-11ea-949c-871cf8f5a4ee,3,92,95,10,1.0,1.0,0
run-2020-2-18-13-54-53.18425703,AGENT#3dd34d62-5256-11ea-93ed-331571b123db,3,92,95,10,1.0,1.0,0
run-2020-2-18-13-54-53.18425703,AGENT#3dd35078-5256-11ea-9b38-ff7a422deb01,3,92,95,10,1.0,1.0,0
run-2020-2-18-13-54-53.18425703,AGENT#3dd55620-5256-11ea-a34b-eb8b64c254de,1,94,95,10,1.0,1.0,0
run-2020-2-18-13-54-53.18425703,AGENT#3dc614ee-5256-11ea-b772-7763445f0698,19,77,96,10,1.0,1.0,0
run-2020-2-18-13-54-53.18425703,AGENT#3dd21cb2-5256-11ea-bd1d-43298a4b96ee,5,91,96,10,1.0,1.0,0
run-2020-2-18-13-54-53.18425703,AGENT#3dd220f4-5256-11ea-b1cf-7b0d8a5ecf09,5,91,96,10,1.0,1.0,0
run-2020-2-18-13-54-53.18425703,AGENT#3dd349fc-5256-11ea-8b3d-bfab3d5d7ee9,4,92,96,10,1.0,1.0,0
run-2020-2-18-13-54-53.18425703,AGENT#3dd46fda-5256-11ea-bb57-7730b2aa2296,3,93,96,10,1.0,1.0,0
run-2020-2-18-13-54-53.18425703,AGENT#3db06572-5256-11ea-a8f5-fb02a0244bd1,51,46,97,10,1.0,1.0,0
run-2020-2-18-13-54-53.18425703,AGENT#3db46514-5256-11ea-a00c-13178559aa5e,45,52,97,10,1.0,1.0,0
run-2020-2-18-13-54-53.18425703,AGENT#3db467e4-5256-11ea-ac00-a3ceb87f69e7,45,52,97,10,1.0,1.0,0
run-2020-2-18-13-54-53.18425703,AGENT#3dd55332-5256-11ea-a949-735522fdaabb,3,94,97,10,1.0,1.0,0
run-2020-2-18-13-54-53.18425703,AGENT#3dd77a9a-5256-11ea-b18c-9bb82f64eceb,1,96,97,10,1.0,1.0,0
run-2020-2-18-13-54-53.18425703,AGENT#3dd67a6e-5256-11ea-8e8e-efd9392e65d3,4,95,99,10,1.0,1.0,0
run-2020-2-18-13-54-53.18425703,AGENT#3dd77d92-5256-11ea-bfaf-dfb7c3594adb,3,96,99,10,1.0,1.0,0
run-2020-2-18-13-54-53.18425703,AGENT#3dd86388-5256-11ea-ad16-1b0e78ebb6f9,2,97,99,10,1.0,1.0,0
run-2020-2-18-13-54-53.18425703,AGENT#3dd86662-5256-11ea-b48c-df81c09655b4,2,97,99,10,1.0,1.0,0
run-2020-2-18-13-54-53.18425703,AGENT#3dd93402-5256-11ea-b39e-8fbc853f2eac,1,98,99,10,1.0,1.0,0
run-2020-2-18-13-54-53.18425703,AGENT#3dd938e4-5256-11ea-90a0-9721a89be699,1,98,99,10,1.0,1.0,0
