Source,Target
6d0437ce-5a15-11ea-9501-834fb5b3f7ac,6d0456f0-5a15-11ea-be0e-f7012c494328
6d0456f0-5a15-11ea-be0e-f7012c494328,6d0476e4-5a15-11ea-b2ed-3ff4b5fcef68
6d03c23a-5a15-11ea-934e-53af3a10af9c,6d04a894-5a15-11ea-a561-e7ae52941c66
6d03ddec-5a15-11ea-8832-d3a76f5dce45,6d04b4f6-5a15-11ea-ac89-8b26b4e10be4
6d03c23a-5a15-11ea-934e-53af3a10af9c,6d04cce8-5a15-11ea-b4ac-8bb2aec83ab9
6d03c23a-5a15-11ea-934e-53af3a10af9c,6d04c5a4-5a15-11ea-b9da-c7c93f4acf24
6d04a894-5a15-11ea-a561-e7ae52941c66,6d04d5d0-5a15-11ea-a74d-5fd1c7242344
6d04d5d0-5a15-11ea-a74d-5fd1c7242344,6d051e96-5a15-11ea-a2c9-df0468b28cb3
6d04b4f6-5a15-11ea-ac89-8b26b4e10be4,6d053200-5a15-11ea-8cb7-2fc32b74e429
6d04c5a4-5a15-11ea-b9da-c7c93f4acf24,6d05393a-5a15-11ea-924f-57d57f9849a6
6d045128-5a15-11ea-b0ad-93f3c1408754,6d054196-5a15-11ea-90a4-67e22bbe25ae
6d037316-5a15-11ea-bd7a-db3e164ddd3a,6d054e34-5a15-11ea-ae9e-1f2563c70e9b
6d045128-5a15-11ea-b0ad-93f3c1408754,6d056ea0-5a15-11ea-a5f8-ef01378c7db5
6d03cc44-5a15-11ea-96fe-b7c6a2da4a7d,6d058124-5a15-11ea-84d8-579bb4745d2d
6d04a894-5a15-11ea-a561-e7ae52941c66,6d05776a-5a15-11ea-8cf5-33f5f05f583c
6d04cce8-5a15-11ea-b4ac-8bb2aec83ab9,6d058f16-5a15-11ea-b7f0-87189a18aeff
6d045128-5a15-11ea-b0ad-93f3c1408754,6d059ff6-5a15-11ea-a7a6-0bd7a338d03b
6d056ea0-5a15-11ea-a5f8-ef01378c7db5,6d05b536-5a15-11ea-824d-7bb7d5e84300
6d058f16-5a15-11ea-b7f0-87189a18aeff,6d05d5ac-5a15-11ea-8983-23d09cdea790
6d03ddec-5a15-11ea-8832-d3a76f5dce45,6d05f41a-5a15-11ea-8562-d35b5fa73c2e
6d04c5a4-5a15-11ea-b9da-c7c93f4acf24,6d0613a0-5a15-11ea-9a08-97e9201b1349
6d03ea08-5a15-11ea-9880-83889720068a,6d0654a0-5a15-11ea-ac8b-a76189c544c3
6d0456f0-5a15-11ea-be0e-f7012c494328,6d06adba-5a15-11ea-8bfa-4f2f4d6db558
6d05d5ac-5a15-11ea-8983-23d09cdea790,6d06bbe8-5a15-11ea-9d31-e3bc08c38db2
6d058124-5a15-11ea-84d8-579bb4745d2d,6d06c39a-5a15-11ea-b294-0b0ef8adbf4d
6d04a894-5a15-11ea-a561-e7ae52941c66,6d06f39c-5a15-11ea-bdf3-cb58c6232041
6d03cc44-5a15-11ea-96fe-b7c6a2da4a7d,6d06f1a8-5a15-11ea-a61e-57ec7082e8a0
6d04d5d0-5a15-11ea-a74d-5fd1c7242344,6d070986-5a15-11ea-b310-878e6343259a
6d059ff6-5a15-11ea-a7a6-0bd7a338d03b,6d0710ac-5a15-11ea-a2d0-3331bff10fd0
6d03ea08-5a15-11ea-9880-83889720068a,6d0755a8-5a15-11ea-b6b0-dbcb8e13e8c1
6d056ea0-5a15-11ea-a5f8-ef01378c7db5,6d076700-5a15-11ea-9323-a3d8370e2006
6d03f6a6-5a15-11ea-81bb-6be672bb740c,6d079888-5a15-11ea-9bf4-436ac9954272
6d05393a-5a15-11ea-924f-57d57f9849a6,6d07b93a-5a15-11ea-bbc3-b35fbf46dc31
6d03857c-5a15-11ea-b33c-0ba7da19fb32,6d07ec84-5a15-11ea-8e89-eb947c9eb1dc
6d04cce8-5a15-11ea-b4ac-8bb2aec83ab9,6d0867a4-5a15-11ea-8d9d-affed4b19a68
6d0613a0-5a15-11ea-9a08-97e9201b1349,6d08ea44-5a15-11ea-b12a-87849c7eb9db
6d03f6a6-5a15-11ea-81bb-6be672bb740c,6d0965b4-5a15-11ea-99fe-cb2c8a387079
6d03f6a6-5a15-11ea-81bb-6be672bb740c,6d0974dc-5a15-11ea-931d-bf74d15b928d
6d07ec84-5a15-11ea-8e89-eb947c9eb1dc,6d09b514-5a15-11ea-93c4-b343a653ce12
6d056ea0-5a15-11ea-a5f8-ef01378c7db5,6d09e5c0-5a15-11ea-a9ef-7739357a0068
6d0974dc-5a15-11ea-931d-bf74d15b928d,6d09d54e-5a15-11ea-8da1-43c23e75a2a0
6d09e5c0-5a15-11ea-a9ef-7739357a0068,6d0a1dd8-5a15-11ea-aced-4b94595d002e
6d058124-5a15-11ea-84d8-579bb4745d2d,6d0a3746-5a15-11ea-ad2e-ab357e0920e8
6d04b4f6-5a15-11ea-ac89-8b26b4e10be4,6d0a4efc-5a15-11ea-8e9f-1756093824a2
6d07ec84-5a15-11ea-8e89-eb947c9eb1dc,6d0a611c-5a15-11ea-9e4d-d33fe718df0d
6d06bbe8-5a15-11ea-9d31-e3bc08c38db2,6d0ad8fe-5a15-11ea-8f57-97807ea6c20e
6d04c5a4-5a15-11ea-b9da-c7c93f4acf24,6d0af708-5a15-11ea-ab19-2fab42c3dbb4
6d06f1a8-5a15-11ea-a61e-57ec7082e8a0,6d0b0018-5a15-11ea-949b-4f5e80163f26
6d0a4efc-5a15-11ea-8e9f-1756093824a2,6d0b30ec-5a15-11ea-b584-d707f0673e3d
6d070986-5a15-11ea-b310-878e6343259a,6d0b3e52-5a15-11ea-ada0-4f82b05957cd
6d051e96-5a15-11ea-a2c9-df0468b28cb3,6d0b5130-5a15-11ea-8149-af4c2414478e
6d03ddec-5a15-11ea-8832-d3a76f5dce45,6d0b5bf8-5a15-11ea-8ea8-c3b8e85442c3
6d0ad8fe-5a15-11ea-8f57-97807ea6c20e,6d0b8fb0-5a15-11ea-8226-6b0bfe55d99b
6d0b0018-5a15-11ea-949b-4f5e80163f26,6d0ba522-5a15-11ea-8993-27b385099900
6d05393a-5a15-11ea-924f-57d57f9849a6,6d0bb1ac-5a15-11ea-8487-3fc1cee71dee
6d0437ce-5a15-11ea-9501-834fb5b3f7ac,6d0bc688-5a15-11ea-8b41-c718ced0f2f1
6d05b536-5a15-11ea-824d-7bb7d5e84300,6d0c0080-5a15-11ea-abb4-9b86f505d325
6d045128-5a15-11ea-b0ad-93f3c1408754,6d0c0fb2-5a15-11ea-87ea-cb74f854d877
6d070986-5a15-11ea-b310-878e6343259a,6d0bf900-5a15-11ea-9292-2f5fd07991d0
6d06bbe8-5a15-11ea-9d31-e3bc08c38db2,6d0c09f4-5a15-11ea-a741-5f7ea3ef66c5
6d06f39c-5a15-11ea-bdf3-cb58c6232041,6d0c35e6-5a15-11ea-bad3-877fe95f2494
6d076700-5a15-11ea-9323-a3d8370e2006,6d0c5fee-5a15-11ea-ae91-9743a230622c
6d03ea08-5a15-11ea-9880-83889720068a,6d0c702e-5a15-11ea-aa11-27651a0ea4ea
6d0974dc-5a15-11ea-931d-bf74d15b928d,6d0c75e2-5a15-11ea-9046-2bae339cec74
6d08ea44-5a15-11ea-b12a-87849c7eb9db,6d0c6a2a-5a15-11ea-8b90-ff67bf1ac82d
6d04c5a4-5a15-11ea-b9da-c7c93f4acf24,6d0cd87a-5a15-11ea-8001-f76379896779
6d0b5130-5a15-11ea-8149-af4c2414478e,6d0d008e-5a15-11ea-b182-3fbe58c8d1f5
6d058124-5a15-11ea-84d8-579bb4745d2d,6d0d6f24-5a15-11ea-bcaa-5731fa522f38
6d0a4efc-5a15-11ea-8e9f-1756093824a2,6d0d5502-5a15-11ea-8bad-0f003fd43ace
6d04a894-5a15-11ea-a561-e7ae52941c66,6d0db844-5a15-11ea-986b-13c35dbe127f
6d0a1dd8-5a15-11ea-aced-4b94595d002e,6d0de0b2-5a15-11ea-9275-ff68e5098d0c
6d0af708-5a15-11ea-ab19-2fab42c3dbb4,6d0e0150-5a15-11ea-b168-13e91efb4584
6d0c35e6-5a15-11ea-bad3-877fe95f2494,6d0e232e-5a15-11ea-8673-d7009643318a
6d0bf900-5a15-11ea-9292-2f5fd07991d0,6d0e3f80-5a15-11ea-b43e-73ef6dab3939
6d06f1a8-5a15-11ea-a61e-57ec7082e8a0,6d0e6a3c-5a15-11ea-a646-93cfe1f124a8
6d0db844-5a15-11ea-986b-13c35dbe127f,6d0e87f6-5a15-11ea-b12e-7fdc19296d3d
6d03c23a-5a15-11ea-934e-53af3a10af9c,6d0e9ec6-5a15-11ea-adfd-3fac8bd3e196
6d03c23a-5a15-11ea-934e-53af3a10af9c,6d0eb136-5a15-11ea-8b32-cb3126b8b5b9
6d053200-5a15-11ea-8cb7-2fc32b74e429,6d0ecd60-5a15-11ea-8c87-4b57613a4dcd
6d056ea0-5a15-11ea-a5f8-ef01378c7db5,6d0f1946-5a15-11ea-b34f-9fd62d191508
6d0e232e-5a15-11ea-8673-d7009643318a,6d0f0d98-5a15-11ea-a743-f3ad0c446f87
6d076700-5a15-11ea-9323-a3d8370e2006,6d0f2a26-5a15-11ea-9c65-47a65bb98736
6d045128-5a15-11ea-b0ad-93f3c1408754,6d0f4786-5a15-11ea-9ffe-4f044bb57e36
6d0db844-5a15-11ea-986b-13c35dbe127f,6d0f5bfe-5a15-11ea-9128-b32cf954cd29
6d0f0d98-5a15-11ea-a743-f3ad0c446f87,6d0f7aa8-5a15-11ea-ab6d-936b219bbe33
6d0d008e-5a15-11ea-b182-3fbe58c8d1f5,6d0faac8-5a15-11ea-96cc-f3a5aa1c5c9a
6d0c5fee-5a15-11ea-ae91-9743a230622c,6d0ff7e4-5a15-11ea-90c1-bb074742b304
6d0a4efc-5a15-11ea-8e9f-1756093824a2,6d0fde58-5a15-11ea-a4fe-6fa8c49430c9
6d05393a-5a15-11ea-924f-57d57f9849a6,6d101e7c-5a15-11ea-bc35-af50c4bb2ff2
6d0755a8-5a15-11ea-b6b0-dbcb8e13e8c1,6d103600-5a15-11ea-bd46-db58da4154fb
6d09b514-5a15-11ea-93c4-b343a653ce12,6d102aa2-5a15-11ea-884e-6fa8bc7e378e
6d05f41a-5a15-11ea-8562-d35b5fa73c2e,6d1047da-5a15-11ea-96b2-ab2fa8560655
6d08ea44-5a15-11ea-b12a-87849c7eb9db,6d106580-5a15-11ea-89f3-076c084227b5
6d0fde58-5a15-11ea-a4fe-6fa8c49430c9,6d108ea2-5a15-11ea-b260-5f1f1410b59a
6d0e3f80-5a15-11ea-b43e-73ef6dab3939,6d10953c-5a15-11ea-b52e-bbce3047fca3
6d0c75e2-5a15-11ea-9046-2bae339cec74,6d109afa-5a15-11ea-a5fd-0ba83bbd398c
