RunID,Tick,AllAgents,Active,Inactive
run-2020-2-28-16-28-34.611495971,0,16,13,3
run-2020-2-28-16-28-34.611495971,1,21,17,4
run-2020-2-28-16-28-34.611495971,2,24,17,7
run-2020-2-28-16-28-34.611495971,3,28,13,15
run-2020-2-28-16-28-34.611495971,4,31,15,16
run-2020-2-28-16-28-34.611495971,5,35,17,18
run-2020-2-28-16-28-34.611495971,6,37,15,22
run-2020-2-28-16-28-34.611495971,7,38,14,24
run-2020-2-28-16-28-34.611495971,8,40,15,25
run-2020-2-28-16-28-34.611495971,9,45,20,25
run-2020-2-28-16-28-34.611495971,10,50,23,27
run-2020-2-28-16-28-34.611495971,11,54,24,30
run-2020-2-28-16-28-34.611495971,12,55,22,33
run-2020-2-28-16-28-34.611495971,13,59,24,35
run-2020-2-28-16-28-34.611495971,14,68,30,38
run-2020-2-28-16-28-34.611495971,15,73,28,45
run-2020-2-28-16-28-34.611495971,16,77,31,46
run-2020-2-28-16-28-34.611495971,17,81,35,46
run-2020-2-28-16-28-34.611495971,18,87,36,51
run-2020-2-28-16-28-34.611495971,19,92,38,54
run-2020-2-28-16-28-34.611495971,20,94,38,56
run-2020-2-28-16-28-34.611495971,21,95,35,60
run-2020-2-28-16-28-34.611495971,22,97,36,61
run-2020-2-28-16-28-34.611495971,23,100,35,65
run-2020-2-28-16-28-34.611495971,24,102,37,65
run-2020-2-28-16-28-34.611495971,25,108,39,69
run-2020-2-28-16-28-34.611495971,26,109,38,71
run-2020-2-28-16-28-34.611495971,27,116,44,72
run-2020-2-28-16-28-34.611495971,28,117,43,74
run-2020-2-28-16-28-34.611495971,29,118,41,77
run-2020-2-28-16-28-34.611495971,30,123,43,80
run-2020-2-28-16-28-34.611495971,31,125,44,81
run-2020-2-28-16-28-34.611495971,32,127,44,83
run-2020-2-28-16-28-34.611495971,33,134,50,84
run-2020-2-28-16-28-34.611495971,34,134,44,90
run-2020-2-28-16-28-34.611495971,35,135,45,90
run-2020-2-28-16-28-34.611495971,36,137,46,91
run-2020-2-28-16-28-34.611495971,37,139,45,94
run-2020-2-28-16-28-34.611495971,38,142,48,94
run-2020-2-28-16-28-34.611495971,39,149,54,95
run-2020-2-28-16-28-34.611495971,40,151,48,103
run-2020-2-28-16-28-34.611495971,41,152,48,104
run-2020-2-28-16-28-34.611495971,42,157,49,108
run-2020-2-28-16-28-34.611495971,43,159,49,110
run-2020-2-28-16-28-34.611495971,44,162,51,111
run-2020-2-28-16-28-34.611495971,45,167,51,116
run-2020-2-28-16-28-34.611495971,46,169,50,119
run-2020-2-28-16-28-34.611495971,47,174,53,121
