RunID,Tick,AllAgents,Active,Inactive
run-2020-2-18-13-44-21.664577007,0,11,10,1
run-2020-2-18-13-44-21.664577007,1,13,9,4
run-2020-2-18-13-44-21.664577007,2,17,11,6
run-2020-2-18-13-44-21.664577007,3,22,13,9
run-2020-2-18-13-44-21.664577007,4,27,16,11
run-2020-2-18-13-44-21.664577007,5,28,14,14
run-2020-2-18-13-44-21.664577007,6,30,11,19
run-2020-2-18-13-44-21.664577007,7,32,12,20
run-2020-2-18-13-44-21.664577007,8,36,15,21
run-2020-2-18-13-44-21.664577007,9,41,18,23
run-2020-2-18-13-44-21.664577007,10,44,20,24
run-2020-2-18-13-44-21.664577007,11,48,21,27
run-2020-2-18-13-44-21.664577007,12,49,20,29
run-2020-2-18-13-44-21.664577007,13,52,21,31
run-2020-2-18-13-44-21.664577007,14,55,20,35
run-2020-2-18-13-44-21.664577007,15,57,18,39
run-2020-2-18-13-44-21.664577007,16,62,20,42
run-2020-2-18-13-44-21.664577007,17,63,19,44
run-2020-2-18-13-44-21.664577007,18,69,24,45
run-2020-2-18-13-44-21.664577007,19,73,28,45
run-2020-2-18-13-44-21.664577007,20,74,23,51
run-2020-2-18-13-44-21.664577007,21,77,24,53
run-2020-2-18-13-44-21.664577007,22,81,26,55
run-2020-2-18-13-44-21.664577007,23,87,32,55
run-2020-2-18-13-44-21.664577007,24,92,36,56
run-2020-2-18-13-44-21.664577007,25,98,38,60
run-2020-2-18-13-44-21.664577007,26,102,40,62
run-2020-2-18-13-44-21.664577007,27,106,37,69
run-2020-2-18-13-44-21.664577007,28,112,39,73
run-2020-2-18-13-44-21.664577007,29,115,40,75
run-2020-2-18-13-44-21.664577007,30,120,41,79
run-2020-2-18-13-44-21.664577007,31,124,42,82
run-2020-2-18-13-44-21.664577007,32,126,41,85
run-2020-2-18-13-44-21.664577007,33,129,41,88
run-2020-2-18-13-44-21.664577007,34,132,40,92
run-2020-2-18-13-44-21.664577007,35,136,40,96
run-2020-2-18-13-44-21.664577007,36,138,39,99
run-2020-2-18-13-44-21.664577007,37,144,44,100
run-2020-2-18-13-44-21.664577007,38,147,46,101
run-2020-2-18-13-44-21.664577007,39,154,48,106
run-2020-2-18-13-44-21.664577007,40,155,48,107
run-2020-2-18-13-44-21.664577007,41,155,45,110
run-2020-2-18-13-44-21.664577007,42,160,47,113
run-2020-2-18-13-44-21.664577007,43,168,53,115
run-2020-2-18-13-44-21.664577007,44,173,53,120
run-2020-2-18-13-44-21.664577007,45,175,53,122
run-2020-2-18-13-44-21.664577007,46,178,51,127
run-2020-2-18-13-44-21.664577007,47,184,53,131
run-2020-2-18-13-44-21.664577007,48,192,58,134
run-2020-2-18-13-44-21.664577007,49,194,55,139
run-2020-2-18-13-44-21.664577007,50,196,50,146
run-2020-2-18-13-44-21.664577007,51,200,53,147
run-2020-2-18-13-44-21.664577007,52,203,54,149
run-2020-2-18-13-44-21.664577007,53,209,58,151
run-2020-2-18-13-44-21.664577007,54,211,56,155
run-2020-2-18-13-44-21.664577007,55,215,57,158
run-2020-2-18-13-44-21.664577007,56,218,58,160
run-2020-2-18-13-44-21.664577007,57,222,59,163
run-2020-2-18-13-44-21.664577007,58,230,67,163
run-2020-2-18-13-44-21.664577007,59,236,65,171
run-2020-2-18-13-44-21.664577007,60,242,65,177
run-2020-2-18-13-44-21.664577007,61,246,64,182
run-2020-2-18-13-44-21.664577007,62,249,66,183
run-2020-2-18-13-44-21.664577007,63,254,66,188
run-2020-2-18-13-44-21.664577007,64,258,68,190
run-2020-2-18-13-44-21.664577007,65,261,65,196
run-2020-2-18-13-44-21.664577007,66,264,64,200
run-2020-2-18-13-44-21.664577007,67,266,61,205
run-2020-2-18-13-44-21.664577007,68,272,62,210
run-2020-2-18-13-44-21.664577007,69,276,62,214
run-2020-2-18-13-44-21.664577007,70,277,59,218
run-2020-2-18-13-44-21.664577007,71,281,60,221
run-2020-2-18-13-44-21.664577007,72,282,56,226
run-2020-2-18-13-44-21.664577007,73,285,56,229
run-2020-2-18-13-44-21.664577007,74,290,58,232
run-2020-2-18-13-44-21.664577007,75,292,54,238
run-2020-2-18-13-44-21.664577007,76,299,57,242
run-2020-2-18-13-44-21.664577007,77,300,57,243
run-2020-2-18-13-44-21.664577007,78,307,59,248
run-2020-2-18-13-44-21.664577007,79,310,60,250
run-2020-2-18-13-44-21.664577007,80,313,58,255
run-2020-2-18-13-44-21.664577007,81,314,57,257
run-2020-2-18-13-44-21.664577007,82,315,55,260
run-2020-2-18-13-44-21.664577007,83,317,55,262
run-2020-2-18-13-44-21.664577007,84,321,57,264
run-2020-2-18-13-44-21.664577007,85,324,59,265
run-2020-2-18-13-44-21.664577007,86,327,57,270
run-2020-2-18-13-44-21.664577007,87,330,54,276
run-2020-2-18-13-44-21.664577007,88,334,52,282
run-2020-2-18-13-44-21.664577007,89,336,51,285
run-2020-2-18-13-44-21.664577007,90,344,56,288
run-2020-2-18-13-44-21.664577007,91,351,60,291
run-2020-2-18-13-44-21.664577007,92,355,60,295
run-2020-2-18-13-44-21.664577007,93,359,60,299
run-2020-2-18-13-44-21.664577007,94,363,58,305
run-2020-2-18-13-44-21.664577007,95,366,56,310
run-2020-2-18-13-44-21.664577007,96,370,57,313
run-2020-2-18-13-44-21.664577007,97,370,53,317
run-2020-2-18-13-44-21.664577007,98,376,54,322
run-2020-2-18-13-44-21.664577007,99,379,55,324
