Source,Target
7b1c171a-519a-11ea-bdff-5b78af5cb229,7b1c85ba-519a-11ea-ad69-a36a0f563477
7b1ba712-519a-11ea-8201-db2ca7b1e444,7b1c9794-519a-11ea-9de4-976a041eb78a
7b1bc3aa-519a-11ea-83a9-a3f66311a485,7b1cabee-519a-11ea-a162-b76e8b866c38
7b1c082e-519a-11ea-b7e1-3b4eded8f075,7b1cbf80-519a-11ea-b40f-7f12c9f281ca
7b1c082e-519a-11ea-b7e1-3b4eded8f075,7b1d35b4-519a-11ea-b4f8-134fd2d4ae0d
7b1b2a08-519a-11ea-ab85-17b055f9d2be,7b1d43ec-519a-11ea-88d5-9f1edec24c3a
7b1c5c16-519a-11ea-8584-c31b5e3d18a7,7b1d6566-519a-11ea-a413-9bfc2a233aca
7b1c9794-519a-11ea-9de4-976a041eb78a,7b1d7c5e-519a-11ea-90ec-7b99758c14b5
7b1cabee-519a-11ea-a162-b76e8b866c38,7b1da8e6-519a-11ea-86d7-db43e7d65216
7b1cabee-519a-11ea-a162-b76e8b866c38,7b1dcc72-519a-11ea-9df9-f3ffd37deeaa
7b1d43ec-519a-11ea-88d5-9f1edec24c3a,7b1ddae6-519a-11ea-b20f-634762e0d985
7b1ddae6-519a-11ea-b20f-634762e0d985,7b1e260e-519a-11ea-9dbc-af8837e28f82
7b1dcc72-519a-11ea-9df9-f3ffd37deeaa,7b1e3eaa-519a-11ea-818d-87476fc205cb
7b1b59c4-519a-11ea-a28f-c36fa4f476fa,7b1e4d00-519a-11ea-a566-d3f18cc17e8a
7b1cbf80-519a-11ea-b40f-7f12c9f281ca,7b1e5b74-519a-11ea-9d6c-8fcfce90781b
7b1b59c4-519a-11ea-a28f-c36fa4f476fa,7b1e7cee-519a-11ea-9354-afb35b5dcd60
7b1d35b4-519a-11ea-b4f8-134fd2d4ae0d,7b1ebd6c-519a-11ea-b984-fbbd0443c40e
7b1e5b74-519a-11ea-9d6c-8fcfce90781b,7b1ed784-519a-11ea-91b8-4b47dfe7ad6d
7b1d43ec-519a-11ea-88d5-9f1edec24c3a,7b1ee5da-519a-11ea-9f9c-eba034ab2870
7b1e7cee-519a-11ea-9354-afb35b5dcd60,7b1ef48a-519a-11ea-a17f-37d891995ae7
7b1ba712-519a-11ea-8201-db2ca7b1e444,7b1f2982-519a-11ea-8e49-27f2b67f3ddc
7b1e7cee-519a-11ea-9354-afb35b5dcd60,7b1f4c50-519a-11ea-940b-a7fc74f8d1b8
7b1b420e-519a-11ea-af9a-574235b05228,7b1f7040-519a-11ea-ac42-bbe97642b6b2
7b1e7cee-519a-11ea-9354-afb35b5dcd60,7b1f81de-519a-11ea-8cd0-e3ae2f426b05
7b1e5b74-519a-11ea-9d6c-8fcfce90781b,7b1f92fa-519a-11ea-88b0-fb14f3bf43c1
7b1c082e-519a-11ea-b7e1-3b4eded8f075,7b1fb820-519a-11ea-bd12-a7d89b5c58ff
7b1d7c5e-519a-11ea-90ec-7b99758c14b5,7b1fecdc-519a-11ea-a8c4-3b6c704c2cee
7b1d6566-519a-11ea-a413-9bfc2a233aca,7b1ffc40-519a-11ea-9afa-ffcc374dffd5
7b1f7040-519a-11ea-ac42-bbe97642b6b2,7b200be0-519a-11ea-8a0f-a3b5c30ff18a
7b1fb820-519a-11ea-bd12-a7d89b5c58ff,7b204f56-519a-11ea-ae7b-3bf790349a0e
7b1bc3aa-519a-11ea-83a9-a3f66311a485,7b2062fc-519a-11ea-a01c-9b9d360482ac
7b1c5c16-519a-11ea-8584-c31b5e3d18a7,7b207274-519a-11ea-a155-e7aab314f3bd
7b1b2a08-519a-11ea-ab85-17b055f9d2be,7b207fc6-519a-11ea-9b27-7fc0e9f5b154
7b200be0-519a-11ea-8a0f-a3b5c30ff18a,7b20ca26-519a-11ea-b1c9-8f2d56898da6
7b1da8e6-519a-11ea-86d7-db43e7d65216,7b20dc64-519a-11ea-b019-ff04a864901a
7b2062fc-519a-11ea-a01c-9b9d360482ac,7b20eb46-519a-11ea-9394-53e825fd4377
7b1ef48a-519a-11ea-a17f-37d891995ae7,7b20f9ce-519a-11ea-8568-d78cb3e29908
7b1d7c5e-519a-11ea-90ec-7b99758c14b5,7b216bc0-519a-11ea-82ea-bbe363771941
7b1e5b74-519a-11ea-9d6c-8fcfce90781b,7b21635a-519a-11ea-8916-23e9680c30cf
7b204f56-519a-11ea-ae7b-3bf790349a0e,7b2184c0-519a-11ea-9c28-1bfd065ff0ba
7b1c082e-519a-11ea-b7e1-3b4eded8f075,7b2194c4-519a-11ea-84ef-6fcafb0fc682
7b20eb46-519a-11ea-9394-53e825fd4377,7b21de16-519a-11ea-ad3c-637bf394786d
7b20f9ce-519a-11ea-8568-d78cb3e29908,7b21f504-519a-11ea-ab83-1f0b010bce05
7b1c85ba-519a-11ea-ad69-a36a0f563477,7b220616-519a-11ea-9c04-b72982a7805c
7b1c85ba-519a-11ea-ad69-a36a0f563477,7b2219c6-519a-11ea-b498-cbfa5808569e
7b1dcc72-519a-11ea-9df9-f3ffd37deeaa,7b2266ec-519a-11ea-86f2-437ecbace89e
7b1e7cee-519a-11ea-9354-afb35b5dcd60,7b228e60-519a-11ea-8cbe-abe512ff66aa
7b20eb46-519a-11ea-9394-53e825fd4377,7b22b246-519a-11ea-b2bc-7b631bfea835
7b1b2a08-519a-11ea-ab85-17b055f9d2be,7b22c7cc-519a-11ea-8316-a7bf4e3d6833
7b1fecdc-519a-11ea-a8c4-3b6c704c2cee,7b22ea68-519a-11ea-abd3-e7c4e7b750f5
7b21de16-519a-11ea-ad3c-637bf394786d,7b2314fc-519a-11ea-8211-f3edfba393fd
7b2194c4-519a-11ea-84ef-6fcafb0fc682,7b233a22-519a-11ea-a563-c7a9a6b502ce
7b2314fc-519a-11ea-8211-f3edfba393fd,7b23760e-519a-11ea-a27c-9744040a768b
7b207274-519a-11ea-a155-e7aab314f3bd,7b23a138-519a-11ea-8723-0f76349f7674
7b21635a-519a-11ea-8916-23e9680c30cf,7b23b236-519a-11ea-85fb-a7ffa3c55486
7b1c082e-519a-11ea-b7e1-3b4eded8f075,7b23e5da-519a-11ea-a393-7f405207fe98
7b1f92fa-519a-11ea-88b0-fb14f3bf43c1,7b241bfe-519a-11ea-8642-c394ead7f952
7b1b6da6-519a-11ea-8045-b7409a847454,7b242ffe-519a-11ea-bd58-d3de1d18b163
7b1cabee-519a-11ea-a162-b76e8b866c38,7b24421e-519a-11ea-8a21-af4fa7b70a02
7b20dc64-519a-11ea-b019-ff04a864901a,7b245420-519a-11ea-9a71-030f7fd30e66
7b220616-519a-11ea-9c04-b72982a7805c,7b24b47e-519a-11ea-ad81-f36c9d615dc0
7b2184c0-519a-11ea-9c28-1bfd065ff0ba,7b24c8ec-519a-11ea-8c77-c3d60c70d70f
7b23b236-519a-11ea-85fb-a7ffa3c55486,7b24dab2-519a-11ea-a56a-a73ac9691b6c
7b207274-519a-11ea-a155-e7aab314f3bd,7b24ebb0-519a-11ea-88f4-23d39bd76c50
7b1f7040-519a-11ea-ac42-bbe97642b6b2,7b255eba-519a-11ea-b043-438e6debf075
7b1c5c16-519a-11ea-8584-c31b5e3d18a7,7b257012-519a-11ea-84b0-7738a3086935
7b1c082e-519a-11ea-b7e1-3b4eded8f075,7b2584b2-519a-11ea-8c5f-03613b48b44f
7b23b236-519a-11ea-85fb-a7ffa3c55486,7b25a424-519a-11ea-bd62-a317af8129ae
7b1b6da6-519a-11ea-8045-b7409a847454,7b25d354-519a-11ea-a852-cfb9cb38ed28
7b24c8ec-519a-11ea-8c77-c3d60c70d70f,7b25f1c2-519a-11ea-bda8-f7b75ee48e59
7b2314fc-519a-11ea-8211-f3edfba393fd,7b2610f8-519a-11ea-b63c-bb8a1112bd8b
7b1e260e-519a-11ea-9dbc-af8837e28f82,7b2643b6-519a-11ea-b300-9fa49b0f7343
7b1fb820-519a-11ea-bd12-a7d89b5c58ff,7b26590a-519a-11ea-818f-ff3cd065d405
7b1cabee-519a-11ea-a162-b76e8b866c38,7b2669fe-519a-11ea-95ef-2f2a1fd2593e
7b1c85ba-519a-11ea-ad69-a36a0f563477,7b267dc2-519a-11ea-a69a-2f0b39b239c8
7b24c8ec-519a-11ea-8c77-c3d60c70d70f,7b26bbf2-519a-11ea-9df3-9f5a4772f5c2
7b24ebb0-519a-11ea-88f4-23d39bd76c50,7b26e08c-519a-11ea-8518-e7d68eaa4af5
7b1c70fc-519a-11ea-833d-c3311ec87993,7b26f61c-519a-11ea-9a21-5b3c3aefed5f
7b21635a-519a-11ea-8916-23e9680c30cf,7b2727fe-519a-11ea-a53b-bf8f4d8fa3f4
7b255eba-519a-11ea-b043-438e6debf075,7b27612e-519a-11ea-8e4d-5bb3a7699f04
7b1b2a08-519a-11ea-ab85-17b055f9d2be,7b277240-519a-11ea-b80d-8be814095b08
7b1ee5da-519a-11ea-9f9c-eba034ab2870,7b278442-519a-11ea-8a67-4ba08a8d50c5
7b1fecdc-519a-11ea-a8c4-3b6c704c2cee,7b27c2ae-519a-11ea-82f0-7f757e15b489
7b2062fc-519a-11ea-a01c-9b9d360482ac,7b27e144-519a-11ea-a3ce-433553193368
7b22ea68-519a-11ea-abd3-e7c4e7b750f5,7b27f1ac-519a-11ea-91a2-e7eb38bc57d0
7b23b236-519a-11ea-85fb-a7ffa3c55486,7b281dee-519a-11ea-be1f-6bef3e8f9e33
7b27c2ae-519a-11ea-82f0-7f757e15b489,7b282fc8-519a-11ea-84a2-17e4ba3d1d1e
7b1da8e6-519a-11ea-86d7-db43e7d65216,7b285c00-519a-11ea-98f9-eb97f5b6bd15
7b277240-519a-11ea-b80d-8be814095b08,7b286c5e-519a-11ea-9a93-8b4710b4e586
7b21f504-519a-11ea-ab83-1f0b010bce05,7b288a4a-519a-11ea-bc93-abfb672aeb81
7b257012-519a-11ea-84b0-7738a3086935,7b28992c-519a-11ea-9899-e723d55fd5b4
7b207fc6-519a-11ea-9b27-7fc0e9f5b154,7b28fc8c-519a-11ea-8bd9-1bcdececfdbf
7b1c70fc-519a-11ea-833d-c3311ec87993,7b291672-519a-11ea-83fd-4fb147386c0d
7b1e3eaa-519a-11ea-818d-87476fc205cb,7b292ad6-519a-11ea-935b-13fa0c8b0144
7b22c7cc-519a-11ea-8316-a7bf4e3d6833,7b293d5a-519a-11ea-9219-f782feb2f28b
7b2584b2-519a-11ea-8c5f-03613b48b44f,7b299598-519a-11ea-af28-574aa88e7c5b
7b288a4a-519a-11ea-bc93-abfb672aeb81,7b29aae2-519a-11ea-a49e-aff6470b2530
7b291672-519a-11ea-83fd-4fb147386c0d,7b29bb4a-519a-11ea-98ef-3bb2be459290
7b220616-519a-11ea-9c04-b72982a7805c,7b29cbbc-519a-11ea-9a40-5f39fb48a49f
7b267dc2-519a-11ea-a69a-2f0b39b239c8,7b2a0bcc-519a-11ea-ae5e-4346ba423754
7b1fb820-519a-11ea-bd12-a7d89b5c58ff,7b2a25da-519a-11ea-965d-53948544d239
7b28fc8c-519a-11ea-8bd9-1bcdececfdbf,7b2a3692-519a-11ea-87fd-eb672b8a578d
7b1ed784-519a-11ea-91b8-4b47dfe7ad6d,7b2a5712-519a-11ea-b4d5-cbe9fc1a89a1
7b1f92fa-519a-11ea-88b0-fb14f3bf43c1,7b2a73e6-519a-11ea-8800-374c401a5fec
7b207274-519a-11ea-a155-e7aab314f3bd,7b2a8426-519a-11ea-b560-5bad8380f327
7b2643b6-519a-11ea-b300-9fa49b0f7343,7b2abc48-519a-11ea-92d7-43d18360cf23
7b29bb4a-519a-11ea-98ef-3bb2be459290,7b2acb20-519a-11ea-8841-a79fe705f2fd
7b2a0bcc-519a-11ea-ae5e-4346ba423754,7b2aec7c-519a-11ea-90d7-13c00bde3311
7b2acb20-519a-11ea-8841-a79fe705f2fd,7b2b3826-519a-11ea-af16-e3834078d35d
7b20eb46-519a-11ea-9394-53e825fd4377,7b2b276e-519a-11ea-9aeb-ffc40d990674
7b22ea68-519a-11ea-abd3-e7c4e7b750f5,7b2b48c0-519a-11ea-a4f1-87df06e1ffde
7b1b6da6-519a-11ea-8045-b7409a847454,7b2b5c70-519a-11ea-9c7f-5316843584e8
7b23760e-519a-11ea-a27c-9744040a768b,7b2bba9e-519a-11ea-bdc0-d7e0e4ef51c8
7b25d354-519a-11ea-a852-cfb9cb38ed28,7b2bcb6a-519a-11ea-8670-8f4b1444ac96
7b1b2a08-519a-11ea-ab85-17b055f9d2be,7b2bdcd6-519a-11ea-a1ec-f75cf7e89240
7b1ba712-519a-11ea-8201-db2ca7b1e444,7b2bfea0-519a-11ea-b7a8-8f178f10b811
7b2062fc-519a-11ea-a01c-9b9d360482ac,7b2c47d4-519a-11ea-a540-9f97bb20a739
7b1c171a-519a-11ea-bdff-5b78af5cb229,7b2c61ce-519a-11ea-b5eb-b733c8e8f271
7b1f92fa-519a-11ea-88b0-fb14f3bf43c1,7b2c734e-519a-11ea-b838-bba3cad9322b
7b2a0bcc-519a-11ea-ae5e-4346ba423754,7b2c97ac-519a-11ea-999c-3f0fc0c7b50a
7b204f56-519a-11ea-ae7b-3bf790349a0e,7b2cf620-519a-11ea-a697-5b35f8856657
7b26590a-519a-11ea-818f-ff3cd065d405,7b2d0eda-519a-11ea-a8aa-ebaf69a796fe
7b285c00-519a-11ea-98f9-eb97f5b6bd15,7b2d36b2-519a-11ea-8f17-97cd36cbfc60
7b1e7cee-519a-11ea-9354-afb35b5dcd60,7b2d6bf0-519a-11ea-ba36-73d244003f69
7b1b2a08-519a-11ea-ab85-17b055f9d2be,7b2d7f28-519a-11ea-9f28-478a7f50ecac
7b1ed784-519a-11ea-91b8-4b47dfe7ad6d,7b2dab60-519a-11ea-b433-777569a1636b
7b2bba9e-519a-11ea-bdc0-d7e0e4ef51c8,7b2dbfba-519a-11ea-aaea-93eedc6efe8d
7b2194c4-519a-11ea-84ef-6fcafb0fc682,7b2def58-519a-11ea-abf1-cf01780e5fc3
7b1d43ec-519a-11ea-88d5-9f1edec24c3a,7b2e0ac4-519a-11ea-92c0-472755299e35
7b1d7c5e-519a-11ea-90ec-7b99758c14b5,7b2e2c66-519a-11ea-ab9f-8b0834dec2ca
7b242ffe-519a-11ea-bd58-d3de1d18b163,7b2e4962-519a-11ea-a1ad-6be3d3d8e67e
7b1f7040-519a-11ea-ac42-bbe97642b6b2,7b2e6816-519a-11ea-aa13-cb4906d7c9d8
7b2dab60-519a-11ea-b433-777569a1636b,7b2ea68c-519a-11ea-9d7d-873b983d37d1
7b285c00-519a-11ea-98f9-eb97f5b6bd15,7b2eb898-519a-11ea-8f83-9baf0f3fa61b
7b278442-519a-11ea-8a67-4ba08a8d50c5,7b2ee2d2-519a-11ea-981c-1bad0db1fde0
7b1da8e6-519a-11ea-86d7-db43e7d65216,7b2f2b5c-519a-11ea-9e5f-db65e4aa4170
7b2219c6-519a-11ea-b498-cbfa5808569e,7b2f3da4-519a-11ea-a16e-b74fcd6ce0cc
7b1b2a08-519a-11ea-ab85-17b055f9d2be,7b2f5104-519a-11ea-8601-0f5b7a3273e2
7b2a73e6-519a-11ea-8800-374c401a5fec,7b2f6144-519a-11ea-a050-a3e61083a411
7b1f81de-519a-11ea-8cd0-e3ae2f426b05,7b2f9e34-519a-11ea-902c-5f3361b9881f
7b1fecdc-519a-11ea-a8c4-3b6c704c2cee,7b2fb0b8-519a-11ea-b688-d73ac193bb4c
7b2e2c66-519a-11ea-ab9f-8b0834dec2ca,7b2fda8e-519a-11ea-83cf-d7afc81b2c00
7b24c8ec-519a-11ea-8c77-c3d60c70d70f,7b30055e-519a-11ea-a9ba-ef8cd106dbe9
7b2d36b2-519a-11ea-8f17-97cd36cbfc60,7b303f2e-519a-11ea-9673-f393e15ca253
7b1cbf80-519a-11ea-b40f-7f12c9f281ca,7b3050e0-519a-11ea-87ab-d32b6114b04b
7b1dcc72-519a-11ea-9df9-f3ffd37deeaa,7b306378-519a-11ea-8da2-338372970129
7b2f6144-519a-11ea-a050-a3e61083a411,7b30a5a4-519a-11ea-a96c-5fb1491a466e
7b2dab60-519a-11ea-b433-777569a1636b,7b30bc42-519a-11ea-ae40-3bcdfd1276db
7b21f504-519a-11ea-ab83-1f0b010bce05,7b30cff2-519a-11ea-91da-abe440f9363b
7b28fc8c-519a-11ea-8bd9-1bcdececfdbf,7b30e852-519a-11ea-92b3-3f4ab916889e
7b2dbfba-519a-11ea-aaea-93eedc6efe8d,7b3126d2-519a-11ea-8a22-8bb54f5e60fb
7b1cbf80-519a-11ea-b40f-7f12c9f281ca,7b313ed8-519a-11ea-b871-971c722f9e2a
7b3050e0-519a-11ea-87ab-d32b6114b04b,7b315760-519a-11ea-8a5f-eb3f2ba82804
7b2a8426-519a-11ea-b560-5bad8380f327,7b316aa2-519a-11ea-ba0b-13543b52b83b
7b2c734e-519a-11ea-b838-bba3cad9322b,7b31a0ee-519a-11ea-9d72-4bead2b0f367
7b299598-519a-11ea-af28-574aa88e7c5b,7b31b48a-519a-11ea-b0c7-6b99f23056af
7b2acb20-519a-11ea-8841-a79fe705f2fd,7b3206f6-519a-11ea-841c-a716756ed1b0
7b1e5b74-519a-11ea-9d6c-8fcfce90781b,7b321b64-519a-11ea-8340-674e33a1a160
7b267dc2-519a-11ea-a69a-2f0b39b239c8,7b322e60-519a-11ea-a955-3fc385b2d6fa
7b1bc3aa-519a-11ea-83a9-a3f66311a485,7b323d10-519a-11ea-801d-079a092b20f5
7b24dab2-519a-11ea-a56a-a73ac9691b6c,7b3295ee-519a-11ea-a1d9-67e25492ba76
7b31a0ee-519a-11ea-9d72-4bead2b0f367,7b32c708-519a-11ea-abc2-03b97de06655
7b1fb820-519a-11ea-bd12-a7d89b5c58ff,7b32d91e-519a-11ea-89a7-2340a5e3598b
7b26e08c-519a-11ea-8518-e7d68eaa4af5,7b32f93a-519a-11ea-bde4-03977b0ede47
7b2f5104-519a-11ea-8601-0f5b7a3273e2,7b3316cc-519a-11ea-aea4-dffb65d50809
7b2abc48-519a-11ea-92d7-43d18360cf23,7b3355ba-519a-11ea-8b87-63e9d7c00cec
7b2d36b2-519a-11ea-8f17-97cd36cbfc60,7b336898-519a-11ea-95ae-9f554b844598
7b204f56-519a-11ea-ae7b-3bf790349a0e,7b337a72-519a-11ea-a979-47c2eee050fd
7b2727fe-519a-11ea-a53b-bf8f4d8fa3f4,7b338aee-519a-11ea-8031-a7eee64cef98
7b233a22-519a-11ea-a563-c7a9a6b502ce,7b33e746-519a-11ea-b7c6-f3460f0e8392
7b1ffc40-519a-11ea-9afa-ffcc374dffd5,7b33fb46-519a-11ea-8c13-0b2fc5e8344b
7b32c708-519a-11ea-abc2-03b97de06655,7b340bb8-519a-11ea-b325-1f15287b99e2
7b2e4962-519a-11ea-a1ad-6be3d3d8e67e,7b341d56-519a-11ea-bc98-c71c93ada04a
7b3126d2-519a-11ea-8a22-8bb54f5e60fb,7b34947a-519a-11ea-a7b2-3751256a1982
7b2bba9e-519a-11ea-bdc0-d7e0e4ef51c8,7b34a85c-519a-11ea-b266-27ac38a129c6
7b1ed784-519a-11ea-91b8-4b47dfe7ad6d,7b34bdf6-519a-11ea-9bde-1b51c1bb0e5d
7b267dc2-519a-11ea-a69a-2f0b39b239c8,7b34ce0e-519a-11ea-8d5e-4f3af39e434c
7b27c2ae-519a-11ea-82f0-7f757e15b489,7b3514cc-519a-11ea-9b8e-d315ec0a1745
7b1cabee-519a-11ea-a162-b76e8b866c38,7b352c96-519a-11ea-b99f-3f8aac5b9fce
7b207fc6-519a-11ea-9b27-7fc0e9f5b154,7b353ec0-519a-11ea-a9c4-13ab309b8648
7b22ea68-519a-11ea-abd3-e7c4e7b750f5,7b35520c-519a-11ea-8f6c-1b22cc076615
7b321b64-519a-11ea-8340-674e33a1a160,7b35a144-519a-11ea-a588-434ee5e2cc21
7b30055e-519a-11ea-a9ba-ef8cd106dbe9,7b35b3b4-519a-11ea-8865-3f5af8d8673e
7b323d10-519a-11ea-801d-079a092b20f5,7b35c804-519a-11ea-9d79-bf93449b00c7
7b3316cc-519a-11ea-aea4-dffb65d50809,7b35d8da-519a-11ea-a1ef-0bed4b2f1b82
7b2e2c66-519a-11ea-ab9f-8b0834dec2ca,7b360fda-519a-11ea-8a81-fb3269370c8f
7b2a3692-519a-11ea-87fd-eb672b8a578d,7b362fe2-519a-11ea-ac64-9b18cc12cd57
7b30cff2-519a-11ea-91da-abe440f9363b,7b364f36-519a-11ea-b140-67de18c65a67
7b25f1c2-519a-11ea-bda8-f7b75ee48e59,7b367182-519a-11ea-b480-f7e2e6e0203e
7b2f6144-519a-11ea-a050-a3e61083a411,7b3682a8-519a-11ea-b7c2-d39c47c6a1bd
7b242ffe-519a-11ea-bd58-d3de1d18b163,7b36ce2a-519a-11ea-bde3-ff71bba7718f
7b2cf620-519a-11ea-a697-5b35f8856657,7b36de38-519a-11ea-b42b-2fb37d9b4921
7b1ed784-519a-11ea-91b8-4b47dfe7ad6d,7b36ef2c-519a-11ea-9e07-8bcaf60659d8
7b303f2e-519a-11ea-9673-f393e15ca253,7b371aa6-519a-11ea-a6a5-97730562e503
7b2ee2d2-519a-11ea-981c-1bad0db1fde0,7b374c92-519a-11ea-88a8-93d560f86668
7b35520c-519a-11ea-8f6c-1b22cc076615,7b37776c-519a-11ea-a4ca-53538bf6a448
7b35b3b4-519a-11ea-8865-3f5af8d8673e,7b378806-519a-11ea-a30c-170710272f01
7b2eb898-519a-11ea-8f83-9baf0f3fa61b,7b379ae4-519a-11ea-b789-1317c0406e9b
7b20dc64-519a-11ea-b019-ff04a864901a,7b37d568-519a-11ea-bdb7-0325ffaad748
7b204f56-519a-11ea-ae7b-3bf790349a0e,7b37f458-519a-11ea-8e17-d718312f1d9f
7b379ae4-519a-11ea-b789-1317c0406e9b,7b380902-519a-11ea-a6b9-6360490576dc
7b207274-519a-11ea-a155-e7aab314f3bd,7b38255e-519a-11ea-8851-2f95c0d5fb26
7b23a138-519a-11ea-8723-0f76349f7674,7b387eaa-519a-11ea-95be-5b2c3da55152
7b33fb46-519a-11ea-8c13-0b2fc5e8344b,7b389796-519a-11ea-affa-07b541b6c906
7b337a72-519a-11ea-a979-47c2eee050fd,7b38afe2-519a-11ea-980b-b7b183c70504
7b367182-519a-11ea-b480-f7e2e6e0203e,7b38d4ae-519a-11ea-8e19-fbfa86ceb4f8
7b20dc64-519a-11ea-b019-ff04a864901a,7b3914fa-519a-11ea-94cc-37fdbd56565a
7b2eb898-519a-11ea-8f83-9baf0f3fa61b,7b39277e-519a-11ea-8caa-a3aabe9e49ff
7b1cbf80-519a-11ea-b40f-7f12c9f281ca,7b394ff6-519a-11ea-8fc5-cbe581cf8572
7b340bb8-519a-11ea-b325-1f15287b99e2,7b396446-519a-11ea-a408-fb5bacf89e97
7b25f1c2-519a-11ea-bda8-f7b75ee48e59,7b39d458-519a-11ea-b831-d7906f438823
7b1ef48a-519a-11ea-a17f-37d891995ae7,7b39e9d4-519a-11ea-ace9-77490b12034f
7b341d56-519a-11ea-bc98-c71c93ada04a,7b39fbe0-519a-11ea-9ab7-ab3739365579
7b30a5a4-519a-11ea-a96c-5fb1491a466e,7b3a0c20-519a-11ea-a60f-73cee8f08c43
7b1c082e-519a-11ea-b7e1-3b4eded8f075,7b3a5504-519a-11ea-9c28-bb15e5e7cc74
7b2eb898-519a-11ea-8f83-9baf0f3fa61b,7b3a9a50-519a-11ea-addd-47219b32509e
7b3a5504-519a-11ea-9c28-bb15e5e7cc74,7b3ab47c-519a-11ea-a0af-f73c9dbcb5dc
7b367182-519a-11ea-b480-f7e2e6e0203e,7b3acba6-519a-11ea-be03-7b3555b3f051
7b23e5da-519a-11ea-a393-7f405207fe98,7b3adfc4-519a-11ea-8c99-5770a9b42173
7b20f9ce-519a-11ea-8568-d78cb3e29908,7b3b29f2-519a-11ea-8211-27fbfdbd0893
7b3355ba-519a-11ea-8b87-63e9d7c00cec,7b3b547c-519a-11ea-a352-639d0e350892
7b2bba9e-519a-11ea-bdc0-d7e0e4ef51c8,7b3b772c-519a-11ea-9fe5-4f28463b591d
7b33e746-519a-11ea-b7c6-f3460f0e8392,7b3b8d7a-519a-11ea-adca-879ff066cfdc
7b33fb46-519a-11ea-8c13-0b2fc5e8344b,7b3b9efa-519a-11ea-9a4f-a7bc635e181b
7b286c5e-519a-11ea-9a93-8b4710b4e586,7b3bf986-519a-11ea-8c20-03d9bc1ca4be
7b341d56-519a-11ea-bc98-c71c93ada04a,7b3c0ec6-519a-11ea-9a03-fb60fcc07fca
7b32f93a-519a-11ea-bde4-03977b0ede47,7b3c2726-519a-11ea-a328-0730bec0642a
7b29aae2-519a-11ea-a49e-aff6470b2530,7b3c561a-519a-11ea-98b6-570385d459d3
7b2669fe-519a-11ea-95ef-2f2a1fd2593e,7b3c8a36-519a-11ea-8ffd-d7e9e1b41c15
7b22ea68-519a-11ea-abd3-e7c4e7b750f5,7b3ca1ec-519a-11ea-aee6-07eb78ef6a44
7b1e5b74-519a-11ea-9d6c-8fcfce90781b,7b3cdcf2-519a-11ea-9920-ab0923be2617
7b1fecdc-519a-11ea-a8c4-3b6c704c2cee,7b3ceeae-519a-11ea-a7d8-e76c60d4d69c
7b228e60-519a-11ea-8cbe-abe512ff66aa,7b3d0f6a-519a-11ea-87e6-bb97d8fb2ec1
7b30a5a4-519a-11ea-a96c-5fb1491a466e,7b3d21a8-519a-11ea-ad63-bbc99f5ff3a4
7b257012-519a-11ea-84b0-7738a3086935,7b3d4b4c-519a-11ea-aa0b-134263ba4576
7b362fe2-519a-11ea-ac64-9b18cc12cd57,7b3d849a-519a-11ea-ba0c-3f4041be9600
7b1c5c16-519a-11ea-8584-c31b5e3d18a7,7b3d98cc-519a-11ea-9c48-6f0529ce2820
7b27e144-519a-11ea-a3ce-433553193368,7b3dc4dc-519a-11ea-a57c-e322813def84
7b2b3826-519a-11ea-af16-e3834078d35d,7b3dd7c4-519a-11ea-83b2-d3e2685bc274
7b3d4b4c-519a-11ea-aa0b-134263ba4576,7b3e30fc-519a-11ea-8ba5-933805280cb7
7b278442-519a-11ea-8a67-4ba08a8d50c5,7b3e54c4-519a-11ea-a47c-2b969ed9e040
7b3b772c-519a-11ea-9fe5-4f28463b591d,7b3e7058-519a-11ea-8512-5364a0e9dc9f
7b1cabee-519a-11ea-a162-b76e8b866c38,7b3e8624-519a-11ea-af3e-77ca919af66b
7b2d36b2-519a-11ea-8f17-97cd36cbfc60,7b3ed804-519a-11ea-b9fc-a70680fa12c0
7b35b3b4-519a-11ea-8865-3f5af8d8673e,7b3eff14-519a-11ea-af1c-979090a0e192
7b2aec7c-519a-11ea-90d7-13c00bde3311,7b3f1256-519a-11ea-8a96-6755a63a982c
7b1ebd6c-519a-11ea-b984-fbbd0443c40e,7b3f22be-519a-11ea-aad6-4f90a4862b30
7b303f2e-519a-11ea-9673-f393e15ca253,7b3f860a-519a-11ea-ad5d-5fe82308a3a1
7b26e08c-519a-11ea-8518-e7d68eaa4af5,7b3fb51c-519a-11ea-9955-fb53e8d62598
7b35520c-519a-11ea-8f6c-1b22cc076615,7b3fcb10-519a-11ea-b836-43946f3e0d24
7b2584b2-519a-11ea-8c5f-03613b48b44f,7b3fe1f4-519a-11ea-87d5-4b8ba9910961
7b3b9efa-519a-11ea-9a4f-a7bc635e181b,7b400efe-519a-11ea-8c34-2f9ade7bfb6b
7b3dd7c4-519a-11ea-83b2-d3e2685bc274,7b4021f0-519a-11ea-b8d4-036439576dc0
7b2bcb6a-519a-11ea-8670-8f4b1444ac96,7b406264-519a-11ea-9826-6b56aead2589
7b1e7cee-519a-11ea-9354-afb35b5dcd60,7b4082ee-519a-11ea-b3ba-772cb118387e
7b341d56-519a-11ea-bc98-c71c93ada04a,7b40954a-519a-11ea-a81f-57b70aab21bb
7b316aa2-519a-11ea-ba0b-13543b52b83b,7b40da50-519a-11ea-bfd9-03ac9e6f2d52
7b2a73e6-519a-11ea-8800-374c401a5fec,7b40edc4-519a-11ea-a083-e778f478d8f1
7b360fda-519a-11ea-8a81-fb3269370c8f,7b412a8c-519a-11ea-b168-bb64664f7503
7b1e4d00-519a-11ea-a566-d3f18cc17e8a,7b414e72-519a-11ea-98bc-47e634b0ebf5
7b1da8e6-519a-11ea-86d7-db43e7d65216,7b41958a-519a-11ea-9202-870ac71dbf5f
7b242ffe-519a-11ea-bd58-d3de1d18b163,7b41ab56-519a-11ea-8b5d-cbf6b27e9ea9
7b353ec0-519a-11ea-a9c4-13ab309b8648,7b41d338-519a-11ea-8e07-9b1c15677f83
7b23a138-519a-11ea-8723-0f76349f7674,7b41ef4e-519a-11ea-84aa-130f1e6d9274
7b2e4962-519a-11ea-a1ad-6be3d3d8e67e,7b4216fe-519a-11ea-938e-ab31fcf66dac
7b3b9efa-519a-11ea-9a4f-a7bc635e181b,7b424cbe-519a-11ea-9d55-c32bfc7d1954
7b3d4b4c-519a-11ea-aa0b-134263ba4576,7b428896-519a-11ea-b039-7b6b36fef42a
7b293d5a-519a-11ea-9219-f782feb2f28b,7b429d40-519a-11ea-a19e-8ff9bfbaf06c
7b1f7040-519a-11ea-ac42-bbe97642b6b2,7b42ad26-519a-11ea-acdb-9bb79733a48d
7b23b236-519a-11ea-85fb-a7ffa3c55486,7b42efca-519a-11ea-afa8-eb1823c69434
7b414e72-519a-11ea-98bc-47e634b0ebf5,7b430a32-519a-11ea-9f39-2bd9f6933453
7b3b772c-519a-11ea-9fe5-4f28463b591d,7b431c84-519a-11ea-bd64-67e687705c09
7b2a0bcc-519a-11ea-ae5e-4346ba423754,7b433642-519a-11ea-a2bc-a7fb961d8b9e
7b2062fc-519a-11ea-a01c-9b9d360482ac,7b439c86-519a-11ea-9844-c382f2595d46
7b2c734e-519a-11ea-b838-bba3cad9322b,7b43b748-519a-11ea-8a97-4b0b6b506afd
7b2f2b5c-519a-11ea-9e5f-db65e4aa4170,7b43cb7a-519a-11ea-ba56-672162d7c8f8
7b3cdcf2-519a-11ea-9920-ab0923be2617,7b43dcc8-519a-11ea-ad0b-a7a1599c2c44
7b3b547c-519a-11ea-a352-639d0e350892,7b441bde-519a-11ea-a9d5-533c5c0a9a80
7b3fe1f4-519a-11ea-87d5-4b8ba9910961,7b44474e-519a-11ea-a960-7382ca1adb69
7b323d10-519a-11ea-801d-079a092b20f5,7b445a18-519a-11ea-8d64-ef4828b42eab
7b20dc64-519a-11ea-b019-ff04a864901a,7b446c60-519a-11ea-8d38-bb076f0d5ed1
7b3cdcf2-519a-11ea-9920-ab0923be2617,7b44a04a-519a-11ea-94b1-bbc36b5f9915
7b1c9794-519a-11ea-9de4-976a041eb78a,7b44b8c8-519a-11ea-b271-eb58e1aa2a2e
7b20eb46-519a-11ea-9394-53e825fd4377,7b44d542-519a-11ea-9cde-0f9ef4837f89
7b204f56-519a-11ea-ae7b-3bf790349a0e,7b44e816-519a-11ea-b302-7b51c27f423a
7b216bc0-519a-11ea-82ea-bbe363771941,7b452ede-519a-11ea-9170-a35cab018a3b
7b1d43ec-519a-11ea-88d5-9f1edec24c3a,7b4562c8-519a-11ea-a5b7-9be9c7a3114b
7b414e72-519a-11ea-98bc-47e634b0ebf5,7b4574ca-519a-11ea-8a68-fb4bb97341c0
7b2b276e-519a-11ea-9aeb-ffc40d990674,7b4586f4-519a-11ea-bbb2-3b40faeef984
7b3206f6-519a-11ea-841c-a716756ed1b0,7b45c7e0-519a-11ea-9bd2-af77ca11a230
7b3a0c20-519a-11ea-a60f-73cee8f08c43,7b45f922-519a-11ea-a986-3b62394d08eb
7b3355ba-519a-11ea-8b87-63e9d7c00cec,7b46170e-519a-11ea-a8b6-0f8b1086fad4
7b1ef48a-519a-11ea-a17f-37d891995ae7,7b462e24-519a-11ea-8f8a-e32da537e8fe
7b25d354-519a-11ea-a852-cfb9cb38ed28,7b4656a6-519a-11ea-a582-c36d11a3f250
7b3355ba-519a-11ea-8b87-63e9d7c00cec,7b466934-519a-11ea-97c1-4fb9647bc00f
7b362fe2-519a-11ea-ac64-9b18cc12cd57,7b46c5c8-519a-11ea-8c9e-2bc236cab4f6
7b20dc64-519a-11ea-b019-ff04a864901a,7b46d8b0-519a-11ea-b98a-2fbd490181ff
7b25d354-519a-11ea-a852-cfb9cb38ed28,7b46f34a-519a-11ea-92c5-7f35d0c356ae
7b3b8d7a-519a-11ea-adca-879ff066cfdc,7b4703ee-519a-11ea-8681-f7241f84d1f5
7b1ef48a-519a-11ea-a17f-37d891995ae7,7b47464c-519a-11ea-8479-2b21e0a25016
7b462e24-519a-11ea-8f8a-e32da537e8fe,7b476d16-519a-11ea-93b9-ef38c637b90c
7b1dcc72-519a-11ea-9df9-f3ffd37deeaa,7b478fd0-519a-11ea-bc42-6bbe592ae49b
7b29cbbc-519a-11ea-9a40-5f39fb48a49f,7b47a948-519a-11ea-b9c1-4b73fd381809
7b1fb820-519a-11ea-bd12-a7d89b5c58ff,7b47e822-519a-11ea-bd48-d3d523fa89b8
7b281dee-519a-11ea-be1f-6bef3e8f9e33,7b47f9fc-519a-11ea-84a1-33dc9489b06d
7b2ea68c-519a-11ea-9d7d-873b983d37d1,7b48173e-519a-11ea-a405-1f8770abdda2
7b2219c6-519a-11ea-b498-cbfa5808569e,7b482eae-519a-11ea-80eb-ebdcad522779
7b34947a-519a-11ea-a7b2-3751256a1982,7b488de0-519a-11ea-b276-732aa398353b
7b1b59c4-519a-11ea-a28f-c36fa4f476fa,7b488e58-519a-11ea-acc4-c3d05b5f7abf
7b3eff14-519a-11ea-af1c-979090a0e192,7b48dc78-519a-11ea-a2d2-efd2a3a16ae2
7b1d35b4-519a-11ea-b4f8-134fd2d4ae0d,7b48ed44-519a-11ea-86f1-37010edbc447
7b35d8da-519a-11ea-a1ef-0bed4b2f1b82,7b490ec8-519a-11ea-96e6-fb13571e2f14
7b48dc78-519a-11ea-a2d2-efd2a3a16ae2,7b49398e-519a-11ea-aa5e-1fbf270f3cfc
7b30cff2-519a-11ea-91da-abe440f9363b,7b494d0c-519a-11ea-8c18-27cbe3e6ce75
7b321b64-519a-11ea-8340-674e33a1a160,7b4971b0-519a-11ea-9566-47bf43cead4b
7b39d458-519a-11ea-b831-d7906f438823,7b498998-519a-11ea-9182-e34eb2f754d2
7b267dc2-519a-11ea-a69a-2f0b39b239c8,7b49b986-519a-11ea-9031-c7ec63225490
7b46170e-519a-11ea-a8b6-0f8b1086fad4,7b49ec94-519a-11ea-a4e5-ffbb5ab2bd49
7b482eae-519a-11ea-80eb-ebdcad522779,7b4a017a-519a-11ea-afc4-9f7dacb4e205
7b242ffe-519a-11ea-bd58-d3de1d18b163,7b4a155c-519a-11ea-91d6-636843a47c90
7b488de0-519a-11ea-b276-732aa398353b,7b4a55da-519a-11ea-86c9-4720259d14c4
7b3fcb10-519a-11ea-b836-43946f3e0d24,7b4a68cc-519a-11ea-b7a7-7f7abab77839
7b27612e-519a-11ea-8e4d-5bb3a7699f04,7b4a7aec-519a-11ea-a5fe-af409a13782e
7b2669fe-519a-11ea-95ef-2f2a1fd2593e,7b4ac75e-519a-11ea-984c-afc2bcebb109
7b27f1ac-519a-11ea-91a2-e7eb38bc57d0,7b4ae9f0-519a-11ea-8a98-bbccd5dc2ff8
7b28fc8c-519a-11ea-8bd9-1bcdececfdbf,7b4afbfc-519a-11ea-9c1b-f79327c91e1f
7b34947a-519a-11ea-a7b2-3751256a1982,7b4b0ae8-519a-11ea-add3-23aa76e08a2b
7b44474e-519a-11ea-a960-7382ca1adb69,7b4b852c-519a-11ea-b69e-2f03412d7c88
7b26e08c-519a-11ea-8518-e7d68eaa4af5,7b4b9ca6-519a-11ea-85e5-83457610c082
7b2a5712-519a-11ea-b4d5-cbe9fc1a89a1,7b4bc8c0-519a-11ea-84d4-cbe6c9ed502d
7b1e3eaa-519a-11ea-818d-87476fc205cb,7b4bded2-519a-11ea-92ac-579fc1294258
7b39277e-519a-11ea-8caa-a3aabe9e49ff,7b4c0326-519a-11ea-823c-03a049bcf605
7b48ed44-519a-11ea-86f1-37010edbc447,7b4c2e3c-519a-11ea-b787-cb82f45b7caa
7b1e4d00-519a-11ea-a566-d3f18cc17e8a,7b4c6492-519a-11ea-91ba-731d748f9a4d
7b3d98cc-519a-11ea-9c48-6f0529ce2820,7b4c7a4a-519a-11ea-8f25-9319f3c632a4
7b378806-519a-11ea-a30c-170710272f01,7b4c8b48-519a-11ea-b9bb-67739c211054
7b4586f4-519a-11ea-bbb2-3b40faeef984,7b4c9eb2-519a-11ea-aece-bfb2a6daace1
7b1cbf80-519a-11ea-b40f-7f12c9f281ca,7b4cdd82-519a-11ea-b17a-4b1bb646a34a
7b4c7a4a-519a-11ea-8f25-9319f3c632a4,7b4cf088-519a-11ea-bc67-c3ce6855f364
7b367182-519a-11ea-b480-f7e2e6e0203e,7b4d08de-519a-11ea-a577-6754d5cadbe8
7b1dcc72-519a-11ea-9df9-f3ffd37deeaa,7b4d2904-519a-11ea-b568-37a11ff8cfef
7b462e24-519a-11ea-8f8a-e32da537e8fe,7b4d8002-519a-11ea-981f-ef680b328f24
7b48ed44-519a-11ea-86f1-37010edbc447,7b4d9470-519a-11ea-9787-8bdf03bf1252
7b380902-519a-11ea-a6b9-6360490576dc,7b4da8ca-519a-11ea-8157-231d8b156b95
7b3dd7c4-519a-11ea-83b2-d3e2685bc274,7b4db950-519a-11ea-a102-8ba1f4d1dfde
7b1ffc40-519a-11ea-9afa-ffcc374dffd5,7b4e2322-519a-11ea-a8f9-6fcb3d76c414
7b43cb7a-519a-11ea-ba56-672162d7c8f8,7b4e368c-519a-11ea-8d93-cfd95ce92be0
7b31b48a-519a-11ea-b0c7-6b99f23056af,7b4e4ac8-519a-11ea-98b5-87251be3220f
7b1ebd6c-519a-11ea-b984-fbbd0443c40e,7b4e5de2-519a-11ea-a810-b30b512a3e39
7b428896-519a-11ea-b039-7b6b36fef42a,7b4e8934-519a-11ea-90fe-8f591e5d2009
7b2c61ce-519a-11ea-b5eb-b733c8e8f271,7b4eda7e-519a-11ea-82fc-f7f40344eb96
7b4d8002-519a-11ea-981f-ef680b328f24,7b4f04e0-519a-11ea-8259-071972c1e6c6
7b1b59c4-519a-11ea-a28f-c36fa4f476fa,7b4f1962-519a-11ea-8b7f-5b4b6c3cb6be
7b25d354-519a-11ea-a852-cfb9cb38ed28,7b4f3bc2-519a-11ea-8543-5766e2cf76c9
7b439c86-519a-11ea-9844-c382f2595d46,7b4f8db6-519a-11ea-b461-2f809427c03b
7b1ffc40-519a-11ea-9afa-ffcc374dffd5,7b4fa486-519a-11ea-8b81-cbced850591b
7b4b852c-519a-11ea-b69e-2f03412d7c88,7b4fb4ee-519a-11ea-9cda-bffd4e6513ff
7b2ea68c-519a-11ea-9d7d-873b983d37d1,7b4fd596-519a-11ea-9725-ff2ae1864b37
7b45c7e0-519a-11ea-9bd2-af77ca11a230,7b50354a-519a-11ea-96a8-afc62dd6703d
7b2a25da-519a-11ea-965d-53948544d239,7b504940-519a-11ea-a27f-43f3278654a9
7b3ca1ec-519a-11ea-aee6-07eb78ef6a44,7b5069c0-519a-11ea-b008-77217660753e
7b24421e-519a-11ea-8a21-af4fa7b70a02,7b508a36-519a-11ea-be7b-dfe43c3a93ae
7b1b420e-519a-11ea-af9a-574235b05228,7b50e5c6-519a-11ea-a470-1f2fff126f84
7b1ee5da-519a-11ea-9f9c-eba034ab2870,7b50fde0-519a-11ea-8f9a-075c65969b34
7b41958a-519a-11ea-9202-870ac71dbf5f,7b512b6c-519a-11ea-97f0-a32c825eddd5
7b2acb20-519a-11ea-8841-a79fe705f2fd,7b516410-519a-11ea-87d1-2ba028d08452
7b41d338-519a-11ea-8e07-9b1c15677f83,7b517e64-519a-11ea-b068-874a06dd3b03
7b4082ee-519a-11ea-b3ba-772cb118387e,7b51ab46-519a-11ea-aa09-3f06fb3ed5e1
7b2f9e34-519a-11ea-902c-5f3361b9881f,7b51d2ba-519a-11ea-815d-8fcdb6b8a163
7b1cbf80-519a-11ea-b40f-7f12c9f281ca,7b51ea02-519a-11ea-b224-af5c6c829576
7b4f8db6-519a-11ea-b461-2f809427c03b,7b51fb6e-519a-11ea-b67a-6b346c6c0b97
7b3f22be-519a-11ea-aad6-4f90a4862b30,7b526266-519a-11ea-897e-43a0690e68c4
7b39e9d4-519a-11ea-ace9-77490b12034f,7b5274ea-519a-11ea-8345-272dc4887163
7b228e60-519a-11ea-8cbe-abe512ff66aa,7b528f70-519a-11ea-b3bc-730023ad2260
7b4f3bc2-519a-11ea-8543-5766e2cf76c9,7b52d30e-519a-11ea-ae8f-a385a7ceb577
7b4082ee-519a-11ea-b3ba-772cb118387e,7b52e6be-519a-11ea-ad26-03dcfc34eeda
7b400efe-519a-11ea-8c34-2f9ade7bfb6b,7b53101c-519a-11ea-b388-5b1aafdbe51f
7b4d08de-519a-11ea-a577-6754d5cadbe8,7b534492-519a-11ea-89d4-875e192dbc7b
7b40edc4-519a-11ea-a083-e778f478d8f1,7b535ed2-519a-11ea-8a03-9be6a58acc80
7b1b420e-519a-11ea-af9a-574235b05228,7b53c17e-519a-11ea-81d2-1b6d5bd2603f
7b3914fa-519a-11ea-94cc-37fdbd56565a,7b53d8f8-519a-11ea-940f-2f2ee0391b50
7b3c8a36-519a-11ea-8ffd-d7e9e1b41c15,7b54132c-519a-11ea-8673-63f780168c64
7b3fb51c-519a-11ea-9955-fb53e8d62598,7b542d9e-519a-11ea-945d-3f046ae54175
7b41ef4e-519a-11ea-84aa-130f1e6d9274,7b54b598-519a-11ea-be05-1b1898ba205a
7b2194c4-519a-11ea-84ef-6fcafb0fc682,7b54c8ee-519a-11ea-b9f7-cfa901756c36
7b41ef4e-519a-11ea-84aa-130f1e6d9274,7b54db9a-519a-11ea-a622-4fb50b031388
7b2d36b2-519a-11ea-8f17-97cd36cbfc60,7b54fd50-519a-11ea-b69e-cbb3f9bb5b15
7b52d30e-519a-11ea-ae8f-a385a7ceb577,7b555c3c-519a-11ea-b0ea-83b34c7ed9f3
7b1cabee-519a-11ea-a162-b76e8b866c38,7b557b7c-519a-11ea-956b-c3cd454ae9ce
7b38d4ae-519a-11ea-8e19-fbfa86ceb4f8,7b559d78-519a-11ea-b7ec-d3c8319acaed
7b2e2c66-519a-11ea-ab9f-8b0834dec2ca,7b55b182-519a-11ea-b222-47bef963504a
7b3e54c4-519a-11ea-a47c-2b969ed9e040,7b560754-519a-11ea-bdaa-830a5c9fb184
7b3fb51c-519a-11ea-9955-fb53e8d62598,7b561b40-519a-11ea-81ed-6710835161bb
7b44b8c8-519a-11ea-b271-eb58e1aa2a2e,7b562cac-519a-11ea-809d-072455d916bc
7b4d2904-519a-11ea-b568-37a11ff8cfef,7b565f60-519a-11ea-a248-77acf5446ccc
7b4d9470-519a-11ea-9787-8bdf03bf1252,7b5686f2-519a-11ea-b03d-f73d95c7d55e
7b46f34a-519a-11ea-92c5-7f35d0c356ae,7b569b10-519a-11ea-8748-03b4457fc88c
7b3fe1f4-519a-11ea-87d5-4b8ba9910961,7b56cfe0-519a-11ea-afb1-2f330d58c646
7b2f2b5c-519a-11ea-9e5f-db65e4aa4170,7b57067c-519a-11ea-a7a1-ebcc5e5c4920
7b428896-519a-11ea-b039-7b6b36fef42a,7b57191e-519a-11ea-ba89-3f9e0a7f67ea
7b498998-519a-11ea-9182-e34eb2f754d2,7b57339a-519a-11ea-a701-23f9e86f877d
7b353ec0-519a-11ea-a9c4-13ab309b8648,7b5789ee-519a-11ea-bf79-7f43e3870566
7b1d7c5e-519a-11ea-90ec-7b99758c14b5,7b57a348-519a-11ea-b4a5-67cebc810e22
7b44a04a-519a-11ea-94b1-bbc36b5f9915,7b57b40a-519a-11ea-87f2-ebd4187d7e0b
7b406264-519a-11ea-9826-6b56aead2589,7b57c6f2-519a-11ea-923b-27e376db0490
7b352c96-519a-11ea-b99f-3f8aac5b9fce,7b5805e0-519a-11ea-a5ef-ffb8b9e6153c
7b23e5da-519a-11ea-a393-7f405207fe98,7b581800-519a-11ea-a761-e3756f13ceb1
7b1ef48a-519a-11ea-a17f-37d891995ae7,7b5890a0-519a-11ea-a0a1-e7dff23d46f8
7b4c0326-519a-11ea-823c-03a049bcf605,7b58a39c-519a-11ea-8dba-576d1be25213
7b41958a-519a-11ea-9202-870ac71dbf5f,7b58b5f8-519a-11ea-b824-633149681096
7b35d8da-519a-11ea-a1ef-0bed4b2f1b82,7b58c73c-519a-11ea-aef6-e3372fa8770b
7b40da50-519a-11ea-bfd9-03ac9e6f2d52,7b5929fc-519a-11ea-b852-2bff9e4b5c59
7b508a36-519a-11ea-be7b-dfe43c3a93ae,7b596a2a-519a-11ea-968f-5338500c488e
7b3d98cc-519a-11ea-9c48-6f0529ce2820,7b597d76-519a-11ea-af0f-bf861dc4d96a
7b57067c-519a-11ea-a7a1-ebcc5e5c4920,7b59a0e4-519a-11ea-9116-036136394165
7b3316cc-519a-11ea-aea4-dffb65d50809,7b59c498-519a-11ea-99d8-d7cec2534bfa
7b528f70-519a-11ea-b3bc-730023ad2260,7b59d820-519a-11ea-9f53-4f76f1ba4e0e
7b433642-519a-11ea-a2bc-a7fb961d8b9e,7b59fb8e-519a-11ea-9d46-ab3f57889833
7b3d0f6a-519a-11ea-87e6-bb97d8fb2ec1,7b5a3446-519a-11ea-8cfe-236b5c5fa08a
7b3ed804-519a-11ea-b9fc-a70680fa12c0,7b5a5b2e-519a-11ea-922d-2324b29e6c4e
7b44e816-519a-11ea-b302-7b51c27f423a,7b5a4972-519a-11ea-94ab-bb84636619fe
7b516410-519a-11ea-87d1-2ba028d08452,7b5a6bd2-519a-11ea-8989-4b6f9cf65fd0
7b1f4c50-519a-11ea-940b-a7fc74f8d1b8,7b5ad7f2-519a-11ea-ac35-4f1f4a33acb5
7b4c2e3c-519a-11ea-b787-cb82f45b7caa,7b5aeaa8-519a-11ea-ad4f-bb3bceac6185
7b28992c-519a-11ea-9899-e723d55fd5b4,7b5b0bf0-519a-11ea-bd5c-e7a17647b1da
7b1f81de-519a-11ea-8cd0-e3ae2f426b05,7b5b4c78-519a-11ea-afe0-77256c8a2895
7b3355ba-519a-11ea-8b87-63e9d7c00cec,7b5b71b2-519a-11ea-b81e-9b5f4e5ab38e
7b445a18-519a-11ea-8d64-ef4828b42eab,7b5b8684-519a-11ea-8b8b-db9a5a617908
7b27e144-519a-11ea-a3ce-433553193368,7b5b98f4-519a-11ea-8d7c-d34e870a34f1
7b3fcb10-519a-11ea-b836-43946f3e0d24,7b5c0960-519a-11ea-87d2-9f406a68587b
7b352c96-519a-11ea-b99f-3f8aac5b9fce,7b5c20a8-519a-11ea-9796-67c413d0f6c9
7b1f81de-519a-11ea-8cd0-e3ae2f426b05,7b5c3200-519a-11ea-ac19-cb5ab3b7c475
7b32f93a-519a-11ea-bde4-03977b0ede47,7b5c440c-519a-11ea-a26e-176aa2f5b643
7b1f7040-519a-11ea-ac42-bbe97642b6b2,7b5c9286-519a-11ea-bb57-b7cde26b09c7
7b40954a-519a-11ea-a81f-57b70aab21bb,7b5caa28-519a-11ea-92cb-7f384c310b3d
7b380902-519a-11ea-a6b9-6360490576dc,7b5cbeaa-519a-11ea-9091-47c9277c466c
7b2cf620-519a-11ea-a697-5b35f8856657,7b5ccd6e-519a-11ea-a13a-17e7237c45e9
7b281dee-519a-11ea-be1f-6bef3e8f9e33,7b5d106c-519a-11ea-ab64-575fe59fdd79
7b4f8db6-519a-11ea-b461-2f809427c03b,7b5d232c-519a-11ea-b6ef-b7a36de73c25
7b336898-519a-11ea-95ae-9f554b844598,7b5d699a-519a-11ea-a099-b7768364c3a4
7b37776c-519a-11ea-a4ca-53538bf6a448,7b5d8812-519a-11ea-989d-e3adca2c7dcd
7b57c6f2-519a-11ea-923b-27e376db0490,7b5db44a-519a-11ea-ae7c-e30a1cca0be5
7b20eb46-519a-11ea-9394-53e825fd4377,7b5dcf52-519a-11ea-9703-af172d7916ed
7b4bc8c0-519a-11ea-84d4-cbe6c9ed502d,7b5dfd7e-519a-11ea-8800-7750e3ffdd82
7b242ffe-519a-11ea-bd58-d3de1d18b163,7b5e3172-519a-11ea-895e-43a369785ffd
7b37d568-519a-11ea-bdb7-0325ffaad748,7b5e5e2c-519a-11ea-84d0-1fe56f1c663d
7b1c70fc-519a-11ea-833d-c3311ec87993,7b5e7614-519a-11ea-96f4-b7ad09dc3687
7b2f9e34-519a-11ea-902c-5f3361b9881f,7b5ea846-519a-11ea-a169-87f6f56bd430
7b542d9e-519a-11ea-945d-3f046ae54175,7b5ee2de-519a-11ea-aa31-03947860dcbc
7b23e5da-519a-11ea-a393-7f405207fe98,7b5f25d2-519a-11ea-9849-3352a7264e6f
7b3fe1f4-519a-11ea-87d5-4b8ba9910961,7b5f3824-519a-11ea-8cd4-c773ef8029e0
7b27c2ae-519a-11ea-82f0-7f757e15b489,7b5f4e0e-519a-11ea-b562-ab24f9b9c294
7b4971b0-519a-11ea-9566-47bf43cead4b,7b5f61f0-519a-11ea-b3fa-e736e7eeb677
7b36ce2a-519a-11ea-bde3-ff71bba7718f,7b5fae58-519a-11ea-aab6-3317241670d8
7b1fb820-519a-11ea-bd12-a7d89b5c58ff,7b5fcda2-519a-11ea-81a8-dbd68254798b
7b1cbf80-519a-11ea-b40f-7f12c9f281ca,7b5fee7c-519a-11ea-bb61-8b18f8d7fb0e
7b21f504-519a-11ea-ab83-1f0b010bce05,7b601b9a-519a-11ea-9792-1b2e68deeb5f
7b321b64-519a-11ea-8340-674e33a1a160,7b606f3c-519a-11ea-902b-fb7cc96ced3a
7b488e58-519a-11ea-acc4-c3d05b5f7abf,7b608b20-519a-11ea-9065-3fff023af7d3
7b50e5c6-519a-11ea-a470-1f2fff126f84,7b60a880-519a-11ea-ae2f-b37df709bac0
7b41958a-519a-11ea-9202-870ac71dbf5f,7b610e06-519a-11ea-8fa1-cb5b6c859c43
7b50354a-519a-11ea-96a8-afc62dd6703d,7b6126a2-519a-11ea-b30d-33a884242818
7b48ed44-519a-11ea-86f1-37010edbc447,7b614268-519a-11ea-b80d-bfb8ff7740b5
7b439c86-519a-11ea-9844-c382f2595d46,7b616892-519a-11ea-8b6c-b35f1153d685
7b4e368c-519a-11ea-8d93-cfd95ce92be0,7b61b5a4-519a-11ea-b560-03889bb41204
7b5d106c-519a-11ea-ab64-575fe59fdd79,7b61cb20-519a-11ea-8b43-671b3afbf707
7b2ee2d2-519a-11ea-981c-1bad0db1fde0,7b62018a-519a-11ea-8848-5fd7062a471b
7b562cac-519a-11ea-809d-072455d916bc,7b622688-519a-11ea-86ca-3759b87c67a8
7b5f25d2-519a-11ea-9849-3352a7264e6f,7b62a702-519a-11ea-b9c0-63143bc1e174
7b1e7cee-519a-11ea-9354-afb35b5dcd60,7b62c836-519a-11ea-9fe5-df6732d0b71b
7b315760-519a-11ea-8a5f-eb3f2ba82804,7b62df74-519a-11ea-a757-2fefaecfcdf7
7b431c84-519a-11ea-bd64-67e687705c09,7b633c44-519a-11ea-8627-3796c83b1c8a
7b430a32-519a-11ea-9f39-2bd9f6933453,7b635346-519a-11ea-a6d4-e73bbf3ce9f5
7b5b0bf0-519a-11ea-bd5c-e7a17647b1da,7b636f8e-519a-11ea-ac8d-7bfdc05393af
7b5f4e0e-519a-11ea-b562-ab24f9b9c294,7b639f68-519a-11ea-8d1c-c337178bf2df
7b31a0ee-519a-11ea-9d72-4bead2b0f367,7b63bf70-519a-11ea-8eba-c36960ea3c06
7b5b71b2-519a-11ea-b81e-9b5f4e5ab38e,7b63d848-519a-11ea-acca-cf56bfb97ee0
7b1b6da6-519a-11ea-8045-b7409a847454,7b6461c8-519a-11ea-9eae-8bbbe08ac5d2
7b1bc3aa-519a-11ea-83a9-a3f66311a485,7b64a17e-519a-11ea-90a8-f7a78071107e
7b3eff14-519a-11ea-af1c-979090a0e192,7b64ba88-519a-11ea-a12b-07948330de65
7b2aec7c-519a-11ea-90d7-13c00bde3311,7b64fd7c-519a-11ea-9bd6-b3549ac90bb5
7b1ef48a-519a-11ea-a17f-37d891995ae7,7b652a68-519a-11ea-88ab-677cf05705c9
7b396446-519a-11ea-a408-fb5bacf89e97,7b656028-519a-11ea-9973-cf8f10d9be75
7b3d4b4c-519a-11ea-aa0b-134263ba4576,7b65c07c-519a-11ea-8568-3bb1b7c5b511
7b3dd7c4-519a-11ea-83b2-d3e2685bc274,7b65e188-519a-11ea-8471-5be9f814c1ce
7b50354a-519a-11ea-96a8-afc62dd6703d,7b65fbfa-519a-11ea-bb0a-377b8e00ceab
7b46c5c8-519a-11ea-8c9e-2bc236cab4f6,7b664560-519a-11ea-90cd-f730ec2c7b69
7b52e6be-519a-11ea-ad26-03dcfc34eeda,7b667d96-519a-11ea-baf6-bb6f9ee8243f
7b2cf620-519a-11ea-a697-5b35f8856657,7b66a262-519a-11ea-8a2c-07f4c0bbe1ba
7b4a155c-519a-11ea-91d6-636843a47c90,7b66e0ce-519a-11ea-a35f-6b0127dc5e44
7b21de16-519a-11ea-ad3c-637bf394786d,7b67220a-519a-11ea-842c-17ec16b2ba46
7b504940-519a-11ea-a27f-43f3278654a9,7b676828-519a-11ea-b5ab-ef273c9725c9
7b4082ee-519a-11ea-b3ba-772cb118387e,7b6799f6-519a-11ea-b6d0-5f5cc91c967d
7b2f6144-519a-11ea-a050-a3e61083a411,7b677e3a-519a-11ea-bcb6-4b15b0f3c647
7b3ed804-519a-11ea-b9fc-a70680fa12c0,7b67b238-519a-11ea-abfa-1f27bd37b34c
7b39e9d4-519a-11ea-ace9-77490b12034f,7b681656-519a-11ea-9d85-5b2350670afa
7b2a0bcc-519a-11ea-ae5e-4346ba423754,7b68378a-519a-11ea-a018-c7d1cb38b848
7b29bb4a-519a-11ea-98ef-3bb2be459290,7b684e32-519a-11ea-bfb5-27e362c76536
7b3adfc4-519a-11ea-8c99-5770a9b42173,7b687402-519a-11ea-ab3e-c703c396e778
7b4e2322-519a-11ea-a8f9-6fcb3d76c414,7b68eb80-519a-11ea-9f8b-5383d5ffea63
7b42ad26-519a-11ea-acdb-9bb79733a48d,7b691092-519a-11ea-85b3-8778c0f5b115
7b5d106c-519a-11ea-ab64-575fe59fdd79,7b692c8a-519a-11ea-87ae-3b065621f0d2
7b504940-519a-11ea-a27f-43f3278654a9,7b695714-519a-11ea-b46d-cfc2f3464e5c
7b233a22-519a-11ea-a563-c7a9a6b502ce,7b69c186-519a-11ea-be4e-a35b70811b51
7b569b10-519a-11ea-8748-03b4457fc88c,7b69e080-519a-11ea-80f5-ef7a8af5a3e0
7b25a424-519a-11ea-bd62-a317af8129ae,7b6a00f6-519a-11ea-b7f6-87fbd97fce48
7b293d5a-519a-11ea-9219-f782feb2f28b,7b6a1fdc-519a-11ea-aeb1-1b6fab08c476
7b306378-519a-11ea-8da2-338372970129,7b6a8756-519a-11ea-b635-8373cff3e3ce
7b207274-519a-11ea-a155-e7aab314f3bd,7b6a9b88-519a-11ea-9bbe-c3f6fb5b6edd
7b57b40a-519a-11ea-87f2-ebd4187d7e0b,7b6ad4ae-519a-11ea-8871-0b426692dfeb
7b400efe-519a-11ea-8c34-2f9ade7bfb6b,7b6b2706-519a-11ea-9174-4b91038ef7d1
7b5fee7c-519a-11ea-bb61-8b18f8d7fb0e,7b6b46a0-519a-11ea-88ea-9ff1a0a22f7f
7b639f68-519a-11ea-8d1c-c337178bf2df,7b6b7f4e-519a-11ea-a53e-837ba4f760da
7b378806-519a-11ea-a30c-170710272f01,7b6b94f2-519a-11ea-ab51-e3505306037e
7b59a0e4-519a-11ea-9116-036136394165,7b6c2bb0-519a-11ea-bac8-db221ad63624
7b64a17e-519a-11ea-90a8-f7a78071107e,7b6c4140-519a-11ea-b120-3316179f291a
7b3050e0-519a-11ea-87ab-d32b6114b04b,7b6c56e4-519a-11ea-b4ec-b7c41a367c2d
7b652a68-519a-11ea-88ab-677cf05705c9,7b6c6c92-519a-11ea-bdf2-6b217628cafd
7b2a5712-519a-11ea-b4d5-cbe9fc1a89a1,7b6cf6c6-519a-11ea-b3a9-13ddabdbb96d
7b44d542-519a-11ea-9cde-0f9ef4837f89,7b6d12f0-519a-11ea-80dc-2fa47c312c31
7b28fc8c-519a-11ea-8bd9-1bcdececfdbf,7b6d27fe-519a-11ea-a830-dbcfdad54786
7b4f8db6-519a-11ea-b461-2f809427c03b,7b6d6b9c-519a-11ea-975a-339f7bf6dfc3
7b207fc6-519a-11ea-9b27-7fc0e9f5b154,7b6db278-519a-11ea-a797-93c9687a7850
7b1e7cee-519a-11ea-9354-afb35b5dcd60,7b6ded9c-519a-11ea-8756-7785cb068ed0
7b3fe1f4-519a-11ea-87d5-4b8ba9910961,7b6e032c-519a-11ea-a0c0-b737401a38bc
7b429d40-519a-11ea-a19e-8ff9bfbaf06c,7b6e1a88-519a-11ea-a3bb-0fc818fec341
7b362fe2-519a-11ea-ac64-9b18cc12cd57,7b6e4eea-519a-11ea-a49a-afcc2a020b94
7b41ef4e-519a-11ea-84aa-130f1e6d9274,7b6e6cc2-519a-11ea-82d1-6faa02ccd374
7b4021f0-519a-11ea-b8d4-036439576dc0,7b6eaef8-519a-11ea-b477-7b1d7af019c8
7b5b71b2-519a-11ea-b81e-9b5f4e5ab38e,7b6ec406-519a-11ea-8dcc-076cf13adaa9
7b43b748-519a-11ea-8a97-4b0b6b506afd,7b6ed8c4-519a-11ea-9b74-eb8ad9fc21f1
7b2aec7c-519a-11ea-90d7-13c00bde3311,7b6f011e-519a-11ea-a19a-3f299665906a
7b29cbbc-519a-11ea-9a40-5f39fb48a49f,7b6f5c18-519a-11ea-8d50-6b081391ea0d
7b26bbf2-519a-11ea-9df3-9f5a4772f5c2,7b6f7ff4-519a-11ea-ad86-837535bcf906
7b53d8f8-519a-11ea-940f-2f2ee0391b50,7b6f6c76-519a-11ea-8367-172b1b8c5a8f
7b6c56e4-519a-11ea-b4ec-b7c41a367c2d,7b6f934a-519a-11ea-bd70-d31843aabdeb
7b6c56e4-519a-11ea-b4ec-b7c41a367c2d,7b701d2e-519a-11ea-9855-9bcc68bcddc0
7b282fc8-519a-11ea-84a2-17e4ba3d1d1e,7b7034d0-519a-11ea-91b6-1bcacae82c0c
7b37d568-519a-11ea-bdb7-0325ffaad748,7b704af6-519a-11ea-b908-4f293a5a21e5
7b21635a-519a-11ea-8916-23e9680c30cf,7b706888-519a-11ea-8cad-bb637ac4624e
7b1e260e-519a-11ea-9dbc-af8837e28f82,7b70b05e-519a-11ea-804d-6f49e732ae92
7b257012-519a-11ea-84b0-7738a3086935,7b70ddea-519a-11ea-8d0d-f312bb7bdf0c
7b44e816-519a-11ea-b302-7b51c27f423a,7b70f0b4-519a-11ea-80e4-2ff1c5f76bb1
7b3e54c4-519a-11ea-a47c-2b969ed9e040,7b7102b6-519a-11ea-9b76-97ffaaf6979d
7b1c70fc-519a-11ea-833d-c3311ec87993,7b7178ea-519a-11ea-87df-27d22b076df9
7b26bbf2-519a-11ea-9df3-9f5a4772f5c2,7b718fec-519a-11ea-adee-6f2d9e602954
7b3ab47c-519a-11ea-a0af-f73c9dbcb5dc,7b71a6bc-519a-11ea-ae97-3b32546decc1
7b4bded2-519a-11ea-92ac-579fc1294258,7b71cd4a-519a-11ea-94d4-639e6835257c
7b2643b6-519a-11ea-b300-9fa49b0f7343,7b721840-519a-11ea-b74d-234001fa54c8
7b27f1ac-519a-11ea-91a2-e7eb38bc57d0,7b722c40-519a-11ea-98a0-fb9e4db0326b
7b2b3826-519a-11ea-af16-e3834078d35d,7b724a22-519a-11ea-9ce2-cf97c88b687f
7b5686f2-519a-11ea-b03d-f73d95c7d55e,7b727678-519a-11ea-b087-ab1d68d48a29
7b4a55da-519a-11ea-86c9-4720259d14c4,7b72df32-519a-11ea-8f2e-9f67e3143bdc
7b5c0960-519a-11ea-87d2-9f406a68587b,7b730fa2-519a-11ea-b145-c3d3d863c9a3
7b542d9e-519a-11ea-945d-3f046ae54175,7b73244c-519a-11ea-a162-732de23099c8
7b4db950-519a-11ea-a102-8ba1f4d1dfde,7b73398c-519a-11ea-95ec-87296e9212ac
7b2aec7c-519a-11ea-90d7-13c00bde3311,7b739d1e-519a-11ea-9fbf-ef0eaf70943f
7b3b9efa-519a-11ea-9a4f-a7bc635e181b,7b73b1f0-519a-11ea-b64c-372844b093d4
7b2727fe-519a-11ea-a53b-bf8f4d8fa3f4,7b73c528-519a-11ea-8ce0-7b9a56230303
7b53c17e-519a-11ea-81d2-1b6d5bd2603f,7b73d68a-519a-11ea-ab01-636c715d32b5
7b32c708-519a-11ea-abc2-03b97de06655,7b7425f4-519a-11ea-85cd-2b5bebda1c74
7b2ea68c-519a-11ea-9d7d-873b983d37d1,7b743ac6-519a-11ea-a2ab-6f39055c7bd7
7b3ed804-519a-11ea-b9fc-a70680fa12c0,7b749f3e-519a-11ea-ab55-8f7cc036e69e
7b288a4a-519a-11ea-bc93-abfb672aeb81,7b74b848-519a-11ea-a8f3-8333892d3a2d
7b2bfea0-519a-11ea-b7a8-8f178f10b811,7b74da30-519a-11ea-af40-9f04c61223c1
7b1ef48a-519a-11ea-a17f-37d891995ae7,7b75041a-519a-11ea-8f11-33f090c1ca56
7b292ad6-519a-11ea-935b-13fa0c8b0144,7b753e94-519a-11ea-b6ed-73b38a8655c9
7b5686f2-519a-11ea-b03d-f73d95c7d55e,7b755fbe-519a-11ea-9c24-dfff52c306e6
7b41958a-519a-11ea-9202-870ac71dbf5f,7b75af78-519a-11ea-9f28-b3b41d4be37a
7b597d76-519a-11ea-af0f-bf861dc4d96a,7b75d5de-519a-11ea-bd44-53fab59128e7
7b6d12f0-519a-11ea-80dc-2fa47c312c31,7b75f118-519a-11ea-a015-c78851d81e22
7b73b1f0-519a-11ea-b64c-372844b093d4,7b762eda-519a-11ea-9f4a-7b674dd824e0
7b6cf6c6-519a-11ea-b3a9-13ddabdbb96d,7b766ddc-519a-11ea-a07c-cb5758ced8dc
7b228e60-519a-11ea-8cbe-abe512ff66aa,7b768128-519a-11ea-98b0-b706a4d16932
7b33fb46-519a-11ea-8c13-0b2fc5e8344b,7b769618-519a-11ea-abe8-6b6ec5dc0a4a
7b6c2bb0-519a-11ea-bac8-db221ad63624,7b76e136-519a-11ea-a52c-73f5db030f86
7b482eae-519a-11ea-80eb-ebdcad522779,7b76f4dc-519a-11ea-9894-e31645c668b6
7b64fd7c-519a-11ea-9bd6-b3549ac90bb5,7b772286-519a-11ea-9c08-ab9d315d9317
7b4d9470-519a-11ea-9787-8bdf03bf1252,7b773dca-519a-11ea-83a5-87b96c447d19
7b292ad6-519a-11ea-935b-13fa0c8b0144,7b777600-519a-11ea-be58-63c73db21012
7b4eda7e-519a-11ea-82fc-f7f40344eb96,7b77b282-519a-11ea-b0f2-e7a4d358d968
7b50354a-519a-11ea-96a8-afc62dd6703d,7b77fb0c-519a-11ea-9e03-632cc56ba1ae
7b6f5c18-519a-11ea-8d50-6b081391ea0d,7b7813a8-519a-11ea-afcf-cf572a2190f0
7b64fd7c-519a-11ea-9bd6-b3549ac90bb5,7b78479c-519a-11ea-bd66-efe578a2d3f4
7b445a18-519a-11ea-8d64-ef4828b42eab,7b785caa-519a-11ea-bf31-57078008d2e5
7b5c3200-519a-11ea-ac19-cb5ab3b7c475,7b78c4b0-519a-11ea-b9df-4bbc4325c503
7b46d8b0-519a-11ea-b98a-2fbd490181ff,7b78d8b0-519a-11ea-b60e-2f98d99d1535
7b6b7f4e-519a-11ea-a53e-837ba4f760da,7b78ea76-519a-11ea-9493-87df03a0e4c1
7b291672-519a-11ea-83fd-4fb147386c0d,7b79027c-519a-11ea-91d4-8ff6ab09fac1
7b766ddc-519a-11ea-a07c-cb5758ced8dc,7b7981e8-519a-11ea-a7ec-b3c115b21ddd
7b446c60-519a-11ea-8d38-bb076f0d5ed1,7b7995c0-519a-11ea-98e1-a3a9a044c9a7
7b446c60-519a-11ea-8d38-bb076f0d5ed1,7b79afa6-519a-11ea-8e56-0722c375d97a
7b4c8b48-519a-11ea-b9bb-67739c211054,7b79ec5a-519a-11ea-ad7a-ff43cb9603d5
7b6f011e-519a-11ea-a19a-3f299665906a,7b7a4466-519a-11ea-b0e7-3fea0a43d2ae
7b488e58-519a-11ea-acc4-c3d05b5f7abf,7b7a625c-519a-11ea-b8e8-07243e156341
7b2c61ce-519a-11ea-b5eb-b733c8e8f271,7b7a780a-519a-11ea-972c-b7610e9eac79
7b1ed784-519a-11ea-91b8-4b47dfe7ad6d,7b7aec90-519a-11ea-84ac-e31ccf45e11d
7b2fda8e-519a-11ea-83cf-d7afc81b2c00,7b7b022a-519a-11ea-819e-0fc75361feef
7b38255e-519a-11ea-8851-2f95c0d5fb26,7b7b13a0-519a-11ea-87b2-47c2fe3d21a2
7b35d8da-519a-11ea-a1ef-0bed4b2f1b82,7b7b595a-519a-11ea-a9b9-4f79c418c017
7b412a8c-519a-11ea-b168-bb64664f7503,7b7b7aa2-519a-11ea-aaa7-57e5f9a752d0
7b23e5da-519a-11ea-a393-7f405207fe98,7b7ba4f0-519a-11ea-befa-57b9686d9ed8
7b6799f6-519a-11ea-b6d0-5f5cc91c967d,7b7bddbc-519a-11ea-84ba-7fbad5f35c79
7b7a625c-519a-11ea-b8e8-07243e156341,7b7bf1ee-519a-11ea-9df5-abc17333ab0a
7b462e24-519a-11ea-8f8a-e32da537e8fe,7b7c09cc-519a-11ea-a261-235de1589c7b
7b4e8934-519a-11ea-90fe-8f591e5d2009,7b7c8f1e-519a-11ea-9864-5f7ad0e0f969
7b4e2322-519a-11ea-a8f9-6fcb3d76c414,7b7c7902-519a-11ea-888b-d7b35eda2605
7b54132c-519a-11ea-8673-63f780168c64,7b7ca9f4-519a-11ea-9d3b-e3c8b7ad40d2
7b2c97ac-519a-11ea-999c-3f0fc0c7b50a,7b7cc060-519a-11ea-95b1-af68d77519b8
7b3d0f6a-519a-11ea-87e6-bb97d8fb2ec1,7b7d25c8-519a-11ea-9ac2-7f46e4fd05b0
7b1ddae6-519a-11ea-b20f-634762e0d985,7b7d6fb0-519a-11ea-9beb-2f31a8f39cca
7b3c2726-519a-11ea-a328-0730bec0642a,7b7d877a-519a-11ea-85e1-cf355a4de246
7b37d568-519a-11ea-bdb7-0325ffaad748,7b7d9b16-519a-11ea-b293-87e37ec1a63b
7b46170e-519a-11ea-a8b6-0f8b1086fad4,7b7dd716-519a-11ea-bebc-a3a193ad795e
7b2e4962-519a-11ea-a1ad-6be3d3d8e67e,7b7e0704-519a-11ea-bffa-c7880a28c2df
7b1ef48a-519a-11ea-a17f-37d891995ae7,7b7e388c-519a-11ea-95e0-a38681d4a787
7b766ddc-519a-11ea-a07c-cb5758ced8dc,7b7e49b2-519a-11ea-8c81-9b3c1833774d
7b2bdcd6-519a-11ea-a1ec-f75cf7e89240,7b7eda30-519a-11ea-9c99-b766ba587cb7
7b6a1fdc-519a-11ea-aeb1-1b6fab08c476,7b7ef93e-519a-11ea-b955-9fea41199f15
7b3206f6-519a-11ea-841c-a716756ed1b0,7b7f0de8-519a-11ea-b19b-735a29b9fd27
7b4e4ac8-519a-11ea-98b5-87251be3220f,7b7f5cc6-519a-11ea-801c-ab05ee230925
7b61b5a4-519a-11ea-b560-03889bb41204,7b7f73e6-519a-11ea-b377-c7cf92485034
7b439c86-519a-11ea-9844-c382f2595d46,7b7fc990-519a-11ea-81f3-8f62cd5e6d8c
7b2ee2d2-519a-11ea-981c-1bad0db1fde0,7b7fe02e-519a-11ea-bd8f-2bdea4994672
7b2c47d4-519a-11ea-a540-9f97bb20a739,7b801f9e-519a-11ea-a5ce-bb233d86b2fc
7b21635a-519a-11ea-8916-23e9680c30cf,7b8009a0-519a-11ea-ad2b-dfa661b81f5d
7b2fb0b8-519a-11ea-b688-d73ac193bb4c,7b806a9e-519a-11ea-880f-af1cc39058b6
7b5b0bf0-519a-11ea-bd5c-e7a17647b1da,7b807ed0-519a-11ea-9756-9f7e10132ec8
7b704af6-519a-11ea-b908-4f293a5a21e5,7b80b102-519a-11ea-b9f1-2bf15dc42a3c
7b3b772c-519a-11ea-9fe5-4f28463b591d,7b80c6d8-519a-11ea-a3c5-dbd7be1f057f
7b3dd7c4-519a-11ea-83b2-d3e2685bc274,7b80ef78-519a-11ea-9730-071346b0e399
7b400efe-519a-11ea-8c34-2f9ade7bfb6b,7b8102d8-519a-11ea-aaed-87217bb06c07
7b4e5de2-519a-11ea-a810-b30b512a3e39,7b816fc0-519a-11ea-872b-2f0f513d7732
7b5b8684-519a-11ea-8b8b-db9a5a617908,7b818528-519a-11ea-83e1-079f9bc76bbf
7b3ab47c-519a-11ea-a0af-f73c9dbcb5dc,7b81d41a-519a-11ea-a049-f38a75a253bb
7b66a262-519a-11ea-8a2c-07f4c0bbe1ba,7b81a530-519a-11ea-9b58-dba4bdf06802
7b51ab46-519a-11ea-aa09-3f06fb3ed5e1,7b8263d0-519a-11ea-b0e0-bf99762d9585
7b4fa486-519a-11ea-8b81-cbced850591b,7b829b48-519a-11ea-9623-9f261cef8e4f
7b6ad4ae-519a-11ea-8871-0b426692dfeb,7b828608-519a-11ea-a214-6f73832c0db6
7b4c9eb2-519a-11ea-aece-bfb2a6daace1,7b82b150-519a-11ea-991b-735ae28efc48
7b54db9a-519a-11ea-a622-4fb50b031388,7b82eab2-519a-11ea-afc0-f7696d9acee9
7b23760e-519a-11ea-a27c-9744040a768b,7b838d82-519a-11ea-a5eb-07b192f73399
7b64ba88-519a-11ea-a12b-07948330de65,7b83aaba-519a-11ea-9036-ab2c56595b6a
7b7f73e6-519a-11ea-b377-c7cf92485034,7b83d38c-519a-11ea-8387-9b7fb4ef8d13
7b71a6bc-519a-11ea-ae97-3b32546decc1,7b83beba-519a-11ea-a545-0fbcc18d7be3
7b54fd50-519a-11ea-b69e-cbb3f9bb5b15,7b843142-519a-11ea-908d-fb8ad390c350
7b1f7040-519a-11ea-ac42-bbe97642b6b2,7b8455d2-519a-11ea-b874-af67dd0c3654
7b3fb51c-519a-11ea-9955-fb53e8d62598,7b847490-519a-11ea-ab26-eb305a256c2d
7b321b64-519a-11ea-8340-674e33a1a160,7b84ec18-519a-11ea-8208-0f5c12c54240
7b26e08c-519a-11ea-8518-e7d68eaa4af5,7b8502e8-519a-11ea-a0e0-1b5470213f1b
7b25a424-519a-11ea-bd62-a317af8129ae,7b85174c-519a-11ea-8058-df04eb067f54
7b1c082e-519a-11ea-b7e1-3b4eded8f075,7b852c1e-519a-11ea-b6e9-7bdb3671ae54
7b54132c-519a-11ea-8673-63f780168c64,7b8592e4-519a-11ea-b395-13f9d04d3ff6
7b2e4962-519a-11ea-a1ad-6be3d3d8e67e,7b85a66c-519a-11ea-8c19-eb4349ac7a37
7b1bc3aa-519a-11ea-83a9-a3f66311a485,7b85baa8-519a-11ea-a3e9-ab1576c4ae25
7b49ec94-519a-11ea-a4e5-ffbb5ab2bd49,7b85d22c-519a-11ea-ad1f-4f4b44b09d5d
7b70ddea-519a-11ea-8d0d-f312bb7bdf0c,7b863686-519a-11ea-ac3b-5b9a6b3119f8
7b81d41a-519a-11ea-a049-f38a75a253bb,7b8665b6-519a-11ea-aef2-077cdaf6e2b6
7b51ab46-519a-11ea-aa09-3f06fb3ed5e1,7b867e7a-519a-11ea-a647-cb1378763414
7b51ea02-519a-11ea-b224-af5c6c829576,7b86bc8c-519a-11ea-a919-37dbd2108439
7b565f60-519a-11ea-a248-77acf5446ccc,7b871394-519a-11ea-8a60-133371704e81
7b85174c-519a-11ea-8058-df04eb067f54,7b872a1e-519a-11ea-bffd-cb83e6e6633a
7b4574ca-519a-11ea-8a68-fb4bb97341c0,7b874490-519a-11ea-a89e-6fefd334fa7f
7b476d16-519a-11ea-93b9-ef38c637b90c,7b877672-519a-11ea-a81c-27d6e691bbf0
7b5b0bf0-519a-11ea-bd5c-e7a17647b1da,7b87c550-519a-11ea-94fd-9f2f80a1d56b
7b57067c-519a-11ea-a7a1-ebcc5e5c4920,7b87da40-519a-11ea-8d25-afab77430c34
7b2b48c0-519a-11ea-a4f1-87df06e1ffde,7b87f0ca-519a-11ea-8a51-230017415ef1
7b207fc6-519a-11ea-9b27-7fc0e9f5b154,7b88380a-519a-11ea-b837-a38e30b8ff70
7b53d8f8-519a-11ea-940f-2f2ee0391b50,7b888ef4-519a-11ea-8830-739b8df27bd3
7b82eab2-519a-11ea-afc0-f7696d9acee9,7b88abaa-519a-11ea-ab15-d753a480c379
7b5ea846-519a-11ea-a169-87f6f56bd430,7b88d88c-519a-11ea-b7cc-77bd73105152
7b6a9b88-519a-11ea-9bbe-c3f6fb5b6edd,7b88c5cc-519a-11ea-98d6-f79e0a1ad834
7b50354a-519a-11ea-96a8-afc62dd6703d,7b892a58-519a-11ea-acd9-f3861706578f
7b801f9e-519a-11ea-a5ce-bb233d86b2fc,7b899646-519a-11ea-9849-57dfe6d472f7
7b2e6816-519a-11ea-aa13-cb4906d7c9d8,7b89b32e-519a-11ea-add8-c387b2c561f4
7b29aae2-519a-11ea-a49e-aff6470b2530,7b8a0022-519a-11ea-af27-c730f5a485f2
7b379ae4-519a-11ea-b789-1317c0406e9b,7b8a1f1c-519a-11ea-93fc-4324b2577b3e
7b1d6566-519a-11ea-a413-9bfc2a233aca,7b8a4a32-519a-11ea-aa1d-0b41027f8c31
7b4c8b48-519a-11ea-b9bb-67739c211054,7b8a7da4-519a-11ea-9a26-7b57ab89065d
7b24ebb0-519a-11ea-88f4-23d39bd76c50,7b8ab06c-519a-11ea-b7a4-9b4812bc9ccc
7b1bc3aa-519a-11ea-83a9-a3f66311a485,7b8ac5fc-519a-11ea-9c1c-ffa07314f660
7b610e06-519a-11ea-8fa1-cb5b6c859c43,7b8addc6-519a-11ea-a3ca-e30fced6bff5
7b445a18-519a-11ea-8d64-ef4828b42eab,7b8b69ee-519a-11ea-a588-cf35f45c4635
7b749f3e-519a-11ea-ab55-8f7cc036e69e,7b8b832a-519a-11ea-b46c-c7751ff3a025
7b6d6b9c-519a-11ea-975a-339f7bf6dfc3,7b8b9720-519a-11ea-ae7a-5f5ca98fdac1
7b338aee-519a-11ea-8031-a7eee64cef98,7b8bb1ba-519a-11ea-9d51-2359c548664c
7b606f3c-519a-11ea-902b-fb7cc96ced3a,7b8bff76-519a-11ea-8705-8b19e0ab68c8
7b4fd596-519a-11ea-9725-ff2ae1864b37,7b8c53ae-519a-11ea-b058-b3b5f68a9b41
7b2e4962-519a-11ea-a1ad-6be3d3d8e67e,7b8c7014-519a-11ea-9714-7fe4c4f471fa
7b801f9e-519a-11ea-a5ce-bb233d86b2fc,7b8c8c84-519a-11ea-9eb7-2f7c96881c11
7b89b32e-519a-11ea-add8-c387b2c561f4,7b8cc780-519a-11ea-84f7-db095d5ff99c
7b7a625c-519a-11ea-b8e8-07243e156341,7b8cfea8-519a-11ea-b4c9-2b3929f2b887
7b24ebb0-519a-11ea-88f4-23d39bd76c50,7b8d30e4-519a-11ea-9fe6-734435e79eb0
7b68eb80-519a-11ea-9f8b-5383d5ffea63,7b8d504c-519a-11ea-9eeb-e324424ab6de
7b7b13a0-519a-11ea-87b2-47c2fe3d21a2,7b8d68de-519a-11ea-8062-f7e085dcefb6
7b721840-519a-11ea-b74d-234001fa54c8,7b8dc9d2-519a-11ea-833d-f74fe3ef703b
7b4ae9f0-519a-11ea-8a98-bbccd5dc2ff8,7b8ddf12-519a-11ea-8762-df73ed7db2d0
7b6f7ff4-519a-11ea-ad86-837535bcf906,7b8e24c2-519a-11ea-801c-af23c28a5738
7b57191e-519a-11ea-ba89-3f9e0a7f67ea,7b8e60d6-519a-11ea-b86b-23d01a988ffd
7b41d338-519a-11ea-8e07-9b1c15677f83,7b8ea4f6-519a-11ea-adde-3befd60f0f83
7b83d38c-519a-11ea-8387-9b7fb4ef8d13,7b8ec3fa-519a-11ea-8971-e36b2739e81d
7b2bcb6a-519a-11ea-8670-8f4b1444ac96,7b8f0482-519a-11ea-b241-fba1693cdb4c
7b41ef4e-519a-11ea-84aa-130f1e6d9274,7b8f2232-519a-11ea-96d9-57bb2153bbc8
7b4bc8c0-519a-11ea-84d4-cbe6c9ed502d,7b8f7aac-519a-11ea-be34-6ba651611066
7b50354a-519a-11ea-96a8-afc62dd6703d,7b8fa8c4-519a-11ea-95b9-4b107ed49682
7b8009a0-519a-11ea-ad2b-dfa661b81f5d,7b8f9618-519a-11ea-94a0-c72cd6400319
7b1d43ec-519a-11ea-88d5-9f1edec24c3a,7b8fd9b6-519a-11ea-ac90-670c72047a91
7b412a8c-519a-11ea-b168-bb64664f7503,7b902998-519a-11ea-9802-cb15bf2592fc
7b2bfea0-519a-11ea-b7a8-8f178f10b811,7b904482-519a-11ea-b172-cb69b4519263
7b62df74-519a-11ea-a757-2fefaecfcdf7,7b90590e-519a-11ea-8ef6-83d33a11840c
7b379ae4-519a-11ea-b789-1317c0406e9b,7b907290-519a-11ea-9245-ef6bcbd68a9d
7b490ec8-519a-11ea-96e6-fb13571e2f14,7b90cb14-519a-11ea-af62-6f33018ab488
7b3d4b4c-519a-11ea-aa0b-134263ba4576,7b90e61c-519a-11ea-8252-9f900df9651b
7b35b3b4-519a-11ea-8865-3f5af8d8673e,7b910e8a-519a-11ea-b72d-bb8cf7aa0d07
7b7dd716-519a-11ea-bebc-a3a193ad795e,7b914580-519a-11ea-9841-b302a22ceed5
7b30cff2-519a-11ea-91da-abe440f9363b,7b91ac14-519a-11ea-8744-7b7bdf86aca7
7b4b852c-519a-11ea-b69e-2f03412d7c88,7b918dc4-519a-11ea-a877-c72f39074ac3
7b557b7c-519a-11ea-956b-c3cd454ae9ce,7b91c9f6-519a-11ea-ac61-874b30e08486
7b2bfea0-519a-11ea-b7a8-8f178f10b811,7b920d12-519a-11ea-acab-036cc66178b4
7b904482-519a-11ea-b172-cb69b4519263,7b927edc-519a-11ea-8ccf-8f397c0d6b1f
7b62df74-519a-11ea-a757-2fefaecfcdf7,7b929b92-519a-11ea-8841-5733abe2fb31
7b35c804-519a-11ea-9d79-bf93449b00c7,7b92b7f8-519a-11ea-b1d5-aff7acb06d31
7b5b8684-519a-11ea-8b8b-db9a5a617908,7b92eef8-519a-11ea-a6f4-8f134514715b
7b59a0e4-519a-11ea-9116-036136394165,7b9326de-519a-11ea-bf3d-c7bb82c3494b
7b8fa8c4-519a-11ea-95b9-4b107ed49682,7b934286-519a-11ea-bc33-33e675f3e2c7
7b282fc8-519a-11ea-84a2-17e4ba3d1d1e,7b938958-519a-11ea-909c-1bb1fd2c7310
7b2e4962-519a-11ea-a1ad-6be3d3d8e67e,7b93df7a-519a-11ea-b33e-43288b97ec52
7b4fa486-519a-11ea-8b81-cbced850591b,7b93fb04-519a-11ea-af86-b368867b4a43
7b4fb4ee-519a-11ea-9cda-bffd4e6513ff,7b9423a4-519a-11ea-b963-2ffafdcacb9c
7b8bff76-519a-11ea-8705-8b19e0ab68c8,7b945662-519a-11ea-80c7-0b5117864730
7b478fd0-519a-11ea-bc42-6bbe592ae49b,7b9485ce-519a-11ea-9021-cb6cda82a6fc
7b2bdcd6-519a-11ea-a1ec-f75cf7e89240,7b94a6bc-519a-11ea-9bc2-fb9129290e3a
7b608b20-519a-11ea-9065-3fff023af7d3,7b94d6f0-519a-11ea-932b-1bf557c848da
7b82b150-519a-11ea-991b-735ae28efc48,7b94ebe0-519a-11ea-aff7-43f1bc95f6be
7b706888-519a-11ea-8cad-bb637ac4624e,7b951e3a-519a-11ea-ad85-e323d71630e6
7b293d5a-519a-11ea-9219-f782feb2f28b,7b9558d2-519a-11ea-9187-d729cdbae85e
7b667d96-519a-11ea-baf6-bb6f9ee8243f,7b956a02-519a-11ea-ab5d-4bba6982741d
7b8a4a32-519a-11ea-aa1d-0b41027f8c31,7b95af8a-519a-11ea-9880-1fe6f60ffbd0
7b4fd596-519a-11ea-9725-ff2ae1864b37,7b95c3bc-519a-11ea-aa02-636484a79d41
7b51ea02-519a-11ea-b224-af5c6c829576,7b962118-519a-11ea-a24a-7b8876347aeb
7b7f5cc6-519a-11ea-801c-ab05ee230925,7b964aee-519a-11ea-bf7e-43afc9fd6a4e
7b701d2e-519a-11ea-9855-9bcc68bcddc0,7b96ea30-519a-11ea-ac32-4f60401a426e
7b72df32-519a-11ea-8f2e-9f67e3143bdc,7b96d568-519a-11ea-b3bc-6ffb346463cc
7b4f04e0-519a-11ea-8259-071972c1e6c6,7b970330-519a-11ea-9d2d-23c02ae928be
7b43dcc8-519a-11ea-ad0b-a7a1599c2c44,7b97141a-519a-11ea-96c0-1bd7698f7138
7b6a9b88-519a-11ea-9bbe-c3f6fb5b6edd,7b97a254-519a-11ea-ac7c-4321cc730401
7b639f68-519a-11ea-8d1c-c337178bf2df,7b97cce8-519a-11ea-878f-539544bbff8d
7b561b40-519a-11ea-81ed-6710835161bb,7b97e494-519a-11ea-be0b-afa0a473d854
7b6a9b88-519a-11ea-9bbe-c3f6fb5b6edd,7b97feac-519a-11ea-9b3d-7b1fe0133f42
7b340bb8-519a-11ea-b325-1f15287b99e2,7b987634-519a-11ea-829d-cbb3f6cc3323
7b6d12f0-519a-11ea-80dc-2fa47c312c31,7b989394-519a-11ea-95b5-173375f9b016
7b20f9ce-519a-11ea-8568-d78cb3e29908,7b98ad48-519a-11ea-a215-ffdb30ff9d13
7b45c7e0-519a-11ea-9bd2-af77ca11a230,7b98e77c-519a-11ea-b07b-f3db3a61fa7c
7b562cac-519a-11ea-809d-072455d916bc,7b99318c-519a-11ea-b9ae-df50b3105895
7b389796-519a-11ea-affa-07b541b6c906,7b994438-519a-11ea-b890-d3b2b6e98d0f
7b51ea02-519a-11ea-b224-af5c6c829576,7b99801a-519a-11ea-9637-3f5f5cde517a
7b1f4c50-519a-11ea-940b-a7fc74f8d1b8,7b999456-519a-11ea-bb2e-67b1c9bb57a4
7b50fde0-519a-11ea-8f9a-075c65969b34,7b99a702-519a-11ea-9dd6-a3826af6327f
7b4db950-519a-11ea-a102-8ba1f4d1dfde,7b99b850-519a-11ea-9cd7-83ff4b6effb1
7b4bded2-519a-11ea-92ac-579fc1294258,7b9a3ce4-519a-11ea-b6ea-8752e0193b3b
7b394ff6-519a-11ea-8fc5-cbe581cf8572,7b9a2ab0-519a-11ea-a61d-5f9e05fa9a7f
7b2584b2-519a-11ea-8c5f-03613b48b44f,7b9a535a-519a-11ea-819d-93ad939ed550
7b4fa486-519a-11ea-8b81-cbced850591b,7b9a6926-519a-11ea-8be9-2f4c2d6ac90b
7b20dc64-519a-11ea-b019-ff04a864901a,7b9ab3cc-519a-11ea-8c5b-8b60233c9304
7b82eab2-519a-11ea-afc0-f7696d9acee9,7b9ae270-519a-11ea-bbbb-b365366d112f
7b64fd7c-519a-11ea-9bd6-b3549ac90bb5,7b9af670-519a-11ea-bbd2-675606dd9c52
7b542d9e-519a-11ea-945d-3f046ae54175,7b9b151a-519a-11ea-b14f-3781ffe55f93
7b3a9a50-519a-11ea-addd-47219b32509e,7b9b5a02-519a-11ea-a9fe-8b448cec42bd
7b92eef8-519a-11ea-a6f4-8f134514715b,7b9b737a-519a-11ea-8854-2b6ae252b4db
7b801f9e-519a-11ea-a5ce-bb233d86b2fc,7b9b8f18-519a-11ea-838d-977c05e85b58
7b23760e-519a-11ea-a27c-9744040a768b,7b9baed0-519a-11ea-84fe-376b4677ea4a
7b8d504c-519a-11ea-9eeb-e324424ab6de,7b9c0830-519a-11ea-bd45-532d2fabb094
7b4ac75e-519a-11ea-984c-afc2bcebb109,7b9c1884-519a-11ea-bd3e-7fb618dada93
7b8009a0-519a-11ea-ad2b-dfa661b81f5d,7b9c4c82-519a-11ea-ab8d-2b998a019cec
7b5caa28-519a-11ea-92cb-7f384c310b3d,7b9c6622-519a-11ea-8bf2-078bd7f936d5
7b1c70fc-519a-11ea-833d-c3311ec87993,7b9c7b3a-519a-11ea-8f72-7763b9af1dae
7b8e24c2-519a-11ea-801c-af23c28a5738,7b9c903e-519a-11ea-a0c9-df29eacb8e94
7b2f3da4-519a-11ea-a16e-b74fcd6ce0cc,7b9d0064-519a-11ea-8997-4bea6d8bd045
7b956a02-519a-11ea-ab5d-4bba6982741d,7b9d15cc-519a-11ea-b994-eb2eee600b19
7b292ad6-519a-11ea-935b-13fa0c8b0144,7b9d28c8-519a-11ea-ad0a-e315a7418027
7b68378a-519a-11ea-a018-c7d1cb38b848,7b9d5be0-519a-11ea-9630-3f20b6cfa694
7b9c4c82-519a-11ea-ab8d-2b998a019cec,7b9db3a6-519a-11ea-9fab-1b35590107ec
7b5d699a-519a-11ea-a099-b7768364c3a4,7b9dcb8e-519a-11ea-963b-534ca13d1e84
7b6a00f6-519a-11ea-b7f6-87fbd97fce48,7b9de8d0-519a-11ea-8915-efa7104504a2
7b6a1fdc-519a-11ea-aeb1-1b6fab08c476,7b9dfb72-519a-11ea-a9c4-f3ee77fd6577
7b6b2706-519a-11ea-9174-4b91038ef7d1,7b9e7304-519a-11ea-89b1-77a31d17ba82
7b81a530-519a-11ea-9b58-dba4bdf06802,7b9e8466-519a-11ea-9115-9762472e849a
7b78ea76-519a-11ea-9493-87df03a0e4c1,7b9e9d70-519a-11ea-8e78-036c82778de4
7b872a1e-519a-11ea-bffd-cb83e6e6633a,7b9ea734-519a-11ea-84e5-33a8ee67b002
7b4971b0-519a-11ea-9566-47bf43cead4b,7b9ee528-519a-11ea-9f92-03e2ca2b5032
7b8cfea8-519a-11ea-b4c9-2b3929f2b887,7b9f2df8-519a-11ea-9296-af3795f44f42
7b353ec0-519a-11ea-a9c4-13ab309b8648,7b9f40cc-519a-11ea-86f8-8be631ee8bd2
7b25d354-519a-11ea-a852-cfb9cb38ed28,7b9f6994-519a-11ea-a5aa-b7691b71c0d0
7b5b98f4-519a-11ea-8d7c-d34e870a34f1,7b9f8960-519a-11ea-a2f2-2b26fa48f92a
7b8665b6-519a-11ea-aef2-077cdaf6e2b6,7b9fb16a-519a-11ea-baea-ffaf16719f80
7b1d43ec-519a-11ea-88d5-9f1edec24c3a,7b9fd5aa-519a-11ea-9b9c-f32de682fcb7
7b724a22-519a-11ea-9ce2-cf97c88b687f,7ba026c2-519a-11ea-a204-833872f429e5
7b5dcf52-519a-11ea-9703-af172d7916ed,7ba03b58-519a-11ea-84e4-63773b374054
7b50354a-519a-11ea-96a8-afc62dd6703d,7ba04fc6-519a-11ea-9400-072e2a77c020
7b77b282-519a-11ea-b0f2-e7a4d358d968,7ba074ba-519a-11ea-a2e8-8f85948d1e71
7b907290-519a-11ea-9245-ef6bcbd68a9d,7ba09d00-519a-11ea-b9f3-4f884e5bcd75
7b4a155c-519a-11ea-91d6-636843a47c90,7ba0e6b6-519a-11ea-a6cd-5b342c164acb
7b76f4dc-519a-11ea-9894-e31645c668b6,7ba10646-519a-11ea-9e7c-3f658e219f68
7b364f36-519a-11ea-b140-67de18c65a67,7ba11faa-519a-11ea-a1e5-8bc115f09429
7b596a2a-519a-11ea-968f-5338500c488e,7ba14da4-519a-11ea-b55d-5f4b6f9d15fe
7b41958a-519a-11ea-9202-870ac71dbf5f,7ba1d95e-519a-11ea-a75a-8bbc686e4c7e
7b5d232c-519a-11ea-b6ef-b7a36de73c25,7ba20ece-519a-11ea-9b96-93f5eba0f272
7b5686f2-519a-11ea-b03d-f73d95c7d55e,7ba1f7fe-519a-11ea-a2db-13bc92cd11c9
7b1b6da6-519a-11ea-8045-b7409a847454,7ba22756-519a-11ea-80f1-b7ae97d7b095
7b4cf088-519a-11ea-bc67-c3ce6855f364,7ba27f76-519a-11ea-bedf-ab5c6165bb21
7b466934-519a-11ea-97c1-4fb9647bc00f,7ba2b4dc-519a-11ea-9e01-23715104369a
7b45c7e0-519a-11ea-9bd2-af77ca11a230,7ba2d5de-519a-11ea-bc2d-6314d90df974
7b336898-519a-11ea-95ae-9f554b844598,7ba2f28a-519a-11ea-a976-cf52faa16821
7b424cbe-519a-11ea-9d55-c32bfc7d1954,7ba357de-519a-11ea-94e3-bb9532f7f129
7b1e3eaa-519a-11ea-818d-87476fc205cb,7ba3770a-519a-11ea-bb3b-4f5afdebb22c
7b34ce0e-519a-11ea-8d5e-4f3af39e434c,7ba39d20-519a-11ea-adc1-5b8a39f6bbf1
7ba27f76-519a-11ea-bedf-ab5c6165bb21,7ba3c002-519a-11ea-a770-c7465b8680d8
7b2c97ac-519a-11ea-999c-3f0fc0c7b50a,7ba4067a-519a-11ea-8b8c-cb24feceb150
7b7ba4f0-519a-11ea-befa-57b9686d9ed8,7ba433d4-519a-11ea-a801-0f201cc71f7f
7b6d6b9c-519a-11ea-975a-339f7bf6dfc3,7ba4bda4-519a-11ea-abde-b315526f570e
7b2c61ce-519a-11ea-b5eb-b733c8e8f271,7ba4d74e-519a-11ea-b1a1-5fa2f03b00c2
7b561b40-519a-11ea-81ed-6710835161bb,7ba4ee82-519a-11ea-bc51-b7cb3ff752ae
7b99a702-519a-11ea-9dd6-a3826af6327f,7ba51c5e-519a-11ea-8866-c3f96a6aa010
7b23a138-519a-11ea-8723-0f76349f7674,7ba57f46-519a-11ea-a707-1b6144996853
7b81d41a-519a-11ea-a049-f38a75a253bb,7ba5e9d6-519a-11ea-84e2-cbd9c9dd1861
7b989394-519a-11ea-95b5-173375f9b016,7ba606fa-519a-11ea-ab91-6349c6c0be60
7b1c70fc-519a-11ea-833d-c3311ec87993,7ba6485e-519a-11ea-a2ad-b3c3c2fe208e
7b88abaa-519a-11ea-ab15-d753a480c379,7ba62720-519a-11ea-87e5-b389b3bc398c
7b9326de-519a-11ea-bf3d-c7bb82c3494b,7ba6cf0e-519a-11ea-bf19-1b33d72819fd
7b4f04e0-519a-11ea-8259-071972c1e6c6,7ba6eb88-519a-11ea-924f-bf0af956a875
7b4216fe-519a-11ea-938e-ab31fcf66dac,7ba72350-519a-11ea-9bf8-bb5d9c200daa
7b78d8b0-519a-11ea-b60e-2f98d99d1535,7ba706f4-519a-11ea-b822-8792d6ef8938
7b30055e-519a-11ea-a9ba-ef8cd106dbe9,7ba7a0b4-519a-11ea-a044-0706c6a28837
7b50354a-519a-11ea-96a8-afc62dd6703d,7ba7e632-519a-11ea-b435-1f6aae6ac939
7b22c7cc-519a-11ea-8316-a7bf4e3d6833,7ba81d50-519a-11ea-92af-8bb7754b0e8b
7b441bde-519a-11ea-a9d5-533c5c0a9a80,7ba800f4-519a-11ea-9a97-93660d86d853
7b1f4c50-519a-11ea-940b-a7fc74f8d1b8,7ba83326-519a-11ea-af1b-cfee7722c568
7b2e2c66-519a-11ea-ab9f-8b0834dec2ca,7ba8903c-519a-11ea-ad17-9771cf658e1c
7b482eae-519a-11ea-80eb-ebdcad522779,7ba8d056-519a-11ea-b7e4-3f2b9127bfda
7b337a72-519a-11ea-a979-47c2eee050fd,7ba8f432-519a-11ea-9125-739f438fe8e1
7b6c2bb0-519a-11ea-bac8-db221ad63624,7ba909c2-519a-11ea-86cf-438b70c13eb5
7b6c2bb0-519a-11ea-bac8-db221ad63624,7ba9bdfe-519a-11ea-80ef-ff4e64ea7b70
7b40954a-519a-11ea-a81f-57b70aab21bb,7ba9de2e-519a-11ea-9dc6-b340f1a194c4
7b945662-519a-11ea-80c7-0b5117864730,7ba9f666-519a-11ea-83de-83c47222381d
7b1ba712-519a-11ea-8201-db2ca7b1e444,7baa0ba6-519a-11ea-bbdb-dbd3d5bae541
7b65c07c-519a-11ea-8568-3bb1b7c5b511,7baa98d2-519a-11ea-abcc-0764a9cb88e7
7b9af670-519a-11ea-bbd2-675606dd9c52,7baab5b0-519a-11ea-a0c2-17f39ca8e1ff
7b66e0ce-519a-11ea-a35f-6b0127dc5e44,7baaf34a-519a-11ea-ab7a-bf981a2e0da8
7b6f011e-519a-11ea-a19a-3f299665906a,7bab22de-519a-11ea-9115-ff9d3eca4869
7b70ddea-519a-11ea-8d0d-f312bb7bdf0c,7bab9e9e-519a-11ea-b8cb-1b1524a2e291
7b433642-519a-11ea-a2bc-a7fb961d8b9e,7babb960-519a-11ea-ba64-4f8cbb037a33
7b8ac5fc-519a-11ea-9c1c-ffa07314f660,7babd2b0-519a-11ea-a772-fff07acd0cae
7b3c8a36-519a-11ea-8ffd-d7e9e1b41c15,7bac0f14-519a-11ea-a7d4-4ba563c730bf
7b216bc0-519a-11ea-82ea-bbe363771941,7bac99ca-519a-11ea-888f-2befba98d660
7b2aec7c-519a-11ea-90d7-13c00bde3311,7bacb130-519a-11ea-80d1-2b761050119f
7b3dc4dc-519a-11ea-a57c-e322813def84,7bacc9f4-519a-11ea-b426-4bb952d2e3e1
7b32d91e-519a-11ea-89a7-2340a5e3598b,7bad2c82-519a-11ea-836b-7f551f20f6ea
7b360fda-519a-11ea-8a81-fb3269370c8f,7bad5748-519a-11ea-aa61-e7c1449ac503
7b1f92fa-519a-11ea-88b0-fb14f3bf43c1,7bad8dee-519a-11ea-829f-630b640b13f1
7b902998-519a-11ea-9802-cb15bf2592fc,7badc2fa-519a-11ea-ba8e-9740e39e3123
7b97feac-519a-11ea-9b3d-7b1fe0133f42,7bae24e8-519a-11ea-8865-43c0be45cbc5
7b4d08de-519a-11ea-a577-6754d5cadbe8,7bae4108-519a-11ea-8847-67b5d8baaead
7b67220a-519a-11ea-842c-17ec16b2ba46,7bae5c10-519a-11ea-99a6-0b1f52a92c07
7b220616-519a-11ea-9c04-b72982a7805c,7bae81d6-519a-11ea-9a3d-db2a3155caf5
7b8b832a-519a-11ea-b46c-c7751ff3a025,7baef17a-519a-11ea-b76d-278e0d0087b2
7b1e3eaa-519a-11ea-818d-87476fc205cb,7baf10a6-519a-11ea-92cf-f722643ef27e
7b755fbe-519a-11ea-9c24-dfff52c306e6,7baf2db6-519a-11ea-a6b1-1ba11892814a
7b2a8426-519a-11ea-b560-5bad8380f327,7baf456c-519a-11ea-bfe2-2fea6d12410a
7b516410-519a-11ea-87d1-2ba028d08452,7baf8e14-519a-11ea-a164-371d71b14b2f
7b3682a8-519a-11ea-b7c2-d39c47c6a1bd,7bafd144-519a-11ea-9575-07808aa1362e
7b3206f6-519a-11ea-841c-a716756ed1b0,7bb0033a-519a-11ea-b680-e3f6fbd7728d
7b677e3a-519a-11ea-bcb6-4b15b0f3c647,7bafe530-519a-11ea-b545-13114db849c3
7ba7a0b4-519a-11ea-a044-0706c6a28837,7bb086d4-519a-11ea-ad6d-dbf8de2a9b71
7b207fc6-519a-11ea-9b27-7fc0e9f5b154,7bb0a3c6-519a-11ea-b6c8-8b5b3065924a
7b847490-519a-11ea-ab26-eb305a256c2d,7bb0b94c-519a-11ea-b57d-a714027fc29c
7b293d5a-519a-11ea-9219-f782feb2f28b,7bb0ce5a-519a-11ea-8fce-5b5c0a27c18a
7b82b150-519a-11ea-991b-735ae28efc48,7bb14f4c-519a-11ea-a9e0-8300203f2180
7b7e388c-519a-11ea-95e0-a38681d4a787,7bb16414-519a-11ea-9b53-a31572a20cbd
7ba9f666-519a-11ea-83de-83c47222381d,7bb181d8-519a-11ea-93a1-0bf8b6caecef
7b80ef78-519a-11ea-9730-071346b0e399,7bb19ba0-519a-11ea-933d-1bc400860a3d
7b2c61ce-519a-11ea-b5eb-b733c8e8f271,7bb25144-519a-11ea-8c1a-43965970dfc8
7b7cc060-519a-11ea-95b1-af68d77519b8,7bb26a26-519a-11ea-bb27-577c58d70e5a
7b41958a-519a-11ea-9202-870ac71dbf5f,7bb28308-519a-11ea-867b-e399b89442ed
7b3514cc-519a-11ea-9b8e-d315ec0a1745,7bb29938-519a-11ea-8934-37a695208fed
7b9ee528-519a-11ea-9f92-03e2ca2b5032,7bb31e62-519a-11ea-a4f8-470cca0d92fd
7b504940-519a-11ea-a27f-43f3278654a9,7bb33460-519a-11ea-8b07-6fc32e47a8be
7b4e5de2-519a-11ea-a810-b30b512a3e39,7bb34f5e-519a-11ea-9a47-6b494f2b065b
7b315760-519a-11ea-8a5f-eb3f2ba82804,7bb37ec0-519a-11ea-88b7-c34f365a2342
7b6f7ff4-519a-11ea-ad86-837535bcf906,7bb409bc-519a-11ea-b850-6bbfe0e12d77
7b534492-519a-11ea-89d4-875e192dbc7b,7bb43748-519a-11ea-835f-bf65673aad00
7bae81d6-519a-11ea-9a3d-db2a3155caf5,7bb46dd0-519a-11ea-93af-eb46121bb8f2
7ba9f666-519a-11ea-83de-83c47222381d,7bb452fa-519a-11ea-9083-4fca8926cb8f
7b1ef48a-519a-11ea-a17f-37d891995ae7,7bb50c90-519a-11ea-959b-d356395130a4
7b23a138-519a-11ea-8723-0f76349f7674,7bb5243c-519a-11ea-ad34-179f85557dd3
7b2a25da-519a-11ea-965d-53948544d239,7bb53de6-519a-11ea-9313-7be530410000
7b3295ee-519a-11ea-a1d9-67e25492ba76,7bb57c3e-519a-11ea-bcc5-039bafeb8d62
7b6d27fe-519a-11ea-a830-dbcfdad54786,7bb5c7c0-519a-11ea-83e0-abf5857a1203
7b1d35b4-519a-11ea-b4f8-134fd2d4ae0d,7bb5de4a-519a-11ea-8cf8-2f887201bdfe
7b818528-519a-11ea-83e1-079f9bc76bbf,7bb5f240-519a-11ea-9de4-37111b20584a
7b7fe02e-519a-11ea-bd8f-2bdea4994672,7bb607da-519a-11ea-a1d8-e3c4033f586d
7b37f458-519a-11ea-8e17-d718312f1d9f,7bb64fec-519a-11ea-8000-d74c92b87d8d
7bad2c82-519a-11ea-836b-7f551f20f6ea,7bb6740e-519a-11ea-bfad-a3a131eaffaa
7b99b850-519a-11ea-9cd7-83ff4b6effb1,7bb6c512-519a-11ea-91af-6fe76eda8d4f
7b9c903e-519a-11ea-a0c9-df29eacb8e94,7bb74096-519a-11ea-b919-f3876d938cd9
7b8ddf12-519a-11ea-8762-df73ed7db2d0,7bb72412-519a-11ea-b580-f315bff93d13
7b68378a-519a-11ea-a018-c7d1cb38b848,7bb778e0-519a-11ea-8da1-0b43a251b5ca
7b5ad7f2-519a-11ea-ac35-4f1f4a33acb5,7bb793d4-519a-11ea-8fcf-77c4ba58526b
7bb34f5e-519a-11ea-9a47-6b494f2b065b,7bb7d95c-519a-11ea-b295-dffc721de230
7b9c4c82-519a-11ea-ab8d-2b998a019cec,7bb7fd56-519a-11ea-80af-53e0ff7fc062
7b7b595a-519a-11ea-a9b9-4f79c418c017,7bb83046-519a-11ea-983a-83d5f087674f
7b1ebd6c-519a-11ea-b984-fbbd0443c40e,7bb84a18-519a-11ea-a11b-b35d66aec5a4
7b4c8b48-519a-11ea-b9bb-67739c211054,7bb8934c-519a-11ea-a696-af0c7482a608
7b2d0eda-519a-11ea-a8aa-ebaf69a796fe,7bb8d3a2-519a-11ea-9513-6f3e4c0b0555
7b7813a8-519a-11ea-afcf-cf572a2190f0,7bb90d68-519a-11ea-a193-6fe088d1b4de
7b66e0ce-519a-11ea-a35f-6b0127dc5e44,7bb92b68-519a-11ea-9082-d39ecaf18cd2
7b46c5c8-519a-11ea-8c9e-2bc236cab4f6,7bb9421a-519a-11ea-bb94-ffef80636148
7b9b737a-519a-11ea-8854-2b6ae252b4db,7bb9a548-519a-11ea-b4b3-432603fbc441
7b23760e-519a-11ea-a27c-9744040a768b,7bb9f4a8-519a-11ea-8a3d-7beadd85d0c6
7b32c708-519a-11ea-abc2-03b97de06655,7bba20e0-519a-11ea-a68c-87a18928ac4c
7b478fd0-519a-11ea-bc42-6bbe592ae49b,7bba6622-519a-11ea-9c6d-8b7cfaf44644
7b755fbe-519a-11ea-9c24-dfff52c306e6,7bba9afc-519a-11ea-a6ce-6b2aee27a69f
7b42ad26-519a-11ea-acdb-9bb79733a48d,7bbacec8-519a-11ea-b402-17afcb2115b4
7b22ea68-519a-11ea-abd3-e7c4e7b750f5,7bbae980-519a-11ea-862b-8b91d73a600d
7b1da8e6-519a-11ea-86d7-db43e7d65216,7bbb221a-519a-11ea-8a2a-9395b35e5e7d
7b656028-519a-11ea-9973-cf8f10d9be75,7bbb524e-519a-11ea-9a5c-1f8e18cbc345
7b374c92-519a-11ea-88a8-93d560f86668,7bbbb220-519a-11ea-b49a-4382565f51ca
7b48173e-519a-11ea-a405-1f8770abdda2,7bbbd8cc-519a-11ea-94e7-5fa14e0c8d2a
7b4eda7e-519a-11ea-82fc-f7f40344eb96,7bbc2282-519a-11ea-b5bf-8bbc9c2a1a5a
7b918dc4-519a-11ea-a877-c72f39074ac3,7bbc3f06-519a-11ea-b97a-67b23cef0582
7b22c7cc-519a-11ea-8316-a7bf4e3d6833,7bbc9046-519a-11ea-bc88-7b26223b26d4
7b291672-519a-11ea-83fd-4fb147386c0d,7bbcacde-519a-11ea-aabd-1bc54de1aaae
7b8102d8-519a-11ea-aaed-87217bb06c07,7bbcebf4-519a-11ea-a2d3-2f55870c58f8
7b7e49b2-519a-11ea-8c81-9b3c1833774d,7bbd1f98-519a-11ea-a097-2bc2409c79e4
7b1ebd6c-519a-11ea-b984-fbbd0443c40e,7bbd70ec-519a-11ea-8324-67ffac6024e1
7b676828-519a-11ea-b5ab-ef273c9725c9,7bbd9edc-519a-11ea-bc52-935f3afacf40
7ba83326-519a-11ea-af1b-cfee7722c568,7bbd8654-519a-11ea-8811-139236bd1a04
7b2f2b5c-519a-11ea-9e5f-db65e4aa4170,7bbdea36-519a-11ea-9b2f-0b54fdc5c981
7b7a780a-519a-11ea-972c-b7610e9eac79,7bbe4454-519a-11ea-ac47-8b5b5593a64b
7baa98d2-519a-11ea-abcc-0764a9cb88e7,7bbe5ad4-519a-11ea-9287-d7780a43c06d
7b9a3ce4-519a-11ea-b6ea-8752e0193b3b,7bbe72d0-519a-11ea-ae17-37fcbc52597a
7b353ec0-519a-11ea-a9c4-13ab309b8648,7bbf1fc8-519a-11ea-8a11-f766ca857c18
7b1fb820-519a-11ea-bd12-a7d89b5c58ff,7bbf38dc-519a-11ea-8512-ebe49522aad1
7b76e136-519a-11ea-a52c-73f5db030f86,7bbf51a0-519a-11ea-b844-0bd0c0c9014a
7bbbd8cc-519a-11ea-94e7-5fa14e0c8d2a,7bbf64d8-519a-11ea-9345-57ad83a60291
7b2ee2d2-519a-11ea-981c-1bad0db1fde0,7bbfc734-519a-11ea-a9bb-dfd5f726b068
7b79ec5a-519a-11ea-ad7a-ff43cb9603d5,7bbfe62e-519a-11ea-9b2f-ab8827777a8c
7b706888-519a-11ea-8cad-bb637ac4624e,7bc00bf4-519a-11ea-99b0-ef9d15ec3adb
7ba4067a-519a-11ea-8b8c-cb24feceb150,7bc02260-519a-11ea-8141-73b394857ad1
7bb90d68-519a-11ea-a193-6fe088d1b4de,7bc09fce-519a-11ea-8928-3bb8666f49f5
7bb28308-519a-11ea-867b-e399b89442ed,7bc0c49a-519a-11ea-81ba-3f0568f057ca
7b3e30fc-519a-11ea-8ba5-933805280cb7,7bc10162-519a-11ea-8b59-472dd7c2ca7d
7baf456c-519a-11ea-bfe2-2fea6d12410a,7bc0ec86-519a-11ea-9bc7-b7bdfdf4d2e4
7b56cfe0-519a-11ea-afb1-2f330d58c646,7bc184e8-519a-11ea-8310-d7953c1443dd
7bbb524e-519a-11ea-9a5c-1f8e18cbc345,7bc1aacc-519a-11ea-93d9-c3cbc84ff148
7b6b46a0-519a-11ea-88ea-9ff1a0a22f7f,7bc1c066-519a-11ea-8183-73fee0eff16e
7b38255e-519a-11ea-8851-2f95c0d5fb26,7bc1d2ea-519a-11ea-8476-cb08fc9238a7
7b6eaef8-519a-11ea-b477-7b1d7af019c8,7bc248ce-519a-11ea-b261-87a3552f4bc7
7b2cf620-519a-11ea-a697-5b35f8856657,7bc25e86-519a-11ea-aac5-43ba823e9ac6
7b1ba712-519a-11ea-8201-db2ca7b1e444,7bc271be-519a-11ea-9c74-a709bc91beb9
7b9a535a-519a-11ea-819d-93ad939ed550,7bc2a5bc-519a-11ea-8ec1-4ff5c1d02090
7b3dc4dc-519a-11ea-a57c-e322813def84,7bc2ff1c-519a-11ea-9991-b7fd5e8ebe9c
7b9c0830-519a-11ea-bd45-532d2fabb094,7bc315f6-519a-11ea-ad33-93bd42c8156b
7b93fb04-519a-11ea-af86-b368867b4a43,7bc33694-519a-11ea-a9ed-277d74945b34
7b7fe02e-519a-11ea-bd8f-2bdea4994672,7bc3719a-519a-11ea-a12d-47338ffb6ee9
7b5e3172-519a-11ea-895e-43a369785ffd,7bc3a296-519a-11ea-820d-cfa02c30ebeb
7b21de16-519a-11ea-ad3c-637bf394786d,7bc3c01e-519a-11ea-93cb-57b3af331e15
7bb6c512-519a-11ea-91af-6fe76eda8d4f,7bc3dbee-519a-11ea-81aa-a3809d0410cb
7b39d458-519a-11ea-b831-d7906f438823,7bc415fa-519a-11ea-8941-83c28f7113a7
7baf2db6-519a-11ea-a6b1-1ba11892814a,7bc4902a-519a-11ea-84c3-3fa5a3685c31
7bbf1fc8-519a-11ea-8a11-f766ca857c18,7bc4a4d4-519a-11ea-8b95-6318ed5c9611
7bb9f4a8-519a-11ea-8a3d-7beadd85d0c6,7bc4b7b2-519a-11ea-bda2-7718ecc59acc
7b54132c-519a-11ea-8673-63f780168c64,7bc4ca22-519a-11ea-a45a-f7f11ab4e7e0
7bbc9046-519a-11ea-bc88-7b26223b26d4,7bc57562-519a-11ea-9920-0709ccf30a58
7b5b8684-519a-11ea-8b8b-db9a5a617908,7bc5c6d4-519a-11ea-93b7-6777597748f2
7b7995c0-519a-11ea-98e1-a3a9a044c9a7,7bc5ffd2-519a-11ea-933c-4f12de3c730c
7b4ae9f0-519a-11ea-8a98-bbccd5dc2ff8,7bc5e48e-519a-11ea-b5a4-0798a5355646
7b6f5c18-519a-11ea-8d50-6b081391ea0d,7bc63fe2-519a-11ea-8bd2-c7866540ba0c
7b9dcb8e-519a-11ea-963b-534ca13d1e84,7bc6a432-519a-11ea-ae70-b7ada2035588
7bb6c512-519a-11ea-91af-6fe76eda8d4f,7bc6be68-519a-11ea-b948-ab5c8f8df62d
7b8fa8c4-519a-11ea-95b9-4b107ed49682,7bc6d542-519a-11ea-89ed-6337c39510aa
7b1ee5da-519a-11ea-9f9c-eba034ab2870,7bc779fc-519a-11ea-9aa4-8f2faab59201
7ba5e9d6-519a-11ea-84e2-cbd9c9dd1861,7bc7adbe-519a-11ea-81f0-0709ba672373
7b755fbe-519a-11ea-9c24-dfff52c306e6,7bc7c434-519a-11ea-ba74-6bf9a0f5e20d
7b2bba9e-519a-11ea-bdc0-d7e0e4ef51c8,7bc79216-519a-11ea-8f6c-3f6e14d6c9be
7b430a32-519a-11ea-9f39-2bd9f6933453,7bc840a8-519a-11ea-ae33-2b9f07853734
7bac0f14-519a-11ea-a7d4-4ba563c730bf,7bc85890-519a-11ea-bdf5-5bf8885a0ad5
7b695714-519a-11ea-b46d-cfc2f3464e5c,7bc88b30-519a-11ea-beb1-7bc107b144b8
7b8cc780-519a-11ea-84f7-db095d5ff99c,7bc8ec06-519a-11ea-96a2-9be0e06a342e
7b7fc990-519a-11ea-81f3-8f62cd5e6d8c,7bc90d12-519a-11ea-ae27-27157a565ba1
7b3b772c-519a-11ea-9fe5-4f28463b591d,7bc92c34-519a-11ea-8564-fba3d640c181
7b777600-519a-11ea-be58-63c73db21012,7bc987f6-519a-11ea-9386-e752139ef599
7bb6c512-519a-11ea-91af-6fe76eda8d4f,7bc9a0a6-519a-11ea-b0e0-23f8256060cc
7b927edc-519a-11ea-8ccf-8f397c0d6b1f,7bc9e08e-519a-11ea-99b8-df8206a7c651
7b8bb1ba-519a-11ea-9d51-2359c548664c,7bc9f682-519a-11ea-9ea3-a3599e050f59
7b2e0ac4-519a-11ea-92c0-472755299e35,7bca4678-519a-11ea-b3f5-d7b049ebba27
7bbc2282-519a-11ea-b5bf-8bbc9c2a1a5a,7bca62ac-519a-11ea-b7ba-bf01803ab8f6
7b66a262-519a-11ea-8a2c-07f4c0bbe1ba,7bcab6bc-519a-11ea-9b7e-2f34636865ab
7b364f36-519a-11ea-b140-67de18c65a67,7bcacdd2-519a-11ea-9a68-d37aafe628ce
