RunID,Tick,AllAgents,Active,Inactive
run-2020-2-18-16-42-1.128106117,0,13,13,0
run-2020-2-18-16-42-1.128106117,1,16,11,5
run-2020-2-18-16-42-1.128106117,2,21,14,7
run-2020-2-18-16-42-1.128106117,3,24,16,8
run-2020-2-18-16-42-1.128106117,4,31,18,13
run-2020-2-18-16-42-1.128106117,5,38,20,18
run-2020-2-18-16-42-1.128106117,6,45,21,24
run-2020-2-18-16-42-1.128106117,7,49,20,29
run-2020-2-18-16-42-1.128106117,8,52,23,29
run-2020-2-18-16-42-1.128106117,9,57,26,31
run-2020-2-18-16-42-1.128106117,10,60,24,36
run-2020-2-18-16-42-1.128106117,11,63,24,39
run-2020-2-18-16-42-1.128106117,12,66,26,40
run-2020-2-18-16-42-1.128106117,13,72,29,43
run-2020-2-18-16-42-1.128106117,14,77,34,43
run-2020-2-18-16-42-1.128106117,15,82,34,48
run-2020-2-18-16-42-1.128106117,16,84,35,49
run-2020-2-18-16-42-1.128106117,17,85,34,51
run-2020-2-18-16-42-1.128106117,18,89,35,54
run-2020-2-18-16-42-1.128106117,19,90,29,61
run-2020-2-18-16-42-1.128106117,20,96,33,63
run-2020-2-18-16-42-1.128106117,21,103,38,65
run-2020-2-18-16-42-1.128106117,22,104,35,69
run-2020-2-18-16-42-1.128106117,23,108,38,70
run-2020-2-18-16-42-1.128106117,24,114,43,71
run-2020-2-18-16-42-1.128106117,25,118,43,75
run-2020-2-18-16-42-1.128106117,26,122,44,78
run-2020-2-18-16-42-1.128106117,27,127,46,81
run-2020-2-18-16-42-1.128106117,28,132,51,81
run-2020-2-18-16-42-1.128106117,29,134,49,85
run-2020-2-18-16-42-1.128106117,30,137,48,89
run-2020-2-18-16-42-1.128106117,31,141,49,92
run-2020-2-18-16-42-1.128106117,32,146,53,93
run-2020-2-18-16-42-1.128106117,33,148,52,96
run-2020-2-18-16-42-1.128106117,34,151,47,104
run-2020-2-18-16-42-1.128106117,35,152,47,105
run-2020-2-18-16-42-1.128106117,36,154,48,106
run-2020-2-18-16-42-1.128106117,37,157,48,109
run-2020-2-18-16-42-1.128106117,38,159,47,112
run-2020-2-18-16-42-1.128106117,39,161,46,115
run-2020-2-18-16-42-1.128106117,40,165,48,117
run-2020-2-18-16-42-1.128106117,41,170,51,119
run-2020-2-18-16-42-1.128106117,42,174,54,120
run-2020-2-18-16-42-1.128106117,43,180,55,125
run-2020-2-18-16-42-1.128106117,44,183,54,129
run-2020-2-18-16-42-1.128106117,45,187,55,132
run-2020-2-18-16-42-1.128106117,46,194,58,136
run-2020-2-18-16-42-1.128106117,47,196,56,140
run-2020-2-18-16-42-1.128106117,48,196,55,141
run-2020-2-18-16-42-1.128106117,49,201,58,143
run-2020-2-18-16-42-1.128106117,50,206,58,148
run-2020-2-18-16-42-1.128106117,51,210,58,152
run-2020-2-18-16-42-1.128106117,52,214,55,159
run-2020-2-18-16-42-1.128106117,53,219,54,165
run-2020-2-18-16-42-1.128106117,54,225,55,170
run-2020-2-18-16-42-1.128106117,55,230,58,172
run-2020-2-18-16-42-1.128106117,56,236,60,176
run-2020-2-18-16-42-1.128106117,57,237,54,183
run-2020-2-18-16-42-1.128106117,58,238,50,188
run-2020-2-18-16-42-1.128106117,59,242,52,190
run-2020-2-18-16-42-1.128106117,60,245,53,192
run-2020-2-18-16-42-1.128106117,61,249,53,196
run-2020-2-18-16-42-1.128106117,62,254,57,197
run-2020-2-18-16-42-1.128106117,63,256,56,200
run-2020-2-18-16-42-1.128106117,64,262,58,204
run-2020-2-18-16-42-1.128106117,65,265,61,204
run-2020-2-18-16-42-1.128106117,66,266,60,206
run-2020-2-18-16-42-1.128106117,67,269,60,209
run-2020-2-18-16-42-1.128106117,68,271,57,214
run-2020-2-18-16-42-1.128106117,69,276,57,219
run-2020-2-18-16-42-1.128106117,70,281,57,224
run-2020-2-18-16-42-1.128106117,71,286,58,228
run-2020-2-18-16-42-1.128106117,72,287,57,230
run-2020-2-18-16-42-1.128106117,73,289,56,233
run-2020-2-18-16-42-1.128106117,74,292,57,235
run-2020-2-18-16-42-1.128106117,75,296,61,235
run-2020-2-18-16-42-1.128106117,76,298,59,239
run-2020-2-18-16-42-1.128106117,77,301,58,243
run-2020-2-18-16-42-1.128106117,78,303,58,245
run-2020-2-18-16-42-1.128106117,79,308,62,246
run-2020-2-18-16-42-1.128106117,80,312,60,252
run-2020-2-18-16-42-1.128106117,81,316,62,254
run-2020-2-18-16-42-1.128106117,82,317,62,255
run-2020-2-18-16-42-1.128106117,83,319,61,258
run-2020-2-18-16-42-1.128106117,84,321,61,260
run-2020-2-18-16-42-1.128106117,85,325,61,264
run-2020-2-18-16-42-1.128106117,86,328,60,268
run-2020-2-18-16-42-1.128106117,87,335,63,272
run-2020-2-18-16-42-1.128106117,88,340,64,276
run-2020-2-18-16-42-1.128106117,89,346,66,280
run-2020-2-18-16-42-1.128106117,90,353,67,286
run-2020-2-18-16-42-1.128106117,91,355,64,291
run-2020-2-18-16-42-1.128106117,92,357,62,295
run-2020-2-18-16-42-1.128106117,93,364,65,299
run-2020-2-18-16-42-1.128106117,94,366,58,308
run-2020-2-18-16-42-1.128106117,95,369,59,310
run-2020-2-18-16-42-1.128106117,96,376,64,312
run-2020-2-18-16-42-1.128106117,97,379,65,314
run-2020-2-18-16-42-1.128106117,98,385,66,319
run-2020-2-18-16-42-1.128106117,99,390,66,324
