Source,Target
3b992bf0-51b3-11ea-b4f3-ffe7bde4406d,3b9a5bba-51b3-11ea-80b1-374fe74ce1ab
3b998f96-51b3-11ea-9071-13407d4a538c,3b9a6498-51b3-11ea-a970-ebe8140cb7cf
3b9920ce-51b3-11ea-b3e1-8fa42c2114c4,3b9a6c22-51b3-11ea-9ad6-c3fdc0952752
3b993604-51b3-11ea-8969-1bb781980c86,3b9a77bc-51b3-11ea-ae02-bba0284e1def
3b993604-51b3-11ea-8969-1bb781980c86,3b9ae18e-51b3-11ea-9b0d-b7a95a76ac9f
3b998f96-51b3-11ea-9071-13407d4a538c,3b9af69c-51b3-11ea-b1ef-5767dd3ddb50
3b99caa6-51b3-11ea-98b4-7fe2758df1b7,3b9b1c58-51b3-11ea-8b12-b71b452242e5
3b991372-51b3-11ea-a7d9-0fd709158692,3b9b5402-51b3-11ea-8f10-97edb9c9bbc8
3b9ae18e-51b3-11ea-9b0d-b7a95a76ac9f,3b9b6b90-51b3-11ea-a002-6751626375ed
3b9a5bba-51b3-11ea-80b1-374fe74ce1ab,3b9b75cc-51b3-11ea-8615-7716e322acc8
3b9a5264-51b3-11ea-89c7-f713204f633c,3b9b85da-51b3-11ea-984f-1b0c8d007c6a
3b9b85da-51b3-11ea-984f-1b0c8d007c6a,3b9bc874-51b3-11ea-a86f-7fa63511cc06
3b9b75cc-51b3-11ea-8615-7716e322acc8,3b9bd404-51b3-11ea-88c3-9b3d7d54016b
3b9a6498-51b3-11ea-a970-ebe8140cb7cf,3b9becaa-51b3-11ea-affd-37878f0631ef
3b99caa6-51b3-11ea-98b4-7fe2758df1b7,3b9bfc54-51b3-11ea-9e36-1f0ebbe3a75f
3b9920ce-51b3-11ea-b3e1-8fa42c2114c4,3b9c2e36-51b3-11ea-8c03-bffaf43ef311
3b99caa6-51b3-11ea-98b4-7fe2758df1b7,3b9c3d0e-51b3-11ea-b4ba-e37e10b975f5
3b9bd404-51b3-11ea-88c3-9b3d7d54016b,3b9c636a-51b3-11ea-8cb4-473c89978209
3b99e054-51b3-11ea-aa55-7f5abf8dae9b,3b9c934e-51b3-11ea-948c-37ccce0ba9db
3b9b6b90-51b3-11ea-a002-6751626375ed,3b9ca2f8-51b3-11ea-95b7-5f624e81db42
3b9b85da-51b3-11ea-984f-1b0c8d007c6a,3b9cad98-51b3-11ea-846f-4b248f508b71
3b9b75cc-51b3-11ea-8615-7716e322acc8,3b9ce5ce-51b3-11ea-8e62-3b900d4e00cb
3b9bc874-51b3-11ea-a86f-7fa63511cc06,3b9d1c74-51b3-11ea-9ee0-932c5d8a020d
3b9af69c-51b3-11ea-b1ef-5767dd3ddb50,3b9d46b8-51b3-11ea-97b9-3f0708e402b6
3b99e054-51b3-11ea-aa55-7f5abf8dae9b,3b9d58ba-51b3-11ea-b8ad-f3f766c9d057
3b9c3d0e-51b3-11ea-b4ba-e37e10b975f5,3b9d62ba-51b3-11ea-9a41-73432e465885
3b993604-51b3-11ea-8969-1bb781980c86,3b9d9172-51b3-11ea-b5c3-138d43d889e7
3b9b5402-51b3-11ea-8f10-97edb9c9bbc8,3b9dd380-51b3-11ea-8506-9f463ffda0e7
3b9c934e-51b3-11ea-948c-37ccce0ba9db,3b9de28a-51b3-11ea-bfe5-2f9d3bfc07cb
3b9cad98-51b3-11ea-846f-4b248f508b71,3b9e1fde-51b3-11ea-ad18-9fe90ee32056
3b9ae18e-51b3-11ea-9b0d-b7a95a76ac9f,3b9e5af8-51b3-11ea-a3cf-9b2df3459070
3b998f96-51b3-11ea-9071-13407d4a538c,3b9e66e2-51b3-11ea-b77d-a37de5cba02b
3b998f96-51b3-11ea-9071-13407d4a538c,3b9e702e-51b3-11ea-bf18-db0f175fd376
3b9c636a-51b3-11ea-8cb4-473c89978209,3b9ee8c4-51b3-11ea-8cc9-9f0a702f9230
3b9e5af8-51b3-11ea-a3cf-9b2df3459070,3b9ef350-51b3-11ea-a4f8-53b04249e748
3b99fe04-51b3-11ea-b74c-df1bb30238e0,3b9efd32-51b3-11ea-a1a9-27474d6fd914
3b9d9172-51b3-11ea-b5c3-138d43d889e7,3b9f2e1a-51b3-11ea-ad21-036d9a40c2a0
3b9c934e-51b3-11ea-948c-37ccce0ba9db,3b9f4f26-51b3-11ea-a186-cf7a7ea51a8a
3b991372-51b3-11ea-a7d9-0fd709158692,3b9fbf06-51b3-11ea-bfb6-9bf62003ddbb
3b9af69c-51b3-11ea-b1ef-5767dd3ddb50,3b9fcbfe-51b3-11ea-9108-9f30ae236cf2
3b9ae18e-51b3-11ea-9b0d-b7a95a76ac9f,3b9fe788-51b3-11ea-80c6-d711d12c53b3
3b9e66e2-51b3-11ea-b77d-a37de5cba02b,3b9fd9dc-51b3-11ea-a9a6-83e9618a6957
3b9d9172-51b3-11ea-b5c3-138d43d889e7,3ba057d6-51b3-11ea-94df-b7f514067cdc
3b9e1fde-51b3-11ea-ad18-9fe90ee32056,3ba0665e-51b3-11ea-a9df-f7f898f7ca11
3b9b5402-51b3-11ea-8f10-97edb9c9bbc8,3ba0a312-51b3-11ea-833b-5752577c8016
3b9e1fde-51b3-11ea-ad18-9fe90ee32056,3ba1082a-51b3-11ea-8035-4f279202ed54
3b9a6498-51b3-11ea-a970-ebe8140cb7cf,3ba11ad6-51b3-11ea-9855-43800a392c5e
3b9c2e36-51b3-11ea-8c03-bffaf43ef311,3ba14326-51b3-11ea-8961-f7ba3802b6cf
3ba057d6-51b3-11ea-94df-b7f514067cdc,3ba18ca0-51b3-11ea-90a6-e358014f1858
3b9bd404-51b3-11ea-88c3-9b3d7d54016b,3ba1dd9a-51b3-11ea-975f-e7617a6edc56
3b9cad98-51b3-11ea-846f-4b248f508b71,3ba1e808-51b3-11ea-9375-cbc0a4474550
3b9a5264-51b3-11ea-89c7-f713204f633c,3ba202ca-51b3-11ea-a0b4-7b99deaafdb2
3b9bd404-51b3-11ea-88c3-9b3d7d54016b,3ba2241c-51b3-11ea-b326-1fe14ed634b8
3b9af69c-51b3-11ea-b1ef-5767dd3ddb50,3ba28a42-51b3-11ea-b7da-2be4375f53c5
3b9920ce-51b3-11ea-b3e1-8fa42c2114c4,3ba2a73e-51b3-11ea-bb42-1fb9f3af56da
3b9e702e-51b3-11ea-bf18-db0f175fd376,3ba29afa-51b3-11ea-82aa-7323fefd0fc3
3b9c934e-51b3-11ea-948c-37ccce0ba9db,3ba2b800-51b3-11ea-9791-cf048b633a36
3b991372-51b3-11ea-a7d9-0fd709158692,3ba3148a-51b3-11ea-a46e-cf116f88ca97
3b9b5402-51b3-11ea-8f10-97edb9c9bbc8,3ba39248-51b3-11ea-84e1-67feb8d60988
3b9becaa-51b3-11ea-affd-37878f0631ef,3ba38c94-51b3-11ea-96b2-c37a5af2de62
3ba1e808-51b3-11ea-9375-cbc0a4474550,3ba3c29a-51b3-11ea-a101-7f346eb93277
3b9becaa-51b3-11ea-affd-37878f0631ef,3ba3e0fe-51b3-11ea-9b74-634ae92d51f0
3ba2b800-51b3-11ea-9791-cf048b633a36,3ba438ec-51b3-11ea-9b0e-cbbd07d92c15
3ba1e808-51b3-11ea-9375-cbc0a4474550,3ba4873e-51b3-11ea-86d0-7fc6da9060aa
3ba3148a-51b3-11ea-a46e-cf116f88ca97,3ba4a228-51b3-11ea-b633-5f7afc664649
3b9b75cc-51b3-11ea-8615-7716e322acc8,3ba4ac8c-51b3-11ea-bb7d-87042a916bfd
3ba14326-51b3-11ea-8961-f7ba3802b6cf,3ba4f296-51b3-11ea-9b0f-7727cb6f7cbb
3b9b75cc-51b3-11ea-8615-7716e322acc8,3ba51884-51b3-11ea-80e3-9bf82781f976
3ba057d6-51b3-11ea-94df-b7f514067cdc,3ba54c32-51b3-11ea-b828-ff1979df717f
3b9e66e2-51b3-11ea-b77d-a37de5cba02b,3ba56e88-51b3-11ea-90c3-5307fbb5fb07
3b9d1c74-51b3-11ea-9ee0-932c5d8a020d,3ba57e00-51b3-11ea-b69f-577d36268743
3b9a6c22-51b3-11ea-9ad6-c3fdc0952752,3ba58828-51b3-11ea-abfe-b3bc68e2be64
3ba1dd9a-51b3-11ea-975f-e7617a6edc56,3ba5b35c-51b3-11ea-92ec-3fbd56dffa37
3ba1dd9a-51b3-11ea-975f-e7617a6edc56,3ba5f498-51b3-11ea-9867-1b3a2cf89c16
3ba202ca-51b3-11ea-a0b4-7b99deaafdb2,3ba5fee8-51b3-11ea-aa96-2f5435e143ac
3b9af69c-51b3-11ea-b1ef-5767dd3ddb50,3ba61842-51b3-11ea-9841-cb1bdc3fd26d
3b9ee8c4-51b3-11ea-8cc9-9f0a702f9230,3ba63c6e-51b3-11ea-b5a6-372f5d9ebf82
3b9fe788-51b3-11ea-80c6-d711d12c53b3,3ba658d4-51b3-11ea-9345-4f0ed130e387
3b9d1c74-51b3-11ea-9ee0-932c5d8a020d,3ba66ba8-51b3-11ea-bd89-c76d58297b45
3b9becaa-51b3-11ea-affd-37878f0631ef,3ba69416-51b3-11ea-9a37-8fb577fd058c
3b992bf0-51b3-11ea-b4f3-ffe7bde4406d,3ba71d32-51b3-11ea-a6ee-53e920fa0c34
3b9efd32-51b3-11ea-a1a9-27474d6fd914,3ba7291c-51b3-11ea-844c-77ed844620d9
3b9fbf06-51b3-11ea-bfb6-9bf62003ddbb,3ba70d92-51b3-11ea-b1b3-c78fa3a8a879
3b9d1c74-51b3-11ea-9ee0-932c5d8a020d,3ba73dd0-51b3-11ea-b441-131b5b340f6d
3ba4873e-51b3-11ea-86d0-7fc6da9060aa,3ba7a234-51b3-11ea-b230-27c70cddeb98
3b9d1c74-51b3-11ea-9ee0-932c5d8a020d,3ba7bbd4-51b3-11ea-8eef-d3a615232c9f
3b9ce5ce-51b3-11ea-8e62-3b900d4e00cb,3ba7c9f8-51b3-11ea-9ed4-932d30976666
3b9e1fde-51b3-11ea-ad18-9fe90ee32056,3ba80742-51b3-11ea-9a0c-b310f5a0ee96
3b9ca2f8-51b3-11ea-95b7-5f624e81db42,3ba811c4-51b3-11ea-a507-f395dff22c0e
3b9a5bba-51b3-11ea-80b1-374fe74ce1ab,3ba846e4-51b3-11ea-9ed6-4bd14a39ca95
3ba4ac8c-51b3-11ea-bb7d-87042a916bfd,3ba863d6-51b3-11ea-b32c-1fd92c0922a0
3b9becaa-51b3-11ea-affd-37878f0631ef,3ba87240-51b3-11ea-b0d4-53c5bb13f69b
3b9a77bc-51b3-11ea-ae02-bba0284e1def,3ba8d816-51b3-11ea-96f8-f7753d464dda
3ba438ec-51b3-11ea-9b0e-cbbd07d92c15,3ba8e8b0-51b3-11ea-95a6-43edd480e019
3b9c934e-51b3-11ea-948c-37ccce0ba9db,3ba8f9e0-51b3-11ea-b415-7b0d5c863729
3ba80742-51b3-11ea-9a0c-b310f5a0ee96,3ba957aa-51b3-11ea-b659-e7f99dfcad94
3b9a5264-51b3-11ea-89c7-f713204f633c,3ba983ec-51b3-11ea-83eb-03d2ce24db68
3ba7291c-51b3-11ea-844c-77ed844620d9,3ba99f58-51b3-11ea-beeb-9358ee1e59f4
3b9d58ba-51b3-11ea-b8ad-f3f766c9d057,3ba9b4e8-51b3-11ea-a6fa-674ef288b1e5
3ba58828-51b3-11ea-abfe-b3bc68e2be64,3ba9f714-51b3-11ea-bb63-1392ffca20ca
3b9d1c74-51b3-11ea-9ee0-932c5d8a020d,3baa08a8-51b3-11ea-a920-cf54f0f4d4c5
3b9a77bc-51b3-11ea-ae02-bba0284e1def,3baa1884-51b3-11ea-89da-9fc5b3285ec9
3baa1884-51b3-11ea-89da-9fc5b3285ec9,3baa6bb8-51b3-11ea-bd7b-73ea0ca10557
3ba18ca0-51b3-11ea-90a6-e358014f1858,3baa7572-51b3-11ea-be97-f76649a6cd4b
3ba811c4-51b3-11ea-a507-f395dff22c0e,3baa7db0-51b3-11ea-aca7-f3be01642a39
3ba7291c-51b3-11ea-844c-77ed844620d9,3baab640-51b3-11ea-b3fb-c77a47ffc5cc
3ba7a234-51b3-11ea-b230-27c70cddeb98,3baac43c-51b3-11ea-956e-f7ff092f30ee
3ba73dd0-51b3-11ea-b441-131b5b340f6d,3bab0974-51b3-11ea-82bb-abe965089262
3b9c3d0e-51b3-11ea-b4ba-e37e10b975f5,3bab20e4-51b3-11ea-9716-2322b1ef3e24
3b9c2e36-51b3-11ea-8c03-bffaf43ef311,3bab2cc4-51b3-11ea-a7ad-e7fe66d15e5f
3ba1dd9a-51b3-11ea-975f-e7617a6edc56,3bab3c82-51b3-11ea-9874-ef9c99bfa9f5
3ba9b4e8-51b3-11ea-a6fa-674ef288b1e5,3bab938a-51b3-11ea-86c0-976cd1cbacd4
3ba18ca0-51b3-11ea-90a6-e358014f1858,3bab9966-51b3-11ea-b447-b759a668f867
3ba87240-51b3-11ea-b0d4-53c5bb13f69b,3babaaf0-51b3-11ea-8940-e34011553ba0
3b9d62ba-51b3-11ea-9a41-73432e465885,3babccd8-51b3-11ea-a61c-4bc2e98df748
3b9d62ba-51b3-11ea-9a41-73432e465885,3bac5040-51b3-11ea-8ae6-2b3882cdb026
3b9de28a-51b3-11ea-bfe5-2f9d3bfc07cb,3bac5ba8-51b3-11ea-8a04-4b6422665c78
3b99caa6-51b3-11ea-98b4-7fe2758df1b7,3bac8402-51b3-11ea-905b-0fcc2e14e9a5
3ba811c4-51b3-11ea-a507-f395dff22c0e,3bac78f4-51b3-11ea-8005-a3301e76a386
3b9a5bba-51b3-11ea-80b1-374fe74ce1ab,3bacc02a-51b3-11ea-930b-77e2da54fbdd
3ba3148a-51b3-11ea-a46e-cf116f88ca97,3bacf234-51b3-11ea-ab42-b72bbd8c7dc8
3ba99f58-51b3-11ea-beeb-9358ee1e59f4,3bad2a38-51b3-11ea-b291-472e7d35cba3
3babccd8-51b3-11ea-a61c-4bc2e98df748,3bad503a-51b3-11ea-8ab3-6fbe8d84e400
3ba9f714-51b3-11ea-bb63-1392ffca20ca,3bad5d32-51b3-11ea-8314-4326e5accfe1
3b9dd380-51b3-11ea-8506-9f463ffda0e7,3bad970c-51b3-11ea-90f8-7b123d01a69c
3ba14326-51b3-11ea-8961-f7ba3802b6cf,3bad97a2-51b3-11ea-912c-ff22a6827d0f
3b9f2e1a-51b3-11ea-ad21-036d9a40c2a0,3badc9ac-51b3-11ea-886b-23062fe74714
3ba39248-51b3-11ea-84e1-67feb8d60988,3bae0c5a-51b3-11ea-b6da-2f273639b35b
3b9ee8c4-51b3-11ea-8cc9-9f0a702f9230,3bae3d06-51b3-11ea-8119-0f3418344b8e
3ba863d6-51b3-11ea-b32c-1fd92c0922a0,3bae48f0-51b3-11ea-a91f-bbf2330e6bbe
3ba58828-51b3-11ea-abfe-b3bc68e2be64,3bae8b80-51b3-11ea-b227-6f5c30056f69
3b9e66e2-51b3-11ea-b77d-a37de5cba02b,3baeb984-51b3-11ea-beba-5375381c1eeb
3b9a5264-51b3-11ea-89c7-f713204f633c,3baec8e8-51b3-11ea-85e6-c39f666f7f00
3bab938a-51b3-11ea-86c0-976cd1cbacd4,3baeec92-51b3-11ea-b1bd-3bfc2d232289
3b9d62ba-51b3-11ea-9a41-73432e465885,3baf44da-51b3-11ea-9475-b3846a1f8a3e
3ba1dd9a-51b3-11ea-975f-e7617a6edc56,3baf6ed8-51b3-11ea-b496-af16cb9b9216
3b9bfc54-51b3-11ea-9e36-1f0ebbe3a75f,3baf6244-51b3-11ea-b388-538850c96aad
3ba38c94-51b3-11ea-96b2-c37a5af2de62,3bafba8c-51b3-11ea-ad81-6768c6b390b6
3babccd8-51b3-11ea-a61c-4bc2e98df748,3baface0-51b3-11ea-a0fd-1393c0e16e07
3ba66ba8-51b3-11ea-bd89-c76d58297b45,3bafca5e-51b3-11ea-a647-f31f479650c0
3ba38c94-51b3-11ea-96b2-c37a5af2de62,3bb033ea-51b3-11ea-816b-535aab45d6e8
3ba7291c-51b3-11ea-844c-77ed844620d9,3bb03cf0-51b3-11ea-bf2b-6b94c7b2fa03
3ba8e8b0-51b3-11ea-95a6-43edd480e019,3bb048e4-51b3-11ea-9f9b-1394c304bc14
3ba61842-51b3-11ea-9841-cb1bdc3fd26d,3bb06fb8-51b3-11ea-bd3e-db1166fb18b1
3b9efd32-51b3-11ea-a1a9-27474d6fd914,3bb0bb94-51b3-11ea-aa16-b71c58c05489
3bae48f0-51b3-11ea-a91f-bbf2330e6bbe,3bb0d55c-51b3-11ea-9a0c-3f40798c0344
3badc9ac-51b3-11ea-886b-23062fe74714,3bb138d0-51b3-11ea-8a9e-2b747b6f54b6
3baeb984-51b3-11ea-beba-5375381c1eeb,3bb143fc-51b3-11ea-9a43-07e7bac2ac78
3ba983ec-51b3-11ea-83eb-03d2ce24db68,3bb14e7e-51b3-11ea-bfb6-63ee42d4a9a6
3ba9b4e8-51b3-11ea-a6fa-674ef288b1e5,3bb16544-51b3-11ea-b44c-b356b9563818
3bafba8c-51b3-11ea-ad81-6768c6b390b6,3bb198d4-51b3-11ea-91bf-7b564335d684
3b99fe04-51b3-11ea-b74c-df1bb30238e0,3bb1c840-51b3-11ea-a139-a7c9b3e987fa
3ba7bbd4-51b3-11ea-8eef-d3a615232c9f,3bb1f400-51b3-11ea-b24c-97f5ea0563c2
3baa6bb8-51b3-11ea-bd7b-73ea0ca10557,3bb20c2e-51b3-11ea-82e5-93fb2cb00c5e
3b9fbf06-51b3-11ea-bfb6-9bf62003ddbb,3bb2185e-51b3-11ea-a4d9-e78da9c10658
3b9a77bc-51b3-11ea-ae02-bba0284e1def,3bb25a4e-51b3-11ea-9980-0fdc95747bd5
3bac8402-51b3-11ea-905b-0fcc2e14e9a5,3bb27a7e-51b3-11ea-a31d-c756ae462e34
3bab9966-51b3-11ea-b447-b759a668f867,3bb2860e-51b3-11ea-8566-2baf3c3919fd
3ba63c6e-51b3-11ea-b5a6-372f5d9ebf82,3bb2e144-51b3-11ea-9997-8fa8c5903a72
3ba2b800-51b3-11ea-9791-cf048b633a36,3bb2ff3a-51b3-11ea-8977-8796e92128f6
3baface0-51b3-11ea-a0fd-1393c0e16e07,3bb30a2a-51b3-11ea-b5c0-af541ecddb59
3baa1884-51b3-11ea-89da-9fc5b3285ec9,3bb3125e-51b3-11ea-a09c-17a2ad21b128
3b9a5bba-51b3-11ea-80b1-374fe74ce1ab,3bb36150-51b3-11ea-bc82-8fdeeb2cfb1e
3b9b1c58-51b3-11ea-8b12-b71b452242e5,3bb37636-51b3-11ea-855b-079d33388680
3ba39248-51b3-11ea-84e1-67feb8d60988,3bb37fbe-51b3-11ea-8839-5b1b4990f539
3ba3148a-51b3-11ea-a46e-cf116f88ca97,3bb3a980-51b3-11ea-9d83-bb61ffcb2d4c
3baec8e8-51b3-11ea-85e6-c39f666f7f00,3bb3ef30-51b3-11ea-a4a3-473c739e4f14
3ba73dd0-51b3-11ea-b441-131b5b340f6d,3bb41816-51b3-11ea-a1eb-27a81f2cb46d
3ba66ba8-51b3-11ea-bd89-c76d58297b45,3bb44fd4-51b3-11ea-9b2e-ffa85c037646
3b9e1fde-51b3-11ea-ad18-9fe90ee32056,3bb483aa-51b3-11ea-95e6-bb850bc5346a
3b9d1c74-51b3-11ea-9ee0-932c5d8a020d,3bb4732e-51b3-11ea-b791-ef8c59705690
3b9b75cc-51b3-11ea-8615-7716e322acc8,3bb4dabc-51b3-11ea-b658-83f3d14a3581
3ba66ba8-51b3-11ea-bd89-c76d58297b45,3bb537f0-51b3-11ea-b1de-f3d6df4fa39b
3baf6ed8-51b3-11ea-b496-af16cb9b9216,3bb5560e-51b3-11ea-8f18-cfc75fb19ebd
3b9de28a-51b3-11ea-bfe5-2f9d3bfc07cb,3bb55f82-51b3-11ea-ab70-ff607c6d6040
3bad503a-51b3-11ea-8ab3-6fbe8d84e400,3bb5a6cc-51b3-11ea-a8c8-ab5adb53e6f4
3bad5d32-51b3-11ea-8314-4326e5accfe1,3bb5b3b0-51b3-11ea-b5e6-7fcdc427e817
3b9becaa-51b3-11ea-affd-37878f0631ef,3bb5cc38-51b3-11ea-9899-f3869e429be8
3b9b75cc-51b3-11ea-8615-7716e322acc8,3bb62584-51b3-11ea-b3ef-cbdaf208ceee
3bb3a980-51b3-11ea-9d83-bb61ffcb2d4c,3bb634a2-51b3-11ea-9af0-d7cae2e7bd21
3ba73dd0-51b3-11ea-b441-131b5b340f6d,3bb63d94-51b3-11ea-9c39-0bff35fd3c58
3bac78f4-51b3-11ea-8005-a3301e76a386,3bb665e4-51b3-11ea-a7bd-87ff39d15cc1
3b9bd404-51b3-11ea-88c3-9b3d7d54016b,3bb695aa-51b3-11ea-8528-b7ffed24eae0
3bac5ba8-51b3-11ea-8a04-4b6422665c78,3bb6c1f6-51b3-11ea-a48b-834f2e948421
3bb483aa-51b3-11ea-95e6-bb850bc5346a,3bb6d132-51b3-11ea-b58a-43bc0a0535ea
3bb36150-51b3-11ea-bc82-8fdeeb2cfb1e,3bb6f978-51b3-11ea-a958-b7ad4fecea98
3ba3148a-51b3-11ea-a46e-cf116f88ca97,3bb7035a-51b3-11ea-aced-eba130bbe922
3bb5a6cc-51b3-11ea-a8c8-ab5adb53e6f4,3bb72ae2-51b3-11ea-9674-13bc5e885c8c
3b9920ce-51b3-11ea-b3e1-8fa42c2114c4,3bb7740c-51b3-11ea-a7dc-ff5f5a80c04a
3b9efd32-51b3-11ea-a1a9-27474d6fd914,3bb77df8-51b3-11ea-8d5f-0f97c4b4b5c8
3ba202ca-51b3-11ea-a0b4-7b99deaafdb2,3bb785d2-51b3-11ea-b630-4f4b0fc28e8a
3bb5560e-51b3-11ea-8f18-cfc75fb19ebd,3bb78de8-51b3-11ea-a569-0b4c0e241d9c
3b9ae18e-51b3-11ea-9b0d-b7a95a76ac9f,3bb7ebbc-51b3-11ea-bb50-e74ae422e82e
3ba2241c-51b3-11ea-b326-1fe14ed634b8,3bb7f508-51b3-11ea-ac00-b75e986e518d
3ba4f296-51b3-11ea-9b0f-7727cb6f7cbb,3bb82456-51b3-11ea-a51d-9f65da132bce
3ba87240-51b3-11ea-b0d4-53c5bb13f69b,3bb8348c-51b3-11ea-9c8e-2f5282824269
3ba0a312-51b3-11ea-833b-5752577c8016,3bb84a30-51b3-11ea-84bf-cb79a3100601
3bb82456-51b3-11ea-a51d-9f65da132bce,3bb863c6-51b3-11ea-95df-8b354b2a89dc
3bab2cc4-51b3-11ea-a7ad-e7fe66d15e5f,3bb8a3e0-51b3-11ea-981d-0fbb29b60a67
3bb62584-51b3-11ea-b3ef-cbdaf208ceee,3bb8d9c8-51b3-11ea-8eb2-6b1da9d2e3db
3bae48f0-51b3-11ea-a91f-bbf2330e6bbe,3bb90b3c-51b3-11ea-bf90-3b915ced084e
3b9cad98-51b3-11ea-846f-4b248f508b71,3bb900a6-51b3-11ea-b142-730258fbe5f1
3bab938a-51b3-11ea-86c0-976cd1cbacd4,3bb913ca-51b3-11ea-b057-1f14e1f9c8e7
3bb8d9c8-51b3-11ea-8eb2-6b1da9d2e3db,3bb95dee-51b3-11ea-bd84-e3afe586cdd3
3b9c3d0e-51b3-11ea-b4ba-e37e10b975f5,3bb99de0-51b3-11ea-b406-afdb2dc9a141
3ba1e808-51b3-11ea-9375-cbc0a4474550,3bb9aeac-51b3-11ea-9077-e79b86f76e09
3ba11ad6-51b3-11ea-9855-43800a392c5e,3bb9b8de-51b3-11ea-ae50-c765ff153e53
3bb03cf0-51b3-11ea-bf2b-6b94c7b2fa03,3bb9ea2a-51b3-11ea-a11a-3f027a3c5758
3b9d62ba-51b3-11ea-9a41-73432e465885,3bba05dc-51b3-11ea-bd3d-031d384e0da3
3ba14326-51b3-11ea-8961-f7ba3802b6cf,3bba127a-51b3-11ea-ab1c-1f3072c789b0
3bb8348c-51b3-11ea-9c8e-2f5282824269,3bba7ddc-51b3-11ea-8d7f-1b74617c94f5
3ba8d816-51b3-11ea-96f8-f7753d464dda,3bba8728-51b3-11ea-8b92-3b634b2e04e5
3ba7291c-51b3-11ea-844c-77ed844620d9,3bbabe0a-51b3-11ea-851a-f7a4d5738a86
3ba8e8b0-51b3-11ea-95a6-43edd480e019,3bbb1922-51b3-11ea-805b-bfb57d4ffb36
3ba811c4-51b3-11ea-a507-f395dff22c0e,3bbb2318-51b3-11ea-b1e6-53816a3a3f33
3bb44fd4-51b3-11ea-9b2e-ffa85c037646,3bbb671a-51b3-11ea-a6ce-c3c447056cd7
3baa6bb8-51b3-11ea-bd7b-73ea0ca10557,3bbb5f04-51b3-11ea-9b12-b7c2084b2d89
3bb62584-51b3-11ea-b3ef-cbdaf208ceee,3bbbb5c6-51b3-11ea-8dc9-df4fb843837e
3bb30a2a-51b3-11ea-b5c0-af541ecddb59,3bbc1d90-51b3-11ea-a132-23e3c86a43de
3ba057d6-51b3-11ea-94df-b7f514067cdc,3bbc46ee-51b3-11ea-89a6-4f89122b0a5c
3bb9ea2a-51b3-11ea-a11a-3f027a3c5758,3bbc59a4-51b3-11ea-9e41-cb7bc80dc9d1
3ba5fee8-51b3-11ea-aa96-2f5435e143ac,3bbc8a64-51b3-11ea-b945-3fc01361fa44
3ba1e808-51b3-11ea-9375-cbc0a4474550,3bbc920c-51b3-11ea-aea6-e3ad20e72566
3bb785d2-51b3-11ea-b630-4f4b0fc28e8a,3bbcecde-51b3-11ea-8a8c-63d987a542f3
3bbc920c-51b3-11ea-aea6-e3ad20e72566,3bbcf5da-51b3-11ea-a284-e3b243c9a84e
3b9bd404-51b3-11ea-88c3-9b3d7d54016b,3bbd0354-51b3-11ea-831a-dfb1063484e5
3baeec92-51b3-11ea-b1bd-3bfc2d232289,3bbd2636-51b3-11ea-8afb-8f1734cc6b97
3bb99de0-51b3-11ea-b406-afdb2dc9a141,3bbd77d0-51b3-11ea-b40f-1fa5ff6cc274
3bad97a2-51b3-11ea-912c-ff22a6827d0f,3bbd979c-51b3-11ea-8b81-c70e34505ef3
3bb1c840-51b3-11ea-a139-a7c9b3e987fa,3bbdaa98-51b3-11ea-aacc-ab421a7bc495
3ba28a42-51b3-11ea-b7da-2be4375f53c5,3bbdd96e-51b3-11ea-abdc-cfb7667251b4
3ba438ec-51b3-11ea-9b0e-cbbd07d92c15,3bbe263a-51b3-11ea-b240-4baf8854d2ee
3ba5b35c-51b3-11ea-92ec-3fbd56dffa37,3bbe39a4-51b3-11ea-890b-237a698809d4
3bb16544-51b3-11ea-b44c-b356b9563818,3bbe5b6e-51b3-11ea-9171-c39e459f9961
3bbd2636-51b3-11ea-8afb-8f1734cc6b97,3bbe80bc-51b3-11ea-93ad-0f53820eb221
3b9ef350-51b3-11ea-a4f8-53b04249e748,3bbea6dc-51b3-11ea-8021-df60ebb20a7e
3bbdd96e-51b3-11ea-abdc-cfb7667251b4,3bbeae48-51b3-11ea-98ac-438418e0a832
3ba99f58-51b3-11ea-beeb-9358ee1e59f4,3bbeeb60-51b3-11ea-a394-2fc90c5caa77
3b9d62ba-51b3-11ea-9a41-73432e465885,3bbefaa6-51b3-11ea-8cc2-dbe618390d4a
3bad5d32-51b3-11ea-8314-4326e5accfe1,3bbf0604-51b3-11ea-b1a9-1b494e6741c0
3ba1dd9a-51b3-11ea-975f-e7617a6edc56,3bbf1df6-51b3-11ea-8e5b-a7bfbb48a640
3bbea6dc-51b3-11ea-8021-df60ebb20a7e,3bbf55c8-51b3-11ea-9843-4389d6d96727
3bbb5f04-51b3-11ea-9b12-b7c2084b2d89,3bbf9038-51b3-11ea-9a8c-9311b4b13b27
3b9a5bba-51b3-11ea-80b1-374fe74ce1ab,3bbf99de-51b3-11ea-9a23-5fb26d769036
3bab0974-51b3-11ea-82bb-abe965089262,3bbfb81a-51b3-11ea-825d-53431f541d67
3bbb5f04-51b3-11ea-9b12-b7c2084b2d89,3bbffda2-51b3-11ea-b12c-ab9602300b78
3bbc1d90-51b3-11ea-a132-23e3c86a43de,3bc005ae-51b3-11ea-930b-7380dcd2c5c7
3b99caa6-51b3-11ea-98b4-7fe2758df1b7,3bc04046-51b3-11ea-9128-d7725e7522d2
3ba8f9e0-51b3-11ea-b415-7b0d5c863729,3bc06490-51b3-11ea-b1f8-7ff662846bbb
3bb3125e-51b3-11ea-a09c-17a2ad21b128,3bc06daa-51b3-11ea-bdee-f3e4245b553e
3ba957aa-51b3-11ea-b659-e7f99dfcad94,3bc07674-51b3-11ea-8040-cf2036fd0674
3bac8402-51b3-11ea-905b-0fcc2e14e9a5,3bc0d880-51b3-11ea-aa16-1b27b380e77f
3b9fe788-51b3-11ea-80c6-d711d12c53b3,3bc0df9c-51b3-11ea-8e28-1bd09f21a808
3bb9b8de-51b3-11ea-ae50-c765ff153e53,3bc118cc-51b3-11ea-8756-cf36130cbeb6
3bbf99de-51b3-11ea-9a23-5fb26d769036,3bc12286-51b3-11ea-b960-ef2d7ed7345c
3ba71d32-51b3-11ea-a6ee-53e920fa0c34,3bc1413a-51b3-11ea-8ac7-db81db247212
3bbdaa98-51b3-11ea-aacc-ab421a7bc495,3bc151ac-51b3-11ea-94b0-c371c964ca13
3b9af69c-51b3-11ea-b1ef-5767dd3ddb50,3bc1a1de-51b3-11ea-871d-d780e76aa4ec
3bc0d880-51b3-11ea-aa16-1b27b380e77f,3bc1c344-51b3-11ea-a371-cfc09a220fcd
3ba1e808-51b3-11ea-9375-cbc0a4474550,3bc1d6a4-51b3-11ea-8ff2-4f2977bd1dfb
3b9fe788-51b3-11ea-80c6-d711d12c53b3,3bc25692-51b3-11ea-bc4f-af7772d358e7
3baf44da-51b3-11ea-9475-b3846a1f8a3e,3bc25fc0-51b3-11ea-991c-0bc63f1d7f4f
3bb634a2-51b3-11ea-9af0-d7cae2e7bd21,3bc2692a-51b3-11ea-b4b4-a3cca3fa34a2
3bab20e4-51b3-11ea-9716-2322b1ef3e24,3bc27190-51b3-11ea-88bb-23822d0b85c4
3ba54c32-51b3-11ea-b828-ff1979df717f,3bc2b966-51b3-11ea-b881-bf48ee48464f
3ba4873e-51b3-11ea-86d0-7fc6da9060aa,3bc2e954-51b3-11ea-86d0-9f006a13ad90
3bbd2636-51b3-11ea-8afb-8f1734cc6b97,3bc30d26-51b3-11ea-9b39-9bce6fed1794
3ba3c29a-51b3-11ea-a101-7f346eb93277,3bc3498a-51b3-11ea-968a-776df2d96306
3ba2241c-51b3-11ea-b326-1fe14ed634b8,3bc353d0-51b3-11ea-891e-3bb35b3896ad
3b9920ce-51b3-11ea-b3e1-8fa42c2114c4,3bc37798-51b3-11ea-b7ac-8bfc88c5178d
3bc06490-51b3-11ea-b1f8-7ff662846bbb,3bc38e54-51b3-11ea-acb9-33f4de32bdea
3ba3c29a-51b3-11ea-a101-7f346eb93277,3bc3ef52-51b3-11ea-8ead-b766c19ce482
3bb8a3e0-51b3-11ea-981d-0fbb29b60a67,3bc3fc22-51b3-11ea-90c6-1f2a38079b16
3bb634a2-51b3-11ea-9af0-d7cae2e7bd21,3bc4071c-51b3-11ea-abdd-9b8a8106e156
3bbc59a4-51b3-11ea-9e41-cb7bc80dc9d1,3bc4150e-51b3-11ea-a1d9-5fc84e81c60d
3ba14326-51b3-11ea-8961-f7ba3802b6cf,3bc46202-51b3-11ea-98d2-2b25d5fab40e
3bad2a38-51b3-11ea-b291-472e7d35cba3,3bc47152-51b3-11ea-ad45-c708f72548bc
3bbc8a64-51b3-11ea-b945-3fc01361fa44,3bc486f6-51b3-11ea-a1ff-737aed8d76e0
3ba2b800-51b3-11ea-9791-cf048b633a36,3bc49100-51b3-11ea-b1e2-4b4ac12ed3f3
3ba11ad6-51b3-11ea-9855-43800a392c5e,3bc4d8cc-51b3-11ea-b7b5-876bca39cec1
3baf44da-51b3-11ea-9475-b3846a1f8a3e,3bc4f8b6-51b3-11ea-8a02-1729c635080a
3b9ce5ce-51b3-11ea-8e62-3b900d4e00cb,3bc5207a-51b3-11ea-bc28-c3ca50c2166b
3baf6ed8-51b3-11ea-b496-af16cb9b9216,3bc532cc-51b3-11ea-a087-6b2d8d757e80
3bc486f6-51b3-11ea-a1ff-737aed8d76e0,3bc557ca-51b3-11ea-bd52-3b0ab8ce97ca
3bbeeb60-51b3-11ea-a394-2fc90c5caa77,3bc566f2-51b3-11ea-a740-6f14f4606178
3bc49100-51b3-11ea-b1e2-4b4ac12ed3f3,3bc5a766-51b3-11ea-87d9-8f332d406d13
3ba54c32-51b3-11ea-b828-ff1979df717f,3bc612be-51b3-11ea-9caa-afb8e1786773
3b9f2e1a-51b3-11ea-ad21-036d9a40c2a0,3bc64162-51b3-11ea-9f34-27c3092e00ea
3bb9aeac-51b3-11ea-9077-e79b86f76e09,3bc65f26-51b3-11ea-a135-771e34a8be3a
3bc2692a-51b3-11ea-b4b4-a3cca3fa34a2,3bc67830-51b3-11ea-9300-97ca08274405
3bb72ae2-51b3-11ea-9674-13bc5e885c8c,3bc69c8e-51b3-11ea-80f5-2b6554ef150c
3bb7f508-51b3-11ea-ac00-b75e986e518d,3bc6b886-51b3-11ea-9218-6f3bf5a28d63
3bb138d0-51b3-11ea-8a9e-2b747b6f54b6,3bc6cf24-51b3-11ea-ae59-d3611ba289ab
3ba863d6-51b3-11ea-b32c-1fd92c0922a0,3bc70f34-51b3-11ea-8606-7f200363a03d
3bb2ff3a-51b3-11ea-8977-8796e92128f6,3bc72488-51b3-11ea-9c9a-631169994d1c
3bbe39a4-51b3-11ea-890b-237a698809d4,3bc7532c-51b3-11ea-b6e3-c3f80455de0f
3bc1d6a4-51b3-11ea-8ff2-4f2977bd1dfb,3bc7a43a-51b3-11ea-a5fd-8bbea8746598
3b9ca2f8-51b3-11ea-95b7-5f624e81db42,3bc7adb8-51b3-11ea-a202-635d5bcd3799
3bb37636-51b3-11ea-855b-079d33388680,3bc7bf88-51b3-11ea-aebc-8b45bcb84156
3bc30d26-51b3-11ea-9b39-9bce6fed1794,3bc7edbe-51b3-11ea-b409-9b4093c23c43
3bc486f6-51b3-11ea-a1ff-737aed8d76e0,3bc80d76-51b3-11ea-9c65-1b1d9a6a848c
3ba11ad6-51b3-11ea-9855-43800a392c5e,3bc867c6-51b3-11ea-9532-3bc2cdb6e1a0
3bb048e4-51b3-11ea-9f9b-1394c304bc14,3bc87248-51b3-11ea-ab27-03b82b0c8a08
3bc06daa-51b3-11ea-bdee-f3e4245b553e,3bc87f72-51b3-11ea-8414-2f81e39e547d
3ba69416-51b3-11ea-9a37-8fb577fd058c,3bc895fc-51b3-11ea-9679-57d0755f938b
3ba4ac8c-51b3-11ea-bb7d-87042a916bfd,3bc8fb64-51b3-11ea-857a-67196b9caedc
3bc7edbe-51b3-11ea-b409-9b4093c23c43,3bc9182e-51b3-11ea-a4b6-7bdcddc01d57
3ba0665e-51b3-11ea-a9df-f7f898f7ca11,3bc93f16-51b3-11ea-90e3-5344a8251f69
3bbefaa6-51b3-11ea-8cc2-dbe618390d4a,3bc95a6e-51b3-11ea-99b8-b3f7bee817f0
3bc25fc0-51b3-11ea-991c-0bc63f1d7f4f,3bc96ff4-51b3-11ea-a054-6bcb480dfd9c
3bb8348c-51b3-11ea-9c8e-2f5282824269,3bc9c17a-51b3-11ea-a9c3-7bdcf51358d6
3b9fcbfe-51b3-11ea-9108-9f30ae236cf2,3bc9dbf6-51b3-11ea-b906-4be2c40841c1
3bbd2636-51b3-11ea-8afb-8f1734cc6b97,3bca0022-51b3-11ea-b5fc-9bf8f0d86a4d
3bb048e4-51b3-11ea-9f9b-1394c304bc14,3bca248a-51b3-11ea-94f4-17e8f680f7dc
3bb048e4-51b3-11ea-9f9b-1394c304bc14,3bca4cd0-51b3-11ea-ba36-bf005b99d567
3bbf0604-51b3-11ea-b1a9-1b494e6741c0,3bca7430-51b3-11ea-a2f1-df6fc25ab860
3bc9c17a-51b3-11ea-a9c3-7bdcf51358d6,3bcab7d8-51b3-11ea-a5db-d32edbffa6b9
3b9bd404-51b3-11ea-88c3-9b3d7d54016b,3bcac390-51b3-11ea-becf-97bcd0892127
3bb06fb8-51b3-11ea-bd3e-db1166fb18b1,3bcad696-51b3-11ea-9bd0-138e7fa85dcf
3bc4071c-51b3-11ea-abdd-9b8a8106e156,3bcae0fa-51b3-11ea-bda5-2b0ed50a595e
3bba05dc-51b3-11ea-bd3d-031d384e0da3,3bcb1c64-51b3-11ea-89f5-47641c85f799
3bb2ff3a-51b3-11ea-8977-8796e92128f6,3bcb4ea0-51b3-11ea-bacd-ff0567a7a016
3b9e66e2-51b3-11ea-b77d-a37de5cba02b,3bcb7830-51b3-11ea-9b91-83ced211653e
3bb0bb94-51b3-11ea-aa16-b71c58c05489,3bcb8424-51b3-11ea-873b-c705ff4df766
3bafba8c-51b3-11ea-ad81-6768c6b390b6,3bcbb2e6-51b3-11ea-b84b-cf07e3700c2f
3ba4ac8c-51b3-11ea-bb7d-87042a916bfd,3bcbcf24-51b3-11ea-a3c2-ef567c08e8b3
3bab938a-51b3-11ea-86c0-976cd1cbacd4,3bcc080e-51b3-11ea-b0cb-77d0d461a94c
3bb62584-51b3-11ea-b3ef-cbdaf208ceee,3bcc19b6-51b3-11ea-a7da-2b75a4051b02
3b9b5402-51b3-11ea-8f10-97edb9c9bbc8,3bcc34dc-51b3-11ea-9ccd-d7566ef886a2
3baa6bb8-51b3-11ea-bd7b-73ea0ca10557,3bcc3ea0-51b3-11ea-a519-b7cd5b01f3bf
3b9c3d0e-51b3-11ea-b4ba-e37e10b975f5,3bcc697a-51b3-11ea-bc5d-c319a468976b
3bc486f6-51b3-11ea-a1ff-737aed8d76e0,3bccc3a2-51b3-11ea-b681-afdf55490f41
3ba2a73e-51b3-11ea-bb42-1fb9f3af56da,3bccde00-51b3-11ea-a811-3fac2f798c8a
3ba69416-51b3-11ea-9a37-8fb577fd058c,3bccf1e2-51b3-11ea-b9ea-db785d8a43ad
3b9c2e36-51b3-11ea-8c03-bffaf43ef311,3bcd117c-51b3-11ea-bcbf-e3603ebf8043
3bbeae48-51b3-11ea-98ac-438418e0a832,3bcd6d16-51b3-11ea-bf58-c3a1b03cf5d4
3bc87248-51b3-11ea-ab27-03b82b0c8a08,3bcd80da-51b3-11ea-9292-1b8d91cb18e5
3bc25fc0-51b3-11ea-991c-0bc63f1d7f4f,3bcd8c38-51b3-11ea-a7be-277a5dacc07f
3b9cad98-51b3-11ea-846f-4b248f508b71,3bcdf790-51b3-11ea-b218-ebfd60f7fa06
3ba66ba8-51b3-11ea-bd89-c76d58297b45,3bcddf62-51b3-11ea-bd6e-9be06f97d032
3bc9c17a-51b3-11ea-a9c3-7bdcf51358d6,3bce055a-51b3-11ea-a984-0757f6d5a26b
3b9f4f26-51b3-11ea-a186-cf7a7ea51a8a,3bce4772-51b3-11ea-9476-630a33ad886f
3bbc59a4-51b3-11ea-9e41-cb7bc80dc9d1,3bce675c-51b3-11ea-b08d-bb93dc2dae5d
3ba1e808-51b3-11ea-9375-cbc0a4474550,3bcea438-51b3-11ea-9e28-5bbfef6ad44a
3bbd77d0-51b3-11ea-b40f-1fa5ff6cc274,3bceada2-51b3-11ea-a97c-e3e3d69ba260
3bb27a7e-51b3-11ea-a31d-c756ae462e34,3bceb7e8-51b3-11ea-9a4a-1bbe08e07ef8
3bad5d32-51b3-11ea-8314-4326e5accfe1,3bcef226-51b3-11ea-8a85-6757c78a31c5
3baab640-51b3-11ea-b3fb-c77a47ffc5cc,3bcf1b66-51b3-11ea-bc2a-27956ee25bb0
3bbbb5c6-51b3-11ea-8dc9-df4fb843837e,3bcf2778-51b3-11ea-86ef-3311603d769d
3bc70f34-51b3-11ea-8606-7f200363a03d,3bcf35e2-51b3-11ea-a120-63c76cb20ce9
3ba99f58-51b3-11ea-beeb-9358ee1e59f4,3bcf897a-51b3-11ea-aedb-df3cf79048dc
3b9d58ba-51b3-11ea-b8ad-f3f766c9d057,3bcf9294-51b3-11ea-92cf-3f8fa3876fad
3bce4772-51b3-11ea-9476-630a33ad886f,3bcf9e56-51b3-11ea-9040-db6cd742ef32
3bc1a1de-51b3-11ea-871d-d780e76aa4ec,3bcfd98e-51b3-11ea-8d4b-e30d9420b184
3ba2a73e-51b3-11ea-bb42-1fb9f3af56da,3bcff41e-51b3-11ea-b13e-13f110fce649
3bca7430-51b3-11ea-a2f1-df6fc25ab860,3bd02a92-51b3-11ea-a569-0bb9daa3f8be
3bcc19b6-51b3-11ea-a7da-2b75a4051b02,3bd04be4-51b3-11ea-a893-6b352860f3fa
3bacf234-51b3-11ea-ab42-b72bbd8c7dc8,3bd07812-51b3-11ea-8084-5b17b3e21173
3bb37fbe-51b3-11ea-8839-5b1b4990f539,3bd0897e-51b3-11ea-87dd-bfe524826e25
3bbd77d0-51b3-11ea-b40f-1fa5ff6cc274,3bd0973e-51b3-11ea-8678-db846cb32b5d
3bb44fd4-51b3-11ea-9b2e-ffa85c037646,3bd107f0-51b3-11ea-b6f2-13215c52be01
3bbd979c-51b3-11ea-8b81-c70e34505ef3,3bd11646-51b3-11ea-9913-db97c14b6df3
3bbb671a-51b3-11ea-a6ce-c3c447056cd7,3bd0fb52-51b3-11ea-9e16-d70bcdb74737
3b998f96-51b3-11ea-9071-13407d4a538c,3bd12294-51b3-11ea-8af4-67419aa03d41
3bac8402-51b3-11ea-905b-0fcc2e14e9a5,3bd182ca-51b3-11ea-b35b-db2a1c8d97fd
3bb30a2a-51b3-11ea-b5c0-af541ecddb59,3bd195bc-51b3-11ea-a529-93d35166090f
3bc12286-51b3-11ea-b960-ef2d7ed7345c,3bd1b38a-51b3-11ea-bc76-db6466fddef4
3bcd6d16-51b3-11ea-bf58-c3a1b03cf5d4,3bd1d658-51b3-11ea-8fc4-4fb912a86fa2
3bc566f2-51b3-11ea-a740-6f14f4606178,3bd1f444-51b3-11ea-8fa7-87f59751d7b4
3bcf35e2-51b3-11ea-a120-63c76cb20ce9,3bd20c2c-51b3-11ea-8bdb-a758cd756e9e
3b9c934e-51b3-11ea-948c-37ccce0ba9db,3bd22f9a-51b3-11ea-8cbb-cfcf8ec10747
3bbf9038-51b3-11ea-9a8c-9311b4b13b27,3bd25be6-51b3-11ea-9b2f-1ff049cbe7b4
3bc612be-51b3-11ea-9caa-afb8e1786773,3bd28850-51b3-11ea-a33c-97d9e7284090
3bb900a6-51b3-11ea-b142-730258fbe5f1,3bd2a8d0-51b3-11ea-b935-dba90e54a16a
3bb14e7e-51b3-11ea-bfb6-63ee42d4a9a6,3bd2cba8-51b3-11ea-b739-bb43461e4bab
3baeec92-51b3-11ea-b1bd-3bfc2d232289,3bd2d5ee-51b3-11ea-8299-23cf329240a5
3bc72488-51b3-11ea-9c9a-631169994d1c,3bd31c84-51b3-11ea-afd7-c7fc9ae24e96
3bbefaa6-51b3-11ea-8cc2-dbe618390d4a,3bd3508c-51b3-11ea-85e3-0b04bdaa84ff
3bac5040-51b3-11ea-8ae6-2b3882cdb026,3bd36658-51b3-11ea-9435-d7b3b2bb953e
3baa1884-51b3-11ea-89da-9fc5b3285ec9,3bd37ec2-51b3-11ea-8ffb-dbb82e63f57e
3b9c2e36-51b3-11ea-8c03-bffaf43ef311,3bd387dc-51b3-11ea-823c-9386747d864a
3baeb984-51b3-11ea-beba-5375381c1eeb,3bd3b766-51b3-11ea-8dd3-33781b9cbd9b
3bd1f444-51b3-11ea-8fa7-87f59751d7b4,3bd3df8e-51b3-11ea-b4cd-cb28d1e6ac07
3bb4dabc-51b3-11ea-b658-83f3d14a3581,3bd3fad2-51b3-11ea-9b3c-2368c04c5822
3b9a77bc-51b3-11ea-ae02-bba0284e1def,3bd41e9a-51b3-11ea-8007-13b718c93c9e
3bcb8424-51b3-11ea-873b-c705ff4df766,3bd42714-51b3-11ea-9fd9-4ffaf1b0e07f
3bbdd96e-51b3-11ea-abdc-cfb7667251b4,3bd469b8-51b3-11ea-b463-df7ece609fd7
3bca0022-51b3-11ea-b5fc-9bf8f0d86a4d,3bd48baa-51b3-11ea-ad86-8f1723dd32dc
3bb0d55c-51b3-11ea-9a0c-3f40798c0344,3bd49528-51b3-11ea-a87c-df88fb5c9f48
3bc6b886-51b3-11ea-9218-6f3bf5a28d63,3bd50e7c-51b3-11ea-af4a-235009fe25a5
3bca0022-51b3-11ea-b5fc-9bf8f0d86a4d,3bd503b4-51b3-11ea-8b93-63044af3bb1c
3b9f2e1a-51b3-11ea-ad21-036d9a40c2a0,3bd5169c-51b3-11ea-b9dc-479471f17c5f
3bb84a30-51b3-11ea-84bf-cb79a3100601,3bd5391a-51b3-11ea-9ed9-1fea2c69cb4c
3bbe5b6e-51b3-11ea-9171-c39e459f9961,3bd572ae-51b3-11ea-8b9a-bf616f531fda
3bd11646-51b3-11ea-9913-db97c14b6df3,3bd59f54-51b3-11ea-a418-8fda90987db8
3b9d1c74-51b3-11ea-9ee0-932c5d8a020d,3bd5aa30-51b3-11ea-ada4-bb94a648fb09
3bb2e144-51b3-11ea-9997-8fa8c5903a72,3bd5bee4-51b3-11ea-99d5-f3602ad85d96
3b9fe788-51b3-11ea-80c6-d711d12c53b3,3bd611dc-51b3-11ea-bcdc-e34090f61a03
3bd07812-51b3-11ea-8084-5b17b3e21173,3bd61c86-51b3-11ea-85be-f7ea3e23b740
3bca248a-51b3-11ea-94f4-17e8f680f7dc,3bd64c88-51b3-11ea-aafc-bf3a3830c707
3bcf9294-51b3-11ea-92cf-3f8fa3876fad,3bd655de-51b3-11ea-b9a8-875bf7b979c5
3b9ee8c4-51b3-11ea-8cc9-9f0a702f9230,3bd6b5b0-51b3-11ea-ad65-4b8d6fe1393f
3bc38e54-51b3-11ea-acb9-33f4de32bdea,3bd6cd8e-51b3-11ea-b044-33ac76a59d21
3bc557ca-51b3-11ea-bd52-3b0ab8ce97ca,3bd6d8e2-51b3-11ea-b683-0f1b7b551ec1
3baeb984-51b3-11ea-beba-5375381c1eeb,3bd6ff66-51b3-11ea-9224-ab5ef8b51fd8
3bc3fc22-51b3-11ea-90c6-1f2a38079b16,3bd768fc-51b3-11ea-b993-7b4ac3e43031
3bc557ca-51b3-11ea-bd52-3b0ab8ce97ca,3bd78a94-51b3-11ea-811a-9b7495ffda58
3baf6ed8-51b3-11ea-b496-af16cb9b9216,3bd7a196-51b3-11ea-a2c9-ef93273eba0b
3bbf0604-51b3-11ea-b1a9-1b494e6741c0,3bd7af60-51b3-11ea-9025-4f51b2164f01
3bb06fb8-51b3-11ea-bd3e-db1166fb18b1,3bd80028-51b3-11ea-9283-5fdf5829f20b
3bb2185e-51b3-11ea-a4d9-e78da9c10658,3bd825bc-51b3-11ea-beb2-af2de6b1ae90
3b9becaa-51b3-11ea-affd-37878f0631ef,3bd8433a-51b3-11ea-8253-efc18ee4193a
3bca4cd0-51b3-11ea-ba36-bf005b99d567,3bd85a0a-51b3-11ea-9de2-fb7fa3c96f8c
3b9b6b90-51b3-11ea-a002-6751626375ed,3bd8b7ac-51b3-11ea-b64c-a75477737dec
3bb785d2-51b3-11ea-b630-4f4b0fc28e8a,3bd8cc88-51b3-11ea-887a-5b856079b6f7
3bb3125e-51b3-11ea-a09c-17a2ad21b128,3bd8ecb8-51b3-11ea-accc-e750e27531e9
3bca4cd0-51b3-11ea-ba36-bf005b99d567,3bd92caa-51b3-11ea-8d9f-530d1c8dccf4
3bb90b3c-51b3-11ea-bf90-3b915ced084e,3bd964c2-51b3-11ea-bd2d-bb68c0c2aa14
3bc4d8cc-51b3-11ea-b7b5-876bca39cec1,3bd973b8-51b3-11ea-a4f8-67aaff31b38c
3bd12294-51b3-11ea-8af4-67419aa03d41,3bd98ee8-51b3-11ea-a4d4-63777584eb55
3baa08a8-51b3-11ea-a920-cf54f0f4d4c5,3bd9db96-51b3-11ea-a978-4b78f95ecb4b
3bc3fc22-51b3-11ea-90c6-1f2a38079b16,3bd9fa90-51b3-11ea-bf10-07b7369c98f8
3ba846e4-51b3-11ea-9ed6-4bd14a39ca95,3bda2312-51b3-11ea-8c48-eb2ebb3b9fe8
3bab0974-51b3-11ea-82bb-abe965089262,3bda39e2-51b3-11ea-93ea-3fb358f58f00
3bae0c5a-51b3-11ea-b6da-2f273639b35b,3bda8b86-51b3-11ea-aa76-1ff959d10fe1
3bc3ef52-51b3-11ea-8ead-b766c19ce482,3bda821c-51b3-11ea-8552-f77b55d3ea71
3bd78a94-51b3-11ea-811a-9b7495ffda58,3bda9ce8-51b3-11ea-a2e6-cb17b73a901a
3bbb671a-51b3-11ea-a6ce-c3c447056cd7,3bdad2d0-51b3-11ea-acc0-c79dacd2b14a
3bc27190-51b3-11ea-88bb-23822d0b85c4,3bdb0246-51b3-11ea-af95-0fc003a70a92
3b9a5264-51b3-11ea-89c7-f713204f633c,3bdb0c1e-51b3-11ea-bb22-bf59df1764b0
3bb6f978-51b3-11ea-a958-b7ad4fecea98,3bdb5d90-51b3-11ea-8c3e-43c9c7934d0d
3ba5f498-51b3-11ea-9867-1b3a2cf89c16,3bdb6eac-51b3-11ea-8ed7-a7746d8fbedf
3bd3fad2-51b3-11ea-9b3c-2368c04c5822,3bdb79a6-51b3-11ea-9ffa-2fbf81ae9154
3ba2b800-51b3-11ea-9791-cf048b633a36,3bdba692-51b3-11ea-a03f-43dfadca0800
3bc12286-51b3-11ea-b960-ef2d7ed7345c,3bdbca6e-51b3-11ea-ba38-e3d3f55623c9
3babaaf0-51b3-11ea-8940-e34011553ba0,3bdbed28-51b3-11ea-9b84-0381383e951d
3bb4732e-51b3-11ea-b791-ef8c59705690,3bdc185c-51b3-11ea-ba8a-4b731dd4c23c
3bca4cd0-51b3-11ea-ba36-bf005b99d567,3bdc608c-51b3-11ea-b1e4-a7b9619d26a8
3b99fe04-51b3-11ea-b74c-df1bb30238e0,3bdc4c8c-51b3-11ea-bae7-0badf2c96486
3bac78f4-51b3-11ea-8005-a3301e76a386,3bdc982c-51b3-11ea-8a8b-8ba969f241ce
3bd04be4-51b3-11ea-a893-6b352860f3fa,3bdcbac8-51b3-11ea-a290-77bf36872972
3ba811c4-51b3-11ea-a507-f395dff22c0e,3bdcdff8-51b3-11ea-8497-0fa4c2cae73a
3bbdaa98-51b3-11ea-aacc-ab421a7bc495,3bdcf8c6-51b3-11ea-aa5f-7ba7fa11a667
3b9ca2f8-51b3-11ea-95b7-5f624e81db42,3bdd12ac-51b3-11ea-b8e5-3351a6d3567d
3b9becaa-51b3-11ea-affd-37878f0631ef,3bdd6ff4-51b3-11ea-ba05-835e8ead5921
3bd3fad2-51b3-11ea-9b3c-2368c04c5822,3bdd80e8-51b3-11ea-bd02-3ffa4aeaa90d
3bb900a6-51b3-11ea-b142-730258fbe5f1,3bdd8c46-51b3-11ea-83ce-376dc98ce2d7
3ba63c6e-51b3-11ea-b5a6-372f5d9ebf82,3bddabcc-51b3-11ea-985d-23a8fa66f58b
3ba5fee8-51b3-11ea-aa96-2f5435e143ac,3bdde2cc-51b3-11ea-852e-234aa492538d
3bb5b3b0-51b3-11ea-b5e6-7fcdc427e817,3bdded26-51b3-11ea-8a59-d3263b809aa3
3bdb6eac-51b3-11ea-8ed7-a7746d8fbedf,3bde3b5a-51b3-11ea-b38d-7b902873c6d3
3ba9f714-51b3-11ea-bb63-1392ffca20ca,3bde4c3a-51b3-11ea-8104-6b9495ce90d9
3bba05dc-51b3-11ea-bd3d-031d384e0da3,3bde893e-51b3-11ea-ac93-2ff48accee7a
3bbc8a64-51b3-11ea-b945-3fc01361fa44,3bdebabc-51b3-11ea-9847-274b66ab58ce
3bd12294-51b3-11ea-8af4-67419aa03d41,3bdee0b4-51b3-11ea-bd49-eb2fa2d0f8a5
3b9e66e2-51b3-11ea-b77d-a37de5cba02b,3bdeed16-51b3-11ea-8e42-7f95fc66368e
3bc6b886-51b3-11ea-9218-6f3bf5a28d63,3bdf20a6-51b3-11ea-93b8-3322317293bd
3bbe5b6e-51b3-11ea-9171-c39e459f9961,3bdf3a8c-51b3-11ea-b93e-1321c29f9b4a
3ba7291c-51b3-11ea-844c-77ed844620d9,3bdf7f38-51b3-11ea-83fb-83b0a9e6b54e
3bd9fa90-51b3-11ea-bf10-07b7369c98f8,3bdf9284-51b3-11ea-99fa-af57dba591ff
3bc47152-51b3-11ea-ad45-c708f72548bc,3bdfb37c-51b3-11ea-99a5-e39d79f05130
3bda2312-51b3-11ea-8c48-eb2ebb3b9fe8,3bdfe496-51b3-11ea-a484-a32df05b8448
3bbb2318-51b3-11ea-b1e6-53816a3a3f33,3be008fe-51b3-11ea-9082-2b2d12564712
3bdee0b4-51b3-11ea-bd49-eb2fa2d0f8a5,3be01574-51b3-11ea-8fe4-7b6412310b58
3bda2312-51b3-11ea-8c48-eb2ebb3b9fe8,3be0783e-51b3-11ea-9a59-63aa099f2d12
3bd3fad2-51b3-11ea-9b3c-2368c04c5822,3be09314-51b3-11ea-b357-177cb4d5135e
3bd9fa90-51b3-11ea-bf10-07b7369c98f8,3be0c4e2-51b3-11ea-93db-8f9caa67ba5e
3bd7a196-51b3-11ea-a2c9-ef93273eba0b,3be0ef44-51b3-11ea-a3e0-8f62442e52f3
3bce675c-51b3-11ea-b08d-bb93dc2dae5d,3be0fb06-51b3-11ea-b4e9-6b3967942add
3ba438ec-51b3-11ea-9b0e-cbbd07d92c15,3be12fae-51b3-11ea-964d-13f8ef0b27f5
3b9c2e36-51b3-11ea-8c03-bffaf43ef311,3be17d6a-51b3-11ea-99c6-239778b2ca19
3bb5b3b0-51b3-11ea-b5e6-7fcdc427e817,3be19d0e-51b3-11ea-8649-b3ebb1b23acb
3bc4071c-51b3-11ea-abdd-9b8a8106e156,3be1b50a-51b3-11ea-8a1c-039eec9008b9
3ba7c9f8-51b3-11ea-9ed4-932d30976666,3be20618-51b3-11ea-b07d-2be77d476e54
3bc486f6-51b3-11ea-a1ff-737aed8d76e0,3be21220-51b3-11ea-b11e-f367251dc266
3baeb984-51b3-11ea-beba-5375381c1eeb,3be22076-51b3-11ea-b54c-2f6cc1629bbd
3bda821c-51b3-11ea-8552-f77b55d3ea71,3be231d8-51b3-11ea-a6c0-5f343487f6c0
3ba5b35c-51b3-11ea-92ec-3fbd56dffa37,3be28818-51b3-11ea-b1b8-cbe5a915cfc6
3bc9dbf6-51b3-11ea-b906-4be2c40841c1,3be29722-51b3-11ea-9e39-5f42e3179971
3bd1f444-51b3-11ea-8fa7-87f59751d7b4,3be2a47e-51b3-11ea-918c-33f7661f5106
3bdc185c-51b3-11ea-ba8a-4b731dd4c23c,3be318c8-51b3-11ea-9662-87abf9acbbf4
3bb9ea2a-51b3-11ea-a11a-3f027a3c5758,3be32c96-51b3-11ea-9426-d33385f6ef69
3bc06daa-51b3-11ea-bdee-f3e4245b553e,3be33768-51b3-11ea-b76e-7b762e89c790
3bd5391a-51b3-11ea-9ed9-1fea2c69cb4c,3be38e34-51b3-11ea-b9fb-fb17db1f9410
3bdad2d0-51b3-11ea-acc0-c79dacd2b14a,3be398fc-51b3-11ea-852c-cb07889a0554
3bb3a980-51b3-11ea-9d83-bb61ffcb2d4c,3be3a950-51b3-11ea-bddc-3b303d454736
3bcac390-51b3-11ea-becf-97bcd0892127,3be3c034-51b3-11ea-af7b-47be17310f19
3bc07674-51b3-11ea-8040-cf2036fd0674,3be408dc-51b3-11ea-bfd3-2b8f8830cc36
3be0fb06-51b3-11ea-b4e9-6b3967942add,3be413f4-51b3-11ea-8890-fb185f878261
3bde893e-51b3-11ea-ac93-2ff48accee7a,3be42682-51b3-11ea-b48c-4b444f0f5703
3bd22f9a-51b3-11ea-8cbb-cfcf8ec10747,3be46cfa-51b3-11ea-a9e9-f3b5ae7f23c2
3bc1a1de-51b3-11ea-871d-d780e76aa4ec,3be4e310-51b3-11ea-97af-0b7f4fad5e76
3be29722-51b3-11ea-9e39-5f42e3179971,3be4efae-51b3-11ea-9e5f-d721e72f1598
3bacf234-51b3-11ea-ab42-b72bbd8c7dc8,3be50570-51b3-11ea-91b0-2f2fdcbed8df
3ba5fee8-51b3-11ea-aa96-2f5435e143ac,3be51f74-51b3-11ea-b06f-db2782e3a465
3ba9b4e8-51b3-11ea-a6fa-674ef288b1e5,3be5834c-51b3-11ea-8d26-b7cbf16990dc
3bb138d0-51b3-11ea-8a9e-2b747b6f54b6,3be59378-51b3-11ea-b420-4fdaf782e504
3bc4150e-51b3-11ea-a1d9-5fc84e81c60d,3be59c92-51b3-11ea-82e7-33c8f042819d
3ba202ca-51b3-11ea-a0b4-7b99deaafdb2,3be5d5fe-51b3-11ea-9f2f-4b34dc07a8cb
3ba0a312-51b3-11ea-833b-5752577c8016,3be61640-51b3-11ea-876b-636ff45cb31d
3b992bf0-51b3-11ea-b4f3-ffe7bde4406d,3be62dc4-51b3-11ea-ac19-57a4c9692980
3bad503a-51b3-11ea-8ab3-6fbe8d84e400,3be64c78-51b3-11ea-b168-43987a6e75bd
3b99ecf2-51b3-11ea-803a-933f646d423f,3be6574a-51b3-11ea-9500-1bc2dc3e8cd7
3bdded26-51b3-11ea-8a59-d3263b809aa3,3be6b320-51b3-11ea-a5b9-ff7f93829b90
3ba957aa-51b3-11ea-b659-e7f99dfcad94,3be6be92-51b3-11ea-9ce4-530a8670a15e
3bd7a196-51b3-11ea-a2c9-ef93273eba0b,3be6f132-51b3-11ea-8727-af483088f137
3bb84a30-51b3-11ea-84bf-cb79a3100601,3be70424-51b3-11ea-8bb1-c75f11c84c67
3bb3125e-51b3-11ea-a09c-17a2ad21b128,3be750aa-51b3-11ea-93bb-c7824581a5db
3be12fae-51b3-11ea-964d-13f8ef0b27f5,3be75faa-51b3-11ea-a51b-33a710cfc0b3
3b9cad98-51b3-11ea-846f-4b248f508b71,3be77166-51b3-11ea-8cd3-d73b63d1cada
3bc06490-51b3-11ea-b1f8-7ff662846bbb,3be7a988-51b3-11ea-92f8-93a10b44b2fa
3bae48f0-51b3-11ea-a91f-bbf2330e6bbe,3be7d282-51b3-11ea-920f-23747a2c5499
3bbf55c8-51b3-11ea-9843-4389d6d96727,3be7f942-51b3-11ea-a6ba-4f5b1382d6c0
3bc2e954-51b3-11ea-86d0-9f006a13ad90,3be81d8c-51b3-11ea-ae81-572569c05778
3bb06fb8-51b3-11ea-bd3e-db1166fb18b1,3be88d3a-51b3-11ea-a67d-17612ff572ed
3bc7adb8-51b3-11ea-a202-635d5bcd3799,3be89992-51b3-11ea-a0fb-eb5f9f3274d1
3bc3fc22-51b3-11ea-90c6-1f2a38079b16,3be8a6d0-51b3-11ea-a5ae-1b389b9ae477
3ba8d816-51b3-11ea-96f8-f7753d464dda,3be8d1f0-51b3-11ea-9b07-6f6270679345
3bb483aa-51b3-11ea-95e6-bb850bc5346a,3be8f662-51b3-11ea-9a2c-370d862e66c5
3bccf1e2-51b3-11ea-b9ea-db785d8a43ad,3be914a8-51b3-11ea-b26c-034c083cc1a7
3b9dd380-51b3-11ea-8506-9f463ffda0e7,3be94338-51b3-11ea-859f-732967a83772
3bbf55c8-51b3-11ea-9843-4389d6d96727,3be99040-51b3-11ea-b1fd-1fc6749bff3f
3bae3d06-51b3-11ea-8119-0f3418344b8e,3be9a774-51b3-11ea-b473-83e8bb798e0e
3ba202ca-51b3-11ea-a0b4-7b99deaafdb2,3be9cc86-51b3-11ea-b481-67a9a4d7aef2
3bd48baa-51b3-11ea-ad86-8f1723dd32dc,3be9d758-51b3-11ea-9c0e-374ebdb62238
3bd503b4-51b3-11ea-8b93-63044af3bb1c,3bea0c32-51b3-11ea-8e16-b3f2642a8605
3bd6cd8e-51b3-11ea-b044-33ac76a59d21,3bea47d8-51b3-11ea-a1dd-6fd359c8d215
3bbffda2-51b3-11ea-b12c-ab9602300b78,3bea70be-51b3-11ea-bee1-27540fd0b8d5
3bb9ea2a-51b3-11ea-a11a-3f027a3c5758,3bea7bd6-51b3-11ea-8303-df404e7b57d1
3bb0d55c-51b3-11ea-9a0c-3f40798c0344,3bea875c-51b3-11ea-842f-0f1d378dcd0f
3b9dd380-51b3-11ea-8506-9f463ffda0e7,3beb1e74-51b3-11ea-b69c-cb9f25de9c90
3bbcf5da-51b3-11ea-a284-e3b243c9a84e,3beb2a86-51b3-11ea-a778-b3c8d3034084
3bd0973e-51b3-11ea-8678-db846cb32b5d,3beb379c-51b3-11ea-8acb-2f38c69e5a16
3bd611dc-51b3-11ea-bcdc-e34090f61a03,3beb583a-51b3-11ea-b5b2-97f30b56f947
3bd25be6-51b3-11ea-9b2f-1ff049cbe7b4,3bebb94c-51b3-11ea-acd3-9f6af8a25099
3bb6c1f6-51b3-11ea-a48b-834f2e948421,3bebd328-51b3-11ea-ad73-8f7598baf5e1
3baface0-51b3-11ea-a0fd-1393c0e16e07,3bebde5e-51b3-11ea-a530-cf8d4b62adda
3bea70be-51b3-11ea-bee1-27540fd0b8d5,3bebf6be-51b3-11ea-a628-03170f7dcd60
3bcc34dc-51b3-11ea-9ccd-d7566ef886a2,3bec409c-51b3-11ea-bb62-83d275984f84
3bb5b3b0-51b3-11ea-b5e6-7fcdc427e817,3bec4fba-51b3-11ea-88f2-9ff12e7de0d9
3bac78f4-51b3-11ea-8005-a3301e76a386,3bec6054-51b3-11ea-9323-971e8c47fedf
3baa7572-51b3-11ea-be97-f76649a6cd4b,3bec6f4a-51b3-11ea-9360-cba0eac3d541
3bb6f978-51b3-11ea-a958-b7ad4fecea98,3becb3c4-51b3-11ea-af82-dfe213d23bb6
3bd469b8-51b3-11ea-b463-df7ece609fd7,3becc0d0-51b3-11ea-83b0-23b3f3462e08
3b9cad98-51b3-11ea-846f-4b248f508b71,3becddc2-51b3-11ea-962c-83f5e94b9f69
3bcd80da-51b3-11ea-9292-1b8d91cb18e5,3bed09f0-51b3-11ea-a0d3-c31de8b86276
3bc1d6a4-51b3-11ea-8ff2-4f2977bd1dfb,3bed4e4c-51b3-11ea-a7b3-af6bc8bb8873
3ba80742-51b3-11ea-9a0c-b310f5a0ee96,3bed5900-51b3-11ea-908a-9b91a393ff98
3bb0d55c-51b3-11ea-9a0c-3f40798c0344,3bed98de-51b3-11ea-bed3-e7af6c13fe6e
3bc353d0-51b3-11ea-891e-3bb35b3896ad,3bedcaac-51b3-11ea-9483-aff060242c8b
3baeb984-51b3-11ea-beba-5375381c1eeb,3bedf0b8-51b3-11ea-8dba-c7f886b55ad8
3bdb0c1e-51b3-11ea-bb22-bf59df1764b0,3bee0468-51b3-11ea-a64d-db37e129eb1b
3bb7f508-51b3-11ea-ac00-b75e986e518d,3bee691c-51b3-11ea-9e20-8f074422c4a3
3bc65f26-51b3-11ea-a135-771e34a8be3a,3bee745c-51b3-11ea-8795-23c91970175b
3bbcecde-51b3-11ea-8a8c-63d987a542f3,3bee9040-51b3-11ea-9494-ff3c643c579b
3bac8402-51b3-11ea-905b-0fcc2e14e9a5,3beecfe2-51b3-11ea-85ff-7378ac28c8ab
3bb634a2-51b3-11ea-9af0-d7cae2e7bd21,3bef1ac4-51b3-11ea-ba28-abd7bc7865de
3bcb8424-51b3-11ea-873b-c705ff4df766,3bef241a-51b3-11ea-aa65-b38ff3c323e8
3bcea438-51b3-11ea-9e28-5bbfef6ad44a,3bef3770-51b3-11ea-a535-bbb8d7249755
3bd5391a-51b3-11ea-9ed9-1fea2c69cb4c,3bef4846-51b3-11ea-855b-5b46c8269c34
3bae8b80-51b3-11ea-b227-6f5c30056f69,3befb22c-51b3-11ea-acbd-97747ef5d76b
3bd3fad2-51b3-11ea-9b3c-2368c04c5822,3befcf8c-51b3-11ea-b12c-bfb39083d402
3be6f132-51b3-11ea-8727-af483088f137,3befe7ec-51b3-11ea-b6ba-6fbd19ae5cb4
3beecfe2-51b3-11ea-85ff-7378ac28c8ab,3befdacc-51b3-11ea-8a60-17f0bf9a675d
3bb4732e-51b3-11ea-b791-ef8c59705690,3bf02e32-51b3-11ea-8fcb-a3600c6c701a
3bac8402-51b3-11ea-905b-0fcc2e14e9a5,3bf04610-51b3-11ea-a309-5f3ad14be68a
3bde4c3a-51b3-11ea-8104-6b9495ce90d9,3bf09f16-51b3-11ea-9622-a7eb38c23cc3
3b9c934e-51b3-11ea-948c-37ccce0ba9db,3bf0a79a-51b3-11ea-a38e-43011fc841d0
3b9d9172-51b3-11ea-b5c3-138d43d889e7,3bf0b0aa-51b3-11ea-8013-ef20e785f64a
3bd04be4-51b3-11ea-a893-6b352860f3fa,3bf0dd14-51b3-11ea-8560-03de55577a31
3bbd979c-51b3-11ea-8b81-c70e34505ef3,3bf113e2-51b3-11ea-8bbf-b7c93fdba4cb
3bce4772-51b3-11ea-9476-630a33ad886f,3bf12008-51b3-11ea-ba66-435598ccc488
3bb1f400-51b3-11ea-b24c-97f5ea0563c2,3bf129cc-51b3-11ea-9c82-0ffda0931593
3bc5207a-51b3-11ea-bc28-c3ca50c2166b,3bf14092-51b3-11ea-8724-9330fa145828
3bc1c344-51b3-11ea-a371-cfc09a220fcd,3bf1b57c-51b3-11ea-a8d1-233b46b44fda
3ba3e0fe-51b3-11ea-9b74-634ae92d51f0,3bf1de12-51b3-11ea-9bc9-334fef207252
3ba3c29a-51b3-11ea-a101-7f346eb93277,3bf21346-51b3-11ea-8ab3-33bdd7519339
3bc1a1de-51b3-11ea-871d-d780e76aa4ec,3bf22188-51b3-11ea-a24a-b3805dd4ab6c
3bafba8c-51b3-11ea-ad81-6768c6b390b6,3bf27c3c-51b3-11ea-9ad7-a7f7fd6b664b
3b992bf0-51b3-11ea-b4f3-ffe7bde4406d,3bf30aa8-51b3-11ea-994b-875ef9a3857c
3bb3125e-51b3-11ea-a09c-17a2ad21b128,3bf2fef0-51b3-11ea-b032-6fdd73477556
3bcea438-51b3-11ea-9e28-5bbfef6ad44a,3bf3184a-51b3-11ea-8a89-9b1436a4c77e
3bc3ef52-51b3-11ea-8ead-b766c19ce482,3bf38690-51b3-11ea-aa9c-e7dc2ec9fb6d
3bad503a-51b3-11ea-8ab3-6fbe8d84e400,3bf3ac7e-51b3-11ea-ae9c-0b36a001c26f
3bdee0b4-51b3-11ea-bd49-eb2fa2d0f8a5,3bf41c9a-51b3-11ea-8e27-b70d5aa480c9
3bbcf5da-51b3-11ea-a284-e3b243c9a84e,3bf42b4a-51b3-11ea-81e4-afb5e1d56ebd
3bf30aa8-51b3-11ea-994b-875ef9a3857c,3bf44706-51b3-11ea-91c0-f31801b88c10
3bb863c6-51b3-11ea-95df-8b354b2a89dc,3bf4b31c-51b3-11ea-896d-53dc7d38062e
3ba5f498-51b3-11ea-9867-1b3a2cf89c16,3bf4e03a-51b3-11ea-89cc-739a04f8c407
3bbeae48-51b3-11ea-98ac-438418e0a832,3bf4fdea-51b3-11ea-a6b1-bfdca1fa4532
3ba58828-51b3-11ea-abfe-b3bc68e2be64,3bf529a0-51b3-11ea-9a9d-7fe08f078369
3bcd80da-51b3-11ea-9292-1b8d91cb18e5,3bf53b52-51b3-11ea-a670-e3e15df6477f
3bab0974-51b3-11ea-82bb-abe965089262,3bf58f44-51b3-11ea-acc3-bfa1bf9f0e3d
3bec6f4a-51b3-11ea-9360-cba0eac3d541,3bf5bdfc-51b3-11ea-a75b-eb708d979400
3bf22188-51b3-11ea-a24a-b3805dd4ab6c,3bf5d940-51b3-11ea-b255-0b23b5c64281
3bd37ec2-51b3-11ea-8ffb-dbb82e63f57e,3bf5f452-51b3-11ea-855c-6b6889f18418
3bc6cf24-51b3-11ea-ae59-d3611ba289ab,3bf65924-51b3-11ea-bef2-df9d1062dd09
3ba0665e-51b3-11ea-a9df-f7f898f7ca11,3bf6678e-51b3-11ea-a7d5-6ffcb94a2fef
3bd31c84-51b3-11ea-afd7-c7fc9ae24e96,3bf69150-51b3-11ea-b008-b72d3eee1a04
3bc07674-51b3-11ea-8040-cf2036fd0674,3bf69c40-51b3-11ea-998c-df84e36c480a
3bba127a-51b3-11ea-ab1c-1f3072c789b0,3bf713f0-51b3-11ea-a0bf-631e655501b7
3bb90b3c-51b3-11ea-bf90-3b915ced084e,3bf71efe-51b3-11ea-b137-37f2d629df78
3bc95a6e-51b3-11ea-99b8-b3f7bee817f0,3bf74eb0-51b3-11ea-ba55-47e16b70dfab
3ba11ad6-51b3-11ea-9855-43800a392c5e,3bf75c02-51b3-11ea-9d7c-9fd0d5fdc9dd
3bbcecde-51b3-11ea-8a8c-63d987a542f3,3bf7851a-51b3-11ea-81f0-674b46dedd5f
3bcd6d16-51b3-11ea-bf58-c3a1b03cf5d4,3bf7bd50-51b3-11ea-8dac-dbf3fa6c6f5e
3bcab7d8-51b3-11ea-a5db-d32edbffa6b9,3bf7e46a-51b3-11ea-95cd-437ffa59933b
3be4efae-51b3-11ea-9e5f-d721e72f1598,3bf7d722-51b3-11ea-ae18-0f69182955d1
3b9bd404-51b3-11ea-88c3-9b3d7d54016b,3bf858fa-51b3-11ea-8827-eb59b8434a8a
3bed09f0-51b3-11ea-a0d3-c31de8b86276,3bf8d60e-51b3-11ea-aaac-178fe3dd97c7
3bde893e-51b3-11ea-ac93-2ff48accee7a,3bf8e360-51b3-11ea-aeab-73dc31b36063
3bdfb37c-51b3-11ea-99a5-e39d79f05130,3bf8f22e-51b3-11ea-b3c0-537b0f7409e1
3bcd8c38-51b3-11ea-a7be-277a5dacc07f,3bf91254-51b3-11ea-92ce-c7d8b678e17d
3bd0fb52-51b3-11ea-9e16-d70bcdb74737,3bf94c60-51b3-11ea-ba4a-1bde1ff8b2e4
3be19d0e-51b3-11ea-8649-b3ebb1b23acb,3bf95818-51b3-11ea-98e2-071c58fa4c4b
3bc38e54-51b3-11ea-acb9-33f4de32bdea,3bf962ea-51b3-11ea-b77d-839009ea78cb
3bf4e03a-51b3-11ea-89cc-739a04f8c407,3bf9a87c-51b3-11ea-8bce-a78222f31d9d
3bc7edbe-51b3-11ea-b409-9b4093c23c43,3bf9c5f0-51b3-11ea-8d71-1b63f3a810f7
3bb3125e-51b3-11ea-a09c-17a2ad21b128,3bf9f048-51b3-11ea-a512-43bcbda69d39
3bb41816-51b3-11ea-a1eb-27a81f2cb46d,3bfa272a-51b3-11ea-ada9-3fdb6f5ba3c1
3bd48baa-51b3-11ea-ad86-8f1723dd32dc,3bfa41ec-51b3-11ea-9385-43a9b18143ac
3be51f74-51b3-11ea-b06f-db2782e3a465,3bfa49bc-51b3-11ea-bf19-97bb3ec7b1f1
3bc4d8cc-51b3-11ea-b7b5-876bca39cec1,3bfabb90-51b3-11ea-aaa9-53e24fd4fcec
3bad2a38-51b3-11ea-b291-472e7d35cba3,3bfacf5e-51b3-11ea-80df-0fd2cbcc5bed
3be50570-51b3-11ea-91b0-2f2fdcbed8df,3bfaf128-51b3-11ea-8d1f-1fd85a88448a
3bb9ea2a-51b3-11ea-a11a-3f027a3c5758,3bfb0a0a-51b3-11ea-8f11-8f0a0df0c4a7
3bd12294-51b3-11ea-8af4-67419aa03d41,3bfb5c4e-51b3-11ea-82c1-fb8252489f38
3be59378-51b3-11ea-b420-4fdaf782e504,3bfb8066-51b3-11ea-ab02-27e0cafe1d9b
3be8f662-51b3-11ea-9a2c-370d862e66c5,3bfb9a88-51b3-11ea-91cf-7b27110c02d5
3bdf3a8c-51b3-11ea-b93e-1321c29f9b4a,3bfbd390-51b3-11ea-bbb9-83481f3d590b
3b9a5bba-51b3-11ea-80b1-374fe74ce1ab,3bfc230e-51b3-11ea-95dc-9787bb89d457
3bcf9e56-51b3-11ea-9040-db6cd742ef32,3bfc181e-51b3-11ea-b131-db01ade819fb
3bc2b966-51b3-11ea-b881-bf48ee48464f,3bfc2f3e-51b3-11ea-9408-c78969741b82
3bb695aa-51b3-11ea-8528-b7ffed24eae0,3bfc6148-51b3-11ea-9c3d-27825e75683c
3bf74eb0-51b3-11ea-ba55-47e16b70dfab,3bfcca7a-51b3-11ea-9775-9f1de5854843
3bb41816-51b3-11ea-a1eb-27a81f2cb46d,3bfcd88a-51b3-11ea-a1d9-d78faaa598f8
3bd8b7ac-51b3-11ea-b64c-a75477737dec,3bfcede8-51b3-11ea-b451-ab321cab115a
3bd503b4-51b3-11ea-8b93-63044af3bb1c,3bfd051c-51b3-11ea-843c-5f48d569a40f
3b9ef350-51b3-11ea-a4f8-53b04249e748,3bfd41a8-51b3-11ea-bf05-9fa95015cc4e
3bb3a980-51b3-11ea-9d83-bb61ffcb2d4c,3bfd7eca-51b3-11ea-aec3-9ffe3092e348
3baec8e8-51b3-11ea-85e6-c39f666f7f00,3bfd969e-51b3-11ea-adc4-c7996f1bf15e
3bdcdff8-51b3-11ea-8497-0fa4c2cae73a,3bfda472-51b3-11ea-a755-7ff5d771b565
3bdc982c-51b3-11ea-8a8b-8ba969f241ce,3bfdae86-51b3-11ea-a199-fbc878b162d6
3bc9dbf6-51b3-11ea-b906-4be2c40841c1,3bfe3194-51b3-11ea-bcef-eb695f79c314
3bd8433a-51b3-11ea-8253-efc18ee4193a,3bfe50fc-51b3-11ea-a183-675c3b85ad4c
3bc612be-51b3-11ea-9caa-afb8e1786773,3bfe5a66-51b3-11ea-92ea-c3e39a2d9bd5
3bd8ecb8-51b3-11ea-accc-e750e27531e9,3bfea5f2-51b3-11ea-82e8-f374c9f0ab7b
3bbea6dc-51b3-11ea-8021-df60ebb20a7e,3bfed180-51b3-11ea-b05b-07b5ae6ea424
3ba54c32-51b3-11ea-b828-ff1979df717f,3bfeda72-51b3-11ea-b3d0-6f4316766df5
3bb8348c-51b3-11ea-9c8e-2f5282824269,3bfefbba-51b3-11ea-b69a-b3646fc91169
3b9c636a-51b3-11ea-8cb4-473c89978209,3bff501a-51b3-11ea-beef-f7f7d744052e
3ba87240-51b3-11ea-b0d4-53c5bb13f69b,3bff61ae-51b3-11ea-bbf3-9f0c74cd72a0
3bb4732e-51b3-11ea-b791-ef8c59705690,3bffb636-51b3-11ea-b6b5-83cfadc518fc
3bbffda2-51b3-11ea-b12c-ab9602300b78,3bffc298-51b3-11ea-80f2-17440ccde8f4
3bdf20a6-51b3-11ea-93b8-3322317293bd,3c001a2c-51b3-11ea-896b-7bd297f3de2c
3bc1d6a4-51b3-11ea-8ff2-4f2977bd1dfb,3c002f6c-51b3-11ea-b119-7b914cfca5b3
3bcd8c38-51b3-11ea-a7be-277a5dacc07f,3c006522-51b3-11ea-b6c9-9f1fca7c736b
3be318c8-51b3-11ea-9662-87abf9acbbf4,3c007c56-51b3-11ea-81b4-7f863f69a99d
3bff61ae-51b3-11ea-bbf3-9f0c74cd72a0,3c009588-51b3-11ea-bb39-a7e8cfa01f53
3bd9fa90-51b3-11ea-bf10-07b7369c98f8,3c00ea10-51b3-11ea-b1a5-a7f49b85091c
3be59378-51b3-11ea-b420-4fdaf782e504,3c010bbc-51b3-11ea-bed6-eb14d9d5d355
3be89992-51b3-11ea-a0fb-eb5f9f3274d1,3c012bb0-51b3-11ea-b057-2f1c520c2159
3bc532cc-51b3-11ea-a087-6b2d8d757e80,3c013a88-51b3-11ea-9cd1-2b8d6e9fb399
3bd2cba8-51b3-11ea-b739-bb43461e4bab,3c01ba9e-51b3-11ea-a4d5-ab91a739fa99
3bc0d880-51b3-11ea-aa16-1b27b380e77f,3c01c6f6-51b3-11ea-b5b1-1be23ceace32
3bf8e360-51b3-11ea-aeab-73dc31b36063,3c01e21c-51b3-11ea-a99c-e3fe4622c460
3bc9c17a-51b3-11ea-a9c3-7bdcf51358d6,3c020350-51b3-11ea-8ae0-e7b36fe67a34
3bad970c-51b3-11ea-90f8-7b123d01a69c,3c0235b4-51b3-11ea-b3ac-cba442d9fceb
3bea0c32-51b3-11ea-8e16-b3f2642a8605,3c02580a-51b3-11ea-a2ad-0735841ac0dd
3be6574a-51b3-11ea-9500-1bc2dc3e8cd7,3c0276a0-51b3-11ea-a9cb-17ce1b7aeccf
3bb900a6-51b3-11ea-b142-730258fbe5f1,3c0281a4-51b3-11ea-b992-07404951ccf8
3b9c934e-51b3-11ea-948c-37ccce0ba9db,3c02f710-51b3-11ea-9e9a-c3d9da92feb2
3bb37636-51b3-11ea-855b-079d33388680,3c0308ea-51b3-11ea-9c99-6f2db4d11036
3bdcdff8-51b3-11ea-8497-0fa4c2cae73a,3c031d26-51b3-11ea-90b5-d7eec6beebcc
3b9f2e1a-51b3-11ea-ad21-036d9a40c2a0,3c03294c-51b3-11ea-830f-4be2e3404b35
3bb30a2a-51b3-11ea-b5c0-af541ecddb59,3c038b3a-51b3-11ea-b22b-63efbbdc105c
3bb1c840-51b3-11ea-a139-a7c9b3e987fa,3c03d7b6-51b3-11ea-aa51-1bb712c62500
3ba73dd0-51b3-11ea-b441-131b5b340f6d,3c03e2c4-51b3-11ea-9f61-0b8b19018b0a
3be19d0e-51b3-11ea-8649-b3ebb1b23acb,3c03f70a-51b3-11ea-b8fc-b75b594c196d
3be3c034-51b3-11ea-af7b-47be17310f19,3c040bb4-51b3-11ea-9f85-437b745a677a
3bfa272a-51b3-11ea-ada9-3fdb6f5ba3c1,3c047ba8-51b3-11ea-92ee-73b8f82951ea
3b9e1fde-51b3-11ea-ad18-9fe90ee32056,3c048936-51b3-11ea-82c0-5fe67661995f
3bf0b0aa-51b3-11ea-8013-ef20e785f64a,3c049fac-51b3-11ea-a1b3-bf1f6ed8b8ea
3bc2692a-51b3-11ea-b4b4-a3cca3fa34a2,3c04a98e-51b3-11ea-9713-4f1b5478ec14
3b9f2e1a-51b3-11ea-ad21-036d9a40c2a0,3c05320a-51b3-11ea-81cd-f74b54f4a5df
3c010bbc-51b3-11ea-bed6-eb14d9d5d355,3c053f5c-51b3-11ea-8cc5-3b96281ff06a
3bfb0a0a-51b3-11ea-8f11-8f0a0df0c4a7,3c057710-51b3-11ea-9532-0b4ba21e44b6
3c047ba8-51b3-11ea-92ee-73b8f82951ea,3c0580ca-51b3-11ea-bd80-a32d5824bbd5
3be32c96-51b3-11ea-9426-d33385f6ef69,3c05dcc8-51b3-11ea-9b23-87c83842f04c
3bbd979c-51b3-11ea-8b81-c70e34505ef3,3c05ea06-51b3-11ea-baef-bbebf5977328
3bccde00-51b3-11ea-a811-3fac2f798c8a,3c061dfa-51b3-11ea-9374-e3001d2e1d5d
3bf5bdfc-51b3-11ea-a75b-eb708d979400,3c0641a4-51b3-11ea-ac32-dbf15a499af4
3bc7edbe-51b3-11ea-b409-9b4093c23c43,3c067854-51b3-11ea-8318-6f8a2503a1ff
3bd8ecb8-51b3-11ea-accc-e750e27531e9,3c06929e-51b3-11ea-a12b-47b5766e10f6
3bdeed16-51b3-11ea-8e42-7f95fc66368e,3c06cca0-51b3-11ea-befa-f3f910bb685a
3bf113e2-51b3-11ea-8bbf-b7c93fdba4cb,3c071d40-51b3-11ea-9031-033f25588bcb
3bb785d2-51b3-11ea-b630-4f4b0fc28e8a,3c077268-51b3-11ea-96c6-a3528b9669a1
3bc46202-51b3-11ea-98d2-2b25d5fab40e,3c0767b4-51b3-11ea-931d-a7f2d549d4a2
3bcc3ea0-51b3-11ea-a519-b7cd5b01f3bf,3c07a97c-51b3-11ea-a785-03145140307d
3bac8402-51b3-11ea-905b-0fcc2e14e9a5,3c08070a-51b3-11ea-a748-4bf02f51420a
3bc06490-51b3-11ea-b1f8-7ff662846bbb,3c0811fa-51b3-11ea-bd41-63559dc0aa67
3badc9ac-51b3-11ea-886b-23062fe74714,3c083d6a-51b3-11ea-a902-5b652b6cf60e
3c0235b4-51b3-11ea-b3ac-cba442d9fceb,3c087a82-51b3-11ea-8b2f-a30b7ebf32d4
3ba38c94-51b3-11ea-96b2-c37a5af2de62,3c088554-51b3-11ea-b220-6f4cf9c28c99
3bac5ba8-51b3-11ea-8a04-4b6422665c78,3c08b1f0-51b3-11ea-ba90-e326c2f43d8d
3be29722-51b3-11ea-9e39-5f42e3179971,3c08f08e-51b3-11ea-84fa-67bd2fb43461
3beb379c-51b3-11ea-8acb-2f38c69e5a16,3c08ff34-51b3-11ea-ab9c-c34121b5788d
3bac5ba8-51b3-11ea-8a04-4b6422665c78,3c0916ae-51b3-11ea-be9e-a3b97da3e06d
3be42682-51b3-11ea-b48c-4b444f0f5703,3c092374-51b3-11ea-b8b4-3fcf514d0182
3bac5ba8-51b3-11ea-8a04-4b6422665c78,3c095876-51b3-11ea-9d5e-5faf8c5d46de
3bb62584-51b3-11ea-b3ef-cbdaf208ceee,3c099b7e-51b3-11ea-8fd5-fb46db9b42a6
3bc46202-51b3-11ea-98d2-2b25d5fab40e,3c09c1c6-51b3-11ea-8d79-3f3b7540d841
3bd9db96-51b3-11ea-a978-4b78f95ecb4b,3c09c856-51b3-11ea-9c7b-53b61cbfc83f
3bab2cc4-51b3-11ea-a7ad-e7fe66d15e5f,3c09f43e-51b3-11ea-b066-032f3163b589
3bf21346-51b3-11ea-8ab3-33bdd7519339,3c0a53d4-51b3-11ea-8dae-0f62f6e1bb77
3bc49100-51b3-11ea-b1e2-4b4ac12ed3f3,3c0a675c-51b3-11ea-875e-a7e39c0f6b9c
3bb2e144-51b3-11ea-9997-8fa8c5903a72,3c0a8f52-51b3-11ea-a147-bbb5797d883f
3bbffda2-51b3-11ea-b12c-ab9602300b78,3c0ac56c-51b3-11ea-a280-4315d5018d20
3bfd41a8-51b3-11ea-bf05-9fa95015cc4e,3c0af1e0-51b3-11ea-8b35-13c101423603
3c03f70a-51b3-11ea-b8fc-b75b594c196d,3c0b0a7c-51b3-11ea-bd9e-1fd9b40bfef5
3bacf234-51b3-11ea-ab42-b72bbd8c7dc8,3c0b9096-51b3-11ea-bdb1-77a847d300be
3bed4e4c-51b3-11ea-a7b3-af6bc8bb8873,3c0ba0ea-51b3-11ea-a182-c324c46280bb
3bd3df8e-51b3-11ea-b4cd-cb28d1e6ac07,3c0bb800-51b3-11ea-a615-6f8818831db7
3ba87240-51b3-11ea-b0d4-53c5bb13f69b,3c0bc796-51b3-11ea-8cec-8b9c1c28e660
3c049fac-51b3-11ea-a1b3-bf1f6ed8b8ea,3c0c7c18-51b3-11ea-9d4d-3b27a5dea190
3bda821c-51b3-11ea-8552-f77b55d3ea71,3c0c8622-51b3-11ea-9b3e-fbf1764d91b7
3bf38690-51b3-11ea-aa9c-e7dc2ec9fb6d,3c0caa80-51b3-11ea-9ab9-a71460ffef11
3b9e5af8-51b3-11ea-a3cf-9b2df3459070,3c0cb822-51b3-11ea-9c50-871ecaf17fc1
3bf0a79a-51b3-11ea-a38e-43011fc841d0,3c0d221c-51b3-11ea-9ffb-17b01a724712
3bd973b8-51b3-11ea-a4f8-67aaff31b38c,3c0d50ac-51b3-11ea-9f8f-f7b4b1470c50
3beb379c-51b3-11ea-8acb-2f38c69e5a16,3c0d80b8-51b3-11ea-a07c-639dd06f265f
3b9af69c-51b3-11ea-b1ef-5767dd3ddb50,3c0d962a-51b3-11ea-9f93-9381d7e784b0
3baf44da-51b3-11ea-9475-b3846a1f8a3e,3c0e239c-51b3-11ea-ae87-9338b980f937
3be0c4e2-51b3-11ea-93db-8f9caa67ba5e,3c0e2ec8-51b3-11ea-b0ea-cbb12807266e
3c0a53d4-51b3-11ea-8dae-0f62f6e1bb77,3c0e3c42-51b3-11ea-a95b-178bd91255ff
3bfc6148-51b3-11ea-9c3d-27825e75683c,3c0e47aa-51b3-11ea-82a6-370a1644e18f
3ba28a42-51b3-11ea-b7da-2be4375f53c5,3c0e9868-51b3-11ea-94a6-f79135c28d21
3baeec92-51b3-11ea-b1bd-3bfc2d232289,3c0ea362-51b3-11ea-9f22-13f915496990
3bb3125e-51b3-11ea-a09c-17a2ad21b128,3c0ebcbc-51b3-11ea-a513-17f35f01167f
3bcf9294-51b3-11ea-92cf-3f8fa3876fad,3c0ee69c-51b3-11ea-8479-5b0d30a3185f
3bee691c-51b3-11ea-9e20-8f074422c4a3,3c0f0aa0-51b3-11ea-8007-8f365ffb9af3
3bbd979c-51b3-11ea-8b81-c70e34505ef3,3c0f632e-51b3-11ea-8142-974bcf0a87b0
3bf0a79a-51b3-11ea-a38e-43011fc841d0,3c0f6ed2-51b3-11ea-828b-ffe13f3eeadd
3c006522-51b3-11ea-b6c9-9f1fca7c736b,3c0f993e-51b3-11ea-a75a-4fb397b75c27
3c007c56-51b3-11ea-81b4-7f863f69a99d,3c0fc6b6-51b3-11ea-baa4-8b422fd1f216
3bce4772-51b3-11ea-9476-630a33ad886f,3c100766-51b3-11ea-9636-439bf185520d
3baab640-51b3-11ea-b3fb-c77a47ffc5cc,3c104974-51b3-11ea-8913-433e15f1d3c5
3bd12294-51b3-11ea-8af4-67419aa03d41,3c108056-51b3-11ea-89be-5bd0222189c7
3bff501a-51b3-11ea-beef-f7f7d744052e,3c105a7c-51b3-11ea-8019-9bec8ed85ac3
3bec6f4a-51b3-11ea-9360-cba0eac3d541,3c111dd6-51b3-11ea-9d4b-979e6541033c
3bca7430-51b3-11ea-a2f1-df6fc25ab860,3c11329e-51b3-11ea-a3d0-6395f8299766
3bffc298-51b3-11ea-80f2-17440ccde8f4,3c1140cc-51b3-11ea-a940-dfa2ea26efdd
3c09c856-51b3-11ea-9c7b-53b61cbfc83f,3c117704-51b3-11ea-b1a9-af713a78cd6c
3bc67830-51b3-11ea-9300-97ca08274405,3c11a576-51b3-11ea-8d55-479ca0c28952
3bfbd390-51b3-11ea-bbb9-83481f3d590b,3c11b8e0-51b3-11ea-87dc-1f6f9787acd7
3bdf3a8c-51b3-11ea-b93e-1321c29f9b4a,3c11eea0-51b3-11ea-afa2-679e405662b3
3bd02a92-51b3-11ea-a569-0bb9daa3f8be,3c12256e-51b3-11ea-8870-d77b2270f000
3bbc920c-51b3-11ea-aea6-e3ad20e72566,3c126df8-51b3-11ea-a688-d3925d662a6a
3bceada2-51b3-11ea-a97c-e3e3d69ba260,3c125fb6-51b3-11ea-b59f-bb9e8fdd7c0d
3be3c034-51b3-11ea-af7b-47be17310f19,3c127938-51b3-11ea-8cff-93c5b572033c
3bad970c-51b3-11ea-90f8-7b123d01a69c,3c12bf38-51b3-11ea-b728-2f1a7dfb9333
3be51f74-51b3-11ea-b06f-db2782e3a465,3c130f06-51b3-11ea-84c9-1fd25c699a79
3b9e702e-51b3-11ea-bf18-db0f175fd376,3c13191a-51b3-11ea-972b-8ff9ec66a8d9
3c01c6f6-51b3-11ea-b5b1-1be23ceace32,3c13293c-51b3-11ea-8b96-ff93309ff299
3bfb5c4e-51b3-11ea-82c1-fb8252489f38,3c138b84-51b3-11ea-8b99-c7fa681871e6
3bcf2778-51b3-11ea-86ef-3311603d769d,3c13aa1a-51b3-11ea-b267-1b0143d01d5e
3bd7af60-51b3-11ea-9025-4f51b2164f01,3c13b5b4-51b3-11ea-89ec-9f704b63e528
3baa7572-51b3-11ea-be97-f76649a6cd4b,3c13d8dc-51b3-11ea-8ccc-f34aa322e629
3bf65924-51b3-11ea-bef2-df9d1062dd09,3c1410d6-51b3-11ea-b996-e3499120bc58
3bbf1df6-51b3-11ea-8e5b-a7bfbb48a640,3c1422ec-51b3-11ea-9426-474006b236c2
3baf6244-51b3-11ea-b388-538850c96aad,3c144bf0-51b3-11ea-9de6-6f97c4e5f587
3bbea6dc-51b3-11ea-8021-df60ebb20a7e,3c14a7ee-51b3-11ea-9d6b-4f9a1eedb18e
3b9e1fde-51b3-11ea-ad18-9fe90ee32056,3c14b608-51b3-11ea-bdea-0b346b1053c5
3ba29afa-51b3-11ea-82aa-7323fefd0fc3,3c14c210-51b3-11ea-b612-83c6ce4f59ab
3bf7bd50-51b3-11ea-8dac-dbf3fa6c6f5e,3c155824-51b3-11ea-bf47-f7d6e973ac34
3bb7035a-51b3-11ea-aced-eba130bbe922,3c1570fc-51b3-11ea-9ee2-a37b6f2c2908
3be28818-51b3-11ea-b1b8-cbe5a915cfc6,3c1565c6-51b3-11ea-b28e-53c239e8aa9f
3bb1c840-51b3-11ea-a139-a7c9b3e987fa,3c15944c-51b3-11ea-afef-9bb384391513
3bb8348c-51b3-11ea-9c8e-2f5282824269,3c162466-51b3-11ea-9105-779c26fb398e
3bc95a6e-51b3-11ea-99b8-b3f7bee817f0,3c163366-51b3-11ea-855d-2f41637689da
3c0ebcbc-51b3-11ea-a513-17f35f01167f,3c163cbc-51b3-11ea-bfef-4b5fc90ebf72
3bbb2318-51b3-11ea-b1e6-53816a3a3f33,3c164b80-51b3-11ea-8e03-673c9bbe7a06
3bcab7d8-51b3-11ea-a5db-d32edbffa6b9,3c16aeb8-51b3-11ea-b3fa-af2ca19c7212
3bea7bd6-51b3-11ea-8303-df404e7b57d1,3c16be8a-51b3-11ea-943a-0bf6314fc306
3ba11ad6-51b3-11ea-9855-43800a392c5e,3c16e6da-51b3-11ea-9492-3f5e69dd4800
3ba7a234-51b3-11ea-b230-27c70cddeb98,3c171bfa-51b3-11ea-be1c-332c290131dd
3badc9ac-51b3-11ea-886b-23062fe74714,3c17aa66-51b3-11ea-a0b4-a7243cc61a60
3bea875c-51b3-11ea-842f-0f1d378dcd0f,3c17bc9a-51b3-11ea-8b45-8b5d9135b1da
3bb44fd4-51b3-11ea-9b2e-ffa85c037646,3c17ccd0-51b3-11ea-bf77-bf4684bfd76f
3ba0a312-51b3-11ea-833b-5752577c8016,3c18527c-51b3-11ea-b79a-0f4299b8ba7b
3ba51884-51b3-11ea-80e3-9bf82781f976,3c18601e-51b3-11ea-ae0b-3b6a11fb3d5a
3bcd117c-51b3-11ea-bcbf-e3603ebf8043,3c186fa0-51b3-11ea-9055-cb1bcd48cbf4
3c0235b4-51b3-11ea-b3ac-cba442d9fceb,3c18cb76-51b3-11ea-b2e5-1bcdfdecb0ff
3ba39248-51b3-11ea-84e1-67feb8d60988,3c1931d8-51b3-11ea-8631-437f1bd7118f
3bcf897a-51b3-11ea-aedb-df3cf79048dc,3c1949a2-51b3-11ea-9d6d-6f37811471b1
3b9c934e-51b3-11ea-948c-37ccce0ba9db,3c196338-51b3-11ea-88d4-f76f768821b8
3c14c210-51b3-11ea-b612-83c6ce4f59ab,3c19b2ca-51b3-11ea-8939-6b11314b9b24
3b9d9172-51b3-11ea-b5c3-138d43d889e7,3c19cbac-51b3-11ea-97d9-fbd6da89a82b
3bb537f0-51b3-11ea-b1de-f3d6df4fa39b,3c19f960-51b3-11ea-bfd3-cf252b12b925
3bb033ea-51b3-11ea-816b-535aab45d6e8,3c1a35ce-51b3-11ea-8d5a-eb9ca58fcae8
3bc4f8b6-51b3-11ea-8a02-1729c635080a,3c1a3fd8-51b3-11ea-b436-a3b414d80bda
3c049fac-51b3-11ea-a1b3-bf1f6ed8b8ea,3c1a58d8-51b3-11ea-a826-eb4ab6a884a1
3c1931d8-51b3-11ea-8631-437f1bd7118f,3c1abf8a-51b3-11ea-a92f-6f235fd62c62
3bf113e2-51b3-11ea-8bbf-b7c93fdba4cb,3c1acaf2-51b3-11ea-8aac-672c10fcbd80
3bdbed28-51b3-11ea-9b84-0381383e951d,3c1b26c8-51b3-11ea-b8a1-53cb7d81ff57
3be22076-51b3-11ea-b54c-2f6cc1629bbd,3c1b13a4-51b3-11ea-9fc2-17b0a4a22d2a
3c05320a-51b3-11ea-81cd-f74b54f4a5df,3c1b4608-51b3-11ea-85a1-9fd5b4b8572b
3b998f96-51b3-11ea-9071-13407d4a538c,3c1be220-51b3-11ea-a729-c3119615c1f3
3ba28a42-51b3-11ea-b7da-2be4375f53c5,3c1bedce-51b3-11ea-9cab-b3bba47c06c6
3bac8402-51b3-11ea-905b-0fcc2e14e9a5,3c1c2a00-51b3-11ea-bdad-a739c0644345
3bb5560e-51b3-11ea-8f18-cfc75fb19ebd,3c1c5426-51b3-11ea-a26e-f7ed32d9180e
3bd85a0a-51b3-11ea-9de2-fb7fa3c96f8c,3c1c6d12-51b3-11ea-a96e-57bdacc20118
3b9e1fde-51b3-11ea-ad18-9fe90ee32056,3c1c8bb2-51b3-11ea-8f7e-8bf8f0f61430
3ba54c32-51b3-11ea-b828-ff1979df717f,3c1d0f06-51b3-11ea-b119-930ac7eb186f
3c08b1f0-51b3-11ea-ba90-e326c2f43d8d,3c1d24aa-51b3-11ea-aec2-6b4402897d9b
3ba39248-51b3-11ea-84e1-67feb8d60988,3c1d3f08-51b3-11ea-8a1a-1768f7f41b14
3b9ef350-51b3-11ea-a4f8-53b04249e748,3c1d5b1e-51b3-11ea-a158-6b7daa3b2c66
3bdb79a6-51b3-11ea-9ffa-2fbf81ae9154,3c1deb60-51b3-11ea-90ac-9f86531099d6
3bc06490-51b3-11ea-b1f8-7ff662846bbb,3c1e0a46-51b3-11ea-ada5-cf8edd73c867
3bf962ea-51b3-11ea-b77d-839009ea78cb,3c1e23e6-51b3-11ea-8df8-576015bbee83
3bea7bd6-51b3-11ea-8303-df404e7b57d1,3c1e3782-51b3-11ea-b7b0-b79dbd9ab14d
3ba63c6e-51b3-11ea-b5a6-372f5d9ebf82,3c1ea76c-51b3-11ea-9acc-736cdbb7d1b6
3bc72488-51b3-11ea-9c9a-631169994d1c,3c1ec742-51b3-11ea-8ba5-3b165cc292a3
3bf858fa-51b3-11ea-8827-eb59b8434a8a,3c1ed2be-51b3-11ea-a007-2b1537b8d544
3bc557ca-51b3-11ea-bd52-3b0ab8ce97ca,3c1f1594-51b3-11ea-8963-c792303d45b7
3b9e1fde-51b3-11ea-ad18-9fe90ee32056,3c1f6148-51b3-11ea-8f93-dfcf73ae7ae0
3c186fa0-51b3-11ea-9055-cb1bcd48cbf4,3c1f6e5e-51b3-11ea-9cab-db40b48196dd
3bc07674-51b3-11ea-8040-cf2036fd0674,3c1f7890-51b3-11ea-a4e0-2f14a53959df
3bc70f34-51b3-11ea-8606-7f200363a03d,3c1f8e48-51b3-11ea-adb8-13765d16ad74
3be9a774-51b3-11ea-b473-83e8bb798e0e,3c1ffa2c-51b3-11ea-a3e8-23d1f1506737
3ba2241c-51b3-11ea-b326-1fe14ed634b8,3c2010de-51b3-11ea-bbb7-77dd0c62bc8e
3ba438ec-51b3-11ea-9b0e-cbbd07d92c15,3c202be6-51b3-11ea-b178-d3d4b00b3efc
3bb41816-51b3-11ea-a1eb-27a81f2cb46d,3c208aaa-51b3-11ea-9fe0-4bc585a96172
3be70424-51b3-11ea-8bb1-c75f11c84c67,3c209482-51b3-11ea-8be1-ebc20ddada27
3ba56e88-51b3-11ea-90c3-5307fbb5fb07,3c20d19a-51b3-11ea-9337-f3f6257f87d9
3bf7e46a-51b3-11ea-95cd-437ffa59933b,3c211f4c-51b3-11ea-ac3e-87dfff9eab0d
3bc49100-51b3-11ea-b1e2-4b4ac12ed3f3,3c212a00-51b3-11ea-983e-ef73017fa333
3bf12008-51b3-11ea-ba66-435598ccc488,3c217442-51b3-11ea-a6e7-5bc4c222df08
3bcea438-51b3-11ea-9e28-5bbfef6ad44a,3c217d2a-51b3-11ea-a777-97173999b7d4
3c0235b4-51b3-11ea-b3ac-cba442d9fceb,3c21e3fa-51b3-11ea-a445-93febeaf6139
3c0580ca-51b3-11ea-bd80-a32d5824bbd5,3c22178a-51b3-11ea-b464-8feae13fc4e8
3bf4fdea-51b3-11ea-a6b1-bfdca1fa4532,3c223ac6-51b3-11ea-9076-0b218b616155
3c1931d8-51b3-11ea-8631-437f1bd7118f,3c224afc-51b3-11ea-be7c-6fd47465f39f
3c002f6c-51b3-11ea-b119-7b914cfca5b3,3c22c086-51b3-11ea-b987-6b386605ef2b
3bcae0fa-51b3-11ea-bda5-2b0ed50a595e,3c22ca0e-51b3-11ea-9697-dbe003a8272f
3ba057d6-51b3-11ea-94df-b7f514067cdc,3c22d2c4-51b3-11ea-a9b7-2b53cc926d30
3c1abf8a-51b3-11ea-a92f-6f235fd62c62,3c22f0d8-51b3-11ea-85b9-778bbfdabeba
3c088554-51b3-11ea-b220-6f4cf9c28c99,3c235d7a-51b3-11ea-91b8-aff4cb9535ed
3bd825bc-51b3-11ea-beb2-af2de6b1ae90,3c2367a2-51b3-11ea-b6c7-1b88eaf9c6f7
3bd6d8e2-51b3-11ea-b683-0f1b7b551ec1,3c237530-51b3-11ea-ac2a-1747f484e907
3bc46202-51b3-11ea-98d2-2b25d5fab40e,3c23b9aa-51b3-11ea-8b34-5b52e1f6686f
3bf858fa-51b3-11ea-8827-eb59b8434a8a,3c23cc88-51b3-11ea-a711-771ba4f0ec08
3be4efae-51b3-11ea-9e5f-d721e72f1598,3c23f41a-51b3-11ea-b88c-2f0eb4de798d
3c071d40-51b3-11ea-9031-033f25588bcb,3c23ffaa-51b3-11ea-a078-0309a4246afc
3be29722-51b3-11ea-9e39-5f42e3179971,3c246256-51b3-11ea-8726-8f9d8754d691
3c02580a-51b3-11ea-a2ad-0735841ac0dd,3c246c56-51b3-11ea-927d-6f0d0510b9d9
3bb634a2-51b3-11ea-9af0-d7cae2e7bd21,3c247750-51b3-11ea-95d8-2fb90b2caaea
3bc9182e-51b3-11ea-a4b6-7bdcddc01d57,3c248a24-51b3-11ea-9318-272d407c4bfd
3bc87f72-51b3-11ea-8414-2f81e39e547d,3c24e97e-51b3-11ea-84f0-77d53bcabdc5
3b9cad98-51b3-11ea-846f-4b248f508b71,3c25062a-51b3-11ea-925d-574113efa0eb
3bac5ba8-51b3-11ea-8a04-4b6422665c78,3c2558e6-51b3-11ea-b9c9-5b9c7add1a70
3bc37798-51b3-11ea-b7ac-8bfc88c5178d,3c256a02-51b3-11ea-b768-4f78855eaaae
3baa7572-51b3-11ea-be97-f76649a6cd4b,3c25a8a0-51b3-11ea-ba00-7ff355dc2ce7
3bbc46ee-51b3-11ea-89a6-4f89122b0a5c,3c259a40-51b3-11ea-97e8-4f322d9d327e
3be38e34-51b3-11ea-b9fb-fb17db1f9410,3c25dd0c-51b3-11ea-a0a6-7be3c3fb0173
3bcef226-51b3-11ea-8a85-6757c78a31c5,3c260e3a-51b3-11ea-833d-c766a317ea12
3bd22f9a-51b3-11ea-8cbb-cfcf8ec10747,3c26514c-51b3-11ea-bfb6-e7e010d53c85
3bc867c6-51b3-11ea-9532-3bc2cdb6e1a0,3c268a2c-51b3-11ea-9f77-1f41b1316fce
3be6f132-51b3-11ea-8727-af483088f137,3c267e4c-51b3-11ea-8b4c-5bdefdf609f8
3be50570-51b3-11ea-91b0-2f2fdcbed8df,3c269986-51b3-11ea-9f87-fb857b226517
3c1570fc-51b3-11ea-9ee2-a37b6f2c2908,3c26e26a-51b3-11ea-9288-ffd1a8d995d1
3bca4cd0-51b3-11ea-ba36-bf005b99d567,3c27002e-51b3-11ea-9966-7b20cb7de496
3c1d24aa-51b3-11ea-aec2-6b4402897d9b,3c270a92-51b3-11ea-aa11-3bdf828d6017
3bfa41ec-51b3-11ea-9385-43a9b18143ac,3c277a90-51b3-11ea-b4ef-873b4a93be67
3c1b4608-51b3-11ea-85a1-9fd5b4b8572b,3c27822e-51b3-11ea-b3ca-7b8eed7fec40
3c05ea06-51b3-11ea-baef-bbebf5977328,3c279df4-51b3-11ea-b4cd-ef871e13351b
3c23b9aa-51b3-11ea-8b34-5b52e1f6686f,3c27b2f8-51b3-11ea-809c-7b9e4d40a19b
3bb5a6cc-51b3-11ea-a8c8-ab5adb53e6f4,3c281b26-51b3-11ea-a857-5b6cf146e1cb
3ba38c94-51b3-11ea-96b2-c37a5af2de62,3c282602-51b3-11ea-8b39-0317b59016bc
3c0a675c-51b3-11ea-875e-a7e39c0f6b9c,3c285f78-51b3-11ea-8886-b3f540a38f86
3bdbca6e-51b3-11ea-ba38-e3d3f55623c9,3c28a0be-51b3-11ea-8a05-3f572b690c37
3be914a8-51b3-11ea-b26c-034c083cc1a7,3c28c2a6-51b3-11ea-b4f3-b7aedaa032af
3c049fac-51b3-11ea-a1b3-bf1f6ed8b8ea,3c28d778-51b3-11ea-81cf-870ec5daca95
3bed98de-51b3-11ea-bed3-e7af6c13fe6e,3c29043c-51b3-11ea-80b2-5f897e6c0f13
3ba5b35c-51b3-11ea-92ec-3fbd56dffa37,3c294280-51b3-11ea-bc19-9f07f808ca95
3b9fbf06-51b3-11ea-bfb6-9bf62003ddbb,3c297566-51b3-11ea-9796-1f0c7e27929b
3baeb984-51b3-11ea-beba-5375381c1eeb,3c297e76-51b3-11ea-a56a-cfbdcef05a0e
3bd12294-51b3-11ea-8af4-67419aa03d41,3c29c688-51b3-11ea-a89e-2bc9cb1038a0
3c08f08e-51b3-11ea-84fa-67bd2fb43461,3c29da88-51b3-11ea-8789-af9f86013254
3be7f942-51b3-11ea-a6ba-4f5b1382d6c0,3c2a1228-51b3-11ea-b707-df1415a851af
3ba66ba8-51b3-11ea-bd89-c76d58297b45,3c2a3bae-51b3-11ea-82fa-dbd83d976e43
3baf6ed8-51b3-11ea-b496-af16cb9b9216,3c2a6868-51b3-11ea-b6eb-631b735aad56
3c28a0be-51b3-11ea-8a05-3f572b690c37,3c2a9f18-51b3-11ea-94ea-8f81fad62d0a
3bdba692-51b3-11ea-a03f-43dfadca0800,3c2ab71e-51b3-11ea-a78e-9712e457cfcd
3bc0d880-51b3-11ea-aa16-1b27b380e77f,3c2ac65a-51b3-11ea-b898-1f035f9b1c3e
3c1deb60-51b3-11ea-90ac-9f86531099d6,3c2b1a92-51b3-11ea-8852-d78582c4f071
3ba87240-51b3-11ea-b0d4-53c5bb13f69b,3c2b280c-51b3-11ea-9736-bb7c3f1caeea
3bf1de12-51b3-11ea-9bc9-334fef207252,3c2b4030-51b3-11ea-abb2-ab01fe0d07a9
3baeec92-51b3-11ea-b1bd-3bfc2d232289,3c2b50e8-51b3-11ea-a637-af538ce79b08
3bb41816-51b3-11ea-a1eb-27a81f2cb46d,3c2bae4e-51b3-11ea-bf00-77b0b15ef788
3c28d778-51b3-11ea-81cf-870ec5daca95,3c2bb880-51b3-11ea-990d-cb704a7ff734
3bf1de12-51b3-11ea-9bc9-334fef207252,3c2c3918-51b3-11ea-8d78-1f53bece8040
3bd2cba8-51b3-11ea-b739-bb43461e4bab,3c2c1ff0-51b3-11ea-aa3c-232d89dd6641
3bc7532c-51b3-11ea-b6e3-c3f80455de0f,3c2c705e-51b3-11ea-8614-03aa1ad928b4
3bb72ae2-51b3-11ea-9674-13bc5e885c8c,3c2c8db4-51b3-11ea-b42a-ef7a51721fd1
3bfc6148-51b3-11ea-9c3d-27825e75683c,3c2cf1fa-51b3-11ea-9a9e-3bac88d6ab2f
3bd92caa-51b3-11ea-8d9f-530d1c8dccf4,3c2cfdd0-51b3-11ea-9291-bb268072e6d2
3be8d1f0-51b3-11ea-9b07-6f6270679345,3c2d7684-51b3-11ea-a772-9bd1cd28bdab
3c18601e-51b3-11ea-ae0b-3b6a11fb3d5a,3c2d84e4-51b3-11ea-9f16-878305b5f4c9
3c001a2c-51b3-11ea-896b-7bd297f3de2c,3c2d99de-51b3-11ea-953e-d346e2da69d5
3c162466-51b3-11ea-9105-779c26fb398e,3c2dd214-51b3-11ea-9399-47f26d94ec46
3bbeeb60-51b3-11ea-a394-2fc90c5caa77,3c2e3a1a-51b3-11ea-8150-3f6f88d99c8d
3bae48f0-51b3-11ea-a91f-bbf2330e6bbe,3c2e6be8-51b3-11ea-86a9-47073abe5ea5
3bba05dc-51b3-11ea-bd3d-031d384e0da3,3c2e81b4-51b3-11ea-96bb-b767f6f11cc4
3bd572ae-51b3-11ea-8b9a-bf616f531fda,3c2ec070-51b3-11ea-a188-970c7816f243
3bf8e360-51b3-11ea-aeab-73dc31b36063,3c2f0a8a-51b3-11ea-9148-4b950496d121
3bccde00-51b3-11ea-a811-3fac2f798c8a,3c2f14e4-51b3-11ea-b014-e707d200e162
3c0ba0ea-51b3-11ea-a182-c324c46280bb,3c2f2024-51b3-11ea-9b31-1f991db7e27a
3bbffda2-51b3-11ea-b12c-ab9602300b78,3c2f312c-51b3-11ea-a704-7bbc1245f11f
3be75faa-51b3-11ea-a51b-33a710cfc0b3,3c2f8172-51b3-11ea-a09e-cf69543970db
3b9b6b90-51b3-11ea-a002-6751626375ed,3c2f8bea-51b3-11ea-b867-5b71a0989775
3bab20e4-51b3-11ea-9716-2322b1ef3e24,3c2fbdf4-51b3-11ea-b455-73c2a910ad1c
3c1f7890-51b3-11ea-a4e0-2f14a53959df,3c2ff5a8-51b3-11ea-a361-4f9b4919d51d
3bbd0354-51b3-11ea-831a-dfb1063484e5,3c3004b2-51b3-11ea-a3b5-279b2533c426
3bb36150-51b3-11ea-bc82-8fdeeb2cfb1e,3c303cc0-51b3-11ea-9509-c309ef5de739
3ba3148a-51b3-11ea-a46e-cf116f88ca97,3c308a40-51b3-11ea-a470-5fa53089ef2f
3bf4b31c-51b3-11ea-896d-53dc7d38062e,3c309346-51b3-11ea-ac22-ab10dee1be03
3ba2b800-51b3-11ea-9791-cf048b633a36,3c309db4-51b3-11ea-8b64-e31253a740f5
3bc07674-51b3-11ea-8040-cf2036fd0674,3c30c726-51b3-11ea-aa71-5bfe9f51bd12
3b9dd380-51b3-11ea-8506-9f463ffda0e7,3c312d56-51b3-11ea-a9a9-538c1b105fbb
3beb2a86-51b3-11ea-a778-b3c8d3034084,3c31379c-51b3-11ea-8cbf-b3953fbec259
3c246256-51b3-11ea-8726-8f9d8754d691,3c31498a-51b3-11ea-9523-579957c7ddc4
3bd572ae-51b3-11ea-8b9a-bf616f531fda,3c316546-51b3-11ea-ab57-b71804ea352d
3bad5d32-51b3-11ea-8314-4326e5accfe1,3c31cdec-51b3-11ea-b0f0-f38f55583a73
3c0580ca-51b3-11ea-bd80-a32d5824bbd5,3c31d990-51b3-11ea-b598-e7507caa60c7
3c057710-51b3-11ea-9532-0b4ba21e44b6,3c31e732-51b3-11ea-8aba-532244a1889c
3bc25fc0-51b3-11ea-991c-0bc63f1d7f4f,3c323322-51b3-11ea-9d9c-8bd71fa240ec
3bd8ecb8-51b3-11ea-accc-e750e27531e9,3c3277f6-51b3-11ea-9217-9b9bf2664659
3ba80742-51b3-11ea-9a0c-b310f5a0ee96,3c3280ca-51b3-11ea-b9b8-8fcc090c7b74
3bc2e954-51b3-11ea-86d0-9f006a13ad90,3c328d9a-51b3-11ea-8596-270812baedb7
3ba73dd0-51b3-11ea-b441-131b5b340f6d,3c330c20-51b3-11ea-bfe0-c3d38db20661
3bd1f444-51b3-11ea-8fa7-87f59751d7b4,3c3318a0-51b3-11ea-b398-4f667a875528
3bf962ea-51b3-11ea-b77d-839009ea78cb,3c33253e-51b3-11ea-b00e-f7ad8048d938
3c155824-51b3-11ea-bf47-f7d6e973ac34,3c3356e4-51b3-11ea-89f4-b71bc66c3a5f
3bb900a6-51b3-11ea-b142-730258fbe5f1,3c33ab08-51b3-11ea-a751-efc5071d5c64
3bb138d0-51b3-11ea-8a9e-2b747b6f54b6,3c33c73c-51b3-11ea-bb89-c3aa762eacb1
3bcd80da-51b3-11ea-9292-1b8d91cb18e5,3c340fe4-51b3-11ea-8f68-83cc6e2800f4
3bf12008-51b3-11ea-ba66-435598ccc488,3c343bcc-51b3-11ea-a248-4f7f9d252852
3bbe5b6e-51b3-11ea-9171-c39e459f9961,3c3462c8-51b3-11ea-bc97-3f1d4328722a
3c040bb4-51b3-11ea-9f85-437b745a677a,3c347038-51b3-11ea-b5fd-e3ac85d6355d
3c012bb0-51b3-11ea-b057-2f1c520c2159,3c34afb2-51b3-11ea-a088-47a1bd44f25b
3bbeae48-51b3-11ea-98ac-438418e0a832,3c35122c-51b3-11ea-b090-db348b964aa2
3bbf9038-51b3-11ea-9a8c-9311b4b13b27,3c351e02-51b3-11ea-b6ff-b77d2feb51ae
3b9bd404-51b3-11ea-88c3-9b3d7d54016b,3c3536a8-51b3-11ea-b57e-33a2607af7bf
3bc9dbf6-51b3-11ea-b906-4be2c40841c1,3c35406c-51b3-11ea-8a77-afbfb3d6f352
3bd611dc-51b3-11ea-bcdc-e34090f61a03,3c35a82c-51b3-11ea-a9e6-279a0e429ab9
3bf58f44-51b3-11ea-acc3-bfa1bf9f0e3d,3c35e238-51b3-11ea-b5f3-cfdfba0752ec
3c1d0f06-51b3-11ea-b119-930ac7eb186f,3c35ecec-51b3-11ea-879e-675ce340c7e0
3bb3ef30-51b3-11ea-a4a3-473c739e4f14,3c35fd5e-51b3-11ea-9656-07da16bcfe4b
3bc06490-51b3-11ea-b1f8-7ff662846bbb,3c36790a-51b3-11ea-b21b-f34cdaa149c8
3be4e310-51b3-11ea-97af-0b7f4fad5e76,3c368d8c-51b3-11ea-810a-1bd4168b1196
3be398fc-51b3-11ea-852c-cb07889a0554,3c36993a-51b3-11ea-b430-7f71cf6499f6
3bb3a980-51b3-11ea-9d83-bb61ffcb2d4c,3c36a740-51b3-11ea-9f34-33ec270d413e
3bed98de-51b3-11ea-bed3-e7af6c13fe6e,3c36fbfa-51b3-11ea-8c11-0f70e93ef749
3baa7db0-51b3-11ea-aca7-f3be01642a39,3c372864-51b3-11ea-88b8-5f5056884f8a
3bcf1b66-51b3-11ea-bc2a-27956ee25bb0,3c373b1a-51b3-11ea-8c3c-2f92affd9926
3bfe3194-51b3-11ea-bcef-eb695f79c314,3c378688-51b3-11ea-a309-27b4e7e51533
3bdfb37c-51b3-11ea-99a5-e39d79f05130,3c37a0fa-51b3-11ea-b242-9fb11741a89a
3c209482-51b3-11ea-8be1-ebc20ddada27,3c37d85e-51b3-11ea-84cf-134ca7fa0152
3c2010de-51b3-11ea-bbb7-77dd0c62bc8e,3c3808ce-51b3-11ea-a21d-c7423dc214b5
3bbb671a-51b3-11ea-a6ce-c3c447056cd7,3c381698-51b3-11ea-87a2-67bc69a5b617
3becddc2-51b3-11ea-962c-83f5e94b9f69,3c38c3d6-51b3-11ea-959f-d3861ea6de02
3bc4150e-51b3-11ea-a1d9-5fc84e81c60d,3c38d2f4-51b3-11ea-a9c1-e7047eb4a42f
3c297e76-51b3-11ea-a56a-cfbdcef05a0e,3c38defc-51b3-11ea-bae1-cfd2bba7d997
3bc9182e-51b3-11ea-a4b6-7bdcddc01d57,3c38fa40-51b3-11ea-9919-5b8ab61623f9
3bac5ba8-51b3-11ea-8a04-4b6422665c78,3c399a40-51b3-11ea-bd4a-831c18c16621
3bf21346-51b3-11ea-8ab3-33bdd7519339,3c39a8aa-51b3-11ea-88c6-ab3d8e4d2246
3ba66ba8-51b3-11ea-bd89-c76d58297b45,3c39b46c-51b3-11ea-8edc-5b2af57d4098
3be38e34-51b3-11ea-b9fb-fb17db1f9410,3c39d2bc-51b3-11ea-9117-23ef8d18a5ef
3c20d19a-51b3-11ea-9337-f3f6257f87d9,3c3a7604-51b3-11ea-b158-67953bacee92
3be17d6a-51b3-11ea-99c6-239778b2ca19,3c3a980a-51b3-11ea-a7f5-9f5f72b7256d
3bf94c60-51b3-11ea-ba4a-1bde1ff8b2e4,3c3a8ac2-51b3-11ea-90c3-6f22c4ae9c82
3c196338-51b3-11ea-88d4-f76f768821b8,3c3abdda-51b3-11ea-bb2c-93852b5f2ffd
3bb048e4-51b3-11ea-9f9b-1394c304bc14,3c3b52b8-51b3-11ea-9508-d79da656429e
3c270a92-51b3-11ea-aa11-3bdf828d6017,3c3b699c-51b3-11ea-8025-bb2e741c13af
3bb8d9c8-51b3-11ea-8eb2-6b1da9d2e3db,3c3b5d94-51b3-11ea-b1ee-4b63eeb91df0
3c0f6ed2-51b3-11ea-828b-ffe13f3eeadd,3c3b7cc0-51b3-11ea-abf6-0fd2a967f182
3bbf0604-51b3-11ea-b1a9-1b494e6741c0,3c3bf45c-51b3-11ea-8fb8-6338456ea82d
3c095876-51b3-11ea-9d5e-5faf8c5d46de,3c3c286e-51b3-11ea-a599-0b3be45ac792
3bcad696-51b3-11ea-9bd0-138e7fa85dcf,3c3c6cc0-51b3-11ea-883b-bb6129193cf9
3b9bc874-51b3-11ea-a86f-7fa63511cc06,3c3c8250-51b3-11ea-9838-238b7829f9c0
3c316546-51b3-11ea-ab57-b71804ea352d,3c3ca6cc-51b3-11ea-bdfd-a37a41d26852
3c0d50ac-51b3-11ea-9f8f-f7b4b1470c50,3c3ceea2-51b3-11ea-aab8-eb8326072402
3bb78de8-51b3-11ea-a569-0b4c0e241d9c,3c3d4a0a-51b3-11ea-b37b-238196832d2e
3bc1413a-51b3-11ea-8ac7-db81db247212,3c3d563a-51b3-11ea-9964-e350c2424c70
3ba4ac8c-51b3-11ea-bb7d-87042a916bfd,3c3d8cea-51b3-11ea-8c27-f78ef57db43b
3bb20c2e-51b3-11ea-82e5-93fb2cb00c5e,3c3da00e-51b3-11ea-a041-a7299b39af12
3c0916ae-51b3-11ea-be9e-a3b97da3e06d,3c3dc890-51b3-11ea-8ae9-c71faf10ea87
