RunID,Tick,ActiveAgentsPerTick
run-2020-2-28-10-5-47.207947969,0,18
run-2020-2-28-10-5-47.207947969,1,18
run-2020-2-28-10-5-47.207947969,2,18
run-2020-2-28-10-5-47.207947969,3,18
run-2020-2-28-10-5-47.207947969,4,18
run-2020-2-28-10-5-47.207947969,5,16
run-2020-2-28-10-5-47.207947969,6,19
run-2020-2-28-10-5-47.207947969,7,18
run-2020-2-28-10-5-47.207947969,8,21
run-2020-2-28-10-5-47.207947969,9,23
run-2020-2-28-10-5-47.207947969,10,27
run-2020-2-28-10-5-47.207947969,11,32
run-2020-2-28-10-5-47.207947969,12,33
run-2020-2-28-10-5-47.207947969,13,28
run-2020-2-28-10-5-47.207947969,14,33
run-2020-2-28-10-5-47.207947969,15,31
run-2020-2-28-10-5-47.207947969,16,30
run-2020-2-28-10-5-47.207947969,17,32
run-2020-2-28-10-5-47.207947969,18,32
run-2020-2-28-10-5-47.207947969,19,36
run-2020-2-28-10-5-47.207947969,20,38
run-2020-2-28-10-5-47.207947969,21,39
run-2020-2-28-10-5-47.207947969,22,38
run-2020-2-28-10-5-47.207947969,23,44
run-2020-2-28-10-5-47.207947969,24,46
run-2020-2-28-10-5-47.207947969,25,50
run-2020-2-28-10-5-47.207947969,26,51
run-2020-2-28-10-5-47.207947969,27,50
run-2020-2-28-10-5-47.207947969,28,51
run-2020-2-28-10-5-47.207947969,29,53
run-2020-2-28-10-5-47.207947969,30,57
run-2020-2-28-10-5-47.207947969,31,56
run-2020-2-28-10-5-47.207947969,32,56
run-2020-2-28-10-5-47.207947969,33,61
run-2020-2-28-10-5-47.207947969,34,60
run-2020-2-28-10-5-47.207947969,35,58
run-2020-2-28-10-5-47.207947969,36,61
run-2020-2-28-10-5-47.207947969,37,65
run-2020-2-28-10-5-47.207947969,38,60
run-2020-2-28-10-5-47.207947969,39,59
run-2020-2-28-10-5-47.207947969,40,61
run-2020-2-28-10-5-47.207947969,41,65
run-2020-2-28-10-5-47.207947969,42,68
run-2020-2-28-10-5-47.207947969,43,64
run-2020-2-28-10-5-47.207947969,44,64
run-2020-2-28-10-5-47.207947969,45,64
run-2020-2-28-10-5-47.207947969,46,67
run-2020-2-28-10-5-47.207947969,47,64
run-2020-2-28-10-5-47.207947969,48,64
run-2020-2-28-10-5-47.207947969,49,64
run-2020-2-28-10-5-47.207947969,50,64
run-2020-2-28-10-5-47.207947969,51,62
run-2020-2-28-10-5-47.207947969,52,59
run-2020-2-28-10-5-47.207947969,53,60
run-2020-2-28-10-5-47.207947969,54,62
run-2020-2-28-10-5-47.207947969,55,63
run-2020-2-28-10-5-47.207947969,56,65
run-2020-2-28-10-5-47.207947969,57,63
run-2020-2-28-10-5-47.207947969,58,65
run-2020-2-28-10-5-47.207947969,59,63
run-2020-2-28-10-5-47.207947969,60,70
run-2020-2-28-10-5-47.207947969,61,71
run-2020-2-28-10-5-47.207947969,62,71
run-2020-2-28-10-5-47.207947969,63,72
run-2020-2-28-10-5-47.207947969,64,66
run-2020-2-28-10-5-47.207947969,65,69
run-2020-2-28-10-5-47.207947969,66,64
run-2020-2-28-10-5-47.207947969,67,65
run-2020-2-28-10-5-47.207947969,68,66
run-2020-2-28-10-5-47.207947969,69,65
run-2020-2-28-10-5-47.207947969,70,63
run-2020-2-28-10-5-47.207947969,71,63
run-2020-2-28-10-5-47.207947969,72,57
run-2020-2-28-10-5-47.207947969,73,60
run-2020-2-28-10-5-47.207947969,74,57
run-2020-2-28-10-5-47.207947969,75,56
run-2020-2-28-10-5-47.207947969,76,54
run-2020-2-28-10-5-47.207947969,77,59
run-2020-2-28-10-5-47.207947969,78,62
run-2020-2-28-10-5-47.207947969,79,63
run-2020-2-28-10-5-47.207947969,80,62
run-2020-2-28-10-5-47.207947969,81,65
run-2020-2-28-10-5-47.207947969,82,67
run-2020-2-28-10-5-47.207947969,83,66
run-2020-2-28-10-5-47.207947969,84,68
run-2020-2-28-10-5-47.207947969,85,67
run-2020-2-28-10-5-47.207947969,86,64
run-2020-2-28-10-5-47.207947969,87,61
run-2020-2-28-10-5-47.207947969,88,64
run-2020-2-28-10-5-47.207947969,89,63
run-2020-2-28-10-5-47.207947969,90,68
run-2020-2-28-10-5-47.207947969,91,66
run-2020-2-28-10-5-47.207947969,92,65
run-2020-2-28-10-5-47.207947969,93,63
run-2020-2-28-10-5-47.207947969,94,59
run-2020-2-28-10-5-47.207947969,95,61
run-2020-2-28-10-5-47.207947969,96,66
run-2020-2-28-10-5-47.207947969,97,63
run-2020-2-28-10-5-47.207947969,98,61
run-2020-2-28-10-5-47.207947969,99,61
run-2020-2-28-10-5-47.207947969,100,56
