Source,Target
562bd06a-5255-11ea-a0ed-c395b8227670,562c10a2-5255-11ea-a8d8-43ceed4906db
562b50fe-5255-11ea-8d35-5b8d95aeb7bb,562c261e-5255-11ea-89c8-c77a41c7f7d8
562a547e-5255-11ea-9034-13f0343c2344,562c1f66-5255-11ea-a996-53ad0955ceb1
562a2468-5255-11ea-84b1-e39c6519c7d5,562c2c36-5255-11ea-b6d0-13a2068dee15
5629ccc0-5255-11ea-ae42-f34e5cf2a7df,562c3122-5255-11ea-8373-df1457abb5f6
562a2468-5255-11ea-84b1-e39c6519c7d5,562c35a0-5255-11ea-a69c-ebdc6de0e2fd
562ba3ce-5255-11ea-bd56-2731c034901c,562c3ab4-5255-11ea-af36-37aebcc3768a
562ba95a-5255-11ea-8429-9359ae3659c8,562c48ec-5255-11ea-8f25-971e3faa3b06
562a0e24-5255-11ea-b5d8-23424c9c9a87,562c5e4a-5255-11ea-8c84-c753b8d59cdb
562c3122-5255-11ea-8373-df1457abb5f6,562c6e76-5255-11ea-8344-f7fd91849994
562c2c36-5255-11ea-b6d0-13a2068dee15,562c792a-5255-11ea-8bbb-830b1a6c0540
562b11ca-5255-11ea-911c-cf478219cc11,562c7f56-5255-11ea-af84-2f8a1ca4dfba
562b05cc-5255-11ea-b507-235390744be3,562c8726-5255-11ea-b368-1b35ebc5680c
562a7c7e-5255-11ea-a0b8-3b4b8cffdcb1,562c8e1a-5255-11ea-9e8f-eb3d80c86998
562c10a2-5255-11ea-a8d8-43ceed4906db,562c954a-5255-11ea-910c-07a3796c200a
562bb364-5255-11ea-8ecd-efc0df7a32bc,562c9a5e-5255-11ea-b86b-87294bcfdc01
562b0086-5255-11ea-81bb-efa39a7457d0,562cafbc-5255-11ea-98e7-8facbda89603
562bfacc-5255-11ea-bfce-6f5a79729fa9,562cc86c-5255-11ea-bb4a-434c94c41470
562a12c0-5255-11ea-938e-83b25d2a0728,562cd0aa-5255-11ea-a81b-7bfbee9dd78d
562c3ab4-5255-11ea-af36-37aebcc3768a,562cd5dc-5255-11ea-b76a-df163fbb8138
562a2468-5255-11ea-84b1-e39c6519c7d5,562cde9c-5255-11ea-bd60-7b400e1eef04
562c792a-5255-11ea-8bbb-830b1a6c0540,562ce392-5255-11ea-a770-57aad6fb31f2
5629b4e2-5255-11ea-b58b-d7150f5aaa07,562cea2c-5255-11ea-b624-9f3471d71672
562ba3ce-5255-11ea-bd56-2731c034901c,562ceec8-5255-11ea-8d0d-7be242be822f
562b11ca-5255-11ea-911c-cf478219cc11,562cfe72-5255-11ea-9637-5bcbb5a96516
562b4ab4-5255-11ea-af5a-e3383d10d810,562d1204-5255-11ea-8ebc-774d35eba096
562aadac-5255-11ea-b152-7b2981c1ec2b,562d1dd0-5255-11ea-adfe-a7dbc11b3713
562a12c0-5255-11ea-938e-83b25d2a0728,562d2a32-5255-11ea-bb33-5bf7c60a5ec7
562bc5e8-5255-11ea-ac58-cfad9a2eb228,562d302c-5255-11ea-9b0e-d3592a4bc83a
562b4ab4-5255-11ea-af5a-e3383d10d810,562d3540-5255-11ea-8e48-b375d7e9df44
562cafbc-5255-11ea-98e7-8facbda89603,562d3f2c-5255-11ea-9f7c-1bb63ce7c370
562c3122-5255-11ea-8373-df1457abb5f6,562d4526-5255-11ea-88cd-83b71a6429f9
562cc86c-5255-11ea-bb4a-434c94c41470,562d4b48-5255-11ea-89ee-f7a039d1bc4c
562d2a32-5255-11ea-bb33-5bf7c60a5ec7,562d5e62-5255-11ea-b857-373075c76b3a
562a4da8-5255-11ea-8668-5359cbc49e96,562d7334-5255-11ea-aa8a-2b5254e9b69e
562c8e1a-5255-11ea-9e8f-eb3d80c86998,562d7ab4-5255-11ea-8568-9fde6e91197f
562d1204-5255-11ea-8ebc-774d35eba096,562d86b2-5255-11ea-8589-aba43752e161
562bbfb2-5255-11ea-87a1-1f9b9ff60532,562d8108-5255-11ea-8b91-3b2a9ef5a074
5629edcc-5255-11ea-b375-f3461f163a99,562d9332-5255-11ea-ba38-7b7c6c5731c3
562ce392-5255-11ea-a770-57aad6fb31f2,562d9fd0-5255-11ea-b0c9-371371aec539
562c7f56-5255-11ea-af84-2f8a1ca4dfba,562d98fa-5255-11ea-93e0-1b21324770a9
5629d4d6-5255-11ea-a795-8718b9faf595,562dacc8-5255-11ea-b99d-b719c001d741
562d8108-5255-11ea-8b91-3b2a9ef5a074,562dd46e-5255-11ea-83b4-d742bfd2d75d
562ba95a-5255-11ea-8429-9359ae3659c8,562dda04-5255-11ea-b6fb-57c19ce8bb76
562c48ec-5255-11ea-8f25-971e3faa3b06,562ddf4a-5255-11ea-855b-0f7adb8dfd02
562b05cc-5255-11ea-b507-235390744be3,562de8aa-5255-11ea-acaf-efbf74145160
562cd0aa-5255-11ea-a81b-7bfbee9dd78d,562ded5a-5255-11ea-8cac-3b8c3e111548
562b7714-5255-11ea-bc88-0758639663b7,562df282-5255-11ea-bbd5-0703317f4149
562ab7ca-5255-11ea-85c4-13f93bce153d,562dfc00-5255-11ea-928e-1750e23a80e2
562dacc8-5255-11ea-b99d-b719c001d741,562e01b4-5255-11ea-951b-2bb12dcc5247
562a2ec2-5255-11ea-be5c-4fa508495385,562e23e2-5255-11ea-b44b-c3404ec87232
562d2a32-5255-11ea-bb33-5bf7c60a5ec7,562e2aae-5255-11ea-b389-d7a87d9c4bc1
562b172e-5255-11ea-accf-c39c34ecfd6d,562e4066-5255-11ea-8dea-2fddff634f51
562d3540-5255-11ea-8e48-b375d7e9df44,562e36a2-5255-11ea-9924-c7508982909b
562aa7e4-5255-11ea-a912-8f53ba3d5293,562e46b0-5255-11ea-b0d1-f766dbd686f9
562dda04-5255-11ea-b6fb-57c19ce8bb76,562e50e2-5255-11ea-8441-c3b3bc1568ab
562d86b2-5255-11ea-8589-aba43752e161,562e4b56-5255-11ea-a80c-8fcf37d772c5
562bcba6-5255-11ea-b259-83c726178a70,562e5632-5255-11ea-b8fc-8b88bf4e75a6
562df282-5255-11ea-bbd5-0703317f4149,562e727a-5255-11ea-be06-7b19ac5a87f4
562b6008-5255-11ea-875e-cb940bb3373e,562e9520-5255-11ea-8c1a-03615cebc4f0
562a2ec2-5255-11ea-be5c-4fa508495385,562e9b7e-5255-11ea-b214-53ba8b32f49b
562cfe72-5255-11ea-9637-5bcbb5a96516,562ea218-5255-11ea-a147-03c6c0dffe77
562ded5a-5255-11ea-8cac-3b8c3e111548,562ea72c-5255-11ea-8837-cb0e30bc619a
562e4b56-5255-11ea-a80c-8fcf37d772c5,562eac54-5255-11ea-8ccd-27114b1421d8
5629ccc0-5255-11ea-ae42-f34e5cf2a7df,562eb186-5255-11ea-9955-abc9c7d01a32
562b172e-5255-11ea-accf-c39c34ecfd6d,562ec37e-5255-11ea-bf6d-6341966503dc
562d2a32-5255-11ea-bb33-5bf7c60a5ec7,562ee55c-5255-11ea-bca6-b359ae4b0086
562cd0aa-5255-11ea-a81b-7bfbee9dd78d,562eee62-5255-11ea-bc48-d77838aa21f0
562ea72c-5255-11ea-8837-cb0e30bc619a,562ef75e-5255-11ea-935b-d37777319b76
562eb186-5255-11ea-9955-abc9c7d01a32,562efdbc-5255-11ea-b7da-878ccf7858e9
562e4066-5255-11ea-8dea-2fddff634f51,562f0302-5255-11ea-897a-d33c9e3265aa
562bbfb2-5255-11ea-87a1-1f9b9ff60532,562f07e4-5255-11ea-9565-434100c91ede
562ee55c-5255-11ea-bca6-b359ae4b0086,562f1658-5255-11ea-9ce7-db7c2dbd2ea3
562aa7e4-5255-11ea-a912-8f53ba3d5293,562f45ec-5255-11ea-8e36-9794721e8942
562dfc00-5255-11ea-928e-1750e23a80e2,562f4a2e-5255-11ea-a2c6-23c7979cd102
562c6e76-5255-11ea-8344-f7fd91849994,562f5000-5255-11ea-9dab-9fbc485ee1f5
562b71ce-5255-11ea-865d-536750c7c670,562f5816-5255-11ea-889e-8bae184d477a
562cc86c-5255-11ea-bb4a-434c94c41470,562f5ce4-5255-11ea-ac0c-cba104a864d7
562b172e-5255-11ea-accf-c39c34ecfd6d,562f6374-5255-11ea-bdfc-9356f72449c8
562a547e-5255-11ea-9034-13f0343c2344,562f6996-5255-11ea-a40c-5b4ca3acb6d3
562aef88-5255-11ea-8830-f7e245ceac6e,562f96d2-5255-11ea-80e3-e72fee3ee9f0
562d302c-5255-11ea-9b0e-d3592a4bc83a,562fa0d2-5255-11ea-8ab3-6f0534626ce4
562d1204-5255-11ea-8ebc-774d35eba096,562faad2-5255-11ea-bc25-732e07fd5673
562e50e2-5255-11ea-8441-c3b3bc1568ab,562fb14e-5255-11ea-a25f-37993fcbd5d8
562b172e-5255-11ea-accf-c39c34ecfd6d,562fb798-5255-11ea-bbf6-cb86c2d03a00
562c3ab4-5255-11ea-af36-37aebcc3768a,562fbd10-5255-11ea-b258-937bebe83a7e
562cc86c-5255-11ea-bb4a-434c94c41470,562fc1d4-5255-11ea-9288-afd34ba9b718
562c5e4a-5255-11ea-8c84-c753b8d59cdb,562fe97a-5255-11ea-9ada-871e8094bee1
562cd5dc-5255-11ea-b76a-df163fbb8138,562ff122-5255-11ea-925b-17ccb9aa369b
562ef75e-5255-11ea-935b-d37777319b76,5630020c-5255-11ea-a663-c3cce9a1e214
562b7714-5255-11ea-bc88-0758639663b7,56300be4-5255-11ea-a4e1-e76123862a3c
562d8108-5255-11ea-8b91-3b2a9ef5a074,56300ffe-5255-11ea-ade5-b32ee5cc1a39
562bbfb2-5255-11ea-87a1-1f9b9ff60532,56301558-5255-11ea-82a3-aff5fc8f5deb
5629afb0-5255-11ea-b79b-8b517005d7ec,563019ea-5255-11ea-ac6d-f31dcfddb6ff
