RunID,Tick,AllAgents,Active,Inactive
run-2020-2-18-13-54-42.919497013,0,17,15,2
run-2020-2-18-13-54-42.919497013,1,18,14,4
run-2020-2-18-13-54-42.919497013,2,20,14,6
run-2020-2-18-13-54-42.919497013,3,25,15,10
run-2020-2-18-13-54-42.919497013,4,31,14,17
run-2020-2-18-13-54-42.919497013,5,36,14,22
run-2020-2-18-13-54-42.919497013,6,41,15,26
run-2020-2-18-13-54-42.919497013,7,47,18,29
run-2020-2-18-13-54-42.919497013,8,48,17,31
run-2020-2-18-13-54-42.919497013,9,54,22,32
run-2020-2-18-13-54-42.919497013,10,59,24,35
run-2020-2-18-13-54-42.919497013,11,62,25,37
run-2020-2-18-13-54-42.919497013,12,64,25,39
run-2020-2-18-13-54-42.919497013,13,67,24,43
run-2020-2-18-13-54-42.919497013,14,69,23,46
run-2020-2-18-13-54-42.919497013,15,73,24,49
run-2020-2-18-13-54-42.919497013,16,76,23,53
run-2020-2-18-13-54-42.919497013,17,77,23,54
run-2020-2-18-13-54-42.919497013,18,82,26,56
run-2020-2-18-13-54-42.919497013,19,85,29,56
run-2020-2-18-13-54-42.919497013,20,88,28,60
run-2020-2-18-13-54-42.919497013,21,94,33,61
run-2020-2-18-13-54-42.919497013,22,96,31,65
run-2020-2-18-13-54-42.919497013,23,102,33,69
run-2020-2-18-13-54-42.919497013,24,105,30,75
run-2020-2-18-13-54-42.919497013,25,109,33,76
run-2020-2-18-13-54-42.919497013,26,114,34,80
run-2020-2-18-13-54-42.919497013,27,120,37,83
run-2020-2-18-13-54-42.919497013,28,121,36,85
run-2020-2-18-13-54-42.919497013,29,124,36,88
run-2020-2-18-13-54-42.919497013,30,126,34,92
run-2020-2-18-13-54-42.919497013,31,129,33,96
run-2020-2-18-13-54-42.919497013,32,133,36,97
run-2020-2-18-13-54-42.919497013,33,139,41,98
run-2020-2-18-13-54-42.919497013,34,145,46,99
run-2020-2-18-13-54-42.919497013,35,149,45,104
run-2020-2-18-13-54-42.919497013,36,154,44,110
run-2020-2-18-13-54-42.919497013,37,159,45,114
run-2020-2-18-13-54-42.919497013,38,161,44,117
run-2020-2-18-13-54-42.919497013,39,168,51,117
run-2020-2-18-13-54-42.919497013,40,172,49,123
run-2020-2-18-13-54-42.919497013,41,176,51,125
run-2020-2-18-13-54-42.919497013,42,177,48,129
run-2020-2-18-13-54-42.919497013,43,184,53,131
run-2020-2-18-13-54-42.919497013,44,190,56,134
run-2020-2-18-13-54-42.919497013,45,192,54,138
run-2020-2-18-13-54-42.919497013,46,198,59,139
run-2020-2-18-13-54-42.919497013,47,202,58,144
run-2020-2-18-13-54-42.919497013,48,208,61,147
run-2020-2-18-13-54-42.919497013,49,208,56,152
run-2020-2-18-13-54-42.919497013,50,213,58,155
run-2020-2-18-13-54-42.919497013,51,216,56,160
run-2020-2-18-13-54-42.919497013,52,220,56,164
run-2020-2-18-13-54-42.919497013,53,223,56,167
run-2020-2-18-13-54-42.919497013,54,224,54,170
run-2020-2-18-13-54-42.919497013,55,226,55,171
run-2020-2-18-13-54-42.919497013,56,227,54,173
run-2020-2-18-13-54-42.919497013,57,230,53,177
run-2020-2-18-13-54-42.919497013,58,233,55,178
run-2020-2-18-13-54-42.919497013,59,239,59,180
run-2020-2-18-13-54-42.919497013,60,246,63,183
run-2020-2-18-13-54-42.919497013,61,249,61,188
run-2020-2-18-13-54-42.919497013,62,252,62,190
run-2020-2-18-13-54-42.919497013,63,258,65,193
run-2020-2-18-13-54-42.919497013,64,263,65,198
run-2020-2-18-13-54-42.919497013,65,272,68,204
run-2020-2-18-13-54-42.919497013,66,275,68,207
run-2020-2-18-13-54-42.919497013,67,279,67,212
run-2020-2-18-13-54-42.919497013,68,281,67,214
run-2020-2-18-13-54-42.919497013,69,282,66,216
run-2020-2-18-13-54-42.919497013,70,288,68,220
run-2020-2-18-13-54-42.919497013,71,289,65,224
run-2020-2-18-13-54-42.919497013,72,296,68,228
run-2020-2-18-13-54-42.919497013,73,298,68,230
run-2020-2-18-13-54-42.919497013,74,304,69,235
run-2020-2-18-13-54-42.919497013,75,312,72,240
run-2020-2-18-13-54-42.919497013,76,316,73,243
run-2020-2-18-13-54-42.919497013,77,318,70,248
run-2020-2-18-13-54-42.919497013,78,320,65,255
run-2020-2-18-13-54-42.919497013,79,325,65,260
run-2020-2-18-13-54-42.919497013,80,329,64,265
run-2020-2-18-13-54-42.919497013,81,331,63,268
run-2020-2-18-13-54-42.919497013,82,335,63,272
run-2020-2-18-13-54-42.919497013,83,336,62,274
run-2020-2-18-13-54-42.919497013,84,341,66,275
run-2020-2-18-13-54-42.919497013,85,346,68,278
run-2020-2-18-13-54-42.919497013,86,349,64,285
run-2020-2-18-13-54-42.919497013,87,351,65,286
run-2020-2-18-13-54-42.919497013,88,352,60,292
run-2020-2-18-13-54-42.919497013,89,356,60,296
run-2020-2-18-13-54-42.919497013,90,360,61,299
run-2020-2-18-13-54-42.919497013,91,361,59,302
run-2020-2-18-13-54-42.919497013,92,370,65,305
run-2020-2-18-13-54-42.919497013,93,377,68,309
run-2020-2-18-13-54-42.919497013,94,381,67,314
run-2020-2-18-13-54-42.919497013,95,387,67,320
run-2020-2-18-13-54-42.919497013,96,390,63,327
run-2020-2-18-13-54-42.919497013,97,392,61,331
run-2020-2-18-13-54-42.919497013,98,396,61,335
run-2020-2-18-13-54-42.919497013,99,400,61,339
