RunID,Tick,ActiveAgentsPerTick
run-2020-2-18-14-9-21.095556974,0,11
run-2020-2-18-14-9-21.095556974,1,13
run-2020-2-18-14-9-21.095556974,2,17
run-2020-2-18-14-9-21.095556974,3,18
run-2020-2-18-14-9-21.095556974,4,20
run-2020-2-18-14-9-21.095556974,5,21
run-2020-2-18-14-9-21.095556974,6,29
run-2020-2-18-14-9-21.095556974,7,29
run-2020-2-18-14-9-21.095556974,8,23
run-2020-2-18-14-9-21.095556974,9,24
run-2020-2-18-14-9-21.095556974,10,25
run-2020-2-18-14-9-21.095556974,11,27
run-2020-2-18-14-9-21.095556974,12,31
run-2020-2-18-14-9-21.095556974,13,34
run-2020-2-18-14-9-21.095556974,14,37
run-2020-2-18-14-9-21.095556974,15,34
run-2020-2-18-14-9-21.095556974,16,36
run-2020-2-18-14-9-21.095556974,17,38
run-2020-2-18-14-9-21.095556974,18,41
run-2020-2-18-14-9-21.095556974,19,45
run-2020-2-18-14-9-21.095556974,20,48
run-2020-2-18-14-9-21.095556974,21,47
run-2020-2-18-14-9-21.095556974,22,44
run-2020-2-18-14-9-21.095556974,23,47
run-2020-2-18-14-9-21.095556974,24,47
run-2020-2-18-14-9-21.095556974,25,51
run-2020-2-18-14-9-21.095556974,26,52
run-2020-2-18-14-9-21.095556974,27,51
run-2020-2-18-14-9-21.095556974,28,52
run-2020-2-18-14-9-21.095556974,29,57
run-2020-2-18-14-9-21.095556974,30,58
run-2020-2-18-14-9-21.095556974,31,57
run-2020-2-18-14-9-21.095556974,32,58
run-2020-2-18-14-9-21.095556974,33,54
run-2020-2-18-14-9-21.095556974,34,53
run-2020-2-18-14-9-21.095556974,35,55
run-2020-2-18-14-9-21.095556974,36,55
run-2020-2-18-14-9-21.095556974,37,53
run-2020-2-18-14-9-21.095556974,38,59
run-2020-2-18-14-9-21.095556974,39,59
run-2020-2-18-14-9-21.095556974,40,58
run-2020-2-18-14-9-21.095556974,41,59
run-2020-2-18-14-9-21.095556974,42,64
run-2020-2-18-14-9-21.095556974,43,65
run-2020-2-18-14-9-21.095556974,44,61
run-2020-2-18-14-9-21.095556974,45,58
run-2020-2-18-14-9-21.095556974,46,54
run-2020-2-18-14-9-21.095556974,47,52
run-2020-2-18-14-9-21.095556974,48,51
run-2020-2-18-14-9-21.095556974,49,48
run-2020-2-18-14-9-21.095556974,50,48
run-2020-2-18-14-9-21.095556974,51,47
run-2020-2-18-14-9-21.095556974,52,48
run-2020-2-18-14-9-21.095556974,53,50
run-2020-2-18-14-9-21.095556974,54,51
run-2020-2-18-14-9-21.095556974,55,54
run-2020-2-18-14-9-21.095556974,56,53
run-2020-2-18-14-9-21.095556974,57,56
run-2020-2-18-14-9-21.095556974,58,59
run-2020-2-18-14-9-21.095556974,59,58
run-2020-2-18-14-9-21.095556974,60,56
run-2020-2-18-14-9-21.095556974,61,57
run-2020-2-18-14-9-21.095556974,62,54
run-2020-2-18-14-9-21.095556974,63,51
run-2020-2-18-14-9-21.095556974,64,52
run-2020-2-18-14-9-21.095556974,65,53
run-2020-2-18-14-9-21.095556974,66,52
run-2020-2-18-14-9-21.095556974,67,52
run-2020-2-18-14-9-21.095556974,68,51
run-2020-2-18-14-9-21.095556974,69,50
run-2020-2-18-14-9-21.095556974,70,48
run-2020-2-18-14-9-21.095556974,71,47
run-2020-2-18-14-9-21.095556974,72,49
run-2020-2-18-14-9-21.095556974,73,51
run-2020-2-18-14-9-21.095556974,74,55
run-2020-2-18-14-9-21.095556974,75,55
run-2020-2-18-14-9-21.095556974,76,57
run-2020-2-18-14-9-21.095556974,77,57
run-2020-2-18-14-9-21.095556974,78,57
run-2020-2-18-14-9-21.095556974,79,56
run-2020-2-18-14-9-21.095556974,80,54
run-2020-2-18-14-9-21.095556974,81,56
run-2020-2-18-14-9-21.095556974,82,62
run-2020-2-18-14-9-21.095556974,83,63
run-2020-2-18-14-9-21.095556974,84,63
run-2020-2-18-14-9-21.095556974,85,66
run-2020-2-18-14-9-21.095556974,86,62
run-2020-2-18-14-9-21.095556974,87,64
run-2020-2-18-14-9-21.095556974,88,59
run-2020-2-18-14-9-21.095556974,89,61
run-2020-2-18-14-9-21.095556974,90,65
run-2020-2-18-14-9-21.095556974,91,65
run-2020-2-18-14-9-21.095556974,92,65
run-2020-2-18-14-9-21.095556974,93,65
run-2020-2-18-14-9-21.095556974,94,69
run-2020-2-18-14-9-21.095556974,95,70
run-2020-2-18-14-9-21.095556974,96,71
run-2020-2-18-14-9-21.095556974,97,72
run-2020-2-18-14-9-21.095556974,98,68
run-2020-2-18-14-9-21.095556974,99,74
run-2020-2-18-14-9-21.095556974,100,71
