RunID,Tick,AllAgents,Active,Inactive
run-2020-2-18-14-9-21.095556974,0,11,9,2
run-2020-2-18-14-9-21.095556974,1,15,12,3
run-2020-2-18-14-9-21.095556974,2,20,15,5
run-2020-2-18-14-9-21.095556974,3,23,17,6
run-2020-2-18-14-9-21.095556974,4,26,18,8
run-2020-2-18-14-9-21.095556974,5,29,20,9
run-2020-2-18-14-9-21.095556974,6,38,26,12
run-2020-2-18-14-9-21.095556974,7,41,23,18
run-2020-2-18-14-9-21.095556974,8,41,22,19
run-2020-2-18-14-9-21.095556974,9,43,23,20
run-2020-2-18-14-9-21.095556974,10,45,25,20
run-2020-2-18-14-9-21.095556974,11,47,26,21
run-2020-2-18-14-9-21.095556974,12,52,31,21
run-2020-2-18-14-9-21.095556974,13,55,33,22
run-2020-2-18-14-9-21.095556974,14,59,32,27
run-2020-2-18-14-9-21.095556974,15,61,31,30
run-2020-2-18-14-9-21.095556974,16,66,34,32
run-2020-2-18-14-9-21.095556974,17,70,37,33
run-2020-2-18-14-9-21.095556974,18,74,38,36
run-2020-2-18-14-9-21.095556974,19,81,44,37
run-2020-2-18-14-9-21.095556974,20,85,45,40
run-2020-2-18-14-9-21.095556974,21,87,41,46
run-2020-2-18-14-9-21.095556974,22,90,42,48
run-2020-2-18-14-9-21.095556974,23,95,44,51
run-2020-2-18-14-9-21.095556974,24,98,45,53
run-2020-2-18-14-9-21.095556974,25,104,49,55
run-2020-2-18-14-9-21.095556974,26,107,45,62
run-2020-2-18-14-9-21.095556974,27,113,47,66
run-2020-2-18-14-9-21.095556974,28,118,49,69
run-2020-2-18-14-9-21.095556974,29,126,55,71
run-2020-2-18-14-9-21.095556974,30,129,55,74
run-2020-2-18-14-9-21.095556974,31,131,55,76
run-2020-2-18-14-9-21.095556974,32,134,52,82
run-2020-2-18-14-9-21.095556974,33,136,49,87
run-2020-2-18-14-9-21.095556974,34,140,51,89
run-2020-2-18-14-9-21.095556974,35,144,54,90
run-2020-2-18-14-9-21.095556974,36,145,49,96
run-2020-2-18-14-9-21.095556974,37,149,53,96
run-2020-2-18-14-9-21.095556974,38,155,56,99
run-2020-2-18-14-9-21.095556974,39,158,58,100
run-2020-2-18-14-9-21.095556974,40,158,54,104
run-2020-2-18-14-9-21.095556974,41,163,59,104
run-2020-2-18-14-9-21.095556974,42,168,62,106
run-2020-2-18-14-9-21.095556974,43,171,58,113
run-2020-2-18-14-9-21.095556974,44,174,54,120
run-2020-2-18-14-9-21.095556974,45,178,53,125
run-2020-2-18-14-9-21.095556974,46,179,49,130
run-2020-2-18-14-9-21.095556974,47,182,48,134
run-2020-2-18-14-9-21.095556974,48,185,46,139
run-2020-2-18-14-9-21.095556974,49,187,47,140
run-2020-2-18-14-9-21.095556974,50,188,45,143
run-2020-2-18-14-9-21.095556974,51,190,42,148
run-2020-2-18-14-9-21.095556974,52,196,46,150
run-2020-2-18-14-9-21.095556974,53,200,46,154
run-2020-2-18-14-9-21.095556974,54,205,47,158
run-2020-2-18-14-9-21.095556974,55,212,48,164
run-2020-2-18-14-9-21.095556974,56,217,50,167
run-2020-2-18-14-9-21.095556974,57,223,54,169
run-2020-2-18-14-9-21.095556974,58,228,53,175
run-2020-2-18-14-9-21.095556974,59,233,52,181
run-2020-2-18-14-9-21.095556974,60,237,53,184
run-2020-2-18-14-9-21.095556974,61,241,54,187
run-2020-2-18-14-9-21.095556974,62,241,47,194
run-2020-2-18-14-9-21.095556974,63,245,46,199
run-2020-2-18-14-9-21.095556974,64,251,49,202
run-2020-2-18-14-9-21.095556974,65,255,50,205
run-2020-2-18-14-9-21.095556974,66,257,46,211
run-2020-2-18-14-9-21.095556974,67,263,49,214
run-2020-2-18-14-9-21.095556974,68,265,49,216
run-2020-2-18-14-9-21.095556974,69,266,45,221
run-2020-2-18-14-9-21.095556974,70,269,44,225
run-2020-2-18-14-9-21.095556974,71,272,45,227
run-2020-2-18-14-9-21.095556974,72,276,49,227
run-2020-2-18-14-9-21.095556974,73,278,48,230
run-2020-2-18-14-9-21.095556974,74,285,48,237
run-2020-2-18-14-9-21.095556974,75,292,53,239
run-2020-2-18-14-9-21.095556974,76,296,53,243
run-2020-2-18-14-9-21.095556974,77,300,55,245
run-2020-2-18-14-9-21.095556974,78,302,54,248
run-2020-2-18-14-9-21.095556974,79,304,49,255
run-2020-2-18-14-9-21.095556974,80,309,51,258
run-2020-2-18-14-9-21.095556974,81,314,54,260
run-2020-2-18-14-9-21.095556974,82,322,60,262
run-2020-2-18-14-9-21.095556974,83,325,58,267
run-2020-2-18-14-9-21.095556974,84,330,61,269
run-2020-2-18-14-9-21.095556974,85,335,61,274
run-2020-2-18-14-9-21.095556974,86,336,59,277
run-2020-2-18-14-9-21.095556974,87,341,58,283
run-2020-2-18-14-9-21.095556974,88,342,57,285
run-2020-2-18-14-9-21.095556974,89,346,60,286
run-2020-2-18-14-9-21.095556974,90,351,62,289
run-2020-2-18-14-9-21.095556974,91,354,60,294
run-2020-2-18-14-9-21.095556974,92,359,62,297
run-2020-2-18-14-9-21.095556974,93,362,63,299
run-2020-2-18-14-9-21.095556974,94,368,65,303
run-2020-2-18-14-9-21.095556974,95,373,66,307
run-2020-2-18-14-9-21.095556974,96,378,69,309
run-2020-2-18-14-9-21.095556974,97,381,67,314
run-2020-2-18-14-9-21.095556974,98,382,66,316
run-2020-2-18-14-9-21.095556974,99,390,71,319
