RunID,Agent,Age,Created,Inactive,Resources,Reputation,Ability,Que
run-2020-2-28-15-10-18.951977968,AGENT#6eeadf4e-5a3c-11ea-be71-f3361210c947,0,0,0,10,1.0,1.0,0
run-2020-2-28-15-10-18.951977968,AGENT#6eeae23c-5a3c-11ea-966d-f7754b777dba,0,0,0,10,1.0,1.0,0
run-2020-2-28-15-10-18.951977968,AGENT#6eeb3d72-5a3c-11ea-9194-c7d66e0cca38,1,0,1,10,1.0,1.0,0
run-2020-2-28-15-10-18.951977968,AGENT#6eead2ce-5a3c-11ea-8250-1357a7114c51,2,0,2,10,1.0,1.0,0
run-2020-2-28-15-10-18.951977968,AGENT#6eeb3660-5a3c-11ea-b473-bbcf7b3a9cf9,2,0,2,10,1.0,1.0,0
run-2020-2-28-15-10-18.951977968,AGENT#6eeb39f8-5a3c-11ea-8613-df6dc34d95c7,3,0,3,10,1.0,1.0,0
run-2020-2-28-15-10-18.951977968,AGENT#6ef73b4a-5a3c-11ea-819e-5333a5928468,2,1,3,10,1.0,1.0,0
run-2020-2-28-15-10-18.951977968,AGENT#6f0032ea-5a3c-11ea-b12f-dbd744fa92ce,1,2,3,10,1.0,1.0,0
run-2020-2-28-15-10-18.951977968,AGENT#6eeadc38-5a3c-11ea-83a6-87216e1cc247,4,0,4,10,1.0,1.0,0
run-2020-2-28-15-10-18.951977968,AGENT#6eeae52a-5a3c-11ea-bfd2-f7108091a4e6,4,0,4,10,1.0,1.0,0
run-2020-2-28-15-10-18.951977968,AGENT#6ef73582-5a3c-11ea-9775-932005bc67b1,3,1,4,10,1.0,1.0,0
run-2020-2-28-15-10-18.951977968,AGENT#6ef73884-5a3c-11ea-b994-270804105377,3,1,4,10,1.0,1.0,0
run-2020-2-28-15-10-18.951977968,AGENT#6ef740cc-5a3c-11ea-bfc3-0754ae5ddd50,3,1,4,10,1.0,1.0,0
run-2020-2-28-15-10-18.951977968,AGENT#6ef74360-5a3c-11ea-85f5-9b9d544c8eb8,3,1,4,10,1.0,1.0,0
run-2020-2-28-15-10-18.951977968,AGENT#6eead5d0-5a3c-11ea-b89e-0769629a1b86,5,0,5,10,1.0,1.0,0
run-2020-2-28-15-10-18.951977968,AGENT#6ef73e38-5a3c-11ea-b630-bbfa916a8da7,4,1,5,10,1.0,1.0,0
run-2020-2-28-15-10-18.951977968,AGENT#6f00278c-5a3c-11ea-be39-2ff06a8830d3,3,2,5,10,1.0,1.0,0
run-2020-2-28-15-10-18.951977968,AGENT#6f002e30-5a3c-11ea-b953-4344df6fe517,3,2,5,10,1.0,1.0,0
run-2020-2-28-15-10-18.951977968,AGENT#6f090a00-5a3c-11ea-9995-d73a189d5427,2,3,5,10,1.0,1.0,0
run-2020-2-28-15-10-18.951977968,AGENT#6f090dac-5a3c-11ea-9dfb-2714d6bfd16e,2,3,5,10,1.0,1.0,0
run-2020-2-28-15-10-18.951977968,AGENT#6f0910f4-5a3c-11ea-b0ad-27166631aad2,2,3,5,10,1.0,1.0,0
run-2020-2-28-15-10-18.951977968,AGENT#6f10f58a-5a3c-11ea-b4c0-830ff16de046,1,4,5,10,1.0,1.0,0
run-2020-2-28-15-10-18.951977968,AGENT#6f10fa58-5a3c-11ea-b7d6-bf343605c423,1,4,5,10,1.0,1.0,0
run-2020-2-28-15-10-18.951977968,AGENT#6f0012b0-5a3c-11ea-a165-bf123e6a9ac2,4,2,6,10,1.0,1.0,0
run-2020-2-28-15-10-18.951977968,AGENT#6f001fbc-5a3c-11ea-a5d9-7f05c25f487e,4,2,6,10,1.0,1.0,0
run-2020-2-28-15-10-18.951977968,AGENT#6f001526-5a3c-11ea-bd89-cf83be6e8c49,5,2,7,10,1.0,1.0,0
run-2020-2-28-15-10-18.951977968,AGENT#6f10f33c-5a3c-11ea-8ca8-2ba5f92a189f,3,4,7,10,1.0,1.0,0
run-2020-2-28-15-10-18.951977968,AGENT#6f19098c-5a3c-11ea-8451-efcc555c685c,3,5,8,10,1.0,1.0,0
run-2020-2-28-15-10-18.951977968,AGENT#6f2cd00c-5a3c-11ea-93a2-37b87f5377bc,1,7,8,10,1.0,1.0,0
run-2020-2-28-15-10-18.951977968,AGENT#6f2cd354-5a3c-11ea-ae54-e30a01127d84,1,7,8,10,1.0,1.0,0
run-2020-2-28-15-10-18.951977968,AGENT#6f2cd886-5a3c-11ea-aeeb-3791603b1a72,1,7,8,10,1.0,1.0,0
run-2020-2-28-15-10-18.951977968,AGENT#6f10f828-5a3c-11ea-b9ad-5ff90f4f76f4,5,4,9,10,1.0,1.0,0
run-2020-2-28-15-10-18.951977968,AGENT#6f35a9d4-5a3c-11ea-9924-9b91bd6904d3,1,8,9,10,1.0,1.0,0
run-2020-2-28-15-10-18.951977968,AGENT#6f35b8c0-5a3c-11ea-8f4c-e74b2494b407,1,8,9,10,1.0,1.0,0
run-2020-2-28-15-10-18.951977968,AGENT#6f35bb0e-5a3c-11ea-ba47-1315da9aa464,1,8,9,10,1.0,1.0,0
run-2020-2-28-15-10-18.951977968,AGENT#6f2cdb38-5a3c-11ea-982e-7b508b665f4e,3,7,10,10,1.0,1.0,0
run-2020-2-28-15-10-18.951977968,AGENT#6f3fd06c-5a3c-11ea-930e-5fe0f1527a38,1,9,10,10,1.0,1.0,0
run-2020-2-28-15-10-18.951977968,AGENT#6f3fd76a-5a3c-11ea-8f86-935f9d17c63a,1,9,10,10,1.0,1.0,0
run-2020-2-28-15-10-18.951977968,AGENT#6f3fdaa8-5a3c-11ea-aba6-dfca9b95d911,1,9,10,10,1.0,1.0,0
run-2020-2-28-15-10-18.951977968,AGENT#6f2cddf4-5a3c-11ea-a5fe-efac98fe78e6,4,7,11,10,1.0,1.0,0
run-2020-2-28-15-10-18.951977968,AGENT#6f2ce092-5a3c-11ea-b22c-57547a21c8df,4,7,11,10,1.0,1.0,0
run-2020-2-28-15-10-18.951977968,AGENT#6f4987c4-5a3c-11ea-857f-b3242bbff9fa,1,10,11,10,1.0,1.0,0
run-2020-2-28-15-10-18.951977968,AGENT#6f4990a2-5a3c-11ea-8d4a-cb82ab0f3e87,1,10,11,10,1.0,1.0,0
run-2020-2-28-15-10-18.951977968,AGENT#6f498b0c-5a3c-11ea-b27b-dfaff3a0c9f6,2,10,12,10,1.0,1.0,0
run-2020-2-28-15-10-18.951977968,AGENT#6f498dc8-5a3c-11ea-b16f-7f3eedafeb2c,2,10,12,10,1.0,1.0,0
run-2020-2-28-15-10-18.951977968,AGENT#6f35acae-5a3c-11ea-a215-5b7385856ad3,5,8,13,10,1.0,1.0,0
run-2020-2-28-15-10-18.951977968,AGENT#6f5a0a90-5a3c-11ea-8320-133cd68c6e9f,1,12,13,10,1.0,1.0,0
run-2020-2-28-15-10-18.951977968,AGENT#6f5a11de-5a3c-11ea-8fb9-1f425eb2910e,1,12,13,10,1.0,1.0,0
run-2020-2-28-15-10-18.951977968,AGENT#6f6321fc-5a3c-11ea-933f-1f2b91d21c0d,1,13,14,10,1.0,1.0,0
run-2020-2-28-15-10-18.951977968,AGENT#6f632526-5a3c-11ea-a154-73d29e583fb6,1,13,14,10,1.0,1.0,0
run-2020-2-28-15-10-18.951977968,AGENT#6f35b3de-5a3c-11ea-adab-a7c897ce1375,7,8,15,10,1.0,1.0,0
run-2020-2-28-15-10-18.951977968,AGENT#6f5a0cf2-5a3c-11ea-891d-fb3dc4e49da1,3,12,15,10,1.0,1.0,0
run-2020-2-28-15-10-18.951977968,AGENT#6f5a0f7c-5a3c-11ea-8d5f-535b62d790f0,3,12,15,10,1.0,1.0,0
run-2020-2-28-15-10-18.951977968,AGENT#6f6327ba-5a3c-11ea-ac69-e314d4e1362d,2,13,15,10,1.0,1.0,0
run-2020-2-28-15-10-18.951977968,AGENT#6f239550-5a3c-11ea-ada0-87de17f4f72c,10,6,16,10,1.0,1.0,0
run-2020-2-28-15-10-18.951977968,AGENT#6f5243c8-5a3c-11ea-8b08-03ad4c04f451,5,11,16,10,1.0,1.0,0
run-2020-2-28-15-10-18.951977968,AGENT#6f5a07ca-5a3c-11ea-b579-9b2e1d17e972,4,12,16,10,1.0,1.0,0
run-2020-2-28-15-10-18.951977968,AGENT#6f745918-5a3c-11ea-b1cd-c326c41b3514,1,15,16,10,1.0,1.0,0
run-2020-2-28-15-10-18.951977968,AGENT#6f74560c-5a3c-11ea-bc4e-9bc9ea1139a1,2,15,17,10,1.0,1.0,0
run-2020-2-28-15-10-18.951977968,AGENT#6f745ddc-5a3c-11ea-810c-87b1be6028dc,2,15,17,10,1.0,1.0,0
run-2020-2-28-15-10-18.951977968,AGENT#6f746368-5a3c-11ea-b6be-874375c51b1c,3,15,18,10,1.0,1.0,0
run-2020-2-28-15-10-18.951977968,AGENT#6f6b9d46-5a3c-11ea-83ec-cbe4f7eb9392,5,14,19,10,1.0,1.0,0
run-2020-2-28-15-10-18.951977968,AGENT#6f6ba2c8-5a3c-11ea-8e49-8b46817dbd0c,5,14,19,10,1.0,1.0,0
run-2020-2-28-15-10-18.951977968,AGENT#6f7460ca-5a3c-11ea-a82e-bf578b7e390e,5,15,20,10,1.0,1.0,0
run-2020-2-28-15-10-18.951977968,AGENT#6f7d55b8-5a3c-11ea-be2a-cbd2d386d9ee,5,16,21,10,1.0,1.0,0
run-2020-2-28-15-10-18.951977968,AGENT#6f8f246e-5a3c-11ea-8810-23cb8963f716,3,18,21,10,1.0,1.0,0
run-2020-2-28-15-10-18.951977968,AGENT#6f8f2194-5a3c-11ea-95d1-830a4226ab38,4,18,22,10,1.0,1.0,0
run-2020-2-28-15-10-18.951977968,AGENT#6fa0804c-5a3c-11ea-87bf-43183bba7844,2,20,22,10,1.0,1.0,0
run-2020-2-28-15-10-18.951977968,AGENT#6fa8a678-5a3c-11ea-84df-4f7eec310e93,1,21,22,10,1.0,1.0,0
run-2020-2-28-15-10-18.951977968,AGENT#6f979996-5a3c-11ea-90fc-4f8809eef8bf,4,19,23,10,1.0,1.0,0
run-2020-2-28-15-10-18.951977968,AGENT#6fa89e3a-5a3c-11ea-8681-93f09ce4cbdb,3,21,24,10,1.0,1.0,0
run-2020-2-28-15-10-18.951977968,AGENT#6fb96c92-5a3c-11ea-a66c-db08adf6d27f,2,23,25,10,1.0,1.0,0
run-2020-2-28-15-10-18.951977968,AGENT#6fc2361a-5a3c-11ea-ad46-0f68859f529b,1,24,25,10,1.0,1.0,0
run-2020-2-28-15-10-18.951977968,AGENT#6fa8a3e4-5a3c-11ea-8903-630fa2007122,5,21,26,10,1.0,1.0,0
run-2020-2-28-15-10-18.951977968,AGENT#6fcb9f02-5a3c-11ea-9318-d7d433f3cf7c,1,25,26,10,1.0,1.0,0
run-2020-2-28-15-10-18.951977968,AGENT#6fb96706-5a3c-11ea-ae4f-93739187d5da,4,23,27,10,1.0,1.0,0
run-2020-2-28-15-10-18.951977968,AGENT#6fc22cce-5a3c-11ea-b17e-3767b4ea5092,3,24,27,10,1.0,1.0,0
run-2020-2-28-15-10-18.951977968,AGENT#6fc22ff8-5a3c-11ea-a1a2-f396772d927d,3,24,27,10,1.0,1.0,0
run-2020-2-28-15-10-18.951977968,AGENT#6fc23322-5a3c-11ea-9ebc-27cd226b308a,3,24,27,10,1.0,1.0,0
run-2020-2-28-15-10-18.951977968,AGENT#6fd4332e-5a3c-11ea-a9a2-7f84b1fce4ce,1,26,27,10,1.0,1.0,0
run-2020-2-28-15-10-18.951977968,AGENT#6fd436ee-5a3c-11ea-9655-a7515cb7f400,1,26,27,10,1.0,1.0,0
run-2020-2-28-15-10-18.951977968,AGENT#6f3fd436-5a3c-11ea-ad18-bfacbb5af6bf,19,9,28,10,1.0,1.0,0
run-2020-2-28-15-10-18.951977968,AGENT#6fb969fe-5a3c-11ea-84e6-83ac5a817766,5,23,28,10,1.0,1.0,0
run-2020-2-28-15-10-18.951977968,AGENT#6fd43aae-5a3c-11ea-8195-177acc93a300,2,26,28,10,1.0,1.0,0
run-2020-2-28-15-10-18.951977968,AGENT#6fde07d2-5a3c-11ea-baf0-e3fc673c3cfe,1,27,28,10,1.0,1.0,0
run-2020-2-28-15-10-18.951977968,AGENT#6fde0ed0-5a3c-11ea-913e-8336b25d1c2f,1,27,28,10,1.0,1.0,0
run-2020-2-28-15-10-18.951977968,AGENT#6fc22620-5a3c-11ea-895e-3ffa70feacfd,5,24,29,10,1.0,1.0,0
run-2020-2-28-15-10-18.951977968,AGENT#6fc229ae-5a3c-11ea-b9d1-0367e82e943d,5,24,29,10,1.0,1.0,0
run-2020-2-28-15-10-18.951977968,AGENT#6fe8025a-5a3c-11ea-be78-1bc0c779d403,1,28,29,10,1.0,1.0,0
run-2020-2-28-15-10-18.951977968,AGENT#6fe8052a-5a3c-11ea-9feb-bfc487b34b48,1,28,29,10,1.0,1.0,0
run-2020-2-28-15-10-18.951977968,AGENT#6fd43e6e-5a3c-11ea-bde3-2f918fc7105e,4,26,30,10,1.0,1.0,0
run-2020-2-28-15-10-18.951977968,AGENT#6ff11c00-5a3c-11ea-8d37-475537bdd015,1,29,30,10,1.0,1.0,0
run-2020-2-28-15-10-18.951977968,AGENT#6fd42ed8-5a3c-11ea-9eb6-3f4f143cfeec,5,26,31,10,1.0,1.0,0
run-2020-2-28-15-10-18.951977968,AGENT#6ff11ee4-5a3c-11ea-b872-47cc6187148c,2,29,31,10,1.0,1.0,0
run-2020-2-28-15-10-18.951977968,AGENT#6ff948da-5a3c-11ea-8917-c364c051b563,1,30,31,10,1.0,1.0,0
run-2020-2-28-15-10-18.951977968,AGENT#70013f90-5a3c-11ea-a060-a7b859f4d377,1,31,32,10,1.0,1.0,0
run-2020-2-28-15-10-18.951977968,AGENT#700146de-5a3c-11ea-b669-a39ada5e794e,1,31,32,10,1.0,1.0,0
run-2020-2-28-15-10-18.951977968,AGENT#7001421a-5a3c-11ea-be0d-5fe37ef61f84,2,31,33,10,1.0,1.0,0
run-2020-2-28-15-10-18.951977968,AGENT#7001494a-5a3c-11ea-a2a7-ffd4200e70d7,2,31,33,10,1.0,1.0,0
run-2020-2-28-15-10-18.951977968,AGENT#70014e18-5a3c-11ea-891f-b7dd880d07ee,2,31,33,10,1.0,1.0,0
run-2020-2-28-15-10-18.951977968,AGENT#70013a2c-5a3c-11ea-9f81-ffa723d189ef,3,31,34,10,1.0,1.0,0
run-2020-2-28-15-10-18.951977968,AGENT#6eead936-5a3c-11ea-afec-274d9a4b7be5,35,0,35,10,1.0,1.0,0
run-2020-2-28-15-10-18.951977968,AGENT#6fa8a15a-5a3c-11ea-9260-efeffb70690a,14,21,35,10,1.0,1.0,0
run-2020-2-28-15-10-18.951977968,AGENT#7012d188-5a3c-11ea-91ec-533be288335f,2,33,35,10,1.0,1.0,0
run-2020-2-28-15-10-18.951977968,AGENT#7012d494-5a3c-11ea-bb88-afc7e302b452,2,33,35,10,1.0,1.0,0
run-2020-2-28-15-10-18.951977968,AGENT#701ae9c2-5a3c-11ea-a7d7-2f5314f5f3e6,1,34,35,10,1.0,1.0,0
run-2020-2-28-15-10-18.951977968,AGENT#701aee86-5a3c-11ea-98fa-2f28f48c2b36,1,34,35,10,1.0,1.0,0
run-2020-2-28-15-10-18.951977968,AGENT#70013d06-5a3c-11ea-b2cf-7b75a088b63f,5,31,36,10,1.0,1.0,0
run-2020-2-28-15-10-18.951977968,AGENT#7012d70a-5a3c-11ea-b6b2-8bc76a316143,3,33,36,10,1.0,1.0,0
run-2020-2-28-15-10-18.951977968,AGENT#701ae47c-5a3c-11ea-9403-c76bd476aedd,2,34,36,10,1.0,1.0,0
run-2020-2-28-15-10-18.951977968,AGENT#7023759c-5a3c-11ea-9090-235c1cf38ecd,1,35,36,10,1.0,1.0,0
run-2020-2-28-15-10-18.951977968,AGENT#702c18aa-5a3c-11ea-b030-0bc8b0875467,2,36,38,10,1.0,1.0,0
run-2020-2-28-15-10-18.951977968,AGENT#7034d92c-5a3c-11ea-b2bd-6fa43eebc229,1,37,38,10,1.0,1.0,0
run-2020-2-28-15-10-18.951977968,AGENT#701aec1a-5a3c-11ea-a103-fb5d49abbc97,5,34,39,10,1.0,1.0,0
run-2020-2-28-15-10-18.951977968,AGENT#703d2726-5a3c-11ea-981b-5319d42e13bb,1,38,39,10,1.0,1.0,0
run-2020-2-28-15-10-18.951977968,AGENT#703d2c44-5a3c-11ea-ab61-53a8d3a5ae76,1,38,39,10,1.0,1.0,0
run-2020-2-28-15-10-18.951977968,AGENT#702c1bac-5a3c-11ea-bb28-93e3b1aef98b,4,36,40,10,1.0,1.0,0
run-2020-2-28-15-10-18.951977968,AGENT#7034ddc8-5a3c-11ea-a0b8-230fcc38cca2,3,37,40,10,1.0,1.0,0
run-2020-2-28-15-10-18.951977968,AGENT#703d29ec-5a3c-11ea-b038-ff663f70b685,2,38,40,10,1.0,1.0,0
run-2020-2-28-15-10-18.951977968,AGENT#703d3144-5a3c-11ea-93d7-3ff10ba5fda4,2,38,40,10,1.0,1.0,0
run-2020-2-28-15-10-18.951977968,AGENT#70459a00-5a3c-11ea-b606-6b1c8015385c,1,39,40,10,1.0,1.0,0
run-2020-2-28-15-10-18.951977968,AGENT#7034e174-5a3c-11ea-8a5d-3b8ead104ac6,4,37,41,10,1.0,1.0,0
run-2020-2-28-15-10-18.951977968,AGENT#6f190d9c-5a3c-11ea-b124-6367dc0f5a20,37,5,42,10,1.0,1.0,0
run-2020-2-28-15-10-18.951977968,AGENT#704f4e7e-5a3c-11ea-88a4-437b1c228dbe,2,40,42,10,1.0,1.0,0
run-2020-2-28-15-10-18.951977968,AGENT#70459686-5a3c-11ea-a818-f3a14bcef0cc,4,39,43,10,1.0,1.0,0
run-2020-2-28-15-10-18.951977968,AGENT#704f4be0-5a3c-11ea-9639-4f34d4f784aa,4,40,44,10,1.0,1.0,0
run-2020-2-28-15-10-18.951977968,AGENT#7057d1a2-5a3c-11ea-849f-ef919aabff06,3,41,44,10,1.0,1.0,0
run-2020-2-28-15-10-18.951977968,AGENT#6eeae82c-5a3c-11ea-b994-3f78c5dd43a2,45,0,45,10,1.0,1.0,0
run-2020-2-28-15-10-18.951977968,AGENT#6fde0b92-5a3c-11ea-acee-87a4a3e8f480,18,27,45,10,1.0,1.0,0
run-2020-2-28-15-10-18.951977968,AGENT#705f8ad2-5a3c-11ea-92ec-976134d02625,3,42,45,10,1.0,1.0,0
run-2020-2-28-15-10-18.951977968,AGENT#6eeacb1c-5a3c-11ea-81d0-6b8b64ad5cee,46,0,46,10,1.0,1.0,0
run-2020-2-28-15-10-18.951977968,AGENT#705f8ffa-5a3c-11ea-9652-c374d7616ca8,4,42,46,10,1.0,1.0,0
run-2020-2-28-15-10-18.951977968,AGENT#6f00176a-5a3c-11ea-bdbe-0ff9a7a88155,45,2,47,10,1.0,1.0,0
run-2020-2-28-15-10-18.951977968,AGENT#70718282-5a3c-11ea-b474-c30d2fe58ccc,3,44,47,10,1.0,1.0,0
run-2020-2-28-15-10-18.951977968,AGENT#707a3ba2-5a3c-11ea-b8cd-73f33d61ab5a,2,45,47,10,1.0,1.0,0
run-2020-2-28-15-10-18.951977968,AGENT#70840da8-5a3c-11ea-a55f-6315c60955f7,2,46,48,10,1.0,1.0,0
run-2020-2-28-15-10-18.951977968,AGENT#708412da-5a3c-11ea-92e6-8bb7fa46e2f5,2,46,48,10,1.0,1.0,0
run-2020-2-28-15-10-18.951977968,AGENT#6f10ee46-5a3c-11ea-941a-83a70c8ed80f,45,4,49,10,1.0,1.0,0
run-2020-2-28-15-10-18.951977968,AGENT#707a3eb8-5a3c-11ea-bf3c-838f9b691471,4,45,49,10,1.0,1.0,0
run-2020-2-28-15-10-18.951977968,AGENT#70840a4c-5a3c-11ea-bfaf-db6e55cef3e3,3,46,49,10,1.0,1.0,0
run-2020-2-28-15-10-18.951977968,AGENT#708d5d4a-5a3c-11ea-af02-7fdc51614e75,2,47,49,10,1.0,1.0,0
run-2020-2-28-15-10-18.951977968,AGENT#709743a0-5a3c-11ea-acaf-431d9d20089f,1,48,49,10,1.0,1.0,0
run-2020-2-28-15-10-18.951977968,AGENT#6eeacf4a-5a3c-11ea-88de-378b26dcfd10,50,0,50,10,1.0,1.0,0
run-2020-2-28-15-10-18.951977968,AGENT#707a41e2-5a3c-11ea-8a92-1f6e98244f16,5,45,50,10,1.0,1.0,0
run-2020-2-28-15-10-18.951977968,AGENT#70841050-5a3c-11ea-8cc2-6f31738a46f7,4,46,50,10,1.0,1.0,0
run-2020-2-28-15-10-18.951977968,AGENT#708d604c-5a3c-11ea-a906-fba31f6ba77c,3,47,50,10,1.0,1.0,0
run-2020-2-28-15-10-18.951977968,AGENT#708d67ae-5a3c-11ea-9f5d-174e24d71d44,3,47,50,10,1.0,1.0,0
run-2020-2-28-15-10-18.951977968,AGENT#70974026-5a3c-11ea-9840-872c94b9c9fb,2,48,50,10,1.0,1.0,0
run-2020-2-28-15-10-18.951977968,AGENT#70a1ab74-5a3c-11ea-8f54-ef0d0dc8b877,1,49,50,10,1.0,1.0,0
run-2020-2-28-15-10-18.951977968,AGENT#70a1ae94-5a3c-11ea-93de-974469f77203,1,49,50,10,1.0,1.0,0
run-2020-2-28-15-10-18.951977968,AGENT#70a1b3e4-5a3c-11ea-b650-27f4db3b8cb1,1,49,50,10,1.0,1.0,0
run-2020-2-28-15-10-18.951977968,AGENT#6f000ff4-5a3c-11ea-90ff-8f675c3357af,49,2,51,10,1.0,1.0,0
run-2020-2-28-15-10-18.951977968,AGENT#708d62c2-5a3c-11ea-bfa2-3f50cdd2d94c,4,47,51,10,1.0,1.0,0
run-2020-2-28-15-10-18.951977968,AGENT#70a1b696-5a3c-11ea-bd84-73d8ce9611db,2,49,51,10,1.0,1.0,0
run-2020-2-28-15-10-18.951977968,AGENT#70aa85b4-5a3c-11ea-8822-67d04f6dd284,1,50,51,10,1.0,1.0,0
run-2020-2-28-15-10-18.951977968,AGENT#6f10f0da-5a3c-11ea-bacb-13163d047959,48,4,52,10,1.0,1.0,0
run-2020-2-28-15-10-18.951977968,AGENT#70014bca-5a3c-11ea-a2e1-efe44eea4262,21,31,52,10,1.0,1.0,0
run-2020-2-28-15-10-18.951977968,AGENT#708d6542-5a3c-11ea-a9c9-2fc83d80b5a5,5,47,52,10,1.0,1.0,0
run-2020-2-28-15-10-18.951977968,AGENT#709746b6-5a3c-11ea-90b8-4f993cef918e,4,48,52,10,1.0,1.0,0
run-2020-2-28-15-10-18.951977968,AGENT#70aa7a10-5a3c-11ea-bf26-a778e2298785,2,50,52,10,1.0,1.0,0
run-2020-2-28-15-10-18.951977968,AGENT#70b552b4-5a3c-11ea-83a1-abe1d1ac4d27,1,51,52,10,1.0,1.0,0
run-2020-2-28-15-10-18.951977968,AGENT#70b5591c-5a3c-11ea-9d31-5b071d802986,1,51,52,10,1.0,1.0,0
run-2020-2-28-15-10-18.951977968,AGENT#6f091400-5a3c-11ea-8ab2-5b8bed1097f6,50,3,53,10,1.0,1.0,0
run-2020-2-28-15-10-18.951977968,AGENT#6f2cd5fc-5a3c-11ea-b742-17c5fa4e1a36,46,7,53,10,1.0,1.0,0
run-2020-2-28-15-10-18.951977968,AGENT#6f35b190-5a3c-11ea-b28b-2f8ee1703427,45,8,53,10,1.0,1.0,0
run-2020-2-28-15-10-18.951977968,AGENT#70974986-5a3c-11ea-8ed8-7ba00477cdb5,5,48,53,10,1.0,1.0,0
run-2020-2-28-15-10-18.951977968,AGENT#70aa823a-5a3c-11ea-89fd-c781c738ad8c,3,50,53,10,1.0,1.0,0
run-2020-2-28-15-10-18.951977968,AGENT#70b54f4e-5a3c-11ea-a4ba-db23fc701ee0,2,51,53,10,1.0,1.0,0
run-2020-2-28-15-10-18.951977968,AGENT#70bec538-5a3c-11ea-83e4-ef092e92bbe3,1,52,53,10,1.0,1.0,0
run-2020-2-28-15-10-18.951977968,AGENT#6f35af38-5a3c-11ea-bfe7-9f4ff741b542,46,8,54,10,1.0,1.0,0
run-2020-2-28-15-10-18.951977968,AGENT#70a1b132-5a3c-11ea-ae28-fffc569a4e9a,5,49,54,10,1.0,1.0,0
run-2020-2-28-15-10-18.951977968,AGENT#70aa7e52-5a3c-11ea-b498-67065cc07b1d,4,50,54,10,1.0,1.0,0
run-2020-2-28-15-10-18.951977968,AGENT#70b55c78-5a3c-11ea-9cca-efd12d66365d,3,51,54,10,1.0,1.0,0
run-2020-2-28-15-10-18.951977968,AGENT#70bec7ea-5a3c-11ea-9df2-a353a969c190,2,52,54,10,1.0,1.0,0
run-2020-2-28-15-10-18.951977968,AGENT#70c7b38c-5a3c-11ea-980b-efe3b4f41c6c,1,53,54,10,1.0,1.0,0
run-2020-2-28-15-10-18.951977968,AGENT#6f35b65e-5a3c-11ea-ac6b-eb8a0de111a4,47,8,55,10,1.0,1.0,0
run-2020-2-28-15-10-18.951977968,AGENT#70014490-5a3c-11ea-9a30-fb56725f0d40,24,31,55,10,1.0,1.0,0
run-2020-2-28-15-10-18.951977968,AGENT#70b55f84-5a3c-11ea-8410-530d4a75dd7c,4,51,55,10,1.0,1.0,0
run-2020-2-28-15-10-18.951977968,AGENT#70c7b684-5a3c-11ea-b50c-734ef4a0c133,2,53,55,10,1.0,1.0,0
run-2020-2-28-15-10-18.951977968,AGENT#6fc2394e-5a3c-11ea-97b5-b72e7bf7297f,32,24,56,10,1.0,1.0,0
run-2020-2-28-15-10-18.951977968,AGENT#70beca9c-5a3c-11ea-96aa-13def96b6a8d,4,52,56,10,1.0,1.0,0
run-2020-2-28-15-10-18.951977968,AGENT#70d00c4e-5a3c-11ea-bfaf-331539978c0a,2,54,56,10,1.0,1.0,0
run-2020-2-28-15-10-18.951977968,AGENT#70d01130-5a3c-11ea-9918-370102b2f2af,2,54,56,10,1.0,1.0,0
run-2020-2-28-15-10-18.951977968,AGENT#70da8840-5a3c-11ea-94b1-2feaa279f5a1,1,55,56,10,1.0,1.0,0
run-2020-2-28-15-10-18.951977968,AGENT#70c7bb5c-5a3c-11ea-882a-e39baab8e7cf,4,53,57,10,1.0,1.0,0
run-2020-2-28-15-10-18.951977968,AGENT#70c7bdd2-5a3c-11ea-9791-83df0753094a,4,53,57,10,1.0,1.0,0
run-2020-2-28-15-10-18.951977968,AGENT#70d0136a-5a3c-11ea-9bd3-9bbcb37240af,3,54,57,10,1.0,1.0,0
run-2020-2-28-15-10-18.951977968,AGENT#6f523e5a-5a3c-11ea-8eb6-2b7592dd8f8b,47,11,58,10,1.0,1.0,0
run-2020-2-28-15-10-18.951977968,AGENT#6f632a4e-5a3c-11ea-87f8-ebc4bf4f3536,45,13,58,10,1.0,1.0,0
run-2020-2-28-15-10-18.951977968,AGENT#704f4366-5a3c-11ea-a178-aba1132ed8be,18,40,58,10,1.0,1.0,0
run-2020-2-28-15-10-18.951977968,AGENT#70c7b8fa-5a3c-11ea-84f2-17977d4419a4,5,53,58,10,1.0,1.0,0
run-2020-2-28-15-10-18.951977968,AGENT#70d00eba-5a3c-11ea-9280-ff4cc17d60e9,4,54,58,10,1.0,1.0,0
run-2020-2-28-15-10-18.951977968,AGENT#70d015a4-5a3c-11ea-88e9-6b462eb3888e,4,54,58,10,1.0,1.0,0
run-2020-2-28-15-10-18.951977968,AGENT#70da9272-5a3c-11ea-aa5e-ffab8198a199,3,55,58,10,1.0,1.0,0
run-2020-2-28-15-10-18.951977968,AGENT#6f6ba066-5a3c-11ea-81c1-db5c8fcc5575,45,14,59,10,1.0,1.0,0
run-2020-2-28-15-10-18.951977968,AGENT#70ed41f6-5a3c-11ea-9cb8-07f5410d63d3,2,57,59,10,1.0,1.0,0
run-2020-2-28-15-10-18.951977968,AGENT#70f617ea-5a3c-11ea-8442-136356126391,1,58,59,10,1.0,1.0,0
run-2020-2-28-15-10-18.951977968,AGENT#70da8c28-5a3c-11ea-8117-077d52bf81f7,5,55,60,10,1.0,1.0,0
run-2020-2-28-15-10-18.951977968,AGENT#70ed3f6c-5a3c-11ea-b0f5-170df421ef26,3,57,60,10,1.0,1.0,0
run-2020-2-28-15-10-18.951977968,AGENT#6ff945e2-5a3c-11ea-8310-df2101f27622,31,30,61,10,1.0,1.0,0
run-2020-2-28-15-10-18.951977968,AGENT#70ed3a12-5a3c-11ea-b0be-a7ccf47a1636,4,57,61,10,1.0,1.0,0
run-2020-2-28-15-10-18.951977968,AGENT#70ed449e-5a3c-11ea-a2ba-7b03be01fe59,4,57,61,10,1.0,1.0,0
run-2020-2-28-15-10-18.951977968,AGENT#70f6134e-5a3c-11ea-80d9-13e04ed5b401,3,58,61,10,1.0,1.0,0
run-2020-2-28-15-10-18.951977968,AGENT#7109d410-5a3c-11ea-92f6-2f01cabb78d7,1,60,61,10,1.0,1.0,0
run-2020-2-28-15-10-18.951977968,AGENT#70ed3d0a-5a3c-11ea-8425-13a67c94a0f2,5,57,62,10,1.0,1.0,0
run-2020-2-28-15-10-18.951977968,AGENT#70f615b0-5a3c-11ea-bbac-fb4382b0e757,4,58,62,10,1.0,1.0,0
run-2020-2-28-15-10-18.951977968,AGENT#70ffc02e-5a3c-11ea-a984-479fc5fcbe80,3,59,62,10,1.0,1.0,0
run-2020-2-28-15-10-18.951977968,AGENT#704f494c-5a3c-11ea-972a-5bd6638d4255,23,40,63,10,1.0,1.0,0
run-2020-2-28-15-10-18.951977968,AGENT#7068c8c2-5a3c-11ea-91d5-73756ea79d58,20,43,63,10,1.0,1.0,0
run-2020-2-28-15-10-18.951977968,AGENT#7111ff3c-5a3c-11ea-bff7-63913c9f9594,2,61,63,10,1.0,1.0,0
run-2020-2-28-15-10-18.951977968,AGENT#71120216-5a3c-11ea-be19-f350889de237,2,61,63,10,1.0,1.0,0
run-2020-2-28-15-10-18.951977968,AGENT#6f97968a-5a3c-11ea-a424-c329bbe298e8,45,19,64,10,1.0,1.0,0
run-2020-2-28-15-10-18.951977968,AGENT#7109ce84-5a3c-11ea-b2d2-03c8588fb2ca,4,60,64,10,1.0,1.0,0
run-2020-2-28-15-10-18.951977968,AGENT#711ab9ba-5a3c-11ea-b4f9-d7c5e80435bc,2,62,64,10,1.0,1.0,0
run-2020-2-28-15-10-18.951977968,AGENT#711ab6ea-5a3c-11ea-a432-93babd0ecf47,3,62,65,10,1.0,1.0,0
run-2020-2-28-15-10-18.951977968,AGENT#711abc1c-5a3c-11ea-a991-83baccaf6acd,3,62,65,10,1.0,1.0,0
run-2020-2-28-15-10-18.951977968,AGENT#71244e80-5a3c-11ea-82aa-0723ee6076c0,2,63,65,10,1.0,1.0,0
run-2020-2-28-15-10-18.951977968,AGENT#712d7fa0-5a3c-11ea-b082-83dea0bc8d63,1,64,65,10,1.0,1.0,0
run-2020-2-28-15-10-18.951977968,AGENT#7135a46e-5a3c-11ea-9899-d33b08428e58,1,65,66,10,1.0,1.0,0
run-2020-2-28-15-10-18.951977968,AGENT#711abe9c-5a3c-11ea-9790-933b6b779a26,5,62,67,10,1.0,1.0,0
run-2020-2-28-15-10-18.951977968,AGENT#712d7cd0-5a3c-11ea-8554-23cf02eccd4e,3,64,67,10,1.0,1.0,0
run-2020-2-28-15-10-18.951977968,AGENT#71359fbe-5a3c-11ea-ad91-5bf6a7375170,2,65,67,10,1.0,1.0,0
run-2020-2-28-15-10-18.951977968,AGENT#713ec864-5a3c-11ea-ac8d-7f1ea3c18988,1,66,67,10,1.0,1.0,0
run-2020-2-28-15-10-18.951977968,AGENT#713ed066-5a3c-11ea-95e9-cbd125c30ef6,1,66,67,10,1.0,1.0,0
run-2020-2-28-15-10-18.951977968,AGENT#707a3814-5a3c-11ea-afcc-53cc8fa75394,23,45,68,10,1.0,1.0,0
run-2020-2-28-15-10-18.951977968,AGENT#71244890-5a3c-11ea-b879-33a9e0379ffb,5,63,68,10,1.0,1.0,0
run-2020-2-28-15-10-18.951977968,AGENT#6f979dd8-5a3c-11ea-bbfc-57706a6569d2,50,19,69,10,1.0,1.0,0
run-2020-2-28-15-10-18.951977968,AGENT#71244bba-5a3c-11ea-9450-7f00bb960b65,6,63,69,10,1.0,1.0,0
run-2020-2-28-15-10-18.951977968,AGENT#713ecb02-5a3c-11ea-aa0b-73a5f4393c61,3,66,69,10,1.0,1.0,0
run-2020-2-28-15-10-18.951977968,AGENT#71471a50-5a3c-11ea-a15c-e34f1e82a809,2,67,69,10,1.0,1.0,0
run-2020-2-28-15-10-18.951977968,AGENT#713ec51c-5a3c-11ea-bbc0-6ffb8a2053e6,4,66,70,10,1.0,1.0,0
run-2020-2-28-15-10-18.951977968,AGENT#714f973e-5a3c-11ea-ad12-bb21941d7734,2,68,70,10,1.0,1.0,0
run-2020-2-28-15-10-18.951977968,AGENT#70717ecc-5a3c-11ea-af5d-67b69e06a257,27,44,71,10,1.0,1.0,0
run-2020-2-28-15-10-18.951977968,AGENT#70c7c034-5a3c-11ea-8b87-a359b4430c26,18,53,71,10,1.0,1.0,0
run-2020-2-28-15-10-18.951977968,AGENT#714721a8-5a3c-11ea-bfaf-af158d6f30cd,4,67,71,10,1.0,1.0,0
run-2020-2-28-15-10-18.951977968,AGENT#714723ce-5a3c-11ea-b2f0-17dc53ce0497,4,67,71,10,1.0,1.0,0
run-2020-2-28-15-10-18.951977968,AGENT#7160e5fc-5a3c-11ea-8257-eb50d9ae0ad9,1,70,71,10,1.0,1.0,0
run-2020-2-28-15-10-18.951977968,AGENT#7160ebc4-5a3c-11ea-83cf-1f48de105978,1,70,71,10,1.0,1.0,0
run-2020-2-28-15-10-18.951977968,AGENT#7160f4a2-5a3c-11ea-b42c-3ba59f87b80d,1,70,71,10,1.0,1.0,0
run-2020-2-28-15-10-18.951977968,AGENT#7160f75e-5a3c-11ea-8b73-f7f436dbb092,2,70,72,10,1.0,1.0,0
run-2020-2-28-15-10-18.951977968,AGENT#716a518c-5a3c-11ea-b0d4-d7360d19855a,1,71,72,10,1.0,1.0,0
run-2020-2-28-15-10-18.951977968,AGENT#6fe7feae-5a3c-11ea-9143-13e7da0d50f7,45,28,73,10,1.0,1.0,0
run-2020-2-28-15-10-18.951977968,AGENT#7160eea8-5a3c-11ea-a579-5fbe139f9501,3,70,73,10,1.0,1.0,0
run-2020-2-28-15-10-18.951977968,AGENT#7160f182-5a3c-11ea-9969-371a39142205,3,70,73,10,1.0,1.0,0
run-2020-2-28-15-10-18.951977968,AGENT#716a547a-5a3c-11ea-be3b-238ee2f34b47,2,71,73,10,1.0,1.0,0
run-2020-2-28-15-10-18.951977968,AGENT#716a5a6a-5a3c-11ea-9dad-5706e23690bb,2,71,73,10,1.0,1.0,0
run-2020-2-28-15-10-18.951977968,AGENT#71738f72-5a3c-11ea-8ef7-53be1f640e19,1,72,73,10,1.0,1.0,0
run-2020-2-28-15-10-18.951977968,AGENT#717d4904-5a3c-11ea-9eae-ef65e3578cbb,1,73,74,10,1.0,1.0,0
run-2020-2-28-15-10-18.951977968,AGENT#6ff121b4-5a3c-11ea-b41f-037f25ee8bcf,46,29,75,10,1.0,1.0,0
run-2020-2-28-15-10-18.951977968,AGENT#6ff94b32-5a3c-11ea-98b0-e778ae0b1e85,45,30,75,10,1.0,1.0,0
run-2020-2-28-15-10-18.951977968,AGENT#716a4e4e-5a3c-11ea-9ae7-9fc9ffd34bd5,4,71,75,10,1.0,1.0,0
run-2020-2-28-15-10-18.951977968,AGENT#717d40ee-5a3c-11ea-8daf-43d39c8fff38,2,73,75,10,1.0,1.0,0
run-2020-2-28-15-10-18.951977968,AGENT#717d43f0-5a3c-11ea-afdc-77f761aa5769,2,73,75,10,1.0,1.0,0
run-2020-2-28-15-10-18.951977968,AGENT#71869f36-5a3c-11ea-9fcd-0774e5599bd8,1,74,75,10,1.0,1.0,0
run-2020-2-28-15-10-18.951977968,AGENT#71739b2a-5a3c-11ea-ba7f-d71a3ab00aa5,4,72,76,10,1.0,1.0,0
run-2020-2-28-15-10-18.951977968,AGENT#7186a1ac-5a3c-11ea-b56a-63c7ed79d3f4,2,74,76,10,1.0,1.0,0
run-2020-2-28-15-10-18.951977968,AGENT#717395a8-5a3c-11ea-9071-93f7caf07a11,5,72,77,10,1.0,1.0,0
run-2020-2-28-15-10-18.951977968,AGENT#70237254-5a3c-11ea-a6c7-abc8d4596861,43,35,78,10,1.0,1.0,0
run-2020-2-28-15-10-18.951977968,AGENT#71a8dac4-5a3c-11ea-9390-5fdd2f2fc585,1,78,79,10,1.0,1.0,0
run-2020-2-28-15-10-18.951977968,AGENT#701ae756-5a3c-11ea-bab7-af04c38ba2e1,47,34,81,10,1.0,1.0,0
run-2020-2-28-15-10-18.951977968,AGENT#70236b4c-5a3c-11ea-8769-1f09730911d8,46,35,81,10,1.0,1.0,0
run-2020-2-28-15-10-18.951977968,AGENT#70236ef8-5a3c-11ea-a409-e330eb005721,46,35,81,10,1.0,1.0,0
run-2020-2-28-15-10-18.951977968,AGENT#718e968c-5a3c-11ea-bafe-07f78b5cf272,6,75,81,10,1.0,1.0,0
run-2020-2-28-15-10-18.951977968,AGENT#71a8de66-5a3c-11ea-8891-7b69c1c2c48d,3,78,81,10,1.0,1.0,0
run-2020-2-28-15-10-18.951977968,AGENT#71bb401a-5a3c-11ea-a25c-db0bef2c7e2c,1,80,81,10,1.0,1.0,0
run-2020-2-28-15-10-18.951977968,AGENT#71bb4a06-5a3c-11ea-bbb6-8bcdf615919e,1,80,81,10,1.0,1.0,0
run-2020-2-28-15-10-18.951977968,AGENT#71bb46c8-5a3c-11ea-a325-7378158fa466,2,80,82,10,1.0,1.0,0
run-2020-2-28-15-10-18.951977968,AGENT#703d2f00-5a3c-11ea-9442-e358c17c6e4f,45,38,83,10,1.0,1.0,0
run-2020-2-28-15-10-18.951977968,AGENT#7109d186-5a3c-11ea-a99f-5fab3d3ce322,23,60,83,10,1.0,1.0,0
run-2020-2-28-15-10-18.951977968,AGENT#71a8e4d8-5a3c-11ea-b789-77bd02ec780c,5,78,83,10,1.0,1.0,0
run-2020-2-28-15-10-18.951977968,AGENT#71b1c9a4-5a3c-11ea-9ae5-bb3e2b2a9ce9,4,79,83,10,1.0,1.0,0
run-2020-2-28-15-10-18.951977968,AGENT#71b1cf1c-5a3c-11ea-a77b-0f435ee6e4a7,4,79,83,10,1.0,1.0,0
run-2020-2-28-15-10-18.951977968,AGENT#71cf0744-5a3c-11ea-9d4d-2fed3733e973,1,82,83,10,1.0,1.0,0
run-2020-2-28-15-10-18.951977968,AGENT#71bb3c82-5a3c-11ea-8c4d-6fb2272d12df,4,80,84,10,1.0,1.0,0
run-2020-2-28-15-10-18.951977968,AGENT#71bb4362-5a3c-11ea-baa5-67990c607f70,4,80,84,10,1.0,1.0,0
run-2020-2-28-15-10-18.951977968,AGENT#71cf0a5a-5a3c-11ea-a315-47f87057b083,2,82,84,10,1.0,1.0,0
run-2020-2-28-15-10-18.951977968,AGENT#704f4686-5a3c-11ea-b2a0-3344cc662c5e,45,40,85,10,1.0,1.0,0
run-2020-2-28-15-10-18.951977968,AGENT#71e02d12-5a3c-11ea-a0e9-bf18577ecafd,1,84,85,10,1.0,1.0,0
run-2020-2-28-15-10-18.951977968,AGENT#7057ce64-5a3c-11ea-b627-a7a56666a643,45,41,86,10,1.0,1.0,0
run-2020-2-28-15-10-18.951977968,AGENT#7034e502-5a3c-11ea-a071-4f54fd213a9e,50,37,87,10,1.0,1.0,0
run-2020-2-28-15-10-18.951977968,AGENT#705f8d8e-5a3c-11ea-99d5-1f2e3199b40e,45,42,87,10,1.0,1.0,0
run-2020-2-28-15-10-18.951977968,AGENT#71d799b8-5a3c-11ea-b0a8-c3c5da72d04e,4,83,87,10,1.0,1.0,0
run-2020-2-28-15-10-18.951977968,AGENT#71e02538-5a3c-11ea-81d6-df1869130770,3,84,87,10,1.0,1.0,0
run-2020-2-28-15-10-18.951977968,AGENT#71739864-5a3c-11ea-a234-5793da14480a,16,72,88,10,1.0,1.0,0
run-2020-2-28-15-10-18.951977968,AGENT#71f1a65a-5a3c-11ea-ab89-539774468029,2,86,88,10,1.0,1.0,0
run-2020-2-28-15-10-18.951977968,AGENT#71f1a8bc-5a3c-11ea-92f6-d7b88245306f,2,86,88,10,1.0,1.0,0
run-2020-2-28-15-10-18.951977968,AGENT#71e02966-5a3c-11ea-92c8-b730a74db074,5,84,89,10,1.0,1.0,0
run-2020-2-28-15-10-18.951977968,AGENT#71e9389e-5a3c-11ea-baaf-c7928a900473,4,85,89,10,1.0,1.0,0
run-2020-2-28-15-10-18.951977968,AGENT#71f1ab0a-5a3c-11ea-9c87-67fd00ef2b21,3,86,89,10,1.0,1.0,0
run-2020-2-28-15-10-18.951977968,AGENT#71f1ad4e-5a3c-11ea-b083-a38d0efd3ce9,3,86,89,10,1.0,1.0,0
run-2020-2-28-15-10-18.951977968,AGENT#71faa412-5a3c-11ea-9496-d3e9af01899d,2,87,89,10,1.0,1.0,0
run-2020-2-28-15-10-18.951977968,AGENT#7068c322-5a3c-11ea-86b9-abefd6e5e249,47,43,90,10,1.0,1.0,0
run-2020-2-28-15-10-18.951977968,AGENT#71f1a164-5a3c-11ea-a27b-e76c1296aac8,4,86,90,10,1.0,1.0,0
run-2020-2-28-15-10-18.951977968,AGENT#71fa9fbc-5a3c-11ea-b0ea-bb994b6549a5,3,87,90,10,1.0,1.0,0
run-2020-2-28-15-10-18.951977968,AGENT#71faab42-5a3c-11ea-a8cd-7b1364c6d622,3,87,90,10,1.0,1.0,0
run-2020-2-28-15-10-18.951977968,AGENT#720f7540-5a3c-11ea-b5e5-6b7e748e32b0,1,89,90,10,1.0,1.0,0
run-2020-2-28-15-10-18.951977968,AGENT#7068c62e-5a3c-11ea-8009-2f73f54630b2,48,43,91,10,1.0,1.0,0
run-2020-2-28-15-10-18.951977968,AGENT#72056fe6-5a3c-11ea-9dce-d316ff3c1cbb,3,88,91,10,1.0,1.0,0
run-2020-2-28-15-10-18.951977968,AGENT#7160e2a0-5a3c-11ea-a9b9-5f4a7eca980a,22,70,92,10,1.0,1.0,0
run-2020-2-28-15-10-18.951977968,AGENT#71faaea8-5a3c-11ea-9206-9f12fcf302f6,5,87,92,10,1.0,1.0,0
run-2020-2-28-15-10-18.951977968,AGENT#72180da4-5a3c-11ea-b866-7b5966bdd0a7,2,90,92,10,1.0,1.0,0
run-2020-2-28-15-10-18.951977968,AGENT#722147a2-5a3c-11ea-8901-f794528d581f,1,91,92,10,1.0,1.0,0
run-2020-2-28-15-10-18.951977968,AGENT#72214a2c-5a3c-11ea-b77e-b74c198ec62f,1,91,92,10,1.0,1.0,0
run-2020-2-28-15-10-18.951977968,AGENT#7229812e-5a3c-11ea-a385-971b1a29b232,1,92,93,10,1.0,1.0,0
run-2020-2-28-15-10-18.951977968,AGENT#72181060-5a3c-11ea-85f1-c7131d3425e2,4,90,94,10,1.0,1.0,0
run-2020-2-28-15-10-18.951977968,AGENT#70aa8956-5a3c-11ea-806c-47adc00167b9,45,50,95,10,1.0,1.0,0
run-2020-2-28-15-10-18.951977968,AGENT#722985c0-5a3c-11ea-8587-cb05f55f6e08,3,92,95,10,1.0,1.0,0
run-2020-2-28-15-10-18.951977968,AGENT#71cf1284-5a3c-11ea-9f4f-af3136120dff,14,82,96,10,1.0,1.0,0
run-2020-2-28-15-10-18.951977968,AGENT#7246d5d0-5a3c-11ea-a864-f376282ac282,1,95,96,10,1.0,1.0,0
run-2020-2-28-15-10-18.951977968,AGENT#70bec1f0-5a3c-11ea-bfd6-8fc51f5f161b,45,52,97,10,1.0,1.0,0
run-2020-2-28-15-10-18.951977968,AGENT#723e0e78-5a3c-11ea-a5de-8b62e48a29dd,3,94,97,10,1.0,1.0,0
run-2020-2-28-15-10-18.951977968,AGENT#7246d224-5a3c-11ea-a4ef-8fa74a0eafcc,2,95,97,10,1.0,1.0,0
run-2020-2-28-15-10-18.951977968,AGENT#70b54bb6-5a3c-11ea-94a1-338de8e90e45,47,51,98,10,1.0,1.0,0
run-2020-2-28-15-10-18.951977968,AGENT#724fb3b2-5a3c-11ea-9f9c-c787740d50df,2,96,98,10,1.0,1.0,0
run-2020-2-28-15-10-18.951977968,AGENT#70b555b6-5a3c-11ea-b43b-a3e18c58aeb1,48,51,99,10,1.0,1.0,0
run-2020-2-28-15-10-18.951977968,AGENT#7262ae90-5a3c-11ea-887f-cf5ce4f5abe8,1,98,99,10,1.0,1.0,0
