RunID,Tick,AllAgents,Active,Inactive
run-2020-2-18-13-54-37.45520997,0,15,11,4
run-2020-2-18-13-54-37.45520997,1,16,10,6
run-2020-2-18-13-54-37.45520997,2,21,14,7
run-2020-2-18-13-54-37.45520997,3,28,19,9
run-2020-2-18-13-54-37.45520997,4,35,21,14
run-2020-2-18-13-54-37.45520997,5,36,17,19
run-2020-2-18-13-54-37.45520997,6,39,17,22
run-2020-2-18-13-54-37.45520997,7,43,18,25
run-2020-2-18-13-54-37.45520997,8,45,18,27
run-2020-2-18-13-54-37.45520997,9,49,21,28
run-2020-2-18-13-54-37.45520997,10,54,22,32
run-2020-2-18-13-54-37.45520997,11,56,20,36
run-2020-2-18-13-54-37.45520997,12,58,22,36
run-2020-2-18-13-54-37.45520997,13,60,21,39
run-2020-2-18-13-54-37.45520997,14,63,23,40
run-2020-2-18-13-54-37.45520997,15,68,27,41
run-2020-2-18-13-54-37.45520997,16,76,31,45
run-2020-2-18-13-54-37.45520997,17,81,34,47
run-2020-2-18-13-54-37.45520997,18,88,37,51
run-2020-2-18-13-54-37.45520997,19,94,37,57
run-2020-2-18-13-54-37.45520997,20,97,35,62
run-2020-2-18-13-54-37.45520997,21,100,34,66
run-2020-2-18-13-54-37.45520997,22,104,37,67
run-2020-2-18-13-54-37.45520997,23,108,39,69
run-2020-2-18-13-54-37.45520997,24,114,42,72
run-2020-2-18-13-54-37.45520997,25,118,42,76
run-2020-2-18-13-54-37.45520997,26,122,43,79
run-2020-2-18-13-54-37.45520997,27,125,41,84
run-2020-2-18-13-54-37.45520997,28,128,41,87
run-2020-2-18-13-54-37.45520997,29,129,38,91
run-2020-2-18-13-54-37.45520997,30,132,39,93
run-2020-2-18-13-54-37.45520997,31,135,41,94
run-2020-2-18-13-54-37.45520997,32,140,44,96
run-2020-2-18-13-54-37.45520997,33,149,51,98
run-2020-2-18-13-54-37.45520997,34,153,51,102
run-2020-2-18-13-54-37.45520997,35,159,53,106
run-2020-2-18-13-54-37.45520997,36,162,54,108
run-2020-2-18-13-54-37.45520997,37,165,52,113
run-2020-2-18-13-54-37.45520997,38,170,53,117
run-2020-2-18-13-54-37.45520997,39,171,49,122
run-2020-2-18-13-54-37.45520997,40,173,49,124
run-2020-2-18-13-54-37.45520997,41,175,50,125
run-2020-2-18-13-54-37.45520997,42,179,52,127
run-2020-2-18-13-54-37.45520997,43,180,52,128
run-2020-2-18-13-54-37.45520997,44,182,52,130
run-2020-2-18-13-54-37.45520997,45,186,54,132
run-2020-2-18-13-54-37.45520997,46,189,54,135
run-2020-2-18-13-54-37.45520997,47,194,52,142
run-2020-2-18-13-54-37.45520997,48,200,54,146
run-2020-2-18-13-54-37.45520997,49,203,56,147
run-2020-2-18-13-54-37.45520997,50,209,57,152
run-2020-2-18-13-54-37.45520997,51,216,57,159
run-2020-2-18-13-54-37.45520997,52,219,58,161
run-2020-2-18-13-54-37.45520997,53,225,53,172
run-2020-2-18-13-54-37.45520997,54,227,51,176
run-2020-2-18-13-54-37.45520997,55,231,51,180
run-2020-2-18-13-54-37.45520997,56,236,54,182
run-2020-2-18-13-54-37.45520997,57,237,53,184
run-2020-2-18-13-54-37.45520997,58,240,55,185
run-2020-2-18-13-54-37.45520997,59,243,57,186
run-2020-2-18-13-54-37.45520997,60,246,53,193
run-2020-2-18-13-54-37.45520997,61,251,55,196
run-2020-2-18-13-54-37.45520997,62,251,53,198
run-2020-2-18-13-54-37.45520997,63,252,53,199
run-2020-2-18-13-54-37.45520997,64,254,53,201
run-2020-2-18-13-54-37.45520997,65,257,52,205
run-2020-2-18-13-54-37.45520997,66,262,53,209
run-2020-2-18-13-54-37.45520997,67,269,54,215
run-2020-2-18-13-54-37.45520997,68,272,56,216
run-2020-2-18-13-54-37.45520997,69,278,57,221
run-2020-2-18-13-54-37.45520997,70,280,55,225
run-2020-2-18-13-54-37.45520997,71,287,56,231
run-2020-2-18-13-54-37.45520997,72,293,60,233
run-2020-2-18-13-54-37.45520997,73,297,61,236
run-2020-2-18-13-54-37.45520997,74,299,56,243
run-2020-2-18-13-54-37.45520997,75,299,50,249
run-2020-2-18-13-54-37.45520997,76,300,46,254
run-2020-2-18-13-54-37.45520997,77,304,47,257
run-2020-2-18-13-54-37.45520997,78,309,48,261
run-2020-2-18-13-54-37.45520997,79,310,44,266
run-2020-2-18-13-54-37.45520997,80,317,48,269
run-2020-2-18-13-54-37.45520997,81,319,48,271
run-2020-2-18-13-54-37.45520997,82,326,53,273
run-2020-2-18-13-54-37.45520997,83,328,50,278
run-2020-2-18-13-54-37.45520997,84,332,47,285
run-2020-2-18-13-54-37.45520997,85,337,50,287
run-2020-2-18-13-54-37.45520997,86,341,53,288
run-2020-2-18-13-54-37.45520997,87,341,51,290
run-2020-2-18-13-54-37.45520997,88,344,51,293
run-2020-2-18-13-54-37.45520997,89,348,53,295
run-2020-2-18-13-54-37.45520997,90,352,54,298
run-2020-2-18-13-54-37.45520997,91,352,52,300
run-2020-2-18-13-54-37.45520997,92,357,53,304
run-2020-2-18-13-54-37.45520997,93,363,55,308
run-2020-2-18-13-54-37.45520997,94,364,53,311
run-2020-2-18-13-54-37.45520997,95,372,60,312
run-2020-2-18-13-54-37.45520997,96,375,59,316
run-2020-2-18-13-54-37.45520997,97,377,54,323
run-2020-2-18-13-54-37.45520997,98,383,59,324
run-2020-2-18-13-54-37.45520997,99,385,50,335
