RunID,Agent,Age,Created,Inactive,Resources,Reputation,Ability,Que
run-2020-2-18-11-24-12.329356908,AGENT#3620a43a-5241-11ea-bf49-13a1820b631f,1,0,1,10,1.0,1.0,0
run-2020-2-18-11-24-12.329356908,AGENT#36209e04-5241-11ea-abef-2b12bef4f58a,2,0,2,10,1.0,1.0,0
run-2020-2-18-11-24-12.329356908,AGENT#3620a110-5241-11ea-bc70-b31f6a4cee9f,2,0,2,10,1.0,1.0,0
run-2020-2-18-11-24-12.329356908,AGENT#3620aa20-5241-11ea-ba55-af4d5d70cf98,2,0,2,10,1.0,1.0,0
run-2020-2-18-11-24-12.329356908,AGENT#3636a668-5241-11ea-bad8-a30cbfd7f1a6,1,1,2,10,1.0,1.0,0
run-2020-2-18-11-24-12.329356908,AGENT#3636a8de-5241-11ea-93db-73365c233f55,1,1,2,10,1.0,1.0,0
run-2020-2-18-11-24-12.329356908,AGENT#36209396-5241-11ea-86fa-a7fd1eeeda9d,3,0,3,10,1.0,1.0,0
run-2020-2-18-11-24-12.329356908,AGENT#3620a70a-5241-11ea-a3b8-8f7cdc4a1514,3,0,3,10,1.0,1.0,0
run-2020-2-18-11-24-12.329356908,AGENT#3620ad0e-5241-11ea-bbd8-f3e9c9607651,3,0,3,10,1.0,1.0,0
run-2020-2-18-11-24-12.329356908,AGENT#3636a3de-5241-11ea-a9d7-fb2229f9e37b,2,1,3,10,1.0,1.0,0
run-2020-2-18-11-24-12.329356908,AGENT#3620979c-5241-11ea-9e7b-8fb2554cef0d,5,0,5,10,1.0,1.0,0
run-2020-2-18-11-24-12.329356908,AGENT#36209ada-5241-11ea-a5b4-afcd63f045f2,5,0,5,10,1.0,1.0,0
run-2020-2-18-11-24-12.329356908,AGENT#364e903e-5241-11ea-876b-8f5e3c5ebe31,3,2,5,10,1.0,1.0,0
run-2020-2-18-11-24-12.329356908,AGENT#36747470-5241-11ea-ae00-837865e0fb15,1,4,5,10,1.0,1.0,0
run-2020-2-18-11-24-12.329356908,AGENT#3661f3f4-5241-11ea-a0cd-5b9d43bc4a5b,3,3,6,10,1.0,1.0,0
run-2020-2-18-11-24-12.329356908,AGENT#36747204-5241-11ea-ba4f-6fe65c037f7d,3,4,7,10,1.0,1.0,0
run-2020-2-18-11-24-12.329356908,AGENT#36981254-5241-11ea-a2ec-d71211b53edd,1,6,7,10,1.0,1.0,0
run-2020-2-18-11-24-12.329356908,AGENT#36863386-5241-11ea-bc89-9b859e0cd9ce,3,5,8,10,1.0,1.0,0
run-2020-2-18-11-24-12.329356908,AGENT#36980b6a-5241-11ea-bf92-d78a7b3b68f5,3,6,9,10,1.0,1.0,0
run-2020-2-18-11-24-12.329356908,AGENT#36863610-5241-11ea-b01c-5f1abe4cab7e,5,5,10,10,1.0,1.0,0
run-2020-2-18-11-24-12.329356908,AGENT#36df0cea-5241-11ea-bed3-1fc44cb9cf93,2,10,12,10,1.0,1.0,0
run-2020-2-18-11-24-12.329356908,AGENT#36f0b4ea-5241-11ea-82c7-035785c45ae6,1,11,12,10,1.0,1.0,0
run-2020-2-18-11-24-12.329356908,AGENT#36bc455c-5241-11ea-bfcd-ab80ae738f00,5,8,13,10,1.0,1.0,0
run-2020-2-18-11-24-12.329356908,AGENT#36cd4b04-5241-11ea-a332-dbfe7a3f75cf,5,9,14,10,1.0,1.0,0
run-2020-2-18-11-24-12.329356908,AGENT#36df0f56-5241-11ea-a4bc-331dfa16107d,4,10,14,10,1.0,1.0,0
run-2020-2-18-11-24-12.329356908,AGENT#3713f0b8-5241-11ea-8033-cbb6345c3386,1,13,14,10,1.0,1.0,0
run-2020-2-18-11-24-12.329356908,AGENT#3713f7fc-5241-11ea-b76c-73603962d8fd,1,13,14,10,1.0,1.0,0
run-2020-2-18-11-24-12.329356908,AGENT#3713fefa-5241-11ea-8af6-0768581d39db,1,13,14,10,1.0,1.0,0
run-2020-2-18-11-24-12.329356908,AGENT#3620fd0e-5241-11ea-912b-33135ad7a30a,15,0,15,10,1.0,1.0,0
run-2020-2-18-11-24-12.329356908,AGENT#3701e300-5241-11ea-b1a5-177ce26d4fea,3,12,15,10,1.0,1.0,0
run-2020-2-18-11-24-12.329356908,AGENT#3713ecc6-5241-11ea-81c5-d735b465b456,2,13,15,10,1.0,1.0,0
run-2020-2-18-11-24-12.329356908,AGENT#3713fb76-5241-11ea-9d56-e733f1fff9d2,2,13,15,10,1.0,1.0,0
run-2020-2-18-11-24-12.329356908,AGENT#36f0b9b8-5241-11ea-aea5-2b68fd4a0a06,5,11,16,10,1.0,1.0,0
run-2020-2-18-11-24-12.329356908,AGENT#3701e094-5241-11ea-bbf9-777fdfade857,4,12,16,10,1.0,1.0,0
run-2020-2-18-11-24-12.329356908,AGENT#3725b5fa-5241-11ea-b654-2b6f61963e5d,2,14,16,10,1.0,1.0,0
run-2020-2-18-11-24-12.329356908,AGENT#3735f546-5241-11ea-8a4b-a32e8ca437ee,1,15,16,10,1.0,1.0,0
run-2020-2-18-11-24-12.329356908,AGENT#3725b94c-5241-11ea-9093-e350d3a66189,3,14,17,10,1.0,1.0,0
run-2020-2-18-11-24-12.329356908,AGENT#3725be06-5241-11ea-a09b-eb4a7be0a195,3,14,17,10,1.0,1.0,0
run-2020-2-18-11-24-12.329356908,AGENT#3735f320-5241-11ea-9229-43a66b293882,3,15,18,10,1.0,1.0,0
run-2020-2-18-11-24-12.329356908,AGENT#3759ebae-5241-11ea-b67c-c7622a3f4324,2,17,19,10,1.0,1.0,0
run-2020-2-18-11-24-12.329356908,AGENT#376a1592-5241-11ea-aeb4-bfbbdc181052,1,18,19,10,1.0,1.0,0
run-2020-2-18-11-24-12.329356908,AGENT#376a1a1a-5241-11ea-9218-efb9dcd23ca8,1,18,19,10,1.0,1.0,0
run-2020-2-18-11-24-12.329356908,AGENT#3735f992-5241-11ea-9cf0-4390288fc728,5,15,20,10,1.0,1.0,0
run-2020-2-18-11-24-12.329356908,AGENT#376a131c-5241-11ea-a97c-172b75b9d2a4,2,18,20,10,1.0,1.0,0
run-2020-2-18-11-24-12.329356908,AGENT#376a17c2-5241-11ea-bfda-4b1412677fc7,2,18,20,10,1.0,1.0,0
run-2020-2-18-11-24-12.329356908,AGENT#377b4448-5241-11ea-aed6-bf65aa15953c,1,19,20,10,1.0,1.0,0
run-2020-2-18-11-24-12.329356908,AGENT#37488b66-5241-11ea-ae38-cfb13ac96382,5,16,21,10,1.0,1.0,0
run-2020-2-18-11-24-12.329356908,AGENT#3759e708-5241-11ea-9d58-f7c11d34fedf,5,17,22,10,1.0,1.0,0
run-2020-2-18-11-24-12.329356908,AGENT#376a1c40-5241-11ea-830a-eb4eb3040709,4,18,22,10,1.0,1.0,0
run-2020-2-18-11-24-12.329356908,AGENT#3735f762-5241-11ea-9b79-77ac0107f38a,8,15,23,10,1.0,1.0,0
run-2020-2-18-11-24-12.329356908,AGENT#377b4164-5241-11ea-ac20-ff76dada1402,4,19,23,10,1.0,1.0,0
run-2020-2-18-11-24-12.329356908,AGENT#378bcb1a-5241-11ea-843b-6781d358f0ec,3,20,23,10,1.0,1.0,0
run-2020-2-18-11-24-12.329356908,AGENT#379cc24e-5241-11ea-a302-03579e7bb2f3,3,21,24,10,1.0,1.0,0
run-2020-2-18-11-24-12.329356908,AGENT#37bea652-5241-11ea-89f6-4bfe843ef7e9,1,23,24,10,1.0,1.0,0
run-2020-2-18-11-24-12.329356908,AGENT#37bea882-5241-11ea-bf6b-df35b586b995,1,23,24,10,1.0,1.0,0
run-2020-2-18-11-24-12.329356908,AGENT#37beaab2-5241-11ea-a2f1-fff2da04778f,1,23,24,10,1.0,1.0,0
run-2020-2-18-11-24-12.329356908,AGENT#37beaf26-5241-11ea-9efe-eb7cf11a1a02,1,23,24,10,1.0,1.0,0
run-2020-2-18-11-24-12.329356908,AGENT#37cf524a-5241-11ea-bf36-bba373ac0e30,1,24,25,10,1.0,1.0,0
run-2020-2-18-11-24-12.329356908,AGENT#37add4c6-5241-11ea-9eb7-9f9d14a2e21b,4,22,26,10,1.0,1.0,0
run-2020-2-18-11-24-12.329356908,AGENT#37bea40e-5241-11ea-8966-ffc4c8164dea,3,23,26,10,1.0,1.0,0
run-2020-2-18-11-24-12.329356908,AGENT#37f15d5e-5241-11ea-9af6-bbfc4c70ab5b,1,26,27,10,1.0,1.0,0
run-2020-2-18-11-24-12.329356908,AGENT#36863106-5241-11ea-ad92-fbf693ffaab1,23,5,28,10,1.0,1.0,0
run-2020-2-18-11-24-12.329356908,AGENT#37be9cfc-5241-11ea-8d2a-4365c8c03db2,5,23,28,10,1.0,1.0,0
run-2020-2-18-11-24-12.329356908,AGENT#37e07688-5241-11ea-81c0-8fdf9260b128,3,25,28,10,1.0,1.0,0
run-2020-2-18-11-24-12.329356908,AGENT#3801c27a-5241-11ea-a195-efad03a36b8a,1,27,28,10,1.0,1.0,0
run-2020-2-18-11-24-12.329356908,AGENT#3701e53a-5241-11ea-ae33-97930b0d0a1f,17,12,29,10,1.0,1.0,0
run-2020-2-18-11-24-12.329356908,AGENT#37be9f7c-5241-11ea-b372-df4c2bf41db3,6,23,29,10,1.0,1.0,0
run-2020-2-18-11-24-12.329356908,AGENT#37cf4f5c-5241-11ea-b1b3-2722018a3d62,5,24,29,10,1.0,1.0,0
run-2020-2-18-11-24-12.329356908,AGENT#37f15a0c-5241-11ea-a05e-6358fc36ca22,3,26,29,10,1.0,1.0,0
run-2020-2-18-11-24-12.329356908,AGENT#37f1639e-5241-11ea-b8d8-ffe6f38a129a,3,26,29,10,1.0,1.0,0
run-2020-2-18-11-24-12.329356908,AGENT#3811e98e-5241-11ea-8f1b-a3db76a3867b,1,28,29,10,1.0,1.0,0
run-2020-2-18-11-24-12.329356908,AGENT#37f166be-5241-11ea-965e-472aeea917fd,4,26,30,10,1.0,1.0,0
run-2020-2-18-11-24-12.329356908,AGENT#38241c12-5241-11ea-a69a-23a75b7a1a42,1,29,30,10,1.0,1.0,0
run-2020-2-18-11-24-12.329356908,AGENT#3834dee4-5241-11ea-91b3-57834a95803e,1,30,31,10,1.0,1.0,0
run-2020-2-18-11-24-12.329356908,AGENT#38463fcc-5241-11ea-8ae0-3bdec9d7b350,1,31,32,10,1.0,1.0,0
run-2020-2-18-11-24-12.329356908,AGENT#3811ee84-5241-11ea-bdba-e3bb887232cb,5,28,33,10,1.0,1.0,0
run-2020-2-18-11-24-12.329356908,AGENT#3811f2da-5241-11ea-a529-bf65f626c0ef,5,28,33,10,1.0,1.0,0
run-2020-2-18-11-24-12.329356908,AGENT#3834d282-5241-11ea-a98e-0b9c715f072a,3,30,33,10,1.0,1.0,0
run-2020-2-18-11-24-12.329356908,AGENT#3834e1dc-5241-11ea-848b-13eb5f8b8232,3,30,33,10,1.0,1.0,0
run-2020-2-18-11-24-12.329356908,AGENT#3856b384-5241-11ea-9c7e-475813984671,1,32,33,10,1.0,1.0,0
run-2020-2-18-11-24-12.329356908,AGENT#38463d7e-5241-11ea-bdf2-1371d639803c,3,31,34,10,1.0,1.0,0
run-2020-2-18-11-24-12.329356908,AGENT#36cd4898-5241-11ea-aa8f-fb7a2ea37ea3,26,9,35,10,1.0,1.0,0
run-2020-2-18-11-24-12.329356908,AGENT#3834dbf6-5241-11ea-9cad-af6b8ea2ca1f,5,30,35,10,1.0,1.0,0
run-2020-2-18-11-24-12.329356908,AGENT#3856a9f2-5241-11ea-9ab9-1b886b2e6d1b,3,32,35,10,1.0,1.0,0
run-2020-2-18-11-24-12.329356908,AGENT#3856b14a-5241-11ea-8abd-6bcb94b3bee9,3,32,35,10,1.0,1.0,0
run-2020-2-18-11-24-12.329356908,AGENT#3867633c-5241-11ea-a556-9bf4484c47eb,2,33,35,10,1.0,1.0,0
run-2020-2-18-11-24-12.329356908,AGENT#3878368a-5241-11ea-9f4b-73cdf7d43894,2,34,36,10,1.0,1.0,0
run-2020-2-18-11-24-12.329356908,AGENT#38783fe0-5241-11ea-b115-fb14d386051e,4,34,38,10,1.0,1.0,0
run-2020-2-18-11-24-12.329356908,AGENT#388976b6-5241-11ea-af63-1f80013cff99,3,35,38,10,1.0,1.0,0
run-2020-2-18-11-24-12.329356908,AGENT#389b0d86-5241-11ea-8e26-a75673f34512,2,36,38,10,1.0,1.0,0
run-2020-2-18-11-24-12.329356908,AGENT#38783b8a-5241-11ea-8515-272c279ba2ad,5,34,39,10,1.0,1.0,0
run-2020-2-18-11-24-12.329356908,AGENT#38897b98-5241-11ea-9ec8-c359b10b2d63,4,35,39,10,1.0,1.0,0
run-2020-2-18-11-24-12.329356908,AGENT#389b0b10-5241-11ea-a647-8fdf09a61e08,4,36,40,10,1.0,1.0,0
run-2020-2-18-11-24-12.329356908,AGENT#38c21368-5241-11ea-afff-eba649a9ff1a,2,38,40,10,1.0,1.0,0
run-2020-2-18-11-24-12.329356908,AGENT#38d4a000-5241-11ea-9b7e-83ad98a64be9,1,39,40,10,1.0,1.0,0
run-2020-2-18-11-24-12.329356908,AGENT#38c2161a-5241-11ea-b031-f3a2149179d1,3,38,41,10,1.0,1.0,0
run-2020-2-18-11-24-12.329356908,AGENT#38d49d8a-5241-11ea-b00b-a76331f3bf7d,2,39,41,10,1.0,1.0,0
run-2020-2-18-11-24-12.329356908,AGENT#38e61696-5241-11ea-b213-4f7f009c7302,1,40,41,10,1.0,1.0,0
run-2020-2-18-11-24-12.329356908,AGENT#38e618bc-5241-11ea-a701-2be0bbe64321,1,40,41,10,1.0,1.0,0
run-2020-2-18-11-24-12.329356908,AGENT#38e61d3a-5241-11ea-8a60-9f4feed3f1a5,1,40,41,10,1.0,1.0,0
run-2020-2-18-11-24-12.329356908,AGENT#3801c00e-5241-11ea-888a-83983801a24c,15,27,42,10,1.0,1.0,0
run-2020-2-18-11-24-12.329356908,AGENT#38f8e8ac-5241-11ea-a2c2-0f0ac8c50756,1,41,42,10,1.0,1.0,0
run-2020-2-18-11-24-12.329356908,AGENT#3856ac68-5241-11ea-af17-37068848ef8a,11,32,43,10,1.0,1.0,0
run-2020-2-18-11-24-12.329356908,AGENT#390b161c-5241-11ea-b022-b70a1711c831,1,42,43,10,1.0,1.0,0
run-2020-2-18-11-24-12.329356908,AGENT#38783db0-5241-11ea-a3df-43aed24b9cc7,10,34,44,10,1.0,1.0,0
run-2020-2-18-11-24-12.329356908,AGENT#38d4a244-5241-11ea-a02f-c78972d4239d,5,39,44,10,1.0,1.0,0
run-2020-2-18-11-24-12.329356908,AGENT#38e61466-5241-11ea-8c9b-fba89d3aa817,4,40,44,10,1.0,1.0,0
run-2020-2-18-11-24-12.329356908,AGENT#390b1ae0-5241-11ea-acc3-27bfc7f7ba1b,2,42,44,10,1.0,1.0,0
run-2020-2-18-11-24-12.329356908,AGENT#3620afe8-5241-11ea-931d-0b777e9bb4d4,45,0,45,10,1.0,1.0,0
run-2020-2-18-11-24-12.329356908,AGENT#3620f9e4-5241-11ea-879d-fbfcd4dc78d6,45,0,45,10,1.0,1.0,0
run-2020-2-18-11-24-12.329356908,AGENT#38e611e6-5241-11ea-bcf1-2fb001888e62,5,40,45,10,1.0,1.0,0
run-2020-2-18-11-24-12.329356908,AGENT#390b1892-5241-11ea-8ebc-3f6e1a8eeb5b,4,42,46,10,1.0,1.0,0
run-2020-2-18-11-24-12.329356908,AGENT#392f4ffa-5241-11ea-8b89-bfe3f75ef397,2,44,46,10,1.0,1.0,0
run-2020-2-18-11-24-12.329356908,AGENT#364e8d8c-5241-11ea-8f53-df70b0061664,45,2,47,10,1.0,1.0,0
run-2020-2-18-11-24-12.329356908,AGENT#38897954-5241-11ea-a513-97456f169169,12,35,47,10,1.0,1.0,0
run-2020-2-18-11-24-12.329356908,AGENT#3940c94c-5241-11ea-8ff1-a3d63211c6bf,2,45,47,10,1.0,1.0,0
run-2020-2-18-11-24-12.329356908,AGENT#3940cbc2-5241-11ea-9957-a7e85877f409,2,45,47,10,1.0,1.0,0
run-2020-2-18-11-24-12.329356908,AGENT#3940cde8-5241-11ea-b3f6-6b1407c7ca85,2,45,47,10,1.0,1.0,0
run-2020-2-18-11-24-12.329356908,AGENT#3801c4be-5241-11ea-bac6-03016a17c88a,21,27,48,10,1.0,1.0,0
run-2020-2-18-11-24-12.329356908,AGENT#3940d05e-5241-11ea-b887-3b489f40b812,3,45,48,10,1.0,1.0,0
run-2020-2-18-11-24-12.329356908,AGENT#3965172a-5241-11ea-874b-d32abee5bf89,1,47,48,10,1.0,1.0,0
run-2020-2-18-11-24-12.329356908,AGENT#3661f674-5241-11ea-9da6-f38dffe64e74,46,3,49,10,1.0,1.0,0
run-2020-2-18-11-24-12.329356908,AGENT#396519b4-5241-11ea-8445-9b74a9d9910f,2,47,49,10,1.0,1.0,0
run-2020-2-18-11-24-12.329356908,AGENT#39651be4-5241-11ea-9570-9b15d13e1664,2,47,49,10,1.0,1.0,0
run-2020-2-18-11-24-12.329356908,AGENT#39651e14-5241-11ea-838a-3718612868c2,2,47,49,10,1.0,1.0,0
run-2020-2-18-11-24-12.329356908,AGENT#39770926-5241-11ea-a8e1-f70d0d54ddfd,1,48,49,10,1.0,1.0,0
run-2020-2-18-11-24-12.329356908,AGENT#3725bb86-5241-11ea-b9b9-df97d494665b,36,14,50,10,1.0,1.0,0
run-2020-2-18-11-24-12.329356908,AGENT#398a178c-5241-11ea-86ad-6bc85db10e67,1,49,50,10,1.0,1.0,0
run-2020-2-18-11-24-12.329356908,AGENT#398a1e26-5241-11ea-984e-7f3bb0cd2748,1,49,50,10,1.0,1.0,0
run-2020-2-18-11-24-12.329356908,AGENT#36980d9a-5241-11ea-9bf7-fb66a5b9d9f9,45,6,51,10,1.0,1.0,0
run-2020-2-18-11-24-12.329356908,AGENT#398a1b1a-5241-11ea-bf17-f766167f7589,2,49,51,10,1.0,1.0,0
run-2020-2-18-11-24-12.329356908,AGENT#3698089a-5241-11ea-a49f-5707984d668c,46,6,52,10,1.0,1.0,0
run-2020-2-18-11-24-12.329356908,AGENT#36a951cc-5241-11ea-b248-475e348b3c70,45,7,52,10,1.0,1.0,0
run-2020-2-18-11-24-12.329356908,AGENT#38241960-5241-11ea-8153-57ca79a24ab3,23,29,52,10,1.0,1.0,0
run-2020-2-18-11-24-12.329356908,AGENT#399b8698-5241-11ea-8629-27de62106019,3,50,53,10,1.0,1.0,0
run-2020-2-18-11-24-12.329356908,AGENT#399b88fa-5241-11ea-b721-bf7ae58b8a20,3,50,53,10,1.0,1.0,0
run-2020-2-18-11-24-12.329356908,AGENT#39bf58fc-5241-11ea-91e6-cbf79db506c1,1,52,53,10,1.0,1.0,0
run-2020-2-18-11-24-12.329356908,AGENT#36bc42d2-5241-11ea-bba4-af9786de3a91,46,8,54,10,1.0,1.0,0
run-2020-2-18-11-24-12.329356908,AGENT#36cd4d2a-5241-11ea-a132-f3bcf8edf8a5,45,9,54,10,1.0,1.0,0
run-2020-2-18-11-24-12.329356908,AGENT#3811ec18-5241-11ea-a5d6-df7fbb40a3a9,27,28,55,10,1.0,1.0,0
run-2020-2-18-11-24-12.329356908,AGENT#36980ff2-5241-11ea-a5cb-5bd844f3b17c,50,6,56,10,1.0,1.0,0
run-2020-2-18-11-24-12.329356908,AGENT#36f0b760-5241-11ea-82c6-7b823c25e0b2,45,11,56,10,1.0,1.0,0
run-2020-2-18-11-24-12.329356908,AGENT#39f6fcd0-5241-11ea-bf12-97a43309f1a9,1,55,56,10,1.0,1.0,0
run-2020-2-18-11-24-12.329356908,AGENT#3701e788-5241-11ea-a740-9f855037b3fa,45,12,57,10,1.0,1.0,0
run-2020-2-18-11-24-12.329356908,AGENT#39bf5280-5241-11ea-b7cf-0b511fcb6fbb,5,52,57,10,1.0,1.0,0
run-2020-2-18-11-24-12.329356908,AGENT#39f7013a-5241-11ea-afad-8b80f3a25846,2,55,57,10,1.0,1.0,0
run-2020-2-18-11-24-12.329356908,AGENT#36bc4002-5241-11ea-98f3-a70020805aa6,50,8,58,10,1.0,1.0,0
run-2020-2-18-11-24-12.329356908,AGENT#39e42f38-5241-11ea-bc94-d3d6f026541f,4,54,58,10,1.0,1.0,0
run-2020-2-18-11-24-12.329356908,AGENT#3a1b6df4-5241-11ea-bcfd-7f636fbc7a60,1,57,58,10,1.0,1.0,0
run-2020-2-18-11-24-12.329356908,AGENT#3713f464-5241-11ea-957a-dfc76eed0679,46,13,59,10,1.0,1.0,0
run-2020-2-18-11-24-12.329356908,AGENT#3856aee8-5241-11ea-86f3-1f872a42b7c5,27,32,59,10,1.0,1.0,0
run-2020-2-18-11-24-12.329356908,AGENT#39f704f0-5241-11ea-8078-5b8cc0f56b21,4,55,59,10,1.0,1.0,0
run-2020-2-18-11-24-12.329356908,AGENT#39f708ce-5241-11ea-a08a-3f47d2ca522e,4,55,59,10,1.0,1.0,0
run-2020-2-18-11-24-12.329356908,AGENT#3a090222-5241-11ea-aaec-0fe7d19261ee,3,56,59,10,1.0,1.0,0
run-2020-2-18-11-24-12.329356908,AGENT#3735f0be-5241-11ea-8952-27426b110ad1,45,15,60,10,1.0,1.0,0
run-2020-2-18-11-24-12.329356908,AGENT#3735fbc2-5241-11ea-952b-f7a6b7468f0c,45,15,60,10,1.0,1.0,0
run-2020-2-18-11-24-12.329356908,AGENT#3a2d8bce-5241-11ea-8b58-cb7b0b529819,2,58,60,10,1.0,1.0,0
run-2020-2-18-11-24-12.329356908,AGENT#3a401244-5241-11ea-b65c-5f5c4b58a616,1,59,60,10,1.0,1.0,0
run-2020-2-18-11-24-12.329356908,AGENT#3759e974-5241-11ea-a54b-3716b98917d8,44,17,61,10,1.0,1.0,0
run-2020-2-18-11-24-12.329356908,AGENT#3a1b70ce-5241-11ea-a426-8babe0790118,4,57,61,10,1.0,1.0,0
run-2020-2-18-11-24-12.329356908,AGENT#3a4016e0-5241-11ea-aaa3-fb3b4b1b2936,2,59,61,10,1.0,1.0,0
run-2020-2-18-11-24-12.329356908,AGENT#3a51aea0-5241-11ea-83f5-7761e058aeef,1,60,61,10,1.0,1.0,0
run-2020-2-18-11-24-12.329356908,AGENT#376a1e7a-5241-11ea-8e19-474903915e0b,44,18,62,10,1.0,1.0,0
run-2020-2-18-11-24-12.329356908,AGENT#399b8440-5241-11ea-91bc-c36f8dad3e4d,12,50,62,10,1.0,1.0,0
run-2020-2-18-11-24-12.329356908,AGENT#3a6428fa-5241-11ea-984c-5b873aab3f28,1,61,62,10,1.0,1.0,0
run-2020-2-18-11-24-12.329356908,AGENT#3a401488-5241-11ea-ac5e-d32636df1502,4,59,63,10,1.0,1.0,0
run-2020-2-18-11-24-12.329356908,AGENT#3a642c1a-5241-11ea-88f7-63a94b0943e1,2,61,63,10,1.0,1.0,0
run-2020-2-18-11-24-12.329356908,AGENT#3a76663c-5241-11ea-9a32-f7e0164ab795,1,62,63,10,1.0,1.0,0
run-2020-2-18-11-24-12.329356908,AGENT#39e42c22-5241-11ea-aed2-3fdce5fb6cc3,10,54,64,10,1.0,1.0,0
run-2020-2-18-11-24-12.329356908,AGENT#3a40086c-5241-11ea-9125-bb08866a2e3e,5,59,64,10,1.0,1.0,0
run-2020-2-18-11-24-12.329356908,AGENT#3a400cfe-5241-11ea-8b73-4345074dec5e,5,59,64,10,1.0,1.0,0
run-2020-2-18-11-24-12.329356908,AGENT#3a766902-5241-11ea-9612-fb9c8fa7af5d,2,62,64,10,1.0,1.0,0
run-2020-2-18-11-24-12.329356908,AGENT#3a766ba0-5241-11ea-9b8d-cf4993ee7371,2,62,64,10,1.0,1.0,0
run-2020-2-18-11-24-12.329356908,AGENT#3a896bce-5241-11ea-afe8-076dd76bc3c0,1,63,64,10,1.0,1.0,0
run-2020-2-18-11-24-12.329356908,AGENT#377b4696-5241-11ea-8196-1b3b11c3839b,47,19,66,10,1.0,1.0,0
run-2020-2-18-11-24-12.329356908,AGENT#379cc000-5241-11ea-ac5a-73ecb0a651b2,45,21,66,10,1.0,1.0,0
run-2020-2-18-11-24-12.329356908,AGENT#38e61ae2-5241-11ea-b38e-5f5721eef719,26,40,66,10,1.0,1.0,0
run-2020-2-18-11-24-12.329356908,AGENT#3a766dee-5241-11ea-9459-3b4b26b73a17,4,62,66,10,1.0,1.0,0
run-2020-2-18-11-24-12.329356908,AGENT#3a9b5e10-5241-11ea-abe9-534f61525f6a,2,64,66,10,1.0,1.0,0
run-2020-2-18-11-24-12.329356908,AGENT#3aacc8ee-5241-11ea-839d-77bb76aaf9c8,1,65,66,10,1.0,1.0,0
run-2020-2-18-11-24-12.329356908,AGENT#379cc488-5241-11ea-b9b3-9b77476f7906,46,21,67,10,1.0,1.0,0
run-2020-2-18-11-24-12.329356908,AGENT#3a9b52d0-5241-11ea-97d5-ab221a92d72d,3,64,67,10,1.0,1.0,0
run-2020-2-18-11-24-12.329356908,AGENT#37bea1c0-5241-11ea-ac05-6710a8c8dd75,45,23,68,10,1.0,1.0,0
run-2020-2-18-11-24-12.329356908,AGENT#37beacf6-5241-11ea-a9bc-db83fcb615cd,45,23,68,10,1.0,1.0,0
run-2020-2-18-11-24-12.329356908,AGENT#3a9b59b0-5241-11ea-8be3-fbee64f1d83e,4,64,68,10,1.0,1.0,0
run-2020-2-18-11-24-12.329356908,AGENT#3abf1882-5241-11ea-a2c1-cf17eb8b0c09,2,66,68,10,1.0,1.0,0
run-2020-2-18-11-24-12.329356908,AGENT#3abf211a-5241-11ea-9829-7749fef74550,2,66,68,10,1.0,1.0,0
run-2020-2-18-11-24-12.329356908,AGENT#3abf25f2-5241-11ea-9d3a-8f8bb3e2dcf0,2,66,68,10,1.0,1.0,0
run-2020-2-18-11-24-12.329356908,AGENT#37cf54ac-5241-11ea-ad49-c7baf289a1ba,45,24,69,10,1.0,1.0,0
run-2020-2-18-11-24-12.329356908,AGENT#3a9b5bea-5241-11ea-89db-97fe1133a480,5,64,69,10,1.0,1.0,0
run-2020-2-18-11-24-12.329356908,AGENT#3aaccb78-5241-11ea-82ad-4766a9803b7b,5,65,70,10,1.0,1.0,0
run-2020-2-18-11-24-12.329356908,AGENT#3ae0fce0-5241-11ea-a862-9f87cf2768cc,2,68,70,10,1.0,1.0,0
run-2020-2-18-11-24-12.329356908,AGENT#3ae0ff4c-5241-11ea-8b28-c3e32f590fca,2,68,70,10,1.0,1.0,0
run-2020-2-18-11-24-12.329356908,AGENT#3ae103fc-5241-11ea-b93c-0f936ed77eb4,2,68,70,10,1.0,1.0,0
run-2020-2-18-11-24-12.329356908,AGENT#3af23db6-5241-11ea-843b-e75ae468d0bf,1,69,70,10,1.0,1.0,0
run-2020-2-18-11-24-12.329356908,AGENT#37e06d82-5241-11ea-8046-c74b030496d6,46,25,71,10,1.0,1.0,0
run-2020-2-18-11-24-12.329356908,AGENT#37e0702a-5241-11ea-a702-d704251fecd7,46,25,71,10,1.0,1.0,0
run-2020-2-18-11-24-12.329356908,AGENT#37f169c0-5241-11ea-b4fd-63cca3f143cb,45,26,71,10,1.0,1.0,0
run-2020-2-18-11-24-12.329356908,AGENT#3b05d024-5241-11ea-8d98-dfd896142e65,1,70,71,10,1.0,1.0,0
run-2020-2-18-11-24-12.329356908,AGENT#37e07296-5241-11ea-8270-6b6c50bb807e,47,25,72,10,1.0,1.0,0
run-2020-2-18-11-24-12.329356908,AGENT#37e07a16-5241-11ea-b07a-efcb2f2d18df,47,25,72,10,1.0,1.0,0
run-2020-2-18-11-24-12.329356908,AGENT#3af242b6-5241-11ea-8a33-83ea4d7a23c0,3,69,72,10,1.0,1.0,0
run-2020-2-18-11-24-12.329356908,AGENT#3b187a4e-5241-11ea-a36d-fb0d4788c355,1,71,72,10,1.0,1.0,0
run-2020-2-18-11-24-12.329356908,AGENT#3b18812e-5241-11ea-961f-9b8363ee04b6,1,71,72,10,1.0,1.0,0
run-2020-2-18-11-24-12.329356908,AGENT#37f1607e-5241-11ea-9b7b-0b6c9479ef64,47,26,73,10,1.0,1.0,0
run-2020-2-18-11-24-12.329356908,AGENT#3811f0b4-5241-11ea-b22d-6b4ec0b27a0b,45,28,73,10,1.0,1.0,0
run-2020-2-18-11-24-12.329356908,AGENT#3ae101ae-5241-11ea-907c-9332531dc6f8,5,68,73,10,1.0,1.0,0
run-2020-2-18-11-24-12.329356908,AGENT#3b2a9436-5241-11ea-9580-7f13b1f15f2e,1,72,73,10,1.0,1.0,0
run-2020-2-18-11-24-12.329356908,AGENT#3801c6ee-5241-11ea-9f44-1bd2d249c69c,47,27,74,10,1.0,1.0,0
run-2020-2-18-11-24-12.329356908,AGENT#3801c91e-5241-11ea-bf78-1f3b7ee01ef6,47,27,74,10,1.0,1.0,0
run-2020-2-18-11-24-12.329356908,AGENT#3b1870b2-5241-11ea-9ac4-57e43029ec9e,3,71,74,10,1.0,1.0,0
run-2020-2-18-11-24-12.329356908,AGENT#3b187800-5241-11ea-b2a3-332ab2c4a639,3,71,74,10,1.0,1.0,0
run-2020-2-18-11-24-12.329356908,AGENT#3b2a91ac-5241-11ea-b69b-f3732cb9b8a8,2,72,74,10,1.0,1.0,0
run-2020-2-18-11-24-12.329356908,AGENT#38241e6a-5241-11ea-83d3-b7b87247fe6f,46,29,75,10,1.0,1.0,0
run-2020-2-18-11-24-12.329356908,AGENT#3834d5ca-5241-11ea-be63-23925163325a,45,30,75,10,1.0,1.0,0
run-2020-2-18-11-24-12.329356908,AGENT#3834e510-5241-11ea-b2f9-07e7e166ecd5,45,30,75,10,1.0,1.0,0
run-2020-2-18-11-24-12.329356908,AGENT#3834d908-5241-11ea-b635-838e335aac0f,46,30,76,10,1.0,1.0,0
run-2020-2-18-11-24-12.329356908,AGENT#3b5f383a-5241-11ea-a1cc-3b2fea35c5cc,1,75,76,10,1.0,1.0,0
run-2020-2-18-11-24-12.329356908,AGENT#3b5f3b8c-5241-11ea-a0cb-83453301c21f,1,75,76,10,1.0,1.0,0
run-2020-2-18-11-24-12.329356908,AGENT#3a9b5546-5241-11ea-a91e-3b1df10a4d0f,13,64,77,10,1.0,1.0,0
run-2020-2-18-11-24-12.329356908,AGENT#3b2a9e0e-5241-11ea-a279-c3cc319f0e83,5,72,77,10,1.0,1.0,0
run-2020-2-18-11-24-12.329356908,AGENT#3b3bb022-5241-11ea-8b06-cff259e9b018,4,73,77,10,1.0,1.0,0
run-2020-2-18-11-24-12.329356908,AGENT#3b4d08c2-5241-11ea-bb43-4be8a612aaaf,3,74,77,10,1.0,1.0,0
run-2020-2-18-11-24-12.329356908,AGENT#3b71f0ec-5241-11ea-b66a-7fea7857fffc,1,76,77,10,1.0,1.0,0
run-2020-2-18-11-24-12.329356908,AGENT#3b71f330-5241-11ea-9e62-ab90ad10ff2a,1,76,77,10,1.0,1.0,0
run-2020-2-18-11-24-12.329356908,AGENT#38463ae0-5241-11ea-b685-d351c310e05d,47,31,78,10,1.0,1.0,0
run-2020-2-18-11-24-12.329356908,AGENT#3b3ba672-5241-11ea-b2f6-63efa70ec4f4,5,73,78,10,1.0,1.0,0
run-2020-2-18-11-24-12.329356908,AGENT#3b83ca92-5241-11ea-ab04-1b1842f334c8,1,77,78,10,1.0,1.0,0
run-2020-2-18-11-24-12.329356908,AGENT#38464224-5241-11ea-b7f4-3b5a3e348ff7,48,31,79,10,1.0,1.0,0
run-2020-2-18-11-24-12.329356908,AGENT#3b187c88-5241-11ea-9f1b-033a725e1829,8,71,79,10,1.0,1.0,0
run-2020-2-18-11-24-12.329356908,AGENT#3b96a7a2-5241-11ea-84ab-13b05258ce28,1,78,79,10,1.0,1.0,0
run-2020-2-18-11-24-12.329356908,AGENT#386765c6-5241-11ea-952c-23dba3db502a,47,33,80,10,1.0,1.0,0
run-2020-2-18-11-24-12.329356908,AGENT#3878395a-5241-11ea-95a9-87eae107d43a,46,34,80,10,1.0,1.0,0
run-2020-2-18-11-24-12.329356908,AGENT#3b5f3e84-5241-11ea-b69c-c718d5934f3b,5,75,80,10,1.0,1.0,0
run-2020-2-18-11-24-12.329356908,AGENT#3b71ee76-5241-11ea-ba1f-efdb6f8a9ee5,4,76,80,10,1.0,1.0,0
run-2020-2-18-11-24-12.329356908,AGENT#3b83d064-5241-11ea-8c77-5345dc1a4716,3,77,80,10,1.0,1.0,0
run-2020-2-18-11-24-12.329356908,AGENT#3b96af9a-5241-11ea-a244-0b0ca1b5ab08,2,78,80,10,1.0,1.0,0
run-2020-2-18-11-24-12.329356908,AGENT#3b4d0d90-5241-11ea-8b03-272696b7eb92,7,74,81,10,1.0,1.0,0
run-2020-2-18-11-24-12.329356908,AGENT#3b83d2c6-5241-11ea-bdc5-1bc3656bac83,4,77,81,10,1.0,1.0,0
run-2020-2-18-11-24-12.329356908,AGENT#3bbc559c-5241-11ea-9485-1febef23723f,1,80,81,10,1.0,1.0,0
run-2020-2-18-11-24-12.329356908,AGENT#3bbc5af6-5241-11ea-a05e-472080856321,1,80,81,10,1.0,1.0,0
run-2020-2-18-11-24-12.329356908,AGENT#3bbc5ff6-5241-11ea-aa2e-87c18b49d781,1,80,81,10,1.0,1.0,0
run-2020-2-18-11-24-12.329356908,AGENT#38ad6382-5241-11ea-9399-ab7f4fd26567,45,37,82,10,1.0,1.0,0
run-2020-2-18-11-24-12.329356908,AGENT#3b83cdd0-5241-11ea-b6e8-27df3b16401e,5,77,82,10,1.0,1.0,0
run-2020-2-18-11-24-12.329356908,AGENT#3b96aa7c-5241-11ea-8367-8b20ca097983,4,78,82,10,1.0,1.0,0
run-2020-2-18-11-24-12.329356908,AGENT#3bbc588a-5241-11ea-964d-cb79302c0f25,2,80,82,10,1.0,1.0,0
run-2020-2-18-11-24-12.329356908,AGENT#38ad663e-5241-11ea-9276-cb09682e4458,46,37,83,10,1.0,1.0,0
run-2020-2-18-11-24-12.329356908,AGENT#38c21066-5241-11ea-a8ab-9f4a767c4089,45,38,83,10,1.0,1.0,0
run-2020-2-18-11-24-12.329356908,AGENT#3b96ad10-5241-11ea-8a04-9ba517c2d1a9,5,78,83,10,1.0,1.0,0
run-2020-2-18-11-24-12.329356908,AGENT#3ba9e5ba-5241-11ea-a84d-93d6c98ca51b,4,79,83,10,1.0,1.0,0
run-2020-2-18-11-24-12.329356908,AGENT#3bcea8c8-5241-11ea-9a6d-8724c172d141,2,81,83,10,1.0,1.0,0
run-2020-2-18-11-24-12.329356908,AGENT#3be6b044-5241-11ea-8a6f-674d5a5c2e9d,1,82,83,10,1.0,1.0,0
run-2020-2-18-11-24-12.329356908,AGENT#3be6b30a-5241-11ea-853c-2fa75edf3b83,1,82,83,10,1.0,1.0,0
run-2020-2-18-11-24-12.329356908,AGENT#3ba9e2a4-5241-11ea-b255-735c1f970535,5,79,84,10,1.0,1.0,0
run-2020-2-18-11-24-12.329356908,AGENT#3be6ad42-5241-11ea-89f4-27f4e01ec281,2,82,84,10,1.0,1.0,0
run-2020-2-18-11-24-12.329356908,AGENT#3bf8f27c-5241-11ea-b503-3b92fac1a63f,1,83,84,10,1.0,1.0,0
run-2020-2-18-11-24-12.329356908,AGENT#3bf8fb6e-5241-11ea-9e26-ef0d88b056ca,1,83,84,10,1.0,1.0,0
run-2020-2-18-11-24-12.329356908,AGENT#391d782a-5241-11ea-a844-1b57e90d9181,42,43,85,10,1.0,1.0,0
run-2020-2-18-11-24-12.329356908,AGENT#3a2d8976-5241-11ea-8151-f3f753894fd8,27,58,85,10,1.0,1.0,0
run-2020-2-18-11-24-12.329356908,AGENT#3c0d198c-5241-11ea-9bf6-c7f444735c01,1,84,85,10,1.0,1.0,0
run-2020-2-18-11-24-12.329356908,AGENT#3c0d230a-5241-11ea-97fa-53e3e98f3eec,1,84,85,10,1.0,1.0,0
run-2020-2-18-11-24-12.329356908,AGENT#38f8ebd6-5241-11ea-945f-b30c2900422d,45,41,86,10,1.0,1.0,0
run-2020-2-18-11-24-12.329356908,AGENT#3bcea634-5241-11ea-a5c7-23b7dc4516b1,5,81,86,10,1.0,1.0,0
run-2020-2-18-11-24-12.329356908,AGENT#3bf8e836-5241-11ea-85cd-9f3a27fa949a,3,83,86,10,1.0,1.0,0
run-2020-2-18-11-24-12.329356908,AGENT#3bf8ec50-5241-11ea-bce9-2bb07ad879c4,3,83,86,10,1.0,1.0,0
run-2020-2-18-11-24-12.329356908,AGENT#3c0d1180-5241-11ea-b884-33c5ffde54e5,2,84,86,10,1.0,1.0,0
run-2020-2-18-11-24-12.329356908,AGENT#3bf8f4ac-5241-11ea-89ad-63ac8622e9ad,4,83,87,10,1.0,1.0,0
run-2020-2-18-11-24-12.329356908,AGENT#3c0d16f8-5241-11ea-bd75-2f00ba9b118c,3,84,87,10,1.0,1.0,0
run-2020-2-18-11-24-12.329356908,AGENT#3c1e969e-5241-11ea-8ab4-1f83126b990b,2,85,87,10,1.0,1.0,0
run-2020-2-18-11-24-12.329356908,AGENT#3c1e98f6-5241-11ea-ad87-232bf3e04652,2,85,87,10,1.0,1.0,0
run-2020-2-18-11-24-12.329356908,AGENT#391d7582-5241-11ea-9963-db44b19b7c0d,45,43,88,10,1.0,1.0,0
run-2020-2-18-11-24-12.329356908,AGENT#3a767032-5241-11ea-8771-afdf3ef05781,26,62,88,10,1.0,1.0,0
run-2020-2-18-11-24-12.329356908,AGENT#3c1e940a-5241-11ea-af44-3fb541b0ead0,3,85,88,10,1.0,1.0,0
run-2020-2-18-11-24-12.329356908,AGENT#3c1e9b44-5241-11ea-9574-f37e027602d2,3,85,88,10,1.0,1.0,0
run-2020-2-18-11-24-12.329356908,AGENT#3c420d54-5241-11ea-8e09-938fdb093aa4,1,87,88,10,1.0,1.0,0
run-2020-2-18-11-24-12.329356908,AGENT#392f5298-5241-11ea-84bc-33fa1978f04b,45,44,89,10,1.0,1.0,0
run-2020-2-18-11-24-12.329356908,AGENT#39770642-5241-11ea-982a-dff6dad3a6ba,41,48,89,10,1.0,1.0,0
run-2020-2-18-11-24-12.329356908,AGENT#3c1e8ed8-5241-11ea-aab7-4372ca892f86,4,85,89,10,1.0,1.0,0
run-2020-2-18-11-24-12.329356908,AGENT#3c1e91a8-5241-11ea-b830-5b3c9fba02d0,4,85,89,10,1.0,1.0,0
run-2020-2-18-11-24-12.329356908,AGENT#3c2f804e-5241-11ea-890c-eb1e5990624e,3,86,89,10,1.0,1.0,0
run-2020-2-18-11-24-12.329356908,AGENT#3c54a8d8-5241-11ea-8e48-7b23a6282b10,1,88,89,10,1.0,1.0,0
run-2020-2-18-11-24-12.329356908,AGENT#389b0fc0-5241-11ea-8505-fb8997aa544c,54,36,90,10,1.0,1.0,0
run-2020-2-18-11-24-12.329356908,AGENT#399b81ca-5241-11ea-9603-bb8e5b4ab8d0,40,50,90,10,1.0,1.0,0
run-2020-2-18-11-24-12.329356908,AGENT#3c54a284-5241-11ea-bbfe-6798518003cd,2,88,90,10,1.0,1.0,0
run-2020-2-18-11-24-12.329356908,AGENT#395321f0-5241-11ea-b448-57218370f67a,45,46,91,10,1.0,1.0,0
run-2020-2-18-11-24-12.329356908,AGENT#3c54ae32-5241-11ea-8ad1-e7c90d42862e,3,88,91,10,1.0,1.0,0
run-2020-2-18-11-24-12.329356908,AGENT#3b3bb612-5241-11ea-a083-a7e50f830c59,19,73,92,10,1.0,1.0,0
run-2020-2-18-11-24-12.329356908,AGENT#3c54a5d6-5241-11ea-8e8d-db4ea41f5d8e,4,88,92,10,1.0,1.0,0
run-2020-2-18-11-24-12.329356908,AGENT#3c790106-5241-11ea-a892-0b77f6170192,2,90,92,10,1.0,1.0,0
run-2020-2-18-11-24-12.329356908,AGENT#3c79034a-5241-11ea-b8be-2fe21a99d76b,2,90,92,10,1.0,1.0,0
run-2020-2-18-11-24-12.329356908,AGENT#3c54abe4-5241-11ea-a4f3-bfa881fc490d,5,88,93,10,1.0,1.0,0
run-2020-2-18-11-24-12.329356908,AGENT#3c66443a-5241-11ea-888a-a38434ce8407,4,89,93,10,1.0,1.0,0
run-2020-2-18-11-24-12.329356908,AGENT#3c78f7ec-5241-11ea-98fb-ab8e37dfb370,3,90,93,10,1.0,1.0,0
run-2020-2-18-11-24-12.329356908,AGENT#3c78fa9e-5241-11ea-a190-938bc0a1df55,3,90,93,10,1.0,1.0,0
run-2020-2-18-11-24-12.329356908,AGENT#38f8e55a-5241-11ea-8f5e-c36abe9e544a,53,41,94,10,1.0,1.0,0
run-2020-2-18-11-24-12.329356908,AGENT#3b1875b2-5241-11ea-b284-4b6e8e548049,23,71,94,10,1.0,1.0,0
run-2020-2-18-11-24-12.329356908,AGENT#3c8b8fe2-5241-11ea-8647-57eb5bb4be1b,3,91,94,10,1.0,1.0,0
run-2020-2-18-11-24-12.329356908,AGENT#3c9d90e8-5241-11ea-90d4-036d5bec16e7,2,92,94,10,1.0,1.0,0
run-2020-2-18-11-24-12.329356908,AGENT#3caf4a18-5241-11ea-b2e9-8b170325ff89,1,93,94,10,1.0,1.0,0
run-2020-2-18-11-24-12.329356908,AGENT#398a213c-5241-11ea-8cf7-7b406643b053,46,49,95,10,1.0,1.0,0
run-2020-2-18-11-24-12.329356908,AGENT#3c78fef4-5241-11ea-a9c3-97ab4464c4c3,5,90,95,10,1.0,1.0,0
run-2020-2-18-11-24-12.329356908,AGENT#3c8b9212-5241-11ea-a418-b307446f50a7,4,91,95,10,1.0,1.0,0
run-2020-2-18-11-24-12.329356908,AGENT#3caf475c-5241-11ea-ae19-ab27c683a482,2,93,95,10,1.0,1.0,0
run-2020-2-18-11-24-12.329356908,AGENT#3caf4ca2-5241-11ea-9f4f-479d35ffeb72,2,93,95,10,1.0,1.0,0
run-2020-2-18-11-24-12.329356908,AGENT#3caf5152-5241-11ea-b302-6788229bedd0,2,93,95,10,1.0,1.0,0
run-2020-2-18-11-24-12.329356908,AGENT#3caf5396-5241-11ea-8986-1f4eb8025303,2,93,95,10,1.0,1.0,0
run-2020-2-18-11-24-12.329356908,AGENT#399b8b3e-5241-11ea-a3bf-df0319c5e3e5,46,50,96,10,1.0,1.0,0
run-2020-2-18-11-24-12.329356908,AGENT#3cd23370-5241-11ea-abe3-bf2e5ab4e7be,1,95,96,10,1.0,1.0,0
run-2020-2-18-11-24-12.329356908,AGENT#39bf55e6-5241-11ea-a150-9beef47f99f7,45,52,97,10,1.0,1.0,0
run-2020-2-18-11-24-12.329356908,AGENT#3a0906fa-5241-11ea-935f-8f5ddfb214ef,41,56,97,10,1.0,1.0,0
run-2020-2-18-11-24-12.329356908,AGENT#3b3bacf8-5241-11ea-bc68-b768f82b3078,24,73,97,10,1.0,1.0,0
run-2020-2-18-11-24-12.329356908,AGENT#3cd230f0-5241-11ea-b3d9-4f9d6f40a6b9,2,95,97,10,1.0,1.0,0
run-2020-2-18-11-24-12.329356908,AGENT#3ce3fc36-5241-11ea-a9bf-27386748d57b,2,96,98,10,1.0,1.0,0
run-2020-2-18-11-24-12.329356908,AGENT#3cf66718-5241-11ea-9904-dfa4b7a13da2,2,97,99,10,1.0,1.0,0
run-2020-2-18-11-24-12.329356908,AGENT#3cf669e8-5241-11ea-9542-3be14e836e9c,2,97,99,10,1.0,1.0,0
