RunID,Agent,Age,Created,Inactive,Resources,Reputation,Ability,Que
run-2020-2-18-16-41-18.549022912,AGENT#7d6c96e2-526d-11ea-925b-5b6d289c82cb,0,0,0,10,1.0,1.0,0
run-2020-2-18-16-41-18.549022912,AGENT#7d6cade4-526d-11ea-9c6e-5fcce13ebf97,0,0,0,10,1.0,1.0,0
run-2020-2-18-16-41-18.549022912,AGENT#7d6c8800-526d-11ea-b8e1-3bb8eb7d43e9,1,0,1,10,1.0,1.0,0
run-2020-2-18-16-41-18.549022912,AGENT#7d6c8c4c-526d-11ea-b2c6-df96ae862aef,1,0,1,10,1.0,1.0,0
run-2020-2-18-16-41-18.549022912,AGENT#7d6c9dd6-526d-11ea-a7e1-0348594b6e1b,1,0,1,10,1.0,1.0,0
run-2020-2-18-16-41-18.549022912,AGENT#7d6cfb78-526d-11ea-bcf7-d3a1ada75cfb,1,0,1,10,1.0,1.0,0
run-2020-2-18-16-41-18.549022912,AGENT#7d6d058c-526d-11ea-aaab-135a427f5a34,1,0,1,10,1.0,1.0,0
run-2020-2-18-16-41-18.549022912,AGENT#7d6d08ca-526d-11ea-b6a9-5fd38e329721,1,0,1,10,1.0,1.0,0
run-2020-2-18-16-41-18.549022912,AGENT#7d6d0c08-526d-11ea-b0a1-cbee8c48318f,1,0,1,10,1.0,1.0,0
run-2020-2-18-16-41-18.549022912,AGENT#7d6cfed4-526d-11ea-a44b-e31ccd50f8d2,3,0,3,10,1.0,1.0,0
run-2020-2-18-16-41-18.549022912,AGENT#7d6c8fda-526d-11ea-be13-830c35a46743,4,0,4,10,1.0,1.0,0
run-2020-2-18-16-41-18.549022912,AGENT#7d6c9354-526d-11ea-95d3-bf43f2e1321d,4,0,4,10,1.0,1.0,0
run-2020-2-18-16-41-18.549022912,AGENT#7d6cb1c2-526d-11ea-b1a5-7f959cf13b00,4,0,4,10,1.0,1.0,0
run-2020-2-18-16-41-18.549022912,AGENT#7d6cb50a-526d-11ea-83e6-3f0aba864a64,4,0,4,10,1.0,1.0,0
run-2020-2-18-16-41-18.549022912,AGENT#7d87539c-526d-11ea-97d8-9b87c7bb20dc,1,3,4,10,1.0,1.0,0
run-2020-2-18-16-41-18.549022912,AGENT#7d875950-526d-11ea-adab-3b63b3e3aa52,1,3,4,10,1.0,1.0,0
run-2020-2-18-16-41-18.549022912,AGENT#7d86f424-526d-11ea-bfb2-ffec8981d26c,3,2,5,10,1.0,1.0,0
run-2020-2-18-16-41-18.549022912,AGENT#7d875eb4-526d-11ea-9f52-5b5fc75aac47,2,3,5,10,1.0,1.0,0
run-2020-2-18-16-41-18.549022912,AGENT#7d82e032-526d-11ea-ac06-d7e0ec1b5435,5,1,6,10,1.0,1.0,0
run-2020-2-18-16-41-18.549022912,AGENT#7d86f10e-526d-11ea-a20a-2f8e7dd75576,4,2,6,10,1.0,1.0,0
run-2020-2-18-16-41-18.549022912,AGENT#7d87615c-526d-11ea-b54f-fb7282c00232,3,3,6,10,1.0,1.0,0
run-2020-2-18-16-41-18.549022912,AGENT#7d884202-526d-11ea-8de2-b7e24e5e7805,1,5,6,10,1.0,1.0,0
run-2020-2-18-16-41-18.549022912,AGENT#7d884496-526d-11ea-9ea8-8327c0ee295d,1,5,6,10,1.0,1.0,0
run-2020-2-18-16-41-18.549022912,AGENT#7d88c024-526d-11ea-a7e5-bbab80092993,1,6,7,10,1.0,1.0,0
run-2020-2-18-16-41-18.549022912,AGENT#7d88c59c-526d-11ea-bbdc-6f355346f4da,1,6,7,10,1.0,1.0,0
run-2020-2-18-16-41-18.549022912,AGENT#7d883f14-526d-11ea-8b40-8bdbc670e598,3,5,8,10,1.0,1.0,0
run-2020-2-18-16-41-18.549022912,AGENT#7d88ba8e-526d-11ea-a941-6b0e58ea113f,2,6,8,10,1.0,1.0,0
run-2020-2-18-16-41-18.549022912,AGENT#7d88c2e0-526d-11ea-b274-7fe3363806fe,2,6,8,10,1.0,1.0,0
run-2020-2-18-16-41-18.549022912,AGENT#7d893f90-526d-11ea-a1be-636ce2f2fe84,1,7,8,10,1.0,1.0,0
run-2020-2-18-16-41-18.549022912,AGENT#7d894274-526d-11ea-b0db-7bf1201be6b4,1,7,8,10,1.0,1.0,0
run-2020-2-18-16-41-18.549022912,AGENT#7d894b16-526d-11ea-8040-5b7ae1899e33,3,7,10,10,1.0,1.0,0
run-2020-2-18-16-41-18.549022912,AGENT#7d89d220-526d-11ea-bcfb-b79498735a84,2,8,10,10,1.0,1.0,0
run-2020-2-18-16-41-18.549022912,AGENT#7d89d5ea-526d-11ea-b951-4b3bb3b6fab8,2,8,10,10,1.0,1.0,0
run-2020-2-18-16-41-18.549022912,AGENT#7d89dec8-526d-11ea-9e8e-0bce13592261,2,8,10,10,1.0,1.0,0
run-2020-2-18-16-41-18.549022912,AGENT#7d89481e-526d-11ea-b179-4be7f94353bd,4,7,11,10,1.0,1.0,0
run-2020-2-18-16-41-18.549022912,AGENT#7d8a95b6-526d-11ea-9c78-e7e1d74879b1,2,9,11,10,1.0,1.0,0
run-2020-2-18-16-41-18.549022912,AGENT#7d8a9c64-526d-11ea-98cb-179c2ef0d8bc,2,9,11,10,1.0,1.0,0
run-2020-2-18-16-41-18.549022912,AGENT#7d8ac680-526d-11ea-a7f0-8385266df3f2,2,9,11,10,1.0,1.0,0
run-2020-2-18-16-41-18.549022912,AGENT#7d8ad224-526d-11ea-8c2e-0f673fa99033,2,9,11,10,1.0,1.0,0
run-2020-2-18-16-41-18.549022912,AGENT#7d8b75c6-526d-11ea-9889-cbe667013374,1,10,11,10,1.0,1.0,0
run-2020-2-18-16-41-18.549022912,AGENT#7d8a9958-526d-11ea-8143-730169c2d1a1,3,9,12,10,1.0,1.0,0
run-2020-2-18-16-41-18.549022912,AGENT#7d8a9f70-526d-11ea-8c02-7755650777f7,3,9,12,10,1.0,1.0,0
run-2020-2-18-16-41-18.549022912,AGENT#7d8acc70-526d-11ea-ba52-37d1f2976060,3,9,12,10,1.0,1.0,0
run-2020-2-18-16-41-18.549022912,AGENT#7d8c0a2c-526d-11ea-a02c-a37b4df89652,1,11,12,10,1.0,1.0,0
run-2020-2-18-16-41-18.549022912,AGENT#7d8c2f48-526d-11ea-a593-8f0f7b7e12ee,1,11,12,10,1.0,1.0,0
run-2020-2-18-16-41-18.549022912,AGENT#7d8c13b4-526d-11ea-a6e7-7b9f98223930,2,11,13,10,1.0,1.0,0
run-2020-2-18-16-41-18.549022912,AGENT#7d8849a0-526d-11ea-8b4b-9f35e24cd7e3,9,5,14,10,1.0,1.0,0
run-2020-2-18-16-41-18.549022912,AGENT#7d8c0de2-526d-11ea-80e0-d7b252c37794,3,11,14,10,1.0,1.0,0
run-2020-2-18-16-41-18.549022912,AGENT#7d8c1684-526d-11ea-8017-0f4d7238760d,3,11,14,10,1.0,1.0,0
run-2020-2-18-16-41-18.549022912,AGENT#7d8c1dbe-526d-11ea-85ec-2fa3508a4294,3,11,14,10,1.0,1.0,0
run-2020-2-18-16-41-18.549022912,AGENT#7d8d25e2-526d-11ea-bb43-d3a91c368fe7,2,12,14,10,1.0,1.0,0
run-2020-2-18-16-41-18.549022912,AGENT#7d8d2b46-526d-11ea-84e7-d394d785847c,2,12,14,10,1.0,1.0,0
run-2020-2-18-16-41-18.549022912,AGENT#7d8df5e4-526d-11ea-b1e3-a7ac008a0fa0,1,13,14,10,1.0,1.0,0
run-2020-2-18-16-41-18.549022912,AGENT#7d8df922-526d-11ea-9493-c76004c9bce6,1,13,14,10,1.0,1.0,0
run-2020-2-18-16-41-18.549022912,AGENT#7d8df2ba-526d-11ea-8a83-2be0bb51759e,2,13,15,10,1.0,1.0,0
run-2020-2-18-16-41-18.549022912,AGENT#7d8c195e-526d-11ea-af61-c7a2c8145c8f,5,11,16,10,1.0,1.0,0
run-2020-2-18-16-41-18.549022912,AGENT#7d8d306e-526d-11ea-b4b5-6fe1c49da58f,5,12,17,10,1.0,1.0,0
run-2020-2-18-16-41-18.549022912,AGENT#7d8def0e-526d-11ea-8650-33a4ed5b9ca4,4,13,17,10,1.0,1.0,0
run-2020-2-18-16-41-18.549022912,AGENT#7d8dff3a-526d-11ea-a83d-ab4aad3ce411,4,13,17,10,1.0,1.0,0
run-2020-2-18-16-41-18.549022912,AGENT#7d908700-526d-11ea-b7b4-fb9b6ed366d7,1,16,17,10,1.0,1.0,0
run-2020-2-18-16-41-18.549022912,AGENT#7d89e198-526d-11ea-a22d-cb6410abde35,10,8,18,10,1.0,1.0,0
run-2020-2-18-16-41-18.549022912,AGENT#7d908b24-526d-11ea-a9c1-efd5339bd8a2,2,16,18,10,1.0,1.0,0
run-2020-2-18-16-41-18.549022912,AGENT#7d8ed356-526d-11ea-84df-1fa20c091469,5,14,19,10,1.0,1.0,0
run-2020-2-18-16-41-18.549022912,AGENT#7d8f9070-526d-11ea-a2bc-c325085d57d0,4,15,19,10,1.0,1.0,0
run-2020-2-18-16-41-18.549022912,AGENT#7d909218-526d-11ea-8512-ebdcd361a1ac,3,16,19,10,1.0,1.0,0
run-2020-2-18-16-41-18.549022912,AGENT#7d8ac978-526d-11ea-8801-17ed643463d2,11,9,20,10,1.0,1.0,0
run-2020-2-18-16-41-18.549022912,AGENT#7d8dfc10-526d-11ea-89d6-bf97d586ae80,7,13,20,10,1.0,1.0,0
run-2020-2-18-16-41-18.549022912,AGENT#7d9143c0-526d-11ea-aaca-73dee429cdbf,3,17,20,10,1.0,1.0,0
run-2020-2-18-16-41-18.549022912,AGENT#7d936254-526d-11ea-8ce7-13c6f728d24f,1,19,20,10,1.0,1.0,0
run-2020-2-18-16-41-18.549022912,AGENT#7d913fd8-526d-11ea-9fd7-77cbaa452f65,4,17,21,10,1.0,1.0,0
run-2020-2-18-16-41-18.549022912,AGENT#7d914730-526d-11ea-84f2-937e0c0a4c4d,4,17,21,10,1.0,1.0,0
run-2020-2-18-16-41-18.549022912,AGENT#7d914a64-526d-11ea-94ab-67394f718d37,4,17,21,10,1.0,1.0,0
run-2020-2-18-16-41-18.549022912,AGENT#7d927128-526d-11ea-9d6b-abba673a8a30,3,18,21,10,1.0,1.0,0
run-2020-2-18-16-41-18.549022912,AGENT#7d941d66-526d-11ea-98f3-ebb40f8b17c3,1,20,21,10,1.0,1.0,0
run-2020-2-18-16-41-18.549022912,AGENT#7d942464-526d-11ea-8e7f-eb26e6f07080,1,20,21,10,1.0,1.0,0
run-2020-2-18-16-41-18.549022912,AGENT#7d942af4-526d-11ea-8751-7728cd3084b2,1,20,21,10,1.0,1.0,0
run-2020-2-18-16-41-18.549022912,AGENT#7d94278e-526d-11ea-a2de-7fcb7becda6f,2,20,22,10,1.0,1.0,0
run-2020-2-18-16-41-18.549022912,AGENT#7d954060-526d-11ea-a4d2-ebed955762f1,1,21,22,10,1.0,1.0,0
run-2020-2-18-16-41-18.549022912,AGENT#7d95438a-526d-11ea-a03e-4f0b5c92a3ed,1,21,22,10,1.0,1.0,0
run-2020-2-18-16-41-18.549022912,AGENT#7d8f8ae4-526d-11ea-b6ab-b7f589bc7703,8,15,23,10,1.0,1.0,0
run-2020-2-18-16-41-18.549022912,AGENT#7d942e28-526d-11ea-a497-67b8d20a5a9b,3,20,23,10,1.0,1.0,0
run-2020-2-18-16-41-18.549022912,AGENT#7d97acc4-526d-11ea-9807-bf3b786b6dd6,1,22,23,10,1.0,1.0,0
run-2020-2-18-16-41-18.549022912,AGENT#7d97b3c2-526d-11ea-9896-2320d96f4cbb,1,22,23,10,1.0,1.0,0
run-2020-2-18-16-41-18.549022912,AGENT#7d893c34-526d-11ea-8c4b-8756a6e66048,17,7,24,10,1.0,1.0,0
run-2020-2-18-16-41-18.549022912,AGENT#7d953d54-526d-11ea-aff5-a373f401ad01,3,21,24,10,1.0,1.0,0
run-2020-2-18-16-41-18.549022912,AGENT#7d97b07a-526d-11ea-b0bc-0fd8d3b942c6,2,22,24,10,1.0,1.0,0
run-2020-2-18-16-41-18.549022912,AGENT#7d986f60-526d-11ea-8372-e7700d45d5ff,1,23,24,10,1.0,1.0,0
run-2020-2-18-16-41-18.549022912,AGENT#7d943148-526d-11ea-99fe-2f9bcedacbbc,5,20,25,10,1.0,1.0,0
run-2020-2-18-16-41-18.549022912,AGENT#7d99538a-526d-11ea-be53-f75600ea4fad,1,24,25,10,1.0,1.0,0
run-2020-2-18-16-41-18.549022912,AGENT#7d953a20-526d-11ea-8325-2f708f1beab4,5,21,26,10,1.0,1.0,0
run-2020-2-18-16-41-18.549022912,AGENT#7d99fc7c-526d-11ea-a59f-cfbaf132e6cb,1,25,26,10,1.0,1.0,0
run-2020-2-18-16-41-18.549022912,AGENT#7d97b700-526d-11ea-bb14-e334a754be67,5,22,27,10,1.0,1.0,0
run-2020-2-18-16-41-18.549022912,AGENT#7d98767c-526d-11ea-81a7-178eaddb8e7d,4,23,27,10,1.0,1.0,0
run-2020-2-18-16-41-18.549022912,AGENT#7d9aaa96-526d-11ea-8f46-47001d53ecd9,1,26,27,10,1.0,1.0,0
run-2020-2-18-16-41-18.549022912,AGENT#7d89454e-526d-11ea-ad84-c3b868cdd6fc,21,7,28,10,1.0,1.0,0
run-2020-2-18-16-41-18.549022912,AGENT#7d9aa79e-526d-11ea-8a89-a325a91b752f,2,26,28,10,1.0,1.0,0
run-2020-2-18-16-41-18.549022912,AGENT#7d9aa08c-526d-11ea-9fcc-f32cb4f62299,3,26,29,10,1.0,1.0,0
run-2020-2-18-16-41-18.549022912,AGENT#7d9c5f58-526d-11ea-a43c-9f3a2b2f34c8,1,28,29,10,1.0,1.0,0
run-2020-2-18-16-41-18.549022912,AGENT#7d89e472-526d-11ea-8b13-072ef9662879,22,8,30,10,1.0,1.0,0
run-2020-2-18-16-41-18.549022912,AGENT#7d9c58e6-526d-11ea-bd62-1f5c2bfe13d0,2,28,30,10,1.0,1.0,0
run-2020-2-18-16-41-18.549022912,AGENT#7d9b694a-526d-11ea-97ea-d76d16a4feb2,4,27,31,10,1.0,1.0,0
run-2020-2-18-16-41-18.549022912,AGENT#7d9b7be2-526d-11ea-aec3-ff82f0577a9d,4,27,31,10,1.0,1.0,0
run-2020-2-18-16-41-18.549022912,AGENT#7d9c6566-526d-11ea-b03d-d3cdc080bbf1,3,28,31,10,1.0,1.0,0
run-2020-2-18-16-41-18.549022912,AGENT#7d9e2770-526d-11ea-b01e-43c22c185a5e,1,30,31,10,1.0,1.0,0
run-2020-2-18-16-41-18.549022912,AGENT#7d9e2ac2-526d-11ea-bfee-17784183b0ad,1,30,31,10,1.0,1.0,0
run-2020-2-18-16-41-18.549022912,AGENT#7d9aa47e-526d-11ea-bbef-9fd55991c930,6,26,32,10,1.0,1.0,0
run-2020-2-18-16-41-18.549022912,AGENT#7d9b72fa-526d-11ea-b96e-57dbc6431b79,5,27,32,10,1.0,1.0,0
run-2020-2-18-16-41-18.549022912,AGENT#7d9d27c6-526d-11ea-8978-0b4328de681b,3,29,32,10,1.0,1.0,0
run-2020-2-18-16-41-18.549022912,AGENT#7d9d2b22-526d-11ea-9a37-17bed6dbd70a,3,29,32,10,1.0,1.0,0
run-2020-2-18-16-41-18.549022912,AGENT#7d9d3414-526d-11ea-b918-3344030ff401,3,29,32,10,1.0,1.0,0
run-2020-2-18-16-41-18.549022912,AGENT#7d9c5c06-526d-11ea-ac64-13e5fc8720da,5,28,33,10,1.0,1.0,0
run-2020-2-18-16-41-18.549022912,AGENT#7d9d3720-526d-11ea-90c1-47aeb574fef5,4,29,33,10,1.0,1.0,0
run-2020-2-18-16-41-18.549022912,AGENT#7d9d3a04-526d-11ea-910a-1f532a693663,4,29,33,10,1.0,1.0,0
run-2020-2-18-16-41-18.549022912,AGENT#7d9d2e56-526d-11ea-8762-f3a6d6c50953,5,29,34,10,1.0,1.0,0
run-2020-2-18-16-41-18.549022912,AGENT#7d9e2dba-526d-11ea-9194-3f463b3b5c58,4,30,34,10,1.0,1.0,0
run-2020-2-18-16-41-18.549022912,AGENT#7d9fd728-526d-11ea-9002-ab353c8826a8,2,32,34,10,1.0,1.0,0
run-2020-2-18-16-41-18.549022912,AGENT#7da0a8ec-526d-11ea-aa2d-479ff3b31922,1,33,34,10,1.0,1.0,0
run-2020-2-18-16-41-18.549022912,AGENT#7da1784e-526d-11ea-9465-57dda16e6f24,1,34,35,10,1.0,1.0,0
run-2020-2-18-16-41-18.549022912,AGENT#7d9f0abe-526d-11ea-8723-9b06b52707d9,5,31,36,10,1.0,1.0,0
run-2020-2-18-16-41-18.549022912,AGENT#7da0a5a4-526d-11ea-a6b6-ff6a8782c869,3,33,36,10,1.0,1.0,0
run-2020-2-18-16-41-18.549022912,AGENT#7da17592-526d-11ea-b9b6-1734fb915e8c,2,34,36,10,1.0,1.0,0
run-2020-2-18-16-41-18.549022912,AGENT#7da17b0a-526d-11ea-8c8a-23b57d0bfd13,2,34,36,10,1.0,1.0,0
run-2020-2-18-16-41-18.549022912,AGENT#7da17de4-526d-11ea-8259-9f288a0c5e9c,2,34,36,10,1.0,1.0,0
run-2020-2-18-16-41-18.549022912,AGENT#7da0abbc-526d-11ea-9593-83f3020761ed,4,33,37,10,1.0,1.0,0
run-2020-2-18-16-41-18.549022912,AGENT#7da250b6-526d-11ea-b570-cfcedf437e48,2,35,37,10,1.0,1.0,0
run-2020-2-18-16-41-18.549022912,AGENT#7da31d34-526d-11ea-9c53-3bce113e1c3e,1,36,37,10,1.0,1.0,0
run-2020-2-18-16-41-18.549022912,AGENT#7d9c626e-526d-11ea-9cea-572c8ee12f33,10,28,38,10,1.0,1.0,0
run-2020-2-18-16-41-18.549022912,AGENT#7da319b0-526d-11ea-baf2-53324db5aca7,2,36,38,10,1.0,1.0,0
run-2020-2-18-16-41-18.549022912,AGENT#7da3d814-526d-11ea-a91a-6b8fa5d55252,1,37,38,10,1.0,1.0,0
run-2020-2-18-16-41-18.549022912,AGENT#7da485e8-526d-11ea-bdad-03d84ef5dac5,1,38,39,10,1.0,1.0,0
run-2020-2-18-16-41-18.549022912,AGENT#7da488ae-526d-11ea-9f18-83806fbdb495,1,38,39,10,1.0,1.0,0
run-2020-2-18-16-41-18.549022912,AGENT#7da253fe-526d-11ea-aa68-ffeccd09fe56,5,35,40,10,1.0,1.0,0
run-2020-2-18-16-41-18.549022912,AGENT#7da4807a-526d-11ea-b6e3-1b4deafb2ab5,2,38,40,10,1.0,1.0,0
run-2020-2-18-16-41-18.549022912,AGENT#7da53204-526d-11ea-bdfe-d3632a502aa7,1,39,40,10,1.0,1.0,0
run-2020-2-18-16-41-18.549022912,AGENT#7da32004-526d-11ea-8d02-6ba77f9847d2,5,36,41,10,1.0,1.0,0
run-2020-2-18-16-41-18.549022912,AGENT#7da5fad6-526d-11ea-a26d-a3507dc86ce9,2,40,42,10,1.0,1.0,0
run-2020-2-18-16-41-18.549022912,AGENT#7da6d7ee-526d-11ea-a757-97b2e8b11d65,1,41,42,10,1.0,1.0,0
run-2020-2-18-16-41-18.549022912,AGENT#7da6d23a-526d-11ea-880f-37d37decbcf0,3,41,44,10,1.0,1.0,0
run-2020-2-18-16-41-18.549022912,AGENT#7da796c0-526d-11ea-b7ef-ebb887fed86f,2,42,44,10,1.0,1.0,0
run-2020-2-18-16-41-18.549022912,AGENT#7da79a58-526d-11ea-ada0-9709f72c78ea,2,42,44,10,1.0,1.0,0
run-2020-2-18-16-41-18.549022912,AGENT#7da84746-526d-11ea-b114-47864c4ef7ff,1,43,44,10,1.0,1.0,0
run-2020-2-18-16-41-18.549022912,AGENT#7da84caa-526d-11ea-a2bf-27c9a180d9cc,1,43,44,10,1.0,1.0,0
run-2020-2-18-16-41-18.549022912,AGENT#7d9b75f2-526d-11ea-97e8-23ad44c7cb07,18,27,45,10,1.0,1.0,0
run-2020-2-18-16-41-18.549022912,AGENT#7da6004e-526d-11ea-857c-839c2d6b2ab6,5,40,45,10,1.0,1.0,0
run-2020-2-18-16-41-18.549022912,AGENT#7da9175c-526d-11ea-867f-5f50bfaf3fa3,1,44,45,10,1.0,1.0,0
run-2020-2-18-16-41-18.549022912,AGENT#7d82dd76-526d-11ea-bc5c-a38581380ae7,45,1,46,10,1.0,1.0,0
run-2020-2-18-16-41-18.549022912,AGENT#7d82e2a8-526d-11ea-802b-0767d52f2fd5,45,1,46,10,1.0,1.0,0
run-2020-2-18-16-41-18.549022912,AGENT#7da85196-526d-11ea-b07b-efefb0cf93c3,3,43,46,10,1.0,1.0,0
run-2020-2-18-16-41-18.549022912,AGENT#7da91cb6-526d-11ea-b048-9b755779e0c7,2,44,46,10,1.0,1.0,0
run-2020-2-18-16-41-18.549022912,AGENT#7da9e560-526d-11ea-8518-bf9d9fab88e0,1,45,46,10,1.0,1.0,0
run-2020-2-18-16-41-18.549022912,AGENT#7d6d024e-526d-11ea-973d-7bedc9b551d9,47,0,47,10,1.0,1.0,0
run-2020-2-18-16-41-18.549022912,AGENT#7da9d8fe-526d-11ea-bc3f-bfc273fe67b7,2,45,47,10,1.0,1.0,0
run-2020-2-18-16-41-18.549022912,AGENT#7d6d0f82-526d-11ea-a15f-c7179401927b,48,0,48,10,1.0,1.0,0
run-2020-2-18-16-41-18.549022912,AGENT#7da9d2be-526d-11ea-83af-975dd87c5de9,3,45,48,10,1.0,1.0,0
run-2020-2-18-16-41-18.549022912,AGENT#7da9dd68-526d-11ea-aa9d-efd526e81bc6,3,45,48,10,1.0,1.0,0
run-2020-2-18-16-41-18.549022912,AGENT#7da9e2cc-526d-11ea-a7ab-9fcb21be2f09,3,45,48,10,1.0,1.0,0
run-2020-2-18-16-41-18.549022912,AGENT#7dab93ce-526d-11ea-ae3f-fb88627b1e1e,1,47,48,10,1.0,1.0,0
run-2020-2-18-16-41-18.549022912,AGENT#7d6ca70e-526d-11ea-891d-e7131d69da93,49,0,49,10,1.0,1.0,0
run-2020-2-18-16-41-18.549022912,AGENT#7d884716-526d-11ea-9931-6b2bf0291f43,44,5,49,10,1.0,1.0,0
run-2020-2-18-16-41-18.549022912,AGENT#7da9e038-526d-11ea-8088-ffd664f45a40,5,45,50,10,1.0,1.0,0
run-2020-2-18-16-41-18.549022912,AGENT#7dac74ba-526d-11ea-9eae-130dd2b4b7b8,2,48,50,10,1.0,1.0,0
run-2020-2-18-16-41-18.549022912,AGENT#7dad6064-526d-11ea-b8b2-bff6837033be,1,49,50,10,1.0,1.0,0
run-2020-2-18-16-41-18.549022912,AGENT#7d875c16-526d-11ea-9c18-8b34daf2b4b1,48,3,51,10,1.0,1.0,0
run-2020-2-18-16-41-18.549022912,AGENT#7d88bd7c-526d-11ea-9072-b76de1d64db4,45,6,51,10,1.0,1.0,0
run-2020-2-18-16-41-18.549022912,AGENT#7dab995a-526d-11ea-8a5a-07369af2f3d4,4,47,51,10,1.0,1.0,0
run-2020-2-18-16-41-18.549022912,AGENT#7d82e51e-526d-11ea-a6a9-d77b69e62be5,51,1,52,10,1.0,1.0,0
run-2020-2-18-16-41-18.549022912,AGENT#7d87d808-526d-11ea-b0c6-93f1c5b2cc44,48,4,52,10,1.0,1.0,0
run-2020-2-18-16-41-18.549022912,AGENT#7dab969e-526d-11ea-acbd-9b450bec8964,5,47,52,10,1.0,1.0,0
run-2020-2-18-16-41-18.549022912,AGENT#7d894e04-526d-11ea-9c69-f30391704c70,46,7,53,10,1.0,1.0,0
run-2020-2-18-16-41-18.549022912,AGENT#7d99f740-526d-11ea-ad96-d7c5a0255ab7,28,25,53,10,1.0,1.0,0
run-2020-2-18-16-41-18.549022912,AGENT#7d9c51fc-526d-11ea-87b8-1b256e7a977b,25,28,53,10,1.0,1.0,0
run-2020-2-18-16-41-18.549022912,AGENT#7dac717c-526d-11ea-ac10-3f9d4b09228c,5,48,53,10,1.0,1.0,0
run-2020-2-18-16-41-18.549022912,AGENT#7db09a0e-526d-11ea-88f2-63ee89d76173,1,52,53,10,1.0,1.0,0
run-2020-2-18-16-41-18.549022912,AGENT#7d89d900-526d-11ea-b660-3b00aa84de03,46,8,54,10,1.0,1.0,0
run-2020-2-18-16-41-18.549022912,AGENT#7d8acf4a-526d-11ea-b93f-1ba01ea5e96e,45,9,54,10,1.0,1.0,0
run-2020-2-18-16-41-18.549022912,AGENT#7dad570e-526d-11ea-bebe-67d81ae713c4,5,49,54,10,1.0,1.0,0
run-2020-2-18-16-41-18.549022912,AGENT#7dad5ace-526d-11ea-bf26-a7fb7eda53e4,5,49,54,10,1.0,1.0,0
run-2020-2-18-16-41-18.549022912,AGENT#7daea762-526d-11ea-a592-af986cfac981,4,50,54,10,1.0,1.0,0
run-2020-2-18-16-41-18.549022912,AGENT#7db18842-526d-11ea-92c7-0bb389a5ad1d,1,53,54,10,1.0,1.0,0
run-2020-2-18-16-41-18.549022912,AGENT#7d89dbe4-526d-11ea-9b00-17dbdb0b57ad,47,8,55,10,1.0,1.0,0
run-2020-2-18-16-41-18.549022912,AGENT#7db17b90-526d-11ea-9a45-fb9206a37f88,2,53,55,10,1.0,1.0,0
run-2020-2-18-16-41-18.549022912,AGENT#7db28756-526d-11ea-8244-07e5398143c6,1,54,55,10,1.0,1.0,0
run-2020-2-18-16-41-18.549022912,AGENT#7d9fcf94-526d-11ea-9713-374a870dd101,24,32,56,10,1.0,1.0,0
run-2020-2-18-16-41-18.549022912,AGENT#7d8ac34c-526d-11ea-a974-6f2f4962a27f,48,9,57,10,1.0,1.0,0
run-2020-2-18-16-41-18.549022912,AGENT#7d8c10d0-526d-11ea-9523-77301e95b694,46,11,57,10,1.0,1.0,0
run-2020-2-18-16-41-18.549022912,AGENT#7db45478-526d-11ea-bce2-7b8dfa37cbf6,1,56,57,10,1.0,1.0,0
run-2020-2-18-16-41-18.549022912,AGENT#7db45a40-526d-11ea-aac7-575e024ddb10,1,56,57,10,1.0,1.0,0
run-2020-2-18-16-41-18.549022912,AGENT#7db45db0-526d-11ea-b07a-9b9c53181f7f,1,56,57,10,1.0,1.0,0
run-2020-2-18-16-41-18.549022912,AGENT#7db543e2-526d-11ea-9201-fbd4bd6261dd,1,57,58,10,1.0,1.0,0
run-2020-2-18-16-41-18.549022912,AGENT#7db28490-526d-11ea-8578-5bd5c73ca3ef,5,54,59,10,1.0,1.0,0
run-2020-2-18-16-41-18.549022912,AGENT#7db37616-526d-11ea-8e8e-77781352b8a6,5,55,60,10,1.0,1.0,0
run-2020-2-18-16-41-18.549022912,AGENT#7d908e80-526d-11ea-877f-17113b251d3a,45,16,61,10,1.0,1.0,0
run-2020-2-18-16-41-18.549022912,AGENT#7d9b6cf6-526d-11ea-b480-57696068ae31,34,27,61,10,1.0,1.0,0
run-2020-2-18-16-41-18.549022912,AGENT#7db549fa-526d-11ea-8848-7f21bf59bd25,4,57,61,10,1.0,1.0,0
run-2020-2-18-16-41-18.549022912,AGENT#7db7bfaa-526d-11ea-b122-8f8019f8fe6d,1,60,61,10,1.0,1.0,0
run-2020-2-18-16-41-18.549022912,AGENT#7da3d512-526d-11ea-8b6a-5fc504bd4ed4,25,37,62,10,1.0,1.0,0
run-2020-2-18-16-41-18.549022912,AGENT#7db613bc-526d-11ea-a710-db3fb04d583a,4,58,62,10,1.0,1.0,0
run-2020-2-18-16-41-18.549022912,AGENT#7db7ba32-526d-11ea-b856-6be4777ff828,2,60,62,10,1.0,1.0,0
run-2020-2-18-16-41-18.549022912,AGENT#7db8d1c4-526d-11ea-af74-c776e89176d4,1,61,62,10,1.0,1.0,0
run-2020-2-18-16-41-18.549022912,AGENT#7d926b1a-526d-11ea-837f-b706e9aab388,45,18,63,10,1.0,1.0,0
run-2020-2-18-16-41-18.549022912,AGENT#7d9c6836-526d-11ea-bcb7-7bf09e5d1056,35,28,63,10,1.0,1.0,0
run-2020-2-18-16-41-18.549022912,AGENT#7d8f7eb4-526d-11ea-b8f7-13b37b6ce168,49,15,64,10,1.0,1.0,0
run-2020-2-18-16-41-18.549022912,AGENT#7db6e170-526d-11ea-9dfc-17a412a5bf0f,5,59,64,10,1.0,1.0,0
run-2020-2-18-16-41-18.549022912,AGENT#7db8d78c-526d-11ea-b551-aba3f6a48bfc,3,61,64,10,1.0,1.0,0
run-2020-2-18-16-41-18.549022912,AGENT#7dba94fa-526d-11ea-8ae3-5365a56ad3ff,1,63,64,10,1.0,1.0,0
run-2020-2-18-16-41-18.549022912,AGENT#7dba9a04-526d-11ea-8af2-0fc6acd3d93b,1,63,64,10,1.0,1.0,0
run-2020-2-18-16-41-18.549022912,AGENT#7dba91ee-526d-11ea-8499-4705703e2846,2,63,65,10,1.0,1.0,0
run-2020-2-18-16-41-18.549022912,AGENT#7dba9c70-526d-11ea-8093-4b03e076ade4,2,63,65,10,1.0,1.0,0
run-2020-2-18-16-41-18.549022912,AGENT#7dbb8888-526d-11ea-8551-9766615583e3,1,64,65,10,1.0,1.0,0
run-2020-2-18-16-41-18.549022912,AGENT#7d93666e-526d-11ea-b8d7-3f53af03b52c,47,19,66,10,1.0,1.0,0
run-2020-2-18-16-41-18.549022912,AGENT#7d942126-526d-11ea-85e5-0b50389bc669,46,20,66,10,1.0,1.0,0
run-2020-2-18-16-41-18.549022912,AGENT#7d9546a0-526d-11ea-8753-27709071e1cc,45,21,66,10,1.0,1.0,0
run-2020-2-18-16-41-18.549022912,AGENT#7dba8d8e-526d-11ea-a8bc-17da06e0a2a5,3,63,66,10,1.0,1.0,0
run-2020-2-18-16-41-18.549022912,AGENT#7dba978e-526d-11ea-8556-3f6dd049b870,3,63,66,10,1.0,1.0,0
run-2020-2-18-16-41-18.549022912,AGENT#7d9369d4-526d-11ea-9eca-0f34690261de,48,19,67,10,1.0,1.0,0
run-2020-2-18-16-41-18.549022912,AGENT#7dbb8072-526d-11ea-a7a9-ebd556c73ed7,3,64,67,10,1.0,1.0,0
run-2020-2-18-16-41-18.549022912,AGENT#7dbd613a-526d-11ea-b637-5788fc6d1d48,1,66,67,10,1.0,1.0,0
run-2020-2-18-16-41-18.549022912,AGENT#7d9879ce-526d-11ea-ba09-e708677761fc,45,23,68,10,1.0,1.0,0
run-2020-2-18-16-41-18.549022912,AGENT#7dbb836a-526d-11ea-a59a-e783ff8f14b1,4,64,68,10,1.0,1.0,0
run-2020-2-18-16-41-18.549022912,AGENT#7dbb85f4-526d-11ea-b90f-07b122b54c4a,4,64,68,10,1.0,1.0,0
run-2020-2-18-16-41-18.549022912,AGENT#7dbb8b1c-526d-11ea-93df-b71dbebd3e0f,4,64,68,10,1.0,1.0,0
run-2020-2-18-16-41-18.549022912,AGENT#7dbd5ea6-526d-11ea-bf58-83ffa73bd911,2,66,68,10,1.0,1.0,0
run-2020-2-18-16-41-18.549022912,AGENT#7dbd68ce-526d-11ea-a838-d73337ef6ba3,2,66,68,10,1.0,1.0,0
run-2020-2-18-16-41-18.549022912,AGENT#7dbe9fe6-526d-11ea-87c2-7767c48280d3,1,67,68,10,1.0,1.0,0
run-2020-2-18-16-41-18.549022912,AGENT#7d953624-526d-11ea-8ca3-774575bc6a67,48,21,69,10,1.0,1.0,0
run-2020-2-18-16-41-18.549022912,AGENT#7d98732a-526d-11ea-beaa-9f96a5929a0d,46,23,69,10,1.0,1.0,0
run-2020-2-18-16-41-18.549022912,AGENT#7dbd63c4-526d-11ea-a215-d72c490ccccf,3,66,69,10,1.0,1.0,0
run-2020-2-18-16-41-18.549022912,AGENT#7dbea360-526d-11ea-91b1-6b151bde1d05,2,67,69,10,1.0,1.0,0
run-2020-2-18-16-41-18.549022912,AGENT#7db2812a-526d-11ea-a31a-f3b4bea73e76,16,54,70,10,1.0,1.0,0
run-2020-2-18-16-41-18.549022912,AGENT#7dbd70b2-526d-11ea-a1e2-4b4baf474dc1,4,66,70,10,1.0,1.0,0
run-2020-2-18-16-41-18.549022912,AGENT#7dc0e5bc-526d-11ea-ad98-e7a2b9d3d944,1,69,70,10,1.0,1.0,0
run-2020-2-18-16-41-18.549022912,AGENT#7dab9c2a-526d-11ea-b328-dfb7bdf26398,24,47,71,10,1.0,1.0,0
run-2020-2-18-16-41-18.549022912,AGENT#7dbd5b5e-526d-11ea-921c-778a209038b7,5,66,71,10,1.0,1.0,0
run-2020-2-18-16-41-18.549022912,AGENT#7dc1edcc-526d-11ea-aee1-b7a8b091b428,1,70,71,10,1.0,1.0,0
run-2020-2-18-16-41-18.549022912,AGENT#7d9a01cc-526d-11ea-bba1-f3c3a5603419,47,25,72,10,1.0,1.0,0
run-2020-2-18-16-41-18.549022912,AGENT#7d9b6ff8-526d-11ea-a155-3b88bdbab9af,45,27,72,10,1.0,1.0,0
run-2020-2-18-16-41-18.549022912,AGENT#7dc0e2ce-526d-11ea-93af-47012d7e7fb5,3,69,72,10,1.0,1.0,0
run-2020-2-18-16-41-18.549022912,AGENT#7dc30496-526d-11ea-ae4b-178fb1f9a6c9,1,71,72,10,1.0,1.0,0
run-2020-2-18-16-41-18.549022912,AGENT#7dc30a18-526d-11ea-af3b-efcea3c1118c,1,71,72,10,1.0,1.0,0
run-2020-2-18-16-41-18.549022912,AGENT#7d9b7908-526d-11ea-bcc2-73acd0a5bcfb,46,27,73,10,1.0,1.0,0
run-2020-2-18-16-41-18.549022912,AGENT#7d9c55bc-526d-11ea-8958-9f03638d06bd,45,28,73,10,1.0,1.0,0
run-2020-2-18-16-41-18.549022912,AGENT#7dc1f3f8-526d-11ea-b26a-3b9a09ae29b4,3,70,73,10,1.0,1.0,0
run-2020-2-18-16-41-18.549022912,AGENT#7dc1f6b4-526d-11ea-b9af-6784f3d814b6,3,70,73,10,1.0,1.0,0
run-2020-2-18-16-41-18.549022912,AGENT#7dc1f966-526d-11ea-9c68-ab7d91a1e256,3,70,73,10,1.0,1.0,0
run-2020-2-18-16-41-18.549022912,AGENT#7d9d3144-526d-11ea-9eaa-432c8dc7b833,45,29,74,10,1.0,1.0,0
run-2020-2-18-16-41-18.549022912,AGENT#7dc0dcca-526d-11ea-ad20-1706da91bd79,5,69,74,10,1.0,1.0,0
run-2020-2-18-16-41-18.549022912,AGENT#7dc0dfc2-526d-11ea-b0d4-1394b8aefbdb,5,69,74,10,1.0,1.0,0
run-2020-2-18-16-41-18.549022912,AGENT#7dc64746-526d-11ea-9a06-ff1df7130ec3,1,74,75,10,1.0,1.0,0
run-2020-2-18-16-41-18.549022912,AGENT#7d9e30b2-526d-11ea-a4b7-cf54ab2ed108,46,30,76,10,1.0,1.0,0
run-2020-2-18-16-41-18.549022912,AGENT#7dc42330-526d-11ea-888d-4b4621a969ec,4,72,76,10,1.0,1.0,0
run-2020-2-18-16-41-18.549022912,AGENT#7dc537e8-526d-11ea-9c21-7b08fdb5b38a,4,73,77,10,1.0,1.0,0
run-2020-2-18-16-41-18.549022912,AGENT#7dc53f5e-526d-11ea-8594-07b330c7030d,4,73,77,10,1.0,1.0,0
run-2020-2-18-16-41-18.549022912,AGENT#7dc64ade-526d-11ea-a60e-2feb57e8bc4d,3,74,77,10,1.0,1.0,0
run-2020-2-18-16-41-18.549022912,AGENT#7dc85612-526d-11ea-a83b-ef2d2e1bac91,1,76,77,10,1.0,1.0,0
run-2020-2-18-16-41-18.549022912,AGENT#7dc85964-526d-11ea-b654-474c73a7f346,1,76,77,10,1.0,1.0,0
run-2020-2-18-16-41-18.549022912,AGENT#7dc85c02-526d-11ea-9afb-e326558736b8,1,76,77,10,1.0,1.0,0
run-2020-2-18-16-41-18.549022912,AGENT#7d9fca80-526d-11ea-8e58-6374d70df797,46,32,78,10,1.0,1.0,0
run-2020-2-18-16-41-18.549022912,AGENT#7dc85e8c-526d-11ea-9f6c-a78eed439deb,2,76,78,10,1.0,1.0,0
run-2020-2-18-16-41-18.549022912,AGENT#7dc95472-526d-11ea-8577-8b48b69bd06f,2,77,79,10,1.0,1.0,0
run-2020-2-18-16-41-18.549022912,AGENT#7dc9518e-526d-11ea-b1b2-f370e5032ac3,3,77,80,10,1.0,1.0,0
run-2020-2-18-16-41-18.549022912,AGENT#7dcc96be-526d-11ea-bae0-73b4227fdf72,1,80,81,10,1.0,1.0,0
run-2020-2-18-16-41-18.549022912,AGENT#7da17272-526d-11ea-a424-13f10a87c627,48,34,82,10,1.0,1.0,0
run-2020-2-18-16-41-18.549022912,AGENT#7dca38b0-526d-11ea-bc3b-97627f6149ad,4,78,82,10,1.0,1.0,0
run-2020-2-18-16-41-18.549022912,AGENT#7da48354-526d-11ea-aeda-eb027f30a0c3,45,38,83,10,1.0,1.0,0
run-2020-2-18-16-41-18.549022912,AGENT#7dcf3996-526d-11ea-a876-ef388b7d5f5e,1,82,83,10,1.0,1.0,0
run-2020-2-18-16-41-18.549022912,AGENT#7daea0f0-526d-11ea-8cdc-5fbc5ee08358,34,50,84,10,1.0,1.0,0
run-2020-2-18-16-41-18.549022912,AGENT#7dcb610e-526d-11ea-a4d6-039b06c594da,5,79,84,10,1.0,1.0,0
run-2020-2-18-16-41-18.549022912,AGENT#7dcf45bc-526d-11ea-ae7d-03c3efae0557,2,82,84,10,1.0,1.0,0
run-2020-2-18-16-41-18.549022912,AGENT#7dcf32b6-526d-11ea-9b3e-53b77e8237f9,3,82,85,10,1.0,1.0,0
run-2020-2-18-16-41-18.549022912,AGENT#7dcf366c-526d-11ea-997a-077aafa35aa4,3,82,85,10,1.0,1.0,0
run-2020-2-18-16-41-18.549022912,AGENT#7dcf42c4-526d-11ea-9517-7b9556454f7b,3,82,85,10,1.0,1.0,0
run-2020-2-18-16-41-18.549022912,AGENT#7da6da64-526d-11ea-b756-3f3d0583dac6,45,41,86,10,1.0,1.0,0
run-2020-2-18-16-41-18.549022912,AGENT#7dd1f118-526d-11ea-bfef-6f83a7ab5434,2,84,86,10,1.0,1.0,0
run-2020-2-18-16-41-18.549022912,AGENT#7dd1f4b0-526d-11ea-a9c6-47206535ba88,2,84,86,10,1.0,1.0,0
run-2020-2-18-16-41-18.549022912,AGENT#7da6d55a-526d-11ea-beb1-739ad32cead5,46,41,87,10,1.0,1.0,0
run-2020-2-18-16-41-18.549022912,AGENT#7dcf3fcc-526d-11ea-beb7-2ba1c694dfd3,5,82,87,10,1.0,1.0,0
run-2020-2-18-16-41-18.549022912,AGENT#7dd36cd2-526d-11ea-a0dd-4300211319b6,2,85,87,10,1.0,1.0,0
run-2020-2-18-16-41-18.549022912,AGENT#7da84a0c-526d-11ea-bdad-6bc642224453,45,43,88,10,1.0,1.0,0
run-2020-2-18-16-41-18.549022912,AGENT#7da84f20-526d-11ea-8d76-a3d08f82b6bc,45,43,88,10,1.0,1.0,0
run-2020-2-18-16-41-18.549022912,AGENT#7dd0acfe-526d-11ea-8c5b-1bb5d4938e59,5,83,88,10,1.0,1.0,0
run-2020-2-18-16-41-18.549022912,AGENT#7dd5b726-526d-11ea-a364-73520392eee1,1,87,88,10,1.0,1.0,0
run-2020-2-18-16-41-18.549022912,AGENT#7da91a40-526d-11ea-945d-cbf4932c7ff0,45,44,89,10,1.0,1.0,0
run-2020-2-18-16-41-18.549022912,AGENT#7dd1f7da-526d-11ea-8f8a-6b934ff455d6,5,84,89,10,1.0,1.0,0
run-2020-2-18-16-41-18.549022912,AGENT#7dd6ede4-526d-11ea-b1bc-afa388d9a0a5,1,88,89,10,1.0,1.0,0
run-2020-2-18-16-41-18.549022912,AGENT#7dd6e4f2-526d-11ea-9608-f3e6cf6b02f1,2,88,90,10,1.0,1.0,0
run-2020-2-18-16-41-18.549022912,AGENT#7dca3b76-526d-11ea-be2c-2313022f6554,13,78,91,10,1.0,1.0,0
run-2020-2-18-16-41-18.549022912,AGENT#7dd5b37a-526d-11ea-b4f6-63421ac0eab3,4,87,91,10,1.0,1.0,0
run-2020-2-18-16-41-18.549022912,AGENT#7dd82830-526d-11ea-966f-2f0a03d65207,2,89,91,10,1.0,1.0,0
run-2020-2-18-16-41-18.549022912,AGENT#7dd82b8c-526d-11ea-9e1c-277ba649a0f8,2,89,91,10,1.0,1.0,0
run-2020-2-18-16-41-18.549022912,AGENT#7dd973a2-526d-11ea-8eac-971a4fe2e570,1,90,91,10,1.0,1.0,0
run-2020-2-18-16-41-18.549022912,AGENT#7dab907c-526d-11ea-9506-f70b637308c9,45,47,92,10,1.0,1.0,0
run-2020-2-18-16-41-18.549022912,AGENT#7dd6eb0a-526d-11ea-9864-5b153e24ada3,4,88,92,10,1.0,1.0,0
run-2020-2-18-16-41-18.549022912,AGENT#7dd6f0aa-526d-11ea-9d92-0bac6589dee2,4,88,92,10,1.0,1.0,0
run-2020-2-18-16-41-18.549022912,AGENT#7dd82ed4-526d-11ea-9d82-c74cc7cf4249,3,89,92,10,1.0,1.0,0
run-2020-2-18-16-41-18.549022912,AGENT#7dd96d80-526d-11ea-9e0d-1399afa79595,2,90,92,10,1.0,1.0,0
run-2020-2-18-16-41-18.549022912,AGENT#7dd97a8c-526d-11ea-b1ed-d7f5574b3cda,2,90,92,10,1.0,1.0,0
run-2020-2-18-16-41-18.549022912,AGENT#7dd97ee2-526d-11ea-b120-5f864075bb03,2,90,92,10,1.0,1.0,0
run-2020-2-18-16-41-18.549022912,AGENT#7ddab9ce-526d-11ea-a75d-b74963be1224,1,91,92,10,1.0,1.0,0
run-2020-2-18-16-41-18.549022912,AGENT#7dd831a4-526d-11ea-bf51-3f7fc31d5986,4,89,93,10,1.0,1.0,0
run-2020-2-18-16-41-18.549022912,AGENT#7dd970dc-526d-11ea-afb9-230e70a09440,3,90,93,10,1.0,1.0,0
run-2020-2-18-16-41-18.549022912,AGENT#7ddab37a-526d-11ea-b835-1f67c45ba0e7,2,91,93,10,1.0,1.0,0
run-2020-2-18-16-41-18.549022912,AGENT#7ddbe7c2-526d-11ea-a677-83e949d587dc,1,92,93,10,1.0,1.0,0
run-2020-2-18-16-41-18.549022912,AGENT#7dd83474-526d-11ea-ab30-9b8bb08609ff,5,89,94,10,1.0,1.0,0
run-2020-2-18-16-41-18.549022912,AGENT#7dad5d9e-526d-11ea-a773-1760a51f1168,46,49,95,10,1.0,1.0,0
run-2020-2-18-16-41-18.549022912,AGENT#7daea492-526d-11ea-bfbc-5b323aafa86b,45,50,95,10,1.0,1.0,0
run-2020-2-18-16-41-18.549022912,AGENT#7db60dea-526d-11ea-bb49-37528862a91d,37,58,95,10,1.0,1.0,0
run-2020-2-18-16-41-18.549022912,AGENT#7dd98342-526d-11ea-953f-b78ce52e861c,5,90,95,10,1.0,1.0,0
run-2020-2-18-16-41-18.549022912,AGENT#7ddab6e0-526d-11ea-92a6-97ff3c745228,4,91,95,10,1.0,1.0,0
run-2020-2-18-16-41-18.549022912,AGENT#7ddd088c-526d-11ea-9df6-df64149a2ea0,2,93,95,10,1.0,1.0,0
run-2020-2-18-16-41-18.549022912,AGENT#7ddd0bf2-526d-11ea-b8ea-13eb6df3923f,2,93,95,10,1.0,1.0,0
run-2020-2-18-16-41-18.549022912,AGENT#7daeaa82-526d-11ea-b0b0-87b8e147b384,46,50,96,10,1.0,1.0,0
run-2020-2-18-16-41-18.549022912,AGENT#7dafbe72-526d-11ea-80f6-2b2433148714,45,51,96,10,1.0,1.0,0
run-2020-2-18-16-41-18.549022912,AGENT#7db46080-526d-11ea-86c3-47775134c36a,40,56,96,10,1.0,1.0,0
run-2020-2-18-16-41-18.549022912,AGENT#7db9bcce-526d-11ea-ad93-fbdc62501e45,34,62,96,10,1.0,1.0,0
run-2020-2-18-16-41-18.549022912,AGENT#7dde267c-526d-11ea-accb-eb58cf74fde4,2,94,96,10,1.0,1.0,0
run-2020-2-18-16-41-18.549022912,AGENT#7db096c6-526d-11ea-8b29-2bff1e4ac42e,45,52,97,10,1.0,1.0,0
run-2020-2-18-16-41-18.549022912,AGENT#7db372d8-526d-11ea-ac40-abc503e680a1,42,55,97,10,1.0,1.0,0
run-2020-2-18-16-41-18.549022912,AGENT#7dde2c3a-526d-11ea-8820-6b6cf47aed99,3,94,97,10,1.0,1.0,0
run-2020-2-18-16-41-18.549022912,AGENT#7db17eba-526d-11ea-ba56-2b2d853e7fea,45,53,98,10,1.0,1.0,0
run-2020-2-18-16-41-18.549022912,AGENT#7dc74312-526d-11ea-8144-839e1c023db4,23,75,98,10,1.0,1.0,0
run-2020-2-18-16-41-18.549022912,AGENT#7ddbdf52-526d-11ea-90e8-43b4829a0a84,6,92,98,10,1.0,1.0,0
run-2020-2-18-16-41-18.549022912,AGENT#7ddf5a10-526d-11ea-94e9-ff77bcbbc979,3,95,98,10,1.0,1.0,0
run-2020-2-18-16-41-18.549022912,AGENT#7de06fe0-526d-11ea-83db-1f0a416a17b1,2,96,98,10,1.0,1.0,0
run-2020-2-18-16-41-18.549022912,AGENT#7de0724c-526d-11ea-b453-0fc7b39c4ca6,2,96,98,10,1.0,1.0,0
