RunID,Tick,AllAgents,Active,Inactive
run-2020-2-18-16-41-18.549022912,0,17,15,2
run-2020-2-18-16-41-18.549022912,1,21,12,9
run-2020-2-18-16-41-18.549022912,2,23,14,9
run-2020-2-18-16-41-18.549022912,3,28,18,10
run-2020-2-18-16-41-18.549022912,4,29,13,16
run-2020-2-18-16-41-18.549022912,5,34,16,18
run-2020-2-18-16-41-18.549022912,6,39,16,23
run-2020-2-18-16-41-18.549022912,7,46,21,25
run-2020-2-18-16-41-18.549022912,8,53,23,30
run-2020-2-18-16-41-18.549022912,9,63,33,30
run-2020-2-18-16-41-18.549022912,10,64,30,34
run-2020-2-18-16-41-18.549022912,11,72,32,40
run-2020-2-18-16-41-18.549022912,12,75,30,45
run-2020-2-18-16-41-18.549022912,13,81,35,46
run-2020-2-18-16-41-18.549022912,14,82,28,54
run-2020-2-18-16-41-18.549022912,15,85,30,55
run-2020-2-18-16-41-18.549022912,16,89,33,56
run-2020-2-18-16-41-18.549022912,17,93,33,60
run-2020-2-18-16-41-18.549022912,18,95,33,62
run-2020-2-18-16-41-18.549022912,19,98,33,65
run-2020-2-18-16-41-18.549022912,20,105,36,69
run-2020-2-18-16-41-18.549022912,21,111,35,76
run-2020-2-18-16-41-18.549022912,22,115,36,79
run-2020-2-18-16-41-18.549022912,23,119,36,83
run-2020-2-18-16-41-18.549022912,24,120,33,87
run-2020-2-18-16-41-18.549022912,25,123,34,89
run-2020-2-18-16-41-18.549022912,26,127,36,91
run-2020-2-18-16-41-18.549022912,27,134,40,94
run-2020-2-18-16-41-18.549022912,28,142,46,96
run-2020-2-18-16-41-18.549022912,29,149,51,98
run-2020-2-18-16-41-18.549022912,30,153,53,100
run-2020-2-18-16-41-18.549022912,31,154,49,105
run-2020-2-18-16-41-18.549022912,32,157,47,110
run-2020-2-18-16-41-18.549022912,33,160,47,113
run-2020-2-18-16-41-18.549022912,34,165,48,117
run-2020-2-18-16-41-18.549022912,35,167,49,118
run-2020-2-18-16-41-18.549022912,36,170,47,123
run-2020-2-18-16-41-18.549022912,37,172,46,126
run-2020-2-18-16-41-18.549022912,38,176,47,129
run-2020-2-18-16-41-18.549022912,39,177,46,131
run-2020-2-18-16-41-18.549022912,40,179,45,134
run-2020-2-18-16-41-18.549022912,41,183,48,135
run-2020-2-18-16-41-18.549022912,42,185,48,137
run-2020-2-18-16-41-18.549022912,43,190,53,137
run-2020-2-18-16-41-18.549022912,44,193,51,142
run-2020-2-18-16-41-18.549022912,45,199,54,145
run-2020-2-18-16-41-18.549022912,46,199,49,150
run-2020-2-18-16-41-18.549022912,47,204,52,152
run-2020-2-18-16-41-18.549022912,48,206,49,157
run-2020-2-18-16-41-18.549022912,49,210,51,159
run-2020-2-18-16-41-18.549022912,50,214,52,162
run-2020-2-18-16-41-18.549022912,51,215,50,165
run-2020-2-18-16-41-18.549022912,52,217,49,168
run-2020-2-18-16-41-18.549022912,53,220,47,173
run-2020-2-18-16-41-18.549022912,54,223,44,179
run-2020-2-18-16-41-18.549022912,55,225,43,182
run-2020-2-18-16-41-18.549022912,56,229,46,183
run-2020-2-18-16-41-18.549022912,57,232,44,188
run-2020-2-18-16-41-18.549022912,58,235,46,189
run-2020-2-18-16-41-18.549022912,59,236,46,190
run-2020-2-18-16-41-18.549022912,60,243,52,191
run-2020-2-18-16-41-18.549022912,61,246,51,195
run-2020-2-18-16-41-18.549022912,62,248,49,199
run-2020-2-18-16-41-18.549022912,63,254,53,201
run-2020-2-18-16-41-18.549022912,64,259,53,206
run-2020-2-18-16-41-18.549022912,65,260,51,209
run-2020-2-18-16-41-18.549022912,66,268,54,214
run-2020-2-18-16-41-18.549022912,67,270,53,217
run-2020-2-18-16-41-18.549022912,68,271,47,224
run-2020-2-18-16-41-18.549022912,69,277,49,228
run-2020-2-18-16-41-18.549022912,70,282,51,231
run-2020-2-18-16-41-18.549022912,71,287,53,234
run-2020-2-18-16-41-18.549022912,72,289,50,239
run-2020-2-18-16-41-18.549022912,73,293,49,244
run-2020-2-18-16-41-18.549022912,74,295,48,247
run-2020-2-18-16-41-18.549022912,75,298,50,248
run-2020-2-18-16-41-18.549022912,76,302,52,250
run-2020-2-18-16-41-18.549022912,77,304,48,256
run-2020-2-18-16-41-18.549022912,78,306,48,258
run-2020-2-18-16-41-18.549022912,79,309,50,259
run-2020-2-18-16-41-18.549022912,80,310,50,260
run-2020-2-18-16-41-18.549022912,81,311,50,261
run-2020-2-18-16-41-18.549022912,82,318,55,263
run-2020-2-18-16-41-18.549022912,83,320,55,265
run-2020-2-18-16-41-18.549022912,84,324,56,268
run-2020-2-18-16-41-18.549022912,85,326,55,271
run-2020-2-18-16-41-18.549022912,86,327,53,274
run-2020-2-18-16-41-18.549022912,87,329,52,277
run-2020-2-18-16-41-18.549022912,88,334,53,281
run-2020-2-18-16-41-18.549022912,89,339,55,284
run-2020-2-18-16-41-18.549022912,90,345,60,285
run-2020-2-18-16-41-18.549022912,91,348,58,290
run-2020-2-18-16-41-18.549022912,92,353,55,298
run-2020-2-18-16-41-18.549022912,93,355,53,302
run-2020-2-18-16-41-18.549022912,94,359,56,303
run-2020-2-18-16-41-18.549022912,95,361,51,310
run-2020-2-18-16-41-18.549022912,96,365,50,315
run-2020-2-18-16-41-18.549022912,97,368,50,318
run-2020-2-18-16-41-18.549022912,98,372,48,324
run-2020-2-18-16-41-18.549022912,99,374,50,324
