Source,Target
18e28b3a-5279-11ea-adff-ef975183ef18,18e36bd6-5279-11ea-b9a4-77b9fa17b88e
18e1c894-5279-11ea-ae08-b34dcf6a04ef,18e37cde-5279-11ea-975f-2b215e858d3d
18e14504-5279-11ea-ad0e-57dcc07d4273,18e38b34-5279-11ea-9ad6-2fba2eea90b0
18e17ff6-5279-11ea-88ac-ab3da41b4f32,18e39908-5279-11ea-a531-77284a87f06f
18e2b4e8-5279-11ea-a723-2ba479fc9666,18e3c748-5279-11ea-86fe-23d86df05696
18e1c894-5279-11ea-ae08-b34dcf6a04ef,18e3b9ce-5279-11ea-97a5-dbef71805a7b
18e251e2-5279-11ea-bdfd-efb21a3737a2,18e3b9ce-5279-11ea-bdc4-17d66e5c6a0d
18e18d70-5279-11ea-920c-476689b30900,18e3d81e-5279-11ea-b273-03a2843abb8d
18e39908-5279-11ea-a531-77284a87f06f,18e3ebd8-5279-11ea-8cfa-572775af02f6
18e36bd6-5279-11ea-b9a4-77b9fa17b88e,18e3f984-5279-11ea-9e2b-f3cd6b07281f
18e3c748-5279-11ea-86fe-23d86df05696,18e409ec-5279-11ea-bb3b-3fd8ff7bd523
18e0fdd8-5279-11ea-899f-6f3c6d2ac547,18e4265c-5279-11ea-be6a-93eeaf60c29a
18e39908-5279-11ea-a531-77284a87f06f,18e4178e-5279-11ea-b245-b7076b39d848
18e30c2c-5279-11ea-a0c8-5fe448c230d8,18e435fc-5279-11ea-9cd4-4f94010da9af
18e19d9c-5279-11ea-b430-c30fbb46c749,18e44312-5279-11ea-80ac-8338011298d7
18e27956-5279-11ea-8322-43e1918b3d8b,18e450dc-5279-11ea-b0c9-c343c9358182
18e14504-5279-11ea-ad0e-57dcc07d4273,18e46216-5279-11ea-aa04-afe17905e204
18e3f984-5279-11ea-9e2b-f3cd6b07281f,18e4710c-5279-11ea-a638-bb9371f364d0
18e37cde-5279-11ea-975f-2b215e858d3d,18e47e4a-5279-11ea-a65d-5f78dca1b5c9
18e31ac8-5279-11ea-9ba7-d74c62f91287,18e48c50-5279-11ea-8516-63a3433b9815
18e3d81e-5279-11ea-b273-03a2843abb8d,18e499f2-5279-11ea-b713-47a1889c6e29
18e0e03c-5279-11ea-a644-af095968b987,18e4a776-5279-11ea-8b78-0fc97bb8c0fa
18e36bd6-5279-11ea-b9a4-77b9fa17b88e,18e4b586-5279-11ea-aa32-9343c5d59992
18e3b9ce-5279-11ea-97a5-dbef71805a7b,18e4c4e0-5279-11ea-aa15-87456ad4caed
18e29828-5279-11ea-a970-db3f13a9d156,18e4d246-5279-11ea-8cbd-f74f9658e65c
18e35574-5279-11ea-b14c-57b24e4e06e3,18e4e0a6-5279-11ea-a4d0-33a0b4ac8770
18e22280-5279-11ea-9960-3fb4a7e551b6,18e4ed4e-5279-11ea-9754-7bd323703e27
18e08ae2-5279-11ea-bdfd-57daf693b272,18e4f9a6-5279-11ea-91c4-f34041736a09
18e117aa-5279-11ea-8580-2f44e5a96ca8,18e505cc-5279-11ea-a431-c7319d55f141
18e1db4a-5279-11ea-9158-f3766ef8fd73,18e51468-5279-11ea-9522-fb7d3447373d
18e4178e-5279-11ea-b245-b7076b39d848,18e5230e-5279-11ea-b50d-ff4391805b63
18e505cc-5279-11ea-a431-c7319d55f141,18e5306a-5279-11ea-8dce-63f88986bb69
18e5306a-5279-11ea-8dce-63f88986bb69,18e5433e-5279-11ea-bce5-7f79191c33b6
18e4c4e0-5279-11ea-aa15-87456ad4caed,18e55630-5279-11ea-a4f1-a7857100e323
18e1e87e-5279-11ea-9f9b-93845a1aef45,18e56576-5279-11ea-a710-d7f0e6d60b55
18e19d9c-5279-11ea-b430-c30fbb46c749,18e574ee-5279-11ea-bac5-1f6fb9e69801
18e1ba16-5279-11ea-b5cb-7f1a06273ee1,18e5813c-5279-11ea-a82f-1befff607f8e
18e47e4a-5279-11ea-a65d-5f78dca1b5c9,18e58d94-5279-11ea-a1b6-b7a72bd35901
18e14504-5279-11ea-ad0e-57dcc07d4273,18e59d0c-5279-11ea-a379-ab1bd11bc83c
18e37cde-5279-11ea-975f-2b215e858d3d,18e5aa2c-5279-11ea-8ec7-f3fcfeaf8754
18e39908-5279-11ea-a531-77284a87f06f,18e5b9cc-5279-11ea-9328-773456e71639
18e5813c-5279-11ea-a82f-1befff607f8e,18e5c61a-5279-11ea-85f8-f3aef3598dc1
18e152ec-5279-11ea-963b-f37642b97613,18e5d65a-5279-11ea-bbff-0fb15550d141
18e4265c-5279-11ea-be6a-93eeaf60c29a,18e5e546-5279-11ea-b716-07bf225f7bb1
18e0a1bc-5279-11ea-aec7-efef490f2428,18e5f39c-5279-11ea-a0c8-f3067f9ef9cc
18e21470-5279-11ea-b44b-bbc0c4976f7a,18e6018e-5279-11ea-927d-53068a01dfd1
18e30c2c-5279-11ea-a0c8-5fe448c230d8,18e61f0c-5279-11ea-ae3c-3b1ec2f932f2
18e4e0a6-5279-11ea-a4d0-33a0b4ac8770,18e612aa-5279-11ea-85e2-a30c313aea5d
18e450dc-5279-11ea-b0c9-c343c9358182,18e62cfe-5279-11ea-9c88-9f5abff6cf6e
18e5433e-5279-11ea-bce5-7f79191c33b6,18e63a6e-5279-11ea-8e0f-076c5bf93b75
18e1f7d8-5279-11ea-be84-471873548a20,18e64a18-5279-11ea-ad24-ff66d953c1ba
18e5e546-5279-11ea-b716-07bf225f7bb1,18e6577e-5279-11ea-a5d6-33166ea6060e
18e27956-5279-11ea-8322-43e1918b3d8b,18e664f8-5279-11ea-8cb5-673b179e5bae
18e5813c-5279-11ea-a82f-1befff607f8e,18e672f4-5279-11ea-9aac-1b56fb14431e
18e30c2c-5279-11ea-a0c8-5fe448c230d8,18e67f9c-5279-11ea-a2d9-e701e2ee9dc0
18e31ac8-5279-11ea-9ba7-d74c62f91287,18e68b0e-5279-11ea-b83b-d348ca778db2
18e3374c-5279-11ea-92d7-8b4e4f3dabf0,18e69d92-5279-11ea-bb13-cf39cc95c94f
18e435fc-5279-11ea-9cd4-4f94010da9af,18e6ae40-5279-11ea-adf4-8f97fe5770dc
18e29828-5279-11ea-a970-db3f13a9d156,18e6baa2-5279-11ea-9d3b-5b143d43db2b
18e4f9a6-5279-11ea-91c4-f34041736a09,18e6cd1c-5279-11ea-8dbd-a330ffe91ef1
18e152ec-5279-11ea-963b-f37642b97613,18e6da46-5279-11ea-bef7-1bf91712b963
18e3b9ce-5279-11ea-bdc4-17d66e5c6a0d,18e6e784-5279-11ea-83bb-efea71884efb
18e5c61a-5279-11ea-85f8-f3aef3598dc1,18e6f486-5279-11ea-9cad-f74afb91a96d
18e26d58-5279-11ea-a4d0-0b210616e6cf,18e708b8-5279-11ea-ac31-dfb077247195
18e56576-5279-11ea-a710-d7f0e6d60b55,18e715ec-5279-11ea-a5a9-d3a93935b3c8
18e1270e-5279-11ea-8286-fb23f5785444,18e72546-5279-11ea-b81b-dbd71b7ef6bf
18e58d94-5279-11ea-a1b6-b7a72bd35901,18e734d2-5279-11ea-9f72-d3657c994920
18e499f2-5279-11ea-b713-47a1889c6e29,18e74292-5279-11ea-a8d4-8b5d871c061a
18e69d92-5279-11ea-bb13-cf39cc95c94f,18e74eb8-5279-11ea-85e0-13476cf6f53f
18e409ec-5279-11ea-bb3b-3fd8ff7bd523,18e75bec-5279-11ea-8696-db46e444509d
18e5306a-5279-11ea-8dce-63f88986bb69,18e769c0-5279-11ea-bc37-b711cecdae3e
18e2c29e-5279-11ea-b557-2be5e200f3ad,18e777ee-5279-11ea-be40-0f703140e6ba
18e51468-5279-11ea-9522-fb7d3447373d,18e786f8-5279-11ea-ba99-c341c48d3ac9
18e69d92-5279-11ea-bb13-cf39cc95c94f,18e79472-5279-11ea-9e5e-bbb16f2e4fa5
18e1f7d8-5279-11ea-be84-471873548a20,18e7a85e-5279-11ea-8433-1302c29508ed
18e28b3a-5279-11ea-adff-ef975183ef18,18e7b38a-5279-11ea-9abf-c76ce9c7490c
18e56576-5279-11ea-a710-d7f0e6d60b55,18e7bff6-5279-11ea-bcf1-f35d8a3ce8ce
18e4710c-5279-11ea-a638-bb9371f364d0,18e7cd0c-5279-11ea-9a57-f37afded0fb3
18e734d2-5279-11ea-9f72-d3657c994920,18e7dd2e-5279-11ea-83eb-5b3a74705dd2
18e2d14e-5279-11ea-a237-8ff9433c33ac,18e7eada-5279-11ea-b90e-53359087aab8
18e708b8-5279-11ea-ac31-dfb077247195,18e7f930-5279-11ea-9e88-7314d8605449
18e5813c-5279-11ea-a82f-1befff607f8e,18e805ba-5279-11ea-bed6-673c3bfb9799
18e74292-5279-11ea-a8d4-8b5d871c061a,18e81302-5279-11ea-851b-bffe3e2e06bc
18e74292-5279-11ea-a8d4-8b5d871c061a,18e8239c-5279-11ea-958f-2b7d136f7555
18e47e4a-5279-11ea-a65d-5f78dca1b5c9,18e832ba-5279-11ea-94b9-43d6863d9b2d
18e2064c-5279-11ea-aa62-67a37dc0bfcc,18e8421e-5279-11ea-8601-0f15841a6dc0
18e81302-5279-11ea-851b-bffe3e2e06bc,18e853d0-5279-11ea-a1fd-4721ffa78925
18e58d94-5279-11ea-a1b6-b7a72bd35901,18e86208-5279-11ea-a90b-7fe244be2425
18e4a776-5279-11ea-8b78-0fc97bb8c0fa,18e86d48-5279-11ea-a010-3fecce4cff3e
18e234b4-5279-11ea-b944-37677260ef1c,18e878d8-5279-11ea-8d0b-93895426e747
18e5306a-5279-11ea-8dce-63f88986bb69,18e8860c-5279-11ea-9766-0b17f2f71df5
18e29828-5279-11ea-a970-db3f13a9d156,18e8946c-5279-11ea-8a59-73fba254e9c7
18e612aa-5279-11ea-85e2-a30c313aea5d,18e8a29a-5279-11ea-9d87-63ebea4a6d7c
18e58d94-5279-11ea-a1b6-b7a72bd35901,18e8af56-5279-11ea-a4f8-af2236e62579
18e3374c-5279-11ea-92d7-8b4e4f3dabf0,18e8bfb4-5279-11ea-9798-6fe8e1f4a081
18e81302-5279-11ea-851b-bffe3e2e06bc,18e8cbf8-5279-11ea-8c8f-43c0bf84b1b7
18e5e546-5279-11ea-b716-07bf225f7bb1,18e8d90e-5279-11ea-9939-638604dce4aa
18e74eb8-5279-11ea-85e0-13476cf6f53f,18e8e57a-5279-11ea-a119-13f9cce9cec3
18e55630-5279-11ea-a4f1-a7857100e323,18e8f1fa-5279-11ea-bd48-d7717f4b0c14
18e81302-5279-11ea-851b-bffe3e2e06bc,18e8fe48-5279-11ea-977f-eb8a7b58cbae
18e3462e-5279-11ea-b08b-cb2ecddc063a,18e91874-5279-11ea-a236-9fa36bffac64
18e55630-5279-11ea-a4f1-a7857100e323,18e90ac8-5279-11ea-ab2a-274da987a321
18e1e87e-5279-11ea-9f9b-93845a1aef45,18e92756-5279-11ea-971a-db66c47bfeb7
18e6f486-5279-11ea-9cad-f74afb91a96d,18e936d8-5279-11ea-9629-93aab31cae11
18e499f2-5279-11ea-b713-47a1889c6e29,18e94650-5279-11ea-ac6e-0b589dfdcb79
18e8239c-5279-11ea-958f-2b7d136f7555,18e95348-5279-11ea-9d06-f3868a56cb70
18e878d8-5279-11ea-8d0b-93895426e747,18e9620c-5279-11ea-9bf9-4b358bf4b59a
18e14504-5279-11ea-ad0e-57dcc07d4273,18e972a6-5279-11ea-ac57-ab2a9601a808
18e4f9a6-5279-11ea-91c4-f34041736a09,18e97f3a-5279-11ea-be2e-3316127cbd20
18e27956-5279-11ea-8322-43e1918b3d8b,18e98ebc-5279-11ea-a52f-ef0e6b28c912
18e5433e-5279-11ea-bce5-7f79191c33b6,18e99baa-5279-11ea-81b4-4fab014db6e6
18e69d92-5279-11ea-bb13-cf39cc95c94f,18e9a7ee-5279-11ea-acd9-136702ae5977
18e91874-5279-11ea-a236-9fa36bffac64,18e9b522-5279-11ea-9a69-1f56dfdd6ff1
18e25e6c-5279-11ea-b347-5b810cfb5aee,18e9c1e8-5279-11ea-ba10-e31b116c50c0
18e5c61a-5279-11ea-85f8-f3aef3598dc1,18e9cef4-5279-11ea-bac9-37fdb2752388
18e4ed4e-5279-11ea-9754-7bd323703e27,18e9db74-5279-11ea-a937-53d23dd48871
18e98ebc-5279-11ea-a52f-ef0e6b28c912,18e9eb82-5279-11ea-9ec6-134964e98229
18e1270e-5279-11ea-8286-fb23f5785444,18e9f8ca-5279-11ea-8b7b-a7b374fb40ea
18e499f2-5279-11ea-b713-47a1889c6e29,18ea0766-5279-11ea-a218-bb2a0657780f
18e4c4e0-5279-11ea-aa15-87456ad4caed,18ea1896-5279-11ea-823b-6bf52e59eea0
18e6e784-5279-11ea-83bb-efea71884efb,18ea262e-5279-11ea-a2a2-4f22196e520d
18e9eb82-5279-11ea-9ec6-134964e98229,18ea3272-5279-11ea-b17c-17da9d2abc6c
18e38b34-5279-11ea-9ad6-2fba2eea90b0,18ea3f74-5279-11ea-98c8-b72d77a52d70
18e28b3a-5279-11ea-adff-ef975183ef18,18ea617a-5279-11ea-85cc-075921937e35
18e10be8-5279-11ea-94e6-279f9bc1fa6b,18ea4db6-5279-11ea-8d0d-ffce00f01201
18e92756-5279-11ea-971a-db66c47bfeb7,18ea6fee-5279-11ea-8f33-7f3755bddff5
18e3b9ce-5279-11ea-97a5-dbef71805a7b,18ea7cfa-5279-11ea-bed7-5f73fb688adc
18e832ba-5279-11ea-94b9-43d6863d9b2d,18ea8a4c-5279-11ea-8121-0f1c59ca5ff1
18e90ac8-5279-11ea-ab2a-274da987a321,18ea97f8-5279-11ea-afd7-8b8cb0d27e70
18e117aa-5279-11ea-8580-2f44e5a96ca8,18eaa7f2-5279-11ea-a9d8-fb2d23a88a14
18e1f7d8-5279-11ea-be84-471873548a20,18eab620-5279-11ea-a542-bf75116f325a
18e14504-5279-11ea-ad0e-57dcc07d4273,18eac6ba-5279-11ea-b7c8-d3fd638f70aa
18e4b586-5279-11ea-aa32-9343c5d59992,18ead7a4-5279-11ea-90bd-cbe261a5d417
18e8421e-5279-11ea-8601-0f15841a6dc0,18eae55a-5279-11ea-a9d8-1b38de36512c
18e5aa2c-5279-11ea-8ec7-f3fcfeaf8754,18eaf716-5279-11ea-a8c3-d39ea60db4b1
18e86208-5279-11ea-a90b-7fe244be2425,18eb035a-5279-11ea-9ab8-6f3e6a8b7502
18e1e87e-5279-11ea-9f9b-93845a1aef45,18eb123c-5279-11ea-b505-87d5a6f331e7
18e0b1e8-5279-11ea-905e-2b8af6b39d5c,18eb21f0-5279-11ea-8aa1-a37ad8d990e5
18e1270e-5279-11ea-8286-fb23f5785444,18eb2e66-5279-11ea-8f59-ab6425250f18
18eaa7f2-5279-11ea-a9d8-fb2d23a88a14,18eb3e6a-5279-11ea-91cf-b7ddf3c7c6f0
18eab620-5279-11ea-a542-bf75116f325a,18eb4b6c-5279-11ea-a297-0706c7d3761a
18e74eb8-5279-11ea-85e0-13476cf6f53f,18eb58b4-5279-11ea-9a16-77f7bfd6a7b1
18e6ae40-5279-11ea-adf4-8f97fe5770dc,18eb6aa2-5279-11ea-a5a4-2b980add6d99
18e4b586-5279-11ea-aa32-9343c5d59992,18eb8668-5279-11ea-9e85-4b45b8ebbec9
18e734d2-5279-11ea-9f72-d3657c994920,18eb77fe-5279-11ea-9d03-2708f02b2a86
18e8239c-5279-11ea-958f-2b7d136f7555,18eb9568-5279-11ea-9e68-d7b142bdbe98
18e8e57a-5279-11ea-a119-13f9cce9cec3,18eba292-5279-11ea-9d8f-7b8427a7f498
18e2edaa-5279-11ea-a90c-4b12058fec12,18ebb200-5279-11ea-918d-7f995976113a
18e81302-5279-11ea-851b-bffe3e2e06bc,18ebc204-5279-11ea-a843-8bab2bf8a64a
18e4ed4e-5279-11ea-9754-7bd323703e27,18ebd28a-5279-11ea-8910-87c9d4155ff2
18e6cd1c-5279-11ea-8dbd-a330ffe91ef1,18ebdf1e-5279-11ea-934a-834633cae541
18e37cde-5279-11ea-975f-2b215e858d3d,18ebf256-5279-11ea-be6d-3f09e616da28
18e72546-5279-11ea-b81b-dbd71b7ef6bf,18ec00fc-5279-11ea-8c1d-071bac438f73
18ea6fee-5279-11ea-8f33-7f3755bddff5,18ec0dae-5279-11ea-a96b-eb295ded5343
18eb6aa2-5279-11ea-a5a4-2b980add6d99,18ec1b46-5279-11ea-a6a3-9343e6d4fd5e
18e36bd6-5279-11ea-b9a4-77b9fa17b88e,18ec38d8-5279-11ea-938e-43042badcb98
18eb123c-5279-11ea-b505-87d5a6f331e7,18ec386a-5279-11ea-9593-bb7c61567d52
18e1f7d8-5279-11ea-be84-471873548a20,18ec4648-5279-11ea-9e1f-bb072190f23b
18e251e2-5279-11ea-bdfd-efb21a3737a2,18ec5688-5279-11ea-97c7-ffbc55799afd
18e4265c-5279-11ea-be6a-93eeaf60c29a,18ec668c-5279-11ea-a5c6-6730abe97a38
18e08ae2-5279-11ea-bdfd-57daf693b272,18ec733e-5279-11ea-8e7d-4fa1518cf291
18e499f2-5279-11ea-b713-47a1889c6e29,18ec7fb4-5279-11ea-acad-47e20402b15e
18e2064c-5279-11ea-aa62-67a37dc0bfcc,18ec8fcc-5279-11ea-a78f-13ce60453d50
18e8bfb4-5279-11ea-9798-6fe8e1f4a081,18ec9fd0-5279-11ea-9696-7fcd96888fbd
18e1f7d8-5279-11ea-be84-471873548a20,18ecbfa6-5279-11ea-9bc6-2f2fd237b637
18e5433e-5279-11ea-bce5-7f79191c33b6,18ecaffc-5279-11ea-9db3-575d161fb700
18e91874-5279-11ea-a236-9fa36bffac64,18eccf78-5279-11ea-965c-db72896b97b1
18eb3e6a-5279-11ea-91cf-b7ddf3c7c6f0,18ecdd6a-5279-11ea-a843-33e285ba89b1
18ec5688-5279-11ea-97c7-ffbc55799afd,18ece9f4-5279-11ea-9fb8-4bd27ee2b876
18e44312-5279-11ea-80ac-8338011298d7,18ecf8fe-5279-11ea-8b50-9febe080f20f
18e9eb82-5279-11ea-9ec6-134964e98229,18ed08c6-5279-11ea-8374-57ae08646e2f
18e79472-5279-11ea-9e5e-bbb16f2e4fa5,18ed1794-5279-11ea-82a9-13d7229866ff
18e1ba16-5279-11ea-b5cb-7f1a06273ee1,18ed25f4-5279-11ea-b05d-07e676ed8954
18ea6fee-5279-11ea-8f33-7f3755bddff5,18ed358a-5279-11ea-b1a4-fb93499fa29c
18e72546-5279-11ea-b81b-dbd71b7ef6bf,18ed457a-5279-11ea-962d-8b62b7b3b341
18e17ff6-5279-11ea-88ac-ab3da41b4f32,18ed5542-5279-11ea-b797-3f15243cd082
18eb123c-5279-11ea-b505-87d5a6f331e7,18ed6456-5279-11ea-aa3b-375973c5de83
18e2a5c0-5279-11ea-8fb3-efc302ac3b99,18ed74fa-5279-11ea-a5cd-472284e78899
18eb123c-5279-11ea-b505-87d5a6f331e7,18ed94c6-5279-11ea-971a-bbbf5c992848
18e61f0c-5279-11ea-ae3c-3b1ec2f932f2,18ed83d2-5279-11ea-a25b-239e37550b7a
18eac6ba-5279-11ea-b7c8-d3fd638f70aa,18eda3f8-5279-11ea-b7ed-77c3a91a6f63
18e8cbf8-5279-11ea-8c8f-43c0bf84b1b7,18edb14a-5279-11ea-8ccf-07c7841cfa82
18e2b4e8-5279-11ea-a723-2ba479fc9666,18edbf5a-5279-11ea-80f2-8b3f2e99a861
18e1db4a-5279-11ea-9158-f3766ef8fd73,18edcefa-5279-11ea-9dd8-27a556a06469
18e6ae40-5279-11ea-adf4-8f97fe5770dc,18eddf44-5279-11ea-9298-9f2e43cbf873
18e135d2-5279-11ea-b06e-670463d8b3df,18edee26-5279-11ea-9ca5-c3feee6bc073
18e31ac8-5279-11ea-9ba7-d74c62f91287,18edfe02-5279-11ea-916e-236092457f46
18edee26-5279-11ea-9ca5-c3feee6bc073,18ee0a96-5279-11ea-a9ab-5b055547e601
18e4e0a6-5279-11ea-a4d0-33a0b4ac8770,18ee1a22-5279-11ea-8759-efb7e6fb7ce4
18edbf5a-5279-11ea-80f2-8b3f2e99a861,18ee2b34-5279-11ea-a6a5-3b026133be30
18e9620c-5279-11ea-9bf9-4b358bf4b59a,18ee3bc4-5279-11ea-8ed7-d71ee67e19e9
18e2453a-5279-11ea-8d9b-4f1beb686238,18ee4a06-5279-11ea-b8b7-a77896cc2f09
18ed457a-5279-11ea-962d-8b62b7b3b341,18ee5c76-5279-11ea-aafd-47566c55a226
18eb21f0-5279-11ea-8aa1-a37ad8d990e5,18ee6c48-5279-11ea-b3ed-d7ce6297fb35
18e8946c-5279-11ea-8a59-73fba254e9c7,18ee7b84-5279-11ea-afff-0b93d548536d
18eae55a-5279-11ea-a9d8-1b38de36512c,18ee8d40-5279-11ea-bbb2-73d49bd308d3
18e805ba-5279-11ea-bed6-673c3bfb9799,18ee9bf0-5279-11ea-99b2-530976d557d7
18eb035a-5279-11ea-9ab8-6f3e6a8b7502,18eeaa82-5279-11ea-9bdc-7bab262c7c13
18e64a18-5279-11ea-ad24-ff66d953c1ba,18eeb78e-5279-11ea-956a-cbf8b2832e61
18e46216-5279-11ea-aa04-afe17905e204,18eec4c2-5279-11ea-8119-735588b899e5
18e4f9a6-5279-11ea-91c4-f34041736a09,18eed160-5279-11ea-a94b-eb0fa7e3c221
18e19d9c-5279-11ea-b430-c30fbb46c749,18eedf20-5279-11ea-92e7-770cdae47632
18ee3bc4-5279-11ea-8ed7-d71ee67e19e9,18eeee16-5279-11ea-b7c1-fb3972cbb542
18ea1896-5279-11ea-823b-6bf52e59eea0,18eefb18-5279-11ea-b3a1-078b8e918aa7
18eb4b6c-5279-11ea-a297-0706c7d3761a,18ef0b58-5279-11ea-89b5-cfd0f9e8b79c
18e72546-5279-11ea-b81b-dbd71b7ef6bf,18ef1c9c-5279-11ea-912d-27778fcc04e4
18edb14a-5279-11ea-8ccf-07c7841cfa82,18ef2b2e-5279-11ea-855c-679a388605ee
18e1270e-5279-11ea-8286-fb23f5785444,18ef4686-5279-11ea-bf76-6b6f764e3321
18e8cbf8-5279-11ea-8c8f-43c0bf84b1b7,18ef4898-5279-11ea-af05-8be4f17a1f20
18e8af56-5279-11ea-a4f8-af2236e62579,18ef58e2-5279-11ea-855c-033d741df270
18e4d246-5279-11ea-8cbd-f74f9658e65c,18ef6652-5279-11ea-89c7-0ff8d6caf1ae
18e62cfe-5279-11ea-9c88-9f5abff6cf6e,18ef76a6-5279-11ea-8eca-172a6031b35e
18e46216-5279-11ea-aa04-afe17905e204,18ef85c4-5279-11ea-8b90-1700ec237507
18ea617a-5279-11ea-85cc-075921937e35,18ef92e4-5279-11ea-bea7-a30f4fd9cd39
18e853d0-5279-11ea-a1fd-4721ffa78925,18efa36a-5279-11ea-ace5-931a443ca0b7
18ef92e4-5279-11ea-bea7-a30f4fd9cd39,18efb2f6-5279-11ea-a341-53ebeb93d1c5
18ec38d8-5279-11ea-938e-43042badcb98,18efc0f2-5279-11ea-baee-d73a0dbf4c52
18edcefa-5279-11ea-9dd8-27a556a06469,18efcf66-5279-11ea-a43a-93335b34593c
18ea97f8-5279-11ea-afd7-8b8cb0d27e70,18efdd8a-5279-11ea-8a38-8b8a12a6f49a
18e86208-5279-11ea-a90b-7fe244be2425,18efed8e-5279-11ea-ba7e-b7dc4a33cb70
18ea7cfa-5279-11ea-bed7-5f73fb688adc,18effc66-5279-11ea-a0a9-27e04563e371
18e0f0d6-5279-11ea-8f44-13c8b4bf8b66,18f00cb0-5279-11ea-a6c3-7b853a934a3a
18eb58b4-5279-11ea-9a16-77f7bfd6a7b1,18f01caa-5279-11ea-992f-d737124fb6da
18ed08c6-5279-11ea-8374-57ae08646e2f,18f02bbe-5279-11ea-93b9-6f02c98010c1
18e91874-5279-11ea-a236-9fa36bffac64,18f03924-5279-11ea-8e3d-efdf4028980a
18ea7cfa-5279-11ea-bed7-5f73fb688adc,18f048a6-5279-11ea-922d-737c758e5635
18effc66-5279-11ea-a0a9-27e04563e371,18f05788-5279-11ea-a7f0-27c300e0717d
18e17ff6-5279-11ea-88ac-ab3da41b4f32,18f06624-5279-11ea-be02-7b7058343902
18ee1a22-5279-11ea-8759-efb7e6fb7ce4,18f075e2-5279-11ea-aa69-834d5794645f
18e74eb8-5279-11ea-85e0-13476cf6f53f,18f0832a-5279-11ea-a678-6b06510f9955
18e878d8-5279-11ea-8d0b-93895426e747,18f090cc-5279-11ea-b8b9-a721c1cd426e
18e86208-5279-11ea-a90b-7fe244be2425,18f09e6e-5279-11ea-aac1-cb91bc850a1b
18e505cc-5279-11ea-a431-c7319d55f141,18f0ad78-5279-11ea-ba06-a33f6e35eb9a
18f09e6e-5279-11ea-aac1-cb91bc850a1b,18f0bd86-5279-11ea-a7cf-531a63da9236
18ed457a-5279-11ea-962d-8b62b7b3b341,18f0cb5a-5279-11ea-a037-e750203014dc
18effc66-5279-11ea-a0a9-27e04563e371,18f0d924-5279-11ea-9da1-7fd0e7ec4d38
18e8d90e-5279-11ea-9939-638604dce4aa,18f0e982-5279-11ea-bb88-0760e3cb0415
18e5433e-5279-11ea-bce5-7f79191c33b6,18f0f8fa-5279-11ea-a929-5f271748dce8
18e55630-5279-11ea-a4f1-a7857100e323,18f10e6c-5279-11ea-890a-df4cb47dbfc7
18edfe02-5279-11ea-916e-236092457f46,18f11d6c-5279-11ea-b041-d370e65d7945
18ef4898-5279-11ea-af05-8be4f17a1f20,18f12d84-5279-11ea-a7d2-0353c73d35af
18edbf5a-5279-11ea-80f2-8b3f2e99a861,18f13f36-5279-11ea-bd9e-e35ee3569ef9
18e97f3a-5279-11ea-be2e-3316127cbd20,18f14a80-5279-11ea-859e-03c748904b15
18ea1896-5279-11ea-823b-6bf52e59eea0,18f15980-5279-11ea-980a-73d14bea8d50
18e16ea8-5279-11ea-b8f1-eb9630d3f61e,18f165f6-5279-11ea-981a-7bd44078463b
18e22280-5279-11ea-9960-3fb4a7e551b6,18f1744c-5279-11ea-8b02-3786816aca9c
18e2c29e-5279-11ea-b557-2be5e200f3ad,18f183ec-5279-11ea-b9cb-5f4424b80cf9
18ef85c4-5279-11ea-8b90-1700ec237507,18f18f9a-5279-11ea-a5b1-7398212952bb
18e1f7d8-5279-11ea-be84-471873548a20,18f19ef4-5279-11ea-aa23-8fb242259490
18f03924-5279-11ea-8e3d-efdf4028980a,18f1ad86-5279-11ea-b5b8-73ffce5d8c16
18e9cef4-5279-11ea-bac9-37fdb2752388,18f1bf1a-5279-11ea-b85d-876658467d79
18e9f8ca-5279-11ea-8b7b-a7b374fb40ea,18f1ce38-5279-11ea-9e3f-fb9045fc63cf
18f1ad86-5279-11ea-b5b8-73ffce5d8c16,18f1dbb2-5279-11ea-adde-93896db36c32
18e6da46-5279-11ea-bef7-1bf91712b963,18f1ebac-5279-11ea-9d67-43be538199f2
18eb2e66-5279-11ea-8f59-ab6425250f18,18f20092-5279-11ea-b515-6f9f5f2ebd5c
18e8fe48-5279-11ea-977f-eb8a7b58cbae,18f20cc2-5279-11ea-92b1-432d88915e7c
18edfe02-5279-11ea-916e-236092457f46,18f21b9a-5279-11ea-b251-a35faf49f310
18ed457a-5279-11ea-962d-8b62b7b3b341,18f22e1e-5279-11ea-90e0-cb62d6161d97
18eefb18-5279-11ea-b3a1-078b8e918aa7,18f2362a-5279-11ea-82c5-df8749649371
18e5d65a-5279-11ea-bbff-0fb15550d141,18f2453e-5279-11ea-bb6f-576865511300
18e3031c-5279-11ea-b6d9-23d0a9713019,18f262da-5279-11ea-8054-13b29d9be363
18ee7b84-5279-11ea-afff-0b93d548536d,18f2536c-5279-11ea-9dc0-8b8d11e3e2a1
18ece9f4-5279-11ea-9fb8-4bd27ee2b876,18f2727a-5279-11ea-80b3-67baac4032f5
18e38b34-5279-11ea-9ad6-2fba2eea90b0,18f280c6-5279-11ea-8db5-1f9b156e47e2
18e0f0d6-5279-11ea-8f44-13c8b4bf8b66,18f29066-5279-11ea-880b-bf9648a0c254
18e5c61a-5279-11ea-85f8-f3aef3598dc1,18f29fc0-5279-11ea-9639-5f4b8e0eed0e
18e786f8-5279-11ea-ba99-c341c48d3ac9,18f2b1ea-5279-11ea-a506-ab5e4c20c6f7
18e6018e-5279-11ea-927d-53068a01dfd1,18f2d53a-5279-11ea-bca7-9f64dfe59585
18eeaa82-5279-11ea-9bdc-7bab262c7c13,18f2c658-5279-11ea-8797-ffb6a866d7dd
18e6577e-5279-11ea-a5d6-33166ea6060e,18f2e3ea-5279-11ea-b6c5-674a95498551
18eae55a-5279-11ea-a9d8-1b38de36512c,18f2f326-5279-11ea-982d-6fdb749fd407
18eefb18-5279-11ea-b3a1-078b8e918aa7,18f302d0-5279-11ea-a065-5727c52fe0bc
18e38b34-5279-11ea-9ad6-2fba2eea90b0,18f321de-5279-11ea-83ed-8f29968c28c4
18e6f486-5279-11ea-9cad-f74afb91a96d,18f3127a-5279-11ea-a1c6-47544cd5d040
18ead7a4-5279-11ea-90bd-cbe261a5d417,18f33246-5279-11ea-8dea-333913091c68
18ec733e-5279-11ea-8e7d-4fa1518cf291,18f341aa-5279-11ea-a45b-5b1d456373f7
18e8fe48-5279-11ea-977f-eb8a7b58cbae,18f351ea-5279-11ea-99da-43af30cd732d
18ed25f4-5279-11ea-b05d-07e676ed8954,18f36180-5279-11ea-9960-1f4c45875449
18e505cc-5279-11ea-a431-c7319d55f141,18f37328-5279-11ea-9e1d-a775fa731a29
18e805ba-5279-11ea-bed6-673c3bfb9799,18f380de-5279-11ea-a108-6f8fe79b52be
18e3462e-5279-11ea-b08b-cb2ecddc063a,18f38fd4-5279-11ea-b680-7bf9d12c6452
18e9a7ee-5279-11ea-acd9-136702ae5977,18f39fe2-5279-11ea-ba6a-f3297154e197
18e8239c-5279-11ea-958f-2b7d136f7555,18f3af5a-5279-11ea-a03d-bf7594bfd812
18e4178e-5279-11ea-b245-b7076b39d848,18f3be46-5279-11ea-8dbf-1761ee4c0204
18ec00fc-5279-11ea-8c1d-071bac438f73,18f3cd0a-5279-11ea-aee0-bfa5e6859b7b
18f2d53a-5279-11ea-bca7-9f64dfe59585,18f3da84-5279-11ea-b02e-eb57ce11deeb
18e6018e-5279-11ea-927d-53068a01dfd1,18f3ea9c-5279-11ea-88e8-9fe56def6408
18ee8d40-5279-11ea-bbb2-73d49bd308d3,18f3f7e4-5279-11ea-af5d-dbaff0e7793d
18ec733e-5279-11ea-8e7d-4fa1518cf291,18f4082e-5279-11ea-8fc6-3f9885f84eb9
18eec4c2-5279-11ea-8119-735588b899e5,18f41422-5279-11ea-9cad-bf041fdfac38
18e3ebd8-5279-11ea-8cfa-572775af02f6,18f41f76-5279-11ea-ae25-039ca136fa86
18f01caa-5279-11ea-992f-d737124fb6da,18f42e3a-5279-11ea-964d-73edc9e51de0
18e7bff6-5279-11ea-bcf1-f35d8a3ce8ce,18f43d94-5279-11ea-bfba-db3fdc8e53b3
18e14504-5279-11ea-ad0e-57dcc07d4273,18f44c26-5279-11ea-9b5d-5373637ddb6e
18ea4db6-5279-11ea-8d0d-ffce00f01201,18f467b0-5279-11ea-9055-437e3706049c
18e74292-5279-11ea-a8d4-8b5d871c061a,18f4773c-5279-11ea-886a-53dd79299ed7
18e0ce4e-5279-11ea-a4f4-432ff04e08ec,18f4870e-5279-11ea-ac07-b70d2446949a
18e9a7ee-5279-11ea-acd9-136702ae5977,18f4a3ec-5279-11ea-ab9a-13df6c83d7a9
18e59d0c-5279-11ea-a379-ab1bd11bc83c,18f4af4a-5279-11ea-9f7a-33bbccd59dd6
18f3127a-5279-11ea-a1c6-47544cd5d040,18f4a400-5279-11ea-a043-6bcd24ffcb70
18eb8668-5279-11ea-9e85-4b45b8ebbec9,18f4bb0c-5279-11ea-8e1c-ab1c4daba482
18eddf44-5279-11ea-9298-9f2e43cbf873,18f4c84a-5279-11ea-b9d8-5b0bbee13015
18e8e57a-5279-11ea-a119-13f9cce9cec3,18f4d772-5279-11ea-8763-9f381cc52893
18f280c6-5279-11ea-8db5-1f9b156e47e2,18f4e528-5279-11ea-b328-0f08c1a18a0c
18f21b9a-5279-11ea-b251-a35faf49f310,18f4f84c-5279-11ea-a8de-933d54822287
18e499f2-5279-11ea-b713-47a1889c6e29,18f50c88-5279-11ea-bdba-7f3920251afb
18e35574-5279-11ea-b14c-57b24e4e06e3,18f51ae8-5279-11ea-8996-63a06bf7d2ac
18f11d6c-5279-11ea-b041-d370e65d7945,18f52b50-5279-11ea-a4df-4fb1a277ec34
18edbf5a-5279-11ea-80f2-8b3f2e99a861,18f549d2-5279-11ea-a379-ebd5c0503a70
18f51ae8-5279-11ea-8996-63a06bf7d2ac,18f53b68-5279-11ea-a00d-e31c9c1c53be
18e7cd0c-5279-11ea-9a57-f37afded0fb3,18f5576a-5279-11ea-8611-57a49472780c
18e2a5c0-5279-11ea-8fb3-efc302ac3b99,18f56782-5279-11ea-877e-8b3d6a3525f3
18ee8d40-5279-11ea-bbb2-73d49bd308d3,18f57682-5279-11ea-9e2b-7f902ffa1679
18eeb78e-5279-11ea-956a-cbf8b2832e61,18f586ea-5279-11ea-8337-ff57d104ffec
18e9db74-5279-11ea-a937-53d23dd48871,18f594f0-5279-11ea-a6ef-cf62737838d9
18f0d924-5279-11ea-9da1-7fd0e7ec4d38,18f5a76a-5279-11ea-b924-af7ea3d7f9b1
18e4710c-5279-11ea-a638-bb9371f364d0,18f5b52a-5279-11ea-9a13-ab0723b347dc
18efa36a-5279-11ea-ace5-931a443ca0b7,18f5c3b2-5279-11ea-8212-3f0fab5eb76a
18eaf716-5279-11ea-a8c3-d39ea60db4b1,18f5d46a-5279-11ea-b4f6-37771d13e3c9
18ea7cfa-5279-11ea-bed7-5f73fb688adc,18f5e176-5279-11ea-aaa9-cb15ca22d9bb
18e3c748-5279-11ea-86fe-23d86df05696,18f5f058-5279-11ea-ac98-67aac81a31ab
18e72546-5279-11ea-b81b-dbd71b7ef6bf,18f5fe7c-5279-11ea-8171-0f7fc944cc78
18e0fdd8-5279-11ea-899f-6f3c6d2ac547,18f60eb2-5279-11ea-af53-877303211211
18e2a5c0-5279-11ea-8fb3-efc302ac3b99,18f61f7e-5279-11ea-ae42-bf88265c3482
18eccf78-5279-11ea-965c-db72896b97b1,18f62d66-5279-11ea-9a2f-9bad1748de45
18f380de-5279-11ea-a108-6f8fe79b52be,18f63ee6-5279-11ea-ac68-4315e9de6c46
18e81302-5279-11ea-851b-bffe3e2e06bc,18f64b5c-5279-11ea-8840-67dcf88eb28d
18ed08c6-5279-11ea-8374-57ae08646e2f,18f658d6-5279-11ea-9a47-3be25ecff8d4
18ef1c9c-5279-11ea-912d-27778fcc04e4,18f66740-5279-11ea-a4a5-8f4468b8f605
18e0c0c0-5279-11ea-be43-3f13054ecbf2,18f67636-5279-11ea-b1eb-f3671004134f
18e8421e-5279-11ea-8601-0f15841a6dc0,18f6868a-5279-11ea-ba3f-63f5f3fe4f15
18e5b9cc-5279-11ea-9328-773456e71639,18f6960c-5279-11ea-bfa3-673624ec19bf
18efed8e-5279-11ea-ba7e-b7dc4a33cb70,18f6a5a2-5279-11ea-9495-83b01042c0b9
18e8f1fa-5279-11ea-bd48-d7717f4b0c14,18f6b402-5279-11ea-92fe-e7977418ad38
18ec9fd0-5279-11ea-9696-7fcd96888fbd,18f6c348-5279-11ea-bb5b-5b24f20f9463
18ec386a-5279-11ea-9593-bb7c61567d52,18f6d608-5279-11ea-bdc9-0f0a8867873a
18f351ea-5279-11ea-99da-43af30cd732d,18f6e3c8-5279-11ea-ab8a-7756a55242d4
18e46216-5279-11ea-aa04-afe17905e204,18f6f336-5279-11ea-a2c1-13eda873babb
18e8860c-5279-11ea-9766-0b17f2f71df5,18f701dc-5279-11ea-8aa0-4341fdb32783
18e8cbf8-5279-11ea-8c8f-43c0bf84b1b7,18f710b4-5279-11ea-9c9a-bfce22f553fd
18f38fd4-5279-11ea-b680-7bf9d12c6452,18f7225c-5279-11ea-96c0-8390f2b7cd9f
18ef6652-5279-11ea-89c7-0ff8d6caf1ae,18f7306c-5279-11ea-9a71-dfb7b3c41d5a
18eddf44-5279-11ea-9298-9f2e43cbf873,18f7400c-5279-11ea-af30-df65c5ee6de4
18f2536c-5279-11ea-9dc0-8b8d11e3e2a1,18f74db8-5279-11ea-8623-a3e030f74f43
18ec5688-5279-11ea-97c7-ffbc55799afd,18f75aec-5279-11ea-8fe7-5f342d0415ec
18f710b4-5279-11ea-9c9a-bfce22f553fd,18f76cbc-5279-11ea-b7d4-db2c5df21780
18f048a6-5279-11ea-922d-737c758e5635,18f77be4-5279-11ea-9f19-43ae6fc0a45e
18e1270e-5279-11ea-8286-fb23f5785444,18f788d2-5279-11ea-8557-73b5d6d0287b
18eda3f8-5279-11ea-b7ed-77c3a91a6f63,18f7998a-5279-11ea-bd4e-5b0401d60817
18ed08c6-5279-11ea-8374-57ae08646e2f,18f7a6b4-5279-11ea-89a7-fb64e337d498
18ec9fd0-5279-11ea-9696-7fcd96888fbd,18f7b686-5279-11ea-963f-c752183656ed
18f090cc-5279-11ea-b8b9-a721c1cd426e,18f7c54a-5279-11ea-829e-03b4285763db
18e21470-5279-11ea-b44b-bbc0c4976f7a,18f7d8b4-5279-11ea-a508-4f73e57c2691
18ea6fee-5279-11ea-8f33-7f3755bddff5,18f7e886-5279-11ea-a217-17d157394813
18efa36a-5279-11ea-ace5-931a443ca0b7,18f7f5d8-5279-11ea-a06e-63f9c5c2a925
18ea3f74-5279-11ea-98c8-b72d77a52d70,18f8041a-5279-11ea-b727-1b713413477a
18f4a3ec-5279-11ea-ab9a-13df6c83d7a9,18f8137e-5279-11ea-a7d5-fb248c1cfa39
18f20cc2-5279-11ea-92b1-432d88915e7c,18f82472-5279-11ea-b4eb-0346da73ea97
18f66740-5279-11ea-a4a5-8f4468b8f605,18f833ae-5279-11ea-8644-436a2504245b
18e7f930-5279-11ea-9e88-7314d8605449,18f84574-5279-11ea-9b5b-3f3a97519aeb
18f43d94-5279-11ea-bfba-db3fdc8e53b3,18f853c0-5279-11ea-b07b-738ee1914330
18e72546-5279-11ea-b81b-dbd71b7ef6bf,18f86112-5279-11ea-9202-b3674d347f78
18e5b9cc-5279-11ea-9328-773456e71639,18f86e28-5279-11ea-b070-4f15f9a460bc
18e1ba16-5279-11ea-b5cb-7f1a06273ee1,18f87d78-5279-11ea-86ee-8731c78365f3
18e9cef4-5279-11ea-bac9-37fdb2752388,18f88c0a-5279-11ea-94d1-e7b04597ad41
18ea97f8-5279-11ea-afd7-8b8cb0d27e70,18f89bdc-5279-11ea-9a80-8701ca595589
18e8bfb4-5279-11ea-9798-6fe8e1f4a081,18f8ad7a-5279-11ea-b682-fbde8b73b45f
18ea0766-5279-11ea-a218-bb2a0657780f,18f8be82-5279-11ea-af91-d786115dd641
18e51468-5279-11ea-9522-fb7d3447373d,18f8d08e-5279-11ea-ba88-431ecbcd00ee
18f4af4a-5279-11ea-9f7a-33bbccd59dd6,18f8e02e-5279-11ea-a316-736c4321a501
18e4c4e0-5279-11ea-aa15-87456ad4caed,18f8eed4-5279-11ea-ae64-73ae83ef4c3b
18e853d0-5279-11ea-a1fd-4721ffa78925,18f8fdac-5279-11ea-a41d-279c45b64ce5
18e096c2-5279-11ea-b9af-030e4ed073cd,18f90c3e-5279-11ea-9c30-f7f641a51a01
18e1e87e-5279-11ea-9f9b-93845a1aef45,18f91af8-5279-11ea-98d6-e729c2baa762
18e97f3a-5279-11ea-be2e-3316127cbd20,18f92ac0-5279-11ea-8795-53a886a05a9e
18f586ea-5279-11ea-8337-ff57d104ffec,18f93a6a-5279-11ea-9f17-e3dd13b96669
18eb8668-5279-11ea-9e85-4b45b8ebbec9,18f9483e-5279-11ea-8768-9bdf09252fbb
18eaa7f2-5279-11ea-a9d8-fb2d23a88a14,18f9578e-5279-11ea-a01e-837c57a197c2
18e08ae2-5279-11ea-bdfd-57daf693b272,18f96742-5279-11ea-b12d-8702286e9941
18e7a85e-5279-11ea-8433-1302c29508ed,18f97714-5279-11ea-8016-c39bda2cfbb0
18f701dc-5279-11ea-8aa0-4341fdb32783,18f99b5e-5279-11ea-969e-9738bda416e9
18f3ea9c-5279-11ea-88e8-9fe56def6408,18f99b90-5279-11ea-ac0c-5789b982533e
18f853c0-5279-11ea-b07b-738ee1914330,18f9adc4-5279-11ea-af12-7336c5fb0a32
18eba292-5279-11ea-9d8f-7b8427a7f498,18f9bf4e-5279-11ea-9831-434aedf7d602
18ed08c6-5279-11ea-8374-57ae08646e2f,18f9cf16-5279-11ea-98dd-2f2cf7ba95f4
18f3cd0a-5279-11ea-aee0-bfa5e6859b7b,18f9dc90-5279-11ea-b389-0bf5e71b3ba9
18ec4648-5279-11ea-9e1f-bb072190f23b,18f9e88e-5279-11ea-ba60-cb8271edc19c
18e46216-5279-11ea-aa04-afe17905e204,18f9f55e-5279-11ea-a8e1-6f050db9fe5f
18f86e28-5279-11ea-b070-4f15f9a460bc,18fa0490-5279-11ea-bd49-8bcaead4d51e
18f44c26-5279-11ea-9b5d-5373637ddb6e,18fa2290-5279-11ea-996c-3356169f96a1
18e99baa-5279-11ea-81b4-4fab014db6e6,18fa13ae-5279-11ea-b557-2f1b85248557
18f0cb5a-5279-11ea-a037-e750203014dc,18fa4158-5279-11ea-8be0-b74966ed89ea
18fa0490-5279-11ea-bd49-8bcaead4d51e,18fa4266-5279-11ea-a74d-4f3ccdd1071f
18f3127a-5279-11ea-a1c6-47544cd5d040,18fa5210-5279-11ea-b87c-c70522fce2de
18ef85c4-5279-11ea-8b90-1700ec237507,18fa6408-5279-11ea-ad17-ef347beeaf8e
18f710b4-5279-11ea-9c9a-bfce22f553fd,18fa74f2-5279-11ea-80a0-6bc921e78646
18e2b4e8-5279-11ea-a723-2ba479fc9666,18fa8316-5279-11ea-a7af-43bc39d44de6
18ed94c6-5279-11ea-971a-bbbf5c992848,18fa919e-5279-11ea-a3da-63e2d6810b31
18e2b4e8-5279-11ea-a723-2ba479fc9666,18fab20a-5279-11ea-ad75-434807477a08
18ea617a-5279-11ea-85cc-075921937e35,18fab318-5279-11ea-9c7a-5fdfff1ff7f2
18ea3f74-5279-11ea-98c8-b72d77a52d70,18fac2f4-5279-11ea-8873-4b9b825b5056
18f02bbe-5279-11ea-93b9-6f02c98010c1,18fad0c8-5279-11ea-849f-6ff8e3b244fb
18e0e03c-5279-11ea-a644-af095968b987,18fadfa0-5279-11ea-bd43-abc4dff4f3be
18f53b68-5279-11ea-a00d-e31c9c1c53be,18faedd8-5279-11ea-8f93-fb54d18a4752
18f99b5e-5279-11ea-969e-9738bda416e9,18fafd1e-5279-11ea-b0bb-670ffec3158b
18e5813c-5279-11ea-a82f-1befff607f8e,18fb0e08-5279-11ea-aef7-7f19ee5dc22e
18e2d14e-5279-11ea-a237-8ff9433c33ac,18fb2014-5279-11ea-8788-0fe2cafa93fc
18edee26-5279-11ea-9ca5-c3feee6bc073,18fb30cc-5279-11ea-8918-77ee2bc96528
18f14a80-5279-11ea-859e-03c748904b15,18fb3c8e-5279-11ea-982f-c35840345d3e
18e68b0e-5279-11ea-b83b-d348ca778db2,18fb4ca6-5279-11ea-ab0d-9fc0b6bc12a7
18e499f2-5279-11ea-b713-47a1889c6e29,18fb6402-5279-11ea-ae39-73d6c3983f36
18eeb78e-5279-11ea-956a-cbf8b2832e61,18fb72d0-5279-11ea-9f36-d342dd88be91
18f03924-5279-11ea-8e3d-efdf4028980a,18fb8450-5279-11ea-877b-d3a4cdd040d5
18e18d70-5279-11ea-920c-476689b30900,18fb9530-5279-11ea-918e-07255c66729e
18ed457a-5279-11ea-962d-8b62b7b3b341,18fbb308-5279-11ea-9bd8-1fe64e4ff8ff
18eb9568-5279-11ea-9e68-d7b142bdbe98,18fba368-5279-11ea-ae37-d7f12cee5512
18f2453e-5279-11ea-bb6f-576865511300,18fbc262-5279-11ea-aa13-8b6d98cce320
18e972a6-5279-11ea-ac57-ab2a9601a808,18fbcf00-5279-11ea-a7c9-c7bed83879ee
18f1bf1a-5279-11ea-b85d-876658467d79,18fbde78-5279-11ea-baa0-4339499433e0
18e3031c-5279-11ea-b6d9-23d0a9713019,18fbeab2-5279-11ea-8871-f7df7504f86b
18ef58e2-5279-11ea-855c-033d741df270,18fbfaa2-5279-11ea-9c50-871ed9d73da4
18e0e03c-5279-11ea-a644-af095968b987,18fc0a24-5279-11ea-b9ec-8b705af0c07a
18ed1794-5279-11ea-82a9-13d7229866ff,18fc1924-5279-11ea-b70f-77ec1c653af2
18e6da46-5279-11ea-bef7-1bf91712b963,18fc29fa-5279-11ea-836f-0fdd50072b40
18f7225c-5279-11ea-96c0-8390f2b7cd9f,18fc3e04-5279-11ea-a2a2-c792484a8154
18e17ff6-5279-11ea-88ac-ab3da41b4f32,18fc4d90-5279-11ea-ac89-2b6fef1b97f2
18f9bf4e-5279-11ea-9831-434aedf7d602,18fc5cd6-5279-11ea-becf-f320fa90910b
18e450dc-5279-11ea-b0c9-c343c9358182,18fc6fe6-5279-11ea-b755-cb03f247ba61
18f03924-5279-11ea-8e3d-efdf4028980a,18fc7dba-5279-11ea-8ef1-57045d8bdd2b
18e8239c-5279-11ea-958f-2b7d136f7555,18fc8d46-5279-11ea-9b53-3b0b9c049954
18f10e6c-5279-11ea-890a-df4cb47dbfc7,18fca81c-5279-11ea-ace7-3bde4e0197eb
18f853c0-5279-11ea-b07b-738ee1914330,18fcc3a6-5279-11ea-b4d1-871867ddcd9e
18e8d90e-5279-11ea-9939-638604dce4aa,18fcb8ac-5279-11ea-bad7-4723c940b9eb
18f41422-5279-11ea-9cad-bf041fdfac38,18fcd0d0-5279-11ea-96e5-1ffbac24396c
18e44312-5279-11ea-80ac-8338011298d7,18fce61a-5279-11ea-b424-9359fea9e6e7
18f99b5e-5279-11ea-969e-9738bda416e9,18fcee62-5279-11ea-8a07-078450ef3584
18f7225c-5279-11ea-96c0-8390f2b7cd9f,18fcfdd0-5279-11ea-bee0-43ded65530d2
18eb123c-5279-11ea-b505-87d5a6f331e7,18fd0fc8-5279-11ea-89ea-2fab06afdafe
18e777ee-5279-11ea-be40-0f703140e6ba,18fd1d60-5279-11ea-b2ec-5b455e7019d8
18e3d81e-5279-11ea-b273-03a2843abb8d,18fd2bac-5279-11ea-8870-2bbda8993230
18ee3bc4-5279-11ea-8ed7-d71ee67e19e9,18fd3bce-5279-11ea-b5ea-eb508be4973e
18f4f84c-5279-11ea-a8de-933d54822287,18fd49d4-5279-11ea-964e-c7a83a5ec15b
18e2064c-5279-11ea-aa62-67a37dc0bfcc,18fd68ce-5279-11ea-93a7-6f4d65edd531
18f37328-5279-11ea-9e1d-a775fa731a29,18fd6950-5279-11ea-9772-5b2253f63f7a
18e18d70-5279-11ea-920c-476689b30900,18fd7b20-5279-11ea-a6af-671a4e53cea1
18e5aa2c-5279-11ea-8ec7-f3fcfeaf8754,18fd8f66-5279-11ea-8ded-4359a03a13bb
18ef58e2-5279-11ea-855c-033d741df270,18fd9d6c-5279-11ea-ad1a-1785b5baa834
18e6cd1c-5279-11ea-8dbd-a330ffe91ef1,18fdad3e-5279-11ea-822f-e774b2844b3c
18fa4266-5279-11ea-a74d-4f3ccdd1071f,18fdbd4c-5279-11ea-b487-87432129e46c
18e7eada-5279-11ea-b90e-53359087aab8,18fdcd5a-5279-11ea-9fc2-9fa03d22daaa
18ef4686-5279-11ea-bf76-6b6f764e3321,18fde3f8-5279-11ea-9797-b7a12730e488
18e64a18-5279-11ea-ad24-ff66d953c1ba,18fdf42e-5279-11ea-98ae-47466e91a118
18fb2014-5279-11ea-8788-0fe2cafa93fc,18fe124c-5279-11ea-9d3f-63177b4fe8a5
18fd7b20-5279-11ea-a6af-671a4e53cea1,18fe02b6-5279-11ea-8ecf-2feb5f829259
18f1bf1a-5279-11ea-b85d-876658467d79,18fe21f6-5279-11ea-a45a-dfd60ff00e65
18ea97f8-5279-11ea-afd7-8b8cb0d27e70,18fe3146-5279-11ea-9943-1b041fc34b9e
18e3031c-5279-11ea-b6d9-23d0a9713019,18fe41ae-5279-11ea-81be-773bede53f68
18eb2e66-5279-11ea-8f59-ab6425250f18,18fe5180-5279-11ea-ac0a-b3d4556bef47
18f5c3b2-5279-11ea-8212-3f0fab5eb76a,18fe5fd6-5279-11ea-8251-c31f35ac3ead
18e1aae4-5279-11ea-bbd8-efef0753759a,18fe6f76-5279-11ea-aaba-f3138abbe0e3
18f1ad86-5279-11ea-b5b8-73ffce5d8c16,18fe8eb6-5279-11ea-9833-8f6a463a7aa9
18fe41ae-5279-11ea-81be-773bede53f68,18fe801a-5279-11ea-b66f-fbc5da8dee5b
18eb3e6a-5279-11ea-91cf-b7ddf3c7c6f0,18fea1ee-5279-11ea-a17c-2b58fa648741
18f7c54a-5279-11ea-829e-03b4285763db,18feb0c6-5279-11ea-832d-539bcdd45aae
18e98ebc-5279-11ea-a52f-ef0e6b28c912,18fec57a-5279-11ea-9617-b716ecfaa816
18ec386a-5279-11ea-9593-bb7c61567d52,18fed4a2-5279-11ea-8a20-47215890b479
18eb123c-5279-11ea-b505-87d5a6f331e7,18fee5e6-5279-11ea-af3a-3f12df8e18c7
18f0d924-5279-11ea-9da1-7fd0e7ec4d38,18fef392-5279-11ea-b559-a7daa4a7081f
18eb58b4-5279-11ea-9a16-77f7bfd6a7b1,18ff02d8-5279-11ea-81b7-3f72623d89ff
18f02bbe-5279-11ea-93b9-6f02c98010c1,18ff193a-5279-11ea-8d02-8f0ad455b915
18e9f8ca-5279-11ea-8b7b-a7b374fb40ea,18ff2fc4-5279-11ea-8a40-6ff62b3375c5
18fce61a-5279-11ea-b424-9359fea9e6e7,18ff3e1a-5279-11ea-ac44-ab43d228c308
18e878d8-5279-11ea-8d0b-93895426e747,18ff4cac-5279-11ea-bd13-6334c8cf43e7
18fa6408-5279-11ea-ad17-ef347beeaf8e,18ff5da0-5279-11ea-a21c-7384190c7b85
18f4773c-5279-11ea-886a-53dd79299ed7,18ff6ad4-5279-11ea-aaee-63e6da1d8393
18fcee62-5279-11ea-8a07-078450ef3584,18ff7664-5279-11ea-babb-6f8006fcae6a
18f76cbc-5279-11ea-b7d4-db2c5df21780,18ff82b2-5279-11ea-891d-d3be473e80a5
18efc0f2-5279-11ea-baee-d73a0dbf4c52,18ff90c2-5279-11ea-b92d-970c8d13d8df
18ecbfa6-5279-11ea-9bc6-2f2fd237b637,18ffa5bc-5279-11ea-9ab3-038edb5aa097
18e7eada-5279-11ea-b90e-53359087aab8,18ffb37c-5279-11ea-a6cf-af0918075738
18fd1d60-5279-11ea-b2ec-5b455e7019d8,18ffc51a-5279-11ea-aa6a-bb2cd04fc2be
18ecdd6a-5279-11ea-a843-33e285ba89b1,18ffd5d2-5279-11ea-91b1-0f101a536dda
18e44312-5279-11ea-80ac-8338011298d7,18ffe4aa-5279-11ea-82f7-0f442b616927
18e74eb8-5279-11ea-85e0-13476cf6f53f,18fff42c-5279-11ea-8c73-abd4e600b1af
18e4b586-5279-11ea-aa32-9343c5d59992,19000372-5279-11ea-b970-57df7b879dc3
18e22280-5279-11ea-9960-3fb4a7e551b6,190011be-5279-11ea-bb2b-db9e20b443d6
18e4e0a6-5279-11ea-a4d0-33a0b4ac8770,19002186-5279-11ea-a025-6ba79ba333bc
18fba368-5279-11ea-ae37-d7f12cee5512,19003252-5279-11ea-89fd-afde49cc31e7
18f9bf4e-5279-11ea-9831-434aedf7d602,190040da-5279-11ea-a928-ab4ad0d52050
18f82472-5279-11ea-b4eb-0346da73ea97,19005188-5279-11ea-ae8a-7f040124cbd8
18e4ed4e-5279-11ea-9754-7bd323703e27,19006164-5279-11ea-a3cb-e3fdfeb6fe69
18ed1794-5279-11ea-82a9-13d7229866ff,190070d2-5279-11ea-a215-d3d05004e5c2
18fafd1e-5279-11ea-b0bb-670ffec3158b,1900811c-5279-11ea-a908-b7d1ec5fa131
18e7b38a-5279-11ea-9abf-c76ce9c7490c,19009396-5279-11ea-ad81-2f0b0defa8fd
18e6baa2-5279-11ea-9d3b-5b143d43db2b,1900a5b6-5279-11ea-9b5e-2b03d19d2555
18e22280-5279-11ea-9960-3fb4a7e551b6,1900b60a-5279-11ea-b974-af20a30041fe
18f2727a-5279-11ea-80b3-67baac4032f5,1900c910-5279-11ea-a968-5370778fcbfa
18eb035a-5279-11ea-9ab8-6f3e6a8b7502,1900d770-5279-11ea-8f3e-a7f3188207dd
18f4a3ec-5279-11ea-ab9a-13df6c83d7a9,1900e56c-5279-11ea-8bd7-f7963baa6df7
18ffe4aa-5279-11ea-82f7-0f442b616927,1900f57a-5279-11ea-a085-5fdc444afd24
18eb58b4-5279-11ea-9a16-77f7bfd6a7b1,190114a6-5279-11ea-b13b-0ba0c28915b9
18e1f7d8-5279-11ea-be84-471873548a20,19010696-5279-11ea-99c2-d342cc16a140
18ee3bc4-5279-11ea-8ed7-d71ee67e19e9,190123f6-5279-11ea-8288-f34dcb820179
18e08ae2-5279-11ea-bdfd-57daf693b272,1901379c-5279-11ea-b6c6-83193170123d
18e8d90e-5279-11ea-9939-638604dce4aa,190147a0-5279-11ea-b118-8b4309d786de
18ffd5d2-5279-11ea-91b1-0f101a536dda,1901560a-5279-11ea-bd78-6b91dce0922c
18e5c61a-5279-11ea-85f8-f3aef3598dc1,1901798c-5279-11ea-9680-e72cde1d6d9a
18f6b402-5279-11ea-92fe-e7977418ad38,19016654-5279-11ea-a740-ababf7520782
18e8239c-5279-11ea-958f-2b7d136f7555,190189e0-5279-11ea-a90e-4b358b8da4c3
18fd2bac-5279-11ea-8870-2bbda8993230,19019b60-5279-11ea-8923-27df90a315a6
18fdad3e-5279-11ea-822f-e774b2844b3c,1901ac54-5279-11ea-b3d1-9b996729e86e
18e5e546-5279-11ea-b716-07bf225f7bb1,1901bc8a-5279-11ea-98ae-c795c6e84ce0
19006164-5279-11ea-a3cb-e3fdfeb6fe69,1901ccde-5279-11ea-bf01-3b44cfeb463d
18e22280-5279-11ea-9960-3fb4a7e551b6,1901ddc8-5279-11ea-b253-cb7f13a521f3
18fad0c8-5279-11ea-849f-6ff8e3b244fb,1901efb6-5279-11ea-8bf4-930bdf66c9eb
18ebdf1e-5279-11ea-934a-834633cae541,19020726-5279-11ea-8eff-cfc76b4e46cf
18e574ee-5279-11ea-bac5-1f6fb9e69801,19021860-5279-11ea-97cc-d734921c8ccf
18ea6fee-5279-11ea-8f33-7f3755bddff5,190228d2-5279-11ea-84ed-2bba7490776f
18e7bff6-5279-11ea-bcf1-f35d8a3ce8ce,19023818-5279-11ea-838d-6f6c0b9a6539
18ecf8fe-5279-11ea-8b50-9febe080f20f,1902461e-5279-11ea-9bad-fb65513ce7b4
18f9f55e-5279-11ea-a8e1-6f050db9fe5f,190251f4-5279-11ea-be52-a3fea54b1458
18e46216-5279-11ea-aa04-afe17905e204,190261bc-5279-11ea-9307-4f11ccb5a570
18f5a76a-5279-11ea-b924-af7ea3d7f9b1,190271e8-5279-11ea-ba84-07d271cab8b9
18e86d48-5279-11ea-a010-3fecce4cff3e,190281ba-5279-11ea-9897-33337a4951fc
18f03924-5279-11ea-8e3d-efdf4028980a,19028fe8-5279-11ea-8837-cb8a19e92547
18f710b4-5279-11ea-9c9a-bfce22f553fd,19029f24-5279-11ea-9bfb-471e4f770f74
190114a6-5279-11ea-b13b-0ba0c28915b9,1902b310-5279-11ea-9021-030ca9a38da1
1901bc8a-5279-11ea-98ae-c795c6e84ce0,1902c332-5279-11ea-9155-67c364498085
18ffd5d2-5279-11ea-91b1-0f101a536dda,1902d69c-5279-11ea-ae33-b316bf27b556
18eb3e6a-5279-11ea-91cf-b7ddf3c7c6f0,1902e6c8-5279-11ea-aa86-b314a0314260
18fc7dba-5279-11ea-8ef1-57045d8bdd2b,1902f848-5279-11ea-ad5a-33f4f16ab37f
18e7cd0c-5279-11ea-9a57-f37afded0fb3,1903050e-5279-11ea-8e4f-2368cc6878f5
18fa13ae-5279-11ea-b557-2f1b85248557,19031526-5279-11ea-b34b-8b584c25883e
18f03924-5279-11ea-8e3d-efdf4028980a,19032606-5279-11ea-b358-075d23507f62
18e2b4e8-5279-11ea-a723-2ba479fc9666,1903342a-5279-11ea-a308-c703cc28b49a
18ffa5bc-5279-11ea-9ab3-038edb5aa097,1903435c-5279-11ea-b7a5-7fc4e4adbbf9
18f2f326-5279-11ea-982d-6fdb749fd407,1903520c-5279-11ea-b6a7-7fc650d76553
18e664f8-5279-11ea-8cb5-673b179e5bae,19036120-5279-11ea-a9b6-4f1790d6cf29
18e3f984-5279-11ea-9e2b-f3cd6b07281f,190375de-5279-11ea-824b-abddb49afb77
18f183ec-5279-11ea-b9cb-5f4424b80cf9,19038704-5279-11ea-a968-f3343d7468eb
18edfe02-5279-11ea-916e-236092457f46,19039c26-5279-11ea-9717-1739e9f04377
18f0d924-5279-11ea-9da1-7fd0e7ec4d38,1903af36-5279-11ea-8bc6-ab51e01f9e1d
18ebd28a-5279-11ea-8910-87c9d4155ff2,1903c192-5279-11ea-8580-07b7522949cc
18f4f84c-5279-11ea-a8de-933d54822287,1903d1b4-5279-11ea-b260-3791d25bfcfe
18f76cbc-5279-11ea-b7d4-db2c5df21780,1903e442-5279-11ea-8ca9-0b644161ea09
18fcee62-5279-11ea-8a07-078450ef3584,1903f716-5279-11ea-876a-2388eb9afed3
18eba292-5279-11ea-9d8f-7b8427a7f498,190405f8-5279-11ea-a89b-479c551e97f6
18e832ba-5279-11ea-94b9-43d6863d9b2d,1904196c-5279-11ea-951a-37c4cfed670f
18ec733e-5279-11ea-8e7d-4fa1518cf291,19042826-5279-11ea-b254-c7f13a18a533
18f13f36-5279-11ea-bd9e-e35ee3569ef9,19043cc6-5279-11ea-aff5-57c543aff882
18e8421e-5279-11ea-8601-0f15841a6dc0,19045350-5279-11ea-af12-1f0aa74a262c
18e81302-5279-11ea-851b-bffe3e2e06bc,190462aa-5279-11ea-832b-d769c2e80795
18fc29fa-5279-11ea-836f-0fdd50072b40,19047588-5279-11ea-a065-43b5024a73c3
18f52b50-5279-11ea-a4df-4fb1a277ec34,190486f4-5279-11ea-98cd-9b1da2880d06
18e8bfb4-5279-11ea-9798-6fe8e1f4a081,1904a6d4-5279-11ea-a1f6-3be9d325ddbe
19028fe8-5279-11ea-8837-cb8a19e92547,1904a67a-5279-11ea-bf13-6f1f33cdd136
18e9cef4-5279-11ea-bac9-37fdb2752388,1904b462-5279-11ea-b4e9-13d07f2b8e66
18fbde78-5279-11ea-baa0-4339499433e0,1904c466-5279-11ea-8949-47c612e3e592
18ece9f4-5279-11ea-9fb8-4bd27ee2b876,1904d370-5279-11ea-aa2c-f7993b7415df
18e0b1e8-5279-11ea-905e-2b8af6b39d5c,1904e4a0-5279-11ea-8c22-7373a09bb722
18ec1b46-5279-11ea-a6a3-9343e6d4fd5e,1904f6e8-5279-11ea-aafc-1779a24186ed
18e74eb8-5279-11ea-85e0-13476cf6f53f,190503b8-5279-11ea-ba15-773e9cc31c99
18ec4648-5279-11ea-9e1f-bb072190f23b,19051966-5279-11ea-b40b-c3507a0fad34
18f3127a-5279-11ea-a1c6-47544cd5d040,19052c1c-5279-11ea-8d28-9724c8257140
18f9578e-5279-11ea-a01e-837c57a197c2,19054d32-5279-11ea-ace3-d3bdcad6cebb
190114a6-5279-11ea-b13b-0ba0c28915b9,19055e94-5279-11ea-a324-cf14e79448f2
18e74eb8-5279-11ea-85e0-13476cf6f53f,190573d4-5279-11ea-940f-d70d6f87d9b0
18f86112-5279-11ea-9202-b3674d347f78,190581b2-5279-11ea-a9bd-cf8394746731
18f4f84c-5279-11ea-a8de-933d54822287,19059008-5279-11ea-91aa-9bdcbd84a38a
18f99b5e-5279-11ea-969e-9738bda416e9,1905a0de-5279-11ea-a1d0-4331f1386d63
18f2f326-5279-11ea-982d-6fdb749fd407,1905b650-5279-11ea-8e58-739037e44e49
18f0cb5a-5279-11ea-a037-e750203014dc,1905c29e-5279-11ea-aa79-1b52e8d117cf
18fb3c8e-5279-11ea-982f-c35840345d3e,1905d23e-5279-11ea-83f1-d7b13a2523c6
18f1dbb2-5279-11ea-adde-93896db36c32,1905e1ca-5279-11ea-ab83-8b0e9984ae2c
18eddf44-5279-11ea-9298-9f2e43cbf873,1905f214-5279-11ea-b7e9-b796802790cf
18e1f7d8-5279-11ea-be84-471873548a20,190602fe-5279-11ea-bd07-37f74ff3616b
1905f214-5279-11ea-b7e9-b796802790cf,1906142e-5279-11ea-9134-37011d7a80d5
18f2362a-5279-11ea-82c5-df8749649371,190625e0-5279-11ea-94f3-6b10a55eb95f
18e505cc-5279-11ea-a431-c7319d55f141,19064408-5279-11ea-a4d2-db4210aff441
18f61f7e-5279-11ea-ae42-bf88265c3482,19065934-5279-11ea-879c-0f686a874c7c
18f29066-5279-11ea-880b-bf9648a0c254,19066974-5279-11ea-8d4b-1f8671dd45cc
18f19ef4-5279-11ea-aa23-8fb242259490,19067a54-5279-11ea-a9cb-6f0c07175346
18e6ae40-5279-11ea-adf4-8f97fe5770dc,190688fa-5279-11ea-b93c-1b7d84e2e4a1
18f3da84-5279-11ea-b02e-eb57ce11deeb,19069714-5279-11ea-8f5a-07757ddb357a
18e25e6c-5279-11ea-b347-5b810cfb5aee,1906a89e-5279-11ea-a90f-af1b7ba4d015
18e3031c-5279-11ea-b6d9-23d0a9713019,1906b848-5279-11ea-bc89-c7458db3d2d9
18f586ea-5279-11ea-8337-ff57d104ffec,1906c82e-5279-11ea-a5f3-f7cc8a75512a
18ea8a4c-5279-11ea-8121-0f1c59ca5ff1,1906dada-5279-11ea-afa7-cb6e46242fff
18ee9bf0-5279-11ea-99b2-530976d557d7,1906ecd2-5279-11ea-844a-775f874c49ed
18ee9bf0-5279-11ea-99b2-530976d557d7,1906fa24-5279-11ea-92ad-4b6e39d747d5
18e0e03c-5279-11ea-a644-af095968b987,19070b04-5279-11ea-bd70-d30b9ca515d2
18f74db8-5279-11ea-8623-a3e030f74f43,190718d8-5279-11ea-a656-6b6b480b2b87
190486f4-5279-11ea-98cd-9b1da2880d06,190728e6-5279-11ea-af97-1f11703ef86d
18f6c348-5279-11ea-bb5b-5b24f20f9463,190737be-5279-11ea-9240-2b5bb60c759e
18fdf42e-5279-11ea-98ae-47466e91a118,19074740-5279-11ea-8f4c-efdedb27e8b4
18f8eed4-5279-11ea-ae64-73ae83ef4c3b,19075596-5279-11ea-aa9b-9b17f12bc3c3
18efed8e-5279-11ea-ba7e-b7dc4a33cb70,190764b4-5279-11ea-9d4f-b700034ee841
18fff42c-5279-11ea-8c73-abd4e600b1af,190775e4-5279-11ea-b76c-e756220ae228
18ed08c6-5279-11ea-8374-57ae08646e2f,190783ea-5279-11ea-847b-5b17a087627e
18e5c61a-5279-11ea-85f8-f3aef3598dc1,1907951a-5279-11ea-abe9-672d4d80b4fb
18eed160-5279-11ea-a94b-eb0fa7e3c221,1907a3de-5279-11ea-b333-c7c5768e3bca
18fe6f76-5279-11ea-aaba-f3138abbe0e3,1907b37e-5279-11ea-95db-2f7b500324cb
18efdd8a-5279-11ea-8a38-8b8a12a6f49a,1907c45e-5279-11ea-b1da-c702ac605a63
18e5b9cc-5279-11ea-9328-773456e71639,1907d980-5279-11ea-a75c-cfde9ea3a013
18fb4ca6-5279-11ea-ab0d-9fc0b6bc12a7,1907e830-5279-11ea-bd70-13f7fb21d935
1904e4a0-5279-11ea-8c22-7373a09bb722,1907fac8-5279-11ea-a824-ef6d9db403ef
18f00cb0-5279-11ea-a6c3-7b853a934a3a,190809aa-5279-11ea-aa42-0b5ad98ac166
18f6b402-5279-11ea-92fe-e7977418ad38,190818aa-5279-11ea-a049-b7ef53ba7271
18e6da46-5279-11ea-bef7-1bf91712b963,1908357e-5279-11ea-bf7c-efb4fe3736e9
18ecbfa6-5279-11ea-9bc6-2f2fd237b637,19082688-5279-11ea-b771-0f6592c235fd
18e58d94-5279-11ea-a1b6-b7a72bd35901,19084712-5279-11ea-a4ff-ebb8eae610fc
18e805ba-5279-11ea-bed6-673c3bfb9799,1908569e-5279-11ea-8b8e-3fc3fd1e0cd2
18fb9530-5279-11ea-918e-07255c66729e,19086828-5279-11ea-84d9-0b25d9c7918c
18e4a776-5279-11ea-8b78-0fc97bb8c0fa,19087b4c-5279-11ea-a5e4-9ba69ce8c49c
18fbfaa2-5279-11ea-9c50-871ed9d73da4,19089a00-5279-11ea-a1e5-47b4e5cbb1f7
18fd49d4-5279-11ea-964e-c7a83a5ec15b,1908898e-5279-11ea-ac60-af921db9f905
190737be-5279-11ea-9240-2b5bb60c759e,1908a8d8-5279-11ea-9a47-33f1f63c86f4
1902461e-5279-11ea-9bad-fb65513ce7b4,1908b9c2-5279-11ea-96d4-f3f674f92859
18e972a6-5279-11ea-ac57-ab2a9601a808,1908da56-5279-11ea-a788-f7a5b9429a4e
18eaa7f2-5279-11ea-a9d8-fb2d23a88a14,1908c980-5279-11ea-8d88-ef9ec7bcd5c6
19009396-5279-11ea-ad81-2f0b0defa8fd,1908ed70-5279-11ea-95d8-774733f4e5ab
18f43d94-5279-11ea-bfba-db3fdc8e53b3,1908fe5a-5279-11ea-b166-074de6c9e2a5
18f42e3a-5279-11ea-964d-73edc9e51de0,19090b70-5279-11ea-9492-93647bb7e8a8
18f586ea-5279-11ea-8337-ff57d104ffec,19091b88-5279-11ea-84d9-ebdb8f0ea7e9
1908c980-5279-11ea-8d88-ef9ec7bcd5c6,19092b50-5279-11ea-821e-fbc047b4c0aa
19043cc6-5279-11ea-aff5-57c543aff882,19093b86-5279-11ea-addc-6b8e2936d564
19039c26-5279-11ea-9717-1739e9f04377,19094b44-5279-11ea-8fe8-839f1b22dc0a
18f61f7e-5279-11ea-ae42-bf88265c3482,19095936-5279-11ea-8000-3f593ee66a60
18ec8fcc-5279-11ea-a78f-13ce60453d50,19097a06-5279-11ea-b25d-2b298f419197
18f090cc-5279-11ea-b8b9-a721c1cd426e,190978ee-5279-11ea-ab7e-77b29a32248e
18e7b38a-5279-11ea-9abf-c76ce9c7490c,190988f2-5279-11ea-bc52-d7c32b8ae15a
1900d770-5279-11ea-8f3e-a7f3188207dd,19099964-5279-11ea-8862-8fb21820a49c
18f4c84a-5279-11ea-b9d8-5b0bbee13015,1909ad46-5279-11ea-b12f-9fa87c4d904f
1902e6c8-5279-11ea-aa86-b314a0314260,1909bffc-5279-11ea-be76-5ba16dfeb945
18ee6c48-5279-11ea-b3ed-d7ce6297fb35,1909d08c-5279-11ea-a06d-9b4a7c17b87f
190581b2-5279-11ea-a9bd-cf8394746731,1909e2de-5279-11ea-b7ac-bf3973907f6b
19036120-5279-11ea-a9b6-4f1790d6cf29,1909ef9a-5279-11ea-b142-cbb11c6aff54
18e9cef4-5279-11ea-bac9-37fdb2752388,1909fb66-5279-11ea-9002-b3624625a69e
1907fac8-5279-11ea-a824-ef6d9db403ef,190a1b82-5279-11ea-b1b4-db92554781a4
190783ea-5279-11ea-847b-5b17a087627e,190a3eb4-5279-11ea-8a41-b31c42528c85
18ff4cac-5279-11ea-bd13-6334c8cf43e7,190a2ffa-5279-11ea-9011-536d7e046e90
18fc3e04-5279-11ea-a2a2-c792484a8154,190a4fa8-5279-11ea-82cc-779f7037852c
1905c29e-5279-11ea-aa79-1b52e8d117cf,190a5be2-5279-11ea-b702-dbd1a31a466f
18e5813c-5279-11ea-a82f-1befff607f8e,190a6916-5279-11ea-bd83-e77dea4602e2
190573d4-5279-11ea-940f-d70d6f87d9b0,190a78b6-5279-11ea-9c7d-db9429bbb193
18e8cbf8-5279-11ea-8c8f-43c0bf84b1b7,190a8824-5279-11ea-803b-a34ce10f173b
18e17ff6-5279-11ea-88ac-ab3da41b4f32,190a974c-5279-11ea-88fe-ab6a97a63746
19031526-5279-11ea-b34b-8b584c25883e,190aa980-5279-11ea-93de-737dff6a2a45
1908b9c2-5279-11ea-96d4-f3f674f92859,190abc18-5279-11ea-ab2f-9b839dfed68f
18fe5fd6-5279-11ea-8251-c31f35ac3ead,190ac9ba-5279-11ea-937f-a7bb102ee3bc
18ef4898-5279-11ea-af05-8be4f17a1f20,190ad98c-5279-11ea-b356-3bd201cac40c
18f467b0-5279-11ea-9055-437e3706049c,190ae8be-5279-11ea-ab41-8fae1ff0626a
18e4c4e0-5279-11ea-aa15-87456ad4caed,190af82c-5279-11ea-9717-6b898672f75e
18fb9530-5279-11ea-918e-07255c66729e,190b08da-5279-11ea-baee-97d9f1ce2894
18fafd1e-5279-11ea-b0bb-670ffec3158b,190b1e92-5279-11ea-b62b-e7396eea6cc8
18f3da84-5279-11ea-b02e-eb57ce11deeb,190b2df6-5279-11ea-a571-1718842c7b68
18fff42c-5279-11ea-8c73-abd4e600b1af,190b3ecc-5279-11ea-9d7c-93b1372e78d5
1906142e-5279-11ea-9134-37011d7a80d5,190b501a-5279-11ea-b260-cb76acad7519
18e94650-5279-11ea-ac6e-0b589dfdcb79,190b60f0-5279-11ea-96a3-4b1935b8d667
18ef6652-5279-11ea-89c7-0ff8d6caf1ae,190b79f0-5279-11ea-b3c7-172d37469c39
18e38b34-5279-11ea-9ad6-2fba2eea90b0,190b88d2-5279-11ea-84cc-4bf7f3f7706b
18f91af8-5279-11ea-98d6-e729c2baa762,190b98d6-5279-11ea-b7df-fbf63397007b
190a1b82-5279-11ea-b1b4-db92554781a4,190bb4ec-5279-11ea-9197-cf0cacfcb894
18e8bfb4-5279-11ea-9798-6fe8e1f4a081,190bc428-5279-11ea-b58e-2bc02880df04
18e878d8-5279-11ea-8d0b-93895426e747,190bdad0-5279-11ea-8f56-d3ef115e4492
18e37cde-5279-11ea-975f-2b215e858d3d,190be868-5279-11ea-b578-5754c68eed88
190a1b82-5279-11ea-b1b4-db92554781a4,190c0924-5279-11ea-8be8-1b086d616319
18ef85c4-5279-11ea-8b90-1700ec237507,190bf830-5279-11ea-b244-37481499fa93
18e9db74-5279-11ea-a937-53d23dd48871,190c18ec-5279-11ea-a2c8-db7ae8b8ff87
18e708b8-5279-11ea-ac31-dfb077247195,190c27ec-5279-11ea-ada9-4fbcbb23d95d
19028fe8-5279-11ea-8837-cb8a19e92547,190c370a-5279-11ea-ad66-3b60325a3de4
1908c980-5279-11ea-8d88-ef9ec7bcd5c6,190c4614-5279-11ea-aa53-ab4c033042c3
18eccf78-5279-11ea-965c-db72896b97b1,190c55fa-5279-11ea-b1c9-d74a22567aa8
18f7f5d8-5279-11ea-a06e-63f9c5c2a925,190c64c8-5279-11ea-bb9d-433560d09346
1905a0de-5279-11ea-a1d0-4331f1386d63,190c7526-5279-11ea-8289-c7f97559df2d
18f321de-5279-11ea-83ed-8f29968c28c4,190c8476-5279-11ea-8cf1-dfbf3c73c3f3
18e499f2-5279-11ea-b713-47a1889c6e29,190c94f2-5279-11ea-833e-af029fd716b2
18f39fe2-5279-11ea-ba6a-f3297154e197,190ca654-5279-11ea-a7cb-5318ba4cf8fa
18f9cf16-5279-11ea-98dd-2f2cf7ba95f4,190cb2fc-5279-11ea-b19f-172f98e3b6f6
190ae8be-5279-11ea-ab41-8fae1ff0626a,190cc166-5279-11ea-bb0b-8f7e42421a77
18f8eed4-5279-11ea-ae64-73ae83ef4c3b,190cd0f2-5279-11ea-9b71-03583e7b0e2b
18ec1b46-5279-11ea-a6a3-9343e6d4fd5e,190ce308-5279-11ea-b8e3-3f598b8e76c5
18f853c0-5279-11ea-b07b-738ee1914330,190cf460-5279-11ea-9cd7-7f41c0bb4e99
1906ecd2-5279-11ea-844a-775f874c49ed,190d0d74-5279-11ea-8522-6fcf55edb978
18eba292-5279-11ea-9d8f-7b8427a7f498,190d1580-5279-11ea-b313-2321c83d67af
18f4af4a-5279-11ea-9f7a-33bbccd59dd6,190d3c54-5279-11ea-883a-e7e263c34454
18e44312-5279-11ea-80ac-8338011298d7,190d2b92-5279-11ea-8b46-e383ce506961
1908ed70-5279-11ea-95d8-774733f4e5ab,190d4b72-5279-11ea-85d6-1f6e898a9638
18f99b5e-5279-11ea-969e-9738bda416e9,190d5d56-5279-11ea-8394-6b4cd5d8735d
190b3ecc-5279-11ea-9d7c-93b1372e78d5,190d6e2c-5279-11ea-834b-f770cab6c30c
18fb2014-5279-11ea-8788-0fe2cafa93fc,190d7ed0-5279-11ea-b8e7-eb063a6a333b
1903af36-5279-11ea-8bc6-ab51e01f9e1d,190d90fa-5279-11ea-a9c5-7b78fb7b440b
18fcc3a6-5279-11ea-b4d1-871867ddcd9e,190db22e-5279-11ea-aaa3-7b7ab294505d
18f41f76-5279-11ea-ae25-039ca136fa86,190da3ec-5279-11ea-9ca7-87627a25d3ad
18e67f9c-5279-11ea-a2d9-e701e2ee9dc0,190dbf44-5279-11ea-911a-a7205a7f690c
1909fb66-5279-11ea-9002-b3624625a69e,190dce6c-5279-11ea-9cd7-ebf96fd3d423
18e5c61a-5279-11ea-85f8-f3aef3598dc1,190dddc6-5279-11ea-9c1c-cf923f76f68c
18ec8fcc-5279-11ea-a78f-13ce60453d50,190ded34-5279-11ea-980e-5fb7e8a5d84d
18fee5e6-5279-11ea-af3a-3f12df8e18c7,190e1db8-5279-11ea-916e-f3e80ac94f43
18f10e6c-5279-11ea-890a-df4cb47dbfc7,190e3e1a-5279-11ea-827e-db62fc2e7686
18e5d65a-5279-11ea-bbff-0fb15550d141,190e4eaa-5279-11ea-8911-7b528aa419df
18fcfdd0-5279-11ea-bee0-43ded65530d2,190e5cec-5279-11ea-b9ec-53721cd7a67f
18f36180-5279-11ea-9960-1f4c45875449,190e6d22-5279-11ea-be2c-cbeddf358aba
18e8860c-5279-11ea-9766-0b17f2f71df5,190e7b96-5279-11ea-85ba-3bd22396a93e
18e1ba16-5279-11ea-b5cb-7f1a06273ee1,190e8942-5279-11ea-9892-7747f6f5f812
18fa5210-5279-11ea-b87c-c70522fce2de,190e97ca-5279-11ea-9be6-1f1d4c0895a4
18fc7dba-5279-11ea-8ef1-57045d8bdd2b,190ea864-5279-11ea-857a-b33becc21610
190147a0-5279-11ea-b118-8b4309d786de,190eb9bc-5279-11ea-8cf3-f70ba3fb1640
18f82472-5279-11ea-b4eb-0346da73ea97,190eca42-5279-11ea-adc7-7fa26546d6b8
18e48c50-5279-11ea-8516-63a3433b9815,190eda50-5279-11ea-a6f3-d3e0b6f22895
18f658d6-5279-11ea-9a47-3be25ecff8d4,190eebee-5279-11ea-91fd-afc31ad72512
18ff3e1a-5279-11ea-ac44-ab43d228c308,190efd32-5279-11ea-8284-37d2ad071c1e
1903342a-5279-11ea-a308-c703cc28b49a,190f0e80-5279-11ea-8aee-83ec81578677
18e37cde-5279-11ea-975f-2b215e858d3d,190f1e20-5279-11ea-8075-db104597c0a3
19064408-5279-11ea-a4d2-db4210aff441,190f3108-5279-11ea-bc18-df0405682e97
190bb4ec-5279-11ea-9197-cf0cacfcb894,190f41f2-5279-11ea-8f46-27ae165d4c89
190f3108-5279-11ea-bc18-df0405682e97,190f5278-5279-11ea-80f2-cbe8580a484d
1902f848-5279-11ea-ad5a-33f4f16ab37f,190f625e-5279-11ea-9c30-77572308aab0
18e5b9cc-5279-11ea-9328-773456e71639,190f7424-5279-11ea-bac8-1bb306782197
18fcfdd0-5279-11ea-bee0-43ded65530d2,190f8536-5279-11ea-825e-a320f1463e9d
18f3ea9c-5279-11ea-88e8-9fe56def6408,190f96e8-5279-11ea-9196-df47dd434945
18e29828-5279-11ea-a970-db3f13a9d156,190fa764-5279-11ea-a6bc-0f22ec23722f
18ea3272-5279-11ea-b17c-17da9d2abc6c,190fc78a-5279-11ea-b91c-c7f5fed2b8dd
18fb8450-5279-11ea-877b-d3a4cdd040d5,190fb72c-5279-11ea-988e-d38e49e9a2f3
1900a5b6-5279-11ea-9b5e-2b03d19d2555,190fd64e-5279-11ea-8b29-2b90f9e06953
19086828-5279-11ea-84d9-0b25d9c7918c,190fe6de-5279-11ea-85f8-df9320dbc154
18fc8d46-5279-11ea-9b53-3b0b9c049954,190ff6ec-5279-11ea-a5f1-631caded043b
190b88d2-5279-11ea-84cc-4bf7f3f7706b,19100768-5279-11ea-97de-ab071d68a03e
18f586ea-5279-11ea-8337-ff57d104ffec,191018ac-5279-11ea-8290-b734ba1f3b9f
19003252-5279-11ea-89fd-afde49cc31e7,19102e64-5279-11ea-a990-57fc4ca8855d
190af82c-5279-11ea-9717-6b898672f75e,19103e40-5279-11ea-8c8f-8f784d196637
18f05788-5279-11ea-a7f0-27c300e0717d,19104fb6-5279-11ea-a170-af626ffca544
18eeee16-5279-11ea-b7c1-fb3972cbb542,19105f24-5279-11ea-8ebe-9bb522b7db32
19095936-5279-11ea-8000-3f593ee66a60,19106e56-5279-11ea-a3f1-77de7231bdb5
190efd32-5279-11ea-8284-37d2ad071c1e,19107e5a-5279-11ea-af5a-fbbd2d2f7fce
18f341aa-5279-11ea-a45b-5b1d456373f7,19108cba-5279-11ea-a31e-2b5528c79185
18fc0a24-5279-11ea-b9ec-8b705af0c07a,1910a3f8-5279-11ea-8a7a-1bb3ab4cff4a
18f7225c-5279-11ea-96c0-8390f2b7cd9f,1910b92e-5279-11ea-b94a-27ee5e48ccd1
1901379c-5279-11ea-b6c6-83193170123d,1910ccfc-5279-11ea-8415-2bb00789d79f
19091b88-5279-11ea-84d9-ebdb8f0ea7e9,1910de68-5279-11ea-a787-e7a9a800c418
1909fb66-5279-11ea-9002-b3624625a69e,1910ec14-5279-11ea-b2be-2340d97caaf6
1906dada-5279-11ea-afa7-cb6e46242fff,1910fa42-5279-11ea-8a6b-a38ac5d05930
18fa4158-5279-11ea-8be0-b74966ed89ea,1911094c-5279-11ea-82fe-1f045778a351
18ed83d2-5279-11ea-a25b-239e37550b7a,191117fc-5279-11ea-914d-730ab0f46a21
18f2536c-5279-11ea-9dc0-8b8d11e3e2a1,19112788-5279-11ea-acac-6fb7db68c9e5
18e499f2-5279-11ea-b713-47a1889c6e29,19113b88-5279-11ea-887f-d7ef704e7ae3
18fca81c-5279-11ea-ace7-3bde4e0197eb,19114f06-5279-11ea-8053-4fe60537b656
19043cc6-5279-11ea-aff5-57c543aff882,1911605e-5279-11ea-bab3-4f7a79802d96
1910de68-5279-11ea-a787-e7a9a800c418,1911731e-5279-11ea-bdd7-1f5096b3975a
18f8ad7a-5279-11ea-b682-fbde8b73b45f,191185de-5279-11ea-889b-7fe2e29d6a55
190cb2fc-5279-11ea-b19f-172f98e3b6f6,191194d4-5279-11ea-aa63-4311da708d4f
18e31ac8-5279-11ea-9ba7-d74c62f91287,1911a30c-5279-11ea-8392-cbb5ea9b79e7
18e152ec-5279-11ea-963b-f37642b97613,1911b130-5279-11ea-b0a2-5f9c05b1b84e
18f380de-5279-11ea-a108-6f8fe79b52be,1911c1e8-5279-11ea-b365-47094713d2eb
190261bc-5279-11ea-9307-4f11ccb5a570,1911d476-5279-11ea-a0af-bf360503b608
1910b92e-5279-11ea-b94a-27ee5e48ccd1,1911e9ca-5279-11ea-9cdf-2791ef1559ce
1906b848-5279-11ea-bc89-c7458db3d2d9,1911fb86-5279-11ea-8014-0f67d1c7bcf8
19097a06-5279-11ea-b25d-2b298f419197,19120bf8-5279-11ea-a358-9385e2d6700c
18e1270e-5279-11ea-8286-fb23f5785444,19121db4-5279-11ea-9b71-8383b1f5d2a9
18fee5e6-5279-11ea-af3a-3f12df8e18c7,191230b0-5279-11ea-937a-034886b97744
18e8a29a-5279-11ea-9d87-63ebea4a6d7c,1912426c-5279-11ea-b868-237a8cb76a96
18fc3e04-5279-11ea-a2a2-c792484a8154,1912536a-5279-11ea-877a-83f52d60ad89
18f6d608-5279-11ea-bdc9-0f0a8867873a,191263be-5279-11ea-8e3c-8b9c245aecd7
18e4e0a6-5279-11ea-a4d0-33a0b4ac8770,1912737c-5279-11ea-b02c-0f0c648076f6
18f20092-5279-11ea-b515-6f9f5f2ebd5c,191284a2-5279-11ea-8309-3b92b0748387
1900c910-5279-11ea-a968-5370778fcbfa,1912942e-5279-11ea-8297-ef80e5754ee1
190b79f0-5279-11ea-b3c7-172d37469c39,1912a662-5279-11ea-bbba-4fff3fcef030
190e7b96-5279-11ea-85ba-3bd22396a93e,1912b72e-5279-11ea-9319-87ed78a2df06
18ea97f8-5279-11ea-afd7-8b8cb0d27e70,1912c8a4-5279-11ea-b9c7-6b330aa490d5
18ebb200-5279-11ea-918d-7f995976113a,1912da60-5279-11ea-a7e9-e7c5ade1c43c
1904f6e8-5279-11ea-aafc-1779a24186ed,1912ee38-5279-11ea-aa02-0ff7bfc46dd1
18f93a6a-5279-11ea-9f17-e3dd13b96669,1913012a-5279-11ea-b530-f7e7e68002dd
18f5a76a-5279-11ea-b924-af7ea3d7f9b1,19131106-5279-11ea-89b5-834e58a95ba9
18f090cc-5279-11ea-b8b9-a721c1cd426e,19133050-5279-11ea-b566-3b17a4c8cd30
18fd68ce-5279-11ea-93a7-6f4d65edd531,19134360-5279-11ea-a593-4bd4dca99f1b
18f0e982-5279-11ea-bb88-0760e3cb0415,191354fe-5279-11ea-968e-fbaa3025d3a1
18ef2b2e-5279-11ea-855c-679a388605ee,191366f6-5279-11ea-af0f-5721e8b61156
18f62d66-5279-11ea-9a2f-9bad1748de45,19137830-5279-11ea-835c-07b202ba6a7a
18f2e3ea-5279-11ea-b6c5-674a95498551,19138c4e-5279-11ea-8377-5b38d56dab9e
18e450dc-5279-11ea-b0c9-c343c9358182,19139b8a-5279-11ea-be2e-a7f6a7bdc18e
18e8239c-5279-11ea-958f-2b7d136f7555,1913ab66-5279-11ea-8e01-0b43eb9d57aa
18f66740-5279-11ea-a4a5-8f4468b8f605,1913bc50-5279-11ea-8523-b764aa1709d2
18ea1896-5279-11ea-823b-6bf52e59eea0,1913cf60-5279-11ea-81c3-8bfd6e5f2ee1
18f1ad86-5279-11ea-b5b8-73ffce5d8c16,1913df46-5279-11ea-bbf0-7f2d5529801f
1903d1b4-5279-11ea-b260-3791d25bfcfe,1913ef2c-5279-11ea-b05a-e3bf40b30257
18e5d65a-5279-11ea-bbff-0fb15550d141,1913fef4-5279-11ea-b015-3b5eb98568af
1910b92e-5279-11ea-b94a-27ee5e48ccd1,19141786-5279-11ea-a7dd-3be382604a14
18ee5c76-5279-11ea-aafd-47566c55a226,191429ec-5279-11ea-b038-13941ba5372e
18f52b50-5279-11ea-a4df-4fb1a277ec34,19143bc6-5279-11ea-b591-e35219f3294c
18fcc3a6-5279-11ea-b4d1-871867ddcd9e,19144d5a-5279-11ea-b88b-4f4ce0c5add8
18f53b68-5279-11ea-a00d-e31c9c1c53be,1914609c-5279-11ea-b448-83a42beacd33
18e8946c-5279-11ea-8a59-73fba254e9c7,19147262-5279-11ea-852d-2b384f2e1e25
18fa74f2-5279-11ea-80a0-6bc921e78646,19148680-5279-11ea-b2f0-639f40f538fe
1901798c-5279-11ea-9680-e72cde1d6d9a,19149954-5279-11ea-aa31-630cc5b1b7bb
18e0e03c-5279-11ea-a644-af095968b987,1914aa20-5279-11ea-a5d3-fbfbfba45054
18e21470-5279-11ea-b44b-bbc0c4976f7a,1914ba88-5279-11ea-af88-ef9305b6935d
190f7424-5279-11ea-bac8-1bb306782197,1914c8de-5279-11ea-af6a-dfae4118b5c7
18fd8f66-5279-11ea-8ded-4359a03a13bb,1914d7e8-5279-11ea-9a9c-53d3525c9fa4
1911731e-5279-11ea-bdd7-1f5096b3975a,1914e864-5279-11ea-961f-2f1d4a88347b
1900f57a-5279-11ea-a085-5fdc444afd24,1914f908-5279-11ea-b921-db42fd6eb1b1
19010696-5279-11ea-99c2-d342cc16a140,19150a06-5279-11ea-9e04-13ac63b54903
190a78b6-5279-11ea-9c7d-db9429bbb193,19151aa0-5279-11ea-9d9b-3784765e897e
18ecaffc-5279-11ea-9db3-575d161fb700,191531d4-5279-11ea-83a4-776a8d2580a4
1911d476-5279-11ea-a0af-bf360503b608,19154502-5279-11ea-98a3-23c9b48c60e9
18ea8a4c-5279-11ea-8121-0f1c59ca5ff1,191558bc-5279-11ea-9f4d-8b8a07e8b1bc
191366f6-5279-11ea-af0f-5721e8b61156,191573d8-5279-11ea-9490-1701376dd512
18f4d772-5279-11ea-8763-9f381cc52893,19158684-5279-11ea-9694-0b48f797e638
18f96742-5279-11ea-b12d-8702286e9941,1915966a-5279-11ea-8359-2306ad0b5b04
18e4d246-5279-11ea-8cbd-f74f9658e65c,1915a5c4-5279-11ea-9faa-4fb9e61ed6e4
18ffb37c-5279-11ea-a6cf-af0918075738,1915b4ce-5279-11ea-95b5-97b69eb5070b
18f21b9a-5279-11ea-b251-a35faf49f310,1915c496-5279-11ea-8fd8-b3bd35389e72
18e8e57a-5279-11ea-a119-13f9cce9cec3,1915d77e-5279-11ea-b92a-c70929bdcfd1
18e3c748-5279-11ea-86fe-23d86df05696,1915e822-5279-11ea-850f-4329058212ed
18f06624-5279-11ea-be02-7b7058343902,1915f808-5279-11ea-91b4-a32332391b15
190e97ca-5279-11ea-9be6-1f1d4c0895a4,191608a2-5279-11ea-a308-bb23edde4ba7
18e22280-5279-11ea-9960-3fb4a7e551b6,19161978-5279-11ea-a2ed-a3cda9aa31df
18e7f930-5279-11ea-9e88-7314d8605449,19162a4e-5279-11ea-8c50-13637f5bbea4
19051966-5279-11ea-b40b-c3507a0fad34,19163bce-5279-11ea-939d-1f5cad83e96d
1906c82e-5279-11ea-a5f3-f7cc8a75512a,19164d08-5279-11ea-8f8a-4780ca6028ea
18e853d0-5279-11ea-a1fd-4721ffa78925,19165eb0-5279-11ea-a528-6ffd964380d3
18f1744c-5279-11ea-8b02-3786816aca9c,19166f7c-5279-11ea-89e2-0fce549b1547
18eba292-5279-11ea-9d8f-7b8427a7f498,19167f30-5279-11ea-b326-83d8eee24077
18efb2f6-5279-11ea-a341-53ebeb93d1c5,19168db8-5279-11ea-b0b3-0f033ae44505
18f321de-5279-11ea-83ed-8f29968c28c4,1916a05a-5279-11ea-83be-b3d189b6969b
19075596-5279-11ea-aa9b-9b17f12bc3c3,1916b0ae-5279-11ea-a7d8-035f800592cb
18e1aae4-5279-11ea-bbd8-efef0753759a,1916c102-5279-11ea-8a09-53da6a406d65
18e777ee-5279-11ea-be40-0f703140e6ba,1916d214-5279-11ea-bb3a-330c88097ecf
18ec9fd0-5279-11ea-9696-7fcd96888fbd,1916e36c-5279-11ea-a095-0f416ace371b
1915966a-5279-11ea-8359-2306ad0b5b04,1916f3de-5279-11ea-afb5-c36934c0fd55
19165eb0-5279-11ea-a528-6ffd964380d3,19170266-5279-11ea-83f5-1386b18e320d
18fa2290-5279-11ea-996c-3356169f96a1,191714ae-5279-11ea-b57d-2f187091c2fb
1907e830-5279-11ea-bd70-13f7fb21d935,1917235e-5279-11ea-9ed2-afaf99a33250
190a8824-5279-11ea-803b-a34ce10f173b,191733ee-5279-11ea-a7be-4758e1883f25
18fc6fe6-5279-11ea-b755-cb03f247ba61,191745d2-5279-11ea-80d8-3f7b851272e6
18f5a76a-5279-11ea-b924-af7ea3d7f9b1,191756bc-5279-11ea-8fe6-bfccf8f41f87
18fa13ae-5279-11ea-b557-2f1b85248557,19176760-5279-11ea-b888-8307e32b8d9c
18e1f7d8-5279-11ea-be84-471873548a20,19177822-5279-11ea-aa77-cfd2ba6ab4a2
18f0bd86-5279-11ea-a7cf-531a63da9236,1917888a-5279-11ea-b59f-43fab99c6700
190462aa-5279-11ea-832b-d769c2e80795,19179b68-5279-11ea-a95e-c32f56d7b8c9
1904b462-5279-11ea-b4e9-13d07f2b8e66,1917ab12-5279-11ea-80c2-177d1f0fd2a2
18e6cd1c-5279-11ea-8dbd-a330ffe91ef1,1917be22-5279-11ea-935c-071f0ba24dcc
190a2ffa-5279-11ea-9011-536d7e046e90,1917cf48-5279-11ea-945e-6329c81f5cc9
1908da56-5279-11ea-a788-f7a5b9429a4e,1917de52-5279-11ea-93dc-275079eaa745
18f99b90-5279-11ea-ac0c-5789b982533e,1917ebe0-5279-11ea-a29f-ab9a18c1636e
18e2edaa-5279-11ea-a90c-4b12058fec12,1917fa0e-5279-11ea-8962-3f4f48a03e52
18e7a85e-5279-11ea-8433-1302c29508ed,1918090e-5279-11ea-9e7d-4b022af7de82
18fb4ca6-5279-11ea-ab0d-9fc0b6bc12a7,191827b8-5279-11ea-a4d1-fb63da4bf3dc
18f4af4a-5279-11ea-9f7a-33bbccd59dd6,1918385c-5279-11ea-873b-4361f6d0e814
18e86d48-5279-11ea-a010-3fecce4cff3e,19184aae-5279-11ea-87df-c785cb0967ea
190573d4-5279-11ea-940f-d70d6f87d9b0,191859d6-5279-11ea-be71-977d2f23f2f1
1912b72e-5279-11ea-9319-87ed78a2df06,19186b24-5279-11ea-8c4c-5be29930b46e
191230b0-5279-11ea-937a-034886b97744,19187a42-5279-11ea-a5b7-1f4e698252e2
1911e9ca-5279-11ea-9cdf-2791ef1559ce,19188992-5279-11ea-a12d-573ade6f53cf
18ff6ad4-5279-11ea-aaee-63e6da1d8393,19189964-5279-11ea-bba6-0724d8a6d9c0
18f61f7e-5279-11ea-ae42-bf88265c3482,1918a9d6-5279-11ea-a828-6f59b7145d7c
18f09e6e-5279-11ea-aac1-cb91bc850a1b,1918ba48-5279-11ea-94dc-5b8afa63aa67
18fcd0d0-5279-11ea-96e5-1ffbac24396c,1918c98e-5279-11ea-82a0-332f85cfdeb3
18f4c84a-5279-11ea-b9d8-5b0bbee13015,1918d866-5279-11ea-b58a-e3d91e521d23
18efa36a-5279-11ea-ace5-931a443ca0b7,1918ea54-5279-11ea-8283-a37b63d6ce12
19097a06-5279-11ea-b25d-2b298f419197,1918faf8-5279-11ea-ab1c-d7ea5d1e062e
18f0ad78-5279-11ea-ba06-a33f6e35eb9a,19190b6a-5279-11ea-a92d-db14fb6acb6f
19158684-5279-11ea-9694-0b48f797e638,19191c9a-5279-11ea-9152-d77eda34fa9d
18ff193a-5279-11ea-8d02-8f0ad455b915,19192dac-5279-11ea-930f-ef6052e791a4
18eb77fe-5279-11ea-9d03-2708f02b2a86,19193fa4-5279-11ea-8b34-93ed1384ea3f
18f6b402-5279-11ea-92fe-e7977418ad38,1919507a-5279-11ea-bf8c-8706cf2e60ef
190eca42-5279-11ea-adc7-7fa26546d6b8,19196178-5279-11ea-a3b5-fb2d91731607
18ed08c6-5279-11ea-8374-57ae08646e2f,1919737a-5279-11ea-ae37-d713f61f1504
18e9b522-5279-11ea-9a69-1f56dfdd6ff1,19198392-5279-11ea-b040-834f42dd25a7
1914e864-5279-11ea-961f-2f1d4a88347b,191994a4-5279-11ea-8135-2f608a39f956
18e08ae2-5279-11ea-bdfd-57daf693b272,1919a656-5279-11ea-a807-53220dc50f0c
18fe124c-5279-11ea-9d3f-63177b4fe8a5,1919b95c-5279-11ea-af25-e36322bb6bd3
18f048a6-5279-11ea-922d-737c758e5635,1919c988-5279-11ea-b900-87ede3cee15e
18f5576a-5279-11ea-8611-57a49472780c,1919d950-5279-11ea-b4fb-abe7695652d0
18e4710c-5279-11ea-a638-bb9371f364d0,1919ec2e-5279-11ea-b5a9-079736045790
18e8a29a-5279-11ea-9d87-63ebea4a6d7c,1919ffb6-5279-11ea-bf73-9b451dfaf4b3
19170266-5279-11ea-83f5-1386b18e320d,191a0f6a-5279-11ea-8f26-b3c28006b8d5
190775e4-5279-11ea-b76c-e756220ae228,191a1f14-5279-11ea-919e-bba41d41209e
18fce61a-5279-11ea-b424-9359fea9e6e7,191a30b2-5279-11ea-a56c-b323e3fa6c2a
19091b88-5279-11ea-84d9-ebdb8f0ea7e9,191a3e86-5279-11ea-ad06-fffa2e5f1724
18e1e87e-5279-11ea-9f9b-93845a1aef45,191a5506-5279-11ea-a4e9-bf8ba31bcff2
18f3f7e4-5279-11ea-af5d-dbaff0e7793d,191a6848-5279-11ea-b8cf-4be1ccfcd55c
18ebdf1e-5279-11ea-934a-834633cae541,191a77a2-5279-11ea-bb7a-7b0e0ebe2d4b
18f853c0-5279-11ea-b07b-738ee1914330,191a8ddc-5279-11ea-83d8-bb0ec0e4919c
18f64b5c-5279-11ea-8840-67dcf88eb28d,191a9d2c-5279-11ea-b3d8-e7c9947c6603
190ca654-5279-11ea-a7cb-5318ba4cf8fa,191aaeac-5279-11ea-a099-13689907cc1c
190d90fa-5279-11ea-a9c5-7b78fb7b440b,191abf5a-5279-11ea-84d7-b3faa507b794
19051966-5279-11ea-b40b-c3507a0fad34,191acfc2-5279-11ea-9261-e35a7e282ec2
18e6da46-5279-11ea-bef7-1bf91712b963,191ae4c6-5279-11ea-9d35-5bc95825d6ec
18e21470-5279-11ea-b44b-bbc0c4976f7a,191af628-5279-11ea-bf1b-671b15779755
18e4a776-5279-11ea-8b78-0fc97bb8c0fa,191b0640-5279-11ea-b895-436ce05d403e
18f7400c-5279-11ea-af30-df65c5ee6de4,191b19b4-5279-11ea-a341-6749234c1b36
18e499f2-5279-11ea-b713-47a1889c6e29,191b2aa8-5279-11ea-abf5-37a92faf5963
18f3be46-5279-11ea-8dbf-1761ee4c0204,191b3b24-5279-11ea-9a95-db2292c1aaaf
18ed1794-5279-11ea-82a9-13d7229866ff,191b4d08-5279-11ea-9e85-43b5a80055d2
18e6e784-5279-11ea-83bb-efea71884efb,191b5fc8-5279-11ea-87db-23eba86d7c0d
19138c4e-5279-11ea-8377-5b38d56dab9e,191b6fea-5279-11ea-8f3e-c308628ada38
190b88d2-5279-11ea-84cc-4bf7f3f7706b,191b8390-5279-11ea-b4a2-2baa91de6739
18ead7a4-5279-11ea-90bd-cbe261a5d417,191b95ec-5279-11ea-ab14-df62796d2396
1909d08c-5279-11ea-a06d-9b4a7c17b87f,191bb874-5279-11ea-abf5-73b119dc913f
18fa4158-5279-11ea-8be0-b74966ed89ea,191ba690-5279-11ea-b41a-0bd0c2b52a90
190775e4-5279-11ea-b76c-e756220ae228,191bccd8-5279-11ea-b6a9-43ce5936edc9
18f5f058-5279-11ea-ac98-67aac81a31ab,191bdec6-5279-11ea-8403-57141b53363d
191a8ddc-5279-11ea-83d8-bb0ec0e4919c,191bf082-5279-11ea-a4f8-2f5c1548a2f4
18eed160-5279-11ea-a94b-eb0fa7e3c221,191c0234-5279-11ea-b9cb-bb63864d8b96
18ea3f74-5279-11ea-98c8-b72d77a52d70,191c127e-5279-11ea-803d-cbf169851295
18fcee62-5279-11ea-8a07-078450ef3584,191c2368-5279-11ea-9d3c-9fccebc9aa64
18ef85c4-5279-11ea-8b90-1700ec237507,191c3560-5279-11ea-aa83-c3fd3ed5d180
18fac2f4-5279-11ea-8873-4b9b825b5056,191c467c-5279-11ea-b125-07e6fdcd4e2d
1902b310-5279-11ea-9021-030ca9a38da1,191c5c66-5279-11ea-98be-53208187a00b
18e3c748-5279-11ea-86fe-23d86df05696,191c7fc0-5279-11ea-a10b-bf2525dd13fa
19064408-5279-11ea-a4d2-db4210aff441,191c6e86-5279-11ea-9714-0750f8474fb8
19177822-5279-11ea-aa77-cfd2ba6ab4a2,191c9172-5279-11ea-a6fd-4b4941c625e2
18ec0dae-5279-11ea-a96b-eb295ded5343,191ca144-5279-11ea-b61a-bff6960cef44
190728e6-5279-11ea-af97-1f11703ef86d,191cc0c0-5279-11ea-b62b-23a7c4be2926
18fcfdd0-5279-11ea-bee0-43ded65530d2,191cb0d0-5279-11ea-9e37-eb9308f4ac3f
18ecbfa6-5279-11ea-9bc6-2f2fd237b637,191cd1dc-5279-11ea-840b-ebd6167a77b9
18ef85c4-5279-11ea-8b90-1700ec237507,191ce67c-5279-11ea-8346-7f9c3f29a141
19082688-5279-11ea-b771-0f6592c235fd,191cf66c-5279-11ea-96d7-77cec98c2131
190c370a-5279-11ea-ad66-3b60325a3de4,191d085a-5279-11ea-829a-2ba2ec0e6ace
18fea1ee-5279-11ea-a17c-2b58fa648741,191d1ade-5279-11ea-b4dd-23fb0b1b2fb7
19186b24-5279-11ea-8c4c-5be29930b46e,191d31ea-5279-11ea-b6c3-f722d1444c63
190ad98c-5279-11ea-b356-3bd201cac40c,191d41c6-5279-11ea-b457-973d12e81e72
19102e64-5279-11ea-a990-57fc4ca8855d,191d530a-5279-11ea-9c7d-1b2ef0883fc8
191b95ec-5279-11ea-ab14-df62796d2396,191d64bc-5279-11ea-a1fa-2b1e763c2388
190f1e20-5279-11ea-8075-db104597c0a3,191d7600-5279-11ea-8688-4ba9570c9d2b
18fadfa0-5279-11ea-bd43-abc4dff4f3be,191d8424-5279-11ea-93e1-bf39e069041d
18efb2f6-5279-11ea-a341-53ebeb93d1c5,191d9478-5279-11ea-b11e-87e25ee9e13b
191745d2-5279-11ea-80d8-3f7b851272e6,191da5ee-5279-11ea-966d-33b3dcff3e09
18ef76a6-5279-11ea-8eca-172a6031b35e,191db818-5279-11ea-9018-97823d379892
19186b24-5279-11ea-8c4c-5be29930b46e,191dc902-5279-11ea-b7b3-c386eaed7f8b
19170266-5279-11ea-83f5-1386b18e320d,191dd992-5279-11ea-a6ac-3710fd40dc17
1918090e-5279-11ea-9e7d-4b022af7de82,191dee46-5279-11ea-b71a-272233c769b1
18eac6ba-5279-11ea-b7c8-d3fd638f70aa,191dff76-5279-11ea-84ce-178d21c92748
190261bc-5279-11ea-9307-4f11ccb5a570,191e0fde-5279-11ea-b411-7bae8f57011e
190070d2-5279-11ea-a215-d3d05004e5c2,191e20fa-5279-11ea-a3ad-c7ae7c58e75c
19093b86-5279-11ea-addc-6b8e2936d564,191e32f2-5279-11ea-b27c-438b752910c6
18e5b9cc-5279-11ea-9328-773456e71639,191e4332-5279-11ea-b8c0-df3c3ef3c379
18f60eb2-5279-11ea-af53-877303211211,191e57e6-5279-11ea-809f-07e118af6be3
18e769c0-5279-11ea-bc37-b711cecdae3e,191e67ea-5279-11ea-9122-ab958f6cee8a
1908569e-5279-11ea-8b8e-3fc3fd1e0cd2,191e76ea-5279-11ea-905a-232b6acb6cd6
191b8390-5279-11ea-b4a2-2baa91de6739,191e980a-5279-11ea-acf6-8371adcd1700
18faedd8-5279-11ea-8f93-fb54d18a4752,191e87a2-5279-11ea-993b-1b0a1bd39833
1903342a-5279-11ea-a308-c703cc28b49a,191eaf5c-5279-11ea-ad76-6bf04a041d38
18f8d08e-5279-11ea-ba88-431ecbcd00ee,191ec104-5279-11ea-83c9-c33fb541b6c8
18ffc51a-5279-11ea-aa6a-bb2cd04fc2be,191ed342-5279-11ea-a7f0-5fe7cac56734
18e28b3a-5279-11ea-adff-ef975183ef18,191ee526-5279-11ea-b0a1-37b672ebaf9a
19167f30-5279-11ea-b326-83d8eee24077,191ef9c6-5279-11ea-9f52-a7df0cb77437
18f0cb5a-5279-11ea-a037-e750203014dc,191f0c18-5279-11ea-97bd-efca80a40c98
190f7424-5279-11ea-bac8-1bb306782197,191f1e9c-5279-11ea-9cad-0f9cc4edda2c
1904b462-5279-11ea-b4e9-13d07f2b8e66,191f3292-5279-11ea-8cac-1bb511e27966
18f701dc-5279-11ea-8aa0-4341fdb32783,191f4390-5279-11ea-abf7-3be53f97d8c0
1904a67a-5279-11ea-bf13-6f1f33cdd136,191f5998-5279-11ea-a9d4-43b2a6b884f1
19059008-5279-11ea-91aa-9bdcbd84a38a,191f6bea-5279-11ea-b982-57f07a5d8edf
18eb21f0-5279-11ea-8aa1-a37ad8d990e5,191f7e28-5279-11ea-8de4-53fc66327e47
1909fb66-5279-11ea-9002-b3624625a69e,191f8df0-5279-11ea-819a-d3bb8696eb0d
18e505cc-5279-11ea-a431-c7319d55f141,191f9f5c-5279-11ea-be58-5f4d5acb6f6f
190ea864-5279-11ea-857a-b33becc21610,191fb456-5279-11ea-b9c3-4b387141ca71
18ffb37c-5279-11ea-a6cf-af0918075738,191fc7de-5279-11ea-ad46-3765ffcbfdcf
19069714-5279-11ea-8f5a-07757ddb357a,191fd922-5279-11ea-bab1-c7d9c58720c1
18fbeab2-5279-11ea-8871-f7df7504f86b,191febd8-5279-11ea-8198-eb7a21a8b0a9
1908ed70-5279-11ea-95d8-774733f4e5ab,191ffe48-5279-11ea-a7c7-a7626c9ffca5
190d5d56-5279-11ea-8394-6b4cd5d8735d,19201072-5279-11ea-9523-5b813d3151c4
190625e0-5279-11ea-94f3-6b10a55eb95f,192020ee-5279-11ea-8da0-aff1073df487
18f02bbe-5279-11ea-93b9-6f02c98010c1,19203200-5279-11ea-9d37-27f0381c86be
18f549d2-5279-11ea-a379-ebd5c0503a70,192043a8-5279-11ea-9f29-9b231ea35c9a
18fd49d4-5279-11ea-964e-c7a83a5ec15b,192058fc-5279-11ea-a542-db321f0ea880
190189e0-5279-11ea-a90e-4b358b8da4c3,19206a72-5279-11ea-a9ab-dfc9d48a2c61
18ffa5bc-5279-11ea-9ab3-038edb5aa097,19207ba2-5279-11ea-b4c5-6f830001bd96
18e51468-5279-11ea-9522-fb7d3447373d,19208d18-5279-11ea-953a-bb03a882dc85
18e832ba-5279-11ea-94b9-43d6863d9b2d,1920a19a-5279-11ea-8f06-5b8638ad07e6
18e26d58-5279-11ea-a4d0-0b210616e6cf,1920b46e-5279-11ea-a0d0-fbfaeb633419
18e56576-5279-11ea-a710-d7f0e6d60b55,1920c6c0-5279-11ea-95e9-5b1dad0b94b2
18fb4ca6-5279-11ea-ab0d-9fc0b6bc12a7,1920eab0-5279-11ea-aa55-ab7933f96971
1911e9ca-5279-11ea-9cdf-2791ef1559ce,1920d8a4-5279-11ea-b2b5-c7d93e0aeb2c
18efdd8a-5279-11ea-8a38-8b8a12a6f49a,1920ff32-5279-11ea-9111-5b92caa6d73c
1913fef4-5279-11ea-b015-3b5eb98568af,19211008-5279-11ea-9a24-9fa369f05f8f
18f02bbe-5279-11ea-93b9-6f02c98010c1,192122e6-5279-11ea-a2b1-c79cca00a773
18e6018e-5279-11ea-927d-53068a01dfd1,19213362-5279-11ea-aaa6-575f866612e5
190e6d22-5279-11ea-be2c-cbeddf358aba,19214438-5279-11ea-8be2-c7480c683487
1903050e-5279-11ea-8e4f-2368cc6878f5,1921555e-5279-11ea-a597-73a8aca1140e
18e86208-5279-11ea-a90b-7fe244be2425,192168e6-5279-11ea-8db5-83e20f164418
19009396-5279-11ea-ad81-2f0b0defa8fd,19217afc-5279-11ea-b0f4-dbfb5f10c6cc
18ea4db6-5279-11ea-8d0d-ffce00f01201,19218c68-5279-11ea-8dd7-77cc1fc5fae5
1911b130-5279-11ea-b0a2-5f9c05b1b84e,1921a19e-5279-11ea-b3d3-57a4d62b12aa
18f701dc-5279-11ea-8aa0-4341fdb32783,1921b364-5279-11ea-b18d-1b53e78c4843
18f5d46a-5279-11ea-b4f6-37771d13e3c9,1921c48a-5279-11ea-9ba8-b7059f2fc9e5
190e8942-5279-11ea-9892-7747f6f5f812,1921d5ec-5279-11ea-809d-63addfd375ed
18e8cbf8-5279-11ea-8c8f-43c0bf84b1b7,1921ed66-5279-11ea-b2eb-d3618f22e9a0
1908357e-5279-11ea-bf7c-efb4fe3736e9,1921fedc-5279-11ea-b211-c3954fa988a3
18f20cc2-5279-11ea-92b1-432d88915e7c,192210e8-5279-11ea-a4e5-e7d6d7ef4db0
1903c192-5279-11ea-8580-07b7522949cc,1922259c-5279-11ea-a275-0b053384a565
191c6e86-5279-11ea-9714-0750f8474fb8,1922385c-5279-11ea-8168-dfe041e1ab56
19065934-5279-11ea-879c-0f686a874c7c,192249dc-5279-11ea-8b91-5f36bf82370a
19055e94-5279-11ea-a324-cf14e79448f2,19225b70-5279-11ea-a03c-8b67b7c4dc26
