RunID,Tick,AllAgents,Active,Inactive
run-2020-2-18-18-4-24.561328887,0,11,9,2
run-2020-2-18-18-4-24.561328887,1,16,13,3
run-2020-2-18-18-4-24.561328887,2,21,16,5
run-2020-2-18-18-4-24.561328887,3,21,13,8
run-2020-2-18-18-4-24.561328887,4,23,9,14
run-2020-2-18-18-4-24.561328887,5,26,12,14
run-2020-2-18-18-4-24.561328887,6,29,13,16
run-2020-2-18-18-4-24.561328887,7,31,12,19
run-2020-2-18-18-4-24.561328887,8,38,18,20
run-2020-2-18-18-4-24.561328887,9,46,23,23
run-2020-2-18-18-4-24.561328887,10,47,24,23
run-2020-2-18-18-4-24.561328887,11,51,28,23
run-2020-2-18-18-4-24.561328887,12,56,28,28
run-2020-2-18-18-4-24.561328887,13,61,31,30
run-2020-2-18-18-4-24.561328887,14,68,34,34
run-2020-2-18-18-4-24.561328887,15,71,34,37
run-2020-2-18-18-4-24.561328887,16,75,35,40
run-2020-2-18-18-4-24.561328887,17,77,34,43
run-2020-2-18-18-4-24.561328887,18,80,34,46
run-2020-2-18-18-4-24.561328887,19,82,34,48
run-2020-2-18-18-4-24.561328887,20,89,41,48
run-2020-2-18-18-4-24.561328887,21,95,41,54
run-2020-2-18-18-4-24.561328887,22,97,41,56
run-2020-2-18-18-4-24.561328887,23,104,47,57
run-2020-2-18-18-4-24.561328887,24,106,44,62
run-2020-2-18-18-4-24.561328887,25,112,47,65
run-2020-2-18-18-4-24.561328887,26,112,45,67
run-2020-2-18-18-4-24.561328887,27,117,48,69
run-2020-2-18-18-4-24.561328887,28,122,52,70
run-2020-2-18-18-4-24.561328887,29,125,50,75
