RunID,Tick,ActiveAgentsPerTick
run-2020-2-18-13-53-27.501492023,0,15
run-2020-2-18-13-53-27.501492023,1,17
run-2020-2-18-13-53-27.501492023,2,17
run-2020-2-18-13-53-27.501492023,3,13
run-2020-2-18-13-53-27.501492023,4,15
run-2020-2-18-13-53-27.501492023,5,20
run-2020-2-18-13-53-27.501492023,6,22
run-2020-2-18-13-53-27.501492023,7,20
run-2020-2-18-13-53-27.501492023,8,19
run-2020-2-18-13-53-27.501492023,9,21
run-2020-2-18-13-53-27.501492023,10,19
run-2020-2-18-13-53-27.501492023,11,19
run-2020-2-18-13-53-27.501492023,12,23
run-2020-2-18-13-53-27.501492023,13,26
run-2020-2-18-13-53-27.501492023,14,23
run-2020-2-18-13-53-27.501492023,15,26
run-2020-2-18-13-53-27.501492023,16,26
run-2020-2-18-13-53-27.501492023,17,29
run-2020-2-18-13-53-27.501492023,18,28
run-2020-2-18-13-53-27.501492023,19,31
run-2020-2-18-13-53-27.501492023,20,31
run-2020-2-18-13-53-27.501492023,21,34
run-2020-2-18-13-53-27.501492023,22,33
run-2020-2-18-13-53-27.501492023,23,36
run-2020-2-18-13-53-27.501492023,24,38
run-2020-2-18-13-53-27.501492023,25,39
run-2020-2-18-13-53-27.501492023,26,37
run-2020-2-18-13-53-27.501492023,27,41
run-2020-2-18-13-53-27.501492023,28,45
run-2020-2-18-13-53-27.501492023,29,45
run-2020-2-18-13-53-27.501492023,30,43
run-2020-2-18-13-53-27.501492023,31,45
run-2020-2-18-13-53-27.501492023,32,44
run-2020-2-18-13-53-27.501492023,33,49
run-2020-2-18-13-53-27.501492023,34,47
run-2020-2-18-13-53-27.501492023,35,46
run-2020-2-18-13-53-27.501492023,36,47
run-2020-2-18-13-53-27.501492023,37,49
run-2020-2-18-13-53-27.501492023,38,50
run-2020-2-18-13-53-27.501492023,39,53
run-2020-2-18-13-53-27.501492023,40,56
run-2020-2-18-13-53-27.501492023,41,59
run-2020-2-18-13-53-27.501492023,42,58
run-2020-2-18-13-53-27.501492023,43,61
run-2020-2-18-13-53-27.501492023,44,62
run-2020-2-18-13-53-27.501492023,45,60
run-2020-2-18-13-53-27.501492023,46,62
run-2020-2-18-13-53-27.501492023,47,60
run-2020-2-18-13-53-27.501492023,48,59
run-2020-2-18-13-53-27.501492023,49,57
run-2020-2-18-13-53-27.501492023,50,58
run-2020-2-18-13-53-27.501492023,51,59
run-2020-2-18-13-53-27.501492023,52,57
run-2020-2-18-13-53-27.501492023,53,56
run-2020-2-18-13-53-27.501492023,54,57
run-2020-2-18-13-53-27.501492023,55,61
run-2020-2-18-13-53-27.501492023,56,59
run-2020-2-18-13-53-27.501492023,57,60
run-2020-2-18-13-53-27.501492023,58,58
run-2020-2-18-13-53-27.501492023,59,60
run-2020-2-18-13-53-27.501492023,60,59
run-2020-2-18-13-53-27.501492023,61,57
run-2020-2-18-13-53-27.501492023,62,57
run-2020-2-18-13-53-27.501492023,63,57
run-2020-2-18-13-53-27.501492023,64,56
run-2020-2-18-13-53-27.501492023,65,60
run-2020-2-18-13-53-27.501492023,66,58
run-2020-2-18-13-53-27.501492023,67,60
run-2020-2-18-13-53-27.501492023,68,67
run-2020-2-18-13-53-27.501492023,69,63
run-2020-2-18-13-53-27.501492023,70,60
run-2020-2-18-13-53-27.501492023,71,59
run-2020-2-18-13-53-27.501492023,72,56
run-2020-2-18-13-53-27.501492023,73,52
run-2020-2-18-13-53-27.501492023,74,54
run-2020-2-18-13-53-27.501492023,75,53
run-2020-2-18-13-53-27.501492023,76,50
run-2020-2-18-13-53-27.501492023,77,47
run-2020-2-18-13-53-27.501492023,78,47
run-2020-2-18-13-53-27.501492023,79,51
run-2020-2-18-13-53-27.501492023,80,53
run-2020-2-18-13-53-27.501492023,81,56
run-2020-2-18-13-53-27.501492023,82,59
run-2020-2-18-13-53-27.501492023,83,56
run-2020-2-18-13-53-27.501492023,84,53
run-2020-2-18-13-53-27.501492023,85,53
run-2020-2-18-13-53-27.501492023,86,55
run-2020-2-18-13-53-27.501492023,87,56
run-2020-2-18-13-53-27.501492023,88,55
run-2020-2-18-13-53-27.501492023,89,60
run-2020-2-18-13-53-27.501492023,90,55
run-2020-2-18-13-53-27.501492023,91,58
run-2020-2-18-13-53-27.501492023,92,56
run-2020-2-18-13-53-27.501492023,93,53
run-2020-2-18-13-53-27.501492023,94,57
run-2020-2-18-13-53-27.501492023,95,60
run-2020-2-18-13-53-27.501492023,96,62
run-2020-2-18-13-53-27.501492023,97,60
run-2020-2-18-13-53-27.501492023,98,63
run-2020-2-18-13-53-27.501492023,99,64
run-2020-2-18-13-53-27.501492023,100,58
