RunID,Agent,Age,Created,Inactive,Resources,Reputation,Ability,Que
run-2020-2-18-13-44-26.541481018,AGENT#c7939892-5254-11ea-9184-83bc982ec67b,0,0,0,10,1.0,1.0,0
run-2020-2-18-13-44-26.541481018,AGENT#c793a3b4-5254-11ea-b8da-9fcfa8b6522c,1,0,1,10,1.0,1.0,0
run-2020-2-18-13-44-26.541481018,AGENT#c793e7de-5254-11ea-b2cc-5792b734a60a,1,0,1,10,1.0,1.0,0
run-2020-2-18-13-44-26.541481018,AGENT#c793f062-5254-11ea-ae49-7747e1992a6c,1,0,1,10,1.0,1.0,0
run-2020-2-18-13-44-26.541481018,AGENT#c793900e-5254-11ea-920c-778e0a9d72cf,2,0,2,10,1.0,1.0,0
run-2020-2-18-13-44-26.541481018,AGENT#c7939e28-5254-11ea-932f-8bce378f6554,2,0,2,10,1.0,1.0,0
run-2020-2-18-13-44-26.541481018,AGENT#c793eab8-5254-11ea-a284-5fa43a009f06,2,0,2,10,1.0,1.0,0
run-2020-2-18-13-44-26.541481018,AGENT#c79392f2-5254-11ea-a82d-ab833f90c62a,3,0,3,10,1.0,1.0,0
run-2020-2-18-13-44-26.541481018,AGENT#c79395cc-5254-11ea-b61b-338fdad7aaa8,3,0,3,10,1.0,1.0,0
run-2020-2-18-13-44-26.541481018,AGENT#c793a0e4-5254-11ea-b7a8-7389686bf343,3,0,3,10,1.0,1.0,0
run-2020-2-18-13-44-26.541481018,AGENT#c793e50e-5254-11ea-986f-7752e6d2a4ef,3,0,3,10,1.0,1.0,0
run-2020-2-18-13-44-26.541481018,AGENT#c793eda6-5254-11ea-872e-d78ddd9cca8f,3,0,3,10,1.0,1.0,0
run-2020-2-18-13-44-26.541481018,AGENT#c7945548-5254-11ea-9ffa-77ca98ffbc5a,2,1,3,10,1.0,1.0,0
run-2020-2-18-13-44-26.541481018,AGENT#c794584a-5254-11ea-b1b0-87bb407fc5bc,4,1,5,10,1.0,1.0,0
run-2020-2-18-13-44-26.541481018,AGENT#c7949260-5254-11ea-ba92-0b0408760ffd,3,2,5,10,1.0,1.0,0
run-2020-2-18-13-44-26.541481018,AGENT#c794954e-5254-11ea-8b82-93b252296447,4,2,6,10,1.0,1.0,0
run-2020-2-18-13-44-26.541481018,AGENT#c794d702-5254-11ea-a013-331709a9fb7c,3,3,6,10,1.0,1.0,0
run-2020-2-18-13-44-26.541481018,AGENT#c7955772-5254-11ea-9de4-479677f05f93,1,5,6,10,1.0,1.0,0
run-2020-2-18-13-44-26.541481018,AGENT#c7955a6a-5254-11ea-acf7-939b4a158a04,1,5,6,10,1.0,1.0,0
run-2020-2-18-13-44-26.541481018,AGENT#c794da2c-5254-11ea-95f4-f33b93e6c7a6,4,3,7,10,1.0,1.0,0
run-2020-2-18-13-44-26.541481018,AGENT#c794dd10-5254-11ea-a798-239ec5003057,5,3,8,10,1.0,1.0,0
run-2020-2-18-13-44-26.541481018,AGENT#c7951b04-5254-11ea-b0e3-0bd72f49fcea,4,4,8,10,1.0,1.0,0
run-2020-2-18-13-44-26.541481018,AGENT#c7959548-5254-11ea-af1c-dbbbc28b98df,2,6,8,10,1.0,1.0,0
run-2020-2-18-13-44-26.541481018,AGENT#c79514f6-5254-11ea-9e94-0fe564fb8a01,5,4,9,10,1.0,1.0,0
run-2020-2-18-13-44-26.541481018,AGENT#c7959b2e-5254-11ea-9c32-af37a84811c4,3,6,9,10,1.0,1.0,0
run-2020-2-18-13-44-26.541481018,AGENT#c795d800-5254-11ea-8918-3fb64c2e5804,2,7,9,10,1.0,1.0,0
run-2020-2-18-13-44-26.541481018,AGENT#c7955d3a-5254-11ea-ac22-977546ddd227,5,5,10,10,1.0,1.0,0
run-2020-2-18-13-44-26.541481018,AGENT#c795d4ae-5254-11ea-a83c-a3678b91836e,4,7,11,10,1.0,1.0,0
run-2020-2-18-13-44-26.541481018,AGENT#c7961c34-5254-11ea-9ccc-a72aab49a450,3,8,11,10,1.0,1.0,0
run-2020-2-18-13-44-26.541481018,AGENT#c7966ba8-5254-11ea-ab4d-b776656069d7,2,9,11,10,1.0,1.0,0
run-2020-2-18-13-44-26.541481018,AGENT#c7967102-5254-11ea-a0a6-b7970b44fd47,2,9,11,10,1.0,1.0,0
run-2020-2-18-13-44-26.541481018,AGENT#c796b0f4-5254-11ea-94b0-b79e403ec55e,1,10,11,10,1.0,1.0,0
run-2020-2-18-13-44-26.541481018,AGENT#c7966e50-5254-11ea-b8ab-07ce747dfb33,3,9,12,10,1.0,1.0,0
run-2020-2-18-13-44-26.541481018,AGENT#c796fe56-5254-11ea-924f-df49e8d5e811,1,11,12,10,1.0,1.0,0
run-2020-2-18-13-44-26.541481018,AGENT#c7970130-5254-11ea-b2de-c70f44fb409b,1,11,12,10,1.0,1.0,0
run-2020-2-18-13-44-26.541481018,AGENT#c7961f90-5254-11ea-87a8-e3180cbb5191,5,8,13,10,1.0,1.0,0
run-2020-2-18-13-44-26.541481018,AGENT#c7966630-5254-11ea-9894-8b98462314bf,5,9,14,10,1.0,1.0,0
run-2020-2-18-13-44-26.541481018,AGENT#c796b72a-5254-11ea-9ebb-f3f39669912f,5,10,15,10,1.0,1.0,0
run-2020-2-18-13-44-26.541481018,AGENT#c797df2e-5254-11ea-a35b-fbb8373c7d74,1,14,15,10,1.0,1.0,0
run-2020-2-18-13-44-26.541481018,AGENT#c79706bc-5254-11ea-b95f-af84aac5938a,5,11,16,10,1.0,1.0,0
run-2020-2-18-13-44-26.541481018,AGENT#c7974d5c-5254-11ea-bc47-2f5e36806d68,4,12,16,10,1.0,1.0,0
run-2020-2-18-13-44-26.541481018,AGENT#c79794f6-5254-11ea-9521-ef6f29cba800,3,13,16,10,1.0,1.0,0
run-2020-2-18-13-44-26.541481018,AGENT#c7978ee8-5254-11ea-888b-378c6d98a54a,4,13,17,10,1.0,1.0,0
run-2020-2-18-13-44-26.541481018,AGENT#c7982934-5254-11ea-83c5-5ba028375d90,3,15,18,10,1.0,1.0,0
run-2020-2-18-13-44-26.541481018,AGENT#c798d104-5254-11ea-8336-9ffe51693378,1,17,18,10,1.0,1.0,0
run-2020-2-18-13-44-26.541481018,AGENT#c798d69a-5254-11ea-aa71-33f16847427a,1,17,18,10,1.0,1.0,0
run-2020-2-18-13-44-26.541481018,AGENT#c7982f74-5254-11ea-ab22-e3d661e0ff29,4,15,19,10,1.0,1.0,0
run-2020-2-18-13-44-26.541481018,AGENT#c7992866-5254-11ea-af65-4b6d59ab376d,1,18,19,10,1.0,1.0,0
run-2020-2-18-13-44-26.541481018,AGENT#c79883c0-5254-11ea-92a1-fba1f09fc277,4,16,20,10,1.0,1.0,0
run-2020-2-18-13-44-26.541481018,AGENT#c79668f6-5254-11ea-b38a-d3aa9451c235,12,9,21,10,1.0,1.0,0
run-2020-2-18-13-44-26.541481018,AGENT#c798d3e8-5254-11ea-8fbe-bf9cda93faa0,4,17,21,10,1.0,1.0,0
run-2020-2-18-13-44-26.541481018,AGENT#c7997da2-5254-11ea-9680-57e7236f042d,2,19,21,10,1.0,1.0,0
run-2020-2-18-13-44-26.541481018,AGENT#c7998054-5254-11ea-9013-fbc92e8da143,2,19,21,10,1.0,1.0,0
run-2020-2-18-13-44-26.541481018,AGENT#c799dd10-5254-11ea-a9e3-1339b973bd1c,1,20,21,10,1.0,1.0,0
run-2020-2-18-13-44-26.541481018,AGENT#c795545c-5254-11ea-a20d-a7e0ae330af1,17,5,22,10,1.0,1.0,0
run-2020-2-18-13-44-26.541481018,AGENT#c7992b18-5254-11ea-9eb2-5fd2c4399f32,4,18,22,10,1.0,1.0,0
run-2020-2-18-13-44-26.541481018,AGENT#c799dffe-5254-11ea-84ba-3b80f2aa238b,2,20,22,10,1.0,1.0,0
run-2020-2-18-13-44-26.541481018,AGENT#c799e558-5254-11ea-b257-2343a8e25cd4,2,20,22,10,1.0,1.0,0
run-2020-2-18-13-44-26.541481018,AGENT#c79a4dd6-5254-11ea-960e-778bb9b9df7d,1,21,22,10,1.0,1.0,0
run-2020-2-18-13-44-26.541481018,AGENT#c79985a4-5254-11ea-88e6-b3551a8974f0,4,19,23,10,1.0,1.0,0
run-2020-2-18-13-44-26.541481018,AGENT#c79a45ca-5254-11ea-af34-8bb88f15f7f4,2,21,23,10,1.0,1.0,0
run-2020-2-18-13-44-26.541481018,AGENT#c79a4b1a-5254-11ea-bb92-d74b32b77690,2,21,23,10,1.0,1.0,0
run-2020-2-18-13-44-26.541481018,AGENT#c79aa9de-5254-11ea-9566-87a2e074a69c,1,22,23,10,1.0,1.0,0
run-2020-2-18-13-44-26.541481018,AGENT#c796fb40-5254-11ea-adfa-7326a1a74a27,13,11,24,10,1.0,1.0,0
run-2020-2-18-13-44-26.541481018,AGENT#c79b01d6-5254-11ea-8b28-57b9218ede9d,1,23,24,10,1.0,1.0,0
run-2020-2-18-13-44-26.541481018,AGENT#c79b071c-5254-11ea-bbed-cb495d71c933,1,23,24,10,1.0,1.0,0
run-2020-2-18-13-44-26.541481018,AGENT#c79b0c94-5254-11ea-a1d7-dfcc1a1addd9,1,23,24,10,1.0,1.0,0
run-2020-2-18-13-44-26.541481018,AGENT#c79b047e-5254-11ea-a395-4b7725fb1146,2,23,25,10,1.0,1.0,0
run-2020-2-18-13-44-26.541481018,AGENT#c79b690a-5254-11ea-82a8-c7724bb7571e,1,24,25,10,1.0,1.0,0
run-2020-2-18-13-44-26.541481018,AGENT#c799e2b0-5254-11ea-87e1-ef0fa8505a3f,6,20,26,10,1.0,1.0,0
run-2020-2-18-13-44-26.541481018,AGENT#c79a42dc-5254-11ea-ae41-8b407d42d82b,5,21,26,10,1.0,1.0,0
run-2020-2-18-13-44-26.541481018,AGENT#c79a4872-5254-11ea-9df7-27b0979122da,5,21,26,10,1.0,1.0,0
run-2020-2-18-13-44-26.541481018,AGENT#c79afee8-5254-11ea-b8d1-d7b9435aa713,3,23,26,10,1.0,1.0,0
run-2020-2-18-13-44-26.541481018,AGENT#c79b6388-5254-11ea-84bf-e363a0eead02,3,24,27,10,1.0,1.0,0
run-2020-2-18-13-44-26.541481018,AGENT#c79b6b9e-5254-11ea-be5c-6391b46afd45,3,24,27,10,1.0,1.0,0
run-2020-2-18-13-44-26.541481018,AGENT#c79bcfc6-5254-11ea-925e-4f3448e4398b,2,25,27,10,1.0,1.0,0
run-2020-2-18-13-44-26.541481018,AGENT#c79c30ec-5254-11ea-be89-af5c05fa1414,1,26,27,10,1.0,1.0,0
run-2020-2-18-13-44-26.541481018,AGENT#c79c3664-5254-11ea-91f8-ff2c9e897874,1,26,27,10,1.0,1.0,0
run-2020-2-18-13-44-26.541481018,AGENT#c79c38f8-5254-11ea-881f-db5a86f7b056,1,26,27,10,1.0,1.0,0
run-2020-2-18-13-44-26.541481018,AGENT#c79b6662-5254-11ea-9f33-f7ed68158a09,4,24,28,10,1.0,1.0,0
run-2020-2-18-13-44-26.541481018,AGENT#c79bc792-5254-11ea-8445-979dc3deaed3,3,25,28,10,1.0,1.0,0
run-2020-2-18-13-44-26.541481018,AGENT#c79bca6c-5254-11ea-b752-db4a578e3c0b,3,25,28,10,1.0,1.0,0
run-2020-2-18-13-44-26.541481018,AGENT#c79c3b82-5254-11ea-87bb-c35e954053ec,3,26,29,10,1.0,1.0,0
run-2020-2-18-13-44-26.541481018,AGENT#c79ca126-5254-11ea-9109-b7a26dd40299,3,27,30,10,1.0,1.0,0
run-2020-2-18-13-44-26.541481018,AGENT#c79d044a-5254-11ea-a35a-bf28ae299c4b,2,28,30,10,1.0,1.0,0
run-2020-2-18-13-44-26.541481018,AGENT#c79d6fac-5254-11ea-a8fd-b358a7d5759b,1,29,30,10,1.0,1.0,0
run-2020-2-18-13-44-26.541481018,AGENT#c79cfec8-5254-11ea-8325-db8482ab1340,3,28,31,10,1.0,1.0,0
run-2020-2-18-13-44-26.541481018,AGENT#c79d676e-5254-11ea-8477-1b6f15cf037c,2,29,31,10,1.0,1.0,0
run-2020-2-18-13-44-26.541481018,AGENT#c79d6d2c-5254-11ea-9087-678c0370bca5,2,29,31,10,1.0,1.0,0
run-2020-2-18-13-44-26.541481018,AGENT#c79de1a8-5254-11ea-80c9-b759891eff26,1,30,31,10,1.0,1.0,0
run-2020-2-18-13-44-26.541481018,AGENT#c79d7240-5254-11ea-afd0-7b4db4e24e60,3,29,32,10,1.0,1.0,0
run-2020-2-18-13-44-26.541481018,AGENT#c79e4d64-5254-11ea-a09c-73a5f2944ce5,1,31,32,10,1.0,1.0,0
run-2020-2-18-13-44-26.541481018,AGENT#c79d01ac-5254-11ea-aeca-479ea1d9b0fd,5,28,33,10,1.0,1.0,0
run-2020-2-18-13-44-26.541481018,AGENT#c79e4ada-5254-11ea-bcaa-0bbcbb36cdcf,3,31,34,10,1.0,1.0,0
run-2020-2-18-13-44-26.541481018,AGENT#c79eafb6-5254-11ea-8a0d-07e0eb6617fb,2,32,34,10,1.0,1.0,0
run-2020-2-18-13-44-26.541481018,AGENT#c79f1000-5254-11ea-8c85-57c145539c22,1,33,34,10,1.0,1.0,0
run-2020-2-18-13-44-26.541481018,AGENT#c7965d7a-5254-11ea-8225-e70fe0a8ad31,26,9,35,10,1.0,1.0,0
run-2020-2-18-13-44-26.541481018,AGENT#c79f153c-5254-11ea-8d63-bbb893b7f073,2,33,35,10,1.0,1.0,0
run-2020-2-18-13-44-26.541481018,AGENT#c79f1a32-5254-11ea-8dc1-c7146e47d771,2,33,35,10,1.0,1.0,0
run-2020-2-18-13-44-26.541481018,AGENT#c79f8576-5254-11ea-b930-57da4d5eb398,1,34,35,10,1.0,1.0,0
run-2020-2-18-13-44-26.541481018,AGENT#c7951df2-5254-11ea-9afe-e7f4d74e8bee,32,4,36,10,1.0,1.0,0
run-2020-2-18-13-44-26.541481018,AGENT#c79e47ec-5254-11ea-a8f6-076c2e4a102d,5,31,36,10,1.0,1.0,0
run-2020-2-18-13-44-26.541481018,AGENT#c79f17b2-5254-11ea-8f68-1f0b94623ec8,3,33,36,10,1.0,1.0,0
run-2020-2-18-13-44-26.541481018,AGENT#c79f1ca8-5254-11ea-b2d1-dbb25c1118a8,3,33,36,10,1.0,1.0,0
run-2020-2-18-13-44-26.541481018,AGENT#c79d06d4-5254-11ea-b1c6-47a9ef7151c4,9,28,37,10,1.0,1.0,0
run-2020-2-18-13-44-26.541481018,AGENT#c79f12b2-5254-11ea-96d3-7b443f212c8b,4,33,37,10,1.0,1.0,0
run-2020-2-18-13-44-26.541481018,AGENT#c79f8828-5254-11ea-bc56-3b76d363c6d7,3,34,37,10,1.0,1.0,0
run-2020-2-18-13-44-26.541481018,AGENT#c7a06dba-5254-11ea-928d-fb478240ffaa,1,36,37,10,1.0,1.0,0
run-2020-2-18-13-44-26.541481018,AGENT#c7a0729c-5254-11ea-a101-e33dc91c8928,2,36,38,10,1.0,1.0,0
run-2020-2-18-13-44-26.541481018,AGENT#c79ffe52-5254-11ea-8f26-a34152dc2cea,4,35,39,10,1.0,1.0,0
run-2020-2-18-13-44-26.541481018,AGENT#c7a0dafc-5254-11ea-a7a4-671852e72f77,2,37,39,10,1.0,1.0,0
run-2020-2-18-13-44-26.541481018,AGENT#c7a13ae2-5254-11ea-8ffe-e79df8c494fd,1,38,39,10,1.0,1.0,0
run-2020-2-18-13-44-26.541481018,AGENT#c7a07044-5254-11ea-8038-a3a09fab3a79,4,36,40,10,1.0,1.0,0
run-2020-2-18-13-44-26.541481018,AGENT#c7a13ff6-5254-11ea-a00f-7b0d517d9657,5,38,43,10,1.0,1.0,0
run-2020-2-18-13-44-26.541481018,AGENT#c7a21818-5254-11ea-a670-0f5bc8375877,3,40,43,10,1.0,1.0,0
run-2020-2-18-13-44-26.541481018,AGENT#c7a2850a-5254-11ea-a2e3-f780cf568cc5,2,41,43,10,1.0,1.0,0
run-2020-2-18-13-44-26.541481018,AGENT#c7a2f49a-5254-11ea-85dd-273b27b8fc95,1,42,43,10,1.0,1.0,0
run-2020-2-18-13-44-26.541481018,AGENT#c7a2f9cc-5254-11ea-b9dd-1fdc8b6d3f6e,1,42,43,10,1.0,1.0,0
run-2020-2-18-13-44-26.541481018,AGENT#c7a21566-5254-11ea-b44f-3ff43559dd26,4,40,44,10,1.0,1.0,0
run-2020-2-18-13-44-26.541481018,AGENT#c7a2f72e-5254-11ea-8773-4735457a3b7c,2,42,44,10,1.0,1.0,0
run-2020-2-18-13-44-26.541481018,AGENT#c7939b62-5254-11ea-b1dd-0b9a50e32740,45,0,45,10,1.0,1.0,0
run-2020-2-18-13-44-26.541481018,AGENT#c795dae4-5254-11ea-959d-b711e16d0146,38,7,45,10,1.0,1.0,0
run-2020-2-18-13-44-26.541481018,AGENT#c7966374-5254-11ea-8239-43a550f5abcb,36,9,45,10,1.0,1.0,0
run-2020-2-18-13-44-26.541481018,AGENT#c79887bc-5254-11ea-b9a9-a344f0d94750,29,16,45,10,1.0,1.0,0
run-2020-2-18-13-44-26.541481018,AGENT#c7a27a92-5254-11ea-a96c-d34e8b7355c7,4,41,45,10,1.0,1.0,0
run-2020-2-18-13-44-26.541481018,AGENT#c7a27fd8-5254-11ea-a9dd-1f87766834ce,4,41,45,10,1.0,1.0,0
run-2020-2-18-13-44-26.541481018,AGENT#c7a28780-5254-11ea-a7e7-8b1c67331474,4,41,45,10,1.0,1.0,0
run-2020-2-18-13-44-26.541481018,AGENT#c7a289ce-5254-11ea-b740-970360561574,4,41,45,10,1.0,1.0,0
run-2020-2-18-13-44-26.541481018,AGENT#c7a2fe72-5254-11ea-af1a-efc1a935bc5e,3,42,45,10,1.0,1.0,0
run-2020-2-18-13-44-26.541481018,AGENT#c7938ca8-5254-11ea-ad04-cff1df4ff7f0,46,0,46,10,1.0,1.0,0
run-2020-2-18-13-44-26.541481018,AGENT#c793a670-5254-11ea-86a0-030f093f3c0d,46,0,46,10,1.0,1.0,0
run-2020-2-18-13-44-26.541481018,AGENT#c7945b4c-5254-11ea-88f7-63a4c28f982d,45,1,46,10,1.0,1.0,0
run-2020-2-18-13-44-26.541481018,AGENT#c7a4002e-5254-11ea-a2cb-135ba42dab53,2,44,46,10,1.0,1.0,0
run-2020-2-18-13-44-26.541481018,AGENT#c7948f54-5254-11ea-b80b-3b658a881ade,45,2,47,10,1.0,1.0,0
run-2020-2-18-13-44-26.541481018,AGENT#c7a3f66a-5254-11ea-a424-436402e5cada,3,44,47,10,1.0,1.0,0
run-2020-2-18-13-44-26.541481018,AGENT#c7a4fc4a-5254-11ea-bc29-7342b6935830,1,46,47,10,1.0,1.0,0
run-2020-2-18-13-44-26.541481018,AGENT#c7a380ae-5254-11ea-9edc-43571c19e054,5,43,48,10,1.0,1.0,0
run-2020-2-18-13-44-26.541481018,AGENT#c7a57738-5254-11ea-b89d-1b9cbd07f611,1,47,48,10,1.0,1.0,0
run-2020-2-18-13-44-26.541481018,AGENT#c7a57990-5254-11ea-88dd-5f2788b44fc4,1,47,48,10,1.0,1.0,0
run-2020-2-18-13-44-26.541481018,AGENT#c794d356-5254-11ea-8a9a-eb0aacf9b76c,46,3,49,10,1.0,1.0,0
run-2020-2-18-13-44-26.541481018,AGENT#c794e2d8-5254-11ea-b84d-c74f68bd7e01,46,3,49,10,1.0,1.0,0
run-2020-2-18-13-44-26.541481018,AGENT#c7951816-5254-11ea-80b0-bf950cb6b3bf,45,4,49,10,1.0,1.0,0
run-2020-2-18-13-44-26.541481018,AGENT#c7a48454-5254-11ea-b69b-9f866117e73a,4,45,49,10,1.0,1.0,0
run-2020-2-18-13-44-26.541481018,AGENT#c7a4f9ca-5254-11ea-a3b5-271082bf4f19,3,46,49,10,1.0,1.0,0
run-2020-2-18-13-44-26.541481018,AGENT#c7a57bde-5254-11ea-bdb1-df7cbcd3b34e,2,47,49,10,1.0,1.0,0
run-2020-2-18-13-44-26.541481018,AGENT#c7a62a02-5254-11ea-9b0e-578505d30c5f,1,48,49,10,1.0,1.0,0
run-2020-2-18-13-44-26.541481018,AGENT#c7a47f68-5254-11ea-ba1b-37e9fb5552fb,5,45,50,10,1.0,1.0,0
run-2020-2-18-13-44-26.541481018,AGENT#c7a574ea-5254-11ea-923d-ff11f828e1f7,3,47,50,10,1.0,1.0,0
run-2020-2-18-13-44-26.541481018,AGENT#c7a6dcd6-5254-11ea-8b71-e367d9ed9269,1,49,50,10,1.0,1.0,0
run-2020-2-18-13-44-26.541481018,AGENT#c79c33bc-5254-11ea-963e-e7aafb1c51b8,25,26,51,10,1.0,1.0,0
run-2020-2-18-13-44-26.541481018,AGENT#c7a57274-5254-11ea-beef-2f9826f7245f,4,47,51,10,1.0,1.0,0
run-2020-2-18-13-44-26.541481018,AGENT#c7a78136-5254-11ea-8752-332d105226cc,1,50,51,10,1.0,1.0,0
run-2020-2-18-13-44-26.541481018,AGENT#c7a62f5c-5254-11ea-9ad5-5bbccdd33c06,4,48,52,10,1.0,1.0,0
run-2020-2-18-13-44-26.541481018,AGENT#c7a6d9a2-5254-11ea-a693-631c0070d1a7,3,49,52,10,1.0,1.0,0
run-2020-2-18-13-44-26.541481018,AGENT#c7a6dfec-5254-11ea-bc0c-a78859efd918,3,49,52,10,1.0,1.0,0
run-2020-2-18-13-44-26.541481018,AGENT#c7959854-5254-11ea-90f0-93ecba415a45,47,6,53,10,1.0,1.0,0
run-2020-2-18-13-44-26.541481018,AGENT#c797e24e-5254-11ea-b883-c78c2ea84691,39,14,53,10,1.0,1.0,0
run-2020-2-18-13-44-26.541481018,AGENT#c7a62cf0-5254-11ea-baf9-9fc7fc53df97,5,48,53,10,1.0,1.0,0
run-2020-2-18-13-44-26.541481018,AGENT#c7a631d2-5254-11ea-98a8-8b537510060a,5,48,53,10,1.0,1.0,0
run-2020-2-18-13-44-26.541481018,AGENT#c7a6d63c-5254-11ea-8cc1-db70f76f124b,4,49,53,10,1.0,1.0,0
run-2020-2-18-13-44-26.541481018,AGENT#c7a77e8e-5254-11ea-979e-2f8911384133,3,50,53,10,1.0,1.0,0
run-2020-2-18-13-44-26.541481018,AGENT#c7a811c8-5254-11ea-bc68-5f3fd2d2e35e,2,51,53,10,1.0,1.0,0
run-2020-2-18-13-44-26.541481018,AGENT#c7a81704-5254-11ea-b803-67f38cc17c3e,2,51,53,10,1.0,1.0,0
run-2020-2-18-13-44-26.541481018,AGENT#c7a6e8de-5254-11ea-97c8-9764f6751cef,5,49,54,10,1.0,1.0,0
run-2020-2-18-13-44-26.541481018,AGENT#c7a77baa-5254-11ea-871f-9f21f89dcfaf,4,50,54,10,1.0,1.0,0
run-2020-2-18-13-44-26.541481018,AGENT#c7a89aee-5254-11ea-a40b-1fbd15a224f9,2,52,54,10,1.0,1.0,0
run-2020-2-18-13-44-26.541481018,AGENT#c7a91f14-5254-11ea-801d-b3fda6e5e6e9,1,53,54,10,1.0,1.0,0
run-2020-2-18-13-44-26.541481018,AGENT#c79660a4-5254-11ea-af8b-0fdabaeaa4d3,46,9,55,10,1.0,1.0,0
run-2020-2-18-13-44-26.541481018,AGENT#c794dff4-5254-11ea-886f-47e6f7a105f5,53,3,56,10,1.0,1.0,0
run-2020-2-18-13-44-26.541481018,AGENT#c7a9a754-5254-11ea-83a1-ab69926e3399,2,54,56,10,1.0,1.0,0
run-2020-2-18-13-44-26.541481018,AGENT#c7aa353e-5254-11ea-ad28-9bb1a506e96f,1,55,56,10,1.0,1.0,0
run-2020-2-18-13-44-26.541481018,AGENT#c796b450-5254-11ea-b69d-13b6cfcabdb4,47,10,57,10,1.0,1.0,0
run-2020-2-18-13-44-26.541481018,AGENT#c7982c68-5254-11ea-8b72-475fd9adab39,42,15,57,10,1.0,1.0,0
run-2020-2-18-13-44-26.541481018,AGENT#c7a89d28-5254-11ea-94d8-732a142233ee,5,52,57,10,1.0,1.0,0
run-2020-2-18-13-44-26.541481018,AGENT#c7a92644-5254-11ea-a5f3-ef9dbdb6c32a,4,53,57,10,1.0,1.0,0
run-2020-2-18-13-44-26.541481018,AGENT#c7aa2c42-5254-11ea-b573-53ea0fc545af,2,55,57,10,1.0,1.0,0
run-2020-2-18-13-44-26.541481018,AGENT#c7aa330e-5254-11ea-83db-3f42247643d2,2,55,57,10,1.0,1.0,0
run-2020-2-18-13-44-26.541481018,AGENT#c7aab91e-5254-11ea-ae69-abf0b37f6c6c,1,56,57,10,1.0,1.0,0
run-2020-2-18-13-44-26.541481018,AGENT#c79703ec-5254-11ea-bc01-93dafcc26fb6,47,11,58,10,1.0,1.0,0
run-2020-2-18-13-44-26.541481018,AGENT#c7a814a2-5254-11ea-ac58-cf1abc1f2303,8,51,59,10,1.0,1.0,0
run-2020-2-18-13-44-26.541481018,AGENT#c7aa29cc-5254-11ea-9743-bf385581e110,4,55,59,10,1.0,1.0,0
run-2020-2-18-13-44-26.541481018,AGENT#c7aa2e86-5254-11ea-aadc-1300b60a970d,4,55,59,10,1.0,1.0,0
run-2020-2-18-13-44-26.541481018,AGENT#c7aa3764-5254-11ea-bf81-5bbdabd96b22,4,55,59,10,1.0,1.0,0
run-2020-2-18-13-44-26.541481018,AGENT#c7aabbc6-5254-11ea-a5f4-df77884e6fec,3,56,59,10,1.0,1.0,0
run-2020-2-18-13-44-26.541481018,AGENT#c7aac134-5254-11ea-815d-b726992c6667,3,56,59,10,1.0,1.0,0
run-2020-2-18-13-44-26.541481018,AGENT#c7abd6aa-5254-11ea-b8be-d7fbd2011d52,1,58,59,10,1.0,1.0,0
run-2020-2-18-13-44-26.541481018,AGENT#c7aa30de-5254-11ea-9a45-bf0043b47b25,5,55,60,10,1.0,1.0,0
run-2020-2-18-13-44-26.541481018,AGENT#c7aabe00-5254-11ea-93f1-cfa8cd3563d3,4,56,60,10,1.0,1.0,0
run-2020-2-18-13-44-26.541481018,AGENT#c7ac69f8-5254-11ea-859b-bb97ef96ddb8,1,59,60,10,1.0,1.0,0
run-2020-2-18-13-44-26.541481018,AGENT#c7ac724a-5254-11ea-9dde-179153031748,1,59,60,10,1.0,1.0,0
run-2020-2-18-13-44-26.541481018,AGENT#c7ac74ac-5254-11ea-b45c-bf6473c7d31d,1,59,60,10,1.0,1.0,0
run-2020-2-18-13-44-26.541481018,AGENT#c7ac6778-5254-11ea-b454-777e5c25c990,2,59,61,10,1.0,1.0,0
run-2020-2-18-13-44-26.541481018,AGENT#c7ad0976-5254-11ea-9aca-3f8d6e696ee6,1,60,61,10,1.0,1.0,0
run-2020-2-18-13-44-26.541481018,AGENT#c7ad10e2-5254-11ea-8484-834bbee72dae,1,60,61,10,1.0,1.0,0
run-2020-2-18-13-44-26.541481018,AGENT#c7abd92a-5254-11ea-b510-e74d69017168,4,58,62,10,1.0,1.0,0
run-2020-2-18-13-44-26.541481018,AGENT#c7abddd0-5254-11ea-b5c0-177bee8cf7e3,4,58,62,10,1.0,1.0,0
run-2020-2-18-13-44-26.541481018,AGENT#c7ac6cbe-5254-11ea-b408-23f103706771,3,59,62,10,1.0,1.0,0
run-2020-2-18-13-44-26.541481018,AGENT#c7ada494-5254-11ea-a636-d3b74137ed75,1,61,62,10,1.0,1.0,0
run-2020-2-18-13-44-26.541481018,AGENT#c7ada91c-5254-11ea-9627-936322f29d3e,1,61,62,10,1.0,1.0,0
run-2020-2-18-13-44-26.541481018,AGENT#c7988050-5254-11ea-b1cc-3b84691dd0be,47,16,63,10,1.0,1.0,0
run-2020-2-18-13-44-26.541481018,AGENT#c7ad0c28-5254-11ea-8e4c-9b3ae82f9408,3,60,63,10,1.0,1.0,0
run-2020-2-18-13-44-26.541481018,AGENT#c7ad1362-5254-11ea-93f0-f7b2c6ff4dfb,3,60,63,10,1.0,1.0,0
run-2020-2-18-13-44-26.541481018,AGENT#c7ada6e2-5254-11ea-beef-2b113d8d550f,2,61,63,10,1.0,1.0,0
run-2020-2-18-13-44-26.541481018,AGENT#c7adab60-5254-11ea-bdb8-d78585043c63,2,61,63,10,1.0,1.0,0
run-2020-2-18-13-44-26.541481018,AGENT#c7ae453e-5254-11ea-863b-9779a81cd0f8,1,62,63,10,1.0,1.0,0
run-2020-2-18-13-44-26.541481018,AGENT#c7ae4d36-5254-11ea-962e-4f85cb53ad4c,1,62,63,10,1.0,1.0,0
run-2020-2-18-13-44-26.541481018,AGENT#c7ae5ab0-5254-11ea-9c8b-f388aed8f444,1,62,63,10,1.0,1.0,0
run-2020-2-18-13-44-26.541481018,AGENT#c7979212-5254-11ea-af76-9be1ea32cbd1,51,13,64,10,1.0,1.0,0
run-2020-2-18-13-44-26.541481018,AGENT#c7992514-5254-11ea-91bb-1b1cfa30b248,46,18,64,10,1.0,1.0,0
run-2020-2-18-13-44-26.541481018,AGENT#c7997aaa-5254-11ea-97b2-2734254b68a2,45,19,64,10,1.0,1.0,0
run-2020-2-18-13-44-26.541481018,AGENT#c79982f2-5254-11ea-ba90-379539f4cf73,45,19,64,10,1.0,1.0,0
run-2020-2-18-13-44-26.541481018,AGENT#c7ad0e80-5254-11ea-8a6c-6f40be9f6770,4,60,64,10,1.0,1.0,0
run-2020-2-18-13-44-26.541481018,AGENT#c7ae42aa-5254-11ea-a4ef-374d06b6ac6a,2,62,64,10,1.0,1.0,0
run-2020-2-18-13-44-26.541481018,AGENT#c7992dc0-5254-11ea-a71f-83db252fad8a,47,18,65,10,1.0,1.0,0
run-2020-2-18-13-44-26.541481018,AGENT#c7ad9f94-5254-11ea-951b-63eac9252e81,4,61,65,10,1.0,1.0,0
run-2020-2-18-13-44-26.541481018,AGENT#c7ae5718-5254-11ea-b3f1-9fc1c89c6741,3,62,65,10,1.0,1.0,0
run-2020-2-18-13-44-26.541481018,AGENT#c7ae403e-5254-11ea-a3f2-c3c046c68357,4,62,66,10,1.0,1.0,0
run-2020-2-18-13-44-26.541481018,AGENT#c7af1086-5254-11ea-9935-dfa35040da03,3,63,66,10,1.0,1.0,0
run-2020-2-18-13-44-26.541481018,AGENT#c7b025ca-5254-11ea-9d6e-8f685039bf1b,1,65,66,10,1.0,1.0,0
run-2020-2-18-13-44-26.541481018,AGENT#c7b02a7a-5254-11ea-8980-7f0d982c15cc,1,65,66,10,1.0,1.0,0
run-2020-2-18-13-44-26.541481018,AGENT#c7a06b4e-5254-11ea-8f33-bb3a5bf97fd3,31,36,67,10,1.0,1.0,0
run-2020-2-18-13-44-26.541481018,AGENT#c7a8986e-5254-11ea-9269-ef83680c722b,15,52,67,10,1.0,1.0,0
run-2020-2-18-13-44-26.541481018,AGENT#c7b0c750-5254-11ea-a7de-536a5dea1a75,1,66,67,10,1.0,1.0,0
run-2020-2-18-13-44-26.541481018,AGENT#c7b0d65a-5254-11ea-9600-3ffa49e8cee8,1,66,67,10,1.0,1.0,0
run-2020-2-18-13-44-26.541481018,AGENT#c79b09ce-5254-11ea-b887-57310e088f32,45,23,68,10,1.0,1.0,0
run-2020-2-18-13-44-26.541481018,AGENT#c7b02cdc-5254-11ea-b020-b3965e63e769,3,65,68,10,1.0,1.0,0
run-2020-2-18-13-44-26.541481018,AGENT#c7b0d2cc-5254-11ea-898d-1705db8f5c4f,2,66,68,10,1.0,1.0,0
run-2020-2-18-13-44-26.541481018,AGENT#c7b02836-5254-11ea-839c-53cac7885426,4,65,69,10,1.0,1.0,0
run-2020-2-18-13-44-26.541481018,AGENT#c7b26f1a-5254-11ea-a592-1f4dfd553c7a,1,68,69,10,1.0,1.0,0
run-2020-2-18-13-44-26.541481018,AGENT#c7b0cf34-5254-11ea-b113-f7c45259b3d4,5,66,71,10,1.0,1.0,0
run-2020-2-18-13-44-26.541481018,AGENT#c7b1a62a-5254-11ea-9545-7f5b2b927f90,4,67,71,10,1.0,1.0,0
run-2020-2-18-13-44-26.541481018,AGENT#c7b1a9a4-5254-11ea-9546-6306a80bed46,4,67,71,10,1.0,1.0,0
run-2020-2-18-13-44-26.541481018,AGENT#c7b2642a-5254-11ea-a0b0-27e21330baea,3,68,71,10,1.0,1.0,0
run-2020-2-18-13-44-26.541481018,AGENT#c7b30862-5254-11ea-92fc-671ac0c35d42,2,69,71,10,1.0,1.0,0
run-2020-2-18-13-44-26.541481018,AGENT#c7b3b262-5254-11ea-a2bb-ebd524385ab2,1,70,71,10,1.0,1.0,0
run-2020-2-18-13-44-26.541481018,AGENT#c79c9e92-5254-11ea-a4de-8f9722c52936,45,27,72,10,1.0,1.0,0
run-2020-2-18-13-44-26.541481018,AGENT#c7b30f4c-5254-11ea-ab3d-efef82dc5f57,3,69,72,10,1.0,1.0,0
run-2020-2-18-13-44-26.541481018,AGENT#c7b459e2-5254-11ea-9bdd-d35427858733,1,71,72,10,1.0,1.0,0
run-2020-2-18-13-44-26.541481018,AGENT#c7abdb8c-5254-11ea-83db-ef5b9ae324bf,15,58,73,10,1.0,1.0,0
run-2020-2-18-13-44-26.541481018,AGENT#c7b3b50a-5254-11ea-99a0-e786905b46ce,3,70,73,10,1.0,1.0,0
run-2020-2-18-13-44-26.541481018,AGENT#c7b45776-5254-11ea-a49f-0fba1878b593,2,71,73,10,1.0,1.0,0
run-2020-2-18-13-44-26.541481018,AGENT#c7b4e984-5254-11ea-a707-33ff479993c2,1,72,73,10,1.0,1.0,0
run-2020-2-18-13-44-26.541481018,AGENT#c7b4f050-5254-11ea-bb0e-039414775006,1,72,73,10,1.0,1.0,0
run-2020-2-18-13-44-26.541481018,AGENT#c7b4f4ce-5254-11ea-bda0-17abc44fddf4,1,72,73,10,1.0,1.0,0
run-2020-2-18-13-44-26.541481018,AGENT#c79bcd32-5254-11ea-ae02-f39cc78d4f0d,49,25,74,10,1.0,1.0,0
run-2020-2-18-13-44-26.541481018,AGENT#c79d6a8e-5254-11ea-bb09-5b40a15e951d,45,29,74,10,1.0,1.0,0
run-2020-2-18-13-44-26.541481018,AGENT#c7b4f280-5254-11ea-81ad-e76f3003089f,2,72,74,10,1.0,1.0,0
run-2020-2-18-13-44-26.541481018,AGENT#c79de4b4-5254-11ea-8f1c-1b7d3b1f22be,45,30,75,10,1.0,1.0,0
run-2020-2-18-13-44-26.541481018,AGENT#c7b63e7e-5254-11ea-8630-7fb73d9e7de3,1,74,75,10,1.0,1.0,0
run-2020-2-18-13-44-26.541481018,AGENT#c7b64590-5254-11ea-81dc-8f5ed9345c28,1,74,75,10,1.0,1.0,0
run-2020-2-18-13-44-26.541481018,AGENT#c79c9bae-5254-11ea-a7e3-bf6dafdc9803,49,27,76,10,1.0,1.0,0
run-2020-2-18-13-44-26.541481018,AGENT#c7b1acb0-5254-11ea-93f5-9b7445f4e754,9,67,76,10,1.0,1.0,0
run-2020-2-18-13-44-26.541481018,AGENT#c7b4ebe6-5254-11ea-8b94-df7d4d77996e,4,72,76,10,1.0,1.0,0
run-2020-2-18-13-44-26.541481018,AGENT#c7b59c44-5254-11ea-89bb-7358a0a26d64,3,73,76,10,1.0,1.0,0
run-2020-2-18-13-44-26.541481018,AGENT#c7b64108-5254-11ea-a515-db94e5d12e06,2,74,76,10,1.0,1.0,0
run-2020-2-18-13-44-26.541481018,AGENT#c7b64342-5254-11ea-a0b5-4b674ffb6046,2,74,76,10,1.0,1.0,0
run-2020-2-18-13-44-26.541481018,AGENT#c7b6ece8-5254-11ea-8bdf-43e388593e1d,1,75,76,10,1.0,1.0,0
run-2020-2-18-13-44-26.541481018,AGENT#c7b6ef7c-5254-11ea-811b-b73143da6b7b,1,75,76,10,1.0,1.0,0
run-2020-2-18-13-44-26.541481018,AGENT#c7b6f210-5254-11ea-9087-6f845ad040a9,1,75,76,10,1.0,1.0,0
run-2020-2-18-13-44-26.541481018,AGENT#c7b6f6c0-5254-11ea-bbd7-031a96ddb463,1,75,76,10,1.0,1.0,0
run-2020-2-18-13-44-26.541481018,AGENT#c7b6f904-5254-11ea-9fe9-b77a9afc87f6,1,75,76,10,1.0,1.0,0
run-2020-2-18-13-44-26.541481018,AGENT#c79ca3ba-5254-11ea-814e-778659ffd6f7,50,27,77,10,1.0,1.0,0
run-2020-2-18-13-44-26.541481018,AGENT#c7b5a19e-5254-11ea-a042-7fd854e3c534,4,73,77,10,1.0,1.0,0
run-2020-2-18-13-44-26.541481018,AGENT#c7b647de-5254-11ea-a088-777f25541fee,3,74,77,10,1.0,1.0,0
run-2020-2-18-13-44-26.541481018,AGENT#c79ead04-5254-11ea-b7b1-4b4230427477,46,32,78,10,1.0,1.0,0
run-2020-2-18-13-44-26.541481018,AGENT#c7b87aea-5254-11ea-afd2-4f3e26305e5d,1,77,78,10,1.0,1.0,0
run-2020-2-18-13-44-26.541481018,AGENT#c7b875b8-5254-11ea-8101-2350572b48da,2,77,79,10,1.0,1.0,0
run-2020-2-18-13-44-26.541481018,AGENT#c7b91a22-5254-11ea-b835-332e07514743,1,78,79,10,1.0,1.0,0
run-2020-2-18-13-44-26.541481018,AGENT#c7b7baf6-5254-11ea-84e1-53936cc9c341,4,76,80,10,1.0,1.0,0
run-2020-2-18-13-44-26.541481018,AGENT#c7b87874-5254-11ea-b026-d3074559848b,3,77,80,10,1.0,1.0,0
run-2020-2-18-13-44-26.541481018,AGENT#c7b91c66-5254-11ea-b124-eb267a5813f7,2,78,80,10,1.0,1.0,0
run-2020-2-18-13-44-26.541481018,AGENT#c7a06888-5254-11ea-a2bb-d7eaf99d7dc3,46,36,82,10,1.0,1.0,0
run-2020-2-18-13-44-26.541481018,AGENT#c7b91770-5254-11ea-b8e9-af1c9fcee8f2,4,78,82,10,1.0,1.0,0
run-2020-2-18-13-44-26.541481018,AGENT#c7bad7ea-5254-11ea-b0d0-5b18e6c3e4f9,2,80,82,10,1.0,1.0,0
run-2020-2-18-13-44-26.541481018,AGENT#c7badda8-5254-11ea-9e63-df534af400d4,2,80,82,10,1.0,1.0,0
run-2020-2-18-13-44-26.541481018,AGENT#c7a13d76-5254-11ea-9660-af742fd3c40e,45,38,83,10,1.0,1.0,0
run-2020-2-18-13-44-26.541481018,AGENT#c7bb993c-5254-11ea-94e6-dbb56f3425ab,2,81,83,10,1.0,1.0,0
run-2020-2-18-13-44-26.541481018,AGENT#c7a1ab08-5254-11ea-b3a2-0b6e2715616d,45,39,84,10,1.0,1.0,0
run-2020-2-18-13-44-26.541481018,AGENT#c7ba06bc-5254-11ea-a6e4-7b219ace2425,5,79,84,10,1.0,1.0,0
run-2020-2-18-13-44-26.541481018,AGENT#c7bc4ce2-5254-11ea-858a-47fa0eff874c,2,82,84,10,1.0,1.0,0
run-2020-2-18-13-44-26.541481018,AGENT#c7a074f4-5254-11ea-b943-eba492c6f39d,49,36,85,10,1.0,1.0,0
run-2020-2-18-13-44-26.541481018,AGENT#c7bdc69e-5254-11ea-b27a-3371484017c0,1,84,85,10,1.0,1.0,0
run-2020-2-18-13-44-26.541481018,AGENT#c7a27d30-5254-11ea-989f-c7e32fdd5252,45,41,86,10,1.0,1.0,0
run-2020-2-18-13-44-26.541481018,AGENT#c7a3fb7e-5254-11ea-86cf-cf7613fa5fe8,42,44,86,10,1.0,1.0,0
run-2020-2-18-13-44-26.541481018,AGENT#c7bdc3b0-5254-11ea-9292-6307df4ee709,2,84,86,10,1.0,1.0,0
run-2020-2-18-13-44-26.541481018,AGENT#c7beb2d4-5254-11ea-881d-bb759d00d00b,1,85,86,10,1.0,1.0,0
run-2020-2-18-13-44-26.541481018,AGENT#c7a2824e-5254-11ea-b33a-af7178edf25c,46,41,87,10,1.0,1.0,0
run-2020-2-18-13-44-26.541481018,AGENT#c7a300b6-5254-11ea-a8e6-0b887752565a,45,42,87,10,1.0,1.0,0
run-2020-2-18-13-44-26.541481018,AGENT#c7bdc932-5254-11ea-8748-03d30ad462e1,3,84,87,10,1.0,1.0,0
run-2020-2-18-13-44-26.541481018,AGENT#c7bdcbc6-5254-11ea-ab9c-339dd8beb53f,3,84,87,10,1.0,1.0,0
run-2020-2-18-13-44-26.541481018,AGENT#c7beafdc-5254-11ea-b880-8f5074cf87c8,2,85,87,10,1.0,1.0,0
run-2020-2-18-13-44-26.541481018,AGENT#c7af9f92-5254-11ea-801a-1f4cdff1b820,24,64,88,10,1.0,1.0,0
run-2020-2-18-13-44-26.541481018,AGENT#c7bcfcfa-5254-11ea-81b6-4b69d32f3f77,5,83,88,10,1.0,1.0,0
run-2020-2-18-13-44-26.541481018,AGENT#c7bf90f0-5254-11ea-a120-0fb0d422a47b,2,86,88,10,1.0,1.0,0
run-2020-2-18-13-44-26.541481018,AGENT#c7c06a02-5254-11ea-8c13-b37ba8f64bf1,1,87,88,10,1.0,1.0,0
run-2020-2-18-13-44-26.541481018,AGENT#c7a2fc24-5254-11ea-925a-df4684b4b2cc,47,42,89,10,1.0,1.0,0
run-2020-2-18-13-44-26.541481018,AGENT#c7bebd92-5254-11ea-bab7-eb88b0df80a1,4,85,89,10,1.0,1.0,0
run-2020-2-18-13-44-26.541481018,AGENT#c7c06ca0-5254-11ea-8168-33fc6ee689e4,2,87,89,10,1.0,1.0,0
run-2020-2-18-13-44-26.541481018,AGENT#c7c16236-5254-11ea-818e-c74b4ea054be,1,88,89,10,1.0,1.0,0
run-2020-2-18-13-44-26.541481018,AGENT#c7a3f91c-5254-11ea-b16d-e7cb99b855c4,46,44,90,10,1.0,1.0,0
run-2020-2-18-13-44-26.541481018,AGENT#c7a3fde0-5254-11ea-aef0-73adad006b3d,46,44,90,10,1.0,1.0,0
run-2020-2-18-13-44-26.541481018,AGENT#c7a47cd4-5254-11ea-a374-5f8a95349dac,45,45,90,10,1.0,1.0,0
run-2020-2-18-13-44-26.541481018,AGENT#c7a48206-5254-11ea-b40d-d787429d7b8c,45,45,90,10,1.0,1.0,0
run-2020-2-18-13-44-26.541481018,AGENT#c7b0da06-5254-11ea-a64e-8fc5e6d5d8d8,24,66,90,10,1.0,1.0,0
run-2020-2-18-13-44-26.541481018,AGENT#c7beb7d4-5254-11ea-85c7-5bacaf3ed433,5,85,90,10,1.0,1.0,0
run-2020-2-18-13-44-26.541481018,AGENT#c7bebb1c-5254-11ea-8575-f70a8d778559,5,85,90,10,1.0,1.0,0
run-2020-2-18-13-44-26.541481018,AGENT#c7c22ec8-5254-11ea-9717-f7e99420b47d,1,89,90,10,1.0,1.0,0
run-2020-2-18-13-44-26.541481018,AGENT#c7c226da-5254-11ea-b181-f38d5b6e996d,2,89,91,10,1.0,1.0,0
run-2020-2-18-13-44-26.541481018,AGENT#c7a6e5dc-5254-11ea-b24b-ef1870f7e966,43,49,92,10,1.0,1.0,0
run-2020-2-18-13-44-26.541481018,AGENT#c7c06f2a-5254-11ea-9275-d7a032a78504,5,87,92,10,1.0,1.0,0
run-2020-2-18-13-44-26.541481018,AGENT#c7c229be-5254-11ea-b689-1bd4df537da3,3,89,92,10,1.0,1.0,0
run-2020-2-18-13-44-26.541481018,AGENT#c7c32e36-5254-11ea-8a6b-bbbd88c5637c,2,90,92,10,1.0,1.0,0
run-2020-2-18-13-44-26.541481018,AGENT#c7c40f4a-5254-11ea-8525-63b6026f3d9c,1,91,92,10,1.0,1.0,0
run-2020-2-18-13-44-26.541481018,AGENT#c7c411c0-5254-11ea-b861-e77db7bbbe9b,1,91,92,10,1.0,1.0,0
run-2020-2-18-13-44-26.541481018,AGENT#c7c22c48-5254-11ea-ad60-03e55e062e7f,4,89,93,10,1.0,1.0,0
run-2020-2-18-13-44-26.541481018,AGENT#c7c32184-5254-11ea-95cc-63b66e4151da,3,90,93,10,1.0,1.0,0
run-2020-2-18-13-44-26.541481018,AGENT#c7c40cca-5254-11ea-b050-d3dc77367da0,2,91,93,10,1.0,1.0,0
run-2020-2-18-13-44-26.541481018,AGENT#c7a6e2e4-5254-11ea-abfe-4f3c1c7cf499,45,49,94,10,1.0,1.0,0
run-2020-2-18-13-44-26.541481018,AGENT#c7bcf868-5254-11ea-8898-6f906d4b50c9,11,83,94,10,1.0,1.0,0
run-2020-2-18-13-44-26.541481018,AGENT#c7c32490-5254-11ea-8b47-bb9b1ab80076,4,90,94,10,1.0,1.0,0
run-2020-2-18-13-44-26.541481018,AGENT#c7c32706-5254-11ea-9750-7b3387a51f47,4,90,94,10,1.0,1.0,0
run-2020-2-18-13-44-26.541481018,AGENT#c7c40a04-5254-11ea-a3a7-2f7f85d692dd,4,91,95,10,1.0,1.0,0
run-2020-2-18-13-44-26.541481018,AGENT#c7c41436-5254-11ea-ba7c-cfef7837065a,4,91,95,10,1.0,1.0,0
run-2020-2-18-13-44-26.541481018,AGENT#c7c794f8-5254-11ea-9e56-6b545945958e,1,95,96,10,1.0,1.0,0
run-2020-2-18-13-44-26.541481018,AGENT#c7c79a20-5254-11ea-a2c2-ffad2e3336ee,1,95,96,10,1.0,1.0,0
run-2020-2-18-13-44-26.541481018,AGENT#c7c79eda-5254-11ea-85b7-5b8b950aa481,1,95,96,10,1.0,1.0,0
run-2020-2-18-13-44-26.541481018,AGENT#c7a89f62-5254-11ea-ab9d-c723593e80ab,45,52,97,10,1.0,1.0,0
run-2020-2-18-13-44-26.541481018,AGENT#c7c86194-5254-11ea-8815-2b85e12f46e1,1,96,97,10,1.0,1.0,0
run-2020-2-18-13-44-26.541481018,AGENT#c7c8690a-5254-11ea-93df-3f97e3886ae0,1,96,97,10,1.0,1.0,0
run-2020-2-18-13-44-26.541481018,AGENT#c7a8195c-5254-11ea-b9c0-43269cb94afd,47,51,98,10,1.0,1.0,0
run-2020-2-18-13-44-26.541481018,AGENT#c7a923ec-5254-11ea-88cf-87551f4929a9,45,53,98,10,1.0,1.0,0
run-2020-2-18-13-44-26.541481018,AGENT#c7c7921e-5254-11ea-bca5-a7ad535408f7,3,95,98,10,1.0,1.0,0
run-2020-2-18-13-44-26.541481018,AGENT#c7c8640a-5254-11ea-95bd-6716be980bd3,2,96,98,10,1.0,1.0,0
run-2020-2-18-13-44-26.541481018,AGENT#c7c86b6c-5254-11ea-b8b3-e37dd9771e04,2,96,98,10,1.0,1.0,0
run-2020-2-18-13-44-26.541481018,AGENT#c7c99a82-5254-11ea-b2ef-1f7bb209b846,1,97,98,10,1.0,1.0,0
run-2020-2-18-13-44-26.541481018,AGENT#c7a9219e-5254-11ea-a82e-fffb7ad234fc,46,53,99,10,1.0,1.0,0
run-2020-2-18-13-44-26.541481018,AGENT#c7a9aa24-5254-11ea-985c-a7b2dae36b20,45,54,99,10,1.0,1.0,0
run-2020-2-18-13-44-26.541481018,AGENT#c7b6f472-5254-11ea-a5b8-cb9b77007971,24,75,99,10,1.0,1.0,0
run-2020-2-18-13-44-26.541481018,AGENT#c7c98f06-5254-11ea-8f9c-d7d615a344cc,2,97,99,10,1.0,1.0,0
run-2020-2-18-13-44-26.541481018,AGENT#c7caffb2-5254-11ea-af52-3b1f240c7f7f,1,98,99,10,1.0,1.0,0
run-2020-2-18-13-44-26.541481018,AGENT#c7cb02c8-5254-11ea-8d98-7f88c8573bbe,1,98,99,10,1.0,1.0,0
run-2020-2-18-13-44-26.541481018,AGENT#c7cb078c-5254-11ea-8a56-3b318b824a04,1,98,99,10,1.0,1.0,0
