RunID,Agent,Age,Created,Inactive,Resources,Reputation,Ability,Que
run-2020-2-18-16-41-44.07648611,AGENT#8d4edf7a-526d-11ea-a50f-bbce17fe1b97,0,0,0,10,1.0,1.0,0
run-2020-2-18-16-41-44.07648611,AGENT#8d4ef668-526d-11ea-a27f-ff733dc15fc5,0,0,0,10,1.0,1.0,0
run-2020-2-18-16-41-44.07648611,AGENT#8d4edb92-526d-11ea-99af-336d03a08ea5,1,0,1,10,1.0,1.0,0
run-2020-2-18-16-41-44.07648611,AGENT#8d4ee286-526d-11ea-b2e7-1fbbf410f3ec,1,0,1,10,1.0,1.0,0
run-2020-2-18-16-41-44.07648611,AGENT#8d4eeb3c-526d-11ea-b04a-236860435daa,1,0,1,10,1.0,1.0,0
run-2020-2-18-16-41-44.07648611,AGENT#8d4f3984-526d-11ea-9f0f-4357d34ee348,1,0,1,10,1.0,1.0,0
run-2020-2-18-16-41-44.07648611,AGENT#8d4ee86c-526d-11ea-bae1-bf185323d386,2,0,2,10,1.0,1.0,0
run-2020-2-18-16-41-44.07648611,AGENT#8d4ef0e6-526d-11ea-9e39-73dfdea2695e,2,0,2,10,1.0,1.0,0
run-2020-2-18-16-41-44.07648611,AGENT#8d62abfe-526d-11ea-9657-73a24a80c48c,1,1,2,10,1.0,1.0,0
run-2020-2-18-16-41-44.07648611,AGENT#8d62afaa-526d-11ea-98d4-bb9e59b724f3,1,1,2,10,1.0,1.0,0
run-2020-2-18-16-41-44.07648611,AGENT#8d4ee592-526d-11ea-8a63-d7ced2876e7c,3,0,3,10,1.0,1.0,0
run-2020-2-18-16-41-44.07648611,AGENT#8d682ce6-526d-11ea-aea9-43bcf63f3081,1,3,4,10,1.0,1.0,0
run-2020-2-18-16-41-44.07648611,AGENT#8d4eee0c-526d-11ea-9a42-fbef1cc42ae3,5,0,5,10,1.0,1.0,0
run-2020-2-18-16-41-44.07648611,AGENT#8d4f366e-526d-11ea-be68-3bb801aa470a,5,0,5,10,1.0,1.0,0
run-2020-2-18-16-41-44.07648611,AGENT#8d6891a4-526d-11ea-8b12-fbea2aa3d325,1,4,5,10,1.0,1.0,0
run-2020-2-18-16-41-44.07648611,AGENT#8d6825ca-526d-11ea-a9e6-170aec37a749,3,3,6,10,1.0,1.0,0
run-2020-2-18-16-41-44.07648611,AGENT#8d68faf4-526d-11ea-b790-53ad1ea7fb87,1,5,6,10,1.0,1.0,0
run-2020-2-18-16-41-44.07648611,AGENT#8d68f4c8-526d-11ea-a835-9bbca556ae76,3,5,8,10,1.0,1.0,0
run-2020-2-18-16-41-44.07648611,AGENT#8d698870-526d-11ea-bf9e-077885c5523a,2,6,8,10,1.0,1.0,0
run-2020-2-18-16-41-44.07648611,AGENT#8d6a082c-526d-11ea-b513-3ff3f29c4534,1,7,8,10,1.0,1.0,0
run-2020-2-18-16-41-44.07648611,AGENT#8d6a93f0-526d-11ea-9f07-ab3b32953760,1,8,9,10,1.0,1.0,0
run-2020-2-18-16-41-44.07648611,AGENT#8d6a9706-526d-11ea-a08b-8bbdc105465d,1,8,9,10,1.0,1.0,0
run-2020-2-18-16-41-44.07648611,AGENT#8d6a9a08-526d-11ea-b88f-dbe4faee9cd9,1,8,9,10,1.0,1.0,0
run-2020-2-18-16-41-44.07648611,AGENT#8d6b3800-526d-11ea-bfb8-0b78f8c5766f,1,9,10,10,1.0,1.0,0
run-2020-2-18-16-41-44.07648611,AGENT#8d6a0bce-526d-11ea-8f31-5b72a2c8cd7b,4,7,11,10,1.0,1.0,0
run-2020-2-18-16-41-44.07648611,AGENT#8d6bb410-526d-11ea-bc87-633e6e68dc8e,1,10,11,10,1.0,1.0,0
run-2020-2-18-16-41-44.07648611,AGENT#8d6bba78-526d-11ea-9b2e-937e2e46184b,1,10,11,10,1.0,1.0,0
run-2020-2-18-16-41-44.07648611,AGENT#8d67bd2e-526d-11ea-801b-c7164e69558f,10,2,12,10,1.0,1.0,0
run-2020-2-18-16-41-44.07648611,AGENT#8d6aa5c0-526d-11ea-a96c-b765bb6d2871,4,8,12,10,1.0,1.0,0
run-2020-2-18-16-41-44.07648611,AGENT#8d6c384a-526d-11ea-990c-f7906862e0a3,1,11,12,10,1.0,1.0,0
run-2020-2-18-16-41-44.07648611,AGENT#8d6bb758-526d-11ea-adfd-6ff1c0f3f6c3,3,10,13,10,1.0,1.0,0
run-2020-2-18-16-41-44.07648611,AGENT#8d6c3b88-526d-11ea-8911-6b0f862f49c0,2,11,13,10,1.0,1.0,0
run-2020-2-18-16-41-44.07648611,AGENT#8d6cace4-526d-11ea-896f-9befc57f2bca,2,12,14,10,1.0,1.0,0
run-2020-2-18-16-41-44.07648611,AGENT#8d6d536a-526d-11ea-8e3f-57fcfb91303b,1,13,14,10,1.0,1.0,0
run-2020-2-18-16-41-44.07648611,AGENT#8d6cbb58-526d-11ea-910d-43451e5da88d,3,12,15,10,1.0,1.0,0
run-2020-2-18-16-41-44.07648611,AGENT#8d6dd27c-526d-11ea-8101-b3999bc117d5,1,14,15,10,1.0,1.0,0
run-2020-2-18-16-41-44.07648611,AGENT#8d6cb5ae-526d-11ea-8b93-9b3f5abe3c01,4,12,16,10,1.0,1.0,0
run-2020-2-18-16-41-44.07648611,AGENT#8d6dd59c-526d-11ea-a201-a372386cc95f,2,14,16,10,1.0,1.0,0
run-2020-2-18-16-41-44.07648611,AGENT#8d6ddb78-526d-11ea-89ef-835582a79d14,2,14,16,10,1.0,1.0,0
run-2020-2-18-16-41-44.07648611,AGENT#8d6e54d6-526d-11ea-87e1-f36a4d79ab4c,1,15,16,10,1.0,1.0,0
run-2020-2-18-16-41-44.07648611,AGENT#8d6cb2de-526d-11ea-ab32-e7c16c78dec7,5,12,17,10,1.0,1.0,0
run-2020-2-18-16-41-44.07648611,AGENT#8d6d56da-526d-11ea-ba31-2b2c47602ca6,4,13,17,10,1.0,1.0,0
run-2020-2-18-16-41-44.07648611,AGENT#8d6ed3d4-526d-11ea-8476-2302f0afcd71,1,16,17,10,1.0,1.0,0
run-2020-2-18-16-41-44.07648611,AGENT#8d6caffa-526d-11ea-a053-271677302836,6,12,18,10,1.0,1.0,0
run-2020-2-18-16-41-44.07648611,AGENT#8d6f5bb0-526d-11ea-aa10-c7a80e8198ee,1,17,18,10,1.0,1.0,0
run-2020-2-18-16-41-44.07648611,AGENT#8d6ed0d2-526d-11ea-a62a-3ff1d40e2acd,3,16,19,10,1.0,1.0,0
run-2020-2-18-16-41-44.07648611,AGENT#8d6fe80a-526d-11ea-b8d4-a7d1dc07c08d,1,18,19,10,1.0,1.0,0
run-2020-2-18-16-41-44.07648611,AGENT#8d6fec88-526d-11ea-b17a-57f0bd081179,1,18,19,10,1.0,1.0,0
run-2020-2-18-16-41-44.07648611,AGENT#8d6e57b0-526d-11ea-ac82-ef352915b2ca,5,15,20,10,1.0,1.0,0
run-2020-2-18-16-41-44.07648611,AGENT#8d707310-526d-11ea-94f3-0f85cabb34f3,1,19,20,10,1.0,1.0,0
run-2020-2-18-16-41-44.07648611,AGENT#8d707644-526d-11ea-9d8c-cf4ecab92a11,1,19,20,10,1.0,1.0,0
run-2020-2-18-16-41-44.07648611,AGENT#8d7083d2-526d-11ea-b5ed-4bca906bc05a,1,19,20,10,1.0,1.0,0
run-2020-2-18-16-41-44.07648611,AGENT#8d707bd0-526d-11ea-a212-93fde37280fa,2,19,21,10,1.0,1.0,0
run-2020-2-18-16-41-44.07648611,AGENT#8d712ec2-526d-11ea-8ebd-53e3a2d540c8,1,20,21,10,1.0,1.0,0
run-2020-2-18-16-41-44.07648611,AGENT#8d68f7f2-526d-11ea-a369-cb6fb29b3b2e,17,5,22,10,1.0,1.0,0
run-2020-2-18-16-41-44.07648611,AGENT#8d707e8c-526d-11ea-b4eb-47b77193331f,3,19,22,10,1.0,1.0,0
run-2020-2-18-16-41-44.07648611,AGENT#8d712c10-526d-11ea-9784-6fc5fe454837,3,20,23,10,1.0,1.0,0
run-2020-2-18-16-41-44.07648611,AGENT#8d72412c-526d-11ea-9880-df191cb21df2,2,22,24,10,1.0,1.0,0
run-2020-2-18-16-41-44.07648611,AGENT#8d72442e-526d-11ea-b5ad-d32a7357efea,4,22,26,10,1.0,1.0,0
run-2020-2-18-16-41-44.07648611,AGENT#8d735940-526d-11ea-b215-6b07673ca2b7,2,24,26,10,1.0,1.0,0
run-2020-2-18-16-41-44.07648611,AGENT#8d73f4fe-526d-11ea-8b38-6b721b518709,1,25,26,10,1.0,1.0,0
run-2020-2-18-16-41-44.07648611,AGENT#8d7246ea-526d-11ea-bc4f-e3264980c7ca,5,22,27,10,1.0,1.0,0
run-2020-2-18-16-41-44.07648611,AGENT#8d74a5fc-526d-11ea-af39-9341bea33336,2,26,28,10,1.0,1.0,0
run-2020-2-18-16-41-44.07648611,AGENT#8d7539c2-526d-11ea-a409-1bc394cff430,2,27,29,10,1.0,1.0,0
run-2020-2-18-16-41-44.07648611,AGENT#8d753cba-526d-11ea-90f1-4fca426548c4,2,27,29,10,1.0,1.0,0
run-2020-2-18-16-41-44.07648611,AGENT#8d75c6a8-526d-11ea-b522-2fc48f787db7,1,28,29,10,1.0,1.0,0
run-2020-2-18-16-41-44.07648611,AGENT#8d75cc0c-526d-11ea-a335-0f76c2c47312,1,28,29,10,1.0,1.0,0
run-2020-2-18-16-41-44.07648611,AGENT#8d73ecfc-526d-11ea-a079-23fca2566b7d,5,25,30,10,1.0,1.0,0
run-2020-2-18-16-41-44.07648611,AGENT#8d766fea-526d-11ea-8c2c-27fc03b636c3,1,29,30,10,1.0,1.0,0
run-2020-2-18-16-41-44.07648611,AGENT#8d766d10-526d-11ea-a396-e3369e668787,2,29,31,10,1.0,1.0,0
run-2020-2-18-16-41-44.07648611,AGENT#8d771468-526d-11ea-b41d-97ffde468420,1,30,31,10,1.0,1.0,0
run-2020-2-18-16-41-44.07648611,AGENT#8d6a903a-526d-11ea-bd92-9701eabddf2b,24,8,32,10,1.0,1.0,0
run-2020-2-18-16-41-44.07648611,AGENT#8d77197c-526d-11ea-95d1-17865ddd531c,2,30,32,10,1.0,1.0,0
run-2020-2-18-16-41-44.07648611,AGENT#8d7716f2-526d-11ea-a7c6-ffd8223cd4f5,3,30,33,10,1.0,1.0,0
run-2020-2-18-16-41-44.07648611,AGENT#8d77b558-526d-11ea-94b4-f762593d1621,2,31,33,10,1.0,1.0,0
run-2020-2-18-16-41-44.07648611,AGENT#8d786e94-526d-11ea-8213-cf4fd9d827a7,1,32,33,10,1.0,1.0,0
run-2020-2-18-16-41-44.07648611,AGENT#8d787664-526d-11ea-9634-675b980adfc8,1,32,33,10,1.0,1.0,0
run-2020-2-18-16-41-44.07648611,AGENT#8d787dc6-526d-11ea-9692-8757ff8ed19a,1,32,33,10,1.0,1.0,0
run-2020-2-18-16-41-44.07648611,AGENT#8d712954-526d-11ea-a2f7-dfb6cba08a2e,14,20,34,10,1.0,1.0,0
run-2020-2-18-16-41-44.07648611,AGENT#8d7664e6-526d-11ea-91c3-6b6b4b07d6c5,5,29,34,10,1.0,1.0,0
run-2020-2-18-16-41-44.07648611,AGENT#8d767260-526d-11ea-a1c0-4bf7d328e102,5,29,34,10,1.0,1.0,0
run-2020-2-18-16-41-44.07648611,AGENT#8d77ba9e-526d-11ea-9da8-afc54d290d05,4,31,35,10,1.0,1.0,0
run-2020-2-18-16-41-44.07648611,AGENT#8d7873d0-526d-11ea-aea3-9377fc070567,3,32,35,10,1.0,1.0,0
run-2020-2-18-16-41-44.07648611,AGENT#8d79b984-526d-11ea-b9d0-d33baf10dbf8,1,34,35,10,1.0,1.0,0
run-2020-2-18-16-41-44.07648611,AGENT#8d79bc04-526d-11ea-8962-03698fb4b4ef,1,34,35,10,1.0,1.0,0
run-2020-2-18-16-41-44.07648611,AGENT#8d791d08-526d-11ea-99ef-ff0872f2dd0a,3,33,36,10,1.0,1.0,0
run-2020-2-18-16-41-44.07648611,AGENT#8d7a7130-526d-11ea-9c8b-076b6fdce73c,1,35,36,10,1.0,1.0,0
run-2020-2-18-16-41-44.07648611,AGENT#8d69927a-526d-11ea-b494-6fe903c6da5d,31,6,37,10,1.0,1.0,0
run-2020-2-18-16-41-44.07648611,AGENT#8d79be7a-526d-11ea-b2b2-279352402705,3,34,37,10,1.0,1.0,0
run-2020-2-18-16-41-44.07648611,AGENT#8d7a73a6-526d-11ea-b540-93c674b306f4,2,35,37,10,1.0,1.0,0
run-2020-2-18-16-41-44.07648611,AGENT#8d7b131a-526d-11ea-ab76-6feb3ed026d2,1,36,37,10,1.0,1.0,0
run-2020-2-18-16-41-44.07648611,AGENT#8d7b1a90-526d-11ea-9e63-775432eed134,1,36,37,10,1.0,1.0,0
run-2020-2-18-16-41-44.07648611,AGENT#8d7b1d38-526d-11ea-b348-4b27ba0554a2,1,36,37,10,1.0,1.0,0
run-2020-2-18-16-41-44.07648611,AGENT#8d79b6d2-526d-11ea-894e-1ff79e21a995,4,34,38,10,1.0,1.0,0
run-2020-2-18-16-41-44.07648611,AGENT#8d7be10a-526d-11ea-aba4-1fa0c20829d4,1,37,38,10,1.0,1.0,0
run-2020-2-18-16-41-44.07648611,AGENT#8d7be358-526d-11ea-8706-179c75cbeed2,1,37,38,10,1.0,1.0,0
run-2020-2-18-16-41-44.07648611,AGENT#8d7a75fe-526d-11ea-a166-471c1da18565,4,35,39,10,1.0,1.0,0
run-2020-2-18-16-41-44.07648611,AGENT#8d73efb8-526d-11ea-9e52-f32c9eb46119,15,25,40,10,1.0,1.0,0
run-2020-2-18-16-41-44.07648611,AGENT#8d7caacc-526d-11ea-a8e0-036605b88c54,2,38,40,10,1.0,1.0,0
run-2020-2-18-16-41-44.07648611,AGENT#8d7cb954-526d-11ea-808b-7b672f231462,2,38,40,10,1.0,1.0,0
run-2020-2-18-16-41-44.07648611,AGENT#8d7d67f0-526d-11ea-8e01-f76a08b79832,1,39,40,10,1.0,1.0,0
run-2020-2-18-16-41-44.07648611,AGENT#8d67b964-526d-11ea-90b4-0be5ff2c1179,39,2,41,10,1.0,1.0,0
run-2020-2-18-16-41-44.07648611,AGENT#8d6bbd70-526d-11ea-a5b2-d7d406e3da91,31,10,41,10,1.0,1.0,0
run-2020-2-18-16-41-44.07648611,AGENT#8d7cad92-526d-11ea-a5d3-5f98989cec9e,3,38,41,10,1.0,1.0,0
run-2020-2-18-16-41-44.07648611,AGENT#8d7bdc32-526d-11ea-902f-538c010eb81c,5,37,42,10,1.0,1.0,0
run-2020-2-18-16-41-44.07648611,AGENT#8d7cb710-526d-11ea-94dd-4b62526de745,4,38,42,10,1.0,1.0,0
run-2020-2-18-16-41-44.07648611,AGENT#8d7caff4-526d-11ea-8a17-7f3a86a9926b,5,38,43,10,1.0,1.0,0
run-2020-2-18-16-41-44.07648611,AGENT#8d7cb242-526d-11ea-a208-430c1f41b9af,5,38,43,10,1.0,1.0,0
run-2020-2-18-16-41-44.07648611,AGENT#8d7e3e64-526d-11ea-9873-ff5cd8b6e875,3,40,43,10,1.0,1.0,0
run-2020-2-18-16-41-44.07648611,AGENT#8d7f9d54-526d-11ea-b463-63003281a73e,1,42,43,10,1.0,1.0,0
run-2020-2-18-16-41-44.07648611,AGENT#8d7f9ff2-526d-11ea-b757-dfa6393cd82b,1,42,43,10,1.0,1.0,0
run-2020-2-18-16-41-44.07648611,AGENT#8d7fa254-526d-11ea-a4b6-337a5683cd5f,1,42,43,10,1.0,1.0,0
run-2020-2-18-16-41-44.07648611,AGENT#8d7d709c-526d-11ea-9f3d-8b6ccf849aa3,5,39,44,10,1.0,1.0,0
run-2020-2-18-16-41-44.07648611,AGENT#8d7eecf6-526d-11ea-b1f7-2b550dfb8b9e,3,41,44,10,1.0,1.0,0
run-2020-2-18-16-41-44.07648611,AGENT#8d7eefb2-526d-11ea-af10-c37692b86263,3,41,44,10,1.0,1.0,0
run-2020-2-18-16-41-44.07648611,AGENT#8d724974-526d-11ea-99b7-df00eb378b8c,23,22,45,10,1.0,1.0,0
run-2020-2-18-16-41-44.07648611,AGENT#8d807102-526d-11ea-bd72-5769e48404b5,3,43,46,10,1.0,1.0,0
run-2020-2-18-16-41-44.07648611,AGENT#8d81fdce-526d-11ea-9526-974aac5e9702,1,45,46,10,1.0,1.0,0
run-2020-2-18-16-41-44.07648611,AGENT#8d82009e-526d-11ea-bdb5-472511799854,1,45,46,10,1.0,1.0,0
run-2020-2-18-16-41-44.07648611,AGENT#8d67c0a8-526d-11ea-a68f-f724d1ca8c93,45,2,47,10,1.0,1.0,0
run-2020-2-18-16-41-44.07648611,AGENT#8d82cf06-526d-11ea-9bdc-2fcf7e1d4018,1,46,47,10,1.0,1.0,0
run-2020-2-18-16-41-44.07648611,AGENT#8d682962-526d-11ea-a79f-17b6b666bd7e,45,3,48,10,1.0,1.0,0
run-2020-2-18-16-41-44.07648611,AGENT#8d81fb3a-526d-11ea-b1d3-cfcf5c11bee2,3,45,48,10,1.0,1.0,0
run-2020-2-18-16-41-44.07648611,AGENT#8d82d1d6-526d-11ea-916a-e782e838f8de,2,46,48,10,1.0,1.0,0
run-2020-2-18-16-41-44.07648611,AGENT#8d4ef3a2-526d-11ea-a7b6-1b76473bb819,49,0,49,10,1.0,1.0,0
run-2020-2-18-16-41-44.07648611,AGENT#8d82c628-526d-11ea-99ee-43a84e58d6a0,3,46,49,10,1.0,1.0,0
run-2020-2-18-16-41-44.07648611,AGENT#8d82cc5e-526d-11ea-88c8-2b4cabb271cd,3,46,49,10,1.0,1.0,0
run-2020-2-18-16-41-44.07648611,AGENT#8d84c4be-526d-11ea-b736-9f14b6104227,1,48,49,10,1.0,1.0,0
run-2020-2-18-16-41-44.07648611,AGENT#8d81f4fa-526d-11ea-8d11-ffab643fd392,5,45,50,10,1.0,1.0,0
run-2020-2-18-16-41-44.07648611,AGENT#8d84bdb6-526d-11ea-9d25-9f830ec2a3c0,2,48,50,10,1.0,1.0,0
run-2020-2-18-16-41-44.07648611,AGENT#8d85df02-526d-11ea-b542-bb2920a40445,1,49,50,10,1.0,1.0,0
run-2020-2-18-16-41-44.07648611,AGENT#8d6995ae-526d-11ea-a2ee-3bb07d14e298,45,6,51,10,1.0,1.0,0
run-2020-2-18-16-41-44.07648611,AGENT#8d6f58e0-526d-11ea-a02b-ebb78ad6c04b,34,17,51,10,1.0,1.0,0
run-2020-2-18-16-41-44.07648611,AGENT#8d7131a6-526d-11ea-9751-77a27973fb4f,31,20,51,10,1.0,1.0,0
run-2020-2-18-16-41-44.07648611,AGENT#8d83baec-526d-11ea-81c2-c79f6c1ad9ab,4,47,51,10,1.0,1.0,0
run-2020-2-18-16-41-44.07648611,AGENT#8d698f5a-526d-11ea-98c5-6be86e5596b6,46,6,52,10,1.0,1.0,0
run-2020-2-18-16-41-44.07648611,AGENT#8d85db38-526d-11ea-af4f-7332816762f0,3,49,52,10,1.0,1.0,0
run-2020-2-18-16-41-44.07648611,AGENT#8d880106-526d-11ea-9ec0-4b8ea1dd8069,1,51,52,10,1.0,1.0,0
run-2020-2-18-16-41-44.07648611,AGENT#8d7e4134-526d-11ea-899b-ff225061fb70,13,40,53,10,1.0,1.0,0
run-2020-2-18-16-41-44.07648611,AGENT#8d698c3a-526d-11ea-892a-0fb0ae16adb3,48,6,54,10,1.0,1.0,0
run-2020-2-18-16-41-44.07648611,AGENT#8d6a9cf6-526d-11ea-ab66-137cc2c12d6d,46,8,54,10,1.0,1.0,0
run-2020-2-18-16-41-44.07648611,AGENT#8d6a9ff8-526d-11ea-8877-3b97dd2c96eb,46,8,54,10,1.0,1.0,0
run-2020-2-18-16-41-44.07648611,AGENT#8d6b3486-526d-11ea-adc7-cb06c35b3232,45,9,54,10,1.0,1.0,0
run-2020-2-18-16-41-44.07648611,AGENT#8d86edd4-526d-11ea-b09c-c378784700cd,4,50,54,10,1.0,1.0,0
run-2020-2-18-16-41-44.07648611,AGENT#8d86f4c8-526d-11ea-9828-fbdcf7535250,4,50,54,10,1.0,1.0,0
run-2020-2-18-16-41-44.07648611,AGENT#8d880494-526d-11ea-83d1-73ea945e881a,3,51,54,10,1.0,1.0,0
run-2020-2-18-16-41-44.07648611,AGENT#8d6aa2dc-526d-11ea-aad5-6793c3c834cc,47,8,55,10,1.0,1.0,0
run-2020-2-18-16-41-44.07648611,AGENT#8d735c7e-526d-11ea-aa35-67f369a5e4ea,31,24,55,10,1.0,1.0,0
run-2020-2-18-16-41-44.07648611,AGENT#8d8b20ca-526d-11ea-b644-db785a723fb8,1,54,55,10,1.0,1.0,0
run-2020-2-18-16-41-44.07648611,AGENT#8d75c96e-526d-11ea-bcc9-37b5518b07c3,28,28,56,10,1.0,1.0,0
run-2020-2-18-16-41-44.07648611,AGENT#8d791fce-526d-11ea-95dd-5bb9ad64bfea,23,33,56,10,1.0,1.0,0
run-2020-2-18-16-41-44.07648611,AGENT#8d83b38a-526d-11ea-b7ca-bfecc0b53add,9,47,56,10,1.0,1.0,0
run-2020-2-18-16-41-44.07648611,AGENT#8d8b1dbe-526d-11ea-a143-af931c8cfb06,2,54,56,10,1.0,1.0,0
run-2020-2-18-16-41-44.07648611,AGENT#8d8c0d0a-526d-11ea-a8c5-efc0506023b5,1,55,56,10,1.0,1.0,0
run-2020-2-18-16-41-44.07648611,AGENT#8d6cbe1e-526d-11ea-8fbb-cb66baf5f761,45,12,57,10,1.0,1.0,0
run-2020-2-18-16-41-44.07648611,AGENT#8d8916c2-526d-11ea-a914-8309f595d405,5,52,57,10,1.0,1.0,0
run-2020-2-18-16-41-44.07648611,AGENT#8d6cb892-526d-11ea-bb19-cf5bd065e1f5,46,12,58,10,1.0,1.0,0
run-2020-2-18-16-41-44.07648611,AGENT#8d6d59fa-526d-11ea-ac98-cf402c91e546,46,13,59,10,1.0,1.0,0
run-2020-2-18-16-41-44.07648611,AGENT#8d84c18a-526d-11ea-b713-bba44f5d73f9,11,48,59,10,1.0,1.0,0
run-2020-2-18-16-41-44.07648611,AGENT#8d8d0f16-526d-11ea-9e41-273aafaa7043,3,56,59,10,1.0,1.0,0
run-2020-2-18-16-41-44.07648611,AGENT#8d8d127c-526d-11ea-bffe-43eceda4865c,3,56,59,10,1.0,1.0,0
run-2020-2-18-16-41-44.07648611,AGENT#8d8f1c70-526d-11ea-9162-b3222442e136,1,58,59,10,1.0,1.0,0
run-2020-2-18-16-41-44.07648611,AGENT#8d6dd89e-526d-11ea-a1bd-d7bffb62ae8a,46,14,60,10,1.0,1.0,0
run-2020-2-18-16-41-44.07648611,AGENT#8d83b75e-526d-11ea-a6d7-9b809ec75c04,13,47,60,10,1.0,1.0,0
run-2020-2-18-16-41-44.07648611,AGENT#8d8c114c-526d-11ea-ad36-c3f7585d37ae,5,55,60,10,1.0,1.0,0
run-2020-2-18-16-41-44.07648611,AGENT#8d8e1c76-526d-11ea-87ab-ef22e3ae3912,3,57,60,10,1.0,1.0,0
run-2020-2-18-16-41-44.07648611,AGENT#8d9039ca-526d-11ea-b7a0-3b200be78c3e,1,59,60,10,1.0,1.0,0
run-2020-2-18-16-41-44.07648611,AGENT#8d8e160e-526d-11ea-889c-e3009f50f81b,4,57,61,10,1.0,1.0,0
run-2020-2-18-16-41-44.07648611,AGENT#8d8f1fcc-526d-11ea-9635-637527355633,3,58,61,10,1.0,1.0,0
run-2020-2-18-16-41-44.07648611,AGENT#8d8e196a-526d-11ea-9ecf-17c898eb73a0,5,57,62,10,1.0,1.0,0
run-2020-2-18-16-41-44.07648611,AGENT#8d903434-526d-11ea-a1d5-03c56fd9f21d,3,59,62,10,1.0,1.0,0
run-2020-2-18-16-41-44.07648611,AGENT#8d914158-526d-11ea-8c65-7fa515da39a8,2,60,62,10,1.0,1.0,0
run-2020-2-18-16-41-44.07648611,AGENT#8d914400-526d-11ea-b498-9b1266f6d752,2,60,62,10,1.0,1.0,0
run-2020-2-18-16-41-44.07648611,AGENT#8d6f5598-526d-11ea-9483-cf477d98cc01,46,17,63,10,1.0,1.0,0
run-2020-2-18-16-41-44.07648611,AGENT#8d6f5e9e-526d-11ea-8993-9fef455fde0a,46,17,63,10,1.0,1.0,0
run-2020-2-18-16-41-44.07648611,AGENT#8d7cb4ae-526d-11ea-8dbc-7b845916ef04,25,38,63,10,1.0,1.0,0
run-2020-2-18-16-41-44.07648611,AGENT#8d8d1b32-526d-11ea-aa4f-2f3d66a903c6,7,56,63,10,1.0,1.0,0
run-2020-2-18-16-41-44.07648611,AGENT#8d9146b2-526d-11ea-bb02-57ad264f1e82,3,60,63,10,1.0,1.0,0
run-2020-2-18-16-41-44.07648611,AGENT#8d923432-526d-11ea-866b-a3760c3e7ff1,2,61,63,10,1.0,1.0,0
run-2020-2-18-16-41-44.07648611,AGENT#8d933706-526d-11ea-addc-f77ed5a66eb2,2,62,64,10,1.0,1.0,0
run-2020-2-18-16-41-44.07648611,AGENT#8d942f76-526d-11ea-8127-aba2b4c34108,1,63,64,10,1.0,1.0,0
run-2020-2-18-16-41-44.07648611,AGENT#8d70813e-526d-11ea-a8f6-e7ce96988a9d,46,19,65,10,1.0,1.0,0
run-2020-2-18-16-41-44.07648611,AGENT#8d71262a-526d-11ea-a482-3b2652ab6a81,45,20,65,10,1.0,1.0,0
run-2020-2-18-16-41-44.07648611,AGENT#8d942c56-526d-11ea-8909-873df3654779,2,63,65,10,1.0,1.0,0
run-2020-2-18-16-41-44.07648611,AGENT#8d6e51d4-526d-11ea-887f-9741c7c6982b,51,15,66,10,1.0,1.0,0
run-2020-2-18-16-41-44.07648611,AGENT#8d71bc7a-526d-11ea-b8c3-2fbb08f3f45a,45,21,66,10,1.0,1.0,0
run-2020-2-18-16-41-44.07648611,AGENT#8d724bf4-526d-11ea-a92e-a780747c6f15,44,22,66,10,1.0,1.0,0
run-2020-2-18-16-41-44.07648611,AGENT#8d9333aa-526d-11ea-8894-9fc9dd3770b7,4,62,66,10,1.0,1.0,0
run-2020-2-18-16-41-44.07648611,AGENT#8d707900-526d-11ea-b626-dbcd34c96e2e,48,19,67,10,1.0,1.0,0
run-2020-2-18-16-41-44.07648611,AGENT#8d8d183a-526d-11ea-87bc-578869031ccd,11,56,67,10,1.0,1.0,0
run-2020-2-18-16-41-44.07648611,AGENT#8d975200-526d-11ea-b78e-5fc642933c17,2,66,68,10,1.0,1.0,0
run-2020-2-18-16-41-44.07648611,AGENT#8d985966-526d-11ea-bac8-032d4a7f02e3,1,67,68,10,1.0,1.0,0
run-2020-2-18-16-41-44.07648611,AGENT#8d7667b6-526d-11ea-b1d2-0ffe2ae1c98f,40,29,69,10,1.0,1.0,0
run-2020-2-18-16-41-44.07648611,AGENT#8d952b1a-526d-11ea-890e-23f772ce060b,5,64,69,10,1.0,1.0,0
run-2020-2-18-16-41-44.07648611,AGENT#8d9758a4-526d-11ea-a258-83b2cf48c40b,3,66,69,10,1.0,1.0,0
run-2020-2-18-16-41-44.07648611,AGENT#8d986140-526d-11ea-a020-8fc623eae7fa,2,67,69,10,1.0,1.0,0
run-2020-2-18-16-41-44.07648611,AGENT#8d986ce4-526d-11ea-a241-ab5a3a877418,2,67,69,10,1.0,1.0,0
run-2020-2-18-16-41-44.07648611,AGENT#8d996716-526d-11ea-bb5a-5fd459ffd40d,1,68,69,10,1.0,1.0,0
run-2020-2-18-16-41-44.07648611,AGENT#8d73f788-526d-11ea-8c5a-a71959f85bcb,45,25,70,10,1.0,1.0,0
run-2020-2-18-16-41-44.07648611,AGENT#8d962a10-526d-11ea-b72d-f37a23063c8b,5,65,70,10,1.0,1.0,0
run-2020-2-18-16-41-44.07648611,AGENT#8d996c3e-526d-11ea-b3c2-af90c518936a,2,68,70,10,1.0,1.0,0
run-2020-2-18-16-41-44.07648611,AGENT#8d9a7746-526d-11ea-b034-af6fc70f2259,1,69,70,10,1.0,1.0,0
run-2020-2-18-16-41-44.07648611,AGENT#8d9a7a70-526d-11ea-9204-6f57bb425c96,1,69,70,10,1.0,1.0,0
run-2020-2-18-16-41-44.07648611,AGENT#8d73f274-526d-11ea-b13e-172c9ec3c9a3,46,25,71,10,1.0,1.0,0
run-2020-2-18-16-41-44.07648611,AGENT#8d97557a-526d-11ea-a4b3-b7c4263eda5d,5,66,71,10,1.0,1.0,0
run-2020-2-18-16-41-44.07648611,AGENT#8d986a14-526d-11ea-8e30-ffd30cde5f23,4,67,71,10,1.0,1.0,0
run-2020-2-18-16-41-44.07648611,AGENT#8d996446-526d-11ea-973b-ab2bfba61e78,3,68,71,10,1.0,1.0,0
run-2020-2-18-16-41-44.07648611,AGENT#8d81f81a-526d-11ea-ac26-a36aca9a76ff,27,45,72,10,1.0,1.0,0
run-2020-2-18-16-41-44.07648611,AGENT#8d985ce0-526d-11ea-a758-0f1dde9cca5d,5,67,72,10,1.0,1.0,0
run-2020-2-18-16-41-44.07648611,AGENT#8d996ebe-526d-11ea-80dc-cfe96105fea1,4,68,72,10,1.0,1.0,0
run-2020-2-18-16-41-44.07648611,AGENT#8d9b65a2-526d-11ea-a651-03e6bf410960,2,70,72,10,1.0,1.0,0
run-2020-2-18-16-41-44.07648611,AGENT#8d9c3ae0-526d-11ea-a115-2b57e7bff0fa,1,71,72,10,1.0,1.0,0
run-2020-2-18-16-41-44.07648611,AGENT#8d9527be-526d-11ea-a59e-9b2c46c816d7,9,64,73,10,1.0,1.0,0
run-2020-2-18-16-41-44.07648611,AGENT#8d99698c-526d-11ea-b71b-ff1c3b4c3bb8,5,68,73,10,1.0,1.0,0
run-2020-2-18-16-41-44.07648611,AGENT#8d9b62dc-526d-11ea-8095-e7e0098acf55,3,70,73,10,1.0,1.0,0
run-2020-2-18-16-41-44.07648611,AGENT#8d9b6aac-526d-11ea-8990-43ac5d22bc48,3,70,73,10,1.0,1.0,0
run-2020-2-18-16-41-44.07648611,AGENT#8d9d5f7e-526d-11ea-8b31-bb7d7eb0d47b,1,72,73,10,1.0,1.0,0
run-2020-2-18-16-41-44.07648611,AGENT#8d73e9b4-526d-11ea-90d1-33ef1fa9c73f,49,25,74,10,1.0,1.0,0
run-2020-2-18-16-41-44.07648611,AGENT#8d765f14-526d-11ea-831d-675161a0b577,45,29,74,10,1.0,1.0,0
run-2020-2-18-16-41-44.07648611,AGENT#8d766252-526d-11ea-b0b3-2fa5fa69d1ba,45,29,74,10,1.0,1.0,0
run-2020-2-18-16-41-44.07648611,AGENT#8d86e9ba-526d-11ea-b270-3f6106328b80,24,50,74,10,1.0,1.0,0
run-2020-2-18-16-41-44.07648611,AGENT#8d9e355c-526d-11ea-a122-4b1fc6960ec8,1,73,74,10,1.0,1.0,0
run-2020-2-18-16-41-44.07648611,AGENT#8d9e37c8-526d-11ea-9515-9f05d9780065,1,73,74,10,1.0,1.0,0
run-2020-2-18-16-41-44.07648611,AGENT#8d9e3a2a-526d-11ea-9c75-37e2f8f1eb49,1,73,74,10,1.0,1.0,0
run-2020-2-18-16-41-44.07648611,AGENT#8d9e32fa-526d-11ea-b430-43048b3ea39e,2,73,75,10,1.0,1.0,0
run-2020-2-18-16-41-44.07648611,AGENT#8d9f25f2-526d-11ea-b978-97b271a2b520,1,74,75,10,1.0,1.0,0
run-2020-2-18-16-41-44.07648611,AGENT#8d9f28d6-526d-11ea-b7d7-8fdb9bb443c0,1,74,75,10,1.0,1.0,0
run-2020-2-18-16-41-44.07648611,AGENT#8d9f2b6a-526d-11ea-b3cb-e3e801e94de2,1,74,75,10,1.0,1.0,0
run-2020-2-18-16-41-44.07648611,AGENT#8d9e3066-526d-11ea-b76f-4b1c53c0c960,3,73,76,10,1.0,1.0,0
run-2020-2-18-16-41-44.07648611,AGENT#8d7711de-526d-11ea-b847-7f6686c7b00c,47,30,77,10,1.0,1.0,0
run-2020-2-18-16-41-44.07648611,AGENT#8d9d58e4-526d-11ea-a9a7-cf4cf8adc0cd,5,72,77,10,1.0,1.0,0
run-2020-2-18-16-41-44.07648611,AGENT#8d9d5c7c-526d-11ea-8804-f3354d2551ac,5,72,77,10,1.0,1.0,0
run-2020-2-18-16-41-44.07648611,AGENT#8d9f2df4-526d-11ea-b76e-ebb2fe2a15dd,3,74,77,10,1.0,1.0,0
run-2020-2-18-16-41-44.07648611,AGENT#8d7674d6-526d-11ea-9a84-7308bc433faf,49,29,78,10,1.0,1.0,0
run-2020-2-18-16-41-44.07648611,AGENT#8d78790c-526d-11ea-a26a-b742889fcdbc,46,32,78,10,1.0,1.0,0
run-2020-2-18-16-41-44.07648611,AGENT#8d770ee6-526d-11ea-8f40-77e3f55b0ba9,49,30,79,10,1.0,1.0,0
run-2020-2-18-16-41-44.07648611,AGENT#8d7b15d6-526d-11ea-a9ef-4feaabedf327,43,36,79,10,1.0,1.0,0
run-2020-2-18-16-41-44.07648611,AGENT#8d766a7c-526d-11ea-b239-8f9aa85b4840,51,29,80,10,1.0,1.0,0
run-2020-2-18-16-41-44.07648611,AGENT#8d77b814-526d-11ea-b59e-53fa2f40acd3,49,31,80,10,1.0,1.0,0
run-2020-2-18-16-41-44.07648611,AGENT#8d787b6e-526d-11ea-ad22-03adcf5394cf,48,32,80,10,1.0,1.0,0
run-2020-2-18-16-41-44.07648611,AGENT#8d7a6bf4-526d-11ea-9c8b-67ef8da60dde,45,35,80,10,1.0,1.0,0
run-2020-2-18-16-41-44.07648611,AGENT#8d7a6eba-526d-11ea-9607-ab8ffad5aea5,45,35,80,10,1.0,1.0,0
run-2020-2-18-16-41-44.07648611,AGENT#8da0d56e-526d-11ea-9cf2-938d832020eb,4,76,80,10,1.0,1.0,0
run-2020-2-18-16-41-44.07648611,AGENT#8da3876e-526d-11ea-ab96-e3fd2cfacb35,1,79,80,10,1.0,1.0,0
run-2020-2-18-16-41-44.07648611,AGENT#8da389bc-526d-11ea-8420-13657fde4388,1,79,80,10,1.0,1.0,0
run-2020-2-18-16-41-44.07648611,AGENT#8d903704-526d-11ea-b575-3fd856119ab0,22,59,81,10,1.0,1.0,0
run-2020-2-18-16-41-44.07648611,AGENT#8da29d9a-526d-11ea-b77f-4f227ea0ab40,3,78,81,10,1.0,1.0,0
run-2020-2-18-16-41-44.07648611,AGENT#8d771c06-526d-11ea-bcbb-e3408bb2f1bf,52,30,82,10,1.0,1.0,0
run-2020-2-18-16-41-44.07648611,AGENT#8d7bd8e0-526d-11ea-ac02-93ac268e1a64,45,37,82,10,1.0,1.0,0
run-2020-2-18-16-41-44.07648611,AGENT#8da1c80c-526d-11ea-b0d8-83eb09f7c2f8,5,77,82,10,1.0,1.0,0
run-2020-2-18-16-41-44.07648611,AGENT#8da52f2e-526d-11ea-8090-9b2882884467,1,81,82,10,1.0,1.0,0
run-2020-2-18-16-41-44.07648611,AGENT#8d7bdeb2-526d-11ea-9e56-335e0ab20ce3,46,37,83,10,1.0,1.0,0
run-2020-2-18-16-41-44.07648611,AGENT#8da2984a-526d-11ea-9e27-776977bbb5bb,5,78,83,10,1.0,1.0,0
run-2020-2-18-16-41-44.07648611,AGENT#8da46256-526d-11ea-bd1d-6ff57e28b7cb,3,80,83,10,1.0,1.0,0
run-2020-2-18-16-41-44.07648611,AGENT#8d7b1f9a-526d-11ea-be2a-072d296abfb3,48,36,84,10,1.0,1.0,0
run-2020-2-18-16-41-44.07648611,AGENT#8d7d6d0e-526d-11ea-850f-7f1da7586f3b,45,39,84,10,1.0,1.0,0
run-2020-2-18-16-41-44.07648611,AGENT#8da7f57e-526d-11ea-8efe-7f076e931197,1,84,85,10,1.0,1.0,0
run-2020-2-18-16-41-44.07648611,AGENT#8da0d08c-526d-11ea-a921-6fdf972539c3,10,76,86,10,1.0,1.0,0
run-2020-2-18-16-41-44.07648611,AGENT#8da6e314-526d-11ea-907c-cb9f0e8dc2d1,3,83,86,10,1.0,1.0,0
run-2020-2-18-16-41-44.07648611,AGENT#8da7f254-526d-11ea-a432-533e3333322e,2,84,86,10,1.0,1.0,0
run-2020-2-18-16-41-44.07648611,AGENT#8da9e2bc-526d-11ea-aee0-3b4f06ab8192,1,86,87,10,1.0,1.0,0
run-2020-2-18-16-41-44.07648611,AGENT#8da7eef8-526d-11ea-a101-0f8a071e9e1a,4,84,88,10,1.0,1.0,0
run-2020-2-18-16-41-44.07648611,AGENT#8da8e560-526d-11ea-9d11-f7986ad2e0f8,3,85,88,10,1.0,1.0,0
run-2020-2-18-16-41-44.07648611,AGENT#8d7ef214-526d-11ea-b438-43c52da4f39f,48,41,89,10,1.0,1.0,0
run-2020-2-18-16-41-44.07648611,AGENT#8d812ed0-526d-11ea-9f01-678aa3a4255c,45,44,89,10,1.0,1.0,0
run-2020-2-18-16-41-44.07648611,AGENT#8d8073f0-526d-11ea-9789-5f3aca8d06cd,47,43,90,10,1.0,1.0,0
run-2020-2-18-16-41-44.07648611,AGENT#8dabb9d4-526d-11ea-a2c5-bf6cf83aafd6,2,88,90,10,1.0,1.0,0
run-2020-2-18-16-41-44.07648611,AGENT#8dabbccc-526d-11ea-acb8-ef431025ed2e,2,88,90,10,1.0,1.0,0
run-2020-2-18-16-41-44.07648611,AGENT#8dabc212-526d-11ea-9142-6b44ae3e69a0,2,88,90,10,1.0,1.0,0
run-2020-2-18-16-41-44.07648611,AGENT#8dad012c-526d-11ea-aeb6-b35203fc7506,1,89,90,10,1.0,1.0,0
run-2020-2-18-16-41-44.07648611,AGENT#8daac8d0-526d-11ea-be26-b3957e01f136,4,87,91,10,1.0,1.0,0
run-2020-2-18-16-41-44.07648611,AGENT#8dabbf88-526d-11ea-957a-3f5d246725fb,3,88,91,10,1.0,1.0,0
run-2020-2-18-16-41-44.07648611,AGENT#8dacf9ca-526d-11ea-a20d-83b9ec167b40,2,89,91,10,1.0,1.0,0
run-2020-2-18-16-41-44.07648611,AGENT#8dacfec0-526d-11ea-b670-53b952778813,2,89,91,10,1.0,1.0,0
run-2020-2-18-16-41-44.07648611,AGENT#8dacf754-526d-11ea-8c1b-c7270f2d1535,3,89,92,10,1.0,1.0,0
run-2020-2-18-16-41-44.07648611,AGENT#8dabc492-526d-11ea-a380-afea660b1d10,5,88,93,10,1.0,1.0,0
run-2020-2-18-16-41-44.07648611,AGENT#8dacf4de-526d-11ea-8b5f-87c5c12e5fa6,4,89,93,10,1.0,1.0,0
run-2020-2-18-16-41-44.07648611,AGENT#8daf0648-526d-11ea-944f-db302135904a,2,91,93,10,1.0,1.0,0
run-2020-2-18-16-41-44.07648611,AGENT#8d82c97a-526d-11ea-87dd-dfea3d587068,48,46,94,10,1.0,1.0,0
run-2020-2-18-16-41-44.07648611,AGENT#8dacf236-526d-11ea-ae0f-e388a4a673ce,5,89,94,10,1.0,1.0,0
run-2020-2-18-16-41-44.07648611,AGENT#8daffa44-526d-11ea-905f-d3be9338ce15,2,92,94,10,1.0,1.0,0
run-2020-2-18-16-41-44.07648611,AGENT#8daffd3c-526d-11ea-97b4-577266dbc019,2,92,94,10,1.0,1.0,0
run-2020-2-18-16-41-44.07648611,AGENT#8d86f130-526d-11ea-888b-df792b6296b2,45,50,95,10,1.0,1.0,0
run-2020-2-18-16-41-44.07648611,AGENT#8db0ea08-526d-11ea-96e2-8f90d387768c,2,93,95,10,1.0,1.0,0
run-2020-2-18-16-41-44.07648611,AGENT#8db1f6c8-526d-11ea-a3eb-43fc98174bfa,1,94,95,10,1.0,1.0,0
run-2020-2-18-16-41-44.07648611,AGENT#8d87f616-526d-11ea-873f-5f71f4d1fc94,45,51,96,10,1.0,1.0,0
run-2020-2-18-16-41-44.07648611,AGENT#8d87fa6c-526d-11ea-916e-67f37a667dab,45,51,96,10,1.0,1.0,0
run-2020-2-18-16-41-44.07648611,AGENT#8d87fdaa-526d-11ea-a753-ab732988ffbc,46,51,97,10,1.0,1.0,0
run-2020-2-18-16-41-44.07648611,AGENT#8db0e724-526d-11ea-b07e-cbcce6df0a4f,4,93,97,10,1.0,1.0,0
run-2020-2-18-16-41-44.07648611,AGENT#8d891a64-526d-11ea-99fc-ff28e33ad5b1,46,52,98,10,1.0,1.0,0
run-2020-2-18-16-41-44.07648611,AGENT#8db1f11e-526d-11ea-9f1e-fb86fc785bab,4,94,98,10,1.0,1.0,0
run-2020-2-18-16-41-44.07648611,AGENT#8db1f42a-526d-11ea-9d2e-eb0cda64c8f9,4,94,98,10,1.0,1.0,0
run-2020-2-18-16-41-44.07648611,AGENT#8d891d84-526d-11ea-8b46-d7d17e44156b,47,52,99,10,1.0,1.0,0
run-2020-2-18-16-41-44.07648611,AGENT#8d8b13f0-526d-11ea-9fce-4376c8a7f17d,45,54,99,10,1.0,1.0,0
run-2020-2-18-16-41-44.07648611,AGENT#8d8b17b0-526d-11ea-a163-e7b1e24d3296,45,54,99,10,1.0,1.0,0
run-2020-2-18-16-41-44.07648611,AGENT#8d8b1ad0-526d-11ea-b665-733bb74639a0,45,54,99,10,1.0,1.0,0
run-2020-2-18-16-41-44.07648611,AGENT#8da29b24-526d-11ea-a513-c73703d85b3e,21,78,99,10,1.0,1.0,0
run-2020-2-18-16-41-44.07648611,AGENT#8db2fe7e-526d-11ea-830f-27c345c104c2,4,95,99,10,1.0,1.0,0
run-2020-2-18-16-41-44.07648611,AGENT#8db4e842-526d-11ea-a45e-e32a7b9eb760,2,97,99,10,1.0,1.0,0
run-2020-2-18-16-41-44.07648611,AGENT#8db5fea8-526d-11ea-80c5-dfe4bfab5c14,1,98,99,10,1.0,1.0,0
