RunID,Tick,AllAgents,Active,Inactive
run-2020-2-18-16-41-33.124363899,0,17,15,2
run-2020-2-18-16-41-33.124363899,1,19,16,3
run-2020-2-18-16-41-33.124363899,2,23,14,9
run-2020-2-18-16-41-33.124363899,3,25,15,10
run-2020-2-18-16-41-33.124363899,4,29,16,13
run-2020-2-18-16-41-33.124363899,5,31,16,15
run-2020-2-18-16-41-33.124363899,6,33,16,17
run-2020-2-18-16-41-33.124363899,7,36,16,20
run-2020-2-18-16-41-33.124363899,8,37,16,21
run-2020-2-18-16-41-33.124363899,9,40,15,25
run-2020-2-18-16-41-33.124363899,10,44,19,25
run-2020-2-18-16-41-33.124363899,11,46,17,29
run-2020-2-18-16-41-33.124363899,12,49,17,32
run-2020-2-18-16-41-33.124363899,13,53,18,35
run-2020-2-18-16-41-33.124363899,14,60,23,37
run-2020-2-18-16-41-33.124363899,15,62,17,45
run-2020-2-18-16-41-33.124363899,16,67,20,47
run-2020-2-18-16-41-33.124363899,17,72,24,48
run-2020-2-18-16-41-33.124363899,18,74,24,50
run-2020-2-18-16-41-33.124363899,19,77,25,52
run-2020-2-18-16-41-33.124363899,20,81,26,55
run-2020-2-18-16-41-33.124363899,21,83,26,57
run-2020-2-18-16-41-33.124363899,22,88,30,58
run-2020-2-18-16-41-33.124363899,23,93,34,59
run-2020-2-18-16-41-33.124363899,24,96,36,60
run-2020-2-18-16-41-33.124363899,25,99,36,63
run-2020-2-18-16-41-33.124363899,26,103,37,66
run-2020-2-18-16-41-33.124363899,27,108,41,67
run-2020-2-18-16-41-33.124363899,28,109,32,77
run-2020-2-18-16-41-33.124363899,29,111,30,81
run-2020-2-18-16-41-33.124363899,30,118,36,82
run-2020-2-18-16-41-33.124363899,31,120,36,84
run-2020-2-18-16-41-33.124363899,32,122,34,88
run-2020-2-18-16-41-33.124363899,33,124,33,91
run-2020-2-18-16-41-33.124363899,34,128,37,91
run-2020-2-18-16-41-33.124363899,35,130,35,95
run-2020-2-18-16-41-33.124363899,36,136,40,96
run-2020-2-18-16-41-33.124363899,37,141,42,99
run-2020-2-18-16-41-33.124363899,38,143,42,101
run-2020-2-18-16-41-33.124363899,39,145,42,103
run-2020-2-18-16-41-33.124363899,40,147,44,103
run-2020-2-18-16-41-33.124363899,41,150,45,105
run-2020-2-18-16-41-33.124363899,42,152,45,107
run-2020-2-18-16-41-33.124363899,43,157,49,108
run-2020-2-18-16-41-33.124363899,44,162,51,111
run-2020-2-18-16-41-33.124363899,45,166,51,115
run-2020-2-18-16-41-33.124363899,46,170,52,118
run-2020-2-18-16-41-33.124363899,47,171,51,120
run-2020-2-18-16-41-33.124363899,48,172,51,121
run-2020-2-18-16-41-33.124363899,49,175,50,125
run-2020-2-18-16-41-33.124363899,50,181,52,129
run-2020-2-18-16-41-33.124363899,51,185,54,131
run-2020-2-18-16-41-33.124363899,52,188,53,135
run-2020-2-18-16-41-33.124363899,53,191,52,139
run-2020-2-18-16-41-33.124363899,54,199,56,143
run-2020-2-18-16-41-33.124363899,55,205,57,148
run-2020-2-18-16-41-33.124363899,56,207,55,152
run-2020-2-18-16-41-33.124363899,57,208,54,154
run-2020-2-18-16-41-33.124363899,58,211,54,157
run-2020-2-18-16-41-33.124363899,59,213,53,160
run-2020-2-18-16-41-33.124363899,60,215,53,162
run-2020-2-18-16-41-33.124363899,61,223,56,167
run-2020-2-18-16-41-33.124363899,62,224,50,174
run-2020-2-18-16-41-33.124363899,63,226,48,178
run-2020-2-18-16-41-33.124363899,64,232,53,179
run-2020-2-18-16-41-33.124363899,65,234,52,182
run-2020-2-18-16-41-33.124363899,66,235,49,186
run-2020-2-18-16-41-33.124363899,67,236,47,189
run-2020-2-18-16-41-33.124363899,68,240,48,192
run-2020-2-18-16-41-33.124363899,69,242,44,198
run-2020-2-18-16-41-33.124363899,70,246,48,198
run-2020-2-18-16-41-33.124363899,71,248,48,200
run-2020-2-18-16-41-33.124363899,72,252,48,204
run-2020-2-18-16-41-33.124363899,73,255,48,207
run-2020-2-18-16-41-33.124363899,74,261,50,211
run-2020-2-18-16-41-33.124363899,75,262,44,218
run-2020-2-18-16-41-33.124363899,76,264,43,221
run-2020-2-18-16-41-33.124363899,77,272,50,222
run-2020-2-18-16-41-33.124363899,78,281,55,226
run-2020-2-18-16-41-33.124363899,79,284,55,229
run-2020-2-18-16-41-33.124363899,80,288,53,235
run-2020-2-18-16-41-33.124363899,81,289,47,242
run-2020-2-18-16-41-33.124363899,82,291,45,246
run-2020-2-18-16-41-33.124363899,83,291,43,248
run-2020-2-18-16-41-33.124363899,84,293,45,248
run-2020-2-18-16-41-33.124363899,85,299,50,249
run-2020-2-18-16-41-33.124363899,86,301,48,253
run-2020-2-18-16-41-33.124363899,87,309,55,254
run-2020-2-18-16-41-33.124363899,88,310,54,256
run-2020-2-18-16-41-33.124363899,89,313,53,260
run-2020-2-18-16-41-33.124363899,90,314,48,266
run-2020-2-18-16-41-33.124363899,91,318,47,271
run-2020-2-18-16-41-33.124363899,92,322,49,273
run-2020-2-18-16-41-33.124363899,93,328,50,278
run-2020-2-18-16-41-33.124363899,94,329,42,287
run-2020-2-18-16-41-33.124363899,95,334,46,288
run-2020-2-18-16-41-33.124363899,96,340,47,293
run-2020-2-18-16-41-33.124363899,97,343,46,297
run-2020-2-18-16-41-33.124363899,98,344,43,301
run-2020-2-18-16-41-33.124363899,99,348,43,305
