RunID,Tick,ActiveAgentsPerTick
run-2020-2-18-13-45-59.521177053,0,13
run-2020-2-18-13-45-59.521177053,1,15
run-2020-2-18-13-45-59.521177053,2,16
run-2020-2-18-13-45-59.521177053,3,15
run-2020-2-18-13-45-59.521177053,4,13
run-2020-2-18-13-45-59.521177053,5,11
run-2020-2-18-13-45-59.521177053,6,10
run-2020-2-18-13-45-59.521177053,7,14
run-2020-2-18-13-45-59.521177053,8,14
run-2020-2-18-13-45-59.521177053,9,15
run-2020-2-18-13-45-59.521177053,10,16
run-2020-2-18-13-45-59.521177053,11,17
run-2020-2-18-13-45-59.521177053,12,15
run-2020-2-18-13-45-59.521177053,13,19
run-2020-2-18-13-45-59.521177053,14,24
run-2020-2-18-13-45-59.521177053,15,27
run-2020-2-18-13-45-59.521177053,16,28
run-2020-2-18-13-45-59.521177053,17,26
run-2020-2-18-13-45-59.521177053,18,28
run-2020-2-18-13-45-59.521177053,19,27
run-2020-2-18-13-45-59.521177053,20,29
run-2020-2-18-13-45-59.521177053,21,29
run-2020-2-18-13-45-59.521177053,22,31
run-2020-2-18-13-45-59.521177053,23,30
run-2020-2-18-13-45-59.521177053,24,29
run-2020-2-18-13-45-59.521177053,25,27
run-2020-2-18-13-45-59.521177053,26,31
run-2020-2-18-13-45-59.521177053,27,35
run-2020-2-18-13-45-59.521177053,28,34
run-2020-2-18-13-45-59.521177053,29,34
run-2020-2-18-13-45-59.521177053,30,39
run-2020-2-18-13-45-59.521177053,31,37
run-2020-2-18-13-45-59.521177053,32,39
run-2020-2-18-13-45-59.521177053,33,42
run-2020-2-18-13-45-59.521177053,34,41
run-2020-2-18-13-45-59.521177053,35,44
run-2020-2-18-13-45-59.521177053,36,45
run-2020-2-18-13-45-59.521177053,37,46
run-2020-2-18-13-45-59.521177053,38,46
run-2020-2-18-13-45-59.521177053,39,51
run-2020-2-18-13-45-59.521177053,40,50
run-2020-2-18-13-45-59.521177053,41,49
run-2020-2-18-13-45-59.521177053,42,47
run-2020-2-18-13-45-59.521177053,43,48
run-2020-2-18-13-45-59.521177053,44,52
run-2020-2-18-13-45-59.521177053,45,51
run-2020-2-18-13-45-59.521177053,46,52
run-2020-2-18-13-45-59.521177053,47,51
run-2020-2-18-13-45-59.521177053,48,53
run-2020-2-18-13-45-59.521177053,49,53
run-2020-2-18-13-45-59.521177053,50,58
run-2020-2-18-13-45-59.521177053,51,62
run-2020-2-18-13-45-59.521177053,52,61
run-2020-2-18-13-45-59.521177053,53,58
run-2020-2-18-13-45-59.521177053,54,56
run-2020-2-18-13-45-59.521177053,55,58
run-2020-2-18-13-45-59.521177053,56,56
run-2020-2-18-13-45-59.521177053,57,57
run-2020-2-18-13-45-59.521177053,58,60
run-2020-2-18-13-45-59.521177053,59,53
run-2020-2-18-13-45-59.521177053,60,54
run-2020-2-18-13-45-59.521177053,61,51
run-2020-2-18-13-45-59.521177053,62,48
run-2020-2-18-13-45-59.521177053,63,48
run-2020-2-18-13-45-59.521177053,64,53
run-2020-2-18-13-45-59.521177053,65,58
run-2020-2-18-13-45-59.521177053,66,53
run-2020-2-18-13-45-59.521177053,67,52
run-2020-2-18-13-45-59.521177053,68,54
run-2020-2-18-13-45-59.521177053,69,56
run-2020-2-18-13-45-59.521177053,70,58
run-2020-2-18-13-45-59.521177053,71,61
run-2020-2-18-13-45-59.521177053,72,57
run-2020-2-18-13-45-59.521177053,73,56
run-2020-2-18-13-45-59.521177053,74,56
run-2020-2-18-13-45-59.521177053,75,55
run-2020-2-18-13-45-59.521177053,76,58
run-2020-2-18-13-45-59.521177053,77,59
run-2020-2-18-13-45-59.521177053,78,59
run-2020-2-18-13-45-59.521177053,79,55
run-2020-2-18-13-45-59.521177053,80,54
run-2020-2-18-13-45-59.521177053,81,50
run-2020-2-18-13-45-59.521177053,82,51
run-2020-2-18-13-45-59.521177053,83,47
run-2020-2-18-13-45-59.521177053,84,48
run-2020-2-18-13-45-59.521177053,85,49
run-2020-2-18-13-45-59.521177053,86,46
run-2020-2-18-13-45-59.521177053,87,44
run-2020-2-18-13-45-59.521177053,88,41
run-2020-2-18-13-45-59.521177053,89,42
run-2020-2-18-13-45-59.521177053,90,41
run-2020-2-18-13-45-59.521177053,91,40
run-2020-2-18-13-45-59.521177053,92,42
run-2020-2-18-13-45-59.521177053,93,44
run-2020-2-18-13-45-59.521177053,94,45
run-2020-2-18-13-45-59.521177053,95,47
run-2020-2-18-13-45-59.521177053,96,45
run-2020-2-18-13-45-59.521177053,97,44
run-2020-2-18-13-45-59.521177053,98,46
run-2020-2-18-13-45-59.521177053,99,44
run-2020-2-18-13-45-59.521177053,100,43
