Source,Target
57c2e622-5a41-11ea-83ed-0f749e7bce7f,57c3c876-5a41-11ea-b816-33ecef017ba2
57c2e622-5a41-11ea-83ed-0f749e7bce7f,57c42302-5a41-11ea-87d4-37548df52c86
57c337bc-5a41-11ea-a7d2-d31e24117ca5,57c41f7e-5a41-11ea-aa52-9374a8255a48
57c2e622-5a41-11ea-83ed-0f749e7bce7f,57c449c2-5a41-11ea-b392-53f7b494a46d
57c449c2-5a41-11ea-b392-53f7b494a46d,57c473ca-5a41-11ea-b504-9f13635cdb7d
57c3c876-5a41-11ea-b816-33ecef017ba2,57c4c65e-5a41-11ea-8e98-dbc4e2bba43a
57c42302-5a41-11ea-87d4-37548df52c86,57c4c4e2-5a41-11ea-9a0f-2f731ae873cc
57c3c876-5a41-11ea-b816-33ecef017ba2,57c4eddc-5a41-11ea-8d2c-571f61482b22
57c391c6-5a41-11ea-b6b8-47b86d2053be,57c51424-5a41-11ea-aa76-7bbf32e25394
