RunID,Tick,ActiveAgentsPerTick
run-2020-2-18-12-30-25.250216007,0,13
run-2020-2-18-12-30-25.250216007,1,14
run-2020-2-18-12-30-25.250216007,2,14
run-2020-2-18-12-30-25.250216007,3,11
run-2020-2-18-12-30-25.250216007,4,12
run-2020-2-18-12-30-25.250216007,5,16
run-2020-2-18-12-30-25.250216007,6,23
run-2020-2-18-12-30-25.250216007,7,23
run-2020-2-18-12-30-25.250216007,8,22
run-2020-2-18-12-30-25.250216007,9,23
run-2020-2-18-12-30-25.250216007,10,23
run-2020-2-18-12-30-25.250216007,11,19
run-2020-2-18-12-30-25.250216007,12,27
run-2020-2-18-12-30-25.250216007,13,26
run-2020-2-18-12-30-25.250216007,14,23
run-2020-2-18-12-30-25.250216007,15,26
run-2020-2-18-12-30-25.250216007,16,29
run-2020-2-18-12-30-25.250216007,17,29
run-2020-2-18-12-30-25.250216007,18,30
run-2020-2-18-12-30-25.250216007,19,36
run-2020-2-18-12-30-25.250216007,20,36
run-2020-2-18-12-30-25.250216007,21,41
run-2020-2-18-12-30-25.250216007,22,43
run-2020-2-18-12-30-25.250216007,23,44
run-2020-2-18-12-30-25.250216007,24,42
run-2020-2-18-12-30-25.250216007,25,43
run-2020-2-18-12-30-25.250216007,26,45
run-2020-2-18-12-30-25.250216007,27,48
run-2020-2-18-12-30-25.250216007,28,49
run-2020-2-18-12-30-25.250216007,29,48
run-2020-2-18-12-30-25.250216007,30,48
run-2020-2-18-12-30-25.250216007,31,47
run-2020-2-18-12-30-25.250216007,32,52
run-2020-2-18-12-30-25.250216007,33,50
run-2020-2-18-12-30-25.250216007,34,49
run-2020-2-18-12-30-25.250216007,35,48
run-2020-2-18-12-30-25.250216007,36,50
run-2020-2-18-12-30-25.250216007,37,54
run-2020-2-18-12-30-25.250216007,38,57
run-2020-2-18-12-30-25.250216007,39,58
run-2020-2-18-12-30-25.250216007,40,62
run-2020-2-18-12-30-25.250216007,41,60
run-2020-2-18-12-30-25.250216007,42,54
run-2020-2-18-12-30-25.250216007,43,55
run-2020-2-18-12-30-25.250216007,44,55
run-2020-2-18-12-30-25.250216007,45,54
run-2020-2-18-12-30-25.250216007,46,54
run-2020-2-18-12-30-25.250216007,47,56
run-2020-2-18-12-30-25.250216007,48,60
run-2020-2-18-12-30-25.250216007,49,58
run-2020-2-18-12-30-25.250216007,50,57
run-2020-2-18-12-30-25.250216007,51,55
run-2020-2-18-12-30-25.250216007,52,53
run-2020-2-18-12-30-25.250216007,53,54
run-2020-2-18-12-30-25.250216007,54,60
run-2020-2-18-12-30-25.250216007,55,58
run-2020-2-18-12-30-25.250216007,56,57
run-2020-2-18-12-30-25.250216007,57,57
run-2020-2-18-12-30-25.250216007,58,56
run-2020-2-18-12-30-25.250216007,59,53
run-2020-2-18-12-30-25.250216007,60,54
run-2020-2-18-12-30-25.250216007,61,53
run-2020-2-18-12-30-25.250216007,62,54
run-2020-2-18-12-30-25.250216007,63,46
run-2020-2-18-12-30-25.250216007,64,48
run-2020-2-18-12-30-25.250216007,65,46
run-2020-2-18-12-30-25.250216007,66,44
run-2020-2-18-12-30-25.250216007,67,43
run-2020-2-18-12-30-25.250216007,68,45
run-2020-2-18-12-30-25.250216007,69,50
run-2020-2-18-12-30-25.250216007,70,50
run-2020-2-18-12-30-25.250216007,71,50
run-2020-2-18-12-30-25.250216007,72,47
run-2020-2-18-12-30-25.250216007,73,45
run-2020-2-18-12-30-25.250216007,74,46
run-2020-2-18-12-30-25.250216007,75,45
run-2020-2-18-12-30-25.250216007,76,48
run-2020-2-18-12-30-25.250216007,77,49
run-2020-2-18-12-30-25.250216007,78,46
run-2020-2-18-12-30-25.250216007,79,42
run-2020-2-18-12-30-25.250216007,80,36
run-2020-2-18-12-30-25.250216007,81,38
run-2020-2-18-12-30-25.250216007,82,40
run-2020-2-18-12-30-25.250216007,83,46
run-2020-2-18-12-30-25.250216007,84,54
run-2020-2-18-12-30-25.250216007,85,52
run-2020-2-18-12-30-25.250216007,86,55
run-2020-2-18-12-30-25.250216007,87,50
run-2020-2-18-12-30-25.250216007,88,50
run-2020-2-18-12-30-25.250216007,89,49
run-2020-2-18-12-30-25.250216007,90,46
run-2020-2-18-12-30-25.250216007,91,49
run-2020-2-18-12-30-25.250216007,92,52
run-2020-2-18-12-30-25.250216007,93,48
run-2020-2-18-12-30-25.250216007,94,46
run-2020-2-18-12-30-25.250216007,95,47
run-2020-2-18-12-30-25.250216007,96,46
run-2020-2-18-12-30-25.250216007,97,50
run-2020-2-18-12-30-25.250216007,98,53
run-2020-2-18-12-30-25.250216007,99,57
run-2020-2-18-12-30-25.250216007,100,54
