RunID,Agent,Age,Created,Inactive,Resources,Reputation,Ability,Que
run-2020-2-17-18-2-52.513170003,AGENT#b85a0352-51af-11ea-be81-7798d55eee7c,1,0,1,10,1.0,1.0,0
run-2020-2-17-18-2-52.513170003,AGENT#b85a0ce4-51af-11ea-9d03-dbc05a63fd9f,2,0,2,10,1.0,1.0,0
run-2020-2-17-18-2-52.513170003,AGENT#b85a2c2e-51af-11ea-bde6-7bd8873366d8,2,0,2,10,1.0,1.0,0
run-2020-2-17-18-2-52.513170003,AGENT#b85a8728-51af-11ea-a82a-935e61e0d4b4,3,0,3,10,1.0,1.0,0
run-2020-2-17-18-2-52.513170003,AGENT#b85a1324-51af-11ea-a464-cf08224d2f26,4,0,4,10,1.0,1.0,0
run-2020-2-17-18-2-52.513170003,AGENT#b8641e3c-51af-11ea-9d20-f38a596ed6d3,3,1,4,10,1.0,1.0,0
run-2020-2-17-18-2-52.513170003,AGENT#b864240e-51af-11ea-99c7-1bbc8887f751,3,1,4,10,1.0,1.0,0
run-2020-2-17-18-2-52.513170003,AGENT#b866c4d4-51af-11ea-8d08-1fce83e0ee6b,2,2,4,10,1.0,1.0,0
run-2020-2-17-18-2-52.513170003,AGENT#b85a1022-51af-11ea-b20b-bb450f0fa574,5,0,5,10,1.0,1.0,0
run-2020-2-17-18-2-52.513170003,AGENT#b85a2008-51af-11ea-bd3f-4b7dffefd342,5,0,5,10,1.0,1.0,0
run-2020-2-17-18-2-52.513170003,AGENT#b85a25ee-51af-11ea-a579-2bb968dad508,5,0,5,10,1.0,1.0,0
run-2020-2-17-18-2-52.513170003,AGENT#b86426d4-51af-11ea-ba0a-0783aa537bbf,4,1,5,10,1.0,1.0,0
run-2020-2-17-18-2-52.513170003,AGENT#b866cdc6-51af-11ea-8675-f366efc150f3,3,2,5,10,1.0,1.0,0
run-2020-2-17-18-2-52.513170003,AGENT#b868f48e-51af-11ea-81de-b715370be2ef,2,3,5,10,1.0,1.0,0
run-2020-2-17-18-2-52.513170003,AGENT#b866c1d2-51af-11ea-8aa4-f358bfdba35c,4,2,6,10,1.0,1.0,0
run-2020-2-17-18-2-52.513170003,AGENT#b86ae73a-51af-11ea-8fb7-2bd4c662e503,2,4,6,10,1.0,1.0,0
run-2020-2-17-18-2-52.513170003,AGENT#b86aec44-51af-11ea-9963-6fa0a04b34f2,2,4,6,10,1.0,1.0,0
run-2020-2-17-18-2-52.513170003,AGENT#b86af388-51af-11ea-ae34-f7c9a9f8b5a4,2,4,6,10,1.0,1.0,0
run-2020-2-17-18-2-52.513170003,AGENT#b86ca58e-51af-11ea-b0b6-77c52fc8732a,1,5,6,10,1.0,1.0,0
run-2020-2-17-18-2-52.513170003,AGENT#b85a0852-51af-11ea-96d9-93e498c44685,7,0,7,10,1.0,1.0,0
run-2020-2-17-18-2-52.513170003,AGENT#b868ef34-51af-11ea-904d-db21e0bc593d,4,3,7,10,1.0,1.0,0
run-2020-2-17-18-2-52.513170003,AGENT#b86c9be8-51af-11ea-8996-1fca868dad8a,2,5,7,10,1.0,1.0,0
run-2020-2-17-18-2-52.513170003,AGENT#b86ca0d4-51af-11ea-87fb-03b7c90ef214,2,5,7,10,1.0,1.0,0
run-2020-2-17-18-2-52.513170003,AGENT#b86e25e4-51af-11ea-baba-4338d5409ac1,1,6,7,10,1.0,1.0,0
run-2020-2-17-18-2-52.513170003,AGENT#b86e2878-51af-11ea-a033-4b4105a5c935,1,6,7,10,1.0,1.0,0
run-2020-2-17-18-2-52.513170003,AGENT#b868f1f0-51af-11ea-a51a-eff309355984,5,3,8,10,1.0,1.0,0
run-2020-2-17-18-2-52.513170003,AGENT#b868f72c-51af-11ea-b4fc-17287eb41fce,5,3,8,10,1.0,1.0,0
run-2020-2-17-18-2-52.513170003,AGENT#b86e2aee-51af-11ea-95e6-4376a61dd3e7,3,6,9,10,1.0,1.0,0
run-2020-2-17-18-2-52.513170003,AGENT#b86f57de-51af-11ea-aef1-8759b3267476,2,7,9,10,1.0,1.0,0
run-2020-2-17-18-2-52.513170003,AGENT#b86f5a54-51af-11ea-8d20-6355f989efa7,2,7,9,10,1.0,1.0,0
run-2020-2-17-18-2-52.513170003,AGENT#b87054b8-51af-11ea-b22a-37697dd28898,3,8,11,10,1.0,1.0,0
run-2020-2-17-18-2-52.513170003,AGENT#b871643e-51af-11ea-9311-5bd5ebce7f12,2,9,11,10,1.0,1.0,0
run-2020-2-17-18-2-52.513170003,AGENT#b8716b8c-51af-11ea-b195-d300c53d5d7b,3,9,12,10,1.0,1.0,0
run-2020-2-17-18-2-52.513170003,AGENT#b8705986-51af-11ea-b1b2-dbd87d666483,5,8,13,10,1.0,1.0,0
run-2020-2-17-18-2-52.513170003,AGENT#b8716934-51af-11ea-9187-af4858b5fe7b,4,9,13,10,1.0,1.0,0
run-2020-2-17-18-2-52.513170003,AGENT#b8716dd0-51af-11ea-ac6e-133ed3904c31,4,9,13,10,1.0,1.0,0
run-2020-2-17-18-2-52.513170003,AGENT#b87369b4-51af-11ea-afbb-139ad803d705,2,11,13,10,1.0,1.0,0
run-2020-2-17-18-2-52.513170003,AGENT#b87455c2-51af-11ea-8b64-97d31dbcaa16,1,12,13,10,1.0,1.0,0
run-2020-2-17-18-2-52.513170003,AGENT#b87166e6-51af-11ea-89a3-0b7e6b12637b,5,9,14,10,1.0,1.0,0
run-2020-2-17-18-2-52.513170003,AGENT#b8717032-51af-11ea-9b4b-f7432ec174e4,5,9,14,10,1.0,1.0,0
run-2020-2-17-18-2-52.513170003,AGENT#b874531a-51af-11ea-81dc-138249998df1,2,12,14,10,1.0,1.0,0
run-2020-2-17-18-2-52.513170003,AGENT#b8754b58-51af-11ea-9e48-c3b473a39664,2,13,15,10,1.0,1.0,0
run-2020-2-17-18-2-52.513170003,AGENT#b87636e4-51af-11ea-b099-a7b9f6b81d70,1,14,15,10,1.0,1.0,0
run-2020-2-17-18-2-52.513170003,AGENT#b8736c3e-51af-11ea-94aa-d7909cc89638,5,11,16,10,1.0,1.0,0
run-2020-2-17-18-2-52.513170003,AGENT#b8763978-51af-11ea-93ae-7b5649fafa9d,2,14,16,10,1.0,1.0,0
run-2020-2-17-18-2-52.513170003,AGENT#b86c9e7c-51af-11ea-9d29-bbc672d84eb5,12,5,17,10,1.0,1.0,0
run-2020-2-17-18-2-52.513170003,AGENT#b8754db0-51af-11ea-a791-b72d98fa8979,4,13,17,10,1.0,1.0,0
run-2020-2-17-18-2-52.513170003,AGENT#b8787850-51af-11ea-8f67-57d94d38fa5a,1,16,17,10,1.0,1.0,0
run-2020-2-17-18-2-52.513170003,AGENT#b8705bf2-51af-11ea-a7c3-476996a5a394,10,8,18,10,1.0,1.0,0
run-2020-2-17-18-2-52.513170003,AGENT#b8786e46-51af-11ea-ad4c-0f3ffe297484,3,16,19,10,1.0,1.0,0
run-2020-2-17-18-2-52.513170003,AGENT#b8787ada-51af-11ea-b893-b39ef4d9a702,3,16,19,10,1.0,1.0,0
run-2020-2-17-18-2-52.513170003,AGENT#b879a05e-51af-11ea-8d68-07ecd68864f2,2,17,19,10,1.0,1.0,0
run-2020-2-17-18-2-52.513170003,AGENT#b87aabca-51af-11ea-bb05-b74f3ae4c403,1,18,19,10,1.0,1.0,0
run-2020-2-17-18-2-52.513170003,AGENT#b87bba60-51af-11ea-a0b6-db9fe05dca77,2,19,21,10,1.0,1.0,0
run-2020-2-17-18-2-52.513170003,AGENT#b87aa904-51af-11ea-875f-63147f36683c,5,18,23,10,1.0,1.0,0
run-2020-2-17-18-2-52.513170003,AGENT#b87dcd3c-51af-11ea-a010-cf3c92e34a04,2,21,23,10,1.0,1.0,0
run-2020-2-17-18-2-52.513170003,AGENT#b87dd160-51af-11ea-a6e9-7b90aaa8d273,2,21,23,10,1.0,1.0,0
run-2020-2-17-18-2-52.513170003,AGENT#b87cc4b4-51af-11ea-bfc9-ef7e2769f272,4,20,24,10,1.0,1.0,0
run-2020-2-17-18-2-52.513170003,AGENT#b87ecd0e-51af-11ea-acb9-c7e86660160b,2,22,24,10,1.0,1.0,0
run-2020-2-17-18-2-52.513170003,AGENT#b87ed6c8-51af-11ea-b9aa-7b2f5a9c0eda,2,22,24,10,1.0,1.0,0
run-2020-2-17-18-2-52.513170003,AGENT#b8717294-51af-11ea-bb27-9fb47e65eff6,16,9,25,10,1.0,1.0,0
run-2020-2-17-18-2-52.513170003,AGENT#b880eae4-51af-11ea-a508-a76230143978,1,24,25,10,1.0,1.0,0
run-2020-2-17-18-2-52.513170003,AGENT#b86e2d46-51af-11ea-895a-4bd7bc180b1b,20,6,26,10,1.0,1.0,0
run-2020-2-17-18-2-52.513170003,AGENT#b87fdd2a-51af-11ea-994a-f397beee25c8,3,23,26,10,1.0,1.0,0
run-2020-2-17-18-2-52.513170003,AGENT#b880e36e-51af-11ea-99a2-53ce94e05cf1,3,24,27,10,1.0,1.0,0
run-2020-2-17-18-2-52.513170003,AGENT#b881edc2-51af-11ea-b1eb-ab9628964d32,2,25,27,10,1.0,1.0,0
run-2020-2-17-18-2-52.513170003,AGENT#b87fd5c8-51af-11ea-9e06-6b30f3b69f0e,5,23,28,10,1.0,1.0,0
run-2020-2-17-18-2-52.513170003,AGENT#b87fdae6-51af-11ea-a93a-6fc6d2c30807,5,23,28,10,1.0,1.0,0
run-2020-2-17-18-2-52.513170003,AGENT#b880e896-51af-11ea-afdb-af5d26c1789f,4,24,28,10,1.0,1.0,0
run-2020-2-17-18-2-52.513170003,AGENT#b882ecc2-51af-11ea-8da6-47c6f7ab9df0,2,26,28,10,1.0,1.0,0
run-2020-2-17-18-2-52.513170003,AGENT#b8843aaa-51af-11ea-a9cb-4f43ad90a4bb,1,27,28,10,1.0,1.0,0
run-2020-2-17-18-2-52.513170003,AGENT#b882ea60-51af-11ea-b04c-0ffed9ee6746,3,26,29,10,1.0,1.0,0
run-2020-2-17-18-2-52.513170003,AGENT#b885a6d8-51af-11ea-8d2a-67a60af496c1,1,28,29,10,1.0,1.0,0
run-2020-2-17-18-2-52.513170003,AGENT#b885b09c-51af-11ea-afe8-2f968895ddd3,1,28,29,10,1.0,1.0,0
run-2020-2-17-18-2-52.513170003,AGENT#b885a37c-51af-11ea-97f6-eba2b12a484b,2,28,30,10,1.0,1.0,0
run-2020-2-17-18-2-52.513170003,AGENT#b8872fd0-51af-11ea-a6e5-8b698d9bed52,1,29,30,10,1.0,1.0,0
run-2020-2-17-18-2-52.513170003,AGENT#b85a1a40-51af-11ea-b72e-8346b9cb8eb1,31,0,31,10,1.0,1.0,0
run-2020-2-17-18-2-52.513170003,AGENT#b882e56a-51af-11ea-a276-abb0e3e4fb18,5,26,31,10,1.0,1.0,0
run-2020-2-17-18-2-52.513170003,AGENT#b8859954-51af-11ea-bb4d-9f19977c0fb8,3,28,31,10,1.0,1.0,0
run-2020-2-17-18-2-52.513170003,AGENT#b8859ce2-51af-11ea-a25c-1f7eb0e829a2,3,28,31,10,1.0,1.0,0
run-2020-2-17-18-2-52.513170003,AGENT#b885aa34-51af-11ea-b71f-4bb781b58535,3,28,31,10,1.0,1.0,0
run-2020-2-17-18-2-52.513170003,AGENT#b8872904-51af-11ea-b066-cbbe5364977a,2,29,31,10,1.0,1.0,0
run-2020-2-17-18-2-52.513170003,AGENT#b888e0f0-51af-11ea-beb2-0f0ae4749857,1,30,31,10,1.0,1.0,0
run-2020-2-17-18-2-52.513170003,AGENT#b885ad68-51af-11ea-9010-bf7cd3f4e507,4,28,32,10,1.0,1.0,0
run-2020-2-17-18-2-52.513170003,AGENT#b888d9fc-51af-11ea-8a0a-039e4f7a2e98,2,30,32,10,1.0,1.0,0
run-2020-2-17-18-2-52.513170003,AGENT#b88a999a-51af-11ea-9a93-cf50c5289c62,1,31,32,10,1.0,1.0,0
run-2020-2-17-18-2-52.513170003,AGENT#b885a034-51af-11ea-9d4e-43df541bbe70,5,28,33,10,1.0,1.0,0
run-2020-2-17-18-2-52.513170003,AGENT#b88c2e68-51af-11ea-9591-ffd06f508ab2,1,32,33,10,1.0,1.0,0
run-2020-2-17-18-2-52.513170003,AGENT#b88c3868-51af-11ea-b894-23c6bc2a564f,1,32,33,10,1.0,1.0,0
run-2020-2-17-18-2-52.513170003,AGENT#b8872562-51af-11ea-a425-37800d3cb182,5,29,34,10,1.0,1.0,0
run-2020-2-17-18-2-52.513170003,AGENT#b88c34ee-51af-11ea-b73c-633391b4f143,2,32,34,10,1.0,1.0,0
run-2020-2-17-18-2-52.513170003,AGENT#b88f20b4-51af-11ea-aa49-c7a56041e756,1,34,35,10,1.0,1.0,0
run-2020-2-17-18-2-52.513170003,AGENT#b878738c-51af-11ea-97bc-f3aaa2ed3875,20,16,36,10,1.0,1.0,0
run-2020-2-17-18-2-52.513170003,AGENT#b88f11aa-51af-11ea-88a0-f3fc12384327,2,34,36,10,1.0,1.0,0
run-2020-2-17-18-2-52.513170003,AGENT#b88f1ad8-51af-11ea-9160-c71fb23f2a2a,2,34,36,10,1.0,1.0,0
run-2020-2-17-18-2-52.513170003,AGENT#b8907d42-51af-11ea-92ec-cba3f52ba21d,1,35,36,10,1.0,1.0,0
run-2020-2-17-18-2-52.513170003,AGENT#b890831e-51af-11ea-933d-63a6c7ca3532,1,35,36,10,1.0,1.0,0
run-2020-2-17-18-2-52.513170003,AGENT#b8754680-51af-11ea-97b7-7300cc4e5083,24,13,37,10,1.0,1.0,0
run-2020-2-17-18-2-52.513170003,AGENT#b88db986-51af-11ea-98a2-e3812bc9e54d,4,33,37,10,1.0,1.0,0
run-2020-2-17-18-2-52.513170003,AGENT#b8907a2c-51af-11ea-80a7-6fe150fc9ca9,2,35,37,10,1.0,1.0,0
run-2020-2-17-18-2-52.513170003,AGENT#b8908896-51af-11ea-bcc3-23676d9d5b01,2,35,37,10,1.0,1.0,0
run-2020-2-17-18-2-52.513170003,AGENT#b891da3e-51af-11ea-a1fc-df8ff29cae21,1,36,37,10,1.0,1.0,0
run-2020-2-17-18-2-52.513170003,AGENT#b891dd4a-51af-11ea-a6a3-83dbc9171e8e,1,36,37,10,1.0,1.0,0
run-2020-2-17-18-2-52.513170003,AGENT#b8908026-51af-11ea-b9d2-a7226dff5f19,5,35,40,10,1.0,1.0,0
run-2020-2-17-18-2-52.513170003,AGENT#b8959f20-51af-11ea-982d-876afae49056,1,39,40,10,1.0,1.0,0
run-2020-2-17-18-2-52.513170003,AGENT#b8946ed4-51af-11ea-9a18-732cd3d9b41a,3,38,41,10,1.0,1.0,0
run-2020-2-17-18-2-52.513170003,AGENT#b85a8354-51af-11ea-b5d2-df9cb32248d5,42,0,42,10,1.0,1.0,0
run-2020-2-17-18-2-52.513170003,AGENT#b896de4e-51af-11ea-ac01-973dc07d7471,2,40,42,10,1.0,1.0,0
run-2020-2-17-18-2-52.513170003,AGENT#b896e0d8-51af-11ea-8669-bf9d309bd451,3,40,43,10,1.0,1.0,0
run-2020-2-17-18-2-52.513170003,AGENT#b8981930-51af-11ea-b626-0ff345d066c3,2,41,43,10,1.0,1.0,0
run-2020-2-17-18-2-52.513170003,AGENT#b89957d2-51af-11ea-b85b-3fc9af442978,1,42,43,10,1.0,1.0,0
run-2020-2-17-18-2-52.513170003,AGENT#b896d610-51af-11ea-934f-9799ce8178c1,4,40,44,10,1.0,1.0,0
run-2020-2-17-18-2-52.513170003,AGENT#b8995520-51af-11ea-a7f3-a7003066f891,2,42,44,10,1.0,1.0,0
run-2020-2-17-18-2-52.513170003,AGENT#b89a91ce-51af-11ea-863b-0b259d05bc57,1,43,44,10,1.0,1.0,0
run-2020-2-17-18-2-52.513170003,AGENT#b89a970a-51af-11ea-8c4f-8f2faacc92d8,1,43,44,10,1.0,1.0,0
run-2020-2-17-18-2-52.513170003,AGENT#b89a9c46-51af-11ea-a27f-8f7dcc716ffe,1,43,44,10,1.0,1.0,0
run-2020-2-17-18-2-52.513170003,AGENT#b85a316a-51af-11ea-9729-431f33f3c358,45,0,45,10,1.0,1.0,0
run-2020-2-17-18-2-52.513170003,AGENT#b8981be2-51af-11ea-b891-777e3101a038,4,41,45,10,1.0,1.0,0
run-2020-2-17-18-2-52.513170003,AGENT#b8994b84-51af-11ea-8519-af66929acfe3,3,42,45,10,1.0,1.0,0
run-2020-2-17-18-2-52.513170003,AGENT#b8994fe4-51af-11ea-bcd2-af9431f65c46,3,42,45,10,1.0,1.0,0
run-2020-2-17-18-2-52.513170003,AGENT#b89be3d0-51af-11ea-8332-032a82f0d37f,1,44,45,10,1.0,1.0,0
run-2020-2-17-18-2-52.513170003,AGENT#b89be696-51af-11ea-b00d-2ff25ba614f6,2,44,46,10,1.0,1.0,0
run-2020-2-17-18-2-52.513170003,AGENT#b8994616-51af-11ea-bb9b-477cab256bb7,5,42,47,10,1.0,1.0,0
run-2020-2-17-18-2-52.513170003,AGENT#b89d1926-51af-11ea-9c2a-831b55941a1a,2,45,47,10,1.0,1.0,0
run-2020-2-17-18-2-52.513170003,AGENT#b8642148-51af-11ea-9b96-bba1f4937816,47,1,48,10,1.0,1.0,0
run-2020-2-17-18-2-52.513170003,AGENT#b89f8422-51af-11ea-ba12-e3ed742caf50,1,47,48,10,1.0,1.0,0
run-2020-2-17-18-2-52.513170003,AGENT#b86ca336-51af-11ea-885a-3be7284b9642,45,5,50,10,1.0,1.0,0
run-2020-2-17-18-2-52.513170003,AGENT#b86aeec4-51af-11ea-a4e8-8f9b06725dda,47,4,51,10,1.0,1.0,0
run-2020-2-17-18-2-52.513170003,AGENT#b86af130-51af-11ea-80f2-f3cc7f9bab8f,47,4,51,10,1.0,1.0,0
run-2020-2-17-18-2-52.513170003,AGENT#b86ca7f0-51af-11ea-bbbe-874cb7043b3c,46,5,51,10,1.0,1.0,0
run-2020-2-17-18-2-52.513170003,AGENT#b88a9d5a-51af-11ea-b97c-b7b92f23836a,20,31,51,10,1.0,1.0,0
run-2020-2-17-18-2-52.513170003,AGENT#b88c31c4-51af-11ea-92cf-5b7e11a6286b,19,32,51,10,1.0,1.0,0
run-2020-2-17-18-2-52.513170003,AGENT#b8a0ae60-51af-11ea-8a0a-e7445e153662,3,48,51,10,1.0,1.0,0
run-2020-2-17-18-2-52.513170003,AGENT#b8a1dfd8-51af-11ea-a019-bfac75546792,2,49,51,10,1.0,1.0,0
run-2020-2-17-18-2-52.513170003,AGENT#b8a1e212-51af-11ea-9de5-9bf5e019f428,2,49,51,10,1.0,1.0,0
run-2020-2-17-18-2-52.513170003,AGENT#b86ae9ce-51af-11ea-8b78-17b353fa01d2,48,4,52,10,1.0,1.0,0
run-2020-2-17-18-2-52.513170003,AGENT#b8a1da92-51af-11ea-b8d0-5f1db5f742ec,3,49,52,10,1.0,1.0,0
run-2020-2-17-18-2-52.513170003,AGENT#b8a44f34-51af-11ea-9faa-43473f0f6f8b,1,51,52,10,1.0,1.0,0
run-2020-2-17-18-2-52.513170003,AGENT#b8705738-51af-11ea-969d-4f872b83a4f5,45,8,53,10,1.0,1.0,0
run-2020-2-17-18-2-52.513170003,AGENT#b87ed2c2-51af-11ea-b505-bb7ea563a317,31,22,53,10,1.0,1.0,0
run-2020-2-17-18-2-52.513170003,AGENT#b8a0a1d6-51af-11ea-978e-ff3d155c9c8e,5,48,53,10,1.0,1.0,0
run-2020-2-17-18-2-52.513170003,AGENT#b8a44444-51af-11ea-a2d5-f78ad00b5dbb,2,51,53,10,1.0,1.0,0
run-2020-2-17-18-2-52.513170003,AGENT#b8a5d0b6-51af-11ea-9f0c-835e94a72ed4,1,52,53,10,1.0,1.0,0
run-2020-2-17-18-2-52.513170003,AGENT#b8705206-51af-11ea-8247-1f23780aeeac,46,8,54,10,1.0,1.0,0
run-2020-2-17-18-2-52.513170003,AGENT#b896dbba-51af-11ea-a2f5-1bcbce8e6da0,14,40,54,10,1.0,1.0,0
run-2020-2-17-18-2-52.513170003,AGENT#b8a1e456-51af-11ea-a620-9725bc890358,5,49,54,10,1.0,1.0,0
run-2020-2-17-18-2-52.513170003,AGENT#b8a313f8-51af-11ea-9c8a-dfa960550c78,4,50,54,10,1.0,1.0,0
run-2020-2-17-18-2-52.513170003,AGENT#b8a5ce2c-51af-11ea-98b1-97df8a002548,2,52,54,10,1.0,1.0,0
run-2020-2-17-18-2-52.513170003,AGENT#b8872c7e-51af-11ea-be54-a3fe0a668bba,26,29,55,10,1.0,1.0,0
run-2020-2-17-18-2-52.513170003,AGENT#b8ad7e92-51af-11ea-a740-3bfd7e60740a,1,54,55,10,1.0,1.0,0
run-2020-2-17-18-2-52.513170003,AGENT#b8a44700-51af-11ea-8949-8bccba1c6573,5,51,56,10,1.0,1.0,0
run-2020-2-17-18-2-52.513170003,AGENT#b8a44a2a-51af-11ea-8452-bbbebe047938,5,51,56,10,1.0,1.0,0
run-2020-2-17-18-2-52.513170003,AGENT#b8a5cb48-51af-11ea-a36c-67b1170ddd02,4,52,56,10,1.0,1.0,0
run-2020-2-17-18-2-52.513170003,AGENT#b8a72bd2-51af-11ea-bf2b-13a03bede81b,3,53,56,10,1.0,1.0,0
run-2020-2-17-18-2-52.513170003,AGENT#b8ad679a-51af-11ea-9f3d-ff1e73cfb5ba,2,54,56,10,1.0,1.0,0
run-2020-2-17-18-2-52.513170003,AGENT#b8ad84a0-51af-11ea-ae5a-5772068239f4,2,54,56,10,1.0,1.0,0
run-2020-2-17-18-2-52.513170003,AGENT#b880ed32-51af-11ea-b615-7fb8544ed9cc,33,24,57,10,1.0,1.0,0
run-2020-2-17-18-2-52.513170003,AGENT#b88dbd00-51af-11ea-8fea-033296f5d414,24,33,57,10,1.0,1.0,0
run-2020-2-17-18-2-52.513170003,AGENT#b8ad8aae-51af-11ea-8861-5b3e9caebc02,3,54,57,10,1.0,1.0,0
run-2020-2-17-18-2-52.513170003,AGENT#b8b4d070-51af-11ea-a2a6-43cd84a3aa12,1,56,57,10,1.0,1.0,0
run-2020-2-17-18-2-52.513170003,AGENT#b8b4e33a-51af-11ea-9168-7f7c1ddff9c2,1,56,57,10,1.0,1.0,0
run-2020-2-17-18-2-52.513170003,AGENT#b8b4e876-51af-11ea-bdaf-4fd2c768fa17,1,56,57,10,1.0,1.0,0
run-2020-2-17-18-2-52.513170003,AGENT#b8a726b4-51af-11ea-9733-d3cf681faadf,5,53,58,10,1.0,1.0,0
run-2020-2-17-18-2-52.513170003,AGENT#b8ad6f4c-51af-11ea-afa6-97aac77038d4,4,54,58,10,1.0,1.0,0
run-2020-2-17-18-2-52.513170003,AGENT#b8b0ccaa-51af-11ea-8595-87e083abf36f,3,55,58,10,1.0,1.0,0
run-2020-2-17-18-2-52.513170003,AGENT#b8b4de12-51af-11ea-b969-c3acd93f29a7,2,56,58,10,1.0,1.0,0
run-2020-2-17-18-2-52.513170003,AGENT#b8b7a41c-51af-11ea-b28f-2747e25fec6f,1,57,58,10,1.0,1.0,0
run-2020-2-17-18-2-52.513170003,AGENT#b8b7b3c6-51af-11ea-a333-f79a2735ef9f,1,57,58,10,1.0,1.0,0
run-2020-2-17-18-2-52.513170003,AGENT#b8745892-51af-11ea-8394-eb6b0c50cf32,47,12,59,10,1.0,1.0,0
run-2020-2-17-18-2-52.513170003,AGENT#b875490a-51af-11ea-a7cf-5fd554b7614d,46,13,59,10,1.0,1.0,0
run-2020-2-17-18-2-52.513170003,AGENT#b87bbfb0-51af-11ea-a6e5-07bdd9ee1321,40,19,59,10,1.0,1.0,0
run-2020-2-17-18-2-52.513170003,AGENT#b8b7a9a8-51af-11ea-8da5-ffa35b7f51dc,2,57,59,10,1.0,1.0,0
run-2020-2-17-18-2-52.513170003,AGENT#b8ba5df6-51af-11ea-84a2-2bacca253da0,1,58,59,10,1.0,1.0,0
run-2020-2-17-18-2-52.513170003,AGENT#b87738d2-51af-11ea-834d-a37ee070b961,45,15,60,10,1.0,1.0,0
run-2020-2-17-18-2-52.513170003,AGENT#b878710c-51af-11ea-ac4a-3b4c252df69a,44,16,60,10,1.0,1.0,0
run-2020-2-17-18-2-52.513170003,AGENT#b8b0be72-51af-11ea-b0fc-b396cbbda564,5,55,60,10,1.0,1.0,0
run-2020-2-17-18-2-52.513170003,AGENT#b8bc9f8a-51af-11ea-8ef8-e3256c60e3cf,1,59,60,10,1.0,1.0,0
run-2020-2-17-18-2-52.513170003,AGENT#b8bcabb0-51af-11ea-b8bc-3b92e71f4f52,1,59,60,10,1.0,1.0,0
run-2020-2-17-18-2-52.513170003,AGENT#b8ad76d6-51af-11ea-b7a3-6f6f136c0a4a,7,54,61,10,1.0,1.0,0
run-2020-2-17-18-2-52.513170003,AGENT#b8bee20e-51af-11ea-825c-bf8fe16e85b5,1,60,61,10,1.0,1.0,0
run-2020-2-17-18-2-52.513170003,AGENT#b8beee98-51af-11ea-8694-676712e6d8bc,1,60,61,10,1.0,1.0,0
run-2020-2-17-18-2-52.513170003,AGENT#b877340e-51af-11ea-9e4c-73ebf1d65697,47,15,62,10,1.0,1.0,0
run-2020-2-17-18-2-52.513170003,AGENT#b8799b72-51af-11ea-ba78-47ace1f83f7e,45,17,62,10,1.0,1.0,0
run-2020-2-17-18-2-52.513170003,AGENT#b89a9ed0-51af-11ea-811f-dfbccc3ddd06,19,43,62,10,1.0,1.0,0
run-2020-2-17-18-2-52.513170003,AGENT#b8bcb36c-51af-11ea-8754-f79b7650671b,3,59,62,10,1.0,1.0,0
run-2020-2-17-18-2-52.513170003,AGENT#b8c10066-51af-11ea-91f5-47a4ce6cc75c,1,61,62,10,1.0,1.0,0
run-2020-2-17-18-2-52.513170003,AGENT#b8787602-51af-11ea-abb9-17fda6c8aeea,47,16,63,10,1.0,1.0,0
run-2020-2-17-18-2-52.513170003,AGENT#b8787d28-51af-11ea-a7a9-9b955344f4d4,47,16,63,10,1.0,1.0,0
run-2020-2-17-18-2-52.513170003,AGENT#b87aae4a-51af-11ea-b7ad-8f61ff23723f,45,18,63,10,1.0,1.0,0
run-2020-2-17-18-2-52.513170003,AGENT#b88f17cc-51af-11ea-8329-6b91c10331eb,29,34,63,10,1.0,1.0,0
run-2020-2-17-18-2-52.513170003,AGENT#b8beea4c-51af-11ea-9caa-7bb5337910f9,3,60,63,10,1.0,1.0,0
run-2020-2-17-18-2-52.513170003,AGENT#b8c2fdf8-51af-11ea-8780-e703f83186cd,1,62,63,10,1.0,1.0,0
run-2020-2-17-18-2-52.513170003,AGENT#b89948dc-51af-11ea-8d97-77c1e5708fcf,22,42,64,10,1.0,1.0,0
run-2020-2-17-18-2-52.513170003,AGENT#b8bee65a-51af-11ea-9930-a34e8867a58b,4,60,64,10,1.0,1.0,0
run-2020-2-17-18-2-52.513170003,AGENT#b8c10bce-51af-11ea-bb5d-afa5fe343e68,3,61,64,10,1.0,1.0,0
run-2020-2-17-18-2-52.513170003,AGENT#b8c2f646-51af-11ea-9438-6b87e66718c1,2,62,64,10,1.0,1.0,0
run-2020-2-17-18-2-52.513170003,AGENT#b8c2fa56-51af-11ea-9fa6-db0465b9c1d8,2,62,64,10,1.0,1.0,0
run-2020-2-17-18-2-52.513170003,AGENT#b87bbd26-51af-11ea-8636-c736a6018ce7,46,19,65,10,1.0,1.0,0
run-2020-2-17-18-2-52.513170003,AGENT#b8c10426-51af-11ea-a2d7-0f79a13c9df3,4,61,65,10,1.0,1.0,0
run-2020-2-17-18-2-52.513170003,AGENT#b8c57894-51af-11ea-80d4-0bfecfd2c6c9,2,63,65,10,1.0,1.0,0
run-2020-2-17-18-2-52.513170003,AGENT#b888ddb2-51af-11ea-a213-63e65c0fb77d,36,30,66,10,1.0,1.0,0
run-2020-2-17-18-2-52.513170003,AGENT#b8908b52-51af-11ea-b584-b36dd422c20a,31,35,66,10,1.0,1.0,0
run-2020-2-17-18-2-52.513170003,AGENT#b8c301a4-51af-11ea-84a8-83d7e6a45418,4,62,66,10,1.0,1.0,0
run-2020-2-17-18-2-52.513170003,AGENT#b8c752a4-51af-11ea-80cc-dbfce5785193,2,64,66,10,1.0,1.0,0
run-2020-2-17-18-2-52.513170003,AGENT#b8c93c5e-51af-11ea-b897-9bef7d6153f4,1,65,66,10,1.0,1.0,0
run-2020-2-17-18-2-52.513170003,AGENT#b8c7560a-51af-11ea-8fb7-e306f288b675,3,64,67,10,1.0,1.0,0
run-2020-2-17-18-2-52.513170003,AGENT#b8c75cc2-51af-11ea-839b-33f57ce5a7fa,3,64,67,10,1.0,1.0,0
run-2020-2-17-18-2-52.513170003,AGENT#b8c76014-51af-11ea-bc08-934a65edaaba,3,64,67,10,1.0,1.0,0
run-2020-2-17-18-2-52.513170003,AGENT#b8c57c9a-51af-11ea-bfba-2bbb8cf1625e,5,63,68,10,1.0,1.0,0
run-2020-2-17-18-2-52.513170003,AGENT#b8c92bce-51af-11ea-8b7f-abdc9cc1306c,3,65,68,10,1.0,1.0,0
run-2020-2-17-18-2-52.513170003,AGENT#b8ccc9d2-51af-11ea-8dfc-0bc967a55c76,1,67,68,10,1.0,1.0,0
run-2020-2-17-18-2-52.513170003,AGENT#b87fd85c-51af-11ea-b9e5-0bb8e5612fe7,46,23,69,10,1.0,1.0,0
run-2020-2-17-18-2-52.513170003,AGENT#b8cafc42-51af-11ea-885f-e3c93a65599f,3,66,69,10,1.0,1.0,0
run-2020-2-17-18-2-52.513170003,AGENT#b8cb037c-51af-11ea-bc79-0f632449dcbc,3,66,69,10,1.0,1.0,0
run-2020-2-17-18-2-52.513170003,AGENT#b8ce848e-51af-11ea-82c6-f772ecaeb674,1,68,69,10,1.0,1.0,0
run-2020-2-17-18-2-52.513170003,AGENT#b8ce87cc-51af-11ea-981b-d7fab9f74250,1,68,69,10,1.0,1.0,0
run-2020-2-17-18-2-52.513170003,AGENT#b880e616-51af-11ea-85b3-33568a0c69e5,46,24,70,10,1.0,1.0,0
run-2020-2-17-18-2-52.513170003,AGENT#b8cb000c-51af-11ea-93ae-1fb35ae6ce5c,4,66,70,10,1.0,1.0,0
run-2020-2-17-18-2-52.513170003,AGENT#b8d03626-51af-11ea-8918-071b04cb8aad,1,69,70,10,1.0,1.0,0
run-2020-2-17-18-2-52.513170003,AGENT#b8d03194-51af-11ea-8b2f-5b5da6c2a603,2,69,71,10,1.0,1.0,0
run-2020-2-17-18-2-52.513170003,AGENT#b8d1fc86-51af-11ea-aeae-7746dd93812b,1,70,71,10,1.0,1.0,0
run-2020-2-17-18-2-52.513170003,AGENT#b882e808-51af-11ea-b16f-e34b61050b0b,46,26,72,10,1.0,1.0,0
run-2020-2-17-18-2-52.513170003,AGENT#b8ba62f6-51af-11ea-8882-8f5c0a69d833,14,58,72,10,1.0,1.0,0
run-2020-2-17-18-2-52.513170003,AGENT#b8d03978-51af-11ea-a24d-cb1e0952bd8b,4,69,73,10,1.0,1.0,0
run-2020-2-17-18-2-52.513170003,AGENT#b8d20046-51af-11ea-b0ec-f35268f69df1,3,70,73,10,1.0,1.0,0
run-2020-2-17-18-2-52.513170003,AGENT#b8d2037a-51af-11ea-a76a-dfe5ed90fb2d,3,70,73,10,1.0,1.0,0
run-2020-2-17-18-2-52.513170003,AGENT#b8d3aa7c-51af-11ea-8ddf-7fbfb1396ed3,4,71,75,10,1.0,1.0,0
run-2020-2-17-18-2-52.513170003,AGENT#b8d74984-51af-11ea-8e9f-33d6a4cf9b68,2,73,75,10,1.0,1.0,0
run-2020-2-17-18-2-52.513170003,AGENT#b88aa098-51af-11ea-ae6e-3bd7a79657d1,45,31,76,10,1.0,1.0,0
run-2020-2-17-18-2-52.513170003,AGENT#b8933988-51af-11ea-94af-8b1067eb5b9f,39,37,76,10,1.0,1.0,0
run-2020-2-17-18-2-52.513170003,AGENT#b8d3b260-51af-11ea-883d-e78ab72d5886,5,71,76,10,1.0,1.0,0
run-2020-2-17-18-2-52.513170003,AGENT#b8d8d74a-51af-11ea-a01f-376c3526d727,2,74,76,10,1.0,1.0,0
run-2020-2-17-18-2-52.513170003,AGENT#b8d5724e-51af-11ea-b147-e725f5ea45a9,5,72,77,10,1.0,1.0,0
run-2020-2-17-18-2-52.513170003,AGENT#b8d57e7e-51af-11ea-bc4f-9b9431765907,5,72,77,10,1.0,1.0,0
run-2020-2-17-18-2-52.513170003,AGENT#b88c2a80-51af-11ea-82d6-bb794220a0f2,46,32,78,10,1.0,1.0,0
run-2020-2-17-18-2-52.513170003,AGENT#b8dc39c6-51af-11ea-bf46-f30ef94cec49,2,76,78,10,1.0,1.0,0
run-2020-2-17-18-2-52.513170003,AGENT#b88f14d4-51af-11ea-b0a8-ff026ad4e870,45,34,79,10,1.0,1.0,0
run-2020-2-17-18-2-52.513170003,AGENT#b88f1dda-51af-11ea-9e15-cbf1496932e5,45,34,79,10,1.0,1.0,0
run-2020-2-17-18-2-52.513170003,AGENT#b8c5805a-51af-11ea-8bb5-fbcef865f309,16,63,79,10,1.0,1.0,0
run-2020-2-17-18-2-52.513170003,AGENT#b8da9e22-51af-11ea-ba27-1f992963c05f,4,75,79,10,1.0,1.0,0
run-2020-2-17-18-2-52.513170003,AGENT#b8df2dac-51af-11ea-b2a3-8bb53a3c94bf,1,78,79,10,1.0,1.0,0
run-2020-2-17-18-2-52.513170003,AGENT#b8da9ba2-51af-11ea-83fb-37b25295ae1c,5,75,80,10,1.0,1.0,0
run-2020-2-17-18-2-52.513170003,AGENT#b8e0939a-51af-11ea-92fe-27d28b52f807,1,79,80,10,1.0,1.0,0
run-2020-2-17-18-2-52.513170003,AGENT#b8e1f5e6-51af-11ea-a76a-d79772fefd04,1,80,81,10,1.0,1.0,0
run-2020-2-17-18-2-52.513170003,AGENT#b8e1f852-51af-11ea-836d-cbd44f8cdfd9,1,80,81,10,1.0,1.0,0
run-2020-2-17-18-2-52.513170003,AGENT#b89085da-51af-11ea-a08e-67218e1c62c1,48,35,83,10,1.0,1.0,0
run-2020-2-17-18-2-52.513170003,AGENT#b8c10804-51af-11ea-aaff-177b7e2122c3,22,61,83,10,1.0,1.0,0
run-2020-2-17-18-2-52.513170003,AGENT#b8e1faaa-51af-11ea-9a7a-3fe79c6d40d3,3,80,83,10,1.0,1.0,0
run-2020-2-17-18-2-52.513170003,AGENT#b8e4eb98-51af-11ea-8634-df3da772b81e,1,82,83,10,1.0,1.0,0
run-2020-2-17-18-2-52.513170003,AGENT#b8e4f066-51af-11ea-ac62-d3486638ba68,1,82,83,10,1.0,1.0,0
run-2020-2-17-18-2-52.513170003,AGENT#b8e4f2be-51af-11ea-97a7-4fc660d9c061,2,82,84,10,1.0,1.0,0
run-2020-2-17-18-2-52.513170003,AGENT#b8e4f502-51af-11ea-be7f-8f4c0a7a1d43,3,82,85,10,1.0,1.0,0
run-2020-2-17-18-2-52.513170003,AGENT#b8e806e8-51af-11ea-b14a-bf4304402910,1,84,85,10,1.0,1.0,0
run-2020-2-17-18-2-52.513170003,AGENT#b896d8d6-51af-11ea-a805-bf51a00ec047,46,40,86,10,1.0,1.0,0
run-2020-2-17-18-2-52.513170003,AGENT#b8e3830c-51af-11ea-a200-2ff1bb14865f,5,81,86,10,1.0,1.0,0
run-2020-2-17-18-2-52.513170003,AGENT#b8e6788c-51af-11ea-925b-cf7d01009460,3,83,86,10,1.0,1.0,0
run-2020-2-17-18-2-52.513170003,AGENT#b8e97aa0-51af-11ea-b5e9-971af05470e5,1,85,86,10,1.0,1.0,0
run-2020-2-17-18-2-52.513170003,AGENT#b8e97d70-51af-11ea-8112-3f761c604f61,1,85,86,10,1.0,1.0,0
run-2020-2-17-18-2-52.513170003,AGENT#b8995296-51af-11ea-a0bf-ab51e551cf58,45,42,87,10,1.0,1.0,0
run-2020-2-17-18-2-52.513170003,AGENT#b8e8036e-51af-11ea-a7a0-5fe4d7aab734,3,84,87,10,1.0,1.0,0
run-2020-2-17-18-2-52.513170003,AGENT#b8eb21fc-51af-11ea-8b81-87626aae7df5,1,86,87,10,1.0,1.0,0
run-2020-2-17-18-2-52.513170003,AGENT#b89a9494-51af-11ea-bfc0-078fc343863e,45,43,88,10,1.0,1.0,0
run-2020-2-17-18-2-52.513170003,AGENT#b89a99b2-51af-11ea-970f-1ff8c6a6f9f6,45,43,88,10,1.0,1.0,0
run-2020-2-17-18-2-52.513170003,AGENT#b8ecb558-51af-11ea-bed6-1bae6b3b8dff,1,87,88,10,1.0,1.0,0
run-2020-2-17-18-2-52.513170003,AGENT#b8ecb7d8-51af-11ea-a23f-f7712342b1ba,1,87,88,10,1.0,1.0,0
run-2020-2-17-18-2-52.513170003,AGENT#b8ecb012-51af-11ea-b59f-03e347235f6c,2,87,89,10,1.0,1.0,0
run-2020-2-17-18-2-52.513170003,AGENT#b8ee634e-51af-11ea-af85-33072aaa496e,1,88,89,10,1.0,1.0,0
run-2020-2-17-18-2-52.513170003,AGENT#b8981660-51af-11ea-91cf-e7a0044fb924,49,41,90,10,1.0,1.0,0
run-2020-2-17-18-2-52.513170003,AGENT#b8e97fd2-51af-11ea-af4c-ef42c3f1d1b2,5,85,90,10,1.0,1.0,0
run-2020-2-17-18-2-52.513170003,AGENT#b8eb1cc0-51af-11ea-a912-af483740f5e3,4,86,90,10,1.0,1.0,0
run-2020-2-17-18-2-52.513170003,AGENT#b8ecb2ec-51af-11ea-be68-371c4eb0de4d,3,87,90,10,1.0,1.0,0
run-2020-2-17-18-2-52.513170003,AGENT#b8ee6060-51af-11ea-92e2-5398d2e79b3c,2,88,90,10,1.0,1.0,0
run-2020-2-17-18-2-52.513170003,AGENT#b8f01f22-51af-11ea-a00c-bb28c53be935,1,89,90,10,1.0,1.0,0
run-2020-2-17-18-2-52.513170003,AGENT#b8f0218e-51af-11ea-bb80-ff947f3f7aa2,1,89,90,10,1.0,1.0,0
run-2020-2-17-18-2-52.513170003,AGENT#b8eb1f90-51af-11ea-b676-27127069a335,5,86,91,10,1.0,1.0,0
run-2020-2-17-18-2-52.513170003,AGENT#b8f1d39e-51af-11ea-97a7-775f5eeb711b,1,90,91,10,1.0,1.0,0
run-2020-2-17-18-2-52.513170003,AGENT#b8f01ca2-51af-11ea-b7c6-6307eadbffe0,3,89,92,10,1.0,1.0,0
run-2020-2-17-18-2-52.513170003,AGENT#b8a0a546-51af-11ea-ab1f-eb5e6cd9277c,45,48,93,10,1.0,1.0,0
run-2020-2-17-18-2-52.513170003,AGENT#b8a0a8b6-51af-11ea-b592-6371dc669719,45,48,93,10,1.0,1.0,0
run-2020-2-17-18-2-52.513170003,AGENT#b8a0abd6-51af-11ea-a87c-afe4f87d5d00,45,48,93,10,1.0,1.0,0
run-2020-2-17-18-2-52.513170003,AGENT#b8f1c912-51af-11ea-8409-ebf0ae6a3dde,3,90,93,10,1.0,1.0,0
run-2020-2-17-18-2-52.513170003,AGENT#b8f1d13c-51af-11ea-9112-ff728e0125e6,3,90,93,10,1.0,1.0,0
run-2020-2-17-18-2-52.513170003,AGENT#b8f38252-51af-11ea-9fa0-77871031df8b,2,91,93,10,1.0,1.0,0
run-2020-2-17-18-2-52.513170003,AGENT#b8f56946-51af-11ea-a0ce-7f7d19cab789,1,92,93,10,1.0,1.0,0
run-2020-2-17-18-2-52.513170003,AGENT#b8a1e690-51af-11ea-8bfe-13543e6b3486,45,49,94,10,1.0,1.0,0
run-2020-2-17-18-2-52.513170003,AGENT#b8f575f8-51af-11ea-9dfe-471aa961528e,2,92,94,10,1.0,1.0,0
run-2020-2-17-18-2-52.513170003,AGENT#b8f76a48-51af-11ea-b17d-1bb3a4e4fa52,1,93,94,10,1.0,1.0,0
run-2020-2-17-18-2-52.513170003,AGENT#b8a1dd76-51af-11ea-a1fe-6fd0adb7dbf6,46,49,95,10,1.0,1.0,0
run-2020-2-17-18-2-52.513170003,AGENT#b8a3111e-51af-11ea-ba2c-331a6341108d,45,50,95,10,1.0,1.0,0
run-2020-2-17-18-2-52.513170003,AGENT#b8f76cf0-51af-11ea-af9c-835ab58d671e,2,93,95,10,1.0,1.0,0
run-2020-2-17-18-2-52.513170003,AGENT#b8c75970-51af-11ea-b31b-63ffcf441edb,32,64,96,10,1.0,1.0,0
run-2020-2-17-18-2-52.513170003,AGENT#b8d3af04-51af-11ea-b071-577a8bbb8f0f,25,71,96,10,1.0,1.0,0
run-2020-2-17-18-2-52.513170003,AGENT#b8f76782-51af-11ea-bace-8b288ea30c9f,3,93,96,10,1.0,1.0,0
run-2020-2-17-18-2-52.513170003,AGENT#b8faf87a-51af-11ea-8591-0b2af7523e8b,1,95,96,10,1.0,1.0,0
run-2020-2-17-18-2-52.513170003,AGENT#b8fafafa-51af-11ea-b747-6f670dac2cfc,1,95,96,10,1.0,1.0,0
run-2020-2-17-18-2-52.513170003,AGENT#b8fb04e6-51af-11ea-b853-97f3edd4ee1d,1,95,96,10,1.0,1.0,0
run-2020-2-17-18-2-52.513170003,AGENT#b8a44cc8-51af-11ea-a393-8fa40c1a4024,46,51,97,10,1.0,1.0,0
run-2020-2-17-18-2-52.513170003,AGENT#b8f0195a-51af-11ea-9be2-9f217e2d8bb2,8,89,97,10,1.0,1.0,0
run-2020-2-17-18-2-52.513170003,AGENT#b8f572ec-51af-11ea-af35-df9c31337d15,5,92,97,10,1.0,1.0,0
run-2020-2-17-18-2-52.513170003,AGENT#b8f92c34-51af-11ea-9592-a7084f256e3b,3,94,97,10,1.0,1.0,0
run-2020-2-17-18-2-52.513170003,AGENT#b8faf096-51af-11ea-8f30-2f80e2460af7,2,95,97,10,1.0,1.0,0
run-2020-2-17-18-2-52.513170003,AGENT#b8faf33e-51af-11ea-8fb4-032e2a0d2e9d,2,95,97,10,1.0,1.0,0
run-2020-2-17-18-2-52.513170003,AGENT#b8a7297a-51af-11ea-9784-af00126ee98b,45,53,98,10,1.0,1.0,0
run-2020-2-17-18-2-52.513170003,AGENT#b8f76f98-51af-11ea-8110-9bccd16ad1eb,5,93,98,10,1.0,1.0,0
run-2020-2-17-18-2-52.513170003,AGENT#b8fd06a6-51af-11ea-8c96-8f2e62efeef7,2,96,98,10,1.0,1.0,0
run-2020-2-17-18-2-52.513170003,AGENT#b8fd129a-51af-11ea-a777-cb8bc9988f2b,2,96,98,10,1.0,1.0,0
run-2020-2-17-18-2-52.513170003,AGENT#b8fec662-51af-11ea-a102-47e0a2e88b52,1,97,98,10,1.0,1.0,0
run-2020-2-17-18-2-52.513170003,AGENT#b8f92932-51af-11ea-9dee-fbee804db9d0,5,94,99,10,1.0,1.0,0
run-2020-2-17-18-2-52.513170003,AGENT#b8faed6c-51af-11ea-9495-13e4640b1c51,4,95,99,10,1.0,1.0,0
run-2020-2-17-18-2-52.513170003,AGENT#b8fafd7a-51af-11ea-8b31-4725fe803ce5,4,95,99,10,1.0,1.0,0
run-2020-2-17-18-2-52.513170003,AGENT#b8fecbda-51af-11ea-96aa-ef4542a06e8e,2,97,99,10,1.0,1.0,0
