Source,Target
8fa0e082-5a44-11ea-8274-ef8bdbfbc5d1,8fa0f798-5a44-11ea-9469-077c31429825
8fa0ed8e-5a44-11ea-9867-3b2db5ffc190,8fa10422-5a44-11ea-a0e8-8b7405540038
8fa070f2-5a44-11ea-b879-3b02ac304f30,8fa167dc-5a44-11ea-ac46-d757defac510
8fa081c8-5a44-11ea-af5a-67dc787ee534,8fa15cf6-5a44-11ea-911b-7f4839182848
