Source,Target
76bba86e-5a11-11ea-975b-a72edbe35f39,76bbb2dc-5a11-11ea-b0e8-d382c51361a7
76bbabfc-5a11-11ea-907f-03e8bc3c6433,76bbb70a-5a11-11ea-9752-0379d0a6f79e
76bbb2dc-5a11-11ea-b0e8-d382c51361a7,76bbc394-5a11-11ea-8bc6-8360cb2b8afb
76bb68c2-5a11-11ea-91eb-1f46aeac12df,76bbc6c8-5a11-11ea-9021-0f82f1eb64ec
76bba86e-5a11-11ea-975b-a72edbe35f39,76bbc9ac-5a11-11ea-b763-a72b1d596845
76bb68c2-5a11-11ea-91eb-1f46aeac12df,76bbdb86-5a11-11ea-af4f-23366b58a2dc
76bb89ba-5a11-11ea-a5d1-6f955c0bcdf4,76bbe130-5a11-11ea-8727-bb970a915cff
76bbc394-5a11-11ea-8bc6-8360cb2b8afb,76bbe428-5a11-11ea-9d81-bf779a21b7eb
76bba86e-5a11-11ea-975b-a72edbe35f39,76bbeebe-5a11-11ea-aa3e-275491a66e79
76bbc6c8-5a11-11ea-9021-0f82f1eb64ec,76bbf1b6-5a11-11ea-85b8-d7e72d22a375
76bba544-5a11-11ea-9f9f-3fd2aea78cf4,76bbf9b8-5a11-11ea-80b9-8798434f948c
76bbc394-5a11-11ea-8bc6-8360cb2b8afb,76bbfdf0-5a11-11ea-9c3d-c373973df3d3
76bb7df8-5a11-11ea-8778-7bf1b02f8ead,76bc034a-5a11-11ea-94a4-cb9e0727441b
76bbdb86-5a11-11ea-af4f-23366b58a2dc,76bc1376-5a11-11ea-9779-0f18b1929b3f
76bbf9b8-5a11-11ea-80b9-8798434f948c,76bc15ce-5a11-11ea-9955-f3676369b58e
76bbb70a-5a11-11ea-9752-0379d0a6f79e,76bc1b64-5a11-11ea-91c8-07649293b867
76bbc9ac-5a11-11ea-b763-a72b1d596845,76bc2438-5a11-11ea-abbf-57526205c2da
76bbeebe-5a11-11ea-aa3e-275491a66e79,76bc2f64-5a11-11ea-8434-d7008a94d70a
76bbc6c8-5a11-11ea-9021-0f82f1eb64ec,76bc2b2c-5a11-11ea-9b07-8b039e4f8b2b
76bc2f64-5a11-11ea-8434-d7008a94d70a,76bc3568-5a11-11ea-921a-576b975a667d
76bc2f64-5a11-11ea-8434-d7008a94d70a,76bc3b58-5a11-11ea-98b1-fb7efdd23ec8
76bb8e7e-5a11-11ea-ac8c-af39b96de1c4,76bc5426-5a11-11ea-b70d-8be75f63ca45
76bbb70a-5a11-11ea-9752-0379d0a6f79e,76bc58fe-5a11-11ea-8426-4b57d83d59da
76bbdb86-5a11-11ea-af4f-23366b58a2dc,76bc5ed0-5a11-11ea-8355-4b4f0e180ed7
76bbb70a-5a11-11ea-9752-0379d0a6f79e,76bc62a4-5a11-11ea-9f9d-230b3793c2b4
76bb8e7e-5a11-11ea-ac8c-af39b96de1c4,76bc67ae-5a11-11ea-9f54-afa89434fe70
76bbabfc-5a11-11ea-907f-03e8bc3c6433,76bc69a2-5a11-11ea-a24d-872e956ffa88
76bbe130-5a11-11ea-8727-bb970a915cff,76bc6cea-5a11-11ea-b8af-0f94f3523264
76bb68c2-5a11-11ea-91eb-1f46aeac12df,76bc71f4-5a11-11ea-9e7d-1f7f93cab6e9
76bc5ed0-5a11-11ea-8355-4b4f0e180ed7,76bc8bbc-5a11-11ea-aaab-8fea0766ca2c
76bb89ba-5a11-11ea-a5d1-6f955c0bcdf4,76bc917a-5a11-11ea-b5f3-8bc055fafc91
76bc917a-5a11-11ea-b5f3-8bc055fafc91,76bc97ec-5a11-11ea-aac7-6f9100ef98fd
76bba86e-5a11-11ea-975b-a72edbe35f39,76bc9f12-5a11-11ea-bc40-ef5668a210bc
76bbf9b8-5a11-11ea-80b9-8798434f948c,76bc9b20-5a11-11ea-a7b6-b7b247b11973
76bc5426-5a11-11ea-b70d-8be75f63ca45,76bca278-5a11-11ea-8243-0bdc9e3da9f9
76bc71f4-5a11-11ea-9e7d-1f7f93cab6e9,76bca5a2-5a11-11ea-8f95-377c82d19a35
76bc15ce-5a11-11ea-9955-f3676369b58e,76bca7c8-5a11-11ea-8312-13e7f8d76462
76bba86e-5a11-11ea-975b-a72edbe35f39,76bcc2b2-5a11-11ea-8fda-c7ecd5fd32c3
76bc2438-5a11-11ea-abbf-57526205c2da,76bcc924-5a11-11ea-bd40-ebfc3b155092
76bc3b58-5a11-11ea-98b1-fb7efdd23ec8,76bccea6-5a11-11ea-a170-6b26d9a1dc2d
76bbeebe-5a11-11ea-aa3e-275491a66e79,76bcd57c-5a11-11ea-8c86-a7d314a45263
76bbb2dc-5a11-11ea-b0e8-d382c51361a7,76bcd860-5a11-11ea-aea4-5767c5acaae8
76bc8bbc-5a11-11ea-aaab-8fea0766ca2c,76bcdcfc-5a11-11ea-bbd3-3b07647cf161
76bc8bbc-5a11-11ea-aaab-8fea0766ca2c,76bce08a-5a11-11ea-9d9f-7fa34c15607d
76bc58fe-5a11-11ea-8426-4b57d83d59da,76bce2ba-5a11-11ea-92d6-3b74a7c5d581
76bb6b74-5a11-11ea-a44a-379f98434c61,76bcf750-5a11-11ea-973d-9ffdcabd3449
76bc3b58-5a11-11ea-98b1-fb7efdd23ec8,76bd04f2-5a11-11ea-b9ad-abcad9551282
76bc58fe-5a11-11ea-8426-4b57d83d59da,76bd0826-5a11-11ea-b84c-8f58daaf75fb
76bbdb86-5a11-11ea-af4f-23366b58a2dc,76bd199c-5a11-11ea-b16c-230a80c6a3ac
76bbf1b6-5a11-11ea-85b8-d7e72d22a375,76bd10aa-5a11-11ea-a1a9-7fddfdc358a7
76bc9b20-5a11-11ea-a7b6-b7b247b11973,76bd13d4-5a11-11ea-8533-27b492608fe9
76bc62a4-5a11-11ea-9f9d-230b3793c2b4,76bd17bc-5a11-11ea-9bcd-0bbe75bfb33a
76bca5a2-5a11-11ea-8f95-377c82d19a35,76bd22ca-5a11-11ea-85fb-b38097ecf84e
76bc58fe-5a11-11ea-8426-4b57d83d59da,76bd41b0-5a11-11ea-9027-eb8dbe1b7904
76bca7c8-5a11-11ea-8312-13e7f8d76462,76bd44d0-5a11-11ea-922c-ff13341ec182
76bc71f4-5a11-11ea-9e7d-1f7f93cab6e9,76bd4840-5a11-11ea-9e7d-6f737f3ed3f1
76bca278-5a11-11ea-8243-0bdc9e3da9f9,76bd4f8e-5a11-11ea-ba85-0f6b3396f7cc
76bc2438-5a11-11ea-abbf-57526205c2da,76bd4c3c-5a11-11ea-baed-b74db687bd5d
76bc5ed0-5a11-11ea-8355-4b4f0e180ed7,76bd52ae-5a11-11ea-9802-776c04d2c2fb
76bc1b64-5a11-11ea-91c8-07649293b867,76bd560a-5a11-11ea-8090-3ba68ce0224e
76bce08a-5a11-11ea-9d9f-7fa34c15607d,76bd5a7e-5a11-11ea-a2fd-4b7e4ad042b5
76bc3568-5a11-11ea-921a-576b975a667d,76bd7b30-5a11-11ea-b8ff-6777fab5f0ed
76bb8e7e-5a11-11ea-ac8c-af39b96de1c4,76bd80ee-5a11-11ea-9e2a-77cc8a765564
76bbabfc-5a11-11ea-907f-03e8bc3c6433,76bd84c2-5a11-11ea-ab2f-37346073828a
76bbb70a-5a11-11ea-9752-0379d0a6f79e,76bd8922-5a11-11ea-8b83-9f5cd1255b05
76bb91d0-5a11-11ea-aa60-afc9a7ca0787,76bd8c24-5a11-11ea-bb0b-13df7f6df99d
76bd17bc-5a11-11ea-9bcd-0bbe75bfb33a,76bd90b6-5a11-11ea-a235-4bf3dfbd0399
76bc2b2c-5a11-11ea-9b07-8b039e4f8b2b,76bd99c6-5a11-11ea-8871-6327ad0d5fdf
76bbfdf0-5a11-11ea-9c3d-c373973df3d3,76bd9d04-5a11-11ea-8061-c3b0cd445019
76bc1376-5a11-11ea-9779-0f18b1929b3f,76bdb9d8-5a11-11ea-975f-97c1e1c8d699
76bd0826-5a11-11ea-b84c-8f58daaf75fb,76bdbd8e-5a11-11ea-9d1d-37501ed834db
76bb6b74-5a11-11ea-a44a-379f98434c61,76bdc234-5a11-11ea-8500-df1a20823930
76bcd57c-5a11-11ea-8c86-a7d314a45263,76bdc63a-5a11-11ea-8841-cb1ce711536b
76bca278-5a11-11ea-8243-0bdc9e3da9f9,76bdcce8-5a11-11ea-a32b-379aaf4abdea
76bbf9b8-5a11-11ea-80b9-8798434f948c,76bdce78-5a11-11ea-a577-375d93b753c6
76bd9d04-5a11-11ea-8061-c3b0cd445019,76bdd508-5a11-11ea-9ad1-9f83f1eb50f0
76bdc63a-5a11-11ea-8841-cb1ce711536b,76bddb8e-5a11-11ea-a0ad-43de265f7a3f
76bbdb86-5a11-11ea-af4f-23366b58a2dc,76bdf3b2-5a11-11ea-8879-77ee9fb739ee
76bd4840-5a11-11ea-9e7d-6f737f3ed3f1,76bdfbf0-5a11-11ea-9f8e-cf0abf237ddf
76bbc394-5a11-11ea-8bc6-8360cb2b8afb,76be02c6-5a11-11ea-a014-d3ea6ec8fda8
76bc1b64-5a11-11ea-91c8-07649293b867,76be015e-5a11-11ea-b0d1-3ff0c0ed428b
76bba86e-5a11-11ea-975b-a72edbe35f39,76be0b22-5a11-11ea-8407-23d713a2846e
76bd7b30-5a11-11ea-b8ff-6777fab5f0ed,76be159a-5a11-11ea-a456-0bd23684b6b4
76bd13d4-5a11-11ea-8533-27b492608fe9,76be2efe-5a11-11ea-a74a-833089e89a69
76be015e-5a11-11ea-b0d1-3ff0c0ed428b,76be2b48-5a11-11ea-907a-67a63267bec9
76bdd508-5a11-11ea-9ad1-9f83f1eb50f0,76be3264-5a11-11ea-971e-fb6cac34df40
76bc2438-5a11-11ea-abbf-57526205c2da,76be3912-5a11-11ea-9073-9b1f8d14135c
76bdc63a-5a11-11ea-8841-cb1ce711536b,76be40c4-5a11-11ea-b844-bbd26992cc6d
76bbf9b8-5a11-11ea-80b9-8798434f948c,76be4420-5a11-11ea-80f6-6749cbd44527
76bbc9ac-5a11-11ea-b763-a72b1d596845,76be4f9c-5a11-11ea-9516-0b1f4c4ab515
76bcd860-5a11-11ea-aea4-5767c5acaae8,76be4a60-5a11-11ea-a9f5-33b94234cbb0
76bbf1b6-5a11-11ea-85b8-d7e72d22a375,76be76f2-5a11-11ea-b125-b361d01c6aa9
76bcc924-5a11-11ea-bd40-ebfc3b155092,76be825a-5a11-11ea-8dfc-6bab71f98bb1
76bcc2b2-5a11-11ea-8fda-c7ecd5fd32c3,76be8570-5a11-11ea-aa23-e772ad6aca6d
76bb68c2-5a11-11ea-91eb-1f46aeac12df,76be8a02-5a11-11ea-912f-f33afcfbc3d1
