RunID,Tick,ActiveAgentsPerTick
run-2020-2-17-18-27-54.024008035,0,17
run-2020-2-17-18-27-54.024008035,1,21
run-2020-2-17-18-27-54.024008035,2,26
run-2020-2-17-18-27-54.024008035,3,28
run-2020-2-17-18-27-54.024008035,4,30
run-2020-2-17-18-27-54.024008035,5,32
run-2020-2-17-18-27-54.024008035,6,34
run-2020-2-17-18-27-54.024008035,7,31
run-2020-2-17-18-27-54.024008035,8,27
run-2020-2-17-18-27-54.024008035,9,29
run-2020-2-17-18-27-54.024008035,10,30
run-2020-2-17-18-27-54.024008035,11,32
run-2020-2-17-18-27-54.024008035,12,33
run-2020-2-17-18-27-54.024008035,13,34
run-2020-2-17-18-27-54.024008035,14,35
run-2020-2-17-18-27-54.024008035,15,34
run-2020-2-17-18-27-54.024008035,16,34
run-2020-2-17-18-27-54.024008035,17,35
run-2020-2-17-18-27-54.024008035,18,40
run-2020-2-17-18-27-54.024008035,19,43
run-2020-2-17-18-27-54.024008035,20,48
run-2020-2-17-18-27-54.024008035,21,47
run-2020-2-17-18-27-54.024008035,22,44
run-2020-2-17-18-27-54.024008035,23,44
run-2020-2-17-18-27-54.024008035,24,46
run-2020-2-17-18-27-54.024008035,25,46
run-2020-2-17-18-27-54.024008035,26,48
run-2020-2-17-18-27-54.024008035,27,55
run-2020-2-17-18-27-54.024008035,28,58
run-2020-2-17-18-27-54.024008035,29,63
run-2020-2-17-18-27-54.024008035,30,64
run-2020-2-17-18-27-54.024008035,31,68
run-2020-2-17-18-27-54.024008035,32,66
run-2020-2-17-18-27-54.024008035,33,64
run-2020-2-17-18-27-54.024008035,34,63
run-2020-2-17-18-27-54.024008035,35,63
run-2020-2-17-18-27-54.024008035,36,66
run-2020-2-17-18-27-54.024008035,37,64
run-2020-2-17-18-27-54.024008035,38,65
run-2020-2-17-18-27-54.024008035,39,67
run-2020-2-17-18-27-54.024008035,40,72
run-2020-2-17-18-27-54.024008035,41,74
run-2020-2-17-18-27-54.024008035,42,78
run-2020-2-17-18-27-54.024008035,43,79
run-2020-2-17-18-27-54.024008035,44,81
run-2020-2-17-18-27-54.024008035,45,81
run-2020-2-17-18-27-54.024008035,46,78
run-2020-2-17-18-27-54.024008035,47,75
run-2020-2-17-18-27-54.024008035,48,73
run-2020-2-17-18-27-54.024008035,49,69
run-2020-2-17-18-27-54.024008035,50,70
run-2020-2-17-18-27-54.024008035,51,69
run-2020-2-17-18-27-54.024008035,52,65
run-2020-2-17-18-27-54.024008035,53,63
run-2020-2-17-18-27-54.024008035,54,64
run-2020-2-17-18-27-54.024008035,55,68
run-2020-2-17-18-27-54.024008035,56,68
run-2020-2-17-18-27-54.024008035,57,63
run-2020-2-17-18-27-54.024008035,58,66
run-2020-2-17-18-27-54.024008035,59,69
run-2020-2-17-18-27-54.024008035,60,69
run-2020-2-17-18-27-54.024008035,61,72
run-2020-2-17-18-27-54.024008035,62,73
run-2020-2-17-18-27-54.024008035,63,75
run-2020-2-17-18-27-54.024008035,64,75
run-2020-2-17-18-27-54.024008035,65,71
run-2020-2-17-18-27-54.024008035,66,71
run-2020-2-17-18-27-54.024008035,67,70
run-2020-2-17-18-27-54.024008035,68,71
run-2020-2-17-18-27-54.024008035,69,69
run-2020-2-17-18-27-54.024008035,70,71
run-2020-2-17-18-27-54.024008035,71,69
run-2020-2-17-18-27-54.024008035,72,67
run-2020-2-17-18-27-54.024008035,73,66
run-2020-2-17-18-27-54.024008035,74,61
run-2020-2-17-18-27-54.024008035,75,57
run-2020-2-17-18-27-54.024008035,76,62
run-2020-2-17-18-27-54.024008035,77,66
run-2020-2-17-18-27-54.024008035,78,69
run-2020-2-17-18-27-54.024008035,79,65
run-2020-2-17-18-27-54.024008035,80,68
run-2020-2-17-18-27-54.024008035,81,67
run-2020-2-17-18-27-54.024008035,82,62
run-2020-2-17-18-27-54.024008035,83,62
run-2020-2-17-18-27-54.024008035,84,64
run-2020-2-17-18-27-54.024008035,85,62
run-2020-2-17-18-27-54.024008035,86,60
run-2020-2-17-18-27-54.024008035,87,62
run-2020-2-17-18-27-54.024008035,88,59
run-2020-2-17-18-27-54.024008035,89,54
run-2020-2-17-18-27-54.024008035,90,53
run-2020-2-17-18-27-54.024008035,91,55
run-2020-2-17-18-27-54.024008035,92,57
run-2020-2-17-18-27-54.024008035,93,58
run-2020-2-17-18-27-54.024008035,94,63
run-2020-2-17-18-27-54.024008035,95,61
run-2020-2-17-18-27-54.024008035,96,62
run-2020-2-17-18-27-54.024008035,97,63
run-2020-2-17-18-27-54.024008035,98,60
run-2020-2-17-18-27-54.024008035,99,57
run-2020-2-17-18-27-54.024008035,100,52
