RunID,Tick,ActiveAgentsPerTick
run-2020-2-17-15-30-11.523974895,0,12
run-2020-2-17-15-30-11.523974895,1,9
run-2020-2-17-15-30-11.523974895,2,14
run-2020-2-17-15-30-11.523974895,3,14
run-2020-2-17-15-30-11.523974895,4,12
run-2020-2-17-15-30-11.523974895,5,11
run-2020-2-17-15-30-11.523974895,6,9
run-2020-2-17-15-30-11.523974895,7,9
run-2020-2-17-15-30-11.523974895,8,10
run-2020-2-17-15-30-11.523974895,9,12
run-2020-2-17-15-30-11.523974895,10,17
run-2020-2-17-15-30-11.523974895,11,22
run-2020-2-17-15-30-11.523974895,12,25
run-2020-2-17-15-30-11.523974895,13,25
run-2020-2-17-15-30-11.523974895,14,30
run-2020-2-17-15-30-11.523974895,15,25
run-2020-2-17-15-30-11.523974895,16,27
run-2020-2-17-15-30-11.523974895,17,28
run-2020-2-17-15-30-11.523974895,18,25
run-2020-2-17-15-30-11.523974895,19,24
run-2020-2-17-15-30-11.523974895,20,24
run-2020-2-17-15-30-11.523974895,21,24
run-2020-2-17-15-30-11.523974895,22,25
run-2020-2-17-15-30-11.523974895,23,23
run-2020-2-17-15-30-11.523974895,24,22
run-2020-2-17-15-30-11.523974895,25,21
run-2020-2-17-15-30-11.523974895,26,20
run-2020-2-17-15-30-11.523974895,27,22
run-2020-2-17-15-30-11.523974895,28,25
run-2020-2-17-15-30-11.523974895,29,26
run-2020-2-17-15-30-11.523974895,30,28
run-2020-2-17-15-30-11.523974895,31,28
run-2020-2-17-15-30-11.523974895,32,30
run-2020-2-17-15-30-11.523974895,33,31
run-2020-2-17-15-30-11.523974895,34,33
run-2020-2-17-15-30-11.523974895,35,33
run-2020-2-17-15-30-11.523974895,36,32
run-2020-2-17-15-30-11.523974895,37,35
run-2020-2-17-15-30-11.523974895,38,33
run-2020-2-17-15-30-11.523974895,39,34
run-2020-2-17-15-30-11.523974895,40,32
run-2020-2-17-15-30-11.523974895,41,32
run-2020-2-17-15-30-11.523974895,42,34
run-2020-2-17-15-30-11.523974895,43,39
run-2020-2-17-15-30-11.523974895,44,37
run-2020-2-17-15-30-11.523974895,45,40
run-2020-2-17-15-30-11.523974895,46,41
run-2020-2-17-15-30-11.523974895,47,46
run-2020-2-17-15-30-11.523974895,48,43
run-2020-2-17-15-30-11.523974895,49,45
run-2020-2-17-15-30-11.523974895,50,46
run-2020-2-17-15-30-11.523974895,51,46
run-2020-2-17-15-30-11.523974895,52,46
run-2020-2-17-15-30-11.523974895,53,48
run-2020-2-17-15-30-11.523974895,54,48
run-2020-2-17-15-30-11.523974895,55,50
run-2020-2-17-15-30-11.523974895,56,52
run-2020-2-17-15-30-11.523974895,57,48
run-2020-2-17-15-30-11.523974895,58,48
run-2020-2-17-15-30-11.523974895,59,47
run-2020-2-17-15-30-11.523974895,60,49
run-2020-2-17-15-30-11.523974895,61,52
run-2020-2-17-15-30-11.523974895,62,50
run-2020-2-17-15-30-11.523974895,63,52
run-2020-2-17-15-30-11.523974895,64,55
run-2020-2-17-15-30-11.523974895,65,54
run-2020-2-17-15-30-11.523974895,66,58
run-2020-2-17-15-30-11.523974895,67,56
run-2020-2-17-15-30-11.523974895,68,54
run-2020-2-17-15-30-11.523974895,69,55
run-2020-2-17-15-30-11.523974895,70,58
run-2020-2-17-15-30-11.523974895,71,60
run-2020-2-17-15-30-11.523974895,72,57
run-2020-2-17-15-30-11.523974895,73,56
run-2020-2-17-15-30-11.523974895,74,52
run-2020-2-17-15-30-11.523974895,75,52
run-2020-2-17-15-30-11.523974895,76,49
run-2020-2-17-15-30-11.523974895,77,51
run-2020-2-17-15-30-11.523974895,78,55
run-2020-2-17-15-30-11.523974895,79,58
run-2020-2-17-15-30-11.523974895,80,54
run-2020-2-17-15-30-11.523974895,81,53
run-2020-2-17-15-30-11.523974895,82,53
run-2020-2-17-15-30-11.523974895,83,54
run-2020-2-17-15-30-11.523974895,84,57
run-2020-2-17-15-30-11.523974895,85,61
run-2020-2-17-15-30-11.523974895,86,65
run-2020-2-17-15-30-11.523974895,87,63
run-2020-2-17-15-30-11.523974895,88,67
run-2020-2-17-15-30-11.523974895,89,62
run-2020-2-17-15-30-11.523974895,90,59
run-2020-2-17-15-30-11.523974895,91,59
run-2020-2-17-15-30-11.523974895,92,58
run-2020-2-17-15-30-11.523974895,93,52
run-2020-2-17-15-30-11.523974895,94,55
run-2020-2-17-15-30-11.523974895,95,58
run-2020-2-17-15-30-11.523974895,96,61
run-2020-2-17-15-30-11.523974895,97,63
run-2020-2-17-15-30-11.523974895,98,64
run-2020-2-17-15-30-11.523974895,99,66
run-2020-2-17-15-30-11.523974895,100,63
