Source,Target
63392994-519a-11ea-83dc-b72790e1edab,633a80dc-519a-11ea-8982-a7f30d798410
63393f38-519a-11ea-ac4e-3f5d2e3ea3c3,633a8ed8-519a-11ea-8985-1391bc28daaa
63394ce4-519a-11ea-844a-47dc5181824f,633a9e3c-519a-11ea-ba8d-57d205cbe1e2
63393f38-519a-11ea-ac4e-3f5d2e3ea3c3,633aad50-519a-11ea-ace2-67de37d042ef
633a6232-519a-11ea-9aac-770e68304527,633b3112-519a-11ea-8f41-c3c0bd6a04a9
63392994-519a-11ea-83dc-b72790e1edab,633b3d4c-519a-11ea-a1d4-b305ff66c4d5
633a6232-519a-11ea-9aac-770e68304527,633b75aa-519a-11ea-b5d5-9b228f42981b
633a6232-519a-11ea-9aac-770e68304527,633b8144-519a-11ea-bac1-d7961c76a313
63394ce4-519a-11ea-844a-47dc5181824f,633bc8ca-519a-11ea-a434-db2bcb2ea2d7
633a0756-519a-11ea-8fd2-972b839b0db2,633bdb26-519a-11ea-8eec-675151446616
63392994-519a-11ea-83dc-b72790e1edab,633befa8-519a-11ea-9c24-2f689b4b81c5
633b3d4c-519a-11ea-a1d4-b305ff66c4d5,633c02c2-519a-11ea-be92-97ce7497c76e
633b8144-519a-11ea-bac1-d7961c76a313,633c5bb4-519a-11ea-b54b-33d4680b6773
633a74b6-519a-11ea-b063-63dd8b487f93,633c827e-519a-11ea-baba-ef0c1a388721
6339a5b8-519a-11ea-b2b3-a7763e4e5aa9,633c991c-519a-11ea-bd0d-ef37ec602c36
6339a5b8-519a-11ea-b2b3-a7763e4e5aa9,633cb14a-519a-11ea-8d41-fb67b75d453b
633b75aa-519a-11ea-b5d5-9b228f42981b,633cc5c2-519a-11ea-866f-97a19540ef2c
63395c70-519a-11ea-aa70-33fc24aed4e3,633d0604-519a-11ea-bf20-2fe42880391d
633c02c2-519a-11ea-be92-97ce7497c76e,633d1f7c-519a-11ea-9fdc-272ad13f8ec6
633aad50-519a-11ea-ace2-67de37d042ef,633d2de6-519a-11ea-9f63-e3e5647dd3bb
633a74b6-519a-11ea-b063-63dd8b487f93,633d4c54-519a-11ea-8ee3-cf304bb4dd7a
63394ce4-519a-11ea-844a-47dc5181824f,633d5f1e-519a-11ea-9910-130d46f80716
633d2de6-519a-11ea-9f63-e3e5647dd3bb,633d8854-519a-11ea-a053-0b471a8eac92
6339b378-519a-11ea-9fb9-076d36e4c2fd,633d9bb4-519a-11ea-ba18-ab6dea5a7e2a
633a8ed8-519a-11ea-8985-1391bc28daaa,633deb1e-519a-11ea-8171-2b0acc1a5d78
633d8854-519a-11ea-a053-0b471a8eac92,633dfea6-519a-11ea-bff9-ffc182cf3fab
633a6232-519a-11ea-9aac-770e68304527,633e122e-519a-11ea-b0cd-ebe1ef41edbb
633d4c54-519a-11ea-8ee3-cf304bb4dd7a,633e2250-519a-11ea-8418-9731cc06401f
633deb1e-519a-11ea-8171-2b0acc1a5d78,633e5acc-519a-11ea-941b-df9d1ffaefb0
633dfea6-519a-11ea-bff9-ffc182cf3fab,633e6f08-519a-11ea-b459-43748156fce0
633d4c54-519a-11ea-8ee3-cf304bb4dd7a,633e94b0-519a-11ea-8b40-1fa4cb805153
633dfea6-519a-11ea-bff9-ffc182cf3fab,633ec548-519a-11ea-9b41-a355c5949644
63393f38-519a-11ea-ac4e-3f5d2e3ea3c3,633ee3fc-519a-11ea-b8bf-f78dad7cb51c
633d9bb4-519a-11ea-ba18-ab6dea5a7e2a,633f0e90-519a-11ea-9578-2744435de933
633d0604-519a-11ea-bf20-2fe42880391d,633f39c4-519a-11ea-9456-a720acb5f78c
633d8854-519a-11ea-a053-0b471a8eac92,633f4ae0-519a-11ea-baac-9b85ce6e6252
633f0e90-519a-11ea-9578-2744435de933,633fa3b4-519a-11ea-b197-ef06f44edca7
633d5f1e-519a-11ea-9910-130d46f80716,633fc420-519a-11ea-9f91-5396b0e8a1cd
63394ce4-519a-11ea-844a-47dc5181824f,633fe284-519a-11ea-a7c1-03777b7a61d8
6339fa7c-519a-11ea-97de-6b1cf26b5427,633ff54e-519a-11ea-ad74-93bcb873dc98
633ec548-519a-11ea-9b41-a355c5949644,634049c2-519a-11ea-b57f-830d3aede7b3
633b3d4c-519a-11ea-a1d4-b305ff66c4d5,63405a7a-519a-11ea-bbf3-dbe58da5bbd2
633e2250-519a-11ea-8418-9731cc06401f,6340723a-519a-11ea-a6df-cfdf090431d4
633d0604-519a-11ea-bf20-2fe42880391d,63408432-519a-11ea-a0b4-abdc5dbbb349
633c02c2-519a-11ea-be92-97ce7497c76e,6340b6f0-519a-11ea-bb4e-8b3d9fd1500d
63405a7a-519a-11ea-bbf3-dbe58da5bbd2,6340d37e-519a-11ea-995b-4ff4f7856f77
633bc8ca-519a-11ea-a434-db2bcb2ea2d7,6340f03e-519a-11ea-b1f1-7beca0f14b93
633befa8-519a-11ea-9c24-2f689b4b81c5,63414f48-519a-11ea-8aa6-7741e9601e13
633a6232-519a-11ea-9aac-770e68304527,63416244-519a-11ea-8016-23634305487a
633a8ed8-519a-11ea-8985-1391bc28daaa,63417c84-519a-11ea-a8db-5bb278ac2cf4
633f0e90-519a-11ea-9578-2744435de933,63418b66-519a-11ea-8469-d77e87d39f47
633d0604-519a-11ea-bf20-2fe42880391d,6341dc38-519a-11ea-b453-439bdfd121ca
63408432-519a-11ea-a0b4-abdc5dbbb349,6341f182-519a-11ea-8661-9725a8eab41d
63395c70-519a-11ea-aa70-33fc24aed4e3,634206b8-519a-11ea-a230-3714bd8742c6
633b75aa-519a-11ea-b5d5-9b228f42981b,63421568-519a-11ea-bf3f-231a3fdc7644
63418b66-519a-11ea-8469-d77e87d39f47,63425000-519a-11ea-b831-bfe9149b77eb
63421568-519a-11ea-bf3f-231a3fdc7644,63427aa8-519a-11ea-9a56-930348679eb2
633ee3fc-519a-11ea-b8bf-f78dad7cb51c,6342a83e-519a-11ea-81bc-c7755bd0edd9
63421568-519a-11ea-bf3f-231a3fdc7644,6342c3f0-519a-11ea-9c3c-db455090f20b
6340d37e-519a-11ea-995b-4ff4f7856f77,6342e560-519a-11ea-8a74-8377e36eb7a6
633bdb26-519a-11ea-8eec-675151446616,6342fe9c-519a-11ea-a21d-7f5987c12675
633d0604-519a-11ea-bf20-2fe42880391d,63436d64-519a-11ea-90a2-d7c23452d760
633f0e90-519a-11ea-9578-2744435de933,63437da4-519a-11ea-8c50-93e737d2c49c
633aad50-519a-11ea-ace2-67de37d042ef,6343d48e-519a-11ea-bbf1-13f85fd31842
6340f03e-519a-11ea-b1f1-7beca0f14b93,6343ee7e-519a-11ea-876d-b3025254faed
633d8854-519a-11ea-a053-0b471a8eac92,6343e136-519a-11ea-8b2c-7309a7eabf18
633c991c-519a-11ea-bd0d-ef37ec602c36,6343fdd8-519a-11ea-a7f5-530822d8f150
633d8854-519a-11ea-a053-0b471a8eac92,63443168-519a-11ea-b770-0b104cc32864
633e2250-519a-11ea-8418-9731cc06401f,6344506c-519a-11ea-85d1-af4fc9d03f81
633e2250-519a-11ea-8418-9731cc06401f,63448438-519a-11ea-90a6-df7c94c80254
63414f48-519a-11ea-8aa6-7741e9601e13,6344b8fe-519a-11ea-9e9c-3f6289dbce48
63437da4-519a-11ea-8c50-93e737d2c49c,6344cc7c-519a-11ea-bd81-f720b5f01c1a
633a74b6-519a-11ea-b063-63dd8b487f93,63450ae8-519a-11ea-bb68-bb7dc861b718
633cb14a-519a-11ea-8d41-fb67b75d453b,634520a0-519a-11ea-bb70-a7aacdc4fa02
6344b8fe-519a-11ea-9e9c-3f6289dbce48,634544d6-519a-11ea-b777-73933be5042c
633a74b6-519a-11ea-b063-63dd8b487f93,63457b4a-519a-11ea-bf16-df1746f67454
634049c2-519a-11ea-b57f-830d3aede7b3,6345c384-519a-11ea-b9a6-533f7696342b
63416244-519a-11ea-8016-23634305487a,6345f37c-519a-11ea-9228-4711f4d5d1ef
633a80dc-519a-11ea-8982-a7f30d798410,6346365c-519a-11ea-9f06-1b99ebcad570
63437da4-519a-11ea-8c50-93e737d2c49c,634650c4-519a-11ea-9ddc-634d8a70a299
634544d6-519a-11ea-b777-73933be5042c,63466834-519a-11ea-b113-6ffa34c537db
633d1f7c-519a-11ea-9fdc-272ad13f8ec6,6346f222-519a-11ea-9ef1-4b0986732b8a
63457b4a-519a-11ea-bf16-df1746f67454,634721a2-519a-11ea-8a88-f360e946b3d0
633b3d4c-519a-11ea-a1d4-b305ff66c4d5,63470b4a-519a-11ea-a210-ebb5c3dc3cfe
633a8ed8-519a-11ea-8985-1391bc28daaa,634739a8-519a-11ea-a31c-dfc61a2fc314
633bdb26-519a-11ea-8eec-675151446616,6347a032-519a-11ea-b781-b35d6c0582ad
63414f48-519a-11ea-8aa6-7741e9601e13,6347bbee-519a-11ea-812b-bb929d527f6e
63436d64-519a-11ea-90a2-d7c23452d760,6348208e-519a-11ea-b345-078e0b39a8b7
63466834-519a-11ea-b113-6ffa34c537db,6348590a-519a-11ea-a40c-5fe71bcb577d
63437da4-519a-11ea-8c50-93e737d2c49c,63488038-519a-11ea-be05-3304d624f3e4
6339fa7c-519a-11ea-97de-6b1cf26b5427,6348b3e6-519a-11ea-a250-1ba9e70d6bae
633d5f1e-519a-11ea-9910-130d46f80716,6348d498-519a-11ea-a1aa-77ab3d207498
6340b6f0-519a-11ea-bb4e-8b3d9fd1500d,63490f80-519a-11ea-820b-0b1113353ff4
633ff54e-519a-11ea-ad74-93bcb873dc98,6349a936-519a-11ea-b40d-7b78c28c72a1
634206b8-519a-11ea-a230-3714bd8742c6,6349ce5c-519a-11ea-963f-c37d50dafda2
63436d64-519a-11ea-90a2-d7c23452d760,6349eff4-519a-11ea-beb3-7fb3b8e1ce3d
633deb1e-519a-11ea-8171-2b0acc1a5d78,6349faee-519a-11ea-8f48-c79113da4b94
6341f182-519a-11ea-8661-9725a8eab41d,634aa0fc-519a-11ea-91a7-03211d1e5b2f
63488038-519a-11ea-be05-3304d624f3e4,634ad734-519a-11ea-b223-e398d98a2578
634721a2-519a-11ea-8a88-f360e946b3d0,634ab9b6-519a-11ea-b239-3b9d5b577e5b
633d8854-519a-11ea-a053-0b471a8eac92,634ae8d2-519a-11ea-ad99-33f81800bf4c
633d1f7c-519a-11ea-9fdc-272ad13f8ec6,634b1280-519a-11ea-97c7-bfb103f40c7a
63394ce4-519a-11ea-844a-47dc5181824f,634b4d86-519a-11ea-947f-2763a4d703ce
6345c384-519a-11ea-b9a6-533f7696342b,634b7c8e-519a-11ea-b983-9b5d6e9519e3
6345f37c-519a-11ea-9228-4711f4d5d1ef,634b9250-519a-11ea-93ae-27e7fb9c4775
6341f182-519a-11ea-8661-9725a8eab41d,634c24ae-519a-11ea-883b-bba6cf4d1405
633ee3fc-519a-11ea-b8bf-f78dad7cb51c,634c48da-519a-11ea-a199-6344918083fd
633cb14a-519a-11ea-8d41-fb67b75d453b,634c389a-519a-11ea-b889-37c710f49cf4
6344cc7c-519a-11ea-bd81-f720b5f01c1a,634c5c3a-519a-11ea-930a-375d41de86e2
6340723a-519a-11ea-a6df-cfdf090431d4,634ccf80-519a-11ea-a459-6b8bad0cb762
63393f38-519a-11ea-ac4e-3f5d2e3ea3c3,634ce074-519a-11ea-92b4-9bbaa180c819
6345f37c-519a-11ea-9228-4711f4d5d1ef,634cf42e-519a-11ea-8851-d766d46a69e8
634b4d86-519a-11ea-947f-2763a4d703ce,634d0996-519a-11ea-8838-eb7891f25211
633a80dc-519a-11ea-8982-a7f30d798410,634d798a-519a-11ea-b1d0-e3a69f4a555b
634b7c8e-519a-11ea-b983-9b5d6e9519e3,634d8e70-519a-11ea-b31c-5bd866b7991b
634650c4-519a-11ea-9ddc-634d8a70a299,634db0f8-519a-11ea-8d43-3b47f9460037
633d2de6-519a-11ea-9f63-e3e5647dd3bb,634de384-519a-11ea-b09e-537c4141f53f
634206b8-519a-11ea-a230-3714bd8742c6,634e22f4-519a-11ea-aa5c-b3135498fd71
63414f48-519a-11ea-8aa6-7741e9601e13,634e69a8-519a-11ea-8808-cfa508fac2f8
634d798a-519a-11ea-b1d0-e3a69f4a555b,634e7e48-519a-11ea-bdc1-e334deb0837b
634d0996-519a-11ea-8838-eb7891f25211,634eef2c-519a-11ea-8acb-4b41126a98ad
63405a7a-519a-11ea-bbf3-dbe58da5bbd2,634f1dda-519a-11ea-8d98-abbe4f729480
63437da4-519a-11ea-8c50-93e737d2c49c,634f5ade-519a-11ea-8c71-9785c1d1fd3a
634f1dda-519a-11ea-8d98-abbe4f729480,634facc8-519a-11ea-86de-a753addf209a
633a9e3c-519a-11ea-ba8d-57d205cbe1e2,634fe7c4-519a-11ea-8b26-ff2d7be3fe36
634de384-519a-11ea-b09e-537c4141f53f,634fcb2c-519a-11ea-ab06-efa1d0fcd2bf
633f4ae0-519a-11ea-baac-9b85ce6e6252,63500a24-519a-11ea-bd1d-5364d5010c65
633cc5c2-519a-11ea-866f-97a19540ef2c,63504458-519a-11ea-8c2d-0f37d0379a51
6348b3e6-519a-11ea-a250-1ba9e70d6bae,6350987c-519a-11ea-b300-075455044319
63466834-519a-11ea-b113-6ffa34c537db,6350da80-519a-11ea-a02d-1be809f88d19
6349a936-519a-11ea-b40d-7b78c28c72a1,6350f600-519a-11ea-a20a-4704f779c3fa
63394ce4-519a-11ea-844a-47dc5181824f,635110e0-519a-11ea-b041-5fd9f46dd1f3
63443168-519a-11ea-b770-0b104cc32864,6351a690-519a-11ea-885f-0fb227ac74e6
633a0756-519a-11ea-8fd2-972b839b0db2,63519024-519a-11ea-b084-af5d1341e9a8
63443168-519a-11ea-b770-0b104cc32864,6351b964-519a-11ea-93d0-df1adb320fed
6342c3f0-519a-11ea-9c3c-db455090f20b,63522ea8-519a-11ea-923d-f72fbceae3ff
633fc420-519a-11ea-9f91-5396b0e8a1cd,63524c58-519a-11ea-b5ce-af915ef55c22
633b75aa-519a-11ea-b5d5-9b228f42981b,63527552-519a-11ea-8a09-97150a7f579e
63436d64-519a-11ea-90a2-d7c23452d760,63529046-519a-11ea-a9f1-ebd55a04d1a5
6349eff4-519a-11ea-beb3-7fb3b8e1ce3d,6352c7f0-519a-11ea-90a2-6f9139aea2b6
63436d64-519a-11ea-90a2-d7c23452d760,63531930-519a-11ea-b0b0-47f255a8072c
633d5f1e-519a-11ea-9910-130d46f80716,635318fe-519a-11ea-8b27-b32688573686
63519024-519a-11ea-b084-af5d1341e9a8,63535c92-519a-11ea-95cf-af2b5fd39e76
633d4c54-519a-11ea-8ee3-cf304bb4dd7a,6353766e-519a-11ea-b84b-fff495299f26
634cf42e-519a-11ea-8851-d766d46a69e8,6353b368-519a-11ea-b0d2-db867cf93765
63405a7a-519a-11ea-bbf3-dbe58da5bbd2,63541718-519a-11ea-bb66-a7c53e9a878f
6342c3f0-519a-11ea-9c3c-db455090f20b,635460ba-519a-11ea-bcc8-6364e3af8962
634650c4-519a-11ea-9ddc-634d8a70a299,63547cc6-519a-11ea-83ec-ab9231d9770f
634aa0fc-519a-11ea-91a7-03211d1e5b2f,6354c082-519a-11ea-9685-d76a94dd782e
6353766e-519a-11ea-b84b-fff495299f26,63549e90-519a-11ea-9045-eb468b89e478
63527552-519a-11ea-8a09-97150a7f579e,63551cc6-519a-11ea-b2da-4f2db5bf79c3
6347a032-519a-11ea-b781-b35d6c0582ad,63553094-519a-11ea-862f-f36d502e0bc5
6349eff4-519a-11ea-beb3-7fb3b8e1ce3d,6355b924-519a-11ea-b08a-e3f96689d104
63541718-519a-11ea-bb66-a7c53e9a878f,6355d594-519a-11ea-b32c-cf2a64816a84
633e122e-519a-11ea-b0cd-ebe1ef41edbb,6355ee1c-519a-11ea-b203-9ffb290a6b2c
633fa3b4-519a-11ea-b197-ef06f44edca7,63563174-519a-11ea-8460-4f61aaac7657
63549e90-519a-11ea-9045-eb468b89e478,63567800-519a-11ea-bda3-b75722e386b5
633d8854-519a-11ea-a053-0b471a8eac92,63569a60-519a-11ea-9cf2-cbea16c960e5
633c5bb4-519a-11ea-b54b-33d4680b6773,6356b8d8-519a-11ea-808d-2bff98015c6d
634f5ade-519a-11ea-8c71-9785c1d1fd3a,6356ceae-519a-11ea-9f6d-c7d16f90873d
63414f48-519a-11ea-8aa6-7741e9601e13,63571f12-519a-11ea-8677-fbbef76729e6
6342a83e-519a-11ea-81bc-c7755bd0edd9,635756b2-519a-11ea-b533-c7e9bda93283
634eef2c-519a-11ea-8acb-4b41126a98ad,63576c38-519a-11ea-af38-4b1fb486786c
634cf42e-519a-11ea-8851-d766d46a69e8,6357a36a-519a-11ea-8f38-f776bb7f2d8e
63567800-519a-11ea-bda3-b75722e386b5,63578290-519a-11ea-a3d5-4fc1f9117d75
63571f12-519a-11ea-8677-fbbef76729e6,635813ae-519a-11ea-83ed-4f72787193c5
633dfea6-519a-11ea-bff9-ffc182cf3fab,63582b64-519a-11ea-adc9-cfe55241b4ed
63417c84-519a-11ea-a8db-5bb278ac2cf4,63584702-519a-11ea-8ff2-9f49b0c0417f
63490f80-519a-11ea-820b-0b1113353ff4,63585e36-519a-11ea-af94-5326a802895c
63500a24-519a-11ea-bd1d-5364d5010c65,6358cd8a-519a-11ea-8b64-37d7f65085f3
6341f182-519a-11ea-8661-9725a8eab41d,6358e306-519a-11ea-8f37-df7c037282a7
633bdb26-519a-11ea-8eec-675151446616,63590b06-519a-11ea-82ec-433a27487239
633ff54e-519a-11ea-ad74-93bcb873dc98,6358f42c-519a-11ea-842c-134e11d69faf
633c02c2-519a-11ea-be92-97ce7497c76e,63596614-519a-11ea-aa0f-e722f74f04f2
633b8144-519a-11ea-bac1-d7961c76a313,6359927e-519a-11ea-bf34-9b2462a12f2d
6357a36a-519a-11ea-8f38-f776bb7f2d8e,6359aec6-519a-11ea-b919-4fd73e48f4ec
6346365c-519a-11ea-9f06-1b99ebcad570,6359cb40-519a-11ea-a73b-dbae1a05427a
6349a936-519a-11ea-b40d-7b78c28c72a1,635a0a56-519a-11ea-aada-e7852aeef929
635318fe-519a-11ea-8b27-b32688573686,635a31de-519a-11ea-89bd-af86e76778bb
63551cc6-519a-11ea-b2da-4f2db5bf79c3,635a6a1e-519a-11ea-b1a9-ebb8143b4a6a
63596614-519a-11ea-aa0f-e722f74f04f2,635ae110-519a-11ea-a5e6-9f33fa068bc3
633dfea6-519a-11ea-bff9-ffc182cf3fab,635b01ea-519a-11ea-ae72-bfcf80318ac9
63392994-519a-11ea-83dc-b72790e1edab,635b1914-519a-11ea-9ba8-c776e2d3022c
6345c384-519a-11ea-b9a6-533f7696342b,635b31d8-519a-11ea-8a8e-33174a8778ef
633a8ed8-519a-11ea-8985-1391bc28daaa,635bb59a-519a-11ea-abf6-6f5e3d3398e9
6359cb40-519a-11ea-a73b-dbae1a05427a,635bcbca-519a-11ea-81a3-430ccefbe822
6355b924-519a-11ea-b08a-e3f96689d104,635bdd36-519a-11ea-8dcd-73408ec068dc
634d8e70-519a-11ea-b31c-5bd866b7991b,635bf26c-519a-11ea-bf7b-1fc0bcac3155
6347bbee-519a-11ea-812b-bb929d527f6e,635c4604-519a-11ea-aa0b-8ff4364152e6
63551cc6-519a-11ea-b2da-4f2db5bf79c3,635c68c8-519a-11ea-b4cf-3bcb84605ce8
634739a8-519a-11ea-a31c-dfc61a2fc314,635c8f42-519a-11ea-9b1e-53ec36d94e79
6346f222-519a-11ea-9ef1-4b0986732b8a,635ca3ce-519a-11ea-a3b8-8f6f12c39f84
6350987c-519a-11ea-b300-075455044319,635cf3e2-519a-11ea-83ae-5f1063058fd3
634b4d86-519a-11ea-947f-2763a4d703ce,635d388e-519a-11ea-8daa-07c174028dab
635cf3e2-519a-11ea-83ae-5f1063058fd3,635d9234-519a-11ea-a01d-f720d9e614b3
633f39c4-519a-11ea-9456-a720acb5f78c,635db28c-519a-11ea-bab0-f789b1a4521f
63547cc6-519a-11ea-83ec-ab9231d9770f,635dc876-519a-11ea-a473-5b45e324bce0
6348d498-519a-11ea-a1aa-77ab3d207498,635de2f2-519a-11ea-8634-8b02b4a3c494
635b01ea-519a-11ea-ae72-bfcf80318ac9,635e7afa-519a-11ea-b3c6-6b627d2f16ca
6352c7f0-519a-11ea-90a2-6f9139aea2b6,635e95a8-519a-11ea-adb0-8308920b4c57
633a8ed8-519a-11ea-8985-1391bc28daaa,635ea818-519a-11ea-a2f6-c7c881ea0950
633befa8-519a-11ea-9c24-2f689b4b81c5,635ec898-519a-11ea-9ef8-07dbfa4593bc
633d5f1e-519a-11ea-9910-130d46f80716,635f01b4-519a-11ea-ab2e-d38d18a8cbb9
635ca3ce-519a-11ea-a3b8-8f6f12c39f84,635f5024-519a-11ea-8669-438243472d28
633c827e-519a-11ea-baba-ef0c1a388721,635f75d6-519a-11ea-adf4-47603170b7b8
633f0e90-519a-11ea-9578-2744435de933,635f872e-519a-11ea-896a-db2cd226b184
635b31d8-519a-11ea-8a8e-33174a8778ef,635fd9ea-519a-11ea-abae-b7e7c74561c5
634049c2-519a-11ea-b57f-830d3aede7b3,63604970-519a-11ea-9f24-03fcdf5c11ef
633d4c54-519a-11ea-8ee3-cf304bb4dd7a,63608782-519a-11ea-82a3-77dff526f10d
634b9250-519a-11ea-93ae-27e7fb9c4775,63607332-519a-11ea-9972-dfb77b92e6bd
63405a7a-519a-11ea-bbf3-dbe58da5bbd2,63609cd6-519a-11ea-b64a-cf2b7a3c4511
6345f37c-519a-11ea-9228-4711f4d5d1ef,6360f0fa-519a-11ea-a19a-6f3e991eb10b
634b1280-519a-11ea-97c7-bfb103f40c7a,63612c82-519a-11ea-8569-0f6563774e62
634d798a-519a-11ea-b1d0-e3a69f4a555b,63614cf8-519a-11ea-bbb4-97d4d21b8e48
6351b964-519a-11ea-93d0-df1adb320fed,6361711a-519a-11ea-8801-f7c4e7f649e7
634721a2-519a-11ea-8a88-f360e946b3d0,63618916-519a-11ea-a716-effafa482811
63596614-519a-11ea-aa0f-e722f74f04f2,6361bc7e-519a-11ea-9ef4-0f692c16888c
6340723a-519a-11ea-a6df-cfdf090431d4,6361ea8c-519a-11ea-9237-b7b6a3b132bd
6347a032-519a-11ea-b781-b35d6c0582ad,6362056c-519a-11ea-8c1c-dfb363ca86ac
634c5c3a-519a-11ea-930a-375d41de86e2,63623ae6-519a-11ea-9907-b766b5c2c557
635f5024-519a-11ea-8669-438243472d28,63622376-519a-11ea-b978-e75743cda5db
6356b8d8-519a-11ea-808d-2bff98015c6d,636291b2-519a-11ea-9658-f3153b9b12d9
6340723a-519a-11ea-a6df-cfdf090431d4,6362b85e-519a-11ea-b651-b7a25fed032a
633d1f7c-519a-11ea-9fdc-272ad13f8ec6,6362d56e-519a-11ea-9ee5-ab2e07b8c8c9
63590b06-519a-11ea-82ec-433a27487239,6362f3d2-519a-11ea-a4d4-a723d8ef80eb
633f39c4-519a-11ea-9456-a720acb5f78c,63630778-519a-11ea-a08d-2325f602b8b9
635e7afa-519a-11ea-b3c6-6b627d2f16ca,6363415c-519a-11ea-b3d7-4306148d6591
633e5acc-519a-11ea-941b-df9d1ffaefb0,63638126-519a-11ea-ad9a-272c933f2101
634544d6-519a-11ea-b777-73933be5042c,63639076-519a-11ea-bdc5-9ff0b83d69f1
6361711a-519a-11ea-8801-f7c4e7f649e7,6363ad18-519a-11ea-a56a-6b11ec9cb897
63408432-519a-11ea-a0b4-abdc5dbbb349,6363cb68-519a-11ea-9f58-d7d0b9045661
635b1914-519a-11ea-9ba8-c776e2d3022c,63640196-519a-11ea-9d90-cfd7d65b4952
6341dc38-519a-11ea-b453-439bdfd121ca,6364234c-519a-11ea-af2d-870ddf1aa55f
6348208e-519a-11ea-b345-078e0b39a8b7,63646870-519a-11ea-becb-7fae31d7669f
6359927e-519a-11ea-bf34-9b2462a12f2d,63649be2-519a-11ea-8e53-9b11d58007ed
634ce074-519a-11ea-92b4-9bbaa180c819,6364b46a-519a-11ea-b1f9-67a733800a42
633ff54e-519a-11ea-ad74-93bcb873dc98,6364c842-519a-11ea-895c-f7eedf58c294
633b8144-519a-11ea-bac1-d7961c76a313,6364daf8-519a-11ea-9b89-ab29de03c8a7
6363ad18-519a-11ea-a56a-6b11ec9cb897,636566e4-519a-11ea-84d7-0bcbf06009e3
6344cc7c-519a-11ea-bd81-f720b5f01c1a,63657922-519a-11ea-a446-236174240bba
634b7c8e-519a-11ea-b983-9b5d6e9519e3,63659060-519a-11ea-ab82-bf337e9e3b8f
633fc420-519a-11ea-9f91-5396b0e8a1cd,6365a410-519a-11ea-9bb2-d3789c49ea4a
635ca3ce-519a-11ea-a3b8-8f6f12c39f84,636612c4-519a-11ea-b580-4b35903ddccc
635813ae-519a-11ea-83ed-4f72787193c5,63662b24-519a-11ea-bdeb-a7d6ced8fa35
634cf42e-519a-11ea-8851-d766d46a69e8,6366534c-519a-11ea-bf53-038eb8c8fbe9
6342a83e-519a-11ea-81bc-c7755bd0edd9,63669b5e-519a-11ea-af2c-871a5bcc8488
635756b2-519a-11ea-b533-c7e9bda93283,6366ab8a-519a-11ea-b4c3-733d4849ce63
633bc8ca-519a-11ea-a434-db2bcb2ea2d7,6366c962-519a-11ea-8893-7f1548f82b65
633b75aa-519a-11ea-b5d5-9b228f42981b,6366dfa6-519a-11ea-89b1-83cf0335da07
633a8ed8-519a-11ea-8985-1391bc28daaa,63670e36-519a-11ea-b1e6-27c1c089082d
6352c7f0-519a-11ea-90a2-6f9139aea2b6,63675436-519a-11ea-a471-8b0269556349
63569a60-519a-11ea-9cf2-cbea16c960e5,63679572-519a-11ea-b6b2-5b3e25aced47
635d388e-519a-11ea-8daa-07c174028dab,6367bb74-519a-11ea-837c-bbfe6bac5e2b
6349faee-519a-11ea-8f48-c79113da4b94,6367e45a-519a-11ea-bf8c-bf1ccb6a8d6b
63596614-519a-11ea-aa0f-e722f74f04f2,6367d26c-519a-11ea-9c0d-1320caff5fbf
63608782-519a-11ea-82a3-77dff526f10d,6368503e-519a-11ea-868f-2f33db8b3edf
635bdd36-519a-11ea-8dcd-73408ec068dc,63688f4a-519a-11ea-a941-67f67d0c7d94
63457b4a-519a-11ea-bf16-df1746f67454,6368a0fc-519a-11ea-8492-ff914240e116
63640196-519a-11ea-9d90-cfd7d65b4952,6368b182-519a-11ea-b814-6b2264fce669
63571f12-519a-11ea-8677-fbbef76729e6,6368e760-519a-11ea-8925-a7b155e260c2
6355ee1c-519a-11ea-b203-9ffb290a6b2c,63690574-519a-11ea-b763-bf9e83d9dff8
633dfea6-519a-11ea-bff9-ffc182cf3fab,63691474-519a-11ea-82fe-1334459ed3d6
6341dc38-519a-11ea-b453-439bdfd121ca,63692dba-519a-11ea-871d-3ff57bb8ed9d
6359927e-519a-11ea-bf34-9b2462a12f2d,63697748-519a-11ea-9dd2-4fed6e5d4bcf
6363cb68-519a-11ea-9f58-d7d0b9045661,63698d32-519a-11ea-91c0-ebcdd7aac22e
6355b924-519a-11ea-b08a-e3f96689d104,6369a290-519a-11ea-97d9-739e84683334
633cb14a-519a-11ea-8d41-fb67b75d453b,6369b136-519a-11ea-b87b-f75079e5a58a
6364234c-519a-11ea-af2d-870ddf1aa55f,6369f7a4-519a-11ea-a0f5-7fcc11efe701
634f1dda-519a-11ea-8d98-abbe4f729480,636a1054-519a-11ea-8bbb-cf0c713cc0e5
635c4604-519a-11ea-aa0b-8ff4364152e6,636a2d5a-519a-11ea-8a07-570200e84cd7
6342e560-519a-11ea-8a74-8377e36eb7a6,636a7abc-519a-11ea-a4d9-d3e004caa8aa
6344cc7c-519a-11ea-bd81-f720b5f01c1a,636ae9ca-519a-11ea-9cd9-3f969ff2b9c7
63679572-519a-11ea-b6b2-5b3e25aced47,636ad25a-519a-11ea-ac39-df4b19782f24
63549e90-519a-11ea-9045-eb468b89e478,636b00ea-519a-11ea-b91d-7387beaa15c7
6366534c-519a-11ea-bf53-038eb8c8fbe9,636b42ee-519a-11ea-bcba-f7f80f7571bb
634049c2-519a-11ea-b57f-830d3aede7b3,636b926c-519a-11ea-8fbe-9f2bdcbf9025
63500a24-519a-11ea-bd1d-5364d5010c65,636bb81e-519a-11ea-93d1-0394e9a4e62f
6355ee1c-519a-11ea-b203-9ffb290a6b2c,636bc980-519a-11ea-a9c1-5f3343377204
63638126-519a-11ea-ad9a-272c933f2101,636be42e-519a-11ea-980f-ebc395a9e685
6366c962-519a-11ea-8893-7f1548f82b65,636c3ce4-519a-11ea-93f1-6f9200e18f6e
63549e90-519a-11ea-9045-eb468b89e478,636c4ffe-519a-11ea-b9fd-838308df4749
63541718-519a-11ea-bb66-a7c53e9a878f,636c63d6-519a-11ea-9140-23c922724652
635d9234-519a-11ea-a01d-f720d9e614b3,636c7448-519a-11ea-9059-cb4bffee2acf
6358e306-519a-11ea-8f37-df7c037282a7,636ccdbc-519a-11ea-94d1-93ba1d05c473
6352c7f0-519a-11ea-90a2-6f9139aea2b6,636d0246-519a-11ea-8740-dbfd08b0cf0d
63609cd6-519a-11ea-b64a-cf2b7a3c4511,636d3e82-519a-11ea-9d15-1379b8787cca
633b8144-519a-11ea-bac1-d7961c76a313,636d63f8-519a-11ea-873a-135237acfc4f
636c7448-519a-11ea-9059-cb4bffee2acf,636d7604-519a-11ea-8144-0731ba9a2069
633dfea6-519a-11ea-bff9-ffc182cf3fab,636dc438-519a-11ea-b567-eb16f5604538
634650c4-519a-11ea-9ddc-634d8a70a299,636df994-519a-11ea-bbe6-1fd8a9f38af3
633b75aa-519a-11ea-b5d5-9b228f42981b,636e1c30-519a-11ea-b708-d319fdb3025c
6366ab8a-519a-11ea-b4c3-733d4849ce63,636e2f04-519a-11ea-a4b3-5ffb89096ac0
6364234c-519a-11ea-af2d-870ddf1aa55f,636e42be-519a-11ea-acd2-23546e1c7350
634f1dda-519a-11ea-8d98-abbe4f729480,636edc60-519a-11ea-886f-0f5833ca4291
634db0f8-519a-11ea-8d43-3b47f9460037,636ef416-519a-11ea-bb76-9b580997fd78
635756b2-519a-11ea-b533-c7e9bda93283,636f0442-519a-11ea-9de0-f754295e5d3d
635b31d8-519a-11ea-8a8e-33174a8778ef,636f1824-519a-11ea-acbb-af179fd8cf84
63578290-519a-11ea-a3d5-4fc1f9117d75,636f8c8c-519a-11ea-94bf-ef83264f9534
633aad50-519a-11ea-ace2-67de37d042ef,636fb176-519a-11ea-9aec-ff20d9388121
636291b2-519a-11ea-9658-f3153b9b12d9,636fc9a4-519a-11ea-8d3c-d368ecb664c2
6355ee1c-519a-11ea-b203-9ffb290a6b2c,636ff55a-519a-11ea-a8ad-3bd6c4980b35
6362d56e-519a-11ea-9ee5-ab2e07b8c8c9,6370c6c4-519a-11ea-bb61-af1d742ff4c4
634c48da-519a-11ea-a199-6344918083fd,63709aaa-519a-11ea-b1b6-4bcdf842522c
636b42ee-519a-11ea-bcba-f7f80f7571bb,6370f810-519a-11ea-9a73-835672ffe7f3
633c991c-519a-11ea-bd0d-ef37ec602c36,63710d3c-519a-11ea-b98b-07a001120a7f
635ec898-519a-11ea-9ef8-07dbfa4593bc,63715cba-519a-11ea-ab1a-978a289b71da
633cc5c2-519a-11ea-866f-97a19540ef2c,637146e4-519a-11ea-ab94-e7d96a16d664
635a31de-519a-11ea-89bd-af86e76778bb,6371b93a-519a-11ea-b50c-17d848fd330b
6358f42c-519a-11ea-842c-134e11d69faf,6371d69a-519a-11ea-847e-5b319211630d
63466834-519a-11ea-b113-6ffa34c537db,6371f648-519a-11ea-a807-97970c0e4106
636ccdbc-519a-11ea-94d1-93ba1d05c473,63722474-519a-11ea-b53e-772d5a4f144f
6371d69a-519a-11ea-847e-5b319211630d,63727bcc-519a-11ea-ab8b-27ef203276ce
633f4ae0-519a-11ea-baac-9b85ce6e6252,6372a85e-519a-11ea-adef-1738460d9bda
633aad50-519a-11ea-ace2-67de37d042ef,6372c226-519a-11ea-b9f8-bbf36b064f32
63414f48-519a-11ea-8aa6-7741e9601e13,637342be-519a-11ea-87cc-e34049bfcd17
633c02c2-519a-11ea-be92-97ce7497c76e,6373255e-519a-11ea-bdf5-eb9d76a59c60
635ae110-519a-11ea-a5e6-9f33fa068bc3,63735678-519a-11ea-abd3-4bf0b1090bd7
6342a83e-519a-11ea-81bc-c7755bd0edd9,6373cd42-519a-11ea-aa5d-bbe64e3b863a
634520a0-519a-11ea-bb70-a7aacdc4fa02,6373eaa2-519a-11ea-b13b-cb7e4c694948
634cf42e-519a-11ea-8851-d766d46a69e8,6373fcae-519a-11ea-9e88-4314ee045cb8
63735678-519a-11ea-abd3-4bf0b1090bd7,6374100e-519a-11ea-b488-ab612ee18edf
63675436-519a-11ea-a471-8b0269556349,637468ec-519a-11ea-a4d5-6762fc2f3f03
635ea818-519a-11ea-a2f6-c7c881ea0950,63748034-519a-11ea-8c9e-83a355ce9079
63596614-519a-11ea-aa0f-e722f74f04f2,6374c9f4-519a-11ea-bca1-3fe46fb57f93
63596614-519a-11ea-aa0f-e722f74f04f2,6374b04a-519a-11ea-bb8c-3f0967b06897
6342a83e-519a-11ea-81bc-c7755bd0edd9,63750a54-519a-11ea-9bfd-4777c485ab11
636c63d6-519a-11ea-9140-23c922724652,637594ba-519a-11ea-b23b-5ff23af56e11
633d8854-519a-11ea-a053-0b471a8eac92,6375abb2-519a-11ea-b11c-b7be3c7bd25c
6374100e-519a-11ea-b488-ab612ee18edf,6375bbde-519a-11ea-8a74-bbb012d8506e
63582b64-519a-11ea-adc9-cfe55241b4ed,6375e5be-519a-11ea-a267-d38a02e30b7e
6374c9f4-519a-11ea-bca1-3fe46fb57f93,63763528-519a-11ea-a7d4-079353c913c8
63735678-519a-11ea-abd3-4bf0b1090bd7,63767768-519a-11ea-a48b-6347715e6fa1
634ad734-519a-11ea-b223-e398d98a2578,63768942-519a-11ea-8d9c-97bb43e3a6ba
63612c82-519a-11ea-8569-0f6563774e62,6376a2e2-519a-11ea-9ef8-a3ea454161a0
633b8144-519a-11ea-bac1-d7961c76a313,6376dee2-519a-11ea-82d6-9ff2d009cbb3
634c5c3a-519a-11ea-930a-375d41de86e2,6377229e-519a-11ea-a12e-73d3e5da2fb9
6341dc38-519a-11ea-b453-439bdfd121ca,63773310-519a-11ea-a5ab-6bca6f9fd15c
634fe7c4-519a-11ea-8b26-ff2d7be3fe36,63774eea-519a-11ea-992a-03fa86d48fc4
633a80dc-519a-11ea-8982-a7f30d798410,63775dae-519a-11ea-9c15-af6d9f8300ac
635e95a8-519a-11ea-adb0-8308920b4c57,63779d00-519a-11ea-a1f9-83bd03cd58f8
6353766e-519a-11ea-b84b-fff495299f26,6377e4fe-519a-11ea-8846-1fdde93a91f2
6344cc7c-519a-11ea-bd81-f720b5f01c1a,63780952-519a-11ea-a9fc-d72f01ee3a78
635db28c-519a-11ea-bab0-f789b1a4521f,63781744-519a-11ea-ad58-5f657bac5473
6355b924-519a-11ea-b08a-e3f96689d104,6378575e-519a-11ea-ba5e-1fb15f046b7e
633f4ae0-519a-11ea-baac-9b85ce6e6252,63787900-519a-11ea-a363-57231888c640
6366ab8a-519a-11ea-b4c3-733d4849ce63,6378958e-519a-11ea-84e6-6f52ddd645a6
636b00ea-519a-11ea-b91d-7387beaa15c7,6378c720-519a-11ea-9ae8-dbe729af289d
6362b85e-519a-11ea-b651-b7a25fed032a,6378d4e0-519a-11ea-9c63-4f45d2f336d7
6340b6f0-519a-11ea-bb4e-8b3d9fd1500d,637932dc-519a-11ea-8c7e-238c83cfc2b9
63735678-519a-11ea-abd3-4bf0b1090bd7,6379427c-519a-11ea-8077-e7dcd9ba0c0e
6342e560-519a-11ea-8a74-8377e36eb7a6,63795212-519a-11ea-bf8a-3301f5174dd2
6346f222-519a-11ea-9ef1-4b0986732b8a,63796478-519a-11ea-8e23-a717ab48737e
634c389a-519a-11ea-b889-37c710f49cf4,6379c7ec-519a-11ea-9fe7-9310d83ac796
634aa0fc-519a-11ea-91a7-03211d1e5b2f,6379de08-519a-11ea-8687-a7c35e9513c9
637146e4-519a-11ea-ab94-e7d96a16d664,637a0450-519a-11ea-9a1a-8704ca0c224c
6374100e-519a-11ea-b488-ab612ee18edf,637a1724-519a-11ea-a2c6-d7c65bb68879
633ec548-519a-11ea-9b41-a355c5949644,637a66ac-519a-11ea-92ba-9f5a9dabfaa8
63691474-519a-11ea-82fe-1334459ed3d6,637a836c-519a-11ea-8d06-0b2a960c1c77
636b926c-519a-11ea-8fbe-9f2bdcbf9025,637ab1a2-519a-11ea-a7f9-cfbe8af3f01c
635cf3e2-519a-11ea-83ae-5f1063058fd3,637ac688-519a-11ea-a8e9-47965414ea10
636d7604-519a-11ea-8144-0731ba9a2069,637b6944-519a-11ea-b2cc-4ba9ed481eeb
63662b24-519a-11ea-bdeb-a7d6ced8fa35,637b876c-519a-11ea-beb2-379d09df1653
634049c2-519a-11ea-b57f-830d3aede7b3,637ba404-519a-11ea-95e8-dfe0f453f659
63563174-519a-11ea-8460-4f61aaac7657,637bcda8-519a-11ea-a32c-6f6e7cd25480
634e22f4-519a-11ea-aa5c-b3135498fd71,637bdce4-519a-11ea-8a6a-5b7b208fdf73
633e6f08-519a-11ea-b459-43748156fce0,637c1e5c-519a-11ea-8e30-a31e3248d665
636b42ee-519a-11ea-bcba-f7f80f7571bb,637c2d84-519a-11ea-8d0e-ff3617cc59bd
6369f7a4-519a-11ea-a0f5-7fcc11efe701,637c6786-519a-11ea-9462-af6e05dcd1fd
635e95a8-519a-11ea-adb0-8308920b4c57,637c89b4-519a-11ea-9d1c-f3644bca9714
634b4d86-519a-11ea-947f-2763a4d703ce,637c9a30-519a-11ea-98fe-c32b36e2376d
6355d594-519a-11ea-b32c-cf2a64816a84,637cdde2-519a-11ea-af22-cf23532e456c
63669b5e-519a-11ea-af2c-871a5bcc8488,637cedb4-519a-11ea-91c3-4f22039bf86d
63535c92-519a-11ea-95cf-af2b5fd39e76,637d3030-519a-11ea-9a22-9346958d0fe7
6358f42c-519a-11ea-842c-134e11d69faf,637d3f44-519a-11ea-8bc1-fbe62e8348c5
636fb176-519a-11ea-9aec-ff20d9388121,637d8242-519a-11ea-8a37-57664960d40d
636d3e82-519a-11ea-9d15-1379b8787cca,637daea2-519a-11ea-8020-b731a7f80c9d
6366534c-519a-11ea-bf53-038eb8c8fbe9,637df1c8-519a-11ea-813b-57fd1dec1b9c
63393f38-519a-11ea-ac4e-3f5d2e3ea3c3,637e672a-519a-11ea-a578-1704eb3f6bc1
6340b6f0-519a-11ea-bb4e-8b3d9fd1500d,637e90d8-519a-11ea-a77a-af5485e92d80
63500a24-519a-11ea-bd1d-5364d5010c65,637ea7e4-519a-11ea-a80b-2f4cc5852267
63690574-519a-11ea-b763-bf9e83d9dff8,637ed282-519a-11ea-b99e-cb9b4a02fd78
6379427c-519a-11ea-8077-e7dcd9ba0c0e,637ee6c8-519a-11ea-a30a-3f3524d3fc30
633b3d4c-519a-11ea-a1d4-b305ff66c4d5,637f1fb2-519a-11ea-9358-af7cca2bf13b
6371b93a-519a-11ea-b50c-17d848fd330b,637f2ff2-519a-11ea-9cf9-d3f263281ca2
634049c2-519a-11ea-b57f-830d3aede7b3,637f4e06-519a-11ea-a8d5-47873b03e562
63418b66-519a-11ea-8469-d77e87d39f47,637f988e-519a-11ea-b495-5f2a103a315f
635d9234-519a-11ea-a01d-f720d9e614b3,637f8826-519a-11ea-b949-d7533a98693b
637f1fb2-519a-11ea-9358-af7cca2bf13b,637fef64-519a-11ea-8ba2-27c236f4e079
634eef2c-519a-11ea-8acb-4b41126a98ad,637ffa54-519a-11ea-9b58-33e57d00bacb
6370c6c4-519a-11ea-bb61-af1d742ff4c4,63804e28-519a-11ea-b30e-8b116a7a3a74
6340723a-519a-11ea-a6df-cfdf090431d4,63806a8e-519a-11ea-bfbc-8b5133099a60
63697748-519a-11ea-9dd2-4fed6e5d4bcf,63807e48-519a-11ea-aad2-5383131f65b4
63504458-519a-11ea-8c2d-0f37d0379a51,638095b8-519a-11ea-8a3b-db33f2326f99
6366c962-519a-11ea-8893-7f1548f82b65,6380f8d2-519a-11ea-922f-175d46928d34
6343ee7e-519a-11ea-876d-b3025254faed,63812690-519a-11ea-b40f-c379c6596c5d
6361711a-519a-11ea-8801-f7c4e7f649e7,63813a7c-519a-11ea-9bfe-5bbe8c98754b
63395c70-519a-11ea-aa70-33fc24aed4e3,63815156-519a-11ea-85e4-77b34ebd6b4b
633d1f7c-519a-11ea-9fdc-272ad13f8ec6,6381ceec-519a-11ea-b562-2b50f7ae41e8
6345f37c-519a-11ea-9228-4711f4d5d1ef,6381e580-519a-11ea-8c52-5f9714bad9bf
637a0450-519a-11ea-9a1a-8704ca0c224c,638204ca-519a-11ea-ae46-e3ce446c9012
637bcda8-519a-11ea-a32c-6f6e7cd25480,638218c0-519a-11ea-ae12-339b0c696981
635f872e-519a-11ea-896a-db2cd226b184,638274d2-519a-11ea-8e31-83db69f7d0d9
637b6944-519a-11ea-b2cc-4ba9ed481eeb,63828bd4-519a-11ea-b584-3779c821512a
6368e760-519a-11ea-8925-a7b155e260c2,63829dd6-519a-11ea-b376-dfeb71ecddd0
637932dc-519a-11ea-8c7e-238c83cfc2b9,6382ad94-519a-11ea-8d03-db11869170d8
6376dee2-519a-11ea-82d6-9ff2d009cbb3,638306d6-519a-11ea-b331-c334839d6d03
6365a410-519a-11ea-9bb2-d3789c49ea4a,638337c8-519a-11ea-8a5b-c3634b4277eb
637e672a-519a-11ea-a578-1704eb3f6bc1,63837238-519a-11ea-a711-c71b40787152
63688f4a-519a-11ea-a941-67f67d0c7d94,6383830e-519a-11ea-b5a9-b367a4f6d298
637a836c-519a-11ea-8d06-0b2a960c1c77,63839ff6-519a-11ea-9271-ff3c92785875
635bdd36-519a-11ea-8dcd-73408ec068dc,6383e0b0-519a-11ea-9f48-1fa2b55884fb
636d3e82-519a-11ea-9d15-1379b8787cca,6383f28a-519a-11ea-a25f-437ad1f2811d
63709aaa-519a-11ea-b1b6-4bcdf842522c,63842232-519a-11ea-84ff-d7f71d666813
63767768-519a-11ea-a48b-6347715e6fa1,63843560-519a-11ea-9c4b-5ffb6de953ab
63571f12-519a-11ea-8677-fbbef76729e6,63847e8a-519a-11ea-bf71-5bcb968b83ca
633deb1e-519a-11ea-8171-2b0acc1a5d78,6384bcb0-519a-11ea-af22-6b66ee64d905
6340723a-519a-11ea-a6df-cfdf090431d4,6384ccd2-519a-11ea-9fd8-bf4483015be0
636291b2-519a-11ea-9658-f3153b9b12d9,6384de20-519a-11ea-a3de-9b19d76c33f9
637d8242-519a-11ea-8a37-57664960d40d,6384eda2-519a-11ea-973e-efca53e5c835
6370f810-519a-11ea-9a73-835672ffe7f3,63856a5c-519a-11ea-b1ec-f72c4e0b857a
6370c6c4-519a-11ea-bb61-af1d742ff4c4,63857de4-519a-11ea-b0d3-c386363ad11d
633a6232-519a-11ea-9aac-770e68304527,63858ad2-519a-11ea-b05b-7b2dde9af692
6346365c-519a-11ea-9f06-1b99ebcad570,63859c66-519a-11ea-b7c5-9388c6a63379
635a0a56-519a-11ea-aada-e7852aeef929,63860426-519a-11ea-9266-0723259a5041
6376dee2-519a-11ea-82d6-9ff2d009cbb3,63861b96-519a-11ea-8bad-077fe86fdac2
634b4d86-519a-11ea-947f-2763a4d703ce,63863f5e-519a-11ea-a0b3-c32f1c26d387
6377229e-519a-11ea-a12e-73d3e5da2fb9,638630f4-519a-11ea-aec3-e39f727f7cf2
6343d48e-519a-11ea-bbf1-13f85fd31842,6386a2d2-519a-11ea-8020-df46db3530c2
633befa8-519a-11ea-9c24-2f689b4b81c5,6386baba-519a-11ea-93d8-ff68255f20f5
637c1e5c-519a-11ea-8e30-a31e3248d665,6386dc66-519a-11ea-8841-4b86c7ac9615
637f2ff2-519a-11ea-9cf9-d3f263281ca2,6387144c-519a-11ea-91b3-dfcdd2a1ea73
63813a7c-519a-11ea-9bfe-5bbe8c98754b,63874070-519a-11ea-b13e-07a7c13cc3f9
633f4ae0-519a-11ea-baac-9b85ce6e6252,6387304e-519a-11ea-8af1-53527594fd7b
634ae8d2-519a-11ea-ad99-33f81800bf4c,63879908-519a-11ea-8ffb-4f88b986f1db
6376dee2-519a-11ea-82d6-9ff2d009cbb3,6387a7b8-519a-11ea-a0e3-93432ea64eeb
633d9bb4-519a-11ea-ba18-ab6dea5a7e2a,6387be92-519a-11ea-ad06-47fadadebce6
63418b66-519a-11ea-8469-d77e87d39f47,6387c810-519a-11ea-82c3-f383aaeee091
6363ad18-519a-11ea-a56a-6b11ec9cb897,63883a7a-519a-11ea-baa7-4b6c0de8b415
633d5f1e-519a-11ea-9910-130d46f80716,63884af6-519a-11ea-8ada-57257f29d03a
6340f03e-519a-11ea-b1f1-7beca0f14b93,63885eba-519a-11ea-b3d7-df01ef9ab57c
63715cba-519a-11ea-ab1a-978a289b71da,63886d42-519a-11ea-8c64-1f1187f99360
633fc420-519a-11ea-9f91-5396b0e8a1cd,6388edd0-519a-11ea-831d-eff320826d5b
634de384-519a-11ea-b09e-537c4141f53f,638901da-519a-11ea-85d5-032830644238
633bdb26-519a-11ea-8eec-675151446616,638914ae-519a-11ea-bdda-afa88a03bb3a
634ce074-519a-11ea-92b4-9bbaa180c819,63892818-519a-11ea-9abe-a39598245104
637468ec-519a-11ea-a4d5-6762fc2f3f03,638970a2-519a-11ea-9dd1-d781ceb19031
63787900-519a-11ea-a363-57231888c640,6389a4a0-519a-11ea-900b-e30b087406b3
6383f28a-519a-11ea-a25f-437ad1f2811d,6389b4ae-519a-11ea-b19c-1f49d110ae99
63837238-519a-11ea-a711-c71b40787152,6389cf48-519a-11ea-b819-732278d06932
63748034-519a-11ea-8c9e-83a355ce9079,638a1c64-519a-11ea-81b0-fb51ae2e7010
634e7e48-519a-11ea-bdc1-e334deb0837b,638a2db2-519a-11ea-ac20-f7002d895363
634721a2-519a-11ea-8a88-f360e946b3d0,638a6b92-519a-11ea-82f1-cb03be6fceda
63609cd6-519a-11ea-b64a-cf2b7a3c4511,638a9f5e-519a-11ea-ad96-d76d906599d0
6386baba-519a-11ea-93d8-ff68255f20f5,638ab908-519a-11ea-9ea5-6fcecd4dc215
633f4ae0-519a-11ea-baac-9b85ce6e6252,638ad26c-519a-11ea-b3d6-27d5ab1cbbde
6350987c-519a-11ea-b300-075455044319,638b15ce-519a-11ea-88cb-1fca79fd2aa7
636d3e82-519a-11ea-9d15-1379b8787cca,638b4b7a-519a-11ea-aff6-23c5e1fa8547
6373cd42-519a-11ea-aa5d-bbe64e3b863a,638b5f02-519a-11ea-a934-c3d3fc5fc019
6368503e-519a-11ea-868f-2f33db8b3edf,638ba7f0-519a-11ea-be2e-4b7e1dc78c9d
6358f42c-519a-11ea-842c-134e11d69faf,638bb8c6-519a-11ea-9122-d3ea01afab39
638a9f5e-519a-11ea-ad96-d76d906599d0,638bd2ac-519a-11ea-9405-1fa6b9d10257
638b15ce-519a-11ea-88cb-1fca79fd2aa7,638be314-519a-11ea-8a33-a76638c8576b
63773310-519a-11ea-a5ab-6bca6f9fd15c,638c2680-519a-11ea-9285-4bfc83e7b654
636fb176-519a-11ea-9aec-ff20d9388121,638c4a5c-519a-11ea-bb19-23e55a9e350a
63727bcc-519a-11ea-ab8b-27ef203276ce,638c8f30-519a-11ea-a5a9-1f7b87cbae2d
6387be92-519a-11ea-ad06-47fadadebce6,638ca1f0-519a-11ea-b937-7f4b6c242834
634206b8-519a-11ea-a230-3714bd8742c6,638cb316-519a-11ea-a8a6-d33904d92199
635318fe-519a-11ea-8b27-b32688573686,638cead4-519a-11ea-9f99-839efb955332
6346365c-519a-11ea-9f06-1b99ebcad570,638d0cbc-519a-11ea-aba0-c7286dcc5262
633cc5c2-519a-11ea-866f-97a19540ef2c,638d23e6-519a-11ea-b488-4384b0ac0595
637ac688-519a-11ea-a8e9-47965414ea10,638d86b0-519a-11ea-84b1-df23dcd2c9a4
637a66ac-519a-11ea-92ba-9f5a9dabfaa8,638d98b2-519a-11ea-bc67-7f175f681910
6376dee2-519a-11ea-82d6-9ff2d009cbb3,638da942-519a-11ea-867d-ebbbc4912f45
63638126-519a-11ea-ad9a-272c933f2101,638db838-519a-11ea-ae41-1b9ccf377346
63585e36-519a-11ea-af94-5326a802895c,638e06bc-519a-11ea-9cc3-f7ca83350e5a
63393f38-519a-11ea-ac4e-3f5d2e3ea3c3,638e1602-519a-11ea-b3ad-0f90887b5f6f
63551cc6-519a-11ea-b2da-4f2db5bf79c3,638e374a-519a-11ea-a19d-2b0def2e775d
63649be2-519a-11ea-8e53-9b11d58007ed,638e8fc4-519a-11ea-9a8a-b3a078da1f60
637c6786-519a-11ea-9462-af6e05dcd1fd,638eab3a-519a-11ea-b80d-e70162b9dd43
63815156-519a-11ea-85e4-77b34ebd6b4b,638ec890-519a-11ea-95df-bb1940c32de0
635bb59a-519a-11ea-abf6-6f5e3d3398e9,638ed9fc-519a-11ea-8975-e773091de27f
63416244-519a-11ea-8016-23634305487a,638f6be2-519a-11ea-9d74-d3386c438b5f
638ed9fc-519a-11ea-8975-e773091de27f,638f8d20-519a-11ea-94a3-bbaa12f6ce91
638da942-519a-11ea-867d-ebbbc4912f45,638fb1ec-519a-11ea-b965-2f54e9a9607e
638a6b92-519a-11ea-82f1-cb03be6fceda,638fe1b2-519a-11ea-9d1e-bbe4699f0308
6375e5be-519a-11ea-a267-d38a02e30b7e,6390200a-519a-11ea-9c1d-17ceed5f284e
635a6a1e-519a-11ea-b1a9-ebb8143b4a6a,63903608-519a-11ea-8770-7f87c71275ab
6370c6c4-519a-11ea-bb61-af1d742ff4c4,6390804a-519a-11ea-8ad1-a3d812ce039e
6348590a-519a-11ea-a40c-5fe71bcb577d,639092b0-519a-11ea-986e-d37567b91df9
637468ec-519a-11ea-a4d5-6762fc2f3f03,6390c6fe-519a-11ea-8065-2f9b340f9ead
637146e4-519a-11ea-ab94-e7d96a16d664,6390e274-519a-11ea-8985-bf512a0138b2
6367bb74-519a-11ea-837c-bbfe6bac5e2b,639111cc-519a-11ea-875d-13fa028b55c2
6371d69a-519a-11ea-847e-5b319211630d,63912586-519a-11ea-b3bf-636956a85aa0
637df1c8-519a-11ea-813b-57fd1dec1b9c,63914868-519a-11ea-8444-4b57ad56bb9e
6381ceec-519a-11ea-b562-2b50f7ae41e8,6391775c-519a-11ea-9a21-8f4836217571
63414f48-519a-11ea-8aa6-7741e9601e13,6391a948-519a-11ea-a63f-9315942be57b
6341dc38-519a-11ea-b453-439bdfd121ca,6391c3ba-519a-11ea-ab98-5f9d9c2bc684
635cf3e2-519a-11ea-83ae-5f1063058fd3,63920d52-519a-11ea-a117-cfbd74c40994
63812690-519a-11ea-b40f-c379c6596c5d,6392023a-519a-11ea-b1e4-637e2e65f51b
634520a0-519a-11ea-bb70-a7aacdc4fa02,63925b40-519a-11ea-a2d9-4bdb8515ada8
63567800-519a-11ea-bda3-b75722e386b5,6392753a-519a-11ea-b9d1-6f5e71c0e372
6345c384-519a-11ea-b9a6-533f7696342b,6392b1e4-519a-11ea-9407-5b9491f7eae0
635813ae-519a-11ea-83ed-4f72787193c5,6392dbd8-519a-11ea-9202-4f212a6d9863
6365a410-519a-11ea-9bb2-d3789c49ea4a,6392f0dc-519a-11ea-8a4e-574eccb7037d
63815156-519a-11ea-85e4-77b34ebd6b4b,63931684-519a-11ea-894a-b3f4c6cbcd46
636e42be-519a-11ea-acd2-23546e1c7350,63934f5a-519a-11ea-aa98-87629bdd7c4d
634ae8d2-519a-11ea-ad99-33f81800bf4c,63935dc4-519a-11ea-a27f-8b82418c3190
6390804a-519a-11ea-8ad1-a3d812ce039e,6393b472-519a-11ea-aa77-7fa9dbb73c34
633a0756-519a-11ea-8fd2-972b839b0db2,6393e410-519a-11ea-9e5c-c75b3ad20f05
638bd2ac-519a-11ea-9405-1fa6b9d10257,6393f6b2-519a-11ea-b478-9b9c62cff277
6342c3f0-519a-11ea-9c3c-db455090f20b,6394152a-519a-11ea-86bc-fb211fc1b542
6379de08-519a-11ea-8687-a7c35e9513c9,63944900-519a-11ea-90b7-f34327dcb9f6
637ab1a2-519a-11ea-a7f9-cfbe8af3f01c,6394a2ce-519a-11ea-9457-d3b0005d11cd
638337c8-519a-11ea-8a5b-c3634b4277eb,6394b64c-519a-11ea-ae1c-fbea0d362aa8
638be314-519a-11ea-8a33-a76638c8576b,6394cc54-519a-11ea-a421-e7d8ecb34c77
634c5c3a-519a-11ea-930a-375d41de86e2,6394d53c-519a-11ea-b030-bf96fb65ba3f
63450ae8-519a-11ea-bb68-bb7dc861b718,63955598-519a-11ea-8c55-bb4f448d40fb
6373eaa2-519a-11ea-b13b-cb7e4c694948,63956538-519a-11ea-b27f-dfb310fff690
6389cf48-519a-11ea-b819-732278d06932,63958158-519a-11ea-ba0e-5323d1d67874
636a2d5a-519a-11ea-8a07-570200e84cd7,6395b5ce-519a-11ea-8183-53049977b57a
636e42be-519a-11ea-acd2-23546e1c7350,6395e5f8-519a-11ea-9b85-4b7af535be56
6373255e-519a-11ea-bdf5-eb9d76a59c60,6395f638-519a-11ea-9b94-eb090cf98992
6377e4fe-519a-11ea-8846-1fdde93a91f2,63960380-519a-11ea-9638-1bea7d4f9c60
63837238-519a-11ea-a711-c71b40787152,63963094-519a-11ea-8a3d-e76fed28e8b2
637d3f44-519a-11ea-8bc1-fbe62e8348c5,63965902-519a-11ea-a618-13da54ba5e5b
637f8826-519a-11ea-b949-d7533a98693b,63966ca8-519a-11ea-87c1-ffdbfe02436a
634ab9b6-519a-11ea-b239-3b9d5b577e5b,6396a984-519a-11ea-af8d-c3845e14ab67
63807e48-519a-11ea-aad2-5383131f65b4,6396d364-519a-11ea-97d9-6fee7288192a
6391a948-519a-11ea-a63f-9315942be57b,6396e408-519a-11ea-9faf-ab6a0ab28940
6387144c-519a-11ea-91b3-dfcdd2a1ea73,63970a82-519a-11ea-9e7b-9beac8536adf
634c389a-519a-11ea-b889-37c710f49cf4,63977026-519a-11ea-9ec3-3febca29a9be
63522ea8-519a-11ea-923d-f72fbceae3ff,639780f2-519a-11ea-9746-8fdd6e0d7c71
637c1e5c-519a-11ea-8e30-a31e3248d665,63979808-519a-11ea-9675-83b6a9973cfe
6390c6fe-519a-11ea-8065-2f9b340f9ead,6397a80c-519a-11ea-ae8b-abd442276da4
63774eea-519a-11ea-992a-03fa86d48fc4,63980522-519a-11ea-852c-dba537e01e60
6346365c-519a-11ea-9f06-1b99ebcad570,63981d50-519a-11ea-b253-b7efca74ae96
6351b964-519a-11ea-93d0-df1adb320fed,63982ef8-519a-11ea-9149-f321924b0617
638d23e6-519a-11ea-b488-4384b0ac0595,63985ef0-519a-11ea-8a92-0ff5c4c28467
637ffa54-519a-11ea-9b58-33e57d00bacb,6398b45e-519a-11ea-9036-972251620305
636a2d5a-519a-11ea-8a07-570200e84cd7,6398d056-519a-11ea-b41f-2f338571e22f
63425000-519a-11ea-b831-bfe9149b77eb,6398fbb2-519a-11ea-9ca8-eb0d2d038d67
6386baba-519a-11ea-93d8-ff68255f20f5,63990ac6-519a-11ea-b6d3-9b31d860f703
6365a410-519a-11ea-9bb2-d3789c49ea4a,63992128-519a-11ea-a1da-8bb937041e8b
63418b66-519a-11ea-8469-d77e87d39f47,63994496-519a-11ea-9104-031be8b1a49a
6379c7ec-519a-11ea-9fe7-9310d83ac796,639997ac-519a-11ea-b70e-4b157ba99273
637cdde2-519a-11ea-af22-cf23532e456c,6399c7a4-519a-11ea-ad5a-ebdb7d5fcf0d
6366c962-519a-11ea-8893-7f1548f82b65,6399e4c8-519a-11ea-bc2a-ff4cb52f3e1b
636dc438-519a-11ea-b567-eb16f5604538,6399f3c8-519a-11ea-840b-d34f2928d1c7
638ca1f0-519a-11ea-b937-7f4b6c242834,639a0dd6-519a-11ea-8e02-f32624dacd48
63608782-519a-11ea-82a3-77dff526f10d,639a61be-519a-11ea-a23b-d782918bc954
63892818-519a-11ea-9abe-a39598245104,639a7cda-519a-11ea-802f-93c2cad7457f
633d5f1e-519a-11ea-9910-130d46f80716,639a8f2c-519a-11ea-9a3b-6337e238875d
633bc8ca-519a-11ea-a434-db2bcb2ea2d7,639a9e72-519a-11ea-9ae0-2ffe9db8ae68
638c2680-519a-11ea-9285-4bfc83e7b654,639b29be-519a-11ea-91ec-ef0fe446a90b
6381ceec-519a-11ea-b562-2b50f7ae41e8,639b3e0e-519a-11ea-b5bc-bfbf812a5332
635fd9ea-519a-11ea-abae-b7e7c74561c5,639b4bd8-519a-11ea-bff2-73995ced864c
637146e4-519a-11ea-ab94-e7d96a16d664,639b6046-519a-11ea-86e1-3b063f84dbde
637c6786-519a-11ea-9462-af6e05dcd1fd,639bb53c-519a-11ea-9de1-d70bd77101a6
63596614-519a-11ea-aa0f-e722f74f04f2,639bc90a-519a-11ea-95d0-b38ca6f0aee5
635318fe-519a-11ea-8b27-b32688573686,639bda9e-519a-11ea-b128-5b2deb986b1c
636f1824-519a-11ea-acbb-af179fd8cf84,639c23e6-519a-11ea-ba29-a327f81f1c58
638d86b0-519a-11ea-84b1-df23dcd2c9a4,639c73aa-519a-11ea-bd83-8b2ec81b2df9
6387c810-519a-11ea-82c3-f383aaeee091,639ca488-519a-11ea-bcb8-a3ee4e976e75
6348d498-519a-11ea-a1aa-77ab3d207498,639cba54-519a-11ea-bc2f-b3cd623ee9cd
637c89b4-519a-11ea-9d1c-f3644bca9714,639cc8dc-519a-11ea-b515-3bf5941f1bae
636dc438-519a-11ea-b567-eb16f5604538,639d0dce-519a-11ea-98b1-2b3e5c184b2d
638306d6-519a-11ea-b331-c334839d6d03,639d2804-519a-11ea-aa43-1b106d2317df
63646870-519a-11ea-becb-7fae31d7669f,639d5658-519a-11ea-8fb7-03908c69d590
63549e90-519a-11ea-9045-eb468b89e478,639d9302-519a-11ea-96df-bbf97dd7d071
63698d32-519a-11ea-91c0-ebcdd7aac22e,639da388-519a-11ea-a6ea-d31c1b04b345
635fd9ea-519a-11ea-abae-b7e7c74561c5,639db5b2-519a-11ea-823c-4f4ea196ee10
635756b2-519a-11ea-b533-c7e9bda93283,639dc5b6-519a-11ea-9418-7358c5ee6897
6373fcae-519a-11ea-9e88-4314ee045cb8,639e03b4-519a-11ea-b413-53c77af65d6d
635bb59a-519a-11ea-abf6-6f5e3d3398e9,639e123c-519a-11ea-b86e-d320b4d0f22d
636dc438-519a-11ea-b567-eb16f5604538,639e5620-519a-11ea-9e07-9f9700999ccb
63688f4a-519a-11ea-a941-67f67d0c7d94,639e763c-519a-11ea-a297-cbcb550ca314
634f1dda-519a-11ea-8d98-abbe4f729480,639e9928-519a-11ea-8ede-b3724383506d
6387304e-519a-11ea-8af1-53527594fd7b,639ea77e-519a-11ea-95d9-6355d778b38a
638c4a5c-519a-11ea-bb19-23e55a9e350a,639ecaa6-519a-11ea-8a6c-63dd8ecd7d76
6384ccd2-519a-11ea-9fd8-bf4483015be0,639f2ac8-519a-11ea-9494-677a212e9c2b
6394152a-519a-11ea-86bc-fb211fc1b542,639f3914-519a-11ea-87ae-2b1f1427316d
633a6232-519a-11ea-9aac-770e68304527,639f596c-519a-11ea-bc63-4f6a3db76544
6387a7b8-519a-11ea-a0e3-93432ea64eeb,639f6902-519a-11ea-96aa-0339eb27a840
6395e5f8-519a-11ea-9b85-4b7af535be56,639fc460-519a-11ea-83db-d7f1ae5283ba
636a2d5a-519a-11ea-8a07-570200e84cd7,639fd6c6-519a-11ea-8def-4f0b7b6d14e3
6375e5be-519a-11ea-a267-d38a02e30b7e,63a0149c-519a-11ea-ad3a-17e03adb4e11
636a1054-519a-11ea-8bbb-cf0c713cc0e5,63a02edc-519a-11ea-9bcc-a3a84721ed16
63578290-519a-11ea-a3d5-4fc1f9117d75,63a04962-519a-11ea-ba70-a732b50d3f8b
6383f28a-519a-11ea-a25f-437ad1f2811d,63a078a6-519a-11ea-9548-6b630b449b74
63796478-519a-11ea-8e23-a717ab48737e,63a0bc62-519a-11ea-84bf-3fd5796a62b1
635f872e-519a-11ea-896a-db2cd226b184,63a0cd24-519a-11ea-bf4c-93b78527b52e
6360f0fa-519a-11ea-a19a-6f3e991eb10b,63a0db7a-519a-11ea-843a-871a1cf4d99c
63393f38-519a-11ea-ac4e-3f5d2e3ea3c3,63a133f4-519a-11ea-b495-9bb6cd29df25
63874070-519a-11ea-b13e-07a7c13cc3f9,63a16036-519a-11ea-994e-5b5fa29cbde2
635de2f2-519a-11ea-8634-8b02b4a3c494,63a1794a-519a-11ea-8d1a-43bed009d96b
6340f03e-519a-11ea-b1f1-7beca0f14b93,63a188ae-519a-11ea-8122-f3a2aa86e104
63427aa8-519a-11ea-9a56-930348679eb2,63a1dcaa-519a-11ea-a29e-0bbfffda0556
6376dee2-519a-11ea-82d6-9ff2d009cbb3,63a1f4d8-519a-11ea-b089-57248486ebe8
6368503e-519a-11ea-868f-2f33db8b3edf,63a206da-519a-11ea-aeae-035bb8ab9dc5
63692dba-519a-11ea-871d-3ff57bb8ed9d,63a25c3e-519a-11ea-b22b-9f67ef266ec7
637d8242-519a-11ea-8a37-57664960d40d,63a26f44-519a-11ea-94e9-5fb84de0b025
6342c3f0-519a-11ea-9c3c-db455090f20b,63a2a05e-519a-11ea-b50d-63aebae503c3
63612c82-519a-11ea-8569-0f6563774e62,63a2c30e-519a-11ea-84f5-2f308e8e4d24
6378575e-519a-11ea-ba5e-1fb15f046b7e,63a2f342-519a-11ea-a0ee-c37af707efa3
63608782-519a-11ea-82a3-77dff526f10d,63a32f88-519a-11ea-9ae9-d3eaf52b743a
63a2a05e-519a-11ea-b50d-63aebae503c3,63a341e4-519a-11ea-9b6f-773833bc3c2c
634650c4-519a-11ea-9ddc-634d8a70a299,63a351b6-519a-11ea-9d51-a79d1c27c92a
63879908-519a-11ea-8ffb-4f88b986f1db,63a3e856-519a-11ea-b2b0-27a131b37c7d
6341dc38-519a-11ea-b453-439bdfd121ca,63a3f95e-519a-11ea-8901-1749b7c097a2
63768942-519a-11ea-8d9c-97bb43e3a6ba,63a40aac-519a-11ea-a4bb-7fd7b75bd3dc
6366534c-519a-11ea-bf53-038eb8c8fbe9,63a41b96-519a-11ea-a922-8b33e67c436a
63416244-519a-11ea-8016-23634305487a,63a4636c-519a-11ea-ba41-1b8cf477c5d5
633aad50-519a-11ea-ace2-67de37d042ef,63a4927e-519a-11ea-bc42-f3289218ba60
63623ae6-519a-11ea-9907-b766b5c2c557,63a4a39a-519a-11ea-b4a1-ebc2478cfb2d
638ca1f0-519a-11ea-b937-7f4b6c242834,63a4bb32-519a-11ea-a8eb-a71bc39a3457
63500a24-519a-11ea-bd1d-5364d5010c65,63a50ee8-519a-11ea-9729-6703929a8136
63630778-519a-11ea-a08d-2325f602b8b9,63a530d0-519a-11ea-bd66-f3307a4f4a1a
63553094-519a-11ea-862f-f36d502e0bc5,63a542fa-519a-11ea-bda7-7b6869f299c2
63a188ae-519a-11ea-8122-f3a2aa86e104,63a55380-519a-11ea-8fea-4fe763fe622a
63a0149c-519a-11ea-ad3a-17e03adb4e11,63a588aa-519a-11ea-aa43-9bb3ae4e7e03
6393b472-519a-11ea-aa77-7fa9dbb73c34,63a5bcee-519a-11ea-aeb1-c3aa55b334f6
6351a690-519a-11ea-885f-0fb227ac74e6,63a622b0-519a-11ea-8578-87a6ac27c55f
63a1dcaa-519a-11ea-a29e-0bbfffda0556,63a65500-519a-11ea-867c-3f4a3a52d4dd
63955598-519a-11ea-8c55-bb4f448d40fb,63a672b0-519a-11ea-9dea-b30b450c8f19
635a6a1e-519a-11ea-b1a9-ebb8143b4a6a,63a69790-519a-11ea-99bc-cbdfa5a7bae6
63912586-519a-11ea-b3bf-636956a85aa0,63a6b180-519a-11ea-9bf9-0774d6c5e750
639b6046-519a-11ea-86e1-3b063f84dbde,63a6ef2e-519a-11ea-8c9c-6f8f7175fc32
6348b3e6-519a-11ea-a250-1ba9e70d6bae,63a70ef0-519a-11ea-9d69-b3e00f77e4bd
633ee3fc-519a-11ea-b8bf-f78dad7cb51c,63a727dc-519a-11ea-a649-63b456270de7
638274d2-519a-11ea-8e31-83db69f7d0d9,63a7818c-519a-11ea-8490-473dabb252b7
6375bbde-519a-11ea-8a74-bbb012d8506e,63a7ae28-519a-11ea-95d2-af08a7113cee
6391c3ba-519a-11ea-ab98-5f9d9c2bc684,63a7bcd8-519a-11ea-ac1f-f3fe3f63a436
638901da-519a-11ea-85d5-032830644238,63a8018e-519a-11ea-8a68-076ae4078562
6363ad18-519a-11ea-a56a-6b11ec9cb897,63a7ec08-519a-11ea-ad88-dbf8cf6cbcb0
633b3d4c-519a-11ea-a1d4-b305ff66c4d5,63a858be-519a-11ea-a4b6-1743c1425ef7
63885eba-519a-11ea-b3d7-df01ef9ab57c,63a8af1c-519a-11ea-9564-2b9e0fb8014e
636e1c30-519a-11ea-b708-d319fdb3025c,63a8cc22-519a-11ea-87cf-67c280164b02
6350da80-519a-11ea-a02d-1be809f88d19,63a8eab8-519a-11ea-8ed4-eb1757424e5f
634b4d86-519a-11ea-947f-2763a4d703ce,63a92c30-519a-11ea-b9d1-cb1d8b119789
6371f648-519a-11ea-a807-97970c0e4106,63a94c4c-519a-11ea-8b87-9f4dcbc126bd
6391775c-519a-11ea-9a21-8f4836217571,63a95c46-519a-11ea-a226-23cd7815720c
6387304e-519a-11ea-8af1-53527594fd7b,63a99a8a-519a-11ea-ae52-876ccd83fabf
637f1fb2-519a-11ea-9358-af7cca2bf13b,63a9cc76-519a-11ea-a2dc-775186b2292e
6387c810-519a-11ea-82c3-f383aaeee091,63a9efa8-519a-11ea-a9da-7f92f0c92baa
637b6944-519a-11ea-b2cc-4ba9ed481eeb,63aa00f6-519a-11ea-a6d6-7f64e8469938
6374b04a-519a-11ea-bb8c-3f0967b06897,63aa3d5a-519a-11ea-85c5-e7cb1b0d7862
6375bbde-519a-11ea-8a74-bbb012d8506e,63aa68e8-519a-11ea-a306-5bc2aed147ee
63585e36-519a-11ea-af94-5326a802895c,63aa8080-519a-11ea-b139-ffcdc504b0fd
636b42ee-519a-11ea-bcba-f7f80f7571bb,63aa987c-519a-11ea-b7dc-bf337f5f6bf8
63a4a39a-519a-11ea-b4a1-ebc2478cfb2d,63ab193c-519a-11ea-9ed8-57a3489ae588
638218c0-519a-11ea-ae12-339b0c696981,63ab3e58-519a-11ea-bced-ef373295e669
63a3f95e-519a-11ea-8901-1749b7c097a2,63ab29ae-519a-11ea-b255-6b7f607c21b0
63670e36-519a-11ea-b1e6-27c1c089082d,63ab4f56-519a-11ea-8f50-f3fe0b011c92
6368e760-519a-11ea-8925-a7b155e260c2,63ab9eac-519a-11ea-a94c-9701b0f07b6e
6342fe9c-519a-11ea-a21d-7f5987c12675,63abf366-519a-11ea-9c39-93907e5a1828
6365a410-519a-11ea-9bb2-d3789c49ea4a,63ac1f9e-519a-11ea-99f3-0771a22e155f
63669b5e-519a-11ea-af2c-871a5bcc8488,63ac322c-519a-11ea-8e1c-0fd7fe001e1e
636ad25a-519a-11ea-ac39-df4b19782f24,63ac467c-519a-11ea-bf1f-2b9800eafaa0
639092b0-519a-11ea-986e-d37567b91df9,63ac870e-519a-11ea-bf8c-d7a8e6bd22fd
639fc460-519a-11ea-83db-d7f1ae5283ba,63acccf0-519a-11ea-a01b-93d241c9d094
63414f48-519a-11ea-8aa6-7741e9601e13,63acde52-519a-11ea-841e-b3a04188fec2
63a1f4d8-519a-11ea-b089-57248486ebe8,63acf888-519a-11ea-abe0-8f06fc47d1f2
6352c7f0-519a-11ea-90a2-6f9139aea2b6,63ad4252-519a-11ea-af75-e348198d5ae8
6344b8fe-519a-11ea-9e9c-3f6289dbce48,63ad9702-519a-11ea-a549-23f47b708bd2
63857de4-519a-11ea-b0d3-c386363ad11d,63ada85a-519a-11ea-aeef-0f7a638cc498
6340b6f0-519a-11ea-bb4e-8b3d9fd1500d,63add1e0-519a-11ea-baef-8b15832083ce
639fd6c6-519a-11ea-8def-4f0b7b6d14e3,63ade36a-519a-11ea-b9f3-8b880c1bf716
6349a936-519a-11ea-b40d-7b78c28c72a1,63ae32ca-519a-11ea-9883-6b44ebd1e9f9
6343ee7e-519a-11ea-876d-b3025254faed,63ae4382-519a-11ea-9025-37cbc579984d
63a4bb32-519a-11ea-a8eb-a71bc39a3457,63ae6a42-519a-11ea-b915-5793b16c2866
633d8854-519a-11ea-a053-0b471a8eac92,63ae9e2c-519a-11ea-8a0b-a76cf1566055
6355ee1c-519a-11ea-b203-9ffb290a6b2c,63aead22-519a-11ea-a8c3-578ba36f4fac
636a7abc-519a-11ea-a4d9-d3e004caa8aa,63af0ede-519a-11ea-b9ee-f7c58cb1feb2
63414f48-519a-11ea-8aa6-7741e9601e13,63af2932-519a-11ea-9c73-9b124cf33c8f
636d63f8-519a-11ea-873a-135237acfc4f,63af3d0a-519a-11ea-aa5f-6b24805a1ef8
633aad50-519a-11ea-ace2-67de37d042ef,63af5c4a-519a-11ea-b3c8-777aa585c1e8
634db0f8-519a-11ea-8d43-3b47f9460037,63afae20-519a-11ea-9518-87a60fa6df07
636edc60-519a-11ea-886f-0f5833ca4291,63afe9d0-519a-11ea-ba62-eb26f0539d80
635460ba-519a-11ea-bcc8-6364e3af8962,63aff998-519a-11ea-8694-5351c02d8a9d
639d5658-519a-11ea-8fb7-03908c69d590,63b03502-519a-11ea-ace5-fbd83e0fec9a
6363415c-519a-11ea-b3d7-4306148d6591,63b05276-519a-11ea-a7ab-e335bb3ad4ee
6343ee7e-519a-11ea-876d-b3025254faed,63b08908-519a-11ea-9ac8-334df24790bd
634206b8-519a-11ea-a230-3714bd8742c6,63b0b324-519a-11ea-a871-df86636dc5cd
637468ec-519a-11ea-a4d5-6762fc2f3f03,63b0fb22-519a-11ea-8db0-3f668c372d1a
636e2f04-519a-11ea-a4b3-5ffb89096ac0,63b11ddc-519a-11ea-845f-cfdd0df02f10
63646870-519a-11ea-becb-7fae31d7669f,63b17e80-519a-11ea-8c04-6740f2f33152
63a99a8a-519a-11ea-ae52-876ccd83fabf,63b16648-519a-11ea-b146-f7b10fc95b1b
6344b8fe-519a-11ea-9e9c-3f6289dbce48,63b1d6fa-519a-11ea-bebe-0bb333ffd829
63787900-519a-11ea-a363-57231888c640,63b2184a-519a-11ea-8e78-9b7021873a70
635de2f2-519a-11ea-8634-8b02b4a3c494,63b24356-519a-11ea-a721-a7fece482f9e
634049c2-519a-11ea-b57f-830d3aede7b3,63b264da-519a-11ea-bce1-2302bbd8ae22
634520a0-519a-11ea-bb70-a7aacdc4fa02,63b29d24-519a-11ea-a740-938545d60514
6384eda2-519a-11ea-973e-efca53e5c835,63b2f7ba-519a-11ea-97c2-dbcb3c4925a5
633e6f08-519a-11ea-b459-43748156fce0,63b3127c-519a-11ea-9de8-5fccbe317ef7
638d98b2-519a-11ea-bc67-7f175f681910,63b34fda-519a-11ea-9136-6722bf9850cf
633e5acc-519a-11ea-941b-df9d1ffaefb0,63b39602-519a-11ea-b528-4f0828020e6d
6364234c-519a-11ea-af2d-870ddf1aa55f,63b3c398-519a-11ea-ae2d-9371bf2d6b28
633deb1e-519a-11ea-8171-2b0acc1a5d78,63b3e288-519a-11ea-8a8b-6ba8c4520aac
63a588aa-519a-11ea-aa43-9bb3ae4e7e03,63b4079a-519a-11ea-8a9c-1b6e67dd4275
636c63d6-519a-11ea-9140-23c922724652,63b439d6-519a-11ea-929b-73b8b52fd171
63698d32-519a-11ea-91c0-ebcdd7aac22e,63b47612-519a-11ea-b976-17d936a9b8c6
63a7818c-519a-11ea-8490-473dabb252b7,63b4e0de-519a-11ea-9ed6-7fd094bd9fab
635c8f42-519a-11ea-9b1e-53ec36d94e79,63b4f90c-519a-11ea-bb49-5fe925062a1c
63af0ede-519a-11ea-b9ee-f7c58cb1feb2,63b50d70-519a-11ea-8aea-97cbc31eaca5
636c3ce4-519a-11ea-93f1-6f9200e18f6e,63b5305c-519a-11ea-b34b-afaaa9df9c15
6393b472-519a-11ea-aa77-7fa9dbb73c34,63b58584-519a-11ea-a549-d3a8c9f2325f
63ab3e58-519a-11ea-bced-ef373295e669,63b5cc42-519a-11ea-851e-5f3bf7a9e9f3
6389cf48-519a-11ea-b819-732278d06932,63b5dcbe-519a-11ea-be96-43334acd0790
63b3127c-519a-11ea-9de8-5fccbe317ef7,63b5f028-519a-11ea-a7c5-ff317bdd774a
633d1f7c-519a-11ea-9fdc-272ad13f8ec6,63b66e86-519a-11ea-9ee4-9f5b33a3f59e
638fb1ec-519a-11ea-b965-2f54e9a9607e,63b67ebc-519a-11ea-867d-c70b86e873bc
63614cf8-519a-11ea-bbb4-97d4d21b8e48,63b68f56-519a-11ea-9fa1-8fb618d2f7de
6364b46a-519a-11ea-b1f9-67a733800a42,63b6c3c2-519a-11ea-98c3-d70714922955
6366ab8a-519a-11ea-b4c3-733d4849ce63,63b734d8-519a-11ea-81d4-f342d8609652
639111cc-519a-11ea-875d-13fa028b55c2,63b7251a-519a-11ea-9016-4f20ef97de9a
6398b45e-519a-11ea-9036-972251620305,63b742e8-519a-11ea-ad7b-9f75f357916b
63710d3c-519a-11ea-b98b-07a001120a7f,63b76ae8-519a-11ea-b329-dfe2f381cc35
639a8f2c-519a-11ea-9a3b-6337e238875d,63b7c588-519a-11ea-aa54-6760f110e868
63623ae6-519a-11ea-9907-b766b5c2c557,63b7d618-519a-11ea-ac8c-5f3724215e16
6355d594-519a-11ea-b32c-cf2a64816a84,63b7f06c-519a-11ea-b442-f31288f78bad
6398b45e-519a-11ea-9036-972251620305,63b80764-519a-11ea-9ceb-2380a7925cff
63a99a8a-519a-11ea-ae52-876ccd83fabf,63b841fc-519a-11ea-a69b-df60635e0b88
63547cc6-519a-11ea-83ec-ab9231d9770f,63b865a6-519a-11ea-a61d-7f4db6ba0b1f
63b5cc42-519a-11ea-851e-5f3bf7a9e9f3,63b87708-519a-11ea-a3ee-3367c29aba0c
6384bcb0-519a-11ea-af22-6b66ee64d905,63b8a3c2-519a-11ea-a9f7-037f564c56e0
63623ae6-519a-11ea-9907-b766b5c2c557,63b8e396-519a-11ea-8e95-e745b79d77f8
639d0dce-519a-11ea-98b1-2b3e5c184b2d,63b8f336-519a-11ea-9c56-1f92f3ba8896
63608782-519a-11ea-82a3-77dff526f10d,63b95574-519a-11ea-8d53-6bd9cb19386a
63812690-519a-11ea-b40f-c379c6596c5d,63b97c20-519a-11ea-b285-ff19ac044f1e
6399e4c8-519a-11ea-bc2a-ff4cb52f3e1b,63b98ae4-519a-11ea-a04a-9f5c0b77f932
63590b06-519a-11ea-82ec-433a27487239,63b99ffc-519a-11ea-bb9c-a33d69326a15
63527552-519a-11ea-8a09-97150a7f579e,63b9f3e4-519a-11ea-9f46-eb6559e9dc49
6373255e-519a-11ea-bdf5-eb9d76a59c60,63ba14aa-519a-11ea-a689-934435b5284b
6359aec6-519a-11ea-b919-4fd73e48f4ec,63ba2c74-519a-11ea-a5d0-b3524707920e
63b9f3e4-519a-11ea-9f46-eb6559e9dc49,63ba3ad4-519a-11ea-b4c4-334a99b30c00
638914ae-519a-11ea-bdda-afa88a03bb3a,63ba7382-519a-11ea-a090-1b123a4ee2fe
634c5c3a-519a-11ea-930a-375d41de86e2,63ba9e84-519a-11ea-b281-2b7dfed843c2
6366ab8a-519a-11ea-b4c3-733d4849ce63,63bad0c0-519a-11ea-ae10-4b56566ea7d7
63829dd6-519a-11ea-b376-dfeb71ecddd0,63bae1be-519a-11ea-bd86-477271689939
63519024-519a-11ea-b084-af5d1341e9a8,63bb35ce-519a-11ea-98b1-8f9162106350
636fc9a4-519a-11ea-8d3c-d368ecb664c2,63bb4e9c-519a-11ea-95bc-c7280f8bc2a4
6382ad94-519a-11ea-8d03-db11869170d8,63bb65d0-519a-11ea-9cb4-db48b1c600c7
63450ae8-519a-11ea-bb68-bb7dc861b718,63bb8cd6-519a-11ea-9bba-ebf972cf530a
63b8f336-519a-11ea-9c56-1f92f3ba8896,63bbb134-519a-11ea-a174-b72f488c3234
63a40aac-519a-11ea-a4bb-7fd7b75bd3dc,63bc1a8e-519a-11ea-9ba2-33d72f7b8236
633d0604-519a-11ea-bf20-2fe42880391d,63bc2a6a-519a-11ea-a6cf-f72800540a0b
63804e28-519a-11ea-b30e-8b116a7a3a74,63bc38ac-519a-11ea-aa3c-5b5f124fd9a2
636d0246-519a-11ea-8740-dbfd08b0cf0d,63bc4a86-519a-11ea-8c53-2b67d2130724
63553094-519a-11ea-862f-f36d502e0bc5,63bcf8be-519a-11ea-8dc5-ab49c826015e
6366dfa6-519a-11ea-89b1-83cf0335da07,63bd0782-519a-11ea-9da9-bb44052afe94
636a2d5a-519a-11ea-8a07-570200e84cd7,63bd1bf0-519a-11ea-87df-47e0aff68e8a
63843560-519a-11ea-9c4b-5ffb6de953ab,63bd2b68-519a-11ea-8856-032f0093630b
63418b66-519a-11ea-8469-d77e87d39f47,63bd9fb2-519a-11ea-b99b-3f2d52ddaf89
63727bcc-519a-11ea-ab8b-27ef203276ce,63bddc98-519a-11ea-a8cb-e735ab0e3aae
63bbb134-519a-11ea-a174-b72f488c3234,63bdce88-519a-11ea-83f3-53f38f801b09
639092b0-519a-11ea-986e-d37567b91df9,63bdedb4-519a-11ea-8c06-bb91d10111f4
634520a0-519a-11ea-bb70-a7aacdc4fa02,63be2950-519a-11ea-af15-ef20358762a2
633d0604-519a-11ea-bf20-2fe42880391d,63be69ba-519a-11ea-978e-afa384d9501d
63414f48-519a-11ea-8aa6-7741e9601e13,63be7806-519a-11ea-b74c-e7cfd95ee852
63829dd6-519a-11ea-b376-dfeb71ecddd0,63be8ac6-519a-11ea-9e75-b3431ed7e7a2
635dc876-519a-11ea-a473-5b45e324bce0,63bec752-519a-11ea-8f9f-07a5e4bbd07f
63990ac6-519a-11ea-b6d3-9b31d860f703,63bf06b8-519a-11ea-96d7-8f16d297e637
6378958e-519a-11ea-84e6-6f52ddd645a6,63bf1e5a-519a-11ea-a039-2b5a6f2ef187
63569a60-519a-11ea-9cf2-cbea16c960e5,63bf619e-519a-11ea-a627-a73be10cd31d
634ccf80-519a-11ea-a459-6b8bad0cb762,63bf760c-519a-11ea-b934-2f4f471f49ab
63806a8e-519a-11ea-bfbc-8b5133099a60,63bf9696-519a-11ea-a8d8-bf0e8c447f3a
638d0cbc-519a-11ea-aba0-c7286dcc5262,63bfb59a-519a-11ea-94dd-9707d027cc1c
635de2f2-519a-11ea-8634-8b02b4a3c494,63bffd0c-519a-11ea-ad48-0b4e1b6d7923
63ad9702-519a-11ea-a549-23f47b708bd2,63c01954-519a-11ea-99df-57bdb04a5b45
63ab193c-519a-11ea-9ed8-57a3489ae588,63c00d1a-519a-11ea-abb7-dfe7382a3441
638b15ce-519a-11ea-88cb-1fca79fd2aa7,63c06210-519a-11ea-a2ad-1b26a7833bce
63b8a3c2-519a-11ea-a9f7-037f564c56e0,63c07fe8-519a-11ea-9b04-e7f8366c64cc
639db5b2-519a-11ea-823c-4f4ea196ee10,63c0a568-519a-11ea-b619-0f52a3e3a2a2
637fef64-519a-11ea-8ba2-27c236f4e079,63c0f568-519a-11ea-80b7-af5594e0b909
63af2932-519a-11ea-9c73-9b124cf33c8f,63c105b2-519a-11ea-a89f-0b9009ac0189
6373eaa2-519a-11ea-b13b-cb7e4c694948,63c146e4-519a-11ea-8639-17edd68348a6
637932dc-519a-11ea-8c7e-238c83cfc2b9,63c15d14-519a-11ea-bcb3-331bf0b51ad3
63a99a8a-519a-11ea-ae52-876ccd83fabf,63c16e44-519a-11ea-bbc0-33ecda301c34
637bdce4-519a-11ea-8a6a-5b7b208fdf73,63c1e7ac-519a-11ea-ad33-a3030bf0fa7a
63982ef8-519a-11ea-9149-f321924b0617,63c1fd50-519a-11ea-816c-4b61b3ec796b
633d8854-519a-11ea-a053-0b471a8eac92,63c20cbe-519a-11ea-8bb1-63cff3b8d7a2
639e03b4-519a-11ea-b413-53c77af65d6d,63c21c2c-519a-11ea-b300-c75a597e0ac7
6362056c-519a-11ea-8c1c-dfb363ca86ac,63c26cea-519a-11ea-9f1d-6ba96738caab
63a7ec08-519a-11ea-ad88-dbf8cf6cbcb0,63c29ddc-519a-11ea-a645-37219ebe2452
63879908-519a-11ea-8ffb-4f88b986f1db,63c2ad90-519a-11ea-bb57-1faa0cd705ed
633ee3fc-519a-11ea-b8bf-f78dad7cb51c,63c2e92c-519a-11ea-a2db-9faa9f50bba8
636e2f04-519a-11ea-a4b3-5ffb89096ac0,63c30a6a-519a-11ea-aec0-03f4536787e2
639e123c-519a-11ea-b86e-d320b4d0f22d,63c38742-519a-11ea-9a02-5bda2552cc80
63709aaa-519a-11ea-b1b6-4bcdf842522c,63c39c5a-519a-11ea-85da-dffc6257f4ed
63b734d8-519a-11ea-81d4-f342d8609652,63c3ab0a-519a-11ea-812b-dfcac4aab510
635f75d6-519a-11ea-adf4-47603170b7b8,63c3b9d8-519a-11ea-8c06-7b0b17fffeb0
6386baba-519a-11ea-93d8-ff68255f20f5,63c419be-519a-11ea-98ef-8f0e278988f4
634c5c3a-519a-11ea-930a-375d41de86e2,63c433fe-519a-11ea-a732-672397542387
633fa3b4-519a-11ea-b197-ef06f44edca7,63c44510-519a-11ea-b216-47d0203ea5b8
6366dfa6-519a-11ea-89b1-83cf0335da07,63c454c4-519a-11ea-b5f7-77d525b63b29
633fc420-519a-11ea-9f91-5396b0e8a1cd,63c4b004-519a-11ea-812d-975c3bd3f633
6339fa7c-519a-11ea-97de-6b1cf26b5427,63c4ce0e-519a-11ea-bf7f-1bd7cefc3a9d
6349ce5c-519a-11ea-963f-c37d50dafda2,63c52656-519a-11ea-9ec1-e38d798a05b0
63a6b180-519a-11ea-9bf9-0774d6c5e750,63c543c0-519a-11ea-9a54-bf68110d0486
637cdde2-519a-11ea-af22-cf23532e456c,63c56238-519a-11ea-8a57-d3e79e6c48ce
63692dba-519a-11ea-871d-3ff57bb8ed9d,63c58ce0-519a-11ea-b41b-c71456e7cba8
63c419be-519a-11ea-98ef-8f0e278988f4,63c5c598-519a-11ea-9668-4b2e1ee3d599
63b734d8-519a-11ea-81d4-f342d8609652,63c5e898-519a-11ea-a907-4f06a4eec327
63af2932-519a-11ea-9c73-9b124cf33c8f,63c5f806-519a-11ea-84b1-570ae334b39c
636fc9a4-519a-11ea-8d3c-d368ecb664c2,63c61e30-519a-11ea-9410-138accaf3586
63acf888-519a-11ea-abe0-8f06fc47d1f2,63c67510-519a-11ea-ab8e-b36ceddb7946
636d63f8-519a-11ea-873a-135237acfc4f,63c68406-519a-11ea-b1f8-0306c5ca03e2
6377e4fe-519a-11ea-8846-1fdde93a91f2,63c6b35e-519a-11ea-8ca4-930be78aa550
63443168-519a-11ea-b770-0b104cc32864,63c6d636-519a-11ea-a0d1-a7610ded66a1
63c21c2c-519a-11ea-b300-c75a597e0ac7,63c6e748-519a-11ea-becf-9fad1eebe617
638630f4-519a-11ea-aec3-e39f727f7cf2,63c72668-519a-11ea-9b5c-8b0a4b615d69
635bb59a-519a-11ea-abf6-6f5e3d3398e9,63c77776-519a-11ea-8ad3-43c23ec95159
635bcbca-519a-11ea-81a3-430ccefbe822,63c78e78-519a-11ea-81aa-f748db498cf8
63649be2-519a-11ea-8e53-9b11d58007ed,63c79e36-519a-11ea-aebf-7395762ce564
638da942-519a-11ea-867d-ebbbc4912f45,63c7c85c-519a-11ea-bd1a-6be2d6ced0a7
638d0cbc-519a-11ea-aba0-c7286dcc5262,63c82ffe-519a-11ea-b66d-43116f80b8ac
63b58584-519a-11ea-a549-d3a8c9f2325f,63c84750-519a-11ea-9835-2bc006b0489a
6391c3ba-519a-11ea-ab98-5f9d9c2bc684,63c85d62-519a-11ea-9b52-fb7a6d43c73a
6347bbee-519a-11ea-812b-bb929d527f6e,63c86e92-519a-11ea-98db-5f785109cd48
63b3c398-519a-11ea-ae2d-9371bf2d6b28,63c8d5a8-519a-11ea-bd01-370a83043ae8
63612c82-519a-11ea-8569-0f6563774e62,63c8ec64-519a-11ea-b3ce-f3c38ef46496
638c8f30-519a-11ea-a5a9-1f7b87cbae2d,63c8fb5a-519a-11ea-b319-abeb2837b773
63c01954-519a-11ea-99df-57bdb04a5b45,63c90abe-519a-11ea-a37e-2fd80b25a21a
63a1f4d8-519a-11ea-b089-57248486ebe8,63c956cc-519a-11ea-ad8f-c72a312005c3
6393f6b2-519a-11ea-b478-9b9c62cff277,63c98354-519a-11ea-8e34-e3041ae0c9d8
63394ce4-519a-11ea-844a-47dc5181824f,63c99826-519a-11ea-b52e-97f05f6459f3
63c29ddc-519a-11ea-a645-37219ebe2452,63c9c670-519a-11ea-acac-f3dfce33787e
63c6e748-519a-11ea-becf-9fad1eebe617,63ca3240-519a-11ea-937b-df1ba399400a
63774eea-519a-11ea-992a-03fa86d48fc4,63ca45a0-519a-11ea-b38f-47ca3a725bec
63b2f7ba-519a-11ea-97c2-dbcb3c4925a5,63ca566c-519a-11ea-abd4-73a67a476da9
634d8e70-519a-11ea-b31c-5bd866b7991b,63ca76a6-519a-11ea-9c02-07a9b54ab780
63768942-519a-11ea-8d9c-97bb43e3a6ba,63caa446-519a-11ea-ba9e-a38ce0d7d864
634fcb2c-519a-11ea-ab06-efa1d0fcd2bf,63cad4e8-519a-11ea-bfc3-73bafc653c45
63590b06-519a-11ea-82ec-433a27487239,63caff40-519a-11ea-aa1a-3ff8ca979a19
63b50d70-519a-11ea-8aea-97cbc31eaca5,63cb3096-519a-11ea-a524-1f797fcdd151
637f8826-519a-11ea-b949-d7533a98693b,63cb7aec-519a-11ea-b181-a304532ad696
63892818-519a-11ea-9abe-a39598245104,63cb92c0-519a-11ea-a8b6-3bf9ddb64608
637468ec-519a-11ea-a4d5-6762fc2f3f03,63cba300-519a-11ea-b697-03d0bda3ff83
63b841fc-519a-11ea-a69b-df60635e0b88,63cbdf46-519a-11ea-834f-7f713eb7dd95
635f75d6-519a-11ea-adf4-47603170b7b8,63cc2988-519a-11ea-8031-83e2971b1d01
63b7d618-519a-11ea-ac8c-5f3724215e16,63cc3ebe-519a-11ea-ba03-374b350e1b9d
6383f28a-519a-11ea-a25f-437ad1f2811d,63cc4ea4-519a-11ea-b749-dfbfb3ca0364
63443168-519a-11ea-b770-0b104cc32864,63cc82b6-519a-11ea-8e78-f3c8282f320b
6363ad18-519a-11ea-a56a-6b11ec9cb897,63ccdcfc-519a-11ea-819c-a3f0489745d9
633a9e3c-519a-11ea-ba8d-57d205cbe1e2,63ccf142-519a-11ea-96ad-8bdd109a7750
63861b96-519a-11ea-8bad-077fe86fdac2,63cd0006-519a-11ea-aa17-e36e76c11206
633f0e90-519a-11ea-9578-2744435de933,63cd6d5c-519a-11ea-8941-e30023e1f756
635b01ea-519a-11ea-ae72-bfcf80318ac9,63cd8206-519a-11ea-82d2-3b89cf9bb702
635bcbca-519a-11ea-81a3-430ccefbe822,63cd91f6-519a-11ea-af6c-1f35662c9f1b
639cba54-519a-11ea-bc2f-b3cd623ee9cd,63cda1d2-519a-11ea-9405-b30d5b7a9be9
63acccf0-519a-11ea-a01b-93d241c9d094,63ce1f5e-519a-11ea-a6c8-3b2268c83854
63c07fe8-519a-11ea-9b04-e7f8366c64cc,63ce6ca2-519a-11ea-b12a-47a0a819fe00
63443168-519a-11ea-b770-0b104cc32864,63ce8340-519a-11ea-a938-cf762776b0bd
63551cc6-519a-11ea-b2da-4f2db5bf79c3,63ce90f6-519a-11ea-b682-3f1726299f8e
63443168-519a-11ea-b770-0b104cc32864,63cef2c6-519a-11ea-b47b-5b89bf19181e
63584702-519a-11ea-8ff2-9f49b0c0417f,63cf0f7c-519a-11ea-94a7-5790b8a4f520
6362f3d2-519a-11ea-a4d4-a723d8ef80eb,63cf2660-519a-11ea-b44c-9707411fe897
636be42e-519a-11ea-980f-ebc395a9e685,63cf5c20-519a-11ea-aea4-4f2848b06312
63912586-519a-11ea-b3bf-636956a85aa0,63cfa216-519a-11ea-af3e-67032472b25e
63abf366-519a-11ea-9c39-93907e5a1828,63cfb1ca-519a-11ea-b69a-a36a1f6caed9
6366ab8a-519a-11ea-b4c3-733d4849ce63,63cfbf8a-519a-11ea-a6a3-6f0453e6ba5e
636bc980-519a-11ea-a9c1-5f3343377204,63d0355a-519a-11ea-8bcd-9b1fab053b44
638901da-519a-11ea-85d5-032830644238,63d04540-519a-11ea-9aa7-6f38c8dd5f37
63bc4a86-519a-11ea-8c53-2b67d2130724,63d056ca-519a-11ea-b42d-8f78b2dd9766
63a26f44-519a-11ea-94e9-5fb84de0b025,63d0838e-519a-11ea-9230-f38bc9f9a353
638218c0-519a-11ea-ae12-339b0c696981,63d0d8ca-519a-11ea-a26d-438c69ce95c9
639bc90a-519a-11ea-95d0-b38ca6f0aee5,63d0f558-519a-11ea-9673-67c6d1979bf9
636ad25a-519a-11ea-ac39-df4b19782f24,63d10d04-519a-11ea-8c1a-33a614543122
6354c082-519a-11ea-9685-d76a94dd782e,63d11d3a-519a-11ea-b7c8-778279ccff0d
6361ea8c-519a-11ea-9237-b7b6a3b132bd,63d164fc-519a-11ea-85f8-c77817af7bfb
637d3030-519a-11ea-9a22-9346958d0fe7,63d1723a-519a-11ea-8d5b-f723da85fad9
63551cc6-519a-11ea-b2da-4f2db5bf79c3,63d1a714-519a-11ea-bc48-772f03f0ca55
63c7c85c-519a-11ea-bd1a-6be2d6ced0a7,63d1c366-519a-11ea-b41b-7f57dfaaa6a6
633a6232-519a-11ea-9aac-770e68304527,63d1ef4e-519a-11ea-9706-7bbef494c733
63b3c398-519a-11ea-ae2d-9371bf2d6b28,63d222fc-519a-11ea-894c-3fe22b4a8867
6372c226-519a-11ea-b9f8-bbf36b064f32,63d24f3e-519a-11ea-9daa-bfbb437bbfa3
6386a2d2-519a-11ea-8020-df46db3530c2,63d267d0-519a-11ea-bd0f-dfc7b705b8d7
63b7251a-519a-11ea-9016-4f20ef97de9a,63d28044-519a-11ea-8dff-a34eb4039b05
634206b8-519a-11ea-a230-3714bd8742c6,63d2a4ac-519a-11ea-9e04-df02028e5e70
63ce8340-519a-11ea-a938-cf762776b0bd,63d3099c-519a-11ea-bb4b-df338e0d87c3
634ad734-519a-11ea-b223-e398d98a2578,63d31afe-519a-11ea-a4aa-2b939e39ec75
63c82ffe-519a-11ea-b66d-43116f80b8ac,63d32b7a-519a-11ea-ad60-b3686566776a
636a2d5a-519a-11ea-8a07-570200e84cd7,63d34268-519a-11ea-b53b-7b0a828dfe8f
638095b8-519a-11ea-8a3b-db33f2326f99,63d3b3a6-519a-11ea-9dba-d30b26bf6913
63903608-519a-11ea-8770-7f87c71275ab,63d3c382-519a-11ea-8ae0-3f43cbb74d18
63a25c3e-519a-11ea-b22b-9f67ef266ec7,63d3d66a-519a-11ea-a4a2-e35f846bf8d7
63b17e80-519a-11ea-8c04-6740f2f33152,63d40432-519a-11ea-b6e5-c747cd45b13d
63c5f806-519a-11ea-84b1-570ae334b39c,63d4271e-519a-11ea-9690-dffafb9ddc50
63b47612-519a-11ea-b976-17d936a9b8c6,63d475d4-519a-11ea-b819-ef06fcc222a6
63649be2-519a-11ea-8e53-9b11d58007ed,63d494ec-519a-11ea-b8cb-6b9efa1fa71c
633d5f1e-519a-11ea-9910-130d46f80716,63d4b184-519a-11ea-9a90-ab2b30853f73
633d0604-519a-11ea-bf20-2fe42880391d,63d4d07e-519a-11ea-83df-1799835c54cf
63ba7382-519a-11ea-a090-1b123a4ee2fe,63d50c10-519a-11ea-bb62-1f0cbaa85b41
633f4ae0-519a-11ea-baac-9b85ce6e6252,63d557e2-519a-11ea-bb0e-87a0892f224d
636ae9ca-519a-11ea-9cd9-3f969ff2b9c7,63d56908-519a-11ea-8f1c-6b80dc3c8b3b
634049c2-519a-11ea-b57f-830d3aede7b3,63d585aa-519a-11ea-a697-4b19259ed341
634cf42e-519a-11ea-8851-d766d46a69e8,63d59694-519a-11ea-bad8-dfd185af968b
63a8af1c-519a-11ea-9564-2b9e0fb8014e,63d5f382-519a-11ea-b315-1b00411b6c9d
633e122e-519a-11ea-b0cd-ebe1ef41edbb,63d61ec0-519a-11ea-9d44-675836c1dec8
63b95574-519a-11ea-8d53-6bd9cb19386a,63d65606-519a-11ea-a2c4-731d15359d28
63715cba-519a-11ea-ab1a-978a289b71da,63d66826-519a-11ea-82ee-eb486656a512
63992128-519a-11ea-a1da-8bb937041e8b,63d6c1ea-519a-11ea-a6b7-a7c56ba0f06f
635d9234-519a-11ea-a01d-f720d9e614b3,63d704a2-519a-11ea-85b6-970b98adee52
63cef2c6-519a-11ea-b47b-5b89bf19181e,63d7156e-519a-11ea-ad2e-df19c58b2648
636bc980-519a-11ea-a9c1-5f3343377204,63d72554-519a-11ea-9044-57bb554b50ca
63c3ab0a-519a-11ea-812b-dfcac4aab510,63d769ec-519a-11ea-b131-bf0bf6aef661
6399f3c8-519a-11ea-840b-d34f2928d1c7,63d77d92-519a-11ea-bce9-5f7d7af75916
63ae6a42-519a-11ea-b915-5793b16c2866,63d7b1d6-519a-11ea-bd14-7f49cdebe5fc
63b264da-519a-11ea-bce1-2302bbd8ae22,63d7c694-519a-11ea-8e20-4b127d89c9af
63a542fa-519a-11ea-bda7-7b6869f299c2,63d833c2-519a-11ea-87fc-57f68e7f3ad8
6369b136-519a-11ea-b87b-f75079e5a58a,63d848a8-519a-11ea-b16d-63fcab8391cf
63b05276-519a-11ea-a7ab-e335bb3ad4ee,63d86a04-519a-11ea-b646-3782ff8238f1
635ca3ce-519a-11ea-a3b8-8f6f12c39f84,63d88462-519a-11ea-9a22-5bc1ccd46782
636c63d6-519a-11ea-9140-23c922724652,63d8f2d0-519a-11ea-aef3-931d8a6d94df
637c89b4-519a-11ea-9d1c-f3644bca9714,63d91de6-519a-11ea-ad36-b3ccd4d609d0
63b0fb22-519a-11ea-8db0-3f668c372d1a,63d92ee4-519a-11ea-9262-2bb15d7d6302
633f39c4-519a-11ea-9456-a720acb5f78c,63d940e6-519a-11ea-bd48-cf6dce9d3737
637e672a-519a-11ea-a578-1704eb3f6bc1,63d97958-519a-11ea-b71a-53f96acdba81
638c4a5c-519a-11ea-bb19-23e55a9e350a,63d9dd08-519a-11ea-a649-7765e5351397
638630f4-519a-11ea-aec3-e39f727f7cf2,63d9f78e-519a-11ea-996b-eb9bc895d26b
634c24ae-519a-11ea-883b-bba6cf4d1405,63da0fc6-519a-11ea-b28c-6ba8173378ab
635a31de-519a-11ea-89bd-af86e76778bb,63da1ea8-519a-11ea-a600-ab51e0069518
63437da4-519a-11ea-8c50-93e737d2c49c,63da8140-519a-11ea-b407-eb5f05de2acb
63a0db7a-519a-11ea-843a-871a1cf4d99c,63da98b0-519a-11ea-9436-9b2ba2f28983
6395e5f8-519a-11ea-9b85-4b7af535be56,63daa922-519a-11ea-acae-175cd8091daf
63920d52-519a-11ea-a117-cfbd74c40994,63daeaa4-519a-11ea-9bb9-936ada353c11
63bd1bf0-519a-11ea-87df-47e0aff68e8a,63db1ae2-519a-11ea-b6f4-431eb9df702e
63884af6-519a-11ea-8ada-57257f29d03a,63db6132-519a-11ea-9a5d-77dec12fd21e
63c2ad90-519a-11ea-bb57-1faa0cd705ed,63db7050-519a-11ea-9335-5f8664a5de1c
637342be-519a-11ea-87cc-e34049bfcd17,63db9c06-519a-11ea-9265-0722ef2d6803
63c4ce0e-519a-11ea-bf7f-1bd7cefc3a9d,63dbbd8a-519a-11ea-b3ea-674b64604958
63829dd6-519a-11ea-b376-dfeb71ecddd0,63dc02cc-519a-11ea-bd91-4f1e4bb2c3fc
63bc2a6a-519a-11ea-a6cf-f72800540a0b,63dc129e-519a-11ea-9b51-63d17976d201
6364234c-519a-11ea-af2d-870ddf1aa55f,63dc287e-519a-11ea-a26f-5741575061b0
63ab3e58-519a-11ea-bced-ef373295e669,63dc4d04-519a-11ea-b2ff-ffb6c71ead47
6361bc7e-519a-11ea-9ef4-0f692c16888c,63dcaf7e-519a-11ea-bddb-cff01d474f69
63d0d8ca-519a-11ea-a26d-438c69ce95c9,63dcbea6-519a-11ea-b75c-5b166660dd66
63622376-519a-11ea-b978-e75743cda5db,63dcce3c-519a-11ea-9c1a-ff5533431691
63a078a6-519a-11ea-9548-6b630b449b74,63dcface-519a-11ea-92ba-cfec6487690d
63858ad2-519a-11ea-b05b-7b2dde9af692,63dd4efc-519a-11ea-a65b-130e1cfab1d6
639111cc-519a-11ea-875d-13fa028b55c2,63dd7224-519a-11ea-8ba2-67d9f70ae751
63d704a2-519a-11ea-85b6-970b98adee52,63dd945c-519a-11ea-b95c-274e6c63c5d3
6355b924-519a-11ea-b08a-e3f96689d104,63dda3de-519a-11ea-9ba9-f71f0eed5bc8
6387a7b8-519a-11ea-a0e3-93432ea64eeb,63de00e0-519a-11ea-a4e6-0f211d31eb42
637e672a-519a-11ea-a578-1704eb3f6bc1,63de2d22-519a-11ea-8d17-87c9aafc16dc
63970a82-519a-11ea-9e7b-9beac8536adf,63de142c-519a-11ea-bb2e-9fb6bad3e186
63b4f90c-519a-11ea-bb49-5fe925062a1c,63de3e20-519a-11ea-a39b-dfe40a075d0c
63571f12-519a-11ea-8677-fbbef76729e6,63de8844-519a-11ea-b367-734878c52f8a
63ba9e84-519a-11ea-b281-2b7dfed843c2,63deb210-519a-11ea-97f5-032329cfb093
63549e90-519a-11ea-9045-eb468b89e478,63df08fa-519a-11ea-a410-4770131b3ca7
636a1054-519a-11ea-8bbb-cf0c713cc0e5,63df1d22-519a-11ea-8b23-33ad2f2e671f
63bdce88-519a-11ea-83f3-53f38f801b09,63df2e84-519a-11ea-8982-8f65de34ffa3
63d3c382-519a-11ea-8ae0-3f43cbb74d18,63df4f90-519a-11ea-a317-0b7f8ea47015
63553094-519a-11ea-862f-f36d502e0bc5,63dfbc64-519a-11ea-b15f-bb8ea9df5944
63afe9d0-519a-11ea-ba62-eb26f0539d80,63dfcd8a-519a-11ea-8261-37a7666647e9
63b9f3e4-519a-11ea-9f46-eb6559e9dc49,63dff8fa-519a-11ea-97c0-5fc8d9b23e74
6353766e-519a-11ea-b84b-fff495299f26,63e008e0-519a-11ea-8a5d-ab4669470576
63c146e4-519a-11ea-8639-17edd68348a6,63e06236-519a-11ea-8532-a3e3d75b9dce
637d3030-519a-11ea-9a22-9346958d0fe7,63e07564-519a-11ea-bd84-c38fc7edc36e
63596614-519a-11ea-aa0f-e722f74f04f2,63e08414-519a-11ea-b61b-d7dc3bbba1b4
63a04962-519a-11ea-ba70-a732b50d3f8b,63e0981e-519a-11ea-ba3f-9f7941447cb3
63c9c670-519a-11ea-acac-f3dfce33787e,63e0fd90-519a-11ea-9779-97af52696265
6389cf48-519a-11ea-b819-732278d06932,63e10cb8-519a-11ea-96eb-ebe8274c9856
63e07564-519a-11ea-bd84-c38fc7edc36e,63e11be0-519a-11ea-9781-9325d99c3dbe
63688f4a-519a-11ea-a941-67f67d0c7d94,63e129aa-519a-11ea-b18e-5f2399265be4
63c58ce0-519a-11ea-b41b-c71456e7cba8,63e1999e-519a-11ea-b27f-eb05efa27b97
63acde52-519a-11ea-841e-b3a04188fec2,63e1aa7e-519a-11ea-943d-9f95e21994cf
63787900-519a-11ea-a363-57231888c640,63e1c072-519a-11ea-92c2-a7dcc2246c31
6370c6c4-519a-11ea-bb61-af1d742ff4c4,63e1cefa-519a-11ea-bb76-2f0b4a41707c
63aa68e8-519a-11ea-a306-5bc2aed147ee,63e21bd0-519a-11ea-a4b4-cbce1d5faa99
639d0dce-519a-11ea-98b1-2b3e5c184b2d,63e24d58-519a-11ea-9379-d3d1a5f8de31
63582b64-519a-11ea-adc9-cfe55241b4ed,63e25cc6-519a-11ea-a9b3-8b49181841ee
635b1914-519a-11ea-9ba8-c776e2d3022c,63e29e84-519a-11ea-8548-7367fa390ad9
63d4b184-519a-11ea-9a90-ab2b30853f73,63e2df52-519a-11ea-91cc-73e63ee7990d
63448438-519a-11ea-90a6-df7c94c80254,63e2f262-519a-11ea-b017-4bf87488f587
63a2f342-519a-11ea-a0ee-c37af707efa3,63e303d8-519a-11ea-b577-73bd8f13a6e9
63d848a8-519a-11ea-b16d-63fcab8391cf,63e3525c-519a-11ea-b8c7-0bf7abf8dd21
63c105b2-519a-11ea-a89f-0b9009ac0189,63e37e30-519a-11ea-a443-13b9014fa5ba
63da8140-519a-11ea-b407-eb5f05de2acb,63e3bf8a-519a-11ea-9f9a-7fa0680eb96e
63c67510-519a-11ea-ab8e-b36ceddb7946,63e3e8d4-519a-11ea-9959-c36e9679c431
63c39c5a-519a-11ea-85da-dffc6257f4ed,63e406de-519a-11ea-a360-7b6a969fc1bc
63416244-519a-11ea-8016-23634305487a,63e417a0-519a-11ea-ac97-4f7ecf5fb4a5
63956538-519a-11ea-b27f-dfb310fff690,63e4759c-519a-11ea-9340-1bdcff13950e
638e1602-519a-11ea-b3ad-0f90887b5f6f,63e48690-519a-11ea-85f7-6b169eaceb6d
63c8fb5a-519a-11ea-b319-abeb2837b773,63e4a814-519a-11ea-833a-ab8436e2d02a
63519024-519a-11ea-b084-af5d1341e9a8,63e50f8e-519a-11ea-8ff0-f3647b567bb2
63b5dcbe-519a-11ea-be96-43334acd0790,63e51f24-519a-11ea-9b5e-230ae22ba897
633a9e3c-519a-11ea-ba8d-57d205cbe1e2,63e5339c-519a-11ea-8034-bb96d60ca2a9
63d7c694-519a-11ea-8e20-4b127d89c9af,63e5539a-519a-11ea-a015-43eb9609d25b
63af3d0a-519a-11ea-aa5f-6b24805a1ef8,63e5bf7e-519a-11ea-9918-7bc903d57c08
63c6b35e-519a-11ea-8ca4-930be78aa550,63e5e364-519a-11ea-a225-7bf987e7c48d
635bdd36-519a-11ea-8dcd-73408ec068dc,63e60c68-519a-11ea-9aaa-5b271bf89dbd
63960380-519a-11ea-9638-1bea7d4f9c60,63e61e9c-519a-11ea-a4d7-3fc837b45db7
6350f600-519a-11ea-a20a-4704f779c3fa,63e66d02-519a-11ea-9dbb-b78a85215331
63c6e748-519a-11ea-becf-9fad1eebe617,63e67e0a-519a-11ea-8a7b-279b7c25550f
63ae4382-519a-11ea-9025-37cbc579984d,63e6ab3c-519a-11ea-8ccd-fb727c670fea
63a0149c-519a-11ea-ad3a-17e03adb4e11,63e6bb90-519a-11ea-b222-ff94ecdef1b3
