RunID,Tick,ActiveAgentsPerTick
run-2020-2-17-18-28-0.280755996,0,14
run-2020-2-17-18-28-0.280755996,1,15
run-2020-2-17-18-28-0.280755996,2,17
run-2020-2-17-18-28-0.280755996,3,16
run-2020-2-17-18-28-0.280755996,4,17
run-2020-2-17-18-28-0.280755996,5,17
run-2020-2-17-18-28-0.280755996,6,18
run-2020-2-17-18-28-0.280755996,7,18
run-2020-2-17-18-28-0.280755996,8,21
run-2020-2-17-18-28-0.280755996,9,26
run-2020-2-17-18-28-0.280755996,10,27
run-2020-2-17-18-28-0.280755996,11,31
run-2020-2-17-18-28-0.280755996,12,33
run-2020-2-17-18-28-0.280755996,13,29
run-2020-2-17-18-28-0.280755996,14,36
run-2020-2-17-18-28-0.280755996,15,36
run-2020-2-17-18-28-0.280755996,16,38
run-2020-2-17-18-28-0.280755996,17,42
run-2020-2-17-18-28-0.280755996,18,41
run-2020-2-17-18-28-0.280755996,19,39
run-2020-2-17-18-28-0.280755996,20,35
run-2020-2-17-18-28-0.280755996,21,39
run-2020-2-17-18-28-0.280755996,22,38
run-2020-2-17-18-28-0.280755996,23,38
run-2020-2-17-18-28-0.280755996,24,42
run-2020-2-17-18-28-0.280755996,25,41
run-2020-2-17-18-28-0.280755996,26,45
run-2020-2-17-18-28-0.280755996,27,51
run-2020-2-17-18-28-0.280755996,28,51
run-2020-2-17-18-28-0.280755996,29,52
run-2020-2-17-18-28-0.280755996,30,56
run-2020-2-17-18-28-0.280755996,31,55
run-2020-2-17-18-28-0.280755996,32,54
run-2020-2-17-18-28-0.280755996,33,58
run-2020-2-17-18-28-0.280755996,34,59
run-2020-2-17-18-28-0.280755996,35,61
run-2020-2-17-18-28-0.280755996,36,60
run-2020-2-17-18-28-0.280755996,37,61
run-2020-2-17-18-28-0.280755996,38,67
run-2020-2-17-18-28-0.280755996,39,63
run-2020-2-17-18-28-0.280755996,40,63
run-2020-2-17-18-28-0.280755996,41,62
run-2020-2-17-18-28-0.280755996,42,65
run-2020-2-17-18-28-0.280755996,43,67
run-2020-2-17-18-28-0.280755996,44,67
run-2020-2-17-18-28-0.280755996,45,69
run-2020-2-17-18-28-0.280755996,46,68
run-2020-2-17-18-28-0.280755996,47,64
run-2020-2-17-18-28-0.280755996,48,60
run-2020-2-17-18-28-0.280755996,49,57
run-2020-2-17-18-28-0.280755996,50,55
run-2020-2-17-18-28-0.280755996,51,57
run-2020-2-17-18-28-0.280755996,52,61
run-2020-2-17-18-28-0.280755996,53,55
run-2020-2-17-18-28-0.280755996,54,57
run-2020-2-17-18-28-0.280755996,55,63
run-2020-2-17-18-28-0.280755996,56,62
run-2020-2-17-18-28-0.280755996,57,63
run-2020-2-17-18-28-0.280755996,58,64
run-2020-2-17-18-28-0.280755996,59,68
run-2020-2-17-18-28-0.280755996,60,67
run-2020-2-17-18-28-0.280755996,61,64
run-2020-2-17-18-28-0.280755996,62,64
run-2020-2-17-18-28-0.280755996,63,61
run-2020-2-17-18-28-0.280755996,64,57
run-2020-2-17-18-28-0.280755996,65,57
run-2020-2-17-18-28-0.280755996,66,55
run-2020-2-17-18-28-0.280755996,67,52
run-2020-2-17-18-28-0.280755996,68,54
run-2020-2-17-18-28-0.280755996,69,56
run-2020-2-17-18-28-0.280755996,70,56
run-2020-2-17-18-28-0.280755996,71,52
run-2020-2-17-18-28-0.280755996,72,55
run-2020-2-17-18-28-0.280755996,73,55
run-2020-2-17-18-28-0.280755996,74,49
run-2020-2-17-18-28-0.280755996,75,49
run-2020-2-17-18-28-0.280755996,76,47
run-2020-2-17-18-28-0.280755996,77,54
run-2020-2-17-18-28-0.280755996,78,53
run-2020-2-17-18-28-0.280755996,79,57
run-2020-2-17-18-28-0.280755996,80,57
run-2020-2-17-18-28-0.280755996,81,56
run-2020-2-17-18-28-0.280755996,82,55
run-2020-2-17-18-28-0.280755996,83,57
run-2020-2-17-18-28-0.280755996,84,61
run-2020-2-17-18-28-0.280755996,85,65
run-2020-2-17-18-28-0.280755996,86,64
run-2020-2-17-18-28-0.280755996,87,67
run-2020-2-17-18-28-0.280755996,88,69
run-2020-2-17-18-28-0.280755996,89,67
run-2020-2-17-18-28-0.280755996,90,62
run-2020-2-17-18-28-0.280755996,91,58
run-2020-2-17-18-28-0.280755996,92,60
run-2020-2-17-18-28-0.280755996,93,60
run-2020-2-17-18-28-0.280755996,94,63
run-2020-2-17-18-28-0.280755996,95,66
run-2020-2-17-18-28-0.280755996,96,65
run-2020-2-17-18-28-0.280755996,97,64
run-2020-2-17-18-28-0.280755996,98,63
run-2020-2-17-18-28-0.280755996,99,67
run-2020-2-17-18-28-0.280755996,100,64
