RunID,Tick,AllAgents,Active,Inactive
run-2020-2-29-9-27-26.288428306,0,11,9,2
run-2020-2-29-9-27-26.288428306,1,11,3,8
run-2020-2-29-9-27-26.288428306,2,14,5,9
run-2020-2-29-9-27-26.288428306,3,20,9,11
run-2020-2-29-9-27-26.288428306,4,21,9,12
run-2020-2-29-9-27-26.288428306,5,28,15,13
run-2020-2-29-9-27-26.288428306,6,31,16,15
run-2020-2-29-9-27-26.288428306,7,37,21,16
run-2020-2-29-9-27-26.288428306,8,38,18,20
run-2020-2-29-9-27-26.288428306,9,39,15,24
run-2020-2-29-9-27-26.288428306,10,42,15,27
run-2020-2-29-9-27-26.288428306,11,44,15,29
run-2020-2-29-9-27-26.288428306,12,49,20,29
run-2020-2-29-9-27-26.288428306,13,53,23,30
run-2020-2-29-9-27-26.288428306,14,58,24,34
run-2020-2-29-9-27-26.288428306,15,63,27,36
run-2020-2-29-9-27-26.288428306,16,67,25,42
run-2020-2-29-9-27-26.288428306,17,71,26,45
run-2020-2-29-9-27-26.288428306,18,78,29,49
run-2020-2-29-9-27-26.288428306,19,81,28,53
run-2020-2-29-9-27-26.288428306,20,84,28,56
run-2020-2-29-9-27-26.288428306,21,85,27,58
run-2020-2-29-9-27-26.288428306,22,91,33,58
run-2020-2-29-9-27-26.288428306,23,92,31,61
run-2020-2-29-9-27-26.288428306,24,95,30,65
run-2020-2-29-9-27-26.288428306,25,99,33,66
run-2020-2-29-9-27-26.288428306,26,103,33,70
run-2020-2-29-9-27-26.288428306,27,107,34,73
run-2020-2-29-9-27-26.288428306,28,108,32,76
run-2020-2-29-9-27-26.288428306,29,114,37,77
run-2020-2-29-9-27-26.288428306,30,118,40,78
run-2020-2-29-9-27-26.288428306,31,121,42,79
run-2020-2-29-9-27-26.288428306,32,125,44,81
run-2020-2-29-9-27-26.288428306,33,128,44,84
run-2020-2-29-9-27-26.288428306,34,132,46,86
run-2020-2-29-9-27-26.288428306,35,136,45,91
run-2020-2-29-9-27-26.288428306,36,137,42,95
run-2020-2-29-9-27-26.288428306,37,140,43,97
run-2020-2-29-9-27-26.288428306,38,143,42,101
run-2020-2-29-9-27-26.288428306,39,145,41,104
run-2020-2-29-9-27-26.288428306,40,148,42,106
run-2020-2-29-9-27-26.288428306,41,154,48,106
run-2020-2-29-9-27-26.288428306,42,158,51,107
run-2020-2-29-9-27-26.288428306,43,160,51,109
run-2020-2-29-9-27-26.288428306,44,163,52,111
run-2020-2-29-9-27-26.288428306,45,169,52,117
run-2020-2-29-9-27-26.288428306,46,175,56,119
run-2020-2-29-9-27-26.288428306,47,178,54,124
run-2020-2-29-9-27-26.288428306,48,180,54,126
run-2020-2-29-9-27-26.288428306,49,182,54,128
run-2020-2-29-9-27-26.288428306,50,182,52,130
run-2020-2-29-9-27-26.288428306,51,184,48,136
run-2020-2-29-9-27-26.288428306,52,190,49,141
run-2020-2-29-9-27-26.288428306,53,196,51,145
run-2020-2-29-9-27-26.288428306,54,202,55,147
run-2020-2-29-9-27-26.288428306,55,205,51,154
run-2020-2-29-9-27-26.288428306,56,207,48,159
run-2020-2-29-9-27-26.288428306,57,211,44,167
run-2020-2-29-9-27-26.288428306,58,215,47,168
run-2020-2-29-9-27-26.288428306,59,218,47,171
run-2020-2-29-9-27-26.288428306,60,223,47,176
run-2020-2-29-9-27-26.288428306,61,227,45,182
run-2020-2-29-9-27-26.288428306,62,230,44,186
run-2020-2-29-9-27-26.288428306,63,238,48,190
run-2020-2-29-9-27-26.288428306,64,243,49,194
run-2020-2-29-9-27-26.288428306,65,248,50,198
run-2020-2-29-9-27-26.288428306,66,250,48,202
run-2020-2-29-9-27-26.288428306,67,253,46,207
run-2020-2-29-9-27-26.288428306,68,255,46,209
run-2020-2-29-9-27-26.288428306,69,257,46,211
run-2020-2-29-9-27-26.288428306,70,258,45,213
run-2020-2-29-9-27-26.288428306,71,260,45,215
run-2020-2-29-9-27-26.288428306,72,262,44,218
run-2020-2-29-9-27-26.288428306,73,268,46,222
run-2020-2-29-9-27-26.288428306,74,270,42,228
run-2020-2-29-9-27-26.288428306,75,274,44,230
run-2020-2-29-9-27-26.288428306,76,278,42,236
run-2020-2-29-9-27-26.288428306,77,281,40,241
run-2020-2-29-9-27-26.288428306,78,284,43,241
run-2020-2-29-9-27-26.288428306,79,292,47,245
run-2020-2-29-9-27-26.288428306,80,294,44,250
run-2020-2-29-9-27-26.288428306,81,298,42,256
run-2020-2-29-9-27-26.288428306,82,299,40,259
run-2020-2-29-9-27-26.288428306,83,303,40,263
run-2020-2-29-9-27-26.288428306,84,305,41,264
run-2020-2-29-9-27-26.288428306,85,308,40,268
run-2020-2-29-9-27-26.288428306,86,310,38,272
run-2020-2-29-9-27-26.288428306,87,314,39,275
run-2020-2-29-9-27-26.288428306,88,322,44,278
run-2020-2-29-9-27-26.288428306,89,323,44,279
run-2020-2-29-9-27-26.288428306,90,330,47,283
run-2020-2-29-9-27-26.288428306,91,334,47,287
run-2020-2-29-9-27-26.288428306,92,339,48,291
run-2020-2-29-9-27-26.288428306,93,343,45,298
run-2020-2-29-9-27-26.288428306,94,349,48,301
run-2020-2-29-9-27-26.288428306,95,353,49,304
run-2020-2-29-9-27-26.288428306,96,360,50,310
run-2020-2-29-9-27-26.288428306,97,365,47,318
run-2020-2-29-9-27-26.288428306,98,367,46,321
run-2020-2-29-9-27-26.288428306,99,373,43,330
