Source,Target
ae3311be-5242-11ea-99fd-43d82fcdfda9,ae3450e2-5242-11ea-9407-6b65242a5d38
ae3450e2-5242-11ea-9407-6b65242a5d38,ae3461e0-5242-11ea-930d-9bf65e32f3c4
ae31851a-5242-11ea-81cb-4b67dc9c57c4,ae347284-5242-11ea-85b6-6f1aa072ca3f
ae31db6e-5242-11ea-afc5-b7649848c917,ae3485bc-5242-11ea-87dd-070cb949acae
ae328e9c-5242-11ea-9555-1750697e04c1,ae3494a8-5242-11ea-9035-8fc195fae833
ae315202-5242-11ea-b270-2fb6542dbf6c,ae34a4fc-5242-11ea-bf7d-53bbc5801b73
ae3440f2-5242-11ea-9dc2-4717de5cda85,ae34b546-5242-11ea-aa96-afddf798046c
ae34b546-5242-11ea-aa96-afddf798046c,ae34c608-5242-11ea-8971-cf365abe0715
ae321f8e-5242-11ea-9de0-f3dec227a301,ae34d454-5242-11ea-b63d-2725d2cb4934
ae32d0f0-5242-11ea-9317-0fae846e60c9,ae34f3da-5242-11ea-94c3-3338ae83e3d9
ae3461e0-5242-11ea-930d-9bf65e32f3c4,ae34f48e-5242-11ea-ab9a-a3ce1612191e
ae31b648-5242-11ea-a13a-2777d89b31b0,ae350262-5242-11ea-803c-6ff728b0fd9c
ae3433dc-5242-11ea-a9a3-1b3edb56a6ec,ae351216-5242-11ea-889b-dbcadefb20da
ae351216-5242-11ea-889b-dbcadefb20da,ae352440-5242-11ea-840e-6fad61cdacc5
ae3485bc-5242-11ea-87dd-070cb949acae,ae3535ac-5242-11ea-bf1c-3b3b29874e9a
ae32d0f0-5242-11ea-9317-0fae846e60c9,ae354754-5242-11ea-98fe-3b34c1f9121c
ae350262-5242-11ea-803c-6ff728b0fd9c,ae3557a8-5242-11ea-9ce1-4f4d4a78eb88
ae323ece-5242-11ea-af77-f331ccd72fe2,ae356b9e-5242-11ea-abeb-376feb6feb5e
ae33738e-5242-11ea-91f6-07363349b548,ae357c56-5242-11ea-aa70-c327c04c783a
ae31d04c-5242-11ea-ba2b-cfcaba7d1f53,ae358c00-5242-11ea-84b5-ebafabd064a3
ae33927e-5242-11ea-a21a-d3f7de0578b4,ae359bb4-5242-11ea-9a60-4b6f8e64fbec
ae34c608-5242-11ea-8971-cf365abe0715,ae35af96-5242-11ea-86e5-b755ebb1d2eb
ae32bf48-5242-11ea-a25b-d3e2a47806a6,ae35bb62-5242-11ea-b3d4-6b45fc3d06e7
ae356b9e-5242-11ea-abeb-376feb6feb5e,ae35c9ea-5242-11ea-8ef3-67ff49e4de8d
ae333b9e-5242-11ea-ad97-5f392967ca64,ae35d818-5242-11ea-bab4-97981e600d70
ae34f48e-5242-11ea-ab9a-a3ce1612191e,ae35e632-5242-11ea-aaf3-5b7ef47aec58
ae33bc86-5242-11ea-a46c-4b7a81e40448,ae35f866-5242-11ea-a1cf-43883a264602
ae31a626-5242-11ea-ade6-5b5f9c8f87f3,ae36096e-5242-11ea-843d-bb14c9c87c33
ae35c9ea-5242-11ea-8ef3-67ff49e4de8d,ae361bac-5242-11ea-9d35-ef9a1b4da31d
ae34d454-5242-11ea-b63d-2725d2cb4934,ae362f2a-5242-11ea-a8da-6784b6541d98
ae34f3da-5242-11ea-94c3-3338ae83e3d9,ae363d9e-5242-11ea-8a08-3bcf4d71673c
ae310d42-5242-11ea-9727-5b48a7afcdac,ae364c80-5242-11ea-beb8-97c45454a90a
ae352440-5242-11ea-840e-6fad61cdacc5,ae365ab8-5242-11ea-89bb-1f4dbfe2fa8f
ae358c00-5242-11ea-84b5-ebafabd064a3,ae366b34-5242-11ea-b83c-03e1910b5acb
ae356b9e-5242-11ea-abeb-376feb6feb5e,ae3678e0-5242-11ea-86ad-9b59cb2f2f77
ae324efa-5242-11ea-8219-6320fa269917,ae368c86-5242-11ea-a07a-5bf297c1ff5e
ae33d1bc-5242-11ea-83bb-33a3d5c12c88,ae3699d8-5242-11ea-9945-a3481c46d531
ae320eea-5242-11ea-84df-df4636b3c090,ae36a964-5242-11ea-a42d-2b6c7e791751
ae3433dc-5242-11ea-a9a3-1b3edb56a6ec,ae36b792-5242-11ea-8d2e-db56177ac892
ae340c54-5242-11ea-b287-c70a3eed72b9,ae36c7f0-5242-11ea-afe0-3b0378fe1f2f
ae33d1bc-5242-11ea-83bb-33a3d5c12c88,ae36d902-5242-11ea-a9a3-53445f7c6857
ae340c54-5242-11ea-b287-c70a3eed72b9,ae36e6ea-5242-11ea-844a-f72f52375357
ae33927e-5242-11ea-a21a-d3f7de0578b4,ae36f39c-5242-11ea-a458-5baa73ef4b21
ae310d42-5242-11ea-9727-5b48a7afcdac,ae3703a0-5242-11ea-831c-4f648c15e04d
ae33927e-5242-11ea-a21a-d3f7de0578b4,ae371714-5242-11ea-ba2c-9721ea0c655c
ae31ebd6-5242-11ea-bc3b-5fc647a3a2b6,ae3738c0-5242-11ea-8ba4-fbdaceb1bf47
ae3535ac-5242-11ea-bf1c-3b3b29874e9a,ae37257e-5242-11ea-ac80-0bc0bd68b7e1
ae36096e-5242-11ea-843d-bb14c9c87c33,ae374e96-5242-11ea-b6d4-b7e96843582a
ae363d9e-5242-11ea-8a08-3bcf4d71673c,ae375b98-5242-11ea-a988-d35c805b3c68
ae368c86-5242-11ea-a07a-5bf297c1ff5e,ae3769f8-5242-11ea-8b17-1fca41c5c070
ae332a50-5242-11ea-b49d-a39bb0ceac43,ae377984-5242-11ea-a995-a3d2b372f566
ae329f18-5242-11ea-b38d-d71fe60d20e8,ae378bcc-5242-11ea-9e68-837eaba34e56
ae31b648-5242-11ea-a13a-2777d89b31b0,ae379c02-5242-11ea-b984-cb609f96a445
ae310d42-5242-11ea-9727-5b48a7afcdac,ae37ab16-5242-11ea-8123-9726f9b9299c
ae31851a-5242-11ea-81cb-4b67dc9c57c4,ae37b98a-5242-11ea-83c4-27b1ac9d7917
ae34a4fc-5242-11ea-bf7d-53bbc5801b73,ae37ca2e-5242-11ea-8f00-9b5aebe29657
ae37257e-5242-11ea-ac80-0bc0bd68b7e1,ae37dde8-5242-11ea-b43b-1f3db4d8aef2
ae312f34-5242-11ea-ae3b-7f66be0a7dfe,ae37ee6e-5242-11ea-9db4-b358c2b41259
ae351216-5242-11ea-889b-dbcadefb20da,ae38008e-5242-11ea-87f4-27ebc7922af8
ae37ee6e-5242-11ea-9db4-b358c2b41259,ae381650-5242-11ea-b187-739a210b9d76
ae35af96-5242-11ea-86e5-b755ebb1d2eb,ae382cb2-5242-11ea-a9c3-33e056c4ab2d
ae3678e0-5242-11ea-86ad-9b59cb2f2f77,ae3840ee-5242-11ea-bf7b-a786836602f9
ae359bb4-5242-11ea-9a60-4b6f8e64fbec,ae3852e6-5242-11ea-92e4-ff55005a18ec
ae322cb8-5242-11ea-a9f5-f3334ef71f9e,ae38627c-5242-11ea-b405-cbcbd9334681
ae366b34-5242-11ea-b83c-03e1910b5acb,ae38728a-5242-11ea-b0b7-778cc7d71bf7
ae36a964-5242-11ea-a42d-2b6c7e791751,ae387ed8-5242-11ea-86b9-23eb1757f14d
ae359bb4-5242-11ea-9a60-4b6f8e64fbec,ae388dc4-5242-11ea-b4c2-d77bb60a503a
ae37b98a-5242-11ea-83c4-27b1ac9d7917,ae389cf6-5242-11ea-8ba1-0f208ab80975
ae388dc4-5242-11ea-b4c2-d77bb60a503a,ae38ad0e-5242-11ea-9671-db14dbc4cfa6
ae347284-5242-11ea-85b6-6f1aa072ca3f,ae38bcf4-5242-11ea-9814-abc3acca0d19
ae34a4fc-5242-11ea-bf7d-53bbc5801b73,ae38cece-5242-11ea-ab19-338c39c5ab73
ae33a142-5242-11ea-ba05-a3410325e787,ae38dd10-5242-11ea-baae-cfb210d9156c
ae37ca2e-5242-11ea-8f00-9b5aebe29657,ae38e9f4-5242-11ea-bbab-a32ecf0768fc
ae38627c-5242-11ea-b405-cbcbd9334681,ae38fc8c-5242-11ea-99a7-eb3b34cab76d
ae377984-5242-11ea-a995-a3d2b372f566,ae390a10-5242-11ea-8fae-034b7c02ac78
ae3381ee-5242-11ea-bdd3-dff7d4868845,ae39183e-5242-11ea-a9ef-db4d8a71b52e
ae38008e-5242-11ea-87f4-27ebc7922af8,ae392734-5242-11ea-8dfe-77a8c44f44ff
ae3311be-5242-11ea-99fd-43d82fcdfda9,ae393576-5242-11ea-b123-5fec59352505
ae3738c0-5242-11ea-8ba4-fbdaceb1bf47,ae394624-5242-11ea-87ee-7f20a5545bbc
ae315202-5242-11ea-b270-2fb6542dbf6c,ae395420-5242-11ea-8feb-d3139a8fc455
ae310d42-5242-11ea-9727-5b48a7afcdac,ae396528-5242-11ea-9589-1fda98670b80
ae3557a8-5242-11ea-9ce1-4f4d4a78eb88,ae397464-5242-11ea-811d-03e20923e254
ae31f9b4-5242-11ea-b315-b70b99276ed2,ae39827e-5242-11ea-a6b8-3751248ef0cc
ae321f8e-5242-11ea-9de0-f3dec227a301,ae398f80-5242-11ea-832d-6bd6f50f32ec
ae320eea-5242-11ea-84df-df4636b3c090,ae399f7a-5242-11ea-8656-973e6e374298
ae358c00-5242-11ea-84b5-ebafabd064a3,ae39af42-5242-11ea-9ad3-e30214cb0901
ae34c608-5242-11ea-8971-cf365abe0715,ae39bdb6-5242-11ea-a548-dfcf768e06c9
ae394624-5242-11ea-87ee-7f20a5545bbc,ae39cc0c-5242-11ea-8547-6f5cd569c7e7
ae34a4fc-5242-11ea-bf7d-53bbc5801b73,ae39db02-5242-11ea-bdf9-cbf031a117b4
ae381650-5242-11ea-b187-739a210b9d76,ae39e994-5242-11ea-9e21-033e90d4d13f
ae393576-5242-11ea-b123-5fec59352505,ae39fb5a-5242-11ea-a705-8b62989376d9
ae359bb4-5242-11ea-9a60-4b6f8e64fbec,ae3a0974-5242-11ea-87af-53b2371a5884
ae3738c0-5242-11ea-8ba4-fbdaceb1bf47,ae3a1770-5242-11ea-b94f-579e0b2bb044
ae321f8e-5242-11ea-9de0-f3dec227a301,ae3a25da-5242-11ea-9c4b-4b2d679890af
ae354754-5242-11ea-98fe-3b34c1f9121c,ae3a361a-5242-11ea-b3c5-4fb5cc7f75a2
